Ken Rosewall,ken-rosewall/r075,Mervyn Rose,mervyn-rose/r163,60 63 64,Australian Championships,Grand Slam,1953.01.09,Outdoor,Grass,Finals
Mervyn Rose,mervyn-rose/r163,Ian Ayre,ian-ayre/ad80,46 46 61 64 64,Australian Championships,Grand Slam,1953.01.09,Outdoor,Grass,Semi-Finals
Ken Rosewall,ken-rosewall/r075,E. Victor Seixas,e.-victor-seixas/s240,63 46 75 64,Australian Championships,Grand Slam,1953.01.09,Outdoor,Grass,Semi-Finals
Mervyn Rose,mervyn-rose/r163,"Hamilton ""Ham"" Richardson","hamilton-""ham""-richardson/r160",810 64 16 86 75,Australian Championships,Grand Slam,1953.01.09,Outdoor,Grass,Quarter-Finals
E. Victor Seixas,e.-victor-seixas/s240,Geoff Brown,geoff-brown/b309,64 64 75,Australian Championships,Grand Slam,1953.01.09,Outdoor,Grass,Quarter-Finals
Ken Rosewall,ken-rosewall/r075,Straight Clark,straight-clark/ci34,64 64 62,Australian Championships,Grand Slam,1953.01.09,Outdoor,Grass,Quarter-Finals
Ian Ayre,ian-ayre/ad80,Clive Wilderspin,clive-wilderspin/w751,64 119 16 86,Australian Championships,Grand Slam,1953.01.09,Outdoor,Grass,Quarter-Finals
Mervyn Rose,mervyn-rose/r163,Adrian Quist,adrian-quist/q964,64 36 62 64,Australian Championships,Grand Slam,1953.01.09,Outdoor,Grass,Round of 16
E. Victor Seixas,e.-victor-seixas/s240,Neale Fraser,neale-fraser/f113,64 60 64,Australian Championships,Grand Slam,1953.01.09,Outdoor,Grass,Round of 16
Ken Rosewall,ken-rosewall/r075,Donald Tregonning,donald-tregonning/td73,62 63 46 63,Australian Championships,Grand Slam,1953.01.09,Outdoor,Grass,Round of 16
Ian Ayre,ian-ayre/ad80,Fausto Gardini,fausto-gardini/gg46,63 86 97,Australian Championships,Grand Slam,1953.01.09,Outdoor,Grass,Round of 16
Clive Wilderspin,clive-wilderspin/w751,Lew Hoad,lew-hoad/h132,97 62 97,Australian Championships,Grand Slam,1953.01.09,Outdoor,Grass,Round of 16
"Hamilton ""Ham"" Richardson","hamilton-""ham""-richardson/r160",Rex Hartwig,rex-hartwig/h539,46 61 64 46 60,Australian Championships,Grand Slam,1953.01.09,Outdoor,Grass,Round of 16
Geoff Brown,geoff-brown/b309,Jack Arkinstall,jack-arkinstall/ad75,63 62 64,Australian Championships,Grand Slam,1953.01.09,Outdoor,Grass,Round of 16
Straight Clark,straight-clark/ci34,Don Candy,don-candy/c182,61 119 79 63,Australian Championships,Grand Slam,1953.01.09,Outdoor,Grass,Round of 16
Mervyn Rose,mervyn-rose/r163,Barry Green,barry-green/gg28,60 61 61,Australian Championships,Grand Slam,1953.01.09,Outdoor,Grass,Round of 32
E. Victor Seixas,e.-victor-seixas/s240,Ron Reid,ron-reid/re40,62 64 61,Australian Championships,Grand Slam,1953.01.09,Outdoor,Grass,Round of 32
Ken Rosewall,ken-rosewall/r075,John Diggle,john-diggle/dd45,64 60 63,Australian Championships,Grand Slam,1953.01.09,Outdoor,Grass,Round of 32
Fausto Gardini,fausto-gardini/gg46,Cedric Mason,cedric-mason/m943,61 62 61,Australian Championships,Grand Slam,1953.01.09,Outdoor,Grass,Round of 32
Lew Hoad,lew-hoad/h132,Allan Kendal,allan-kendal/k611,75 63 63,Australian Championships,Grand Slam,1953.01.09,Outdoor,Grass,Round of 32
"Hamilton ""Ham"" Richardson","hamilton-""ham""-richardson/r160",David Yates,david-yates/y233,64 63 62,Australian Championships,Grand Slam,1953.01.09,Outdoor,Grass,Round of 32
Geoff Brown,geoff-brown/b309,Keith Rogers,keith-rogers/re41,75 62 60,Australian Championships,Grand Slam,1953.01.09,Outdoor,Grass,Round of 32
Straight Clark,straight-clark/ci34,R. Keith Hawton,r.-keith-hawton/hc86,60 64 60,Australian Championships,Grand Slam,1953.01.09,Outdoor,Grass,Round of 32
Don Candy,don-candy/c182,R. Tim Cawthorn,r.-tim-cawthorn/ci52,60 61 61,Australian Championships,Grand Slam,1953.01.09,Outdoor,Grass,Round of 32
Rex Hartwig,rex-hartwig/h539,Peter Molloy,peter-molloy/mq64,62 36 63 61,Australian Championships,Grand Slam,1953.01.09,Outdoor,Grass,Round of 32
Ian Ayre,ian-ayre/ad80,Anthony Ryan,anthony-ryan/r158,62 60 61,Australian Championships,Grand Slam,1953.01.09,Outdoor,Grass,Round of 32
Neale Fraser,neale-fraser/f113,G. Harvey,g.-harvey/hc93,60 60 60,Australian Championships,Grand Slam,1953.01.09,Outdoor,Grass,Round of 32
Jack Arkinstall,jack-arkinstall/ad75,Billy R. Knight,billy-r.-knight/k106,60 60 75,Australian Championships,Grand Slam,1953.01.09,Outdoor,Grass,Round of 32
Adrian Quist,adrian-quist/q964,Eric Stewart,eric-stewart/st20,63 62 60,Australian Championships,Grand Slam,1953.01.09,Outdoor,Grass,Round of 32
Donald Tregonning,donald-tregonning/td73,Brian Tobin,brian-tobin/t376,46 75 86 36 64,Australian Championships,Grand Slam,1953.01.09,Outdoor,Grass,Round of 32
Clive Wilderspin,clive-wilderspin/w751,John O'Brien,john-o'brien/o533,63 64 64,Australian Championships,Grand Slam,1953.01.09,Outdoor,Grass,Round of 32
Ken Rosewall,ken-rosewall/r075,E. Victor Seixas,e.-victor-seixas/s240,63 64 16 62,French Championships,Grand Slam,1953.05.23,Outdoor,Clay,Finals
E. Victor Seixas,e.-victor-seixas/s240,Jaroslav Drobny,jaroslav-drobny/d531,63 62 36 63,French Championships,Grand Slam,1953.05.23,Outdoor,Clay,Semi-Finals
Ken Rosewall,ken-rosewall/r075,Enrique Morea,enrique-morea/mp49,26 62 64 06 62,French Championships,Grand Slam,1953.05.23,Outdoor,Clay,Semi-Finals
Jaroslav Drobny,jaroslav-drobny/d531,Fausto Gardini,fausto-gardini/gg46,63 61 16 64,French Championships,Grand Slam,1953.05.23,Outdoor,Clay,Quarter-Finals
Enrique Morea,enrique-morea/mp49,Gardnar Mulloy,gardnar-mulloy/m273,68 63 86 63,French Championships,Grand Slam,1953.05.23,Outdoor,Clay,Quarter-Finals
Ken Rosewall,ken-rosewall/r075,Felicisimo Ampon,felicisimo-ampon/ad58,62 61 61,French Championships,Grand Slam,1953.05.23,Outdoor,Clay,Quarter-Finals
E. Victor Seixas,e.-victor-seixas/s240,Lew Hoad,lew-hoad/h132,63 63 64,French Championships,Grand Slam,1953.05.23,Outdoor,Clay,Quarter-Finals
Jaroslav Drobny,jaroslav-drobny/d531,Rex Hartwig,rex-hartwig/h539,62 26 64 62,French Championships,Grand Slam,1953.05.23,Outdoor,Clay,Round of 16
Gardnar Mulloy,gardnar-mulloy/m273,Raymundo Deyro,raymundo-deyro/dd05,86 46 63 63,French Championships,Grand Slam,1953.05.23,Outdoor,Clay,Round of 16
Ken Rosewall,ken-rosewall/r075,Wladyslaw Skonecki,wladyslaw-skonecki/ss73,62 63 62,French Championships,Grand Slam,1953.05.23,Outdoor,Clay,Round of 16
Lew Hoad,lew-hoad/h132,Giuseppe Merlo,giuseppe-merlo/m276,61 64 62,French Championships,Grand Slam,1953.05.23,Outdoor,Clay,Round of 16
E. Victor Seixas,e.-victor-seixas/s240,Sven Davidson,sven-davidson/dd18,61 64 64,French Championships,Grand Slam,1953.05.23,Outdoor,Clay,Round of 16
Felicisimo Ampon,felicisimo-ampon/ad58,Budge Patty,budge-patty/pi25,64 62 64,French Championships,Grand Slam,1953.05.23,Outdoor,Clay,Round of 16
Enrique Morea,enrique-morea/mp49,Mervyn Rose,mervyn-rose/r163,63 86 36 68 63,French Championships,Grand Slam,1953.05.23,Outdoor,Clay,Round of 16
Fausto Gardini,fausto-gardini/gg46,Tut Bartzen,tut-bartzen/bn94,26 63 46 64 64,French Championships,Grand Slam,1953.05.23,Outdoor,Clay,Round of 16
Jaroslav Drobny,jaroslav-drobny/d531,Jean Ducos De La Haille,jean-ducos-de-la-haille/dd48,64 63 62,French Championships,Grand Slam,1953.05.23,Outdoor,Clay,Round of 32
Gardnar Mulloy,gardnar-mulloy/m273,Gerard Pilet,gerard-pilet/p185,62 63 64,French Championships,Grand Slam,1953.05.23,Outdoor,Clay,Round of 32
Ken Rosewall,ken-rosewall/r075,Henri Pellizza,henri-pellizza/p578,60 63 60,French Championships,Grand Slam,1953.05.23,Outdoor,Clay,Round of 32
Lew Hoad,lew-hoad/h132,Jean Claude Molinari,jean-claude-molinari/m257,61 36 26 60 61,French Championships,Grand Slam,1953.05.23,Outdoor,Clay,Round of 32
E. Victor Seixas,e.-victor-seixas/s240,Bernard Destremau,bernard-destremau/dd06,61 61 61,French Championships,Grand Slam,1953.05.23,Outdoor,Clay,Round of 32
Budge Patty,budge-patty/pi25,Francis Nys,francis-nys/n794,63 64 64,French Championships,Grand Slam,1953.05.23,Outdoor,Clay,Round of 32
Mervyn Rose,mervyn-rose/r163,Robert Abdesselam,robert-abdesselam/ad60,63 75 46 62,French Championships,Grand Slam,1953.05.23,Outdoor,Clay,Round of 32
Fausto Gardini,fausto-gardini/gg46,Jean-Noel Grinda,jean-noel-grinda/g331,64 62 61,French Championships,Grand Slam,1953.05.23,Outdoor,Clay,Round of 32
Tut Bartzen,tut-bartzen/bn94,Staffan Stockenberg,staffan-stockenberg/ss75,62 36 62 60,French Championships,Grand Slam,1953.05.23,Outdoor,Clay,Round of 32
Enrique Morea,enrique-morea/mp49,Horst Hermann,horst-hermann/hc95,63 64 62,French Championships,Grand Slam,1953.05.23,Outdoor,Clay,Round of 32
Felicisimo Ampon,felicisimo-ampon/ad58,Christian Grandet,christian-grandet/gg16,61 63 63,French Championships,Grand Slam,1953.05.23,Outdoor,Clay,Round of 32
Sven Davidson,sven-davidson/dd18,Marcel Bernard,marcel-bernard/bo26,62 10 (RET),French Championships,Grand Slam,1953.05.23,Outdoor,Clay,Round of 32
Giuseppe Merlo,giuseppe-merlo/m276,Paul Remy,paul-remy/re29,62 62 62,French Championships,Grand Slam,1953.05.23,Outdoor,Clay,Round of 32
Wladyslaw Skonecki,wladyslaw-skonecki/ss73,Torsten Johansson,torsten-johansson/j589,61 62 62,French Championships,Grand Slam,1953.05.23,Outdoor,Clay,Round of 32
Raymundo Deyro,raymundo-deyro/dd05,Ian Ayre,ian-ayre/ad80,46 60 62 63,French Championships,Grand Slam,1953.05.23,Outdoor,Clay,Round of 32
Rex Hartwig,rex-hartwig/h539,Armando Vieira,armando-vieira/v879,86 75 75,French Championships,Grand Slam,1953.05.23,Outdoor,Clay,Round of 32
Jaroslav Drobny,jaroslav-drobny/d531,Alain Bouteleux,alain-bouteleux/b821,61 60 60,French Championships,Grand Slam,1953.05.23,Outdoor,Clay,Round of 64
Gardnar Mulloy,gardnar-mulloy/m273,Gino Mezzi,gino-mezzi/mq42,62 61 62,French Championships,Grand Slam,1953.05.23,Outdoor,Clay,Round of 64
Ken Rosewall,ken-rosewall/r075,G. Scribani,g.-scribani/st22,61 63 63,French Championships,Grand Slam,1953.05.23,Outdoor,Clay,Round of 64
Lew Hoad,lew-hoad/h132,Paul Jalabert,paul-jalabert/j590,46 64 60 60,French Championships,Grand Slam,1953.05.23,Outdoor,Clay,Round of 64
E. Victor Seixas,e.-victor-seixas/s240,Rolando Del Bello,rolando-del-bello/dd57,61 62 57 63,French Championships,Grand Slam,1953.05.23,Outdoor,Clay,Round of 64
Budge Patty,budge-patty/pi25,Umberto Bergamo,umberto-bergamo/bo17,63 46 63 62,French Championships,Grand Slam,1953.05.23,Outdoor,Clay,Round of 64
Mervyn Rose,mervyn-rose/r163,Petko Milojkovic,petko-milojkovic/mq76,61 97 63,French Championships,Grand Slam,1953.05.23,Outdoor,Clay,Round of 64
Fausto Gardini,fausto-gardini/gg46,Wayne Van Voorhees,wayne-van-voorhees/v899,61 63 63,French Championships,Grand Slam,1953.05.23,Outdoor,Clay,Round of 64
Tut Bartzen,tut-bartzen/bn94,Benny Berthet,benny-berthet/bo35,62 62 61,French Championships,Grand Slam,1953.05.23,Outdoor,Clay,Round of 64
Enrique Morea,enrique-morea/mp49,Jacques Peten,jacques-peten/pi51,62 63 60,French Championships,Grand Slam,1953.05.23,Outdoor,Clay,Round of 64
Felicisimo Ampon,felicisimo-ampon/ad58,Xavier Perreau Saussine,xavier-perreau-saussine/ss84,60 46 62 61,French Championships,Grand Slam,1953.05.23,Outdoor,Clay,Round of 64
Sven Davidson,sven-davidson/dd18,Geoff Paish,geoff-paish/pa78,63 63 62,French Championships,Grand Slam,1953.05.23,Outdoor,Clay,Round of 64
Paul Remy,paul-remy/re29,Bryan Woodroffe,bryan-woodroffe/w809,75 64 63,French Championships,Grand Slam,1953.05.23,Outdoor,Clay,Round of 64
Torsten Johansson,torsten-johansson/j589,Gil De Kermadec,gil-de-kermadec/dd17,63 97 16 63,French Championships,Grand Slam,1953.05.23,Outdoor,Clay,Round of 64
Raymundo Deyro,raymundo-deyro/dd05,Josip Palada,josip-palada/pi39,86 63 46 (RET),French Championships,Grand Slam,1953.05.23,Outdoor,Clay,Round of 64
Rex Hartwig,rex-hartwig/h539,Giovanni Cucelli,giovanni-cucelli/ci80,86 75 75,French Championships,Grand Slam,1953.05.23,Outdoor,Clay,Round of 64
Robert Abdesselam,robert-abdesselam/ad60,Ian Vermaak,ian-vermaak/v874,61 63 75,French Championships,Grand Slam,1953.05.23,Outdoor,Clay,Round of 64
Ian Ayre,ian-ayre/ad80,Marcello Del Bello,marcello-del-bello/dd55,64 64 62,French Championships,Grand Slam,1953.05.23,Outdoor,Clay,Round of 64
Marcel Bernard,marcel-bernard/bo26,Yves Thieullent,yves-thieullent/td71,64 63 26 97,French Championships,Grand Slam,1953.05.23,Outdoor,Clay,Round of 64
Jean Ducos De La Haille,jean-ducos-de-la-haille/dd48,Vladimir Petrovic,vladimir-petrovic/ph93,75 61 61,French Championships,Grand Slam,1953.05.23,Outdoor,Clay,Round of 64
Bernard Destremau,bernard-destremau/dd06,Marcel Lemasson,marcel-lemasson/le61,62 61 60,French Championships,Grand Slam,1953.05.23,Outdoor,Clay,Round of 64
Christian Grandet,christian-grandet/gg16,Robert Haillet,robert-haillet/h131,(W/O),French Championships,Grand Slam,1953.05.23,Outdoor,Clay,Round of 64
Jean-Noel Grinda,jean-noel-grinda/g331,Johann Kupferburger,johann-kupferburger/kf76,60 63 64,French Championships,Grand Slam,1953.05.23,Outdoor,Clay,Round of 64
Horst Hermann,horst-hermann/hc95,Jean-Paul Jauffret,jean-paul-jauffret/j611,63 62 (RET),French Championships,Grand Slam,1953.05.23,Outdoor,Clay,Round of 64
Giuseppe Merlo,giuseppe-merlo/m276,Alain Lemyze,alain-lemyze/le62,61 62 64,French Championships,Grand Slam,1953.05.23,Outdoor,Clay,Round of 64
Jean Claude Molinari,jean-claude-molinari/m257,Ivko Plecevic,ivko-plecevic/pi22,62 61 61,French Championships,Grand Slam,1953.05.23,Outdoor,Clay,Round of 64
Francis Nys,francis-nys/n794,Marcel H. Schaff,marcel-h.-schaff/st10,62 64 63,French Championships,Grand Slam,1953.05.23,Outdoor,Clay,Round of 64
Henri Pellizza,henri-pellizza/p578,Russell Seymour,russell-seymour/st14,75 61 63,French Championships,Grand Slam,1953.05.23,Outdoor,Clay,Round of 64
Gerard Pilet,gerard-pilet/p185,Harry Hopman,harry-hopman/hd04,(W/O),French Championships,Grand Slam,1953.05.23,Outdoor,Clay,Round of 64
Wladyslaw Skonecki,wladyslaw-skonecki/ss73,Orlando Sirola,orlando-sirola/ss58,68 61 62 75,French Championships,Grand Slam,1953.05.23,Outdoor,Clay,Round of 64
Staffan Stockenberg,staffan-stockenberg/ss75,Clive Wilderspin,clive-wilderspin/w751,63 62 26 61,French Championships,Grand Slam,1953.05.23,Outdoor,Clay,Round of 64
Armando Vieira,armando-vieira/v879,Anthony Starte,anthony-starte/st17,64 61 62,French Championships,Grand Slam,1953.05.23,Outdoor,Clay,Round of 64
Ken Rosewall,ken-rosewall/r075,Christian Boussus,christian-boussus/bo58,61 61 61,French Championships,Grand Slam,1953.05.23,Outdoor,Clay,Round of 128
Lew Hoad,lew-hoad/h132,Michel Larcade,michel-larcade/le72,61 64 36 61,French Championships,Grand Slam,1953.05.23,Outdoor,Clay,Round of 128
E. Victor Seixas,e.-victor-seixas/s240,O. Rodriguez,o.-rodriguez/re53,60 62 60,French Championships,Grand Slam,1953.05.23,Outdoor,Clay,Round of 128
Budge Patty,budge-patty/pi25,A. Herzog,a.-herzog/hd06,(W/O),French Championships,Grand Slam,1953.05.23,Outdoor,Clay,Round of 128
Tut Bartzen,tut-bartzen/bn94,Jacques Hode,jacques-hode/hc89,(W/O),French Championships,Grand Slam,1953.05.23,Outdoor,Clay,Round of 128
Enrique Morea,enrique-morea/mp49,Dimitri Sturdza,dimitri-sturdza/s241,62 60 62,French Championships,Grand Slam,1953.05.23,Outdoor,Clay,Round of 128
Felicisimo Ampon,felicisimo-ampon/ad58,M. Zeppenfeldt,m.-zeppenfeldt/z415,62 61 61,French Championships,Grand Slam,1953.05.23,Outdoor,Clay,Round of 128
Sven Davidson,sven-davidson/dd18,Andre Favieres,andre-favieres/f987,62 75 75,French Championships,Grand Slam,1953.05.23,Outdoor,Clay,Round of 128
Paul Remy,paul-remy/re29,Johannes (Hans) Van Dalsum,johannes-(hans)-van-dalsum/v901,61 62 61,French Championships,Grand Slam,1953.05.23,Outdoor,Clay,Round of 128
Torsten Johansson,torsten-johansson/j589,Jacques Malosse,jacques-malosse/mq51,63 75 64,French Championships,Grand Slam,1953.05.23,Outdoor,Clay,Round of 128
Robert Abdesselam,robert-abdesselam/ad60,Rene Buser,rene-buser/bo39,(W/O),French Championships,Grand Slam,1953.05.23,Outdoor,Clay,Round of 128
Umberto Bergamo,umberto-bergamo/bo17,Philippe Chatrier,philippe-chatrier/ci59,62 75 75,French Championships,Grand Slam,1953.05.23,Outdoor,Clay,Round of 128
Marcel Bernard,marcel-bernard/bo26,Henri Zalzal,henri-zalzal/z410,(W/O),French Championships,Grand Slam,1953.05.23,Outdoor,Clay,Round of 128
Benny Berthet,benny-berthet/bo35,A. Sursock,a.-sursock/st36,63 61 63,French Championships,Grand Slam,1953.05.23,Outdoor,Clay,Round of 128
Gil De Kermadec,gil-de-kermadec/dd17,Ch. Pine,ch.-pine/pi55,60 60 61,French Championships,Grand Slam,1953.05.23,Outdoor,Clay,Round of 128
Rolando Del Bello,rolando-del-bello/dd57,A.K.G. Davis,a.k.g.-davis/dd58,(W/O),French Championships,Grand Slam,1953.05.23,Outdoor,Clay,Round of 128
Bernard Destremau,bernard-destremau/dd06,Jacques Jamain,jacques-jamain/j613,61 62 62,French Championships,Grand Slam,1953.05.23,Outdoor,Clay,Round of 128
Christian Grandet,christian-grandet/gg16,G. John,g.-john/j617,61 61 61,French Championships,Grand Slam,1953.05.23,Outdoor,Clay,Round of 128
Jean-Noel Grinda,jean-noel-grinda/g331,Jacques Freling,jacques-freling/fa03,(W/O),French Championships,Grand Slam,1953.05.23,Outdoor,Clay,Round of 128
Robert Haillet,robert-haillet/h131,Antoine Gentien,antoine-gentien/gg56,(W/O),French Championships,Grand Slam,1953.05.23,Outdoor,Clay,Round of 128
Horst Hermann,horst-hermann/hc95,D. Rivkind,d.-rivkind/re50,62 61 64,French Championships,Grand Slam,1953.05.23,Outdoor,Clay,Round of 128
Paul Jalabert,paul-jalabert/j590,Alexander Wellford,alexander-wellford/w810,64 75 64,French Championships,Grand Slam,1953.05.23,Outdoor,Clay,Round of 128
Jean-Paul Jauffret,jean-paul-jauffret/j611,L. Cody,l.-cody/ci77,60 62 60,French Championships,Grand Slam,1953.05.23,Outdoor,Clay,Round of 128
Johann Kupferburger,johann-kupferburger/kf76,Lionel Matton,lionel-matton/mq13,64 61 63,French Championships,Grand Slam,1953.05.23,Outdoor,Clay,Round of 128
Marcel Lemasson,marcel-lemasson/le61,Jacques Thomas,jacques-thomas/td69,16 36 86 61 62,French Championships,Grand Slam,1953.05.23,Outdoor,Clay,Round of 128
Alain Lemyze,alain-lemyze/le62,Guy Delhomme,guy-delhomme/dd49,62 62 62,French Championships,Grand Slam,1953.05.23,Outdoor,Clay,Round of 128
Giuseppe Merlo,giuseppe-merlo/m276,D. Cullum,d.-cullum/ci79,(W/O),French Championships,Grand Slam,1953.05.23,Outdoor,Clay,Round of 128
Petko Milojkovic,petko-milojkovic/mq76,Allen Fox,allen-fox/f956,(W/O),French Championships,Grand Slam,1953.05.23,Outdoor,Clay,Round of 128
Jean Claude Molinari,jean-claude-molinari/m257,Georges Pasquier,georges-pasquier/pi36,62 64 62,French Championships,Grand Slam,1953.05.23,Outdoor,Clay,Round of 128
Francis Nys,francis-nys/n794,Paul Feret,paul-feret/fa02,64 75 63,French Championships,Grand Slam,1953.05.23,Outdoor,Clay,Round of 128
Geoff Paish,geoff-paish/pa78,Raymond Rodel,raymond-rodel/re52,(W/O),French Championships,Grand Slam,1953.05.23,Outdoor,Clay,Round of 128
Henri Pellizza,henri-pellizza/p578,S.A. Rauf,s.a.-rauf/re51,62 61 60,French Championships,Grand Slam,1953.05.23,Outdoor,Clay,Round of 128
Jacques Peten,jacques-peten/pi51,Eduardo Argon,eduardo-argon/ad69,63 64 86,French Championships,Grand Slam,1953.05.23,Outdoor,Clay,Round of 128
Ivko Plecevic,ivko-plecevic/pi22,Paul Desq,paul-desq/dd35,06 64 57 60 75,French Championships,Grand Slam,1953.05.23,Outdoor,Clay,Round of 128
Xavier Perreau Saussine,xavier-perreau-saussine/ss84,Ivan Devroe,ivan-devroe/dd34,36 61 62 63,French Championships,Grand Slam,1953.05.23,Outdoor,Clay,Round of 128
Marcel H. Schaff,marcel-h.-schaff/st10,Paul Toussaint,paul-toussaint/td81,68 63 61 63,French Championships,Grand Slam,1953.05.23,Outdoor,Clay,Round of 128
G. Scribani,g.-scribani/st22,G. Dunklin,g.-dunklin/dd56,61 63 62,French Championships,Grand Slam,1953.05.23,Outdoor,Clay,Round of 128
Russell Seymour,russell-seymour/st14,Jacques Mey,jacques-mey/mq25,68 60 60 62,French Championships,Grand Slam,1953.05.23,Outdoor,Clay,Round of 128
Orlando Sirola,orlando-sirola/ss58,Donald Butler,donald-butler/bo53,64 64 36 64,French Championships,Grand Slam,1953.05.23,Outdoor,Clay,Round of 128
Wladyslaw Skonecki,wladyslaw-skonecki/ss73,Jacques Weiss,jacques-weiss/w794,75 61 75,French Championships,Grand Slam,1953.05.23,Outdoor,Clay,Round of 128
Staffan Stockenberg,staffan-stockenberg/ss75,Roger Dessair,roger-dessair/dd47,(W/O),French Championships,Grand Slam,1953.05.23,Outdoor,Clay,Round of 128
Yves Thieullent,yves-thieullent/td71,R. Cohen,r.-cohen/ci78,75 60 62,French Championships,Grand Slam,1953.05.23,Outdoor,Clay,Round of 128
Wayne Van Voorhees,wayne-van-voorhees/v899,Ilia Panajotovic,ilia-panajotovic/pi27,63 75 26 63,French Championships,Grand Slam,1953.05.23,Outdoor,Clay,Round of 128
Ian Vermaak,ian-vermaak/v874,Vasco Valerio,vasco-valerio/v910,61 62 61,French Championships,Grand Slam,1953.05.23,Outdoor,Clay,Round of 128
Clive Wilderspin,clive-wilderspin/w751,H. Sanders,h.-sanders/st35,63 64 57 68 64,French Championships,Grand Slam,1953.05.23,Outdoor,Clay,Round of 128
Bryan Woodroffe,bryan-woodroffe/w809,Robert Laval,robert-laval/le57,64 64 64,French Championships,Grand Slam,1953.05.23,Outdoor,Clay,Round of 128
E. Victor Seixas,e.-victor-seixas/s240,Kurt Nielsen,kurt-nielsen/n088,97 63 64,Wimbledon,Grand Slam,1953.06.22,Outdoor,Grass,Finals
E. Victor Seixas,e.-victor-seixas/s240,Mervyn Rose,mervyn-rose/r163,64 1012 911 64 63,Wimbledon,Grand Slam,1953.06.22,Outdoor,Grass,Semi-Finals
Kurt Nielsen,kurt-nielsen/n088,Jaroslav Drobny,jaroslav-drobny/d531,64 63 62,Wimbledon,Grand Slam,1953.06.22,Outdoor,Grass,Semi-Finals
Kurt Nielsen,kurt-nielsen/n088,Ken Rosewall,ken-rosewall/r075,75 46 68 60 62,Wimbledon,Grand Slam,1953.06.22,Outdoor,Grass,Quarter-Finals
E. Victor Seixas,e.-victor-seixas/s240,Lew Hoad,lew-hoad/h132,57 64 63 16 97,Wimbledon,Grand Slam,1953.06.22,Outdoor,Grass,Quarter-Finals
Mervyn Rose,mervyn-rose/r163,Arthur Larsen,arthur-larsen/le60,63 63 1614,Wimbledon,Grand Slam,1953.06.22,Outdoor,Grass,Quarter-Finals
Jaroslav Drobny,jaroslav-drobny/d531,Sven Davidson,sven-davidson/dd18,75 64 60,Wimbledon,Grand Slam,1953.06.22,Outdoor,Grass,Quarter-Finals
Ken Rosewall,ken-rosewall/r075,Jack Arkinstall,jack-arkinstall/ad75,46 36 61 61 62,Wimbledon,Grand Slam,1953.06.22,Outdoor,Grass,Round of 16
E. Victor Seixas,e.-victor-seixas/s240,George Worthington,george-worthington/w793,108 75 63,Wimbledon,Grand Slam,1953.06.22,Outdoor,Grass,Round of 16
Mervyn Rose,mervyn-rose/r163,Jacques Brichant,jacques-brichant/bn76,64 64 86,Wimbledon,Grand Slam,1953.06.22,Outdoor,Grass,Round of 16
Jaroslav Drobny,jaroslav-drobny/d531,Rex Hartwig,rex-hartwig/h539,63 75 75,Wimbledon,Grand Slam,1953.06.22,Outdoor,Grass,Round of 16
Kurt Nielsen,kurt-nielsen/n088,Gardnar Mulloy,gardnar-mulloy/m273,108 63 75,Wimbledon,Grand Slam,1953.06.22,Outdoor,Grass,Round of 16
Lew Hoad,lew-hoad/h132,Hugh Stewart,hugh-stewart/ss51,60 63 62,Wimbledon,Grand Slam,1953.06.22,Outdoor,Grass,Round of 16
Arthur Larsen,arthur-larsen/le60,Torsten Johansson,torsten-johansson/j589,86 62 60,Wimbledon,Grand Slam,1953.06.22,Outdoor,Grass,Round of 16
Sven Davidson,sven-davidson/dd18,Ian Ayre,ian-ayre/ad80,63 64 64,Wimbledon,Grand Slam,1953.06.22,Outdoor,Grass,Round of 16
Ken Rosewall,ken-rosewall/r075,Ivor Warwick,ivor-warwick/w745,63 62 62,Wimbledon,Grand Slam,1953.06.22,Outdoor,Grass,Round of 32
E. Victor Seixas,e.-victor-seixas/s240,Philippe Washer,philippe-washer/w780,63 61 63,Wimbledon,Grand Slam,1953.06.22,Outdoor,Grass,Round of 32
Mervyn Rose,mervyn-rose/r163,Jean Claude Molinari,jean-claude-molinari/m257,64 60 64,Wimbledon,Grand Slam,1953.06.22,Outdoor,Grass,Round of 32
Jaroslav Drobny,jaroslav-drobny/d531,Budge Patty,budge-patty/pi25,86 1618 36 86 1210,Wimbledon,Grand Slam,1953.06.22,Outdoor,Grass,Round of 32
Gardnar Mulloy,gardnar-mulloy/m273,Staffan Stockenberg,staffan-stockenberg/ss75,46 36 63 63 97,Wimbledon,Grand Slam,1953.06.22,Outdoor,Grass,Round of 32
Lew Hoad,lew-hoad/h132,John Barrett,john-barrett/b226,62 62 61,Wimbledon,Grand Slam,1953.06.22,Outdoor,Grass,Round of 32
Arthur Larsen,arthur-larsen/le60,Josip Palada,josip-palada/pi39,61 62 75,Wimbledon,Grand Slam,1953.06.22,Outdoor,Grass,Round of 32
Jack Arkinstall,jack-arkinstall/ad75,Raymundo Deyro,raymundo-deyro/dd05,75 26 46 63 62,Wimbledon,Grand Slam,1953.06.22,Outdoor,Grass,Round of 32
Ian Ayre,ian-ayre/ad80,Clive Wilderspin,clive-wilderspin/w751,75 62 75,Wimbledon,Grand Slam,1953.06.22,Outdoor,Grass,Round of 32
Jacques Brichant,jacques-brichant/bn76,Donald L. M. Black,donald-l.-m.-black/bn75,75 108 63,Wimbledon,Grand Slam,1953.06.22,Outdoor,Grass,Round of 32
Sven Davidson,sven-davidson/dd18,Bobby Wilson,bobby-wilson/w622,63 46 810 60 62,Wimbledon,Grand Slam,1953.06.22,Outdoor,Grass,Round of 32
Rex Hartwig,rex-hartwig/h539,Ignacy Tloczynski,ignacy-tloczynski/td76,61 61 63,Wimbledon,Grand Slam,1953.06.22,Outdoor,Grass,Round of 32
Torsten Johansson,torsten-johansson/j589,Torben Ulrich,torben-ulrich/u011,75 63 26 75,Wimbledon,Grand Slam,1953.06.22,Outdoor,Grass,Round of 32
Kurt Nielsen,kurt-nielsen/n088,Bryan Woodroffe,bryan-woodroffe/w809,64 36 63 62,Wimbledon,Grand Slam,1953.06.22,Outdoor,Grass,Round of 32
Hugh Stewart,hugh-stewart/ss51,Hans Redl,hans-redl/re35,63 61 60,Wimbledon,Grand Slam,1953.06.22,Outdoor,Grass,Round of 32
George Worthington,george-worthington/w793,Felicisimo Ampon,felicisimo-ampon/ad58,62 62 86,Wimbledon,Grand Slam,1953.06.22,Outdoor,Grass,Round of 32
Ken Rosewall,ken-rosewall/r075,Robert Abdesselam,robert-abdesselam/ad60,63 61 46 62,Wimbledon,Grand Slam,1953.06.22,Outdoor,Grass,Round of 64
E. Victor Seixas,e.-victor-seixas/s240,Wladyslaw Skonecki,wladyslaw-skonecki/ss73,62 62 75,Wimbledon,Grand Slam,1953.06.22,Outdoor,Grass,Round of 64
Mervyn Rose,mervyn-rose/r163,Norman Lewis,norman-lewis/le73,63 63 62,Wimbledon,Grand Slam,1953.06.22,Outdoor,Grass,Round of 64
Jaroslav Drobny,jaroslav-drobny/d531,Tut Bartzen,tut-bartzen/bn94,64 63 63,Wimbledon,Grand Slam,1953.06.22,Outdoor,Grass,Round of 64
Gardnar Mulloy,gardnar-mulloy/m273,Alfred Huber,alfred-huber/hc82,62 62 36 64,Wimbledon,Grand Slam,1953.06.22,Outdoor,Grass,Round of 64
Lew Hoad,lew-hoad/h132,Narendra Nath,narendra-nath/n800,60 64 61,Wimbledon,Grand Slam,1953.06.22,Outdoor,Grass,Round of 64
Arthur Larsen,arthur-larsen/le60,Donald Butler,donald-butler/bo53,64 62 75,Wimbledon,Grand Slam,1953.06.22,Outdoor,Grass,Round of 64
Ian Ayre,ian-ayre/ad80,Enrique Morea,enrique-morea/mp49,68 64 119 62,Wimbledon,Grand Slam,1953.06.22,Outdoor,Grass,Round of 64
Felicisimo Ampon,felicisimo-ampon/ad58,Zoltan Katona,zoltan-katona/kf58,64 63 61,Wimbledon,Grand Slam,1953.06.22,Outdoor,Grass,Round of 64
Jack Arkinstall,jack-arkinstall/ad75,Alfred Dehnert,alfred-dehnert/dd27,61 63 61,Wimbledon,Grand Slam,1953.06.22,Outdoor,Grass,Round of 64
John Barrett,john-barrett/b226,Stefan Laslo,stefan-laslo/le67,61 63 68 1412,Wimbledon,Grand Slam,1953.06.22,Outdoor,Grass,Round of 64
Donald L. M. Black,donald-l.-m.-black/bn75,John Horn,john-horn/hc87,36 46 75 75 86,Wimbledon,Grand Slam,1953.06.22,Outdoor,Grass,Round of 64
Jacques Brichant,jacques-brichant/bn76,Claude Lister,claude-lister/le74,86 63 60,Wimbledon,Grand Slam,1953.06.22,Outdoor,Grass,Round of 64
Sven Davidson,sven-davidson/dd18,Grant Golden,grant-golden/g185,63 64 64,Wimbledon,Grand Slam,1953.06.22,Outdoor,Grass,Round of 64
Raymundo Deyro,raymundo-deyro/dd05,Tony Pickard,tony-pickard/pd90,62 63 60,Wimbledon,Grand Slam,1953.06.22,Outdoor,Grass,Round of 64
Rex Hartwig,rex-hartwig/h539,Geoff Paish,geoff-paish/pa78,68 63 63 62,Wimbledon,Grand Slam,1953.06.22,Outdoor,Grass,Round of 64
Torsten Johansson,torsten-johansson/j589,Jean-Noel Grinda,jean-noel-grinda/g331,36 61 64 62,Wimbledon,Grand Slam,1953.06.22,Outdoor,Grass,Round of 64
Jean Claude Molinari,jean-claude-molinari/m257,Jacques Peten,jacques-peten/pi51,61 36 60 60,Wimbledon,Grand Slam,1953.06.22,Outdoor,Grass,Round of 64
Kurt Nielsen,kurt-nielsen/n088,Roy Malcolm,roy-malcolm/mq78,61 61 86,Wimbledon,Grand Slam,1953.06.22,Outdoor,Grass,Round of 64
Josip Palada,josip-palada/pi39,Jeffrey Michelmore,jeffrey-michelmore/mq77,61 63 61,Wimbledon,Grand Slam,1953.06.22,Outdoor,Grass,Round of 64
Budge Patty,budge-patty/pi25,Edwin Tsai,edwin-tsai/td77,75 62 60,Wimbledon,Grand Slam,1953.06.22,Outdoor,Grass,Round of 64
Hans Redl,hans-redl/re35,Bernard Crouch,bernard-crouch/ci67,62 63 57 64,Wimbledon,Grand Slam,1953.06.22,Outdoor,Grass,Round of 64
Hugh Stewart,hugh-stewart/ss51,Sima Nikolic,sima-nikolic/n790,64 62 62,Wimbledon,Grand Slam,1953.06.22,Outdoor,Grass,Round of 64
Staffan Stockenberg,staffan-stockenberg/ss75,John Ager,john-ager/ad78,75 86 64,Wimbledon,Grand Slam,1953.06.22,Outdoor,Grass,Round of 64
Ignacy Tloczynski,ignacy-tloczynski/td76,Anthony Starte,anthony-starte/st17,64 46 64 75,Wimbledon,Grand Slam,1953.06.22,Outdoor,Grass,Round of 64
Torben Ulrich,torben-ulrich/u011,Giuseppe Merlo,giuseppe-merlo/m276,64 36 62 63,Wimbledon,Grand Slam,1953.06.22,Outdoor,Grass,Round of 64
Ivor Warwick,ivor-warwick/w745,Jaime Bartroli,jaime-bartroli/ba11,86 63 79 57 108,Wimbledon,Grand Slam,1953.06.22,Outdoor,Grass,Round of 64
Philippe Washer,philippe-washer/w780,Liep-Tjauw Tan,liep-tjauw-tan/td70,60 63 63,Wimbledon,Grand Slam,1953.06.22,Outdoor,Grass,Round of 64
Clive Wilderspin,clive-wilderspin/w751,Erik Bulmer,erik-bulmer/bo13,62 63 75,Wimbledon,Grand Slam,1953.06.22,Outdoor,Grass,Round of 64
Bobby Wilson,bobby-wilson/w622,Rene Buser,rene-buser/bo39,64 63 63,Wimbledon,Grand Slam,1953.06.22,Outdoor,Grass,Round of 64
Bryan Woodroffe,bryan-woodroffe/w809,Istvan Sikorszki,istvan-sikorszki/ss97,57 61 60 63,Wimbledon,Grand Slam,1953.06.22,Outdoor,Grass,Round of 64
George Worthington,george-worthington/w793,Lennart Bergelin,lennart-bergelin/b256,26 60 63 62,Wimbledon,Grand Slam,1953.06.22,Outdoor,Grass,Round of 64
Ken Rosewall,ken-rosewall/r075,Michael Davies,michael-davies/d133,62 64 62,Wimbledon,Grand Slam,1953.06.22,Outdoor,Grass,Round of 128
E. Victor Seixas,e.-victor-seixas/s240,R. Bob Lee,r.-bob-lee/le66,63 60 61,Wimbledon,Grand Slam,1953.06.22,Outdoor,Grass,Round of 128
Mervyn Rose,mervyn-rose/r163,Ramanathan Krishnan,ramanathan-krishnan/k103,86 64 46 61,Wimbledon,Grand Slam,1953.06.22,Outdoor,Grass,Round of 128
Jaroslav Drobny,jaroslav-drobny/d531,Bernard Destremau,bernard-destremau/dd06,60 61 62,Wimbledon,Grand Slam,1953.06.22,Outdoor,Grass,Round of 128
Gardnar Mulloy,gardnar-mulloy/m273,Malcolm Fox,malcolm-fox/f969,64 119 62,Wimbledon,Grand Slam,1953.06.22,Outdoor,Grass,Round of 128
Lew Hoad,lew-hoad/h132,Russell Seymour,russell-seymour/st14,64 62 75,Wimbledon,Grand Slam,1953.06.22,Outdoor,Grass,Round of 128
Arthur Larsen,arthur-larsen/le60,Antal Jancso,antal-jancso/j604,62 64 86,Wimbledon,Grand Slam,1953.06.22,Outdoor,Grass,Round of 128
Enrique Morea,enrique-morea/mp49,Ian McDonald,ian-mcdonald/mq33,64 86 60,Wimbledon,Grand Slam,1953.06.22,Outdoor,Grass,Round of 128
Robert Abdesselam,robert-abdesselam/ad60,Malcolm Gracie,malcolm-gracie/gg09,63 64 64,Wimbledon,Grand Slam,1953.06.22,Outdoor,Grass,Round of 128
John Ager,john-ager/ad78,Gil De Kermadec,gil-de-kermadec/dd17,36 62 63 63,Wimbledon,Grand Slam,1953.06.22,Outdoor,Grass,Round of 128
Felicisimo Ampon,felicisimo-ampon/ad58,Gerard Pilet,gerard-pilet/p185,61 61 61,Wimbledon,Grand Slam,1953.06.22,Outdoor,Grass,Round of 128
Jack Arkinstall,jack-arkinstall/ad75,Naresh Kumar,naresh-kumar/kf51,36 46 63 62 62,Wimbledon,Grand Slam,1953.06.22,Outdoor,Grass,Round of 128
Ian Ayre,ian-ayre/ad80,Jozsef Asboth,jozsef-asboth/ad74,46 97 62 62,Wimbledon,Grand Slam,1953.06.22,Outdoor,Grass,Round of 128
John Barrett,john-barrett/b226,Ronald Reeve,ronald-reeve/re54,61 63 64,Wimbledon,Grand Slam,1953.06.22,Outdoor,Grass,Round of 128
Jaime Bartroli,jaime-bartroli/ba11,Ivan Devroe,ivan-devroe/dd34,63 62 62,Wimbledon,Grand Slam,1953.06.22,Outdoor,Grass,Round of 128
Tut Bartzen,tut-bartzen/bn94,Howard Walton,howard-walton/w788,62 62 60,Wimbledon,Grand Slam,1953.06.22,Outdoor,Grass,Round of 128
Lennart Bergelin,lennart-bergelin/b256,Jorgen Ulrich,jorgen-ulrich/u016,63 75 63,Wimbledon,Grand Slam,1953.06.22,Outdoor,Grass,Round of 128
Donald L. M. Black,donald-l.-m.-black/bn75,Czeslaw Spychala,czeslaw-spychala/st23,97 61 62,Wimbledon,Grand Slam,1953.06.22,Outdoor,Grass,Round of 128
Jacques Brichant,jacques-brichant/bn76,Roger Becker,roger-becker/b230,36 97 63 64,Wimbledon,Grand Slam,1953.06.22,Outdoor,Grass,Round of 128
Erik Bulmer,erik-bulmer/bo13,Vivian Gotto,vivian-gotto/gf65,62 62 60,Wimbledon,Grand Slam,1953.06.22,Outdoor,Grass,Round of 128
Rene Buser,rene-buser/bo39,Johannes (Hans) Van Dalsum,johannes-(hans)-van-dalsum/v901,06 64 62 75,Wimbledon,Grand Slam,1953.06.22,Outdoor,Grass,Round of 128
Donald Butler,donald-butler/bo53,Carlos Ferrer,carlos-ferrer/fa04,63 63 36 64,Wimbledon,Grand Slam,1953.06.22,Outdoor,Grass,Round of 128
Bernard Crouch,bernard-crouch/ci67,Edmund David,edmund-david/dd59,63 63 63,Wimbledon,Grand Slam,1953.06.22,Outdoor,Grass,Round of 128
Sven Davidson,sven-davidson/dd18,Darrell Shaw,darrell-shaw/st25,62 119 75,Wimbledon,Grand Slam,1953.06.22,Outdoor,Grass,Round of 128
Alfred Dehnert,alfred-dehnert/dd27,Ilia Panajotovic,ilia-panajotovic/pi27,63 64 36 64,Wimbledon,Grand Slam,1953.06.22,Outdoor,Grass,Round of 128
Raymundo Deyro,raymundo-deyro/dd05,Henry Billington,henry-billington/bo52,86 60 86,Wimbledon,Grand Slam,1953.06.22,Outdoor,Grass,Round of 128
Grant Golden,grant-golden/g185,Vladimir Petrovic,vladimir-petrovic/ph93,61 75 61,Wimbledon,Grand Slam,1953.06.22,Outdoor,Grass,Round of 128
Jean-Noel Grinda,jean-noel-grinda/g331,Johann Kupferburger,johann-kupferburger/kf76,75 63 63,Wimbledon,Grand Slam,1953.06.22,Outdoor,Grass,Round of 128
Rex Hartwig,rex-hartwig/h539,Wayne Van Voorhees,wayne-van-voorhees/v899,63 62 61,Wimbledon,Grand Slam,1953.06.22,Outdoor,Grass,Round of 128
John Horn,john-horn/hc87,Georges Sturdza,georges-sturdza/st16,60 62 60,Wimbledon,Grand Slam,1953.06.22,Outdoor,Grass,Round of 128
Alfred Huber,alfred-huber/hc82,Gino Mezzi,gino-mezzi/mq42,64 75 46 86,Wimbledon,Grand Slam,1953.06.22,Outdoor,Grass,Round of 128
Torsten Johansson,torsten-johansson/j589,Philippe Chatrier,philippe-chatrier/ci59,60 63 60,Wimbledon,Grand Slam,1953.06.22,Outdoor,Grass,Round of 128
Zoltan Katona,zoltan-katona/kf58,Robert Van Meegeren,robert-van-meegeren/v903,62 68 64 61,Wimbledon,Grand Slam,1953.06.22,Outdoor,Grass,Round of 128
Stefan Laslo,stefan-laslo/le67,Gianni Clerici,gianni-clerici/ci66,86 68 62 64,Wimbledon,Grand Slam,1953.06.22,Outdoor,Grass,Round of 128
Norman Lewis,norman-lewis/le73,Colin Hannam,colin-hannam/hc66,63 75 36 63,Wimbledon,Grand Slam,1953.06.22,Outdoor,Grass,Round of 128
Claude Lister,claude-lister/le74,Horst Hermann,horst-hermann/hc95,64 62 64,Wimbledon,Grand Slam,1953.06.22,Outdoor,Grass,Round of 128
Roy Malcolm,roy-malcolm/mq78,Joseph Hackett,joseph-hackett/hc56,75 64 16 63,Wimbledon,Grand Slam,1953.06.22,Outdoor,Grass,Round of 128
Giuseppe Merlo,giuseppe-merlo/m276,Guy Jackson,guy-jackson/j601,64 64 75,Wimbledon,Grand Slam,1953.06.22,Outdoor,Grass,Round of 128
Jeffrey Michelmore,jeffrey-michelmore/mq77,Ralph Oliver,ralph-oliver/o542,63 86 86,Wimbledon,Grand Slam,1953.06.22,Outdoor,Grass,Round of 128
Jean Claude Molinari,jean-claude-molinari/m257,Geoff Ward,geoff-ward/w781,86 61 86,Wimbledon,Grand Slam,1953.06.22,Outdoor,Grass,Round of 128
Narendra Nath,narendra-nath/n800,Clive Bernstein,clive-bernstein/bo29,75 63 63,Wimbledon,Grand Slam,1953.06.22,Outdoor,Grass,Round of 128
Kurt Nielsen,kurt-nielsen/n088,Barry Green,barry-green/gg28,63 62 46 75,Wimbledon,Grand Slam,1953.06.22,Outdoor,Grass,Round of 128
Sima Nikolic,sima-nikolic/n790,Douglas Snart,douglas-snart/st37,60 86 46 63,Wimbledon,Grand Slam,1953.06.22,Outdoor,Grass,Round of 128
Geoff Paish,geoff-paish/pa78,Ian Vermaak,ian-vermaak/v874,64 64 63,Wimbledon,Grand Slam,1953.06.22,Outdoor,Grass,Round of 128
Josip Palada,josip-palada/pi39,Billy R. Knight,billy-r.-knight/k106,62 62 75,Wimbledon,Grand Slam,1953.06.22,Outdoor,Grass,Round of 128
Budge Patty,budge-patty/pi25,Jacques Thomas,jacques-thomas/td69,62 64 64,Wimbledon,Grand Slam,1953.06.22,Outdoor,Grass,Round of 128
Jacques Peten,jacques-peten/pi51,Robin Condy,robin-condy/ci68,61 62 62,Wimbledon,Grand Slam,1953.06.22,Outdoor,Grass,Round of 128
Tony Pickard,tony-pickard/pd90,Cyril Kemp,cyril-kemp/kf83,36 86 63 68 62,Wimbledon,Grand Slam,1953.06.22,Outdoor,Grass,Round of 128
Hans Redl,hans-redl/re35,Peter Hare,peter-hare/hd07,60 63 86,Wimbledon,Grand Slam,1953.06.22,Outdoor,Grass,Round of 128
Istvan Sikorszki,istvan-sikorszki/ss97,Fausto Gardini,fausto-gardini/gg46,75 63 61,Wimbledon,Grand Slam,1953.06.22,Outdoor,Grass,Round of 128
Wladyslaw Skonecki,wladyslaw-skonecki/ss73,Frederick Kipping,frederick-kipping/kf74,62 64 62,Wimbledon,Grand Slam,1953.06.22,Outdoor,Grass,Round of 128
Anthony Starte,anthony-starte/st17,Soren Hojberg,soren-hojberg/hc64,62 63 57 62,Wimbledon,Grand Slam,1953.06.22,Outdoor,Grass,Round of 128
Hugh Stewart,hugh-stewart/ss51,Tony Mottram,tony-mottram/mq59,64 36 46 63 64,Wimbledon,Grand Slam,1953.06.22,Outdoor,Grass,Round of 128
Staffan Stockenberg,staffan-stockenberg/ss75,Matthew Mohtadi,matthew-mohtadi/mq60,62 64 62,Wimbledon,Grand Slam,1953.06.22,Outdoor,Grass,Round of 128
Liep-Tjauw Tan,liep-tjauw-tan/td70,Douglas Scharenguivel,douglas-scharenguivel/st26,64 57 16 63 62,Wimbledon,Grand Slam,1953.06.22,Outdoor,Grass,Round of 128
Ignacy Tloczynski,ignacy-tloczynski/td76,Eduardo Argon,eduardo-argon/ad69,36 62 63 62,Wimbledon,Grand Slam,1953.06.22,Outdoor,Grass,Round of 128
Edwin Tsai,edwin-tsai/td77,Headley Baxter,headley-baxter/bo60,61 68 63 63,Wimbledon,Grand Slam,1953.06.22,Outdoor,Grass,Round of 128
Torben Ulrich,torben-ulrich/u011,Laurie Proctor,laurie-proctor/pi46,61 61 63,Wimbledon,Grand Slam,1953.06.22,Outdoor,Grass,Round of 128
Ivor Warwick,ivor-warwick/w745,Alexander Wellford,alexander-wellford/w810,64 46 62 63,Wimbledon,Grand Slam,1953.06.22,Outdoor,Grass,Round of 128
Philippe Washer,philippe-washer/w780,James McArdle,james-mcardle/md15,60 63 64,Wimbledon,Grand Slam,1953.06.22,Outdoor,Grass,Round of 128
Clive Wilderspin,clive-wilderspin/w751,Ernst Buchholz,ernst-buchholz/bo59,64 62 64,Wimbledon,Grand Slam,1953.06.22,Outdoor,Grass,Round of 128
Bobby Wilson,bobby-wilson/w622,Clifford Hovell,clifford-hovell/hd08,62 64 62,Wimbledon,Grand Slam,1953.06.22,Outdoor,Grass,Round of 128
Bryan Woodroffe,bryan-woodroffe/w809,Gerard Oakley,gerard-oakley/o539,62 62 63,Wimbledon,Grand Slam,1953.06.22,Outdoor,Grass,Round of 128
George Worthington,george-worthington/w793,Armando Vieira,armando-vieira/v879,60 57 61 61,Wimbledon,Grand Slam,1953.06.22,Outdoor,Grass,Round of 128
Tony Trabert,tony-trabert/t094,E. Victor Seixas,e.-victor-seixas/s240,63 62 63,US Championships,Grand Slam,1953.08.29,Outdoor,Grass,Finals
E. Victor Seixas,e.-victor-seixas/s240,Lew Hoad,lew-hoad/h132,75 64 64,US Championships,Grand Slam,1953.08.29,Outdoor,Grass,Semi-Finals
Tony Trabert,tony-trabert/t094,Ken Rosewall,ken-rosewall/r075,75 63 63,US Championships,Grand Slam,1953.08.29,Outdoor,Grass,Semi-Finals
Lew Hoad,lew-hoad/h132,Gardnar Mulloy,gardnar-mulloy/m273,64 62 119,US Championships,Grand Slam,1953.08.29,Outdoor,Grass,Quarter-Finals
Ken Rosewall,ken-rosewall/r075,Sven Davidson,sven-davidson/dd18,60 810 26 60 119,US Championships,Grand Slam,1953.08.29,Outdoor,Grass,Quarter-Finals
E. Victor Seixas,e.-victor-seixas/s240,Kurt Nielsen,kurt-nielsen/n088,63 79 86 64,US Championships,Grand Slam,1953.08.29,Outdoor,Grass,Quarter-Finals
Tony Trabert,tony-trabert/t094,Budge Patty,budge-patty/pi25,64 64 62,US Championships,Grand Slam,1953.08.29,Outdoor,Grass,Quarter-Finals
Sven Davidson,sven-davidson/dd18,Arthur Larsen,arthur-larsen/le60,16 36 61 64 64,US Championships,Grand Slam,1953.08.29,Outdoor,Grass,Round of 16
Lew Hoad,lew-hoad/h132,"Hamilton ""Ham"" Richardson","hamilton-""ham""-richardson/r160",63 64 64,US Championships,Grand Slam,1953.08.29,Outdoor,Grass,Round of 16
Gardnar Mulloy,gardnar-mulloy/m273,Torben Ulrich,torben-ulrich/u011,36 63 75 62,US Championships,Grand Slam,1953.08.29,Outdoor,Grass,Round of 16
Kurt Nielsen,kurt-nielsen/n088,Fred Kovaleski,fred-kovaleski/k168,63 57 46 64 64,US Championships,Grand Slam,1953.08.29,Outdoor,Grass,Round of 16
Budge Patty,budge-patty/pi25,Mervyn Rose,mervyn-rose/r163,79 64 62 63,US Championships,Grand Slam,1953.08.29,Outdoor,Grass,Round of 16
Ken Rosewall,ken-rosewall/r075,Tom Brown,tom-brown/b234,97 75 62,US Championships,Grand Slam,1953.08.29,Outdoor,Grass,Round of 16
E. Victor Seixas,e.-victor-seixas/s240,Bill Talbert,bill-talbert/td72,62 60 60,US Championships,Grand Slam,1953.08.29,Outdoor,Grass,Round of 16
Tony Trabert,tony-trabert/t094,Ian Ayre,ian-ayre/ad80,62 75 62,US Championships,Grand Slam,1953.08.29,Outdoor,Grass,Round of 16
Ian Ayre,ian-ayre/ad80,John Frost,john-frost/f963,64 1412 60,US Championships,Grand Slam,1953.08.29,Outdoor,Grass,Round of 32
Tom Brown,tom-brown/b234,Eugene G.J.W. Garrett,eugene-g.j.w.-garrett/gg48,86 63 62,US Championships,Grand Slam,1953.08.29,Outdoor,Grass,Round of 32
Sven Davidson,sven-davidson/dd18,Edward Kauder,edward-kauder/kf79,61 63 63,US Championships,Grand Slam,1953.08.29,Outdoor,Grass,Round of 32
Lew Hoad,lew-hoad/h132,Joseph Davis,joseph-davis/dd53,63 62 63,US Championships,Grand Slam,1953.08.29,Outdoor,Grass,Round of 32
Fred Kovaleski,fred-kovaleski/k168,Straight Clark,straight-clark/ci34,63 911 75 75,US Championships,Grand Slam,1953.08.29,Outdoor,Grass,Round of 32
Arthur Larsen,arthur-larsen/le60,Gilbert Shea,gilbert-shea/ss87,97 119 64,US Championships,Grand Slam,1953.08.29,Outdoor,Grass,Round of 32
Gardnar Mulloy,gardnar-mulloy/m273,John Barrett,john-barrett/b226,64 63 61,US Championships,Grand Slam,1953.08.29,Outdoor,Grass,Round of 32
Kurt Nielsen,kurt-nielsen/n088,Andrew Paton,andrew-paton/pi43,26 63 64 26 64,US Championships,Grand Slam,1953.08.29,Outdoor,Grass,Round of 32
Budge Patty,budge-patty/pi25,Charles Masterson,charles-masterson/mq36,62 63 63,US Championships,Grand Slam,1953.08.29,Outdoor,Grass,Round of 32
"Hamilton ""Ham"" Richardson","hamilton-""ham""-richardson/r160",Irvin Dorfman,irvin-dorfman/dd28,64 61 61,US Championships,Grand Slam,1953.08.29,Outdoor,Grass,Round of 32
Mervyn Rose,mervyn-rose/r163,Lorne Main,lorne-main/mq39,62 97 62,US Championships,Grand Slam,1953.08.29,Outdoor,Grass,Round of 32
Ken Rosewall,ken-rosewall/r075,Joaquin Reyes,joaquin-reyes/re17,64 46 61 62,US Championships,Grand Slam,1953.08.29,Outdoor,Grass,Round of 32
E. Victor Seixas,e.-victor-seixas/s240,Grant Golden,grant-golden/g185,62 64 36 63,US Championships,Grand Slam,1953.08.29,Outdoor,Grass,Round of 32
Bill Talbert,bill-talbert/td72,William Quillian,william-quillian/q962,62 63 63,US Championships,Grand Slam,1953.08.29,Outdoor,Grass,Round of 32
Tony Trabert,tony-trabert/t094,Seth Peterson,seth-peterson/pi56,63 62 60,US Championships,Grand Slam,1953.08.29,Outdoor,Grass,Round of 32
Torben Ulrich,torben-ulrich/u011,Edward Dailey,edward-dailey/dd13,64 64 62,US Championships,Grand Slam,1953.08.29,Outdoor,Grass,Round of 32
Ian Ayre,ian-ayre/ad80,Gordon Warden,gordon-warden/w811,61 60 60,US Championships,Grand Slam,1953.08.29,Outdoor,Grass,Round of 64
John Barrett,john-barrett/b226,Stanley Drobac,stanley-drobac/dd43,26 97 61 64,US Championships,Grand Slam,1953.08.29,Outdoor,Grass,Round of 64
Tom Brown,tom-brown/b234,Luis Ayala,luis-ayala/a073,64 60 63,US Championships,Grand Slam,1953.08.29,Outdoor,Grass,Round of 64
Straight Clark,straight-clark/ci34,Robert Perry,robert-perry/p107,64 63 16 75,US Championships,Grand Slam,1953.08.29,Outdoor,Grass,Round of 64
Edward Dailey,edward-dailey/dd13,George Stewart,george-stewart/st07,119 63 64,US Championships,Grand Slam,1953.08.29,Outdoor,Grass,Round of 64
Sven Davidson,sven-davidson/dd18,Gerald Moss,gerald-moss/mq29,63 36 26 64 63,US Championships,Grand Slam,1953.08.29,Outdoor,Grass,Round of 64
Joseph Davis,joseph-davis/dd53,Oscar Johnson,oscar-johnson/j618,68 79 63 64 64,US Championships,Grand Slam,1953.08.29,Outdoor,Grass,Round of 64
Irvin Dorfman,irvin-dorfman/dd28,Richard Doss,richard-doss/dd60,119 63 63,US Championships,Grand Slam,1953.08.29,Outdoor,Grass,Round of 64
John Frost,john-frost/f963,Franklin Pierce,franklin-pierce/pi47,63 97 36 62,US Championships,Grand Slam,1953.08.29,Outdoor,Grass,Round of 64
Eugene G.J.W. Garrett,eugene-g.j.w.-garrett/gg48,Kosei Kamo,kosei-kamo/kf72,62 108 16 62,US Championships,Grand Slam,1953.08.29,Outdoor,Grass,Round of 64
Grant Golden,grant-golden/g185,Paul Willey,paul-willey/w785,64 63 62,US Championships,Grand Slam,1953.08.29,Outdoor,Grass,Round of 64
Lew Hoad,lew-hoad/h132,Frederick Hagist,frederick-hagist/hd03,63 61 97,US Championships,Grand Slam,1953.08.29,Outdoor,Grass,Round of 64
Edward Kauder,edward-kauder/kf79,Richard Gaines,richard-gaines/gg41,63 64 62,US Championships,Grand Slam,1953.08.29,Outdoor,Grass,Round of 64
Fred Kovaleski,fred-kovaleski/k168,William Cranston,william-cranston/ci72,64 60 63,US Championships,Grand Slam,1953.08.29,Outdoor,Grass,Round of 64
Arthur Larsen,arthur-larsen/le60,Clive Wilderspin,clive-wilderspin/w751,62 16 62 86,US Championships,Grand Slam,1953.08.29,Outdoor,Grass,Round of 64
Lorne Main,lorne-main/mq39,Herbert Browne,herbert-browne/bm64,60 63 64,US Championships,Grand Slam,1953.08.29,Outdoor,Grass,Round of 64
Charles Masterson,charles-masterson/mq36,Sidney Jr. Wood,sidney-jr.-wood/w796,46 61 64 75,US Championships,Grand Slam,1953.08.29,Outdoor,Grass,Round of 64
Gardnar Mulloy,gardnar-mulloy/m273,Richard Squires,richard-squires/st40,62 63 61,US Championships,Grand Slam,1953.08.29,Outdoor,Grass,Round of 64
Kurt Nielsen,kurt-nielsen/n088,Herbie Flam,herbie-flam/f962,64 64 108,US Championships,Grand Slam,1953.08.29,Outdoor,Grass,Round of 64
Andrew Paton,andrew-paton/pi43,Robert Bedard,robert-bedard/b903,36 79 1210 62 63,US Championships,Grand Slam,1953.08.29,Outdoor,Grass,Round of 64
Budge Patty,budge-patty/pi25,Cliff Mayne,cliff-mayne/ma84,79 26 64 63 61,US Championships,Grand Slam,1953.08.29,Outdoor,Grass,Round of 64
Seth Peterson,seth-peterson/pi56,Don Fontana,don-fontana/f471,64 63 86,US Championships,Grand Slam,1953.08.29,Outdoor,Grass,Round of 64
William Quillian,william-quillian/q962,Ricardo Balbiers,ricardo-balbiers/bo55,61 62 1012 63,US Championships,Grand Slam,1953.08.29,Outdoor,Grass,Round of 64
Joaquin Reyes,joaquin-reyes/re17,Richard Sorlein,richard-sorlein/ss56,63 75 46 63,US Championships,Grand Slam,1953.08.29,Outdoor,Grass,Round of 64
"Hamilton ""Ham"" Richardson","hamilton-""ham""-richardson/r160",Hugh Stewart,hugh-stewart/ss51,61 97 36 61,US Championships,Grand Slam,1953.08.29,Outdoor,Grass,Round of 64
Mervyn Rose,mervyn-rose/r163,Sydney Schwartz,sydney-schwartz/ss65,63 64 61,US Championships,Grand Slam,1953.08.29,Outdoor,Grass,Round of 64
Ken Rosewall,ken-rosewall/r075,Henri Rochon,henri-rochon/re31,86 63 62,US Championships,Grand Slam,1953.08.29,Outdoor,Grass,Round of 64
E. Victor Seixas,e.-victor-seixas/s240,Jacque Grigry,jacque-grigry/gg21,62 97 61,US Championships,Grand Slam,1953.08.29,Outdoor,Grass,Round of 64
Gilbert Shea,gilbert-shea/ss87,James Schnaars,james-schnaars/ss69,63 61 61,US Championships,Grand Slam,1953.08.29,Outdoor,Grass,Round of 64
Bill Talbert,bill-talbert/td72,Rex Hartwig,rex-hartwig/h539,57 62 64 64,US Championships,Grand Slam,1953.08.29,Outdoor,Grass,Round of 64
Tony Trabert,tony-trabert/t094,Daniel Sullivan,daniel-sullivan/st31,62 62 61,US Championships,Grand Slam,1953.08.29,Outdoor,Grass,Round of 64
Torben Ulrich,torben-ulrich/u011,Enrique Morea,enrique-morea/mp49,75 62 64,US Championships,Grand Slam,1953.08.29,Outdoor,Grass,Round of 64
Luis Ayala,luis-ayala/a073,Jeffrey Arnold,jeffrey-arnold/ad85,61 62 61,US Championships,Grand Slam,1953.08.29,Outdoor,Grass,Round of 128
Ian Ayre,ian-ayre/ad80,Uber Vincent,uber-vincent/v902,63 63 64,US Championships,Grand Slam,1953.08.29,Outdoor,Grass,Round of 128
Ricardo Balbiers,ricardo-balbiers/bo55,Richard Raskind,richard-raskind/re22,64 26 63 62,US Championships,Grand Slam,1953.08.29,Outdoor,Grass,Round of 128
John Barrett,john-barrett/b226,Art Anderson,art-anderson/ad86,62 61 36 46 75,US Championships,Grand Slam,1953.08.29,Outdoor,Grass,Round of 128
Robert Bedard,robert-bedard/b903,Andrew Stern,andrew-stern/st11,64 36 64 75,US Championships,Grand Slam,1953.08.29,Outdoor,Grass,Round of 128
Tom Brown,tom-brown/b234,Donald Flye,donald-flye/f992,64 64 64,US Championships,Grand Slam,1953.08.29,Outdoor,Grass,Round of 128
Herbert Browne,herbert-browne/bm64,Chauncey Steele,chauncey-steele/st13,26 57 63 62 64,US Championships,Grand Slam,1953.08.29,Outdoor,Grass,Round of 128
Straight Clark,straight-clark/ci34,Stephen Potts,stephen-potts/pi57,46 61 61 63,US Championships,Grand Slam,1953.08.29,Outdoor,Grass,Round of 128
William Cranston,william-cranston/ci72,Charlie Pasarell,charlie-pasarell/p072,63 62 62,US Championships,Grand Slam,1953.08.29,Outdoor,Grass,Round of 128
Edward Dailey,edward-dailey/dd13,Enrique Vijande,enrique-vijande/v906,62 62 63,US Championships,Grand Slam,1953.08.29,Outdoor,Grass,Round of 128
Sven Davidson,sven-davidson/dd18,Brendan Macken,brendan-macken/mq79,62 62 62,US Championships,Grand Slam,1953.08.29,Outdoor,Grass,Round of 128
Richard Doss,richard-doss/dd60,John Been,john-been/bc50,97 63 810 64,US Championships,Grand Slam,1953.08.29,Outdoor,Grass,Round of 128
Stanley Drobac,stanley-drobac/dd43,Jordan Bentley,jordan-bentley/bo62,63 63 63,US Championships,Grand Slam,1953.08.29,Outdoor,Grass,Round of 128
Herbie Flam,herbie-flam/f962,Leonard Steiner,leonard-steiner/st32,63 64 75,US Championships,Grand Slam,1953.08.29,Outdoor,Grass,Round of 128
Richard Gaines,richard-gaines/gg41,Alan Englander,alan-englander/e905,64 64 63,US Championships,Grand Slam,1953.08.29,Outdoor,Grass,Round of 128
Eugene G.J.W. Garrett,eugene-g.j.w.-garrett/gg48,Barry MacKay,barry-mackay/m294,62 64 63,US Championships,Grand Slam,1953.08.29,Outdoor,Grass,Round of 128
Grant Golden,grant-golden/g185,Donald Kaiser,donald-kaiser/kf88,61 64 62,US Championships,Grand Slam,1953.08.29,Outdoor,Grass,Round of 128
Jacque Grigry,jacque-grigry/gg21,Pablo Eisenberg,pablo-eisenberg/e899,63 64 64,US Championships,Grand Slam,1953.08.29,Outdoor,Grass,Round of 128
Rex Hartwig,rex-hartwig/h539,Robin Willner,robin-willner/w799,119 63 64,US Championships,Grand Slam,1953.08.29,Outdoor,Grass,Round of 128
Kosei Kamo,kosei-kamo/kf72,Calvin Maccracken,calvin-maccracken/mq44,57 63 62 63,US Championships,Grand Slam,1953.08.29,Outdoor,Grass,Round of 128
Edward Kauder,edward-kauder/kf79,Glenn Land,glenn-land/le80,62 62 61,US Championships,Grand Slam,1953.08.29,Outdoor,Grass,Round of 128
Fred Kovaleski,fred-kovaleski/k168,Thomas Bradford,thomas-bradford/bo61,75 75 97,US Championships,Grand Slam,1953.08.29,Outdoor,Grass,Round of 128
Arthur Larsen,arthur-larsen/le60,Mario Llamas,mario-llamas/le42,61 61 108,US Championships,Grand Slam,1953.08.29,Outdoor,Grass,Round of 128
Lorne Main,lorne-main/mq39,Alastair Martin,alastair-martin/mq61,75 61 75,US Championships,Grand Slam,1953.08.29,Outdoor,Grass,Round of 128
Charles Masterson,charles-masterson/mq36,Leslie Longshore,leslie-longshore/le49,68 75 63 75,US Championships,Grand Slam,1953.08.29,Outdoor,Grass,Round of 128
Cliff Mayne,cliff-mayne/ma84,James Schulze,james-schulze/st38,62 63 64,US Championships,Grand Slam,1953.08.29,Outdoor,Grass,Round of 128
Enrique Morea,enrique-morea/mp49,Masanobu Kimura,masanobu-kimura/kf89,61 75 97,US Championships,Grand Slam,1953.08.29,Outdoor,Grass,Round of 128
Gerald Moss,gerald-moss/mq29,Charles Warden,charles-warden/w812,60 86 63,US Championships,Grand Slam,1953.08.29,Outdoor,Grass,Round of 128
Gardnar Mulloy,gardnar-mulloy/m273,Hugh Sweeney,hugh-sweeney/ss39,64 75 64,US Championships,Grand Slam,1953.08.29,Outdoor,Grass,Round of 128
Kurt Nielsen,kurt-nielsen/n088,George Ball,george-ball/bo20,75 62 62,US Championships,Grand Slam,1953.08.29,Outdoor,Grass,Round of 128
Andrew Paton,andrew-paton/pi43,Dixon Osburn,dixon-osburn/o547,57 62 62 75,US Championships,Grand Slam,1953.08.29,Outdoor,Grass,Round of 128
Budge Patty,budge-patty/pi25,William Clothier II,william-clothier-ii/ci64,61 62 61,US Championships,Grand Slam,1953.08.29,Outdoor,Grass,Round of 128
Robert Perry,robert-perry/p107,Harry Likas,harry-likas/le81,64 75 64,US Championships,Grand Slam,1953.08.29,Outdoor,Grass,Round of 128
Franklin Pierce,franklin-pierce/pi47,Kalman Hettleman,kalman-hettleman/hc63,62 68 26 63 64,US Championships,Grand Slam,1953.08.29,Outdoor,Grass,Round of 128
William Quillian,william-quillian/q962,Rafael Ortega,rafael-ortega/o546,62 36 57 64 62,US Championships,Grand Slam,1953.08.29,Outdoor,Grass,Round of 128
Joaquin Reyes,joaquin-reyes/re17,Norman McDonald,norman-mcdonald/mq80,64 64 61,US Championships,Grand Slam,1953.08.29,Outdoor,Grass,Round of 128
"Hamilton ""Ham"" Richardson","hamilton-""ham""-richardson/r160",Roger Becker,roger-becker/b230,75 63 64,US Championships,Grand Slam,1953.08.29,Outdoor,Grass,Round of 128
Henri Rochon,henri-rochon/re31,Blair Hawley,blair-hawley/hd09,63 86 63,US Championships,Grand Slam,1953.08.29,Outdoor,Grass,Round of 128
Mervyn Rose,mervyn-rose/r163,Allen Morris,allen-morris/md81,810 79 63 62 62,US Championships,Grand Slam,1953.08.29,Outdoor,Grass,Round of 128
Ken Rosewall,ken-rosewall/r075,Tut Bartzen,tut-bartzen/bn94,60 64 62,US Championships,Grand Slam,1953.08.29,Outdoor,Grass,Round of 128
James Schnaars,james-schnaars/ss69,Ladislav Hecht,ladislav-hecht/hc94,64 62 68 62,US Championships,Grand Slam,1953.08.29,Outdoor,Grass,Round of 128
Sydney Schwartz,sydney-schwartz/ss65,Francisco Contreras,francisco-contreras/c687,63 46 119 86,US Championships,Grand Slam,1953.08.29,Outdoor,Grass,Round of 128
E. Victor Seixas,e.-victor-seixas/s240,Morton Stern,morton-stern/st05,62 62 61,US Championships,Grand Slam,1953.08.29,Outdoor,Grass,Round of 128
Gilbert Shea,gilbert-shea/ss87,Philip Seymour,philip-seymour/st39,61 75 63,US Championships,Grand Slam,1953.08.29,Outdoor,Grass,Round of 128
Richard Sorlein,richard-sorlein/ss56,Frank Shields,frank-shields/st33,75 1210 16 46 75,US Championships,Grand Slam,1953.08.29,Outdoor,Grass,Round of 128
Richard Squires,richard-squires/st40,Gerard Alleyne,gerard-alleyne/ad70,62 63 61,US Championships,Grand Slam,1953.08.29,Outdoor,Grass,Round of 128
Hugh Stewart,hugh-stewart/ss51,Williams Tully,williams-tully/td53,64 61 61,US Championships,Grand Slam,1953.08.29,Outdoor,Grass,Round of 128
George Stewart,george-stewart/st07,Thomas Boys,thomas-boys/bo02,46 64 63 810 75,US Championships,Grand Slam,1953.08.29,Outdoor,Grass,Round of 128
Bill Talbert,bill-talbert/td72,Donald Thompson,donald-thompson/td62,62 61 61,US Championships,Grand Slam,1953.08.29,Outdoor,Grass,Round of 128
Torben Ulrich,torben-ulrich/u011,Harold Burrows,harold-burrows/bo40,46 64 75 60,US Championships,Grand Slam,1953.08.29,Outdoor,Grass,Round of 128
Gordon Warden,gordon-warden/w811,Jules Cohen,jules-cohen/ci65,(W/O),US Championships,Grand Slam,1953.08.29,Outdoor,Grass,Round of 128
Clive Wilderspin,clive-wilderspin/w751,Atsushi Miyagi,atsushi-miyagi/mq62,64 108 36 64,US Championships,Grand Slam,1953.08.29,Outdoor,Grass,Round of 128
Paul Willey,paul-willey/w785,Bernard Gerhardt,bernard-gerhardt/gg57,62 61 60,US Championships,Grand Slam,1953.08.29,Outdoor,Grass,Round of 128
Sidney Jr. Wood,sidney-jr.-wood/w796,Edward Rogers,edward-rogers/re47,36 62 64 97,US Championships,Grand Slam,1953.08.29,Outdoor,Grass,Round of 128
