Gaurav Misra,,Abdul Rahman Bakar,,62 60 64,Davis Cup G1 SF: MAS vs IND,Davis Cup,1969.03.01,,,Round Robin
Anand Amritraj,,Sultan Aman Azman,,62 62 64,Davis Cup G1 SF: MAS vs IND,Davis Cup,1969.03.01,,,Round Robin
Ramanathan Krishnan,,Billy Yap,,62 63 61,Davis Cup G1 SF: MAS vs IND,Davis Cup,1969.03.01,,,Round Robin
Gaurav Misra,,Sultan Aman Azman,,61 61 61,Davis Cup G1 SF: MAS vs IND,Davis Cup,1969.03.01,,,Round Robin
Ilie Nastase,,Jan Kodes,,64 64 810 26 63,Barranquilla,Others,1969.03.10,,Clay,Finals
Ilie Nastase,,Mark Cox,,75 60 57 57 64,Barranquilla,Others,1969.03.10,,Clay,Semi-Finals
Jan Kodes,,Jairo Velasco,,60 62 62,Barranquilla,Others,1969.03.10,,Clay,Semi-Finals
Mark Cox,,Zeljko Franulovic,,26 62 62,Barranquilla,Others,1969.03.10,,Clay,Quarter-Finals
Ilie Nastase,,Thomaz Koch,,62 75,Barranquilla,Others,1969.03.10,,Clay,Quarter-Finals
Jairo Velasco,,Bill Bowrey,,63 64,Barranquilla,Others,1969.03.10,,Clay,Quarter-Finals
Anand Amritraj,,Suresh Melvani,,62 62 61,Davis Cup WG F: SRI vs IND,Davis Cup,1969.03.25,,Clay,Round Robin
Shiv Prakash Misra,,Senaka Kumara,,62 62 62,Davis Cup WG F: SRI vs IND,Davis Cup,1969.03.25,,Clay,Round Robin
Shiv Prakash Misra,,Rupert Ferdinands,,63 63 63,Davis Cup WG F: SRI vs IND,Davis Cup,1969.03.25,,Clay,Round Robin
Ramanathan Krishnan,,Senaka Kumara,,60 60 60,Davis Cup WG F: SRI vs IND,Davis Cup,1969.03.25,,Clay,Round Robin
Moataz El Sonbol,,Jihad Khouayess,,61 61 64,Davis Cup EUR PR: EGY vs LIB,Davis Cup,1969.03.28,,,Round Robin
Aly El Dawoudi,,Khoder Issa,,63 63 61,Davis Cup EUR PR: EGY vs LIB,Davis Cup,1969.03.28,,,Round Robin
Aly El Dawoudi,,Ahmed Ramadan,,60 62 61,Davis Cup EUR PR: EGY vs LIB,Davis Cup,1969.03.28,,,Round Robin
Ismail El Shafei,,Khoder Issa,,60 61 62,Davis Cup EUR PR: EGY vs LIB,Davis Cup,1969.03.28,,,Round Robin
Raymundo Deyro,,Sutarjo Sugiarto,,63 86 62,Davis Cup WG QF: INA vs PHI,Davis Cup,1969.03.28,,,Round Robin
Eddie Cruz,,Atet Wijono,,62 57 46 62 62,Davis Cup WG QF: INA vs PHI,Davis Cup,1969.03.28,,,Round Robin
Yong Ho Chung,,Van Thanh Vo,,64 57 26 63 86,Davis Cup G1 SF: KOR vs VIE,Davis Cup,1969.04.04,,,Round Robin
Doo Hwan Kim,,Hoang Duc Luu,,63 26 64 62,Davis Cup G1 SF: KOR vs VIE,Davis Cup,1969.04.04,,,Round Robin
Van Thanh Vo,,Doo Hwan Kim,,64 63 36 46 75,Davis Cup G1 SF: KOR vs VIE,Davis Cup,1969.04.04,,,Round Robin
Hoang Duc Luu,,Yong Ho Chung,,46 60 75 97,Davis Cup G1 SF: KOR vs VIE,Davis Cup,1969.04.04,,,Round Robin
Koji Watanabe,,Eddie Cruz,,63 64 64,Davis Cup AME SF: JPN vs PHI,Davis Cup,1969.04.18,,,Round Robin
Keishiro Yanagi,,Raymundo Deyro,,61 61 62,Davis Cup AME SF: JPN vs PHI,Davis Cup,1969.04.18,,,Round Robin
Keishiro Yanagi,,Eddie Cruz,,61 63 62,Davis Cup AME SF: JPN vs PHI,Davis Cup,1969.04.18,,,Round Robin
Koji Watanabe,,Raymundo Deyro,,62 61 62,Davis Cup AME SF: JPN vs PHI,Davis Cup,1969.04.18,,,Round Robin
Bob Hewitt,,Taghi Akbari,,64 63 63,Davis Cup EUR R1: RSA vs IRI,Davis Cup,1969.04.24,,,Round Robin
Robert Maud,,Issa Khodaei,,61 60 61,Davis Cup EUR R1: RSA vs IRI,Davis Cup,1969.04.24,,,Round Robin
Bob Hewitt,,Issa Khodaei,,63 61 61,Davis Cup EUR R1: RSA vs IRI,Davis Cup,1969.04.24,,,Round Robin
Robert Maud,,Taghi Akbari,,64 63 86,Davis Cup EUR R1: RSA vs IRI,Davis Cup,1969.04.24,,,Round Robin
Patricio Cornejo,,Eduardo Soriano,,61 62 63,Davis Cup SAM QF: CHI vs ARG,Davis Cup,1969.05.02,,,Round Robin
Patricio Cornejo,,Julian Ganzabal,,57 46 61 63 63,Davis Cup SAM QF: CHI vs ARG,Davis Cup,1969.05.02,,,Round Robin
Vicente Zarazua,,Richard Russell,,64 36 63 26 64,Davis Cup AME SF: CAR vs MEX,Davis Cup,1969.05.03,,,Round Robin
Rafael Osuna,,David Tate,,63 62 61,Davis Cup AME SF: CAR vs MEX,Davis Cup,1969.05.03,,,Round Robin
David Tate,,Vicente Zarazua,,63 97 64,Davis Cup AME SF: CAR vs MEX,Davis Cup,1969.05.03,,,Round Robin
Rafael Osuna,,Richard Russell,,61 63 62,Davis Cup AME SF: CAR vs MEX,Davis Cup,1969.05.03,,,Round Robin
Jairo Velasco,,Jorge Andrew,,62 63 62,Davis Cup SAM QF: VEN vs COL,Davis Cup,1969.05.03,,,Round Robin
William Alvarez,,Humphrey Hose,,06 26 62 64 64,Davis Cup SAM QF: VEN vs COL,Davis Cup,1969.05.03,,,Round Robin
Humphrey Hose,,Jairo Velasco,,62 86 86,Davis Cup SAM QF: VEN vs COL,Davis Cup,1969.05.03,,,Round Robin
Jorge Andrew,,William Alvarez,,26 64 86 75,Davis Cup SAM QF: VEN vs COL,Davis Cup,1969.05.03,,,Round Robin
Manuel Santana,,Frank Saloman,,60 62 62,Davis Cup EUR R1: ESP vs RHO,Davis Cup,1969.05.04,,Clay,Round Robin
Jose Maria Gisbert,,Henry Hank Irvine,,63 64 75,Davis Cup EUR R1: ESP vs RHO,Davis Cup,1969.05.04,,Clay,Round Robin
Manuel Santana,,Henry Hank Irvine,,62 61 63,Davis Cup EUR R1: ESP vs RHO,Davis Cup,1969.05.04,,Clay,Round Robin
Manuel Orantes,,Frank Saloman,,62 75 86,Davis Cup EUR R1: ESP vs RHO,Davis Cup,1969.05.04,,Clay,Round Robin
Jan Leschly,,Milan Holecek,,60 36 75 62,Davis Cup EUR R1: DEN vs TCH,Davis Cup,1969.05.09,,Clay,Round Robin
Jan Kodes,,Jorgen Ulrich,,62 62 64,Davis Cup EUR R1: DEN vs TCH,Davis Cup,1969.05.09,,Clay,Round Robin
Jorgen Ulrich,,Milan Holecek,,06 64 64 36 75,Davis Cup EUR R1: DEN vs TCH,Davis Cup,1969.05.09,,Clay,Round Robin
Jan Kodes,,Jan Leschly,,62 62 63,Davis Cup EUR R1: DEN vs TCH,Davis Cup,1969.05.09,,Clay,Round Robin
Ove Nils Bengtson,,Heikki Hedman,,64 60 63,Davis Cup EUR R1: FIN vs SWE,Davis Cup,1969.05.09,,Clay,Round Robin
George Berner,,Hans Nerell,,36 64 61 63,Davis Cup EUR R1: FIN vs SWE,Davis Cup,1969.05.09,,Clay,Round Robin
Hans Nerell,,Heikki Hedman,,62 60 64,Davis Cup EUR R1: FIN vs SWE,Davis Cup,1969.05.09,,Clay,Round Robin
Ove Nils Bengtson,,George Berner,,57 62 63 64,Davis Cup EUR R1: FIN vs SWE,Davis Cup,1969.05.09,,Clay,Round Robin
Christian Kuhnke,,Onny Parun,,75 64 36 64,Davis Cup EUR R1: FRG vs NZL,Davis Cup,1969.05.09,,,Round Robin
Brian Fairlie,,Wilhelm Bungert,,60 75 60,Davis Cup EUR R1: FRG vs NZL,Davis Cup,1969.05.09,,,Round Robin
Christian Kuhnke,,Brian Fairlie,,63 61 64,Davis Cup EUR R1: FRG vs NZL,Davis Cup,1969.05.09,,,Round Robin
Wilhelm Bungert,,Onny Parun,,64 97 60,Davis Cup EUR R1: FRG vs NZL,Davis Cup,1969.05.09,,,Round Robin
Vladimir Korotkov,,Epaminondas Argyriou,,62 63,Davis Cup EUR R1: GRE vs URS,Davis Cup,1969.05.09,,,Round Robin
Thomas Lejus,,Periclis Gavrilidis,,61 16 64 64,Davis Cup EUR R1: GRE vs URS,Davis Cup,1969.05.09,,,Round Robin
Thomas Lejus,,Nicholas Kalogeropoulos,,57 36 64 62 40 RET,Davis Cup EUR R1: GRE vs URS,Davis Cup,1969.05.09,,,Round Robin
Alex Metreveli,,Periclis Gavrilidis,,60 61 61,Davis Cup EUR R1: GRE vs URS,Davis Cup,1969.05.09,,,Round Robin
Michael Hickey,,Jean Neuman,,62 75 62,Davis Cup EUR R1: IRL vs LUX,Davis Cup,1969.05.09,,,Round Robin
Peter Jackson,,Thierry Brasseur,,64 61 63,Davis Cup EUR R1: IRL vs LUX,Davis Cup,1969.05.09,,,Round Robin
Peter Jackson,,Jean Neuman,,86 75 62,Davis Cup EUR R1: IRL vs LUX,Davis Cup,1969.05.09,,,Round Robin
Michael Hickey,,Thierry Brasseur,,57 63 64 64,Davis Cup EUR R1: IRL vs LUX,Davis Cup,1969.05.09,,,Round Robin
Eugenio Castigliano,,Patrick Hombergen,,36 63 64 64,Davis Cup EUR R1: ITA vs BEL,Davis Cup,1969.05.09,,Clay,Round Robin
Nicola Pietrangeli,,Eric Drossart,,75 64 79 64,Davis Cup EUR R1: ITA vs BEL,Davis Cup,1969.05.09,,Clay,Round Robin
Eugenio Castigliano,,Eric Drossart,,64 46 64 57 61,Davis Cup EUR R1: ITA vs BEL,Davis Cup,1969.05.09,,Clay,Round Robin
Nicola Pietrangeli,,Patrick Hombergen,,63 62 63,Davis Cup EUR R1: ITA vs BEL,Davis Cup,1969.05.09,,Clay,Round Robin
Ljuben Genov,,Adrien Viviani,,86 68 86 75,Davis Cup EUR R1: MON vs BUL,Davis Cup,1969.05.09,,,Round Robin
Patrick Landau,,Kiril Yashmakov,,75 62 36 75,Davis Cup EUR R1: MON vs BUL,Davis Cup,1969.05.09,,,Round Robin
Kiril Yashmakov,,Adrien Viviani,,63 36 26 62 61,Davis Cup EUR R1: MON vs BUL,Davis Cup,1969.05.09,,,Round Robin
Patrick Landau,,Ljuben Genov,,75 1012 62 46 64,Davis Cup EUR R1: MON vs BUL,Davis Cup,1969.05.09,,,Round Robin
Mike Belkin,,Jan Hordijk,,61 61 62,Davis Cup EUR R1: NED vs CAN,Davis Cup,1969.05.09,,Clay,Round Robin
Nick Fleury,,Francois Godbout,,75 62 68 63,Davis Cup EUR R1: NED vs CAN,Davis Cup,1969.05.09,,Clay,Round Robin
Mike Belkin,,Nick Fleury,,64 64 60,Davis Cup EUR R1: NED vs CAN,Davis Cup,1969.05.09,,Clay,Round Robin
Jan Hordijk,,Francois Godbout,,61 62 61,Davis Cup EUR R1: NED vs CAN,Davis Cup,1969.05.09,,Clay,Round Robin
Detler Herdy,,Jon Erik Ross,,62 64 60,Davis Cup EUR R1: NOR vs AUT,Davis Cup,1969.05.09,,Clay,Round Robin
Ernst Blanke,,Finn Dag Jagge,,62 62 46 63,Davis Cup EUR R1: NOR vs AUT,Davis Cup,1969.05.09,,Clay,Round Robin
Detler Herdy,,Finn Dag Jagge,,61 64 61,Davis Cup EUR R1: NOR vs AUT,Davis Cup,1969.05.09,,Clay,Round Robin
Ernst Blanke,,Jon Erik Ross,,62 64 64,Davis Cup EUR R1: NOR vs AUT,Davis Cup,1969.05.09,,Clay,Round Robin
Istvan Gulyas,,Wieslaw Gasiorek,,86 64 16 36 63,Davis Cup EUR R1: POL vs HUN,Davis Cup,1969.05.09,,,Round Robin
Mieczyslaw Rybarczyk,,Peter Szoke,,119 64 36 64,Davis Cup EUR R1: POL vs HUN,Davis Cup,1969.05.09,,,Round Robin
Mieczyslaw Rybarczyk,,Istvan Gulyas,,64 64 75,Davis Cup EUR R1: POL vs HUN,Davis Cup,1969.05.09,,,Round Robin
Wieslaw Gasiorek,,Peter Szoke,,79 64 79 60 62,Davis Cup EUR R1: POL vs HUN,Davis Cup,1969.05.09,,,Round Robin
Eleazar Davidman,,Olivio Silva,,62 60 61,Davis Cup EUR R1: POR vs ISR,Davis Cup,1969.05.09,,Clay,Round Robin
Alfredo Vaz Pinto,,Josef Stabholz,,61 64 64,Davis Cup EUR R1: POR vs ISR,Davis Cup,1969.05.09,,Clay,Round Robin
Eleazar Davidman,,Alfredo Vaz Pinto,,62 46 36 75 63,Davis Cup EUR R1: POR vs ISR,Davis Cup,1969.05.09,,Clay,Round Robin
Josef Stabholz,,Joao Lagos,,62 63 60,Davis Cup EUR R1: POR vs ISR,Davis Cup,1969.05.09,,Clay,Round Robin
Ismail El Shafei,,Ilie Nastase,,62 16 63 61,Davis Cup EUR R1: ROU vs EGY,Davis Cup,1969.05.09,,Clay,Round Robin
Ion Tiriac,,Moataz El Sonbol,,64 36 64 63,Davis Cup EUR R1: ROU vs EGY,Davis Cup,1969.05.09,,Clay,Round Robin
Ilie Nastase,,Moataz El Sonbol,,64 60 64,Davis Cup EUR R1: ROU vs EGY,Davis Cup,1969.05.09,,Clay,Round Robin
Ismail El Shafei,,Ion Tiriac,,63 63 63,Davis Cup EUR R1: ROU vs EGY,Davis Cup,1969.05.09,,Clay,Round Robin
Graham Stilwell,,Thedy Stalder,,62 60 62,Davis Cup EUR R1: SUI vs GBR,Davis Cup,1969.05.09,,Clay,Round Robin
Mark Cox,,Dimitri Sturdza,,63 60 46 62,Davis Cup EUR R1: SUI vs GBR,Davis Cup,1969.05.09,,Clay,Round Robin
Graham Stilwell,,Dimitri Sturdza,,86 64 61,Davis Cup EUR R1: SUI vs GBR,Davis Cup,1969.05.09,,Clay,Round Robin
Mark Cox,,Thedy Stalder,,64 86 62,Davis Cup EUR R1: SUI vs GBR,Davis Cup,1969.05.09,,Clay,Round Robin
Shiv Prakash Misra,,Koji Watanabe,,63 63 57 62,Davis Cup EUR F: IND vs JPN,Davis Cup,1969.05.10,,,Round Robin
Premjit Lall,,Ichizo Konishi,,63 61 61,Davis Cup EUR F: IND vs JPN,Davis Cup,1969.05.10,,,Round Robin
Premjit Lall,,Koji Watanabe,,62 63 64,Davis Cup EUR F: IND vs JPN,Davis Cup,1969.05.10,,,Round Robin
Ramanathan Krishnan,,Ichizo Konishi,,62 64 64,Davis Cup EUR F: IND vs JPN,Davis Cup,1969.05.10,,,Round Robin
Zeljko Franulovic,,Francois Jauffret,,63 63 63,Davis Cup EUR R1: YUG vs FRA,Davis Cup,1969.05.10,,,Round Robin
Georges Goven,,Nicola Spear,,63 62 61,Davis Cup EUR R1: YUG vs FRA,Davis Cup,1969.05.10,,,Round Robin
Zeljko Franulovic,,Georges Goven,,63 63 75,Davis Cup EUR R1: YUG vs FRA,Davis Cup,1969.05.10,,,Round Robin
Francois Jauffret,,Nicola Spear,,63 62 61,Davis Cup EUR R1: YUG vs FRA,Davis Cup,1969.05.10,,,Round Robin
Patricio Cornejo,,Miguel Olvera,,63 63 63,Davis Cup SAM SF: CHI vs ECU,Davis Cup,1969.05.16,,Clay,Round Robin
Patricio Cornejo,,Pancho Guzman,,63 16 86 64,Davis Cup SAM SF: CHI vs ECU,Davis Cup,1969.05.16,,Clay,Round Robin
Jairo Velasco,,Edison Mandarino,,62 61 63,Davis Cup SAM SF: COL vs BRA,Davis Cup,1969.05.16,,,Round Robin
Thomaz Koch,,William Alvarez,,62 75 62,Davis Cup SAM SF: COL vs BRA,Davis Cup,1969.05.16,,,Round Robin
Edison Mandarino,,William Alvarez,,97 62 75,Davis Cup SAM SF: COL vs BRA,Davis Cup,1969.05.16,,,Round Robin
Jairo Velasco,,Thomaz Koch,,36 61 64 64,Davis Cup SAM SF: COL vs BRA,Davis Cup,1969.05.16,,,Round Robin
Graham Stilwell,,Michael Hickey,,86 64 61,Davis Cup EUR QF: GBR vs IRL,Davis Cup,1969.05.22,,Grass,Round Robin
Mark Cox,,Peter Jackson,,63 62 61,Davis Cup EUR QF: GBR vs IRL,Davis Cup,1969.05.22,,Grass,Round Robin
Mark Cox,,Michael Hickey,,62 62 63,Davis Cup EUR QF: GBR vs IRL,Davis Cup,1969.05.22,,Grass,Round Robin
Graham Stilwell,,Peter Jackson,,62 62 61,Davis Cup EUR QF: GBR vs IRL,Davis Cup,1969.05.22,,Grass,Round Robin
Ilie Nastase,,Eleazar Davidman,,60 62 64,Davis Cup EUR QF: ROU vs ISR,Davis Cup,1969.05.22,,Clay,Round Robin
Ion Tiriac,,Josef Stabholz,,62 62 60,Davis Cup EUR QF: ROU vs ISR,Davis Cup,1969.05.22,,Clay,Round Robin
Ion Tiriac,,Eleazar Davidman,,62 75 62,Davis Cup EUR QF: ROU vs ISR,Davis Cup,1969.05.22,,Clay,Round Robin
Ilie Nastase,,Josef Stabholz,,62 62 60,Davis Cup EUR QF: ROU vs ISR,Davis Cup,1969.05.22,,Clay,Round Robin
Rafael Osuna,,Bill Bowrey,,62 36 86 63,Davis Cup AME F: MEX vs AUS,Davis Cup,1969.05.23,,Clay,Round Robin
Ray Ruffels,,Joaquin Loyo Mayo,,63 46 64 108,Davis Cup AME F: MEX vs AUS,Davis Cup,1969.05.23,,Clay,Round Robin
Bill Bowrey,,Joaquin Loyo Mayo,,46 63 62 75,Davis Cup AME F: MEX vs AUS,Davis Cup,1969.05.23,,Clay,Round Robin
Rafael Osuna,,Ray Ruffels,,97 36 75 63,Davis Cup AME F: MEX vs AUS,Davis Cup,1969.05.23,,Clay,Round Robin
Eugenio Castigliano,,Dieter Schultheiss,,36 61 62 61,Davis Cup EUR QF: ITA vs AUT,Davis Cup,1969.05.23,,Clay,Round Robin
Nicola Pietrangeli,,Ernst Blanke,,36 75 62 16 86,Davis Cup EUR QF: ITA vs AUT,Davis Cup,1969.05.23,,Clay,Round Robin
Eugenio Castigliano,,Ernst Blanke,,16 63 36 44 RET,Davis Cup EUR QF: ITA vs AUT,Davis Cup,1969.05.23,,Clay,Round Robin
Nicola Pietrangeli,,Detler Herdy,,61 86 63,Davis Cup EUR QF: ITA vs AUT,Davis Cup,1969.05.23,,Clay,Round Robin
Jan Kukal,,Andres Vatrican,,61 61 60,Davis Cup EUR QF: MON vs TCH,Davis Cup,1969.05.23,,Clay,Round Robin
Vladimir Zednik,,Adrien Viviani,,60 75 63,Davis Cup EUR QF: MON vs TCH,Davis Cup,1969.05.23,,Clay,Round Robin
Vladimir Zednik,,Francisco Truchi,,61 61 61,Davis Cup EUR QF: MON vs TCH,Davis Cup,1969.05.23,,Clay,Round Robin
Jan Kukal,,Rene Ruzic,,61 62 61,Davis Cup EUR QF: MON vs TCH,Davis Cup,1969.05.23,,Clay,Round Robin
Alex Metreveli,,Mike Belkin,,26 89 RET,Davis Cup EUR QF: URS vs CAN,Davis Cup,1969.05.23,,Clay,Round Robin
Thomas Lejus,,John Sharpe,,64 64 64,Davis Cup EUR QF: URS vs CAN,Davis Cup,1969.05.23,,Clay,Round Robin
Mike Belkin,,Thomas Lejus,,79 63 46 62 97,Davis Cup EUR QF: URS vs CAN,Davis Cup,1969.05.23,,Clay,Round Robin
Alex Metreveli,,John Sharpe,,60 60 64,Davis Cup EUR QF: URS vs CAN,Davis Cup,1969.05.23,,Clay,Round Robin
Manuel Orantes,,Boro Jovanovic,,62 64 64,Davis Cup EUR QF: YUG vs ESP,Davis Cup,1969.05.23,,Clay,Round Robin
Manuel Santana,,Zeljko Franulovic,,64 36 97 62,Davis Cup EUR QF: YUG vs ESP,Davis Cup,1969.05.23,,Clay,Round Robin
Manuel Santana,,Boro Jovanovic,,61 61 63,Davis Cup EUR QF: YUG vs ESP,Davis Cup,1969.05.23,,Clay,Round Robin
Manuel Orantes,,Zeljko Franulovic,,75 64 86,Davis Cup EUR QF: YUG vs ESP,Davis Cup,1969.05.23,,Clay,Round Robin
Christian Kuhnke,,Jan Eric Lundquist,,36 36 64 97 63,Davis Cup EUR QF: SWE vs FRG,Davis Cup,1969.05.24,,Clay,Round Robin
Wilhelm Bungert,,Ove Nils Bengtson,,911 63 64 61,Davis Cup EUR QF: SWE vs FRG,Davis Cup,1969.05.24,,Clay,Round Robin
Wilhelm Bungert,,Jan Eric Lundquist,,63 64 64,Davis Cup EUR QF: SWE vs FRG,Davis Cup,1969.05.24,,Clay,Round Robin
Christian Kuhnke,,Ove Nils Bengtson,,63 75 63,Davis Cup EUR QF: SWE vs FRG,Davis Cup,1969.05.24,,Clay,Round Robin
Mark Cox,,Wilhelm Bungert,,63 26 810 75 62,Davis Cup EUR SF: GBR vs FRG,Davis Cup,1969.06.12,,Grass,Round Robin
Christian Kuhnke,,Graham Stilwell,,64 1412 75,Davis Cup EUR SF: GBR vs FRG,Davis Cup,1969.06.12,,Grass,Round Robin
Graham Stilwell,,Wilhelm Bungert,,97 63 75,Davis Cup EUR SF: GBR vs FRG,Davis Cup,1969.06.12,,Grass,Round Robin
Mark Cox,,Christian Kuhnke,,46 63 64 62,Davis Cup EUR SF: GBR vs FRG,Davis Cup,1969.06.12,,Grass,Round Robin
Manuel Orantes,,Peter Marmureanu,,61 61 61,Davis Cup EUR SF: ESP vs ROU,Davis Cup,1969.06.13,,Clay,Round Robin
Ion Tiriac,,Jose Luis Arillla,,62 36 62 64,Davis Cup EUR SF: ESP vs ROU,Davis Cup,1969.06.13,,Clay,Round Robin
Ion Tiriac,,Manuel Orantes,,64 63 46 16 63,Davis Cup EUR SF: ESP vs ROU,Davis Cup,1969.06.13,,Clay,Round Robin
Ilie Nastase,,Jose Luis Arillla,,64 86 62,Davis Cup EUR SF: ESP vs ROU,Davis Cup,1969.06.13,,Clay,Round Robin
Thomas Lejus,,Eugenio Castigliano,,46 36 64 75 62,Davis Cup EUR SF: URS vs ITA,Davis Cup,1969.06.13,,,Round Robin
Alex Metreveli,,Nicola Pietrangeli,,62 62 62,Davis Cup EUR SF: URS vs ITA,Davis Cup,1969.06.13,,,Round Robin
Alex Metreveli,,Eugenio Castigliano,,61 62 63,Davis Cup EUR SF: URS vs ITA,Davis Cup,1969.06.13,,,Round Robin
Thomas Lejus,,Nicola Pietrangeli,,64 64 68 63,Davis Cup EUR SF: URS vs ITA,Davis Cup,1969.06.13,,,Round Robin
Patricio Cornejo,,Edison Mandarino,,64 36 26 60 64,Davis Cup SAM F: CHI vs BRA,Davis Cup,1969.06.14,,,Round Robin
Thomaz Koch,,Patricio Cornejo,,75 63 64,Davis Cup SAM F: CHI vs BRA,Davis Cup,1969.06.14,,,Round Robin
Bob Hewitt,,Mark Cox,,36 60 46 63 97,Davis Cup EUR F: GBR vs RSA,Davis Cup,1969.07.17,,Grass,Round Robin
Graham Stilwell,,Robert Maud,,86 119 63,Davis Cup EUR F: GBR vs RSA,Davis Cup,1969.07.17,,Grass,Round Robin
Bob Hewitt,,Graham Stilwell,,79 63 36 62 63,Davis Cup EUR F: GBR vs RSA,Davis Cup,1969.07.17,,Grass,Round Robin
Mark Cox,,Robert Maud,,36 63 64 36 64,Davis Cup EUR F: GBR vs RSA,Davis Cup,1969.07.17,,Grass,Round Robin
Vladimir Korotkov,,Sever Dron,,61 64 64,Davis Cup EUR F: ROU vs URS,Davis Cup,1969.07.18,,Clay,Round Robin
Ilie Nastase,,Thomas Lejus,,46 63 62 62,Davis Cup EUR F: ROU vs URS,Davis Cup,1969.07.18,,Clay,Round Robin
Ilie Nastase,,Alex Metreveli,,64 62 75,Davis Cup EUR F: ROU vs URS,Davis Cup,1969.07.18,,Clay,Round Robin
Ion Tiriac,,Thomas Lejus,,63 63 86,Davis Cup EUR F: ROU vs URS,Davis Cup,1969.07.18,,Clay,Round Robin
Thomaz Koch,,Luis Augusto Garcia,,46 61 62 64,Davis Cup AME F: BRA vs MEX,Davis Cup,1969.07.19,,Clay,Round Robin
Joaquin Loyo Mayo,,Edison Mandarino,,26 57 75 63 75,Davis Cup AME F: BRA vs MEX,Davis Cup,1969.07.19,,Clay,Round Robin
Thomaz Koch,,Joaquin Loyo Mayo,,75 61 63,Davis Cup AME F: BRA vs MEX,Davis Cup,1969.07.19,,Clay,Round Robin
Edison Mandarino,,Marcello Lara,,46 62 64 57 63,Davis Cup AME F: BRA vs MEX,Davis Cup,1969.07.19,,Clay,Round Robin
Mark Cox,,Edison Mandarino,,63 1816 36 62,Davis Cup EUR SF: GBR vs BRA,Davis Cup,1969.07.31,,Grass,Round Robin
Graham Stilwell,,Thomaz Koch,,75 64 64,Davis Cup EUR SF: GBR vs BRA,Davis Cup,1969.07.31,,Grass,Round Robin
Thomaz Koch,,Mark Cox,,46 1113 63 86 86,Davis Cup EUR SF: GBR vs BRA,Davis Cup,1969.07.31,,Grass,Round Robin
Graham Stilwell,,Edison Mandarino,,63 86 86,Davis Cup EUR SF: GBR vs BRA,Davis Cup,1969.07.31,,Grass,Round Robin
Peter Marmureanu,,Gaurav Misra,,62 62 63,Davis Cup WG SF: ROU vs IND,Davis Cup,1969.08.01,,Clay,Round Robin
Ilie Nastase,,Jaidip Mukerjea,,62 64 46 46 61,Davis Cup WG SF: ROU vs IND,Davis Cup,1969.08.01,,Clay,Round Robin
Ion Tiriac,,Premjit Lall,,62 63 62,Davis Cup WG SF: ROU vs IND,Davis Cup,1969.08.01,,Clay,Round Robin
Ilie Nastase,,Mark Cox,,36 61 64 64,Davis Cup EUR F: GBR vs ROU,Davis Cup,1969.08.14,,Grass,Round Robin
Graham Stilwell,,Ion Tiriac,,63 62 62,Davis Cup EUR F: GBR vs ROU,Davis Cup,1969.08.14,,Grass,Round Robin
Graham Stilwell,,Ilie Nastase,,64 46 61 62,Davis Cup EUR F: GBR vs ROU,Davis Cup,1969.08.14,,Grass,Round Robin
Ion Tiriac,,Mark Cox,,64 64 63,Davis Cup EUR F: GBR vs ROU,Davis Cup,1969.08.14,,Grass,Round Robin
Arthur Ashe,,Ion Tiriac,,63 86 36 40 RET,Davis Cup WG CR: USA vs ROU,Davis Cup,1969.09.19,,Hard,Round Robin
Stan Smith,,Ilie Nastase,,46 46 64 61 119,Davis Cup WG CR: USA vs ROU,Davis Cup,1969.09.19,,Hard,Round Robin
Stan Smith,,Ion Tiriac,,68 63 57 64 64,Davis Cup WG CR: USA vs ROU,Davis Cup,1969.09.19,,Hard,Round Robin
Arthur Ashe,,Ilie Nastase,,62 1513 75,Davis Cup WG CR: USA vs ROU,Davis Cup,1969.09.19,,Hard,Round Robin
