Roy Emerson,roy-emerson/e030,Rod Laver,rod-laver/l058,16 63 75 64,Australian Championships,Grand Slam,1961.01.20,Outdoor,Grass,Finals
Rod Laver,rod-laver/l058,Barry Phillips-Moore,barry-phillips-moore/p078,62 62 64,Australian Championships,Grand Slam,1961.01.20,Outdoor,Grass,Semi-Finals
Roy Emerson,roy-emerson/e030,Fred Stolle,fred-stolle/s129,86 62 75,Australian Championships,Grand Slam,1961.01.20,Outdoor,Grass,Semi-Finals
Rod Laver,rod-laver/l058,Ken Fletcher,ken-fletcher/f108,62 24 (RET),Australian Championships,Grand Slam,1961.01.20,Outdoor,Grass,Quarter-Finals
Roy Emerson,roy-emerson/e030,John Pearce,john-pearce/pi14,61 62 63,Australian Championships,Grand Slam,1961.01.20,Outdoor,Grass,Quarter-Finals
Fred Stolle,fred-stolle/s129,Michael Sangster,michael-sangster/s239,63 64 63,Australian Championships,Grand Slam,1961.01.20,Outdoor,Grass,Quarter-Finals
Barry Phillips-Moore,barry-phillips-moore/p078,Christian Kuhnke,christian-kuhnke/k138,57 63 62 63,Australian Championships,Grand Slam,1961.01.20,Outdoor,Grass,Quarter-Finals
Rod Laver,rod-laver/l058,William Coghlan,william-coghlan/c228,64 61 97,Australian Championships,Grand Slam,1961.01.20,Outdoor,Grass,Round of 16
Roy Emerson,roy-emerson/e030,Bert Kearney,bert-kearney/k145,61 62 97,Australian Championships,Grand Slam,1961.01.20,Outdoor,Grass,Round of 16
Michael Sangster,michael-sangster/s239,Bob Mark,bob-mark/mq23,(W/O),Australian Championships,Grand Slam,1961.01.20,Outdoor,Grass,Round of 16
Christian Kuhnke,christian-kuhnke/k138,Bob Hewitt,bob-hewitt/h058,61 64 16 63,Australian Championships,Grand Slam,1961.01.20,Outdoor,Grass,Round of 16
Barry Phillips-Moore,barry-phillips-moore/p078,Bob Howe,bob-howe/h130,62 119 36 86,Australian Championships,Grand Slam,1961.01.20,Outdoor,Grass,Round of 16
Fred Stolle,fred-stolle/s129,Brian Tobin,brian-tobin/t376,63 63 63,Australian Championships,Grand Slam,1961.01.20,Outdoor,Grass,Round of 16
John Pearce,john-pearce/pi14,Wayne Reid,wayne-reid/r174,62 62 60,Australian Championships,Grand Slam,1961.01.20,Outdoor,Grass,Round of 16
Ken Fletcher,ken-fletcher/f108,Allen Shapter,allen-shapter/s303,63 62 63,Australian Championships,Grand Slam,1961.01.20,Outdoor,Grass,Round of 16
Rod Laver,rod-laver/l058,Pat O'Kane,pat-o'kane/o537,62 63 60,Australian Championships,Grand Slam,1961.01.20,Outdoor,Grass,Round of 32
Roy Emerson,roy-emerson/e030,Alan Hicks,alan-hicks/hc54,61 61 62,Australian Championships,Grand Slam,1961.01.20,Outdoor,Grass,Round of 32
Bob Mark,bob-mark/mq23,Martin Mulligan,martin-mulligan/m155,63 63 64,Australian Championships,Grand Slam,1961.01.20,Outdoor,Grass,Round of 32
Bob Hewitt,bob-hewitt/h058,Michael Preston Hann,michael-preston-hann/hc37,64 64 06 75,Australian Championships,Grand Slam,1961.01.20,Outdoor,Grass,Round of 32
Michael Sangster,michael-sangster/s239,Colin Stubs,colin-stubs/s244,36 108 64 26 62,Australian Championships,Grand Slam,1961.01.20,Outdoor,Grass,Round of 32
Christian Kuhnke,christian-kuhnke/k138,Greg Hughes,greg-hughes/hc48,86 86 64,Australian Championships,Grand Slam,1961.01.20,Outdoor,Grass,Round of 32
Bob Howe,bob-howe/h130,Richard Potter,richard-potter/pi18,61 64 75,Australian Championships,Grand Slam,1961.01.20,Outdoor,Grass,Round of 32
Fred Stolle,fred-stolle/s129,Doug Reid,doug-reid/r522,1513 64 63,Australian Championships,Grand Slam,1961.01.20,Outdoor,Grass,Round of 32
Wayne Reid,wayne-reid/r174,Noel Holland,noel-holland/hc38,97 61 63,Australian Championships,Grand Slam,1961.01.20,Outdoor,Grass,Round of 32
Ken Fletcher,ken-fletcher/f108,Anthony Ryan,anthony-ryan/r158,63 62 36 61,Australian Championships,Grand Slam,1961.01.20,Outdoor,Grass,Round of 32
Brian Tobin,brian-tobin/t376,Sergio Tacchini,sergio-tacchini/t081,75 62 75,Australian Championships,Grand Slam,1961.01.20,Outdoor,Grass,Round of 32
Barry Phillips-Moore,barry-phillips-moore/p078,Neville Nette,neville-nette/n788,75 62 62,Australian Championships,Grand Slam,1961.01.20,Outdoor,Grass,Round of 32
William Coghlan,william-coghlan/c228,Song-Kean Tan,song-kean-tan/td58,61 62 61,Australian Championships,Grand Slam,1961.01.20,Outdoor,Grass,Round of 32
Bert Kearney,bert-kearney/k145,John Stephens,john-stephens/s304,46 64 62 60,Australian Championships,Grand Slam,1961.01.20,Outdoor,Grass,Round of 32
John Pearce,john-pearce/pi14,Neil Gibson,neil-gibson/gg11,64 63 64,Australian Championships,Grand Slam,1961.01.20,Outdoor,Grass,Round of 32
Allen Shapter,allen-shapter/s303,Paul Hearnden,paul-hearnden/hc53,63 810 86 46 61,Australian Championships,Grand Slam,1961.01.20,Outdoor,Grass,Round of 32
Bob Mark,bob-mark/mq23,John Hillebrand,john-hillebrand/h543,61 64 60,Australian Championships,Grand Slam,1961.01.20,Outdoor,Grass,Round of 64
Bob Hewitt,bob-hewitt/h058,John Fraser,john-fraser/f134,61 75 61,Australian Championships,Grand Slam,1961.01.20,Outdoor,Grass,Round of 64
Michael Sangster,michael-sangster/s239,Ronald McKenzie,ronald-mckenzie/mq03,62 62 62,Australian Championships,Grand Slam,1961.01.20,Outdoor,Grass,Round of 64
Christian Kuhnke,christian-kuhnke/k138,Peter McPherson,peter-mcpherson/m352,61 16 63 60,Australian Championships,Grand Slam,1961.01.20,Outdoor,Grass,Round of 64
Sergio Tacchini,sergio-tacchini/t081,Wayne Millen,wayne-millen/mq24,61 61 60,Australian Championships,Grand Slam,1961.01.20,Outdoor,Grass,Round of 64
Barry Phillips-Moore,barry-phillips-moore/p078,Owen French,owen-french/f967,62 36 62 63,Australian Championships,Grand Slam,1961.01.20,Outdoor,Grass,Round of 64
Michael Preston Hann,michael-preston-hann/hc37,Geoffrey Pares,geoffrey-pares/p194,61 26 62 75,Australian Championships,Grand Slam,1961.01.20,Outdoor,Grass,Round of 64
Greg Hughes,greg-hughes/hc48,William Johnson,william-johnson/j596,62 63 810 61,Australian Championships,Grand Slam,1961.01.20,Outdoor,Grass,Round of 64
Martin Mulligan,martin-mulligan/m155,Paul Graham Jones,paul-graham-jones/j597,63 62 62,Australian Championships,Grand Slam,1961.01.20,Outdoor,Grass,Round of 64
Neville Nette,neville-nette/n788,Robert Pearson,robert-pearson/pi20,63 60 61,Australian Championships,Grand Slam,1961.01.20,Outdoor,Grass,Round of 64
Colin Stubs,colin-stubs/s244,Sultan-Aman Azman,sultan-aman-azman/ad63,60 61 86,Australian Championships,Grand Slam,1961.01.20,Outdoor,Grass,Round of 64
Brian Tobin,brian-tobin/t376,Jim Sheperd,jim-sheperd/ss70,63 63 62,Australian Championships,Grand Slam,1961.01.20,Outdoor,Grass,Round of 64
Manuel Santana,manuel-santana/s245,Nicola Pietrangeli,nicola-pietrangeli/p141,46 61 36 60 62,French Championships,Grand Slam,1961.05.16,Outdoor,Clay,Finals
Nicola Pietrangeli,nicola-pietrangeli/p141,Jan-Erik Lundqvist,jan-erik-lundqvist/l158,64 64 64,French Championships,Grand Slam,1961.05.16,Outdoor,Clay,Semi-Finals
Manuel Santana,manuel-santana/s245,Rod Laver,rod-laver/l058,36 62 46 64 60,French Championships,Grand Slam,1961.05.16,Outdoor,Clay,Semi-Finals
Nicola Pietrangeli,nicola-pietrangeli/p141,Gerard Pilet,gerard-pilet/p185,63 68 63 61,French Championships,Grand Slam,1961.05.16,Outdoor,Clay,Quarter-Finals
Rod Laver,rod-laver/l058,Ron Holmberg,ron-holmberg/h061,64 60 36 63,French Championships,Grand Slam,1961.05.16,Outdoor,Clay,Quarter-Finals
Manuel Santana,manuel-santana/s245,Roy Emerson,roy-emerson/e030,97 62 62,French Championships,Grand Slam,1961.05.16,Outdoor,Clay,Quarter-Finals
Jan-Erik Lundqvist,jan-erik-lundqvist/l158,Carlos-Alberto Fernandes,carlos-alberto-fernandes/f111,64 64 63,French Championships,Grand Slam,1961.05.16,Outdoor,Clay,Quarter-Finals
Nicola Pietrangeli,nicola-pietrangeli/p141,Nikola Pilic,nikola-pilic/p080,64 68 63 86,French Championships,Grand Slam,1961.05.16,Outdoor,Clay,Round of 16
Rod Laver,rod-laver/l058,Ron Barnes,ron-barnes/bc56,63 46 62 63,French Championships,Grand Slam,1961.05.16,Outdoor,Clay,Round of 16
Roy Emerson,roy-emerson/e030,Barry Phillips-Moore,barry-phillips-moore/p078,62 46 63 62,French Championships,Grand Slam,1961.05.16,Outdoor,Clay,Round of 16
Jan-Erik Lundqvist,jan-erik-lundqvist/l158,Mario Llamas,mario-llamas/le42,64 36 86 63,French Championships,Grand Slam,1961.05.16,Outdoor,Clay,Round of 16
Manuel Santana,manuel-santana/s245,Michael Sangster,michael-sangster/s239,63 64 63,French Championships,Grand Slam,1961.05.16,Outdoor,Clay,Round of 16
Ron Holmberg,ron-holmberg/h061,Jacques Brichant,jacques-brichant/bn76,26 86 64 63,French Championships,Grand Slam,1961.05.16,Outdoor,Clay,Round of 16
Gerard Pilet,gerard-pilet/p185,Bobby Wilson,bobby-wilson/w622,86 75 61,French Championships,Grand Slam,1961.05.16,Outdoor,Clay,Round of 16
Carlos-Alberto Fernandes,carlos-alberto-fernandes/f111,Bob Hewitt,bob-hewitt/h058,97 26 62 62,French Championships,Grand Slam,1961.05.16,Outdoor,Clay,Round of 16
Nicola Pietrangeli,nicola-pietrangeli/p141,John Newcombe,john-newcombe/n044,62 62 64,French Championships,Grand Slam,1961.05.16,Outdoor,Clay,Round of 32
Rod Laver,rod-laver/l058,Eduardo Soriano,eduardo-soriano/sc14,62 63 108,French Championships,Grand Slam,1961.05.16,Outdoor,Clay,Round of 32
Roy Emerson,roy-emerson/e030,Jean-Claude Barclay,jean-claude-barclay/b119,75 61 60,French Championships,Grand Slam,1961.05.16,Outdoor,Clay,Round of 32
Jan-Erik Lundqvist,jan-erik-lundqvist/l158,John Barrett,john-barrett/b226,63 61 63,French Championships,Grand Slam,1961.05.16,Outdoor,Clay,Round of 32
Carlos-Alberto Fernandes,carlos-alberto-fernandes/f111,Pierre Darmon,pierre-darmon/d131,63 63 62,French Championships,Grand Slam,1961.05.16,Outdoor,Clay,Round of 32
Manuel Santana,manuel-santana/s245,William Alvarez,william-alvarez/a121,64 61 63,French Championships,Grand Slam,1961.05.16,Outdoor,Clay,Round of 32
Ron Holmberg,ron-holmberg/h061,Lahcen Chaldi,lahcen-chaldi/ci22,36 61 60 63,French Championships,Grand Slam,1961.05.16,Outdoor,Clay,Round of 32
Bobby Wilson,bobby-wilson/w622,Francois Jauffret,francois-jauffret/j031,62 63 63,French Championships,Grand Slam,1961.05.16,Outdoor,Clay,Round of 32
Jacques Brichant,jacques-brichant/bn76,Abe Segal,abe-segal/s242,63 61 63,French Championships,Grand Slam,1961.05.16,Outdoor,Clay,Round of 32
Bob Hewitt,bob-hewitt/h058,Martin Mulligan,martin-mulligan/m155,61 36 61 61,French Championships,Grand Slam,1961.05.16,Outdoor,Clay,Round of 32
Mario Llamas,mario-llamas/le42,Ingo Buding,ingo-buding/b225,63 63 63,French Championships,Grand Slam,1961.05.16,Outdoor,Clay,Round of 32
Barry Phillips-Moore,barry-phillips-moore/p078,Orlando Sirola,orlando-sirola/ss58,63 63 60,French Championships,Grand Slam,1961.05.16,Outdoor,Clay,Round of 32
Ron Barnes,ron-barnes/bc56,Ken Fletcher,ken-fletcher/f108,63 62 75,French Championships,Grand Slam,1961.05.16,Outdoor,Clay,Round of 32
Gerard Pilet,gerard-pilet/p185,Wladyslaw Skonecki,wladyslaw-skonecki/ss73,62 62 86,French Championships,Grand Slam,1961.05.16,Outdoor,Clay,Round of 32
Nikola Pilic,nikola-pilic/p080,Mustapha Belkhodja,mustapha-belkhodja/bn53,64 61 16 62,French Championships,Grand Slam,1961.05.16,Outdoor,Clay,Round of 32
Michael Sangster,michael-sangster/s239,Fred Stolle,fred-stolle/s129,61 63 63,French Championships,Grand Slam,1961.05.16,Outdoor,Clay,Round of 32
Nicola Pietrangeli,nicola-pietrangeli/p141,Daniel Contet,daniel-contet/c170,62 63 64,French Championships,Grand Slam,1961.05.16,Outdoor,Clay,Round of 64
Rod Laver,rod-laver/l058,Akhtar Ali,akhtar-ali/ad64,62 62 62,French Championships,Grand Slam,1961.05.16,Outdoor,Clay,Round of 64
Roy Emerson,roy-emerson/e030,Michael Preston Hann,michael-preston-hann/hc37,64 64 62,French Championships,Grand Slam,1961.05.16,Outdoor,Clay,Round of 64
Jan-Erik Lundqvist,jan-erik-lundqvist/l158,Christian Grandet,christian-grandet/gg16,(W/O),French Championships,Grand Slam,1961.05.16,Outdoor,Clay,Round of 64
Pierre Darmon,pierre-darmon/d131,Tony Pickard,tony-pickard/pd90,61 63 62,French Championships,Grand Slam,1961.05.16,Outdoor,Clay,Round of 64
Manuel Santana,manuel-santana/s245,Istvan Gulyas,istvan-gulyas/g151,63 61 63,French Championships,Grand Slam,1961.05.16,Outdoor,Clay,Round of 64
Ron Holmberg,ron-holmberg/h061,Pierre Jauffret,pierre-jauffret/j071,63 108 64,French Championships,Grand Slam,1961.05.16,Outdoor,Clay,Round of 64
Bobby Wilson,bobby-wilson/w622,Enrique Morea,enrique-morea/mp49,64 62 62,French Championships,Grand Slam,1961.05.16,Outdoor,Clay,Round of 64
Wladyslaw Skonecki,wladyslaw-skonecki/ss73,Bob Mark,bob-mark/mq23,63 36 86 62,French Championships,Grand Slam,1961.05.16,Outdoor,Clay,Round of 64
Jacques Brichant,jacques-brichant/bn76,Paul Jalabert,paul-jalabert/j590,63 61 06 62,French Championships,Grand Slam,1961.05.16,Outdoor,Clay,Round of 64
Bob Hewitt,bob-hewitt/h058,Julian Mayers,julian-mayers/mq27,36 36 62 75 63,French Championships,Grand Slam,1961.05.16,Outdoor,Clay,Round of 64
Mario Llamas,mario-llamas/le42,Andrzej Licis,andrzej-licis/l133,64 62 63,French Championships,Grand Slam,1961.05.16,Outdoor,Clay,Round of 64
Orlando Sirola,orlando-sirola/ss58,Torben Ulrich,torben-ulrich/u011,(W/O),French Championships,Grand Slam,1961.05.16,Outdoor,Clay,Round of 64
Ron Barnes,ron-barnes/bc56,Jiri Javorsky,jiri-javorsky/j588,64 61 60,French Championships,Grand Slam,1961.05.16,Outdoor,Clay,Round of 64
Mustapha Belkhodja,mustapha-belkhodja/bn53,Lew Gerrard,lew-gerrard/g159,63 46 64 62,French Championships,Grand Slam,1961.05.16,Outdoor,Clay,Round of 64
William Alvarez,william-alvarez/a121,Sergio Tacchini,sergio-tacchini/t081,75 68 61 64,French Championships,Grand Slam,1961.05.16,Outdoor,Clay,Round of 64
Jean-Claude Barclay,jean-claude-barclay/b119,Julian L. P. Coni,julian-l.-p.-coni/ci31,63 63 62,French Championships,Grand Slam,1961.05.16,Outdoor,Clay,Round of 64
John Barrett,john-barrett/b226,Albert Gaertner,albert-gaertner/gf83,26 64 64 64,French Championships,Grand Slam,1961.05.16,Outdoor,Clay,Round of 64
Ingo Buding,ingo-buding/b225,Bernard Boutboul,bernard-boutboul/b822,63 63 46 61,French Championships,Grand Slam,1961.05.16,Outdoor,Clay,Round of 64
Lahcen Chaldi,lahcen-chaldi/ci22,Vladimir Presecki,vladimir-presecki/pi19,63 62 26 97,French Championships,Grand Slam,1961.05.16,Outdoor,Clay,Round of 64
Carlos-Alberto Fernandes,carlos-alberto-fernandes/f111,Bob Howe,bob-howe/h130,75 63 62,French Championships,Grand Slam,1961.05.16,Outdoor,Clay,Round of 64
Ken Fletcher,ken-fletcher/f108,Jean-Noel Grinda,jean-noel-grinda/g331,63 62 64,French Championships,Grand Slam,1961.05.16,Outdoor,Clay,Round of 64
Francois Jauffret,francois-jauffret/j031,Jose Edison Mandarino,jose-edison-mandarino/m135,57 63 64 86,French Championships,Grand Slam,1961.05.16,Outdoor,Clay,Round of 64
Martin Mulligan,martin-mulligan/m155,Mark Otway,mark-otway/o538,75 64 75,French Championships,Grand Slam,1961.05.16,Outdoor,Clay,Round of 64
John Newcombe,john-newcombe/n044,Jorgen Ulrich,jorgen-ulrich/u016,(W/O),French Championships,Grand Slam,1961.05.16,Outdoor,Clay,Round of 64
Barry Phillips-Moore,barry-phillips-moore/p078,Christian Duxin,christian-duxin/d129,64 75 75,French Championships,Grand Slam,1961.05.16,Outdoor,Clay,Round of 64
Gerard Pilet,gerard-pilet/p185,Crawford Henry,crawford-henry/h148,16 64 86 63,French Championships,Grand Slam,1961.05.16,Outdoor,Clay,Round of 64
Nikola Pilic,nikola-pilic/p080,Neil Gibson,neil-gibson/gg11,62 46 46 63 61,French Championships,Grand Slam,1961.05.16,Outdoor,Clay,Round of 64
Michael Sangster,michael-sangster/s239,Isaias Pimentel,isaias-pimentel/pi12,63 64 06 64,French Championships,Grand Slam,1961.05.16,Outdoor,Clay,Round of 64
Abe Segal,abe-segal/s242,Stefano Gaudenzi,stefano-gaudenzi/gg01,62 63 63,French Championships,Grand Slam,1961.05.16,Outdoor,Clay,Round of 64
Eduardo Soriano,eduardo-soriano/sc14,Alan Mills,alan-mills/m270,62 63 64,French Championships,Grand Slam,1961.05.16,Outdoor,Clay,Round of 64
Fred Stolle,fred-stolle/s129,Boro Jovanovic,boro-jovanovic/j033,62 119 62,French Championships,Grand Slam,1961.05.16,Outdoor,Clay,Round of 64
Pierre Darmon,pierre-darmon/d131,Francois Godbout,francois-godbout/gg04,62 62 62,French Championships,Grand Slam,1961.05.16,Outdoor,Clay,Round of 128
Manuel Santana,manuel-santana/s245,Adrian Bey,adrian-bey/bn66,62 16 61 63,French Championships,Grand Slam,1961.05.16,Outdoor,Clay,Round of 128
Isaias Pimentel,isaias-pimentel/pi12,Ulf Schmidt,ulf-schmidt/ss72,63 61 60,French Championships,Grand Slam,1961.05.16,Outdoor,Clay,Round of 128
Bob Hewitt,bob-hewitt/h058,Christian Kuhnke,christian-kuhnke/k138,36 62 64 63,French Championships,Grand Slam,1961.05.16,Outdoor,Clay,Round of 128
William Alvarez,william-alvarez/a121,Robin Sanders,robin-sanders/ss42,64 63 64,French Championships,Grand Slam,1961.05.16,Outdoor,Clay,Round of 128
Carlos-Alberto Fernandes,carlos-alberto-fernandes/f111,Alain Bresson,alain-bresson/b826,64 64 62,French Championships,Grand Slam,1961.05.16,Outdoor,Clay,Round of 128
Istvan Gulyas,istvan-gulyas/g151,Orlando Garrido,orlando-garrido/gg15,(W/O),French Championships,Grand Slam,1961.05.16,Outdoor,Clay,Round of 128
Bob Howe,bob-howe/h130,Patricio Rodriguez,patricio-rodriguez/r074,46 63 46 62 62,French Championships,Grand Slam,1961.05.16,Outdoor,Clay,Round of 128
Boro Jovanovic,boro-jovanovic/j033,Wilhelm Bungert,wilhelm-bungert/b237,68 26 60 64 64,French Championships,Grand Slam,1961.05.16,Outdoor,Clay,Round of 128
Julian Mayers,julian-mayers/mq27,Ivko Plecevic,ivko-plecevic/pi22,61 75 60,French Championships,Grand Slam,1961.05.16,Outdoor,Clay,Round of 128
Martin Mulligan,martin-mulligan/m155,Wieslaw Gasiorek,wieslaw-gasiorek/g152,06 46 64 75 64,French Championships,Grand Slam,1961.05.16,Outdoor,Clay,Round of 128
Mark Otway,mark-otway/o538,Jaidip Mukerjea,jaidip-mukerjea/m272,46 60 63 62,French Championships,Grand Slam,1961.05.16,Outdoor,Clay,Round of 128
Barry Phillips-Moore,barry-phillips-moore/p078,John Swann,john-swann/sc81,61 60 97,French Championships,Grand Slam,1961.05.16,Outdoor,Clay,Round of 128
Tony Pickard,tony-pickard/pd90,Dieter Ecklebe,dieter-ecklebe/e896,63 61 57 16 63,French Championships,Grand Slam,1961.05.16,Outdoor,Clay,Round of 128
Michael Sangster,michael-sangster/s239,Premjit Lall,premjit-lall/l117,64 1210 63,French Championships,Grand Slam,1961.05.16,Outdoor,Clay,Round of 128
Fred Stolle,fred-stolle/s129,Jean Claude Molinari,jean-claude-molinari/m257,46 57 25 (RET),French Championships,Grand Slam,1961.05.16,Outdoor,Clay,Round of 128
Sergio Tacchini,sergio-tacchini/t081,Jacques Renavand,jacques-renavand/re11,64 26 57 64 60,French Championships,Grand Slam,1961.05.16,Outdoor,Clay,Round of 128
Rod Laver,rod-laver/l058,Chuck Mckinley,chuck-mckinley/mp91,63 61 64,Wimbledon,Grand Slam,1961.06.26,Outdoor,Grass,Finals
Rod Laver,rod-laver/l058,Ramanathan Krishnan,ramanathan-krishnan/k103,62 86 62,Wimbledon,Grand Slam,1961.06.26,Outdoor,Grass,Semi-Finals
Chuck Mckinley,chuck-mckinley/mp91,Michael Sangster,michael-sangster/s239,64 64 86,Wimbledon,Grand Slam,1961.06.26,Outdoor,Grass,Semi-Finals
Rod Laver,rod-laver/l058,Luis Ayala,luis-ayala/a073,61 63 62,Wimbledon,Grand Slam,1961.06.26,Outdoor,Grass,Quarter-Finals
Ramanathan Krishnan,ramanathan-krishnan/k103,Roy Emerson,roy-emerson/e030,61 64 64,Wimbledon,Grand Slam,1961.06.26,Outdoor,Grass,Quarter-Finals
Chuck Mckinley,chuck-mckinley/mp91,Bobby Wilson,bobby-wilson/w622,64 64 46 64,Wimbledon,Grand Slam,1961.06.26,Outdoor,Grass,Quarter-Finals
Michael Sangster,michael-sangster/s239,Isaias Pimentel,isaias-pimentel/pi12,62 62 64,Wimbledon,Grand Slam,1961.06.26,Outdoor,Grass,Quarter-Finals
Bobby Wilson,bobby-wilson/w622,Neale Fraser,neale-fraser/f113,16 60 1311 97,Wimbledon,Grand Slam,1961.06.26,Outdoor,Grass,Round of 16
Rod Laver,rod-laver/l058,Bob Hewitt,bob-hewitt/h058,64 64 62,Wimbledon,Grand Slam,1961.06.26,Outdoor,Grass,Round of 16
Roy Emerson,roy-emerson/e030,Roger Taylor,roger-taylor/t050,63 61 61,Wimbledon,Grand Slam,1961.06.26,Outdoor,Grass,Round of 16
Luis Ayala,luis-ayala/a073,Billy R. Knight,billy-r.-knight/k106,97 64 62,Wimbledon,Grand Slam,1961.06.26,Outdoor,Grass,Round of 16
Ramanathan Krishnan,ramanathan-krishnan/k103,Antonio Palafox,antonio-palafox/p145,46 61 63 61,Wimbledon,Grand Slam,1961.06.26,Outdoor,Grass,Round of 16
Chuck Mckinley,chuck-mckinley/mp91,Warren Jacques,warren-jacques/j059,86 61 75,Wimbledon,Grand Slam,1961.06.26,Outdoor,Grass,Round of 16
Isaias Pimentel,isaias-pimentel/pi12,Christopher Crawford,christopher-crawford/ci32,64 62 1210,Wimbledon,Grand Slam,1961.06.26,Outdoor,Grass,Round of 16
Michael Sangster,michael-sangster/s239,Abe Segal,abe-segal/s242,86 86 64,Wimbledon,Grand Slam,1961.06.26,Outdoor,Grass,Round of 16
Neale Fraser,neale-fraser/f113,Martin Mulligan,martin-mulligan/m155,62 36 62 61,Wimbledon,Grand Slam,1961.06.26,Outdoor,Grass,Round of 32
Rod Laver,rod-laver/l058,Wilhelm Bungert,wilhelm-bungert/b237,63 61 810 46 63,Wimbledon,Grand Slam,1961.06.26,Outdoor,Grass,Round of 32
Christopher Crawford,christopher-crawford/ci32,Nicola Pietrangeli,nicola-pietrangeli/p141,26 63 64 64,Wimbledon,Grand Slam,1961.06.26,Outdoor,Grass,Round of 32
Roy Emerson,roy-emerson/e030,Jon Douglas,jon-douglas/dd11,63 60 57 64,Wimbledon,Grand Slam,1961.06.26,Outdoor,Grass,Round of 32
Luis Ayala,luis-ayala/a073,Frank Froehling,frank-froehling/f079,62 75 64,Wimbledon,Grand Slam,1961.06.26,Outdoor,Grass,Round of 32
Ramanathan Krishnan,ramanathan-krishnan/k103,Orlando Sirola,orlando-sirola/ss58,64 36 63 61,Wimbledon,Grand Slam,1961.06.26,Outdoor,Grass,Round of 32
Chuck Mckinley,chuck-mckinley/mp91,Wieslaw Gasiorek,wieslaw-gasiorek/g152,63 46 60 62,Wimbledon,Grand Slam,1961.06.26,Outdoor,Grass,Round of 32
Bob Hewitt,bob-hewitt/h058,Jacques Brichant,jacques-brichant/bn76,62 63 64,Wimbledon,Grand Slam,1961.06.26,Outdoor,Grass,Round of 32
Warren Jacques,warren-jacques/j059,Donald Dell,donald-dell/d128,68 64 86 97,Wimbledon,Grand Slam,1961.06.26,Outdoor,Grass,Round of 32
Billy R. Knight,billy-r.-knight/k106,Bill Bond,bill-bond/bn69,1210 57 26 97 60,Wimbledon,Grand Slam,1961.06.26,Outdoor,Grass,Round of 32
Antonio Palafox,antonio-palafox/p145,Tony Pickard,tony-pickard/pd90,63 63 62,Wimbledon,Grand Slam,1961.06.26,Outdoor,Grass,Round of 32
Isaias Pimentel,isaias-pimentel/pi12,Nikola Pilic,nikola-pilic/p080,46 75 63 16 75,Wimbledon,Grand Slam,1961.06.26,Outdoor,Grass,Round of 32
Michael Sangster,michael-sangster/s239,Dennis Ralston,dennis-ralston/r064,68 46 63 63 64,Wimbledon,Grand Slam,1961.06.26,Outdoor,Grass,Round of 32
Abe Segal,abe-segal/s242,Adrian Bey,adrian-bey/bn66,63 64 64,Wimbledon,Grand Slam,1961.06.26,Outdoor,Grass,Round of 32
Roger Taylor,roger-taylor/t050,Mustapha Belkhodja,mustapha-belkhodja/bn53,810 61 64 63,Wimbledon,Grand Slam,1961.06.26,Outdoor,Grass,Round of 32
Bobby Wilson,bobby-wilson/w622,John Frost,john-frost/f963,62 64 64,Wimbledon,Grand Slam,1961.06.26,Outdoor,Grass,Round of 32
Neale Fraser,neale-fraser/f113,Whitney Reed,whitney-reed/r590,57 64 46 61 75,Wimbledon,Grand Slam,1961.06.26,Outdoor,Grass,Round of 64
Rod Laver,rod-laver/l058,Pierre Darmon,pierre-darmon/d131,86 26 63 46 64,Wimbledon,Grand Slam,1961.06.26,Outdoor,Grass,Round of 64
Roy Emerson,roy-emerson/e030,Crawford Henry,crawford-henry/h148,62 64 64,Wimbledon,Grand Slam,1961.06.26,Outdoor,Grass,Round of 64
Nicola Pietrangeli,nicola-pietrangeli/p141,Barry Phillips-Moore,barry-phillips-moore/p078,63 64 16 63,Wimbledon,Grand Slam,1961.06.26,Outdoor,Grass,Round of 64
Abe Segal,abe-segal/s242,Manuel Santana,manuel-santana/s245,64 64 1210,Wimbledon,Grand Slam,1961.06.26,Outdoor,Grass,Round of 64
Luis Ayala,luis-ayala/a073,Jiri Javorsky,jiri-javorsky/j588,75 64 62,Wimbledon,Grand Slam,1961.06.26,Outdoor,Grass,Round of 64
Ramanathan Krishnan,ramanathan-krishnan/k103,Marty Riessen,marty-riessen/r055,63 62 119,Wimbledon,Grand Slam,1961.06.26,Outdoor,Grass,Round of 64
Chuck Mckinley,chuck-mckinley/mp91,Albert Gaertner,albert-gaertner/gf83,62 61 63,Wimbledon,Grand Slam,1961.06.26,Outdoor,Grass,Round of 64
Mustapha Belkhodja,mustapha-belkhodja/bn53,Reg Bennet,reg-bennet/bn87,62 97 46 63,Wimbledon,Grand Slam,1961.06.26,Outdoor,Grass,Round of 64
Adrian Bey,adrian-bey/bn66,Bob Howe,bob-howe/h130,64 108 911 64,Wimbledon,Grand Slam,1961.06.26,Outdoor,Grass,Round of 64
Bill Bond,bill-bond/bn69,Istvan Gulyas,istvan-gulyas/g151,61 61 64,Wimbledon,Grand Slam,1961.06.26,Outdoor,Grass,Round of 64
Jacques Brichant,jacques-brichant/bn76,William Alvarez,william-alvarez/a121,26 61 60 79 62,Wimbledon,Grand Slam,1961.06.26,Outdoor,Grass,Round of 64
Wilhelm Bungert,wilhelm-bungert/b237,Keith Diepraam,keith-diepraam/d139,1012 119 60 64,Wimbledon,Grand Slam,1961.06.26,Outdoor,Grass,Round of 64
Christopher Crawford,christopher-crawford/ci32,Malcolm Fox,malcolm-fox/f969,62 62 62,Wimbledon,Grand Slam,1961.06.26,Outdoor,Grass,Round of 64
Donald Dell,donald-dell/d128,Jean-Claude Barclay,jean-claude-barclay/b119,63 64 62,Wimbledon,Grand Slam,1961.06.26,Outdoor,Grass,Round of 64
Jon Douglas,jon-douglas/dd11,Gardnar Mulloy,gardnar-mulloy/m273,62 62 46 61,Wimbledon,Grand Slam,1961.06.26,Outdoor,Grass,Round of 64
Frank Froehling,frank-froehling/f079,Mario Llamas,mario-llamas/le42,16 62 60 63,Wimbledon,Grand Slam,1961.06.26,Outdoor,Grass,Round of 64
John Frost,john-frost/f963,Bob Mark,bob-mark/mq23,64 64 64,Wimbledon,Grand Slam,1961.06.26,Outdoor,Grass,Round of 64
Wieslaw Gasiorek,wieslaw-gasiorek/g152,Geoff Paish,geoff-paish/pa78,62 61 46 46 62,Wimbledon,Grand Slam,1961.06.26,Outdoor,Grass,Round of 64
Bob Hewitt,bob-hewitt/h058,Ron Holmberg,ron-holmberg/h061,108 86 26 62,Wimbledon,Grand Slam,1961.06.26,Outdoor,Grass,Round of 64
Warren Jacques,warren-jacques/j059,Ingo Buding,ingo-buding/b225,75 60 64,Wimbledon,Grand Slam,1961.06.26,Outdoor,Grass,Round of 64
Billy R. Knight,billy-r.-knight/k106,Premjit Lall,premjit-lall/l117,63 86 86,Wimbledon,Grand Slam,1961.06.26,Outdoor,Grass,Round of 64
Martin Mulligan,martin-mulligan/m155,Fred Stolle,fred-stolle/s129,61 64 10 (RET),Wimbledon,Grand Slam,1961.06.26,Outdoor,Grass,Round of 64
Antonio Palafox,antonio-palafox/p145,Osamu Ishiguro,osamu-ishiguro/i030,62 63 68 63,Wimbledon,Grand Slam,1961.06.26,Outdoor,Grass,Round of 64
Tony Pickard,tony-pickard/pd90,Franz Saiko,franz-saiko/ss71,64 119 36 62,Wimbledon,Grand Slam,1961.06.26,Outdoor,Grass,Round of 64
Nikola Pilic,nikola-pilic/p080,Franz Hainka,franz-hainka/hc41,75 46 63 86,Wimbledon,Grand Slam,1961.06.26,Outdoor,Grass,Round of 64
Isaias Pimentel,isaias-pimentel/pi12,William Coghlan,william-coghlan/c228,64 36 63 119,Wimbledon,Grand Slam,1961.06.26,Outdoor,Grass,Round of 64
Dennis Ralston,dennis-ralston/r064,Jan-Erik Lundqvist,jan-erik-lundqvist/l158,64 62 36 1614,Wimbledon,Grand Slam,1961.06.26,Outdoor,Grass,Round of 64
Michael Sangster,michael-sangster/s239,Geoffrey Pares,geoffrey-pares/p194,63 46 63 63,Wimbledon,Grand Slam,1961.06.26,Outdoor,Grass,Round of 64
Orlando Sirola,orlando-sirola/ss58,Ken Fletcher,ken-fletcher/f108,64 06 36 75 60,Wimbledon,Grand Slam,1961.06.26,Outdoor,Grass,Round of 64
Roger Taylor,roger-taylor/t050,Warren Woodcock,warren-woodcock/w775,61 62 36 61,Wimbledon,Grand Slam,1961.06.26,Outdoor,Grass,Round of 64
Bobby Wilson,bobby-wilson/w622,Carlos-Alberto Fernandes,carlos-alberto-fernandes/f111,63 86 64,Wimbledon,Grand Slam,1961.06.26,Outdoor,Grass,Round of 64
Neale Fraser,neale-fraser/f113,Rudy Hernando,rudy-hernando/h098,63 61 61,Wimbledon,Grand Slam,1961.06.26,Outdoor,Grass,Round of 128
Rod Laver,rod-laver/l058,Toomas Leius,toomas-leius/le06,64 61 61,Wimbledon,Grand Slam,1961.06.26,Outdoor,Grass,Round of 128
Roy Emerson,roy-emerson/e030,Naresh Kumar,naresh-kumar/kf51,62 61 63,Wimbledon,Grand Slam,1961.06.26,Outdoor,Grass,Round of 128
Nicola Pietrangeli,nicola-pietrangeli/p141,Akhtar Ali,akhtar-ali/ad64,64 62 61,Wimbledon,Grand Slam,1961.06.26,Outdoor,Grass,Round of 128
Manuel Santana,manuel-santana/s245,Willem Maris,willem-maris/mq12,62 60 62,Wimbledon,Grand Slam,1961.06.26,Outdoor,Grass,Round of 128
Luis Ayala,luis-ayala/a073,Robin Sanders,robin-sanders/ss42,63 62 62,Wimbledon,Grand Slam,1961.06.26,Outdoor,Grass,Round of 128
Ramanathan Krishnan,ramanathan-krishnan/k103,Francois Jauffret,francois-jauffret/j031,60 64 61,Wimbledon,Grand Slam,1961.06.26,Outdoor,Grass,Round of 128
Chuck Mckinley,chuck-mckinley/mp91,Sergio Tacchini,sergio-tacchini/t081,62 62 46 64,Wimbledon,Grand Slam,1961.06.26,Outdoor,Grass,Round of 128
William Alvarez,william-alvarez/a121,Alberto Arilla,alberto-arilla/ad50,46 86 63 46 62,Wimbledon,Grand Slam,1961.06.26,Outdoor,Grass,Round of 128
Jean-Claude Barclay,jean-claude-barclay/b119,Greg Hughes,greg-hughes/hc48,62 75 60,Wimbledon,Grand Slam,1961.06.26,Outdoor,Grass,Round of 128
Mustapha Belkhodja,mustapha-belkhodja/bn53,Trevor Adamson,trevor-adamson/ad66,62 46 1113 62 64,Wimbledon,Grand Slam,1961.06.26,Outdoor,Grass,Round of 128
Reg Bennet,reg-bennet/bn87,Gene Scott,gene-scott/s210,64 46 64 64,Wimbledon,Grand Slam,1961.06.26,Outdoor,Grass,Round of 128
Adrian Bey,adrian-bey/bn66,Estaban Reyes,estaban-reyes/r523,61 46 63 46 62,Wimbledon,Grand Slam,1961.06.26,Outdoor,Grass,Round of 128
Bill Bond,bill-bond/bn69,Ladislav Legenstein,ladislav-legenstein/l777,64 1210 62,Wimbledon,Grand Slam,1961.06.26,Outdoor,Grass,Round of 128
Jacques Brichant,jacques-brichant/bn76,Wladyslaw Skonecki,wladyslaw-skonecki/ss73,62 36 62 62,Wimbledon,Grand Slam,1961.06.26,Outdoor,Grass,Round of 128
Ingo Buding,ingo-buding/b225,Ingemar Ingvarsson,ingemar-ingvarsson/i361,63 64 64,Wimbledon,Grand Slam,1961.06.26,Outdoor,Grass,Round of 128
Wilhelm Bungert,wilhelm-bungert/b237,Giuseppe Merlo,giuseppe-merlo/m276,57 86 75 64,Wimbledon,Grand Slam,1961.06.26,Outdoor,Grass,Round of 128
William Coghlan,william-coghlan/c228,Christian Kuhnke,christian-kuhnke/k138,46 64 64 63,Wimbledon,Grand Slam,1961.06.26,Outdoor,Grass,Round of 128
Christopher Crawford,christopher-crawford/ci32,Norman Kitovitz,norman-kitovitz/kf60,61 62 63,Wimbledon,Grand Slam,1961.06.26,Outdoor,Grass,Round of 128
Pierre Darmon,pierre-darmon/d131,Boro Jovanovic,boro-jovanovic/j033,97 63 108,Wimbledon,Grand Slam,1961.06.26,Outdoor,Grass,Round of 128
Donald Dell,donald-dell/d128,Daniel Contet,daniel-contet/c170,64 62 63,Wimbledon,Grand Slam,1961.06.26,Outdoor,Grass,Round of 128
Keith Diepraam,keith-diepraam/d139,Alan Lane,alan-lane/le33,63 26 64 64,Wimbledon,Grand Slam,1961.06.26,Outdoor,Grass,Round of 128
Jon Douglas,jon-douglas/dd11,John Hillebrand,john-hillebrand/h543,60 64 36 61,Wimbledon,Grand Slam,1961.06.26,Outdoor,Grass,Round of 128
Carlos-Alberto Fernandes,carlos-alberto-fernandes/f111,Roy Dixon,roy-dixon/d945,62 63 63,Wimbledon,Grand Slam,1961.06.26,Outdoor,Grass,Round of 128
Ken Fletcher,ken-fletcher/f108,Ulf Schmidt,ulf-schmidt/ss72,64 64 62,Wimbledon,Grand Slam,1961.06.26,Outdoor,Grass,Round of 128
Malcolm Fox,malcolm-fox/f969,Frew McMillan,frew-mcmillan/m111,64 97 64,Wimbledon,Grand Slam,1961.06.26,Outdoor,Grass,Round of 128
Frank Froehling,frank-froehling/f079,John Barrett,john-barrett/b226,62 46 62 63,Wimbledon,Grand Slam,1961.06.26,Outdoor,Grass,Round of 128
John Frost,john-frost/f963,Wolfgang Stuck,wolfgang-stuck/ss49,64 62 62,Wimbledon,Grand Slam,1961.06.26,Outdoor,Grass,Round of 128
Albert Gaertner,albert-gaertner/gf83,Reino Nyyssonen,reino-nyyssonen/n787,57 63 36 62 75,Wimbledon,Grand Slam,1961.06.26,Outdoor,Grass,Round of 128
Wieslaw Gasiorek,wieslaw-gasiorek/g152,Finn-Dag Jagge,finn-dag-jagge/j600,75 62 64,Wimbledon,Grand Slam,1961.06.26,Outdoor,Grass,Round of 128
Istvan Gulyas,istvan-gulyas/g151,Mark Otway,mark-otway/o538,36 64 60 06 64,Wimbledon,Grand Slam,1961.06.26,Outdoor,Grass,Round of 128
Franz Hainka,franz-hainka/hc41,Philippe Washer,philippe-washer/w780,60 64 64,Wimbledon,Grand Slam,1961.06.26,Outdoor,Grass,Round of 128
Crawford Henry,crawford-henry/h148,Michael Preston Hann,michael-preston-hann/hc37,46 62 64 64,Wimbledon,Grand Slam,1961.06.26,Outdoor,Grass,Round of 128
Bob Hewitt,bob-hewitt/h058,Staffan Stockenberg,staffan-stockenberg/ss75,63 62 64,Wimbledon,Grand Slam,1961.06.26,Outdoor,Grass,Round of 128
Ron Holmberg,ron-holmberg/h061,Enrique Morea,enrique-morea/mp49,75 75 63,Wimbledon,Grand Slam,1961.06.26,Outdoor,Grass,Round of 128
Bob Howe,bob-howe/h130,John Lesch,john-lesch/le43,64 61 61,Wimbledon,Grand Slam,1961.06.26,Outdoor,Grass,Round of 128
Osamu Ishiguro,osamu-ishiguro/i030,Alan Mills,alan-mills/m270,75 46 64 75,Wimbledon,Grand Slam,1961.06.26,Outdoor,Grass,Round of 128
Warren Jacques,warren-jacques/j059,Jorgen Ulrich,jorgen-ulrich/u016,63 62 36 75,Wimbledon,Grand Slam,1961.06.26,Outdoor,Grass,Round of 128
Jiri Javorsky,jiri-javorsky/j588,Piet van Eysden,piet-van-eysden/v480,62 119 64,Wimbledon,Grand Slam,1961.06.26,Outdoor,Grass,Round of 128
Billy R. Knight,billy-r.-knight/k106,Thorvald Moe,thorvald-moe/mq14,75 97 97,Wimbledon,Grand Slam,1961.06.26,Outdoor,Grass,Round of 128
Premjit Lall,premjit-lall/l117,Julian L. P. Coni,julian-l.-p.-coni/ci31,1513 61 60,Wimbledon,Grand Slam,1961.06.26,Outdoor,Grass,Round of 128
Mario Llamas,mario-llamas/le42,Ron Barnes,ron-barnes/bc56,63 97 16 1012 64,Wimbledon,Grand Slam,1961.06.26,Outdoor,Grass,Round of 128
Jan-Erik Lundqvist,jan-erik-lundqvist/l158,John Newcombe,john-newcombe/n044,108 64 36 26 64,Wimbledon,Grand Slam,1961.06.26,Outdoor,Grass,Round of 128
Bob Mark,bob-mark/mq23,Lew Gerrard,lew-gerrard/g159,108 63 26 61,Wimbledon,Grand Slam,1961.06.26,Outdoor,Grass,Round of 128
Martin Mulligan,martin-mulligan/m155,Humphrey Truman,humphrey-truman/td59,75 61 61,Wimbledon,Grand Slam,1961.06.26,Outdoor,Grass,Round of 128
Gardnar Mulloy,gardnar-mulloy/m273,John Ward,john-ward/w345,62 68 16 64 64,Wimbledon,Grand Slam,1961.06.26,Outdoor,Grass,Round of 128
Geoff Paish,geoff-paish/pa78,Geoff Ward,geoff-ward/w781,57 62 63 26 63,Wimbledon,Grand Slam,1961.06.26,Outdoor,Grass,Round of 128
Antonio Palafox,antonio-palafox/p145,Dieter Ecklebe,dieter-ecklebe/e896,62 62 97,Wimbledon,Grand Slam,1961.06.26,Outdoor,Grass,Round of 128
Geoffrey Pares,geoffrey-pares/p194,Neil Gibson,neil-gibson/gg11,63 36 63 57 86,Wimbledon,Grand Slam,1961.06.26,Outdoor,Grass,Round of 128
Barry Phillips-Moore,barry-phillips-moore/p078,Jose Edison Mandarino,jose-edison-mandarino/m135,63 36 61 46 63,Wimbledon,Grand Slam,1961.06.26,Outdoor,Grass,Round of 128
Tony Pickard,tony-pickard/pd90,Jacques Renavand,jacques-renavand/re11,62 64 64,Wimbledon,Grand Slam,1961.06.26,Outdoor,Grass,Round of 128
Nikola Pilic,nikola-pilic/p080,Bobby Siska,bobby-siska/sb44,46 63 62 68 75,Wimbledon,Grand Slam,1961.06.26,Outdoor,Grass,Round of 128
Isaias Pimentel,isaias-pimentel/pi12,Gerard Pilet,gerard-pilet/p185,61 62 36 64,Wimbledon,Grand Slam,1961.06.26,Outdoor,Grass,Round of 128
Dennis Ralston,dennis-ralston/r064,Patricio Rodriguez,patricio-rodriguez/r074,36 61 60 63,Wimbledon,Grand Slam,1961.06.26,Outdoor,Grass,Round of 128
Whitney Reed,whitney-reed/r590,Harald Elschenbroich,harald-elschenbroich/e037,62 64 64,Wimbledon,Grand Slam,1961.06.26,Outdoor,Grass,Round of 128
Marty Riessen,marty-riessen/r055,Julian Mayers,julian-mayers/mq27,36 75 46 63 75,Wimbledon,Grand Slam,1961.06.26,Outdoor,Grass,Round of 128
Franz Saiko,franz-saiko/ss71,Gabino Palafox,gabino-palafox/pi17,64 60 62,Wimbledon,Grand Slam,1961.06.26,Outdoor,Grass,Round of 128
Michael Sangster,michael-sangster/s239,Robert Bedard,robert-bedard/b903,63 62 64,Wimbledon,Grand Slam,1961.06.26,Outdoor,Grass,Round of 128
Abe Segal,abe-segal/s242,Sergei Likhachev,sergei-likhachev/l119,16 62 63 60,Wimbledon,Grand Slam,1961.06.26,Outdoor,Grass,Round of 128
Orlando Sirola,orlando-sirola/ss58,Francois Godbout,francois-godbout/gg04,63 64 63,Wimbledon,Grand Slam,1961.06.26,Outdoor,Grass,Round of 128
Fred Stolle,fred-stolle/s129,Jaidip Mukerjea,jaidip-mukerjea/m272,63 64 36 63,Wimbledon,Grand Slam,1961.06.26,Outdoor,Grass,Round of 128
Roger Taylor,roger-taylor/t050,Orlando Garrido,orlando-garrido/gg15,64 64 108,Wimbledon,Grand Slam,1961.06.26,Outdoor,Grass,Round of 128
Bobby Wilson,bobby-wilson/w622,Eduardo Soriano,eduardo-soriano/sc14,62 46 57 1614 63,Wimbledon,Grand Slam,1961.06.26,Outdoor,Grass,Round of 128
Warren Woodcock,warren-woodcock/w775,Rodney Mandelstam,rodney-mandelstam/m939,1210 36 46 64 63,Wimbledon,Grand Slam,1961.06.26,Outdoor,Grass,Round of 128
Roy Emerson,roy-emerson/e030,Rod Laver,rod-laver/l058,75 63 62,US Championships,Grand Slam,1961.09.01,Outdoor,Grass,Finals
Rod Laver,rod-laver/l058,Michael Sangster,michael-sangster/s239,1311 75 64,US Championships,Grand Slam,1961.09.01,Outdoor,Grass,Semi-Finals
Roy Emerson,roy-emerson/e030,Rafael Osuna,rafael-osuna/o248,63 62 36 57 97,US Championships,Grand Slam,1961.09.01,Outdoor,Grass,Semi-Finals
Rod Laver,rod-laver/l058,Donald Dell,donald-dell/d128,64 79 63 64,US Championships,Grand Slam,1961.09.01,Outdoor,Grass,Quarter-Finals
Roy Emerson,roy-emerson/e030,Ron Holmberg,ron-holmberg/h061,64 62 75,US Championships,Grand Slam,1961.09.01,Outdoor,Grass,Quarter-Finals
Michael Sangster,michael-sangster/s239,Jon Douglas,jon-douglas/dd11,64 75 61,US Championships,Grand Slam,1961.09.01,Outdoor,Grass,Quarter-Finals
Rafael Osuna,rafael-osuna/o248,Whitney Reed,whitney-reed/r590,68 63 63 62,US Championships,Grand Slam,1961.09.01,Outdoor,Grass,Quarter-Finals
Rod Laver,rod-laver/l058,Christopher Crawford,christopher-crawford/ci32,63 64 63,US Championships,Grand Slam,1961.09.01,Outdoor,Grass,Round of 16
Roy Emerson,roy-emerson/e030,Harry Hoffman,harry-hoffman/hc43,61 62 62,US Championships,Grand Slam,1961.09.01,Outdoor,Grass,Round of 16
Michael Sangster,michael-sangster/s239,Antonio Palafox,antonio-palafox/p145,2119 810 63 64,US Championships,Grand Slam,1961.09.01,Outdoor,Grass,Round of 16
Rafael Osuna,rafael-osuna/o248,Bob Mark,bob-mark/mq23,63 64 86,US Championships,Grand Slam,1961.09.01,Outdoor,Grass,Round of 16
Jon Douglas,jon-douglas/dd11,Crawford Henry,crawford-henry/h148,36 63 75 86,US Championships,Grand Slam,1961.09.01,Outdoor,Grass,Round of 16
Ron Holmberg,ron-holmberg/h061,John Frost,john-frost/f963,62 79 64 61,US Championships,Grand Slam,1961.09.01,Outdoor,Grass,Round of 16
Donald Dell,donald-dell/d128,John Sharpe,john-sharpe/s257,79 63 62 86,US Championships,Grand Slam,1961.09.01,Outdoor,Grass,Round of 16
Whitney Reed,whitney-reed/r590,Allen Fox,allen-fox/f956,86 63 46 63,US Championships,Grand Slam,1961.09.01,Outdoor,Grass,Round of 16
Rod Laver,rod-laver/l058,Andy Lloyd,andy-lloyd/l268,61 62 62,US Championships,Grand Slam,1961.09.01,Outdoor,Grass,Round of 32
Whitney Reed,whitney-reed/r590,Chuck Mckinley,chuck-mckinley/mp91,63 97 36 63,US Championships,Grand Slam,1961.09.01,Outdoor,Grass,Round of 32
Roy Emerson,roy-emerson/e030,Cliff Buchholz,cliff-buchholz/bn09,63 63 61,US Championships,Grand Slam,1961.09.01,Outdoor,Grass,Round of 32
Michael Sangster,michael-sangster/s239,King Lambert,king-lambert/le34,63 79 62 64,US Championships,Grand Slam,1961.09.01,Outdoor,Grass,Round of 32
Bob Mark,bob-mark/mq23,Ron Fisher,ron-fisher/f959,64 64 62,US Championships,Grand Slam,1961.09.01,Outdoor,Grass,Round of 32
Donald Dell,donald-dell/d128,Frank Froehling,frank-froehling/f079,119 108 61,US Championships,Grand Slam,1961.09.01,Outdoor,Grass,Round of 32
Jon Douglas,jon-douglas/dd11,E. Victor Seixas,e.-victor-seixas/s240,64 26 26 97 64,US Championships,Grand Slam,1961.09.01,Outdoor,Grass,Round of 32
Ron Holmberg,ron-holmberg/h061,Marty Riessen,marty-riessen/r055,75 64 62,US Championships,Grand Slam,1961.09.01,Outdoor,Grass,Round of 32
Christopher Crawford,christopher-crawford/ci32,Adrian Bey,adrian-bey/bn66,61 62 63,US Championships,Grand Slam,1961.09.01,Outdoor,Grass,Round of 32
Allen Fox,allen-fox/f956,Alan Lane,alan-lane/le33,62 60 810 36 61,US Championships,Grand Slam,1961.09.01,Outdoor,Grass,Round of 32
John Frost,john-frost/f963,William Hoogs,william-hoogs/hc33,61 64 62,US Championships,Grand Slam,1961.09.01,Outdoor,Grass,Round of 32
Crawford Henry,crawford-henry/h148,Robert Bedard,robert-bedard/b903,57 1113 61 64 62,US Championships,Grand Slam,1961.09.01,Outdoor,Grass,Round of 32
Harry Hoffman,harry-hoffman/hc43,Wilbert Davis,wilbert-davis/dd15,63 62 61,US Championships,Grand Slam,1961.09.01,Outdoor,Grass,Round of 32
Rafael Osuna,rafael-osuna/o248,Gene Scott,gene-scott/s210,1113 64 68 1715 60,US Championships,Grand Slam,1961.09.01,Outdoor,Grass,Round of 32
Antonio Palafox,antonio-palafox/p145,Bill Bond,bill-bond/bn69,63 46 63 64,US Championships,Grand Slam,1961.09.01,Outdoor,Grass,Round of 32
John Sharpe,john-sharpe/s257,Francois Godbout,francois-godbout/gg04,86 64 36 62,US Championships,Grand Slam,1961.09.01,Outdoor,Grass,Round of 32
Rod Laver,rod-laver/l058,Chauncey Steele III,chauncey-steele-iii/s238,63 61 60,US Championships,Grand Slam,1961.09.01,Outdoor,Grass,Round of 64
Chuck Mckinley,chuck-mckinley/mp91,Leif Beck,leif-beck/bn52,75 61 61,US Championships,Grand Slam,1961.09.01,Outdoor,Grass,Round of 64
Roy Emerson,roy-emerson/e030,Bailey Brown,bailey-brown/b205,61 60 61,US Championships,Grand Slam,1961.09.01,Outdoor,Grass,Round of 64
Michael Sangster,michael-sangster/s239,William Higgins,william-higgins/h129,63 61 63,US Championships,Grand Slam,1961.09.01,Outdoor,Grass,Round of 64
Bob Mark,bob-mark/mq23,Gabino Palafox,gabino-palafox/pi17,62 62 62,US Championships,Grand Slam,1961.09.01,Outdoor,Grass,Round of 64
Frank Froehling,frank-froehling/f079,Charlie Pasarell,charlie-pasarell/p072,63 64 64,US Championships,Grand Slam,1961.09.01,Outdoor,Grass,Round of 64
Jon Douglas,jon-douglas/dd11,Raymond Senkowski,raymond-senkowski/ss47,63 79 63 63,US Championships,Grand Slam,1961.09.01,Outdoor,Grass,Round of 64
Ron Holmberg,ron-holmberg/h061,James Farrin,james-farrin/f971,75 61 62,US Championships,Grand Slam,1961.09.01,Outdoor,Grass,Round of 64
Robert Bedard,robert-bedard/b903,James Biggs,james-biggs/bn88,97 62 62,US Championships,Grand Slam,1961.09.01,Outdoor,Grass,Round of 64
Adrian Bey,adrian-bey/bn66,Eduardo Zuleta,eduardo-zuleta/z027,75 36 61 61,US Championships,Grand Slam,1961.09.01,Outdoor,Grass,Round of 64
Bill Bond,bill-bond/bn69,Mac White,mac-white/w782,63 63 63,US Championships,Grand Slam,1961.09.01,Outdoor,Grass,Round of 64
Cliff Buchholz,cliff-buchholz/bn09,Bill Lenoir,bill-lenoir/le35,16 62 63 63,US Championships,Grand Slam,1961.09.01,Outdoor,Grass,Round of 64
Christopher Crawford,christopher-crawford/ci32,Robert Barker,robert-barker/bn74,86 62 64,US Championships,Grand Slam,1961.09.01,Outdoor,Grass,Round of 64
Wilbert Davis,wilbert-davis/dd15,Ramsey Earnhart,ramsey-earnhart/e897,46 62 10 (RET),US Championships,Grand Slam,1961.09.01,Outdoor,Grass,Round of 64
Donald Dell,donald-dell/d128,Edward Dailey,edward-dailey/dd13,63 62 63,US Championships,Grand Slam,1961.09.01,Outdoor,Grass,Round of 64
Ron Fisher,ron-fisher/f959,Roger Taylor,roger-taylor/t050,46 63 86 36 75,US Championships,Grand Slam,1961.09.01,Outdoor,Grass,Round of 64
Allen Fox,allen-fox/f956,Miguel Olvera,miguel-olvera/o068,62 108 911 63,US Championships,Grand Slam,1961.09.01,Outdoor,Grass,Round of 64
John Frost,john-frost/f963,Robert Hetherington,robert-hetherington/hc61,61 62 61,US Championships,Grand Slam,1961.09.01,Outdoor,Grass,Round of 64
Francois Godbout,francois-godbout/gg04,Arthur Ashe,arthur-ashe/a063,63 75 75,US Championships,Grand Slam,1961.09.01,Outdoor,Grass,Round of 64
Crawford Henry,crawford-henry/h148,Paul Sullivan,paul-sullivan/s258,64 63 64,US Championships,Grand Slam,1961.09.01,Outdoor,Grass,Round of 64
Harry Hoffman,harry-hoffman/hc43,Don Fontana,don-fontana/f471,108 46 63 75,US Championships,Grand Slam,1961.09.01,Outdoor,Grass,Round of 64
William Hoogs,william-hoogs/hc33,Clark Graebner,clark-graebner/g079,75 16 63 64,US Championships,Grand Slam,1961.09.01,Outdoor,Grass,Round of 64
King Lambert,king-lambert/le34,Jim McManus,jim-mcmanus/m144,63 36 46 64 63,US Championships,Grand Slam,1961.09.01,Outdoor,Grass,Round of 64
Alan Lane,alan-lane/le33,Al Hill,al-hill/hc60,62 61 64,US Championships,Grand Slam,1961.09.01,Outdoor,Grass,Round of 64
Andy Lloyd,andy-lloyd/l268,Allen Tong,allen-tong/td61,61 63 57 62,US Championships,Grand Slam,1961.09.01,Outdoor,Grass,Round of 64
Rafael Osuna,rafael-osuna/o248,James Shaffer,james-shaffer/ss74,1210 62 97,US Championships,Grand Slam,1961.09.01,Outdoor,Grass,Round of 64
Antonio Palafox,antonio-palafox/p145,Larry Nagler,larry-nagler/n098,1513 61 64,US Championships,Grand Slam,1961.09.01,Outdoor,Grass,Round of 64
Whitney Reed,whitney-reed/r590,Guillermo Hernandez,guillermo-hernandez/hc42,75 75 75,US Championships,Grand Slam,1961.09.01,Outdoor,Grass,Round of 64
Marty Riessen,marty-riessen/r055,Dave Snyder,dave-snyder/ss12,60 86 62,US Championships,Grand Slam,1961.09.01,Outdoor,Grass,Round of 64
Gene Scott,gene-scott/s210,George Sokol,george-sokol/ss53,46 63 62 52 (RET),US Championships,Grand Slam,1961.09.01,Outdoor,Grass,Round of 64
E. Victor Seixas,e.-victor-seixas/s240,Bobby Siska,bobby-siska/sb44,64 108 63,US Championships,Grand Slam,1961.09.01,Outdoor,Grass,Round of 64
John Sharpe,john-sharpe/s257,Robert Potthast,robert-potthast/p178,46 46 97 61 75,US Championships,Grand Slam,1961.09.01,Outdoor,Grass,Round of 64
Chuck Mckinley,chuck-mckinley/mp91,George Stoesser,george-stoesser/ss77,75 62 62,US Championships,Grand Slam,1961.09.01,Outdoor,Grass,Round of 128
Roy Emerson,roy-emerson/e030,Edouard Georges Rubinoff,edouard-georges-rubinoff/re02,62 61 60,US Championships,Grand Slam,1961.09.01,Outdoor,Grass,Round of 128
Michael Sangster,michael-sangster/s239,Norm Perry,norm-perry/p183,62 36 63 64,US Championships,Grand Slam,1961.09.01,Outdoor,Grass,Round of 128
Bob Mark,bob-mark/mq23,Herb Fitzgibbon,herb-fitzgibbon/f109,62 61 60,US Championships,Grand Slam,1961.09.01,Outdoor,Grass,Round of 128
Frank Froehling,frank-froehling/f079,Dever Hobbs,dever-hobbs/hc57,62 62 64,US Championships,Grand Slam,1961.09.01,Outdoor,Grass,Round of 128
Jon Douglas,jon-douglas/dd11,"Hamilton ""Ham"" Richardson","hamilton-""ham""-richardson/r160",36 62 108 61,US Championships,Grand Slam,1961.09.01,Outdoor,Grass,Round of 128
Ron Holmberg,ron-holmberg/h061,Michael Green,michael-green/gg05,64 64 75,US Championships,Grand Slam,1961.09.01,Outdoor,Grass,Round of 128
Arthur Ashe,arthur-ashe/a063,John Karabasz,john-karabasz/kf59,62 62 97,US Championships,Grand Slam,1961.09.01,Outdoor,Grass,Round of 128
Robert Barker,robert-barker/bn74,William Wright,william-wright/w777,36 62 36 60 63,US Championships,Grand Slam,1961.09.01,Outdoor,Grass,Round of 128
Leif Beck,leif-beck/bn52,Robert Johnson,robert-johnson/j209,62 60 64,US Championships,Grand Slam,1961.09.01,Outdoor,Grass,Round of 128
Robert Bedard,robert-bedard/b903,Donald Ralph,donald-ralph/re19,63 61 63,US Championships,Grand Slam,1961.09.01,Outdoor,Grass,Round of 128
Adrian Bey,adrian-bey/bn66,Vernon Morgan,vernon-morgan/mq20,63 61 64,US Championships,Grand Slam,1961.09.01,Outdoor,Grass,Round of 128
James Biggs,james-biggs/bn88,John Botts,john-botts/bn86,63 64 36 62,US Championships,Grand Slam,1961.09.01,Outdoor,Grass,Round of 128
Bill Bond,bill-bond/bn69,John Powless,john-powless/pi11,60 60 62,US Championships,Grand Slam,1961.09.01,Outdoor,Grass,Round of 128
Bailey Brown,bailey-brown/b205,Ron Goldman,ron-goldman/g160,63 75 61,US Championships,Grand Slam,1961.09.01,Outdoor,Grass,Round of 128
Cliff Buchholz,cliff-buchholz/bn09,Ted Hoehn,ted-hoehn/h156,1614 57 61 119,US Championships,Grand Slam,1961.09.01,Outdoor,Grass,Round of 128
Christopher Crawford,christopher-crawford/ci32,John Mangan,john-mangan/m236,62 61 62,US Championships,Grand Slam,1961.09.01,Outdoor,Grass,Round of 128
Edward Dailey,edward-dailey/dd13,John Harrison,john-harrison/hc51,64 62 64,US Championships,Grand Slam,1961.09.01,Outdoor,Grass,Round of 128
Wilbert Davis,wilbert-davis/dd15,Bruce Sylvia,bruce-sylvia/ss79,86 64 97,US Championships,Grand Slam,1961.09.01,Outdoor,Grass,Round of 128
Donald Dell,donald-dell/d128,Michael Carpenter,michael-carpenter/ci35,75 60 64,US Championships,Grand Slam,1961.09.01,Outdoor,Grass,Round of 128
Ramsey Earnhart,ramsey-earnhart/e897,David Dickenson,david-dickenson/dd14,63 62 60,US Championships,Grand Slam,1961.09.01,Outdoor,Grass,Round of 128
James Farrin,james-farrin/f971,John Hammill,john-hammill/h175,86 75 46 61,US Championships,Grand Slam,1961.09.01,Outdoor,Grass,Round of 128
Ron Fisher,ron-fisher/f959,Thomas Richardson,thomas-richardson/re20,36 62 63 62,US Championships,Grand Slam,1961.09.01,Outdoor,Grass,Round of 128
Don Fontana,don-fontana/f471,Richard Sorlein,richard-sorlein/ss56,36 75 86 64,US Championships,Grand Slam,1961.09.01,Outdoor,Grass,Round of 128
Allen Fox,allen-fox/f956,John Harris,john-harris/hc46,62 61 61,US Championships,Grand Slam,1961.09.01,Outdoor,Grass,Round of 128
Francois Godbout,francois-godbout/gg04,Robert Sherman,robert-sherman/sn45,64 75 16 86,US Championships,Grand Slam,1961.09.01,Outdoor,Grass,Round of 128
Crawford Henry,crawford-henry/h148,Gerald Moss,gerald-moss/mq29,97 64 64,US Championships,Grand Slam,1961.09.01,Outdoor,Grass,Round of 128
Guillermo Hernandez,guillermo-hernandez/hc42,David Reed,david-reed/re13,46 46 62 86 64,US Championships,Grand Slam,1961.09.01,Outdoor,Grass,Round of 128
William Higgins,william-higgins/h129,Karl Hendrick,karl-hendrick/hc58,62 61 63,US Championships,Grand Slam,1961.09.01,Outdoor,Grass,Round of 128
Al Hill,al-hill/hc60,Robin Spengler,robin-spengler/ss78,57 64 26 60 62,US Championships,Grand Slam,1961.09.01,Outdoor,Grass,Round of 128
Harry Hoffman,harry-hoffman/hc43,Deedward Greer,deedward-greer/gg14,60 62 63,US Championships,Grand Slam,1961.09.01,Outdoor,Grass,Round of 128
King Lambert,king-lambert/le34,Hugh Quinn,hugh-quinn/q961,62 68 62 62,US Championships,Grand Slam,1961.09.01,Outdoor,Grass,Round of 128
Alan Lane,alan-lane/le33,Straight Clark,straight-clark/ci34,62 97 63,US Championships,Grand Slam,1961.09.01,Outdoor,Grass,Round of 128
Bill Lenoir,bill-lenoir/le35,Keith A Carpenter,keith-a-carpenter/c176,60 63 61,US Championships,Grand Slam,1961.09.01,Outdoor,Grass,Round of 128
Jim McManus,jim-mcmanus/m144,Bob Davis,bob-davis/d085,61 60 60,US Championships,Grand Slam,1961.09.01,Outdoor,Grass,Round of 128
Larry Nagler,larry-nagler/n098,Fred Vanderbilt,fred-vanderbilt/v889,62 63 63,US Championships,Grand Slam,1961.09.01,Outdoor,Grass,Round of 128
Miguel Olvera,miguel-olvera/o068,Radoslav Herceg,radoslav-herceg/hc59,60 60 60,US Championships,Grand Slam,1961.09.01,Outdoor,Grass,Round of 128
Rafael Osuna,rafael-osuna/o248,Peter Barizon,peter-barizon/bn90,62 63 63,US Championships,Grand Slam,1961.09.01,Outdoor,Grass,Round of 128
Antonio Palafox,antonio-palafox/p145,Roger Werksman,roger-werksman/w768,62 62 62,US Championships,Grand Slam,1961.09.01,Outdoor,Grass,Round of 128
Gabino Palafox,gabino-palafox/pi17,Clyde Buck,clyde-buck/bn89,64 61 62,US Championships,Grand Slam,1961.09.01,Outdoor,Grass,Round of 128
Charlie Pasarell,charlie-pasarell/p072,Rodney Susman,rodney-susman/s987,62 62 36 64,US Championships,Grand Slam,1961.09.01,Outdoor,Grass,Round of 128
Robert Potthast,robert-potthast/p178,Donald Thompson,donald-thompson/td62,62 61 63,US Championships,Grand Slam,1961.09.01,Outdoor,Grass,Round of 128
Whitney Reed,whitney-reed/r590,Ralph Howe,ralph-howe/hc32,64 86 75,US Championships,Grand Slam,1961.09.01,Outdoor,Grass,Round of 128
Marty Riessen,marty-riessen/r055,Butch Newman,butch-newman/n442,64 86 60,US Championships,Grand Slam,1961.09.01,Outdoor,Grass,Round of 128
Gene Scott,gene-scott/s210,Albert Driscole,albert-driscole/dd12,119 63 36 63,US Championships,Grand Slam,1961.09.01,Outdoor,Grass,Round of 128
E. Victor Seixas,e.-victor-seixas/s240,Dennis Lynch,dennis-lynch/le44,75 64 60,US Championships,Grand Slam,1961.09.01,Outdoor,Grass,Round of 128
Raymond Senkowski,raymond-senkowski/ss47,Jaime Musalem,jaime-musalem/mq28,63 60 62,US Championships,Grand Slam,1961.09.01,Outdoor,Grass,Round of 128
James Shaffer,james-shaffer/ss74,Patricio Gasman,patricio-gasman/gg17,61 62 62,US Championships,Grand Slam,1961.09.01,Outdoor,Grass,Round of 128
John Sharpe,john-sharpe/s257,Henry Kamakana,henry-kamakana/k147,36 63 64 64,US Championships,Grand Slam,1961.09.01,Outdoor,Grass,Round of 128
Bobby Siska,bobby-siska/sb44,Hugh Lynch,hugh-lynch/le45,60 62 64,US Championships,Grand Slam,1961.09.01,Outdoor,Grass,Round of 128
Dave Snyder,dave-snyder/ss12,Hugh Sweeney,hugh-sweeney/ss39,64 62 63,US Championships,Grand Slam,1961.09.01,Outdoor,Grass,Round of 128
George Sokol,george-sokol/ss53,Donald Rubell,donald-rubell/re03,79 36 63 62 86,US Championships,Grand Slam,1961.09.01,Outdoor,Grass,Round of 128
Paul Sullivan,paul-sullivan/s258,Eliseo San Hueza,eliseo-san-hueza/ss76,61 62 61,US Championships,Grand Slam,1961.09.01,Outdoor,Grass,Round of 128
Roger Taylor,roger-taylor/t050,Mike Belkin,mike-belkin/b125,64 62 62,US Championships,Grand Slam,1961.09.01,Outdoor,Grass,Round of 128
Mac White,mac-white/w782,Harry Fauquier,harry-fauquier/f133,63 62 75,US Championships,Grand Slam,1961.09.01,Outdoor,Grass,Round of 128
Eduardo Zuleta,eduardo-zuleta/z027,Fritz Schunck,fritz-schunck/s295,61 75 61,US Championships,Grand Slam,1961.09.01,Outdoor,Grass,Round of 128
