Bobby Riggs,bobby-riggs/rf00,Francis Kovacs,francis-kovacs/kg37,57 61 63 63,US Championships,Grand Slam,1941.08.30,Outdoor,Grass,Finals
Francis Kovacs,francis-kovacs/kg37,Donald McNeill,donald-mcneill/mq88,64 62 108,US Championships,Grand Slam,1941.08.30,Outdoor,Grass,Semi-Finals
Bobby Riggs,bobby-riggs/rf00,"Frederick ""Ted"" Schroeder","frederick-""ted""-schroeder/sb40",64 64 16 911 75,US Championships,Grand Slam,1941.08.30,Outdoor,Grass,Semi-Finals
Francis Kovacs,francis-kovacs/kg37,Jack Kramer,jack-kramer/kg10,64 75 75,US Championships,Grand Slam,1941.08.30,Outdoor,Grass,Quarter-Finals
Donald McNeill,donald-mcneill/mq88,Wayne Sabin,wayne-sabin/su34,63 75 36 63,US Championships,Grand Slam,1941.08.30,Outdoor,Grass,Quarter-Finals
Bobby Riggs,bobby-riggs/rf00,Frank Parker,frank-parker/p154,64 63 46 62,US Championships,Grand Slam,1941.08.30,Outdoor,Grass,Quarter-Finals
"Frederick ""Ted"" Schroeder","frederick-""ted""-schroeder/sb40",Bryan Grant,bryan-grant/gg80,68 61 62 63,US Championships,Grand Slam,1941.08.30,Outdoor,Grass,Quarter-Finals
Bryan Grant,bryan-grant/gg80,Gardnar Mulloy,gardnar-mulloy/m273,63 63 62,US Championships,Grand Slam,1941.08.30,Outdoor,Grass,Round of 16
Francis Kovacs,francis-kovacs/kg37,E. Victor Seixas,e.-victor-seixas/s240,62 64 75,US Championships,Grand Slam,1941.08.30,Outdoor,Grass,Round of 16
Jack Kramer,jack-kramer/kg10,Gene Mako,gene-mako/mr41,61 64 61,US Championships,Grand Slam,1941.08.30,Outdoor,Grass,Round of 16
Donald McNeill,donald-mcneill/mq88,Seymour Greenberg,seymour-greenberg/gg69,64 64 36 63,US Championships,Grand Slam,1941.08.30,Outdoor,Grass,Round of 16
Frank Parker,frank-parker/p154,William Gillespie,william-gillespie/gh10,57 61 63 75,US Championships,Grand Slam,1941.08.30,Outdoor,Grass,Round of 16
Bobby Riggs,bobby-riggs/rf00,Charles Olewine,charles-olewine/o568,63 63 62,US Championships,Grand Slam,1941.08.30,Outdoor,Grass,Round of 16
Wayne Sabin,wayne-sabin/su34,Ladislav Hecht,ladislav-hecht/hc94,75 61 68 62,US Championships,Grand Slam,1941.08.30,Outdoor,Grass,Round of 16
"Frederick ""Ted"" Schroeder","frederick-""ted""-schroeder/sb40",Charles Mattmann,charles-mattmann/mr15,64 75 62,US Championships,Grand Slam,1941.08.30,Outdoor,Grass,Round of 16
William Gillespie,william-gillespie/gh10,Eddie Moylan,eddie-moylan/mq56,75 46 64 97,US Championships,Grand Slam,1941.08.30,Outdoor,Grass,Round of 32
Bryan Grant,bryan-grant/gg80,Pancho Segura,pancho-segura/s246,64 86 46 57 62,US Championships,Grand Slam,1941.08.30,Outdoor,Grass,Round of 32
Seymour Greenberg,seymour-greenberg/gg69,Gerard Podesta,gerard-podesta/pj09,61 62 63,US Championships,Grand Slam,1941.08.30,Outdoor,Grass,Round of 32
Ladislav Hecht,ladislav-hecht/hc94,William Canning,william-canning/cj45,64 62 61,US Championships,Grand Slam,1941.08.30,Outdoor,Grass,Round of 32
Francis Kovacs,francis-kovacs/kg37,Richard Hart,richard-hart/hd55,63 62 63,US Championships,Grand Slam,1941.08.30,Outdoor,Grass,Round of 32
Jack Kramer,jack-kramer/kg10,Bill Talbert,bill-talbert/td72,61 64 61,US Championships,Grand Slam,1941.08.30,Outdoor,Grass,Round of 32
Gene Mako,gene-mako/mr41,George Lyttleton-Roger,george-lyttleton-roger/lf10,57 62 97 75,US Championships,Grand Slam,1941.08.30,Outdoor,Grass,Round of 32
Charles Mattmann,charles-mattmann/mr15,Joseph Fishbach,joseph-fishbach/fa28,61 86 62,US Championships,Grand Slam,1941.08.30,Outdoor,Grass,Round of 32
Donald McNeill,donald-mcneill/mq88,George Toley,george-toley/te24,63 75 64,US Championships,Grand Slam,1941.08.30,Outdoor,Grass,Round of 32
Gardnar Mulloy,gardnar-mulloy/m273,Gerald Crowther,gerald-crowther/cj70,46 63 63 61,US Championships,Grand Slam,1941.08.30,Outdoor,Grass,Round of 32
Charles Olewine,charles-olewine/o568,Edwin Amark,edwin-amark/ae21,61 46 108 75,US Championships,Grand Slam,1941.08.30,Outdoor,Grass,Round of 32
Frank Parker,frank-parker/p154,Edward Alloo,edward-alloo/ad87,62 64 61,US Championships,Grand Slam,1941.08.30,Outdoor,Grass,Round of 32
Bobby Riggs,bobby-riggs/rf00,Frank Bowden,frank-bowden/bo96,61 63 62,US Championships,Grand Slam,1941.08.30,Outdoor,Grass,Round of 32
Wayne Sabin,wayne-sabin/su34,Gilbert Hunt,gilbert-hunt/hd79,63 62 64,US Championships,Grand Slam,1941.08.30,Outdoor,Grass,Round of 32
"Frederick ""Ted"" Schroeder","frederick-""ted""-schroeder/sb40",Budge Patty,budge-patty/pi25,60 63 60,US Championships,Grand Slam,1941.08.30,Outdoor,Grass,Round of 32
E. Victor Seixas,e.-victor-seixas/s240,Arthur Marx,arthur-marx/mr85,62 97 62,US Championships,Grand Slam,1941.08.30,Outdoor,Grass,Round of 32
Edward Alloo,edward-alloo/ad87,Russell Bobbitt,russell-bobbitt/bp53,60 62 63,US Championships,Grand Slam,1941.08.30,Outdoor,Grass,Round of 64
Edwin Amark,edwin-amark/ae21,Harris Everett,harris-everett/e922,62 36 61 64,US Championships,Grand Slam,1941.08.30,Outdoor,Grass,Round of 64
Frank Bowden,frank-bowden/bo96,Chauncey Steele,chauncey-steele/st13,(W/O),US Championships,Grand Slam,1941.08.30,Outdoor,Grass,Round of 64
William Canning,william-canning/cj45,William Crosby,william-crosby/cj72,75 75 61,US Championships,Grand Slam,1941.08.30,Outdoor,Grass,Round of 64
Gerald Crowther,gerald-crowther/cj70,Sewall Cutler,sewall-cutler/cj73,62 86 108,US Championships,Grand Slam,1941.08.30,Outdoor,Grass,Round of 64
Joseph Fishbach,joseph-fishbach/fa28,Blair Hawley,blair-hawley/hd09,36 64 61 86,US Championships,Grand Slam,1941.08.30,Outdoor,Grass,Round of 64
William Gillespie,william-gillespie/gh10,Frank Shields,frank-shields/st33,86 64 46 66 (RET),US Championships,Grand Slam,1941.08.30,Outdoor,Grass,Round of 64
Bryan Grant,bryan-grant/gg80,Raymond Gladman,raymond-gladman/gh17,75 63 63,US Championships,Grand Slam,1941.08.30,Outdoor,Grass,Round of 64
Seymour Greenberg,seymour-greenberg/gg69,Gilbert Hall,gilbert-hall/hd37,63 36 62 63,US Championships,Grand Slam,1941.08.30,Outdoor,Grass,Round of 64
Richard Hart,richard-hart/hd55,Caldwell Russell,caldwell-russell/re99,46 63 46 21 (RET),US Championships,Grand Slam,1941.08.30,Outdoor,Grass,Round of 64
Ladislav Hecht,ladislav-hecht/hc94,James Evert,james-evert/e920,64 16 60 61,US Championships,Grand Slam,1941.08.30,Outdoor,Grass,Round of 64
Gilbert Hunt,gilbert-hunt/hd79,Ronald Edwards,ronald-edwards/e932,64 75 61,US Championships,Grand Slam,1941.08.30,Outdoor,Grass,Round of 64
Francis Kovacs,francis-kovacs/kg37,Barnard Welsh,barnard-welsh/w818,63 46 61 75,US Championships,Grand Slam,1941.08.30,Outdoor,Grass,Round of 64
Jack Kramer,jack-kramer/kg10,Gadner Larned,gadner-larned/lf19,(W/O),US Championships,Grand Slam,1941.08.30,Outdoor,Grass,Round of 64
George Lyttleton-Roger,george-lyttleton-roger/lf10,Marshall Chambers,marshall-chambers/cj71,63 62 16 61,US Championships,Grand Slam,1941.08.30,Outdoor,Grass,Round of 64
Gene Mako,gene-mako/mr41,Lawrence Krieger,lawrence-krieger/kg38,62 61 62,US Championships,Grand Slam,1941.08.30,Outdoor,Grass,Round of 64
Arthur Marx,arthur-marx/mr85,Alastair Martin,alastair-martin/mq61,68 36 61 64 75,US Championships,Grand Slam,1941.08.30,Outdoor,Grass,Round of 64
Charles Mattmann,charles-mattmann/mr15,August Ganzenmuller,august-ganzenmuller/gg66,64 64 64,US Championships,Grand Slam,1941.08.30,Outdoor,Grass,Round of 64
Donald McNeill,donald-mcneill/mq88,George Pryor,george-pryor/pj08,63 64 64,US Championships,Grand Slam,1941.08.30,Outdoor,Grass,Round of 64
Eddie Moylan,eddie-moylan/mq56,Wai-Chuen Choy,wai-chuen-choy/cj10,108 63 36 64,US Championships,Grand Slam,1941.08.30,Outdoor,Grass,Round of 64
Gardnar Mulloy,gardnar-mulloy/m273,Sidney Jr. Wood,sidney-jr.-wood/w796,63 86 63,US Championships,Grand Slam,1941.08.30,Outdoor,Grass,Round of 64
Charles Olewine,charles-olewine/o568,Henry Batjer,henry-batjer/bp54,62 62 60,US Championships,Grand Slam,1941.08.30,Outdoor,Grass,Round of 64
Frank Parker,frank-parker/p154,Robert Kerdasha,robert-kerdasha/kf80,61 60 63,US Championships,Grand Slam,1941.08.30,Outdoor,Grass,Round of 64
Budge Patty,budge-patty/pi25,William Vogt,william-vogt/v913,63 64 26 46 64,US Championships,Grand Slam,1941.08.30,Outdoor,Grass,Round of 64
Gerard Podesta,gerard-podesta/pj09,Vincent Paul,vincent-paul/pi84,63 62 75,US Championships,Grand Slam,1941.08.30,Outdoor,Grass,Round of 64
Bobby Riggs,bobby-riggs/rf00,Clyde Hippenstiel,clyde-hippenstiel/hd28,62 64 63,US Championships,Grand Slam,1941.08.30,Outdoor,Grass,Round of 64
Wayne Sabin,wayne-sabin/su34,Earl Cochell,earl-cochell/cj00,62 60 61,US Championships,Grand Slam,1941.08.30,Outdoor,Grass,Round of 64
"Frederick ""Ted"" Schroeder","frederick-""ted""-schroeder/sb40",S. H. Ellsworth Davenport,s.-h.-ellsworth-davenport/dd87,63 46 68 61 61,US Championships,Grand Slam,1941.08.30,Outdoor,Grass,Round of 64
Pancho Segura,pancho-segura/s246,David Johnson,david-johnson/j634,62 61 75,US Championships,Grand Slam,1941.08.30,Outdoor,Grass,Round of 64
E. Victor Seixas,e.-victor-seixas/s240,Walter Driver,walter-driver/de23,63 64 62,US Championships,Grand Slam,1941.08.30,Outdoor,Grass,Round of 64
Bill Talbert,bill-talbert/td72,Melvin Lapman,melvin-lapman/lf47,60 60 61,US Championships,Grand Slam,1941.08.30,Outdoor,Grass,Round of 64
George Toley,george-toley/te24,William Umstaedter,william-umstaedter/u165,62 62 75,US Championships,Grand Slam,1941.08.30,Outdoor,Grass,Round of 64
