John Bromwich,john-bromwich/bo44,Adrian Quist,adrian-quist/q964,64 61 63,Australian Championships,Grand Slam,1939.01.20,Outdoor,Grass,Finals
John Bromwich,john-bromwich/bo44,Vivian Mcgrath,vivian-mcgrath/mr22,60 63 64,Australian Championships,Grand Slam,1939.01.20,Outdoor,Grass,Semi-Finals
Adrian Quist,adrian-quist/q964,Jack Crawford,jack-crawford/ci73,61 75 64,Australian Championships,Grand Slam,1939.01.20,Outdoor,Grass,Semi-Finals
John Bromwich,john-bromwich/bo44,Donald Turnbull,donald-turnbull/td92,75 61 60,Australian Championships,Grand Slam,1939.01.20,Outdoor,Grass,Quarter-Finals
Adrian Quist,adrian-quist/q964,Lionel Brodie,lionel-brodie/bo80,63 62 68 63,Australian Championships,Grand Slam,1939.01.20,Outdoor,Grass,Quarter-Finals
Vivian Mcgrath,vivian-mcgrath/mr22,Harry Hopman,harry-hopman/hd04,62 46 64 63,Australian Championships,Grand Slam,1939.01.20,Outdoor,Grass,Quarter-Finals
Jack Crawford,jack-crawford/ci73,James Gilchrist,james-gilchrist/gg52,46 64 26 63 64,Australian Championships,Grand Slam,1939.01.20,Outdoor,Grass,Quarter-Finals
John Bromwich,john-bromwich/bo44,Colin Long,colin-long/le95,63 62 86,Australian Championships,Grand Slam,1939.01.20,Outdoor,Grass,Round of 16
Adrian Quist,adrian-quist/q964,Dinny Pails,dinny-pails/pi85,62 64 63,Australian Championships,Grand Slam,1939.01.20,Outdoor,Grass,Round of 16
Harry Hopman,harry-hopman/hd04,Edgar Moon,edgar-moon/mr21,62 61 61,Australian Championships,Grand Slam,1939.01.20,Outdoor,Grass,Round of 16
Jack Crawford,jack-crawford/ci73,Reg Ewin,reg-ewin/e913,62 61 62,Australian Championships,Grand Slam,1939.01.20,Outdoor,Grass,Round of 16
James Gilchrist,james-gilchrist/gg52,Leonard Schwartz,leonard-schwartz/st69,62 63 63,Australian Championships,Grand Slam,1939.01.20,Outdoor,Grass,Round of 16
Vivian Mcgrath,vivian-mcgrath/mr22,Max Bonner,max-bonner/bo83,63 36 61 64,Australian Championships,Grand Slam,1939.01.20,Outdoor,Grass,Round of 16
Donald Turnbull,donald-turnbull/td92,W. Vaughan,w.-vaughan/v939,62 61 63,Australian Championships,Grand Slam,1939.01.20,Outdoor,Grass,Round of 16
Lionel Brodie,lionel-brodie/bo80,Oswald William Thoma Sidwell,oswald-william-thoma-sidwell/st34,62 75 64,Australian Championships,Grand Slam,1939.01.20,Outdoor,Grass,Round of 16
John Bromwich,john-bromwich/bo44,Edward Anstee,edward-anstee/ae26,62 63 61,Australian Championships,Grand Slam,1939.01.20,Outdoor,Grass,Round of 32
Adrian Quist,adrian-quist/q964,G. Wilkinson,g.-wilkinson/w855,86 61 63,Australian Championships,Grand Slam,1939.01.20,Outdoor,Grass,Round of 32
Harry Hopman,harry-hopman/hd04,Charles Vickers-Willis,charles-vickers-willis/v940,61 61 61,Australian Championships,Grand Slam,1939.01.20,Outdoor,Grass,Round of 32
Jack Crawford,jack-crawford/ci73,Arthur Liddle,arthur-liddle/lf00,64 60 62,Australian Championships,Grand Slam,1939.01.20,Outdoor,Grass,Round of 32
Leonard Schwartz,leonard-schwartz/st69,J.F. Pyle,j.f.-pyle/pj13,62 60 61,Australian Championships,Grand Slam,1939.01.20,Outdoor,Grass,Round of 32
Vivian Mcgrath,vivian-mcgrath/mr22,George Holland,george-holland/hd84,62 63 64,Australian Championships,Grand Slam,1939.01.20,Outdoor,Grass,Round of 32
Donald Turnbull,donald-turnbull/td92,H. Impey,h.-impey/i375,63 60 63,Australian Championships,Grand Slam,1939.01.20,Outdoor,Grass,Round of 32
Oswald William Thoma Sidwell,oswald-william-thoma-sidwell/st34,Jack Harper,jack-harper/hd24,62 108 26 64,Australian Championships,Grand Slam,1939.01.20,Outdoor,Grass,Round of 32
Max Bonner,max-bonner/bo83,Patrick Callaghan,patrick-callaghan/cj36,62 63 63,Australian Championships,Grand Slam,1939.01.20,Outdoor,Grass,Round of 32
Lionel Brodie,lionel-brodie/bo80,Les Hancock,les-hancock/hd38,61 62 61,Australian Championships,Grand Slam,1939.01.20,Outdoor,Grass,Round of 32
Reg Ewin,reg-ewin/e913,Roy Felan,roy-felan/fa30,61 63 61,Australian Championships,Grand Slam,1939.01.20,Outdoor,Grass,Round of 32
James Gilchrist,james-gilchrist/gg52,Abel Kay,abel-kay/kg01,57 46 60 62 63,Australian Championships,Grand Slam,1939.01.20,Outdoor,Grass,Round of 32
Colin Long,colin-long/le95,John Clemenger,john-clemenger/cj18,46 63 (RET),Australian Championships,Grand Slam,1939.01.20,Outdoor,Grass,Round of 32
Edgar Moon,edgar-moon/mr21,William Lean,william-lean/le68,64 61 61,Australian Championships,Grand Slam,1939.01.20,Outdoor,Grass,Round of 32
Dinny Pails,dinny-pails/pi85,Mervyn Weston,mervyn-weston/w825,61 75 75,Australian Championships,Grand Slam,1939.01.20,Outdoor,Grass,Round of 32
W. Vaughan,w.-vaughan/v939,Norman Wasley,norman-wasley/w854,64 36 63 810 63,Australian Championships,Grand Slam,1939.01.20,Outdoor,Grass,Round of 32
Donald McNeill,donald-mcneill/mq88,Bobby Riggs,bobby-riggs/rf00,75 60 63,French Championships,Grand Slam,1939.06.08,Outdoor,Clay,Finals
Bobby Riggs,bobby-riggs/rf00,Otto Szigeti,otto-szigeti/su38,63 60 64,French Championships,Grand Slam,1939.06.08,Outdoor,Clay,Semi-Finals
Donald McNeill,donald-mcneill/mq88,Elwood Cooke,elwood-cooke/cj44,62 75 79 62,French Championships,Grand Slam,1939.06.08,Outdoor,Clay,Semi-Finals
Bobby Riggs,bobby-riggs/rf00,Ignacy Tloczynski,ignacy-tloczynski/td76,62 26 86 75,French Championships,Grand Slam,1939.06.08,Outdoor,Clay,Quarter-Finals
Donald McNeill,donald-mcneill/mq88,Franjo Puncec,franjo-puncec/pi63,64 16 63 61,French Championships,Grand Slam,1939.06.08,Outdoor,Clay,Quarter-Finals
Elwood Cooke,elwood-cooke/cj44,Henry Billington,henry-billington/bo52,64 64 61,French Championships,Grand Slam,1939.06.08,Outdoor,Clay,Quarter-Finals
Otto Szigeti,otto-szigeti/su38,Christian Boussus,christian-boussus/bo58,75 16 26 75 64,French Championships,Grand Slam,1939.06.08,Outdoor,Clay,Quarter-Finals
Bobby Riggs,bobby-riggs/rf00,Max Combemale,max-combemale/cj24,68 64 64 86,French Championships,Grand Slam,1939.06.08,Outdoor,Clay,Round of 16
Franjo Puncec,franjo-puncec/pi63,Emil Gabori,emil-gabori/gh18,64 63 62,French Championships,Grand Slam,1939.06.08,Outdoor,Clay,Round of 16
Henry Billington,henry-billington/bo52,Jozsef Asboth,jozsef-asboth/ad74,46 64 36 75 63,French Championships,Grand Slam,1939.06.08,Outdoor,Clay,Round of 16
Christian Boussus,christian-boussus/bo58,George Lyttleton-Roger,george-lyttleton-roger/lf10,97 63 62,French Championships,Grand Slam,1939.06.08,Outdoor,Clay,Round of 16
Elwood Cooke,elwood-cooke/cj44,Franjo Kukuljevic,franjo-kukuljevic/kf98,61 21 (RET),French Championships,Grand Slam,1939.06.08,Outdoor,Clay,Round of 16
Donald McNeill,donald-mcneill/mq88,Bernard Destremau,bernard-destremau/dd06,62 16 63 46 62,French Championships,Grand Slam,1939.06.08,Outdoor,Clay,Round of 16
Otto Szigeti,otto-szigeti/su38,Paul Feret,paul-feret/fa02,36 63 46 64 61,French Championships,Grand Slam,1939.06.08,Outdoor,Clay,Round of 16
Ignacy Tloczynski,ignacy-tloczynski/td76,Dragutin Mitic,dragutin-mitic/mq81,60 64 26 60,French Championships,Grand Slam,1939.06.08,Outdoor,Clay,Round of 16
Bobby Riggs,bobby-riggs/rf00,Ronald Shayes,ronald-shayes/su37,64 46 63 63,French Championships,Grand Slam,1939.06.08,Outdoor,Clay,Round of 32
Franjo Puncec,franjo-puncec/pi63,Charles Hare,charles-hare/hd35,62 75 64,French Championships,Grand Slam,1939.06.08,Outdoor,Clay,Round of 32
Jozsef Asboth,jozsef-asboth/ad74,Rene Gallepe,rene-gallepe/gg79,61 64 61,French Championships,Grand Slam,1939.06.08,Outdoor,Clay,Round of 32
Henry Billington,henry-billington/bo52,Jacques Van Den Eynde,jacques-van-den-eynde/v917,62 64 26 46 108,French Championships,Grand Slam,1939.06.08,Outdoor,Clay,Round of 32
Christian Boussus,christian-boussus/bo58,Roger Dessair,roger-dessair/dd47,119 60 62,French Championships,Grand Slam,1939.06.08,Outdoor,Clay,Round of 32
Max Combemale,max-combemale/cj24,Robert Mouvet,robert-mouvet/mr88,64 61 64,French Championships,Grand Slam,1939.06.08,Outdoor,Clay,Round of 32
Elwood Cooke,elwood-cooke/cj44,Antoine Gentien,antoine-gentien/gg56,60 97 63,French Championships,Grand Slam,1939.06.08,Outdoor,Clay,Round of 32
Bernard Destremau,bernard-destremau/dd06,Jacques Brugnon,jacques-brugnon/bo88,97 97 60,French Championships,Grand Slam,1939.06.08,Outdoor,Clay,Round of 32
Paul Feret,paul-feret/fa02,Pierre Geelhand De Merxem,pierre-geelhand-de-merxem/dd72,62 62 62,French Championships,Grand Slam,1939.06.08,Outdoor,Clay,Round of 32
Emil Gabori,emil-gabori/gh18,Andre La Croix,andre-la-croix/lf09,62 911 63 60,French Championships,Grand Slam,1939.06.08,Outdoor,Clay,Round of 32
Franjo Kukuljevic,franjo-kukuljevic/kf98,Henri Catteau,henri-catteau/cj74,97 26 46 63 60,French Championships,Grand Slam,1939.06.08,Outdoor,Clay,Round of 32
George Lyttleton-Roger,george-lyttleton-roger/lf10,Josip Palada,josip-palada/pi39,64 63 60,French Championships,Grand Slam,1939.06.08,Outdoor,Clay,Round of 32
Donald McNeill,donald-mcneill/mq88,Jacques Jamain,jacques-jamain/j613,62 61 60,French Championships,Grand Slam,1939.06.08,Outdoor,Clay,Round of 32
Dragutin Mitic,dragutin-mitic/mq81,Jacques Langanay,jacques-langanay/lf50,75 61 63,French Championships,Grand Slam,1939.06.08,Outdoor,Clay,Round of 32
Otto Szigeti,otto-szigeti/su38,Andre Jaquement,andre-jaquement/j624,62 64 64,French Championships,Grand Slam,1939.06.08,Outdoor,Clay,Round of 32
Ignacy Tloczynski,ignacy-tloczynski/td76,Robert Abdesselam,robert-abdesselam/ad60,46 64 60 108,French Championships,Grand Slam,1939.06.08,Outdoor,Clay,Round of 32
Bobby Riggs,bobby-riggs/rf00,Roland Journu,roland-journu/j619,64 810 64 62,French Championships,Grand Slam,1939.06.08,Outdoor,Clay,Round of 64
Robert Abdesselam,robert-abdesselam/ad60,AC Hans Van Swol,ac-hans-van-swol/v912,46 63 36 64 86,French Championships,Grand Slam,1939.06.08,Outdoor,Clay,Round of 64
Henry Billington,henry-billington/bo52,Jacques Bonte,jacques-bonte/bp02,60 63 63,French Championships,Grand Slam,1939.06.08,Outdoor,Clay,Round of 64
Christian Boussus,christian-boussus/bo58,Charles Harris,charles-harris/hd29,119 60 62,French Championships,Grand Slam,1939.06.08,Outdoor,Clay,Round of 64
Jacques Brugnon,jacques-brugnon/bo88,Otto Hauser,otto-hauser/hd85,60 60 62,French Championships,Grand Slam,1939.06.08,Outdoor,Clay,Round of 64
Max Combemale,max-combemale/cj24,Leopold De Borman,leopold-de-borman/dd83,108 108 61,French Championships,Grand Slam,1939.06.08,Outdoor,Clay,Round of 64
Pierre Geelhand De Merxem,pierre-geelhand-de-merxem/dd72,Jean Le Sueur,jean-le-sueur/le85,86 64 62,French Championships,Grand Slam,1939.06.08,Outdoor,Clay,Round of 64
Roger Dessair,roger-dessair/dd47,Eugene Smith,eugene-smith/su39,63 64 26 86,French Championships,Grand Slam,1939.06.08,Outdoor,Clay,Round of 64
Bernard Destremau,bernard-destremau/dd06,Henri Pellizza,henri-pellizza/p578,86 61 63,French Championships,Grand Slam,1939.06.08,Outdoor,Clay,Round of 64
Paul Feret,paul-feret/fa02,William Robertson,william-robertson/re74,79 62 62 63,French Championships,Grand Slam,1939.06.08,Outdoor,Clay,Round of 64
Antoine Gentien,antoine-gentien/gg56,Raymond Rodel,raymond-rodel/re52,79 62 61 64,French Championships,Grand Slam,1939.06.08,Outdoor,Clay,Round of 64
Jacques Jamain,jacques-jamain/j613,Louis Chevallier,louis-chevallier/cj02,36 61 62 60,French Championships,Grand Slam,1939.06.08,Outdoor,Clay,Round of 64
Andre Jaquement,andre-jaquement/j624,Jacques Sanglier,jacques-sanglier/st15,62 62 36 61,French Championships,Grand Slam,1939.06.08,Outdoor,Clay,Round of 64
Franjo Kukuljevic,franjo-kukuljevic/kf98,Jean Rimet,jean-rimet/re81,62 61 64,French Championships,Grand Slam,1939.06.08,Outdoor,Clay,Round of 64
Jacques Langanay,jacques-langanay/lf50,Robert Billaudot,robert-billaudot/bo68,36 36 62 63 63,French Championships,Grand Slam,1939.06.08,Outdoor,Clay,Round of 64
George Lyttleton-Roger,george-lyttleton-roger/lf10,Georges Glasser,georges-glasser/gg78,63 36 64 63,French Championships,Grand Slam,1939.06.08,Outdoor,Clay,Round of 64
Donald McNeill,donald-mcneill/mq88,Adam Baworowski,adam-baworowski/bp57,26 61 75 61,French Championships,Grand Slam,1939.06.08,Outdoor,Clay,Round of 64
Dragutin Mitic,dragutin-mitic/mq81,Henri Bolelli,henri-bolelli/bo74,16 63 75 61,French Championships,Grand Slam,1939.06.08,Outdoor,Clay,Round of 64
Robert Mouvet,robert-mouvet/mr88,Pierre Pellizza,pierre-pellizza/pi33,(W/O),French Championships,Grand Slam,1939.06.08,Outdoor,Clay,Round of 64
Josip Palada,josip-palada/pi39,Jacques Lecointre,jacques-lecointre/lf51,61 61 63,French Championships,Grand Slam,1939.06.08,Outdoor,Clay,Round of 64
Ronald Shayes,ronald-shayes/su37,Francois Terrier,francois-terrier/te00,63 75 63,French Championships,Grand Slam,1939.06.08,Outdoor,Clay,Round of 64
Otto Szigeti,otto-szigeti/su38,Frank Wilde,frank-wilde/w829,68 61 63 62,French Championships,Grand Slam,1939.06.08,Outdoor,Clay,Round of 64
Ignacy Tloczynski,ignacy-tloczynski/td76,E. Robinson,e.-robinson/rf02,62 63 64,French Championships,Grand Slam,1939.06.08,Outdoor,Clay,Round of 64
Bobby Riggs,bobby-riggs/rf00,Elwood Cooke,elwood-cooke/cj44,26 86 36 63 62,Wimbledon,Grand Slam,1939.06.26,Outdoor,Grass,Finals
Bobby Riggs,bobby-riggs/rf00,Franjo Puncec,franjo-puncec/pi63,62 63 64,Wimbledon,Grand Slam,1939.06.26,Outdoor,Grass,Semi-Finals
Elwood Cooke,elwood-cooke/cj44,Henner Henkel,henner-henkel/hd86,63 46 64 64,Wimbledon,Grand Slam,1939.06.26,Outdoor,Grass,Semi-Finals
Elwood Cooke,elwood-cooke/cj44,Bunny Austin,bunny-austin/ae29,63 60 61,Wimbledon,Grand Slam,1939.06.26,Outdoor,Grass,Quarter-Finals
Bobby Riggs,bobby-riggs/rf00,Ghaus Mohammed Khan,ghaus-mohammed-khan/kg12,62 62 62,Wimbledon,Grand Slam,1939.06.26,Outdoor,Grass,Quarter-Finals
Franjo Puncec,franjo-puncec/pi63,Eugene Smith,eugene-smith/su39,60 62 62,Wimbledon,Grand Slam,1939.06.26,Outdoor,Grass,Quarter-Finals
Henner Henkel,henner-henkel/hd86,Franjo Kukuljevic,franjo-kukuljevic/kf98,61 63 62,Wimbledon,Grand Slam,1939.06.26,Outdoor,Grass,Quarter-Finals
Bunny Austin,bunny-austin/ae29,Donald Butler,donald-butler/bo53,86 64 64,Wimbledon,Grand Slam,1939.06.26,Outdoor,Grass,Round of 16
Bobby Riggs,bobby-riggs/rf00,Ronald Shayes,ronald-shayes/su37,75 68 64 63,Wimbledon,Grand Slam,1939.06.26,Outdoor,Grass,Round of 16
Franjo Puncec,franjo-puncec/pi63,Alejo Russell,alejo-russell/r132,63 86 61,Wimbledon,Grand Slam,1939.06.26,Outdoor,Grass,Round of 16
Henner Henkel,henner-henkel/hd86,Jacques Brugnon,jacques-brugnon/bo88,61 63 60,Wimbledon,Grand Slam,1939.06.26,Outdoor,Grass,Round of 16
Elwood Cooke,elwood-cooke/cj44,John Olliff,john-olliff/o556,61 61 64,Wimbledon,Grand Slam,1939.06.26,Outdoor,Grass,Round of 16
Ghaus Mohammed Khan,ghaus-mohammed-khan/kg12,Otto Szigeti,otto-szigeti/su38,64 1416 26 63 64,Wimbledon,Grand Slam,1939.06.26,Outdoor,Grass,Round of 16
Franjo Kukuljevic,franjo-kukuljevic/kf98,Murray Deloford,murray-deloford/dd64,64 63 61,Wimbledon,Grand Slam,1939.06.26,Outdoor,Grass,Round of 16
Eugene Smith,eugene-smith/su39,Emil Gabori,emil-gabori/gh18,60 64 63,Wimbledon,Grand Slam,1939.06.26,Outdoor,Grass,Round of 16
Bunny Austin,bunny-austin/ae29,Jaroslav Drobny,jaroslav-drobny/d531,75 97 (RET),Wimbledon,Grand Slam,1939.06.26,Outdoor,Grass,Round of 32
Bobby Riggs,bobby-riggs/rf00,Cam Malfroy,cam-malfroy/mr53,86 119 62,Wimbledon,Grand Slam,1939.06.26,Outdoor,Grass,Round of 32
Franjo Puncec,franjo-puncec/pi63,Donald Macphail,donald-macphail/mr60,63 63 75,Wimbledon,Grand Slam,1939.06.26,Outdoor,Grass,Round of 32
Henner Henkel,henner-henkel/hd86,Lawrence Shaffi,lawrence-shaffi/su44,64 46 64 61,Wimbledon,Grand Slam,1939.06.26,Outdoor,Grass,Round of 32
Elwood Cooke,elwood-cooke/cj44,George Lyttleton-Roger,george-lyttleton-roger/lf10,75 61 64,Wimbledon,Grand Slam,1939.06.26,Outdoor,Grass,Round of 32
Ghaus Mohammed Khan,ghaus-mohammed-khan/kg12,Ignacy Tloczynski,ignacy-tloczynski/td76,60 63 64,Wimbledon,Grand Slam,1939.06.26,Outdoor,Grass,Round of 32
Jacques Brugnon,jacques-brugnon/bo88,Giorgio De Stefani,giorgio-de-stefani/dd81,64 64 68 64,Wimbledon,Grand Slam,1939.06.26,Outdoor,Grass,Round of 32
Donald Butler,donald-butler/bo53,Rolf Goepfert,rolf-goepfert/gg58,46 62 46 63 63,Wimbledon,Grand Slam,1939.06.26,Outdoor,Grass,Round of 32
Murray Deloford,murray-deloford/dd64,Dragutin Mitic,dragutin-mitic/mq81,75 64 26 26 63,Wimbledon,Grand Slam,1939.06.26,Outdoor,Grass,Round of 32
Emil Gabori,emil-gabori/gh18,Vanni Canepele,vanni-canepele/cj06,64 61 26 61,Wimbledon,Grand Slam,1939.06.26,Outdoor,Grass,Round of 32
Franjo Kukuljevic,franjo-kukuljevic/kf98,Wai-Chuen Choy,wai-chuen-choy/cj10,64 75 64,Wimbledon,Grand Slam,1939.06.26,Outdoor,Grass,Round of 32
John Olliff,john-olliff/o556,Ian Collins,ian-collins/cj32,86 57 62 64,Wimbledon,Grand Slam,1939.06.26,Outdoor,Grass,Round of 32
Alejo Russell,alejo-russell/r132,Tony Mottram,tony-mottram/mq59,108 64 61,Wimbledon,Grand Slam,1939.06.26,Outdoor,Grass,Round of 32
Ronald Shayes,ronald-shayes/su37,Josef Siba,josef-siba/st82,75 64 97,Wimbledon,Grand Slam,1939.06.26,Outdoor,Grass,Round of 32
Eugene Smith,eugene-smith/su39,Frantisek Cejnar,frantisek-cejnar/cj78,63 62 57 16 61,Wimbledon,Grand Slam,1939.06.26,Outdoor,Grass,Round of 32
Otto Szigeti,otto-szigeti/su38,AC Hans Van Swol,ac-hans-van-swol/v912,86 64 64,Wimbledon,Grand Slam,1939.06.26,Outdoor,Grass,Round of 32
Bunny Austin,bunny-austin/ae29,Owen Anderson,owen-anderson/ae23,63 64 64,Wimbledon,Grand Slam,1939.06.26,Outdoor,Grass,Round of 64
Bobby Riggs,bobby-riggs/rf00,Edward Avory,edward-avory/ad98,64 64 62,Wimbledon,Grand Slam,1939.06.26,Outdoor,Grass,Round of 64
Franjo Kukuljevic,franjo-kukuljevic/kf98,Donald McNeill,donald-mcneill/mq88,64 75 61,Wimbledon,Grand Slam,1939.06.26,Outdoor,Grass,Round of 64
Franjo Puncec,franjo-puncec/pi63,Pat Sherwood,pat-sherwood/su48,63 61 63,Wimbledon,Grand Slam,1939.06.26,Outdoor,Grass,Round of 64
Henner Henkel,henner-henkel/hd86,John Comery,john-comery/cj11,61 62 64,Wimbledon,Grand Slam,1939.06.26,Outdoor,Grass,Round of 64
Elwood Cooke,elwood-cooke/cj44,George Godsell,george-godsell/gg59,61 75 75,Wimbledon,Grand Slam,1939.06.26,Outdoor,Grass,Round of 64
Eugene Smith,eugene-smith/su39,Roderich Menzel,roderich-menzel/mr26,61 36 63 75,Wimbledon,Grand Slam,1939.06.26,Outdoor,Grass,Round of 64
Ignacy Tloczynski,ignacy-tloczynski/td76,Dennis Slack,dennis-slack/st68,63 61 61,Wimbledon,Grand Slam,1939.06.26,Outdoor,Grass,Round of 64
Jacques Brugnon,jacques-brugnon/bo88,Robert Mulliken,robert-mulliken/mr94,64 62 64,Wimbledon,Grand Slam,1939.06.26,Outdoor,Grass,Round of 64
Donald Butler,donald-butler/bo53,Jack Darkins,jack-darkins/de00,97 46 63 61,Wimbledon,Grand Slam,1939.06.26,Outdoor,Grass,Round of 64
Vanni Canepele,vanni-canepele/cj06,Yaswanath-Rao Savur,yaswanath-rao-savur/su46,62 64 75,Wimbledon,Grand Slam,1939.06.26,Outdoor,Grass,Round of 64
Frantisek Cejnar,frantisek-cejnar/cj78,Mihaly Csikos,mihaly-csikos/cj79,64 75 63,Wimbledon,Grand Slam,1939.06.26,Outdoor,Grass,Round of 64
Wai-Chuen Choy,wai-chuen-choy/cj10,Jimmy Jones,jimmy-jones/j622,63 26 62 64,Wimbledon,Grand Slam,1939.06.26,Outdoor,Grass,Round of 64
Ian Collins,ian-collins/cj32,Alan Brown,alan-brown/bp66,63 16 64 61,Wimbledon,Grand Slam,1939.06.26,Outdoor,Grass,Round of 64
Giorgio De Stefani,giorgio-de-stefani/dd81,Leopold De Borman,leopold-de-borman/dd83,62 108 61,Wimbledon,Grand Slam,1939.06.26,Outdoor,Grass,Round of 64
Murray Deloford,murray-deloford/dd64,Hector Etchart,hector-etchart/e935,64 63 26 62,Wimbledon,Grand Slam,1939.06.26,Outdoor,Grass,Round of 64
Jaroslav Drobny,jaroslav-drobny/d531,Henry Weatherall,henry-weatherall/w820,62 62 64,Wimbledon,Grand Slam,1939.06.26,Outdoor,Grass,Round of 64
Emil Gabori,emil-gabori/gh18,J. Gunn,j.-gunn/gh22,75 97 57 62,Wimbledon,Grand Slam,1939.06.26,Outdoor,Grass,Round of 64
Rolf Goepfert,rolf-goepfert/gg58,Jacques Van Den Eynde,jacques-van-den-eynde/v917,75 64 62,Wimbledon,Grand Slam,1939.06.26,Outdoor,Grass,Round of 64
Ghaus Mohammed Khan,ghaus-mohammed-khan/kg12,Robert Tinkler,robert-tinkler/te10,64 63 62,Wimbledon,Grand Slam,1939.06.26,Outdoor,Grass,Round of 64
George Lyttleton-Roger,george-lyttleton-roger/lf10,Clifford Hovell,clifford-hovell/hd08,62 108 86,Wimbledon,Grand Slam,1939.06.26,Outdoor,Grass,Round of 64
Donald Macphail,donald-macphail/mr60,Hector Fisher,hector-fisher/fa23,36 61 62 60,Wimbledon,Grand Slam,1939.06.26,Outdoor,Grass,Round of 64
Cam Malfroy,cam-malfroy/mr53,Harry Lee,harry-lee/lf06,62 64 75,Wimbledon,Grand Slam,1939.06.26,Outdoor,Grass,Round of 64
Dragutin Mitic,dragutin-mitic/mq81,Herman David,herman-david/dd91,64 75 64,Wimbledon,Grand Slam,1939.06.26,Outdoor,Grass,Round of 64
Tony Mottram,tony-mottram/mq59,Arnulf Schmidt,arnulf-schmidt/su47,36 63 61 61,Wimbledon,Grand Slam,1939.06.26,Outdoor,Grass,Round of 64
John Olliff,john-olliff/o556,Boris Maneff,boris-maneff/mr93,62 64 64,Wimbledon,Grand Slam,1939.06.26,Outdoor,Grass,Round of 64
Alejo Russell,alejo-russell/r132,Alan Coldham,alan-coldham/cj14,68 64 119 62,Wimbledon,Grand Slam,1939.06.26,Outdoor,Grass,Round of 64
Lawrence Shaffi,lawrence-shaffi/su44,Hans Pfaff,hans-pfaff/pi88,36 63 63 64,Wimbledon,Grand Slam,1939.06.26,Outdoor,Grass,Round of 64
Ronald Shayes,ronald-shayes/su37,Josip Palada,josip-palada/pi39,64 36 97 26 86,Wimbledon,Grand Slam,1939.06.26,Outdoor,Grass,Round of 64
Josef Siba,josef-siba/st82,Robert Abdesselam,robert-abdesselam/ad60,75 61 64,Wimbledon,Grand Slam,1939.06.26,Outdoor,Grass,Round of 64
Otto Szigeti,otto-szigeti/su38,Helge Plougmann,helge-plougmann/pi81,63 63 75,Wimbledon,Grand Slam,1939.06.26,Outdoor,Grass,Round of 64
AC Hans Van Swol,ac-hans-van-swol/v912,Max Ellmer,max-ellmer/e915,62 63 46 64,Wimbledon,Grand Slam,1939.06.26,Outdoor,Grass,Round of 64
Bunny Austin,bunny-austin/ae29,Jozsef Asboth,jozsef-asboth/ad74,61 64 1210,Wimbledon,Grand Slam,1939.06.26,Outdoor,Grass,Round of 128
Bobby Riggs,bobby-riggs/rf00,Jagan Dhamija,jagan-dhamija/de31,63 60 64,Wimbledon,Grand Slam,1939.06.26,Outdoor,Grass,Round of 128
Donald McNeill,donald-mcneill/mq88,Kaiman Aschner,kaiman-aschner/ae31,61 61 60,Wimbledon,Grand Slam,1939.06.26,Outdoor,Grass,Round of 128
Franjo Puncec,franjo-puncec/pi63,Neil Edwards,neil-edwards/e936,62 62 63,Wimbledon,Grand Slam,1939.06.26,Outdoor,Grass,Round of 128
Henner Henkel,henner-henkel/hd86,Jack Piercy,jack-piercy/pi87,97 60 60,Wimbledon,Grand Slam,1939.06.26,Outdoor,Grass,Round of 128
Elwood Cooke,elwood-cooke/cj44,Christian Boussus,christian-boussus/bo58,16 64 60 63,Wimbledon,Grand Slam,1939.06.26,Outdoor,Grass,Round of 128
Roderich Menzel,roderich-menzel/mr26,Eric Peters,eric-peters/pj14,61 62 62,Wimbledon,Grand Slam,1939.06.26,Outdoor,Grass,Round of 128
Ignacy Tloczynski,ignacy-tloczynski/td76,Chuni Savara,chuni-savara/su49,62 60 63,Wimbledon,Grand Slam,1939.06.26,Outdoor,Grass,Round of 128
Robert Abdesselam,robert-abdesselam/ad60,Georg Von Metaxa,georg-von-metaxa/v943,62 64 36 64,Wimbledon,Grand Slam,1939.06.26,Outdoor,Grass,Round of 128
Owen Anderson,owen-anderson/ae23,Maurice Lucking,maurice-lucking/lf24,75 61 75,Wimbledon,Grand Slam,1939.06.26,Outdoor,Grass,Round of 128
Edward Avory,edward-avory/ad98,Derrick Leyland,derrick-leyland/lf22,63 16 64 46 64,Wimbledon,Grand Slam,1939.06.26,Outdoor,Grass,Round of 128
Alan Brown,alan-brown/bp66,H. Guicz,h.-guicz/gh21,62 62 64,Wimbledon,Grand Slam,1939.06.26,Outdoor,Grass,Round of 128
Jacques Brugnon,jacques-brugnon/bo88,Frank Wilde,frank-wilde/w829,61 63 36 63,Wimbledon,Grand Slam,1939.06.26,Outdoor,Grass,Round of 128
Donald Butler,donald-butler/bo53,Cristea Caralulis,cristea-caralulis/cj35,64 62 79 60,Wimbledon,Grand Slam,1939.06.26,Outdoor,Grass,Round of 128
Vanni Canepele,vanni-canepele/cj06,Guy Cooper,guy-cooper/cj12,75 64 63,Wimbledon,Grand Slam,1939.06.26,Outdoor,Grass,Round of 128
Frantisek Cejnar,frantisek-cejnar/cj78,Antoine Gentien,antoine-gentien/gg56,61 97 62,Wimbledon,Grand Slam,1939.06.26,Outdoor,Grass,Round of 128
Wai-Chuen Choy,wai-chuen-choy/cj10,Raymond Egan,raymond-egan/e916,57 16 64 62 63,Wimbledon,Grand Slam,1939.06.26,Outdoor,Grass,Round of 128
Alan Coldham,alan-coldham/cj14,Gwyn Tuckett,gwyn-tuckett/td90,63 64 63,Wimbledon,Grand Slam,1939.06.26,Outdoor,Grass,Round of 128
Ian Collins,ian-collins/cj32,Robert Higgin,robert-higgin/hd93,61 62 62,Wimbledon,Grand Slam,1939.06.26,Outdoor,Grass,Round of 128
John Comery,john-comery/cj11,Gyorgy Dallos,gyorgy-dallos/de30,63 79 64 64,Wimbledon,Grand Slam,1939.06.26,Outdoor,Grass,Round of 128
Mihaly Csikos,mihaly-csikos/cj79,M.D. Maclagan,m.d.-maclagan/mr95,62 75 97,Wimbledon,Grand Slam,1939.06.26,Outdoor,Grass,Round of 128
Jack Darkins,jack-darkins/de00,Douglas Snart,douglas-snart/st37,86 64 86,Wimbledon,Grand Slam,1939.06.26,Outdoor,Grass,Round of 128
Herman David,herman-david/dd91,Gordon Fitt,gordon-fitt/fa17,62 61 57 63,Wimbledon,Grand Slam,1939.06.26,Outdoor,Grass,Round of 128
Leopold De Borman,leopold-de-borman/dd83,Colin Ritchie,colin-ritchie/rf06,64 75 36 06 75,Wimbledon,Grand Slam,1939.06.26,Outdoor,Grass,Round of 128
Giorgio De Stefani,giorgio-de-stefani/dd81,Adam Baworowski,adam-baworowski/bp57,36 64 75 75,Wimbledon,Grand Slam,1939.06.26,Outdoor,Grass,Round of 128
Murray Deloford,murray-deloford/dd64,Arnold England,arnold-england/e914,75 86 64,Wimbledon,Grand Slam,1939.06.26,Outdoor,Grass,Round of 128
Jaroslav Drobny,jaroslav-drobny/d531,Jin Ho,jin-ho/hd92,61 62 64,Wimbledon,Grand Slam,1939.06.26,Outdoor,Grass,Round of 128
Max Ellmer,max-ellmer/e915,Alexandru Hamburger,alexandru-hamburger/hd27,61 60 63,Wimbledon,Grand Slam,1939.06.26,Outdoor,Grass,Round of 128
Hector Etchart,hector-etchart/e935,Brian Royds,brian-royds/re73,75 61 62,Wimbledon,Grand Slam,1939.06.26,Outdoor,Grass,Round of 128
Hector Fisher,hector-fisher/fa23,Roland Morton,roland-morton/mr56,36 63 36 62 61,Wimbledon,Grand Slam,1939.06.26,Outdoor,Grass,Round of 128
Emil Gabori,emil-gabori/gh18,Jack Harrison,jack-harrison/hd94,64 62 62,Wimbledon,Grand Slam,1939.06.26,Outdoor,Grass,Round of 128
George Godsell,george-godsell/gg59,Jost Spitzer,jost-spitzer/st42,63 46 61 61,Wimbledon,Grand Slam,1939.06.26,Outdoor,Grass,Round of 128
Rolf Goepfert,rolf-goepfert/gg58,Andre Najar,andre-najar/n802,63 63 61,Wimbledon,Grand Slam,1939.06.26,Outdoor,Grass,Round of 128
J. Gunn,j.-gunn/gh22,Sin-Khie Kho,sin-khie-kho/kg13,(W/O),Wimbledon,Grand Slam,1939.06.26,Outdoor,Grass,Round of 128
Clifford Hovell,clifford-hovell/hd08,Headley Baxter,headley-baxter/bo60,06 79 60 86 63,Wimbledon,Grand Slam,1939.06.26,Outdoor,Grass,Round of 128
Jimmy Jones,jimmy-jones/j622,Thomas Anderson,thomas-anderson/ad81,61 60 63,Wimbledon,Grand Slam,1939.06.26,Outdoor,Grass,Round of 128
Ghaus Mohammed Khan,ghaus-mohammed-khan/kg12,Norman Taylor,norman-taylor/te29,63 61 62,Wimbledon,Grand Slam,1939.06.26,Outdoor,Grass,Round of 128
Franjo Kukuljevic,franjo-kukuljevic/kf98,Tod Hughan,tod-hughan/te28,61 46 61 60,Wimbledon,Grand Slam,1939.06.26,Outdoor,Grass,Round of 128
Harry Lee,harry-lee/lf06,Edmund David,edmund-david/dd59,62 75 75,Wimbledon,Grand Slam,1939.06.26,Outdoor,Grass,Round of 128
George Lyttleton-Roger,george-lyttleton-roger/lf10,Khan-Iftikhar Ahmed,khan-iftikhar-ahmed/ae30,63 97 108,Wimbledon,Grand Slam,1939.06.26,Outdoor,Grass,Round of 128
Donald Macphail,donald-macphail/mr60,Bobby Meredith,bobby-meredith/mq99,62 61 63,Wimbledon,Grand Slam,1939.06.26,Outdoor,Grass,Round of 128
Cam Malfroy,cam-malfroy/mr53,Nigel Sharpe,nigel-sharpe/su50,64 63 26 46 60,Wimbledon,Grand Slam,1939.06.26,Outdoor,Grass,Round of 128
Boris Maneff,boris-maneff/mr93,Janmeja Charanjiva,janmeja-charanjiva/cj09,62 64 61,Wimbledon,Grand Slam,1939.06.26,Outdoor,Grass,Round of 128
Dragutin Mitic,dragutin-mitic/mq81,Dennis Coombe,dennis-coombe/ci90,64 1113 63 61,Wimbledon,Grand Slam,1939.06.26,Outdoor,Grass,Round of 128
Tony Mottram,tony-mottram/mq59,Eric Filby,eric-filby/f993,68 63 46 61 75,Wimbledon,Grand Slam,1939.06.26,Outdoor,Grass,Round of 128
Robert Mulliken,robert-mulliken/mr94,Reginald Bessemer-Clark,reginald-bessemer-clark/bp67,75 61 86,Wimbledon,Grand Slam,1939.06.26,Outdoor,Grass,Round of 128
John Olliff,john-olliff/o556,Daniel Prenn,daniel-prenn/pi72,36 46 61 64 (RET),Wimbledon,Grand Slam,1939.06.26,Outdoor,Grass,Round of 128
Josip Palada,josip-palada/pi39,Jack Warboys,jack-warboys/w859,60 60 60,Wimbledon,Grand Slam,1939.06.26,Outdoor,Grass,Round of 128
Hans Pfaff,hans-pfaff/pi88,Dilip Bose,dilip-bose/bo75,62 46 61 16 62,Wimbledon,Grand Slam,1939.06.26,Outdoor,Grass,Round of 128
Helge Plougmann,helge-plougmann/pi81,Gaston Medecin,gaston-medecin/mr01,97 16 62 61,Wimbledon,Grand Slam,1939.06.26,Outdoor,Grass,Round of 128
Alejo Russell,alejo-russell/r132,Dermot Muspratt,dermot-muspratt/mr96,64 63 64,Wimbledon,Grand Slam,1939.06.26,Outdoor,Grass,Round of 128
Yaswanath-Rao Savur,yaswanath-rao-savur/su46,Pierre Geelhand De Merxem,pierre-geelhand-de-merxem/dd72,75 97 61,Wimbledon,Grand Slam,1939.06.26,Outdoor,Grass,Round of 128
Arnulf Schmidt,arnulf-schmidt/su47,Harold Hare,harold-hare/hd95,26 63 86 06 63,Wimbledon,Grand Slam,1939.06.26,Outdoor,Grass,Round of 128
Lawrence Shaffi,lawrence-shaffi/su44,Brian Sturgeon,brian-sturgeon/su45,61 62 36 75,Wimbledon,Grand Slam,1939.06.26,Outdoor,Grass,Round of 128
Ronald Shayes,ronald-shayes/su37,Georgios Nikolaides,georgios-nikolaides/n839,26 62 75 46 62,Wimbledon,Grand Slam,1939.06.26,Outdoor,Grass,Round of 128
Pat Sherwood,pat-sherwood/su48,Henry Billington,henry-billington/bo52,63 62 119,Wimbledon,Grand Slam,1939.06.26,Outdoor,Grass,Round of 128
Josef Siba,josef-siba/st82,Eustace Fannin,eustace-fannin/fa12,63 62 61,Wimbledon,Grand Slam,1939.06.26,Outdoor,Grass,Round of 128
Dennis Slack,dennis-slack/st68,Henry Burrows,henry-burrows/bp68,68 64 57 75 63,Wimbledon,Grand Slam,1939.06.26,Outdoor,Grass,Round of 128
Eugene Smith,eugene-smith/su39,Eskell Andrews,eskell-andrews/ae07,36 62 63 64,Wimbledon,Grand Slam,1939.06.26,Outdoor,Grass,Round of 128
Otto Szigeti,otto-szigeti/su38,William Robertson,william-robertson/re74,1210 64 64,Wimbledon,Grand Slam,1939.06.26,Outdoor,Grass,Round of 128
Robert Tinkler,robert-tinkler/te10,Claude Lister,claude-lister/le74,61 46 63 61,Wimbledon,Grand Slam,1939.06.26,Outdoor,Grass,Round of 128
Jacques Van Den Eynde,jacques-van-den-eynde/v917,Herbert Whitney,herbert-whitney/w858,62 63 62,Wimbledon,Grand Slam,1939.06.26,Outdoor,Grass,Round of 128
AC Hans Van Swol,ac-hans-van-swol/v912,Jack Lysaght,jack-lysaght/lf57,64 63 63,Wimbledon,Grand Slam,1939.06.26,Outdoor,Grass,Round of 128
Henry Weatherall,henry-weatherall/w820,Garton Hone,garton-hone/hd41,64 63 75,Wimbledon,Grand Slam,1939.06.26,Outdoor,Grass,Round of 128
Bobby Riggs,bobby-riggs/rf00,Welby Van Horn,welby-van-horn/v938,64 62 64,US Championships,Grand Slam,1939.09.07,Outdoor,Grass,Finals
Bobby Riggs,bobby-riggs/rf00,Joseph Hunt,joseph-hunt/hd80,61 62 46 61,US Championships,Grand Slam,1939.09.07,Outdoor,Grass,Semi-Finals
Welby Van Horn,welby-van-horn/v938,John Bromwich,john-bromwich/bo44,26 46 62 64 86,US Championships,Grand Slam,1939.09.07,Outdoor,Grass,Semi-Finals
John Bromwich,john-bromwich/bo44,Gilbert Hunt,gilbert-hunt/hd79,63 64 61,US Championships,Grand Slam,1939.09.07,Outdoor,Grass,Quarter-Finals
Joseph Hunt,joseph-hunt/hd80,Donald McNeill,donald-mcneill/mq88,64 1513 810 46 62,US Championships,Grand Slam,1939.09.07,Outdoor,Grass,Quarter-Finals
Bobby Riggs,bobby-riggs/rf00,Harry Hopman,harry-hopman/hd04,61 108 63,US Championships,Grand Slam,1939.09.07,Outdoor,Grass,Quarter-Finals
Welby Van Horn,welby-van-horn/v938,Wayne Sabin,wayne-sabin/su34,46 26 64 75 63,US Championships,Grand Slam,1939.09.07,Outdoor,Grass,Quarter-Finals
John Bromwich,john-bromwich/bo44,Gardnar Mulloy,gardnar-mulloy/m273,75 61 62,US Championships,Grand Slam,1939.09.07,Outdoor,Grass,Round of 16
Harry Hopman,harry-hopman/hd04,Bryan Grant,bryan-grant/gg80,75 75 57 63,US Championships,Grand Slam,1939.09.07,Outdoor,Grass,Round of 16
Gilbert Hunt,gilbert-hunt/hd79,Frank Parker,frank-parker/p154,61 61 61,US Championships,Grand Slam,1939.09.07,Outdoor,Grass,Round of 16
Joseph Hunt,joseph-hunt/hd80,Frank Guernsey,frank-guernsey/gg93,64 75 46 64,US Championships,Grand Slam,1939.09.07,Outdoor,Grass,Round of 16
Donald McNeill,donald-mcneill/mq88,Bill Talbert,bill-talbert/td72,63 62 63,US Championships,Grand Slam,1939.09.07,Outdoor,Grass,Round of 16
Bobby Riggs,bobby-riggs/rf00,Edward Alloo,edward-alloo/ad87,64 62 86,US Championships,Grand Slam,1939.09.07,Outdoor,Grass,Round of 16
Wayne Sabin,wayne-sabin/su34,Adrian Quist,adrian-quist/q964,119 46 86 61,US Championships,Grand Slam,1939.09.07,Outdoor,Grass,Round of 16
Welby Van Horn,welby-van-horn/v938,Elwood Cooke,elwood-cooke/cj44,63 810 64 75,US Championships,Grand Slam,1939.09.07,Outdoor,Grass,Round of 16
Edward Alloo,edward-alloo/ad87,Ladislav Hecht,ladislav-hecht/hc94,64 911 16 86 60,US Championships,Grand Slam,1939.09.07,Outdoor,Grass,Round of 32
John Bromwich,john-bromwich/bo44,Morey Lewis,morey-lewis/lf25,75 64 61,US Championships,Grand Slam,1939.09.07,Outdoor,Grass,Round of 32
Elwood Cooke,elwood-cooke/cj44,Walter Anderson,walter-anderson/ae10,63 63 63,US Championships,Grand Slam,1939.09.07,Outdoor,Grass,Round of 32
Bryan Grant,bryan-grant/gg80,Robert Decker,robert-decker/de25,63 60 62,US Championships,Grand Slam,1939.09.07,Outdoor,Grass,Round of 32
Frank Guernsey,frank-guernsey/gg93,"Frederick ""Ted"" Schroeder","frederick-""ted""-schroeder/sb40",63 63 86,US Championships,Grand Slam,1939.09.07,Outdoor,Grass,Round of 32
Harry Hopman,harry-hopman/hd04,Ronald Lubin,ronald-lubin/lf49,64 06 97 63,US Championships,Grand Slam,1939.09.07,Outdoor,Grass,Round of 32
Gilbert Hunt,gilbert-hunt/hd79,Henry Prusoff,henry-prusoff/pi78,62 16 79 75 61,US Championships,Grand Slam,1939.09.07,Outdoor,Grass,Round of 32
Joseph Hunt,joseph-hunt/hd80,Jack Crawford,jack-crawford/ci73,61 36 46 61 75,US Championships,Grand Slam,1939.09.07,Outdoor,Grass,Round of 32
Donald McNeill,donald-mcneill/mq88,Russell Bobbitt,russell-bobbitt/bp53,61 97 61,US Championships,Grand Slam,1939.09.07,Outdoor,Grass,Round of 32
Gardnar Mulloy,gardnar-mulloy/m273,William McGehee,william-mcgehee/m299,62 57 64 63,US Championships,Grand Slam,1939.09.07,Outdoor,Grass,Round of 32
Frank Parker,frank-parker/p154,Charles Hare,charles-hare/hd35,64 62 36 75,US Championships,Grand Slam,1939.09.07,Outdoor,Grass,Round of 32
Adrian Quist,adrian-quist/q964,John Doeg,john-doeg/de24,79 62 68 63 60,US Championships,Grand Slam,1939.09.07,Outdoor,Grass,Round of 32
Bobby Riggs,bobby-riggs/rf00,Larry Dee,larry-dee/de26,61 86 64,US Championships,Grand Slam,1939.09.07,Outdoor,Grass,Round of 32
Wayne Sabin,wayne-sabin/su34,Dragutin Mitic,dragutin-mitic/mq81,61 60 64,US Championships,Grand Slam,1939.09.07,Outdoor,Grass,Round of 32
Bill Talbert,bill-talbert/td72,David Freeman,david-freeman/fa41,61 63 26 62,US Championships,Grand Slam,1939.09.07,Outdoor,Grass,Round of 32
Welby Van Horn,welby-van-horn/v938,Chauncey Steele,chauncey-steele/st13,57 1210 86 108,US Championships,Grand Slam,1939.09.07,Outdoor,Grass,Round of 32
Edward Alloo,edward-alloo/ad87,Gene Mako,gene-mako/mr41,64 64 60,US Championships,Grand Slam,1939.09.07,Outdoor,Grass,Round of 64
Walter Anderson,walter-anderson/ae10,Gordon Giles,gordon-giles/gh09,(W/O),US Championships,Grand Slam,1939.09.07,Outdoor,Grass,Round of 64
Russell Bobbitt,russell-bobbitt/bp53,William Umstaedter,william-umstaedter/u165,64 61 86,US Championships,Grand Slam,1939.09.07,Outdoor,Grass,Round of 64
John Bromwich,john-bromwich/bo44,Frank Shields,frank-shields/st33,62 63 62,US Championships,Grand Slam,1939.09.07,Outdoor,Grass,Round of 64
Elwood Cooke,elwood-cooke/cj44,William Robertson,william-robertson/re74,(W/O),US Championships,Grand Slam,1939.09.07,Outdoor,Grass,Round of 64
Jack Crawford,jack-crawford/ci73,Julius Heldman,julius-heldman/hd21,57 26 64 63 61,US Championships,Grand Slam,1939.09.07,Outdoor,Grass,Round of 64
Robert Decker,robert-decker/de25,Harold Surface,harold-surface/su25,(W/O),US Championships,Grand Slam,1939.09.07,Outdoor,Grass,Round of 64
Larry Dee,larry-dee/de26,S. H. Ellsworth Davenport,s.-h.-ellsworth-davenport/dd87,57 63 108 46 86,US Championships,Grand Slam,1939.09.07,Outdoor,Grass,Round of 64
John Doeg,john-doeg/de24,Leon Everett,leon-everett/e934,86 60 63,US Championships,Grand Slam,1939.09.07,Outdoor,Grass,Round of 64
David Freeman,david-freeman/fa41,Robert Kerdasha,robert-kerdasha/kf80,75 64 64,US Championships,Grand Slam,1939.09.07,Outdoor,Grass,Round of 64
Bryan Grant,bryan-grant/gg80,Sidney Jr. Wood,sidney-jr.-wood/w796,63 1614 64,US Championships,Grand Slam,1939.09.07,Outdoor,Grass,Round of 64
Frank Guernsey,frank-guernsey/gg93,George Toley,george-toley/te24,60 64 60,US Championships,Grand Slam,1939.09.07,Outdoor,Grass,Round of 64
Charles Hare,charles-hare/hd35,Robert Low,robert-low/lf48,64 61 60,US Championships,Grand Slam,1939.09.07,Outdoor,Grass,Round of 64
Ladislav Hecht,ladislav-hecht/hc94,Howard York,howard-york/y244,63 63 64,US Championships,Grand Slam,1939.09.07,Outdoor,Grass,Round of 64
Harry Hopman,harry-hopman/hd04,Burtz Boulware,burtz-boulware/bp58,64 62 64,US Championships,Grand Slam,1939.09.07,Outdoor,Grass,Round of 64
Gilbert Hunt,gilbert-hunt/hd79,Frank Bowden,frank-bowden/bo96,36 75 61 64,US Championships,Grand Slam,1939.09.07,Outdoor,Grass,Round of 64
Joseph Hunt,joseph-hunt/hd80,Jack Kramer,jack-kramer/kg10,62 36 57 64 63,US Championships,Grand Slam,1939.09.07,Outdoor,Grass,Round of 64
Morey Lewis,morey-lewis/lf25,Raymond Antignat,raymond-antignat/ae09,(W/O),US Championships,Grand Slam,1939.09.07,Outdoor,Grass,Round of 64
Ronald Lubin,ronald-lubin/lf49,Frank Froehling I,frank-froehling-i/fa46,63 60 46 64,US Championships,Grand Slam,1939.09.07,Outdoor,Grass,Round of 64
William McGehee,william-mcgehee/m299,Seymour Greenberg,seymour-greenberg/gg69,62 61 63,US Championships,Grand Slam,1939.09.07,Outdoor,Grass,Round of 64
Donald McNeill,donald-mcneill/mq88,Josip Palada,josip-palada/pi39,63 57 64 60,US Championships,Grand Slam,1939.09.07,Outdoor,Grass,Round of 64
Dragutin Mitic,dragutin-mitic/mq81,Harris Everett,harris-everett/e922,62 46 79 62 75,US Championships,Grand Slam,1939.09.07,Outdoor,Grass,Round of 64
Gardnar Mulloy,gardnar-mulloy/m273,Gerard Podesta,gerard-podesta/pj09,46 26 61 64 86,US Championships,Grand Slam,1939.09.07,Outdoor,Grass,Round of 64
Frank Parker,frank-parker/p154,John Mahoney,john-mahoney/mr87,62 64 62,US Championships,Grand Slam,1939.09.07,Outdoor,Grass,Round of 64
Henry Prusoff,henry-prusoff/pi78,Ernest Sutter,ernest-sutter/su36,64 62 61,US Championships,Grand Slam,1939.09.07,Outdoor,Grass,Round of 64
Adrian Quist,adrian-quist/q964,William Gillespie,william-gillespie/gh10,60 62 61,US Championships,Grand Slam,1939.09.07,Outdoor,Grass,Round of 64
Bobby Riggs,bobby-riggs/rf00,Felicisimo Ampon,felicisimo-ampon/ad58,26 64 64 108,US Championships,Grand Slam,1939.09.07,Outdoor,Grass,Round of 64
Wayne Sabin,wayne-sabin/su34,Joseph Fishbach,joseph-fishbach/fa28,64 64 86,US Championships,Grand Slam,1939.09.07,Outdoor,Grass,Round of 64
"Frederick ""Ted"" Schroeder","frederick-""ted""-schroeder/sb40",Isadore Bellis,isadore-bellis/bo91,64 64 60,US Championships,Grand Slam,1939.09.07,Outdoor,Grass,Round of 64
Chauncey Steele,chauncey-steele/st13,August Ganzenmuller,august-ganzenmuller/gg66,60 57 63 62,US Championships,Grand Slam,1939.09.07,Outdoor,Grass,Round of 64
Bill Talbert,bill-talbert/td72,Martin Buxby,martin-buxby/bp01,46 63 86 64,US Championships,Grand Slam,1939.09.07,Outdoor,Grass,Round of 64
Welby Van Horn,welby-van-horn/v938,Bernard Destremau,bernard-destremau/dd06,(W/O),US Championships,Grand Slam,1939.09.07,Outdoor,Grass,Round of 64
Isadore Bellis,isadore-bellis/bo91,David Johnson,david-johnson/j634,62 61 64,US Championships,Grand Slam,1939.09.07,Outdoor,Grass,Round of 128
Frank Bowden,frank-bowden/bo96,Morris Adelsberg,morris-adelsberg/ae27,62 64 86,US Championships,Grand Slam,1939.09.07,Outdoor,Grass,Round of 128
Martin Buxby,martin-buxby/bp01,Clinton Nunes,clinton-nunes/n836,(W/O),US Championships,Grand Slam,1939.09.07,Outdoor,Grass,Round of 128
Jack Crawford,jack-crawford/ci73,Carlton Rood,carlton-rood/rf03,60 61 64,US Championships,Grand Slam,1939.09.07,Outdoor,Grass,Round of 128
David Freeman,david-freeman/fa41,Bernard Jacoby,bernard-jacoby/j637,75 63 86,US Championships,Grand Slam,1939.09.07,Outdoor,Grass,Round of 128
Seymour Greenberg,seymour-greenberg/gg69,Darrell Hudlow,darrell-hudlow/hd87,62 36 75 36 62,US Championships,Grand Slam,1939.09.07,Outdoor,Grass,Round of 128
Frank Guernsey,frank-guernsey/gg93,Franjo Puncec,franjo-puncec/pi63,61 36 26 63 75,US Championships,Grand Slam,1939.09.07,Outdoor,Grass,Round of 128
Charles Hare,charles-hare/hd35,Arthur Nielsen,arthur-nielsen/n837,62 60 63,US Championships,Grand Slam,1939.09.07,Outdoor,Grass,Round of 128
Julius Heldman,julius-heldman/hd21,Robert Kamrath,robert-kamrath/kg41,64 64 64,US Championships,Grand Slam,1939.09.07,Outdoor,Grass,Round of 128
Gilbert Hunt,gilbert-hunt/hd79,Gilbert Hall,gilbert-hall/hd37,64 63 1113 62,US Championships,Grand Slam,1939.09.07,Outdoor,Grass,Round of 128
Joseph Hunt,joseph-hunt/hd80,Charles Swanson,charles-swanson/su40,62 62 61,US Championships,Grand Slam,1939.09.07,Outdoor,Grass,Round of 128
Robert Kerdasha,robert-kerdasha/kf80,Henner Henkel,henner-henkel/hd86,(W/O),US Championships,Grand Slam,1939.09.07,Outdoor,Grass,Round of 128
Jack Kramer,jack-kramer/kg10,Norman Bickel,norman-bickel/bp43,60 1214 86 108,US Championships,Grand Slam,1939.09.07,Outdoor,Grass,Round of 128
Robert Low,robert-low/lf48,Donald Hawley,donald-hawley/hd52,63 63 75,US Championships,Grand Slam,1939.09.07,Outdoor,Grass,Round of 128
John Mahoney,john-mahoney/mr87,Jack Bushman,jack-bushman/b240,06 64 64 16 63,US Championships,Grand Slam,1939.09.07,Outdoor,Grass,Round of 128
William McGehee,william-mcgehee/m299,Jack Tidball,jack-tidball/te05,(W/O),US Championships,Grand Slam,1939.09.07,Outdoor,Grass,Round of 128
Gardnar Mulloy,gardnar-mulloy/m273,Jacques Brugnon,jacques-brugnon/bo88,(W/O),US Championships,Grand Slam,1939.09.07,Outdoor,Grass,Round of 128
Frank Parker,frank-parker/p154,Amado Sanchez,amado-sanchez/su01,60 61 61,US Championships,Grand Slam,1939.09.07,Outdoor,Grass,Round of 128
Gerard Podesta,gerard-podesta/pj09,John Curtis,john-curtis/cj75,62 16 64 63,US Championships,Grand Slam,1939.09.07,Outdoor,Grass,Round of 128
Henry Prusoff,henry-prusoff/pi78,Lewis Duff,lewis-duff/de27,62 61 64,US Championships,Grand Slam,1939.09.07,Outdoor,Grass,Round of 128
"Frederick ""Ted"" Schroeder","frederick-""ted""-schroeder/sb40",Charles Mattmann,charles-mattmann/mr15,62 64 46 64,US Championships,Grand Slam,1939.09.07,Outdoor,Grass,Round of 128
Ernest Sutter,ernest-sutter/su36,Franjo Kukuljevic,franjo-kukuljevic/kf98,64 26 36 63 63,US Championships,Grand Slam,1939.09.07,Outdoor,Grass,Round of 128
Bill Talbert,bill-talbert/td72,Georges Leclerc,georges-leclerc/lf52,60 62 63,US Championships,Grand Slam,1939.09.07,Outdoor,Grass,Round of 128
George Toley,george-toley/te24,John Norman Anderson,john-norman-anderson/ae24,63 63 64,US Championships,Grand Slam,1939.09.07,Outdoor,Grass,Round of 128
