William Renshaw,william-renshaw/rg71,Herbert Lawford,herbert-lawford/lg94,60 57 63 64,Wimbledon,Grand Slam,1886.07.03,Outdoor,Grass,Finals
Herbert Lawford,herbert-lawford/lg94,E. Lewis,e.-lewis/lg96,62 63 26 46 64,Wimbledon,Grand Slam,1886.07.03,Outdoor,Grass,Semi-Finals
Herbert Lawford,herbert-lawford/lg94,T. Garvey,t.-garvey/gi85,63 62 60,Wimbledon,Grand Slam,1886.07.03,Outdoor,Grass,Quarter-Finals
E. Lewis,e.-lewis/lg96,Herbert W.W. Wilberforce,herbert-w.w.-wilberforce/wa15,36 62 16 61 63,Wimbledon,Grand Slam,1886.07.03,Outdoor,Grass,Quarter-Finals
T. Garvey,t.-garvey/gi85,W.C. Taylor,w.c.-taylor/tf63,86 64 26 63,Wimbledon,Grand Slam,1886.07.03,Outdoor,Grass,Round Robin
Herbert Lawford,herbert-lawford/lg94,Willoughby Hamilton,willoughby-hamilton/hg34,86 61 86,Wimbledon,Grand Slam,1886.07.03,Outdoor,Grass,Round Robin
E. Lewis,e.-lewis/lg96,Ernest Renshaw,ernest-renshaw/rg47,46 57 64 61 60,Wimbledon,Grand Slam,1886.07.03,Outdoor,Grass,Round Robin
Herbert W.W. Wilberforce,herbert-w.w.-wilberforce/wa15,C. Ross,c.-ross/rg73,36 26 64 62 64,Wimbledon,Grand Slam,1886.07.03,Outdoor,Grass,Round Robin
T. Garvey,t.-garvey/gi85,E. Avory,e.-avory/af53,64 16 64 63,Wimbledon,Grand Slam,1886.07.03,Outdoor,Grass,Round Robin
Willoughby Hamilton,willoughby-hamilton/hg34,E. Meers,e.-meers/mu50,75 64 86,Wimbledon,Grand Slam,1886.07.03,Outdoor,Grass,Round Robin
Herbert Lawford,herbert-lawford/lg94,H. Grove,h.-grove/gi67,06 60 46 64 62,Wimbledon,Grand Slam,1886.07.03,Outdoor,Grass,Round Robin
E. Lewis,e.-lewis/lg96,H. Stone,h.-stone/sx02,36 60 60 63,Wimbledon,Grand Slam,1886.07.03,Outdoor,Grass,Round Robin
Ernest Renshaw,ernest-renshaw/rg47,M. McNamara,m.-mcnamara/mu15,46 63 86 60,Wimbledon,Grand Slam,1886.07.03,Outdoor,Grass,Round Robin
C. Ross,c.-ross/rg73,Oswald Milne,oswald-milne/mu13,63 63 63,Wimbledon,Grand Slam,1886.07.03,Outdoor,Grass,Round Robin
W.C. Taylor,w.c.-taylor/tf63,W. Milne,w.-milne/mu16,46 75 36 63 60,Wimbledon,Grand Slam,1886.07.03,Outdoor,Grass,Round Robin
Herbert W.W. Wilberforce,herbert-w.w.-wilberforce/wa15,P. Lyon,p.-lyon/lg95,86 64 30 (RET),Wimbledon,Grand Slam,1886.07.03,Outdoor,Grass,Round Robin
E. Avory,e.-avory/af53,C. Farrer,c.-farrer/fb87,63 62 62,Wimbledon,Grand Slam,1886.07.03,Outdoor,Grass,Round Robin
T. Garvey,t.-garvey/gi85,H. Pease,h.-pease/pl14,63 63 26 61,Wimbledon,Grand Slam,1886.07.03,Outdoor,Grass,Round Robin
E. Lewis,e.-lewis/lg96,C.P. Triscott,c.p.-triscott/tf85,60 61 62,Wimbledon,Grand Slam,1886.07.03,Outdoor,Grass,Round Robin
M. McNamara,m.-mcnamara/mu15,J. Lewis,j.-lewis/lh20,(W/O),Wimbledon,Grand Slam,1886.07.03,Outdoor,Grass,Round Robin
W. Milne,w.-milne/mu16,E. Chatterton,e.-chatterton/cm38,(W/O),Wimbledon,Grand Slam,1886.07.03,Outdoor,Grass,Round Robin
Ernest Renshaw,ernest-renshaw/rg47,Herbert Chipp,herbert-chipp/cl93,61 63 1113 63,Wimbledon,Grand Slam,1886.07.03,Outdoor,Grass,Round Robin
W.C. Taylor,w.c.-taylor/tf63,A. Lewis,a.-lewis/lh19,63 46 63 64,Wimbledon,Grand Slam,1886.07.03,Outdoor,Grass,Round Robin
Richard Sears,richard-sears/sx07,R. Livingston Beeckman,r.-livingston-beeckman/lh26,46 61 63 64,US Championships,Grand Slam,1886.08.23,Outdoor,Grass,Finals
R. Livingston Beeckman,r.-livingston-beeckman/lh26,Howard Taylor,howard-taylor/tg02,26 63 64 62,US Championships,Grand Slam,1886.08.23,Outdoor,Grass,Semi-Finals
R. Livingston Beeckman,r.-livingston-beeckman/lh26,C. Chase,c.-chase/cm61,64 60 62,US Championships,Grand Slam,1886.08.23,Outdoor,Grass,Quarter-Finals
Howard Taylor,howard-taylor/tg02,J. Clark,j.-clark/cm59,65 62 63,US Championships,Grand Slam,1886.08.23,Outdoor,Grass,Quarter-Finals
C. Chase,c.-chase/cm61,M. Post,m.-post/pl30,60 62 64,US Championships,Grand Slam,1886.08.23,Outdoor,Grass,Round Robin
J. Clark,j.-clark/cm59,Henry Slocum,henry-slocum/sw16,16 65 65 62,US Championships,Grand Slam,1886.08.23,Outdoor,Grass,Round Robin
R. Livingston Beeckman,r.-livingston-beeckman/lh26,F. Mansfield,f.-mansfield/mu74,64 36 60 63,US Championships,Grand Slam,1886.08.23,Outdoor,Grass,Round Robin
Howard Taylor,howard-taylor/tg02,Quincy Shaw,quincy-shaw/sx17,63 65 65,US Championships,Grand Slam,1886.08.23,Outdoor,Grass,Round Robin
C. Chase,c.-chase/cm61,Unknown Robbins,unknown-robbins/rg86,65 63 62,US Championships,Grand Slam,1886.08.23,Outdoor,Grass,Round Robin
J. Clark,j.-clark/cm59,Godfrey Brinley,godfrey-brinley/bt27,60 64 63,US Championships,Grand Slam,1886.08.23,Outdoor,Grass,Round Robin
R. Livingston Beeckman,r.-livingston-beeckman/lh26,H. Sears,h.-sears/sx22,62 60 60,US Championships,Grand Slam,1886.08.23,Outdoor,Grass,Round Robin
F. Mansfield,f.-mansfield/mu74,M. Fielding,m.-fielding/fb66,64 61 63,US Championships,Grand Slam,1886.08.23,Outdoor,Grass,Round Robin
M. Post,m.-post/pl30,F. Warren,f.-warren/wa59,62 64 36 26 62,US Championships,Grand Slam,1886.08.23,Outdoor,Grass,Round Robin
Quincy Shaw,quincy-shaw/sx17,G. Smith,g.-smith/sx21,60 61 46 61,US Championships,Grand Slam,1886.08.23,Outdoor,Grass,Round Robin
Henry Slocum,henry-slocum/sw16,P. Sears,p.-sears/sx18,62 46 62 46 63,US Championships,Grand Slam,1886.08.23,Outdoor,Grass,Round Robin
Howard Taylor,howard-taylor/tg02,W. Berry,w.-berry/bt29,60 60 61,US Championships,Grand Slam,1886.08.23,Outdoor,Grass,Round Robin
W. Berry,w.-berry/bt29,Unknown McKenzie,unknown-mckenzie/mu75,64 56 46 64 61,US Championships,Grand Slam,1886.08.23,Outdoor,Grass,Round Robin
Godfrey Brinley,godfrey-brinley/bt27,P. Presbrey,p.-presbrey/pl29,62 36 62 64,US Championships,Grand Slam,1886.08.23,Outdoor,Grass,Round Robin
C. Chase,c.-chase/cm61,A. Rives,a.-rives/rg76,60 63 60,US Championships,Grand Slam,1886.08.23,Outdoor,Grass,Round Robin
J. Clark,j.-clark/cm59,Unknown Edgar,unknown-edgar/e999,60 61 61,US Championships,Grand Slam,1886.08.23,Outdoor,Grass,Round Robin
M. Fielding,m.-fielding/fb66,S. Hooper,s.-hooper/hg61,62 62 63,US Championships,Grand Slam,1886.08.23,Outdoor,Grass,Round Robin
R. Livingston Beeckman,r.-livingston-beeckman/lh26,Unknown Miller,unknown-miller/mu77,60 60 61,US Championships,Grand Slam,1886.08.23,Outdoor,Grass,Round Robin
F. Mansfield,f.-mansfield/mu74,W. Lewis,w.-lewis/lh27,61 60 60,US Championships,Grand Slam,1886.08.23,Outdoor,Grass,Round Robin
M. Post,m.-post/pl30,M. Paton,m.-paton/pl31,(W/O),US Championships,Grand Slam,1886.08.23,Outdoor,Grass,Round Robin
Unknown Robbins,unknown-robbins/rg86,Unknown D'Invilliers,unknown-d'invilliers/dg35,(W/O),US Championships,Grand Slam,1886.08.23,Outdoor,Grass,Round Robin
P. Sears,p.-sears/sx18,W. Weeden,w.-weeden/wa81,56 46 61 60 63,US Championships,Grand Slam,1886.08.23,Outdoor,Grass,Round Robin
H. Sears,h.-sears/sx22,Crawford Nightingale,crawford-nightingale/n916,26 63 63 56 75,US Championships,Grand Slam,1886.08.23,Outdoor,Grass,Round Robin
Quincy Shaw,quincy-shaw/sx17,W. Gammell,w.-gammell/gi96,64 64 60,US Championships,Grand Slam,1886.08.23,Outdoor,Grass,Round Robin
Henry Slocum,henry-slocum/sw16,Oliver Campbell,oliver-campbell/cm34,46 61 63 60,US Championships,Grand Slam,1886.08.23,Outdoor,Grass,Round Robin
G. Smith,g.-smith/sx21,Unknown Manice,unknown-manice/mu76,61 61 60,US Championships,Grand Slam,1886.08.23,Outdoor,Grass,Round Robin
Howard Taylor,howard-taylor/tg02,James Dwight,james-dwight/dg24,06 36 61 62 1311,US Championships,Grand Slam,1886.08.23,Outdoor,Grass,Round Robin
F. Warren,f.-warren/wa59,F. William Taylor,f.-william-taylor/tg01,79 26 63 60 64,US Championships,Grand Slam,1886.08.23,Outdoor,Grass,Round Robin
