MP,Days,Rest,IsHome,ORtg,DRtg,ORtgA,DRtgA,TopOver45,TopRtg,Top3Over4,Top3Rtg,GmSc
13,7368,3,1,106.05,110.82,106.09,110.52,0,4.2,1,12.0,3.8
17,7370,1,0,106.6,112.41,106.78,112.48,0,4.4,1,12.5,3.6
18,7372,1,1,111.91,108.02,111.78,108.04,0,4.3,1,12.5,3.1
17,7374,1,1,109.51,104.57,109.32,104.32,1,4.7,1,13.8,6.5
10,7377,2,0,108.37,108.79,108.4,108.45,1,4.7,1,13.1,2.3
19,7379,1,1,112.13,104.0,112.02,104.28,1,5.0,1,13.6,7.8
19,7381,1,0,106.05,110.82,106.09,110.52,0,4.2,1,12.0,6.7
24,7382,0,0,104.07,111.02,104.04,110.61,1,4.7,1,13.8,8.6
20,7385,2,0,110.61,105.17,110.49,105.07,0,4.3,1,12.3,4.4
18,7386,0,1,104.07,111.02,104.04,110.61,1,4.7,1,13.8,-0.3
14,7388,1,0,107.63,105.06,107.58,105.32,1,5.0,1,14.2,0.3
31,7389,0,0,112.13,104.0,112.02,104.28,1,5.0,1,13.6,19.2
26,7391,1,1,105.11,110.41,105.34,110.57,0,4.4,1,12.6,23.2
30,7393,1,0,109.51,104.57,109.32,104.32,1,4.7,1,13.8,5.6
20,7395,1,0,111.57,105.81,111.44,105.69,1,4.7,1,13.2,9.0
27,7398,2,1,105.74,103.81,105.68,104.09,1,4.6,1,12.5,11.9
19,7400,1,1,108.37,108.79,108.4,108.45,1,4.7,1,13.1,2.9
27,7403,2,1,106.93,111.35,107.15,111.58,1,4.6,1,12.9,5.3
23,7405,1,1,108.65,104.62,108.5,104.79,1,4.7,1,13.6,3.2
30,7408,2,1,108.7,112.31,108.77,112.05,1,4.7,1,12.9,27.1
23,7412,3,0,109.07,110.71,109.0,110.49,0,4.1,0,11.9,5.5
21,7414,1,1,112.27,105.07,112.29,105.47,0,3.8,0,10.8,0.5
24,7415,0,0,112.32,108.21,112.26,108.06,1,5.0,1,12.9,4.9
29,7417,1,1,110.0,107.17,109.88,107.09,1,4.6,1,12.6,6.2
26,7419,1,1,106.6,112.41,106.78,112.48,0,4.4,1,12.5,13.6
32,7420,0,0,108.37,108.79,108.4,108.45,1,4.7,1,13.1,10.1
26,7423,2,0,109.51,104.57,109.32,104.32,1,4.7,1,13.8,8.4
28,7424,0,0,116.11,110.94,116.06,111.13,0,4.4,1,12.6,9.2
25,7427,2,1,105.26,103.87,105.2,103.97,0,3.6,0,10.6,7.7
23,7429,1,0,101.54,111.56,101.75,111.54,1,4.6,1,12.2,-0.2
16,7430,0,0,105.11,110.41,105.34,110.57,0,4.4,1,12.6,6.0
13,7432,1,1,111.57,105.81,111.44,105.69,1,4.7,1,13.2,1.9
18,7434,1,0,105.74,103.81,105.68,104.09,1,4.6,1,12.5,-2.4
27,7436,1,0,104.24,106.03,104.29,106.08,1,4.6,1,13.7,7.4
24,7438,1,1,108.19,110.92,108.15,110.67,1,4.8,1,14.0,3.4
26,7441,2,1,104.6,107.64,104.58,107.73,0,4.1,0,11.5,11.0
28,7443,1,1,108.22,112.2,108.33,112.52,1,5.0,1,13.6,4.2
33,7445,1,1,110.61,105.17,110.49,105.07,0,4.3,1,12.3,10.9
26,7447,1,0,110.0,107.17,109.88,107.09,1,4.6,1,12.6,5.6
21,7448,0,1,107.63,105.06,107.58,105.32,1,5.0,1,14.2,8.4
23,7450,1,0,112.6,107.6,112.67,107.91,0,4.0,0,11.6,4.3
26,7452,1,0,102.34,112.31,102.38,111.78,0,4.1,0,11.9,9.5
28,7454,1,0,109.07,110.71,109.0,110.49,0,4.1,0,11.9,16.2
27,7455,0,0,112.27,105.07,112.29,105.47,0,3.8,0,10.8,6.7
19,7459,3,1,104.24,106.03,104.29,106.08,1,4.6,1,13.7,1.7
20,7461,1,1,112.32,108.21,112.26,108.06,1,5.0,1,12.9,6.4
20,7463,1,1,108.7,112.31,108.77,112.05,1,4.7,1,12.9,1.8
20,7465,1,1,112.6,107.6,112.67,107.91,0,4.0,0,11.6,5.7
16,7466,0,0,108.19,110.92,108.15,110.67,1,4.8,1,14.0,2.4
22,7469,2,0,108.7,112.31,108.77,112.05,1,4.7,1,12.9,-0.4
24,7472,2,0,111.91,108.02,111.78,108.04,0,4.3,1,12.5,11.8
31,7479,3,1,110.0,107.17,109.88,107.09,1,4.6,1,12.6,15.8
31,7483,3,0,108.22,112.2,108.33,112.52,1,5.0,1,13.6,7.5
21,7484,0,0,102.34,112.31,102.38,111.78,0,4.1,0,11.9,5.5
27,7486,1,1,116.11,110.94,116.06,111.13,0,4.4,1,12.6,-0.4
27,7487,0,0,110.61,105.17,110.49,105.07,0,4.3,1,12.3,6.6
18,7489,1,1,102.34,112.31,102.38,111.78,0,4.1,0,11.9,-1.1
26,7491,1,1,112.19,113.89,112.45,114.2,0,3.7,0,10.6,7.5
18,7493,1,1,106.05,110.82,106.09,110.52,0,4.2,1,12.0,-1.8
29,7494,0,0,112.32,108.21,112.26,108.06,1,5.0,1,12.9,16.4
28,7496,1,0,104.07,111.02,104.04,110.61,1,4.7,1,13.8,17.4
20,7498,1,0,106.05,110.82,106.09,110.52,0,4.2,1,12.0,8.5
14,7501,2,1,108.19,110.92,108.15,110.67,1,4.8,1,14.0,5.6
26,7515,3,1,108.37,108.79,108.4,108.45,1,4.7,1,13.1,20.9
23,7517,1,1,109.51,104.57,109.32,104.32,1,4.7,1,13.8,4.3
16,7519,1,1,111.91,108.02,111.78,108.04,0,4.3,1,12.5,-1.7
21,7521,1,0,106.93,111.35,107.15,111.58,1,4.6,1,12.9,14.0
26,7522,0,0,108.65,104.62,108.5,104.79,1,4.7,1,13.6,5.4
19,7525,2,0,110.0,107.17,109.88,107.09,1,4.6,1,12.6,8.2
15,7526,0,1,102.34,112.31,102.38,111.78,0,4.1,0,11.9,5.0
29,7528,1,0,111.57,105.81,111.44,105.69,1,4.7,1,13.2,10.3
21,7529,0,1,112.32,108.21,112.26,108.06,1,5.0,1,12.9,-3.3
16,7531,1,1,116.11,110.94,116.06,111.13,0,4.4,1,12.6,-3.1
31,7533,1,0,108.7,112.31,108.77,112.05,1,4.7,1,12.9,14.6
23,7534,0,0,111.91,108.02,111.78,108.04,0,4.3,1,12.5,8.8
26,7536,1,1,109.07,110.71,109.0,110.49,0,4.1,0,11.9,5.6
16,7540,3,0,109.51,104.57,109.32,104.32,1,4.7,1,13.8,-4.7
10,7542,1,0,109.51,104.57,109.32,104.32,1,4.7,1,13.8,-0.4
32,7544,1,1,109.51,104.57,109.32,104.32,1,4.7,1,13.8,19.1
24,7546,1,1,109.51,104.57,109.32,104.32,1,4.7,1,13.8,15.2
25,7549,2,0,109.51,104.57,109.32,104.32,1,4.7,1,13.8,5.5
13,7552,2,1,109.51,104.57,109.32,104.32,1,4.7,1,13.8,3.9
20,7732,3,1,109.3,101.07,109.02,101.65,1,4.6,1,13.7,6.1
16,7734,1,0,108.37,112.5,108.65,112.98,0,4.4,1,12.5,-2.7
33,7736,1,1,108.95,111.05,109.08,110.75,1,4.7,1,13.2,-0.2
20,7739,2,0,106.24,109.78,106.23,109.31,1,4.7,1,13.8,-2.3
25,7740,0,0,109.78,107.93,109.73,107.54,0,4.3,1,12.5,4.9
20,7743,2,1,107.36,101.46,107.03,101.73,1,4.7,1,13.6,4.5
22,7746,2,1,107.62,106.02,107.55,106.48,1,4.6,1,12.9,4.4
21,7748,1,1,109.78,107.93,109.73,107.54,0,4.3,1,12.5,11.6
37,7750,1,1,112.31,106.23,112.22,105.97,0,4.3,1,12.3,12.0
16,7751,0,0,108.95,111.05,109.08,110.75,1,4.7,1,13.2,2.4
29,7753,1,1,112.02,109.67,112.07,109.51,1,4.7,1,13.1,8.9
37,7755,1,0,107.36,101.46,107.03,101.73,1,4.7,1,13.6,8.2
40,7756,0,0,102.47,103.46,102.29,103.48,1,4.6,1,12.5,20.0
18,7758,1,1,104.84,111.69,104.93,111.07,0,4.1,0,11.9,5.9
17,7760,1,1,110.24,105.76,110.08,105.4,1,4.6,1,12.6,4.2
30,7762,1,0,105.53,106.73,105.54,107.07,0,4.1,0,11.5,1.7
29,7764,1,0,112.02,109.67,112.07,109.51,1,4.7,1,13.1,4.7
17,7765,0,1,107.25,106.19,107.18,105.7,1,4.8,1,14.0,4.7
42,7767,1,0,103.99,110.94,104.11,111.1,1,4.6,1,12.2,11.7
30,7769,1,0,106.85,113.57,107.17,113.88,0,3.7,0,10.6,14.3
25,7771,1,1,108.96,111.39,109.0,111.08,1,4.7,1,12.9,10.5
28,7772,0,0,109.3,101.07,109.02,101.65,1,4.6,1,13.7,3.8
25,7774,1,0,104.84,111.69,104.93,111.07,0,4.1,0,11.9,7.3
17,7776,1,0,107.25,106.19,107.18,105.7,1,4.8,1,14.0,3.8
21,7778,1,1,102.74,112.56,103.02,112.69,0,3.8,0,10.8,16.6
32,7781,2,1,112.02,109.67,112.07,109.51,1,4.7,1,13.1,14.5
22,7783,1,1,104.18,109.82,104.16,109.24,0,4.2,1,12.0,4.4
25,7785,1,1,110.2,111.15,110.35,110.83,0,4.4,1,12.6,15.4
23,7787,1,0,104.32,108.92,104.43,109.11,0,3.6,0,10.6,10.0
27,7788,0,0,111.76,110.92,112.0,111.48,1,5.0,1,13.6,13.9
28,7791,2,1,112.84,108.03,112.73,107.84,1,5.0,1,12.9,17.8
34,7793,1,1,110.24,105.76,110.08,105.4,1,4.6,1,12.6,16.8
30,7795,1,1,103.99,110.94,104.11,111.1,1,4.6,1,12.2,9.7
31,7797,1,1,107.01,107.96,107.03,108.29,0,4.0,0,11.6,14.0
25,7798,0,0,112.31,106.23,112.22,105.97,0,4.3,1,12.3,2.2
23,7801,2,0,108.52,105.98,108.42,105.65,0,4.1,0,11.9,16.3
25,7803,1,0,110.24,105.76,110.08,105.4,1,4.6,1,12.6,7.1
20,7805,1,1,108.52,105.98,108.42,105.65,0,4.1,0,11.9,8.5
22,7809,3,0,112.02,109.67,112.07,109.51,1,4.7,1,13.1,7.3
18,7810,0,1,108.78,102.87,108.63,103.31,1,5.0,1,13.6,2.3
29,7814,3,0,111.61,105.0,111.4,104.89,1,4.7,1,13.8,4.0
17,7816,1,0,112.84,108.03,112.73,107.84,1,5.0,1,12.9,2.6
26,7819,2,1,111.76,110.92,112.0,111.48,1,5.0,1,13.6,3.1
22,7821,1,0,107.25,106.19,107.18,105.7,1,4.8,1,14.0,3.2
27,7823,1,0,104.84,111.69,104.93,111.07,0,4.1,0,11.9,15.0
40,7825,1,1,103.12,110.93,103.39,111.09,0,4.4,1,12.6,4.6
28,7827,1,1,112.62,104.35,112.43,104.94,1,5.0,1,14.2,5.2
22,7830,2,1,107.25,106.19,107.18,105.7,1,4.8,1,14.0,5.9
37,7832,1,0,110.2,111.15,110.35,110.83,0,4.4,1,12.6,9.6
27,7833,0,0,108.95,111.05,109.08,110.75,1,4.7,1,13.2,13.4
23,7836,2,1,108.52,105.98,108.42,105.65,0,4.1,0,11.9,7.1
32,7840,3,0,104.18,109.82,104.16,109.24,0,4.2,1,12.0,8.5
15,7841,0,0,108.96,111.39,109.0,111.08,1,4.7,1,12.9,5.9
23,7843,1,1,104.18,109.82,104.16,109.24,0,4.2,1,12.0,12.3
24,7850,3,1,106.24,109.78,106.23,109.31,1,4.7,1,13.8,15.3
28,7851,0,0,112.31,106.23,112.22,105.97,0,4.3,1,12.3,12.9
36,7853,1,0,108.78,102.87,108.63,103.31,1,5.0,1,13.6,9.4
28,7855,1,1,111.61,105.0,111.4,104.89,1,4.7,1,13.8,11.1
23,7858,2,1,105.53,106.73,105.54,107.07,0,4.1,0,11.5,14.6
32,7860,1,0,107.01,107.96,107.03,108.29,0,4.0,0,11.6,9.7
37,7862,1,1,110.2,111.15,110.35,110.83,0,4.4,1,12.6,26.6
33,7863,0,0,108.52,105.98,108.42,105.65,0,4.1,0,11.9,14.5
34,7865,1,0,107.62,106.02,107.55,106.48,1,4.6,1,12.9,4.2
31,7867,1,1,108.37,112.5,108.65,112.98,0,4.4,1,12.5,19.7
26,7869,1,0,102.74,112.56,103.02,112.69,0,3.8,0,10.8,16.2
23,7870,0,0,103.12,110.93,103.39,111.09,0,4.4,1,12.6,9.9
28,7872,1,0,112.62,104.35,112.43,104.94,1,5.0,1,14.2,4.3
29,7874,1,1,104.32,108.92,104.43,109.11,0,3.6,0,10.6,13.9
34,7876,1,1,106.85,113.57,107.17,113.88,0,3.7,0,10.6,21.1
27,7879,2,1,108.95,111.05,109.08,110.75,1,4.7,1,13.2,2.9
21,7881,1,1,104.84,111.69,104.93,111.07,0,4.1,0,11.9,6.1
25,7883,1,1,109.78,107.93,109.73,107.54,0,4.3,1,12.5,3.0
31,7885,1,1,108.96,111.39,109.0,111.08,1,4.7,1,12.9,11.2
29,7886,0,0,110.2,111.15,110.35,110.83,0,4.4,1,12.6,19.2
34,7888,1,0,109.78,107.93,109.73,107.54,0,4.3,1,12.5,13.4
28,7889,0,0,106.24,109.78,106.23,109.31,1,4.7,1,13.8,10.5
28,7892,2,0,112.84,108.03,112.73,107.84,1,5.0,1,12.9,4.1
23,7893,0,1,106.24,109.78,106.23,109.31,1,4.7,1,13.8,5.5
25,7895,1,1,112.84,108.03,112.73,107.84,1,5.0,1,12.9,13.0
32,7897,1,0,111.61,105.0,111.4,104.89,1,4.7,1,13.8,11.8
24,7898,0,0,104.18,109.82,104.16,109.24,0,4.2,1,12.0,11.3
24,7900,1,1,102.47,103.46,102.29,103.48,1,4.6,1,12.5,10.3
26,7904,3,1,112.84,108.03,112.73,107.84,1,5.0,1,12.9,6.8
28,7907,2,1,112.84,108.03,112.73,107.84,1,5.0,1,12.9,13.7
32,7910,2,0,112.84,108.03,112.73,107.84,1,5.0,1,12.9,7.1
31,7912,1,0,112.84,108.03,112.73,107.84,1,5.0,1,12.9,8.4
32,7914,1,1,112.84,108.03,112.73,107.84,1,5.0,1,12.9,11.2
24,7918,3,1,108.52,105.98,108.42,105.65,0,4.1,0,11.9,1.3
30,7920,1,1,108.52,105.98,108.42,105.65,0,4.1,0,11.9,21.2
25,7924,3,0,108.52,105.98,108.42,105.65,0,4.1,0,11.9,10.6
49,7926,1,0,108.52,105.98,108.42,105.65,0,4.1,0,11.9,21.0
26,7928,1,1,108.52,105.98,108.42,105.65,0,4.1,0,11.9,6.9
39,7930,1,0,108.52,105.98,108.42,105.65,0,4.1,0,11.9,11.1
31,7932,1,1,108.52,105.98,108.42,105.65,0,4.1,0,11.9,18.2
36,7934,1,0,110.24,105.76,110.08,105.4,1,4.6,1,12.6,11.2
32,7936,1,0,110.24,105.76,110.08,105.4,1,4.6,1,12.6,24.8
36,7938,1,1,110.24,105.76,110.08,105.4,1,4.6,1,12.6,3.5
23,7940,1,1,110.24,105.76,110.08,105.4,1,4.6,1,12.6,2.4
34,7942,1,0,110.24,105.76,110.08,105.4,1,4.6,1,12.6,22.0
32,8156,3,1,105.65,104.87,105.77,105.36,1,5.0,1,13.6,14.8
30,8157,0,0,104.85,107.0,104.65,106.4,0,4.1,0,11.9,12.6
30,8159,1,0,104.81,102.57,104.59,101.89,0,4.1,0,11.9,18.0
35,8160,0,1,104.08,103.01,104.04,102.07,1,4.6,1,12.6,14.9
26,8162,1,1,106.96,107.1,106.96,106.52,0,4.4,1,12.6,12.7
31,8164,1,0,104.08,103.01,104.04,102.07,1,4.6,1,12.6,13.1
40,8165,0,1,106.56,107.24,106.4,106.64,0,4.3,1,12.5,20.5
26,8168,2,1,106.42,106.11,106.27,105.58,1,4.7,1,13.1,18.3
31,8169,0,0,106.42,106.11,106.27,105.58,1,4.7,1,13.1,9.4
22,8170,0,1,111.45,103.83,111.35,103.6,0,4.3,1,12.3,15.1
29,8172,1,0,104.81,102.57,104.59,101.89,0,4.1,0,11.9,3.6
30,8173,0,0,101.82,105.98,101.68,105.11,1,4.8,1,14.0,10.5
27,8176,2,1,105.51,101.86,105.45,102.7,1,5.0,1,13.6,18.4
27,8178,1,0,102.12,99.34,102.19,99.69,1,4.7,1,13.6,0.2
28,8180,1,0,101.75,107.03,101.95,107.61,0,4.4,1,12.6,4.1
28,8183,2,0,103.77,110.52,103.99,111.17,1,4.6,1,12.2,16.5
25,8185,1,1,102.13,107.48,102.33,108.11,0,4.4,1,12.5,21.2
29,8187,1,1,101.82,105.98,101.68,105.11,1,4.8,1,14.0,18.0
35,8189,1,0,105.97,109.66,106.0,109.01,1,4.7,1,12.9,14.2
42,8192,2,0,109.49,106.69,109.26,106.18,1,4.7,1,13.8,1.9
36,8194,1,0,104.08,103.01,104.04,102.07,1,4.6,1,12.6,9.3
34,8196,1,1,104.81,102.57,104.59,101.89,0,4.1,0,11.9,20.7
30,8197,0,0,111.45,103.83,111.35,103.6,0,4.3,1,12.3,17.1
41,8199,1,0,106.56,107.24,106.4,106.64,0,4.3,1,12.5,10.2
36,8200,0,0,105.97,109.66,106.0,109.01,1,4.7,1,12.9,20.3
34,8202,1,0,104.46,110.43,104.59,109.76,0,4.2,1,12.0,11.4
35,8203,0,0,107.51,106.91,107.34,106.4,1,4.7,1,13.2,5.7
30,8207,3,1,107.51,106.91,107.34,106.4,1,4.7,1,13.2,19.0
32,8208,0,0,106.42,106.11,106.27,105.58,1,4.7,1,13.1,9.7
30,8210,1,1,105.97,109.66,106.0,109.01,1,4.7,1,12.9,20.3
39,8212,1,1,109.95,106.97,109.94,106.63,1,5.0,1,12.9,5.8
34,8215,2,1,102.12,99.34,102.19,99.69,1,4.7,1,13.6,16.1
32,8216,0,1,106.62,105.07,106.6,104.45,1,4.7,1,13.8,11.3
32,8222,3,0,104.7,100.0,104.42,100.45,1,4.6,1,12.9,12.5
33,8223,0,0,105.65,104.87,105.77,105.36,1,5.0,1,13.6,13.0
27,8225,1,0,105.74,102.04,105.57,102.72,0,4.0,0,11.6,9.2
34,8227,1,1,104.08,103.01,104.04,102.07,1,4.6,1,12.6,12.5
36,8229,1,1,106.96,107.1,106.96,106.52,0,4.4,1,12.6,27.5
33,8231,1,1,101.86,109.78,102.06,110.14,0,3.8,0,10.8,7.3
29,8232,0,1,95.85,111.26,96.12,111.59,0,3.6,0,10.6,25.6
32,8235,2,1,106.42,106.11,106.27,105.58,1,4.7,1,13.1,11.9
34,8237,1,0,109.95,106.97,109.94,106.63,1,5.0,1,12.9,13.0
33,8238,0,1,111.45,103.83,111.35,103.6,0,4.3,1,12.3,15.3
33,8240,1,1,106.56,107.24,106.4,106.64,0,4.3,1,12.5,11.4
33,8242,1,0,107.51,106.91,107.34,106.4,1,4.7,1,13.2,8.7
29,8243,0,1,109.49,106.69,109.26,106.18,1,4.7,1,13.8,8.7
43,8245,1,1,104.85,107.0,104.65,106.4,0,4.1,0,11.9,22.9
32,8247,1,1,107.66,101.1,107.97,101.71,1,5.0,1,14.2,15.8
28,8249,1,0,106.56,107.24,106.4,106.64,0,4.3,1,12.5,21.5
30,8251,1,0,106.62,105.07,106.6,104.45,1,4.7,1,13.8,3.1
23,8254,2,1,108.22,98.89,108.21,99.72,1,4.6,1,13.7,5.0
32,8255,0,1,104.81,102.57,104.59,101.89,0,4.1,0,11.9,15.0
34,8257,1,0,107.66,101.1,107.97,101.71,1,5.0,1,14.2,13.7
35,8259,1,0,107.63,103.94,107.68,104.77,0,4.1,0,11.5,3.4
28,8261,1,1,101.57,105.32,101.68,105.83,0,3.7,0,10.6,13.3
23,8262,0,0,106.07,105.73,106.13,106.34,1,4.6,1,12.5,11.1
31,8264,1,1,109.49,106.69,109.26,106.18,1,4.7,1,13.8,15.4
31,8267,2,0,104.85,107.0,104.65,106.4,0,4.1,0,11.9,0.4
30,8269,1,0,109.49,106.69,109.26,106.18,1,4.7,1,13.8,6.4
36,8271,1,0,106.96,107.1,106.96,106.52,0,4.4,1,12.6,37.7
32,8273,1,0,104.46,110.43,104.59,109.76,0,4.2,1,12.0,19.9
13,8275,1,0,106.62,105.07,106.6,104.45,1,4.7,1,13.8,11.8
35,8281,3,1,104.08,103.01,104.04,102.07,1,4.6,1,12.6,14.8
34,8283,1,1,104.08,103.01,104.04,102.07,1,4.6,1,12.6,17.7
26,8286,2,0,104.08,103.01,104.04,102.07,1,4.6,1,12.6,7.8
34,8288,1,0,104.08,103.01,104.04,102.07,1,4.6,1,12.6,27.3
24,8297,3,1,106.62,105.07,106.6,104.45,1,4.7,1,13.8,10.6
27,8299,1,1,106.62,105.07,106.6,104.45,1,4.7,1,13.8,7.4
29,8301,1,0,106.62,105.07,106.6,104.45,1,4.7,1,13.8,15.0
33,8302,0,0,106.62,105.07,106.6,104.45,1,4.7,1,13.8,6.4
31,8304,1,1,106.62,105.07,106.6,104.45,1,4.7,1,13.8,16.8
31,8310,3,0,111.45,103.83,111.35,103.6,0,4.3,1,12.3,9.2
34,8312,1,0,111.45,103.83,111.35,103.6,0,4.3,1,12.3,29.0
26,8314,1,1,111.45,103.83,111.35,103.6,0,4.3,1,12.3,12.3
32,8316,1,1,111.45,103.83,111.35,103.6,0,4.3,1,12.3,7.7
35,8318,1,0,111.45,103.83,111.35,103.6,0,4.3,1,12.3,18.4
35,8320,1,1,111.45,103.83,111.35,103.6,0,4.3,1,12.3,11.0
22,8326,3,1,107.66,101.1,107.97,101.71,1,5.0,1,14.2,1.1
35,8328,1,1,107.66,101.1,107.97,101.71,1,5.0,1,14.2,15.7
34,8331,2,0,107.66,101.1,107.97,101.71,1,5.0,1,14.2,6.8
37,8333,1,0,107.66,101.1,107.97,101.71,1,5.0,1,14.2,1.6
36,8335,1,0,107.66,101.1,107.97,101.71,1,5.0,1,14.2,16.6
44,8467,3,0,104.57,109.03,104.56,109.37,0,4.4,1,12.5,35.2
40,8469,1,0,105.5,105.14,105.39,105.54,0,4.0,0,11.6,34.2
41,8470,0,1,106.21,109.77,106.45,109.3,0,4.3,1,12.5,10.8
38,8474,3,1,111.23,105.97,111.34,105.76,1,5.0,1,12.9,7.0
41,8476,1,0,105.95,101.22,105.72,100.79,0,4.1,0,11.9,7.4
35,8477,0,1,104.57,109.03,104.56,109.37,0,4.4,1,12.5,10.1
40,8479,1,1,113.43,104.77,113.28,105.53,1,5.0,1,14.2,14.2
39,8481,1,1,106.63,110.97,107.03,110.54,1,4.8,1,14.0,21.8
43,8483,1,0,106.21,109.77,106.45,109.3,0,4.3,1,12.5,23.4
38,8485,1,0,108.49,107.23,108.48,106.86,1,4.7,1,13.8,10.1
17,8486,0,0,107.42,107.5,107.49,107.15,1,4.7,1,13.2,2.8
42,8488,1,1,104.23,103.87,104.09,104.1,1,4.6,1,13.7,21.3
39,8490,1,1,111.83,106.92,111.88,107.53,1,5.0,1,13.6,30.3
44,8494,3,1,106.58,107.98,106.51,108.45,0,3.7,0,10.6,23.8
39,8495,0,0,113.3,103.35,113.21,103.33,0,4.4,1,12.5,6.5
39,8498,2,1,107.42,107.5,107.49,107.15,1,4.7,1,13.2,10.7
38,8501,2,1,108.49,107.23,108.48,106.86,1,4.7,1,13.8,6.7
34,8504,2,0,109.11,102.26,109.05,101.9,0,4.3,1,12.3,26.4
46,8505,0,1,106.66,107.14,106.74,106.82,1,4.6,1,12.6,34.3
39,8509,3,1,100.78,103.61,100.56,103.64,0,4.4,1,12.6,22.0
38,8511,1,1,104.07,104.4,103.77,104.51,1,4.7,1,13.6,17.7
41,8513,1,0,106.58,107.98,106.51,108.45,0,3.7,0,10.6,21.1
38,8514,0,0,111.83,106.92,111.88,107.53,1,5.0,1,13.6,23.9
37,8516,1,1,102.69,106.37,102.59,106.45,1,4.6,1,12.9,30.0
30,8519,2,1,105.95,101.22,105.72,100.79,0,4.1,0,11.9,30.5
36,8522,2,0,104.23,103.87,104.09,104.1,1,4.6,1,13.7,26.3
38,8523,0,0,103.61,106.23,103.66,105.7,0,4.1,0,11.9,22.6
41,8525,1,0,109.11,102.26,109.05,101.9,0,4.3,1,12.3,23.0
31,8526,0,1,113.3,103.35,113.21,103.33,0,4.4,1,12.5,12.7
34,8528,1,1,105.5,105.14,105.39,105.54,0,4.0,0,11.6,24.3
40,8530,1,1,106.63,110.97,107.03,110.54,1,4.8,1,14.0,19.8
38,8532,1,0,104.28,106.02,104.2,106.29,1,4.6,1,12.5,27.4
38,8533,0,0,105.09,110.16,105.24,110.52,0,3.8,0,10.8,23.3
40,8536,2,1,108.49,107.23,108.48,106.86,1,4.7,1,13.8,25.4
41,8537,0,0,106.63,110.97,107.03,110.54,1,4.8,1,14.0,11.3
40,8539,1,0,104.07,104.4,103.77,104.51,1,4.7,1,13.6,13.2
45,8540,0,0,102.69,106.37,102.59,106.45,1,4.6,1,12.9,23.4
35,8543,2,1,111.62,104.47,111.58,104.44,1,4.7,1,13.8,9.5
37,8544,0,0,106.66,107.14,106.74,106.82,1,4.6,1,12.6,9.0
41,8546,1,0,104.87,100.54,104.48,100.89,0,4.1,0,11.5,10.9
39,8547,0,0,103.61,106.23,103.66,105.7,0,4.1,0,11.9,9.8
41,8549,1,0,102.34,112.51,102.59,112.82,0,3.6,0,10.6,21.2
39,8551,1,1,111.23,105.97,111.34,105.76,1,5.0,1,12.9,12.9
36,8553,1,0,106.63,110.97,107.03,110.54,1,4.8,1,14.0,22.1
34,8554,0,1,109.1,107.14,109.1,107.71,0,4.1,1,12.0,29.4
28,8556,1,0,107.42,107.5,107.49,107.15,1,4.7,1,13.2,22.4
42,8558,1,0,111.23,105.97,111.34,105.76,1,5.0,1,12.9,12.2
40,8561,2,1,102.34,112.51,102.59,112.82,0,3.6,0,10.6,23.4
30,8564,2,1,107.1,106.04,107.13,105.61,1,4.7,1,12.9,17.4
41,8565,0,0,113.43,104.77,113.28,105.53,1,5.0,1,14.2,35.5
38,8567,1,1,106.21,109.77,106.45,109.3,0,4.3,1,12.5,36.0
40,8569,1,0,106.85,112.16,107.21,111.83,0,4.2,1,12.0,21.2
39,8571,1,0,107.1,106.04,107.13,105.61,1,4.7,1,12.9,18.4
44,8579,3,1,113.3,103.35,113.21,103.33,0,4.4,1,12.5,44.5
42,8581,1,0,109.1,107.14,109.1,107.71,0,4.1,1,12.0,16.5
42,8582,0,0,100.78,103.61,100.56,103.64,0,4.4,1,12.6,19.9
38,8586,3,1,104.28,106.02,104.2,106.29,1,4.6,1,12.5,15.3
42,8588,1,0,102.09,109.79,102.05,109.89,1,5.0,1,13.6,22.0
30,8590,1,1,106.66,107.14,106.74,106.82,1,4.6,1,12.6,21.9
39,8593,2,0,106.66,107.14,106.74,106.82,1,4.6,1,12.6,24.8
42,8595,1,0,107.1,106.04,107.13,105.61,1,4.7,1,12.9,17.6
42,8596,0,0,102.0,108.82,102.2,108.24,0,4.4,1,12.6,28.6
32,8600,3,1,102.0,108.82,102.2,108.24,0,4.4,1,12.6,12.9
43,8602,1,1,103.61,106.23,103.66,105.7,0,4.1,0,11.9,28.9
40,8604,1,1,107.1,106.04,107.13,105.61,1,4.7,1,12.9,20.0
38,8607,2,1,107.42,107.5,107.49,107.15,1,4.7,1,13.2,22.0
31,8609,1,1,105.09,110.16,105.24,110.52,0,3.8,0,10.8,14.2
40,8611,1,1,109.11,102.26,109.05,101.9,0,4.3,1,12.3,28.7
43,8614,2,1,104.87,100.54,104.48,100.89,0,4.1,0,11.5,10.0
27,8616,1,0,105.95,101.22,105.72,100.79,0,4.1,0,11.9,5.6
40,8621,3,0,106.85,112.16,107.21,111.83,0,4.2,1,12.0,14.5
35,8623,1,0,106.21,109.77,106.45,109.3,0,4.3,1,12.5,26.3
29,8624,0,0,111.23,105.97,111.34,105.76,1,5.0,1,12.9,10.8
44,8627,2,1,102.0,108.82,102.2,108.24,0,4.4,1,12.6,21.0
44,8630,2,1,105.95,101.22,105.72,100.79,0,4.1,0,11.9,15.3
32,8632,1,1,106.85,112.16,107.21,111.83,0,4.2,1,12.0,29.2
34,8633,0,0,102.0,108.82,102.2,108.24,0,4.4,1,12.6,2.6
45,8635,1,0,108.49,107.23,108.48,106.86,1,4.7,1,13.8,14.0
34,8639,3,0,113.3,103.35,113.21,103.33,0,4.4,1,12.5,10.1
45,8642,2,0,113.3,103.35,113.21,103.33,0,4.4,1,12.5,23.7
44,8645,2,1,113.3,103.35,113.21,103.33,0,4.4,1,12.5,23.0
35,8647,1,1,113.3,103.35,113.21,103.33,0,4.4,1,12.5,3.9
42,8649,1,0,113.3,103.35,113.21,103.33,0,4.4,1,12.5,25.8
43,8651,1,1,113.3,103.35,113.21,103.33,0,4.4,1,12.5,18.7
37,8831,3,1,104.31,104.61,104.04,105.03,0,3.6,0,10.6,13.0
39,8833,1,1,111.95,109.24,112.16,108.95,1,4.6,1,12.6,29.0
43,8834,0,0,104.15,112.0,104.43,111.32,1,4.7,1,13.2,16.3
33,8836,1,0,112.89,105.64,112.88,105.33,1,4.7,1,13.8,7.1
40,8837,0,0,112.03,107.8,112.17,107.49,0,4.3,1,12.5,21.0
44,8839,1,1,104.89,111.01,105.23,110.38,1,4.7,1,13.8,30.8
38,8841,1,1,112.89,105.64,112.88,105.33,1,4.7,1,13.8,7.4
48,8843,1,1,109.77,106.15,109.65,106.76,0,3.7,0,10.6,18.7
42,8846,2,0,109.27,109.97,109.25,110.58,1,5.0,1,13.6,26.6
36,8848,1,1,106.59,108.79,106.75,108.17,1,5.0,1,12.9,13.1
31,8851,2,1,103.82,108.63,103.69,109.03,1,4.7,1,13.6,10.0
43,8852,0,0,111.95,109.24,112.16,108.95,1,4.6,1,12.6,18.1
26,8861,3,1,107.42,108.63,107.36,109.16,0,4.1,1,12.0,11.8
37,8862,0,0,111.09,102.93,110.98,102.53,0,4.3,1,12.3,24.7
43,8864,1,0,104.15,112.0,104.43,111.32,1,4.7,1,13.2,28.3
41,8866,1,1,110.26,107.54,110.35,107.23,0,4.4,1,12.6,0.3
40,8868,1,1,108.05,103.07,107.93,102.59,1,4.7,1,12.9,24.8
40,8870,1,1,102.14,108.1,102.06,108.48,1,5.0,1,13.6,25.1
42,8874,3,0,112.03,107.8,112.17,107.49,0,4.3,1,12.5,18.7
42,8875,0,0,108.05,103.07,107.93,102.59,1,4.7,1,12.9,16.9
33,8877,1,0,106.22,109.46,106.39,108.77,0,4.2,1,12.0,15.4
36,8880,2,1,103.49,101.4,103.12,101.72,1,4.6,1,13.7,12.9
33,8882,1,0,104.7,100.05,104.25,100.42,0,4.1,0,11.5,2.1
42,8887,3,0,111.09,102.93,110.98,102.53,0,4.3,1,12.3,24.6
44,8888,0,1,107.12,105.47,107.18,104.89,0,4.1,0,11.9,23.9
40,8890,1,1,107.98,110.9,108.18,110.35,1,4.8,1,14.0,11.0
30,8891,0,0,111.32,104.6,111.29,104.26,0,4.4,1,12.5,4.2
39,8893,1,1,106.22,109.46,106.39,108.77,0,4.2,1,12.0,24.1
44,8896,2,1,109.27,109.97,109.25,110.58,1,5.0,1,13.6,29.0
38,8901,3,1,104.89,111.01,105.23,110.38,1,4.7,1,13.8,33.9
38,8903,1,0,106.71,107.26,106.74,107.71,0,4.0,0,11.6,18.0
38,8904,0,0,106.75,105.45,106.46,105.99,0,4.4,1,12.6,18.7
38,8906,1,0,103.82,108.63,103.69,109.03,1,4.7,1,13.6,8.7
41,8908,1,0,107.98,110.9,108.18,110.35,1,4.8,1,14.0,21.6
40,8909,0,1,111.32,104.6,111.29,104.26,0,4.4,1,12.5,10.7
37,8911,1,1,103.67,112.67,103.88,113.1,1,4.6,1,12.5,16.6
41,8913,1,1,112.03,107.8,112.17,107.49,0,4.3,1,12.5,14.8
33,8915,1,1,106.22,109.46,106.39,108.77,0,4.2,1,12.0,22.1
40,8917,1,1,107.12,105.47,107.18,104.89,0,4.1,0,11.9,11.6
34,8918,0,0,107.12,105.47,107.18,104.89,0,4.1,0,11.9,11.1
37,8925,3,1,104.95,108.52,104.92,109.07,0,3.8,0,10.8,20.0
38,8929,3,1,110.26,107.54,110.35,107.23,0,4.4,1,12.6,19.1
39,8932,2,0,103.67,112.67,103.88,113.1,1,4.6,1,12.5,11.8
32,8934,1,0,109.41,106.7,109.4,106.25,0,4.1,0,11.9,12.8
41,8936,1,1,106.75,105.45,106.46,105.99,0,4.4,1,12.6,30.6
32,8943,3,0,104.89,111.01,105.23,110.38,1,4.7,1,13.8,32.0
45,8944,0,0,108.05,103.07,107.93,102.59,1,4.7,1,12.9,27.8
42,8947,2,0,110.26,107.54,110.35,107.23,0,4.4,1,12.6,18.7
31,8949,1,0,106.22,109.46,106.39,108.77,0,4.2,1,12.0,36.4
43,8950,0,0,112.89,105.64,112.88,105.33,1,4.7,1,13.8,6.3
40,8953,2,1,106.6,110.51,106.66,111.07,0,4.4,1,12.5,19.7
40,8956,2,1,112.13,106.75,112.15,107.42,1,5.0,1,14.2,15.6
36,8957,0,0,102.14,108.1,102.06,108.48,1,5.0,1,13.6,23.8
31,8959,1,1,104.7,100.05,104.25,100.42,0,4.1,0,11.5,23.5
47,8961,1,1,112.03,107.8,112.17,107.49,0,4.3,1,12.5,34.5
44,8963,1,0,111.32,104.6,111.29,104.26,0,4.4,1,12.5,23.9
27,8965,1,0,103.49,101.4,103.12,101.72,1,4.6,1,13.7,0.0
43,8968,2,0,112.13,106.75,112.15,107.42,1,5.0,1,14.2,18.6
27,8969,0,1,104.15,112.0,104.43,111.32,1,4.7,1,13.2,11.6
36,8972,2,1,109.41,106.7,109.4,106.25,0,4.1,0,11.9,21.5
29,8974,1,0,104.95,108.52,104.92,109.07,0,3.8,0,10.8,41.3
39,8976,1,0,104.31,104.61,104.04,105.03,0,3.6,0,10.6,22.8
31,8979,2,1,100.09,110.53,100.11,110.79,1,4.6,1,12.9,24.9
42,8981,1,1,112.89,105.64,112.88,105.33,1,4.7,1,13.8,20.3
36,8984,2,0,107.42,108.63,107.36,109.16,0,4.1,1,12.0,24.8
40,8985,0,0,109.77,106.15,109.65,106.76,0,3.7,0,10.6,20.1
43,8987,1,1,111.32,104.6,111.29,104.26,0,4.4,1,12.5,29.8
43,8989,1,1,106.59,108.79,106.75,108.17,1,5.0,1,12.9,25.1
32,8991,1,0,104.89,111.01,105.23,110.38,1,4.7,1,13.8,34.3
26,8992,0,0,106.59,108.79,106.75,108.17,1,5.0,1,12.9,9.5
46,8994,1,0,109.41,106.7,109.4,106.25,0,4.1,0,11.9,33.2
43,8995,0,1,107.98,110.9,108.18,110.35,1,4.8,1,14.0,29.5
35,8997,1,1,111.09,102.93,110.98,102.53,0,4.3,1,12.3,10.3
45,9003,3,1,112.03,107.8,112.17,107.49,0,4.3,1,12.5,12.1
44,9006,2,1,112.03,107.8,112.17,107.49,0,4.3,1,12.5,4.4
50,9008,1,0,112.03,107.8,112.17,107.49,0,4.3,1,12.5,24.4
42,9010,1,0,112.03,107.8,112.17,107.49,0,4.3,1,12.5,16.7
41,9013,2,1,112.03,107.8,112.17,107.49,0,4.3,1,12.5,15.2
42,9015,1,0,112.03,107.8,112.17,107.49,0,4.3,1,12.5,31.3
31,9194,3,0,104.07,111.44,104.26,110.9,1,4.7,1,13.8,27.6
38,9195,0,0,106.19,105.91,106.23,105.43,1,4.7,1,13.2,9.6
31,9198,2,1,105.32,105.17,105.14,105.58,1,4.7,1,13.6,26.1
38,9200,1,0,96.4,105.7,96.3,105.67,1,4.6,1,12.9,28.3
40,9201,0,0,104.86,107.91,104.99,108.36,1,5.0,1,14.2,25.4
33,9203,1,1,109.25,102.61,109.09,102.3,0,4.3,1,12.3,13.0
43,9205,1,1,112.18,101.86,111.9,101.67,1,4.7,1,12.9,12.0
40,9209,3,0,103.63,112.98,103.98,112.5,0,4.1,0,11.9,19.5
41,9211,1,1,96.4,105.7,96.3,105.67,1,4.6,1,12.9,24.8
37,9213,1,0,108.41,106.18,108.42,105.89,0,4.4,1,12.5,11.8
34,9214,0,0,106.44,102.9,106.35,102.41,0,4.1,0,11.9,3.2
38,9216,1,1,104.07,111.44,104.26,110.9,1,4.7,1,13.8,18.5
37,9219,2,1,110.3,107.14,110.51,106.87,1,4.6,1,12.6,25.4
40,9221,1,1,100.89,111.01,101.06,111.36,1,5.0,1,13.6,29.3
37,9223,1,1,106.01,109.95,106.24,109.51,0,4.2,1,12.0,18.3
38,9225,1,1,113.21,106.22,113.35,106.14,1,4.7,1,13.8,12.2
38,9226,0,0,103.57,103.18,103.33,103.49,1,4.6,1,12.5,33.0
28,9230,3,1,106.44,102.9,106.35,102.41,0,4.1,0,11.9,19.2
37,9232,1,0,103.63,112.98,103.98,112.5,0,4.1,0,11.9,25.1
39,9233,0,1,105.93,106.85,105.97,106.34,0,4.4,1,12.6,8.5
40,9237,3,0,112.18,101.86,111.9,101.67,1,4.7,1,12.9,23.4
48,9238,0,0,106.01,109.95,106.24,109.51,0,4.2,1,12.0,34.1
38,9240,1,1,105.11,108.68,105.16,108.22,1,5.0,1,12.9,20.6
45,9244,3,0,105.11,108.68,105.16,108.22,1,5.0,1,12.9,35.3
34,9245,0,1,108.95,108.15,109.04,107.88,1,4.8,1,14.0,8.1
39,9247,1,1,110.0,103.98,109.85,104.56,0,4.0,0,11.6,17.5
32,9249,1,1,108.81,104.3,108.72,104.03,0,4.3,1,12.5,40.0
41,9253,3,0,106.44,102.9,106.35,102.41,0,4.1,0,11.9,33.2
36,9255,1,0,109.25,102.61,109.09,102.3,0,4.3,1,12.3,14.5
36,9256,0,1,104.56,103.73,104.38,104.13,0,4.4,1,12.6,24.1
33,9258,1,1,100.92,104.44,100.75,104.55,0,3.6,0,10.6,35.1
25,9260,1,0,108.95,108.15,109.04,107.88,1,4.8,1,14.0,2.8
28,9261,0,1,104.86,107.91,104.99,108.36,1,5.0,1,14.2,20.6
38,9263,1,0,108.48,105.11,108.42,105.53,1,4.6,1,13.7,9.6
33,9265,1,0,111.93,107.13,111.97,107.58,0,3.8,0,10.8,14.0
31,9266,0,0,100.89,111.01,101.06,111.36,1,5.0,1,13.6,23.0
34,9268,1,1,106.19,105.91,106.23,105.43,1,4.7,1,13.2,22.3
30,9270,1,0,105.15,108.19,105.17,108.48,0,4.1,1,12.0,29.2
38,9272,1,0,102.26,108.34,102.3,108.54,1,5.0,1,13.6,24.5
37,9273,0,1,108.41,106.18,108.42,105.89,0,4.4,1,12.5,31.2
30,9275,1,1,112.18,101.86,111.9,101.67,1,4.7,1,12.9,2.3
40,9277,1,1,104.44,104.04,104.34,104.48,0,4.1,0,11.5,42.1
32,9279,1,0,112.18,101.86,111.9,101.67,1,4.7,1,12.9,28.9
40,9281,1,0,105.93,106.85,105.97,106.34,0,4.4,1,12.6,30.3
35,9283,1,0,104.07,111.44,104.26,110.9,1,4.7,1,13.8,29.7
38,9286,2,1,110.3,107.14,110.51,106.87,1,4.6,1,12.6,15.1
39,9288,1,0,105.32,105.17,105.14,105.58,1,4.7,1,13.6,3.4
36,9289,0,0,106.22,107.35,106.23,107.77,0,4.4,1,12.5,24.4
36,9293,3,1,108.48,105.11,108.42,105.53,1,4.6,1,13.7,20.3
40,9295,1,1,103.57,103.18,103.33,103.49,1,4.6,1,12.5,26.8
40,9297,1,1,108.81,104.3,108.72,104.03,0,4.3,1,12.5,37.4
43,9299,1,0,105.93,106.85,105.97,106.34,0,4.4,1,12.6,37.3
36,9300,0,0,113.21,106.22,113.35,106.14,1,4.7,1,13.8,3.1
37,9309,3,0,110.3,107.14,110.51,106.87,1,4.6,1,12.6,17.8
29,9310,0,1,112.06,108.69,112.07,109.35,0,3.7,0,10.6,15.4
39,9312,1,1,103.63,112.98,103.98,112.5,0,4.1,0,11.9,28.9
36,9314,1,1,113.21,106.22,113.35,106.14,1,4.7,1,13.8,17.5
38,9316,1,1,105.15,108.19,105.17,108.48,0,4.1,1,12.0,11.8
42,9318,1,1,111.93,107.13,111.97,107.58,0,3.8,0,10.8,27.3
41,9321,2,1,106.44,102.9,106.35,102.41,0,4.1,0,11.9,19.3
38,9323,1,1,106.22,107.35,106.23,107.77,0,4.4,1,12.5,32.5
36,9324,0,0,105.11,108.68,105.16,108.22,1,5.0,1,12.9,20.0
38,9328,3,0,108.81,104.3,108.72,104.03,0,4.3,1,12.5,10.1
34,9329,0,0,106.19,105.91,106.23,105.43,1,4.7,1,13.2,12.0
41,9332,2,0,113.21,106.22,113.35,106.14,1,4.7,1,13.8,28.0
35,9334,1,1,102.26,108.34,102.3,108.54,1,5.0,1,13.6,11.8
40,9336,1,1,105.11,108.68,105.16,108.22,1,5.0,1,12.9,37.1
33,9338,1,1,105.93,106.85,105.97,106.34,0,4.4,1,12.6,4.4
43,9340,1,0,104.44,104.04,104.34,104.48,0,4.1,0,11.5,37.2
37,9342,1,0,108.95,108.15,109.04,107.88,1,4.8,1,14.0,20.7
37,9344,1,1,103.63,112.98,103.98,112.5,0,4.1,0,11.9,30.5
38,9346,1,0,104.56,103.73,104.38,104.13,0,4.4,1,12.6,16.0
38,9347,0,0,112.06,108.69,112.07,109.35,0,3.7,0,10.6,21.0
38,9349,1,1,106.01,109.95,106.24,109.51,0,4.2,1,12.0,42.1
39,9350,0,0,110.3,107.14,110.51,106.87,1,4.6,1,12.6,15.7
38,9353,2,0,108.41,106.18,108.42,105.89,0,4.4,1,12.5,34.0
35,9356,2,0,109.25,102.61,109.09,102.3,0,4.3,1,12.3,18.3
38,9358,1,1,109.25,102.61,109.09,102.3,0,4.3,1,12.3,9.7
38,9360,1,1,108.95,108.15,109.04,107.88,1,4.8,1,14.0,23.5
37,9361,0,0,100.92,104.44,100.75,104.55,0,3.6,0,10.6,23.8
27,9363,1,1,106.19,105.91,106.23,105.43,1,4.7,1,13.2,16.8
39,9366,2,1,110.3,107.14,110.51,106.87,1,4.6,1,12.6,23.0
34,9369,2,1,110.3,107.14,110.51,106.87,1,4.6,1,12.6,15.2
36,9372,2,0,110.3,107.14,110.51,106.87,1,4.6,1,12.6,33.4
36,9374,1,0,110.3,107.14,110.51,106.87,1,4.6,1,12.6,21.9
35,9376,1,1,110.3,107.14,110.51,106.87,1,4.6,1,12.6,19.0
37,9382,3,1,113.21,106.22,113.35,106.14,1,4.7,1,13.8,16.2
35,9384,1,1,113.21,106.22,113.35,106.14,1,4.7,1,13.8,22.2
36,9386,1,0,113.21,106.22,113.35,106.14,1,4.7,1,13.8,20.1
32,9388,1,0,113.21,106.22,113.35,106.14,1,4.7,1,13.8,18.6
43,9390,1,1,113.21,106.22,113.35,106.14,1,4.7,1,13.8,19.7
30,9392,1,0,113.21,106.22,113.35,106.14,1,4.7,1,13.8,13.9
43,9395,2,1,113.21,106.22,113.35,106.14,1,4.7,1,13.8,22.6
42,9397,1,0,112.18,101.86,111.9,101.67,1,4.7,1,12.9,25.8
41,9399,1,0,112.18,101.86,111.9,101.67,1,4.7,1,12.9,38.7
32,9401,1,1,112.18,101.86,111.9,101.67,1,4.7,1,12.9,9.3
40,9403,1,1,112.18,101.86,111.9,101.67,1,4.7,1,12.9,41.0
43,9405,1,0,112.18,101.86,111.9,101.67,1,4.7,1,12.9,1.0
36,9559,3,1,106.22,109.47,106.24,109.17,1,5.0,1,12.9,15.3
37,9561,1,1,115.18,104.32,115.01,104.53,1,4.7,1,12.9,7.9
39,9563,1,0,107.01,105.34,107.08,105.56,1,5.0,1,14.2,10.1
38,9564,0,1,113.76,106.22,113.64,106.29,0,4.4,1,12.5,28.4
44,9566,1,1,105.73,107.47,105.89,107.7,1,5.0,1,13.6,10.5
42,9568,1,0,106.57,109.07,106.44,108.77,0,4.2,1,12.0,37.6
40,9569,0,0,109.04,104.57,108.69,104.39,1,4.7,1,13.8,28.0
38,9573,3,1,103.74,111.6,104.06,111.66,0,4.1,1,12.0,13.5
38,9575,1,0,106.22,109.47,106.24,109.17,1,5.0,1,12.9,22.2
42,9576,0,1,107.29,107.48,107.24,107.13,1,4.6,1,12.6,17.7
30,9578,1,1,107.3,104.1,107.24,104.43,1,4.7,1,13.6,7.4
47,9580,1,1,109.55,108.67,109.48,108.45,0,4.3,1,12.5,39.1
36,9582,1,0,106.36,108.69,106.23,108.45,0,4.1,0,11.9,16.2
38,9583,0,1,105.41,108.43,105.55,108.58,1,5.0,1,13.6,22.9
41,9587,3,1,106.36,108.69,106.23,108.45,0,4.1,0,11.9,35.8
40,9589,1,1,99.65,110.15,99.83,110.01,1,4.6,1,12.9,33.7
45,9591,1,0,105.41,108.43,105.55,108.58,1,5.0,1,13.6,17.6
42,9592,0,0,106.78,106.19,106.88,106.48,0,4.4,1,12.5,23.5
38,9594,1,1,106.27,110.17,106.32,109.96,1,4.8,1,14.0,20.9
36,9596,1,0,107.29,107.48,107.24,107.13,1,4.6,1,12.6,19.6
36,9597,0,1,106.57,109.07,106.44,108.77,0,4.2,1,12.0,23.8
35,9600,2,0,103.74,111.6,104.06,111.66,0,4.1,1,12.0,6.5
40,9601,0,0,106.09,106.48,106.23,106.62,0,4.4,1,12.6,33.9
32,9604,2,1,102.29,112.4,102.49,111.92,1,4.7,1,13.8,22.9
34,9606,1,0,106.22,109.47,106.24,109.17,1,5.0,1,12.9,18.9
36,9607,0,0,106.57,109.07,106.44,108.77,0,4.2,1,12.0,23.1
36,9609,1,0,102.29,112.4,102.49,111.92,1,4.7,1,13.8,15.3
34,9611,1,1,109.04,104.57,108.69,104.39,1,4.7,1,13.8,13.8
35,9613,1,1,107.72,105.01,107.67,105.33,0,3.6,0,10.6,29.1
40,9615,1,0,105.73,107.47,105.89,107.7,1,5.0,1,13.6,25.8
38,9617,1,1,111.04,99.55,110.59,99.49,0,4.3,1,12.3,10.7
34,9618,0,0,106.27,110.17,106.32,109.96,1,4.8,1,14.0,16.6
39,9621,2,1,105.75,102.0,105.74,102.12,0,4.0,0,11.6,18.2
34,9623,1,1,115.18,104.32,115.01,104.53,1,4.7,1,12.9,22.9
30,9625,1,0,111.04,99.55,110.59,99.49,0,4.3,1,12.3,10.3
42,9627,1,0,106.83,104.78,106.57,104.48,1,4.7,1,13.2,14.4
34,9630,2,1,106.83,104.78,106.57,104.48,1,4.7,1,13.2,23.1
43,9633,2,1,105.28,103.51,105.26,103.58,0,4.1,0,11.5,12.8
33,9635,1,0,106.36,108.69,106.23,108.45,0,4.1,0,11.9,16.7
35,9636,0,1,107.17,111.02,107.17,110.86,0,4.1,0,11.9,17.2
38,9638,1,1,111.8,105.32,111.75,105.85,0,3.8,0,10.8,3.5
27,9640,1,0,102.29,112.4,102.49,111.92,1,4.7,1,13.8,23.9
40,9641,0,0,109.04,104.57,108.69,104.39,1,4.7,1,13.8,13.5
36,9643,1,1,106.78,106.19,106.88,106.48,0,4.4,1,12.5,29.9
34,9645,1,1,105.06,109.65,105.32,109.69,1,4.6,1,12.5,29.0
36,9647,1,1,107.29,107.48,107.24,107.13,1,4.6,1,12.6,24.5
41,9648,0,0,106.27,110.17,106.32,109.96,1,4.8,1,14.0,32.4
28,9650,1,0,111.04,99.55,110.59,99.49,0,4.3,1,12.3,13.0
39,9652,1,0,113.76,106.22,113.64,106.29,0,4.4,1,12.5,25.9
37,9653,0,1,106.09,106.48,106.23,106.62,0,4.4,1,12.6,41.0
35,9656,2,1,107.01,105.34,107.08,105.56,1,5.0,1,14.2,26.2
36,9658,1,0,102.94,109.8,102.95,109.45,0,4.4,1,12.6,10.2
36,9660,1,1,109.55,108.67,109.48,108.45,0,4.3,1,12.5,19.4
40,9663,2,0,115.18,104.32,115.01,104.53,1,4.7,1,12.9,32.4
42,9664,0,0,109.55,108.67,109.48,108.45,0,4.3,1,12.5,26.4
33,9673,3,0,102.94,109.8,102.95,109.45,0,4.4,1,12.6,25.0
44,9677,3,0,106.83,104.78,106.57,104.48,1,4.7,1,13.2,26.3
46,9679,1,0,109.55,108.67,109.48,108.45,0,4.3,1,12.5,36.9
41,9681,1,1,111.04,99.55,110.59,99.49,0,4.3,1,12.3,11.7
40,9683,1,0,105.06,109.65,105.32,109.69,1,4.6,1,12.5,23.9
40,9685,1,1,106.27,110.17,106.32,109.96,1,4.8,1,14.0,31.0
40,9688,2,0,105.85,107.28,106.02,107.44,1,4.6,1,13.7,17.5
43,9689,0,0,111.11,106.16,111.18,106.68,0,3.7,0,10.6,38.5
41,9692,2,0,99.65,110.15,99.83,110.01,1,4.6,1,12.9,19.2
36,9694,1,0,107.3,104.1,107.24,104.43,1,4.7,1,13.6,19.3
34,9695,0,0,107.72,105.01,107.67,105.33,0,3.6,0,10.6,10.7
25,9697,1,1,106.36,108.69,106.23,108.45,0,4.1,0,11.9,15.6
44,9699,1,1,109.04,104.57,108.69,104.39,1,4.7,1,13.8,20.5
38,9701,1,1,107.17,111.02,107.17,110.86,0,4.1,0,11.9,23.9
37,9702,0,0,105.75,102.0,105.74,102.12,0,4.0,0,11.6,21.6
40,9705,2,0,113.76,106.22,113.64,106.29,0,4.4,1,12.5,24.8
42,9706,0,1,106.83,104.78,106.57,104.48,1,4.7,1,13.2,26.4
42,9708,1,1,111.11,106.16,111.18,106.68,0,3.7,0,10.6,25.4
44,9710,1,0,105.28,103.51,105.26,103.58,0,4.1,0,11.5,25.4
44,9712,1,0,111.8,105.32,111.75,105.85,0,3.8,0,10.8,22.6
42,9714,1,1,105.85,107.28,106.02,107.44,1,4.6,1,13.7,16.2
43,9717,2,1,113.76,106.22,113.64,106.29,0,4.4,1,12.5,33.3
44,9720,2,0,107.29,107.48,107.24,107.13,1,4.6,1,12.6,12.5
43,9721,0,1,102.94,109.8,102.95,109.45,0,4.4,1,12.6,26.7
41,9724,2,1,102.29,112.4,102.49,111.92,1,4.7,1,13.8,33.0
32,9725,0,0,107.17,111.02,107.17,110.86,0,4.1,0,11.9,24.8
30,9727,1,1,106.57,109.07,106.44,108.77,0,4.2,1,12.0,26.5
32,9730,2,0,115.18,104.32,115.01,104.53,1,4.7,1,12.9,2.6
40,9732,1,0,115.18,104.32,115.01,104.53,1,4.7,1,12.9,18.7
44,9735,2,1,115.18,104.32,115.01,104.53,1,4.7,1,12.9,26.7
40,9738,2,1,115.18,104.32,115.01,104.53,1,4.7,1,12.9,21.8
37,9741,2,0,115.18,104.32,115.01,104.53,1,4.7,1,12.9,25.5
37,9923,3,0,106.69,113.72,106.96,113.38,1,4.7,1,13.8,31.1
36,9925,1,0,106.28,109.36,106.31,108.96,1,4.6,1,12.6,20.1
39,9927,1,1,106.28,109.36,106.31,108.96,1,4.6,1,12.6,13.4
38,9929,1,0,114.25,110.99,114.33,111.38,0,3.8,0,10.8,42.4
34,9930,0,0,108.57,112.35,108.62,112.6,1,5.0,1,13.6,33.3
37,9933,2,0,105.55,106.54,105.32,106.69,0,4.0,0,11.6,24.5
40,9935,1,0,111.98,110.06,111.96,110.49,0,4.4,1,12.6,26.5
41,9937,1,0,111.81,104.25,111.62,104.12,0,4.3,1,12.3,21.0
39,9940,2,1,111.81,104.25,111.62,104.12,0,4.3,1,12.3,21.4
33,9942,1,1,103.96,109.81,103.92,109.91,1,4.6,1,12.9,28.5
37,9944,1,0,108.95,108.17,108.94,107.75,0,4.4,1,12.5,11.2
32,9945,0,1,110.93,111.46,111.09,111.31,0,4.3,1,12.5,27.7
35,9947,1,1,110.46,106.19,110.31,105.98,1,4.7,1,13.2,25.8
38,9949,1,0,106.53,107.9,106.39,107.93,0,4.4,1,12.5,21.3
41,9951,1,1,113.2,108.68,113.07,109.14,0,3.7,0,10.6,24.1
40,9953,1,0,107.98,112.18,108.12,111.72,0,4.2,1,12.0,17.1
34,9955,1,0,110.93,111.46,111.09,111.31,0,4.3,1,12.5,30.7
35,9957,1,0,110.46,106.19,110.31,105.98,1,4.7,1,13.2,18.7
46,9959,1,0,116.26,104.57,116.02,104.61,1,4.7,1,12.9,23.0
33,9960,0,0,113.9,113.43,114.06,113.39,1,5.0,1,12.9,15.1
35,9963,2,1,111.88,109.16,111.81,109.49,1,4.7,1,13.6,30.3
30,9965,1,1,106.69,113.72,106.96,113.38,1,4.7,1,13.8,24.7
37,9967,1,0,108.95,108.17,108.94,107.75,0,4.4,1,12.5,10.4
40,9968,0,1,106.28,109.36,106.31,108.96,1,4.6,1,12.6,22.6
39,9970,1,1,104.61,111.34,104.63,111.37,0,4.1,1,12.0,28.4
30,9972,1,1,107.98,112.18,108.12,111.72,0,4.2,1,12.0,20.8
34,9974,1,1,105.81,108.01,105.79,107.57,1,4.8,1,14.0,28.9
43,9975,0,0,111.54,112.74,111.75,112.46,0,4.1,0,11.9,21.6
37,9978,2,1,111.81,104.25,111.62,104.12,0,4.3,1,12.3,23.1
35,9979,0,0,107.32,112.79,107.43,112.41,0,4.4,1,12.6,27.1
36,9981,1,0,108.59,107.89,108.71,107.55,0,4.1,0,11.9,13.3
30,9984,2,1,107.32,112.79,107.43,112.41,0,4.4,1,12.6,23.5
30,9985,0,0,106.28,109.36,106.31,108.96,1,4.6,1,12.6,29.3
34,9988,2,1,113.38,108.88,113.46,108.82,1,4.7,1,13.8,34.4
42,9989,0,1,108.57,112.35,108.62,112.6,1,5.0,1,13.6,48.7
42,9991,1,1,111.98,110.06,111.96,110.49,0,4.4,1,12.6,15.2
38,9994,2,1,108.95,108.17,108.94,107.75,0,4.4,1,12.5,22.5
34,9995,0,0,104.23,111.11,104.3,111.21,1,5.0,1,13.6,7.3
38,9997,1,0,113.2,108.68,113.07,109.14,0,3.7,0,10.6,31.1
38,9999,1,1,109.57,109.31,109.53,109.55,0,3.6,0,10.6,33.1
39,10000,0,0,111.54,112.74,111.75,112.46,0,4.1,0,11.9,26.7
37,10002,1,1,108.59,107.89,108.71,107.55,0,4.1,0,11.9,19.2
32,10004,1,0,104.61,111.34,104.63,111.37,0,4.1,1,12.0,17.3
39,10006,1,0,108.73,107.65,108.62,107.84,1,5.0,1,14.2,29.2
37,10007,0,1,109.92,110.16,109.96,110.46,1,4.6,1,12.5,32.1
35,10009,1,1,116.26,104.57,116.02,104.61,1,4.7,1,12.9,12.6
34,10010,0,0,108.59,107.89,108.71,107.55,0,4.1,0,11.9,31.5
40,10012,1,0,109.92,110.16,109.96,110.46,1,4.6,1,12.5,22.9
37,10014,1,0,111.88,109.16,111.81,109.49,1,4.7,1,13.6,22.3
39,10016,1,0,103.96,109.81,103.92,109.91,1,4.6,1,12.9,46.9
32,10018,1,0,109.33,109.49,109.21,109.81,0,4.1,0,11.5,4.8
32,10020,1,1,107.98,112.18,108.12,111.72,0,4.2,1,12.0,7.8
39,10022,1,1,105.55,106.54,105.32,106.69,0,4.0,0,11.6,34.5
44,10023,0,1,108.04,107.72,107.91,107.98,1,4.6,1,13.7,31.3
36,10027,3,1,104.23,111.11,104.3,111.21,1,5.0,1,13.6,21.0
39,10029,1,0,109.57,109.31,109.53,109.55,0,3.6,0,10.6,18.1
29,10031,1,1,107.32,112.79,107.43,112.41,0,4.4,1,12.6,29.9
42,10035,3,1,108.73,107.65,108.62,107.84,1,5.0,1,14.2,34.4
30,10043,3,0,105.81,108.01,105.79,107.57,1,4.8,1,14.0,17.5
35,10045,1,1,111.54,112.74,111.75,112.46,0,4.1,0,11.9,18.5
39,10047,1,1,109.33,109.49,109.21,109.81,0,4.1,0,11.5,24.0
36,10049,1,0,113.38,108.88,113.46,108.82,1,4.7,1,13.8,17.9
36,10052,2,1,108.59,107.89,108.71,107.55,0,4.1,0,11.9,30.9
36,10054,1,0,111.81,104.25,111.62,104.12,0,4.3,1,12.3,31.7
37,10056,1,1,110.46,106.19,110.31,105.98,1,4.7,1,13.2,24.9
33,10058,1,0,108.04,107.72,107.91,107.98,1,4.6,1,13.7,16.8
40,10060,1,1,114.25,110.99,114.33,111.38,0,3.8,0,10.8,30.8
31,10063,2,1,106.69,113.72,106.96,113.38,1,4.7,1,13.8,17.3
40,10065,1,0,105.81,108.01,105.79,107.57,1,4.8,1,14.0,39.6
37,10066,0,0,113.9,113.43,114.06,113.39,1,5.0,1,12.9,30.3
40,10068,1,1,113.9,113.43,114.06,113.39,1,5.0,1,12.9,29.7
38,10072,3,1,105.81,108.01,105.79,107.57,1,4.8,1,14.0,38.5
36,10074,1,1,108.95,108.17,108.94,107.75,0,4.4,1,12.5,17.2
38,10076,1,1,116.26,104.57,116.02,104.61,1,4.7,1,12.9,20.2
37,10078,1,0,110.93,111.46,111.09,111.31,0,4.3,1,12.5,13.2
35,10079,0,0,116.26,104.57,116.02,104.61,1,4.7,1,12.9,11.0
39,10084,3,1,113.9,113.43,114.06,113.39,1,5.0,1,12.9,26.3
38,10086,1,1,106.53,107.9,106.39,107.93,0,4.4,1,12.5,29.1
36,10088,1,0,107.98,112.18,108.12,111.72,0,4.2,1,12.0,26.8
24,10089,0,0,113.38,108.88,113.46,108.82,1,4.7,1,13.8,7.2
35,10091,1,1,111.54,112.74,111.75,112.46,0,4.1,0,11.9,31.6
34,10095,3,1,108.95,108.17,108.94,107.75,0,4.4,1,12.5,30.8
37,10098,2,1,108.95,108.17,108.94,107.75,0,4.4,1,12.5,23.9
38,10100,1,0,108.95,108.17,108.94,107.75,0,4.4,1,12.5,31.8
39,10102,1,0,108.95,108.17,108.94,107.75,0,4.4,1,12.5,6.9
38,10104,1,1,108.95,108.17,108.94,107.75,0,4.4,1,12.5,22.7
31,10110,3,0,111.81,104.25,111.62,104.12,0,4.3,1,12.3,23.2
34,10112,1,0,111.81,104.25,111.62,104.12,0,4.3,1,12.3,7.8
40,10114,1,1,111.81,104.25,111.62,104.12,0,4.3,1,12.3,29.5
35,10116,1,1,111.81,104.25,111.62,104.12,0,4.3,1,12.3,25.3
43,10118,1,0,111.81,104.25,111.62,104.12,0,4.3,1,12.3,21.7
37,10120,1,1,111.81,104.25,111.62,104.12,0,4.3,1,12.3,1.4
36,10279,3,0,114.31,108.43,114.33,108.62,1,4.7,1,12.9,21.6
38,10280,0,0,104.47,111.9,104.6,111.62,0,4.2,1,12.0,22.7
31,10283,2,1,106.92,110.0,106.96,109.7,1,4.6,1,12.6,20.1
35,10285,1,1,105.29,111.85,105.44,111.59,0,4.1,0,11.9,9.5
41,10287,1,0,110.28,105.77,110.12,105.81,1,4.6,1,12.9,21.7
37,10289,1,0,109.95,109.72,109.93,109.89,0,3.6,0,10.6,22.3
34,10290,0,0,105.29,111.85,105.44,111.59,0,4.1,0,11.9,13.7
38,10292,1,1,110.28,105.77,110.12,105.81,1,4.6,1,12.9,20.1
35,10294,1,0,107.72,111.36,107.77,111.38,1,5.0,1,13.6,16.9
31,10296,1,0,105.74,111.21,105.81,111.12,0,4.0,0,11.6,28.5
35,10298,1,1,109.07,104.56,108.92,104.24,1,4.7,1,13.2,49.2
43,10302,3,1,113.58,112.56,113.61,112.94,0,3.8,0,10.8,35.0
38,10304,1,1,105.29,111.85,105.44,111.59,0,4.1,0,11.9,26.6
34,10305,0,0,110.24,108.8,110.17,108.94,0,4.1,0,11.5,25.5
39,10307,1,1,114.6,106.56,114.5,106.96,0,3.7,0,10.6,23.3
35,10309,1,0,104.25,113.51,104.5,113.19,0,4.4,1,12.6,39.4
36,10311,1,0,105.29,111.85,105.44,111.59,0,4.1,0,11.9,23.8
32,10315,3,1,113.02,111.4,113.21,111.5,1,5.0,1,12.9,13.5
37,10318,2,1,107.72,111.36,107.77,111.38,1,5.0,1,13.6,31.3
36,10320,1,1,107.71,111.51,107.83,111.55,0,4.1,1,12.0,35.0
35,10322,1,1,110.24,108.8,110.17,108.94,0,4.1,0,11.5,26.2
35,10326,3,0,107.1,108.64,106.96,108.39,1,4.7,1,13.8,30.1
35,10330,3,0,109.07,104.56,108.92,104.24,1,4.7,1,13.2,20.0
37,10332,1,0,109.58,106.93,109.44,106.79,0,4.3,1,12.5,38.4
35,10334,1,1,110.29,109.05,110.37,108.95,1,4.8,1,14.0,30.8
31,10336,1,1,109.95,109.72,109.93,109.89,0,3.6,0,10.6,13.1
33,10338,1,1,108.49,105.36,108.35,105.23,0,4.3,1,12.3,20.2
39,10339,0,1,110.67,110.98,110.7,111.16,1,4.6,1,12.5,19.7
38,10341,1,1,109.07,104.56,108.92,104.24,1,4.7,1,13.2,19.4
43,10343,1,1,107.1,108.64,106.96,108.39,1,4.7,1,13.8,37.4
41,10345,1,1,110.97,111.02,111.06,111.0,1,4.7,1,13.8,36.4
39,10348,2,0,111.48,108.02,111.5,108.03,0,4.4,1,12.5,32.7
39,10351,2,0,108.4,104.65,108.14,104.75,1,4.7,1,13.6,19.1
29,10352,0,0,109.96,109.41,110.0,109.49,0,4.4,1,12.6,12.4
41,10354,1,1,107.1,108.64,106.96,108.39,1,4.7,1,13.8,38.3
26,10372,3,1,114.24,111.86,114.41,111.91,0,4.1,0,11.9,7.6
35,10374,1,1,114.31,108.43,114.33,108.62,1,4.7,1,12.9,16.8
35,10376,1,1,107.63,107.12,107.47,107.28,1,5.0,1,14.2,14.1
33,10378,1,0,106.92,110.0,106.96,109.7,1,4.6,1,12.6,28.3
34,10380,1,0,110.29,109.05,110.37,108.95,1,4.8,1,14.0,19.3
38,10382,1,1,104.25,113.51,104.5,113.19,0,4.4,1,12.6,20.0
46,10384,1,1,105.83,110.85,105.77,110.88,1,5.0,1,13.6,56.6
37,10386,1,0,108.49,105.36,108.35,105.23,0,4.3,1,12.3,25.3
31,10388,1,0,113.58,112.56,113.61,112.94,0,3.8,0,10.8,12.1
34,10391,2,0,107.71,111.51,107.83,111.55,0,4.1,1,12.0,26.1
36,10392,0,0,107.63,107.12,107.47,107.28,1,5.0,1,14.2,32.2
27,10394,1,1,113.02,111.4,113.21,111.5,1,5.0,1,12.9,23.2
34,10396,1,1,106.92,110.0,106.96,109.7,1,4.6,1,12.6,20.3
36,10398,1,0,114.24,111.86,114.41,111.91,0,4.1,0,11.9,33.4
35,10399,0,1,104.47,111.9,104.6,111.62,0,4.2,1,12.0,21.6
34,10408,3,1,114.24,111.86,114.41,111.91,0,4.1,0,11.9,20.8
37,10410,1,0,113.02,111.4,113.21,111.5,1,5.0,1,12.9,33.1
35,10411,0,0,109.07,104.56,108.92,104.24,1,4.7,1,13.2,23.7
33,10413,1,0,110.97,111.02,111.06,111.0,1,4.7,1,13.8,20.5
38,10416,2,1,108.4,104.65,108.14,104.75,1,4.7,1,13.6,25.8
36,10419,2,0,111.48,108.02,111.5,108.03,0,4.4,1,12.5,19.0
35,10420,0,0,110.67,110.98,110.7,111.16,1,4.6,1,12.5,19.8
33,10422,1,0,114.6,106.56,114.5,106.96,0,3.7,0,10.6,29.9
29,10425,2,1,108.49,105.36,108.35,105.23,0,4.3,1,12.3,21.1
34,10428,2,1,110.97,111.02,111.06,111.0,1,4.7,1,13.8,19.9
38,10430,1,0,110.29,109.05,110.37,108.95,1,4.8,1,14.0,25.7
37,10431,0,0,114.24,111.86,114.41,111.91,0,4.1,0,11.9,32.5
33,10433,1,0,109.58,106.93,109.44,106.79,0,4.3,1,12.5,29.6
40,10435,1,1,107.95,108.14,107.84,108.14,0,4.4,1,12.5,12.1
30,10437,1,1,110.29,109.05,110.37,108.95,1,4.8,1,14.0,14.7
30,10438,0,1,105.74,111.21,105.81,111.12,0,4.0,0,11.6,22.6
38,10443,3,1,104.25,113.51,104.5,113.19,0,4.4,1,12.6,21.8
36,10445,1,0,108.49,105.36,108.35,105.23,0,4.3,1,12.3,14.8
34,10447,1,1,109.96,109.41,110.0,109.49,0,4.4,1,12.6,37.8
34,10449,1,1,109.58,106.93,109.44,106.79,0,4.3,1,12.5,16.6
36,10451,1,1,111.48,108.02,111.5,108.03,0,4.4,1,12.5,18.6
31,10454,2,0,107.1,108.64,106.96,108.39,1,4.7,1,13.8,17.2
41,10459,3,1,114.24,111.86,114.41,111.91,0,4.1,0,11.9,36.8
31,10462,2,1,114.24,111.86,114.41,111.91,0,4.1,0,11.9,7.2
36,10465,2,0,114.24,111.86,114.41,111.91,0,4.1,0,11.9,20.3
33,10467,1,0,114.24,111.86,114.41,111.91,0,4.1,0,11.9,28.0
38,10469,1,1,114.24,111.86,114.41,111.91,0,4.1,0,11.9,22.4
37,10473,3,1,109.07,104.56,108.92,104.24,1,4.7,1,13.2,32.1
36,10476,2,1,109.07,104.56,108.92,104.24,1,4.7,1,13.2,28.1
30,10478,1,0,109.07,104.56,108.92,104.24,1,4.7,1,13.2,27.6
36,10480,1,0,109.07,104.56,108.92,104.24,1,4.7,1,13.2,9.5
35,10482,1,1,109.07,104.56,108.92,104.24,1,4.7,1,13.2,7.2
35,10488,3,1,114.31,108.43,114.33,108.62,1,4.7,1,12.9,30.9
34,10490,1,1,114.31,108.43,114.33,108.62,1,4.7,1,12.9,14.7
33,10494,3,0,114.31,108.43,114.33,108.62,1,4.7,1,12.9,15.9
43,10496,1,0,114.31,108.43,114.33,108.62,1,4.7,1,12.9,22.2
39,10498,1,1,114.31,108.43,114.33,108.62,1,4.7,1,12.9,5.2
40,10500,1,0,114.31,108.43,114.33,108.62,1,4.7,1,12.9,20.4
43,10502,1,1,114.31,108.43,114.33,108.62,1,4.7,1,12.9,21.0
35,10644,3,1,111.85,113.1,111.98,112.98,1,4.8,1,14.0,18.9
38,10647,2,0,108.52,110.18,108.46,109.71,1,4.7,1,13.8,27.0
40,10648,0,0,113.14,112.33,113.29,112.22,1,4.7,1,13.8,26.4
32,10651,2,1,111.35,106.11,111.23,105.94,1,4.7,1,13.2,17.7
33,10661,3,0,105.45,113.94,105.49,113.9,1,4.6,1,13.7,15.1
35,10663,1,0,110.62,107.23,110.31,107.5,0,4.1,0,11.5,22.4
38,10666,2,0,110.85,107.53,110.71,107.22,0,4.4,1,12.5,10.5
39,10668,1,0,113.3,111.55,113.3,111.42,0,4.3,1,12.3,11.8
38,10669,0,1,110.62,107.23,110.31,107.5,0,4.1,0,11.5,28.3
37,10671,1,0,113.76,109.62,113.74,109.35,1,5.0,1,12.9,20.9
32,10673,1,1,116.63,110.24,116.6,110.24,1,4.7,1,12.9,16.1
34,10675,1,1,111.17,112.19,111.29,112.0,0,4.2,1,12.0,28.7
36,10679,3,1,109.93,110.13,109.86,110.38,0,4.4,1,12.5,38.6
41,10681,1,0,109.93,110.13,109.86,110.38,0,4.4,1,12.5,15.2
44,10682,0,0,108.5,118.54,108.83,118.64,0,3.8,0,10.8,24.1
47,10684,1,0,111.72,114.56,111.72,114.97,0,4.4,1,12.6,39.9
37,10686,1,1,110.19,111.41,110.29,111.08,1,4.6,1,12.6,28.5
28,10688,1,0,113.3,111.55,113.3,111.42,0,4.3,1,12.3,19.2
30,10689,0,1,105.45,113.94,105.49,113.9,1,4.6,1,13.7,23.0
37,10691,1,0,112.04,113.54,112.31,113.32,0,4.1,0,11.9,21.6
28,10694,2,0,111.35,106.11,111.23,105.94,1,4.7,1,13.2,1.2
37,10696,1,0,110.19,111.41,110.29,111.08,1,4.6,1,12.6,24.5
32,10699,2,1,115.45,111.07,115.63,111.01,0,4.3,1,12.5,18.0
35,10701,1,1,108.52,110.18,108.46,109.71,1,4.7,1,13.8,42.9
41,10703,1,0,106.96,109.66,106.93,109.09,0,4.1,0,11.9,32.2
41,10705,1,1,111.35,106.11,111.23,105.94,1,4.7,1,13.2,34.2
34,10707,1,1,111.72,114.56,111.72,114.97,0,4.4,1,12.6,32.0
43,10708,0,0,108.22,108.35,108.03,108.39,1,5.0,1,14.2,28.5
41,10710,1,1,113.3,111.55,113.3,111.42,0,4.3,1,12.3,26.0
39,10713,2,1,110.85,107.53,110.71,107.22,0,4.4,1,12.5,25.1
39,10715,1,1,112.78,108.35,112.57,108.69,1,4.7,1,13.6,28.7
37,10717,1,0,111.85,113.1,111.98,112.98,1,4.8,1,14.0,31.4
41,10719,1,1,106.96,109.66,106.93,109.09,0,4.1,0,11.9,34.8
44,10722,2,0,116.63,110.24,116.6,110.24,1,4.7,1,12.9,34.5
37,10724,1,0,115.45,111.07,115.63,111.01,0,4.3,1,12.5,18.2
40,10726,1,1,113.76,109.62,113.74,109.35,1,5.0,1,12.9,26.4
41,10728,1,1,114.23,105.76,113.89,106.23,1,4.6,1,12.5,25.8
30,10730,1,1,108.5,118.54,108.83,118.64,0,3.8,0,10.8,41.0
43,10732,1,0,109.46,108.82,109.26,109.05,1,5.0,1,13.6,30.3
34,10733,0,1,106.96,109.66,106.93,109.09,0,4.1,0,11.9,41.3
45,10735,1,1,110.3,110.36,110.15,110.56,0,4.1,1,12.0,43.1
42,10738,2,1,108.52,110.18,108.46,109.71,1,4.7,1,13.8,36.7
31,10740,1,0,113.21,110.58,113.16,110.97,1,4.6,1,12.9,22.7
40,10742,1,0,105.13,114.39,105.31,114.3,1,5.0,1,13.6,48.5
40,10744,1,1,113.99,108.0,113.78,108.4,0,3.7,0,10.6,22.5
37,10746,1,1,109.46,108.82,109.26,109.05,1,5.0,1,13.6,31.1
39,10748,1,1,111.85,113.1,111.98,112.98,1,4.8,1,14.0,26.2
37,10751,2,0,113.76,109.62,113.74,109.35,1,5.0,1,12.9,23.1
40,10752,0,0,111.35,106.11,111.23,105.94,1,4.7,1,13.2,41.7
38,10754,1,0,106.29,115.55,106.59,115.11,0,4.4,1,12.6,37.1
32,10756,1,0,111.17,112.19,111.29,112.0,0,4.2,1,12.0,25.4
37,10759,2,1,110.85,107.53,110.71,107.22,0,4.4,1,12.5,22.9
36,10761,1,1,110.19,111.41,110.29,111.08,1,4.6,1,12.6,25.8
40,10763,1,0,112.04,113.54,112.31,113.32,0,4.1,0,11.9,23.9
37,10771,3,0,108.52,110.18,108.46,109.71,1,4.7,1,13.8,14.5
36,10775,3,1,108.71,114.41,108.83,114.59,0,4.0,0,11.6,14.2
36,10777,1,0,112.1,113.16,112.11,113.41,0,3.6,0,10.6,20.4
44,10778,0,1,108.22,108.35,108.03,108.39,1,5.0,1,14.2,52.2
39,10781,2,0,112.78,108.35,112.57,108.69,1,4.7,1,13.6,26.7
37,10783,1,0,113.99,108.0,113.78,108.4,0,3.7,0,10.6,21.6
32,10786,2,1,113.21,110.58,113.16,110.97,1,4.6,1,12.9,23.3
34,10788,1,0,110.19,111.41,110.29,111.08,1,4.6,1,12.6,3.7
35,10789,0,1,112.1,113.16,112.11,113.41,0,3.6,0,10.6,22.7
37,10791,1,1,116.63,110.24,116.6,110.24,1,4.7,1,12.9,24.6
42,10793,1,1,106.29,115.55,106.59,115.11,0,4.4,1,12.6,38.4
32,10795,1,1,112.04,113.54,112.31,113.32,0,4.1,0,11.9,10.4
33,10797,1,0,108.71,114.41,108.83,114.59,0,4.0,0,11.6,27.9
46,10798,0,0,106.96,109.66,106.93,109.09,0,4.1,0,11.9,44.2
37,10800,1,1,113.3,111.55,113.3,111.42,0,4.3,1,12.3,46.0
29,10802,1,0,111.85,113.1,111.98,112.98,1,4.8,1,14.0,17.7
38,10804,1,0,114.23,105.76,113.89,106.23,1,4.6,1,12.5,11.7
32,10806,1,1,113.76,109.62,113.74,109.35,1,5.0,1,12.9,29.9
38,10808,1,1,111.17,112.19,111.29,112.0,0,4.2,1,12.0,40.4
29,10811,2,0,111.17,112.19,111.29,112.0,0,4.2,1,12.0,33.2
30,10812,0,0,113.14,112.33,113.29,112.22,1,4.7,1,13.8,23.5
29,10814,1,1,105.13,114.39,105.31,114.3,1,5.0,1,13.6,21.1
29,10816,1,1,106.29,115.55,106.59,115.11,0,4.4,1,12.6,28.4
37,10818,1,0,110.85,107.53,110.71,107.22,0,4.4,1,12.5,25.0
33,10823,3,1,111.35,106.11,111.23,105.94,1,4.7,1,13.2,21.1
33,10826,2,1,111.35,106.11,111.23,105.94,1,4.7,1,13.2,22.8
39,10829,2,0,111.35,106.11,111.23,105.94,1,4.7,1,13.2,17.3
38,10831,1,0,111.35,106.11,111.23,105.94,1,4.7,1,13.2,16.8
39,10833,1,1,111.35,106.11,111.23,105.94,1,4.7,1,13.2,16.2
39,10837,3,0,116.63,110.24,116.6,110.24,1,4.7,1,12.9,21.8
34,10839,1,0,116.63,110.24,116.6,110.24,1,4.7,1,12.9,17.2
45,10843,3,1,116.63,110.24,116.6,110.24,1,4.7,1,12.9,28.3
40,10845,1,1,116.63,110.24,116.6,110.24,1,4.7,1,12.9,26.1
45,10847,1,0,116.63,110.24,116.6,110.24,1,4.7,1,12.9,30.9
39,10849,1,1,116.63,110.24,116.6,110.24,1,4.7,1,12.9,23.0
