Atlanta Hawks,Atlanta
Boston Celtics,Boston
Brooklyn Nets,Brooklyn
Charlotte Hornets,Charlotte
Charlotte Bobcats,Charlotte
Chicago Bulls,Chicago
Cleveland Cavaliers,Cleveland
Dallas Mavericks,Dallas
Denver Nuggets,Denver
Detroit Pistons,Detroit
Golden State Warriors,GoldenState
Houston Rockets,Houston
Indiana Pacers,Indiana
Los Angeles Clippers,LAClippers
Los Angeles Lakers,LALakers
Memphis Grizzlies,Memphis
Miami Heat,Miami
Milwaukee Bucks,Milwaukee
Minnesota Timberwolves,Minnesota
New Jersey Nets,NewJersey
New Orleans Pelicans,NewOrleans
New Orleans Hornets,NewOrleans
New York Knicks,NewYork
Oklahoma City Thunder,OklahomaCity
Orlando Magic,Orlando
Philadelphia 76ers,Philadelphia
Phoenix Suns,Phoenix
Portland Trail Blazers,Portland
Sacramento Kings,Sacramento
San Antonio Spurs,SanAntonio
Seattle SuperSonics,Seattle
Toronto Raptors,Toronto
Utah Jazz,Utah
Washington Wizards,Washington