1942.06.20,Frank Rericha,,1500,1704.637,Berkeley Bell,berkeley-bell/bo97,2043.09,1838.453,New York,63 46 63 64
1942.06.20,William Kenney,,1499.5485,1643.061,H. Blauer,h.-blauer/bq15,1626.3555,1482.843,New York,62 36 61 10 (RET)
1942.06.20,Francis Kovacs,francis-kovacs/kg37,2308.4523,2310.1286,Franklin Myers,,1500,1497.506,New York,61 63 62
1942.06.20,Alfred Chapin,alfred-chapin/ck62,1782.123,1819.7695,Whitney Powers,,1500,1462.3535,New York,60 61 60
1942.06.20,Robert Harman,robert-harman/hd83,1477.4035,1552.675,Frank Broida,frank-broida/bp94,1364.8295,1289.558,New York,62 62 62
1942.06.20,Frank Hunter,frank-hunter/he41,2330.5622,2331.0047,Dan Martella,,1294.718,1293.987,New York,63 64 62
1942.06.20,Bobby Riggs,bobby-riggs/rf00,2511.0682,2511.1462,Jerry Adler,,1500,1499.1615,New York,61 60 60
1942.06.20,Dan Watson,,1661.4865,1723.901,Russell Phillips,russell-phillips/pj43,1498.753,1436.3385,New York,60 63 63
1942.06.20,Bruce Barnes,bruce-barnes/bq17,2005.6127,2011.8262,Thomas Iannicelli,,1366.2055,1359.992,New York,61 75 62
1942.06.20,Herman Peterson,,1596.922,1674.193,Edward Stillman,,1491.7655,1414.4945,New York,61 60 60
1942.06.20,Wayne Sabin,wayne-sabin/su34,2118.9205,2125.865,Jack March,,1500,1493.0555,New York,60 60 60
1942.06.20,Charles Wood,charles-wood/w924,1825.166,1856.0185,Royal Miller,,1500,1469.1475,New York,60 63 60
1942.06.20,Karel Kozeluh,,2431.323,2431.5428,Frank Goeltz,frank-goeltz/gg81,1398.6705,1397.9395,New York,61 64 68 36 63
1942.06.20,Don Budge,don-budge/bp59,2628.6924,2628.7324,Harold Fenerty,,1500,1499.57,New York,61 61 60
1942.06.20,Frank Rericha,,1704.637,1757.355,Frank Kenney,,1500,1447.282,New York,63 61 64
1942.06.20,Francis Kovacs,francis-kovacs/kg37,2310.1286,2313.714,William Kenney,,1643.061,1637.686,New York,61 62 86
1942.06.20,Robert Harman,robert-harman/hd83,1552.675,1727.4055,Alfred Chapin,alfred-chapin/ck62,1819.7695,1645.039,New York,97 61 61
1942.06.20,Bobby Riggs,bobby-riggs/rf00,2511.1462,2516.5662,Frank Hunter,frank-hunter/he41,2331.0047,2295.8162,New York,62 62 62
1942.06.20,Wayne Sabin,wayne-sabin/su34,2125.865,2142.463,Herman Peterson,,1674.193,1657.595,New York,60 61 60
1942.06.20,John Nogrady,john-nogrady/n818,1940.8145,2023.7185,Charles Wood,charles-wood/w924,1856.0185,1773.1145,New York,61 61 62
1942.06.20,Don Budge,don-budge/bp59,2628.7324,2633.7904,Karel Kozeluh,,2431.5428,2415.2315,New York,62 61 (RET)
1942.06.20,Francis Kovacs,francis-kovacs/kg37,2313.714,2320.0488,Frank Rericha,,1757.355,1747.7015,New York,62 36 60 97
1942.06.20,Bobby Riggs,bobby-riggs/rf00,2516.5662,2516.8242,Robert Harman,robert-harman/hd83,1727.4055,1724.632,New York,63 36 61 46 61
1942.06.20,Wayne Sabin,wayne-sabin/su34,2142.463,2212.9615,Bruce Barnes,bruce-barnes/bq17,2011.8262,1941.3277,New York,75 57 61 64
1942.06.20,Don Budge,don-budge/bp59,2633.7904,2634.4664,John Nogrady,john-nogrady/n818,2023.7185,2016.4515,New York,61 26 64 61
1942.06.20,Bobby Riggs,bobby-riggs/rf00,2516.8242,2521.8902,Francis Kovacs,francis-kovacs/kg37,2320.0488,2285.3547,New York,64 36 86 62
1942.06.20,Don Budge,don-budge/bp59,2634.4664,2636.2624,Wayne Sabin,wayne-sabin/su34,2212.9615,2194.4111,New York,62 75 63
1942.06.20,Don Budge,don-budge/bp59,2636.2624,2643.2204,Bobby Riggs,bobby-riggs/rf00,2521.8902,2514.9322,New York,62 62 62
1942.08.27,Sidney Jr. Wood,sidney-jr.-wood/w796,2095.2039,2103.0729,James Brink,james-brink/bo77,1500,1492.131,US Championships,57 75 60 36 60
1942.08.27,Robert Wasserman,robert-wasserman/w852,1500,1607.5,Theodore Backe,theodore-backe/bo67,1500,1392.5,US Championships,64 63 64
1942.08.27,William Vogt,william-vogt/v913,1315.8525,1473.5335,Bob Bennett,bob-bennett/b813,1500,1342.319,US Championships,36 61 63 60
1942.08.27,Bill Talbert,bill-talbert/td72,1856.9215,1883.431,Williams Tully,williams-tully/td53,1500,1473.4905,US Championships,61 60 62
1942.08.27,Robert Smidl,robert-smidl/su33,1500,1570.391,Blair Hawley,blair-hawley/hd09,1368.936,1298.545,US Championships,62 63 75
1942.08.27,Ellis Slack,ellis-slack/st50,1500,1571.0575,David O'Loughlin,david-o'loughlin/o554,1371.5375,1300.48,US Championships,64 64 64
1942.08.27,E. Victor Seixas,e.-victor-seixas/s240,1662.7765,1832.7555,Frank Bowden,frank-bowden/bo96,1904.544,1734.565,US Championships,64 62 97
1942.08.27,Pancho Segura,pancho-segura/s246,1546.655,1639.1695,Ronald Edwards,ronald-edwards/e932,1495.5925,1403.078,US Championships,97 63 61
1942.08.27,"Frederick ""Ted"" Schroeder","frederick-""ted""-schroeder/sb40",2235.0058,2239.8889,Russell Bobbitt,russell-bobbitt/bp53,1570.993,1565.532,US Championships,75 62 86
1942.08.27,George Richards,george-richards/re69,1500,1607.5,Irvin Dorfman,irvin-dorfman/dd28,1500,1392.5,US Championships,63 63 64
1942.08.27,Vincent Paul,vincent-paul/pi84,1261.5005,1429.523,Robert Kerdasha,robert-kerdasha/kf80,1493.421,1325.3985,US Championships,63 86 63
1942.08.27,Frank Parker,frank-parker/p154,2294.5442,2296.4635,Jack Geller,jack-geller/gg24,1500,1497.3125,US Championships,60 60 60
1942.08.27,Richard Odman,richard-odman/o567,1500,1607.5,Ralph Adair,ralph-adair/ae19,1500,1392.5,US Championships,63 119 60
1942.08.27,Gardnar Mulloy,gardnar-mulloy/m273,1904.802,1925.786,Arthur MacDonald,arthur-macdonald/mr84,1500,1479.016,US Championships,63 60 86
1942.08.27,Richard McKee,richard-mckee/mr81,1500,1607.5,Stanley Bellows,stanley-bellows/bp52,1500,1392.5,US Championships,61 63 26 64
1942.08.27,Charles Masterson,charles-masterson/mq36,1500,1607.5,Howard McCall,howard-mccall/mr83,1500,1392.5,US Championships,64 62 16 62
1942.08.27,George Lyttleton-Roger,george-lyttleton-roger/lf10,1820.0621,1851.6671,Thomas Falkenburg,thomas-falkenburg/fa32,1500,1468.395,US Championships,26 64 46 64 64
1942.08.27,Gilbert Hunt,gilbert-hunt/hd79,2034.8009,2058.4724,Eddie Moylan,eddie-moylan/mq56,1654.456,1630.7845,US Championships,64 810 57 61 61
1942.08.27,Ladislav Hecht,ladislav-hecht/hc94,1838.0462,1867.0712,Frederick Krais,frederick-krais/kf78,1500,1470.975,US Championships,60 62 62
1942.08.27,Richard Hart,richard-hart/hd55,1566.6285,1654.671,Fred Kovaleski,fred-kovaleski/k168,1500,1411.9575,US Championships,36 64 86 86
1942.08.27,Gilbert Hall,gilbert-hall/hd37,1510.2125,1614.7025,Bruce Daniels,bruce-daniels/de22,1500,1395.51,US Championships,63 36 61 61
1942.08.27,Robert Falkenburg,robert-falkenburg/f995,1500,1627.366,Gerald Crowther,gerald-crowther/cj70,1568.069,1440.703,US Championships,75 63 97
1942.08.27,James Evert,james-evert/e920,1352.94,1501.6555,John Gray,john-gray/gh16,1500,1351.2845,US Championships,60 64 60
1942.08.27,Harris Everett,harris-everett/e922,1617.7555,1691.651,Edward Gilbert,edward-gilbert/gh15,1500,1426.1045,US Championships,61 60 61
1942.08.27,Robert Dixon,robert-dixon/dd97,1500,1654.2625,Leonard Hartman,leonard-hartman/hd53,1669.6135,1515.351,US Championships,36 61 63 36 75
1942.08.27,Eduardo Buse,eduardo-buse/bo15,1500,1607.5,Clarence Mabry,clarence-mabry/mr82,1500,1392.5,US Championships,97 86 75
1942.08.27,Tom Brown,tom-brown/b234,1500,1546.139,Alfonso Smith,alfonso-smith/st09,1263.887,1217.748,US Championships,64 64 61
1942.08.27,Isadore Bellis,isadore-bellis/bo91,1425.8465,1503.0315,August Ganzenmuller,august-ganzenmuller/gg66,1320.346,1243.161,US Championships,61 61 64
1942.08.27,George Ball,george-ball/bo20,1500,1607.5,Clark Taylor,clark-taylor/td87,1500,1392.5,US Championships,61 60 61
1942.08.27,Sidney Jr. Wood,sidney-jr.-wood/w796,2103.0729,2116.3169,Charles Masterson,charles-masterson/mq36,1607.5,1594.256,US Championships,61 63 36 64
1942.08.27,William Vogt,william-vogt/v913,1473.5335,1618.895,Robert Wasserman,robert-wasserman/w852,1607.5,1462.1385,US Championships,61 60 64
1942.08.27,Bill Talbert,bill-talbert/td72,1883.431,1976.053,E. Victor Seixas,e.-victor-seixas/s240,1832.7555,1740.1335,US Championships,63 62 86
1942.08.27,Robert Smidl,robert-smidl/su33,1570.391,1688.813,Richard McKee,richard-mckee/mr81,1607.5,1489.078,US Championships,63 61 68 57 64
1942.08.27,Pancho Segura,pancho-segura/s246,1639.1695,1737.3385,Eduardo Buse,eduardo-buse/bo15,1607.5,1509.331,US Championships,61 62 62
1942.08.27,"Frederick ""Ted"" Schroeder","frederick-""ted""-schroeder/sb40",2239.8889,2290.8628,Gilbert Hunt,gilbert-hunt/hd79,2058.4724,2000.5084,US Championships,60 61 61
1942.08.27,Alejo Russell,alejo-russell/r132,1810.7395,1868.252,Robert Falkenburg,robert-falkenburg/f995,1627.366,1569.8535,US Championships,57 63 36 61 62
1942.08.27,George Richards,george-richards/re69,1607.5,1715.0,George Ball,george-ball/bo20,1607.5,1500.0,US Championships,75 75 62
1942.08.27,Vincent Paul,vincent-paul/pi84,1429.523,1576.841,Ellis Slack,ellis-slack/st50,1571.0575,1423.7395,US Championships,46 60 75 64
1942.08.27,Frank Parker,frank-parker/p154,2296.4635,2300.8192,Richard Hart,richard-hart/hd55,1654.671,1648.522,US Championships,61 63 75
1942.08.27,Gardnar Mulloy,gardnar-mulloy/m273,1925.786,1944.9855,Isadore Bellis,isadore-bellis/bo91,1503.0315,1483.832,US Championships,63 63 61
1942.08.27,Ladislav Hecht,ladislav-hecht/hc94,1867.0712,1970.0347,George Lyttleton-Roger,george-lyttleton-roger/lf10,1851.6671,1748.7036,US Championships,86 62 62
1942.08.27,Seymour Greenberg,seymour-greenberg/gg69,1622.034,1739.037,Robert Dixon,robert-dixon/dd97,1654.2625,1537.2595,US Championships,62 62 61
1942.08.27,James Evert,james-evert/e920,1501.6555,1639.5565,Richard Odman,richard-odman/o567,1607.5,1469.599,US Championships,63 61 75
1942.08.27,Harris Everett,harris-everett/e922,1691.651,1776.748,Gilbert Hall,gilbert-hall/hd37,1614.7025,1529.6055,US Championships,62 63 108
1942.08.27,Tom Brown,tom-brown/b234,1546.139,1640.094,James Schnaars,james-schnaars/ss69,1500,1406.045,US Championships,79 57 60 63 64
1942.08.27,Bill Talbert,bill-talbert/td72,1976.053,1997.6175,Vincent Paul,vincent-paul/pi84,1576.841,1555.2765,US Championships,63 62 64
1942.08.27,Pancho Segura,pancho-segura/s246,1737.3385,1856.427,Harris Everett,harris-everett/e922,1776.748,1657.6595,US Championships,60 61 62
1942.08.27,"Frederick ""Ted"" Schroeder","frederick-""ted""-schroeder/sb40",2290.8628,2295.1043,James Evert,james-evert/e920,1639.5565,1633.7085,US Championships,75 911 64 64
1942.08.27,Alejo Russell,alejo-russell/r132,1868.252,2039.435,Sidney Jr. Wood,sidney-jr.-wood/w796,2116.3169,1945.1339,US Championships,57 75 64 64
1942.08.27,George Richards,george-richards/re69,1715.0,1887.516,Ladislav Hecht,ladislav-hecht/hc94,1970.0347,1797.5187,US Championships,62 36 06 1210 62
1942.08.27,Frank Parker,frank-parker/p154,2300.8192,2304.257,William Vogt,william-vogt/v913,1618.895,1613.95,US Championships,62 60 61
1942.08.27,Gardnar Mulloy,gardnar-mulloy/m273,1944.9855,1978.891,Tom Brown,tom-brown/b234,1640.094,1606.1885,US Championships,60 63 46 57 61
1942.08.27,Seymour Greenberg,seymour-greenberg/gg69,1739.037,1831.788,Robert Smidl,robert-smidl/su33,1688.813,1596.062,US Championships,61 61 61
1942.08.27,Pancho Segura,pancho-segura/s246,1856.427,2003.659,Bill Talbert,bill-talbert/td72,1997.6175,1850.3855,US Championships,64 36 62 64
1942.08.27,"Frederick ""Ted"" Schroeder","frederick-""ted""-schroeder/sb40",2295.1043,2325.2965,Alejo Russell,alejo-russell/r132,2039.435,1997.0585,US Championships,63 68 63 75
1942.08.27,Frank Parker,frank-parker/p154,2304.257,2314.475,Seymour Greenberg,seymour-greenberg/gg69,1831.788,1816.867,US Championships,60 60 64
1942.08.27,Gardnar Mulloy,gardnar-mulloy/m273,1978.891,2059.9675,George Richards,george-richards/re69,1887.516,1806.4395,US Championships,62 86 75
1942.08.27,"Frederick ""Ted"" Schroeder","frederick-""ted""-schroeder/sb40",2325.2965,2350.5121,Gardnar Mulloy,gardnar-mulloy/m273,2059.9675,2019.3755,US Championships,97 63 64
1942.08.27,Frank Parker,frank-parker/p154,2314.475,2336.0558,Pancho Segura,pancho-segura/s246,2003.659,1970.6565,US Championships,61 61 26 62
1942.08.27,"Frederick ""Ted"" Schroeder","frederick-""ted""-schroeder/sb40",2350.5121,2406.7758,Frank Parker,frank-parker/p154,2336.0558,2275.2799,US Championships,86 75 36 46 62
