1958.01.17,Warren Woodcock,warren-woodcock/w775,1841.463,1870.015,John Fraser,john-fraser/f134,1500,1471.448,Australian Championships,68 57 119 62 63
1958.01.17,Barry Phillips-Moore,barry-phillips-moore/p078,1647.318,1688.9635,Warren Jacques,warren-jacques/j059,1387.727,1346.0815,Australian Championships,62 64 62
1958.01.17,John Pearce,john-pearce/pi14,1466.6105,1668.818,Don Candy,don-candy/c182,1968.872,1766.6645,Australian Championships,64 46 46 61 62
1958.01.17,Martin Mulligan,martin-mulligan/m155,1500,1576.6475,William Edwards,william-edwards/e898,1392.5,1315.8525,Australian Championships,63 86 63
1958.01.17,Bob Mark,bob-mark/mq23,1595.5675,1672.0,Pat O'Kane,pat-o'kane/o537,1487.2935,1410.861,Australian Championships,61 62 62
1958.01.17,Rod Laver,rod-laver/l058,1343.05,1494.238,Fred Stolle,fred-stolle/s129,1500,1348.812,Australian Championships,64 36 63 63
1958.01.17,Bob Howe,bob-howe/h130,2040.08,2050.5935,Francis Gorman,francis-gorman/gg18,1500,1489.4865,Australian Championships,64 64 60
1958.01.17,Roy Emerson,roy-emerson/e030,2206.9085,2239.3059,Neil Gibson,neil-gibson/gg11,1896.6535,1863.565,Australian Championships,63 61 62
1958.01.17,Trevor Fancutt,trevor-fancutt/f135,1770.427,1797.0225,Peter Newman,peter-newman/n793,1414.0645,1387.469,Australian Championships,75 68 86 64
1958.01.17,Mervyn Rose,mervyn-rose/r163,2420.0566,2420.51,Jack May,jack-may/m267,1500,1498.6455,Australian Championships,64 36 75 64
1958.01.17,Michael Green,michael-green/gg05,2156.6584,2163.0224,Doug Reid,doug-reid/r522,1521.6935,1515.3295,Australian Championships,63 75 64
1958.01.17,Neale Fraser,neale-fraser/f113,2424.2599,2424.6891,Ken Fletcher,ken-fletcher/f108,1500,1498.667,Australian Championships,60 61 61
1958.01.17,Ashley Cooper,ashley-cooper/c229,2514.8662,2514.8962,Ron Clements,ron-clements/ci36,1335.181,1334.8585,Australian Championships,61 62 61
1958.01.17,Barry MacKay,barry-mackay/m294,1770.7495,1810.374,Wayne Reid,wayne-reid/r174,1500,1460.3755,Australian Championships,62 62 62
1958.01.17,Mal Anderson,mal-anderson/a060,2489.0887,2489.2052,Bob Hewitt,bob-hewitt/h058,1500,1499.0755,Australian Championships,63 62 60
1958.01.17,Bob Howe,bob-howe/h130,2050.5935,2080.3065,Graham Lovett,graham-lovett/le46,1717.5155,1687.8025,Australian Championships,64 63 62
1958.01.17,Trevor Fancutt,trevor-fancutt/f135,1797.0225,1868.983,Bob Mark,bob-mark/mq23,1672.0,1600.0395,Australian Championships,63 36 46 1210 108
1958.01.17,Mervyn Rose,mervyn-rose/r163,2420.51,2423.8283,Warren Woodcock,warren-woodcock/w775,1870.015,1860.0605,Australian Championships,64 63 75
1958.01.17,Michael Green,michael-green/gg05,2163.0224,2168.3329,Rod Laver,rod-laver/l058,1494.238,1488.9275,Australian Championships,46 63 64 64
1958.01.17,Neale Fraser,neale-fraser/f113,2424.6891,2425.3372,Martin Mulligan,martin-mulligan/m155,1576.6475,1574.6265,Australian Championships,97 97 62
1958.01.17,Ashley Cooper,ashley-cooper/c229,2514.8962,2515.0862,John Pearce,john-pearce/pi14,1668.818,1666.7755,Australian Championships,63 63 60
1958.01.17,Roy Emerson,roy-emerson/e030,2239.3059,2255.6934,Barry MacKay,barry-mackay/m294,1810.374,1791.7765,Australian Championships,64 46 97 97
1958.01.17,Mal Anderson,mal-anderson/a060,2489.2052,2489.5348,Barry Phillips-Moore,barry-phillips-moore/p078,1688.9635,1686.3405,Australian Championships,63 63 62
1958.01.17,Mervyn Rose,mervyn-rose/r163,2423.8283,2432.9691,Bob Howe,bob-howe/h130,2080.3065,2052.034,Australian Championships,36 46 61 86 60
1958.01.17,Neale Fraser,neale-fraser/f113,2425.3372,2444.6972,Roy Emerson,roy-emerson/e030,2255.6934,2205.1826,Australian Championships,46 61 64 63
1958.01.17,Ashley Cooper,ashley-cooper/c229,2515.0862,2517.6762,Michael Green,michael-green/gg05,2168.3329,2140.4904,Australian Championships,61 62 46 57 62
1958.01.17,Mal Anderson,mal-anderson/a060,2489.5348,2490.3925,Trevor Fancutt,trevor-fancutt/f135,1868.983,1862.103,Australian Championships,63 64 57 1210
1958.01.17,Ashley Cooper,ashley-cooper/c229,2517.6762,2525.6982,Neale Fraser,neale-fraser/f113,2444.6972,2422.2569,Australian Championships,62 36 108 63
1958.01.17,Mal Anderson,mal-anderson/a060,2490.3925,2501.4626,Mervyn Rose,mervyn-rose/r163,2432.9691,2406.1552,Australian Championships,62 57 64 1917
1958.01.17,Ashley Cooper,ashley-cooper/c229,2525.6982,2535.0342,Mal Anderson,mal-anderson/a060,2501.4626,2492.1266,Australian Championships,75 63 64
1958.05.05,Tony Trabert,tony-trabert/t094,2600.8579,2607.9259,Bobby Riggs,bobby-riggs/rf00,2490.946,2481.7982,Cleveland,63 61
1958.05.05,Lew Hoad,lew-hoad/h132,2540.1744,2545.1484,Frank Parker,frank-parker/p154,2338.9985,2307.9978,Cleveland,57 62 64
1958.05.05,Pancho Segura,pancho-segura/s246,2556.586,2556.836,Al Doyle,,1760.6875,1758.0,Cleveland,61 63
1958.05.05,Richard Pancho Gonzales,richard-pancho-gonzales/g077,2629.5767,2629.8927,Armando Vieira,armando-vieira/v879,1877.239,1873.842,Cleveland,63 75
1958.05.05,Lew Hoad,lew-hoad/h132,2545.1484,2556.8564,Tony Trabert,tony-trabert/t094,2607.9259,2596.2179,Cleveland,62 1311
1958.05.05,Richard Pancho Gonzales,richard-pancho-gonzales/g077,2629.8927,2637.9127,Pancho Segura,pancho-segura/s246,2556.836,2548.816,Cleveland,64 63
1958.05.05,Richard Pancho Gonzales,richard-pancho-gonzales/g077,2637.9127,2645.7227,Lew Hoad,lew-hoad/h132,2556.8564,2549.0464,Cleveland,36 46 1412 61 64
1958.05.20,Abe Segal,abe-segal/s242,2008.6243,2015.8268,Vladimir Petrovic,vladimir-petrovic/ph93,1396.8215,1389.619,French Championships,63 60 60
1958.05.20,Patricio Rodriguez,patricio-rodriguez/r074,1370.5485,1474.63,Peter Nicholls,peter-nicholls/n799,1359.003,1254.9215,French Championships,63 46 63 86
1958.05.20,Ivo Ribeiro,ivo-ribeiro/re21,1476.049,1590.6225,Jozef Piatek,jozef-piatek/pi32,1500,1385.4265,French Championships,75 61 26 64
1958.05.20,Gerard Pilet,gerard-pilet/p185,1564.5215,1623.496,Andrzej Licis,andrzej-licis/l133,1387.469,1328.4945,French Championships,62 63 97
1958.05.20,Robert Perry,robert-perry/p107,1846.9885,1873.756,Xavier Perreau Saussine,xavier-perreau-saussine/ss84,1491.9375,1465.17,French Championships,16 61 64 62
1958.05.20,Alan Mills,alan-mills/m270,1629.1075,1753.3345,Rey Garrido,rey-garrido/gg29,1686.233,1562.006,French Championships,63 26 64 63
1958.05.20,Bob Mark,bob-mark/mq23,1600.0395,1672.7955,Paul Jalabert,paul-jalabert/j590,1478.027,1405.271,French Championships,63 64 62
1958.05.20,Antonio Maggi,antonio-maggi/mq11,1512.9645,1598.5775,Geoff Paish,geoff-paish/pa78,1437.8005,1352.1875,French Championships,63 63 62
1958.05.20,Mario Llamas,mario-llamas/le42,1330.8165,1484.9715,Gheorghe Viziru,gheorghe-viziru/v897,1500,1345.845,French Championships,46 26 61 62 62
1958.05.20,Ramanathan Krishnan,ramanathan-krishnan/k103,2056.678,2066.267,Ernesto Aguirre,ernesto-aguirre/a448,1498.753,1489.164,French Championships,60 97 86
1958.05.20,Pierre Darmon,pierre-darmon/d131,1551.557,1614.5305,Carlos-Alberto Fernandes,carlos-alberto-fernandes/f111,1391.1455,1328.172,French Championships,86 62 63
1958.05.20,Jaroslav Drobny,jaroslav-drobny/d531,2479.1568,2479.3111,Jack Frost,jack-frost/f968,1500,1499.011,French Championships,64 60 62
1958.05.20,Luis Ayala,luis-ayala/a073,2214.1521,2218.1446,Ladislav Legenstein,ladislav-legenstein/l777,1500,1495.829,French Championships,60 62 64
1958.05.20,Warren Woodcock,warren-woodcock/w775,1860.0605,1952.3385,William Quillian,william-quillian/q962,1808.1595,1715.8815,French Championships,64 46 61 41 (RET)
1958.05.20,Ulf Schmidt,ulf-schmidt/ss72,2221.6643,2227.7521,Ivo Ribeiro,ivo-ribeiro/re21,1590.6225,1584.108,French Championships,64 64 57 64
1958.05.20,Isaias Pimentel,isaias-pimentel/pi12,1839.829,1868.6175,John Hurry,john-hurry/hc73,1500,1471.2115,French Championships,108 62 62
1958.05.20,Tony Pickard,tony-pickard/pd90,1503.397,1548.9555,Rupert Huber,rupert-huber/hc74,1264.3385,1218.78,French Championships,61 62 63
1958.05.20,Antonio Palafox,antonio-palafox/p145,1528.165,1586.774,Kamilo Keretic,kamilo-keretic/kf66,1349.5215,1290.9125,French Championships,64 64 64
1958.05.20,Jean Claude Molinari,jean-claude-molinari/m257,1670.323,1730.8885,Michel Vaubrun,michel-vaubrun/v896,1500,1439.4345,French Championships,64 61 64
1958.05.20,Bob Mark,bob-mark/mq23,1672.7955,1726.9325,Patricio Rodriguez,patricio-rodriguez/r074,1474.63,1420.493,French Championships,64 61 63
1958.05.20,Antonio Maggi,antonio-maggi/mq11,1598.5775,1774.7485,Robert Perry,robert-perry/p107,1873.756,1697.585,French Championships,62 64 36 61
1958.05.20,Mario Llamas,mario-llamas/le42,1484.9715,1631.5155,Gerard Pilet,gerard-pilet/p185,1623.496,1476.952,French Championships,64 62 26 62
1958.05.20,Billy R. Knight,billy-r.-knight/k106,1777.4145,1812.1155,William Alvarez,william-alvarez/a121,1477.554,1442.853,French Championships,61 61 62
1958.05.20,Jiri Javorsky,jiri-javorsky/j588,1496.302,1564.199,Emilio Martinez Del Rey,emilio-martinez-del-rey/dd24,1355.5845,1287.6875,French Championships,62 64 64
1958.05.20,Jean-Noel Grinda,jean-noel-grinda/g331,1596.277,1795.023,Bob Howe,bob-howe/h130,2052.034,1853.288,French Championships,61 64 86
1958.05.20,Francisco Contreras,francisco-contreras/c687,2055.861,2060.7845,Lew Gerrard,lew-gerrard/g159,1372.6985,1367.775,French Championships,63 64 62
1958.05.20,Don Candy,don-candy/c182,1766.6645,1807.02,Rafael Osuna,rafael-osuna/o248,1500,1459.6445,French Championships,61 64 61
1958.05.20,Wilhelm Bungert,wilhelm-bungert/b237,1500,1607.5,Jacques Renavand,jacques-renavand/re11,1500,1392.5,French Championships,63 62 63
1958.05.20,Andres Gimeno,andres-gimeno/g075,1627.624,1698.8965,Alain Bresson,alain-bresson/b826,1500,1428.7275,French Championships,60 36 86 61
1958.05.20,Istvan Gulyas,istvan-gulyas/g151,1557.448,1768.9865,Kurt Nielsen,kurt-nielsen/n088,2306.3052,2162.7526,French Championships,63 64 64
1958.05.20,Paul Remy,paul-remy/re29,2024.0824,2035.5204,Ron Barnes,ron-barnes/bc56,1500,1488.562,French Championships,61 61 64
1958.05.20,Robert Haillet,robert-haillet/h131,2240.8107,2243.7886,Rod Laver,rod-laver/l058,1488.9275,1485.5305,French Championships,64 57 63 75
1958.05.20,Nicola Pietrangeli,nicola-pietrangeli/p141,1833.5284,1863.1769,Daniel Achondo,daniel-achondo/ad68,1500,1470.3515,French Championships,61 63 63
1958.05.20,Pierre Darmon,pierre-darmon/d131,1614.5305,1761.139,Alan Mills,alan-mills/m270,1753.3345,1606.726,French Championships,62 60 60
1958.05.20,Orlando Sirola,orlando-sirola/ss58,1973.215,1989.426,Francis Nys,francis-nys/n794,1517.0925,1500.8815,French Championships,61 26 63 62
1958.05.20,Antal Jancso,antal-jancso/j604,1445.2825,1655.8105,Bobby Wilson,bobby-wilson/w622,2145.946,1935.418,French Championships,63 64 64
1958.05.20,Giuseppe Merlo,giuseppe-merlo/m276,2257.2737,2264.6868,Andras Adam-Stolpa,andras-adam-stolpa/ad51,1686.792,1677.8265,French Championships,63 97 62
1958.05.20,Jaroslav Drobny,jaroslav-drobny/d531,2479.3111,2481.7428,Abe Segal,abe-segal/s242,2015.8268,2000.1963,French Championships,61 61 64
1958.05.20,Luis Ayala,luis-ayala/a073,2218.1446,2279.6551,Ramanathan Krishnan,ramanathan-krishnan/k103,2066.267,2001.1865,French Championships,61 63 36 46 63
1958.05.20,Budge Patty,budge-patty/pi25,2343.8907,2348.0693,Bernard Destremau,bernard-destremau/dd06,1737.1235,1729.7275,French Championships,60 62 63
1958.05.20,Mervyn Rose,mervyn-rose/r163,2406.1552,2406.3577,Mustapha Belkhodja,mustapha-belkhodja/bn53,1315.8525,1315.315,French Championships,63 64 62
1958.05.20,Neale Fraser,neale-fraser/f113,2422.2569,2422.7013,Jose Luis Arilla,jose-luis-arilla/a120,1500,1498.6455,French Championships,64 63 62
1958.05.20,Ashley Cooper,ashley-cooper/c229,2535.0342,2535.0722,Jan Radzio,jan-radzio/re30,1392.5,1392.0915,French Championships,36 63 63 60
1958.05.20,Antal Jancso,antal-jancso/j604,1655.8105,1820.5005,Naresh Kumar,naresh-kumar/kf51,1871.6275,1706.9375,French Championships,60 64 46 57 62
1958.05.20,Istvan Gulyas,istvan-gulyas/g151,1768.9865,1905.189,Isaias Pimentel,isaias-pimentel/pi12,1868.6175,1732.415,French Championships,64 36 46 61 64
1958.05.20,Andres Gimeno,andres-gimeno/g075,1698.8965,1838.797,Billy R. Knight,billy-r.-knight/k106,1812.1155,1672.215,French Championships,79 64 46 64 63
1958.05.20,Paul Remy,paul-remy/re29,2035.5204,2083.2074,Don Candy,don-candy/c182,1807.02,1759.333,French Championships,36 75 86 62
1958.05.20,Robert Haillet,robert-haillet/h131,2243.7886,2247.7992,Tony Pickard,tony-pickard/pd90,1548.9555,1544.333,French Championships,61 60 (RET)
1958.05.20,Nicola Pietrangeli,nicola-pietrangeli/p141,1863.1769,2052.6134,Ulf Schmidt,ulf-schmidt/ss72,2227.7521,2054.2096,French Championships,63 16 61 64
1958.05.20,Pierre Darmon,pierre-darmon/d131,1761.139,1858.577,Bob Mark,bob-mark/mq23,1726.9325,1629.4945,French Championships,63 62 75
1958.05.20,Orlando Sirola,orlando-sirola/ss58,1989.426,2044.423,Jean-Noel Grinda,jean-noel-grinda/g331,1795.023,1740.026,French Championships,46 97 46 62 62
1958.05.20,Giuseppe Merlo,giuseppe-merlo/m276,2264.6868,2269.2355,Wilhelm Bungert,wilhelm-bungert/b237,1607.5,1601.8455,French Championships,46 61 26 64 63
1958.05.20,Jacques Brichant,jacques-brichant/bn76,2241.6272,2273.4834,Warren Woodcock,warren-woodcock/w775,1952.3385,1915.896,French Championships,62 63 57 75
1958.05.20,Jaroslav Drobny,jaroslav-drobny/d531,2481.7428,2482.0392,Mario Llamas,mario-llamas/le42,1631.5155,1629.516,French Championships,36 64 61 62
1958.05.20,Luis Ayala,luis-ayala/a073,2279.6551,2289.2364,Antonio Maggi,antonio-maggi/mq11,1774.7485,1762.128,French Championships,63 62 60
1958.05.20,Budge Patty,budge-patty/pi25,2348.0693,2349.6487,Jiri Javorsky,jiri-javorsky/j588,1564.199,1561.3395,French Championships,61 62 63
1958.05.20,Mervyn Rose,mervyn-rose/r163,2406.3577,2408.2904,Jean Claude Molinari,jean-claude-molinari/m257,1730.8885,1725.75,French Championships,1210 62 64
1958.05.20,Neale Fraser,neale-fraser/f113,2422.7013,2431.1587,Francisco Contreras,francisco-contreras/c687,2060.7845,2034.8985,French Championships,64 75 64
1958.05.20,Ashley Cooper,ashley-cooper/c229,2535.0722,2535.1802,Antonio Palafox,antonio-palafox/p145,1586.774,1585.613,French Championships,61 75 61
1958.05.20,Giuseppe Merlo,giuseppe-merlo/m276,2269.2355,2282.5463,Antal Jancso,antal-jancso/j604,1820.5005,1803.666,French Championships,36 61 75 63
1958.05.20,Jacques Brichant,jacques-brichant/bn76,2273.4834,2310.476,Orlando Sirola,orlando-sirola/ss58,2044.423,1996.865,French Championships,64 63 75
1958.05.20,Pierre Darmon,pierre-darmon/d131,1858.577,2066.8045,Jaroslav Drobny,jaroslav-drobny/d531,2482.0392,2451.3624,French Championships,63 86 16 86
1958.05.20,Luis Ayala,luis-ayala/a073,2289.2364,2322.8493,Nicola Pietrangeli,nicola-pietrangeli/p141,2052.6134,2006.5819,French Championships,62 61 68 61
1958.05.20,Robert Haillet,robert-haillet/h131,2247.7992,2364.8526,Budge Patty,budge-patty/pi25,2349.6487,2274.7264,French Championships,57 75 108 46 75
1958.05.20,Mervyn Rose,mervyn-rose/r163,2408.2904,2419.7146,Paul Remy,paul-remy/re29,2083.2074,2052.3549,French Championships,46 64 86 62
1958.05.20,Neale Fraser,neale-fraser/f113,2431.1587,2434.5709,Istvan Gulyas,istvan-gulyas/g151,1905.189,1893.8585,French Championships,64 16 60 63
1958.05.20,Ashley Cooper,ashley-cooper/c229,2535.1802,2535.6062,Andres Gimeno,andres-gimeno/g075,1838.797,1834.2175,French Championships,75 61 64
1958.05.20,Luis Ayala,luis-ayala/a073,2322.8493,2398.1808,Robert Haillet,robert-haillet/h131,2364.8526,2304.7393,French Championships,60 75 64
1958.05.20,Mervyn Rose,mervyn-rose/r163,2419.7146,2428.7955,Pierre Darmon,pierre-darmon/d131,2066.8045,2039.7575,French Championships,64 810 63 61
1958.05.20,Jacques Brichant,jacques-brichant/bn76,2310.476,2405.5689,Neale Fraser,neale-fraser/f113,2434.5709,2393.0454,French Championships,57 57 75 60 63
1958.05.20,Ashley Cooper,ashley-cooper/c229,2535.6062,2539.5922,Giuseppe Merlo,giuseppe-merlo/m276,2282.5463,2250.3903,French Championships,79 62 79 63 62
1958.05.20,Mervyn Rose,mervyn-rose/r163,2428.7955,2459.8225,Jacques Brichant,jacques-brichant/bn76,2405.5689,2367.4748,French Championships,108 61 63
1958.05.20,Luis Ayala,luis-ayala/a073,2398.1808,2457.2158,Ashley Cooper,ashley-cooper/c229,2539.5922,2525.8922,French Championships,911 46 64 62 75
1958.05.20,Mervyn Rose,mervyn-rose/r163,2459.8225,2482.7142,Luis Ayala,luis-ayala/a073,2457.2158,2433.4831,French Championships,63 64 64
1958.06.23,Warren Woodcock,warren-woodcock/w775,1915.896,1940.5995,Tony Pickard,tony-pickard/pd90,1544.333,1519.6295,Wimbledon,36 62 1113 61 86
1958.06.23,Bobby Wilson,bobby-wilson/w622,1935.418,1965.0665,Wilhelm Bungert,wilhelm-bungert/b237,1601.8455,1572.197,Wimbledon,60 63 62
1958.06.23,Ivor Warwick,ivor-warwick/w745,1673.8275,1768.2985,Mario Llamas,mario-llamas/le42,1629.516,1535.045,Wimbledon,86 97 62
1958.06.23,Geoff Ward,geoff-ward/w781,1395.983,1510.707,Patricio Rodriguez,patricio-rodriguez/r074,1420.493,1305.769,Wimbledon,64 63 64
1958.06.23,Jorgen Ulrich,jorgen-ulrich/u016,1634.0525,1696.209,Peter Wooller,peter-wooller/w789,1470.2655,1408.109,Wimbledon,86 61 46 75
1958.06.23,Torben Ulrich,torben-ulrich/u011,1748.153,1791.9485,Alberto Arilla,alberto-arilla/ad50,1500,1456.2045,Wimbledon,61 61 62
1958.06.23,Orlando Sirola,orlando-sirola/ss58,1996.865,2010.023,Albert Gaertner,albert-gaertner/gf83,1500,1486.842,Wimbledon,62 108 36 108
1958.06.23,Abe Segal,abe-segal/s242,2000.1963,2013.1393,Jan-Erik Lundqvist,jan-erik-lundqvist/l158,1500,1487.057,Wimbledon,36 36 63 62 63
1958.06.23,Peter Scholl,peter-scholl/ss64,1471.6845,1571.7885,John Ward,john-ward/w345,1446.6155,1346.5115,Wimbledon,75 64 64
1958.06.23,Ulf Schmidt,ulf-schmidt/ss72,2054.2096,2098.4136,Gilbert Shea,gilbert-shea/ss87,1808.2207,1764.0167,Wimbledon,16 64 62 64
1958.06.23,Franz Saiko,franz-saiko/ss71,1476.436,1590.8805,A. J. Udaykumar,a.-j.-udaykumar/u163,1500,1385.5555,Wimbledon,63 64 62
1958.06.23,Wayne Reid,wayne-reid/r174,1460.3755,1579.5285,Piet van Eysden,piet-van-eysden/v480,1500,1380.847,Wimbledon,75 75 62
1958.06.23,William Quillian,william-quillian/q962,1715.8815,1731.7055,Peter Nicholls,peter-nicholls/n799,1254.9215,1239.0975,Wimbledon,63 64 62
1958.06.23,Oliver Prenn,oliver-prenn/pi28,1389.576,1430.426,Joseph Hackett,joseph-hackett/hc56,1125.685,1084.835,Wimbledon,64 62 97
1958.06.23,Isaias Pimentel,isaias-pimentel/pi12,1732.415,1762.816,Graham Stewart,graham-stewart/ss93,1404.196,1373.795,Wimbledon,75 64 62
1958.06.23,Nicola Pietrangeli,nicola-pietrangeli/p141,2006.5819,2059.6869,Antal Jancso,antal-jancso/j604,1803.666,1750.561,Wimbledon,108 64 108
1958.06.23,Robert Perry,robert-perry/p107,1697.585,1727.771,Lew Gerrard,lew-gerrard/g159,1367.775,1337.589,Wimbledon,64 61 36 86
1958.06.23,Budge Patty,budge-patty/pi25,2274.7264,2276.191,Allan Kendal,allan-kendal/k611,1414.7525,1412.8605,Wimbledon,63 63 64
1958.06.23,Ilia Panajotovic,ilia-panajotovic/pi27,1178.2525,1357.5195,David Gunson,david-gunson/gg30,1471.749,1292.482,Wimbledon,46 1513 62 63
1958.06.23,Geoff Paish,geoff-paish/pa78,1352.1875,1487.3795,Istvan Sikorszki,istvan-sikorszki/ss97,1448.1205,1312.9285,Wimbledon,64 36 61 64
1958.06.23,Gardnar Mulloy,gardnar-mulloy/m273,1848.7416,1889.1831,Andres Hammersley,andres-hammersley/hc76,1582.5815,1542.14,Wimbledon,62 62 46 63
1958.06.23,Jean Claude Molinari,jean-claude-molinari/m257,1725.75,1769.4165,Orlando Garrido,orlando-garrido/gg15,1476.909,1433.2425,Wimbledon,86 63 62
1958.06.23,Alan Mills,alan-mills/m270,1606.726,1804.6335,Paul Remy,paul-remy/re29,2052.3549,1854.4474,Wimbledon,46 63 16 62 75
1958.06.23,Fu Chi Mei,fu-chi-mei/mq34,1500,1607.5,Franz Hainka,franz-hainka/hc41,1500,1392.5,Wimbledon,62 62 61
1958.06.23,Bob Mark,bob-mark/mq23,1629.4945,1666.1305,Derek Collins,derek-collins/ci51,1341.4375,1304.8015,Wimbledon,61 61 62
1958.06.23,Antonio Maggi,antonio-maggi/mq11,1762.128,1775.501,Eddie Ford,eddie-ford/f977,1268.2515,1254.8785,Wimbledon,16 63 64 57 75
1958.06.23,Andrzej Licis,andrzej-licis/l133,1328.4945,1479.8115,James Tattersall,james-tattersall/td60,1485.982,1334.665,Wimbledon,36 62 63 36 62
1958.06.23,Rod Laver,rod-laver/l058,1485.5305,1548.4825,Erwin Balestra,erwin-balestra/bo12,1325.0115,1262.0595,Wimbledon,60 62 62
1958.06.23,Naresh Kumar,naresh-kumar/kf51,1706.9375,1779.4785,Ivo Ribeiro,ivo-ribeiro/re21,1584.108,1511.567,Wimbledon,61 108 62
1958.06.23,Ramanathan Krishnan,ramanathan-krishnan/k103,2001.1865,2049.8625,John Cranston,john-cranston/ci38,1777.5435,1728.8675,Wimbledon,63 64 16 63
1958.06.23,Bert Kearney,bert-kearney/k145,1500,1556.9535,Soren Hojberg,soren-hojberg/hc64,1314.2185,1257.265,Wimbledon,61 62 36 61
1958.06.23,Warren Jacques,warren-jacques/j059,1346.0815,1529.0035,Narendra Nath,narendra-nath/n800,1662.9055,1479.9835,Wimbledon,86 64 64
1958.06.23,John Hurry,john-hurry/hc73,1471.2115,1555.384,Colin Baxter,colin-baxter/bn85,1390.952,1306.7795,Wimbledon,61 62 63
1958.06.23,Bob Howe,bob-howe/h130,1853.288,1868.639,R. Tim Cawthorn,r.-tim-cawthorn/ci52,1386.3295,1370.9785,Wimbledon,62 61 62
1958.06.23,Paul Hearnden,paul-hearnden/hc53,1447.9485,1553.32,Gene Scott,gene-scott/s210,1440.746,1335.3745,Wimbledon,68 60 62 64
1958.06.23,Michael Preston Hann,michael-preston-hann/hc37,1458.5695,1578.26,R. Bob Dabbs,r.-bob-dabbs/dd25,1500,1380.3095,Wimbledon,63 61 57 63
1958.06.23,Michael Green,michael-green/gg05,2140.4904,2146.5964,Alberto Lazzarino,alberto-lazzarino/le53,1497.721,1491.615,Wimbledon,46 62 36 61 62
1958.06.23,Gregory Grant,gregory-grant/gg07,1680.8795,1738.9725,Michael Sangster,michael-sangster/s239,1500,1441.907,Wimbledon,64 64 46 86
1958.06.23,Andres Gimeno,andres-gimeno/g075,1834.2175,1842.6455,Howard Walton,howard-walton/w788,1251.7825,1243.3545,Wimbledon,64 63 63
1958.06.23,Rey Garrido,rey-garrido/gg29,1562.006,1655.531,Norman Kitovitz,norman-kitovitz/kf60,1514.4265,1420.9015,Wimbledon,63 75 26 64
1958.06.23,John Frost,john-frost/f963,1835.7225,1854.707,Pat O'Kane,pat-o'kane/o537,1410.861,1391.8765,Wimbledon,75 86 62
1958.06.23,Malcolm Fox,malcolm-fox/f969,1686.362,1726.0725,Wayne Van Voorhees,wayne-van-voorhees/v899,1416.107,1376.3965,Wimbledon,26 119 60 61
1958.06.23,Jaroslav Drobny,jaroslav-drobny/d531,2451.3624,2467.3009,Robert Haillet,robert-haillet/h131,2304.7393,2259.3706,Wimbledon,26 63 36 63 62
1958.06.23,Michael Davies,michael-davies/d133,1806.375,1855.653,Antonio Palafox,antonio-palafox/p145,1585.613,1536.335,Wimbledon,62 46 62 62
1958.06.23,Pierre Darmon,pierre-darmon/d131,2039.7575,2049.712,Ernesto Aguirre,ernesto-aguirre/a448,1489.164,1479.2095,Wimbledon,61 61 64
1958.06.23,Francisco Contreras,francisco-contreras/c687,2034.8985,2045.713,Roy Stilwell,roy-stilwell/ss41,1500,1489.1855,Wimbledon,63 60 63
1958.06.23,Clarence Carter,clarence-carter/ci50,2050.2065,2055.732,Reg Bennet,reg-bennet/bn87,1388.9095,1383.384,Wimbledon,63 46 64 60
1958.06.23,Don Candy,don-candy/c182,1759.333,1841.592,Billy R. Knight,billy-r.-knight/k106,1672.215,1589.956,Wimbledon,75 57 1315 63 1210
1958.06.23,Earl Butch Buchholz,earl-butch-buchholz/b228,1521.156,1576.454,Carlos-Alberto Fernandes,carlos-alberto-fernandes/f111,1328.172,1272.874,Wimbledon,64 64 63
1958.06.23,Jacques Brichant,jacques-brichant/bn76,2367.4748,2368.8228,Eduardo Argon,eduardo-argon/ad69,1575.7015,1572.971,Wimbledon,62 75 63
1958.06.23,Roger Becker,roger-becker/b230,2029.502,2035.6295,Peter Newman,peter-newman/n793,1387.469,1381.3415,Wimbledon,62 62 61
1958.06.23,John Barrett,john-barrett/b226,1810.6535,1843.6775,Robert Hull,robert-hull/hc75,1500,1466.976,Wimbledon,61 75 62
1958.06.23,Ron Barnes,ron-barnes/bc56,1488.562,1626.5705,Gerard Oakley,gerard-oakley/o539,1594.772,1456.7635,Wimbledon,36 36 64 62 86
1958.06.23,William Alvarez,william-alvarez/a121,1442.853,1567.1015,Manuel Santana,manuel-santana/s245,1500,1375.7515,Wimbledon,63 108 63
1958.06.23,Akhtar Ali,akhtar-ali/ad64,1603.9095,1635.493,Anthony Clayton,anthony-clayton/ci42,1283.6885,1252.105,Wimbledon,61 86 64
1958.06.23,Barry MacKay,barry-mackay/m294,1791.7765,1804.4615,Emilio Martinez Del Rey,emilio-martinez-del-rey/dd24,1287.6875,1275.0025,Wimbledon,46 62 62 61
1958.06.23,Sven Davidson,sven-davidson/dd18,2506.1309,2506.4229,Jean-Noel Grinda,jean-noel-grinda/g331,1740.026,1736.887,Wimbledon,61 75 63
1958.06.23,Kurt Nielsen,kurt-nielsen/n088,2162.7526,2168.2351,Hans Van De Weg,hans-van-de-weg/v898,1500,1494.5175,Wimbledon,62 64 60
1958.06.23,Luis Ayala,luis-ayala/a073,2433.4831,2433.6032,Kamilo Keretic,kamilo-keretic/kf66,1290.9125,1290.504,Wimbledon,63 61 63
1958.06.23,Neale Fraser,neale-fraser/f113,2393.0454,2393.4035,Vladimir Petrovic,vladimir-petrovic/ph93,1389.619,1388.759,Wimbledon,63 61 60
1958.06.23,Mervyn Rose,mervyn-rose/r163,2482.7142,2483.5076,Wladyslaw Skonecki,wladyslaw-skonecki/ss73,1818.9955,1813.5345,Wimbledon,63 64 61
1958.06.23,Mal Anderson,mal-anderson/a060,2492.1266,2492.2346,Premjit Lall,premjit-lall/l117,1500,1499.0755,Wimbledon,64 64 75
1958.06.23,Ashley Cooper,ashley-cooper/c229,2525.8922,2525.9442,Geoff Owen,geoff-owen/o541,1440.6815,1440.1225,Wimbledon,108 36 64 61
1958.06.23,Bobby Wilson,bobby-wilson/w622,1965.0665,1988.136,Wayne Reid,wayne-reid/r174,1579.5285,1556.459,Wimbledon,75 60 75
1958.06.23,Jorgen Ulrich,jorgen-ulrich/u016,1696.209,1851.138,Bob Howe,bob-howe/h130,1868.639,1713.71,Wimbledon,62 46 75 86
1958.06.23,Torben Ulrich,torben-ulrich/u011,1791.9485,1941.051,Warren Woodcock,warren-woodcock/w775,1940.5995,1791.497,Wimbledon,64 61 62
1958.06.23,Abe Segal,abe-segal/s242,2013.1393,2030.2103,William Alvarez,william-alvarez/a121,1567.1015,1550.0305,Wimbledon,64 61 62
1958.06.23,Ulf Schmidt,ulf-schmidt/ss72,2098.4136,2180.3071,Orlando Sirola,orlando-sirola/ss58,2010.023,1928.1295,Wimbledon,119 63 16 26 75
1958.06.23,Isaias Pimentel,isaias-pimentel/pi12,1762.816,1875.2395,Naresh Kumar,naresh-kumar/kf51,1779.4785,1667.055,Wimbledon,79 86 108 63
1958.06.23,Nicola Pietrangeli,nicola-pietrangeli/p141,2059.6869,2068.5664,Geoff Paish,geoff-paish/pa78,1487.3795,1478.5,Wimbledon,62 60 46 46 63
1958.06.23,Budge Patty,budge-patty/pi25,2276.191,2283.9353,Robert Perry,robert-perry/p107,1727.771,1717.709,Wimbledon,64 63 36 46 64
1958.06.23,Ilia Panajotovic,ilia-panajotovic/pi27,1357.5195,1534.1635,Akhtar Ali,akhtar-ali/ad64,1635.493,1458.849,Wimbledon,86 46 68 63 75
1958.06.23,Gardnar Mulloy,gardnar-mulloy/m273,1889.1831,1918.8101,John Hurry,john-hurry/hc73,1555.384,1525.757,Wimbledon,62 64 63
1958.06.23,Jean Claude Molinari,jean-claude-molinari/m257,1769.4165,1943.975,Roger Becker,roger-becker/b230,2035.6295,1861.071,Wimbledon,63 63 64
1958.06.23,Bob Mark,bob-mark/mq23,1666.1305,1794.851,Gregory Grant,gregory-grant/gg07,1738.9725,1610.252,Wimbledon,1513 06 86 62
1958.06.23,Antonio Maggi,antonio-maggi/mq11,1775.501,1828.4125,Peter Scholl,peter-scholl/ss64,1571.7885,1518.877,Wimbledon,62 64 62
1958.06.23,Rod Laver,rod-laver/l058,1548.4825,1751.0125,Clarence Carter,clarence-carter/ci50,2055.732,1853.202,Wimbledon,46 63 1210 64
1958.06.23,Ramanathan Krishnan,ramanathan-krishnan/k103,2049.8625,2087.595,Ivor Warwick,ivor-warwick/w745,1768.2985,1730.566,Wimbledon,61 1412 60
1958.06.23,Warren Jacques,warren-jacques/j059,1529.0035,1705.239,Alan Mills,alan-mills/m270,1804.6335,1628.398,Wimbledon,810 75 79 64 61
1958.06.23,Michael Preston Hann,michael-preston-hann/hc37,1578.26,1728.5665,William Quillian,william-quillian/q962,1731.7055,1581.399,Wimbledon,119 16 63 64
1958.06.23,Michael Green,michael-green/gg05,2146.5964,2154.7019,Bert Kearney,bert-kearney/k145,1556.9535,1548.848,Wimbledon,75 61 64
1958.06.23,Jaroslav Drobny,jaroslav-drobny/d531,2467.3009,2467.4824,Andrzej Licis,andrzej-licis/l133,1479.8115,1478.8655,Wimbledon,64 86 64
1958.06.23,Pierre Darmon,pierre-darmon/d131,2049.712,2071.8355,Rey Garrido,rey-garrido/gg29,1655.531,1633.4075,Wimbledon,36 62 61 62
1958.06.23,Don Candy,don-candy/c182,1841.592,1916.068,Malcolm Fox,malcolm-fox/f969,1726.0725,1651.5965,Wimbledon,64 108 64
1958.06.23,Jacques Brichant,jacques-brichant/bn76,2368.8228,2374.7492,Michael Davies,michael-davies/d133,1855.653,1843.5485,Wimbledon,63 86 26 57 61
1958.06.23,John Barrett,john-barrett/b226,1843.6775,1879.9265,Paul Hearnden,paul-hearnden/hc53,1553.32,1517.071,Wimbledon,63 61 57 63
1958.06.23,Ron Barnes,ron-barnes/bc56,1626.5705,1681.159,Oliver Prenn,oliver-prenn/pi28,1430.426,1375.8375,Wimbledon,75 97 26 64
1958.06.23,Barry MacKay,barry-mackay/m294,1804.4615,1820.0705,Erik Bulmer,erik-bulmer/bo13,1340.771,1325.162,Wimbledon,61 97 62
1958.06.23,Sven Davidson,sven-davidson/dd18,2506.4229,2507.8969,Francisco Contreras,francisco-contreras/c687,2045.713,2029.8675,Wimbledon,62 108 86
1958.06.23,Kurt Nielsen,kurt-nielsen/n088,2168.2351,2173.8896,Geoff Ward,geoff-ward/w781,1510.707,1505.0525,Wimbledon,68 64 64 810 62
1958.06.23,Luis Ayala,luis-ayala/a073,2433.6032,2434.1653,Earl Butch Buchholz,earl-butch-buchholz/b228,1576.454,1574.5405,Wimbledon,64 86 86
1958.06.23,Neale Fraser,neale-fraser/f113,2393.4035,2394.5732,Fu Chi Mei,fu-chi-mei/mq34,1607.5,1604.6835,Wimbledon,61 61 61
1958.06.23,Mervyn Rose,mervyn-rose/r163,2483.5076,2484.4476,John Frost,john-frost/f963,1854.707,1848.128,Wimbledon,64 108 64
1958.06.23,Mal Anderson,mal-anderson/a060,2492.2346,2492.9209,Andres Gimeno,andres-gimeno/g075,1842.6455,1836.7545,Wimbledon,64 64 64
1958.06.23,Ashley Cooper,ashley-cooper/c229,2525.9442,2526.0602,Franz Saiko,franz-saiko/ss71,1590.8805,1589.6335,Wimbledon,63 64 61
1958.06.23,Bobby Wilson,bobby-wilson/w622,1988.136,2029.7815,Michael Preston Hann,michael-preston-hann/hc37,1728.5665,1686.921,Wimbledon,86 64 60
1958.06.23,Abe Segal,abe-segal/s242,2030.2103,2061.0843,Warren Jacques,warren-jacques/j059,1705.239,1674.365,Wimbledon,63 61 64
1958.06.23,Ulf Schmidt,ulf-schmidt/ss72,2180.3071,2340.3316,Jacques Brichant,jacques-brichant/bn76,2374.7492,2299.2675,Wimbledon,36 63 75 46 75
1958.06.23,Budge Patty,budge-patty/pi25,2283.9353,2305.0976,Torben Ulrich,torben-ulrich/u011,1941.051,1912.6925,Wimbledon,46 75 61 62
1958.06.23,Gardnar Mulloy,gardnar-mulloy/m273,1918.8101,2087.6281,Michael Green,michael-green/gg05,2154.7019,1985.8839,Wimbledon,36 64 64 62
1958.06.23,Ramanathan Krishnan,ramanathan-krishnan/k103,2087.595,2154.761,Jean Claude Molinari,jean-claude-molinari/m257,1943.975,1876.809,Wimbledon,86 61 60
1958.06.23,Jaroslav Drobny,jaroslav-drobny/d531,2467.4824,2468.2681,Rod Laver,rod-laver/l058,1751.0125,1746.906,Wimbledon,61 61 64
1958.06.23,Barry MacKay,barry-mackay/m294,1820.0705,1920.1315,Bob Mark,bob-mark/mq23,1794.851,1694.79,Wimbledon,46 108 64 64
1958.06.23,Sven Davidson,sven-davidson/dd18,2507.8969,2508.4969,Isaias Pimentel,isaias-pimentel/pi12,1875.2395,1868.7895,Wimbledon,63 36 61 64
1958.06.23,Kurt Nielsen,kurt-nielsen/n088,2173.8896,2180.1031,Ilia Panajotovic,ilia-panajotovic/pi27,1534.1635,1527.95,Wimbledon,61 64 62
1958.06.23,Nicola Pietrangeli,nicola-pietrangeli/p141,2068.5664,2258.1319,Luis Ayala,luis-ayala/a073,2434.1653,2378.8011,Wimbledon,64 64 63
1958.06.23,Neale Fraser,neale-fraser/f113,2394.5732,2398.3533,Antonio Maggi,antonio-maggi/mq11,1828.4125,1819.232,Wimbledon,60 64 63
1958.06.23,Mervyn Rose,mervyn-rose/r163,2484.4476,2484.8089,Ron Barnes,ron-barnes/bc56,1681.159,1678.579,Wimbledon,63 97 64
1958.06.23,Mal Anderson,mal-anderson/a060,2492.9209,2493.7401,John Barrett,john-barrett/b226,1879.9265,1872.767,Wimbledon,36 60 62 63
1958.06.23,Ashley Cooper,ashley-cooper/c229,2526.0602,2526.5382,Jorgen Ulrich,jorgen-ulrich/u016,1851.138,1845.9995,Wimbledon,97 62 36 63
1958.06.23,Bobby Wilson,bobby-wilson/w622,2029.7815,2197.073,Nicola Pietrangeli,nicola-pietrangeli/p141,2258.1319,2120.2415,Wimbledon,119 62 62
1958.06.23,Barry MacKay,barry-mackay/m294,1920.1315,2088.6915,Ramanathan Krishnan,ramanathan-krishnan/k103,2154.761,1986.201,Wimbledon,63 119 62
1958.06.23,Sven Davidson,sven-davidson/dd18,2508.4969,2513.4269,Budge Patty,budge-patty/pi25,2305.0976,2268.9394,Wimbledon,64 26 46 97 64
1958.06.23,Kurt Nielsen,kurt-nielsen/n088,2180.1031,2332.0866,Ulf Schmidt,ulf-schmidt/ss72,2340.3316,2252.8284,Wimbledon,64 1513 64
1958.06.23,Neale Fraser,neale-fraser/f113,2398.3533,2410.6269,Pierre Darmon,pierre-darmon/d131,2071.8355,2041.1765,Wimbledon,64 63 63
1958.06.23,Mervyn Rose,mervyn-rose/r163,2484.8089,2487.8381,Gardnar Mulloy,gardnar-mulloy/m273,2087.6281,2065.8271,Wimbledon,62 63 61
1958.06.23,Mal Anderson,mal-anderson/a060,2493.7401,2504.9346,Jaroslav Drobny,jaroslav-drobny/d531,2468.2681,2449.3731,Wimbledon,63 108 62
1958.06.23,Ashley Cooper,ashley-cooper/c229,2526.5382,2527.9762,Abe Segal,abe-segal/s242,2061.0843,2045.6258,Wimbledon,1311 63 36 1412
1958.06.23,Neale Fraser,neale-fraser/f113,2410.6269,2460.4187,Sven Davidson,sven-davidson/dd18,2513.4269,2500.6749,Wimbledon,64 68 62 36 86
1958.06.23,Mervyn Rose,mervyn-rose/r163,2487.8381,2490.6398,Barry MacKay,barry-mackay/m294,2088.6915,2067.1055,Wimbledon,62 64 64
1958.06.23,Kurt Nielsen,kurt-nielsen/n088,2332.0866,2425.2121,Mal Anderson,mal-anderson/a060,2504.9346,2490.5126,Wimbledon,62 63 (RET)
1958.06.23,Ashley Cooper,ashley-cooper/c229,2527.9762,2530.7702,Bobby Wilson,bobby-wilson/w622,2197.073,2167.0375,Wimbledon,64 62 36 46 75
1958.06.23,Neale Fraser,neale-fraser/f113,2460.4187,2481.0785,Kurt Nielsen,kurt-nielsen/n088,2425.2121,2394.2131,Wimbledon,64 64 1719 64
1958.06.23,Ashley Cooper,ashley-cooper/c229,2530.7702,2539.6722,Mervyn Rose,mervyn-rose/r163,2490.6398,2479.0298,Wimbledon,79 62 62 63
1958.06.23,Ashley Cooper,ashley-cooper/c229,2539.6722,2548.0762,Neale Fraser,neale-fraser/f113,2481.0785,2467.5065,Wimbledon,36 63 64 1311
1958.08.29,Roger Werksman,roger-werksman/w768,1392.5,1508.858,Donald Rubell,donald-rubell/re03,1422.557,1306.199,US Championships,63 64 26 60
1958.08.29,Ned Weld,ned-weld/w098,1500,1607.5,Horace Cunningham,horace-cunningham/ci53,1500,1392.5,US Championships,61 64 64
1958.08.29,Donald Thompson,donald-thompson/td62,1724.5675,1773.05,Robert Wertheimer,robert-wertheimer/w790,1500,1451.5175,US Championships,36 62 63 36 64
1958.08.29,Eduardo Soriano,eduardo-soriano/sc14,1445.089,1568.6925,Jonathan Clark,jonathan-clark/ci55,1500,1376.3965,US Championships,64 64 61
1958.08.29,Edward Sledge,edward-sledge/ss82,1405.615,1540.377,Dennis Ralston,dennis-ralston/r064,1500,1365.238,US Championships,16 36 61 75 63
1958.08.29,Sydney Schwartz,sydney-schwartz/ss65,1902.007,1910.607,Hugh Sweeney,hugh-sweeney/ss39,1323.4635,1314.8635,US Championships,60 61 62
1958.08.29,Ulf Schmidt,ulf-schmidt/ss72,2252.8284,2253.8762,Richard Ogden,richard-ogden/o544,1317.4865,1316.2395,US Championships,62 64 64
1958.08.29,James Schmidt,james-schmidt/ss98,1533.3035,1601.523,Dever Hobbs,dever-hobbs/hc57,1393.8545,1325.635,US Championships,36 60 61 75
1958.08.29,Ernesto Rios,ernesto-rios/rd79,1500,1607.5,Leif Beck,leif-beck/bn52,1500,1392.5,US Championships,63 16 26 63 63
1958.08.29,Whitney Reed,whitney-reed/r590,1817.211,2015.6345,Budge Patty,budge-patty/pi25,2268.9394,2111.8716,US Championships,62 62 57 63
1958.08.29,William Quillian,william-quillian/q962,1581.399,1684.728,Norm Perry,norm-perry/p183,1567.295,1463.966,US Championships,60 64 61
1958.08.29,Paul Palmer,paul-palmer/pi21,1500,1553.3845,Sydney Wood III,sydney-wood-iii/w786,1298.3515,1244.967,US Championships,63 61 61
1958.08.29,David Nelson,david-nelson/n796,1476.479,1634.16,John Fleitz,john-fleitz/f978,1660.6265,1502.9455,US Championships,64 61 46 62
1958.08.29,Enrique Morea,enrique-morea/mp49,2284.3661,2285.5033,Ned Neely,ned-neely/n097,1384.158,1382.6315,US Championships,75 60 60
1958.08.29,Chuck Mckinley,chuck-mckinley/mp91,1523.0265,1623.7325,Frank Sample,frank-sample/ss99,1500,1399.294,US Championships,60 64 61
1958.08.29,Bob Mark,bob-mark/mq23,1694.79,1772.5555,Larry Nagler,larry-nagler/n098,1591.418,1513.6525,US Championships,79 63 62 26 60
1958.08.29,Leslie Longshore,leslie-longshore/le49,1488.4545,1599.373,Fernando Quesada,fernando-quesada/q963,1500,1389.0815,US Championships,86 61 63
1958.08.29,Rod Laver,rod-laver/l058,1746.906,1790.938,Frank Froehling,frank-froehling/f079,1500,1455.968,US Championships,62 63 75
1958.08.29,Billy R. Knight,billy-r.-knight/k106,1589.956,1763.0525,John Frost,john-frost/f963,1848.128,1675.0315,US Championships,63 63 68 46 75
1958.08.29,Bert Kearney,bert-kearney/k145,1548.848,1642.0075,Ralph Howe,ralph-howe/hc32,1500,1406.8405,US Championships,1614 63 61
1958.08.29,William Hoogs,william-hoogs/hc33,1500,1607.5,Ernesto Schoop,ernesto-schoop/ss89,1500,1392.5,US Championships,62 63 1210
1958.08.29,Harry Hoffman,harry-hoffman/hc43,1491.2065,1601.308,Ron Fisher,ron-fisher/f959,1500,1389.8985,US Championships,36 64 86 68 63
1958.08.29,Richard Hoehn,richard-hoehn/hc78,1500,1607.5,Wilbur Jenkins,wilbur-jenkins/j606,1500,1392.5,US Championships,62 60 64
1958.08.29,Kalman Hettleman,kalman-hettleman/hc63,1314.197,1472.2435,James Buck,james-buck/bn70,1500,1341.9535,US Championships,46 75 62 62
1958.08.29,Rudy Hernando,rudy-hernando/h098,1500,1607.5,Andres Donnadieu,andres-donnadieu/dd09,1500,1392.5,US Championships,62 63 36 86
1958.08.29,Crawford Henry,crawford-henry/h148,1525.9935,1670.0865,Gerald Moss,gerald-moss/mq29,1655.058,1510.965,US Championships,60 46 64 61
1958.08.29,David Harum,david-harum/hc79,1701.111,1728.3085,Val Harit,val-harit/hc68,1349.5,1322.3025,US Championships,62 64 63
1958.08.29,Michael Green,michael-green/gg05,1985.8839,2003.7289,Henry Van Rensselaer,henry-van-rensselaer/v891,1548.59,1530.745,US Championships,63 61 62
1958.08.29,Gregory Grant,gregory-grant/gg07,1610.252,1660.0245,Pat O'Kane,pat-o'kane/o537,1391.8765,1342.104,US Championships,97 1012 119 75
1958.08.29,Grant Golden,grant-golden/g185,2041.241,2057.6455,Arie Avidan-Weiss,arie-avidan-weiss/ad72,1587.2685,1570.864,US Championships,61 60 62
1958.08.29,Sammy Giammalva Sr.,sammy-giammalva-sr./g178,1841.3125,1869.7785,John Brownlow,john-brownlow/bn95,1499.1615,1470.6955,US Championships,60 64 46 63
1958.08.29,Myron Franks,myron-franks/f117,1913.531,1923.4855,Jon Erickson,jon-erickson/e902,1362.8085,1352.854,US Championships,60 61 64
1958.08.29,Allen Fox,allen-fox/f956,1507.482,1612.7675,Raymond Senkowski,raymond-senkowski/ss47,1500,1394.7145,US Championships,62 64 36 63
1958.08.29,Don Fontana,don-fontana/f471,1819.7265,1836.69,Paul Cranis,paul-cranis/c185,1372.505,1355.5415,US Championships,64 64 62
1958.08.29,Herbie Flam,herbie-flam/f962,2474.0252,2474.1211,Forrest Stewart,forrest-stewart/ss86,1391.296,1390.737,US Championships,62 63 63
1958.08.29,James Farrin,james-farrin/f971,1642.072,1709.625,Eleazar Davidman,eleazar-davidman/d574,1500,1432.447,US Championships,62 62 64
1958.08.29,Jon Douglas,jon-douglas/dd11,1615.842,1690.232,Gerald Dubie,gerald-dubie/dd20,1500,1425.61,US Championships,26 57 61 61 64
1958.08.29,Donald Dell,donald-dell/d128,1667.3775,1722.998,Douglas Corley,douglas-corley/ci44,1475.791,1420.1705,US Championships,63 63 61
1958.08.29,Wilbert Davis,wilbert-davis/dd15,1464.783,1582.646,Rodney Susman,rodney-susman/s987,1500,1382.137,US Championships,75 36 64 62
1958.08.29,Michael Davies,michael-davies/d133,1843.5485,1884.549,Alan Roberts,alan-roberts/re18,1580.496,1539.4955,US Championships,60 63 75
1958.08.29,William Cullen,william-cullen/ci15,1285.0,1449.518,Gavin Gentry,gavin-gentry/gg31,1500,1335.482,US Championships,63 61 63
1958.08.29,Christopher Crawford,christopher-crawford/ci32,1414.9245,1624.0765,Gardnar Mulloy,gardnar-mulloy/m273,2065.8271,1856.6751,US Championships,26 64 64 63
1958.08.29,Michael Crane,michael-crane/ci39,1500,1615.326,Henri Rochon,henri-rochon/re31,1526.574,1411.248,US Championships,61 79 61 64
1958.08.29,Straight Clark,straight-clark/ci34,1702.2347,1769.2932,Pablo Eisenberg,pablo-eisenberg/e899,1558.2005,1491.142,US Championships,63 46 64 63
1958.08.29,John Capell,john-capell/ci54,1500,1607.5,Robert Johnson,robert-johnson/j209,1500,1392.5,US Championships,62 62 64
1958.08.29,Eduardo Buse,eduardo-buse/bo15,1469.513,1552.4815,Edward Atkinson,edward-atkinson/ad73,1384.975,1302.0065,US Championships,68 61 06 61 63
1958.08.29,Earl Butch Buchholz,earl-butch-buchholz/b228,1574.5405,1725.062,John Cranston,john-cranston/ci38,1728.8675,1578.346,US Championships,64 57 60 62
1958.08.29,Maxwell Brown,maxwell-brown/bo14,1274.2715,1441.0255,Wendell Ottum,wendell-ottum/o543,1500,1333.246,US Championships,61 61 64
1958.08.29,David Brechner,david-brechner/bo16,1554.094,1645.727,George Stoesser,george-stoesser/ss77,1500,1408.367,US Championships,64 36 61 26 64
1958.08.29,Robert Bowditch,robert-bowditch/bn83,1479.532,1593.0735,Alfred Vinton,alfred-vinton/v900,1500,1386.4585,US Championships,60 63 62
1958.08.29,Bill Bond,bill-bond/bn69,1500,1607.5,Dale Junta,dale-junta/j602,1500,1392.5,US Championships,2018 75 64
1958.08.29,Robert Bedard,robert-bedard/b903,1926.1085,1934.171,Gene Scott,gene-scott/s210,1335.3745,1327.312,US Championships,75 64 64
1958.08.29,Tut Bartzen,tut-bartzen/bn94,1873.5625,1950.1455,Kosei Kamo,kosei-kamo/kf72,1765.8475,1689.2645,US Championships,60 61 26 64
1958.08.29,Luis Ayala,luis-ayala/a073,2378.8011,2379.5815,William Wright,william-wright/w777,1500,1498.3015,US Championships,60 61 61
1958.08.29,Arthur Andrews,arthur-andrews/ad71,1478.93,1592.6435,Andrew Gilmore,andrew-gilmore/gg32,1500,1386.2865,US Championships,60 61 60
1958.08.29,Dick Savitt,dick-savitt/ss90,2406.9472,2408.1786,Lorne Main,lorne-main/mq39,1648.995,1645.7055,US Championships,63 61 64
1958.08.29,E. Victor Seixas,e.-victor-seixas/s240,2483.5487,2495.203,Kurt Nielsen,kurt-nielsen/n088,2394.2131,2360.5104,US Championships,62 46 64 810 86
1958.08.29,Alejandro Olmedo,alejandro-olmedo/o042,1880.5715,1902.5015,Richard Sorlein,richard-sorlein/ss56,1484.606,1462.676,US Championships,62 63 61
1958.08.29,Barry MacKay,barry-mackay/m294,2067.1055,2074.9745,James Shakespeare,james-shakespeare/st00,1472.0715,1464.2025,US Championships,62 61 62
1958.08.29,Neale Fraser,neale-fraser/f113,2467.5065,2467.708,Courtney Henderson,courtney-henderson/hc77,1500,1498.9465,US Championships,60 62 86
1958.08.29,"Hamilton ""Ham"" Richardson","hamilton-""ham""-richardson/r160",2220.3334,2257.9862,Tony Vincent,tony-vincent/v366,1952.3815,1912.2625,US Championships,64 61 61
1958.08.29,Ashley Cooper,ashley-cooper/c229,2548.0762,2548.1382,Gordon Davis,gordon-davis/dd26,1500,1499.3335,US Championships,61 62 64
1958.08.29,Mal Anderson,mal-anderson/a060,2490.5126,2490.8816,Robert Perry,robert-perry/p107,1717.709,1714.6775,US Championships,46 61 62 61
1958.08.29,Roger Werksman,roger-werksman/w768,1508.858,1605.5865,Kalman Hettleman,kalman-hettleman/hc63,1472.2435,1375.515,US Championships,61 63 06 46 86
1958.08.29,E. Victor Seixas,e.-victor-seixas/s240,2495.203,2495.6237,Straight Clark,straight-clark/ci34,1769.2932,1765.3802,US Championships,63 61 64
1958.08.29,Ulf Schmidt,ulf-schmidt/ss72,2253.8762,2259.6536,David Nelson,david-nelson/n796,1634.16,1627.2585,US Championships,62 63 62
1958.08.29,Whitney Reed,whitney-reed/r590,2015.6345,2030.3405,Edward Sledge,edward-sledge/ss82,1540.377,1525.671,US Championships,61 64 1210
1958.08.29,William Quillian,william-quillian/q962,1684.728,1774.383,Chuck Mckinley,chuck-mckinley/mp91,1623.7325,1534.0775,US Championships,64 1513 62
1958.08.29,Bob Mark,bob-mark/mq23,1772.5555,1844.043,David Brechner,david-brechner/bo16,1645.727,1574.2395,US Championships,86 63 62
1958.08.29,Leslie Longshore,leslie-longshore/le49,1599.373,1707.518,James Schmidt,james-schmidt/ss98,1601.523,1493.378,US Championships,62 64 64
1958.08.29,Rod Laver,rod-laver/l058,1790.938,1992.608,Enrique Morea,enrique-morea/mp49,2285.5033,2135.9647,US Championships,86 60 64
1958.08.29,Billy R. Knight,billy-r.-knight/k106,1763.0525,1828.52,Allen Fox,allen-fox/f956,1612.7675,1547.3,US Championships,61 63 86
1958.08.29,Ron Holmberg,ron-holmberg/h061,1735.6185,1771.1795,Maxwell Brown,maxwell-brown/bo14,1441.0255,1405.4645,US Championships,64 46 61 62
1958.08.29,Rudy Hernando,rudy-hernando/h098,1607.5,1715.0,William Hoogs,william-hoogs/hc33,1607.5,1500.0,US Championships,63 61 46 62
1958.08.29,David Harum,david-harum/hc79,1728.3085,1801.387,Richard Hoehn,richard-hoehn/hc78,1607.5,1534.4215,US Championships,64 60 61
1958.08.29,Michael Green,michael-green/gg05,2003.7289,2050.9644,Donald Thompson,donald-thompson/td62,1773.05,1725.8145,US Championships,62 75 62
1958.08.29,Grant Golden,grant-golden/g185,2057.6455,2072.373,Wilbert Davis,wilbert-davis/dd15,1582.646,1567.9185,US Championships,60 60 60
1958.08.29,Sammy Giammalva Sr.,sammy-giammalva-sr./g178,1869.7785,1996.091,Robert Bedard,robert-bedard/b903,1934.171,1807.8585,US Championships,108 36 68 75 75
1958.08.29,Myron Franks,myron-franks/f117,1923.4855,2027.18,Sydney Schwartz,sydney-schwartz/ss65,1910.607,1806.9125,US Championships,60 62 16 60
1958.08.29,Herbie Flam,herbie-flam/f962,2474.1211,2474.4967,Bert Kearney,bert-kearney/k145,1642.0075,1639.8145,US Championships,60 60 86
1958.08.29,James Farrin,james-farrin/f971,1709.625,1786.0575,Harry Hoffman,harry-hoffman/hc43,1601.308,1524.8755,US Championships,61 68 86 57 62
1958.08.29,Jon Douglas,jon-douglas/dd11,1690.232,1769.696,Robert Bowditch,robert-bowditch/bn83,1593.0735,1513.6095,US Championships,62 79 62 62
1958.08.29,Donald Dell,donald-dell/d128,1722.998,1863.0275,Don Fontana,don-fontana/f471,1836.69,1696.6605,US Championships,63 60 64
1958.08.29,Michael Crane,michael-crane/ci39,1615.326,1720.5255,Ned Weld,ned-weld/w098,1607.5,1502.3005,US Championships,64 63 61
1958.08.29,John Capell,john-capell/ci54,1607.5,1699.133,Paul Palmer,paul-palmer/pi21,1553.3845,1461.7515,US Championships,16 63 64 75
1958.08.29,Earl Butch Buchholz,earl-butch-buchholz/b228,1725.062,1763.8265,William Cullen,william-cullen/ci15,1449.518,1410.7535,US Championships,61 16 61 75
1958.08.29,Tut Bartzen,tut-bartzen/bn94,1950.1455,1978.547,Ernesto Rios,ernesto-rios/rd79,1607.5,1579.0985,US Championships,61 62 62
1958.08.29,Arthur Andrews,arthur-andrews/ad71,1592.6435,1693.07,Eduardo Soriano,eduardo-soriano/sc14,1568.6925,1468.266,US Championships,1715 62 86
1958.08.29,Dick Savitt,dick-savitt/ss90,2408.1786,2409.5332,Crawford Henry,crawford-henry/h148,1670.0865,1666.4315,US Championships,62 62 68 64
1958.08.29,Alejandro Olmedo,alejandro-olmedo/o042,1902.5015,1947.3935,Gregory Grant,gregory-grant/gg07,1660.0245,1615.1325,US Championships,61 64 64
1958.08.29,Christopher Crawford,christopher-crawford/ci32,1624.0765,1822.414,Barry MacKay,barry-mackay/m294,2074.9745,1876.637,US Championships,64 36 64 63
1958.08.29,Neale Fraser,neale-fraser/f113,2467.708,2469.3066,Michael Davies,michael-davies/d133,1884.549,1876.164,US Championships,64 75 63
1958.08.29,"Hamilton ""Ham"" Richardson","hamilton-""ham""-richardson/r160",2257.9862,2262.8267,Bill Bond,bill-bond/bn69,1607.5,1601.6305,US Championships,63 75 63
1958.08.29,Ashley Cooper,ashley-cooper/c229,2548.1382,2553.8122,Luis Ayala,luis-ayala/a073,2379.5815,2351.7017,US Championships,64 62 63
1958.08.29,Mal Anderson,mal-anderson/a060,2490.8816,2491.0294,Eduardo Buse,eduardo-buse/bo15,1552.4815,1551.256,US Championships,61 62 75
1958.08.29,E. Victor Seixas,e.-victor-seixas/s240,2495.6237,2496.0395,Jon Douglas,jon-douglas/dd11,1769.696,1765.783,US Championships,46 108 64 64
1958.08.29,Ulf Schmidt,ulf-schmidt/ss72,2259.6536,2270.5091,Earl Butch Buchholz,earl-butch-buchholz/b228,1763.8265,1750.5825,US Championships,1917 63 36 61
1958.08.29,Leslie Longshore,leslie-longshore/le49,1707.518,1812.5455,John Capell,john-capell/ci54,1699.133,1594.1055,US Championships,63 64 64
1958.08.29,Rod Laver,rod-laver/l058,1992.608,2015.5055,Roger Werksman,roger-werksman/w768,1605.5865,1582.689,US Championships,64 75 60
1958.08.29,Billy R. Knight,billy-r.-knight/k106,1828.52,1990.1785,Whitney Reed,whitney-reed/r590,2030.3405,1868.682,US Championships,46 64 63 62
1958.08.29,Michael Green,michael-green/gg05,2050.9644,2080.2689,Rudy Hernando,rudy-hernando/h098,1715.0,1685.6955,US Championships,61 63 60
1958.08.29,Grant Golden,grant-golden/g185,2072.373,2096.1735,Arthur Andrews,arthur-andrews/ad71,1693.07,1669.2695,US Championships,75 64 61
1958.08.29,Myron Franks,myron-franks/f117,2027.18,2072.33,James Farrin,james-farrin/f971,1786.0575,1740.9075,US Championships,62 63 108
1958.08.29,Herbie Flam,herbie-flam/f962,2474.4967,2476.7462,Tut Bartzen,tut-bartzen/bn94,1978.547,1965.3245,US Championships,75 62 97
1958.08.29,Christopher Crawford,christopher-crawford/ci32,1822.414,1936.2995,Bob Mark,bob-mark/mq23,1844.043,1730.1575,US Championships,86 36 63 64
1958.08.29,Dick Savitt,dick-savitt/ss90,2409.5332,2412.2283,David Harum,david-harum/hc79,1801.387,1794.034,US Championships,64 61 86
1958.08.29,Alejandro Olmedo,alejandro-olmedo/o042,1947.3935,2006.5615,Ron Holmberg,ron-holmberg/h061,1771.1795,1712.0115,US Championships,63 63 64
1958.08.29,Neale Fraser,neale-fraser/f113,2469.3066,2470.6849,Donald Dell,donald-dell/d128,1863.0275,1855.61,US Championships,63 46 64 62
1958.08.29,"Hamilton ""Ham"" Richardson","hamilton-""ham""-richardson/r160",2262.8267,2295.4996,Sammy Giammalva Sr.,sammy-giammalva-sr./g178,1996.091,1955.757,US Championships,75 64 63
1958.08.29,Ashley Cooper,ashley-cooper/c229,2553.8122,2554.0162,Michael Crane,michael-crane/ci39,1720.5255,1718.3325,US Championships,62 60 60
1958.08.29,Mal Anderson,mal-anderson/a060,2491.0294,2491.5228,William Quillian,william-quillian/q962,1774.383,1770.2765,US Championships,86 63 62
1958.08.29,E. Victor Seixas,e.-victor-seixas/s240,2496.0395,2498.1254,Michael Green,michael-green/gg05,2080.2689,2060.4029,US Championships,62 75 86
1958.08.29,Herbie Flam,herbie-flam/f962,2476.7462,2478.4598,Christopher Crawford,christopher-crawford/ci32,1936.2995,1925.8075,US Championships,46 1210 61 64
1958.08.29,Dick Savitt,dick-savitt/ss90,2412.2283,2420.0567,Rod Laver,rod-laver/l058,2015.5055,1993.6615,US Championships,86 97 64
1958.08.29,Alejandro Olmedo,alejandro-olmedo/o042,2006.5615,2061.6445,Leslie Longshore,leslie-longshore/le49,1812.5455,1757.4625,US Championships,62 63 63
1958.08.29,Neale Fraser,neale-fraser/f113,2470.6849,2475.1098,Grant Golden,grant-golden/g185,2096.1735,2071.814,US Championships,64 61 64
1958.08.29,Ulf Schmidt,ulf-schmidt/ss72,2270.5091,2360.8961,"Hamilton ""Ham"" Richardson","hamilton-""ham""-richardson/r160",2295.4996,2213.7916,US Championships,108 64 119
1958.08.29,Ashley Cooper,ashley-cooper/c229,2554.0162,2555.3402,Myron Franks,myron-franks/f117,2072.33,2058.097,US Championships,61 62 64
1958.08.29,Mal Anderson,mal-anderson/a060,2491.5228,2493.0483,Billy R. Knight,billy-r.-knight/k106,1990.1785,1977.3215,US Championships,46 63 64 86
1958.08.29,Ulf Schmidt,ulf-schmidt/ss72,2360.8961,2433.341,Herbie Flam,herbie-flam/f962,2478.4598,2456.1517,US Championships,75 86 86
1958.08.29,Neale Fraser,neale-fraser/f113,2475.1098,2478.4925,Alejandro Olmedo,alejandro-olmedo/o042,2061.6445,2041.542,US Championships,36 61 86 36 63
1958.08.29,Ashley Cooper,ashley-cooper/c229,2555.3402,2563.7802,E. Victor Seixas,e.-victor-seixas/s240,2498.1254,2489.1712,US Championships,97 62 36 62
1958.08.29,Mal Anderson,mal-anderson/a060,2493.0483,2502.8827,Dick Savitt,dick-savitt/ss90,2420.0567,2391.1923,US Championships,1816 61 36 63
1958.08.29,Ashley Cooper,ashley-cooper/c229,2563.7802,2571.4782,Neale Fraser,neale-fraser/f113,2478.4925,2465.4136,US Championships,86 86 61
1958.08.29,Mal Anderson,mal-anderson/a060,2502.8827,2510.9947,Ulf Schmidt,ulf-schmidt/ss72,2433.341,2407.655,US Championships,64 75 62
1958.08.29,Ashley Cooper,ashley-cooper/c229,2571.4782,2579.8322,Mal Anderson,mal-anderson/a060,2510.9947,2502.6407,US Championships,62 36 46 108 86
1958.09.22,Paul Remy,paul-remy/re29,1854.4474,1865.5629,Robert Colin,robert-colin/cj04,1325.0545,1313.939,Paris,60 62 62
1958.09.22,Lew Hoad,lew-hoad/h132,2549.0464,2549.0704,Jacques Iemetti,jacques-iemetti/i364,1319.099,1318.841,Paris,86 75 75
1958.09.22,Jack Kramer,jack-kramer/kg10,2574.8034,2575.7854,George Worthington,george-worthington/w793,2035.5451,2024.9886,Paris,64 64 57 62
1958.09.22,Pancho Segura,pancho-segura/s246,2548.816,2549.074,Peter Cawthorn,peter-cawthorn/ci84,1760.0425,1757.269,Paris,62 62 62
1958.09.22,Richard Pancho Gonzales,richard-pancho-gonzales/g077,2645.7227,2645.9947,Paul Remy,paul-remy/re29,1865.5629,1862.6389,Paris,62 68 46 62 61
1958.09.22,Lew Hoad,lew-hoad/h132,2549.0704,2560.3584,Tony Trabert,tony-trabert/t094,2596.2179,2584.9299,Paris,26 60 63 64
1958.09.22,Ken Rosewall,ken-rosewall/r075,2590.128,2599.734,Jack Kramer,jack-kramer/kg10,2575.7854,2566.1794,Paris,63 64 64
1958.09.22,Frank Sedgman,frank-sedgman/s248,2578.4741,2587.6681,Pancho Segura,pancho-segura/s246,2549.074,2539.88,Paris,36 108 62 64
1958.09.22,Lew Hoad,lew-hoad/h132,2560.3584,2572.6684,Richard Pancho Gonzales,richard-pancho-gonzales/g077,2645.9947,2633.6847,Paris,57 1311 64 64
1958.09.22,Ken Rosewall,ken-rosewall/r075,2599.734,2609.402,Frank Sedgman,frank-sedgman/s248,2587.6681,2578.0001,Paris,64 63 57 62
1958.09.22,Ken Rosewall,ken-rosewall/r075,2609.402,2618.396,Lew Hoad,lew-hoad/h132,2572.6684,2563.6744,Paris,36 62 64 60
1958.09.27,Tony Trabert,tony-trabert/t094,2584.9299,2585.2999,Paul Remy,paul-remy/re29,1862.6389,1858.6614,Wembley,62 86
1958.09.27,Jack Kramer,jack-kramer/kg10,2566.1794,2567.1514,George Worthington,george-worthington/w793,2024.9886,2014.5396,Wembley,36 63 63
1958.09.27,Frank Sedgman,frank-sedgman/s248,2578.0001,2578.2981,Jack Arkinstall,jack-arkinstall/ad75,1814.6095,1811.406,Wembley,36 61 64
1958.09.27,Ken Rosewall,ken-rosewall/r075,2618.396,2618.57,Peter Cawthorn,peter-cawthorn/ci84,1757.269,1755.3985,Wembley,63 64
1958.09.27,Tony Trabert,tony-trabert/t094,2585.2999,2594.8019,Jack Kramer,jack-kramer/kg10,2567.1514,2557.6494,Wembley,75 64
1958.09.27,Frank Sedgman,frank-sedgman/s248,2578.2981,2587.2461,Pancho Segura,pancho-segura/s246,2539.88,2530.932,Wembley,63 64
1958.09.27,Richard Pancho Gonzales,richard-pancho-gonzales/g077,2633.6847,2633.6947,Bill Moss,bill-moss/mr05,1235.593,1235.4855,Wembley,62 64
1958.09.27,Tony Trabert,tony-trabert/t094,2594.8019,2605.4539,Ken Rosewall,ken-rosewall/r075,2618.57,2607.918,Wembley,75 16 61 16 75
1958.09.27,Frank Sedgman,frank-sedgman/s248,2587.2461,2598.5161,Richard Pancho Gonzales,richard-pancho-gonzales/g077,2633.6947,2622.4247,Wembley,46 63 108 64
1958.09.27,Richard Pancho Gonzales,richard-pancho-gonzales/g077,2622.4247,2632.0267,Ken Rosewall,ken-rosewall/r075,2607.918,2598.316,Wembley,108 06 75
1958.09.27,Frank Sedgman,frank-sedgman/s248,2598.5161,2608.7061,Tony Trabert,tony-trabert/t094,2605.4539,2595.2639,Wembley,64 63 64
