1915.08.16,Bert ST. John,bert-st.-john/sv86,1392.5,1520.038,L. Bonnington,l.-bonnington/bq82,1461.1495,1333.6115,Australasian Championships,60 64 62
1915.08.16,Clarence Todd,clarence-todd/tf06,1500,1607.5,Unknown Bassett,unknown-bassett/br40,1500,1392.5,Australasian Championships,46 86 75 63
1915.08.16,Bert ST. John,bert-st.-john/sv86,1520.038,1621.6255,F. Peach,f.-peach/pj71,1500,1398.4125,Australasian Championships,64 64 62
1915.08.16,W.H. Smith,w.h.-smith/sv16,1500,1607.5,G. Highett,g.-highett/hf23,1500,1392.5,Australasian Championships,60 63 63
1915.08.16,Horace Rice,horace-rice/rf87,1892.891,1915.1865,T.R. Quill,t.r.-quill/q971,1500.4515,1478.156,Australasian Championships,63 64 60
1915.08.16,Gordon Lowe,gordon-lowe/lf73,1845.4835,1873.498,Unknown Turner,unknown-turner/tf17,1500,1471.9855,Australasian Championships,86 62 60
1915.08.16,F. Lendrum,f.-lendrum/lg52,1500,1607.5,Unknown Briggs,unknown-briggs/br41,1500,1392.5,Australasian Championships,64 36 75 60
1915.08.16,R. Goodman,r.-goodman/gh75,1500,1576.6475,M. Graham,m.-graham/gi10,1392.5,1315.8525,Australasian Championships,46 63 62 86
1915.08.16,Clarence Todd,clarence-todd/tf06,1607.5,1715.0,W.H. Smith,w.h.-smith/sv16,1607.5,1500.0,Australasian Championships,62 63 62
1915.08.16,Bert ST. John,bert-st.-john/sv86,1621.6255,1715.903,R. Goodman,r.-goodman/gh75,1576.6475,1482.37,Australasian Championships,63 63 62
1915.08.16,Horace Rice,horace-rice/rf87,1915.1865,1948.662,F. Lendrum,f.-lendrum/lg52,1607.5,1574.0245,Australasian Championships,63 62 63
1915.08.16,Gordon Lowe,gordon-lowe/lf73,1873.498,1897.965,R. Highett,r.-highett/hf22,1500,1475.533,Australasian Championships,63 62 63
1915.08.16,Horace Rice,horace-rice/rf87,1948.662,1995.2955,Clarence Todd,clarence-todd/tf06,1715.0,1668.3665,Australasian Championships,46 26 86 61 75
1915.08.16,Gordon Lowe,gordon-lowe/lf73,1897.965,1955.7785,Bert ST. John,bert-st.-john/sv86,1715.903,1658.0895,Australasian Championships,36 63 75 75
1915.08.16,Gordon Lowe,gordon-lowe/lf73,1955.7785,2074.91,Horace Rice,horace-rice/rf87,1995.2955,1876.164,Australasian Championships,46 61 61 64
1915.08.31,I. Wright,i.-wright/w941,1940.793,1952.2095,R. Sommer,r.-sommer/sv90,1416.537,1405.1205,US Championships,60 60 60
1915.08.31,W.H. Wood,w.h.-wood/w960,1500,1607.5,R. Stoddart,r.-stoddart/sv88,1500,1392.5,US Championships,63 36 75 61
1915.08.31,G. Wightman,g.-wightman/w943,1541.2585,1636.6325,C. MacMullen,c.-macmullen/mt40,1500,1404.626,US Championships,63 61 57 64
1915.08.31,E. Whitney,e.-whitney/w956,1883.13,1949.7585,H. Throckmorton,h.-throckmorton/te83,1737.403,1670.7745,US Championships,63 46 64 61
1915.08.31,D. Watters,d.-watters/w916,1492.4535,1598.169,A. Man,a.-man/mt41,1486.412,1380.6965,US Championships,46 16 86 86 62
1915.08.31,Watson Washburn,watson-washburn/w835,2071.9645,2080.8655,E. Newhouse,e.-newhouse/n885,1500,1491.099,US Championships,60 62 64
1915.08.31,H. Voshell,h.-voshell/v966,1583.3985,1652.091,R. McClave,r.-mcclave/mt34,1445.82,1377.1275,US Championships,63 64 62
1915.08.31,P. Vaile,p.-vaile/v986,1471.362,1587.3115,S. McAllister,s.-mcallister/mt50,1500,1384.0505,US Championships,26 64 75 64
1915.08.31,E. Toland,e.-toland/tf08,1500,1607.5,Fenimore Cady,fenimore-cady/cl12,1500,1392.5,US Championships,63 64 26 86
1915.08.31,Ronald Thomas,ronald-thomas/td96,1584.022,1667.141,S. Palmer,s.-palmer/pk15,1500,1416.881,US Championships,62 63 61
1915.08.31,H. Tallant,h.-tallant/tf18,1588.9025,1670.667,J.W. Anderson,j.w.-anderson/af03,1500,1418.2355,US Championships,64 60 86
1915.08.31,R. Stevens,r.-stevens/sv85,1656.2835,1720.2675,A. Kidder,a.-kidder/kh12,1500,1436.016,US Championships,64 36 62 63
1915.08.31,P. Roberts,p.-roberts/rf98,1361.6475,1495.7645,W. Roberts,w.-roberts/rf91,1453.7105,1319.5935,US Championships,63 06 64 46 64
1915.08.31,W. Rand,w.-rand/rf90,1500,1581.0335,J. Thomas,j.-thomas/tf20,1408.5175,1327.484,US Championships,60 79 61 57 64
1915.08.31,Bernon Prentice,bernon-prentice/pk13,1458.4835,1493.5285,W. Bourne,w.-bourne/br39,1160.6655,1125.6205,US Championships,60 63 61
1915.08.31,H. Plummer,h.-plummer/pk19,1477.1025,1591.3535,L. Van Deventer,l.-van-deventer/v980,1500,1385.749,US Championships,64 63 62
1915.08.31,W. Plitt,w.-plitt/pk17,1500,1607.5,B. Da Silva,b.-da-silva/df56,1500,1392.5,US Championships,61 60 62
1915.08.31,G. Phillips,g.-phillips/pk16,1456.1615,1576.54,Herbert Bowman,herbert-bowman/bp00,1500,1379.6215,US Championships,62 64 60
1915.08.31,B. Phillips,b.-phillips/pk11,1500,1607.5,T. Andrews,t.-andrews/af08,1500,1392.5,US Championships,63 62 63
1915.08.31,J. Pfaffman,j.-pfaffman/pk12,1500,1607.5,R. Brown,r.-brown/br45,1500,1392.5,US Championships,63 36 60 62
1915.08.31,C. Pell,c.-pell/pk14,1479.7255,1593.2025,L.F. Turnbull,l.f.-turnbull/tf19,1500,1386.523,US Championships,61 97 97
1915.08.31,T. Pell,t.-pell/pj83,1853.804,1887.86,A. Fox,a.-fox/fb30,1549.794,1515.738,US Championships,62 60 62
1915.08.31,E. Peaslee,e.-peaslee/pk00,1332.515,1486.2615,R. Rand,r.-rand/rf93,1500,1346.2535,US Championships,63 62 62
1915.08.31,W. Pate,w.-pate/pj96,1725.6425,1773.91,B. Drake,b.-drake/df50,1500,1451.7325,US Championships,36 63 75 62
1915.08.31,Harry Parker,harry-parker/pj82,1727.556,1775.415,C. Chambers,c.-chambers/cl00,1500,1452.141,US Championships,63 46 62 63
1915.08.31,J. O'Neale,j.-o'neale/o609,1500,1576.6475,W. Blair,w.-blair/br42,1392.5,1315.8525,US Championships,97 62 62
1915.08.31,Maurice McLoughlin,maurice-mcloughlin/mt38,2503.2716,2503.3516,E. Kuhn,e.-kuhn/kg90,1500,1499.14,US Championships,61 61 60
1915.08.31,Dean Mathey,dean-mathey/mq86,1892.4395,1914.735,D. Roberts,d.-roberts/rf97,1500,1477.7045,US Championships,61 75 60
1915.08.31,Robert LeRoy,robert-leroy/lg28,1989.684,1998.4775,W. Rosenbaum,w.-rosenbaum/rf82,1415.4405,1406.647,US Championships,75 63 60
1915.08.31,Bernard Law,bernard-law/lf93,1707.6685,1825.5745,Cedric Major,cedric-major/ms36,1742.993,1625.087,US Championships,46 62 64 75
1915.08.31,L. Knox,l.-knox/kh07,1500,1591.59,J. Geary,j.-geary/gi11,1445.7555,1354.1655,US Championships,64 46 64 62
1915.08.31,C. Johnston,c.-johnston/j678,1392.5,1521.543,A. Cragin,a.-cragin/cl01,1466.4385,1337.3955,US Championships,86 108 86
1915.08.31,Bill Johnston,bill-johnston/j665,1816.222,1892.461,Harold Hackett,harold-hackett/hf24,1707.2385,1630.9995,US Championships,61 62 108
1915.08.31,Wallace Johnson,wallace-johnson/j664,2185.6086,2190.4676,E. Hooker,e.-hooker/hf25,1500,1495.141,US Championships,60 61 61
1915.08.31,F. Inman,f.-inman/i384,1905.447,1930.516,C. Childs,c.-childs/cl13,1536.894,1511.825,US Championships,75 62 63
1915.08.31,Frank Hunter,frank-hunter/he41,1500,1607.5,M. Sargeant,m.-sargeant/sv87,1500,1392.5,US Championships,63 62 62
1915.08.31,H. Harvey,h.-harvey/hf18,1515.6305,1618.508,I. Riker,i.-riker/rf92,1500,1397.1225,US Championships,75 61 46 75
1915.08.31,F. Harris,f.-harris/hf17,1730.6735,1777.221,C. Russell,c.-russell/rf99,1496.603,1450.0555,US Championships,61 61 61
1915.08.31,W. Hall,w.-hall/hf06,1547.128,1640.782,C. Burrows,c.-burrows/br34,1500,1406.346,US Championships,62 06 61 62
1915.08.31,L. Grinnell,l.-grinnell/gi12,1500,1607.5,T. Robinson,t.-robinson/rf96,1500,1392.5,US Championships,62 62 62
1915.08.31,C. Griffin,c.-griffin/gh58,1812.223,1854.1265,S. Thayer,s.-thayer/te84,1554.094,1512.1905,US Championships,62 62 61
1915.08.31,L. Graves,l.-graves/gh94,1500,1615.799,N. Johnson,n.-johnson/j680,1528.1435,1412.3445,US Championships,63 64 64
1915.08.31,Charles Garland,charles-garland/gh68,1412.0435,1568.9075,W. Dickson Cunningham,w.-dickson-cunningham/cl11,1592.708,1435.844,US Championships,63 26 75 63
1915.08.31,F. Frelinghuysen,f.-frelinghuysen/fb28,1449.6255,1524.4025,E. Thomas,e.-thomas/tf14,1335.181,1260.404,US Championships,62 61 86
1915.08.31,G. Dionne,g.-dionne/df44,1500.0,1607.5,M. De Camp,m.-de-camp/df57,1500,1392.5,US Championships,75 62 119
1915.08.31,W. Dawson,w.-dawson/df55,1500,1607.5,J. Mckay,j.-mckay/mt30,1500,1392.5,US Championships,63 26 46 62 61
1915.08.31,A. Copeland,a.-copeland/cl04,1500,1607.5,J. Eaton,j.-eaton/e969,1500,1392.5,US Championships,64 57 60 64
1915.08.31,A. Coffey,a.-coffey/cl06,1500,1584.5595,H. Swain,h.-swain/sv89,1421.0735,1336.514,US Championships,64 64 61
1915.08.31,G. Church,g.-church/cl07,1924.152,1943.201,G. McKearin,g.-mckearin/mt43,1500,1480.951,US Championships,61 60 62
1915.08.31,George Caner,george-caner/ck74,1556.1365,1629.2365,James Stewart Cushman,james-stewart-cushman/cl10,1435.4355,1362.3355,US Championships,62 62 61
1915.08.31,W. Campbell,w.-campbell/ck89,1500,1607.5,F. Doubleday,f.-doubleday/df58,1500,1392.5,US Championships,63 62 75
1915.08.31,C. Bull,c.-bull/br18,1630.3115,1713.0435,L. Mahan,l.-mahan/mt31,1544.935,1462.203,US Championships,46 1210 62 64
1915.08.31,J. Blackstone,j.-blackstone/br44,1500,1625.861,F. Fall,f.-fall/fb19,1562.7585,1436.8975,US Championships,75 46 75 61
1915.08.31,Craig Biddle,craig-biddle/bq54,1615.885,1690.275,H. Forster,h.-forster/fb29,1500,1425.61,US Championships,62 63 62
1915.08.31,Karl Behr,karl-behr/br30,2133.4718,2169.1403,H. Martin,h.-martin/mt21,1839.5925,1803.924,US Championships,61 63 86
1915.08.31,A. Bassford,a.-bassford/br35,1500,1630.8275,G. Nettleton,g.-nettleton/n886,1580.281,1449.4535,US Championships,64 79 62 75
1915.08.31,R. Baggs,r.-baggs/br05,1498.151,1606.1885,C. Boocock,c.-boocock/br46,1500,1391.9625,US Championships,60 61 62
1915.08.31,W. Anderson,w.-anderson/af01,1664.174,1713.1295,S. Henshaw,s.-henshaw/hf26,1441.8425,1392.887,US Championships,64 61 61
1915.08.31,J. Allen,j.-allen/af04,1481.897,1594.729,P. Gibbons,p.-gibbons/gi01,1500,1387.168,US Championships,79 61 57 60 75
1915.08.31,Fred Alexander,fred-alexander/af02,2283.9391,2309.818,Nathaniel Niles,nathaniel-niles/n865,1983.8575,1949.178,US Championships,63 57 75 810 62
1915.08.31,J. Adoue,j.-adoue/ae97,1500,1607.5,P. Brinsmade,p.-brinsmade/br43,1500,1392.5,US Championships,36 62 63 61
1915.08.31,I. Wright,i.-wright/w941,1952.2095,1983.3845,George Caner,george-caner/ck74,1629.2365,1598.0615,US Championships,62 06 61 63
1915.08.31,Richard Norris Williams,richard-norris-williams/w830,2451.3618,2454.1542,F. Inman,f.-inman/i384,1930.516,1918.8845,US Championships,75 61 97
1915.08.31,G. Wightman,g.-wightman/w943,1636.6325,1735.554,E. Toland,e.-toland/tf08,1607.5,1508.5785,US Championships,63 61 61
1915.08.31,D. Watters,d.-watters/w916,1598.169,1726.8035,H. Tallant,h.-tallant/tf18,1670.667,1542.0325,US Championships,61 62 64
1915.08.31,Watson Washburn,watson-washburn/w835,2080.8655,2149.5365,G. Church,g.-church/cl07,1943.201,1874.53,US Championships,75 911 64 62
1915.08.31,H. Voshell,h.-voshell/v966,1652.091,1722.611,C. Johnston,c.-johnston/j678,1521.543,1451.023,US Championships,62 86 62
1915.08.31,Ronald Thomas,ronald-thomas/td96,1667.141,1757.183,A. Copeland,a.-copeland/cl04,1607.5,1517.458,US Championships,36 62 64 63
1915.08.31,W. Rand,w.-rand/rf90,1581.0335,1696.338,W. Plitt,w.-plitt/pk17,1607.5,1492.1955,US Championships,60 60 62
1915.08.31,Bernon Prentice,bernon-prentice/pk13,1493.5285,1627.366,A. Coffey,a.-coffey/cl06,1584.5595,1450.722,US Championships,68 75 75 61
1915.08.31,B. Phillips,b.-phillips/pk11,1607.5,1714.613,R. Baggs,r.-baggs/br05,1606.1885,1499.0755,US Championships,79 62 46 64 60
1915.08.31,J. Pfaffman,j.-pfaffman/pk12,1607.5,1684.1475,C. Post,c.-post/pk18,1500,1423.3525,US Championships,63 60 60
1915.08.31,T. Pell,t.-pell/pj83,1887.86,2013.463,E. Whitney,e.-whitney/w956,1949.7585,1824.1555,US Championships,63 64 06 63
1915.08.31,W. Pate,w.-pate/pj96,1773.91,1839.958,J. Blackstone,j.-blackstone/br44,1625.861,1559.813,US Championships,61 61 64
1915.08.31,Maurice McLoughlin,maurice-mcloughlin/mt38,2503.3516,2504.1096,Dean Mathey,dean-mathey/mq86,1914.735,1906.5865,US Championships,61 62 86
1915.08.31,Robert LeRoy,robert-leroy/lg28,1998.4775,2047.261,Harry Parker,harry-parker/pj82,1775.415,1726.6315,US Championships,62 64 108
1915.08.31,Bernard Law,bernard-law/lf93,1825.5745,1869.2195,J. O'Neale,j.-o'neale/o609,1576.6475,1533.0025,US Championships,46 62 64 64
1915.08.31,Bill Johnston,bill-johnston/j665,1892.461,1927.2695,C. Pell,c.-pell/pk14,1593.2025,1558.394,US Championships,86 64 64
1915.08.31,Frank Hunter,frank-hunter/he41,1607.5,1745.358,W. Anderson,w.-anderson/af01,1713.1295,1575.2715,US Championships,75 46 46 61 61
1915.08.31,F. Harris,f.-harris/hf17,1777.221,1834.153,H. Plummer,h.-plummer/pk19,1591.3535,1534.4215,US Championships,64 62 36 63
1915.08.31,W. Hall,w.-hall/hf06,1640.782,1845.7845,Wallace Johnson,wallace-johnson/j664,2190.4676,1985.4651,US Championships,1816 46 62 46 62
1915.08.31,L. Grinnell,l.-grinnell/gi12,1607.5,1710.313,L. Knox,l.-knox/kh07,1591.59,1488.777,US Championships,75 62 61
1915.08.31,C. Griffin,c.-griffin/gh58,1854.1265,1891.2355,Charles Garland,charles-garland/gh68,1568.9075,1531.7985,US Championships,63 26 62 63
1915.08.31,F. Frelinghuysen,f.-frelinghuysen/fb28,1524.4025,1659.1,H. Harvey,h.-harvey/hf18,1618.508,1483.8105,US Championships,36 61 97 46 64
1915.08.31,G. Dionne,g.-dionne/df44,1607.5,1709.0445,P. Vaile,p.-vaile/v986,1587.3115,1485.767,US Championships,63 60 62
1915.08.31,W. Dawson,w.-dawson/df55,1607.5,1717.451,L. Graves,l.-graves/gh94,1615.799,1505.848,US Championships,62 86 108
1915.08.31,W. Campbell,w.-campbell/ck89,1607.5,1711.2375,J. Allen,j.-allen/af04,1594.729,1490.9915,US Championships,75 63 36 62
1915.08.31,C. Bull,c.-bull/br18,1713.0435,1796.657,A. Bassford,a.-bassford/br35,1630.8275,1547.214,US Championships,46 64 64 62
1915.08.31,Craig Biddle,craig-biddle/bq54,1690.275,1743.122,E. Peaslee,e.-peaslee/pk00,1486.2615,1433.4145,US Championships,62 61 60
1915.08.31,Karl Behr,karl-behr/br30,2169.1403,2177.1168,G. Phillips,g.-phillips/pk16,1576.54,1568.5635,US Championships,60 63 64
1915.08.31,L. Beekman,l.-beekman/bq76,1881.668,1920.6905,W.H. Wood,w.h.-wood/w960,1607.5,1568.4775,US Championships,61 61 62
1915.08.31,Fred Alexander,fred-alexander/af02,2309.818,2311.4409,P. Roberts,p.-roberts/rf98,1495.7645,1493.335,US Championships,64 61 61
1915.08.31,J. Adoue,j.-adoue/ae97,1607.5,1747.2715,R. Stevens,r.-stevens/sv85,1720.2675,1580.496,US Championships,63 16 64 26 75
1915.08.31,I. Wright,i.-wright/w941,1983.3845,2014.366,F. Frelinghuysen,f.-frelinghuysen/fb28,1659.1,1628.1185,US Championships,63 62 60
1915.08.31,Richard Norris Williams,richard-norris-williams/w830,2454.1542,2455.8524,W. Hall,w.-hall/hf06,1845.7845,1838.453,US Championships,63 97 26 61
1915.08.31,W. Rand,w.-rand/rf90,1696.338,1844.172,W. Pate,w.-pate/pj96,1839.958,1692.124,US Championships,61 64 61
1915.08.31,Bernon Prentice,bernon-prentice/pk13,1627.366,1760.15,B. Phillips,b.-phillips/pk11,1714.613,1581.829,US Championships,60 63 57 60
1915.08.31,J. Pfaffman,j.-pfaffman/pk12,1684.1475,1799.624,W. Campbell,w.-campbell/ck89,1711.2375,1595.761,US Championships,75 64 61
1915.08.31,T. Pell,t.-pell/pj83,2013.463,2159.3835,Watson Washburn,watson-washburn/w835,2149.5365,2003.616,US Championships,64 64 63
1915.08.31,Maurice McLoughlin,maurice-mcloughlin/mt38,2504.1096,2504.8896,L. Beekman,l.-beekman/bq76,1920.6905,1912.3055,US Championships,62 36 62 62
1915.08.31,Bernard Law,bernard-law/lf93,1869.2195,1938.9225,G. Wightman,g.-wightman/w943,1735.554,1665.851,US Championships,57 26 64 75 64
1915.08.31,Bill Johnston,bill-johnston/j665,1927.2695,1980.912,D. Watters,d.-watters/w916,1726.8035,1673.161,US Championships,62 61 62
1915.08.31,Frank Hunter,frank-hunter/he41,1745.358,1842.1725,G. Dionne,g.-dionne/df44,1709.0445,1612.23,US Championships,108 63 26 26 63
1915.08.31,C. Griffin,c.-griffin/gh58,1891.2355,1950.984,W. Dawson,w.-dawson/df55,1717.451,1657.7025,US Championships,63 75 62
1915.08.31,C. Bull,c.-bull/br18,1796.657,1915.1865,F. Harris,f.-harris/hf17,1834.153,1715.6235,US Championships,86 75 57 62
1915.08.31,Craig Biddle,craig-biddle/bq54,1743.122,1840.9685,L. Grinnell,l.-grinnell/gi12,1710.313,1612.4665,US Championships,61 62 62
1915.08.31,Karl Behr,karl-behr/br30,2177.1168,2247.8088,Robert LeRoy,robert-leroy/lg28,2047.261,1976.569,US Championships,46 64 64 64
1915.08.31,Fred Alexander,fred-alexander/af02,2311.4409,2316.8441,H. Voshell,h.-voshell/v966,1722.611,1714.4625,US Championships,64 64 62
1915.08.31,J. Adoue,j.-adoue/ae97,1747.2715,1857.6955,Ronald Thomas,ronald-thomas/td96,1757.183,1646.759,US Championships,62 75 64
1915.08.31,I. Wright,i.-wright/w941,2014.366,2057.0005,Bernon Prentice,bernon-prentice/pk13,1760.15,1717.5155,US Championships,75 64 61
1915.08.31,Richard Norris Williams,richard-norris-williams/w830,2455.8524,2457.6055,J. Adoue,j.-adoue/ae97,1857.6955,1849.9555,US Championships,63 61 60
1915.08.31,W. Rand,w.-rand/rf90,1844.172,1950.726,Craig Biddle,craig-biddle/bq54,1840.9685,1734.4145,US Championships,36 63 63 26 63
1915.08.31,T. Pell,t.-pell/pj83,2159.3835,2203.9315,C. Bull,c.-bull/br18,1915.1865,1870.6385,US Championships,61 62 63
1915.08.31,Maurice McLoughlin,maurice-mcloughlin/mt38,2504.8896,2510.1396,Fred Alexander,fred-alexander/af02,2316.8441,2280.3431,US Championships,63 62 16 63
1915.08.31,Bill Johnston,bill-johnston/j665,1980.912,2155.5995,Karl Behr,karl-behr/br30,2247.8088,2098.3703,US Championships,36 63 62 75
1915.08.31,Frank Hunter,frank-hunter/he41,1842.1725,1937.1595,J. Pfaffman,j.-pfaffman/pk12,1799.624,1704.637,US Championships,36 63 63 26 63
1915.08.31,C. Griffin,c.-griffin/gh58,1950.984,2054.915,Bernard Law,bernard-law/lf93,1938.9225,1834.9915,US Championships,62 64 62
1915.08.31,Richard Norris Williams,richard-norris-williams/w830,2457.6055,2460.3685,W. Rand,w.-rand/rf90,1950.726,1938.2345,US Championships,86 75 61
1915.08.31,T. Pell,t.-pell/pj83,2203.9315,2269.4706,I. Wright,i.-wright/w941,2057.0005,1990.673,US Championships,63 61 61
1915.08.31,Maurice McLoughlin,maurice-mcloughlin/mt38,2510.1396,2510.9636,Frank Hunter,frank-hunter/he41,1937.1595,1928.3015,US Championships,62 64 60
1915.08.31,Bill Johnston,bill-johnston/j665,2155.5995,2234.096,C. Griffin,c.-griffin/gh58,2054.915,1976.4185,US Championships,62 61 68 57 61
1915.08.31,Maurice McLoughlin,maurice-mcloughlin/mt38,2510.9636,2515.1576,T. Pell,t.-pell/pj83,2269.4706,2233.8543,US Championships,62 60 75
1915.08.31,Bill Johnston,bill-johnston/j665,2234.096,2383.7573,Richard Norris Williams,richard-norris-williams/w830,2460.3685,2424.8538,US Championships,57 64 57 62 62
1915.08.31,Bill Johnston,bill-johnston/j665,2383.7573,2448.0677,Maurice McLoughlin,maurice-mcloughlin/mt38,2515.1576,2501.6976,US Championships,16 60 75 108
