1950.01.21,Donald Tregonning,donald-tregonning/td73,1520.21,1620.2495,Anthony Maggs,anthony-maggs/mr00,1494.926,1394.8865,Australian Championships,64 75 61
1950.01.21,Keith Rogers,keith-rogers/re41,1669.033,1729.921,Glen Sheil,glen-sheil/ss95,1500,1439.112,Australian Championships,63 46 61 108
1950.01.21,Ian Occleshaw,ian-occleshaw/o552,1500,1607.5,H. Raward,h.-raward/re71,1500,1392.5,Australian Championships,60 61 60
1950.01.21,Clive Wilderspin,clive-wilderspin/w751,1586.774,1669.119,Allan Kendal,allan-kendal/k611,1500,1417.655,Australian Championships,64 46 64 63
1950.01.21,Harold Skennar,harold-skennar/st63,1487.229,1573.573,Philip Brophy,philip-brophy/bo56,1414.645,1328.301,Australian Championships,64 62 63
1950.01.21,Ian Occleshaw,ian-occleshaw/o552,1607.5,1747.8305,Jack Crawford,jack-crawford/ci73,1722.355,1582.0245,Australian Championships,16 75 36 63 64
1950.01.21,John Mehaffey,john-mehaffey/mq48,1605.6725,1717.4725,Donald Tregonning,donald-tregonning/td73,1620.2495,1508.4495,Australian Championships,60 64 36 63
1950.01.21,Ken McGregor,ken-mcgregor/mq65,1464.5895,1578.5395,Ian Ayre,ian-ayre/ad80,1486.4335,1372.4835,Australian Championships,63 62 61
1950.01.21,Harry Hopman,harry-hopman/hd04,1659.8237,1787.7702,Keith Rogers,keith-rogers/re41,1729.921,1601.9745,Australian Championships,64 26 62 63
1950.01.21,Don Candy,don-candy/c182,1467.836,1584.8175,Lex Vinson,lex-vinson/v914,1500,1383.0185,Australian Championships,60 60 61
1950.01.21,Lionel Brodie,lionel-brodie/bo80,1836.69,1843.9785,Eric Stewart,eric-stewart/st20,1226.778,1219.4895,Australian Championships,61 108 62
1950.01.21,Mervyn Rose,mervyn-rose/r163,1502.279,1609.1125,John Barrett,john-barrett/b226,1500,1393.1665,Australian Championships,61 46 62 63
1950.01.21,Colin Long,colin-long/le95,1967.7755,1974.505,Ron Clements,ron-clements/ci36,1343.179,1336.4495,Australian Championships,61 64 62
1950.01.21,George Worthington,george-worthington/w793,1801.1505,1835.658,Peter Cawthorn,peter-cawthorn/ci84,1500,1465.4925,Australian Championships,63 63 63
1950.01.21,Oswald William Thoma Sidwell,oswald-william-thoma-sidwell/st34,1950.1025,1958.1005,Peter Molloy,peter-molloy/mq64,1357.928,1349.93,Australian Championships,62 46 75 75
1950.01.21,John Bromwich,john-bromwich/bo44,2423.2846,2423.7178,David Yates,david-yates/y233,1500,1498.667,Australian Championships,63 61 75
1950.01.21,Eric William Sturgess,eric-william-sturgess/s261,2409.6238,2409.9073,Frank Lonergan,frank-lonergan/le96,1384.0505,1383.2765,Australian Championships,63 60 61
1950.01.21,Jaroslav Drobny,jaroslav-drobny/d531,2439.1775,2439.3561,Ron Reid,ron-reid/re40,1380.03,1379.385,Australian Championships,63 62 62
1950.01.21,Mervyn Rose,mervyn-rose/r163,1609.1125,1747.7015,John Mehaffey,john-mehaffey/mq48,1717.4725,1578.8835,Australian Championships,62 63 86
1950.01.21,Colin Long,colin-long/le95,1974.505,2008.346,Clive Wilderspin,clive-wilderspin/w751,1669.119,1635.278,Australian Championships,86 61 16 64
1950.01.21,George Worthington,george-worthington/w793,1835.658,1929.097,Harry Hopman,harry-hopman/hd04,1787.7702,1694.3312,Australian Championships,36 63 60 36 61
1950.01.21,Frank Sedgman,frank-sedgman/s248,2371.5479,2374.808,Ian Occleshaw,ian-occleshaw/o552,1747.8305,1741.058,Australian Championships,60 61 60
1950.01.21,Oswald William Thoma Sidwell,oswald-william-thoma-sidwell/st34,1958.1005,2032.9635,Lionel Brodie,lionel-brodie/bo80,1843.9785,1769.1155,Australian Championships,62 108 57 62
1950.01.21,John Bromwich,john-bromwich/bo44,2423.7178,2424.3649,Harold Skennar,harold-skennar/st63,1573.573,1571.5735,Australian Championships,61 61 60
1950.01.21,Eric William Sturgess,eric-william-sturgess/s261,2409.9073,2410.74,Don Candy,don-candy/c182,1584.8175,1582.5385,Australian Championships,61 61 46 63
1950.01.21,Ken McGregor,ken-mcgregor/mq65,1578.5395,1791.6475,Jaroslav Drobny,jaroslav-drobny/d531,2439.3561,2380.4604,Australian Championships,119 61 63
1950.01.21,Ken McGregor,ken-mcgregor/mq65,1791.6475,1937.912,George Worthington,george-worthington/w793,1929.097,1782.8325,Australian Championships,63 86 61
1950.01.21,Oswald William Thoma Sidwell,oswald-william-thoma-sidwell/st34,2032.9635,2133.1965,Colin Long,colin-long/le95,2008.346,1908.113,Australian Championships,75 75 75
1950.01.21,Frank Sedgman,frank-sedgman/s248,2374.808,2432.3585,John Bromwich,john-bromwich/bo44,2424.3649,2385.1012,Australian Championships,57 63 64 61
1950.01.21,Eric William Sturgess,eric-william-sturgess/s261,2410.74,2412.7295,Mervyn Rose,mervyn-rose/r163,1747.7015,1742.219,Australian Championships,75 64 61
1950.01.21,Ken McGregor,ken-mcgregor/mq65,1937.912,2098.13,Oswald William Thoma Sidwell,oswald-william-thoma-sidwell/st34,2133.1965,1972.9785,Australian Championships,75 97 63
1950.01.21,Frank Sedgman,frank-sedgman/s248,2432.3585,2462.6213,Eric William Sturgess,eric-william-sturgess/s261,2412.7295,2376.4305,Australian Championships,62 63 68 46 64
1950.01.21,Frank Sedgman,frank-sedgman/s248,2462.6213,2467.8881,Ken McGregor,ken-mcgregor/mq65,2098.13,2072.5665,Australian Championships,63 64 46 61
1950.05.19,George Worthington,george-worthington/w793,1782.8325,1820.35,Jean Claude Molinari,jean-claude-molinari/m257,1500,1462.4825,French Championships,62 63 60
1950.05.19,Howard Walton,howard-walton/w788,1626.0115,1749.959,Christian Boussus,christian-boussus/bo58,1682.1343,1558.1868,French Championships,64 62 57 75
1950.05.19,Marcel H. Schaff,marcel-h.-schaff/st10,1302.4365,1407.3565,Louis Chevallier,louis-chevallier/cj02,1293.7075,1188.7875,French Championships,63 63 62
1950.05.19,Mervyn Rose,mervyn-rose/r163,1742.219,1787.154,Carlo Della Vida,carlo-della-vida/dd71,1500,1455.065,French Championships,75 61 62
1950.05.19,Adrian Quist,adrian-quist/q964,2360.6599,2360.9474,Andre Najar,andre-najar/n802,1277.819,1277.26,French Championships,62 63 61
1950.05.19,Jacques Peten,jacques-peten/pi51,1797.6675,1832.734,Roland Dubuisson,roland-dubuisson/dd46,1500,1464.9335,French Championships,63 46 75 63
1950.05.19,Henri Pellizza,henri-pellizza/p578,1344.7055,1518.662,Philippe Chatrier,philippe-chatrier/ci59,1607.543,1433.5865,French Championships,60 75 61
1950.05.19,Georges Pasquier,georges-pasquier/pi36,1500,1607.5,Lord Mexborough,lord-mexborough/mq97,1500,1392.5,French Championships,60 64 60
1950.05.19,Josip Palada,josip-palada/pi39,1970.7291,2006.5266,Narendra Nath,narendra-nath/n800,1677.6545,1641.857,French Championships,62 36 61 63
1950.05.19,Enrique Morea,enrique-morea/mp49,1762.3,1803.451,Emile Bayon,emile-bayon/bo49,1500,1458.849,French Championships,16 61 60 64
1950.05.19,Dragutin Mitic,dragutin-mitic/mq81,2061.666,2071.0615,Michel Dulac De Fugeres,michel-dulac-de-fugeres/dd69,1500,1490.6045,French Championships,60 61 61
1950.05.19,Milan Matous,milan-matous/mq83,1561.1675,1650.7795,Pierre Bardey,pierre-bardey/bo72,1500,1410.388,French Championships,61 64 61
1950.05.19,Jacques Jamain,jacques-jamain/j613,1536.464,1661.1855,Robert Van Meegeren,robert-van-meegeren/v903,1595.288,1470.5665,French Championships,63 26 36 61 62
1950.05.19,Jacques Iemetti,jacques-iemetti/i364,1404.282,1488.4975,Richard Bender,richard-bender/bo73,1324.1945,1239.979,French Championships,60 62 62
1950.05.19,Bohuslav Hyks,bohuslav-hyks/hd16,1429.9315,1578.174,Pierre Antoine Grandguillot,pierre-antoine-grandguillot/gg61,1575.121,1426.8785,French Championships,61 61 63
1950.05.19,Tim Horn,tim-horn/hd15,1289.9235,1453.388,Marcel Lemasson,marcel-lemasson/le61,1500,1336.5355,French Championships,63 64 62
1950.05.19,Harry Hopman,harry-hopman/hd04,1694.3312,1724.1517,Robert Colin,robert-colin/cj04,1361.9485,1332.128,French Championships,46 61 61 63
1950.05.19,Robert Haillet,robert-haillet/h131,1500,1620.271,Jean Becker,jean-becker/bo25,1543.43,1423.159,French Championships,62 36 64 62
1950.05.19,Adli El Shafei,adli-el-shafei/e132,1557.104,1606.1025,Jacob Buntmann,jacob-buntmann/bo71,1335.0305,1286.032,French Championships,75 64 63
1950.05.19,Roger Dubuc,roger-dubuc/dd32,1718.354,1781.5855,Arie Avidan-Weiss,arie-avidan-weiss/ad72,1559.0175,1495.786,French Championships,60 62 46 63
1950.05.19,Raymundo Deyro,raymundo-deyro/dd05,1681.1375,1704.8305,Jacques Malosse,jacques-malosse/mq51,1301.082,1277.389,French Championships,61 61 61
1950.05.19,Rolando Del Bello,rolando-del-bello/dd57,1872.9175,1897.4705,Francis Nys,francis-nys/n794,1500,1475.447,French Championships,60 60 62
1950.05.19,Marcello Del Bello,marcello-del-bello/dd55,1769.481,1789.1105,Fernando Olozaga,fernando-olozaga/o545,1351.177,1331.5475,French Championships,26 97 62 62
1950.05.19,Gil De Kermadec,gil-de-kermadec/dd17,1330.322,1445.261,Alain Lemyze,alain-lemyze/le62,1355.5845,1240.6455,French Championships,75 75 61
1950.05.19,Giovanni Cucelli,giovanni-cucelli/ci80,2049.4436,2055.1196,Robert Laval,robert-laval/le57,1392.715,1387.039,French Championships,61 61 62
1950.05.19,Dennis Coombe,dennis-coombe/ci90,1389.8555,1466.7395,Philippe Gajan,philippe-gajan/gg67,1283.28,1206.396,French Championships,64 62 16 62
1950.05.19,Cesar Carmona,cesar-carmona/ci89,1397.5095,1483.1655,Henri Zalzal,henri-zalzal/z410,1322.4745,1236.8185,French Championships,62 63 64
1950.05.19,Giulio Caccia,giulio-caccia/cj03,1500,1607.5,Jacques Hode,jacques-hode/hc89,1500,1392.5,French Championships,61 64 64
1950.05.19,Milan Branovic,milan-branovic/bn99,1378.353,1490.024,Matthew Murphy,matthew-murphy/mq67,1392.5,1280.829,French Championships,57 63 86 46 60
1950.05.19,Benny Berthet,benny-berthet/bo35,1640.481,1708.4425,Crawford Henry,crawford-henry/h148,1500,1432.0385,French Championships,61 63 64
1950.05.19,Felicisimo Ampon,felicisimo-ampon/ad58,1904.0925,1948.6835,Jacques Sanglier,jacques-sanglier/st15,1660.0675,1615.4765,French Championships,61 63 62
1950.05.19,Robert Abdesselam,robert-abdesselam/ad60,1882.098,1898.2015,Henri Doublet,henri-doublet/dd70,1424.621,1408.5175,French Championships,60 61 64
1950.05.19,E. Victor Seixas,e.-victor-seixas/s240,1910.736,1986.201,Marcel Coen,marcel-coen/ci81,1798.8715,1723.4065,French Championships,62 62 64
1950.05.19,Budge Patty,budge-patty/pi25,2368.0283,2368.5255,John Barrett,john-barrett/b226,1393.1665,1392.156,French Championships,62 60 61
1950.05.19,John Bromwich,john-bromwich/bo44,2385.1012,2385.2622,Jacques Weiss,jacques-weiss/w794,1226.95,1226.5845,French Championships,60 61 60
1950.05.19,Arthur Larsen,arthur-larsen/le60,2036.984,2047.6695,Joseph Hackett,joseph-hackett/hc56,1500,1489.3145,French Championships,63 63 64
1950.05.19,Eric William Sturgess,eric-william-sturgess/s261,2376.4305,2377.2331,Jose Roquette,jose-roquette/re64,1500,1498.28,French Championships,61 62 60
1950.05.19,Bill Talbert,bill-talbert/td72,2284.5273,2288.3527,Antoine Gentien,antoine-gentien/gg56,1609.1985,1604.06,French Championships,61 61 62
1950.05.19,George Worthington,george-worthington/w793,1820.35,1844.645,Gil De Kermadec,gil-de-kermadec/dd17,1445.261,1420.966,French Championships,75 46 62 75
1950.05.19,Tony Trabert,tony-trabert/t094,1777.5005,1788.3795,Pierre Geelhand De Merxem,pierre-geelhand-de-merxem/dd72,1244.064,1233.185,French Championships,62 63 32 (RET)
1950.05.19,Jacques Thomas,jacques-thomas/td69,1839.399,1921.013,Howard Walton,howard-walton/w788,1749.959,1668.345,French Championships,86 60 64
1950.05.19,Mervyn Rose,mervyn-rose/r163,1787.154,1908.0485,Jacques Peten,jacques-peten/pi51,1832.734,1711.8395,French Championships,64 61 61
1950.05.19,Adrian Quist,adrian-quist/q964,2360.9474,2363.8726,Raymundo Deyro,raymundo-deyro/dd05,1704.8305,1699.133,French Championships,75 63 63
1950.05.19,Henri Pellizza,henri-pellizza/p578,1518.662,1643.577,Bohuslav Hyks,bohuslav-hyks/hd16,1578.174,1453.259,French Championships,64 86 62
1950.05.19,Tony Mottram,tony-mottram/mq59,1997.553,2067.729,Vladimir Cernik,vladimir-cernik/ci91,1865.6935,1795.5175,French Championships,64 63 61
1950.05.19,Dragutin Mitic,dragutin-mitic/mq81,2071.0615,2096.8615,Benny Berthet,benny-berthet/bo35,1708.4425,1682.6425,French Championships,63 62 62
1950.05.19,Ken McGregor,ken-mcgregor/mq65,2072.5665,2092.153,Aleco Noghes,aleco-noghes/n812,1653.9185,1634.332,French Championships,63 63 46 62
1950.05.19,Fred Kovaleski,fred-kovaleski/k168,1675.483,1763.1385,Giulio Caccia,giulio-caccia/cj03,1607.5,1519.8445,French Championships,97 63 64
1950.05.19,Harry Hopman,harry-hopman/hd04,1724.1517,1767.7752,Jean Ducos De La Haille,jean-ducos-de-la-haille/dd48,1475.103,1431.4795,French Championships,36 75 64 64
1950.05.19,Andre Favieres,andre-favieres/f987,1618.5725,1684.8355,Geoff Paish,geoff-paish/pa78,1471.4265,1405.1635,French Championships,57 60 75 46 61
1950.05.19,Irvin Dorfman,irvin-dorfman/dd28,1670.667,1851.654,Philippe Washer,philippe-washer/w780,1974.8705,1793.8835,French Championships,26 63 79 64 63
1950.05.19,Bernard Destremau,bernard-destremau/dd06,1620.185,1739.7465,Jacques Jamain,jacques-jamain/j613,1661.1855,1541.624,French Championships,86 75 31 (RET)
1950.05.19,Guy Delhomme,guy-delhomme/dd49,1580.3025,1686.018,Paul Remy,paul-remy/re29,1574.2395,1468.524,French Championships,62 62 810 36 61
1950.05.19,Rolando Del Bello,rolando-del-bello/dd57,1897.4705,1935.9555,Robert Haillet,robert-haillet/h131,1620.271,1581.786,French Championships,64 62 75
1950.05.19,Marcello Del Bello,marcello-del-bello/dd55,1789.1105,1823.9405,Milan Branovic,milan-branovic/bn99,1490.024,1455.194,French Championships,57 36 86 75 64
1950.05.19,Sven Davidson,sven-davidson/dd18,1426.4915,1592.9445,Milan Matous,milan-matous/mq83,1650.7795,1484.3265,French Championships,63 64 62
1950.05.19,Giovanni Cucelli,giovanni-cucelli/ci80,2055.1196,2063.2681,Dennis Coombe,dennis-coombe/ci90,1466.7395,1458.591,French Championships,26 62 61 63
1950.05.19,Henri Bolelli,henri-bolelli/bo74,1462.117,1648.5435,Enrique Morea,enrique-morea/mp49,1803.451,1617.0245,French Championships,60 63 63
1950.05.19,Lennart Bergelin,lennart-bergelin/b256,2041.6745,2052.102,F. Zampori,f.-zampori/z416,1500,1489.5725,French Championships,62 75 60
1950.05.19,Felicisimo Ampon,felicisimo-ampon/ad58,1948.6835,1961.949,Tim Horn,tim-horn/hd15,1453.388,1440.1225,French Championships,62 61 62
1950.05.19,Robert Abdesselam,robert-abdesselam/ad60,1898.2015,1940.105,Roland Journu,roland-journu/j619,1640.094,1598.1905,French Championships,75 57 60 62
1950.05.19,E. Victor Seixas,e.-victor-seixas/s240,1986.201,2038.919,Roger Dubuc,roger-dubuc/dd32,1781.5855,1728.8675,French Championships,62 60 62
1950.05.19,Budge Patty,budge-patty/pi25,2368.5255,2368.863,Vladimir Landau,vladimir-landau/le93,1326.3445,1325.6565,French Championships,75 75 61
1950.05.19,John Bromwich,john-bromwich/bo44,2385.2622,2386.5485,Adli El Shafei,adli-el-shafei/e132,1606.1025,1603.1785,French Championships,63 62 61
1950.05.19,Arthur Larsen,arthur-larsen/le60,2047.6695,2056.9145,Cesar Carmona,cesar-carmona/ci89,1483.1655,1473.9205,French Championships,64 64 63
1950.05.19,Eric William Sturgess,eric-william-sturgess/s261,2377.2331,2377.9816,Jacques Iemetti,jacques-iemetti/i364,1488.4975,1486.885,French Championships,64 61 60
1950.05.19,Bill Talbert,bill-talbert/td72,2288.3527,2315.9749,Josip Palada,josip-palada/pi39,2006.5266,1968.8371,French Championships,61 64 16 60
1950.05.19,Frank Sedgman,frank-sedgman/s248,2467.8881,2468.0884,Henri Chabance,henri-chabance/ci60,1500,1498.9465,French Championships,62 62 63
1950.05.19,Jaroslav Drobny,jaroslav-drobny/d531,2380.4604,2381.0857,Roger Dessair,roger-dessair/dd47,1463.665,1462.289,French Championships,63 62 60
1950.05.19,Tony Trabert,tony-trabert/t094,1788.3795,1962.4865,Lennart Bergelin,lennart-bergelin/b256,2052.102,1877.995,French Championships,57 61 75 64
1950.05.19,Ken McGregor,ken-mcgregor/mq65,2092.153,2132.229,Marcello Del Bello,marcello-del-bello/dd55,1823.9405,1783.8645,French Championships,61 61 63
1950.05.19,Fred Kovaleski,fred-kovaleski/k168,1763.1385,1911.3165,Mervyn Rose,mervyn-rose/r163,1908.0485,1759.8705,French Championships,64 68 64 62
1950.05.19,Irvin Dorfman,irvin-dorfman/dd28,1851.654,1913.359,Guy Delhomme,guy-delhomme/dd49,1686.018,1624.313,French Championships,61 61 63
1950.05.19,Bernard Destremau,bernard-destremau/dd06,1739.7465,1947.9955,Adrian Quist,adrian-quist/q964,2363.8726,2258.7962,French Championships,57 119 64 64
1950.05.19,Sven Davidson,sven-davidson/dd18,1592.9445,1780.145,Robert Abdesselam,robert-abdesselam/ad60,1940.105,1752.9045,French Championships,1113 63 63 64
1950.05.19,Giovanni Cucelli,giovanni-cucelli/ci80,2063.2681,2130.7781,Jacques Thomas,jacques-thomas/td69,1921.013,1853.503,French Championships,62 16 108 62
1950.05.19,Felicisimo Ampon,felicisimo-ampon/ad58,1961.949,2035.952,George Worthington,george-worthington/w793,1844.645,1770.642,French Championships,63 63 62
1950.05.19,E. Victor Seixas,e.-victor-seixas/s240,2038.919,2078.479,Harry Hopman,harry-hopman/hd04,1767.7752,1728.2152,French Championships,63 61 61
1950.05.19,Budge Patty,budge-patty/pi25,2368.863,2388.1428,Dragutin Mitic,dragutin-mitic/mq81,2096.8615,2057.4735,French Championships,119 64 62
1950.05.19,John Bromwich,john-bromwich/bo44,2386.5485,2393.823,Rolando Del Bello,rolando-del-bello/dd57,1935.9555,1919.2715,French Championships,63 63 63
1950.05.19,Arthur Larsen,arthur-larsen/le60,2056.9145,2062.8055,Marcel H. Schaff,marcel-h.-schaff/st10,1407.3565,1401.4655,French Championships,63 64 63
1950.05.19,Eric William Sturgess,eric-william-sturgess/s261,2377.9816,2379.7494,Henri Bolelli,henri-bolelli/bo74,1648.5435,1644.7165,French Championships,61 61 60
1950.05.19,Bill Talbert,bill-talbert/td72,2315.9749,2319.3676,Henri Pellizza,henri-pellizza/p578,1643.577,1638.3525,French Championships,61 75 61
1950.05.19,Frank Sedgman,frank-sedgman/s248,2468.0884,2472.1545,Tony Mottram,tony-mottram/mq59,2067.729,2046.272,French Championships,64 64 16 64
1950.05.19,Jaroslav Drobny,jaroslav-drobny/d531,2381.0857,2383.1581,Andre Favieres,andre-favieres/f987,1684.8355,1680.256,French Championships,61 61 61
1950.05.19,E. Victor Seixas,e.-victor-seixas/s240,2078.479,2201.7385,Ken McGregor,ken-mcgregor/mq65,2132.229,2008.9695,French Championships,64 68 1210 63
1950.05.19,Budge Patty,budge-patty/pi25,2388.1428,2406.2763,Giovanni Cucelli,giovanni-cucelli/ci80,2130.7781,2088.7241,French Championships,61 64 63
1950.05.19,John Bromwich,john-bromwich/bo44,2393.823,2396.7783,Sven Davidson,sven-davidson/dd18,1780.145,1773.007,French Championships,63 62 61
1950.05.19,Arthur Larsen,arthur-larsen/le60,2062.8055,2137.475,Bernard Destremau,bernard-destremau/dd06,1947.9955,1873.326,French Championships,63 36 75 64
1950.05.19,Eric William Sturgess,eric-william-sturgess/s261,2379.7494,2386.6993,Fred Kovaleski,fred-kovaleski/k168,1911.3165,1896.0945,French Championships,61 46 64 63
1950.05.19,Bill Talbert,bill-talbert/td72,2319.3676,2343.2771,Felicisimo Ampon,felicisimo-ampon/ad58,2035.952,1998.542,French Championships,36 75 61 63
1950.05.19,Irvin Dorfman,irvin-dorfman/dd28,1913.359,2118.8345,Frank Sedgman,frank-sedgman/s248,2472.1545,2435.7427,French Championships,26 61 36 64 75
1950.05.19,Jaroslav Drobny,jaroslav-drobny/d531,2383.1581,2391.8125,Tony Trabert,tony-trabert/t094,1962.4865,1943.0935,French Championships,63 63 97
1950.05.19,Budge Patty,budge-patty/pi25,2406.2763,2420.1056,Irvin Dorfman,irvin-dorfman/dd28,2118.8345,2082.091,French Championships,06 61 36 61 119
1950.05.19,Eric William Sturgess,eric-william-sturgess/s261,2386.6993,2405.6812,Arthur Larsen,arthur-larsen/le60,2137.475,2093.8945,French Championships,46 63 62 64
1950.05.19,Bill Talbert,bill-talbert/td72,2343.2771,2413.1085,John Bromwich,john-bromwich/bo44,2396.7783,2346.8734,French Championships,62 62 63
1950.05.19,Jaroslav Drobny,jaroslav-drobny/d531,2391.8125,2415.3233,E. Victor Seixas,e.-victor-seixas/s240,2201.7385,2146.0681,French Championships,75 1715 57 64
1950.05.19,Budge Patty,budge-patty/pi25,2420.1056,2455.3807,Bill Talbert,bill-talbert/td72,2413.1085,2375.603,French Championships,26 64 64 1210
1950.05.19,Jaroslav Drobny,jaroslav-drobny/d531,2415.3233,2451.8527,Eric William Sturgess,eric-william-sturgess/s261,2405.6812,2366.1008,French Championships,64 75 36 1210
1950.05.19,Budge Patty,budge-patty/pi25,2455.3807,2479.6468,Jaroslav Drobny,jaroslav-drobny/d531,2451.8527,2426.451,French Championships,61 62 36 57 75
1950.06.12,Pierre Pellizza,pierre-pellizza/pi33,1985.1475,2036.0595,Vincent Richards,vincent-richards/rf59,1772.1079,1721.1959,Cleveland,61 36 62
1950.06.12,Francis Kovacs,francis-kovacs/kg37,2434.7392,2434.9389,Jack Rodgers,jack-rodgers/re87,1392.5,1391.812,Cleveland,46 64 62
1950.06.12,Robert Stubbs,,1602.426,1659.874,Joseph Fishbach,joseph-fishbach/fa28,1418.8375,1361.3895,Cleveland,36 61 62
1950.06.12,John Faunce,,2130.2613,2149.0523,Frank Goeltz,frank-goeltz/gg81,1703.2825,1684.4915,Cleveland,64 64
1950.06.12,Gene Mako,gene-mako/mr41,1965.3648,2113.3923,Yvon Petra,yvon-petra/p565,2109.6897,1961.6622,Cleveland,16 64 62
1950.06.12,Jack March,,1612.6385,1755.0115,Martin Buxby,martin-buxby/bp01,1735.167,1592.794,Cleveland,61 26 63
1950.06.12,Joe Whalen,,1631.6015,1845.634,Don Budge,don-budge/bp59,2614.7004,2594.7904,Cleveland,86 61
1950.06.12,John Nogrady,john-nogrady/n818,2103.2715,2110.775,Mitchell Gornto,,1499.226,1491.7225,Cleveland,36 63 64
1950.06.12,Carl Earn,,1920.282,1928.796,John Hendrix,,1340.0185,1331.5045,Cleveland,62 62
1950.06.12,Al Doyle,,1596.9865,1787.3045,Jerry Adler,,1968.829,1778.511,Cleveland,97 46 75
1950.06.12,James Evert,james-evert/e920,1484.606,1563.1025,Ed Copeland,,1383.8785,1305.382,Cleveland,61 62
1950.06.12,Jack Kramer,jack-kramer/kg10,2568.2594,2568.2894,W. H. Doeg,,1390.694,1390.3715,Cleveland,60 61
1950.06.12,Francis Kovacs,francis-kovacs/kg37,2434.9389,2435.1071,Joseph Fishbach,joseph-fishbach/fa28,1361.3895,1360.809,Cleveland,61 60
1950.06.12,Frank Parker,frank-parker/p154,2490.2591,2493.7612,John Faunce,,2149.0523,2120.4573,Cleveland,62 63
1950.06.12,Jack March,,1755.0115,1943.674,Gene Mako,gene-mako/mr41,2113.3923,1924.7298,Cleveland,62 16 63
1950.06.12,Bobby Riggs,bobby-riggs/rf00,2578.9602,2579.9242,Pierre Pellizza,pierre-pellizza/pi33,2036.0595,2025.6965,Cleveland,61 86
1950.06.12,Welby Van Horn,welby-van-horn/v938,2377.189,2382.2902,Joe Whalen,,1845.634,1834.6475,Cleveland,62 36 62
1950.06.12,Pancho Segura,pancho-segura/s246,2202.4656,2282.831,John Nogrady,john-nogrady/n818,2110.775,2029.806,Cleveland,62 62
1950.06.12,Carl Earn,,1928.796,1996.4995,Al Doyle,,1787.3045,1719.601,Cleveland,63 62
1950.06.12,Jack Kramer,jack-kramer/kg10,2568.2894,2568.3694,James Evert,james-evert/e920,1563.1025,1562.2425,Cleveland,64 62
1950.06.12,Francis Kovacs,francis-kovacs/kg37,2435.1071,2471.1655,Frank Parker,frank-parker/p154,2493.7612,2479.8116,Cleveland,60 60 61
1950.06.12,Bobby Riggs,bobby-riggs/rf00,2579.9242,2580.5122,Jack March,,1943.674,1937.353,Cleveland,64 61 75
1950.06.12,Pancho Segura,pancho-segura/s246,2282.831,2384.8935,Welby Van Horn,welby-van-horn/v938,2382.2902,2321.1695,Cleveland,60 62 62
1950.06.12,Jack Kramer,jack-kramer/kg10,2568.3694,2569.1974,Carl Earn,,1996.4995,1987.5985,Cleveland,61 62 63
1950.06.12,Francis Kovacs,francis-kovacs/kg37,2471.1655,2496.1854,Bobby Riggs,bobby-riggs/rf00,2580.5122,2567.5962,Cleveland,62 63 57 75
1950.06.12,Pancho Segura,pancho-segura/s246,2384.8935,2454.4434,Jack Kramer,jack-kramer/kg10,2569.1974,2554.5274,Cleveland,64 810 16 64 63
1950.06.12,Pancho Segura,pancho-segura/s246,2454.4434,2482.0821,Francis Kovacs,francis-kovacs/kg37,2496.1854,2483.6621,Cleveland,61 16 86 44 (RET)
1950.06.26,George Worthington,george-worthington/w793,1770.642,1780.6825,Gerard Oakley,gerard-oakley/o539,1221.79,1211.7495,Wimbledon,75 62 62
1950.06.26,Hubert Wilton,hubert-wilton/w819,1617.1535,1642.2225,Charles Fawcus,charles-fawcus/fa08,1248.6435,1223.5745,Wimbledon,63 26 68 61 63
1950.06.26,Heraldo Weiss,heraldo-weiss/w813,1684.9645,1734.049,Koon-Hong Ip,koon-hong-ip/i363,1463.321,1414.2365,Wimbledon,68 63 63 64
1950.06.26,AC Hans Van Swol,ac-hans-van-swol/v912,2138.3135,2178.11,Vanni Canepele,vanni-canepele/cj06,1868.5315,1828.735,Wimbledon,62 97 57 26 64
1950.06.26,Robert Van Meegeren,robert-van-meegeren/v903,1470.5665,1550.224,Eddie Ford,eddie-ford/f977,1374.1175,1294.46,Wimbledon,26 64 57 63 64
1950.06.26,Torben Ulrich,torben-ulrich/u011,1530.8525,1629.258,John Rutherglen,john-rutherglen/re67,1500,1401.5945,Wimbledon,64 64 75
1950.06.26,Tony Trabert,tony-trabert/t094,1943.0935,1960.4225,Brian Rooke,brian-rooke/re68,1500,1482.671,Wimbledon,64 64 62
1950.06.26,Ignacy Tloczynski,ignacy-tloczynski/td76,1685.975,1702.4655,Pierre Geelhand De Merxem,pierre-geelhand-de-merxem/dd72,1233.185,1216.6945,Wimbledon,64 64 61
1950.06.26,Anthony Starte,anthony-starte/st17,1198.183,1286.7415,Eric Filby,eric-filby/f993,1133.3605,1044.802,Wimbledon,75 62 63
1950.06.26,William Smith,william-smith/st59,1500,1570.434,Eddie Mandelbaum,eddie-mandelbaum/mq90,1369.108,1298.674,Wimbledon,46 61 64 62
1950.06.26,Douglas Scharenguivel,douglas-scharenguivel/st26,1462.6115,1553.3415,Jean-Pierre Blondel,jean-pierre-blondel/bo50,1405.3355,1314.6055,Wimbledon,57 86 75 63
1950.06.26,Subba Sawhney,subba-sawhney/st61,1454.936,1572.6055,F.P. Wallis,f.p.-wallis/w821,1489.4435,1371.774,Wimbledon,26 64 64 63
1950.06.26,Mervyn Rose,mervyn-rose/r163,1759.8705,1798.635,Milan Matous,milan-matous/mq83,1484.3265,1445.562,Wimbledon,63 64 64
1950.06.26,Arthur Roberts,arthur-roberts/re62,1310.3485,1452.915,Philippe Chatrier,philippe-chatrier/ci59,1433.5865,1291.02,Wimbledon,36 62 62 36 64
1950.06.26,Adrian Quist,adrian-quist/q964,2258.7962,2302.7443,Dragutin Mitic,dragutin-mitic/mq81,2057.4735,2004.0245,Wimbledon,60 62 63
1950.06.26,Geoff Paish,geoff-paish/pa78,1405.1635,1537.0875,Joseph Hackett,joseph-hackett/hc56,1489.3145,1357.3905,Wimbledon,26 62 63 60
1950.06.26,Narendra Nath,narendra-nath/n800,1641.857,1741.574,Jacques Sanglier,jacques-sanglier/st15,1615.4765,1515.7595,Wimbledon,64 61 60
1950.06.26,Andre Najar,andre-najar/n802,1277.26,1471.3405,Benny Berthet,benny-berthet/bo35,1682.6425,1488.562,Wimbledon,75 63 26 16 61
1950.06.26,Tony Mottram,tony-mottram/mq59,2046.272,2056.463,Geoff Ward,geoff-ward/w781,1500,1489.809,Wimbledon,60 60 61
1950.06.26,Enrique Morea,enrique-morea/mp49,1617.0245,1664.518,Alexandru Hamburger,alexandru-hamburger/hd27,1387.6195,1340.126,Wimbledon,61 63 63
1950.06.26,Peter Molloy,peter-molloy/mq64,1349.93,1499.398,Reg Kaley,reg-kaley/kf93,1500,1350.532,Wimbledon,62 46 64 46 75
1950.06.26,Jean Claude Molinari,jean-claude-molinari/m257,1462.4825,1633.0205,Jimmy Jones,jimmy-jones/j622,1707.1955,1536.6575,Wimbledon,86 86 60
1950.06.26,Sumant Misra,sumant-misra/mq96,1782.94,1880.0555,Bobby Meredith,bobby-meredith/mq99,1747.637,1650.5215,Wimbledon,63 62 61
1950.06.26,John Linck,john-linck/le94,1500,1557.0825,David Mockridge,david-mockridge/mq98,1314.842,1257.7595,Wimbledon,64 61 63
1950.06.26,Sverre Lie,sverre-lie/le88,1489.4435,1613.9715,Edmund David,edmund-david/dd59,1547.558,1423.03,Wimbledon,68 46 63 61 75
1950.06.26,Naresh Kumar,naresh-kumar/kf51,1513.072,1540.463,George Godsell,george-godsell/gg59,1162.8585,1135.4675,Wimbledon,62 36 63 62
1950.06.26,Torsten Johansson,torsten-johansson/j589,1995.145,2032.5765,Jacques Peten,jacques-peten/pi51,1711.8395,1674.408,Wimbledon,63 60 64
1950.06.26,Alfred Huber,alfred-huber/hc82,1495.356,1614.9175,Jan Staubo,jan-staubo/st60,1536.335,1416.7735,Wimbledon,26 64 79 75 62
1950.06.26,Clifford Hovell,clifford-hovell/hd08,1386.308,1513.0505,Petko Milojkovic,petko-milojkovic/mq76,1452.2055,1325.463,Wimbledon,75 63 86
1950.06.26,Harry Hopman,harry-hopman/hd04,1728.2152,1820.1707,Kurt Nielsen,kurt-nielsen/n088,1675.182,1583.2265,Wimbledon,86 63 63
1950.06.26,Nils-Erik Hessen,nils-erik-hessen/hd26,1373.6015,1561.49,Hans Redl,hans-redl/re35,1726.008,1538.1195,Wimbledon,36 63 64 61
1950.06.26,Peter Hare,peter-hare/hd07,1173.5655,1361.4325,Leslie Cater,leslie-cater/cj05,1525.6925,1337.8255,Wimbledon,63 63 61
1950.06.26,Robert Haillet,robert-haillet/h131,1581.786,1637.127,Dick Guise,dick-guise/gg62,1388.9525,1333.6115,Wimbledon,46 62 46 61 63
1950.06.26,Johan Haanes,johan-haanes/hd25,1457.645,1592.4715,Roland Carter,roland-carter/ci93,1552.245,1417.4185,Wimbledon,63 63 61
1950.06.26,Bernard Destremau,bernard-destremau/dd06,1873.326,1905.7695,Czeslaw Spychala,czeslaw-spychala/st23,1558.9745,1526.531,Wimbledon,62 62 64
1950.06.26,Guy Delhomme,guy-delhomme/dd49,1624.313,1680.557,Andre Kalman,andre-kalman/kf90,1435.457,1379.213,Wimbledon,63 61 62
1950.06.26,Rolando Del Bello,rolando-del-bello/dd57,1919.2715,1938.7935,David Lurie,david-lurie/le89,1500,1480.478,Wimbledon,64 46 62 61
1950.06.26,Jean Ducos De La Haille,jean-ducos-de-la-haille/dd48,1431.4795,1558.9745,Guy Pettigrew,guy-pettigrew/pi62,1500,1372.505,Wimbledon,1214 63 63 62
1950.06.26,Marcel Coen,marcel-coen/ci81,1723.4065,1757.011,Matthew Mohtadi,matthew-mohtadi/mq60,1416.58,1382.9755,Wimbledon,36 63 61 46 62
1950.06.26,Cesar Carmona,cesar-carmona/ci89,1473.9205,1589.1175,Athol Tills,athol-tills/td82,1500,1384.803,Wimbledon,57 63 63 57 62
1950.06.26,Giulio Caccia,giulio-caccia/cj03,1519.8445,1576.2175,Fernando Olozaga,fernando-olozaga/o545,1331.5475,1275.1745,Wimbledon,62 60 61
1950.06.26,Donald Butler,donald-butler/bo53,1739.596,1792.1205,Lord Ronaldshay,lord-ronaldshay/re63,1534.056,1481.5315,Wimbledon,64 75 62
1950.06.26,Derek Bull,derek-bull/bo64,1384.8675,1518.1245,Henry Weatherall,henry-weatherall/w820,1473.8345,1340.5775,Wimbledon,64 64 62
1950.06.26,Jacques Brichant,jacques-brichant/bn76,1442.1005,1553.4705,Milan Branovic,milan-branovic/bn99,1455.194,1343.824,Wimbledon,06 64 61 61
1950.06.26,Henry Billington,henry-billington/bo52,1418.4935,1549.665,Bernard Crouch,bernard-crouch/ci67,1500,1368.8285,Wimbledon,63 62 86
1950.06.26,Lennart Bergelin,lennart-bergelin/b256,1877.995,1944.43,Cyril Kemp,cyril-kemp/kf83,1731.5335,1665.0985,Wimbledon,62 63 64
1950.06.26,Headley Baxter,headley-baxter/bo60,1584.3875,1712.4415,Jacques Delire,jacques-delire/dd73,1654.843,1526.789,Wimbledon,63 75 60
1950.06.26,Felicisimo Ampon,felicisimo-ampon/ad58,1998.542,2013.3985,Ivo Rinkel,ivo-rinkel/re55,1525.1765,1510.32,Wimbledon,61 61 60
1950.06.26,Dilip Bose,dilip-bose/bo75,1889.4295,1912.069,Frank Mott-Trille,frank-mott-trille/mq85,1500,1477.3605,Wimbledon,63 119 61
1950.06.26,Irvin Dorfman,irvin-dorfman/dd28,2082.091,2085.531,Jaime Bartroli,jaime-bartroli/ba11,1332.3,1328.86,Wimbledon,60 63 62
1950.06.26,Fred Kovaleski,fred-kovaleski/k168,1896.0945,1911.4455,Ronald Reeve,ronald-reeve/re54,1429.093,1413.742,Wimbledon,62 75 911 62
1950.06.26,E. Victor Seixas,e.-victor-seixas/s240,2146.0681,2170.5996,Sven Davidson,sven-davidson/dd18,1773.007,1748.4755,Wimbledon,64 36 61 63
1950.06.26,Oswald William Thoma Sidwell,oswald-william-thoma-sidwell/st34,1972.9785,2004.2395,Claude Lister,claude-lister/le74,1650.6505,1619.3895,Wimbledon,62 61 63
1950.06.26,Ken McGregor,ken-mcgregor/mq65,2008.9695,2016.903,Douglas Snart,douglas-snart/st37,1415.376,1407.4425,Wimbledon,60 63 75
1950.06.26,Geoff Brown,geoff-brown/b309,2266.1697,2270.5554,Adli El Shafei,adli-el-shafei/e132,1603.1785,1597.696,Wimbledon,61 62 63
1950.06.26,John Bromwich,john-bromwich/bo44,2346.8734,2347.22,Matthew Murphy,matthew-murphy/mq67,1280.829,1280.2055,Wimbledon,60 62 62
1950.06.26,Arthur Larsen,arthur-larsen/le60,2093.8945,2128.832,Vladimir Cernik,vladimir-cernik/ci91,1795.5175,1760.58,Wimbledon,86 75 62
1950.06.26,Gardnar Mulloy,gardnar-mulloy/m273,2210.2762,2253.961,Josip Palada,josip-palada/pi39,1968.8371,1923.7516,Wimbledon,36 61 61 61
1950.06.26,Budge Patty,budge-patty/pi25,2479.6468,2480.0954,Raymundo Deyro,raymundo-deyro/dd05,1699.133,1696.2305,Wimbledon,36 61 62 97
1950.06.26,Eric William Sturgess,eric-william-sturgess/s261,2366.1008,2367.0106,John Horn,john-horn/hc87,1500,1498.1725,Wimbledon,60 62 60
1950.06.26,Jaroslav Drobny,jaroslav-drobny/d531,2426.451,2427.6241,Christian Grandet,christian-grandet/gg16,1691.6295,1687.91,Wimbledon,64 63 61
1950.06.26,Bill Talbert,bill-talbert/td72,2375.603,2376.3695,Norman Kitovitz,norman-kitovitz/kf60,1489.422,1487.788,Wimbledon,62 62 64
1950.06.26,Frank Sedgman,frank-sedgman/s248,2435.7427,2436.6383,Howard Walton,howard-walton/w788,1668.345,1665.2275,Wimbledon,64 75 64
1950.06.26,Philippe Washer,philippe-washer/w780,1793.8835,1843.8065,Giulio Caccia,giulio-caccia/cj03,1576.2175,1526.2945,Wimbledon,86 63 64
1950.06.26,Mervyn Rose,mervyn-rose/r163,1798.635,1887.258,Heraldo Weiss,heraldo-weiss/w813,1734.049,1645.426,Wimbledon,64 64 75
1950.06.26,Adrian Quist,adrian-quist/q964,2302.7443,2305.1158,Douglas Scharenguivel,douglas-scharenguivel/st26,1553.3415,1549.9015,Wimbledon,63 64 75
1950.06.26,Narendra Nath,narendra-nath/n800,1741.574,1831.229,Guy Delhomme,guy-delhomme/dd49,1680.557,1590.902,Wimbledon,61 62 63
1950.06.26,Tony Mottram,tony-mottram/mq59,2056.463,2136.2495,Tony Trabert,tony-trabert/t094,1960.4225,1880.636,Wimbledon,61 64 61
1950.06.26,Peter Molloy,peter-molloy/mq64,1499.398,1627.624,William Smith,william-smith/st59,1570.434,1442.208,Wimbledon,86 60 26 63
1950.06.26,Jean Claude Molinari,jean-claude-molinari/m257,1633.0205,1706.314,Clifford Hovell,clifford-hovell/hd08,1513.0505,1439.757,Wimbledon,63 75 64
1950.06.26,John Linck,john-linck/le94,1557.0825,1639.7285,Andre Najar,andre-najar/n802,1471.3405,1388.6945,Wimbledon,64 63 64
1950.06.26,Sverre Lie,sverre-lie/le88,1613.9715,1706.0775,Nils-Erik Hessen,nils-erik-hessen/hd26,1561.49,1469.384,Wimbledon,36 86 64 64
1950.06.26,Torsten Johansson,torsten-johansson/j589,2032.5765,2075.6625,George Worthington,george-worthington/w793,1780.6825,1737.5965,Wimbledon,75 26 64 26 86
1950.06.26,Alfred Huber,alfred-huber/hc82,1614.9175,1747.7875,Ignacy Tloczynski,ignacy-tloczynski/td76,1702.4655,1569.5955,Wimbledon,63 75 86
1950.06.26,Harry Hopman,harry-hopman/hd04,1820.1707,1945.1932,Sumant Misra,sumant-misra/mq96,1880.0555,1755.033,Wimbledon,16 63 61 46 86
1950.06.26,Bernard Destremau,bernard-destremau/dd06,1905.7695,1930.817,Geoff Paish,geoff-paish/pa78,1537.0875,1512.04,Wimbledon,64 61 64
1950.06.26,Cesar Carmona,cesar-carmona/ci89,1589.1175,1685.1795,Robert Van Meegeren,robert-van-meegeren/v903,1550.224,1454.162,Wimbledon,64 75 36 61
1950.06.26,Derek Bull,derek-bull/bo64,1518.1245,1637.643,Jean Ducos De La Haille,jean-ducos-de-la-haille/dd48,1558.9745,1439.456,Wimbledon,63 61 68 64
1950.06.26,Henry Billington,henry-billington/bo52,1549.665,1683.9325,Hubert Wilton,hubert-wilton/w819,1642.2225,1507.955,Wimbledon,61 75 119
1950.06.26,Felicisimo Ampon,felicisimo-ampon/ad58,2013.3985,2036.64,Torben Ulrich,torben-ulrich/u011,1629.258,1606.0165,Wimbledon,68 63 60 64
1950.06.26,AC Hans Van Swol,ac-hans-van-swol/v912,2178.11,2218.573,Dilip Bose,dilip-bose/bo75,1912.069,1871.606,Wimbledon,46 54 (RET)
1950.06.26,Irvin Dorfman,irvin-dorfman/dd28,2085.531,2104.881,Enrique Morea,enrique-morea/mp49,1664.518,1645.168,Wimbledon,64 62 64
1950.06.26,Fred Kovaleski,fred-kovaleski/k168,1911.4455,1965.4105,Headley Baxter,headley-baxter/bo60,1712.4415,1658.4765,Wimbledon,36 62 62 64
1950.06.26,E. Victor Seixas,e.-victor-seixas/s240,2170.5996,2177.6086,Jacques Brichant,jacques-brichant/bn76,1553.4705,1546.4615,Wimbledon,64 63 63
1950.06.26,Oswald William Thoma Sidwell,oswald-william-thoma-sidwell/st34,2004.2395,2092.626,Rolando Del Bello,rolando-del-bello/dd57,1938.7935,1850.407,Wimbledon,64 61 62
1950.06.26,Ken McGregor,ken-mcgregor/mq65,2016.903,2020.73,Anthony Starte,anthony-starte/st17,1286.7415,1282.9145,Wimbledon,61 63 63
1950.06.26,Geoff Brown,geoff-brown/b309,2270.5554,2274.5302,Johan Haanes,johan-haanes/hd25,1592.4715,1587.419,Wimbledon,108 62 63
1950.06.26,John Bromwich,john-bromwich/bo44,2347.22,2347.745,Peter Hare,peter-hare/hd07,1361.4325,1360.4865,Wimbledon,62 60 60
1950.06.26,Arthur Larsen,arthur-larsen/le60,2128.832,2186.108,Lennart Bergelin,lennart-bergelin/b256,1944.43,1887.154,Wimbledon,63 57 75 75
1950.06.26,Gardnar Mulloy,gardnar-mulloy/m273,2253.961,2257.4516,Naresh Kumar,naresh-kumar/kf51,1540.463,1536.292,Wimbledon,62 64 1210
1950.06.26,Budge Patty,budge-patty/pi25,2480.0954,2480.3194,Subba Sawhney,subba-sawhney/st61,1572.6055,1571.1435,Wimbledon,62 60 64
1950.06.26,Eric William Sturgess,eric-william-sturgess/s261,2367.0106,2367.7025,Arthur Roberts,arthur-roberts/re62,1452.915,1451.5175,Wimbledon,75 64 61
1950.06.26,Jaroslav Drobny,jaroslav-drobny/d531,2427.6241,2429.6019,Donald Butler,donald-butler/bo53,1792.1205,1785.778,Wimbledon,64 62 64
1950.06.26,Bill Talbert,bill-talbert/td72,2376.3695,2379.6011,Marcel Coen,marcel-coen/ci81,1757.011,1750.088,Wimbledon,61 63 60
1950.06.26,Frank Sedgman,frank-sedgman/s248,2436.6383,2437.3848,Robert Haillet,robert-haillet/h131,1637.127,1634.504,Wimbledon,64 86 62
1950.06.26,AC Hans Van Swol,ac-hans-van-swol/v912,2218.573,2230.0384,Sverre Lie,sverre-lie/le88,1706.0775,1693.93,Wimbledon,61 62 64
1950.06.26,Jean Claude Molinari,jean-claude-molinari/m257,1706.314,1807.579,Cesar Carmona,cesar-carmona/ci89,1685.1795,1583.9145,Wimbledon,75 16 62 62
1950.06.26,Adrian Quist,adrian-quist/q964,2305.1158,2341.7405,Irvin Dorfman,irvin-dorfman/dd28,2104.881,2051.1955,Wimbledon,64 62 62
1950.06.26,Fred Kovaleski,fred-kovaleski/k168,1965.4105,2034.9845,Narendra Nath,narendra-nath/n800,1831.229,1761.655,Wimbledon,64 86 63
1950.06.26,E. Victor Seixas,e.-victor-seixas/s240,2177.6086,2188.2511,John Linck,john-linck/le94,1639.7285,1629.086,Wimbledon,61 64 63
1950.06.26,Oswald William Thoma Sidwell,oswald-william-thoma-sidwell/st34,2092.626,2145.1935,Mervyn Rose,mervyn-rose/r163,1887.258,1834.6905,Wimbledon,97 64 46 75
1950.06.26,Ken McGregor,ken-mcgregor/mq65,2020.73,2059.9675,Alfred Huber,alfred-huber/hc82,1747.7875,1708.55,Wimbledon,61 62 63
1950.06.26,Geoff Brown,geoff-brown/b309,2274.5302,2327.6114,Tony Mottram,tony-mottram/mq59,2136.2495,2067.729,Wimbledon,16 62 57 64 63
1950.06.26,John Bromwich,john-bromwich/bo44,2347.745,2359.4869,Harry Hopman,harry-hopman/hd04,1945.1932,1923.9727,Wimbledon,60 61 63
1950.06.26,Arthur Larsen,arthur-larsen/le60,2186.108,2195.654,Peter Molloy,peter-molloy/mq64,1627.624,1618.078,Wimbledon,62 63 75
1950.06.26,Gardnar Mulloy,gardnar-mulloy/m273,2257.4516,2282.7676,Bernard Destremau,bernard-destremau/dd06,1930.817,1900.1795,Wimbledon,63 62 63
1950.06.26,Budge Patty,budge-patty/pi25,2480.3194,2480.6375,Derek Bull,derek-bull/bo64,1637.643,1635.5575,Wimbledon,63 63 75
1950.06.26,Eric William Sturgess,eric-william-sturgess/s261,2367.7025,2370.1191,Henry Billington,henry-billington/bo52,1683.9325,1679.0305,Wimbledon,61 63 62
1950.06.26,Jaroslav Drobny,jaroslav-drobny/d531,2429.6019,2436.4079,Felicisimo Ampon,felicisimo-ampon/ad58,2036.64,2014.3875,Wimbledon,63 64 62
1950.06.26,Bill Talbert,bill-talbert/td72,2379.6011,2395.1654,Torsten Johansson,torsten-johansson/j589,2075.6625,2041.6065,Wimbledon,61 36 62 62
1950.06.26,Frank Sedgman,frank-sedgman/s248,2437.3848,2439.6246,Philippe Washer,philippe-washer/w780,1843.8065,1835.873,Wimbledon,63 62 63
1950.06.26,E. Victor Seixas,e.-victor-seixas/s240,2188.2511,2342.9006,John Bromwich,john-bromwich/bo44,2359.4869,2279.4047,Wimbledon,61 75 46 63
1950.06.26,Arthur Larsen,arthur-larsen/le60,2195.654,2218.444,Jean Claude Molinari,jean-claude-molinari/m257,1807.579,1784.789,Wimbledon,61 63 61
1950.06.26,Gardnar Mulloy,gardnar-mulloy/m273,2282.7676,2334.2713,Oswald William Thoma Sidwell,oswald-william-thoma-sidwell/st34,2145.1935,2076.501,Wimbledon,64 63 75
1950.06.26,Budge Patty,budge-patty/pi25,2480.6375,2487.2035,AC Hans Van Swol,ac-hans-van-swol/v912,2230.0384,2190.6502,Wimbledon,86 64 86
1950.06.26,Eric William Sturgess,eric-william-sturgess/s261,2370.1191,2416.2634,Geoff Brown,geoff-brown/b309,2327.6114,2269.2574,Wimbledon,62 36 63 64
1950.06.26,Jaroslav Drobny,jaroslav-drobny/d531,2436.4079,2443.2897,Ken McGregor,ken-mcgregor/mq65,2059.9675,2035.8445,Wimbledon,63 62 75
1950.06.26,Bill Talbert,bill-talbert/td72,2395.1654,2432.8111,Adrian Quist,adrian-quist/q964,2341.7405,2289.2633,Wimbledon,63 63 62
1950.06.26,Frank Sedgman,frank-sedgman/s248,2439.6246,2445.4127,Fred Kovaleski,fred-kovaleski/k168,2034.9845,2013.979,Wimbledon,63 63 64
1950.06.26,E. Victor Seixas,e.-victor-seixas/s240,2342.9006,2416.0961,Eric William Sturgess,eric-william-sturgess/s261,2416.2634,2371.6508,Wimbledon,97 68 36 62 75
1950.06.26,Jaroslav Drobny,jaroslav-drobny/d531,2443.2897,2463.4529,Gardnar Mulloy,gardnar-mulloy/m273,2334.2713,2288.9805,Wimbledon,63 64 64
1950.06.26,Budge Patty,budge-patty/pi25,2487.2035,2499.2612,Bill Talbert,bill-talbert/td72,2432.8111,2405.6992,Wimbledon,36 64 62 63
1950.06.26,Frank Sedgman,frank-sedgman/s248,2445.4127,2457.7962,Arthur Larsen,arthur-larsen/le60,2218.444,2173.1319,Wimbledon,810 57 75 63 75
1950.06.26,Budge Patty,budge-patty/pi25,2499.2612,2507.2014,E. Victor Seixas,e.-victor-seixas/s240,2416.0961,2387.1979,Wimbledon,63 57 62 75
1950.06.26,Frank Sedgman,frank-sedgman/s248,2457.7962,2481.8824,Jaroslav Drobny,jaroslav-drobny/d531,2463.4529,2441.2338,Wimbledon,36 36 63 75 62
1950.06.26,Budge Patty,budge-patty/pi25,2507.2014,2516.5074,Frank Sedgman,frank-sedgman/s248,2481.8824,2467.0968,Wimbledon,61 810 62 63
1950.08.25,George Worthington,george-worthington/w793,1737.5965,1783.4345,Malcolm Fox,malcolm-fox/f969,1500,1454.162,US Championships,62 62 60
1950.08.25,Philippe Washer,philippe-washer/w780,1835.873,1874.616,George Ball,george-ball/bo20,1560.114,1521.371,US Championships,86 63 64
1950.08.25,Bill Talbert,bill-talbert/td72,2405.6992,2409.0567,Frank Shields,frank-shields/st33,1833.1349,1824.2554,US Championships,61 36 61 62
1950.08.25,Hugh Stewart,hugh-stewart/ss51,1515.0285,1671.6345,Gilbert Shea,gilbert-shea/ss87,1694.5965,1537.9905,US Championships,63 36 57 62 61
1950.08.25,E. Victor Seixas,e.-victor-seixas/s240,2387.1979,2388.8217,Andrew Paton,andrew-paton/pi43,1652.9725,1649.2315,US Championships,61 60 61
1950.08.25,Frank Sedgman,frank-sedgman/s248,2467.0968,2467.3037,Harold Burrows,harold-burrows/bo40,1503.0745,1501.9995,US Championships,36 63 75 108
1950.08.25,Sydney Schwartz,sydney-schwartz/ss65,1562.479,1651.704,Gustavo Palafox,gustavo-palafox/p147,1500,1410.775,US Championships,62 64 64
1950.08.25,Mervyn Rose,mervyn-rose/r163,1834.6905,1932.236,George Richards,george-richards/re69,1800.871,1703.3255,US Championships,57 63 63 75
1950.08.25,Henri Rochon,henri-rochon/re31,1659.53,1722.7185,Leonard Brose,leonard-brose/bo37,1500,1436.8115,US Championships,62 64 61
1950.08.25,"Hamilton ""Ham"" Richardson","hamilton-""ham""-richardson/r160",1500,1646.071,Herbert Behrens,herbert-behrens/bo78,1636.7185,1490.6475,US Championships,63 16 63 63
1950.08.25,Gardnar Mulloy,gardnar-mulloy/m273,2288.9805,2290.9922,Tony Vincent,tony-vincent/v366,1497.7855,1495.0335,US Championships,64 60 61
1950.08.25,Eddie Moylan,eddie-moylan/mq56,2017.892,2025.761,Brendan Macken,brendan-macken/mq79,1422.815,1414.946,US Championships,62 75 61
1950.08.25,Tony Mottram,tony-mottram/mq59,2067.729,2071.8785,August Ganzenmuller,august-ganzenmuller/gg66,1352.467,1348.3175,US Championships,60 64 63
1950.08.25,Donald McNeill,donald-mcneill/mq88,2368.4882,2383.0975,Ken McGregor,ken-mcgregor/mq65,2035.8445,2006.067,US Championships,97 36 64 61
1950.08.25,Sam Match,sam-match/mb85,2040.9185,2051.389,Ake Eliaeson,ake-eliaeson/e912,1500,1489.5295,US Championships,62 62 64
1950.08.25,Harry Likas,harry-likas/le81,2028.6205,2039.736,Charles Masterson,charles-masterson/mq36,1499.312,1488.1965,US Championships,64 62 75
1950.08.25,Arthur Larsen,arthur-larsen/le60,2173.1319,2178.2704,John Horn,john-horn/hc87,1498.1725,1493.034,US Championships,63 64 63
1950.08.25,Torsten Johansson,torsten-johansson/j589,2041.6065,2052.034,Richard Gaines,richard-gaines/gg41,1500,1489.5725,US Championships,63 63 68 62
1950.08.25,Harry Hopman,harry-hopman/hd04,1923.9727,1943.0432,Bernard Schreiber,bernard-schreiber/st58,1500,1480.9295,US Championships,1012 16 61 75 62
1950.08.25,Grant Golden,grant-golden/g185,1391.812,1580.8185,Robert Abdesselam,robert-abdesselam/ad60,1752.9045,1563.898,US Championships,64 64 97
1950.08.25,Herbie Flam,herbie-flam/f962,2076.2378,2084.0638,Gilbert Bogley,gilbert-bogley/bo70,1480.2415,1472.4155,US Championships,36 64 61 64
1950.08.25,Jaroslav Drobny,jaroslav-drobny/d531,2441.2338,2441.7052,Arnold Beisser,arnold-beisser/bo79,1567.209,1565.4675,US Championships,57 97 119 62
1950.08.25,Sven Davidson,sven-davidson/dd18,1748.4755,1792.2065,Whitney Reed,whitney-reed/r590,1500,1456.269,US Championships,64 46 64 1311
1950.08.25,Earl Cochell,earl-cochell/cj00,1917.2505,1928.6455,Fred Fisher,fred-fisher/fa10,1392.5,1381.105,US Championships,61 63 60
1950.08.25,Straight Clark,straight-clark/ci34,1764.9875,1814.7385,Jacques Brichant,jacques-brichant/bn76,1546.4615,1496.7105,US Championships,108 63 61
1950.08.25,Tom Brown,tom-brown/b234,2272.3493,2276.3974,Jack Tuero,jack-tuero/td80,1598.642,1593.4605,US Championships,16 64 61 64
1950.08.25,John Bromwich,john-bromwich/bo44,2279.4047,2295.8414,Tony Trabert,tony-trabert/t094,1880.636,1859.007,US Championships,64 60 75
1950.08.25,James Brink,james-brink/bo77,2035.436,2043.2835,Jean Ducos De La Haille,jean-ducos-de-la-haille/dd48,1439.456,1431.6085,US Championships,61 75 57 36 64
1950.08.25,Ricardo Balbiers,ricardo-balbiers/bo55,1697.499,1724.116,Alastair Martin,alastair-martin/mq61,1341.3085,1314.6915,US Championships,63 63 62
1950.08.25,Felicisimo Ampon,felicisimo-ampon/ad58,2014.3875,2026.406,Lorne Main,lorne-main/mq39,1500,1487.9815,US Championships,57 63 75 64
1950.08.25,George Worthington,george-worthington/w793,1783.4345,1873.1755,Henri Rochon,henri-rochon/re31,1722.7185,1632.9775,US Championships,36 36 60 108 75
1950.08.25,Bill Talbert,bill-talbert/td72,2409.0567,2445.7968,Donald McNeill,donald-mcneill/mq88,2383.0975,2338.5213,US Championships,61 46 75 60
1950.08.25,E. Victor Seixas,e.-victor-seixas/s240,2388.8217,2391.156,Ricardo Balbiers,ricardo-balbiers/bo55,1724.116,1718.6765,US Championships,63 62 63
1950.08.25,Frank Sedgman,frank-sedgman/s248,2467.3037,2468.4175,Straight Clark,straight-clark/ci34,1814.7385,1808.9335,US Championships,46 63 75 36 75
1950.08.25,Sydney Schwartz,sydney-schwartz/ss65,1651.704,1703.562,Charles Devoe,charles-devoe/da55,1443.154,1391.296,US Championships,64 2119 63
1950.08.25,Dick Savitt,dick-savitt/ss90,1671.871,1845.376,Mervyn Rose,mervyn-rose/r163,1932.236,1758.731,US Championships,64 62 64
1950.08.25,Gardnar Mulloy,gardnar-mulloy/m273,2290.9922,2296.0107,Hugh Stewart,hugh-stewart/ss51,1671.6345,1664.7115,US Championships,61 62 61
1950.08.25,Arthur Larsen,arthur-larsen/le60,2178.2704,2201.2969,Sven Davidson,sven-davidson/dd18,1792.2065,1769.18,US Championships,64 64 46 64
1950.08.25,Torsten Johansson,torsten-johansson/j589,2052.034,2072.889,"Hamilton ""Ham"" Richardson","hamilton-""ham""-richardson/r160",1646.071,1625.216,US Championships,75 46 64 63
1950.08.25,Herbie Flam,herbie-flam/f962,2084.0638,2135.7283,Philippe Washer,philippe-washer/w780,1874.616,1822.9515,US Championships,61 64 68 64
1950.08.25,Jaroslav Drobny,jaroslav-drobny/d531,2441.7052,2445.2192,Harry Hopman,harry-hopman/hd04,1943.0432,1929.9927,US Championships,97 63 61
1950.08.25,Earl Cochell,earl-cochell/cj00,1928.6455,2067.9655,Harry Likas,harry-likas/le81,2039.736,1900.416,US Championships,60 61 62
1950.08.25,Tom Brown,tom-brown/b234,2276.3974,2279.9357,Grant Golden,grant-golden/g185,1580.8185,1576.2175,US Championships,63 63 62
1950.08.25,John Bromwich,john-bromwich/bo44,2295.8414,2324.0609,Eddie Moylan,eddie-moylan/mq56,2025.761,1986.029,US Championships,63 64 16 64
1950.08.25,James Brink,james-brink/bo77,2043.2835,2159.2115,Tony Mottram,tony-mottram/mq59,2071.8785,1955.9505,US Championships,64 46 63 46 63
1950.08.25,Felicisimo Ampon,felicisimo-ampon/ad58,2026.406,2141.2805,Sam Match,sam-match/mb85,2051.389,1936.5145,US Championships,62 64 61
1950.08.25,Bill Talbert,bill-talbert/td72,2445.7968,2469.2981,E. Victor Seixas,e.-victor-seixas/s240,2391.156,2352.5425,US Championships,61 26 36 62 63
1950.08.25,Sydney Schwartz,sydney-schwartz/ss65,1703.562,1900.76,Felicisimo Ampon,felicisimo-ampon/ad58,2141.2805,1944.0825,US Championships,46 62 108 75
1950.08.25,Dick Savitt,dick-savitt/ss90,1845.376,2045.928,John Bromwich,john-bromwich/bo44,2324.0609,2198.7295,US Championships,36 60 46 62 63
1950.08.25,Gardnar Mulloy,gardnar-mulloy/m273,2296.0107,2330.6341,Torsten Johansson,torsten-johansson/j589,2072.889,2024.1055,US Championships,64 62 62
1950.08.25,Arthur Larsen,arthur-larsen/le60,2201.2969,2371.0163,Jaroslav Drobny,jaroslav-drobny/d531,2445.2192,2401.1502,US Championships,63 26 62 75
1950.08.25,Herbie Flam,herbie-flam/f962,2135.7283,2250.1513,James Brink,james-brink/bo77,2159.2115,2044.7885,US Championships,64 63 63
1950.08.25,Earl Cochell,earl-cochell/cj00,2067.9655,2261.53,Frank Sedgman,frank-sedgman/s248,2468.4175,2431.9296,US Championships,75 57 16 62 62
1950.08.25,Tom Brown,tom-brown/b234,2279.9357,2295.7018,George Worthington,george-worthington/w793,1873.1755,1852.385,US Championships,62 16 61 75
1950.08.25,Dick Savitt,dick-savitt/ss90,2045.928,2112.6855,Sydney Schwartz,sydney-schwartz/ss65,1900.76,1834.0025,US Championships,86 62 26 63
1950.08.25,Gardnar Mulloy,gardnar-mulloy/m273,2330.6341,2383.4758,Earl Cochell,earl-cochell/cj00,2261.53,2190.4428,US Championships,63 75 62
1950.08.25,Arthur Larsen,arthur-larsen/le60,2371.0163,2412.3444,Tom Brown,tom-brown/b234,2295.7018,2234.8899,US Championships,63 26 61 64
1950.08.25,Herbie Flam,herbie-flam/f962,2250.1513,2390.4729,Bill Talbert,bill-talbert/td72,2469.2981,2438.5598,US Championships,97 64 63
1950.08.25,Arthur Larsen,arthur-larsen/le60,2412.3444,2424.7837,Dick Savitt,dick-savitt/ss90,2112.6855,2077.9415,US Championships,63 108 79 62
1950.08.25,Herbie Flam,herbie-flam/f962,2390.4729,2435.1938,Gardnar Mulloy,gardnar-mulloy/m273,2383.4758,2336.5245,US Championships,26 62 119 63
1950.08.25,Arthur Larsen,arthur-larsen/le60,2424.7837,2460.2141,Herbie Flam,herbie-flam/f962,2435.1938,2403.2434,US Championships,63 46 57 64 63
1950.09.25,Hans Nusslein,,2511.0821,2511.3901,Dan Maskell,,1754.5385,1751.2275,Wembley,61 63
1950.09.25,F. Wilde,,1500,1607.5,F. Schuermeier,,1500,1392.5,Wembley,46 64 64
1950.09.25,Richard Pancho Gonzales,richard-pancho-gonzales/g077,2479.4453,2479.5988,J. De Mos,,1499.5485,1498.5595,Wembley,63 64
1950.09.25,Don Budge,don-budge/bp59,2594.7904,2602.5384,Hans Nusslein,,2511.3901,2503.6421,Wembley,64 63
1950.09.25,Welby Van Horn,welby-van-horn/v938,2321.1695,2323.8126,F. Wilde,,1607.5,1603.329,Wembley,62 64
1950.09.25,Bobby Riggs,bobby-riggs/rf00,2567.5962,2567.6522,K. Schroeder,,1500,1499.398,Wembley,63 62
1950.09.25,Richard Pancho Gonzales,richard-pancho-gonzales/g077,2479.5988,2501.6407,Don Budge,don-budge/bp59,2602.5384,2589.2844,Wembley,46 61 62 62
1950.09.25,Welby Van Horn,welby-van-horn/v938,2323.8126,2430.4211,Bobby Riggs,bobby-riggs/rf00,2567.6522,2551.8022,Wembley,64 26 62 63
1950.09.25,Richard Pancho Gonzales,richard-pancho-gonzales/g077,2501.6407,2509.7087,Welby Van Horn,welby-van-horn/v938,2430.4211,2404.1088,Wembley,63 63 62
