"nameCol","idCol","salaryCol","positionCol","dvpCol","ouCol","mpgCol","paceCol","usgCol","pminCol","ceilCol","floorCol","pointsCol","predictCol","actualCol"
"Bam Adebayo","Bam-Adebayo-37835","4200","PF/C","60.20","210.5","23.2","106.90","17.35","27.00","41.4","16.46","29.55","0","43.0"
"Amir Johnson","Amir-Johnson-1285","3000","PF/C","52.78","220.5","11.2","108.33","13.91","21.00","32.59","15.98","20.73","0","7.5"
"Kelly Olynyk","Kelly-Olynyk-16845","4000","PF/C","55.43","210.5","21.7","106.90","17.55","24.00","40.26","20.45","27.02","0","26.5"
"Alec Burks","Alec-Burks-13353","4100","PG/SG","45.18","223","22.6","103.60","26.91","31.00","45.93","27.29","27.29","0","46.75"
"Mike Muscala","Mike-Muscala-17379","3800","PF/C","54.37","220.5","24.0","108.33","12.90","29.00","44.06","24.98","24.98","0","33.75"
"De'Anthony Melton","De'Anthony-Melton-409081","4200","PG/SG","52.77","210.5","15.0","108.80","22.78","29.00","28.07","5.34","27.23","0","23.25"
"Rodney Hood","Rodney-Hood-18629","4300","SG/SF","45.18","223","32.4","103.60","18.85","34.00","45.02","18.01","27.84","0","5.5"
"Jordan Clarkson","Jordan-Clarkson-18631","5200","PG/SG","45.18","223","25.9","103.60","29.17","34.00","54.3","29.27","32.85","0","35.5"
"Josh Hart","Josh-Hart-37889","3600","PG/SG","35.12","224","18.1","112.50","11.57","30.00","30.82","15.4","22.16","0","13.25"
"Cody Zeller","Cody-Zeller-16836","4000","C","49.28","219","22.7","103.00","16.64","28.00","34.37","13.46","23.9","0","20.0"
"Larry Nance","Larry-Nance-18946","4900","PF/C","59.46","223","24.9","103.60","11.36","29.00","45.36","23.36","29.13","0","19.25"
"Marvin Bagley III","Marvin-Bagley-III-409321","5300","PF/C","45.95","223","30.0","98.20","23.22","30.00","31.08","5.69","30.74","0","23.25"
"Cedi Osman","Cedi-Osman-18912","4600","SF/PF","37.52","223","32.9","103.60","16.59","34.00","35.16","11.91","26.4","0","25.5"
"Garrett Temple","Garrett-Temple-14077","3800","SG/SF","36.92","214","32.2","103.30","13.39","33.00","34.75","15.54","21.65","0","19.5"
"Juan Hernangomez","Juan-Hernangomez-35212","4400","SF/PF","49.31","219","30.3","99.62","13.53","32.00","42.33","16.57","24.96","0","38.5"
"Wilson Chandler","Wilson-Chandler-1327","3700","SF/PF","34.04","220.5","27.6","108.33","13.48","31.00","31.53","14.82","20.85","0","34.0"
"Collin Sexton","Collin-Sexton-408896","4900","PG","55.02","223","33.0","103.60","25.79","36.00","30.53","11.25","27.65","0","24.75"
"Shelvin Mack","Shelvin-Mack-13354","3400","PG","53.73","214","24.5","103.30","17.12","23.00","29.43","14.75","19.01","0","15.25"
"Lonzo Ball","Lonzo-Ball-37885","5700","PG","46.39","224","29.9","112.50","17.52","35.00","42.72","16.5","31.86","0","38.0"
"Kyle Anderson","Kyle-Anderson-18615","4600","PG/SF","40.24","214","31.0","103.30","11.97","33.00","35.32","13.03","25.65","0","52.75"
"Thaddeus Young","Thaddeus-Young-1289","4700","SF/PF","50.13","206.5","27.7","107.67","16.67","32.00","37.73","13.85","26.24","0","33.25"
"LaMarcus Aldridge","LaMarcus-Aldridge-1349","7600","PF/C","60.98","224","29.8","99.70","26.44","34.00","61.49","26.85","42.35","0","27.5"
"Ben Simmons","Ben-Simmons-35184","8300","PG/SF","41.70","220.5","32.3","108.33","22.11","35.00","60.96","19.6","46.11","0","52.0"
"Kentavious Caldwell-Pope","Kentavious-Caldwell-Pope-16869","3900","SG/SF","35.12","224","23.7","112.50","13.55","30.00","40.88","18.86","21.63","0","17.0"
"Julius Randle","Julius-Randle-18632","7400","PF/C","51.55","214","29.0","104.88","28.17","31.00","56.92","30.86","40.98","0","51.75"
"JaVale McGee","JaVale-McGee-1485","4700","C","53.96","224","21.0","112.50","16.93","24.00","37.41","16.17","26","0","29.5"
"Khris Middleton","Khris-Middleton-13990","6700","SG/SF","45.08","239.5","30.0","98.80","23.79","35.00","58.77","25.92","37.03","0","21.5"
"Tyreke Evans","Tyreke-Evans-1070","5000","SG/SF","46.73","206.5","24.3","107.67","26.09","27.00","39.76","15.46","27.61","0","20.25"
"Tim Frazier","Tim-Frazier-18743","4500","PG/SG","43.83","214","25.5","104.88","14.74","30.00","39.19","16.99","24.77","0","21.5"
"Jimmy Butler","Jimmy-Butler-13327","7400","SG/SF","42.62","220.5","31.5","108.33","25.91","36.00","54.73","22.3","40.54","0","63.0"
"D.J. Augustin","D.J.-Augustin-1064","4200","PG","37.61","206.5","27.1","105.10","17.45","29.00","37.0","13.41","23.01","0","0"
"Kemba Walker","Kemba-Walker-13335","8000","PG","49.99","219","34.1","103.00","29.72","36.00","57.8","21.88","43.59","0","43.0"
"Jonathan Isaac","Jonathan-Isaac-37841","4300","SF/PF","51.85","206.5","26.6","105.10","16.58","27.00","38.2","21.07","23.39","0","18.5"
"Jamal Murray","Jamal-Murray-35211","7100","PG/SG","50.33","219","38.2","99.62","28.41","38.00","59.57","24.85","38.53","0","40.25"
"Monte Morris","Monte-Morris-37860","3600","PG","50.33","219","23.8","99.62","16.78","22.00","29.21","15.73","19.54","0","21.75"
"D'Angelo Russell","D'Angelo-Russell-18947","6900","PG/SG","45.46","221.5","32.1","114.62","33.52","32.00","50.74","18.51","37.39","0","42.75"
"Wendell Carter","Wendell-Carter-408878","5200","PF/C","47.62","218.5","26.1","104.50","19.86","30.00","32.08","8.71","28.09","0","16.5"
"Giannis Antetokounmpo","Giannis-Antetokounmpo-16852","11100","SF/PF","45.88","239.5","35.5","98.80","30.88","37.00","71.45","26.77","59.89","0","55.75"
"Malik Beasley","Malik-Beasley-35213","3500","PG/SG","40.01","219","21.8","99.62","12.78","29.00","33.17","18.9","18.9","0","29.25"
"Anthony Davis","Anthony-Davis-13895","11000","PF/C","51.55","214","36.0","104.88","30.95","38.00","85.75","30.87","59.14","0","55.25"
"Josh Richardson","Josh-Richardson-18922","6700","SG/SF","51.19","210.5","34.5","106.90","25.58","35.00","52.88","21.71","36","0","24.25"
"Justise Winslow","Justise-Winslow-18921","4300","PG/SF","33.69","210.5","28.2","106.90","19.36","28.00","35.27","17.58","22.86","0","43.0"
"Dennis Schroder","Dennis-Schroder-18595","5500","PG/SG","50.39","218.5","27.5","102.62","25.83","29.00","44.47","22.9","29.14","0","29.75"
"Reggie Jackson","Reggie-Jackson-13352","5300","PG/SG","53.63","220.5","27.7","100.30","25.81","30.00","39.31","15.15","28.06","0","30.0"
"Kyle O'Quinn","Kyle-O'Quinn-13934","3000","PF/C","50.68","206.5","8.0","107.67","16.63","12.00","26.44","13.39","15.85","0","0"
"James Johnson","James-Johnson-1195","3700","SF/PF","52.00","210.5","20.0","106.90","21.31","23.00","25.64","10.34","19.51","0","18.75"
"Jonas Valanciunas","Jonas-Valanciunas-13301","4600","C","62.69","221.5","17.9","105.50","23.25","18.00","42.47","20.86","24.06","0","36.0"
"Spencer Dinwiddie","Spencer-Dinwiddie-18588","5800","PG/SG","45.46","221.5","29.9","114.62","24.49","30.00","47.16","20.97","30.21","0","32.5"
"Rudy Gay","Rudy-Gay-1341","5900","SF/PF","45.24","224","25.4","99.70","18.39","32.00","39.04","15.73","30.55","0","26.0"
"Paul Millsap","Paul-Millsap-1335","6400","PF/C","49.31","219","28.5","99.62","20.97","30.00","47.21","21.01","33.08","0","26.75"
"Eric Bledsoe","Eric-Bledsoe-1031","7200","PG/SG","41.28","239.5","31.5","98.80","23.42","34.00","54.27","22.69","37.07","0","0"
"Andre Drummond","Andre-Drummond-13904","8600","C","51.16","220.5","31.1","100.30","24.13","34.00","54.12","20.31","44.25","0","42.5"
"Stanley Johnson","Stanley-Johnson-18913","4000","SF/PF","35.51","220.5","21.0","100.30","26.34","28.00","34.16","15.57","20.59","0","0.0"
"Joe Harris","Joe-Harris-18587","4300","SG/SF","37.92","221.5","31.0","114.62","16.28","30.00","32.21","14.76","22.09","0","19.25"
"Marc Gasol","Marc-Gasol-1493","8100","C","57.16","214","38.5","103.30","21.28","35.00","56.09","23.93","41.61","0","33.0"
"Trevor Ariza","Trevor-Ariza-1323","5600","SF/PF","37.56","210.5","32.0","108.80","14.98","33.00","37.82","14.51","28.74","0","28.25"
"Jerami Grant","Jerami-Grant-18576","4500","PF","51.57","218.5","29.2","102.62","13.42","30.00","35.21","15.89","23.09","0","21.75"
"Jeremy Lamb","Jeremy-Lamb-13955","6100","SG/SF","40.88","219","33.0","103.00","21.23","33.00","42.79","18.06","31.19","0","14.5"
"Buddy Hield","Buddy-Hield-35206","6200","SG/SF","36.13","223","28.8","98.20","25.96","32.00","48.04","21.25","31.71","0","39.0"
"Serge Ibaka","Serge-Ibaka-1294","6200","PF/C","48.36","221.5","29.4","105.50","18.94","30.00","44.95","18.87","31.61","0","20.0"
"Allen Crabbe","Allen-Crabbe-16978","3900","SG/SF","37.92","221.5","29.1","114.62","15.41","28.00","31.57","13.03","19.83","0","18.0"
"Lauri Markkanen","Lauri-Markkanen-37809","6300","PF","46.25","218.5","28.5","104.50","29.00","32.00","45.93","19.4","32.01","0","44.75"
"Jarrett Allen","Jarrett-Allen-37794","5500","C","48.53","221.5","30.3","114.62","16.63","29.00","38.53","16.97","27.96","0","35.0"
"Aaron Gordon","Aaron-Gordon-18601","7100","SF/PF","47.77","206.5","31.8","105.10","19.94","34.00","46.19","19.18","36.06","0","49.5"
"Rodney McGruder","Rodney-McGruder-16850","4500","SG/SF","36.17","210.5","26.5","106.90","15.89","30.00","35.58","15.37","22.81","0","22.25"
"J.J. Redick","J.J.-Redick-1030","5400","SG/SF","38.82","220.5","27.8","108.33","24.96","32.00","36.92","17.01","27.39","0","0"
"Dante Cunningham","Dante-Cunningham-1259","3400","SF/PF","45.24","224","21.8","99.70","6.05","28.00","27.71","11.62","17.21","0","25.25"
"Steven Adams","Steven-Adams-16848","7000","C","55.20","218.5","32.5","102.62","16.79","33.00","46.61","23.29","35.39","0","39.0"
"Mikal Bridges","Mikal-Bridges-408842","4000","SG/SF","37.56","210.5","25.1","108.80","12.30","29.00","22.31","8.23","20.21","0","24.5"
"Jaren Jackson","Jaren-Jackson-409099","6100","PF/C","57.16","214","28.0","103.30","21.27","30.00","31.71","6.35","30.67","0","4.0"
"Jordan Bell","Jordan-Bell-37877","3300","PF/C","48.37","239.5","15.6","103.10","12.41","18.00","27.66","14.04","16.61","0","10.25"
"Ed Davis","Ed-Davis-1265","3300","PF/C","48.53","221.5","14.4","114.62","12.35","18.00","30.26","12.37","16.56","0","21.25"
"Nikola Vucevic","Nikola-Vucevic-13296","8700","C","51.85","206.5","31.9","105.10","27.37","33.00","53.07","20.05","43.5","0","38.5"
"Evan Fournier","Evan-Fournier-13913","5500","SG/SF","37.63","206.5","31.4","105.10","19.41","31.00","34.74","14.14","27.4","0","13.0"
"Tyson Chandler","Tyson-Chandler-1482","3600","C","53.96","224","20.7","112.50","7.27","24.00","34.64","17.93","17.93","0","10.5"
"DeMar DeRozan","DeMar-DeRozan-1053","8900","SG/SF","50.22","224","32.8","99.70","31.07","36.00","60.75","21.18","44.12","0","0"
"Langston Galloway","Langston-Galloway-18717","3300","PG/SG","32.77","220.5","23.0","100.30","13.23","25.00","22.51","8.35","16.35","0","22.25"
"Tristan Thompson","Tristan-Thompson-13308","7300","C","54.44","223","34.6","103.60","17.34","34.00","49.68","21.8","36.16","0","13.0"
"De'Aaron Fox","De'Aaron-Fox-37900","7700","PG","55.34","223","30.2","98.20","27.43","35.00","47.45","19.31","38.08","0","59.5"
"T.J. McConnell","T.J.-McConnell-18956","3400","PG/SG","41.70","220.5","21.3","108.33","14.53","22.00","27.02","14.15","16.79","0","17.25"
"Klay Thompson","Klay-Thompson-13315","6500","SG","38.06","239.5","35.6","103.10","27.18","35.00","42.84","18.76","32.02","0","47.75"
"Nikola Jokic","Nikola-Jokic-31812","9300","C","56.57","219","28.7","99.62","27.50","32.00","60.44","18.27","45.79","0","44.25"
"Richaun Holmes","Richaun-Holmes-18905","4200","PF/C","52.12","210.5","18.4","108.80","18.68","20.00","35.34","14.53","20.64","0","19.0"
"Bogdan Bogdanovic","Bogdan-Bogdanovic-37899","6000","SG/SF","52.45","223","29.2","98.20","23.70","32.00","46.66","25.68","29.42","0","26.5"
"Russell Westbrook","Russell-Westbrook-1083","11400","PG","50.39","218.5","34.5","102.62","33.25","35.00","62.04","19.08","55.79","0","73.25"
"Josh Jackson","Josh-Jackson-37890","5500","SF/PF","46.90","210.5","24.6","108.80","25.79","28.00","39.21","18.22","26.91","0","24.25"
"Jrue Holiday","Jrue-Holiday-1073","8500","PG/SG","42.01","214","36.5","104.88","27.66","37.00","56.04","19.43","41.6","0","44.75"
"Mike Conley","Mike-Conley-1062","8400","PG","53.73","214","35.5","103.30","29.74","35.00","60.88","24.59","41.05","0","0"
"Justin Holiday","Justin-Holiday-14559","5700","SG/SF","39.27","218.5","36.4","104.50","17.70","37.00","39.38","16.65","27.79","0","35.0"
"Nicolas Batum","Nicolas-Batum-1315","5200","SG/SF","33.22","219","29.3","103.00","15.30","33.00","34.84","17.88","25.36","0","15.75"
"Trey Lyles","Trey-Lyles-18942","3500","SF/PF","49.31","219","17.2","99.62","25.08","17.00","26.75","14.61","17.03","0","22.25"
"Danny Green","Danny-Green-940","4300","SG/SF","31.58","221.5","30.3","105.50","12.82","30.00","29.58","14.5","20.86","0","0"
"Ryan Arcidiacono","Ryan-Arcidiacono-36050","3800","PG","34.77","218.5","32.4","104.50","13.55","30.00","29.45","11.85","18.43","0","16.25"
"Terrence Ross","Terrence-Ross-13902","5000","SG/SF","37.63","206.5","27.7","105.10","22.95","30.00","37.38","20.65","24.26","0","17.5"
"E'Twaun Moore","E'Twaun-Moore-18582","4200","SG/SF","37.03","214","26.7","104.88","19.80","29.00","32.56","16.76","20.36","0","7.5"
"Stephen Curry","Stephen-Curry-1079","10000","PG/SG","47.21","239.5","32.7","103.10","33.78","35.00","67.1","25.86","48.52","0","39.5"
"Paul George","Paul-George-1245","9100","SF/PF","51.57","218.5","32.5","102.62","30.41","35.00","61.45","27.13","44.05","0","43.25"
"Patty Mills","Patty-Mills-13977","3700","PG/SG","35.97","224","21.8","99.70","17.85","22.00","27.03","13.86","17.84","0","23.25"
"Rondae Hollis-Jefferson","Rondae-Hollis-Jefferson-18897","5100","PF/C","45.91","221.5","26.4","114.62","17.82","25.00","37.47","15.89","24.52","0","21.5"
"Willie Cauley-Stein","Willie-Cauley-Stein-18951","6500","C","48.56","223","24.6","98.20","20.89","31.00","44.78","19.74","31.29","0","25.5"
"LeBron James","LeBron-James-1227","10800","SF/PF","52.09","224","34.7","112.50","33.30","36.00","66.25","20.6","51.88","0","68.0"
"Derrick White","Derrick-White-37858","3900","PG/SG","35.97","224","20.2","99.70","17.12","22.00","33.9","14.43","18.67","0","4.0"
"Kyle Lowry","Kyle-Lowry-1057","7800","PG","46.67","221.5","34.3","105.50","19.87","33.00","53.09","20.23","37.39","0","0"
"Andre Iguodala","Andre-Iguodala-1334","3400","SG/SF","38.06","239.5","26.0","103.10","8.06","22.00","24.52","9.82","16.26","0","33.5"
"Blake Griffin","Blake-Griffin-1503","9400","PF/C","54.44","220.5","34.1","100.30","31.29","35.00","57.49","21.73","44.81","0","54.5"
"Jabari Parker","Jabari-Parker-18593","6000","SF/PF","46.25","218.5","33.7","104.50","25.88","30.00","48.94","24.34","28.57","0","32.25"
"Malcolm Brogdon","Malcolm-Brogdon-35195","5800","PG/SG","49.16","239.5","31.0","98.80","20.48","34.00","41.55","19.55","27.57","0","28.75"
"Kevin Durant","Kevin-Durant-1348","10300","SF/PF","44.10","239.5","37.7","103.10","35.52","35.00","63.81","25.32","48.97","0","29.0"
"Zach LaVine","Zach-LaVine-18622","8200","PG/SG","45.38","218.5","34.7","104.50","30.60","35.00","53.76","23.24","38.87","0","41.0"
"Myles Turner","Myles-Turner-18915","6400","C","50.68","206.5","29.6","107.67","19.58","31.00","49.67","22.69","30.34","0","19.5"
"Ersan Ilyasova","Ersan-Ilyasova-1301","3300","PF/C","45.88","239.5","18.0","98.80","21.59","18.00","23.74","11.71","15.57","0","11.0"
"Elie Okobo","Elie-Okobo-409300","3800","PG","39.28","210.5","28.2","108.80","19.00","23.00","19.74","7.28","17.88","0","20.25"
"Marvin Williams","Marvin-Williams-1318","4600","SF/PF","48.33","219","27.5","103.00","14.54","25.00","34.82","17.79","21.59","0","34.0"
"Torrey Craig","Torrey-Craig-37861","3300","SG/SF","40.01","219","17.0","99.62","11.18","24.00","21.77","9.45","15.47","0","5.0"
"Jonas Jerebko","Jonas-Jerebko-1106","4200","SF/PF","44.10","239.5","22.7","103.10","13.90","22.00","35.83","16.34","19.71","0","21.75"
"Solomon Hill","Solomon-Hill-16863","3200","SF/PF","39.74","214","22.5","104.88","8.22","25.00","23.07","12.33","14.94","0","16.75"
"Troy Daniels","Troy-Daniels-17383","3400","SG","37.71","210.5","18.0","108.80","21.53","21.00","28.74","15.88","15.88","0","26.0"
"Iman Shumpert","Iman-Shumpert-13350","3700","SG/SF","36.13","223","24.8","98.20","11.79","25.00","25.11","12.36","17.29","0","14.0"
"Nerlens Noel","Nerlens-Noel-18575","3500","C","55.20","218.5","14.0","102.62","16.81","15.00","27.5","13.9","16.35","0","14.0"
"Kevon Looney","Kevon-Looney-18945","4300","PF/C","48.37","239.5","22.0","103.10","12.93","26.00","28.9","12.73","19.92","0","22.25"
"Kawhi Leonard","Kawhi-Leonard-13310","9700","SF/PF","43.59","221.5","35.9","105.50","28.53","34.00","59.93","21.89","44.86","0","52.75"
"Cory Joseph","Cory-Joseph-13339","4300","PG","36.07","206.5","27.7","107.67","16.31","27.00","34.75","15.0","19.81","0","25.75"
"Bojan Bogdanovic","Bojan-Bogdanovic-18571","5400","SG/SF","41.56","206.5","32.7","107.67","20.67","33.00","38.75","19.68","24.76","0","35.75"
"Cameron Payne","Cameron-Payne-18941","3300","PG/SG","34.77","218.5","13.9","104.50","16.32","20.00","25.67","13.1","15.08","0","17.25"
"Deandre Ayton","Deandre-Ayton-409301","6600","C","52.95","210.5","28.0","108.80","20.43","28.00","33.22","12.25","30.09","0","34.75"
"Goran Dragic","Goran-Dragic-1040","5900","PG","45.36","210.5","0","106.90","0","26.00","37.01","15.82","26.9","0","0"
"Dwyane Wade","Dwyane-Wade-967","5400","PG/SG","51.19","210.5","27.0","106.90","29.41","25.00","35.12","16.34","24.61","0","0"
"Brook Lopez","Brook-Lopez-1498","4800","C","54.98","239.5","28.5","98.80","17.42","27.00","32.98","14.92","21.84","0","23.5"
"Jerian Grant","Jerian-Grant-18900","3300","PG","37.61","206.5","19.7","105.10","11.82","19.00","25.2","13.11","14.91","0","14.25"
"Bruce Brown","Bruce-Brown-408913","3400","PG/SG","53.63","220.5","19.9","100.30","9.99","23.00","15.57","2.78","15.34","0","17.25"
"Darren Collison","Darren-Collison-1060","6600","PG","36.07","206.5","29.7","107.67","19.72","34.00","40.87","18.08","29.79","0","0"
"Kyle Kuzma","Kyle-Kuzma-37886","6800","SF/PF","52.09","224","32.6","112.50","22.20","35.00","39.68","17.0","30.57","0","44.0"
"Tony Parker","Tony-Parker-982","3700","PG","38.26","219","22.2","103.00","24.22","18.00","28.02","16.61","16.61","0","0"
"Bryn Forbes","Bryn-Forbes-36052","3500","PG/SG","50.55","224","23.4","99.70","19.38","22.00","22.62","9.47","15.6","0","18.5"
"Pascal Siakam","Pascal-Siakam-35186","6000","PF","62.69","221.5","31.4","105.50","16.02","30.00","39.6","15.22","26.74","0","32.5"
"Nikola Mirotic","Nikola-Mirotic-18584","7200","SF/PF","39.11","214","32.0","104.88","21.01","28.00","47.98","19.88","32.01","0","6.5"
"Pat Connaughton","Pat-Connaughton-18939","3500","SG/SF","40.43","239.5","23.5","98.80","14.19","22.00","27.59","11.87","15.39","0","14.75"
"Nemanja Bjelica","Nemanja-Bjelica-31814","4200","SF/PF","45.95","223","18.6","98.20","18.23","20.00","30.21","12.01","18.22","0","21.0"
"Jonathon Simmons","Jonathon-Simmons-31808","3500","SG/SF","45.91","206.5","21.0","105.10","17.30","22.00","23.33","10.0","15.18","0","7.5"
"Mohamed Bamba","Mohamed-Bamba-409026","3600","C","49.02","206.5","14.9","105.10","18.36","15.00","16.89","3.57","15.57","0","16.25"
"Terrance Ferguson","Terrance-Ferguson-37871","3000","SG/SF","35.24","218.5","25.5","102.62","8.00","24.00","20.27","7.97","12.83","0","10.0"
"Zaza Pachulia","Zaza-Pachulia-1455","3200","C","51.16","220.5","13.4","100.30","12.96","14.00","23.04","11.87","13.57","0","20.25"
"Jakob Poeltl","Jakob-Poeltl-35187","3300","C","56.20","224","15.8","99.70","18.32","15.00","27.39","12.33","13.88","0","31.5"
"Kosta Koufos","Kosta-Koufos-1386","3000","C","48.56","223","17.0","98.20","17.11","13.00","23.94","12.49","12.49","0","18.5"
"Fred VanVleet","Fred-VanVleet-36011","4400","PG/SG","39.72","221.5","20.7","105.50","20.38","21.00","29.15","14.98","18.25","0","16.75"
"JaMychal Green","JaMychal-Green-18729","4500","SF/PF","57.16","214","26.0","103.30","19.07","20.00","31.14","16.31","18.66","0","38.5"
"Shaquille Harrison","Shaquille-Harrison-36065","3200","PG","34.77","218.5","14.4","104.50","15.54","16.00","21.38","10.76","13.23","0","8.0"
"DeMarre Carroll","DeMarre-Carroll-1174","3800","SF/PF","37.72","221.5","22.7","114.62","17.80","20.00","26.52","12.05","15.61","0","24.5"
"Darius Miller","Darius-Miller-13951","3300","SF/PF","39.74","214","22.2","104.88","14.39","22.00","23.86","13.41","13.41","0","7.25"
"Mason Plumlee","Mason-Plumlee-16798","4100","PF/C","52.64","219","18.5","99.62","20.21","16.00","28.64","13.59","16.66","0","22.25"
"Alex Abrines","Alex-Abrines-36054","3000","SG/SF","35.24","218.5","16.5","102.62","12.79","18.00","23.58","12.07","12.07","0","8.25"
"MarShon Brooks","MarShon-Brooks-188837","3000","SG","50.97","214","14.0","103.30","23.64","15.00","18.46","8.49","12.04","0","10.25"
"Jamal Crawford","Jamal-Crawford-1075","3700","PG/SG","46.90","210.5","21.8","108.80","24.07","19.00","25.68","14.63","14.63","0","11.25"
"Jose Calderon","Jose-Calderon-1071","3000","PG","37.01","220.5","10.5","100.30","16.48","18.00","20.96","9.98","11.82","0","12.5"
"Landry Shamet","Landry-Shamet-408841","3100","PG/SG","50.86","220.5","21.7","108.33","14.96","18.00","12.74","2.94","12.03","0","3.75"
"Shaun Livingston","Shaun-Livingston-14007","3100","PG","42.84","239.5","16.6","103.10","15.24","16.00","19.3","9.42","11.89","0","14.0"
"Malik Monk","Malik-Monk-37827","3200","PG/SG","49.99","219","13.5","103.00","25.32","14.00","18.65","10.06","12.18","0","21.0"
"Miles Bridges","Miles-Bridges-409262","4200","SF/PF","48.33","219","19.0","103.00","19.56","20.00","17.26","3.64","15.91","0","19.0"
"Glenn Robinson","Glenn-Robinson-18621","3000","SF/PF","35.51","220.5","14.9","100.30","12.72","18.00","16.63","7.34","11.33","0","10.75"
"OG Anunoby","OG-Anunoby-37807","3300","SF/PF","31.58","221.5","16.7","105.50","19.05","18.00","23.27","12.36","12.36","0","8.0"
"Tyler Johnson","Tyler-Johnson-18720","4800","PG/SG","53.65","210.5","13.0","106.90","13.32","22.00","28.26","12.72","17.94","0","23.75"
"Michael Kidd-Gilchrist","Michael-Kidd-Gilchrist-13896","3900","SF/PF","33.22","219","19.4","103.00","17.17","20.00","23.59","8.94","14.49","0","14.25"
"Delon Wright","Delon-Wright-18907","3300","PG/SG","39.72","221.5","14.6","105.50","16.15","15.00","19.57","9.49","11.89","0","14.25"
"Marco Belinelli","Marco-Belinelli-1033","3400","SG/SF","34.72","224","18.9","99.70","20.54","15.00","18.15","9.35","12.22","0","0"
"Doug McDermott","Doug-McDermott-18583","3400","SF/PF","41.56","206.5","19.5","107.67","17.57","19.00","23.39","11.7","11.7","0","12.25"
"Lance Stephenson","Lance-Stephenson-947","3300","SG/SF","49.94","224","10.7","112.50","25.16","12.00","19.52","9.05","11.34","0","0"
"Davis Bertans","Davis-Bertans-36051","3500","PF/C","60.98","224","18.9","99.70","16.42","14.00","20.63","9.51","11.89","0","20.25"
"Alfonzo McKinnie","Alfonzo-McKinnie-37808","3000","SF/PF","38.32","239.5","13.0","103.10","13.66","13.00","18.61","9.66","9.66","0","15.75"
"Jared Dudley","Jared-Dudley-1319","3100","SF/PF","37.72","221.5","16.7","114.62","9.75","18.00","17.51","8.58","9.82","0","5.0"
"Aaron Holiday","Aaron-Holiday-408932","3400","PG/SG","36.07","206.5","14.3","107.67","24.63","13.00","10.74","1.96","10.62","0","26.75"
"TJ Leaf","TJ-Leaf-37817","3000","SF/PF","50.68","206.5","9.0","107.67","19.26","12.00","17.5","9.37","9.37","0","0"
"Frank Kaminsky","Frank-Kaminsky-18920","3700","PF/C","55.63","219","16.3","103.00","21.02","13.00","18.29","9.26","11.25","0","24.5"
"Quinn Cook","Quinn-Cook-31771","3500","PG","47.21","239.5","20.6","103.10","18.69","13.00","19.78","10.46","10.46","0","0.0"
"Joakim Noah","Joakim-Noah-1404","3000","C","48.84","214","12.0","103.30","20.00","10.00","14.83","7.87","8.69","0","24.75"
"Donte DiVincenzo","Donte-DiVincenzo-408950","3200","PG/SG","40.43","239.5","12.8","98.80","14.37","13.00","9.06","1.72","8.79","0","0.0"
"C.J. Miles","C.J.-Miles-1299","3100","SG/SF","31.58","221.5","11.1","105.50","21.07","11.00","14.02","6.8","8.39","0","8.25"
"Patrick Patterson","Patrick-Patterson-1260","3200","PF/C","67.64","218.5","13.2","102.62","14.67","13.00","15.36","7.34","8.67","0","2.5"
"Shabazz Napier","Shabazz-Napier-18598","3500","PG/SG","42.63","221.5","16.1","114.62","25.53","10.00","15.88","7.02","8.63","0","0.0"
"Luke Kennard","Luke-Kennard-37814","3000","SG/SF","32.77","220.5","9.0","100.30","28.89","10.00","11.2","5.13","7.4","0","10.25"
"Troy Williams","Troy-Williams-36043","3300","SF/PF","36.13","223","14.0","98.20","16.37","10.00","12.87","6.59","8.15","0","3.25"
"Dragan Bender","Dragan-Bender-35228","3000","PF/C","52.95","210.5","13.7","108.80","14.50","10.00","12.96","7.37","7.37","0","0.0"
"Chandler Hutchison","Chandler-Hutchison-408877","3000","SG/SF","38.34","218.5","15.2","104.50","9.64","10.00","7.91","1.67","7.29","0","8.0"
"Tony Snell","Tony-Snell-16872","3400","SG/SF","35.34","239.5","15.5","98.80","16.41","14.00","13.15","6.83","7.56","0","12.5"
"Furkan Korkmaz","Furkan-Korkmaz-35185","3100","SG/SF","50.86","220.5","13.8","108.33","20.71","10.00","12.55","6.61","6.61","0","9.25"
"Michael Beasley","Michael-Beasley-1338","3000","SF/PF","52.09","224","8.0","112.50","30.31","6.00","9.97","5.32","6.3","0","5.25"
"Jalen Jones","Jalen-Jones-35996","3000","SF/PF","37.52","223","3.0","103.60","13.33","8.00","10.84","5.03","6.3","0","0"
"Hamidou Diallo","Hamidou-Diallo-408800","3200","SG/SF","35.24","218.5","4.0","102.62","38.80","8.00","6.14","1.12","6.07","0","7.5"
"Justin Jackson","Justin-Jackson-37895","3400","SF","36.13","223","19.0","98.20","14.06","9.00","8.95","4.76","5.91","0","12.0"
"Omri Casspi","Omri-Casspi-1270","3100","SF/PF","40.24","214","13.7","103.30","12.93","6.00","8.8","4.23","5.04","0","11.25"
"Thon Maker","Thon-Maker-35194","3200","PF/C","50.15","239.5","12.2","98.80","16.40","6.00","8.52","4.08","5.02","0","4.5"
"Jonah Bolden","Jonah-Bolden-554969","3000","PF","44.36","220.5","0","108.33","0","6.00","4.72","1.09","4.46","0","-0.5"
"Sviatoslav Mykhailiuk","Sviatoslav-Mykhailiuk-409280","3000","SG/SF","37.73","224","7.8","112.50","25.38","8.00","4.74","1.09","4.48","0","8.25"
"Marcus Derrickson","Marcus-Derrickson-570312","3000","SF","44.10","239.5","4.5","103.10","22.22","5.00","3.76","0.7","3.66","0","0.0"
"Frank Mason","Frank-Mason-37898","3000","PG/SG","43.46","223","11.0","98.20","19.15","3.00","3.92","2.26","2.62","0","2.25"
"Khyri Thomas","Khyri-Thomas-408839","3000","SG","32.77","220.5","5.5","100.30","20.58","3.00","2.18","0.39","2.15","0","0.0"
