"nameCol","idCol","salaryCol","positionCol","dvpCol","ouCol","mpgCol","paceCol","usgCol","pminCol","ceilCol","floorCol","pointsCol","predictCol","actualCol"
"Josh Jackson","Josh-Jackson-37890","5300","SF","46.32","222.5","22.7","108.80","23.75","36.00","55.31","25.7","37.96","0","22.5"
"Mikal Bridges","Mikal-Bridges-408842","3800","SF","37.12","222.5","24.7","108.80","10.68","31.00","28.95","10.67","26.22","0","25.25"
"Troy Daniels","Troy-Daniels-17383","3000","SG","42.54","222.5","15.0","108.80","21.33","18.00","33.85","18.7","18.7","0","24.0"
"Deandre Ayton","Deandre-Ayton-409301","6500","C","59.93","222.5","30.0","108.80","20.27","31.00","44.56","16.43","40.36","0","26.25"
"Wendell Carter","Wendell-Carter-408878","4800","C","51.52","210.5","24.7","104.50","20.39","30.00","27.94","3.32","29.6","0","38.75"
"Nemanja Bjelica","Nemanja-Bjelica-31814","3900","SF/PF","51.88","222.5","19.4","98.20","20.00","24.00","39.33","15.78","23.88","0","18.25"
"Elie Okobo","Elie-Okobo-409300","4400","PG","45.10","222.5","29.3","108.80","18.77","30.00","29.53","10.89","26.75","0","12.25"
"Tyreke Evans","Tyreke-Evans-1070","5200","SG/SF","43.35","210.5","23.8","107.67","25.36","27.00","45.27","16.18","31.35","0","16.25"
"Justise Winslow","Justise-Winslow-18921","4100","PG/SF","33.34","207","25.7","106.90","19.86","23.00","36.64","17.69","23.84","0","28.25"
"Royce O'Neale","Royce-O'Neale-37872","3300","SF","37.18","215.5","21.9","98.88","9.81","23.00","28.68","14.0","18.82","0","21.5"
"Kosta Koufos","Kosta-Koufos-1386","3000","C","60.67","222.5","15.0","98.20","14.21","16.00","32.95","17.08","17.08","0","18.25"
"James Johnson","James-Johnson-1195","3700","SF/PF","51.41","207","20.5","106.90","20.09","19.00","27.18","10.68","20.65","0","18.5"
"Thaddeus Young","Thaddeus-Young-1289","4700","SF/PF","52.56","210.5","27.2","107.67","18.45","28.00","37.22","13.93","26.03","0","16.25"
"Evan Turner","Evan-Turner-1291","4000","SG/SF","50.55","216.5","26.5","104.50","16.29","26.00","33.42","18.38","22.12","0","26.25"
"Jonathon Simmons","Jonathon-Simmons-31808","3500","SG/SF","46.69","207","18.5","105.10","19.07","25.00","29.07","12.58","19.3","0","12.5"
"Trevor Ariza","Trevor-Ariza-1323","5700","SF/PF","37.12","222.5","34.6","108.80","13.34","36.00","40.7","15.62","30.93","0","27.75"
"Willie Cauley-Stein","Willie-Cauley-Stein-18951","6400","C","60.67","222.5","27.8","98.20","20.92","31.00","49.28","21.73","34.44","0","25.5"
"Troy Williams","Troy-Williams-36043","3000","SG","35.71","222.5","12.2","98.20","18.48","18.00","25.86","13.06","16.14","0","21.75"
"Jae Crowder","Jae-Crowder-13942","5000","SF/PF","37.18","215.5","28.4","98.88","21.14","32.00","39.39","15.18","26.78","0","15.25"
"Wesley Matthews","Wesley-Matthews-1339","4700","SG/SF","38.99","216.5","28.2","100.08","19.29","31.00","36.8","15.44","25.1","0","24.75"
"Evan Fournier","Evan-Fournier-13913","5300","SG/SF","37.42","207","31.7","105.10","20.61","32.00","36.33","15.12","28.21","0","16.75"
"LaMarcus Aldridge","LaMarcus-Aldridge-1349","7600","PF/C","56.38","215.5","32.1","99.70","26.43","34.00","57.84","26.19","40.11","0","25.25"
"Al-Farouq Aminu","Al-Farouq-Aminu-1279","4800","SF/PF","39.93","216.5","28.6","104.50","12.92","29.00","38.83","18.93","25.28","0","34.75"
"Dwyane Wade","Dwyane-Wade-967","5500","PG/SG","47.38","207","25.5","106.90","29.37","24.00","40.35","19.01","28.76","0","0"
"Patty Mills","Patty-Mills-13977","3600","PG/SG","48.39","215.5","23.0","99.70","17.00","22.00","28.94","14.75","18.84","0","12.75"
"Ricky Rubio","Ricky-Rubio-1001","6200","PG","46.71","215.5","29.6","98.88","23.83","32.00","43.87","17.24","32.35","0","0"
"Joe Ingles","Joe-Ingles-18627","5100","SG/SF","33.38","215.5","31.1","98.88","17.99","32.00","41.32","17.39","26.59","0","33.75"
"Wayne Ellington","Wayne-Ellington-1009","4600","PG/SG","33.34","207","31.5","106.90","14.12","32.00","35.63","16.35","23.9","0","0"
"Domantas Sabonis","Domantas-Sabonis-35217","7200","PF/C","55.23","210.5","25.0","107.67","27.36","26.00","55.47","28.96","37.23","0","31.75"
"Maurice Harkless","Maurice-Harkless-16971","3700","SF/PF","39.93","216.5","15.7","104.50","13.14","26.00","30.56","12.79","19.09","0","11.25"
"Davis Bertans","Davis-Bertans-36051","3500","PF/C","56.38","215.5","19.0","99.70","16.73","21.00","27.08","11.79","18.03","0","22.5"
"Cory Joseph","Cory-Joseph-13339","4300","PG","46.74","210.5","27.5","107.67","16.27","29.00","39.93","17.8","22","0","17.0"
"Justin Jackson","Justin-Jackson-37895","3400","SF","35.71","222.5","18.0","98.20","13.75","24.00","26.21","14.03","17.38","0","16.5"
"Cameron Payne","Cameron-Payne-18941","3000","PG/SG","42.65","210.5","12.1","104.50","14.66","17.00","25.75","13.28","15.27","0","17.25"
"D.J. Augustin","D.J.-Augustin-1064","4500","PG","41.49","207","26.3","105.10","17.45","29.00","37.26","12.28","22.87","0","0"
"Lauri Markkanen","Lauri-Markkanen-37809","5400","PF","47.54","210.5","25.0","104.50","22.40","28.00","39.31","17.66","27.43","0","43.5"
"Josh Richardson","Josh-Richardson-18922","7000","SG/SF","47.38","207","35.8","106.90","26.79","35.00","52.67","20.79","35.47","0","19.0"
"Dennis Smith Jr.","Dennis-Smith-Jr.-37847","5500","PG","45.69","216.5","27.0","100.08","19.48","28.00","37.49","15.17","27.79","0","31.0"
"De'Aaron Fox","De'Aaron-Fox-37900","7500","PG","52.20","222.5","32.2","98.20","26.88","34.00","47.75","19.22","37.9","0","28.5"
"Hassan Whiteside","Hassan-Whiteside-18664","7700","C","53.24","207","23.7","106.90","27.28","26.00","48.93","18.41","38.83","0","32.25"
"Derrick Favors","Derrick-Favors-1266","4400","PF/C","50.92","215.5","21.4","98.88","15.57","21.00","37.96","18.08","22.08","0","25.25"
"Buddy Hield","Buddy-Hield-35206","6000","SG/SF","35.71","222.5","31.2","98.20","24.03","30.00","46.11","20.42","29.94","0","30.75"
"Bogdan Bogdanovic","Bogdan-Bogdanovic-37899","5800","SG/SF","51.97","222.5","31.2","98.20","24.80","31.00","46.15","25.21","28.88","0","27.75"
"Rudy Gay","Rudy-Gay-1341","5500","SF/PF","49.43","215.5","26.3","99.70","16.11","27.00","35.58","13.61","27.39","0","3.75"
"Kyle Korver","Kyle-Korver-1269","3400","SG/SF","33.38","215.5","16.7","98.88","18.48","22.00","29.89","13.28","16.79","0","19.75"
"C.J. McCollum","C.J.-McCollum-17121","7100","PG/SG","50.55","216.5","35.9","104.50","26.20","34.00","46.94","19.9","35.03","0","31.75"
"Ryan Arcidiacono","Ryan-Arcidiacono-36050","4000","PG","42.65","210.5","32.7","104.50","13.55","30.00","30.88","12.6","19.68","0","5.25"
"Bryn Forbes","Bryn-Forbes-36052","3700","PG/SG","48.18","215.5","24.7","99.70","19.02","25.00","26.25","10.96","18.09","0","11.0"
"Jusuf Nurkic","Jusuf-Nurkic-18619","7400","C","49.10","216.5","26.4","104.50","23.62","28.00","46.99","20.13","36.01","0","28.25"
"DeAndre Jordan","DeAndre-Jordan-1486","7300","C","51.99","216.5","29.6","100.08","16.98","32.00","44.08","21.24","35.46","0","41.75"
"Damian Lillard","Damian-Lillard-13900","9800","PG","51.99","216.5","36.9","104.50","31.81","35.00","60.1","23.06","47.36","0","57.0"
"Aaron Gordon","Aaron-Gordon-18601","6900","SF/PF","49.74","207","30.8","105.10","19.14","32.00","43.07","18.38","33.36","0","50.25"
"Maxi Kleber","Maxi-Kleber-37845","3200","PF","52.21","216.5","18.7","100.08","16.16","17.00","25.36","12.74","15.41","0","24.75"
"Jonathan Isaac","Jonathan-Isaac-37841","4300","PF","53.29","207","25.2","105.10","16.93","27.00","33.51","18.32","20.47","0","28.5"
"Kelly Olynyk","Kelly-Olynyk-16845","3900","PF/C","50.04","207","20.6","106.90","16.50","18.00","27.61","15.56","18.54","0","28.5"
"Luka Doncic","Luka-Doncic-408971","7000","PG","45.50","216.5","29.5","100.08","25.26","32.00","37.71","10.17","33.25","0","36.75"
"Jerian Grant","Jerian-Grant-18900","3300","PG","41.49","207","19.8","105.10","12.85","19.00","25.81","13.74","15.63","0","10.5"
"Iman Shumpert","Iman-Shumpert-13350","3700","SG/SF","35.71","222.5","26.2","98.20","10.65","24.00","25.32","12.54","17.51","0","15.5"
"Richaun Holmes","Richaun-Holmes-18905","3800","PF/C","54.44","222.5","17.1","108.80","20.11","16.00","30.64","12.6","17.9","0","26.5"
"Jamal Crawford","Jamal-Crawford-1075","3900","PG/SG","46.32","222.5","21.9","108.80","24.48","20.00","32.08","18.28","18.28","0","15.75"
"Donovan Mitchell","Donovan-Mitchell-37875","7900","PG/SG","51.12","215.5","29.8","98.88","33.62","34.00","48.38","19.92","36.96","0","29.75"
"Justin Holiday","Justin-Holiday-14559","5400","SG/SF","37.69","210.5","35.3","104.50","18.03","32.00","36.07","16.85","25.19","0","30.0"
"Terrence Ross","Terrence-Ross-13902","5000","SG/SF","37.42","207","25.5","105.10","24.18","28.00","35.88","19.77","23.18","0","27.75"
"DeMar DeRozan","DeMar-DeRozan-1053","8300","SG/SF","41.21","215.5","33.4","99.70","30.81","35.00","51.91","18.0","38.37","0","0"
"Zach LaVine","Zach-LaVine-18622","8400","PG/SG","47.22","210.5","35.1","104.50","31.36","36.00","54.62","23.6","38.82","0","30.0"
"Rudy Gobert","Rudy-Gobert-16935","8600","C","55.12","215.5","32.6","98.88","17.45","33.00","52.31","16.33","39.54","0","43.5"
"Derrick White","Derrick-White-37858","4200","PG","48.39","215.5","19.0","99.70","14.34","27.00","34.3","16.35","18.92","0","19.75"
"Jakob Poeltl","Jakob-Poeltl-35187","3300","C","52.49","215.5","13.9","99.70","17.11","17.00","29.38","13.03","14.71","0","31.75"
"Harrison Barnes","Harrison-Barnes-13901","6600","SF/PF","52.21","216.5","33.2","100.08","26.08","33.00","37.26","17.1","29.43","0","20.0"
"Nikola Vucevic","Nikola-Vucevic-13296","9000","C","53.29","207","31.0","105.10","27.87","31.00","52.04","19.69","39.94","0","40.0"
"Myles Turner","Myles-Turner-18915","6100","C","67.65","210.5","28.6","107.67","18.06","28.00","44.22","20.28","27.08","0","49.25"
"Bojan Bogdanovic","Bojan-Bogdanovic-18571","5600","SG/SF","36.04","210.5","32.8","107.67","20.50","32.00","39.14","20.35","24.82","0","26.5"
"Chandler Hutchison","Chandler-Hutchison-408877","3000","SG","34.67","210.5","17.0","104.50","8.04","16.00","14.12","3.47","13.3","0","9.0"
"Marco Belinelli","Marco-Belinelli-1033","3500","SG/SF","33.85","215.5","19.5","99.70","21.55","19.00","22.53","11.3","15.46","0","0"
"Rodney McGruder","Rodney-McGruder-16850","4700","SG/SF","41.44","207","28.2","106.90","16.76","28.00","32.3","12.96","20.77","0","20.25"
"Darren Collison","Darren-Collison-1060","6300","PG","46.74","210.5","27.8","107.67","20.17","29.00","36.73","16.71","27.21","0","0"
"Devin Harris","Devin-Harris-1076","3200","PG/SG","45.69","216.5","17.2","100.08","20.42","16.00","24.72","13.8","13.8","0","18.75"
"J.J. Barea","J.J.-Barea-18605","5100","PG/SG","45.69","216.5","23.0","100.08","31.13","19.00","32.47","15.95","21.91","0","19.0"
"Ryan Anderson","Ryan-Anderson-1281","3000","PF/C","54.68","222.5","14.0","108.80","9.04","14.00","20.14","12.73","12.73","0","0.0"
"Bam Adebayo","Bam-Adebayo-37835","4300","C","53.24","207","22.0","106.90","17.56","19.00","26.56","15.94","18.03","0","23.25"
"Jabari Parker","Jabari-Parker-18593","6700","SF/PF","47.54","210.5","35.1","104.50","25.43","28.00","47.44","23.61","27.71","0","21.5"
"Mohamed Bamba","Mohamed-Bamba-409026","3500","C","52.68","207","14.8","105.10","16.81","17.00","15.28","3.52","14.43","0","7.0"
"Seth Curry","Seth-Curry-16825","3000","PG/SG","32.47","216.5","15.8","104.50","11.58","17.00","22.23","12.17","12.17","0","2.5"
"Zach Collins","Zach-Collins-37866","3400","PF","50.14","216.5","15.9","104.50","16.28","16.00","21.24","10.72","13.74","0","7.25"
"Meyers Leonard","Meyers-Leonard-13905","3500","C","50.14","216.5","17.3","104.50","16.83","13.00","24.06","11.37","13.99","0","1.75"
"Dorian Finney-Smith","Dorian-Finney-Smith-36032","3800","SF","41.57","216.5","28.8","100.08","14.83","20.00","23.5","12.28","14.99","0","12.5"
"Doug McDermott","Doug-McDermott-18583","3500","SF/PF","36.04","210.5","21.0","107.67","17.26","20.00","25.11","12.56","12.56","0","5.75"
"Dwight Powell","Dwight-Powell-18566","3700","PF/C","54.81","216.5","16.7","100.08","19.78","12.00","20.12","10.25","12.85","0","13.5"
"Shaquille Harrison","Shaquille-Harrison-36065","3300","PG","42.65","210.5","15.0","104.50","16.21","13.00","17.44","8.95","10.99","0","8.25"
"Nik Stauskas","Nik-Stauskas-18636","3100","SG/SF","32.47","216.5","13.4","104.50","20.78","14.00","17.17","8.36","10.29","0","11.25"
"Aaron Holiday","Aaron-Holiday-408932","3600","PG","46.74","210.5","16.3","107.67","24.73","14.00","11.98","2.14","11.8","0","12.0"
"Robin Lopez","Robin-Lopez-1466","3200","C","49.02","210.5","17.6","104.50","17.04","10.00","20.65","10.33","10.33","0","0.0"
"Dante Cunningham","Dante-Cunningham-1259","3300","SF/PF","49.43","215.5","20.4","99.70","6.77","13.00","17.94","8.39","9.55","0","13.5"
"De'Anthony Melton","De'Anthony-Melton-409081","3000","SG","54.44","222.5","6.0","108.80","14.40","8.00","8.74","1.66","8.48","0","34.0"
"Raul Neto","Raul-Neto-31821","3200","PG","46.71","215.5","10.0","98.88","24.84","11.00","16.77","8.38","9.07","0","17.25"
"Tyler Johnson","Tyler-Johnson-18720","5000","PG/SG","49.47","207","0","106.90","0","16.00","21.05","9.43","13.4","0","10.25"
"Harry Giles","Harry-Giles-37897","3100","PF","51.88","222.5","10.5","98.20","32.01","8.00","6.46","1.49","6.1","0","16.5"
"TJ Leaf","TJ-Leaf-37817","3000","PF","67.65","210.5","7.5","107.67","20.00","7.00","11.17","5.59","5.59","0","0.0"
