"nameCol","idCol","salaryCol","positionCol","dvpCol","ouCol","mpgCol","paceCol","usgCol","pminCol","ceilCol","floorCol","pointsCol","predictCol","actualCol"
"Austin Rivers","Austin-Rivers-13903","3400","PG/SG","39.55","214.5","32.5","101.42","12.55","31.00","34.72","17.98","22.06","0","21.5"
"Lonzo Ball","Lonzo-Ball-37885","5500","PG","44.74","230","31.1","112.50","19.18","34.00","47.66","18.41","35.54","0","57.75"
"Maurice Harkless","Maurice-Harkless-16971","3300","SF/PF","36.72","227","24.0","104.50","13.87","25.00","33.38","13.97","20.85","0","29.0"
"Luke Kornet","Luke-Kornet-37800","3200","PF/C","40.39","228","13.3","100.17","19.31","24.00","31.41","15.01","19.93","0","39.25"
"Jusuf Nurkic","Jusuf-Nurkic-18619","6400","C","52.86","227","25.8","104.50","22.89","28.00","51.63","22.11","39.56","0","47.5"
"Meyers Leonard","Meyers-Leonard-13905","3200","PF/C","49.99","227","19.2","104.50","14.98","18.00","33.87","16.01","19.69","0","10.0"
"Gordon Hayward","Gordon-Hayward-1239","4700","SF/PF","45.92","214.5","26.8","101.75","18.19","29.00","42.29","19.87","28.71","0","26.5"
"George Hill","George-Hill-993","3500","PG/SG","41.95","228","21.5","98.80","12.21","23.00","35.79","18.04","20.93","0","0"
"Nemanja Bjelica","Nemanja-Bjelica-31814","4800","SF/PF","44.29","230","24.4","98.20","17.76","28.00","46.41","18.98","28.54","0","31.5"
"Khris Middleton","Khris-Middleton-13990","6200","SG/SF","49.39","228","33.0","98.80","25.26","34.00","58.95","26.79","36.5","0","39.5"
"Brandon Ingram","Brandon-Ingram-35227","5800","PG/SG","48.03","230","31.0","112.50","23.70","36.00","52.63","21.51","34.15","0","32.75"
"Wilson Chandler","Wilson-Chandler-1327","4000","SF/PF","29.99","219.5","30.2","108.33","13.29","30.00","35.05","16.66","23.43","0","7.0"
"Josh Hart","Josh-Hart-37889","4300","PG/SG","41.14","230","25.9","112.50","15.55","30.00","34.93","17.45","25.11","0","27.0"
"Buddy Hield","Buddy-Hield-35206","6900","SG/SF","36.05","230","31.9","98.20","29.31","35.00","59.76","27.28","39.6","0","19.25"
"Kevin Durant","Kevin-Durant-1348","9300","SF/PF","51.96","227","35.7","103.10","30.64","36.00","70.26","24.77","53.15","0","63.5"
"Draymond Green","Draymond-Green-13976","6100","PF/C","52.81","227","32.2","103.10","16.90","33.00","42.31","15.36","34.74","0","43.75"
"Kentavious Caldwell-Pope","Kentavious-Caldwell-Pope-16869","3800","SG/SF","41.14","230","23.7","112.50","15.16","26.00","40.77","18.81","21.57","0","10.75"
"Justin Jackson","Justin-Jackson-37895","3200","SF/PF","36.05","230","23.7","98.20","12.52","24.00","27.69","14.66","18.19","0","17.5"
"Donovan Mitchell","Donovan-Mitchell-37875","6700","PG/SG","53.63","219.5","33.8","98.88","30.74","35.00","49.77","20.49","38.02","0","38.0"
"Damyean Dotson","Damyean-Dotson-37795","3600","SG/SF","40.39","228","18.7","100.17","14.99","24.00","34.83","17.11","20.32","0","13.5"
"Willie Cauley-Stein","Willie-Cauley-Stein-18951","6600","C","56.53","230","28.0","98.20","18.22","33.00","51.14","21.11","36.9","0","38.0"
"Kosta Koufos","Kosta-Koufos-1386","3100","PF/C","56.53","230","15.1","98.20","15.49","16.00","32.97","17.2","17.2","0","9.25"
"Al Horford","Al-Horford-1499","5600","PF/C","52.32","214.5","24.5","101.75","16.83","29.00","41.84","16.17","30.97","0","27.0"
"Stephen Curry","Stephen-Curry-1079","8900","PG/SG","47.14","227","36.3","103.10","28.56","35.00","68.8","25.64","49.21","0","53.25"
"Brook Lopez","Brook-Lopez-1498","4900","C","59.30","228","26.5","98.80","17.31","27.00","40.95","18.43","27.03","0","25.25"
"Terry Rozier","Terry-Rozier-18894","3700","PG/SG","47.63","214.5","22.0","101.75","20.30","21.00","32.05","16.84","20.31","0","9.5"
"C.J. McCollum","C.J.-McCollum-17121","6000","PG/SG","45.34","227","31.3","104.50","25.65","33.00","43.88","18.6","32.75","0","38.0"
"Derrick Favors","Derrick-Favors-1266","4800","PF/C","53.35","219.5","22.2","98.88","22.55","25.00","33.84","16.34","26.19","0","15.25"
"Damian Lillard","Damian-Lillard-13900","8300","PG","50.76","227","34.0","104.50","28.45","35.00","56.89","21.83","44.83","0","32.75"
"Giannis Antetokounmpo","Giannis-Antetokounmpo-16852","11100","SF/PF","53.91","228","33.7","98.80","32.42","35.00","71.53","25.54","59.81","0","69.5"
"Gerald Green","Gerald-Green-13374","3700","SG/SF","44.42","214.5","22.0","101.42","15.98","24.00","34.33","16.08","19.83","0","19.25"
"Danuel House","Danuel-House-36029","3600","SF/PF","50.60","214.5","23.0","101.42","11.74","27.00","31.3","11.7","19.24","0","24.0"
"Jimmy Butler","Jimmy-Butler-13327","7200","SG/SF","40.13","219.5","31.4","108.33","21.64","34.00","51.38","21.27","38.4","0","28.25"
"Ricky Rubio","Ricky-Rubio-1001","6300","PG","38.45","219.5","31.8","98.88","24.46","32.00","43.89","17.76","33.45","0","0"
"Clint Capela","Clint-Capela-18610","7700","C","49.97","214.5","32.9","101.42","18.99","33.00","61.58","24.02","40.92","0","49.0"
"J.J. Redick","J.J.-Redick-1030","5100","SG/SF","34.90","219.5","28.8","108.33","23.35","30.00","36.19","16.79","26.95","0","0"
"Eric Bledsoe","Eric-Bledsoe-1031","6500","PG/SG","53.26","228","29.7","98.80","24.75","31.00","49.83","20.91","34.11","0","0"
"Klay Thompson","Klay-Thompson-13315","6200","SG","38.55","227","34.3","103.10","20.56","34.00","41.81","18.58","32.31","0","36.5"
"Eric Gordon","Eric-Gordon-1077","5800","SG/SF","44.42","214.5","34.9","101.42","20.55","36.00","43.53","20.42","29.94","0","33.5"
"Allonzo Trier","Allonzo-Trier-554950","3400","PG/SG","47.56","228","17.0","100.17","27.95","24.00","18.02","3.35","17.53","0","17.5"
"Joel Embiid","Joel-Embiid-18578","10100","C","52.03","219.5","31.0","108.33","33.63","35.00","63.51","22.11","52.14","0","61.25"
"James Harden","James-Harden-1037","11300","PG/SG","50.60","214.5","38.4","101.42","40.47","38.00","67.26","21.25","58.23","0","0"
"Rudy Gobert","Rudy-Gobert-16935","7500","C","50.84","219.5","31.8","98.88","18.72","32.00","51.4","16.08","38.65","0","47.25"
"Ivica Zubac","Ivica-Zubac-35226","5400","C","54.85","230","18.8","112.50","16.07","32.00","46.61","22.67","27.78","0","13.75"
"Kevon Looney","Kevon-Looney-18945","3600","PF/C","50.91","227","22.2","103.10","11.72","20.00","26.24","11.66","18.34","0","23.5"
"Marcus Smart","Marcus-Smart-18567","4400","PG/SG","48.98","214.5","29.0","101.75","14.86","29.00","30.68","12.47","22.31","0","19.0"
"Kyle Kuzma","Kyle-Kuzma-37886","7400","SF/PF","52.83","230","34.1","112.50","23.39","36.00","48.66","20.84","37.49","0","48.25"
"Ben Simmons","Ben-Simmons-35184","8200","PG/SF","44.80","219.5","32.8","108.33","23.67","35.00","54.8","17.55","41.39","0","57.5"
"Noah Vonleh","Noah-Vonleh-18597","5600","PF/C","45.78","228","32.0","100.17","15.34","31.00","39.34","19.74","28.24","0","40.75"
"Jonas Jerebko","Jonas-Jerebko-1106","3700","PF/C","51.96","227","20.3","103.10","19.36","21.00","33.85","13.83","18.56","0","23.75"
"Evan Turner","Evan-Turner-1291","3900","SG/SF","45.34","227","22.5","104.50","20.68","23.00","29.24","16.08","19.35","0","9.0"
"Joe Ingles","Joe-Ingles-18627","5700","SG/SF","33.30","219.5","30.7","98.88","19.27","32.00","43.52","18.44","28.24","0","18.75"
"Al-Farouq Aminu","Al-Farouq-Aminu-1279","4500","SF/PF","36.72","227","28.2","104.50","12.92","29.00","34.18","16.67","22.25","0","26.0"
"Jae Crowder","Jae-Crowder-13942","4300","SF/PF","35.12","219.5","26.5","98.88","17.53","26.00","35.76","16.23","21.21","0","8.5"
"Kyrie Irving","Kyrie-Irving-13334","8400","PG","48.98","214.5","32.5","101.75","32.35","34.00","55.13","22.21","41.36","0","51.75"
"Trey Burke","Trey-Burke-17029","3400","PG/SG","46.72","228","16.3","100.17","20.66","16.00","29.11","15.04","16.69","0","0.0"
"Kyle Korver","Kyle-Korver-1269","3300","SG/SF","33.30","219.5","19.0","98.88","17.22","20.00","28.31","12.77","16.16","0","12.0"
"Malcolm Brogdon","Malcolm-Brogdon-35195","5300","PG/SG","53.26","228","25.3","98.80","27.62","28.00","38.73","17.69","25.68","0","22.75"
"Jayson Tatum","Jayson-Tatum-37782","6200","SF/PF","45.92","214.5","30.7","101.75","26.20","32.00","38.0","16.1","30.04","0","12.25"
"Bogdan Bogdanovic","Bogdan-Bogdanovic-37899","5700","SG/SF","49.70","230","27.0","98.20","25.32","30.00","44.06","23.06","27.45","0","30.5"
"Iman Shumpert","Iman-Shumpert-13350","3400","SG/SF","36.05","230","22.5","98.20","19.39","22.00","24.06","11.75","16.32","0","43.0"
"T.J. McConnell","T.J.-McConnell-18956","3600","PG/SG","44.80","219.5","24.8","108.33","14.47","22.00","27.51","14.47","17.16","0","22.5"
"P.J. Tucker","P.J.-Tucker-13947","4500","SF/PF","34.43","214.5","36.0","101.42","11.16","35.00","41.5","18.12","21.47","0","16.75"
"Lance Stephenson","Lance-Stephenson-947","4200","SG/SF","48.03","230","14.8","112.50","23.85","20.00","34.18","15.85","19.86","0","0"
"D.J. Wilson","D.J.-Wilson-37822","3500","PF/C","53.91","228","20.4","98.80","12.75","20.00","31.88","16.46","16.46","0","34.5"
"De'Aaron Fox","De'Aaron-Fox-37900","8000","PG","51.59","230","29.1","98.20","30.25","33.00","46.21","19.22","37.54","0","47.75"
"Zach Collins","Zach-Collins-37866","3100","PF/C","49.99","227","19.3","104.50","17.79","18.00","22.4","11.3","14.49","0","9.5"
"Enes Kanter","Enes-Kanter-13299","5800","C","46.98","228","27.2","100.17","19.55","23.00","36.07","13.4","27.02","0","15.75"
"Mike Muscala","Mike-Muscala-17379","3800","PF/C","52.03","219.5","19.7","108.33","16.90","21.00","32.84","17.61","17.61","0","15.75"
"Andre Iguodala","Andre-Iguodala-1334","4100","SG/SF","38.55","227","21.2","103.10","14.61","23.00","28.26","10.93","18.59","0","25.5"
"Kevin Knox","Kevin-Knox-408820","5900","SF/PF","47.56","228","37.0","100.17","22.38","34.00","26.36","5.55","26.41","0","21.5"
"Nene Hilario","Nene-Hilario-17321","3200","C","49.97","214.5","14.5","101.42","10.56","14.00","23.02","12.19","14.13","0","16.5"
"Courtney Lee","Courtney-Lee-1025","3200","SG/SF","36.51","228","16.2","100.17","15.40","19.00","26.62","14.12","14.12","0","0"
"Emmanuel Mudiay","Emmanuel-Mudiay-18936","6300","PG","41.37","228","33.5","100.17","28.45","32.00","36.39","16.44","27.22","0","27.75"
"Marcus Morris","Marcus-Morris-13316","6000","SF/PF","34.71","214.5","26.8","101.75","20.12","28.00","34.01","13.06","25.21","0","34.0"
"Tyson Chandler","Tyson-Chandler-1482","3600","C","54.85","230","16.5","112.50","6.50","16.00","29.02","15.02","15.02","0","23.5"
"Dante Exum","Dante-Exum-18626","3400","PG/SG","38.45","219.5","16.3","98.88","18.65","16.00","24.35","11.48","13.98","0","31.0"
"Shaun Livingston","Shaun-Livingston-14007","3100","PG","41.96","227","15.4","103.10","18.73","15.00","20.37","9.41","12.45","0","7.5"
"Seth Curry","Seth-Curry-16825","3100","PG/SG","40.70","227","16.5","104.50","14.53","16.00","21.94","12.01","12.01","0","15.75"
"Jaylen Brown","Jaylen-Brown-35181","4600","SG/SF","34.71","214.5","22.0","101.75","21.29","21.00","32.59","14.59","17.58","0","24.75"
"Nik Stauskas","Nik-Stauskas-18636","3100","SG/SF","40.70","227","14.2","104.50","20.05","15.00","18.89","9.19","11.32","0","13.0"
"Thon Maker","Thon-Maker-35194","3200","PF/C","55.59","228","11.3","98.80","15.00","13.00","19.29","9.39","11.09","0","9.0"
"Landry Shamet","Landry-Shamet-408841","3200","PG/SG","34.90","219.5","18.0","108.33","14.31","18.00","11.06","2.02","10.94","0","10.0"
"Thabo Sefolosha","Thabo-Sefolosha-1271","3100","SF/PF","35.12","219.5","8.8","98.88","11.57","11.00","15.39","8.7","10.29","0","10.0"
"Jordan Bell","Jordan-Bell-37877","3000","PF/C","50.91","227","7.6","103.10","18.35","11.00","16.6","8.12","9.67","0","0.0"
"Sterling Brown","Sterling-Brown-37821","3200","SG/SF","35.41","228","18.6","98.80","15.99","12.00","19.81","10.14","10.14","0","4.5"
"Daniel Theis","Daniel-Theis-37784","3800","PF/C","53.45","214.5","20.3","101.75","16.08","13.00","19.9","10.73","11.88","0","15.0"
"Tony Snell","Tony-Snell-16872","3600","SG/SF","38.46","228","22.5","98.80","12.60","17.00","18.85","9.96","11.04","0","8.75"
"Royce O'Neale","Royce-O'Neale-37872","3100","SF","35.12","219.5","10.2","98.88","13.46","11.00","13.63","6.69","8.98","0","0.75"
"Yogi Ferrell","Yogi-Ferrell-35999","3100","PG/SG","51.59","230","14.1","98.20","24.78","11.00","14.92","7.59","8.59","0","4.0"
"Furkan Korkmaz","Furkan-Korkmaz-35185","3500","SG/SF","34.90","219.5","18.5","108.33","16.85","15.00","17.62","9.2","9.2","0","9.0"
"Alfonzo McKinnie","Alfonzo-McKinnie-37808","3200","SF/PF","37.92","227","10.8","103.10","21.03","12.00","15.99","8.35","8.35","0","2.5"
"Lance Thomas","Lance-Thomas-13363","3000","SF/PF","40.39","228","16.2","100.17","10.79","10.00","12.68","5.88","7.21","0","0.0"
"Sviatoslav Mykhailiuk","Sviatoslav-Mykhailiuk-409280","3000","SG/SF","37.51","230","11.8","112.50","18.28","10.00","7.17","1.65","6.77","0","0.0"
"Harry Giles","Harry-Giles-37897","3000","PF/C","44.29","230","13.7","98.20","25.66","8.00","6.58","1.25","6.38","0","0.0"
"Semi Ojeleye","Semi-Ojeleye-37786","3100","SF/PF","34.71","214.5","13.0","101.75","15.87","4.00","4.75","2.51","2.51","0","3.5"
"Mario Hezonja","Mario-Hezonja-18923","3200","SF/PF","36.51","228","11.2","100.17","20.42","2.00","3.8","1.82","2.05","0","0"
