"nameCol","idCol","salaryCol","positionCol","dvpCol","ouCol","mpgCol","paceCol","usgCol","pminCol","ceilCol","floorCol","pointsCol","predictCol","actualCol"
"Alex Len","Alex-Len-16886","4000","C","56.59","238.5","18.1","105.10","23.55","26.00","50.63","18.27","30.5","0","34.25"
"Jarell Martin","Jarell-Martin-18931","3000","PF/C","53.84","210","10.4","105.10","15.62","24.00","39.59","17.98","21.23","0","25.50"
"Chris Paul","Chris-Paul-1087","7100","PG","44.29","209","37.0","101.42","24.42","34.00","68.86","21.69","44.17","0","47.25"
"Clint Capela","Clint-Capela-18610","6400","C","46.85","209","33.7","101.42","18.91","32.00","69.36","24.78","39.34","0","29.75"
"Gary Harris","Gary-Harris-18617","5600","SG","51.29","223","33.3","99.62","22.34","35.00","56.16","20.03","34.06","0","26.00"
"Guillermo Hernangomez","Guillermo-Hernangomez-18901","3600.00","C","51.66","221.5","17.0","103.00","17.68","17.00","43.24","20.94","21.63","0","15.75"
"Reggie Bullock","Reggie-Bullock-16943","3900.00","SG/SF","39.80","221.5","20.2","100.30","18.14","28.00","43.64","15.71","22.87","0","34.75"
"John Henson","John-Henson-13908","3300","C","49.68","223","11.8","98.80","20.95","18.00","36.92","15.21","19.15","0","6.25"
"Taurean Prince","Taurean-Prince-35218","5800","SF","35.50","238.5","25.5","105.10","24.20","30.00","54.43","19.85","33.19","0","37.25"
"James Harden","James-Harden-1037","9400","PG/SG","44.29","209","35.8","101.42","33.41","37.00","74.22","19.32","53.51","0","65.75"
"Frank Ntilikina","Frank-Ntilikina-37796","4100","PG","40.78","210","25.6","100.17","19.61","29.00","41.97","15.77","23.29","0","2.25"
"Damian Lillard","Damian-Lillard-13900","8300","PG","48.73","213.5","31.7","104.50","28.08","34.00","70.55","22.72","46.94","0","43.75"
"Jusuf Nurkic","Jusuf-Nurkic-18619","6400","C","45.57","213.5","24.0","104.50","25.32","26.00","54.2","19.87","36.06","0","43.25"
"Wesley Iwundu","Wesley-Iwundu-37839","3000","SG","37.65","210","17.4","105.10","12.70","26.00","31.38","11.29","16.9","0","21.50"
"P.J. Tucker","P.J.-Tucker-13947","4400","SF/PF","34.22","209","34.8","101.42","7.61","34.00","49.4","20.78","24.71","0","19.75"
"Al Horford","Al-Horford-1499","6000","PF/C","60.59","213.5","30.5","101.75","18.53","31.00","53.53","17.59","33.69","0","32.00"
"Brook Lopez","Brook-Lopez-1498","4400","C","55.32","223","26.2","98.80","15.70","24.00","43.49","16.65","24.42","0","44.00"
"Eric Bledsoe","Eric-Bledsoe-1031","6000","PG/SG","44.84","223","28.0","98.80","25.45","30.00","56.94","21.39","33.22","0","34.50"
"Mohamed Bamba","Mohamed-Bamba-409026","4000","C","0","210","18.2","105.10","17.72","23.00","27.57","5.76","22.07","0","29.50"
"Jeremy Lin","Jeremy-Lin-916","3900","PG/SG","56.19","238.5","18.7","105.10","27.00","20.00","39.42","15.99","21.46","0","9.25"
"Thaddeus Young","Thaddeus-Young-1289","4600","SF/PF","48.22","209","27.3","107.67","16.99","30.00","42.84","13.37","25.32","0","17.75"
"Gordon Hayward","Gordon-Hayward-1239","4900","SG/SF","44.96","213.5","25.0","101.75","19.23","25.00","47.18","16.23","26.82","0","27.75"
"Noah Vonleh","Noah-Vonleh-18597","5400","PF/C","51.44","210","0","100.17","0","26.00","48.63","19.23","29.4","0","15.75"
"Tyreke Evans","Tyreke-Evans-1070","4000","SG/SF","46.20","209","18.1","107.67","28.94","19.00","34.67","12.68","21.75","0","16.75"
"Jaylen Brown","Jaylen-Brown-35181","4400","SG/SF","0","213.5","31.6","101.75","20.52","30.00","42.41","17.37","23.8","0","9.75"
"Brandon Ingram","Brandon-Ingram-35227","6000","PG/SF","48.97","238.5","31.2","112.50","24.36","34.00","57.62","20.02","32.39","0","14.25"
"C.J. McCollum","C.J.-McCollum-17121","6200","PG/SG","43.51","213.5","31.4","104.50","26.98","32.00","51.32","19.21","33.07","0","20.00"
"Omari Spellman","Omari-Spellman-408970","4400","PF","44.99","238.5","21.9","105.10","15.26","27.00","32.18","8.6","23.37","0","16.25"
"Ish Smith","Ish-Smith-13958","4400.00","PG","49.05","221.5","26.5","100.30","18.43","26.00","42.96","16.15","23.31","0","14.50"
"Reggie Jackson","Reggie-Jackson-13352","5800.00","PG/SG","46.17","221.5","28.5","100.30","26.55","29.00","51.33","16.59","30.61","0","32.25"
"Jamal Murray","Jamal-Murray-35211","6900","PG/SG","47.21","223","36.0","99.62","25.07","35.00","63.59","23.25","36.44","0","25.75"
"Juan Hernangomez","Juan-Hernangomez-35212","3900","SF/PF","44.09","223","20.3","99.62","12.11","27.00","41.2","20.61","20.61","0","15.75"
"Al-Farouq Aminu","Al-Farouq-Aminu-1279","4900","SF/PF","35.30","213.5","28.6","104.50","10.99","29.00","46.79","19.23","25.81","0","27.75"
"Myles Turner","Myles-Turner-18915","4700","C","61.36","209","27.1","107.67","18.41","28.00","47.45","18.44","24.65","0","20.25"
"Cody Zeller","Cody-Zeller-16836","4100.00","C","51.66","221.5","24.0","103.00","15.16","25.00","36.02","12.54","21.43","0","28.50"
"Tyson Chandler","Tyson-Chandler-1482","3100","C","53.99","238.5","16.0","112.50","12.26","17.00","32.42","16.22","16.22","0","20.75"
"Miles Bridges","Miles-Bridges-409262","3500.00","SF","43.77","221.5","20.8","103.00","13.45","21.00","22.81","4.47","18.31","0","22.50"
"Kent Bazemore","Kent-Bazemore-13987","5800","SG/SF","50.30","238.5","26.7","105.10","23.24","29.00","48.32","14.12","30.24","0","42.25"
"Gary Clark","Gary-Clark-570141","3700","SF","46.99","209","20.3","101.42","11.80","25.00","24.56","4.4","19.23","0","22.00"
"DeAndre Bembry","DeAndre-Bembry-35198","4200","SF","35.50","238.5","0","105.10","0","24.00","38.25","18.29","21.77","0","18.25"
"Nikola Jokic","Nikola-Jokic-31812","9600","C","0","223","27.9","99.62","25.51","33.00","74.59","20.9","49.76","0","41.00"
"Kyle Kuzma","Kyle-Kuzma-37886","6000","SF/PF","0","238.5","30.7","112.50","22.61","31.00","47.24","17.44","31.04","0","33.50"
"LeBron James","LeBron-James-1227","10700","SF/PF","0","238.5","33.7","112.50","31.80","36.00","77.88","22.97","54.69","0","44.25"
"Paul Millsap","Paul-Millsap-1335","5100","PF/C","44.09","223","24.7","99.62","21.50","27.00","42.95","16.56","26","0","50.50"
"Jeremy Lamb","Jeremy-Lamb-13955","4900.00","SG/SF","49.02","221.5","22.8","103.00","23.84","25.00","39.96","15.23","24.96","0","26.50"
"Tim Hardaway Jr.","Tim-Hardaway-Jr.-16879","7300","SG/SF","50.93","210","32.5","100.17","29.78","33.00","66.6","25.68","37.06","0","17.00"
"Lonzo Ball","Lonzo-Ball-37885","5000","PG","52.73","238.5","22.8","112.50","17.23","25.00","39.69","12.82","25.38","0","35.50"
"Darren Collison","Darren-Collison-1060","4400","PG","45.05","209","28.6","107.67","16.90","26.00","35.8","13.46","22.18","0","23.75"
"Jayson Tatum","Jayson-Tatum-37782","6200","SF/PF","44.96","213.5","32.2","101.75","19.33","32.00","46.31","16.68","31.12","0","43.00"
"Malcolm Brogdon","Malcolm-Brogdon-35195","4900","PG/SG","46.81","223","28.2","98.80","20.70","27.00","41.59","17.42","24.61","0","39.50"
"JaVale McGee","JaVale-McGee-1485","6100","C","53.99","238.5","26.0","112.50","18.13","25.00","50.56","18.8","30.57","0","28.25"
"Mitchell Robinson","Mitchell-Robinson-408821","4100","C","55.93","210","20.7","100.17","10.34","23.00","27.37","6.28","20.52","0","27.00"
"Michael Kidd-Gilchrist","Michael-Kidd-Gilchrist-13896","4000.00","SF/PF","35.31","221.5","22.0","103.00","17.39","23.00","39.2","16.92","19.98","0","9.00"
"Marvin Williams","Marvin-Williams-1318","4200.00","SF/PF","43.77","221.5","19.4","103.00","16.16","22.00","41.23","17.78","20.92","0","20.50"
"Nicolas Batum","Nicolas-Batum-1315","6300.00","SG/SF","42.24","221.5","28.2","103.00","17.22","31.00","51.48","22.43","31.37","0","24.50"
"Enes Kanter","Enes-Kanter-13299","6600","C","47.98","210","25.6","100.17","26.82","24.00","54.17","24.21","32.71","0","37.25"
"Trae Young","Trae-Young-409063","7000","PG","56.19","238.5","28.6","105.10","33.16","31.00","47.59","12.72","34.56","0","46.00"
"Kevin Huerter","Kevin-Huerter-408969","3400","SG","34.20","238.5","20.3","105.10","12.95","20.00","20.8","4.07","16.69","0","1.50"
"Terrence Ross","Terrence-Ross-13902","4900","SG/SF","33.83","210","27.2","105.10","22.97","28.00","43.61","20.47","24","0","34.25"
"Kyrie Irving","Kyrie-Irving-13334","7600","PG","41.74","213.5","33.8","101.75","28.97","32.00","58.22","19.94","37.13","0","42.50"
"Trey Lyles","Trey-Lyles-18942","4800","SF/PF","44.09","223","22.4","99.62","22.70","22.00","43.39","20.11","23.49","0","23.25"
"Damyean Dotson","Damyean-Dotson-37795","4500","SG","34.40","210","29.4","100.17","16.71","25.00","37.43","12.3","21.89","0","5.75"
"Andre Drummond","Andre-Drummond-13904","9600.00","C","50.59","221.5","33.2","100.30","24.64","32.00","67.22","21.38","46.68","0","65.50"
"Eric Gordon","Eric-Gordon-1077","5500","PG/SG","45.94","209","31.7","101.42","28.98","28.00","47.53","19.78","26.69","0","16.00"
"Giannis Antetokounmpo","Giannis-Antetokounmpo-16852","11200","SF/PF","46.08","223","34.0","98.80","32.61","36.00","74.4","20.22","53.91","0","49.75"
"Stanley Johnson","Stanley-Johnson-18913","3800.00","SF/PF","39.80","221.5","26.0","100.30","17.45","22.00","35.51","13.78","18.23","0","11.00"
"Bojan Bogdanovic","Bojan-Bogdanovic-18571","4500","SG/SF","34.54","209","30.4","107.67","16.06","30.00","39.66","17.12","21.54","0","42.50"
"Marcus Smart","Marcus-Smart-18567","4100","PG/SG","41.74","213.5","0","101.75","0","22.00","39.08","14.88","19.55","0","13.00"
"Rajon Rondo","Rajon-Rondo-1085","5500","PG","52.73","238.5","25.2","112.50","21.68","25.00","52.29","26.16","26.16","0","16.50"
"Kevin Knox","Kevin-Knox-408820","3600","SF","50.93","210","12.3","100.17","24.37","25.00","20.44","3.1","17.12","0","20.75"
"Evan Fournier","Evan-Fournier-13913","6500","SG/SF","33.83","210","30.8","105.10","26.85","32.00","46.39","16.9","30.72","0","23.50"
"Nikola Vucevic","Nikola-Vucevic-13296","8400","C","51.43","210","30.2","105.10","24.50","31.00","59.99","19.43","39.57","0","45.00"
"Blake Griffin","Blake-Griffin-1503","10000.00","PF/C","57.11","221.5","35.3","100.30","30.51","35.00","71.97","21.83","47.04","0","25.50"
"Khris Middleton","Khris-Middleton-13990","7000","SG/SF","42.91","223","0","98.80","0","34.00","61.88","22.8","32.62","0","30.25"
"Victor Oladipo","Victor-Oladipo-16807","9400","PG/SG","45.05","209","35.1","107.67","31.18","35.00","71.22","26.6","43.75","0","50.50"
"Jerian Grant","Jerian-Grant-18900","3600","PG","49.64","210","19.5","105.10","17.05","20.00","32.49","14.64","16.67","0","26.50"
"D.J. Augustin","D.J.-Augustin-1064","4800","PG","49.64","210","27.7","105.10","16.50","27.00","42.33","11.92","22.16","0","21.50"
"Meyers Leonard","Meyers-Leonard-13905","3200","C","51.71","213.5","10.6","104.50","21.92","13.00","29.17","11.86","14.59","0","15.50"
"Kemba Walker","Kemba-Walker-13335","9400.00","PG","49.02","221.5","34.0","103.00","29.49","34.00","65.48","20.86","42.66","0","40.25"
"Josh Hart","Josh-Hart-37889","4400","SG","47.55","238.5","22.0","112.50","13.65","24.00","39.62","15.83","19.94","0","15.25"
"Ersan Ilyasova","Ersan-Ilyasova-1301","4500","PF/C","46.08","223","23.3","98.80","13.76","24.00","38.74","15.39","20.39","0","13.50"
"Malik Monk","Malik-Monk-37827","4400.00","SG","49.02","221.5","22.8","103.00","30.95","22.00","35.87","16.39","19.87","0","12.75"
"Langston Galloway","Langston-Galloway-18717","4000.00","PG/SG","38.52","221.5","21.8","100.30","20.32","22.00","36.08","15.72","18.05","0","16.00"
"Mario Hezonja","Mario-Hezonja-18923","3800","SF/PF","42.34","210","19.1","100.17","23.07","16.00","34.12","15.14","17.07","0","22.75"
"Seth Curry","Seth-Curry-16825","3100","PG/SG","42.03","213.5","17.0","104.50","11.94","19.00","27.71","13.86","13.86","0","12.50"
"James Ennis","James-Ennis-18599","3800","SG/SF","34.22","209","21.2","101.42","13.86","26.00","31.01","13.18","16.9","0","6.25"
"Glenn Robinson","Glenn-Robinson-18621","3700.00","SF/PF","39.80","221.5","18.7","100.30","16.52","22.00","28.48","10.62","16.31","0","11.50"
"Domantas Sabonis","Domantas-Sabonis-35217","6800","PF/C","0","209","25.3","107.67","20.92","26.00","51.9","22.35","29.49","0","21.50"
"Nik Stauskas","Nik-Stauskas-18636","3400","SG/SF","42.03","213.5","17.3","104.50","19.44","20.00","28.67","11.45","14.75","0","6.25"
"Mason Plumlee","Mason-Plumlee-16798","3800","PF/C","0","223","18.4","99.62","17.43","15.00","32.24","12.72","16.35","0","7.25"
"Tony Parker","Tony-Parker-982","4200.00","PG","48.64","221.5","20.0","103.00","28.86","20.00","36.06","18.04","18.04","0","33.75"
"Aron Baynes","Aron-Baynes-14114","3100","C","53.55","213.5","12.8","101.75","16.42","14.00","24.76","10.96","13.29","0","6.00"
"Zach Collins","Zach-Collins-37866","4000","PF","51.71","213.5","21.6","104.50","19.87","20.00","30.71","12.84","17.03","0","17.50"
"Emmanuel Mudiay","Emmanuel-Mudiay-18936","4000","PG","40.78","210","19.3","100.17","20.78","16.00","29.44","11.92","16.98","0","5.75"
"Malik Beasley","Malik-Beasley-35213","3200","SG","40.04","223","21.6","99.62","15.74","18.00","27.03","13.52","13.52","0","17.50"
"Cory Joseph","Cory-Joseph-13339","3700","PG","45.05","209","25.1","107.67","10.82","23.00","31.02","11.75","15.52","0","14.25"
"Donte DiVincenzo","Donte-DiVincenzo-408950","3400","SG","33.57","223","19.0","98.80","16.36","20.00","17.5","3.66","14.01","0","6.25"
"Terry Rozier","Terry-Rozier-18894","4500","PG/SG","42.32","213.5","23.5","101.75","18.10","20.00","34.35","15.34","18.51","0","9.00"
"Marcus Morris","Marcus-Morris-13316","5800","SF/PF","0","213.5","26.8","101.75","22.89","26.00","46.67","19.04","23.86","0","23.00"
"Kentavious Caldwell-Pope","Kentavious-Caldwell-Pope-16869","3000","SG/SF","47.55","238.5","14.3","112.50","17.09","15.00","24.21","12.11","12.11","0","21.50"
"Zaza Pachulia","Zaza-Pachulia-1455","3400.00","C","50.59","221.5","12.3","100.30","18.38","13.00","27.22","11.97","13.66","0","7.75"
"Evan Turner","Evan-Turner-1291","5000","SG/SF","43.51","213.5","25.9","104.50","19.16","24.00","34.33","16.41","19.72","0","11.25"
"Jonathon Simmons","Jonathon-Simmons-31808","3400","SG/SF","49.93","210","19.2","105.10","20.80","17.00","23.63","10.86","13.31","0","25.50"
"Allonzo Trier","Allonzo-Trier-554950","4500","PG","50.93","210","26.6","100.17","19.18","23.00","20.87","3.16","17.48","0","27.25"
"Monte Morris","Monte-Morris-37860","3700","PG","47.21","223","21.3","99.62","16.68","18.00","25.01","10.99","14.18","0","26.25"
"Alex Poythress","Alex-Poythress-36018","3000","SF","44.99","238.5","12.0","105.10","17.31","11.00","21.91","9.77","10.96","0","0"
"Jake Layman","Jake-Layman-35216","3300","PF","35.30","213.5","15.9","104.50","12.73","15.00","20.1","8.2","12.03","0","15.50"
"Khem Birch","Khem-Birch-37838","3000","PF","0","210","5.0","105.10","8.00","12.00","18.56","7.97","10.29","0","14.00"
"Michael Carter-Williams","Michael-Carter-Williams-16800","3300","PG","44.29","209","9.5","101.42","20.27","12.00","20.17","9.05","11.17","0","0"
"Tony Snell","Tony-Snell-16872","3100","SG/SF","34.19","223","0","98.80","0","16.00","20.21","8.62","10.11","0","9.50"
"Isaiah Hartenstein","Isaiah-Hartenstein-570142","3000","PF","46.99","209","7.8","101.42","15.21","12.00","11.76","2.11","9.21","0","7.25"
"Vince Carter","Vince-Carter-1066","3200","SG","34.20","238.5","16.4","105.10","15.25","11.00","18.09","7.9","9.05","0","7.25"
"Doug McDermott","Doug-McDermott-18583","3100","SF/PF","34.54","209","12.1","107.67","10.14","15.00","17.43","8.72","8.72","0","6.50"
"Miles Plumlee","Miles-Plumlee-13920","3200","C","56.59","238.5","8.6","105.10","20.96","11.00","17.26","8.88","8.88","0","17.25"
"Pat Connaughton","Pat-Connaughton-18939","3200","SG/SF","33.57","223","15.5","98.80","19.38","11.00","16.27","6.24","8.14","0","15.75"
"Jose Calderon","Jose-Calderon-1071","3000.00","PG","49.05","221.5","13.8","100.30","12.03","11.00","15.23","6.42","7.62","0","0"
"Caleb Swanigan","Caleb-Swanigan-37867","3000","PF","45.57","213.5","12.2","104.50","21.47","8.00","14.63","7.32","7.32","0","0"
"Lance Stephenson","Lance-Stephenson-947","3400","PG/SG","48.97","238.5","11.2","112.50","27.58","8.00","15.37","6.14","7.7","0","17.25"
"Torrey Craig","Torrey-Craig-37861","3300","SG/SF","40.04","223","14.3","99.62","13.72","10.00","12.14","4.47","7.32","0","0"
"Daniel Theis","Daniel-Theis-37784","3300","PF/C","53.55","213.5","19.0","101.75","25.71","10.00","7.92","5.94","6.6","0","2.00"
"TJ Leaf","TJ-Leaf-37817","3000","PF","61.36","209","7.8","107.67","13.67","8.00","11.81","5.91","5.91","0","0"
