"nameCol","idCol","salaryCol","positionCol","dvpCol","ouCol","mpgCol","paceCol","usgCol","pminCol","ceilCol","floorCol","pointsCol","predictCol","actualCol"
"Larry Nance","Larry-Nance-18946","5200","PF/C","55.50","214.5","19.2","103.60","18.95","32.00","58.04","19.49","33.49","0","27.50"
"Alex Len","Alex-Len-16886","4400","C","47.56","228.5","19.9","105.10","25.38","26.00","45.27","16.33","27.27","0","23.75"
"Gary Clark","Gary-Clark-570141","3700","SF","47.25","214","22.0","101.42","10.84","30.00","28.63","5.98","22.92","0","4.00"
"Miles Bridges","Miles-Bridges-409262","3700","SF","43.91","214.5","21.2","103.00","13.07","26.00","26.82","4.17","22.56","0","8.00"
"Clint Capela","Clint-Capela-18610","6400","C","49.52","214","32.9","101.42","18.78","33.00","65.58","23.95","38.02","0","39.75"
"Guillermo Hernangomez","Guillermo-Hernangomez-18901","3500","C","55.13","214.5","16.3","103.00","18.74","18.00","40.84","19.8","20.43","0","6.50"
"Jordan Clarkson","Jordan-Clarkson-18631","5700","PG/SG","49.25","214.5","24.7","103.60","26.68","31.00","62.84","28.79","32.31","0","33.75"
"Jordan Bell","Jordan-Bell-37877","3900","PF","53.50","228.5","14.2","103.10","8.50","23.00","43.82","18.41","21.92","0","13.50"
"Monte Morris","Monte-Morris-37860","3700","PG","45.98","214","21.7","99.62","15.73","23.00","36.36","16.03","20.74","0","31.00"
"James Harden","James-Harden-1037","10500","PG/SG","47.43","214","36.0","101.42","35.12","38.00","79.28","21.89","58.38","0","53.25"
"Kevon Looney","Kevon-Looney-18945","3800","PF/C","53.50","228.5","19.2","103.10","11.10","23.00","39.75","16.84","21.02","0","17.75"
"Collin Sexton","Collin-Sexton-408896","5100","PG","46.31","214.5","27.0","103.60","21.35","36.00","36.62","11.47","28.19","0","29.25"
"P.J. Tucker","P.J.-Tucker-13947","4300","SF/PF","34.19","214","35.4","101.42","7.54","39.00","46.54","19.49","23.28","0","28.00"
"Tristan Thompson","Tristan-Thompson-13308","5700","C","53.72","214.5","30.3","103.60","18.00","33.00","49.87","18.61","30.86","0","44.25"
"Juan Hernangomez","Juan-Hernangomez-35212","3800","SF/PF","47.63","214","24.0","99.62","11.93","28.00","40.1","13.69","20.46","0","21.25"
"Cody Zeller","Cody-Zeller-16836","4400","C","55.13","214.5","25.2","103.00","15.78","27.00","39.74","13.78","23.6","0","21.50"
"Nicolas Batum","Nicolas-Batum-1315","5800","SG/SF","54.91","214.5","29.2","103.00","16.16","33.00","50.11","21.99","30.67","0","21.25"
"Andre Iguodala","Andre-Iguodala-1334","3800","SG/SF","45.57","228.5","21.4","103.10","16.98","25.00","35.62","11.71","19.92","0","21.75"
"Paul Millsap","Paul-Millsap-1335","5600","PF/C","47.63","214","25.3","99.62","21.71","28.00","48.65","18.67","29.36","0","17.50"
"Jamal Murray","Jamal-Murray-35211","6600","PG/SG","45.98","214","35.4","99.62","24.77","36.00","59.49","20.59","34.37","0","24.25"
"Gary Harris","Gary-Harris-18617","6000","SG","43.80","214","32.9","99.62","22.06","35.00","51.56","18.34","31.19","0","27.50"
"Jeremy Lin","Jeremy-Lin-916","3800","PG/SG","45.55","228.5","19.4","105.10","27.38","19.00","35.99","14.59","19.59","0","21.75"
"J.R. Smith","J.R.-Smith-915","4000","SG/SF","38.22","214.5","25.8","103.60","19.31","30.00","35.82","13.93","20.55","0","29.25"
"David Nwaba","David-Nwaba-36526","3200","SG/SF","39.45","214.5","10.4","103.60","14.48","20.00","32.72","16.37","16.37","0","30.25"
"Chris Paul","Chris-Paul-1087","8300","PG","47.43","214","36.7","101.42","24.17","36.00","68.44","20.4","42.51","0","37.25"
"Nikola Jokic","Nikola-Jokic-31812","9400","C","59.26","214","28.0","99.62","26.77","32.00","71.02","19.49","47.41","0","43.50"
"Omari Spellman","Omari-Spellman-408970","4500","PF","47.29","228.5","22.4","105.10","13.74","28.00","31.18","8.33","22.64","0","3.25"
"Klay Thompson","Klay-Thompson-13315","6800","SG","45.57","228.5","35.2","103.10","27.53","35.00","51.82","19.58","34.05","0","43.25"
"Taurean Prince","Taurean-Prince-35218","6100","SF","33.15","228.5","27.0","105.10","23.54","30.00","49.92","18.2","30.44","0","34.00"
"Kevin Durant","Kevin-Durant-1348","11200","SF/PF","54.84","228.5","34.3","103.10","30.13","36.00","86.78","26.01","55.81","0","45.00"
"Trey Lyles","Trey-Lyles-18942","4600","SF/PF","47.63","214","22.3","99.62","21.54","22.00","41.8","18.7","22.56","0","11.25"
"Marvin Williams","Marvin-Williams-1318","4200","SF/PF","43.91","214.5","20.7","103.00","15.83","25.00","40.76","17.37","20.46","0","22.50"
"Jeremy Lamb","Jeremy-Lamb-13955","5000","SG/SF","51.29","214.5","22.8","103.00","22.17","24.00","38.41","14.38","24.34","0","37.50"
"Kent Bazemore","Kent-Bazemore-13987","5900","SG/SF","49.95","228.5","26.7","105.10","22.22","30.00","45.53","13.3","28.49","0","24.00"
"Tony Parker","Tony-Parker-982","4300","PG","49.15","214.5","21.2","103.00","29.44","24.00","41.08","20.79","20.79","0","17.50"
"Trae Young","Trae-Young-409063","7200","PG","45.55","228.5","29.4","105.10","34.20","31.00","47.75","12.76","34.68","0","28.25"
"Rodney Hood","Rodney-Hood-18629","5400","SG/SF","49.25","214.5","26.7","103.60","19.71","29.00","49.17","16.72","25.85","0","22.00"
"Quinn Cook","Quinn-Cook-31771","5500","PG","50.62","228.5","22.0","103.10","23.91","29.00","43.79","16.25","26.13","0","32.00"
"DeAndre Bembry","DeAndre-Bembry-35198","3900","SF","33.15","228.5","23.3","105.10","16.41","20.00","31.94","15.27","18.18","0","24.25"
"Kemba Walker","Kemba-Walker-13335","9700","PG","51.29","214.5","34.3","103.00","28.69","35.00","70.3","21.89","44.58","0","27.00"
"Eric Gordon","Eric-Gordon-1077","5300","PG/SG","42.89","214","31.5","101.42","27.21","31.00","43.91","18.06","24.34","0","16.00"
"Mason Plumlee","Mason-Plumlee-16798","3600","PF/C","51.37","214","18.0","99.62","16.64","16.00","32.49","12.81","16.51","0","14.50"
"Shaun Livingston","Shaun-Livingston-14007","3000","PG","53.28","228.5","18.0","103.10","16.27","18.00","25.99","10.21","13.5","0","6.25"
"Malik Monk","Malik-Monk-37827","4700","SG","51.29","214.5","21.8","103.00","29.51","24.00","37.8","17.13","20.79","0","13.00"
"Malik Beasley","Malik-Beasley-35213","3200","SG","28.15","214","20.1","99.62","16.38","20.00","27.85","13.93","13.93","0","4.75"
"Vince Carter","Vince-Carter-1066","3100","SG","39.95","228.5","16.6","105.10","14.20","19.00","26.79","11.7","13.4","0","24.00"
"Damian Jones","Damian-Jones-35223","3300","C","53.50","228.5","15.3","103.10","11.90","16.00","27.72","10.02","14.26","0","14.75"
"Ante Zizic","Ante-Zizic-35180","3200","C","53.72","214.5","8.0","103.60","26.52","15.00","27.43","13.72","13.72","0","2.25"
"Jonas Jerebko","Jonas-Jerebko-1106","3300","SF/PF","54.84","228.5","17.0","103.10","17.01","16.00","28.23","10.52","14.12","0","36.75"
"Alfonzo McKinnie","Alfonzo-McKinnie-37808","3600","PF","47.57","228.5","20.5","103.10","12.38","19.00","29.41","14.71","14.71","0","10.00"
"Kevin Huerter","Kevin-Huerter-408969","3300","SG","39.95","228.5","19.3","105.10","14.01","18.00","16.26","3.18","13.05","0","5.50"
"Miles Plumlee","Miles-Plumlee-13920","3300","C","47.56","228.5","9.8","105.10","16.75","15.00","24.65","12.68","12.68","0","11.25"
"Andrew Harrison","Andrew-Harrison-18950","3000","PG","46.76","214.5","13.0","103.60","21.54","14.00","21.78","8.4","11.08","0","7.00"
"James Ennis","James-Ennis-18599","3600","SG/SF","34.19","214","21.2","101.42","13.00","22.00","24.45","10.16","13.09","0","29.00"
"Isaiah Hartenstein","Isaiah-Hartenstein-570142","3500","PF","47.25","214","8.4","101.42","14.83","11.00","9.92","2.07","7.94","0","3.25"
"Alex Poythress","Alex-Poythress-36018","3000","SF","47.29","228.5","10.5","105.10","17.12","4.00","6.72","2.99","3.36","0","14.00"
"Dwayne Bacon","Dwayne-Bacon-37828","3000","SG","37.70","214.5","14.5","103.00","14.21","4.00","5.59","2.66","2.96","0","8.75"
