"nameCol","idCol","salaryCol","positionCol","dvpCol","ouCol","mpgCol","paceCol","usgCol","pminCol","ceilCol","floorCol","pointsCol","predictCol","actualCol"
"Rodions Kurucs","Rodions-Kurucs-408801","4000","SF/PF","44.64","228.5","20.2","114.62","16.83","28.00","26.09","4.96","25.31","0","6.75"
"DeMarre Carroll","DeMarre-Carroll-1174","3800","SF/PF","37.26","228.5","24.5","114.62","19.17","23.00","40.86","18.49","23.98","0","18.25"
"Trevor Ariza","Trevor-Ariza-1323","4600","SF/PF","45.54","237.5","31.8","103.80","15.10","32.00","37.65","14.09","28.63","0","48.5"
"Kevin Huerter","Kevin-Huerter-408969","4300","SG/SF","42.14","237.5","31.4","105.10","14.84","32.00","29.13","10.74","26.39","0","23.5"
"Torrey Craig","Torrey-Craig-37861","3600","SG/SF","38.05","207.5","28.7","99.62","13.76","30.00","30.5","12.88","21.8","0","7.25"
"Alec Burks","Alec-Burks-13353","4200","PG/SG","44.58","207.5","28.7","103.60","19.43","29.00","36.42","18.67","25.4","0","26.25"
"Tomas Satoransky ","Tomas-Satoransky--36031","4300","PG/SG","56.11","237.5","29.7","103.80","11.66","30.00","39.55","19.69","25.8","0","18.0"
"Jamal Murray","Jamal-Murray-35211","6600","PG/SG","54.33","207.5","35.3","99.62","23.82","35.00","55.82","22.95","38.18","0","56.75"
"Trey Lyles","Trey-Lyles-18942","4200","SF/PF","44.87","207.5","23.2","99.62","22.07","24.00","38.11","20.09","24.24","0","21.25"
"Dewayne Dedmon","Dewayne-Dedmon-16894","5600","PF/C","54.67","237.5","28.0","105.10","16.74","30.00","45.57","18.95","32.07","0","30.5"
"Mason Plumlee","Mason-Plumlee-16798","5400","PF/C","48.47","207.5","23.0","99.62","18.41","28.00","44.14","21.95","30.91","0","26.25"
"Markieff Morris","Markieff-Morris-13314","5100","PF/C","61.69","237.5","24.0","103.80","19.49","30.00","39.29","20.42","28.68","0","17.5"
"Matthew Dellavedova","Matthew-Dellavedova-16839","4100","PG/SG","38.32","207.5","20.6","103.60","20.49","25.00","39.75","21.27","22.95","0","16.75"
"Tyson Chandler","Tyson-Chandler-1482","3700","C","62.80","228.5","20.6","112.50","5.33","24.00","39.72","20.56","20.56","0","18.5"
"Wesley Matthews","Wesley-Matthews-1339","4500","SG/SF","31.72","207.5","28.6","100.08","19.28","30.00","37.04","15.15","24.91","0","27.5"
"Trae Young","Trae-Young-409063","6400","PG","55.42","237.5","30.2","105.10","27.61","30.00","38.65","14.25","35.01","0","29.75"
"Nikola Jokic","Nikola-Jokic-31812","9700","C","50.81","207.5","34.3","99.62","28.12","34.00","67.25","21.85","52.91","0","66.0"
"Jeremy Lin","Jeremy-Lin-916","3800","PG/SG","55.42","237.5","11.0","105.10","24.32","20.00","31.93","15.47","20.68","0","0"
"Larry Nance","Larry-Nance-18946","6000","PF/C","54.14","207.5","28.6","103.60","14.79","34.00","49.67","25.14","31.9","0","53.0"
"John Collins","John-Collins-37823","7900","PF/C","54.67","237.5","32.2","105.10","28.70","33.00","64.42","26.24","41.91","0","41.25"
"Lance Stephenson","Lance-Stephenson-947","3800","SG/SF","44.72","228.5","18.0","112.50","24.05","22.00","34.41","15.98","20.02","0","0"
"Tyreke Evans","Tyreke-Evans-1070","4100","SG/SF","51.99","207.5","22.2","107.67","26.22","18.00","28.76","12.19","21.61","0","8.0"
"Ed Davis","Ed-Davis-1265","3600","PF/C","56.66","228.5","21.8","114.62","11.78","18.00","34.38","14.06","18.82","0","11.5"
"Collin Sexton","Collin-Sexton-408896","4800","PG","45.99","207.5","31.7","103.60","26.20","35.00","40.61","17.01","25.05","0","12.25"
"Joe Harris","Joe-Harris-18587","4900","SG/SF","35.65","228.5","29.8","114.62","17.65","32.00","37.28","17.01","25.5","0","30.5"
"Monte Morris","Monte-Morris-37860","4700","PG/SG","54.33","207.5","27.5","99.62","19.96","29.00","36.58","19.62","24.4","0","33.0"
"Jarrett Allen","Jarrett-Allen-37794","5500","C","56.66","228.5","23.8","114.62","18.52","27.00","39.3","17.3","28.5","0","24.5"
"Dwight Powell","Dwight-Powell-18566","3700","PF/C","54.01","207.5","17.3","100.08","20.83","18.00","30.64","15.14","19.09","0","12.0"
"J.J. Barea","J.J.-Barea-18605","4300","PG/SG","49.43","207.5","16.6","100.08","33.16","19.00","33.27","15.99","22.09","0","22.0"
"Rodney Hood","Rodney-Hood-18629","4900","SG/SF","44.58","207.5","23.5","103.60","21.00","29.00","40.24","16.14","25.18","0","32.0"
"Rondae Hollis-Jefferson","Rondae-Hollis-Jefferson-18897","5700","PF/C","44.64","228.5","27.3","114.62","19.72","28.00","44.61","18.87","29.16","0","33.0"
"Harrison Barnes","Harrison-Barnes-13901","5400","SF/PF","47.63","207.5","30.0","100.08","23.30","32.00","35.18","15.92","27.59","0","41.5"
"John Wall","John-Wall-1084","9800","PG","56.11","237.5","35.8","103.80","30.92","35.00","56.3","19.6","49.87","0","24.0"
"Kent Bazemore","Kent-Bazemore-13987","6300","SG/SF","45.37","237.5","31.4","105.10","25.24","31.00","45.51","15.54","32.05","0","28.5"
"Cedi Osman","Cedi-Osman-18912","4700","SF/PF","35.12","207.5","32.4","103.60","15.99","31.00","29.5","10.99","23.83","0","23.25"
"LeBron James","LeBron-James-1227","10600","SF/PF","47.72","228.5","34.6","112.50","33.32","36.00","68.22","21.19","53.38","0","68.25"
"Sam Dekker","Sam-Dekker-18929","3800","SF/PF","45.54","237.5","12.8","103.80","23.42","22.00","32.51","16.07","19.11","0","6.75"
"Bradley Beal","Bradley-Beal-13898","8500","SG","51.92","237.5","38.8","103.80","31.34","36.00","67.03","28.84","42.48","0","50.5"
"Bojan Bogdanovic","Bojan-Bogdanovic-18571","5200","SG/SF","37.43","207.5","32.4","107.67","21.18","33.00","40.78","21.41","25.86","0","19.25"
"Jeff Green","Jeff-Green-1314","4800","SF/PF","54.62","237.5","30.4","103.80","15.10","28.00","35.18","17.71","23.74","0","25.75"
"Darren Collison","Darren-Collison-1060","5000","PG","47.54","207.5","28.4","107.67","15.29","27.00","33.37","15.18","24.72","0","0"
"DeAndre Jordan","DeAndre-Jordan-1486","6800","C","50.02","207.5","29.7","100.08","13.93","31.00","41.85","19.99","33.48","0","32.0"
"Juan Hernangomez","Juan-Hernangomez-35212","4700","SF/PF","44.87","207.5","35.0","99.62","11.95","28.00","38.08","15.39","22.94","0","22.0"
"Lonzo Ball","Lonzo-Ball-37885","6500","PG","40.70","228.5","33.9","112.50","19.23","35.00","42.28","16.03","31.55","0","40.0"
"Alex Len","Alex-Len-16886","3300","C","54.67","237.5","12.4","105.10","20.97","14.00","22.78","11.25","15.93","0","25.75"
"Domantas Sabonis","Domantas-Sabonis-35217","6900","PF/C","48.17","207.5","24.0","107.67","22.75","25.00","49.39","25.79","33.15","0","35.0"
"Malik Beasley","Malik-Beasley-35213","3400","PG/SG","38.05","207.5","21.7","99.62","18.86","22.00","29.09","16.1","16.1","0","21.75"
"Jalen Brunson","Jalen-Brunson-409062","4100","PG","40.63","207.5","26.3","100.08","18.36","30.00","27.13","15.5","19.38","0","9.5"
"Victor Oladipo","Victor-Oladipo-16807","9100","PG/SG","53.74","207.5","31.7","107.67","25.44","32.00","59.69","27.68","42.91","0","30.75"
"David Nwaba","David-Nwaba-36526","3500","SG/SF","35.12","207.5","12.0","103.60","25.63","20.00","28.63","15.7","16.2","0","8.75"
"Josh Hart","Josh-Hart-37889","4400","PG/SG","29.77","228.5","27.4","112.50","14.23","27.00","28.13","13.99","20.25","0","16.25"
"Spencer Dinwiddie","Spencer-Dinwiddie-18588","7600","PG/SG","51.98","228.5","28.8","114.62","30.52","32.00","53.71","24.04","34.54","0","27.75"
"Cory Joseph","Cory-Joseph-13339","4200","PG","47.54","207.5","24.6","107.67","18.29","25.00","34.41","15.34","18.96","0","17.75"
"DeAndre Bembry","DeAndre-Bembry-35198","3900","SG/SF","36.64","237.5","21.2","105.10","21.18","21.00","26.18","13.79","17.43","0","6.75"
"Jared Dudley","Jared-Dudley-1319","3200","SF/PF","37.26","228.5","16.2","114.62","13.72","19.00","25.48","12.46","14.26","0","24.25"
"Thaddeus Young","Thaddeus-Young-1289","6200","SF/PF","47.87","207.5","33.9","107.67","18.48","29.00","39.47","14.77","27.6","0","36.25"
"Dorian Finney-Smith","Dorian-Finney-Smith-36032","3600","SF/PF","34.62","207.5","22.6","100.08","12.97","22.00","25.01","12.51","15.84","0","7.5"
"Sviatoslav Mykhailiuk","Sviatoslav-Mykhailiuk-409280","3000","SG/SF","31.93","228.5","15.6","112.50","18.41","19.00","13.31","2.44","13.17","0","-0.5"
"Luka Doncic","Luka-Doncic-408971","7700","SG/SF","42.79","207.5","30.0","100.08","28.40","32.00","46.3","26.46","33.07","0","53.0"
"Devin Harris","Devin-Harris-1076","3300","PG/SG","49.43","207.5","14.9","100.08","19.14","16.00","24.63","14.01","14.01","0","11.5"
"Kentavious Caldwell-Pope","Kentavious-Caldwell-Pope-16869","4300","SG/SF","29.77","228.5","24.0","112.50","19.18","25.00","33.95","15.74","18.05","0","16.75"
"D'Angelo Russell","D'Angelo-Russell-18947","8100","PG/SG","51.98","228.5","28.2","114.62","30.39","29.00","45.21","16.68","33.69","0","50.0"
"Myles Turner","Myles-Turner-18915","7000","C","48.80","207.5","29.1","107.67","23.57","29.00","46.13","21.16","28.25","0","36.5"
"Vince Carter","Vince-Carter-1066","3100","SG","42.14","237.5","17.2","105.10","18.79","16.00","21.4","10.82","12.37","0","17.0"
"Kyle Kuzma","Kyle-Kuzma-37886","7500","SF/PF","47.72","228.5","34.4","112.50","26.19","32.00","38.05","16.24","29.27","0","43.25"
"Ante Zizic","Ante-Zizic-35180","3300","C","48.89","207.5","10.5","103.60","15.64","16.00","18.05","8.41","12.84","0","11.5"
"Jaron Blossomgame","Jaron-Blossomgame-570197","3200","SF/PF","35.12","207.5","13.4","103.60","10.06","17.00","13.09","3.22","12.33","0","22.5"
"Thomas Bryant ","Thomas-Bryant--37884","3700","PF/C","61.69","237.5","18.7","103.80","14.82","17.00","22.87","10.8","13.72","0","10.0"
"Doug McDermott","Doug-McDermott-18583","3100","SF/PF","37.43","207.5","16.6","107.67","16.38","18.00","22.01","11.01","11.01","0","14.5"
"Nick Young","Nick-Young-1063","3000","SG/SF","34.50","207.5","7.0","99.62","17.14","10.00","16.23","9.71","9.71","0","0"
"Dirk Nowitzki","Dirk-Nowitzki-1346","3400","PF/C","54.01","207.5","7.0","100.08","21.26","10.00","14.21","8.15","9.85","0","6.25"
"Troy Brown","Troy-Brown-409043","3100","SG/SF","45.54","237.5","11.0","103.80","17.56","10.00","8.8","1.61","8.7","0","0.0"
"Moritz Wagner","Moritz-Wagner-409281","3000","PF/C","58.48","228.5","8.3","112.50","24.86","12.00","7.66","1.4","7.58","0","0"
"Ivica Zubac","Ivica-Zubac-35226","3000","C","62.80","228.5","6.7","112.50","12.66","8.00","10.61","5.25","6.46","0","0"
"Shabazz Napier","Shabazz-Napier-18598","3300","PG/SG","35.73","228.5","2.0","114.62","28.80","5.00","8.3","3.62","4.46","0","0"
"Channing Frye","Channing-Frye-1484","3100","PF/C","54.14","207.5","7.2","103.60","15.80","4.00","7.67","3.31","3.89","0","0"
"Aaron Holiday","Aaron-Holiday-408932","3200","PG/SG","47.54","207.5","14.2","107.67","19.88","4.00","3.51","0.63","3.46","0","0.0"
"Jaylen Adams","Jaylen-Adams-436365","3000","PG","55.42","237.5","3.0","105.10","13.30","4.00","2.72","0.52","2.64","0","0.0"
