"nameCol","idCol","salaryCol","positionCol","dvpCol","ouCol","mpgCol","paceCol","usgCol","pminCol","ceilCol","floorCol","pointsCol","predictCol","actualCol"
"Tomas Satoransky ","Tomas-Satoransky--36031","4100","PG/SG","53.92","227.5","26.0","103.80","11.82","28.00","42.71","21.01","27.5","0","37.0"
"Sterling Brown","Sterling-Brown-37821","3200","SG/SF","36.89","215.5","24.5","98.80","12.38","24.00","38.45","20.64","20.64","0","15.0"
"Mike Muscala","Mike-Muscala-17379","3600","PF/C","54.26","219","21.8","108.33","16.74","27.00","35.79","18.27","22.81","0","11.0"
"Trey Lyles","Trey-Lyles-18942","4200.00","SF/PF","54.26","220.5","24.8","99.62","20.01","22.00","39.83","21.7","25.29","0","19.25"
"J.J. Redick","J.J.-Redick-1030","4900","SG/SF","36.36","219","29.5","108.33","21.92","32.00","39.0","18.9","29.3","0","0"
"Mason Plumlee","Mason-Plumlee-16798","5400.00","PF/C","58.80","220.5","26.4","99.62","17.32","30.00","45.27","22.24","31.86","0","27.75"
"James Johnson","James-Johnson-1195","3600","SF/PF","45.40","215.5","19.7","106.90","21.74","20.00","27.31","11.09","21.12","0","31.0"
"Gerald Green","Gerald-Green-13374","3700","SG/SF","47.00","217.5","19.6","101.42","14.30","26.00","33.56","13.83","21.65","0","22.0"
"Josh Jackson","Josh-Jackson-37890","5000","SF/PF","44.67","227.5","28.8","108.80","22.79","27.00","40.93","18.35","28.72","0","13.0"
"Trevor Ariza","Trevor-Ariza-1323","5300","SF/PF","34.26","227.5","37.5","103.80","15.59","35.00","39.9","15.31","30.32","0","37.25"
"Markieff Morris","Markieff-Morris-13314","4600","PF/C","54.96","227.5","23.3","103.80","18.13","26.00","37.94","18.5","26.06","0","31.75"
"Ricky Rubio","Ricky-Rubio-1001","5400","PG","34.40","218","29.4","98.88","25.85","32.00","40.25","16.22","30.61","0","0"
"Joel Embiid","Joel-Embiid-18578","9600","C","54.26","219","31.0","108.33","34.58","34.00","65.75","22.96","54.16","0","46.25"
"Jeff Green","Jeff-Green-1314","4800","SF/PF","50.73","227.5","30.7","103.80","15.42","32.00","38.4","20.48","27.06","0","33.0"
"Derrick Favors","Derrick-Favors-1266","4700","PF/C","51.51","218","22.6","98.88","19.48","25.00","34.1","16.48","26.41","0","32.75"
"Juan Hernangomez","Juan-Hernangomez-35212","4700.00","SF/PF","54.26","220.5","33.6","99.62","12.80","33.00","44.8","17.44","26.34","0","14.25"
"Jonas Jerebko","Jonas-Jerebko-1106","3500","PF/C","45.56","227","24.4","103.10","16.18","22.00","35.71","15.11","19.6","0","38.0"
"Jamal Murray","Jamal-Murray-35211","6600.00","PG/SG","53.50","220.5","33.8","99.62","22.74","35.00","57.24","23.59","36.74","0","26.75"
"Pascal Siakam","Pascal-Siakam-35186","6000","PF","54.10","219","30.0","105.50","20.34","35.00","49.3","18.94","33.29","0","38.5"
"Patty Mills","Patty-Mills-13977","3400","PG/SG","38.42","217.5","22.0","99.70","15.41","21.00","28.86","14.71","18.79","0","11.5"
"Brook Lopez","Brook-Lopez-1498","4400","C","54.33","215.5","27.1","98.80","18.04","27.00","35.53","16.15","24.32","0","25.5"
"Delon Wright","Delon-Wright-18907","4000","PG/SG","38.44","219","22.6","105.50","16.37","25.00","36.18","17.54","21.98","0","13.75"
"Draymond Green","Draymond-Green-13976","6300","PF/C","52.04","227","30.8","103.10","15.24","35.00","41.98","15.37","34.61","0","39.0"
"Khris Middleton","Khris-Middleton-13990","6500","SG/SF","44.65","215.5","32.7","98.80","25.74","34.00","56.32","24.29","35.67","0","35.75"
"Nikola Jokic","Nikola-Jokic-31812","9700.00","C","54.02","220.5","34.6","99.62","30.65","34.00","69.22","20.98","52.44","0","32.0"
"Jakob Poeltl","Jakob-Poeltl-35187","3400","C","53.86","217.5","20.3","99.70","13.01","20.00","36.7","16.28","18.38","0","16.0"
"Norman Powell","Norman-Powell-18908","3000","SG/SF","33.06","219","20.0","105.50","17.20","22.00","28.85","12.68","16.21","0","22.0"
"Donovan Mitchell","Donovan-Mitchell-37875","6900","PG/SG","47.55","218","31.9","98.88","32.27","34.00","48.58","20.09","37.2","0","41.25"
"Eric Bledsoe","Eric-Bledsoe-1031","6800","PG/SG","52.48","215.5","30.0","98.80","24.94","34.00","53.51","23.05","36.65","0","0"
"Dennis Schroder","Dennis-Schroder-18595","5400","PG/SG","49.63","218","28.4","102.62","28.69","29.00","44.33","22.83","29.05","0","15.75"
"Kelly Oubre","Kelly-Oubre-18925","4600","SG/SF","36.64","227.5","30.4","108.80","20.82","28.00","42.82","20.25","24.75","0","29.25"
"Mikal Bridges","Mikal-Bridges-408842","4200","SG/SF","36.64","227.5","32.8","108.80","12.46","30.00","26.43","8.31","22.57","0","21.0"
"Danilo Gallinari","Danilo-Gallinari-1329","6600.00","SF/PF","48.00","220.5","31.3","108.38","24.22","35.00","49.15","19.65","35.28","0","32.5"
"Lou Williams","Lou-Williams-1044","5300.00","PG/SG","44.39","220.5","20.7","108.38","32.25","24.00","42.28","17.48","28.24","0","0"
"Stephen Curry","Stephen-Curry-1079","9500","PG/SG","55.71","227","35.0","103.10","28.86","35.00","70.26","26.47","50.51","0","41.25"
"Giannis Antetokounmpo","Giannis-Antetokounmpo-16852","10900","SF/PF","51.48","215.5","33.7","98.80","30.33","37.00","67.71","22.42","57.92","0","31.75"
"Klay Thompson","Klay-Thompson-13315","6400","SG","37.71","227","34.8","103.10","24.54","35.00","43.61","19.57","33.91","0","31.25"
"DeMar DeRozan","DeMar-DeRozan-1053","7700","SG/SF","46.41","217.5","31.3","99.70","26.25","34.00","55.09","19.1","40.72","0","0"
"Jerami Grant","Jerami-Grant-18576","4600","PF","47.98","218","31.3","102.62","16.01","29.00","37.0","16.69","24.26","0","29.75"
"Wesley Matthews","Wesley-Matthews-1339","4500","SG/SF","41.20","227","29.0","100.08","18.84","31.00","35.36","14.98","23.67","0","39.25"
"Harrison Barnes","Harrison-Barnes-13901","5800","SF/PF","47.93","227","31.7","100.08","22.08","33.00","39.01","17.54","30.45","0","31.0"
"Kevin Durant","Kevin-Durant-1348","9200","SF/PF","45.56","227","34.6","103.10","31.44","35.00","63.71","22.48","48.23","0","58.5"
"Torrey Craig","Torrey-Craig-37861","3600.00","SG/SF","34.57","220.5","29.8","99.62","15.38","27.00","26.53","11.55","18.88","0","14.25"
"Deandre Ayton","Deandre-Ayton-409301","7200","C","60.80","227.5","28.2","108.80","23.30","30.00","44.03","13.84","37.6","0","52.75"
"Bradley Beal","Bradley-Beal-13898","8300","SG","46.91","227.5","38.4","103.80","29.27","36.00","66.22","29.58","43.31","0","80.75"
"J.J. Barea","J.J.-Barea-18605","4700","PG/SG","50.93","227","19.0","100.08","31.07","20.00","36.99","17.76","24.53","0","24.0"
"Devin Booker","Devin-Booker-18949","8800","PG/SG","56.09","227.5","36.3","108.80","32.47","36.00","69.19","26.37","45.46","0","63.5"
"Kevon Looney","Kevon-Looney-18945","3600","PF/C","48.70","227","20.6","103.10","10.99","20.00","26.46","11.75","18.48","0","20.75"
"Jalen Brunson","Jalen-Brunson-409062","3700","PG","37.97","227","25.3","100.08","17.90","26.00","22.23","6.98","18.98","0","22.5"
"Clint Capela","Clint-Capela-18610","7800","C","51.09","217.5","31.9","101.42","17.71","34.00","60.17","23.47","39.98","0","54.75"
"Danuel House","Danuel-House-36029","3700","SF/PF","52.41","217.5","19.3","101.42","13.71","26.00","31.4","14.41","18.96","0","9.25"
"James Harden","James-Harden-1037","11600","PG/SG","52.41","217.5","36.9","101.42","37.62","38.00","68.49","21.64","59.3","0","0"
"Eric Gordon","Eric-Gordon-1077","6100","SG/SF","47.00","217.5","34.1","101.42","17.74","37.00","45.36","21.28","31.2","0","32.5"
"Monte Morris","Monte-Morris-37860","4700.00","PG/SG","53.50","220.5","29.0","99.62","19.84","28.00","35.57","19.23","23.89","0","25.75"
"T.J. McConnell","T.J.-McConnell-18956","3700","PG/SG","39.41","219","25.7","108.33","16.74","24.00","30.65","15.86","18.77","0","20.25"
"Rudy Gobert","Rudy-Gobert-16935","7500","C","49.07","218","29.0","98.88","17.67","32.00","50.54","16.77","37.94","0","36.0"
"Hassan Whiteside","Hassan-Whiteside-18664","6600","C","47.19","215.5","22.3","106.90","22.33","23.00","41.85","15.77","33.27","0","29.75"
"George Hill","George-Hill-993","3500","PG/SG","41.05","215.5","20.0","98.80","11.87","20.00","30.46","15.14","17.65","0","0"
"LaMarcus Aldridge","LaMarcus-Aldridge-1349","7600","PF/C","52.92","217.5","27.1","99.70","26.28","31.00","54.98","24.9","38.13","0","27.5"
"Danny Green","Danny-Green-940","4300","SG/SF","35.41","219","32.0","105.50","12.88","27.00","30.5","14.95","21.51","0","0"
"Montrezl Harrell","Montrezl-Harrell-18930","5800.00","PF/C","53.63","220.5","23.9","108.38","20.90","28.00","43.87","22.6","28.94","0","36.0"
"Richaun Holmes","Richaun-Holmes-18905","3800","PF/C","55.54","227.5","19.7","108.80","17.22","18.00","32.71","14.34","18.94","0","22.25"
"OG Anunoby","OG-Anunoby-37807","3500","SF/PF","35.41","219","19.4","105.50","17.96","25.00","32.76","17.4","17.4","0","12.25"
"Kelly Olynyk","Kelly-Olynyk-16845","4500","PF/C","58.45","215.5","26.7","106.90","21.07","22.00","33.98","18.74","22.31","0","19.25"
"Bam Adebayo","Bam-Adebayo-37835","4600","PF/C","47.19","215.5","26.3","106.90","14.96","25.00","33.52","20.18","22.8","0","12.5"
"P.J. Tucker","P.J.-Tucker-13947","4600","SF/PF","37.20","217.5","35.6","101.42","10.99","35.00","43.96","19.19","22.74","0","33.5"
"Josh Richardson","Josh-Richardson-18922","7000","SG/SF","48.37","215.5","32.6","106.90","24.10","35.00","50.68","20.26","34.57","0","30.25"
"TJ Warren","TJ-Warren-18634","6700","SF/PF","44.67","227.5","29.7","108.80","25.52","34.00","43.02","19.21","33.12","0","53.0"
"Dwyane Wade","Dwyane-Wade-967","5500","PG/SG","48.37","215.5","25.8","106.90","32.37","23.00","38.13","17.81","26.91","0","0"
"Ben Simmons","Ben-Simmons-35184","8500","PG/SF","39.41","219","31.8","108.33","25.21","35.00","53.86","17.59","41.3","0","56.0"
"De'Anthony Melton","De'Anthony-Melton-409081","3900","PG","56.09","227.5","24.3","108.80","20.61","20.00","22.18","6.97","18.94","0","23.5"
"Jimmy Butler","Jimmy-Butler-13327","7400","SG/SF","47.94","219","23.8","108.33","18.91","34.00","48.91","19.05","35.94","0","38.25"
"Andre Iguodala","Andre-Iguodala-1334","3500","SG/SF","37.71","227","16.5","103.10","12.78","19.00","25.35","9.85","16.9","0","27.0"
"DeAndre Jordan","DeAndre-Jordan-1486","7100","C","51.59","227","30.1","100.08","14.34","31.00","41.8","20.17","33.68","0","55.25"
"Joe Ingles","Joe-Ingles-18627","5600","SG/SF","40.33","218","28.0","98.88","19.03","29.00","40.73","17.32","26.48","0","36.5"
"Dorian Finney-Smith","Dorian-Finney-Smith-36032","3400","SF/PF","36.48","227","22.6","100.08","11.51","21.00","25.03","12.08","15.91","0","15.25"
"Avery Bradley","Avery-Bradley-941","3900.00","SG","32.04","220.5","30.4","108.38","11.84","29.00","26.69","11.72","18.23","0","0"
"Fred VanVleet","Fred-VanVleet-36011","5900","PG/SG","38.44","219","31.2","105.50","17.79","27.00","37.13","16.25","27.18","0","21.5"
"Derrick White","Derrick-White-37858","3700","PG/SG","38.42","217.5","24.7","99.70","16.31","25.00","27.15","14.19","17.01","0","25.75"
"Greg Monroe","Greg-Monroe-1487","4300","C","51.22","219","12.2","105.50","22.01","17.00","27.71","12.55","19.79","0","17.0"
"Tony Snell","Tony-Snell-16872","3400","SG/SF","37.11","215.5","19.6","98.80","15.46","25.00","26.48","13.34","15.62","0","17.0"
"Chasson Randle","Chasson-Randle-36002","3000","PG/SG","53.92","227.5","11.5","103.80","20.23","18.00","22.16","11.19","13.75","0","8.75"
"Paul George","Paul-George-1245","9400","SF/PF","47.98","218","35.0","102.62","30.72","36.00","59.93","26.46","42.96","0","84.0"
"Rodney McGruder","Rodney-McGruder-16850","3600","SG/SF","36.00","215.5","27.0","106.90","14.22","22.00","24.95","10.24","16.38","0","19.75"
"Jae Crowder","Jae-Crowder-13942","5200","SF/PF","38.19","218","24.1","98.88","17.21","28.00","40.04","18.16","23.68","0","16.0"
"Patrick Beverley","Patrick-Beverley-14108","4300.00","PG/SG","37.83","220.5","26.6","108.38","13.42","21.00","35.41","19.55","19.55","0","21.0"
"Tobias Harris","Tobias-Harris-13332","7800.00","SF/PF","48.00","220.5","33.7","108.38","24.73","34.00","46.89","19.11","35.52","0","35.25"
"Rudy Gay","Rudy-Gay-1341","6200","SF/PF","44.67","217.5","25.9","99.70","21.33","29.00","36.55","13.99","28.14","0","31.0"
"D.J. Wilson","D.J.-Wilson-37822","3600","PF/C","51.48","215.5","18.2","98.80","13.63","18.00","31.26","16.22","16.22","0","15.5"
"Russell Westbrook","Russell-Westbrook-1083","11100","PG","49.63","218","35.0","102.62","30.52","35.00","55.42","17.05","49.84","0","39.5"
"Malik Beasley","Malik-Beasley-35213","3400.00","PG/SG","34.57","220.5","18.8","99.62","20.74","21.00","26.88","15.22","15.22","0","27.5"
"Shai Gilgeous-Alexander","Shai-Gilgeous-Alexander-408990","5200.00","PG/SG","37.83","220.5","25.4","108.38","18.11","27.00","26.62","7.23","23.31","0","31.5"
"Kyle Korver","Kyle-Korver-1269","3300","SG/SF","40.33","218","17.6","98.88","20.11","18.00","25.78","11.64","14.73","0","9.5"
"Bryn Forbes","Bryn-Forbes-36052","3700","PG/SG","48.90","217.5","26.4","99.70","18.30","23.00","23.97","10.01","16.52","0","20.25"
"Devin Harris","Devin-Harris-1076","3300","PG/SG","50.93","227","16.0","100.08","19.88","16.00","25.93","14.65","14.65","0","5.25"
"Davis Bertans","Davis-Bertans-36051","3600","PF/C","52.92","217.5","19.6","99.70","14.12","18.00","25.77","12.72","15.88","0","22.25"
"Dwight Powell","Dwight-Powell-18566","3500","PF/C","51.66","227","15.0","100.08","20.62","14.00","23.69","12.2","15.39","0","0.0"
"Sam Dekker","Sam-Dekker-18929","3700","SF/PF","34.26","227.5","13.2","103.80","22.21","19.00","27.39","13.62","16.17","0","13.0"
"Marco Belinelli","Marco-Belinelli-1033","3600","SG/SF","37.60","217.5","22.3","99.70","19.90","19.00","22.82","11.45","15.66","0","0"
"Brandon Knight","Brandon-Knight-13336","3300","PG/SG","52.41","217.5","7.2","101.42","19.26","18.00","19.99","10.45","14.36","0","0.75"
"Shaun Livingston","Shaun-Livingston-14007","3100","PG","41.13","227","15.2","103.10","13.46","16.00","22.0","10.07","13.36","0","11.5"
"Nene Hilario","Nene-Hilario-17321","3200","C","51.09","217.5","15.7","101.42","11.95","14.00","22.3","11.81","13.69","0","9.0"
"Royce O'Neale","Royce-O'Neale-37872","3200","SF","38.19","218","15.3","98.88","12.60","17.00","20.88","10.13","13.64","0","1.25"
"Landry Shamet","Landry-Shamet-408841","3200","PG/SG","36.36","219","19.8","108.33","15.93","24.00","13.77","2.46","13.57","0","4.0"
"Nerlens Noel","Nerlens-Noel-18575","3300","C","52.60","218","14.2","102.62","16.50","14.00","23.5","11.87","13.97","0","5.25"
"Luka Doncic","Luka-Doncic-408971","8100","SG/SF","44.18","227","31.7","100.08","30.81","32.00","40.12","12.61","34.26","0","34.75"
"Steven Adams","Steven-Adams-16848","7300","C","52.60","218","32.8","102.62","22.83","33.00","40.47","20.22","30.73","0","32.0"
"Justise Winslow","Justise-Winslow-18921","4800","PG/SF","40.32","215.5","28.4","106.90","22.97","24.00","28.24","16.14","20.17","0","26.0"
"Kyle Lowry","Kyle-Lowry-1057","7500","PG","53.43","219","34.3","105.50","20.89","30.00","50.29","25.14","31.43","0","0"
"Dante Exum","Dante-Exum-18626","3100","PG/SG","34.40","218","14.9","98.88","18.63","15.00","22.5","10.51","12.83","0","8.25"
"Tyler Johnson","Tyler-Johnson-18720","5100","PG/SG","47.13","215.5","22.8","106.90","21.95","25.00","27.36","11.9","21.03","0","11.25"
"Terrance Ferguson","Terrance-Ferguson-37871","3200","SG/SF","35.31","218","19.3","102.62","10.91","23.00","20.07","7.89","12.7","0","3.5"
"Marcin Gortat","Marcin-Gortat-1479","3400.00","C","49.96","220.5","16.6","108.38","15.33","14.00","19.05","8.01","13.38","0","20.75"
"Jamal Crawford","Jamal-Crawford-1075","3600","PG/SG","44.67","227.5","23.0","108.80","24.53","17.00","24.09","13.86","13.86","0","18.75"
"Alex Abrines","Alex-Abrines-36054","3000","SG/SF","35.31","218","17.7","102.62","10.89","18.00","22.26","11.39","11.39","0","8.25"
"C.J. Miles","C.J.-Miles-1299","3400","SG/SF","35.41","219","17.1","105.50","16.81","14.00","21.51","10.44","12.87","0","3.0"
"Jordan McRae","Jordan-McRae-18772","3000","PG/SG","53.92","227.5","2.5","103.80","24.00","14.00","22.49","11.25","11.25","0","0"
"Dante Cunningham","Dante-Cunningham-1259","3200","SF/PF","44.67","217.5","12.2","99.70","9.43","16.00","22.47","10.51","11.96","0","0.0"
"Ron Baker","Ron-Baker-36001","3000","SG","44.90","227.5","9.0","103.80","17.73","12.00","21.75","11.19","11.19","0","0"
"Derrick Jones","Derrick-Jones-36064","4700","SF/PF","36.00","215.5","25.0","106.90","14.25","21.00","31.88","17","17","0","12.25"
"Michael Carter-Williams","Michael-Carter-Williams-16800","3100","PG","52.41","217.5","4.0","101.42","43.30","12.00","17.04","8.99","11.1","0","0.0"
"Furkan Korkmaz","Furkan-Korkmaz-35185","3500","SG/SF","36.36","219","23.7","108.33","17.95","21.00","24.61","12.44","12.44","0","27.5"
"Thomas Bryant ","Thomas-Bryant--37884","4100","PF/C","54.96","227.5","18.4","103.80","12.83","20.00","23.81","11.25","14.3","0","51.25"
"Thon Maker","Thon-Maker-35194","3100","PF/C","50.24","215.5","11.1","98.80","13.76","12.00","17.05","8.21","10.06","0","3.75"
"Alfonzo McKinnie","Alfonzo-McKinnie-37808","3200","SF/PF","33.50","227","14.8","103.10","17.04","13.00","18.41","9.69","9.69","0","2.0"
"Amir Johnson","Amir-Johnson-1285","3000","PF/C","51.20","219","4.8","108.33","20.53","9.00","14.01","6.88","8.94","0","3.0"
"Jordan Bell","Jordan-Bell-37877","3000","PF/C","48.70","227","10.6","103.10","16.08","10.00","14.97","7.4","8.8","0","1.25"
"Nick Young","Nick-Young-1063","3000.00","SG/SF","33.04","220.5","7.3","99.62","13.33","10.00","14.16","8.75","8.75","0","0"
"Thabo Sefolosha","Thabo-Sefolosha-1271","3000","SF/PF","38.19","218","11.3","98.88","11.41","10.00","12.93","7.38","8.74","0","17.75"
"Dirk Nowitzki","Dirk-Nowitzki-1346","3400","PF/C","51.66","227","6.5","100.08","16.57","10.00","14.36","8.19","9.9","0","2.5"
"Patrick Patterson","Patrick-Patterson-1260","3100","PF/C","52.83","218","13.5","102.62","9.81","13.00","15.03","7.18","8.48","0","3.25"
"Mike Scott","Mike-Scott-13999","3300.00","SF/PF","48.00","220.5","15.0","108.38","19.87","11.00","17.61","10.4","8.81","0","25.25"
"Hamidou Diallo","Hamidou-Diallo-408800","3100","SG/SF","35.31","218","10.3","102.62","19.54","10.00","7.51","1.37","7.43","0","9.0"
"Tyrone Wallace","Tyrone-Wallace-35220","3500.00","PG/SG","44.39","220.5","12.2","108.38","24.14","11.00","13.02","8.07","8.07","0","14.5"
"Chris Boucher","Chris-Boucher-37880","3200","PF/C","54.10","219","4.0","105.50","22.93","10.00","6.48","1.19","6.41","0","3.5"
"Pat Connaughton","Pat-Connaughton-18939","3600","SG/SF","36.89","215.5","17.5","98.80","13.69","9.00","12.16","5.41","6.65","0","10.25"
"Boban Marjanovic","Boban-Marjanovic-31807","3700.00","C","49.96","220.5","10.7","108.38","23.92","6.00","12.92","6.62","6.62","0","10.75"
"Maxi Kleber","Maxi-Kleber-37845","3100","PF/C","47.93","227","11.0","100.08","20.33","6.00","8.63","4.35","5.27","0","11.75"
"Lorenzo Brown","Lorenzo-Brown-16940","3000","PG","53.43","219","10.6","105.50","17.58","4.00","5.65","3.08","3.08","0","3.5"
"Malachi Richardson","Malachi-Richardson-35199","3000","SG/SF","33.06","219","3.4","105.50","16.47","4.00","5.24","2.62","2.62","0","3.5"
"Drew Eubanks","Drew-Eubanks-570198","3000","PF/C","44.67","217.5","6.3","99.70","17.03","4.00","2.37","0.43","2.34","0","0.0"
