"nameCol","idCol","salaryCol","positionCol","dvpCol","ouCol","mpgCol","paceCol","usgCol","pminCol","ceilCol","floorCol","pointsCol","predictCol","actualCol"
"Rodions Kurucs","Rodions-Kurucs-408801","3500","SF/PF","54.74","225","17.2","114.62","18.27","30.00","33.0","8.9","29.1","0","23.5"
"Delon Wright","Delon-Wright-18907","3200","PG/SG","40.65","210","15.7","105.50","18.40","27.00","45.95","21.93","27.58","0","32.0"
"Tomas Satoransky ","Tomas-Satoransky--36031","3800","PG/SG","51.41","231","26.0","103.80","11.63","30.00","41.74","16.58","29.25","0","29.0"
"DeMarre Carroll","DeMarre-Carroll-1174","3700","SF/PF","0","225","23.0","114.62","18.33","25.00","44.8","20.36","26.37","0","23.5"
"Wesley Matthews","Wesley-Matthews-1339","4400","SG/SF","42.75","224","28.3","100.08","19.87","34.00","45.14","18.81","30.69","0","24.0"
"Devin Harris","Devin-Harris-1076","3300","PG/SG","54.31","224","0","100.08","0","24.00","39.85","22.34","22.34","0","11.25"
"Kevin Huerter","Kevin-Huerter-408969","4400","SG/SF","30.09","225","31.4","105.10","16.25","31.00","25.95","5.2","25.1","0","7.75"
"Cheick Diallo","Cheick-Diallo-35225","3000","PF/C","51.73","222","12.2","104.88","11.87","19.00","34.78","16.15","19.3","0","2.5"
"Wilson Chandler","Wilson-Chandler-1327","3800","SF/PF","36.30","218","30.4","108.33","9.90","28.00","36.08","17.15","24.12","0","27.75"
"Rondae Hollis-Jefferson","Rondae-Hollis-Jefferson-18897","5300","PF/C","54.74","225","27.2","114.62","18.45","30.00","48.42","20.54","31.69","0","31.0"
"Mason Plumlee","Mason-Plumlee-16798","4800","PF/C","50.57","210","21.7","99.62","19.14","30.00","43.18","21.53","30.32","0","23.25"
"Joe Harris","Joe-Harris-18587","4500","SG/SF","41.77","225","30.8","114.62","17.23","32.00","39.51","18.1","27.1","0","29.25"
"Tyson Chandler","Tyson-Chandler-1482","3500","C","54.17","231","20.3","112.50","5.65","26.00","42.16","21.82","21.82","0","16.25"
"Cedi Osman","Cedi-Osman-18912","4400","SF/PF","35.17","218","31.4","103.60","15.53","31.00","36.94","12.85","28.55","0","27.0"
"Buddy Hield","Buddy-Hield-35206","6100","SG/SF","34.36","224","28.7","98.20","25.23","34.00","58.2","25.77","37.79","0","36.5"
"Greg Monroe","Greg-Monroe-1487","3500","C","50.26","210","7.8","105.50","24.63","20.00","30.18","13.36","21.65","0","8.5"
"Matthew Dellavedova","Matthew-Dellavedova-16839","3700","PG/SG","38.02","218","20.5","103.60","20.22","20.00","38.03","21.61","21.61","0","29.5"
"Harrison Barnes","Harrison-Barnes-13901","5600","SF/PF","52.36","224","31.3","100.08","25.20","35.00","43.42","19.8","34.19","0","22.5"
"Alec Burks","Alec-Burks-13353","4600","PG/SG","47.28","218","29.0","103.60","19.67","28.00","38.68","19.64","27.43","0","7.0"
"Dorian Finney-Smith","Dorian-Finney-Smith-36032","3700","SF/PF","38.01","224","24.3","100.08","12.50","29.00","35.09","18.54","22.58","0","11.25"
"Justin Jackson","Justin-Jackson-37895","3500","SF","34.36","224","17.5","98.20","14.42","28.00","32.08","17.16","21.27","0","10.75"
"Julius Randle","Julius-Randle-18632","8100","PF/C","52.10","222","31.4","104.88","29.85","37.00","67.26","28.1","48.95","0","38.0"
"Jamal Murray","Jamal-Murray-35211","6300","PG/SG","45.83","210","35.8","99.62","25.70","37.00","55.7","22.67","37.84","0","36.25"
"Larry Nance","Larry-Nance-18946","6500","PF/C","53.48","218","27.1","103.60","14.59","34.00","56.84","29.53","37.15","0","22.5"
"Nemanja Bjelica","Nemanja-Bjelica-31814","4600","SF/PF","44.44","224","24.3","98.20","17.48","28.00","45.24","18.16","27.47","0","40.0"
"Sam Dekker","Sam-Dekker-18929","3500","SF/PF","36.33","231","10.0","103.80","14.05","24.00","35.4","17.6","20.9","0","36.75"
"Tim Frazier","Tim-Frazier-18743","4700","PG/SG","41.23","222","31.3","104.88","13.72","33.00","43.89","18.93","27.64","0","3.75"
"Dewayne Dedmon","Dewayne-Dedmon-16894","4700","PF/C","61.45","225","28.0","105.10","14.90","24.00","35.46","15.06","25.22","0","51.5"
"Jeff Green","Jeff-Green-1314","4400","SF/PF","44.54","231","26.8","103.80","12.95","30.00","43.32","20.15","25.8","0","34.25"
"J.J. Redick","J.J.-Redick-1030","5500","SG/SF","0","218","33.5","108.33","23.52","30.00","40.03","18.57","29.81","0","0"
"Torrey Craig","Torrey-Craig-37861","3500","SG/SF","37.28","210","25.0","99.62","13.11","30.00","28.49","12.09","20.42","0","22.5"
"Justise Winslow","Justise-Winslow-18921","4800","SF/PF","42.90","222","31.7","106.90","21.23","29.00","43.12","21.41","27.84","0","8.5"
"Mike Muscala","Mike-Muscala-17379","3600","PF/C","48.32","218","24.0","108.33","15.61","25.00","42.95","23.03","23.03","0","23.5"
"Ed Davis","Ed-Davis-1265","3400","PF/C","56.51","225","19.7","114.62","10.83","19.00","35.57","14.54","19.47","0","31.0"
"John Wall","John-Wall-1084","9200","PG","51.41","231","34.5","103.80","29.85","37.00","58.27","20.8","52.4","0","79.5"
"Jimmy Butler","Jimmy-Butler-13327","7400","SG/SF","51.79","218","29.2","108.33","31.86","34.00","57.05","23.62","42.64","0","30.0"
"Tim Hardaway Jr.","Tim-Hardaway-Jr.-16879","6400","SG/SF","45.06","216","32.7","100.17","22.47","36.00","58.17","25.4","37.41","0","31.0"
"Lance Stephenson","Lance-Stephenson-947","3600","SG/SF","44.85","231","15.8","112.50","23.09","22.00","34.54","16.02","20.07","0","0"
"Jordan Clarkson","Jordan-Clarkson-18631","5900","PG/SG","47.28","218","27.9","103.60","29.63","28.00","48.8","26.34","29.56","0","31.5"
"Noah Vonleh","Noah-Vonleh-18597","5800","PF/C","47.90","216","29.8","100.17","15.04","28.00","41.71","18.34","30.01","0","29.0"
"Kevin Knox","Kevin-Knox-408820","5700","SF/PF","45.06","216","31.0","100.17","21.93","34.00","25.19","2.99","26.68","0","25.5"
"Bogdan Bogdanovic","Bogdan-Bogdanovic-37899","5700","SG/SF","48.06","224","28.0","98.20","23.93","34.00","50.42","27.54","31.55","0","31.75"
"Ben Simmons","Ben-Simmons-35184","8800","PG/SF","45.88","218","35.3","108.33","22.19","35.00","63.68","20.39","48.1","0","63.25"
"James Johnson","James-Johnson-1195","3700","SF/PF","48.35","222","0","106.90","0","20.00","26.63","10.74","20.34","0","12.25"
"Markieff Morris","Markieff-Morris-13314","5400","PF/C","58.49","231","26.2","103.80","20.95","31.00","43.21","21.07","29.68","0","8.5"
"Domantas Sabonis","Domantas-Sabonis-35217","6700","PF/C","54.40","216","24.6","107.67","22.01","27.00","52.85","27.76","35.64","0","36.5"
"Solomon Hill","Solomon-Hill-16863","3500","SF/PF","37.62","222","27.0","104.88","9.79","28.00","30.03","15.83","19.19","0","22.75"
"Spencer Dinwiddie","Spencer-Dinwiddie-18588","7800","PG/SG","55.13","225","30.2","114.62","29.94","32.00","55.59","24.71","35.61","0","26.25"
"Kawhi Leonard","Kawhi-Leonard-13310","9000","SF/PF","41.32","210","36.0","105.50","28.99","36.00","65.52","24.0","49.08","0","52.5"
"Kent Bazemore","Kent-Bazemore-13987","6000","SG/SF","44.12","225","29.0","105.10","23.96","31.00","43.86","14.7","31.02","0","40.25"
"Serge Ibaka","Serge-Ibaka-1294","6500","PF/C","47.99","210","27.7","105.50","24.55","32.00","49.94","21.13","35.27","0","24.75"
"DeAndre Jordan","DeAndre-Jordan-1486","6800","C","51.99","224","30.3","100.08","15.19","31.00","45.84","22.04","36.85","0","47.25"
"Josh Richardson","Josh-Richardson-18922","6200","SG/SF","49.95","222","33.2","106.90","20.38","34.00","48.96","20.17","33.4","0","34.25"
"Josh Hart","Josh-Hart-37889","4600","PG/SG","41.71","231","27.0","112.50","13.53","33.00","34.44","17.21","24.76","0","6.0"
"Trey Lyles","Trey-Lyles-18942","4600","SF/PF","46.72","210","23.0","99.62","21.65","22.00","39.0","20.53","24.76","0","16.0"
"C.J. Miles","C.J.-Miles-1299","3600","SG/SF","35.44","210","14.7","105.50","17.07","22.00","31.85","15.55","19.22","0","17.0"
"De'Aaron Fox","De'Aaron-Fox-37900","7600","PG","54.01","224","30.8","98.20","28.43","36.00","50.97","20.51","40.45","0","46.25"
"Hassan Whiteside","Hassan-Whiteside-18664","6900","C","50.38","222","26.3","106.90","19.83","25.00","47.16","17.8","36.7","0","39.0"
"Trae Young","Trae-Young-409063","6200","PG","46.33","225","0","105.10","0","32.00","33.47","6.7","32.37","0","33.0"
"Lonzo Ball","Lonzo-Ball-37885","5900","PG","46.67","231","33.3","112.50","19.36","34.00","41.91","16.19","31.25","0","31.25"
"Jrue Holiday","Jrue-Holiday-1073","8400","PG/SG","51.70","222","36.9","104.88","26.84","38.00","59.76","20.88","44.53","0","39.0"
"Dwight Powell","Dwight-Powell-18566","3600","PF/C","57.40","224","17.0","100.08","21.18","16.00","29.64","15.19","19.01","0","18.75"
"OG Anunoby","OG-Anunoby-37807","3200","SF/PF","35.44","210","16.3","105.50","16.60","25.00","31.85","16.86","16.86","0","21.25"
"Bradley Beal","Bradley-Beal-13898","8200","SG","49.87","231","38.8","103.80","31.05","38.00","66.02","29.49","43.18","0","45.5"
"Nikola Jokic","Nikola-Jokic-31812","9900","C","53.75","210","34.5","99.62","27.59","35.00","66.02","21.31","51.86","0","45.75"
"Willie Cauley-Stein","Willie-Cauley-Stein-18951","6700","C","47.93","224","27.2","98.20","19.45","32.00","49.9","22.0","34.87","0","30.0"
"Kosta Koufos","Kosta-Koufos-1386","3300","C","47.93","224","15.0","98.20","12.68","16.00","32.99","17.1","17.1","0","21.5"
"Jarrett Allen","Jarrett-Allen-37794","5600","C","56.51","225","26.8","114.62","16.67","28.00","39.91","17.58","28.96","0","19.5"
"Emmanuel Mudiay","Emmanuel-Mudiay-18936","6300","PG","38.16","216","30.8","100.17","26.86","31.00","39.72","18.33","29.42","0","29.75"
"DeAndre Bembry","DeAndre-Bembry-35198","3900","SG/SF","31.16","225","20.4","105.10","20.18","26.00","31.46","17.7","21.07","0","23.25"
"Kentavious Caldwell-Pope","Kentavious-Caldwell-Pope-16869","3700","SG/SF","41.71","231","23.1","112.50","17.29","25.00","35.68","16.46","18.88","0","44.0"
"Juan Hernangomez","Juan-Hernangomez-35212","5100","SF/PF","46.72","210","35.0","99.62","13.75","32.00","42.95","17.25","25.78","0","12.75"
"John Collins","John-Collins-37823","7600","PF/C","61.45","225","31.4","105.10","27.57","33.00","56.7","22.48","36.25","0","42.5"
"Trey Burke","Trey-Burke-17029","4500","PG/SG","45.84","216","0.0","100.17","0","23.00","38.79","19.02","22.62","0","15.0"
"Anthony Davis","Anthony-Davis-13895","11600","PF/C","52.10","222","34.9","104.88","32.24","37.00","84.61","30.34","58.23","0","66.5"
"Jalen Brunson","Jalen-Brunson-409062","3900","PG","43.56","224","22.2","100.08","17.34","25.00","20.14","3.83","19.53","0","20.5"
"Collin Sexton","Collin-Sexton-408896","5200","PG","52.65","218","31.9","103.60","26.08","34.00","29.38","7.93","25.91","0","18.75"
"Danny Green","Danny-Green-940","4900","SG/SF","35.44","210","31.9","105.50","11.89","32.00","34.66","16.94","24.41","0","0"
"Joel Embiid","Joel-Embiid-18578","11100","C","48.32","218","35.4","108.33","30.90","33.00","63.85","22.23","52.42","0","38.75"
"D'Angelo Russell","D'Angelo-Russell-18947","7500","PG/SG","55.13","225","28.7","114.62","32.80","31.00","49.01","17.88","36.12","0","56.5"
"Rodney McGruder","Rodney-McGruder-16850","4000","SG/SF","36.07","222","24.9","106.90","14.80","27.00","31.07","13.3","19.68","0","14.0"
"LeBron James","LeBron-James-1227","10900","SF/PF","49.60","231","34.3","112.50","34.06","36.00","68.5","21.3","53.64","0","25.0"
"Alex Len","Alex-Len-16886","3300","C","61.45","225","11.4","105.10","20.56","14.00","22.79","11.81","16.13","0","7.5"
"Luka Doncic","Luka-Doncic-408971","7300","SG/SF","46.29","224","29.2","100.08","27.42","34.00","39.11","14.42","35.43","0","49.0"
"Thaddeus Young","Thaddeus-Young-1289","6600","SF/PF","53.62","216","34.2","107.67","19.39","32.00","38.87","14.62","27.37","0","24.5"
"Victor Oladipo","Victor-Oladipo-16807","8400","PG/SG","50.29","216","30.0","107.67","25.06","31.00","55.77","26.0","40.24","0","57.0"
"Enes Kanter","Enes-Kanter-13299","6800","C","53.67","216","24.5","100.17","21.50","26.00","45.45","16.61","33.77","0","38.25"
"Troy Brown","Troy-Brown-409043","3100","SG/SF","36.33","231","7.0","103.80","24.74","18.00","15.19","2.89","14.73","0","9.5"
"T.J. McConnell","T.J.-McConnell-18956","3800","PG/SG","45.88","218","26.5","108.33","16.89","20.00","27.14","14.27","16.93","0","19.0"
"Bojan Bogdanovic","Bojan-Bogdanovic-18571","5000","SG/SF","35.96","216","32.2","107.67","21.32","33.00","38.54","20.17","24.36","0","22.5"
"Rodney Hood","Rodney-Hood-18629","4800","SG/SF","47.28","218","24.5","103.60","20.60","24.00","35.03","14.07","21.72","0","24.5"
"E'Twaun Moore","E'Twaun-Moore-18582","4000","SG/SF","37.44","222","21.5","104.88","19.26","25.00","29.21","15.14","18.37","0","20.0"
"Aaron Holiday","Aaron-Holiday-408932","3200","PG/SG","44.33","216","14.5","107.67","17.91","18.00","15.65","3.3","14.42","0","0"
"Jeremy Lin","Jeremy-Lin-916","4000","PG/SG","46.33","225","14.7","105.10","24.38","20.00","31.31","15.0","20.11","0","0"
"Kelly Olynyk","Kelly-Olynyk-16845","5000","PF/C","56.22","222","26.3","106.90","22.46","22.00","33.08","16.75","22.16","0","16.5"
"Thomas Bryant ","Thomas-Bryant--37884","3400","PF/C","58.49","231","17.0","103.80","15.31","20.00","24.46","11.56","14.69","0","30.75"
"Frank Ntilikina","Frank-Ntilikina-37796","3600","PG/SG","38.16","216","18.0","100.17","27.07","21.00","24.35","12.86","15.46","0","11.0"
"Dwyane Wade","Dwyane-Wade-967","5500","PG/SG","49.95","222","25.7","106.90","29.30","20.00","33.57","15.6","23.49","0","0"
"Yogi Ferrell","Yogi-Ferrell-35999","3300","PG/SG","54.01","224","8.6","98.20","22.90","18.00","23.34","11.99","14.06","0","13.75"
"Cory Joseph","Cory-Joseph-13339","4300","PG","44.33","216","23.8","107.67","19.05","25.00","30.28","14.08","17.47","0","22.25"
"Monte Morris","Monte-Morris-37860","4500","PG/SG","45.83","210","25.0","99.62","22.05","26.00","28.5","14.79","19.13","0","28.0"
"Darius Miller","Darius-Miller-13951","3400","SF/PF","37.62","222","23.4","104.88","13.36","23.00","25.38","14.42","14.42","0","13.5"
"Kyle Kuzma","Kyle-Kuzma-37886","8000","SF/PF","49.60","231","34.4","112.50","25.34","35.00","42.19","18.07","32.5","0","33.0"
"Luke Kornet","Luke-Kornet-37800","3300","PF/C","34.98","216","11.0","100.17","14.80","15.00","18.89","8.71","12.05","0","9.25"
"Ante Zizic","Ante-Zizic-35180","3000","C","52.38","218","4.0","103.60","20.00","15.00","24.01","12.01","12.01","0","12.5"
"Darren Collison","Darren-Collison-1060","5400","PG","44.33","216","30.5","107.67","15.61","26.00","31.89","14.46","23.59","0","0"
"Lorenzo Brown","Lorenzo-Brown-16940","3000","PG","49.46","210","5.3","105.50","12.48","18.00","21.55","11.98","11.98","0","0"
"Tyler Johnson","Tyler-Johnson-18720","4600","PG/SG","49.82","222","18.4","106.90","19.73","22.00","23.61","10.57","18.22","0","22.25"
"Vince Carter","Vince-Carter-1066","3100","SG","30.09","225","16.8","105.10","20.51","16.00","20.89","10.73","12.26","0","14.0"
"Landry Shamet","Landry-Shamet-408841","3300","PG/SG","54.24","218","19.0","108.33","15.03","19.00","12.7","2.32","12.56","0","22.5"
"Harry Giles","Harry-Giles-37897","3000","PF/C","44.44","224","4.3","98.20","33.69","14.00","12.45","2.87","11.76","0","0.0"
"Bam Adebayo","Bam-Adebayo-37835","5300","PF/C","50.38","222","25.6","106.90","15.31","23.00","30.03","17.87","20.22","0","23.0"
"Doug McDermott","Doug-McDermott-18583","3100","SF/PF","35.96","216","15.8","107.67","16.92","19.00","23.21","11.61","11.61","0","13.5"
"Mario Hezonja","Mario-Hezonja-18923","3200","SF/PF","37.00","216","14.8","100.17","18.05","12.00","22.13","10.48","11.83","0","2.0"
"Derrick Jones","Derrick-Jones-36064","3900","SF/PF","36.07","222","21.6","106.90","12.94","18.00","26.35","14.36","14.36","0","25.5"
"Malik Beasley","Malik-Beasley-35213","3300","PG/SG","37.28","210","23.5","99.62","17.99","18.00","21.64","11.84","11.84","0","16.25"
"Sviatoslav Mykhailiuk","Sviatoslav-Mykhailiuk-409280","3000","SG/SF","37.00","231","0","112.50","0","16.00","11.39","2.63","10.76","0","12.75"
"Myles Turner","Myles-Turner-18915","7200","C","0","216","28.3","107.67","22.86","29.00","43.22","19.38","26.58","0","36.5"
"Dirk Nowitzki","Dirk-Nowitzki-1346","3800","PF/C","57.40","224","6.0","100.08","13.33","12.00","19.2","10.18","13.02","0","7.5"
"Ivica Zubac","Ivica-Zubac-35226","3000","C","54.17","231","5.7","112.50","9.41","13.00","17.17","8.35","10.23","0","0"
"Courtney Lee","Courtney-Lee-1025","3400","SG/SF","37.00","216","12.6","100.17","18.43","14.00","14.73","7.72","10.36","0","0"
"Jordan McRae","Jordan-McRae-18772","3000","PG/SG","51.41","231","0","103.80","0","12.00","19.87","9.94","9.94","0","0"
"Tyler Dorsey","Tyler-Dorsey-37825","3100","PG/SG","30.09","225","14.2","105.10","25.22","13.00","16.71","7.97","10.07","0","2.75"
"Jared Dudley","Jared-Dudley-1319","3100","SF/PF","0","225","14.8","114.62","11.91","13.00","17.58","8.62","9.86","0","29.0"
"Malachi Richardson","Malachi-Richardson-35199","3000","SG/SF","31.76","210","4.0","105.50","25.00","16.00","18.01","9.01","9.01","0","0"
"Furkan Korkmaz","Furkan-Korkmaz-35185","4100","SG/SF","54.24","218","18.8","108.33","19.46","16.00","21.49","11.22","11.22","0","12.75"
"Channing Frye","Channing-Frye-1484","3100","PF/C","53.48","218","7.6","103.60","14.72","8.00","11.97","5.54","7.96","0","6.25"
"Nick Young","Nick-Young-1063","3000","SG/SF","37.11","210","8.0","99.62","15.00","10.00","12.9","7.84","7.84","0","0"
"David Nwaba","David-Nwaba-36526","3500","SG/SF","35.17","218","11.0","103.60","28.02","10.00","14.03","7.72","7.94","0","18.25"
"Chris Boucher","Chris-Boucher-37880","3000","PF/C","54.09","210","0","105.50","0","12.00","6.44","1.58","6.06","0","0"
"Jaron Blossomgame","Jaron-Blossomgame-570197","3400","SF/PF","35.17","218","14.2","103.60","10.03","8.00","6.11","1.09","6.02","0","6.5"
