"nameCol","idCol","salaryCol","positionCol","dvpCol","ouCol","mpgCol","paceCol","usgCol","pminCol","ceilCol","floorCol","pointsCol","predictCol","actualCol"
"Tomas Satoransky ","Tomas-Satoransky--36031","3300","PG/SG","52.04","217.5","30.4","103.80","13.62","36.00","46.54","22.9","29.97","0","35.5"
"Cedi Osman","Cedi-Osman-18912","4300","SF/PF","44.57","219","31.3","103.60","17.15","32.00","37.04","13.74","29.61","0","36.0"
"DeMarre Carroll","DeMarre-Carroll-1174","3700.00","SF/PF","39.77","222","25.1","114.62","18.03","26.00","42.52","20.15","25.28","0","31.75"
"Channing Frye","Channing-Frye-1484","3100","PF/C","59.34","219","9.6","103.60","22.50","21.00","41.64","17.91","21.05","0","5.25"
"Jeff Green","Jeff-Green-1314","3900","SF/PF","49.92","217.5","30.0","103.80","16.44","32.00","37.53","20.02","26.45","0","42.25"
"Davis Bertans","Davis-Bertans-36051","3500","PF/C","54.23","226","20.9","99.70","13.13","24.00","36.0","17.77","22.18","0","10.0"
"Maurice Harkless","Maurice-Harkless-16971","3600","SF/PF","36.99","226.5","24.8","104.50","13.46","25.00","35.35","15.02","22.39","0","29.75"
"Danuel House","Danuel-House-36029","3700","SF/PF","50.54","229","22.7","101.42","11.08","27.00","35.58","14.64","22.81","0","25.0"
"Mikal Bridges","Mikal-Bridges-408842","3900","SG/SF","34.13","215","33.9","108.80","10.75","31.00","27.41","7.44","24","0","29.5"
"Al-Farouq Aminu","Al-Farouq-Aminu-1279","4600","SF/PF","36.99","226.5","29.7","104.50","12.94","32.00","43.38","20.97","28.15","0","25.25"
"Jeremy Lin","Jeremy-Lin-916","3800","PG/SG","55.82","219","19.2","105.10","24.72","22.00","35.81","17.43","23.27","0","0"
"Josh Jackson","Josh-Jackson-37890","4300","SF/PF","44.89","215","24.3","108.80","20.26","26.00","36.6","16.86","26.22","0","15.25"
"Kevin Huerter","Kevin-Huerter-408969","4100","SG/SF","37.04","219","30.8","105.10","15.72","30.00","28.21","7.61","24.88","0","18.75"
"Rondae Hollis-Jefferson","Rondae-Hollis-Jefferson-18897","5300.00","PF/C","46.07","222","25.9","114.62","22.15","32.00","50.46","20.22","32.1","0","2.75"
"E'Twaun Moore","E'Twaun-Moore-18582","3900","SG/SF","37.09","229","28.3","104.88","13.79","32.00","37.7","19.41","23.58","0","34.25"
"Jared Dudley","Jared-Dudley-1319","3200.00","SF/PF","39.77","222","25.7","114.62","12.54","26.00","34.68","16.79","19.19","0","14.75"
"Derrick Favors","Derrick-Favors-1266","4900","PF/C","58.98","215","21.6","98.88","21.74","27.00","37.89","18.31","29.35","0","35.5"
"Gerald Green","Gerald-Green-13374","3600","SG/SF","51.21","229","22.9","101.42","16.19","24.00","37.32","17.49","21.56","0","12.0"
"Kyle Anderson","Kyle-Anderson-18615","4600","PG/SF","34.02","202","30.0","103.30","12.49","31.00","36.5","14.79","27.34","0","26.25"
"Dante Exum","Dante-Exum-18626","3500","PG/SG","41.47","215","17.0","98.88","21.36","24.00","36.33","16.96","20.71","0","33.5"
"Mason Plumlee","Mason-Plumlee-16798","5000","PF/C","59.22","215","29.8","99.62","14.38","28.00","50.68","24.06","29.48","0","21.0"
"Solomon Hill","Solomon-Hill-16863","3200","SF/PF","35.80","229","22.3","104.88","10.47","28.00","35.93","18.87","18.87","0","6.25"
"JaMychal Green","JaMychal-Green-18729","3900","SF/PF","50.65","202","22.8","103.30","16.11","23.00","38.75","20.11","22.93","0","16.25"
"Austin Rivers","Austin-Rivers-13903","3800","PG/SG","50.00","229","32.0","101.42","11.93","31.00","33.43","18.12","22.04","0","27.25"
"George Hill","George-Hill-993","3500.00","PG/SG","38.59","222","21.0","98.80","12.96","23.00","34.78","18.13","20.21","0","0"
"Marvin Williams","Marvin-Williams-1318","5100","SF/PF","49.57","217.5","30.5","103.00","14.73","32.00","49.06","24.9","29.29","0","35.25"
"Royce O'Neale","Royce-O'Neale-37872","3100","SF","38.28","215","9.7","98.88","12.66","21.00","27.05","13.13","17.67","0","24.25"
"Khris Middleton","Khris-Middleton-13990","6200.00","SG/SF","43.65","222","32.8","98.80","25.71","32.00","57.09","25.25","35.22","0","48.5"
"Kevon Looney","Kevon-Looney-18945","3600","PF/C","50.64","226.5","22.0","103.10","12.01","24.00","29.43","12.98","20.31","0","20.25"
"LaMarcus Aldridge","LaMarcus-Aldridge-1349","7100","PF/C","54.23","226","30.3","99.70","24.54","33.00","57.64","26.1","39.97","0","52.75"
"Trevor Ariza","Trevor-Ariza-1323","5400","SF/PF","38.32","217.5","38.7","103.80","17.93","36.00","39.99","15.35","30.39","0","46.25"
"Joe Ingles","Joe-Ingles-18627","5300","SG/SF","35.18","215","30.4","98.88","19.43","33.00","45.71","19.44","29.72","0","11.75"
"TJ Warren","TJ-Warren-18634","6400","SF/PF","44.89","215","36.6","108.80","22.32","36.00","47.16","20.52","35.81","0","42.25"
"James Harden","James-Harden-1037","11400","PG/SG","50.54","229","38.9","101.42","39.65","39.00","73.55","23.88","63.68","0","0"
"Gordon Hayward","Gordon-Hayward-1239","4700","SF/PF","41.42","202","28.0","101.75","15.87","26.00","38.7","18.18","26.27","0","23.75"
"Rodions Kurucs","Rodions-Kurucs-408801","5200.00","SF/PF","46.07","222","27.4","114.62","16.64","33.00","28.92","6.09","28.98","0","4.75"
"Nikola Jokic","Nikola-Jokic-31812","9500","C","54.70","215","30.8","99.62","30.41","34.00","69.83","21.11","52.9","0","52.5"
"Terry Rozier","Terry-Rozier-18894","3700","PG/SG","42.79","202","20.5","101.75","19.59","21.00","32.48","17.06","20.58","0","13.0"
"Justin Anderson","Justin-Anderson-18927","3100","SF/PF","38.29","219","8.4","105.10","12.89","16.00","26.86","12.85","17.22","0","13.25"
"Meyers Leonard","Meyers-Leonard-13905","3200","PF/C","49.01","226.5","18.5","104.50","15.64","16.00","30.96","14.41","17.72","0","11.0"
"Kelly Oubre","Kelly-Oubre-18925","4400","SG/SF","34.13","215","28.2","108.80","19.30","28.00","42.79","19.89","24.31","0","17.75"
"Trae Young","Trae-Young-409063","6200","PG","55.82","219","28.3","105.10","28.37","31.00","38.82","10.47","34.23","0","39.75"
"Draymond Green","Draymond-Green-13976","6700","PF/C","52.73","226.5","33.7","103.10","17.93","33.00","45.73","16.33","36.94","0","24.75"
"Damian Lillard","Damian-Lillard-13900","8300","PG","50.40","226.5","36.0","104.50","28.70","35.00","58.39","22.11","45.69","0","53.5"
"Thabo Sefolosha","Thabo-Sefolosha-1271","3100","SF/PF","38.28","215","10.0","98.88","10.09","19.00","25.16","14.36","17.01","0","30.0"
"Luke Kornet","Luke-Kornet-37800","4200","PF/C","52.95","215","14.8","100.17","21.75","27.00","35.71","14.61","23.01","0","32.0"
"Klay Thompson","Klay-Thompson-13315","6000","SG","39.06","226.5","34.7","103.10","18.95","35.00","44.23","19.02","32.79","0","42.5"
"Brook Lopez","Brook-Lopez-1498","4900.00","C","57.98","222","25.5","98.80","17.23","27.00","40.35","17.76","26.74","0","34.0"
"Alec Burks","Alec-Burks-13353","4500","PG/SG","51.21","219","27.1","103.60","19.62","28.00","35.1","17.98","24.46","0","34.25"
"Evan Turner","Evan-Turner-1291","3800","SG/SF","45.02","226.5","22.0","104.50","19.27","24.00","30.53","17.16","20.63","0","3.25"
"Deandre Ayton","Deandre-Ayton-409301","7000","C","49.97","215","31.7","108.80","20.96","32.00","43.29","11.75","37.91","0","61.5"
"Kyle Korver","Kyle-Korver-1269","3300","SG/SF","35.18","215","19.1","98.88","18.16","22.00","31.27","14.12","17.87","0","20.5"
"Al Horford","Al-Horford-1499","5500","PF/C","50.43","202","24.3","101.75","20.24","29.00","40.17","15.52","29.73","0","33.0"
"Alex Len","Alex-Len-16886","4100","C","48.78","219","20.8","105.10","25.13","19.00","31.58","15.71","22.19","0","20.0"
"Joe Harris","Joe-Harris-18587","4900.00","SG/SF","36.66","222","31.6","114.62","15.63","34.00","38.73","17.61","26.44","0","22.0"
"Shelvin Mack","Shelvin-Mack-13354","3300","PG","39.25","202","22.2","103.30","14.81","20.00","27.17","13.93","17.79","0","5.5"
"Marcus Smart","Marcus-Smart-18567","4300","PG/SG","46.23","202","29.7","101.75","16.64","28.00","31.8","12.93","23.13","0","18.75"
"Eric Gordon","Eric-Gordon-1077","5800","SG/SF","51.21","229","35.1","101.42","21.55","36.00","44.98","20.68","31.19","0","29.5"
"Ian Mahinmi","Ian-Mahinmi-1357","3500","C","52.30","217.5","16.5","103.80","14.04","18.00","33.82","16.96","18.76","0","0.0"
"Cody Zeller","Cody-Zeller-16836","4300","C","56.08","217.5","22.3","103.00","16.09","26.00","32.88","13.46","23.01","0","26.25"
"Marc Gasol","Marc-Gasol-1493","7600","C","50.65","202","32.8","103.30","22.72","32.00","53.6","23.75","40.67","0","38.75"
"Julius Randle","Julius-Randle-18632","7800","PF/C","52.36","229","33.4","104.88","25.80","34.00","56.88","23.85","41.55","0","48.75"
"Devin Booker","Devin-Booker-18949","8400","PG/SG","49.80","215","37.7","108.80","34.09","36.00","66.36","24.27","44.69","0","41.25"
"Nicolas Batum","Nicolas-Batum-1315","4400","SG/SF","35.87","217.5","31.0","103.00","11.17","28.00","32.48","16.65","23.28","0","25.75"
"Danilo Gallinari","Danilo-Gallinari-1329","6400","SF/PF","51.65","226","31.4","108.38","24.64","34.00","47.13","18.91","33.88","0","35.25"
"Patty Mills","Patty-Mills-13977","3300","PG/SG","43.06","226","20.3","99.70","16.34","19.00","26.73","13.62","17.4","0","17.25"
"Mike Conley","Mike-Conley-1062","7300","PG","39.25","202","34.8","103.30","24.74","35.00","57.3","21.7","38.48","0","0"
"Bradley Beal","Bradley-Beal-13898","7900","SG","47.99","217.5","38.9","103.80","29.12","36.00","63.53","28.38","41.55","0","42.5"
"Avery Bradley","Avery-Bradley-941","3800","SG","33.68","226","29.0","108.38","14.33","29.00","29.0","12.27","19.86","0","0"
"Kemba Walker","Kemba-Walker-13335","9000","PG","55.72","217.5","33.8","103.00","28.43","36.00","61.37","23.0","47.03","0","64.5"
"Donovan Mitchell","Donovan-Mitchell-37875","7500","PG/SG","52.52","215","33.7","98.88","30.68","36.00","51.22","21.18","39.22","0","27.75"
"Anthony Davis","Anthony-Davis-13895","11200","PF/C","52.36","229","36.8","104.88","31.92","37.00","84.96","30.58","58.59","0","47.25"
"P.J. Tucker","P.J.-Tucker-13947","4300","SF/PF","41.91","229","35.7","101.42","11.24","35.00","43.66","18.85","22.47","0","23.75"
"Patrick Beverley","Patrick-Beverley-14108","3700","PG/SG","42.59","226","24.9","108.38","13.91","22.00","34.97","19.28","19.28","0","15.5"
"Tim Hardaway Jr.","Tim-Hardaway-Jr.-16879","6600","SG/SF","40.09","215","33.2","100.17","26.35","33.00","53.41","23.32","34.35","0","21.0"
"Kevin Durant","Kevin-Durant-1348","9700","SF/PF","52.40","226.5","36.5","103.10","29.67","35.00","65.04","26.23","50.34","0","36.0"
"Eric Bledsoe","Eric-Bledsoe-1031","6500.00","PG/SG","50.41","222","29.7","98.80","20.78","30.00","49.11","20.57","33.66","0","0"
"Derrick White","Derrick-White-37858","3700","PG/SG","43.06","226","25.0","99.70","16.03","27.00","30.39","15.88","19.04","0","31.25"
"Marco Belinelli","Marco-Belinelli-1033","3600","SG/SF","33.93","226","21.1","99.70","18.72","22.00","27.01","13.55","18.54","0","0"
"Jonas Jerebko","Jonas-Jerebko-1106","3700","PF/C","52.40","226.5","20.3","103.10","18.56","22.00","34.21","14.71","19.06","0","14.0"
"Clint Capela","Clint-Capela-18610","8000","C","51.73","229","33.3","101.42","19.41","34.00","60.21","25.84","41.21","0","21.75"
"Stephen Curry","Stephen-Curry-1079","9300","PG/SG","47.62","226.5","37.2","103.10","29.20","35.00","66.64","26.13","47.94","0","49.25"
"Giannis Antetokounmpo","Giannis-Antetokounmpo-16852","11100.00","SF/PF","46.63","222","33.2","98.80","32.89","35.00","67.47","24.89","56.7","0","72.0"
"Willy Hernangomez","Willy-Hernangomez-18901","4000","C","56.08","217.5","14.7","103.00","28.44","16.00","36.15","19.74","20.39","0","2.25"
"Jamal Murray","Jamal-Murray-35211","6900","PG/SG","53.92","215","34.6","99.62","28.31","35.00","54.34","22.67","35.15","0","0"
"Damyean Dotson","Damyean-Dotson-37795","3600","SG/SF","29.75","215","21.0","100.17","14.70","22.00","31.55","15.42","18.31","0","19.0"
"Emmanuel Mudiay","Emmanuel-Mudiay-18936","5700","PG","46.32","215","31.2","100.17","28.13","32.00","38.91","17.95","28.82","0","22.25"
"Jeremy Lamb","Jeremy-Lamb-13955","6100","SG/SF","44.24","217.5","34.8","103.00","19.83","33.00","42.04","18.84","30.89","0","20.25"
"D.J. Wilson","D.J.-Wilson-37822","3500.00","PF/C","46.63","222","20.3","98.80","13.86","20.00","34.29","17.71","17.71","0","17.75"
"Jayson Tatum","Jayson-Tatum-37782","5800","SF/PF","41.42","202","30.7","101.75","23.69","31.00","37.0","15.79","29.25","0","34.0"
"Malcolm Brogdon","Malcolm-Brogdon-35195","5300.00","PG/SG","50.41","222","26.8","98.80","25.64","29.00","41.13","18.96","26.71","0","31.5"
"De'Anthony Melton","De'Anthony-Melton-409081","3400","PG","49.80","215","20.4","108.80","14.31","18.00","19.52","5.3","17.09","0","21.25"
"Rudy Gay","Rudy-Gay-1341","6000","SF/PF","54.08","226","25.4","99.70","20.52","28.00","39.14","14.97","30.13","0","21.75"
"John Collins","John-Collins-37823","7700","PF/C","48.78","219","31.2","105.10","26.00","34.00","59.21","23.4","38.55","0","33.0"
"Jaron Blossomgame","Jaron-Blossomgame-570197","3400","SF/PF","44.57","219","22.3","103.60","11.13","25.00","17.16","3.14","16.97","0","3.5"
"Andre Iguodala","Andre-Iguodala-1334","4100","SG/SF","39.06","226.5","22.2","103.10","14.61","25.00","31.45","12.02","20.45","0","4.75"
"Garrett Temple","Garrett-Temple-14077","4400","SG/SF","34.77","202","31.0","103.30","12.97","31.00","34.88","15.75","21.88","0","8.75"
"Rudy Gobert","Rudy-Gobert-16935","8200","C","55.34","215","32.4","98.88","18.78","33.00","54.01","17.92","40.55","0","48.0"
"Jusuf Nurkic","Jusuf-Nurkic-18619","7200","C","53.20","226.5","27.3","104.50","23.53","28.00","45.47","19.6","35.58","0","47.0"
"Thomas Bryant ","Thomas-Bryant--37884","3900","PF/C","57.37","217.5","22.7","103.80","15.49","28.00","31.93","15.09","19.18","0","41.5"
"Kent Bazemore","Kent-Bazemore-13987","6500","SG/SF","51.74","219","31.3","105.10","27.10","31.00","45.48","15.67","31.98","0","16.25"
"Tobias Harris","Tobias-Harris-13332","7400","SF/PF","51.65","226","33.7","108.38","22.47","34.00","48.3","19.44","36.34","0","30.25"
"Shabazz Napier","Shabazz-Napier-18598","3200.00","PG/SG","41.56","222","6.8","114.62","15.11","18.00","28.91","12.79","15.67","0","51.0"
"Raul Neto","Raul-Neto-31821","3000","PG","41.47","215","2.3","98.88","16.46","17.00","26.37","13.49","14.62","0","19.25"
"DeMar DeRozan","DeMar-DeRozan-1053","8500","SG/SF","48.28","226","34.0","99.70","27.04","35.00","56.0","19.41","41.39","0","0"
"Tim Frazier","Tim-Frazier-18743","4000","PG/SG","38.40","229","19.2","104.88","16.00","23.00","30.71","13.32","19.41","0","24.0"
"C.J. McCollum","C.J.-McCollum-17121","6300","PG/SG","45.02","226.5","33.2","104.50","26.41","35.00","40.04","17.64","30.36","0","21.75"
"Spencer Dinwiddie","Spencer-Dinwiddie-18588","7300.00","PG/SG","46.72","222","30.6","114.62","28.09","33.00","54.92","24.48","34.87","0","23.25"
"Jarrett Allen","Jarrett-Allen-37794","5500.00","C","47.09","222","22.3","114.62","18.66","27.00","36.14","16.11","26.19","0","18.0"
"Bryn Forbes","Bryn-Forbes-36052","4500","PG/SG","54.34","226","27.1","99.70","17.62","29.00","30.99","12.94","21.36","0","23.5"
"Shai Gilgeous-Alexander","Shai-Gilgeous-Alexander-408990","4300","PG/SG","42.59","226","25.6","108.38","16.27","26.00","22.57","8.32","20.44","0","9.0"
"Monte Morris","Monte-Morris-37860","4600","PG","53.92","215","26.8","99.62","20.27","28.00","32.41","17.45","21.68","0","14.75"
"Omari Spellman","Omari-Spellman-408970","3000","PF/C","48.03","219","7.0","105.10","16.46","16.00","14.29","2.55","14.08","0","0.0"
"Boban Marjanovic","Boban-Marjanovic-31807","3700","C","50.83","226","10.4","108.38","23.98","15.00","24.97","7.98","17.23","0","6.25"
"Kyrie Irving","Kyrie-Irving-13334","8800","PG","46.23","202","34.5","101.75","30.14","33.00","54.55","21.97","40.92","0","53.0"
"Enes Kanter","Enes-Kanter-13299","5600","C","51.64","215","25.7","100.17","19.74","20.00","36.09","18.94","25.8","0","11.0"
"Nene Hilario","Nene-Hilario-17321","3100","C","51.73","229","14.0","101.42","10.67","14.00","23.55","12.24","14.3","0","11.75"
"Larry Nance","Larry-Nance-18946","6800","PF/C","59.34","219","30.4","103.60","18.08","33.00","46.57","19.06","31.3","0","58.75"
"Jaylen Brown","Jaylen-Brown-35181","4400","SG/SF","36.95","202","22.3","101.75","20.84","23.00","37.45","16.77","20.2","0","9.5"
"Noah Vonleh","Noah-Vonleh-18597","6200","PF/C","49.06","215","30.8","100.17","15.28","31.00","39.36","18.63","28.48","0","30.75"
"Jaren Jackson","Jaren-Jackson-409099","5500","PF/C","50.65","202","27.2","103.30","20.56","28.00","27.79","10.24","25.17","0","22.0"
"Jrue Holiday","Jrue-Holiday-1073","8700","PG/SG","49.05","229","36.5","104.88","28.67","36.00","53.35","18.5","39.61","0","43.5"
"Richaun Holmes","Richaun-Holmes-18905","3500","PF/C","49.97","215","18.1","108.80","14.40","15.00","26.63","10.83","15.91","0","13.0"
"Matthew Dellavedova","Matthew-Dellavedova-16839","3700","PG/SG","42.70","219","18.0","103.60","21.94","16.00","28.58","15.65","16.85","0","13.25"
"Michael Kidd-Gilchrist","Michael-Kidd-Gilchrist-13896","3400","SF/PF","35.87","217.5","16.0","103.00","20.72","18.00","25.71","13.06","15.42","0","20.5"
"Marcus Morris","Marcus-Morris-13316","6200","SF/PF","36.95","202","27.8","101.75","20.51","28.00","37.42","14.37","27.74","0","29.0"
"Jordan Clarkson","Jordan-Clarkson-18631","6100","PG/SG","51.21","219","30.8","103.60","25.15","28.00","44.99","26.03","26.97","0","23.75"
"Kevin Knox","Kevin-Knox-408820","5900","SF/PF","40.09","215","36.3","100.17","22.79","35.00","26.72","5.35","25.84","0","22.75"
"Collin Sexton","Collin-Sexton-408896","5200","PG","56.14","219","29.6","103.60","24.41","31.00","23.53","4.71","22.76","0","30.75"
"Seth Curry","Seth-Curry-16825","3100","PG/SG","40.93","226.5","16.3","104.50","14.41","18.00","25.56","13.49","13.49","0","3.5"
"Juan Hernangomez","Juan-Hernangomez-35212","5300","SF/PF","49.41","215","29.4","99.62","14.09","30.00","38.94","15.25","22.96","0","26.75"
"Jamal Crawford","Jamal-Crawford-1075","3300","PG/SG","44.89","215","21.7","108.80","22.97","18.00","24.96","14.28","14.28","0","4.5"
"Montrezl Harrell","Montrezl-Harrell-18930","6700","PF/C","48.75","226","24.4","108.38","24.42","29.00","43.73","22.63","28.94","0","34.75"
"Malik Beasley","Malik-Beasley-35213","4000","PG/SG","33.49","215","24.8","99.62","21.19","24.00","30.15","17.18","17.18","0","24.75"
"DeAndre Bembry","DeAndre-Bembry-35198","3600","SG/SF","38.29","219","25.0","105.10","14.71","18.00","23.21","12.23","15.46","0","28.5"
"Jahlil Okafor","Jahlil-Okafor-18902","3200","C","53.18","229","13.0","104.88","21.30","14.00","23.62","11.64","13.74","0","4.75"
"Malik Monk","Malik-Monk-37827","3300","PG/SG","55.72","217.5","19.8","103.00","23.83","17.00","21.52","11.57","14.03","0","14.5"
"Chasson Randle","Chasson-Randle-36002","3200","PG/SG","52.04","217.5","13.8","103.80","19.82","18.00","21.76","10.99","13.5","0","15.75"
"Torrey Craig","Torrey-Craig-37861","3700","SG/SF","33.49","215","29.8","99.62","12.96","23.00","23.45","13.99","15.49","0","16.75"
"Shaun Livingston","Shaun-Livingston-14007","3100","PG","41.73","226.5","15.3","103.10","17.41","16.00","21.41","9.78","12.83","0","13.75"
"Miles Bridges","Miles-Bridges-409262","3400","SF/PF","49.57","217.5","17.8","103.00","16.09","17.00","14.91","3.44","14.08","0","0.0"
"Lou Williams","Lou-Williams-1044","6600","PG/SG","46.46","226","23.2","108.38","36.91","24.00","40.87","16.91","27.32","0","0"
"Thon Maker","Thon-Maker-35194","3200.00","PF/C","63.18","222","11.7","98.80","16.29","15.00","21.77","10.26","12.67","0","1.25"
"Zach Collins","Zach-Collins-37866","3100","PF/C","49.01","226.5","18.7","104.50","17.63","15.00","18.75","9.23","12.24","0","1.25"
"Pau Gasol","Pau-Gasol-1502","3500","C","54.23","226","0","99.70","0","13.00","17.86","12.37","13.74","0","0.0"
"Frank Jackson","Frank-Jackson-37855","3000","PG/SG","49.05","229","10.8","104.88","15.51","19.00","11.74","2.09","11.57","0","0.75"
"Wesley Johnson","Wesley-Johnson-1280","3000","SG/SF","35.80","229","7.5","104.88","13.33","17.00","21.81","11.55","11.55","0","0"
"Daniel Theis","Daniel-Theis-37784","3700","PF/C","49.37","202","20.0","101.75","14.82","15.00","23.82","12.84","14.22","0","2.5"
"Devonte' Graham","Devonte'-Graham-408968","3000","PG/SG","45.65","217.5","11.0","103.00","22.44","17.00","14.99","10.38","11.53","0","0"
"Kenneth Faried","Kenneth-Faried-13313","3000.00","PF/C","47.09","222","4.0","114.62","13.30","11.00","21.25","10.31","11.48","0","36.5"
"Allonzo Trier","Allonzo-Trier-554950","3400","PG/SG","40.09","215","17.5","100.17","28.66","18.00","13.05","2.39","12.91","0","7.25"
"Ron Baker","Ron-Baker-36001","3000","PG/SG","44.31","217.5","14.0","103.80","6.34","12.00","21.5","11.06","11.06","0","0.0"
"Vince Carter","Vince-Carter-1066","3400","SG","37.04","219","18.3","105.10","17.97","15.00","21.0","10.77","12.28","0","29.5"
"Mike Scott","Mike-Scott-13999","3300","SF/PF","51.65","226","14.6","108.38","16.28","15.00","23.03","13.63","11.52","0","11.25"
"Paul Millsap","Paul-Millsap-1335","6000","PF/C","49.41","215","0","99.62","0","20.00","29.87","13.29","20.93","0","9.5"
"Joakim Noah","Joakim-Noah-1404","3000","C","50.64","202","10.3","103.30","17.01","13.00","17.04","9.09","10.01","0","8.75"
"Sterling Brown","Sterling-Brown-37821","3200.00","SG/SF","30.11","222","17.7","98.80","15.16","12.00","20.25","10.52","10.52","0","9.0"
"Troy Brown","Troy-Brown-409043","3100","SG/SF","38.32","217.5","6.2","103.80","18.45","12.00","10.41","1.98","10.1","0","0"
"Wayne Selden","Wayne-Selden-36045","3200","SG/SF","51.17","202","10.8","103.30","21.72","14.00","18.15","9.61","9.99","0","10.0"
"Dillon Brooks","Dillon-Brooks-37852","3000","SG/SF","44.47","202","13.0","103.30","19.29","13.00","17.15","9.35","9.35","0","21.5"
"Sam Dekker","Sam-Dekker-18929","3300","SF/PF","38.32","217.5","16.7","103.80","20.13","12.00","17.19","8.55","10.15","0","0"
"Trey Lyles","Trey-Lyles-18942","3600","SF/PF","49.41","215","16.4","99.62","23.11","10.00","17.34","9.47","11.04","0","7.5"
"Frank Ntilikina","Frank-Ntilikina-37796","3300","PG/SG","46.32","215","19.0","100.17","16.81","15.00","16.08","8.73","10.02","0","4.0"
"Tony Snell","Tony-Snell-16872","3600.00","SG/SF","32.27","222","21.0","98.80","12.65","17.00","18.8","9.73","10.79","0","7.5"
"Rodney Hood","Rodney-Hood-18629","4400","SG/SF","51.21","219","28.5","103.60","16.03","18.00","18.42","10.53","13.16","0","0.0"
"Nik Stauskas","Nik-Stauskas-18636","3100","SG/SF","40.93","226.5","12.8","104.50","17.93","12.00","15.26","7.17","9.24","0","8.0"
"Jakob Poeltl","Jakob-Poeltl-35187","3400","C","57.99","226","19.1","99.70","14.61","10.00","18.89","8.38","9.46","0","11.5"
"Alex Poythress","Alex-Poythress-36018","3000","SF/PF","48.03","219","9.0","105.10","19.39","8.00","13.28","6.79","7.61","0","16.75"
"Nick Young","Nick-Young-1063","3000","SG/SF","35.22","215","9.0","99.62","12.83","8.00","12.25","7.1","7.1","0","0"
"Georges Niang","Georges-Niang-35193","3000","SF/PF","55.77","215","2.3","98.88","22.86","8.00","11.1","5.5","6.54","0","6.75"
"Jalen Jones","Jalen-Jones-35996","3000","SF/PF","44.57","219","12.0","103.60","14.54","8.00","11.82","5.73","6.53","0","17.25"
"Alfonzo McKinnie","Alfonzo-McKinnie-37808","3200","SF/PF","37.96","226.5","8.7","103.10","20.07","10.00","13.31","6.9","6.9","0","7.25"
"Marcin Gortat","Marcin-Gortat-1479","3300","C","50.83","226","13.3","108.38","15.64","6.00","9.62","4.64","5.67","0","2.0"
"Lance Thomas","Lance-Thomas-13363","3000","SF/PF","29.75","215","16.2","100.17","10.79","7.00","8.19","3.77","4.63","0","4.0"
"Jordan Bell","Jordan-Bell-37877","3000","PF/C","50.64","226.5","7.2","103.10","18.52","5.00","7.17","3.67","4.34","0","5.25"
"Tyrone Wallace","Tyrone-Wallace-35220","3300","PG/SG","46.46","226","13.2","108.38","17.43","6.00","6.58","4.08","4.08","0","12.25"
"Semi Ojeleye","Semi-Ojeleye-37786","3100","SF/PF","36.95","202","11.0","101.75","15.23","6.00","6.83","3.61","3.61","0","1.5"
