"nameCol","idCol","salaryCol","positionCol","dvpCol","ouCol","mpgCol","paceCol","usgCol","pminCol","ceilCol","floorCol","pointsCol","predictCol","actualCol"
"Alex Len","Alex-Len-16886","3700","C","0","222","0","105.10","0","24.00","38.01","19.62","26.84","0","45.25"
"Alec Burks","Alec-Burks-13353","4400","PG/SG","0","201","0","103.60","0","31.00","52.57","31.33","31.33","0","24.0"
"Maurice Harkless","Maurice-Harkless-16971","3400","SF/PF","0","215.5","0","104.50","0","27.00","37.64","16.0","23.84","0","21.5"
"Cedi Osman","Cedi-Osman-18912","4000","SF/PF","0","201","0","103.60","0","33.00","36.23","12.6","28","0","27.75"
"Matthew Dellavedova","Matthew-Dellavedova-16839","3800","PG/SG","0","201","0","103.60","0","23.00","45.78","26.01","26.01","0","12.75"
"Wendell Carter","Wendell-Carter-408878","4800","PF/C","0","201","0","104.50","0","25.00","33.26","6.66","32.17","0","16.25"
"Jerami Grant","Jerami-Grant-18576","4500","PF","0","223.5","0","102.62","0","32.00","47.0","19.62","29.41","0","27.25"
"Josh Jackson","Josh-Jackson-37890","4700","SF/PF","0","218.5","0","108.80","0","27.00","42.14","18.94","29.74","0","16.25"
"Chandler Hutchison","Chandler-Hutchison-408877","3000","SF/PF","0","201","0","104.50","0","18.00","18.98","3.47","18.77","0","11.75"
"Kevin Huerter","Kevin-Huerter-408969","4600","SG/SF","38.21","222","0","105.10","0","34.00","32.65","10.26","27.88","0","17.5"
"DeMarre Carroll","DeMarre-Carroll-1174","3900","SF/PF","34.36","218.5","23.2","114.62","19.99","24.00","41.07","18.58","24.1","0","0"
"Robin Lopez","Robin-Lopez-1466","3200","C","0","201","18.0","104.50","17.91","18.00","39.36","19.69","19.69","0","15.25"
"Jusuf Nurkic","Jusuf-Nurkic-18619","6800","C","0","215.5","0","104.50","0","30.00","52.16","22.49","40.81","0","38.5"
"Iman Shumpert","Iman-Shumpert-13350","3500","SG/SF","0","236.5","26.5","98.20","17.88","28.00","30.99","15.06","20.95","0","18.75"
"Jeremy Lin","Jeremy-Lin-916","4000","PG/SG","0","222","18.2","105.10","26.85","22.00","35.22","16.8","22.55","0","0"
"Cody Zeller","Cody-Zeller-16836","4600","C","0","216.5","25.8","103.00","13.60","28.00","38.85","15.91","27.19","0","8.75"
"Nicolas Batum","Nicolas-Batum-1315","4400","SG/SF","0","216.5","0","103.00","0","32.00","36.27","18.59","26","0","11.5"
"Dewayne Dedmon","Dewayne-Dedmon-16894","5400","PF/C","0","222","0","105.10","0","31.00","49.13","20.72","34.82","0","25.75"
"Draymond Green","Draymond-Green-13976","6400","PF/C","0","235","0","103.10","0","35.00","45.92","16.66","37.7","0","40.0"
"Darren Collison","Darren-Collison-1060","4300","PG","0","","0","107.67","0","30.00","35.71","16.28","26.51","0","0"
"Jordan Clarkson","Jordan-Clarkson-18631","5900","PG/SG","0","201","0","103.60","0","33.00","57.24","30.89","34.67","0","19.25"
"Wesley Matthews","Wesley-Matthews-1339","4300","SG/SF","37.86","215.5","0","100.08","0","31.00","37.47","15.45","25.25","0","17.5"
"Langston Galloway","Langston-Galloway-18717","3300","PG/SG","0","222","0","100.30","0","24.00","34.62","17.24","19.84","0","22.0"
"Jarrett Allen","Jarrett-Allen-37794","5400","C","0","218.5","0","114.62","0","28.00","43.49","19.14","31.54","0","27.75"
"Al-Farouq Aminu","Al-Farouq-Aminu-1279","4400","SF/PF","0","215.5","28.8","104.50","12.78","29.00","39.54","19.12","25.66","0","24.75"
"Gordon Hayward","Gordon-Hayward-1239","5300","SG/SF","0","216.5","0","101.75","0","30.00","44.4","18.14","30.9","0","0"
"Ed Davis","Ed-Davis-1265","3400","PF/C","0","218.5","19.7","114.62","12.19","20.00","36.16","14.78","19.79","0","33.75"
"James Johnson","James-Johnson-1195","3700","SF/PF","0","199","0","106.90","0","20.00","28.14","11.35","21.5","0","0"
"Rodions Kurucs","Rodions-Kurucs-408801","4200","SF/PF","0","218.5","0","114.62","0","25.00","26.94","9.93","24.4","0","34.0"
"Kyle Anderson","Kyle-Anderson-18615","4800","PG/SF","0","208","0","103.30","0","30.00","38.17","14.09","27.9","0","17.0"
"Julius Randle","Julius-Randle-18632","7800","PF/C","56.09","236.5","0","104.88","0","34.00","62.64","26.87","45.23","0","30.25"
"D.J. Augustin","D.J.-Augustin-1064","4300","PG","0","199","29.4","105.10","17.30","31.00","39.74","14.47","24.9","0","0"
"Jeremy Lamb","Jeremy-Lamb-13955","5700","SG/SF","0","216.5","0","103.00","0","33.00","44.5","19.95","32.7","0","27.25"
"Jonas Jerebko","Jonas-Jerebko-1106","3500","PF/C","53.52","235","23.7","103.10","17.69","22.00","36.1","14.74","19.79","0","0"
"Trevor Ariza","Trevor-Ariza-1323","5600","SF/PF","0","","40.8","103.80","16.77","36.00","39.4","14.64","29.87","0","15.5"
"Nemanja Bjelica","Nemanja-Bjelica-31814","4900","SF/PF","0","236.5","23.7","98.20","20.35","28.00","45.04","18.27","27.55","0","22.0"
"Marc Gasol","Marc-Gasol-1493","7500","C","0","208","0","103.30","0","33.00","56.82","24.25","42.18","0","42.75"
"Shelvin Mack","Shelvin-Mack-13354","3700","PG","0","208","23.1","103.30","16.87","22.00","32.13","15.54","20.77","0","4.0"
"Andre Drummond","Andre-Drummond-13904","9200","C","0","222","35.3","100.30","22.13","33.00","61.0","22.89","49.88","0","49.25"
"Shai Gilgeous-Alexander","Shai-Gilgeous-Alexander-408990","4700","PG/SG","38.19","235","0","108.38","0","27.00","30.61","9.62","26.14","0","7.5"
"De'Anthony Melton","De'Anthony-Melton-409081","3700","PG","0","218.5","0","108.80","0","22.00","21.22","4.25","20.52","0","6.0"
"DeAndre Bembry","DeAndre-Bembry-35198","3900","SG/SF","0","222","0","105.10","0","25.00","30.56","17.19","20.47","0","12.25"
"Bogdan Bogdanovic","Bogdan-Bogdanovic-37899","5000","SG/SF","0","236.5","0","98.20","0","30.00","43.96","23.22","27.61","0","41.5"
"Justin Jackson","Justin-Jackson-37895","3400","SF/PF","0","236.5","0","98.20","0","25.00","28.7","15.12","18.78","0","11.75"
"Damian Lillard","Damian-Lillard-13900","8700","PG","0","215.5","0","104.50","0","35.00","61.25","23.2","47.93","0","48.0"
"Dwyane Wade","Dwyane-Wade-967","5200","PG/SG","47.56","199","24.8","106.90","28.23","24.00","40.86","18.98","28.59","0","0"
"Buddy Hield","Buddy-Hield-35206","6700","SG/SF","0","236.5","0","98.20","0","32.00","55.22","24.31","36.84","0","39.0"
"C.J. McCollum","C.J.-McCollum-17121","6200","PG/SG","48.76","215.5","33.2","104.50","27.55","35.00","44.95","19.8","34.08","0","38.25"
"Willie Cauley-Stein","Willie-Cauley-Stein-18951","6100","C","0","236.5","0","98.20","0","31.00","46.31","19.11","33.41","0","55.25"
"Victor Oladipo","Victor-Oladipo-16807","8400","PG/SG","0","","0","107.67","0","33.00","61.5","28.43","44.15","0","38.5"
"Kevin Durant","Kevin-Durant-1348","9400","SF/PF","53.52","235","0","103.10","0","35.00","67.7","23.86","51.21","0","68.0"
"Mikal Bridges","Mikal-Bridges-408842","3900","SG/SF","0","218.5","0","108.80","0","29.00","21.89","4.38","21.17","0","29.75"
"Kris Dunn","Kris-Dunn-35215","7200","PG/SG","0","201","0","104.50","0","35.00","54.33","19.85","38.92","0","41.0"
"Luke Kennard","Luke-Kennard-37814","3300","SG/SF","0","222","0","100.30","0","21.00","27.89","13.6","18.35","0","3.5"
"Justin Holiday","Justin-Holiday-14559","5400","SG/SF","0","201","35.3","104.50","15.77","36.00","42.27","19.47","29.11","0","28.25"
"Blake Griffin","Blake-Griffin-1503","9400","PF/C","0","222","0","100.30","0","36.00","64.82","24.5","50.52","0","28.25"
"Klay Thompson","Klay-Thompson-13315","6500","SG","0","235","0","103.10","0","35.00","44.97","19.98","34.75","0","20.0"
"Jeff Green","Jeff-Green-1314","4500","SF/PF","0","","0","103.80","0","32.00","38.22","19.15","25.7","0","15.75"
"JaMychal Green","JaMychal-Green-18729","4000","SF/PF","0","208","0","103.30","0","22.00","35.77","18.72","21.37","0","27.75"
"Marcus Smart","Marcus-Smart-18567","4800","PG/SG","0","216.5","30.8","101.75","16.99","26.00","36.64","14.37","25.57","0","23.0"
"Jonathan Isaac","Jonathan-Isaac-37841","4000","SF/PF","54.02","199","0","105.10","0","28.00","33.76","16.34","21.31","0","19.75"
"Marvin Williams","Marvin-Williams-1318","5600","SF/PF","0","216.5","30.2","103.00","14.50","33.00","49.8","25.27","29.73","0","8.75"
"Kevon Looney","Kevon-Looney-18945","3600","PF/C","58.35","235","0","103.10","0","20.00","27.38","12.17","19.13","0","22.25"
"Markieff Morris","Markieff-Morris-13314","4400","PF/C","0","","0","103.80","0","27.00","33.53","17.4","24.44","0","27.5"
"Stephen Curry","Stephen-Curry-1079","9700","PG/SG","53.34","235","0","103.10","0","35.00","71.84","26.77","51.39","0","0"
"Shaquille Harrison","Shaquille-Harrison-36065","3600","PG","0","201","0","104.50","0","20.00","30.3","14.92","19.01","0","11.5"
"Kelly Olynyk","Kelly-Olynyk-16845","4600","PF/C","0","199","0","106.90","0","24.00","36.28","18.37","24.3","0","16.75"
"Ryan Arcidiacono","Ryan-Arcidiacono-36050","3800","PG","0","201","27.5","104.50","9.56","30.00","31.24","12.83","19.99","0","35.5"
"Larry Nance","Larry-Nance-18946","7500","PF/C","0","201","0","103.60","0","34.00","58.66","22.91","39.37","0","34.0"
"Russell Westbrook","Russell-Westbrook-1083","11000","PG","0","223.5","0","102.62","0","35.00","64.74","19.48","57.8","0","0"
"Harrison Barnes","Harrison-Barnes-13901","6000","SF/PF","52.35","215.5","0","100.08","0","34.00","40.05","18.17","31.44","0","30.25"
"Andrew Wiggins","Andrew-Wiggins-18620","6000","SG/SF","0","223.5","0","100.67","0","33.00","41.15","17.92","31.44","0","44.0"
"Jayson Tatum","Jayson-Tatum-37782","6500","SF/PF","0","216.5","0","101.75","0","33.00","43.13","17.71","33.99","0","24.0"
"Reggie Jackson","Reggie-Jackson-13352","5700","PG/SG","0","222","0","100.30","0","27.00","39.47","15.21","28.17","0","24.75"
"Bam Adebayo","Bam-Adebayo-37835","4500","PF/C","52.99","199","0","106.90","0","25.00","34.88","20.77","23.49","0","19.0"
"Anthony Davis","Anthony-Davis-13895","11500","PF/C","56.09","236.5","0","104.88","0","37.00","88.71","30.69","59.94","0","66.75"
"Rondae Hollis-Jefferson","Rondae-Hollis-Jefferson-18897","5200","PF/C","0","218.5","0","114.62","0","25.00","41.4","17.51","27.06","0","16.75"
"Reggie Bullock","Reggie-Bullock-16943","4900","SG/SF","45.45","222","35.5","100.30","18.36","32.00","40.6","17.11","24.94","0","13.75"
"Michael Kidd-Gilchrist","Michael-Kidd-Gilchrist-13896","3800","SF/PF","0","216.5","0","103.00","0","24.00","32.91","16.72","19.74","0","10.5"
"Evan Fournier","Evan-Fournier-13913","5700","SG/SF","37.15","199","0","105.10","0","32.00","37.66","15.33","29.54","0","32.5"
"Hassan Whiteside","Hassan-Whiteside-18664","6700","C","52.99","199","23.5","106.90","24.46","24.00","44.55","16.81","34.67","0","29.5"
"Kelly Oubre","Kelly-Oubre-18925","4900","SG/SF","0","218.5","0","108.80","0","28.00","43.95","20.72","25.33","0","15.5"
"Trae Young","Trae-Young-409063","6500","PG","0","222","0","105.10","0","29.00","38.03","11.95","32.48","0","30.75"
"Terry Rozier","Terry-Rozier-18894","3900","PG/SG","0","216.5","0","101.75","0","19.00","31.61","17.09","20.08","0","29.0"
"De'Aaron Fox","De'Aaron-Fox-37900","7700","PG","50.59","236.5","0","98.20","0","35.00","48.85","20.23","39.59","0","44.25"
"Kyrie Irving","Kyrie-Irving-13334","9000","PG","0","216.5","33.6","101.75","34.18","34.00","63.49","24.55","46.14","0","41.0"
"John Wall","John-Wall-1084","8600","PG","0","","0","103.80","0","34.00","51.49","17.92","45.61","0","0"
"Karl-Anthony Towns","Karl-Anthony-Towns-18937","8900","C","0","223.5","0","100.67","0","34.00","61.02","24.97","45.57","0","33.75"
"Richaun Holmes","Richaun-Holmes-18905","3800","PF/C","0","218.5","20.3","108.80","16.56","18.00","33.2","13.61","19.44","0","16.5"
"Collin Sexton","Collin-Sexton-408896","4800","PG","0","201","0","103.60","0","33.00","27.85","7.52","24.56","0","15.75"
"DeAndre Jordan","DeAndre-Jordan-1486","6600","C","0","215.5","0","100.08","0","31.00","41.8","20.26","33.71","0","29.0"
"Tomas Satoransky ","Tomas-Satoransky--36031","3800","PG/SG","0","","0","103.80","0","22.00","32.27","15.93","20.9","0","13.75"
"Joe Harris","Joe-Harris-18587","4800","SG/SF","0","218.5","0","114.62","0","30.00","35.67","16.27","24.4","0","20.75"
"Aaron Gordon","Aaron-Gordon-18601","7000","SF/PF","0","199","32.8","105.10","21.34","34.00","45.71","19.43","35.52","0","31.5"
"Danilo Gallinari","Danilo-Gallinari-1329","6900","SF/PF","0","235","0","108.38","0","34.00","49.75","20.48","34.89","0","46.25"
"Devin Booker","Devin-Booker-18949","8600","PG/SG","0","218.5","0","108.80","0","34.00","65.86","25.91","43.47","0","39.5"
"Dario Saric","Dario-Saric-36004","5000","PF","0","223.5","27.7","100.67","16.25","29.00","42.3","20.57","25.24","0","20.0"
"Kent Bazemore","Kent-Bazemore-13987","6300","SG/SF","0","222","30.0","105.10","24.61","31.00","42.34","14.56","31.18","0","29.5"
"Kemba Walker","Kemba-Walker-13335","8500","PG","0","216.5","0","103.00","0","35.00","55.16","20.67","42.27","0","37.25"
"Josh Richardson","Josh-Richardson-18922","7100","SG/SF","47.56","199","0","106.90","0","35.00","51.59","21.25","35.19","0","39.0"
"Paul George","Paul-George-1245","9200","SF/PF","0","223.5","0","102.62","0","37.00","63.63","28.08","45.58","0","0"
"Miles Bridges","Miles-Bridges-409262","3500","SF/PF","0","216.5","18.8","103.00","16.14","23.00","18.33","4.22","17.31","0","22.75"
"Deandre Ayton","Deandre-Ayton-409301","7300","C","0","218.5","0","108.80","0","30.00","37.14","7.44","35.92","0","60.5"
"Jaron Blossomgame","Jaron-Blossomgame-570197","3500","SF/PF","0","201","0","103.60","0","26.00","17.42","3.11","17.16","0","4.0"
"D'Angelo Russell","D'Angelo-Russell-18947","7300","PG/SG","0","218.5","0","114.62","0","30.00","47.98","17.7","35.75","0","39.0"
"Kosta Koufos","Kosta-Koufos-1386","3300","C","0","236.5","0","98.20","0","15.00","30.58","16.07","16.07","0","4.75"
"TJ Warren","TJ-Warren-18634","6600","SF/PF","0","218.5","0","108.80","0","33.00","41.7","18.53","32","0","15.0"
"Evan Turner","Evan-Turner-1291","4100","SG/SF","48.76","215.5","0","104.50","0","23.00","29.41","16.53","19.87","0","17.75"
"E'Twaun Moore","E'Twaun-Moore-18582","4500","SG/SF","0","236.5","0","104.88","0","28.00","35.26","17.92","21.83","0","19.75"
"Nikola Vucevic","Nikola-Vucevic-13296","9300","C","54.02","199","0","105.10","0","32.00","56.45","20.97","45.09","0","17.25"
"Andre Iguodala","Andre-Iguodala-1334","3400","SG/SF","0","235","0","103.10","0","19.00","25.02","9.68","16.46","0","9.75"
"Bojan Bogdanovic","Bojan-Bogdanovic-18571","5200","SG/SF","0","","34.3","107.67","18.42","34.00","39.77","20.75","25.09","0","26.75"
"Devin Harris","Devin-Harris-1076","3300","PG/SG","0","215.5","0","100.08","0","18.00","28.16","15.92","15.92","0","0"
"Jaylen Brown","Jaylen-Brown-35181","4700","SG/SF","39.02","216.5","0","101.75","0","24.00","42.83","18.82","22.65","0","17.25"
"Brandon Ingram","Brandon-Ingram-35227","5600","PG/SG","42.53","208","0","112.50","0","32.00","40.81","16.68","26.99","0","29.0"
"LeBron James","LeBron-James-1227","10900","SF/PF","0","208","0","112.50","0","36.00","63.46","22.03","52.45","0","0"
"Jared Dudley","Jared-Dudley-1319","3400","SF/PF","34.36","218.5","0","114.62","0","22.00","29.2","14.28","16.34","0","16.25"
"Tobias Harris","Tobias-Harris-13332","7600","SF/PF","0","235","0","108.38","0","34.00","48.91","20.12","36.39","0","48.75"
"Bradley Beal","Bradley-Beal-13898","7800","SG","0","","0","103.80","0","35.00","62.51","26.92","39.64","0","22.0"
"Thaddeus Young","Thaddeus-Young-1289","5800","SF/PF","0","","33.7","107.67","19.52","32.00","39.24","14.77","27.65","0","24.75"
"Mike Conley","Mike-Conley-1062","7900","PG","0","208","0","103.30","0","34.00","55.17","21.8","37.33","0","0"
"Vince Carter","Vince-Carter-1066","3200","SG","38.21","222","0","105.10","0","19.00","26.16","13.23","15.15","0","0"
"Willy Hernangomez","Willy-Hernangomez-18901","3400","C","0","216.5","0","103.00","0","13.00","28.39","15.5","16.01","0","39.0"
"Lou Williams","Lou-Williams-1044","6400","PG/SG","0","235","16.7","108.38","32.71","25.00","45.7","18.34","29.97","0","0"
"Lauri Markkanen","Lauri-Markkanen-37809","7300","PF","47.85","201","31.2","104.50","22.65","34.00","48.99","22.29","34.19","0","43.0"
"Ivica Zubac","Ivica-Zubac-35226","3700","C","0","208","0","112.50","0","21.00","24.22","11.93","17.29","0","33.0"
"Ante Zizic","Ante-Zizic-35180","3300","C","0","201","0","103.60","0","17.00","30.74","15.38","15.38","0","8.0"
"Robert Covington","Robert-Covington-16874","6300","SF/PF","0","223.5","30.5","100.67","17.34","34.00","42.84","18.85","29.36","0","29.25"
"Jrue Holiday","Jrue-Holiday-1073","9100","PG/SG","0","236.5","0","104.88","0","37.00","57.57","20.21","42.36","0","0"
"Tim Frazier","Tim-Frazier-18743","4200","PG/SG","0","236.5","0","104.88","0","21.00","31.99","13.18","19.53","0","33.5"
"Spencer Dinwiddie","Spencer-Dinwiddie-18588","7200","PG/SG","0","218.5","0","114.62","0","31.00","51.97","23.26","33.42","0","36.5"
"Avery Bradley","Avery-Bradley-941","3700","SG","41.67","235","0","108.38","0","28.00","25.63","11.23","17.17","0","0"
"Solomon Hill","Solomon-Hill-16863","3700","SF/PF","0","236.5","25.2","104.88","9.35","25.00","26.97","14.58","17.09","0","13.75"
"Garrett Temple","Garrett-Temple-14077","4300","SG/SF","0","208","0","103.30","0","29.00","31.99","14.16","19.77","0","31.75"
"Gorgui Dieng","Gorgui-Dieng-16939","3300","PF/C","0","223.5","0","100.67","0","15.00","23.32","10.96","15.12","0","24.75"
"Dorian Finney-Smith","Dorian-Finney-Smith-36032","3600","SF/PF","39.52","215.5","0","100.08","0","22.00","25.69","13.0","16.48","0","7.5"
"Montrezl Harrell","Montrezl-Harrell-18930","6100","PF/C","0","235","22.6","108.38","22.29","28.00","41.57","21.74","27.84","0","18.75"
"Terrence Ross","Terrence-Ross-13902","4400","SG/SF","37.15","199","0","105.10","0","24.00","31.0","17.09","20.08","0","15.25"
"Thomas Bryant ","Thomas-Bryant--37884","4200","PF/C","0","","0","103.80","0","25.00","31.26","14.66","18.65","0","19.75"
"J.J. Barea","J.J.-Barea-18605","5000","PG/SG","0","215.5","0","100.08","0","19.00","34.22","16.45","22.72","0","21.75"
"Tyson Chandler","Tyson-Chandler-1482","3700","C","0","208","0","112.50","0","19.00","31.79","16.73","16.73","0","0.0"
"Patrick Beverley","Patrick-Beverley-14108","4200","PG/SG","38.19","235","25.7","108.38","13.55","23.00","36.33","19","19","0","17.5"
"Justise Winslow","Justise-Winslow-18921","4800","PG/SF","0","199","0","106.90","0","30.00","30.38","17.36","21.7","0","45.5"
"Jalen Brunson","Jalen-Brunson-409062","3600","PG","41.34","215.5","24.4","100.08","18.99","24.00","16.77","3.36","16.22","0","24.5"
"Rajon Rondo","Rajon-Rondo-1085","4800","PG","0","208","0","112.50","0","22.00","40.0","21.53","21.53","0","0"
"Taj Gibson","Taj-Gibson-1277","4200","PF/C","0","223.5","19.8","100.67","17.00","22.00","26.05","9.67","18.81","0","20.25"
"Lonzo Ball","Lonzo-Ball-37885","6300","PG","0","208","0","112.50","0","30.00","37.4","14.2","28.12","0","19.75"
"Alex Abrines","Alex-Abrines-36054","3000","SG/SF","0","223.5","17.3","102.62","10.87","19.00","25.06","13.25","13.25","0","12.75"
"Domantas Sabonis","Domantas-Sabonis-35217","6000","PF/C","55.30","","22.7","107.67","25.32","24.00","42.75","22.68","29.08","0","36.5"
"Derrick Rose","Derrick-Rose-1086","6700","PG/SG","0","223.5","27.5","100.67","30.53","28.00","40.01","15.05","29.46","0","0"
"Nerlens Noel","Nerlens-Noel-18575","3300","C","0","223.5","0","102.62","0","14.00","25.76","12.33","14.49","0","13.25"
"Myles Turner","Myles-Turner-18915","7500","C","61.03","","0","107.67","0","30.00","52.09","23.92","31.94","0","49.25"
"Justin Anderson","Justin-Anderson-18927","3100","SF/PF","0","222","4.0","105.10","14.15","13.00","21.6","10.44","13.57","0","18.75"
"Terrance Ferguson","Terrance-Ferguson-37871","3200","SG/SF","0","223.5","0","102.62","0","23.00","23.38","9.67","14.01","0","4.0"
"Zach Collins","Zach-Collins-37866","3200","PF/C","52.01","215.5","18.2","104.50","16.57","16.00","21.4","10.53","13.97","0","14.5"
"Nik Stauskas","Nik-Stauskas-18636","3100","SG/SF","33.36","215.5","0","104.50","0","18.00","22.35","10.5","13.53","0","8.5"
"Jerian Grant","Jerian-Grant-18900","3300","PG","0","199","16.0","105.10","14.86","17.00","24.19","12.56","14.34","0","12.25"
"Shaun Livingston","Shaun-Livingston-14007","3100","PG","0","235","0","103.10","0","16.00","21.89","10.12","13.38","0","17.25"
"Josh Okogie","Josh-Okogie-409174","4100","SG/SF","0","223.5","15.8","100.67","14.47","25.00","18.83","4.63","17.73","0","22.5"
"Josh Hart","Josh-Hart-37889","3600","PG/SG","0","208","0","112.50","0","20.00","26.21","12.32","15.52","0","22.75"
"Steven Adams","Steven-Adams-16848","7400","C","0","223.5","0","102.62","0","32.00","42.49","19.53","31.71","0","16.5"
"Tony Parker","Tony-Parker-982","3700","PG","0","216.5","17.8","103.00","28.31","19.00","27.07","15.82","15.82","0","0"
"Jamal Crawford","Jamal-Crawford-1075","3500","PG/SG","0","218.5","0","108.80","0","19.00","26.18","14.92","14.92","0","0"
"Rodney McGruder","Rodney-McGruder-16850","3500","SG/SF","41.30","199","0","106.90","0","20.00","23.53","10.07","14.9","0","0.0"
"Dwight Powell","Dwight-Powell-18566","3500","PF/C","0","215.5","0","100.08","0","14.00","23.11","11.78","14.87","0","16.5"
"Jaren Jackson","Jaren-Jackson-409099","5800","PF/C","0","208","0","103.30","0","28.00","28.51","8.96","24.35","0","38.75"
"Kyle Kuzma","Kyle-Kuzma-37886","6900","SF/PF","0","208","0","112.50","0","30.00","37.42","16.25","28.92","0","27.0"
"Luka Doncic","Luka-Doncic-408971","8100","SG/SF","45.62","215.5","0","100.08","0","32.00","34.83","6.97","33.68","0","47.75"
"Cory Joseph","Cory-Joseph-13339","3800","PG","0","","0","107.67","0","23.00","29.48","12.99","16.1","0","22.0"
"Al Horford","Al-Horford-1499","6200","PF/C","0","216.5","0","101.75","0","27.00","35.76","20.43","25.54","0","26.5"
"Tyus Jones","Tyus-Jones-18938","4300","PG","0","223.5","0","100.67","0","20.00","30.61","16.79","17.44","0","21.25"
"Kentavious Caldwell-Pope","Kentavious-Caldwell-Pope-16869","3700","SG/SF","0","208","0","112.50","0","20.00","28.48","14.94","14.94","0","15.75"
"Stanley Johnson","Stanley-Johnson-18913","3500","SF/PF","45.45","222","0","100.30","0","18.00","24.09","10.98","14.52","0","9.0"
"Jose Calderon","Jose-Calderon-1071","3200","PG","0","222","21.3","100.30","15.38","18.00","22.23","10.58","12.54","0","0"
"Mohamed Bamba","Mohamed-Bamba-409026","3800","C","0","199","16.8","105.10","20.98","17.00","14.92","2.84","14.47","0","18.25"
"Darius Miller","Darius-Miller-13951","4100","SF/PF","0","236.5","0","104.88","0","24.00","27.96","15.57","15.57","0","21.25"
"Chasson Randle","Chasson-Randle-36002","3200","PG/SG","0","","0","103.80","0","14.00","18.36","9.2","11.28","0","20.75"
"Yogi Ferrell","Yogi-Ferrell-35999","3300","PG/SG","50.59","236.5","0","98.20","0","16.00","20.84","10.82","12.25","0","4.75"
"Marcus Morris","Marcus-Morris-13316","5700","SF/PF","39.02","216.5","30.5","101.75","22.59","26.00","27.42","18.98","21.09","0","22.5"
"Jahlil Okafor","Jahlil-Okafor-18902","3300","C","0","236.5","9.3","104.88","30.41","12.00","20.42","9.95","11.77","0","20.5"
"Doug McDermott","Doug-McDermott-18583","3100","SF/PF","0","","0","107.67","0","18.00","21.73","10.87","10.87","0","5.5"
"Dirk Nowitzki","Dirk-Nowitzki-1346","3200","PF/C","0","215.5","7.6","100.08","17.06","11.00","16.2","9.24","11.17","0","0.0"
"Channing Frye","Channing-Frye-1484","3100","PF/C","0","201","0","103.60","0","10.00","21.17","9.0","10.59","0","3.5"
"Meyers Leonard","Meyers-Leonard-13905","3200","PF/C","52.01","215.5","0","104.50","0","10.00","19.01","8.85","10.88","0","20.5"
"Marcin Gortat","Marcin-Gortat-1479","3400","C","0","235","0","108.38","0","12.00","16.92","6.85","11.47","0","10.75"
"Sam Dekker","Sam-Dekker-18929","3600","SF/PF","0","","0","103.80","0","15.00","21.12","10.48","12.45","0","10.5"
"Bruce Brown","Bruce-Brown-408913","3500","PG/SG","0","222","0","100.30","0","16.00","11.21","2.0","11.04","0","18.25"
"Daniel Theis","Daniel-Theis-37784","4200","PF/C","52.66","216.5","0","101.75","0","13.00","23.32","12.55","13.88","0","17.75"
"Jonathon Simmons","Jonathon-Simmons-31808","3700","SG/SF","0","199","0","105.10","0","21.00","15.55","10.76","11.96","0","13.25"
"Frank Jackson","Frank-Jackson-37855","3000","PG/SG","0","236.5","0","104.88","0","14.00","10.07","2.32","9.51","0","7.0"
"Joakim Noah","Joakim-Noah-1404","3100","C","0","208","0","103.30","0","14.00","12.68","8.78","9.75","0","0.0"
"Tyler Johnson","Tyler-Johnson-18720","5300","PG/SG","0","199","25.2","106.90","21.30","20.00","21.66","9.69","16.71","0","31.25"
"Seth Curry","Seth-Curry-16825","3000","PG/SG","33.36","215.5","0","104.50","0","13.00","17.79","9.39","9.39","0","23.0"
"Mike Scott","Mike-Scott-13999","3300","SF/PF","0","235","0","108.38","0","12.00","20.57","12.1","10.29","0","8.5"
"Jordan Bell","Jordan-Bell-37877","3000","PF/C","58.35","235","9.3","103.10","16.64","10.00","15.76","7.71","9.18","0","0.0"
"Wayne Selden","Wayne-Selden-36045","3200","SG/SF","52.06","208","10.2","103.30","17.53","13.00","17.46","9.66","9.66","0","17.5"
"Antonio Blakeney","Antonio-Blakeney-37811","3000","PG/SG","0","201","0","104.50","0","9.00","15.04","7.31","9.05","0","16.25"
"Dillon Brooks","Dillon-Brooks-37852","3000","SG/SF","50.06","208","0","103.30","0","15.00","9.61","7.87","8.74","0","4.0"
"Derrick Jones","Derrick-Jones-36064","5100","SF/PF","41.30","199","0","106.90","0","18.00","26.75","14.58","14.58","0","14.75"
"Jabari Parker","Jabari-Parker-18593","4000","SF/PF","47.85","201","0","104.50","0","15.00","13.44","11.2","11.2","0","0.0"
"Hamidou Diallo","Hamidou-Diallo-408800","3100","SG/SF","0","223.5","0","102.62","0","10.00","9.2","1.94","8.48","0","14.25"
"Alex Poythress","Alex-Poythress-36018","3000","SF/PF","0","222","0","105.10","0","12.00","9.82","7.36","8.18","0","3.25"
"Tyrone Wallace","Tyrone-Wallace-35220","3400","PG/SG","0","235","0","108.38","0","12.00","14.8","9.27","9.27","0","3.25"
"Patrick Patterson","Patrick-Patterson-1260","3100","PF/C","0","223.5","0","102.62","0","13.00","14.73","7.11","8.42","0","12.25"
"Alfonzo McKinnie","Alfonzo-McKinnie-37808","3200","SF/PF","0","235","0","103.10","0","13.00","16.49","8.61","8.61","0","13.5"
"Lance Stephenson","Lance-Stephenson-947","3500","SG/SF","42.53","208","0","112.50","0","10.00","15.12","7.1","8.91","0","0"
"Zaza Pachulia","Zaza-Pachulia-1455","3200","C","0","222","0","100.30","0","8.00","13.7","7.06","8.07","0","29.5"
"Tyreke Evans","Tyreke-Evans-1070","3700","SG/SF","0","","18.4","107.67","26.25","12.00","11.12","8.55","8.55","0","0"
"Jon Leuer","Jon-Leuer-13317","3100","PF/C","0","222","0","100.30","0","7.00","9.86","5.18","6.07","0","0.0"
"Robert Williams","Robert-Williams-408780","4100","PF/C","52.66","216.5","0","101.75","0","8.00","7.9","1.5","7.66","0","11.0"
"Kenrich Williams","Kenrich-Williams-570179","3000","SG/SF","0","236.5","0","104.88","0","8.00","5.56","1.28","5.25","0","0.0"
"Boban Marjanovic","Boban-Marjanovic-31807","3700","C","0","235","0","108.38","0","5.00","10.86","5.42","5.56","0","0.0"
"Shabazz Napier","Shabazz-Napier-18598","3300","PG/SG","0","218.5","0","114.62","0","5.00","8.18","3.57","4.4","0","0.0"
"Maxi Kleber","Maxi-Kleber-37845","3100","PF/C","52.35","215.5","11.2","100.08","19.40","4.00","5.98","2.99","3.63","0","18.25"
"Jarell Martin","Jarell-Martin-18931","3000","PF/C","0","199","4.5","105.10","12.31","4.00","5.3","2.83","3.44","0","0.0"
"Jake Layman","Jake-Layman-35216","3100","SF/PF","0","215.5","7.7","104.50","8.28","4.00","5.51","2.82","3.34","0","0.0"
"Aaron Holiday","Aaron-Holiday-408932","3200","PG/SG","0","","11.7","107.67","21.68","4.00","3.32","0.63","3.22","0","18.75"
"Wayne Ellington","Wayne-Ellington-1009","3300","PG/SG","0","199","0","106.90","0","1.00","1.41","0.64","0.8","0","0"
