"nameCol","idCol","salaryCol","positionCol","dvpCol","ouCol","mpgCol","paceCol","usgCol","pminCol","ceilCol","floorCol","pointsCol","predictCol","actualCol"
"Patrick Beverley","Patrick-Beverley-14108","3600","PG/SG","36.72","222.5","22.1","108.38","14.22","28.00","50.85","27.09","27.09","0","20.25"
"Jerami Grant","Jerami-Grant-18576","3900","PF","54.64","222.5","28.8","102.62","14.09","32.00","42.71","18.3","26.56","0","34.0"
"Jeremy Lamb","Jeremy-Lamb-13955","5300","SG/SF","50.10","226.5","30.3","103.00","20.90","31.00","48.4","20.9","35.12","0","18.75"
"Dario Saric","Dario-Saric-36004","4200","PF","51.54","218","24.0","100.67","14.76","34.00","36.5","15.48","27.65","0","35.75"
"Garrett Temple","Garrett-Temple-14077","3400","SG/SF","38.38","201","28.4","103.30","13.14","32.00","35.6","15.99","22.14","0","14.0"
"Eric Gordon","Eric-Gordon-1077","4800","SG/SF","44.82","201","31.7","101.42","17.91","36.00","42.68","19.62","29.6","0","6.75"
"JaVale McGee","JaVale-McGee-1485","4700","C","52.20","226.5","21.3","112.50","19.63","24.00","41.23","17.82","28.65","0","34.0"
"Reggie Jackson","Reggie-Jackson-13352","5100","PG/SG","50.59","214.5","27.4","100.30","23.90","31.00","43.66","16.61","30.64","0","21.0"
"Shelvin Mack","Shelvin-Mack-13354","3400","PG","39.77","201","22.1","103.30","16.72","23.00","31.09","16.51","20.36","0","7.0"
"Josh Jackson","Josh-Jackson-37890","5500","SF/PF","46.79","218","28.9","108.80","26.47","30.00","45.59","21.0","32.66","0","20.5"
"Patty Mills","Patty-Mills-13977","3700","PG/SG","46.93","214","22.9","99.70","18.30","22.00","32.6","16.87","21.66","0","11.75"
"Mikal Bridges","Mikal-Bridges-408842","3700","SG/SF","39.97","218","30.3","108.80","14.37","28.00","23.24","4.91","21.42","0","31.75"
"Lonzo Ball","Lonzo-Ball-37885","5600","PG","43.97","226.5","33.2","112.50","19.40","34.00","43.38","16.76","32.35","0","60.0"
"D.J. Augustin","D.J.-Augustin-1064","4000.00","PG","45.38","207","27.2","105.10","15.69","28.00","36.98","13.42","23.13","0","20.0"
"LaMarcus Aldridge","LaMarcus-Aldridge-1349","7900","PF/C","66.31","214","26.9","99.70","28.27","34.00","65.84","28.94","45.5","0","49.0"
"Dennis Schroder","Dennis-Schroder-18595","5800","PG/SG","52.27","222.5","28.2","102.62","27.47","30.00","50.95","27.21","33.3","0","17.25"
"Nicolas Batum","Nicolas-Batum-1315","4500","SG/SF","36.66","226.5","27.7","103.00","15.05","29.00","35.28","18.23","25.42","0","12.25"
"Andre Drummond","Andre-Drummond-13904","8500","C","46.27","214.5","31.4","100.30","25.52","34.00","58.76","21.99","48.01","0","62.5"
"Derrick White","Derrick-White-37858","3800","PG/SG","46.93","214","22.7","99.70","17.19","26.00","34.62","17.87","21.45","0","3.0"
"Josh Hart","Josh-Hart-37889","4500","PG/SG","40.11","226.5","27.2","112.50","13.05","32.00","35.14","17.56","25.26","0","11.75"
"Cody Zeller","Cody-Zeller-16836","4900","C","56.46","226.5","30.2","103.00","14.08","27.00","39.24","15.43","27.31","0","26.75"
"Avery Bradley","Avery-Bradley-941","3700","SG","39.50","222.5","31.3","108.38","13.71","30.00","30.25","13.59","20.59","0","0"
"Antonio Blakeney","Antonio-Blakeney-37811","3000","PG/SG","33.75","214","10.5","104.50","25.16","18.00","27.79","13.44","16.65","0","0.0"
"Luke Kennard","Luke-Kennard-37814","3500","SG/SF","34.67","214.5","20.3","100.30","19.73","23.00","29.52","14.3","19.33","0","19.25"
"Marco Belinelli","Marco-Belinelli-1033","3500","SG/SF","34.41","214","20.7","99.70","17.58","21.00","28.13","14.67","19.2","0","0"
"Lance Stephenson","Lance-Stephenson-947","3500","SG/SF","48.37","226.5","14.6","112.50","23.85","20.00","33.04","15.32","19.2","0","0"
"Donovan Mitchell","Donovan-Mitchell-37875","6600.00","PG/SG","48.22","207","29.0","98.88","29.09","34.00","47.08","19.88","36.02","0","29.75"
"Tobias Harris","Tobias-Harris-13332","7000","SF/PF","47.59","222.5","32.6","108.38","25.50","35.00","50.62","20.61","38.23","0","36.75"
"De'Anthony Melton","De'Anthony-Melton-409081","5300","PG/SG","49.95","218","24.1","108.80","23.87","30.00","33.05","8.97","28.94","0","23.25"
"Danilo Gallinari","Danilo-Gallinari-1329","6300","SF/PF","47.59","222.5","30.6","108.38","21.88","33.00","48.34","19.39","34.26","0","42.25"
"Jeff Teague","Jeff-Teague-1005","6200","PG","53.00","218","32.0","100.67","20.01","33.00","47.03","17.29","33.45","0","0"
"Richaun Holmes","Richaun-Holmes-18905","4000","PF/C","52.59","218","20.9","108.80","20.36","20.00","36.09","14.68","21.56","0","14.0"
"Robert Covington","Robert-Covington-16874","5500","SF/PF","35.44","218","33.0","100.67","16.73","36.00","43.06","18.89","29.51","0","15.25"
"Langston Galloway","Langston-Galloway-18717","3400","PG/SG","34.67","214.5","27.0","100.30","15.50","24.00","31.43","15.9","18.25","0","20.5"
"Gerald Green","Gerald-Green-13374","3500","SG/SF","44.82","201","17.0","101.42","15.16","22.00","32.46","15.21","18.75","0","19.75"
"Davis Bertans","Davis-Bertans-36051","3500","PF/C","66.31","214","20.0","99.70","12.30","19.00","32.5","14.97","18.71","0","9.75"
"P.J. Tucker","P.J.-Tucker-13947","3700","SF/PF","36.96","201","31.5","101.42","9.38","34.00","38.47","16.61","19.8","0","25.75"
"Ricky Rubio","Ricky-Rubio-1001","5900.00","PG","37.62","207","28.3","98.88","25.35","32.00","41.97","16.79","31.51","0","0"
"Marc Gasol","Marc-Gasol-1493","7500","C","54.77","201","31.9","103.30","21.18","33.00","52.83","23.31","39.99","0","38.75"
"Jayson Tatum","Jayson-Tatum-37782","6100","SF/PF","43.15","214.5","30.3","101.75","21.40","33.00","41.01","17.24","32.29","0","33.5"
"Lauri Markkanen","Lauri-Markkanen-37809","5900","PF","52.64","214","26.3","104.50","25.47","32.00","44.34","19.96","30.75","0","41.75"
"Jerian Grant","Jerian-Grant-18900","3200.00","PG","45.38","207","19.0","105.10","11.39","20.00","27.82","14.55","16.57","0","8.25"
"Andrew Wiggins","Andrew-Wiggins-18620","6400","SG/SF","48.33","218","34.2","100.67","23.58","35.00","43.64","18.8","33.16","0","26.5"
"DeMar DeRozan","DeMar-DeRozan-1053","8600","SG/SF","44.24","214","33.0","99.70","31.20","36.00","61.29","21.42","44.54","0","0"
"Evan Fournier","Evan-Fournier-13913","5700.00","SG/SF","34.26","207","30.8","105.10","21.27","32.00","37.4","15.23","29.52","0","35.25"
"Michael Kidd-Gilchrist","Michael-Kidd-Gilchrist-13896","3700","SF/PF","36.66","226.5","19.0","103.00","17.57","20.00","31.5","16.33","19.1","0","8.75"
"Derrick Favors","Derrick-Favors-1266","5000.00","PF/C","51.08","207","22.5","98.88","17.65","24.00","43.65","20.95","25.77","0","32.5"
"Tyson Chandler","Tyson-Chandler-1482","3500","C","52.20","226.5","21.0","112.50","5.45","20.00","34.85","18.04","18.04","0","10.75"
"Karl-Anthony Towns","Karl-Anthony-Towns-18937","9800","C","54.73","218","33.7","100.67","28.01","35.00","67.86","27.55","50.45","0","59.0"
"Jonathan Isaac","Jonathan-Isaac-37841","4200.00","SF/PF","55.03","207","25.4","105.10","16.32","29.00","34.34","16.52","21.57","0","16.75"
"Kris Dunn","Kris-Dunn-35215","5200","PG/SG","50.69","214","22.5","104.50","17.74","28.00","37.17","13.3","26.7","0","40.75"
"JaMychal Green","JaMychal-Green-18729","4600","SF/PF","54.77","201","24.1","103.30","19.68","25.00","39.49","20.47","23.42","0","24.0"
"Blake Griffin","Blake-Griffin-1503","9000","PF/C","51.55","214.5","34.0","100.30","33.59","36.00","59.52","21.23","45.75","0","46.0"
"Royce O'Neale","Royce-O'Neale-37872","3500.00","SF","33.75","207","19.5","98.88","14.11","21.00","26.28","13.21","17.78","0","5.25"
"Marvin Williams","Marvin-Williams-1318","5100","SF/PF","44.89","226.5","28.6","103.00","14.41","29.00","42.49","21.99","25.78","0","6.75"
"Kentavious Caldwell-Pope","Kentavious-Caldwell-Pope-16869","3800","SG/SF","40.11","226.5","23.5","112.50","17.19","25.00","36.25","16.72","19.18","0","14.5"
"Rudy Gobert","Rudy-Gobert-16935","7400.00","C","52.35","207","24.3","98.88","17.94","33.00","51.64","18.31","36.99","0","32.75"
"Steven Adams","Steven-Adams-16848","6500","C","58.42","222.5","31.8","102.62","23.43","32.00","43.86","21.51","32.39","0","24.75"
"Bobby Portis","Bobby-Portis-18909","5400","PF/C","49.66","214","19.5","104.50","23.90","25.00","50.54","24.37","26.87","0","15.5"
"LeBron James","LeBron-James-1227","10700","SF/PF","49.96","226.5","35.0","112.50","33.79","36.00","67.97","21.13","53.23","0","61.5"
"Wendell Carter","Wendell-Carter-408878","5200","PF/C","49.66","214","23.8","104.50","15.36","28.00","30.09","9.46","25.7","0","14.5"
"Rudy Gay","Rudy-Gay-1341","6400","SF/PF","49.16","214","28.1","99.70","20.19","27.00","40.38","15.77","31.6","0","26.0"
"TJ Warren","TJ-Warren-18634","6600","SF/PF","46.79","218","23.7","108.80","27.63","34.00","42.86","18.65","32.54","0","34.25"
"Terry Rozier","Terry-Rozier-18894","4400","PG/SG","44.04","214.5","26.3","101.75","17.13","21.00","34.4","18.52","21.69","0","10.0"
"Chris Paul","Chris-Paul-1087","8000","PG","43.22","201","33.2","101.42","23.77","33.00","53.11","18.88","39.25","0","31.75"
"Paul George","Paul-George-1245","9200","SF/PF","54.64","222.5","34.8","102.62","29.31","35.00","62.84","27.66","44.98","0","57.25"
"Nerlens Noel","Nerlens-Noel-18575","3300","C","58.42","222.5","14.7","102.62","17.41","15.00","27.8","13.68","16.07","0","16.5"
"Gordon Hayward","Gordon-Hayward-1239","5700","SF/PF","43.15","214.5","24.0","101.75","25.31","27.00","40.74","19.1","27.6","0","13.0"
"Derrick Rose","Derrick-Rose-1086","6000","PG/SG","53.00","218","28.7","100.67","27.54","28.00","45.25","24.89","28.97","0","31.75"
"Kemba Walker","Kemba-Walker-13335","9300","PG","52.37","226.5","34.2","103.00","30.03","35.00","60.26","22.29","44.94","0","8.25"
"Reggie Bullock","Reggie-Bullock-16943","3900","SG/SF","34.15","214.5","16.5","100.30","16.96","25.00","30.51","12.92","18.81","0","20.75"
"Russell Westbrook","Russell-Westbrook-1083","11200","PG","52.27","222.5","35.2","102.62","32.99","35.00","60.12","18.16","53.73","0","55.25"
"Joe Ingles","Joe-Ingles-18627","5700.00","SG/SF","41.97","207","26.2","98.88","18.20","31.00","41.03","18.12","27.12","0","29.75"
"Shai Gilgeous-Alexander","Shai-Gilgeous-Alexander-408990","5000","PG/SG","45.94","222.5","25.1","108.38","17.05","28.00","22.44","2.66","23.77","0","10.5"
"MarShon Brooks","MarShon-Brooks-188837","3200","SG","43.22","218","13.4","108.80","22.81","20.00","23.35","10.64","15.13","0","14.75"
"Justin Holiday","Justin-Holiday-14559","5300","SG/SF","33.75","214","32.2","104.50","17.47","34.00","36.25","16.75","25","0","26.25"
"Stanley Johnson","Stanley-Johnson-18913","3700","SF/PF","34.15","214.5","20.0","100.30","28.83","23.00","28.83","13.16","17.41","0","10.0"
"Nikola Vucevic","Nikola-Vucevic-13296","8900.00","C","55.03","207","30.4","105.10","27.64","31.00","52.48","19.36","41.82","0","51.25"
"Kyrie Irving","Kyrie-Irving-13334","8900","PG","51.83","214.5","29.8","101.75","32.27","33.00","56.08","22.42","41.82","0","47.5"
"Marcin Gortat","Marcin-Gortat-1479","3600","C","49.66","222.5","18.6","108.38","15.08","18.00","24.66","10.1","16.83","0","16.5"
"Mike Conley","Mike-Conley-1062","7700","PG","39.77","201","32.9","103.30","24.72","34.00","53.75","20.8","35.98","0","0"
"Ryan Arcidiacono","Ryan-Arcidiacono-36050","3500","PG","45.43","214","25.8","104.50","9.04","22.00","25.56","10.42","16.2","0","32.0"
"James Harden","James-Harden-1037","11100","PG/SG","43.22","201","32.8","101.42","38.34","36.00","59.27","19.25","51.32","0","0"
"Clint Capela","Clint-Capela-18610","8100","C","47.48","201","31.0","101.42","19.71","33.00","54.54","23.41","37.33","0","43.0"
"Montrezl Harrell","Montrezl-Harrell-18930","5600","PF/C","52.46","222.5","23.3","108.38","19.68","23.00","37.69","19.62","25.16","0","34.0"
"Kyle Kuzma","Kyle-Kuzma-37886","7800","SF/PF","49.96","226.5","35.7","112.50","25.60","36.00","45.4","19.45","34.98","0","23.25"
"Jaren Jackson","Jaren-Jackson-409099","5800","PF/C","54.77","201","22.3","103.30","20.06","28.00","29.48","7.96","26","0","30.25"
"Marcus Smart","Marcus-Smart-18567","4600","PG/SG","51.83","214.5","27.7","101.75","14.02","23.00","28.15","11.44","20.46","0","43.0"
"Miles Bridges","Miles-Bridges-409262","3500","SF/PF","44.89","226.5","19.0","103.00","17.10","18.00","16.01","3.04","15.53","0","24.75"
"Jakob Poeltl","Jakob-Poeltl-35187","4100","C","56.24","214","18.4","99.70","15.76","17.00","36.18","16.07","18.1","0","11.5"
"Thabo Sefolosha","Thabo-Sefolosha-1271","3100.00","SF/PF","33.75","207","13.8","98.88","12.09","15.00","20.31","11.38","13.48","0","6.75"
"Deandre Ayton","Deandre-Ayton-409301","6900","C","52.70","218","26.1","108.80","22.52","30.00","34.21","9.29","29.96","0","39.5"
"Marcus Morris","Marcus-Morris-13316","6700","SF/PF","33.75","214.5","29.5","101.75","21.29","30.00","39.18","15.03","29.02","0","21.25"
"Chandler Hutchison","Chandler-Hutchison-408877","3000","SG/SF","36.50","214","12.2","104.50","12.07","18.00","13.7","3.16","12.94","0","0.0"
"Jonathon Simmons","Jonathon-Simmons-31808","3900.00","SG/SF","41.57","207","21.8","105.10","14.95","22.00","25.29","13.76","16.78","0","14.25"
"Devin Booker","Devin-Booker-18949","8000","PG/SG","49.95","218","17.0","108.80","22.73","30.00","50.55","18.48","34.04","0","47.75"
"Gorgui Dieng","Gorgui-Dieng-16939","3200","PF/C","59.54","218","13.0","100.67","15.58","13.00","21.28","10.28","13.63","0","8.25"
"Malik Monk","Malik-Monk-37827","3300","PG/SG","52.37","226.5","14.8","103.00","28.32","16.00","21.38","11.58","14.02","0","26.75"
"Aaron Gordon","Aaron-Gordon-18601","7800.00","SF/PF","48.57","207","34.8","105.10","22.63","34.00","41.99","17.83","32.65","0","15.0"
"Troy Daniels","Troy-Daniels-17383","3400","SG","39.66","218","20.9","108.80","17.10","15.00","25.3","14.2","14.2","0","0.0"
"Bryn Forbes","Bryn-Forbes-36052","4200","PG/SG","52.28","214","23.4","99.70","18.90","22.00","25.17","10.6","17.43","0","13.0"
"Terrance Ferguson","Terrance-Ferguson-37871","3200","SG/SF","34.13","222.5","22.5","102.62","7.39","23.00","20.92","8.75","13.26","0","4.5"
"Jamal Crawford","Jamal-Crawford-1075","3500","PG/SG","46.79","218","21.0","108.80","25.26","17.00","25.33","14.49","14.49","0","16.25"
"Aron Baynes","Aron-Baynes-14114","4100","C","51.98","214.5","11.5","101.75","10.90","17.00","27.29","12.28","16.89","0","14.5"
"Jae Crowder","Jae-Crowder-13942","4500.00","SF/PF","33.75","207","22.7","98.88","19.42","22.00","27.55","10.53","18.54","0","21.0"
"Tyus Jones","Tyus-Jones-18938","3100","PG","44.42","218","14.7","100.67","10.38","16.00","22.96","12.21","12.69","0","7.75"
"Robin Lopez","Robin-Lopez-1466","3100","C","52.88","214","16.0","104.50","19.87","13.00","25.27","12.64","12.64","0","19.75"
"Mohamed Bamba","Mohamed-Bamba-409026","3500.00","C","52.65","207","15.5","105.10","21.55","17.00","14.36","2.56","14.15","0","24.5"
"Jaylen Brown","Jaylen-Brown-35181","5400","SG/SF","33.75","214.5","24.8","101.75","27.39","24.00","40.21","18.02","21.71","0","12.0"
"Danuel House","Danuel-House-36029","3700","SF/PF","43.22","201","17.8","101.42","16.25","20.00","24.74","11.72","14.83","0","2.5"
"Terrence Ross","Terrence-Ross-13902","5500.00","SG/SF","34.26","207","27.8","105.10","18.62","27.00","33.71","18.54","21.79","0","28.25"
"Jon Leuer","Jon-Leuer-13317","3100","PF/C","51.55","214.5","12.0","100.30","18.93","14.00","19.51","10.41","12.17","0","10.0"
"Nene Hilario","Nene-Hilario-17321","3200","C","47.48","201","14.2","101.42","13.89","13.00","20.32","10.56","12.34","0","7.5"
"Kyle Korver","Kyle-Korver-1269","3100.00","SG/SF","41.97","207","15.7","98.88","20.89","15.00","20.76","9.36","11.8","0","7.25"
"Milos Teodosic","Milos-Teodosic-37883","3000","PG","36.72","222.5","10.8","108.38","27.56","13.00","22.58","10.41","11.4","0","4.0"
"Bruce Brown","Bruce-Brown-408913","3500","PG/SG","50.59","214.5","23.1","100.30","11.80","18.00","13.58","2.58","13.17","0","7.5"
"Wayne Selden","Wayne-Selden-36045","3300","SG/SF","43.22","218","15.3","108.80","22.97","18.00","22.51","12.38","12.38","0","0"
"Dante Cunningham","Dante-Cunningham-1259","3600","SF/PF","49.16","214","21.3","99.70","8.84","16.00","24.34","10.37","12.98","0","2.0"
"Mike Scott","Mike-Scott-13999","3400","SF/PF","47.59","222.5","15.3","108.38","16.68","15.00","24.11","14.16","12.06","0","7.0"
"Joakim Noah","Joakim-Noah-1404","3200","C","52.92","201","14.8","103.30","20.64","15.00","18.83","10.04","11.05","0","6.0"
"Brandon Knight","Brandon-Knight-13336","3000","PG/SG","43.22","201","3.0","101.42","31.07","13.00","15.39","7.46","10.25","0","0.0"
"Alex Abrines","Alex-Abrines-36054","3000","SG/SF","34.13","222.5","16.5","102.62","10.36","15.00","19.69","10.25","10.25","0","11.0"
"Tony Parker","Tony-Parker-982","4300","PG","35.70","226.5","19.0","103.00","27.11","16.00","24.8","14.51","14.51","0","0"
"Omri Casspi","Omri-Casspi-1270","3100","SF/PF","33.70","201","12.0","103.30","15.43","12.00","18.37","8.78","10.46","0","4.25"
"Dante Exum","Dante-Exum-18626","3400.00","PG/SG","37.62","207","10.8","98.88","27.75","13.00","19.8","9.0","11.41","0","5.5"
"Willy Hernangomez","Willy-Hernangomez-18901","3400","C","56.46","226.5","8.5","103.00","25.46","8.00","19.6","10.69","11.04","0","19.0"
"Frank Kaminsky","Frank-Kaminsky-18920","3300","PF/C","58.73","226.5","16.3","103.00","19.73","11.00","17.19","8.78","10.65","0","4.75"
"Boban Marjanovic","Boban-Marjanovic-31807","3800","C","49.66","222.5","11.0","108.38","26.54","11.00","23.64","11.83","12.13","0","0.0"
"Patrick Patterson","Patrick-Patterson-1260","3100","PF/C","55.47","222.5","12.7","102.62","9.99","14.00","16.92","8.21","9.72","0","5.75"
"Daniel Theis","Daniel-Theis-37784","4300","PF/C","51.98","214.5","18.7","101.75","21.40","13.00","20.75","11.36","12.57","0","15.0"
"Sviatoslav Mykhailiuk","Sviatoslav-Mykhailiuk-409280","3000","SG/SF","39.72","226.5","12.0","112.50","16.97","13.00","9.17","2.11","8.66","0","20.75"
"Shaquille Harrison","Shaquille-Harrison-36065","3300","PG","45.43","214","15.0","104.50","17.22","12.00","14.5","7.12","9.08","0","10.75"
"Jose Calderon","Jose-Calderon-1071","3000","PG","38.16","214.5","16.0","100.30","17.83","12.00","13.77","6.47","7.69","0","24.5"
"Cameron Payne","Cameron-Payne-18941","3200","PG/SG","45.43","214","14.8","104.50","21.16","10.00","13.72","7.0","8.05","0","10.25"
"Anthony Tolliver","Anthony-Tolliver-1263","3000","SF/PF","51.54","218","1.0","100.67","0.00","10.00","13.53","7.32","7.32","0","2.5"
"Semi Ojeleye","Semi-Ojeleye-37786","3100","SF/PF","33.75","214.5","12.0","101.75","21.16","11.00","14.07","7.35","7.35","0","0.0"
"Robert Williams","Robert-Williams-408780","3500","PF/C","51.98","214.5","18.3","101.75","10.09","8.00","7.98","1.84","7.54","0","5.25"
"Hamidou Diallo","Hamidou-Diallo-408800","3100","SG/SF","34.13","222.5","6.2","102.62","24.90","9.00","6.34","1.13","6.25","0","13.25"
"Tyrone Wallace","Tyrone-Wallace-35220","3200","PG/SG","47.43","222.5","9.8","108.38","25.87","8.00","8.98","5.62","5.62","0","0.0"
"Dragan Bender","Dragan-Bender-35228","3000","PF/C","52.70","218","14.8","108.80","13.69","4.00","6.18","3.55","3.55","0","0.0"
"Jawun Evans","Jawun-Evans-37882","3300","PG/SG","49.95","218","14.5","108.80","16.54","2.00","3.16","1.68","1.68","0","13.0"
