"nameCol","idCol","salaryCol","positionCol","dvpCol","ouCol","mpgCol","paceCol","usgCol","pminCol","ceilCol","floorCol","pointsCol","predictCol","actualCol"
"Eric Gordon","Eric-Gordon-1077","4600","SG/SF","45.56","209.5","32.0","101.42","17.27","35.00","39.3","18.59","27.18","0","32.75"
"P.J. Tucker","P.J.-Tucker-13947","3700","SF/PF","37.23","209.5","32.9","101.42","9.83","35.00","38.86","16.99","20.2","0","26.25"
"Rodney McGruder","Rodney-McGruder-16850","3800","SG/SF","37.51","209.5","27.7","106.90","14.63","29.00","31.63","12.69","20.34","0","6.75"
"J.J. Barea","J.J.-Barea-18605","4500","PG/SG","53.49","220.5","17.0","100.08","30.75","20.00","35.5","17.06","23.57","0","33.75"
"Montrezl Harrell","Montrezl-Harrell-18930","5800","PF/C","51.72","220.5","23.2","108.38","20.58","26.00","45.48","23.54","30.1","0","35.0"
"Wesley Matthews","Wesley-Matthews-1339","4800","SG/SF","33.59","220.5","29.3","100.08","19.64","32.00","36.19","14.93","24.39","0","9.0"
"Kelly Olynyk","Kelly-Olynyk-16845","4700","PF/C","53.08","209.5","26.7","106.90","22.12","24.00","35.11","19.78","23.58","0","21.25"
"Gerald Green","Gerald-Green-13374","3400","SG/SF","45.56","209.5","19.7","101.42","14.49","23.00","29.32","13.71","16.9","0","14.0"
"Josh Richardson","Josh-Richardson-18922","6800","SG/SF","46.43","209.5","32.8","106.90","21.35","36.00","50.22","19.82","33.82","0","41.5"
"Harrison Barnes","Harrison-Barnes-13901","6000","SF/PF","55.29","220.5","31.3","100.08","22.42","34.00","37.65","17.08","29.55","0","21.25"
"Lou Williams","Lou-Williams-1044","5300","PG/SG","47.74","220.5","19.5","108.38","27.64","24.00","39.0","16.14","26.07","0","0"
"Danilo Gallinari","Danilo-Gallinari-1329","6600","SF/PF","44.62","220.5","31.0","108.38","23.49","32.00","44.92","18.02","32.29","0","49.5"
"Clint Capela","Clint-Capela-18610","8000","C","50.95","209.5","31.4","101.42","19.71","34.00","55.98","23.98","38.24","0","29.0"
"Shai Gilgeous-Alexander","Shai-Gilgeous-Alexander-408990","5200","PG/SG","42.03","220.5","26.5","108.38","18.93","29.00","27.45","10.12","24.86","0","8.25"
"Hassan Whiteside","Hassan-Whiteside-18664","7000","C","53.65","209.5","21.5","106.90","23.24","24.00","41.97","15.79","33.31","0","36.25"
"Chris Paul","Chris-Paul-1087","8200","PG","52.66","209.5","33.1","101.42","22.99","35.00","52.6","19.11","38.68","0","10.25"
"Bam Adebayo","Bam-Adebayo-37835","5000","PF/C","53.65","209.5","27.8","106.90","15.66","24.00","34.73","20.84","23.58","0","19.75"
"James Harden","James-Harden-1037","11600","PG/SG","52.66","209.5","34.7","101.42","37.82","36.00","61.88","20.21","53.9","0","0"
"Tobias Harris","Tobias-Harris-13332","7800","SF/PF","44.62","220.5","33.2","108.38","25.67","34.00","48.24","19.42","36.3","0","36.25"
"James Johnson","James-Johnson-1195","3600","SF/PF","44.32","209.5","19.3","106.90","20.93","20.00","21.99","8.64","16.71","0","23.75"
"Avery Bradley","Avery-Bradley-941","3900","SG","34.24","220.5","31.0","108.38","12.56","30.00","26.27","11.12","17.99","0","0"
"DeAndre Jordan","DeAndre-Jordan-1486","7400","C","58.08","220.5","29.8","100.08","14.87","30.00","41.09","19.92","33.14","0","48.0"
"Marcin Gortat","Marcin-Gortat-1479","3400","C","48.79","220.5","17.8","108.38","15.11","18.00","21.8","9.07","15.21","0","12.25"
"Nene Hilario","Nene-Hilario-17321","3200","C","50.95","209.5","14.8","101.42","15.76","14.00","22.68","11.96","13.92","0","7.75"
"Danuel House","Danuel-House-36029","3500","SF/PF","52.66","209.5","20.0","101.42","14.13","22.00","25.01","11.91","15.06","0","14.25"
"Dorian Finney-Smith","Dorian-Finney-Smith-36032","3500","SF/PF","34.80","220.5","23.3","100.08","12.17","22.00","23.15","11.72","14.85","0","7.75"
"Derrick Jones","Derrick-Jones-36064","4400","SF/PF","37.51","209.5","21.5","106.90","13.41","24.00","34.76","18.64","18.64","0","35.0"
"Dwight Powell","Dwight-Powell-18566","3600","PF/C","54.24","220.5","16.5","100.08","20.53","16.00","23.64","12.05","15.21","0","7.75"
"Luka Doncic","Luka-Doncic-408971","8400","SG/SF","47.77","220.5","31.8","100.08","29.24","34.00","36.75","7.36","35.54","0","52.0"
"Patrick Beverley","Patrick-Beverley-14108","4300","PG/SG","42.03","220.5","26.8","108.38","13.38","21.00","25.93","12.85","17.13","0","17.75"
"Dwyane Wade","Dwyane-Wade-967","5900","PG/SG","46.43","209.5","25.0","106.90","30.10","23.00","31.9","15.03","22.74","0","0"
"Jalen Brunson","Jalen-Brunson-409062","3800","PG","43.12","220.5","26.2","100.08","17.24","24.00","14.47","2.65","14.31","0","13.75"
"Tyler Johnson","Tyler-Johnson-18720","5100","PG/SG","49.06","209.5","20.8","106.90","21.77","24.00","29.64","13.28","18.87","0","28.0"
"Mike Scott","Mike-Scott-13999","3300","SF/PF","44.62","220.5","15.2","108.38","20.29","14.00","23.05","8.65","11.53","0","10.0"
"Devin Harris","Devin-Harris-1076","3300","PG/SG","53.49","220.5","15.7","100.08","18.82","15.00","19.46","11","11","0","16.5"
"Wayne Ellington","Wayne-Ellington-1009","3700","PG/SG","35.12","209.5","10.5","106.90","17.77","12.00","15.98","7.57","9.39","0","0"
"Dirk Nowitzki","Dirk-Nowitzki-1346","3400","PF/C","54.24","220.5","7.0","100.08","18.61","8.00","9.95","5.67","6.86","0","0.0"
"Brandon Knight","Brandon-Knight-13336","3000","PG/SG","52.66","209.5","4.8","101.42","23.85","6.00","7.79","3.78","5.19","0","3.0"
"Tyrone Wallace","Tyrone-Wallace-35220","3500","PG/SG","47.74","220.5","12.6","108.38","24.51","8.00","9.29","5.76","5.76","0","8.75"
"Boban Marjanovic","Boban-Marjanovic-31807","3700","C","48.79","220.5","11.4","108.38","25.54","4.00","9.72","5.06","5.06","0","5.25"
"Maxi Kleber","Maxi-Kleber-37845","3100","PF/C","55.29","220.5","12.0","100.08","20.79","5.00","6.67","3.34","4.05","0","6.5"
