"nameCol","idCol","salaryCol","positionCol","dvpCol","ouCol","mpgCol","paceCol","usgCol","pminCol","ceilCol","floorCol","pointsCol","predictCol","actualCol"
"Antonio Blakeney","Antonio-Blakeney-37811","3200","PG","36.34","217","20.5","104.50","29.18","23.00","39.67","16.62","20.67","0","15.25"
"Cody Zeller","Cody-Zeller-16836","4100","C","49.43","216","27.8","103.00","14.45","32.00","43.79","14.57","25.88","0","23.75"
"Dewayne Dedmon","Dewayne-Dedmon-16894","4200","PF/C","49.39","","22.2","105.10","18.71","26.00","47.49","19.95","26.11","0","25.75"
"Tyson Chandler","Tyson-Chandler-1482","3300","C","55.14","220.5","21.0","112.50","8.98","23.00","40.18","20.1","20.1","0","13.0"
"Wilson Chandler","Wilson-Chandler-1327","3400","SF/PF","36.50","237","20.3","108.33","11.57","29.00","35.59","13.73","20.19","0","24.0"
"Justin Holiday","Justin-Holiday-14559","4600","SG/SF","36.34","217","33.7","104.50","15.19","36.00","45.14","16.93","27.13","0","17.0"
"Tyreke Evans","Tyreke-Evans-1070","5400","SG/SF","46.62","216","22.3","107.67","25.31","30.00","50.66","18.4","31.72","0","22.25"
"Jusuf Nurkic","Jusuf-Nurkic-18619","6700","C","48.45","226","28.2","104.50","24.38","29.00","59.56","21.78","39.03","0","24.0"
"Gordon Hayward","Gordon-Hayward-1239","5500","SG/SF","55.30","215.5","29.0","101.75","16.71","33.00","54.24","18.6","32.02","0","36.75"
"Derrick Favors","Derrick-Favors-1266","4500","PF/C","58.76","222.5","23.7","98.88","14.93","26.00","39.5","16.27","26.04","0","29.0"
"Andre Iguodala","Andre-Iguodala-1334","3600","SG/SF","37.52","223","24.4","103.10","13.38","26.00","34.92","11.9","20.8","0","11.25"
"Cedi Osman","Cedi-Osman-18912","4300","SF","36.09","220.5","26.5","103.60","15.74","30.00","38.77","11.16","24.74","0","37.25"
"Danny Green","Danny-Green-940","4600","SG/SF","46.02","","26.0","105.50","15.16","34.00","43.94","18.31","26.34","0","0"
"Nikola Mirotic","Nikola-Mirotic-18584","6900","SF/PF","52.22","237","30.0","104.88","18.83","32.00","69.58","24.94","39.4","0","34.75"
"Joe Ingles","Joe-Ingles-18627","5300","SG/SF","41.52","222.5","31.4","98.88","17.89","33.00","55.24","19.76","30.22","0","29.75"
"Al-Farouq Aminu","Al-Farouq-Aminu-1279","4500","SF/PF","38.87","226","30.5","104.50","11.69","31.00","45.97","19.28","25.67","0","18.75"
"Harrison Barnes","Harrison-Barnes-13901","5400","SF/PF","45.73","214.5","30.3","100.08","22.21","36.00","45.58","17.78","30.61","0","38.25"
"Karl-Anthony Towns","Karl-Anthony-Towns-18937","8800","C","58.56","220","36.5","100.67","25.81","36.00","79.11","28.38","49.88","0","31.25"
"Dorian Finney-Smith","Dorian-Finney-Smith-36032","3800","SF","31.90","214.5","28.3","100.08","12.25","33.00","35.75","13.04","21.41","0","13.0"
"Marvin Williams","Marvin-Williams-1318","3800","SF/PF","44.57","216","24.2","103.00","11.71","25.00","41.62","18.16","21.31","0","23.5"
"Kyle Lowry","Kyle-Lowry-1057","8200","PG","47.94","","33.6","105.50","19.81","35.00","76.98","24.91","46.04","0","0"
"Wendell Carter","Wendell-Carter-408878","5500","C","56.21","217","25.2","104.50","19.99","30.00","39.98","12.53","30.78","0","24.25"
"Kyle Anderson","Kyle-Anderson-18615","4500","PG/SF","33.38","199.5","33.4","103.30","11.49","33.00","40.48","12.71","25.16","0","27.25"
"Nicolas Batum","Nicolas-Batum-1315","4800","SG/SF","45.27","216","26.4","103.00","15.20","33.00","43.1","18.8","26.67","0","18.5"
"Domantas Sabonis","Domantas-Sabonis-35217","6500","PF/C","53.90","216","25.8","107.67","21.80","28.00","63.41","27.4","36.15","0","25.0"
"Nemanja Bjelica","Nemanja-Bjelica-31814","4300","SF/PF","47.08","222.5","22.9","98.20","14.80","27.00","46.57","15.74","23.88","0","32.25"
"Rodney Hood","Rodney-Hood-18629","4400","SG/SF","51.07","220.5","25.2","103.60","21.66","29.00","46.29","15.75","24.34","0","19.5"
"Klay Thompson","Klay-Thompson-13315","6600","SG","37.52","223","35.3","103.10","29.04","37.00","55.12","21.02","36.43","0","39.0"
"Donovan Mitchell","Donovan-Mitchell-37875","7200","PG/SG","55.76","222.5","32.1","98.88","28.78","36.00","60.98","21.34","39.6","0","45.5"
"Terrance Ferguson","Terrance-Ferguson-37871","3000","SF","39.72","223","27.5","102.62","12.72","18.00","21.4","14.81","16.46","0","-0.5"
"D'Angelo Russell","D'Angelo-Russell-18947","7200","PG/SG","49.64","214.5","28.3","114.62","33.11","32.00","64.63","19.69","39.53","0","29.75"
"Pascal Siakam","Pascal-Siakam-35186","6600","PF","54.55","","31.4","105.50","18.45","35.00","63.2","20.63","36.26","0","34.0"
"Noah Vonleh","Noah-Vonleh-18597","4100","PF/C","41.60","215.5","28.9","100.17","12.54","28.00","37.05","15.06","22.51","0","41.5"
"Delon Wright","Delon-Wright-18907","3600","PG/SG","50.12","","17.7","105.50","17.83","23.00","38.22","15.75","19.74","0","9.0"
"Allen Crabbe","Allen-Crabbe-16978","3900","SG/SF","30.52","214.5","25.0","114.62","15.23","28.00","40.31","13.97","21.36","0","40.75"
"De'Aaron Fox","De'Aaron-Fox-37900","6400","PG","48.93","222.5","33.0","98.20","25.53","34.00","51.4","17.78","35.06","0","46.25"
"Josh Hart","Josh-Hart-37889","4000","SG","36.14","220.5","22.0","112.50","17.52","26.00","43.23","17.35","21.82","0","14.5"
"Willie Cauley-Stein","Willie-Cauley-Stein-18951","5700","C","53.35","222.5","28.7","98.20","23.06","32.00","52.34","19.62","31.1","0","37.25"
"Luka Doncic","Luka-Doncic-408971","6800","PG","41.15","214.5","32.2","100.08","27.25","36.00","49.34","11.32","36.99","0","41.75"
"Isaiah Canaan","Isaiah-Canaan-16875","3800","PG","50.08","217","27.3","108.80","13.83","27.00","37.4","16.15","20.62","0","14.5"
"Robin Lopez","Robin-Lopez-1466","3000","C","58.98","217","16.0","104.50","14.52","18.00","32.52","16.27","16.27","0","11.75"
"Al Horford","Al-Horford-1499","5900","PF/C","59.61","215.5","28.6","101.75","15.74","30.00","50.69","16.9","32","0","44.25"
"Aaron Holiday","Aaron-Holiday-408932","3300","PG","47.85","216","18.0","107.67","24.52","21.00","22.23","4.35","17.84","0","26.5"
"James Harden","James-Harden-1037","10900","PG/SG","48.94","214.5","35.7","101.42","34.94","37.00","79.72","21.41","58.66","0","0"
"Gary Harris","Gary-Harris-18617","5800","SG","51.50","220","33.3","99.62","20.60","35.00","49.78","18.21","31.13","0","29.0"
"Russell Westbrook","Russell-Westbrook-1083","10700","PG","47.57","223","36.0","102.62","35.77","36.00","75.18","19.64","57.43","0","53.25"
"Enes Kanter","Enes-Kanter-13299","6200","C","50.39","215.5","24.9","100.17","25.10","27.00","52.04","16.51","33.21","0","25.0"
"Zach LaVine","Zach-LaVine-18622","7900","PG/SG","50.06","217","36.2","104.50","30.33","36.00","69.13","25.22","42.31","0","40.75"
"Ryan Arcidiacono","Ryan-Arcidiacono-36050","3800","PG","53.35","217","31.0","104.50","11.52","31.00","39.17","13.15","20.35","0","27.75"
"David Nwaba","David-Nwaba-36526","3600","SG/SF","36.09","220.5","23.0","103.60","15.72","25.00","38.6","19.31","19.31","0","14.25"
"Dario Saric","Dario-Saric-36004","4200","PF","48.23","220","30.0","100.67","19.21","26.00","43.85","18.32","22.51","0","27.75"
"Marc Gasol","Marc-Gasol-1493","7800","C","53.87","199.5","36.3","103.30","23.48","36.00","66.13","23.99","41.72","0","41.0"
"Jimmy Butler","Jimmy-Butler-13327","7100","SG/SF","50.81","237","37.0","108.33","20.62","34.00","60.72","20.09","37.9","0","33.0"
"Dennis Smith Jr.","Dennis-Smith-Jr.-37847","5600","PG","47.28","214.5","25.5","100.08","24.36","31.00","47.5","16.34","29.93","0","8.0"
"Iman Shumpert","Iman-Shumpert-13350","3600","SG/SF","32.90","222.5","27.6","98.20","15.48","28.00","32.86","13.76","19.24","0","23.75"
"John Collins","John-Collins-37823","4800","C","49.39","","16.0","105.10","31.18","25.00","46.11","15.49","25.52","0","18.5"
"Buddy Hield","Buddy-Hield-35206","5600","SG/SF","32.90","222.5","29.9","98.20","26.28","33.00","53.09","19.96","29.79","0","24.25"
"J.J. Redick","J.J.-Redick-1030","5200","SG/SF","36.54","237","31.4","108.33","22.71","31.00","43.22","17.8","27.6","0","0"
"Kevon Looney","Kevon-Looney-18945","3700","PF/C","50.85","223","20.3","103.10","12.90","21.00","32.88","12.49","19.57","0","25.75"
"Taurean Prince","Taurean-Prince-35218","5700","SF","37.97","","31.4","105.10","20.39","32.00","49.82","17.76","30.1","0","21.0"
"Kevin Durant","Kevin-Durant-1348","10600","SF/PF","46.15","223","33.9","103.10","35.44","37.00","86.78","26.2","55.99","0","54.0"
"Fred VanVleet","Fred-VanVleet-36011","4900","PG/SG","50.12","","23.4","105.50","16.37","28.00","48.52","21.2","25.82","0","21.25"
"Garrett Temple","Garrett-Temple-14077","4200","SG/SF","34.93","199.5","32.9","103.30","11.96","33.00","42.08","15.83","22.11","0","8.25"
"C.J. McCollum","C.J.-McCollum-17121","6400","PG/SG","48.91","226","35.0","104.50","24.15","36.00","53.15","19.1","33.45","0","28.75"
"Brandon Ingram","Brandon-Ingram-35227","5900","SG/SF","53.60","220.5","32.0","112.50","22.44","35.00","55.49","19.02","30.88","0","21.75"
"P.J. Tucker","P.J.-Tucker-13947","4300","SF/PF","35.24","214.5","34.8","101.42","9.07","36.00","44.98","18.99","22.5","0","15.5"
"Eric Gordon","Eric-Gordon-1077","4700","SG/SF","44.00","214.5","30.2","101.42","23.79","30.00","43.74","18.18","24.53","0","12.0"
"Serge Ibaka","Serge-Ibaka-1294","6300","PF/C","58.15","","27.5","105.50","22.90","30.00","54.72","19.53","32.71","0","30.25"
"Jonas Jerebko","Jonas-Jerebko-1106","4100","SF/PF","46.15","223","21.1","103.10","13.44","26.00","36.48","13.88","21.26","0","15.75"
"Ersan Ilyasova","Ersan-Ilyasova-1301","3400","PF/C","48.74","226","19.0","98.80","12.89","20.00","32.03","12.23","17.65","0","6.5"
"Joe Harris","Joe-Harris-18587","4400","SG/SF","30.52","214.5","26.7","114.62","19.39","29.00","38.96","15.16","22.69","0","19.25"
"TJ Warren","TJ-Warren-18634","6700","SF/PF","42.30","217","38.8","108.80","20.25","38.00","53.01","20.02","34.58","0","30.0"
"Jeremy Lamb","Jeremy-Lamb-13955","5400","SG/SF","46.44","216","28.8","103.00","23.27","29.00","44.87","16.1","27.8","0","37.75"
"Robert Covington","Robert-Covington-16874","5600","SF/PF","32.97","220","33.2","100.67","13.03","37.00","47.33","18.34","28.79","0","26.5"
"Anthony Davis","Anthony-Davis-13895","11400","PF/C","55.83","237","37.3","104.88","32.24","38.00","101.92","30.07","58.61","0","59.5"
"Deandre Ayton","Deandre-Ayton-409301","6900","C","71.24","217","32.0","108.80","19.94","32.00","43.07","7.33","35.39","0","45.0"
"Khris Middleton","Khris-Middleton-13990","7000","SG/SF","43.30","226","31.8","98.80","25.00","35.00","68.48","25.75","35.91","0","40.25"
"Langston Galloway","Langston-Galloway-18717","3800","PG/SG","37.25","214.5","26.2","100.30","15.95","27.00","38.96","16.2","19.49","0","18.5"
"Jrue Holiday","Jrue-Holiday-1073","8100","PG/SG","49.84","237","35.1","104.88","29.18","38.00","66.09","19.65","41.46","0","55.5"
"Trae Young","Trae-Young-409063","6600","PG","48.62","","28.6","105.10","32.36","32.00","45.09","10.34","33.8","0","16.25"
"Jabari Parker","Jabari-Parker-18593","6000","SF/PF","48.00","217","30.0","104.50","26.44","32.00","50.88","16.28","30.65","0","52.25"
"Trey Burke","Trey-Burke-17029","4200","PG/SG","41.13","215.5","24.5","100.17","31.93","23.00","42.82","18.61","21.42","0","59.0"
"Kent Bazemore","Kent-Bazemore-13987","5400","SG/SF","44.94","","26.6","105.10","21.71","31.00","46.09","13.5","27.55","0","14.75"
"Jarrett Allen","Jarrett-Allen-37794","5600","C","49.02","214.5","28.2","114.62","18.71","29.00","46.43","17.14","28.57","0","19.0"
"Rudy Gobert","Rudy-Gobert-16935","7800","C","53.76","222.5","29.6","98.88","15.68","33.00","61.94","16.44","39.81","0","40.75"
"Marvin Bagley III","Marvin-Bagley-III-409321","4600","PF","47.08","222.5","22.1","98.20","22.65","24.00","27.85","4.33","23.42","0","26.0"
"Clint Capela","Clint-Capela-18610","7600","C","50.70","214.5","32.2","101.42","18.14","34.00","68.41","22.69","38.65","0","54.75"
"Chris Paul","Chris-Paul-1087","8300","PG","48.94","214.5","33.8","101.42","21.74","36.00","65.93","20.69","42.13","0","34.0"
"Spencer Dinwiddie","Spencer-Dinwiddie-18588","5900","PG/SG","49.64","214.5","27.9","114.62","26.58","30.00","54.04","21.01","29.97","0","34.0"
"DeAndre Jordan","DeAndre-Jordan-1486","7100","C","62.60","214.5","29.7","100.08","14.27","32.00","52.63","21.56","36","0","38.0"
"Tristan Thompson","Tristan-Thompson-13308","5800","C","56.77","220.5","27.5","103.60","18.71","30.00","47.53","17.73","29.41","0","34.25"
"Jaren Jackson","Jaren-Jackson-409099","5600","PF","53.87","199.5","27.0","103.30","22.08","32.00","39.08","10.44","28.38","0","12.25"
"Mike Conley","Mike-Conley-1062","7500","PG","43.10","199.5","36.0","103.30","24.94","35.00","66.13","22.21","38.03","0","0"
"Reggie Bullock","Reggie-Bullock-16943","4300","SG/SF","28.96","214.5","29.0","100.30","17.21","31.00","40.91","14.87","21.77","0","24.0"
"Trevor Ariza","Trevor-Ariza-1323","5100","SF/PF","42.94","217","35.8","108.80","11.91","35.00","39.91","12.69","25.8","0","19.5"
"Joel Embiid","Joel-Embiid-18578","10800","C","59.17","237","35.6","108.33","32.50","35.00","77.93","23.14","54.57","0","60.75"
"Zach Collins","Zach-Collins-37866","3300","PF","56.69","226","18.2","104.50","16.41","19.00","29.46","12.91","16.59","0","18.0"
"Trey Lyles","Trey-Lyles-18942","3800","SF/PF","55.37","220","20.4","99.62","20.95","20.00","35.47","15.92","19.13","0","4.25"
"Giannis Antetokounmpo","Giannis-Antetokounmpo-16852","11200","SF/PF","48.74","226","34.5","98.80","31.63","36.00","78.69","24.68","56.21","0","73.0"
"Jamal Murray","Jamal-Murray-35211","6800","PG/SG","48.36","220","33.0","99.62","24.23","35.00","62.15","21.91","34.02","0","34.75"
"Kyle Kuzma","Kyle-Kuzma-37886","5200","SF/PF","42.89","220.5","27.8","112.50","21.84","28.00","39.76","14.42","25.99","0","22.25"
"Richaun Holmes","Richaun-Holmes-18905","3200","PF/C","52.28","217","15.8","108.80","14.91","16.00","31.92","11.18","15.97","0","26.5"
"Rudy Gay","Rudy-Gay-1341","5300","SF/PF","40.70","199.5","25.0","99.70","25.84","29.00","39.75","13.19","26.43","0","37.0"
"Mario Hezonja","Mario-Hezonja-18923","3400","SF/PF","37.66","215.5","19.4","100.17","18.81","20.00","31.16","11.03","16.97","0","8.0"
"Jayson Tatum","Jayson-Tatum-37782","6200","SF/PF","55.30","215.5","30.7","101.75","21.17","33.00","46.21","16.06","30.89","0","25.5"
"Bogdan Bogdanovic","Bogdan-Bogdanovic-37899","4100","SG/SF","39.73","222.5","21.3","98.20","24.66","25.00","38.07","17.81","20.4","0","31.25"
"Thaddeus Young","Thaddeus-Young-1289","4000","SF/PF","48.74","216","23.5","107.67","18.30","25.00","33.65","10.44","19.85","0","23.5"
"Tony Parker","Tony-Parker-982","3600","PG","46.75","216","18.0","103.00","23.13","20.00","35.39","17.84","17.84","0","0"
"Evan Turner","Evan-Turner-1291","4100","SG/SF","48.91","226","28.0","104.50","16.27","28.00","36.27","16.87","20.32","0","11.0"
"Dennis Schroder","Dennis-Schroder-18595","6200","PG/SG","47.57","223","32.0","102.62","28.57","30.00","55.09","24.14","30.71","0","47.0"
"Jordan Clarkson","Jordan-Clarkson-18631","5200","PG/SG","51.07","220.5","25.8","103.60","29.87","26.00","49.99","22.9","25.7","0","31.5"
"Cory Joseph","Cory-Joseph-13339","3900","PG","47.85","216","28.5","107.67","14.10","27.00","38.42","15.63","19.22","0","19.75"
"Kentavious Caldwell-Pope","Kentavious-Caldwell-Pope-16869","3500","SG/SF","36.14","220.5","19.5","112.50","21.09","24.00","34.4","15.01","17.21","0","23.75"
"Collin Sexton","Collin-Sexton-408896","5400","PG","56.52","220.5","30.5","103.60","25.76","33.00","34.46","10.8","26.53","0","18.75"
"Jeff Teague","Jeff-Teague-1005","6100","PG","48.91","220","34.0","100.67","22.46","30.00","50.57","15.11","29.87","0","0"
"Damian Jones","Damian-Jones-35223","3300","C","50.85","223","19.1","103.10","9.96","20.00","32.32","16.17","16.17","0","15.5"
"Bojan Bogdanovic","Bojan-Bogdanovic-18571","4800","SG/SF","38.64","216","32.0","107.67","18.75","32.00","43.56","18.67","23.52","0","31.25"
"Lance Stephenson","Lance-Stephenson-947","3200","SG/SF","53.60","220.5","13.2","112.50","22.87","16.00","31.34","12.51","15.68","0","0"
"Mike Muscala","Mike-Muscala-17379","4000","PF/C","59.17","237","28.4","108.33","14.93","25.00","39.0","19.51","19.51","0","15.5"
"Eric Bledsoe","Eric-Bledsoe-1031","6700","PG/SG","38.10","226","30.7","98.80","23.79","32.00","56.09","19.96","32.67","0","0"
"Andre Drummond","Andre-Drummond-13904","9400","C","49.87","214.5","35.2","100.30","23.61","35.00","66.0","21.18","45.55","0","38.25"
"DeMar DeRozan","DeMar-DeRozan-1053","8400","SG/SF","41.90","199.5","36.0","99.70","28.73","36.00","65.81","19.55","40.65","0","0"
"Miles Bridges","Miles-Bridges-409262","3900","SF","44.57","216","22.8","103.00","11.61","23.00","24.1","4.32","18.87","0","19.25"
"Ben Simmons","Ben-Simmons-35184","8600","PG/SF","59.00","237","35.6","108.33","21.68","34.00","63.81","17.72","41.6","0","45.5"
"Monte Morris","Monte-Morris-37860","4300","PG","48.36","220","27.7","99.62","16.38","26.00","36.23","16.11","20.81","0","18.75"
"Jerami Grant","Jerami-Grant-18576","4400","SF/PF","44.82","223","29.7","102.62","14.41","27.00","38.98","15.22","21.31","0","37.25"
"Reggie Jackson","Reggie-Jackson-13352","5300","PG/SG","45.77","214.5","25.5","100.30","26.37","29.00","41.8","13.45","25.66","0","17.75"
"Tim Hardaway Jr.","Tim-Hardaway-Jr.-16879","7300","SG/SF","41.36","215.5","32.3","100.17","30.89","34.00","64.03","23.78","35.18","0","30.5"
"Devin Booker","Devin-Booker-18949","8700","PG/SG","50.08","217","37.5","108.80","30.03","36.00","74.45","24.9","41.78","0","38.0"
"Bryn Forbes","Bryn-Forbes-36052","4100","PG/SG","39.05","199.5","28.7","99.70","17.32","28.00","33.42","11.96","19.67","0","14.0"
"Patty Mills","Patty-Mills-13977","3700","PG/SG","41.84","199.5","23.9","99.70","18.99","25.00","31.42","13.83","17.75","0","25.0"
"Brook Lopez","Brook-Lopez-1498","5300","C","56.52","226","30.0","98.80","14.78","30.00","45.05","16.85","25.38","0","6.25"
"Nikola Jokic","Nikola-Jokic-31812","9700","C","58.73","220","30.0","99.62","28.31","33.00","71.92","18.54","46.34","0","39.5"
"Andrew Wiggins","Andrew-Wiggins-18620","6700","SG/SF","40.63","220","37.0","100.67","23.66","37.00","49.2","18.29","32.03","0","21.25"
"Jared Dudley","Jared-Dudley-1319","3200","SF/PF","43.58","214.5","22.9","114.62","11.30","25.00","26.3","10.63","15.29","0","8.0"
"Marcus Smart","Marcus-Smart-18567","3800","PG/SG","47.03","215.5","22.6","101.75","15.75","22.00","36.22","13.72","18.12","0","15.75"
"Emmanuel Mudiay","Emmanuel-Mudiay-18936","4100","PG","41.13","215.5","21.3","100.17","22.22","23.00","31.09","12.19","19.54","0","12.5"
"Malcolm Brogdon","Malcolm-Brogdon-35195","4900","PG/SG","46.95","226","29.8","98.80","21.73","30.00","42.35","16.59","23.37","0","24.25"
"J.J. Barea","J.J.-Barea-18605","4400","PG/SG","47.28","214.5","19.6","100.08","30.87","20.00","36.55","15.26","20.96","0","31.0"
"Frank Ntilikina","Frank-Ntilikina-37796","3300","PG","41.13","215.5","19.1","100.17","16.27","25.00","29.5","13.69","15.7","0","7.75"
"JaVale McGee","JaVale-McGee-1485","5700","C","55.14","220.5","22.3","112.50","18.03","24.00","45.9","16.92","27.16","0","26.25"
"Julius Randle","Julius-Randle-18632","7000","PF/C","55.83","237","27.3","104.88","25.22","26.00","55.63","24.76","33.19","0","42.5"
"Jaylen Brown","Jaylen-Brown-35181","4300","SG/SF","36.65","215.5","26.9","101.75","19.80","26.00","36.67","14.88","20.35","0","24.25"
"Maxi Kleber","Maxi-Kleber-37845","3100","PF","45.73","214.5","17.8","100.08","11.04","18.00","28.3","12.09","14.62","0","19.5"
"Ricky Rubio","Ricky-Rubio-1001","6500","PG","43.45","222.5","29.6","98.88","24.36","30.00","48.97","16.36","30.7","0","0"
"Paul Millsap","Paul-Millsap-1335","5900","PF/C","55.37","220","24.7","99.62","22.15","28.00","46.43","17.66","27.77","0","43.75"
"Mikal Bridges","Mikal-Bridges-408842","4000","SF","42.94","217","22.2","108.80","16.22","26.00","22.87","3.89","18.79","0","17.5"
"Jonas Valanciunas","Jonas-Valanciunas-13301","5600","C","54.55","","18.7","105.50","23.00","20.00","52.55","22.79","26.29","0","46.25"
"Jae Crowder","Jae-Crowder-13942","4400","SF/PF","37.01","222.5","27.1","98.88","17.81","27.00","40.74","15.81","20.64","0","28.25"
"Juan Hernangomez","Juan-Hernangomez-35212","4700","SF/PF","55.37","220","28.1","99.62","13.48","30.00","42.73","14.51","21.99","0","18.5"
"Damion Lee","Damion-Lee-35995","3000","SG","46.06","223","13.2","103.10","13.31","18.00","26.55","11.73","14.02","0","18.0"
"Damian Lillard","Damian-Lillard-13900","9200","PG","45.50","226","36.0","104.50","34.36","36.00","64.46","20.76","42.89","0","37.0"
"LaMarcus Aldridge","LaMarcus-Aldridge-1349","7700","PF/C","51.58","199.5","34.0","99.70","21.66","35.00","60.91","22.76","35.79","0","42.25"
"Rondae Hollis-Jefferson","Rondae-Hollis-Jefferson-18897","5100","PF/C","44.80","214.5","20.0","114.62","24.51","24.00","47.32","18.42","23.67","0","24.0"
"Steven Adams","Steven-Adams-16848","7400","C","46.78","223","33.8","102.62","19.82","35.00","53.04","22.53","34.24","0","42.25"
"E'Twaun Moore","E'Twaun-Moore-18582","5000","SG/SF","33.25","237","32.1","104.88","20.74","33.00","42.05","15.39","23.14","0","35.5"
"Lonzo Ball","Lonzo-Ball-37885","5600","PG","45.27","220.5","24.7","112.50","18.46","28.00","40.78","13.14","25.86","0","33.75"
"Marcus Morris","Marcus-Morris-13316","5000","SF/PF","36.65","215.5","26.0","101.75","20.12","25.00","43.96","18.5","23.04","0","40.0"
"Alec Burks","Alec-Burks-13353","3000","SG","47.05","222.5","15.4","98.88","20.87","14.00","27.32","13.8","13.8","0","10.0"
"Dante Exum","Dante-Exum-18626","3300","PG/SG","43.45","222.5","15.6","98.88","20.91","17.00","30.28","12.39","15.15","0","4.75"
"Kyrie Irving","Kyrie-Irving-13334","9000","PG","47.03","215.5","33.8","101.75","32.48","34.00","66.09","21.96","41.28","0","58.5"
"Ish Smith","Ish-Smith-13958","3700","PG","42.13","214.5","21.0","100.30","19.50","21.00","30.43","11.32","17","0","20.0"
"Mason Plumlee","Mason-Plumlee-16798","3300","PF/C","57.92","220","14.9","99.62","16.15","15.00","30.18","12.34","15.1","0","27.0"
"Myles Turner","Myles-Turner-18915","5300","C","52.87","216","25.8","107.67","20.19","28.00","46.63","18.16","24.25","0","25.25"
"Paul George","Paul-George-1245","8900","SF/PF","44.82","223","35.2","102.62","32.39","36.00","66.76","25.09","40.73","0","48.25"
"Taj Gibson","Taj-Gibson-1277","4400","PF","48.76","220","27.5","100.67","17.64","24.00","32.26","11.13","20.06","0","13.5"
"Shelvin Mack","Shelvin-Mack-13354","4000","PG","43.10","199.5","25.7","103.30","16.86","22.00","33.11","13.61","18.19","0","4.75"
"Blake Griffin","Blake-Griffin-1503","9500","PF/C","57.56","214.5","32.8","100.30","26.56","36.00","64.12","19.82","43.09","0","56.75"
"LeBron James","LeBron-James-1227","11600","SF/PF","42.89","220.5","33.7","112.50","34.90","36.00","79.1","20.89","52.63","0","62.5"
"Derrick Rose","Derrick-Rose-1086","6300","PG/SG","48.91","220","34.0","100.67","24.75","30.00","52.59","24.61","28.52","0","33.5"
"Jeremy Lin","Jeremy-Lin-916","4000","PG/SG","48.62","","19.6","105.10","26.09","18.00","32.65","13.5","18.03","0","0"
"Marco Belinelli","Marco-Belinelli-1033","3700","SG/SF","39.05","199.5","22.9","99.70","19.29","20.00","28.72","12.74","16.67","0","0"
"Wesley Johnson","Wesley-Johnson-1280","3300","SF/PF","34.63","237","21.7","104.88","10.40","23.00","26.46","12.85","14.85","0","14.75"
"James Ennis","James-Ennis-18599","3900","SG/SF","35.24","214.5","26.0","101.42","12.17","28.00","32.12","13.71","17.56","0","21.5"
"Shaquille Harrison","Shaquille-Harrison-36065","3700","PG","50.06","217","19.4","104.50","19.11","20.00","31.11","12.81","16.32","0","26.0"
"Kemba Walker","Kemba-Walker-13335","9800","PG","46.44","216","38.8","103.00","33.85","36.00","67.16","21.61","43.05","0","38.5"
"Ed Davis","Ed-Davis-1265","3800","PF/C","49.02","214.5","17.0","114.62","11.30","18.00","32.8","12.28","16.59","0","31.25"
"DeAndre Bembry","DeAndre-Bembry-35198","3600","SF","37.97","","19.7","105.10","18.26","20.00","27.71","12.41","15.69","0","19.25"
"JaMychal Green","JaMychal-Green-18729","4100","SF/PF","53.87","199.5","18.0","103.30","24.30","20.00","34.89","15.52","17.72","0","16.75"
"Quinn Cook","Quinn-Cook-31771","5300","PG","46.06","223","25.0","103.10","22.78","28.00","45.62","22.82","22.82","0","23.25"
"Darren Collison","Darren-Collison-1060","5200","PG","47.85","216","27.3","107.67","16.82","28.00","36.06","13.65","22.41","0","0"
"Malik Beasley","Malik-Beasley-35213","3100","SG","38.34","220","16.1","99.62","16.86","18.00","26.69","13.35","13.35","0","15.0"
"Shaun Livingston","Shaun-Livingston-14007","3000","PG","41.04","223","17.0","103.10","15.92","17.00","24.44","9.73","12.83","0","5.0"
"Terry Rozier","Terry-Rozier-18894","4100","PG/SG","48.16","215.5","23.0","101.75","19.44","19.00","32.67","14.41","17.47","0","0.75"
"Lorenzo Brown","Lorenzo-Brown-16940","3400","PG","47.94","","12.0","105.50","21.28","18.00","28.87","14.44","14.44","0","0"
"Mitchell Robinson","Mitchell-Robinson-408821","3500","C","47.20","215.5","18.7","100.17","9.49","18.00","18.48","3.62","14.83","0","25.0"
"Darius Miller","Darius-Miller-13951","3100","SF/PF","34.63","237","22.0","104.88","11.68","22.00","26.25","13.13","13.13","0","9.5"
"Alex Abrines","Alex-Abrines-36054","3000","SG/SF","39.72","223","18.0","102.62","12.52","20.00","25.35","12.68","12.68","0","0.0"
"Gary Clark","Gary-Clark-570141","3700","SF","43.44","214.5","24.5","101.42","8.16","22.00","18.8","3.04","15.5","0","1.25"
"Kyle Korver","Kyle-Korver-1269","3100","SG/SF","32.87","220.5","18.5","103.60","13.68","18.00","25.97","10.28","12.99","0","14.25"
"DeMarre Carroll","DeMarre-Carroll-1174","3800","SF/PF","43.58","214.5","19.7","114.62","20.12","18.00","31.45","12.7","15.93","0","2.75"
"Dante Cunningham","Dante-Cunningham-1259","3900","SF/PF","40.70","199.5","22.7","99.70","9.86","26.00","30.9","11.0","16.29","0","15.5"
"Glenn Robinson","Glenn-Robinson-18621","3500","SF/PF","28.96","214.5","19.0","100.30","16.35","21.00","24.06","9.04","14.04","0","9.25"
"T.J. McConnell","T.J.-McConnell-18956","3400","PG/SG","59.00","237","14.8","108.33","16.09","16.00","26.01","11.44","13.54","0","7.75"
"Pat Connaughton","Pat-Connaughton-18939","3700","SG/SF","38.33","226","21.7","98.80","15.39","19.00","29.21","11.25","14.61","0","16.25"
"Ante Zizic","Ante-Zizic-35180","3200","C","56.77","220.5","13.0","103.60","17.76","14.00","25.29","12.65","12.65","0","0.0"
"Doug McDermott","Doug-McDermott-18583","3200","SF/PF","38.64","216","16.2","107.67","11.81","21.00","25.21","12.61","12.61","0","25.25"
"Larry Nance","Larry-Nance-18946","5600","PF/C","61.58","220.5","27.2","103.60","12.37","20.00","38.11","12.8","21.99","0","27.25"
"Nik Stauskas","Nik-Stauskas-18636","3000","SG/SF","39.75","226","14.8","104.50","18.11","17.00","23.12","9.55","11.77","0","9.0"
"Derrick White","Derrick-White-37858","4000","PG","44.09","199.5","20.7","99.70","20.19","18.00","31.14","13.45","15.58","0","7.5"
"Josh Jackson","Josh-Jackson-37890","3400","SF","42.30","217","13.5","108.80","25.76","14.00","21.6","8.26","12.96","0","13.75"
"Frank Mason","Frank-Mason-37898","3200","PG","48.93","222.5","13.3","98.20","20.41","14.00","21.33","10.44","12.12","0","3.5"
"Jamal Crawford","Jamal-Crawford-1075","3000","PG/SG","42.30","217","16.8","108.80","21.70","14.00","22.47","11.24","11.24","0","26.25"
"Landry Shamet","Landry-Shamet-408841","3200","PG","51.54","237","22.0","108.33","14.18","18.00","14.14","2.14","11.84","0","24.25"
"Jake Layman","Jake-Layman-35216","3100","PF","38.87","226","18.0","104.50","10.77","16.00","19.92","8.29","11.33","0","1.5"
"Jakob Poeltl","Jakob-Poeltl-35187","3100","C","47.52","199.5","12.5","99.70","18.91","13.00","22.49","9.99","11.25","0","5.25"
"Stanley Johnson","Stanley-Johnson-18913","3700","SF/PF","28.96","214.5","19.2","100.30","24.57","18.00","26.02","10.59","13.37","0","18.5"
"Malachi Richardson","Malachi-Richardson-35199","3400","SG","44.39","","7.0","105.50","17.77","17.00","23.81","11.91","11.91","0","1.25"
"Harry Giles","Harry-Giles-37897","3000","PF","47.08","222.5","8.6","98.20","28.72","12.00","12.41","1.93","10.44","0","4.75"
"Patrick Patterson","Patrick-Patterson-1260","3000","PF/C","55.03","223","15.0","102.62","14.26","16.00","20.67","8.76","10.34","0","5.75"
"Miles Plumlee","Miles-Plumlee-13920","3000","C","49.39","","14.0","105.10","18.06","14.00","19.81","10.3","10.3","0","0"
"Kevin Knox","Kevin-Knox-408820","4000","SF","41.36","215.5","20.3","100.17","23.01","20.00","16.85","3.3","13.52","0","24.75"
"Vince Carter","Vince-Carter-1066","3200","SG/SF","37.09","","14.1","105.10","16.78","16.00","21.61","9.48","10.81","0","0"
"Dwayne Bacon","Dwayne-Bacon-37828","3100","SG","35.92","216","19.8","103.00","16.42","15.00","19.91","9.41","10.42","0","30.5"
"Kevin Huerter","Kevin-Huerter-408969","3300","SG","37.09","","20.3","105.10","16.56","16.00","13.15","1.99","11.01","0","21.0"
"Devin Harris","Devin-Harris-1076","3200","PG/SG","47.28","214.5","15.2","100.08","17.87","14.00","21.19","10.6","10.6","0","31.75"
"Andrew Harrison","Andrew-Harrison-18950","3300","PG","35.90","220.5","15.0","103.60","18.85","15.00","21.17","8.16","10.77","0","9.0"
"Frank Jackson","Frank-Jackson-37855","3000","PG","49.84","237","9.8","104.88","23.23","14.00","11.6","1.81","9.76","0","6.0"
"Tony Snell","Tony-Snell-16872","3100","SG/SF","41.67","226","16.0","98.80","13.09","19.00","19.95","9.0","9.98","0","10.0"
"Wayne Selden","Wayne-Selden-36045","3000","SG","48.54","199.5","17.7","103.30","15.57","14.00","18.91","9.46","9.46","0","6.75"
"Maurice Harkless","Maurice-Harkless-16971","3300","SF/PF","38.87","226","0","104.50","0","14.00","10.35","10.35","10.35","0","0"
"Allonzo Trier","Allonzo-Trier-554950","3900","PG","41.36","215.5","23.4","100.17","20.32","18.00","15.16","2.97","12.17","0","13.25"
"Cameron Payne","Cameron-Payne-18941","3100","PG/SG","53.35","217","11.8","104.50","19.46","12.00","19.19","8.32","9.6","0","10.0"
"Gorgui Dieng","Gorgui-Dieng-16939","3200","PF/C","48.76","220","10.5","100.67","18.11","10.00","17.34","7.17","9.79","0","21.75"
"Zaza Pachulia","Zaza-Pachulia-1455","3200","C","49.87","214.5","8.5","100.30","20.24","10.00","19.03","7.36","9.61","0","8.0"
"Ian Clark","Ian-Clark-16922","3200","PG/SG","33.25","237","17.3","104.88","18.24","14.00","18.61","9.51","9.51","0","1.5"
"Nerlens Noel","Nerlens-Noel-18575","3400","C","46.78","223","13.0","102.62","14.27","10.00","19.69","8.53","10.02","0","11.75"
"Thon Maker","Thon-Maker-35194","3000","PF/C","52.27","226","8.8","98.80","21.33","10.00","17.17","6.96","8.59","0","23.5"
"Royce O'Neale","Royce-O'Neale-37872","3000","SF","37.01","222.5","12.6","98.88","12.87","12.00","15.32","6.36","8.55","0","9.25"
"Jordan Bell","Jordan-Bell-37877","3300","PF","50.85","223","11.0","103.10","10.77","10.00","18.65","7.83","9.33","0","4.5"
"MarShon Brooks","MarShon-Brooks-188837","3100","SG","48.54","199.5","14.7","103.30","26.38","11.00","15.86","6.15","8.75","0","11.5"
"Aron Baynes","Aron-Baynes-14114","3300","C","54.67","215.5","12.1","101.75","20.00","10.00","17.36","7.93","9.22","0","6.75"
"Malik Monk","Malik-Monk-37827","3400","SG","46.44","216","17.0","103.00","26.32","11.00","16.5","7.57","9.16","0","23.5"
"Wade Baldwin","Wade-Baldwin-35204","3000","PG","45.50","226","4.3","104.50","10.25","10.00","16.13","8.07","8.07","0","10.75"
"Bismack Biyombo","Bismack-Biyombo-13312","3000","C","49.43","216","4.7","103.00","12.03","8.00","15.77","6.45","7.89","0","0.0"
"Daniel Theis","Daniel-Theis-37784","3000","PF/C","54.67","215.5","10.0","101.75","18.09","8.00","15.55","7.1","7.86","0","4.5"
"Davis Bertans","Davis-Bertans-36051","3200","PF/C","51.58","199.5","13.6","99.70","16.91","10.00","16.47","6.59","8.24","0","21.75"
"Jose Calderon","Jose-Calderon-1071","3000","PG","42.13","214.5","11.0","100.30","12.50","12.00","14.97","5.95","7.49","0","0.0"
"Justin Anderson","Justin-Anderson-18927","3000","SF/PF","37.97","","2.0","105.10","20.00","10.00","13.6","5.53","7.41","0","11.5"
"Justin Jackson","Justin-Jackson-37895","3200","SF","32.90","222.5","12.5","98.20","11.30","11.00","13.95","6.31","7.83","0","9.75"
"Frank Kaminsky","Frank-Kaminsky-18920","3000","PF/C","50.40","216","4.0","103.00","42.10","8.00","13.93","5.99","7.28","0","17.25"
"Sterling Brown","Sterling-Brown-37821","3000","SG","38.33","226","7.0","98.80","15.64","9.00","14.33","7.17","7.17","0","18.25"
"Furkan Korkmaz","Furkan-Korkmaz-35185","3300","SG","51.54","237","16.5","108.33","18.06","12.00","15.31","7.66","7.66","0","5.5"
"Tyus Jones","Tyus-Jones-18938","3500","PG","47.17","220","14.3","100.67","12.89","10.00","15.39","7.41","7.7","0","5.5"
"Isaiah Hartenstein","Isaiah-Hartenstein-570142","3300","PF","43.44","214.5","10.2","101.42","14.69","9.00","8.24","1.33","6.79","0","9.0"
"Thabo Sefolosha","Thabo-Sefolosha-1271","3000","SF/PF","37.01","222.5","11.0","98.88","8.07","8.00","10.59","5.13","6.06","0","0.0"
"Hamidou Diallo","Hamidou-Diallo-408800","3400","SG","39.72","223","15.2","102.62","18.00","10.00","9.28","2.48","6.74","0","15.5"
"Gerald Green","Gerald-Green-13374","3400","SG/SF","44.00","214.5","9.8","101.42","24.49","8.00","13.03","5.29","6.52","0","8.25"
"Amir Johnson","Amir-Johnson-1285","3000","PF/C","48.84","237","7.5","108.33","23.97","6.00","10.45","4.37","5.67","0","9.0"
"Ryan Broekhoff","Ryan-Broekhoff-555205","3000","SG/SF","30.92","214.5","7.0","100.08","11.43","10.00","6.65","1.01","5.57","0","0"
"Shabazz Napier","Shabazz-Napier-18598","3200","PG/SG","47.61","214.5","14.5","114.62","23.40","7.00","11.55","4.72","5.78","0","11.25"
"Jalen Brunson","Jalen-Brunson-409062","3400","PG","38.73","214.5","12.0","100.08","22.55","10.00","7.2","1.09","6.03","0","0.0"
"Meyers Leonard","Meyers-Leonard-13905","3100","C","56.69","226","11.5","104.50","22.46","4.00","8.08","3.29","4.04","0","13.5"
"Raymond Felton","Raymond-Felton-1078","3100","PG/SG","44.22","223","12.2","102.62","25.48","4.00","7.4","3.29","3.7","0","0.0"
"Omri Casspi","Omri-Casspi-1270","3000","SF/PF","33.38","199.5","7.3","103.30","25.60","4.00","6.46","2.71","3.23","0","24.0"
"Damyean Dotson","Damyean-Dotson-37795","3300","SG","34.74","215.5","19.0","100.17","15.74","4.00","6.14","2.58","3.07","0","0.0"
"Ekpe Udoh","Ekpe-Udoh-1250","3000","C","53.76","222.5","3.5","98.88","15.24","2.00","3.42","1.36","1.71","0","0.0"
"Cristiano Felicio","Cristiano-Felicio-31767","3000","C","58.98","217","6.4","104.50","10.39","2.00","3.36","1.45","1.68","0","8.25"
"Troy Daniels","Troy-Daniels-17383","3000","SG","36.29","217","2.0","108.80","0.00","2.00","3.28","1.56","1.64","0","0.0"
"Raulzinho Neto","Raulzinho-Neto-31821","3000","PG","43.45","222.5","9.0","98.88","20.71","2.00","3.22","1.49","1.61","0","0.0"
"Deonte Burton","Deonte-Burton-570274","3000","SG","47.57","223","7.5","102.62","17.77","2.00","1.62","0.32","1.3","0","7.5"
"Timothe Luwawu-Cabarrot","Timothe-Luwawu-Cabarrot-35183","3200","SG","34.89","223","10.4","102.62","15.96","1.00","1.37","0.72","0.72","0","0"
