"nameCol","idCol","salaryCol","positionCol","dvpCol","ouCol","mpgCol","paceCol","usgCol","pminCol","ceilCol","floorCol","pointsCol","predictCol","actualCol"
"Marvin Bagley III","Marvin-Bagley-III-409321","5300","PF","51.66","235.5","27.0","98.20","20.86","28.00","31.45","5.61","30.99","0","37.0"
"Willie Cauley-Stein","Willie-Cauley-Stein-18951","5900","C","58.58","235.5","26.5","98.20","19.93","31.00","47.18","19.47","34.04","0","33.0"
"Serge Ibaka","Serge-Ibaka-1294","5500","PF/C","46.49","223.5","27.3","105.50","22.46","30.00","44.48","18.08","31.66","0","27.5"
"Iman Shumpert","Iman-Shumpert-13350","3600","SG/SF","34.56","235.5","27.4","98.20","14.98","26.00","30.48","14.82","20.61","0","8.5"
"Buddy Hield","Buddy-Hield-35206","5700","SG/SF","34.56","235.5","30.7","98.20","24.38","32.00","48.84","21.5","32.58","0","19.5"
"Tyreke Evans","Tyreke-Evans-1070","5000","SG/SF","53.74","218.5","23.7","107.67","24.52","26.00","41.61","17.01","28.54","0","25.5"
"Darren Collison","Darren-Collison-1060","4700","PG","37.38","218.5","26.3","107.67","18.72","30.00","35.73","15.92","26.14","0","0"
"Quinn Cook","Quinn-Cook-31771","4800","PG","48.28","223.5","27.7","103.10","18.65","32.00","37.88","15.79","26.58","0","11.0"
"Andre Iguodala","Andre-Iguodala-1334","3800","SG/SF","38.36","223.5","26.6","103.10","8.63","29.00","29.38","11.66","20.46","0","23.0"
"Kentavious Caldwell-Pope","Kentavious-Caldwell-Pope-16869","3600","SG/SF","36.84","218.5","26.0","112.50","15.73","26.00","36.96","18.31","19.15","0","16.5"
"Tyson Chandler","Tyson-Chandler-1482","3100","C","49.04","218.5","18.7","112.50","6.65","20.00","31.21","16.46","16.46","0","20.75"
"Montrezl Harrell","Montrezl-Harrell-18930","7600","PF/C","59.56","235.5","29.9","108.38","22.61","32.00","59.3","31.02","39.72","0","35.0"
"Kyle Lowry","Kyle-Lowry-1057","8000","PG","50.49","223.5","33.6","105.50","21.75","35.00","58.86","22.81","41.63","0","0"
"Brandon Ingram","Brandon-Ingram-35227","5800","SG/SF","45.70","218.5","33.3","112.50","21.76","35.00","45.47","18.65","30.13","0","27.25"
"Kyle Kuzma","Kyle-Kuzma-37886","5600","SF/PF","45.07","218.5","28.2","112.50","22.28","32.00","37.67","16.35","29.09","0","25.25"
"Bogdan Bogdanovic","Bogdan-Bogdanovic-37899","5200","SG/SF","45.76","235.5","26.0","98.20","24.42","29.00","42.81","22.61","26.89","0","41.0"
"Kevin Durant","Kevin-Durant-1348","11000","SF/PF","43.14","223.5","36.0","103.10","37.96","37.00","73.31","29.56","56.74","0","76.75"
"JaVale McGee","JaVale-McGee-1485","5100","C","49.04","218.5","21.3","112.50","16.03","25.00","36.95","16.11","26.24","0","26.5"
"Shai Gilgeous-Alexander","Shai-Gilgeous-Alexander-408990","4900","PG","55.07","235.5","27.1","108.38","21.67","30.00","29.43","9.25","25.13","0","37.75"
"De'Aaron Fox","De'Aaron-Fox-37900","7200","PG","43.45","235.5","31.5","98.20","27.64","34.00","45.49","18.84","36.86","0","39.75"
"Klay Thompson","Klay-Thompson-13315","7400","SG","38.36","223.5","34.4","103.10","30.72","37.00","50.94","21.9","37.76","0","32.75"
"Lou Williams","Lou-Williams-1044","5600","PG/SG","46.66","235.5","25.0","108.38","33.52","27.00","42.78","17.17","28.05","0","0"
"Kawhi Leonard","Kawhi-Leonard-13310","9300","SF/PF","46.29","223.5","34.8","105.50","28.20","35.00","64.29","21.32","46.45","0","56.5"
"Lonzo Ball","Lonzo-Ball-37885","5700","PG","43.39","218.5","27.3","112.50","16.35","31.00","37.85","14.33","28.44","0","20.0"
"Danilo Gallinari","Danilo-Gallinari-1329","6500","SF/PF","55.45","235.5","32.0","108.38","19.46","31.00","45.83","18.87","32.14","0","31.0"
"Kevon Looney","Kevon-Looney-18945","3800","PF/C","49.28","223.5","19.7","103.10","13.27","20.00","29.43","14.77","18.53","0","22.5"
"Jonas Valanciunas","Jonas-Valanciunas-13301","5000","C","48.67","223.5","19.1","105.50","23.52","18.00","43.98","22.44","24.39","0","18.5"
"Danny Green","Danny-Green-940","4100","SG/SF","34.05","223.5","28.4","105.50","14.33","28.00","28.63","13.63","19.69","0","0"
"Bojan Bogdanovic","Bojan-Bogdanovic-18571","5300","SG/SF","34.65","218.5","30.3","107.67","20.35","32.00","40.03","20.19","25.43","0","20.75"
"Thaddeus Young","Thaddeus-Young-1289","4500","SF/PF","45.06","218.5","26.7","107.67","17.65","27.00","31.13","11.36","21.6","0","27.75"
"LeBron James","LeBron-James-1227","10700","SF/PF","45.07","218.5","33.8","112.50","33.98","35.00","61.9","21.4","51.07","0","62.75"
"Pascal Siakam","Pascal-Siakam-35186","6100","PF","48.67","223.5","31.0","105.50","17.07","31.00","42.11","16.65","28.9","0","33.0"
"Domantas Sabonis","Domantas-Sabonis-35217","7500","PF/C","56.01","218.5","25.0","107.67","25.35","26.00","52.8","26.84","35.41","0","48.25"
"Tobias Harris","Tobias-Harris-13332","8200","SF/PF","55.45","235.5","35.6","108.38","23.43","35.00","51.11","21.03","38.03","0","43.0"
"Avery Bradley","Avery-Bradley-941","3900","SG","42.20","235.5","28.6","108.38","12.39","30.00","26.81","11.75","17.96","0","0"
"Nemanja Bjelica","Nemanja-Bjelica-31814","4200","SF/PF","51.66","235.5","20.3","98.20","15.46","20.00","31.28","12.68","19.13","0","18.25"
"Cory Joseph","Cory-Joseph-13339","4400","PG","37.38","218.5","27.4","107.67","17.61","27.00","35.33","16.21","19.94","0","28.0"
"Fred VanVleet","Fred-VanVleet-36011","4600","PG/SG","41.96","223.5","25.0","105.50","17.29","22.00","32.89","16.55","20.79","0","4.75"
"Shaun Livingston","Shaun-Livingston-14007","3000","PG","42.53","223.5","17.3","103.10","14.99","19.00","22.33","10.2","13.38","0","21.0"
"Jonas Jerebko","Jonas-Jerebko-1106","3900","SF/PF","43.14","223.5","21.3","103.10","13.01","20.00","29.64","12.75","16.51","0","39.75"
"Myles Turner","Myles-Turner-18915","6200","C","62.66","218.5","26.8","107.67","21.47","27.00","42.48","19.47","26","0","16.0"
"Frank Mason","Frank-Mason-37898","3000","PG","43.45","235.5","11.2","98.20","22.78","14.00","19.02","11.0","12.44","0","0.0"
"Patrick Beverley","Patrick-Beverley-14108","4300","PG/SG","44.49","235.5","22.7","108.38","16.29","21.00","33.48","17.51","17.51","0","6.75"
"Aaron Holiday","Aaron-Holiday-408932","3700","PG","37.38","218.5","19.2","107.67","24.39","17.00","15.93","3.67","15.04","0","10.5"
"Mike Scott","Mike-Scott-13999","3400","SF/PF","55.45","235.5","17.1","108.38","15.51","16.00","27.47","16.16","13.74","0","14.0"
"Damian Jones","Damian-Jones-35223","3400","C","49.28","223.5","18.3","103.10","10.22","18.00","23.22","9.59","13.64","0","1.5"
"Delon Wright","Delon-Wright-18907","3400","PG/SG","41.96","223.5","17.6","105.50","18.20","16.00","22.64","11.31","13.18","0","12.0"
"Marcin Gortat","Marcin-Gortat-1479","3700","C","54.98","235.5","16.3","108.38","16.35","16.00","20.77","8.41","14.08","0","18.25"
"Josh Hart","Josh-Hart-37889","3600","SG","36.84","218.5","19.8","112.50","10.86","18.00","22.8","10.65","13.43","0","23.25"
"Jordan Bell","Jordan-Bell-37877","3400","PF","49.28","223.5","9.3","103.10","12.47","14.00","20.75","10.63","12.56","0","5.0"
"Doug McDermott","Doug-McDermott-18583","3500","SF/PF","34.65","218.5","21.3","107.67","16.27","20.00","24.83","12.42","12.42","0","15.5"
"OG Anunoby","OG-Anunoby-37807","3500","SF","34.05","223.5","15.0","105.50","18.65","18.00","22.98","12.1","12.1","0","7.75"
"Lance Stephenson","Lance-Stephenson-947","3700","SG/SF","45.70","218.5","15.5","112.50","24.05","14.00","21.2","10.0","12.53","0","0"
"Damion Lee","Damion-Lee-35995","3000","SG","48.28","223.5","19.0","103.10","15.19","14.00","16.29","8.46","10.11","0","14.75"
"Harry Giles","Harry-Giles-37897","3300","PF","51.66","235.5","10.3","98.20","29.14","14.00","11.21","2.0","11.04","0","11.0"
"Justin Jackson","Justin-Jackson-37895","3000","SF","34.56","235.5","16.6","98.20","12.82","12.00","11.83","6.23","7.74","0","15.5"
"TJ Leaf","TJ-Leaf-37817","3100","PF","62.66","218.5","5.8","107.67","19.81","8.00","11.11","5.96","5.96","0","0.0"
"C.J. Miles","C.J.-Miles-1299","3100","SG/SF","34.05","223.5","11.7","105.50","25.25","7.00","8.93","4.38","5.43","0","1.5"
"Boban Marjanovic","Boban-Marjanovic-31807","3500","C","54.98","235.5","9.0","108.38","25.88","2.00","5.49","2.74","2.81","0","0.0"
"Michael Beasley","Michael-Beasley-1338","3000","SF/PF","45.07","218.5","10.5","112.50","29.18","2.00","3.22","1.62","2.09","0","11.0"
"Milos Teodosic","Milos-Teodosic-37883","3000","PG","44.49","235.5","7.5","108.38","20.11","2.00","3.35","1.53","1.69","0","6.5"
"Sviatoslav Mykhailiuk","Sviatoslav-Mykhailiuk-409280","3000","SG","34.67","218.5","8.2","112.50","18.69","2.00","1.7","0.36","1.57","0","0.0"
