"nameCol","idCol","salaryCol","positionCol","dvpCol","ouCol","mpgCol","paceCol","usgCol","pminCol","ceilCol","floorCol","pointsCol","predictCol","actualCol"
"Allen Crabbe","Allen-Crabbe-16978","3700","SG/SF","44.71","224.5","24.0","114.62","16.29","30.00","44.46","15.41","23.56","0","9.0"
"Garrett Temple","Garrett-Temple-14077","4000","SG/SF","39.90","212.5","33.4","103.30","12.86","35.00","47.64","18.3","25.41","0","30.75"
"Dwight Howard","Dwight-Howard-1501","5700","C","59.43","224.5","27.3","103.80","17.14","30.00","56.77","17.56","34.49","0","52.25"
"Mike Conley","Mike-Conley-1062","7000","PG","42.84","212.5","33.7","103.30","25.24","35.00","72.01","23.18","41.1","0","0"
"DeMarre Carroll","DeMarre-Carroll-1174","4000","SF/PF","37.86","224.5","20.0","114.62","19.74","26.00","46.27","18.68","23.44","0","21.5"
"Marc Gasol","Marc-Gasol-1493","7400","C","59.76","212.5","35.4","103.30","21.48","35.00","66.31","24.98","42.78","0","41.25"
"Pat Connaughton","Pat-Connaughton-18939","3600","SG/SF","37.11","225.5","19.0","98.80","17.52","27.00","41.4","15.95","20.71","0","18.75"
"Wendell Carter","Wendell-Carter-408878","5300","C","57.19","225.5","26.6","104.50","20.26","30.00","35.62","6.37","30.34","0","26.5"
"Gordon Hayward","Gordon-Hayward-1239","5400","SG/SF","42.92","218","26.3","101.75","17.83","32.00","52.23","17.97","30.83","0","36.25"
"D'Angelo Russell","D'Angelo-Russell-18947","6600","PG/SG","57.91","224.5","25.1","114.62","33.82","32.00","61.17","18.63","37.41","0","38.25"
"Shelvin Mack","Shelvin-Mack-13354","4200","PG","42.84","212.5","27.3","103.30","19.30","28.00","42.82","18.66","23.83","0","27.0"
"Robin Lopez","Robin-Lopez-1466","3000","C","50.19","225.5","13.8","104.50","11.13","18.00","33.98","17","17","0","9.25"
"Domantas Sabonis","Domantas-Sabonis-35217","6300","PF/C","52.92","214","25.8","107.67","19.31","29.00","61.98","27.77","35.6","0","34.5"
"Kevin Knox","Kevin-Knox-408820","4300","SF","50.00","227.5","18.2","100.17","26.63","30.00","29.37","4.99","24.13","0","22.75"
"Jusuf Nurkic","Jusuf-Nurkic-18619","7100","C","58.45","224.5","26.8","104.50","26.09","29.00","61.58","22.05","39.45","0","28.25"
"Robert Covington","Robert-Covington-16874","5300","SF/PF","39.17","224.5","33.2","100.67","12.41","37.00","48.57","19.37","29.49","0","27.75"
"Malcolm Brogdon","Malcolm-Brogdon-35195","5000","PG/SG","48.70","225.5","29.0","98.80","20.85","33.00","50.19","19.67","27.7","0","24.0"
"Khris Middleton","Khris-Middleton-13990","6900","SG/SF","39.19","225.5","29.8","98.80","26.41","34.00","72.77","27.36","38.16","0","53.0"
"Fred VanVleet","Fred-VanVleet-36011","3900","PG/SG","43.09","218","22.6","105.50","20.33","24.00","39.89","17.69","21.55","0","5.75"
"Tim Hardaway Jr.","Tim-Hardaway-Jr.-16879","6700","SG/SF","50.00","227.5","29.0","100.17","28.33","33.00","67.66","25.1","36.97","0","47.5"
"Kyle Anderson","Kyle-Anderson-18615","4800","PG/SF","37.87","212.5","32.3","103.30","12.68","35.00","41.32","14.24","26.32","0","19.25"
"De'Aaron Fox","De'Aaron-Fox-37900","6800","PG","44.50","212.5","32.2","98.20","23.91","36.00","54.61","18.89","37.25","0","46.0"
"Jeff Teague","Jeff-Teague-1005","5900","PG","43.17","224.5","35.0","100.67","27.91","32.00","54.1","16.43","32.22","0","0"
"Jarrett Allen","Jarrett-Allen-37794","5100","C","55.80","224.5","25.6","114.62","16.66","28.00","45.14","16.67","27.78","0","38.5"
"Mike Muscala","Mike-Muscala-17379","3500","PF/C","57.92","216.5","26.5","108.33","17.25","25.00","38.08","19.05","19.05","0","19.0"
"Jabari Parker","Jabari-Parker-18593","5700","SF/PF","45.63","225.5","33.0","104.50","23.28","33.00","50.38","16.7","30.93","0","35.0"
"Tyreke Evans","Tyreke-Evans-1070","4000","SG/SF","52.87","214","18.7","107.67","29.05","20.00","34.02","11.75","21.68","0","44.0"
"Derrick Favors","Derrick-Favors-1266","4500","PF/C","56.15","216.5","22.4","98.88","17.13","25.00","37.9","15.0","24.39","0","24.5"
"Markieff Morris","Markieff-Morris-13314","4500","SF/PF","62.58","224.5","25.9","103.80","17.19","27.00","42.0","13.54","24.35","0","10.5"
"Spencer Dinwiddie","Spencer-Dinwiddie-18588","5700","PG/SG","57.91","224.5","26.4","114.62","23.09","30.00","55.59","21.61","30.83","0","49.0"
"Nikola Mirotic","Nikola-Mirotic-18584","7400","SF/PF","55.15","227.5","32.0","104.88","21.10","32.00","70.39","24.75","39.86","0","30.5"
"Bogdan Bogdanovic","Bogdan-Bogdanovic-37899","4200","SG/SF","43.12","212.5","20.7","98.20","22.98","25.00","41.8","19.56","22.4","0","19.5"
"Kyrie Irving","Kyrie-Irving-13334","7700","PG","48.46","218","32.4","101.75","28.66","33.00","65.95","21.86","40.94","0","71.5"
"Danny Green","Danny-Green-940","4000","SG/SF","35.45","218","23.7","105.50","14.69","30.00","35.5","13.54","21.22","0","0"
"Marvin Bagley III","Marvin-Bagley-III-409321","4300","PF","44.53","212.5","20.6","98.20","25.29","22.00","27.07","4.21","22.77","0","8.75"
"Karl-Anthony Towns","Karl-Anthony-Towns-18937","9600","C","59.20","224.5","34.7","100.67","26.36","35.00","80.33","28.82","50.65","0","30.25"
"Andrew Wiggins","Andrew-Wiggins-18620","6100","SG/SF","41.91","224.5","35.8","100.67","22.99","37.00","49.59","18.34","32.18","0","41.75"
"Justin Holiday","Justin-Holiday-14559","4500","SG/SF","37.12","225.5","36.6","104.50","13.22","37.00","40.41","15.9","23.73","0","38.25"
"Anthony Davis","Anthony-Davis-13895","11400","PF/C","52.65","227.5","38.0","104.88","29.19","38.00","102.48","31.36","60.07","0","76.75"
"Emmanuel Mudiay","Emmanuel-Mudiay-18936","4000","PG","60.45","227.5","21.7","100.17","20.79","22.00","33.43","13.11","21.05","0","35.0"
"Al-Farouq Aminu","Al-Farouq-Aminu-1279","4900","SF/PF","39.14","224.5","29.3","104.50","10.95","30.00","46.39","19.3","25.73","0","20.5"
"Josh Richardson","Josh-Richardson-18922","6500","SG/SF","44.28","214","35.4","106.90","24.75","36.00","58.5","20.56","33.99","0","40.0"
"Joe Harris","Joe-Harris-18587","4400","SG/SF","44.71","224.5","27.3","114.62","16.93","31.00","39.27","15.28","22.87","0","18.25"
"Darren Collison","Darren-Collison-1060","4500","PG","41.16","214","29.2","107.67","16.25","30.00","37.04","14.35","23.37","0","0"
"Joe Ingles","Joe-Ingles-18627","5900","SG/SF","33.10","216.5","32.9","98.88","19.00","35.00","54.41","20.42","30.57","0","28.0"
"Iman Shumpert","Iman-Shumpert-13350","3800","SG/SF","37.79","212.5","27.2","98.20","14.56","28.00","33.55","14.04","19.64","0","21.25"
"Giannis Antetokounmpo","Giannis-Antetokounmpo-16852","11500","SF/PF","49.84","225.5","34.0","98.80","30.89","35.00","83.09","26.05","59.35","0","51.75"
"Zach LaVine","Zach-LaVine-18622","7800","PG/SG","46.59","225.5","38.4","104.50","30.57","37.00","64.8","24.37","40.15","0","29.75"
"Justise Winslow","Justise-Winslow-18921","5100","PG/SF","32.77","214","30.3","106.90","20.95","30.00","47.55","15.35","26.2","0","23.0"
"Evan Turner","Evan-Turner-1291","4400","SG/SF","54.48","224.5","26.5","104.50","18.19","29.00","39.89","18.79","22.59","0","10.25"
"Kyle Lowry","Kyle-Lowry-1057","7600","PG","48.33","218","32.0","105.50","22.44","35.00","65.06","21.0","38.89","0","0"
"Hassan Whiteside","Hassan-Whiteside-18664","7900","C","47.18","214","26.0","106.90","22.15","30.00","60.05","19.48","40.33","0","37.25"
"Mario Hezonja","Mario-Hezonja-18923","3600","SF/PF","35.59","227.5","21.4","100.17","21.52","20.00","36.64","16.24","18.33","0","0.0"
"Ersan Ilyasova","Ersan-Ilyasova-1301","3900","PF/C","49.84","225.5","22.2","98.80","13.02","22.00","36.05","13.76","19.86","0","3.75"
"Victor Oladipo","Victor-Oladipo-16807","9300","PG/SG","52.87","214","36.2","107.67","32.03","37.00","77.46","30.44","47.26","0","22.5"
"Jared Dudley","Jared-Dudley-1319","3300","SF/PF","37.86","224.5","21.9","114.62","13.47","27.00","28.76","11.62","16.72","0","10.25"
"Damian Lillard","Damian-Lillard-13900","9100","PG","49.56","224.5","34.2","104.50","29.87","36.00","69.13","22.44","46.18","0","29.0"
"Ryan Arcidiacono","Ryan-Arcidiacono-36050","4100","PG","46.05","225.5","26.1","104.50","11.58","32.00","38.57","13.36","20.78","0","12.5"
"Taj Gibson","Taj-Gibson-1277","4600","PF","52.49","224.5","29.1","100.67","17.25","28.00","37.38","12.99","23.32","0","24.5"
"Cory Joseph","Cory-Joseph-13339","3600","PG","41.16","214","26.2","107.67","9.75","26.00","36.28","14.65","18.15","0","28.5"
"Kawhi Leonard","Kawhi-Leonard-13310","9000","SG/SF","39.98","218","30.0","105.50","30.67","35.00","71.45","21.99","45.25","0","62.25"
"Enes Kanter","Enes-Kanter-13299","6500","C","60.29","227.5","25.7","100.17","26.06","25.00","53.73","23.96","32.64","0","15.25"
"Donovan Mitchell","Donovan-Mitchell-37875","7200","PG/SG","44.62","216.5","31.4","98.88","27.10","35.00","55.32","19.86","35.97","0","43.5"
"Rudy Gobert","Rudy-Gobert-16935","7500","C","52.95","216.5","32.0","98.88","15.16","34.00","61.58","18.56","37.5","0","28.0"
"C.J. McCollum","C.J.-McCollum-17121","6500","PG/SG","54.48","224.5","33.5","104.50","27.99","34.00","51.59","18.35","32.47","0","23.25"
"John Wall","John-Wall-1084","9500","PG","47.68","224.5","35.3","103.80","28.51","36.00","62.34","18.85","47.37","0","30.75"
"Jaylen Brown","Jaylen-Brown-35181","4600","SG/SF","39.24","218","29.8","101.75","21.02","29.00","41.24","16.8","22.95","0","13.5"
"J.J. Redick","J.J.-Redick-1030","5500","SG/SF","31.79","216.5","31.3","108.33","23.16","33.00","42.88","17.66","27.38","0","0"
"Jaren Jackson","Jaren-Jackson-409099","5400","PF","59.76","212.5","25.4","103.30","20.77","26.00","34.79","10.9","26.78","0","46.5"
"Elfrid Payton","Elfrid-Payton-18602","5600","PG","48.41","227.5","0","104.88","0","28.00","45.13","14.54","27.74","0","2.75"
"Nemanja Bjelica","Nemanja-Bjelica-31814","5100","SF/PF","44.53","212.5","23.6","98.20","16.04","28.00","49.08","16.59","25.17","0","22.5"
"Wayne Selden","Wayne-Selden-36045","3100","SG","55.51","212.5","16.0","103.30","14.54","20.00","30.54","14.7","15.28","0","15.0"
"Bradley Beal","Bradley-Beal-13898","8100","SG","40.86","224.5","34.0","103.80","26.52","37.00","73.17","27.27","39.92","0","32.5"
"Joel Embiid","Joel-Embiid-18578","10300","C","57.92","216.5","35.6","108.33","30.26","34.00","72.53","21.53","50.79","0","44.75"
"Eric Bledsoe","Eric-Bledsoe-1031","6800","PG/SG","46.78","225.5","28.3","98.80","23.75","30.00","57.42","20.43","33.44","0","0"
"Ricky Rubio","Ricky-Rubio-1001","5800","PG","45.02","216.5","30.1","98.88","25.25","30.00","44.55","15.14","28.41","0","0"
"Jrue Holiday","Jrue-Holiday-1073","8300","PG/SG","45.09","227.5","37.8","104.88","28.31","37.00","64.49","18.95","40.66","0","49.0"
"Buddy Hield","Buddy-Hield-35206","6200","SG/SF","37.79","212.5","28.4","98.20","28.17","31.00","53.99","20.3","30.3","0","31.0"
"Meyers Leonard","Meyers-Leonard-13905","3200","C","58.39","224.5","12.5","104.50","22.43","15.00","31.02","12.62","15.52","0","17.25"
"Willie Cauley-Stein","Willie-Cauley-Stein-18951","6400","C","48.11","212.5","27.2","98.20","23.96","31.00","52.26","19.59","31.05","0","29.0"
"Mitchell Robinson","Mitchell-Robinson-408821","3800","C","47.91","227.5","21.7","100.17","9.11","22.00","22.43","3.82","18.43","0","20.75"
"Zach Collins","Zach-Collins-37866","3600","PF","58.39","224.5","20.0","104.50","18.94","20.00","31.48","13.58","17.45","0","15.0"
"Antonio Blakeney","Antonio-Blakeney-37811","3200","PG","37.12","225.5","17.9","104.50","28.18","18.00","30.24","12.47","15.43","0","22.5"
"Terry Rozier","Terry-Rozier-18894","4000","PG/SG","46.34","218","23.8","101.75","19.06","21.00","36.06","16.36","19.22","0","8.75"
"Ben Simmons","Ben-Simmons-35184","8200","PG/SF","48.08","216.5","33.6","108.33","20.68","34.00","60.33","16.75","39.33","0","34.5"
"Bojan Bogdanovic","Bojan-Bogdanovic-18571","4900","SG/SF","39.85","214","30.3","107.67","16.94","32.00","43.83","19.43","23.5","0","24.5"
"Markelle Fultz","Markelle-Fultz-37801","3800","PG/SG","48.54","216.5","23.4","108.33","17.12","21.00","32.03","12.89","18.16","0","12.25"
"Goran Dragic","Goran-Dragic-1040","6200","PG","46.82","214","27.8","106.90","29.10","30.00","48.1","17.28","29.53","0","0"
"Jayson Tatum","Jayson-Tatum-37782","6100","SF/PF","42.92","218","32.0","101.75","20.69","32.00","42.88","15.07","28.82","0","36.75"
"Otto Porter","Otto-Porter-17069","5200","SF/PF","31.59","224.5","24.2","103.80","16.38","30.00","42.52","16.55","24.55","0","19.5"
"Thaddeus Young","Thaddeus-Young-1289","4400","SF/PF","47.57","214","25.0","107.67","17.20","26.00","34.6","11.07","20.73","0","16.5"
"Derrick Rose","Derrick-Rose-1086","7000","PG/SG","43.17","224.5","29.2","100.67","26.69","32.00","60.96","29.28","32.97","0","33.75"
"Wayne Ellington","Wayne-Ellington-1009","3800","SG/SF","32.77","214","21.9","106.90","17.50","26.00","35.66","14.31","17.84","0","0"
"Al Horford","Al-Horford-1499","6400","PF/C","59.28","218","29.0","101.75","16.96","30.00","47.39","15.8","29.92","0","29.25"
"Jimmy Butler","Jimmy-Butler-13327","7300","SG/SF","37.70","216.5","38.0","108.33","22.04","34.00","54.68","18.09","34.13","0","45.75"
"Allonzo Trier","Allonzo-Trier-554950","4200","PG","50.00","227.5","27.4","100.17","21.58","26.00","23.28","3.62","19.58","0","23.0"
"Rodney McGruder","Rodney-McGruder-16850","4800","SG/SF","37.80","214","31.7","106.90","16.89","30.00","41.12","14.95","22.24","0","20.75"
"Tyler Johnson","Tyler-Johnson-18720","4300","PG/SG","47.90","214","28.4","106.90","20.54","26.00","36.19","14.03","19.81","0","26.75"
"Brook Lopez","Brook-Lopez-1498","5400","C","73.64","225.5","27.7","98.80","16.32","29.00","43.86","16.41","24.71","0","25.25"
"Myles Turner","Myles-Turner-18915","4600","C","49.99","214","25.8","107.67","17.98","26.00","40.39","15.77","21.05","0","34.25"
"Julius Randle","Julius-Randle-18632","6700","PF/C","52.65","227.5","27.2","104.88","23.95","23.00","50.22","23.05","30.53","0","37.75"
"Jonas Valanciunas","Jonas-Valanciunas-13301","5300","C","46.71","218","20.1","105.50","23.38","20.00","48.06","20.87","24.04","0","19.75"
"Dario Saric","Dario-Saric-36004","4300","PF","48.42","224.5","28.2","100.67","18.01","21.00","38.24","15.71","19.35","0","23.75"
"Ed Davis","Ed-Davis-1265","4300","PF/C","55.80","224.5","17.6","114.62","11.22","20.00","38.29","14.33","19.37","0","10.25"
"Alec Burks","Alec-Burks-13353","3600","SG","49.43","216.5","20.0","98.88","22.67","18.00","31.68","16.04","16.04","0","8.25"
"Kelly Oubre","Kelly-Oubre-18925","4100","SG/SF","31.59","224.5","22.9","103.80","21.14","22.00","36.48","14.95","18.25","0","27.0"
"E'Twaun Moore","E'Twaun-Moore-18582","5200","SG/SF","36.87","227.5","30.2","104.88","19.86","32.00","41.87","15.81","22.94","0","17.5"
"Austin Rivers","Austin-Rivers-13903","3400","PG/SG","42.70","224.5","23.0","103.80","14.66","18.00","27.55","12.14","14.89","0","3.75"
"Jae Crowder","Jae-Crowder-13942","4700","SF/PF","34.31","216.5","27.6","98.88","21.62","29.00","40.98","15.74","20.52","0","16.5"
"Damyean Dotson","Damyean-Dotson-37795","3900","SG","36.62","227.5","27.1","100.17","15.96","21.00","33.52","14.12","16.77","0","12.0"
"Pascal Siakam","Pascal-Siakam-35186","6000","PF","46.71","218","29.9","105.50","18.17","29.00","44.75","14.66","25.72","0","36.25"
"Noah Vonleh","Noah-Vonleh-18597","4600","PF/C","50.66","227.5","22.7","100.17","15.30","22.00","31.76","12.77","19.53","0","16.0"
"Marcus Smart","Marcus-Smart-18567","3900","PG/SG","48.46","218","24.3","101.75","15.97","21.00","33.08","12.53","16.55","0","10.75"
"Jake Layman","Jake-Layman-35216","3200","PF","39.14","224.5","17.8","104.50","12.09","18.00","24.12","10.33","13.48","0","5.25"
"Shaquille Harrison","Shaquille-Harrison-36065","3500","PG","46.59","225.5","17.3","104.50","18.95","17.00","27.71","11.8","14.53","0","15.25"
"Serge Ibaka","Serge-Ibaka-1294","6200","PF/C","42.77","218","23.8","105.50","24.66","27.00","42.71","15.22","25.5","0","31.0"
"Marcus Morris","Marcus-Morris-13316","5800","SF/PF","39.24","218","26.2","101.75","22.71","26.00","45.79","19.03","23.76","0","19.25"
"MarShon Brooks","MarShon-Brooks-188837","3300","SG","55.51","212.5","15.4","103.30","23.68","15.00","24.47","9.38","13.38","0","11.5"
"Kelly Olynyk","Kelly-Olynyk-16845","3900","PF/C","52.53","214","16.7","106.90","21.63","16.00","27.61","12.23","15.68","0","10.0"
"Chandler Hutchison","Chandler-Hutchison-408877","3300","SG","39.01","225.5","18.6","104.50","14.75","18.00","16.03","2.53","13.26","0","11.5"
"Shabazz Napier","Shabazz-Napier-18598","3500","PG/SG","44.71","224.5","15.8","114.62","21.43","16.00","27.87","11.38","13.94","0","16.5"
"Wilson Chandler","Wilson-Chandler-1327","3700","SF/PF","34.42","216.5","17.0","108.33","12.96","22.00","25.63","9.89","14.54","0","7.25"
"Nik Stauskas","Nik-Stauskas-18636","3000","SG/SF","38.34","224.5","13.5","104.50","18.80","16.00","22.27","9.05","11.57","0","11.0"
"Wade Baldwin","Wade-Baldwin-35204","3000","PG","49.56","224.5","9.0","104.50","16.27","13.00","22.89","11.45","11.45","0","4.75"
"Frank Ntilikina","Frank-Ntilikina-37796","3700","PG","60.45","227.5","20.3","100.17","20.13","21.00","26.6","12.27","14.09","0","9.5"
"Dante Exum","Dante-Exum-18626","3300","PG/SG","45.02","216.5","15.0","98.88","17.90","16.00","24.91","9.83","12.46","0","14.5"
"Gorgui Dieng","Gorgui-Dieng-16939","3200","PF/C","52.49","224.5","11.3","100.67","16.52","12.00","21.24","8.77","11.98","0","13.25"
"Jeff Green","Jeff-Green-1314","4300","SF/PF","46.66","224.5","22.6","103.80","17.64","21.00","31.6","12.5","16","0","9.25"
"Delon Wright","Delon-Wright-18907","3200","PG/SG","43.09","218","16.7","105.50","15.21","15.00","23.0","9.73","11.8","0","19.0"
"Tony Snell","Tony-Snell-16872","3000","SG/SF","42.19","225.5","15.8","98.80","12.24","18.00","21.97","9.91","10.99","0","17.0"
"Harry Giles","Harry-Giles-37897","3100","PF","44.53","212.5","8.7","98.20","32.82","13.00","13.39","2.08","11.26","0","7.25"
"Tomas Satoransky ","Tomas-Satoransky--36031","3000","PG/SG","47.68","224.5","10.6","103.80","15.88","12.00","19.39","8.11","10.62","0","8.75"
"Wesley Johnson","Wesley-Johnson-1280","3500","SF/PF","37.64","227.5","23.0","104.88","10.94","20.00","24.19","12.1","12.1","0","9.75"
"OG Anunoby","OG-Anunoby-37807","3700","SF","35.45","218","23.3","105.50","19.07","20.00","25.49","12.75","12.75","0","4.5"
"Thon Maker","Thon-Maker-35194","3000","PF/C","51.52","225.5","8.0","98.80","22.22","12.00","20.25","8.21","10.13","0","17.75"
"Landry Shamet","Landry-Shamet-408841","3200","PG","48.54","216.5","23.7","108.33","15.56","17.00","12.64","1.92","10.59","0","9.25"
"Aron Baynes","Aron-Baynes-14114","3400","C","49.89","218","12.7","101.75","16.01","12.00","20.74","9.09","11.01","0","19.0"
"Darius Miller","Darius-Miller-13951","3300","SF/PF","37.64","227.5","18.5","104.88","11.52","20.00","21.27","10.64","10.64","0","20.5"
"Frank Mason","Frank-Mason-37898","3500","PG","44.50","212.5","15.2","98.20","18.14","12.00","19.8","9.69","11.25","0","4.25"
"Furkan Korkmaz","Furkan-Korkmaz-35185","3300","SG","48.54","216.5","15.5","108.33","20.12","14.00","17.57","8.79","8.79","0","7.25"
"Justin Jackson","Justin-Jackson-37895","3400","SF","37.79","212.5","14.2","98.20","14.07","14.00","16.14","7.3","9.06","0","0.0"
"Bam Adebayo","Bam-Adebayo-37835","3800","C","47.18","214","17.1","106.90","12.82","10.00","16.2","8.26","9.34","0","27.5"
"Royce O'Neale","Royce-O'Neale-37872","3200","SF","34.31","216.5","14.6","98.88","16.44","10.00","12.32","5.27","7.09","0","6.25"
"Omri Casspi","Omri-Casspi-1270","3100","SF/PF","37.87","212.5","5.0","103.30","23.00","8.00","13.47","5.68","6.74","0","9.0"
"Georges Niang","Georges-Niang-35193","3000","PF","54.69","216.5","7.6","98.88","13.33","8.00","12.27","5.58","6.17","0","0.0"
"Ian Clark","Ian-Clark-16922","3200","PG/SG","36.87","227.5","19.2","104.88","17.69","10.00","12.55","6.56","6.56","0","9.75"
"Doug McDermott","Doug-McDermott-18583","3100","SF/PF","39.85","214","11.8","107.67","11.26","10.00","12.15","6.08","6.08","0","4.0"
"Ian Mahinmi","Ian-Mahinmi-1357","3300","C","59.43","224.5","12.2","103.80","12.20","7.00","12.89","5.82","6.45","0","8.75"
"Amir Johnson","Amir-Johnson-1285","3100","PF/C","50.46","216.5","7.3","108.33","20.96","6.00","10.67","4.46","5.79","0","22.25"
"Derrick Jones","Derrick-Jones-36064","3000","SF","37.80","214","14.6","106.90","13.56","6.00","9.64","4.82","4.82","0","0.0"
"Tyus Jones","Tyus-Jones-18938","3500","PG","39.85","224.5","20.3","100.67","14.93","6.00","9.3","4.47","4.65","0","10.25"
"Malachi Richardson","Malachi-Richardson-35199","3000","SG","38.62","218","3.5","105.50","11.43","5.00","6.22","3.11","3.11","0","0.0"
"TJ Leaf","TJ-Leaf-37817","3000","PF","49.99","214","8.8","107.67","12.95","4.00","6.06","3.03","3.03","0","0.0"
"Ivan Rabb","Ivan-Rabb-37854","3000","PF","52.70","212.5","4.8","103.30","20.90","3.00","5.32","2.52","2.94","0","0.0"
"Josh Okogie","Josh-Okogie-409174","3800","SG","41.91","224.5","20.9","100.67","18.09","4.00","3.49","0.53","2.92","0","0.0"
"Semi Ojeleye","Semi-Ojeleye-37786","3000","PF","39.24","218","9.8","101.75","8.66","4.00","3.96","1.98","1.98","0","0.0"
