"nameCol","idCol","salaryCol","positionCol","dvpCol","ouCol","mpgCol","paceCol","usgCol","pminCol","ceilCol","floorCol","pointsCol","predictCol","actualCol"
"Rodney Hood","Rodney-Hood-18629","4200","SG/SF","50.41","215","28.5","103.60","18.28","34.00","57.65","19.59","30.28","0","28.5"
"Jonathon Simmons","Jonathon-Simmons-31808","3200","SG/SF","47.11","214","19.0","105.10","20.75","26.00","39.03","17.82","21.78","0","16.25"
"Kyle Korver","Kyle-Korver-1269","3300","SG/SF","39.12","215","14.8","103.60","16.71","25.00","43.02","17.0","21.52","0","30.5"
"Andre Iguodala","Andre-Iguodala-1334","3600","SG/SF","32.94","214","26.9","103.10","10.91","27.00","38.31","12.99","22.75","0","14.0"
"Ryan Arcidiacono","Ryan-Arcidiacono-36050","3600","PG","47.51","215.5","32.6","104.50","11.13","33.00","43.31","14.54","22.5","0","35.5"
"Cody Zeller","Cody-Zeller-16836","4000","C","49.54","234","26.8","103.00","14.49","28.00","41.88","14.45","24.78","0","19.25"
"Cedi Osman","Cedi-Osman-18912","5000","SF","38.72","215","31.8","103.60","15.96","35.00","47.02","13.79","30.79","0","21.0"
"Marcus Smart","Marcus-Smart-18567","4100","PG/SG","51.51","228.5","20.7","101.75","17.96","28.00","50.01","19.04","25.02","0","22.5"
"Jordan Clarkson","Jordan-Clarkson-18631","5400","PG/SG","50.41","215","25.3","103.60","30.96","30.00","64.28","32.88","32.88","0","8.5"
"D.J. Augustin","D.J.-Augustin-1064","3800","PG","42.70","214","27.9","105.10","16.07","28.00","44.26","12.4","23.1","0","0"
"Eric Gordon","Eric-Gordon-1077","4800","SG/SF","45.18","222.5","32.2","101.42","19.13","33.00","52.54","21.58","29.09","0","45.0"
"Evan Fournier","Evan-Fournier-13913","5300","SG/SF","40.70","214","30.0","105.10","22.87","30.00","48.04","17.0","31.71","0","15.25"
"Nikola Vucevic","Nikola-Vucevic-13296","7800","C","53.85","214","32.6","105.10","27.99","33.00","71.28","22.92","46.5","0","57.5"
"Tristan Thompson","Tristan-Thompson-13308","6100","C","55.84","215","30.0","103.60","18.98","33.00","58.33","21.58","36.03","0","37.75"
"Jabari Parker","Jabari-Parker-18593","6300","SF/PF","50.85","215.5","32.9","104.50","26.03","35.00","61.82","19.77","37.24","0","39.5"
"Marvin Williams","Marvin-Williams-1318","3700","SF/PF","44.18","234","28.0","103.00","12.13","28.00","42.91","18.46","21.67","0","29.0"
"Al Horford","Al-Horford-1499","5400","PF/C","60.14","228.5","28.7","101.75","15.17","30.00","50.28","16.52","31.64","0","38.5"
"Markieff Morris","Markieff-Morris-13314","4400","SF/PF","57.12","222.5","25.4","103.80","17.35","29.00","43.96","18.24","25.69","0","42.5"
"Dante Cunningham","Dante-Cunningham-1259","3700","SF/PF","51.97","215.5","24.9","99.70","9.53","26.00","38.78","15.11","21.58","0","10.75"
"Terrence Ross","Terrence-Ross-13902","4000","SG/SF","40.70","214","23.3","105.10","21.58","26.00","42.43","19.87","23.3","0","37.75"
"P.J. Tucker","P.J.-Tucker-13947","3900","SF/PF","36.28","222.5","35.0","101.42","9.82","34.00","44.88","18.88","22.45","0","32.0"
"Terry Rozier","Terry-Rozier-18894","3900","PG/SG","49.21","228.5","20.6","101.75","19.82","25.00","41.61","18.59","22.42","0","19.0"
"Nicolas Batum","Nicolas-Batum-1315","4900","SG/SF","37.65","234","27.2","103.00","16.47","28.00","46.23","20.4","28.02","0","15.75"
"Justin Holiday","Justin-Holiday-14559","4800","SG/SF","33.66","215.5","34.1","104.50","17.28","35.00","45.43","17.04","27.3","0","36.5"
"Antonio Blakeney","Antonio-Blakeney-37811","3400","PG","33.66","215.5","21.3","104.50","24.39","20.00","37.06","15.53","19.31","0","3.25"
"Wendell Carter","Wendell-Carter-408878","5200","C","51.56","215.5","23.1","104.50","20.65","30.00","38.35","12.01","29.52","0","20.0"
"Jeremy Lamb","Jeremy-Lamb-13955","5600","SG/SF","49.10","234","31.5","103.00","23.67","29.00","51.56","18.86","31.75","0","41.5"
"Jae Crowder","Jae-Crowder-13942","4200","SF/PF","34.94","206","27.2","98.88","18.29","28.00","46.96","18.1","23.6","0","24.25"
"Kevin Durant","Kevin-Durant-1348","10900","SF/PF","50.18","214","36.0","103.10","36.57","37.50","94.48","28.31","60.76","0","78.0"
"Thaddeus Young","Thaddeus-Young-1289","4100","SF/PF","49.48","206","27.4","107.67","18.45","27.00","38.48","12.01","22.74","0","12.5"
"Rudy Gobert","Rudy-Gobert-16935","7100","C","49.11","206","29.4","98.88","16.49","33.00","61.79","17.43","39.43","0","24.5"
"Gordon Hayward","Gordon-Hayward-1239","5500","SG/SF","48.84","228.5","29.3","101.75","18.17","31.00","52.8","21.09","30.47","0","19.0"
"Malcolm Brogdon","Malcolm-Brogdon-35195","5300","PG/SG","49.44","234","28.8","98.80","20.46","31.00","49.36","20.62","29.17","0","33.5"
"Otto Porter","Otto-Porter-17069","5700","SF/PF","30.96","222.5","29.6","103.80","17.49","30.00","53.8","20.93","31.06","0","31.0"
"Bryn Forbes","Bryn-Forbes-36052","3800","PG/SG","35.40","215.5","27.9","99.70","18.00","29.00","35.32","12.53","20.68","0","25.0"
"DeMar DeRozan","DeMar-DeRozan-1053","8600","SG/SF","42.48","215.5","35.6","99.70","30.83","37.00","74.38","21.91","46.72","0","0"
"Damion Lee","Damion-Lee-35995","3000","SG","47.36","214","20.0","103.10","14.52","17.00","30.62","13.56","16.2","0","10.75"
"Jonas Jerebko","Jonas-Jerebko-1106","4000","SF/PF","50.18","214","21.0","103.10","12.68","22.00","43.16","16.08","21.59","0","12.25"
"Kelly Oubre","Kelly-Oubre-18925","4300","SG/SF","30.96","222.5","21.9","103.80","21.38","27.00","39.75","16.23","23.19","0","10.5"
"Marco Belinelli","Marco-Belinelli-1033","3600","SG/SF","35.40","215.5","21.6","99.70","18.34","21.00","33.23","14.17","19.39","0","0"
"Aron Baynes","Aron-Baynes-14114","3200","C","48.87","228.5","15.1","101.75","18.83","18.00","33.14","13.17","17.26","0","15.25"
"Shaun Livingston","Shaun-Livingston-14007","3000","PG","38.57","214","16.8","103.10","16.39","18.00","30.93","12.15","16.07","0","11.75"
"Jerian Grant","Jerian-Grant-18900","3100","PG","42.70","214","16.0","105.10","13.54","19.00","32.2","14.57","16.58","0","6.0"
"Zach LaVine","Zach-LaVine-18622","7700","PG/SG","47.51","215.5","35.7","104.50","31.81","38.00","67.21","24.51","41.13","0","47.0"
"Joe Ingles","Joe-Ingles-18627","6000","SG/SF","36.75","206","31.5","98.88","17.94","34.00","57.85","20.9","31.96","0","26.5"
"Andrew Wiggins","Andrew-Wiggins-18620","5800","SG/SF","49.68","215","34.0","100.67","23.44","30.00","47.77","17.56","30.92","0","27.75"
"Brook Lopez","Brook-Lopez-1498","4700","C","51.20","234","27.7","98.80","14.74","28.00","42.98","16.6","25","0","27.5"
"Rudy Gay","Rudy-Gay-1341","6200","SF/PF","51.97","215.5","27.3","99.70","21.86","31.00","50.32","16.36","32.91","0","15.75"
"Nikola Mirotic","Nikola-Mirotic-18584","6900","SF/PF","42.99","228.5","31.3","104.88","18.48","31.00","64.37","23.07","36.45","0","34.25"
"Marcus Morris","Marcus-Morris-13316","5200","SF/PF","39.90","228.5","26.7","101.75","18.15","27.00","53.73","21.92","27.47","0","39.75"
"Alec Burks","Alec-Burks-13353","4000","SG","44.52","206","16.4","98.88","25.14","23.00","41.04","21.07","21.07","0","9.0"
"LaMarcus Aldridge","LaMarcus-Aldridge-1349","8100","PF/C","71.38","215.5","34.4","99.70","23.39","32.00","72.23","27.81","42.59","0","41.5"
"Anthony Davis","Anthony-Davis-13895","11200","PF/C","50.43","228.5","37.1","104.88","30.84","37.00","100.43","30.6","58.73","0","65.5"
"Klay Thompson","Klay-Thompson-13315","7300","SG","32.94","214","35.5","103.10","30.72","36.00","58.09","21.95","38.17","0","43.25"
"Robert Covington","Robert-Covington-16874","5900","SF/PF","35.82","215","35.0","100.67","14.55","36.00","52.78","19.74","30.74","0","44.25"
"James Ennis","James-Ennis-18599","3800","SG/SF","36.28","222.5","30.5","101.42","11.06","30.00","36.85","15.39","19.81","0","19.25"
"Bradley Beal","Bradley-Beal-13898","7400","SG","43.79","222.5","35.1","103.80","25.52","35.00","70.48","26.26","38.45","0","44.25"
"Jeff Teague","Jeff-Teague-1005","6100","PG","51.98","215","31.7","100.67","21.34","30.00","52.51","16.35","31.69","0","0"
"Royce O'Neale","Royce-O'Neale-37872","3500","SF","34.94","206","14.6","98.88","11.58","22.00","32.8","13.53","18.21","0","21.0"
"Jonathan Isaac","Jonathan-Isaac-37841","3500","PF","53.85","214","20.2","105.10","17.42","23.00","34.98","16.25","18.16","0","22.5"
"Jrue Holiday","Jrue-Holiday-1073","8300","PG/SG","51.17","228.5","35.6","104.88","31.39","37.00","67.51","20.06","42.78","0","35.5"
"Clint Capela","Clint-Capela-18610","7900","C","54.89","222.5","36.3","101.42","17.70","35.00","69.62","25.35","40.43","0","46.5"
"Kyrie Irving","Kyrie-Irving-13334","8700","PG","51.51","228.5","31.0","101.75","32.86","34.00","69.65","23.85","44.42","0","58.25"
"Derrick Favors","Derrick-Favors-1266","4800","PF/C","51.37","206","23.5","98.88","15.79","23.00","37.23","15.29","24.51","0","24.0"
"Taj Gibson","Taj-Gibson-1277","4500","PF","53.34","215","23.7","100.67","15.50","24.00","37.35","11.81","22.94","0","20.5"
"Patty Mills","Patty-Mills-13977","3800","PG/SG","49.75","215.5","23.4","99.70","16.89","25.00","34.88","15.11","19.3","0","24.25"
"Gary Clark","Gary-Clark-570141","3400","SF","52.85","222.5","19.5","101.42","7.36","22.00","21.48","4.21","17.24","0","8.5"
"Collin Sexton","Collin-Sexton-408896","5800","PG","45.93","215","31.2","103.60","26.88","35.00","39.42","9.09","29.33","0","23.75"
"Aaron Gordon","Aaron-Gordon-18601","7100","SF/PF","47.14","214","31.6","105.10","22.36","33.00","54.09","19.62","35.61","0","9.5"
"Giannis Antetokounmpo","Giannis-Antetokounmpo-16852","11600","SF/PF","48.37","234","34.5","98.80","33.07","37.00","79.95","22.48","58.1","0","59.25"
"James Harden","James-Harden-1037","11400","PG/SG","57.55","222.5","36.8","101.42","38.81","38.00","76.83","21.33","56.87","0","0"
"Tyreke Evans","Tyreke-Evans-1070","5100","SG/SF","48.25","206","23.2","107.67","24.95","23.00","40.5","14.81","25.41","0","19.75"
"Dario Saric","Dario-Saric-36004","4900","PF","44.21","215","23.7","100.67","20.26","24.00","47.73","20.5","24.35","0","16.5"
"Tony Parker","Tony-Parker-982","3500","PG","45.94","234","17.5","103.00","18.82","19.00","34.69","17.37","17.37","0","0"
"Jeff Green","Jeff-Green-1314","4000","SF/PF","45.34","222.5","23.0","103.80","18.31","26.00","39.05","15.44","19.77","0","24.0"
"Andrew Harrison","Andrew-Harrison-18950","3200","PG","42.43","215","15.0","103.60","16.95","18.00","31.03","11.95","15.76","0","3.5"
"Eric Bledsoe","Eric-Bledsoe-1031","7200","PG/SG","44.46","234","30.2","98.80","24.04","32.00","60.8","22.26","35.39","0","0"
"Damian Jones","Damian-Jones-35223","3500","C","53.80","214","17.9","103.10","9.61","20.00","33.2","12.01","17.08","0","10.5"
"Myles Turner","Myles-Turner-18915","5100","C","57.60","206","26.8","107.67","22.69","28.00","47.74","18.55","24.8","0","33.5"
"Bojan Bogdanovic","Bojan-Bogdanovic-18571","4700","SG/SF","32.27","206","31.2","107.67","20.01","32.00","42.07","18.17","22.85","0","29.25"
"Tomas Satoransky ","Tomas-Satoransky--36031","3500","PG/SG","45.53","222.5","17.1","103.80","17.00","18.00","31.06","13.0","17.01","0","16.5"
"Larry Nance","Larry-Nance-18946","5000","PF/C","56.98","215","22.0","103.60","13.54","22.00","43.45","19.28","24.19","0","37.5"
"Wesley Johnson","Wesley-Johnson-1280","3200","SF/PF","36.37","228.5","20.0","104.88","10.91","23.00","27.61","13.44","15.5","0","10.0"
"Kemba Walker","Kemba-Walker-13335","9400","PG","45.30","234","36.0","103.00","34.24","35.00","71.41","22.36","45.17","0","40.0"
"Darren Collison","Darren-Collison-1060","4600","PG","47.96","206","25.2","107.67","18.21","26.00","35.72","13.43","22.13","0","0"
"Derrick Rose","Derrick-Rose-1086","6700","PG/SG","51.98","215","31.5","100.67","23.67","28.00","58.19","27.47","31.94","0","21.25"
"Malik Monk","Malik-Monk-37827","3300","SG","45.30","234","16.4","103.00","27.24","18.00","28.07","12.98","15.69","0","12.25"
"Ricky Rubio","Ricky-Rubio-1001","6500","PG","43.24","206","26.8","98.88","26.79","30.00","47.52","16.28","30.72","0","0"
"Karl-Anthony Towns","Karl-Anthony-Towns-18937","10000","C","51.23","215","33.4","100.67","27.68","35.00","74.37","25.88","47.22","0","38.5"
"Michael Carter-Williams","Michael-Carter-Williams-16800","3000","PG","57.55","222.5","2.7","101.42","24.90","15.00","24.89","11.07","14.08","0","-0.5"
"John Wall","John-Wall-1084","9000","PG","45.53","222.5","32.6","103.80","30.74","35.00","55.59","16.81","42.24","0","59.75"
"Austin Rivers","Austin-Rivers-13903","3600","PG/SG","40.36","222.5","20.4","103.80","17.23","21.00","31.17","13.73","16.85","0","13.25"
"Jayson Tatum","Jayson-Tatum-37782","6400","SF/PF","48.84","228.5","29.0","101.75","21.50","32.00","44.46","16.02","29.88","0","38.75"
"Kevon Looney","Kevon-Looney-18945","3800","PF/C","53.80","214","20.4","103.10","13.44","17.00","33.43","14.16","17.68","0","14.5"
"Ersan Ilyasova","Ersan-Ilyasova-1301","3300","PF/C","48.37","234","15.8","98.80","17.82","17.00","28.08","12.86","15.33","0","0.0"
"Quinn Cook","Quinn-Cook-31771","5100","PG","47.36","214","27.2","103.10","20.14","29.00","39.49","14.65","23.56","0","26.0"
"Davis Bertans","Davis-Bertans-36051","3600","PF/C","71.38","215.5","12.7","99.70","19.16","18.00","31.67","13.28","16.58","0","9.5"
"Aaron Holiday","Aaron-Holiday-408932","3600","PG","47.96","206","19.8","107.67","27.24","22.00","19.58","3.05","16.47","0","19.0"
"Khris Middleton","Khris-Middleton-13990","7500","SG/SF","50.15","234","31.2","98.80","24.18","31.00","63.19","23.17","34.03","0","31.25"
"Dante Exum","Dante-Exum-18626","3400","PG/SG","43.24","206","18.5","98.88","17.86","18.00","30.88","12.65","15.45","0","13.25"
"Julius Randle","Julius-Randle-18632","7600","PF/C","50.43","228.5","28.1","104.88","25.64","26.00","56.06","25.84","34.31","0","26.75"
"Cory Joseph","Cory-Joseph-13339","4500","PG","47.96","206","27.8","107.67","19.35","30.00","40.6","15.37","20.31","0","21.25"
"Tyus Jones","Tyus-Jones-18938","3300","PG","45.05","215","14.9","100.67","12.10","17.00","29.25","14.09","14.63","0","7.0"
"E'Twaun Moore","E'Twaun-Moore-18582","5400","SG/SF","36.28","228.5","33.8","104.88","22.58","32.00","42.51","16.11","23.42","0","7.5"
"Domantas Sabonis","Domantas-Sabonis-35217","6800","PF/C","50.76","206","26.0","107.67","22.49","26.00","51.99","22.39","29.54","0","38.0"
"Jordan Bell","Jordan-Bell-37877","3400","PF","53.80","214","8.4","103.10","14.21","14.00","28.37","11.92","14.19","0","13.5"
"Mohamed Bamba","Mohamed-Bamba-409026","3300","C","47.99","214","12.6","105.10","18.67","14.00","16.37","3.21","13.14","0","23.0"
"Gorgui Dieng","Gorgui-Dieng-16939","3400","PF/C","53.34","215","13.6","100.67","18.09","12.00","24.22","9.8","13.48","0","4.5"
"Jakob Poeltl","Jakob-Poeltl-35187","3200","C","53.70","215.5","12.1","99.70","18.87","12.00","24.91","11.04","12.46","0","21.0"
"Isaiah Hartenstein","Isaiah-Hartenstein-570142","3200","PF","52.85","222.5","8.8","101.42","12.55","17.00","15.46","3.03","12.41","0","0.0"
"Pat Connaughton","Pat-Connaughton-18939","3400","SG/SF","38.80","234","20.2","98.80","13.46","16.00","25.33","10.3","12.67","0","25.25"
"Doug McDermott","Doug-McDermott-18583","3200","SF/PF","32.27","206","20.6","107.67","12.58","20.00","23.81","11.91","11.91","0","32.5"
"Thomas Bryant ","Thomas-Bryant--37884","3400","C","57.12","222.5","12.0","103.80","16.79","19.00","25.25","12.63","12.63","0","13.75"
"Darius Miller","Darius-Miller-13951","3100","SF/PF","36.37","228.5","23.0","104.88","11.70","19.00","22.57","11.29","11.29","0","17.5"
"Shaquille Harrison","Shaquille-Harrison-36065","3300","PG","46.30","215.5","18.1","104.50","19.00","15.00","22.72","9.36","11.92","0","18.5"
"Michael Kidd-Gilchrist","Michael-Kidd-Gilchrist-13896","3400","SF/PF","37.65","234","0","103.00","0","13.00","24.06","10.49","12.25","0","23.25"
"Dwayne Bacon","Dwayne-Bacon-37828","3100","SG","39.82","234","19.3","103.00","20.30","13.00","21.58","9.44","10.93","0","0.0"
"Miles Bridges","Miles-Bridges-409262","3600","SF","44.18","234","20.8","103.00","11.72","14.00","14.94","2.49","12.45","0","10.25"
"Chandler Hutchison","Chandler-Hutchison-408877","3100","SG","34.24","215.5","20.5","104.50","15.97","14.00","12.74","2.06","10.5","0","9.0"
"Danuel House","Danuel-House-36029","3000","SG/SF","57.55","222.5","0","101.42","0","16.00","9.9","9.9","9.9","0","8.75"
"Semi Ojeleye","Semi-Ojeleye-37786","3000","PF","39.90","228.5","18.5","101.75","12.55","15.00","19.21","9.61","9.61","0","3.5"
"Thabo Sefolosha","Thabo-Sefolosha-1271","3100","SF/PF","34.94","206","10.8","98.88","10.68","11.00","17.14","8.31","9.85","0","1.5"
"Robin Lopez","Robin-Lopez-1466","3000","C","54.62","215.5","16.6","104.50","18.45","13.00","18.85","9.43","9.43","0","10.25"
"Frank Jackson","Frank-Jackson-37855","3000","PG","51.17","228.5","13.5","104.88","18.86","15.00","11.2","1.81","9.23","0","1.0"
"Raul Neto","Raul-Neto-31821","3000","PG","43.24","206","9.3","98.88","22.96","10.00","17.59","8.12","8.8","0","12.75"
"Tony Snell","Tony-Snell-16872","3000","SG/SF","40.15","234","15.7","98.80","13.89","13.00","17.08","7.31","8.56","0","6.75"
"Cheick Diallo","Cheick-Diallo-35225","3300","PF","47.08","228.5","11.4","104.88","14.97","10.00","18.53","7.76","9.27","0","0.0"
"Matthew Dellavedova","Matthew-Dellavedova-16839","3100","PG/SG","44.46","234","7.5","98.80","16.40","8.00","16.75","7.78","8.38","0","1.5"
"Thon Maker","Thon-Maker-35194","3000","PF/C","52.71","234","12.2","98.80","20.02","9.00","15.56","6.36","7.8","0","2.0"
"Sterling Brown","Sterling-Brown-37821","3200","SG","38.80","234","11.6","98.80","17.69","9.00","15.77","7.89","7.89","0","2.75"
"Ante Zizic","Ante-Zizic-35180","3100","C","55.84","215","12.7","103.60","15.88","8.00","15.15","7.58","7.58","0","2.5"
"Ian Clark","Ian-Clark-16922","3100","PG/SG","36.28","228.5","15.2","104.88","16.74","10.00","12.97","6.44","6.71","0","-0.5"
"Donte DiVincenzo","Donte-DiVincenzo-408950","3000","SG","38.80","234","6.0","98.80","13.33","9.00","8.05","1.58","6.46","0","13.0"
"Derrick White","Derrick-White-37858","3500","PG","47.61","215.5","15.4","99.70","18.25","9.00","14.45","6.25","7.23","0","21.5"
"Frank Kaminsky","Frank-Kaminsky-18920","3300","PF/C","54.78","234","14.0","103.00","25.50","7.00","12.84","5.54","6.73","0","7.0"
"Grayson Allen","Grayson-Allen-409227","3200","SG","36.75","206","8.2","98.88","31.51","8.00","8.15","1.46","6.38","0","6.0"
"Wesley Iwundu","Wesley-Iwundu-37839","3000","SG","33.91","214","16.9","105.10","10.59","8.00","10.19","3.57","5.39","0","4.0"
"Devonte' Graham","Devonte'-Graham-408968","3000","PG","45.94","234","10.8","103.00","13.93","7.00","6.13","1.02","5.11","0","0.0"
"TJ Leaf","TJ-Leaf-37817","3100","PF","57.60","206","5.8","107.67","21.44","6.00","9.02","4.51","4.51","0","2.5"
"Cameron Payne","Cameron-Payne-18941","3100","PG/SG","47.51","215.5","8.7","104.50","12.97","5.00","8.52","3.69","4.26","0","2.0"
"Josh Okogie","Josh-Okogie-409174","3300","SG","49.68","215","9.0","100.67","22.82","4.00","4.86","0.76","4.09","0","0.0"
"Jacob Evans","Jacob-Evans-409245","3000","SG","41.43","214","4.5","103.10","11.84","3.00","3.04","0.46","2.55","0","0.0"
"Cristiano Felicio","Cristiano-Felicio-31767","3000","C","54.62","215.5","6.4","104.50","14.20","2.00","3.52","1.52","1.76","0","0.0"
