"nameCol","idCol","salaryCol","positionCol","dvpCol","ouCol","mpgCol","paceCol","usgCol","pminCol","ceilCol","floorCol","pointsCol","predictCol","actualCol"
"Ivan Rabb","Ivan-Rabb-37854","3600","PF/C","50.32","206","13.3","103.30","16.64","29.00","49.37","6.78","25.78","0","41.75"
"Daniel Theis","Daniel-Theis-37784","3500","PF/C","50.08","210","12.7","101.75","11.00","23.00","43.19","5.98","23.93","0","19.75"
"Bruno Caboclo","Bruno-Caboclo-18581","3600","SF/PF","39.54","206","21.9","103.30","13.05","32.00","48.88","8.58","24.45","0","18.0"
"Tyreke Evans","Tyreke-Evans-1070","4200","SG/SF","49.19","218","21.4","107.67","22.17","25.00","49.2","15.59","27.21","0","26.0"
"Jaren Jackson","Jaren-Jackson-409099","5200","PF/C","52.97","206","26.2","103.30","20.61","32.00","46.69","26.41","33.35","0","41.5"
"Kelly Olynyk","Kelly-Olynyk-16845","3900","PF/C","52.54","211.5","21.9","106.90","16.73","26.00","36.84","10.64","23.97","0","16.0"
"Jaylen Brown","Jaylen-Brown-35181","4900","SG/SF","39.31","210","25.4","101.75","22.78","31.00","59.81","6.79","29.92","0","25.25"
"Larry Nance","Larry-Nance-18946","5800","PF/C","50.67","210","22.7","103.60","15.44","30.00","64.72","11.35","34.7","0","30.0"
"Alec Burks","Alec-Burks-13353","5100","PG/SG","44.76","210","31.3","103.60","17.70","35.00","52.02","12.38","29.98","0","32.5"
"Steven Adams","Steven-Adams-16848","6200","C","51.65","224","33.2","102.62","18.28","35.00","62.34","16.56","36.31","0","24.0"
"Jordan Clarkson","Jordan-Clarkson-18631","5200","PG/SG","44.76","210","26.3","103.60","25.78","32.00","60.95","10.61","30.49","0","18.5"
"Marvin Williams","Marvin-Williams-1318","4900","SF/PF","50.27","223","32.7","103.00","13.02","32.00","55.99","6.39","28.15","0","32.75"
"Boban Marjanovic","Boban-Marjanovic-31807","3500","C","53.22","223","15.5","108.38","22.38","16.00","37.5","3.21","19.96","0","0.0"
"Gordon Hayward","Gordon-Hayward-1239","5000","SF/PF","48.75","210","22.7","101.75","19.11","28.00","56.89","10.05","28.46","0","36.0"
"Aaron Gordon","Aaron-Gordon-18601","6200","SF/PF","48.41","224","35.3","105.10","21.68","35.00","59.83","14.42","34.99","0","46.5"
"Justin Holiday","Justin-Holiday-14559","4700","SG/SF","39.54","206","33.7","103.30","15.67","37.00","46.69","15.11","26.47","0","37.75"
"Dennis Smith Jr.","Dennis-Smith-Jr.-37847","5700","PG","51.87","207","31.6","100.17","25.82","30.00","53.88","13.11","31.9","0","39.25"
"Collin Sexton","Collin-Sexton-408896","4200","PG","50.11","210","28.9","103.60","24.14","34.00","32.8","18.56","23.43","0","41.0"
"Karl-Anthony Towns","Karl-Anthony-Towns-18937","9700","C","50.85","206","31.8","100.67","28.88","36.00","84.77","28.42","53.82","0","54.5"
"Jerryd Bayless","Jerryd-Bayless-1021","5400","PG/SG","41.85","206","35.6","100.67","22.27","37.00","56.08","10.32","29.99","0","19.5"
"Julian Washburn","Julian-Washburn-760293","3000","SG/SF","38.52","206","13.2","103.30","5.26","20.00","23.17","12.51","16.55","0","0"
"Serge Ibaka","Serge-Ibaka-1294","6200","PF/C","47.80","231","31.6","105.50","20.41","33.00","58.12","13.82","34.21","0","38.0"
"Domantas Sabonis","Domantas-Sabonis-35217","5600","PF/C","56.75","218","22.0","107.67","20.78","25.00","57.87","4.52","30.78","0","28.25"
"Russell Westbrook","Russell-Westbrook-1083","11400","PG","53.39","224","36.1","102.62","32.23","36.00","87.85","34.32","62.75","0","63.75"
"Deng Adel","Deng-Adel-554989","3100","SF/PF","34.62","210","11.4","103.60","10.21","28.00","23.87","12.89","17.05","0","7.5"
"Andrew Wiggins","Andrew-Wiggins-18620","6000","SG/SF","41.85","206","37.0","100.67","27.69","37.00","50.15","12.73","32.8","0","23.5"
"DeAndre Jordan","DeAndre-Jordan-1486","6200","C","51.83","207","30.3","100.17","12.11","30.00","47.33","20.73","33.81","0","20.5"
"Jayson Tatum","Jayson-Tatum-37782","5800","SF/PF","48.75","210","29.3","101.75","20.64","31.00","46.09","12.28","31.57","0","44.75"
"Ben Simmons","Ben-Simmons-35184","8600","PG/SF","40.95","231","37.5","108.33","24.68","35.00","67.82","27.97","46.77","0","40.75"
"Dion Waiters","Dion-Waiters-13897","3800","SG/SF","43.73","211.5","23.9","106.90","17.24","25.00","40.24","6.59","20.52","0","14.75"
"Dennis Schroder","Dennis-Schroder-18595","4800","PG/SG","53.39","224","25.6","102.62","23.29","26.00","41.79","6.97","25.83","0","26.0"
"Evan Fournier","Evan-Fournier-13913","5200","SG/SF","41.93","224","32.0","105.10","18.90","35.00","43.7","10.03","27.94","0","43.75"
"Myles Turner","Myles-Turner-18915","6500","C","58.94","218","30.9","107.67","20.58","30.00","68.22","11.63","34.93","0","32.75"
"Mike Muscala","Mike-Muscala-17379","3400","PF/C","52.76","231","20.7","108.33","15.76","23.00","29.33","8.09","18.23","0","14.0"
"Joel Embiid","Joel-Embiid-18578","10500","C","52.76","231","35.1","108.33","39.51","35.00","89.93","38.35","56.31","0","65.25"
"Malik Monk","Malik-Monk-37827","3800","PG/SG","51.74","223","20.7","103.00","25.73","22.00","39.33","5.68","20.22","0","13.5"
"Andre Drummond","Andre-Drummond-13904","8300","C","55.12","207","31.7","100.30","21.75","34.00","61.6","22.79","44","0","50.0"
"Patrick Beverley","Patrick-Beverley-14108","5200","PG/SG","43.36","223","34.7","108.38","12.49","33.00","48.8","10.3","27.48","0","28.0"
"Al-Farouq Aminu","Al-Farouq-Aminu-1279","4800","SF/PF","37.88","211.5","24.8","104.50","12.66","31.00","37.13","7.15","25.26","0","8.25"
"Lou Williams","Lou-Williams-1044","7300","PG/SG","49.77","223","28.7","108.38","35.61","30.00","76.28","8.47","38.16","0","47.75"
"Bam Adebayo","Bam-Adebayo-37835","4200","PF/C","51.31","211.5","22.4","106.90","14.94","22.00","36.53","5.6","21.86","0","12.0"
"Kemba Walker","Kemba-Walker-13335","8700","PG","51.74","223","35.1","103.00","26.85","35.00","84.07","21.67","45.15","0","60.25"
"Reggie Bullock","Reggie-Bullock-16943","4200","SG/SF","40.56","207","29.8","100.30","15.71","34.00","40.07","10.55","21.79","0","36.75"
"Damian Lillard","Damian-Lillard-13900","8900","PG","49.41","211.5","35.6","104.50","33.55","35.00","74.85","22.59","45.92","0","34.25"
"Nikola Vucevic","Nikola-Vucevic-13296","9600","C","52.84","224","33.2","105.10","29.31","34.00","73.71","17.76","49.34","0","36.25"
"Mike Conley","Mike-Conley-1062","8200","PG","40.02","206","35.7","103.30","26.64","36.00","74.73","15.87","42.1","0","50.25"
"Pascal Siakam","Pascal-Siakam-35186","6300","PF/C","54.37","231","33.0","105.50","21.91","33.00","50.99","15.9","32.31","0","28.5"
"Kawhi Leonard","Kawhi-Leonard-13310","9300","SF/PF","47.79","231","33.8","105.50","28.89","35.00","70.45","18.12","47.57","0","42.75"
"Jusuf Nurkic","Jusuf-Nurkic-18619","8100","C","48.80","211.5","31.4","104.50","26.16","30.00","64.96","19.04","41.48","0","24.25"
"Shai Gilgeous-Alexander","Shai-Gilgeous-Alexander-408990","4400","PG/SG","43.36","223","25.8","108.38","21.27","28.00","31.5","15.64","22.5","0","11.75"
"Justise Winslow","Justise-Winslow-18921","5800","PG/SF","49.18","211.5","33.2","106.90","19.78","32.00","51.25","14.23","29.59","0","24.0"
"Blake Griffin","Blake-Griffin-1503","8800","PF/C","58.78","207","37.0","100.30","32.03","36.00","83.14","25.19","44.82","0","47.5"
"Jimmy Butler","Jimmy-Butler-13327","7500","SG/SF","49.68","231","34.8","108.33","20.56","35.00","59.71","20.32","38.2","0","30.25"
"Al Horford","Al-Horford-1499","6600","PF/C","51.49","210","29.2","101.75","21.81","31.00","53.79","16.98","33.43","0","34.0"
"Darren Collison","Darren-Collison-1060","6400","PG","36.84","218","30.6","107.67","21.30","32.00","54.56","15.03","32.19","0","26.0"
"Terrance Ferguson","Terrance-Ferguson-37871","3600","SG/SF","39.54","224","31.2","102.62","12.17","31.00","36.2","4.02","18.11","0","17.25"
"Avery Bradley","Avery-Bradley-941","3700","SG/SF","37.35","223","32.1","108.38","14.98","30.00","35.26","5.62","18.56","0","12.0"
"Kyle Lowry","Kyle-Lowry-1057","7000","PG","51.40","231","36.1","105.50","22.58","30.00","60.83","17.07","35.06","0","35.25"
"Wesley Matthews","Wesley-Matthews-1339","3900","SG/SF","37.62","207","27.6","100.17","14.23","26.00","37.73","4.87","19.49","0","23.5"
"Reggie Jackson","Reggie-Jackson-13352","5500","PG/SG","52.93","207","32.7","100.30","22.26","30.00","41.75","14.64","27.52","0","34.5"
"Matthew Dellavedova","Matthew-Dellavedova-16839","3500","PG/SG","39.35","210","19.3","103.60","18.77","22.00","34.9","4.37","17.46","0","15.5"
"J.J. Redick","J.J.-Redick-1030","5500","SG/SF","35.38","231","31.3","108.33","21.60","32.00","46.16","11.09","27.38","0","0.0"
"Bojan Bogdanovic","Bojan-Bogdanovic-18571","6000","SG/SF","36.41","218","33.0","107.67","21.70","34.00","47.51","9.17","29.77","0","34.25"
"Tobias Harris","Tobias-Harris-13332","7900","SF/PF","49.60","223","35.5","108.38","23.25","36.00","62.64","17.84","39.2","0","50.25"
"Kyle Kuzma","Kyle-Kuzma-37886","5800","SF/PF","46.73","218","27.7","112.50","21.07","32.00","42.56","14.94","28.68","0","12.75"
"Terry Rozier","Terry-Rozier-18894","6700","PG/SG","49.71","210","25.4","101.75","21.16","32.00","57.89","11.37","33.04","0","24.25"
"Terrence Ross","Terrence-Ross-13902","5000","SG/SF","41.93","224","29.3","105.10","22.74","29.00","49.22","5.1","24.62","0","42.25"
"Josh Richardson","Josh-Richardson-18922","5900","SG/SF","43.73","211.5","35.9","106.90","18.51","35.00","46.34","11.72","29.02","0","30.5"
"D.J. Augustin","D.J.-Augustin-1064","4700","PG","39.06","224","28.5","105.10","19.73","28.00","41.02","10.87","22.93","0","17.5"
"Noah Vonleh","Noah-Vonleh-18597","5200","PF/C","51.81","207","27.5","100.17","15.71","27.00","44.02","11.4","25.33","0","15.25"
"Dwyane Wade","Dwyane-Wade-967","5200","PG/SG","43.73","211.5","25.8","106.90","28.52","25.00","39.26","7.6","25.18","0","39.25"
"Damyean Dotson","Damyean-Dotson-37795","3800","SG/SF","34.89","207","23.6","100.17","15.86","23.00","32.31","8.5","18.36","0","14.75"
"Paul George","Paul-George-1245","10200","SF/PF","49.10","224","37.9","102.62","31.67","37.00","77.81","22.87","49.28","0","60.0"
"Montrezl Harrell","Montrezl-Harrell-18930","6600","PF/C","57.71","223","29.7","108.38","18.91","28.00","56.3","9.35","31.81","0","38.5"
"Tyler Johnson","Tyler-Johnson-18720","4100","PG/SG","49.18","211.5","27.7","106.90","18.39","25.00","32.05","6.41","19.77","0","9.75"
"Josh Hart","Josh-Hart-37889","3600","SG/SF","37.06","218","23.0","112.50","12.80","22.00","33.93","3.26","17.32","0","0.0"
"Cody Zeller","Cody-Zeller-16836","4000","C","58.79","223","0","103.00","0","22.00","36.15","7.5","19.23","0","26.25"
"Marcus Smart","Marcus-Smart-18567","5300","PG/SG","55.38","210","28.7","101.75","17.73","30.00","41.58","10.74","25.46","0","32.25"
"Luol Deng","Luol-Deng-1328","3300","SF/PF","37.19","206","18.9","100.67","15.07","20.00","31.5","4.6","15.76","0","32.25"
"Jerami Grant","Jerami-Grant-18576","5300","PF","49.10","224","34.2","102.62","15.45","34.00","50.43","3.28","25.23","0","38.25"
"Taj Gibson","Taj-Gibson-1277","4200","PF/C","47.27","206","25.1","100.67","14.95","26.00","35.08","8.22","19.99","0","3.25"
"Brandon Ingram","Brandon-Ingram-35227","5900","SG/SF","47.05","218","38.0","112.50","21.71","35.00","42.61","11.85","28.09","0","20.5"
"Hassan Whiteside","Hassan-Whiteside-18664","6900","C","51.31","211.5","24.1","106.90","24.39","25.00","45.65","14.97","32.61","0","54.75"
"Josh Okogie","Josh-Okogie-409174","3600","SG/SF","41.85","206","27.2","100.67","16.37","25.00","23.79","13.74","16.99","0","16.75"
"Thaddeus Young","Thaddeus-Young-1289","6100","SF/PF","44.64","218","30.1","107.67","19.83","33.00","48.85","12.42","28.82","0","42.25"
"Danny Green","Danny-Green-940","4100","SG/SF","35.11","231","24.1","105.50","13.87","28.00","29.95","6.58","19.3","0","12.5"
"Cory Joseph","Cory-Joseph-13339","4400","PG/SG","36.84","218","28.9","107.67","14.19","26.00","38.17","6.09","20.7","0","25.5"
"Tony Parker","Tony-Parker-982","3400","PG","44.25","223","17.5","103.00","28.33","17.00","28.36","4.17","15.97","0","6.75"
"T.J. McConnell","T.J.-McConnell-18956","3500","PG/SG","40.95","231","22.2","108.33","15.65","21.00","32.6","3.49","16.31","0","16.25"
"LeBron James","LeBron-James-1227","10700","SF/PF","46.73","218","40.4","112.50","31.71","35.00","75.29","28.46","49.76","0","40.25"
"Kevin Knox","Kevin-Knox-408820","5300","SF/PF","46.26","207","31.0","100.17","23.37","32.00","34.4","14.28","24.57","0","21.25"
"Fred VanVleet","Fred-VanVleet-36011","4600","PG/SG","39.46","231","27.9","105.50","20.25","25.00","40.39","5.68","21.26","0","11.75"
"Dario Saric","Dario-Saric-36004","3800","PF","41.95","206","20.2","100.67","11.70","20.00","29.8","4.11","17.49","0","39.25"
"Rajon Rondo","Rajon-Rondo-1085","6800","PG","37.89","218","38.0","112.50","19.01","34.00","47.14","10.03","31.24","0","13.0"
"Nicolas Batum","Nicolas-Batum-1315","5100","SG/SF","34.94","223","33.1","103.00","14.10","32.00","40.09","9.97","23.08","0","21.5"
"Jonah Bolden","Jonah-Bolden-554969","3300","PF/C","47.32","231","12.2","108.33","15.24","15.00","20.78","11.22","14.84","0","7.5"
"David Nwaba","David-Nwaba-36526","3600","SG/SF","34.62","210","15.2","103.60","21.32","20.00","32.24","3.45","16.13","0","16.75"
"Jeremy Lamb","Jeremy-Lamb-13955","5800","SG/SF","47.84","223","25.0","103.00","21.48","28.00","44.22","12.08","25.86","0","35.0"
"Luke Kennard","Luke-Kennard-37814","3600","SG/SF","36.01","207","20.8","100.30","17.46","20.00","30.03","5.19","16.07","0","7.25"
"Michael Kidd-Gilchrist","Michael-Kidd-Gilchrist-13896","3600","SF/PF","34.94","223","20.3","103.00","16.66","20.00","32.02","6.52","16.02","0","9.0"
"Shelvin Mack","Shelvin-Mack-13354","4500","PG/SG","40.02","206","21.9","103.30","19.76","25.00","34.56","3.31","19.84","0","6.0"
"Khem Birch","Khem-Birch-37838","3100","PF/C","51.83","224","15.8","105.10","8.44","14.00","21.53","3.95","13.67","0","16.25"
"C.J. McCollum","C.J.-McCollum-17121","7100","PG/SG","44.62","211.5","32.7","104.50","30.57","34.00","51.59","17.12","31.25","0","46.75"
"Isaiah Briscoe","Isaiah-Briscoe-37868","3100","PG/SG","39.06","224","14.3","105.10","13.24","19.00","19.05","10.78","13.61","0","6.25"
"Jonathan Isaac","Jonathan-Isaac-37841","5300","SF/PF","48.41","224","28.1","105.10","17.37","28.00","42.1","7.04","23.17","0","26.5"
"Mitchell Robinson","Mitchell-Robinson-408821","4000","C","51.83","207","18.5","100.17","13.09","18.00","34.8","3.83","17.41","0","31.0"
"Miles Bridges","Miles-Bridges-409262","3600","SF/PF","50.27","223","17.8","103.00","13.06","19.00","21.73","11.73","15.52","0","14.5"
"Aaron Holiday","Aaron-Holiday-408932","3400","PG/SG","36.84","218","16.8","107.67","21.90","16.00","20.34","12.19","14.53","0","26.25"
"Lance Stephenson","Lance-Stephenson-947","4200","SG/SF","47.05","218","22.8","112.50","22.38","18.00","35.02","3.57","17.84","0","18.25"
"JaVale McGee","JaVale-McGee-1485","4700","C","50.80","218","17.5","112.50","23.00","18.00","39.8","4.98","19.91","0","23.0"
"James Johnson","James-Johnson-1195","3700","PF/C","50.18","211.5","21.5","106.90","15.87","21.00","22.84","6.83","15.69","0","36.5"
"Allonzo Trier","Allonzo-Trier-554950","4700","PG/SG","46.26","207","22.4","100.17","21.66","23.00","27.45","16.45","19.61","0","7.75"
"Mike Scott","Mike-Scott-13999","3000","SF/PF","49.60","223","15.7","108.38","16.20","15.00","24.61","2.31","12.31","0","21.75"
"Gorgui Dieng","Gorgui-Dieng-16939","3400","PF/C","47.27","206","13.6","100.67","17.90","14.00","25.56","3.54","13.81","0","20.5"
"Zach Collins","Zach-Collins-37866","3400","PF/C","54.58","211.5","18.7","104.50","18.73","16.00","24.27","4.2","13.73","0","2.25"
"Landry Shamet","Landry-Shamet-408841","3300","PG/SG","35.38","231","23.7","108.33","12.86","19.00","18.45","9.96","13.18","0","9.25"
"Maurice Harkless","Maurice-Harkless-16971","3800","SF/PF","37.88","211.5","23.4","104.50","13.93","22.00","30.24","5.57","15.13","0","11.5"
"Evan Turner","Evan-Turner-1291","3900","SG/SF","44.62","211.5","18.1","104.50","13.52","20.00","24.63","4.48","15.45","0","15.25"
"Ivica Zubac","Ivica-Zubac-35226","4600","C","50.80","218","23.3","112.50","24.02","18.00","33.9","9.06","18.12","0","13.5"
"Jose Calderon","Jose-Calderon-1071","3100","PG","43.97","207","10.2","100.30","8.84","18.00","24.11","3.55","12.06","0","7.5"
"Yuta Watanabe","Yuta-Watanabe-570161","3000","SF/PF","39.54","206","0","103.30","0","14.00","16.2","8.75","11.57","0","0"
"Zaza Pachulia","Zaza-Pachulia-1455","3500","C","55.12","207","18.1","100.30","14.05","14.00","24.1","4.36","13.45","0","9.75"
"Brad Wanamaker","Brad-Wanamaker-438951","3100","PG/SG","44.20","210","13.7","101.75","14.49","12.00","16.65","9.42","11.89","0","11.0"
"Mario Hezonja","Mario-Hezonja-18923","4500","SF/PF","37.62","207","26.4","100.17","18.92","20.00","34.34","3.97","17.18","0","0.0"
"Semi Ojeleye","Semi-Ojeleye-37786","3000","SF/PF","39.31","210","4.2","101.75","14.01","16.00","22.83","3.35","11.42","0","9.75"
"Shake Milton","Shake-Milton-409061","3000","PG/SG","47.16","231","20.4","108.33","15.65","15.00","15.99","8.63","11.42","0","0.0"
"Nerlens Noel","Nerlens-Noel-18575","3600","C","51.65","224","18.0","102.62","12.59","13.00","27.25","2.2","13.68","0","8.0"
"Ante Zizic","Ante-Zizic-35180","5500","C","51.21","210","27.8","103.60","19.80","21.00","34.37","8.74","20.67","0","24.5"
"Langston Galloway","Langston-Galloway-18717","3300","PG/SG","36.01","207","20.2","100.30","16.66","18.00","24.51","3.06","12.26","0","3.5"
"Stanley Johnson","Stanley-Johnson-18913","3500","SF/PF","40.56","207","19.3","100.30","15.37","16.00","24.88","2.85","12.86","0","10.25"
"Bruce Brown","Bruce-Brown-408913","3300","PG/SG","36.01","207","18.0","100.30","10.16","20.00","16.87","8.37","12.05","0","7.25"
"Delon Wright","Delon-Wright-18907","3800","PG/SG","39.46","231","17.6","105.50","21.39","16.00","20.72","5.89","13.5","0","24.5"
"Seth Curry","Seth-Curry-16825","3700","PG/SG","37.08","211.5","24.1","104.50","16.42","18.00","25.97","3.47","12.99","0","10.25"
"Kentavious Caldwell-Pope","Kentavious-Caldwell-Pope-16869","4300","SG/SF","37.06","218","25.5","112.50","19.04","20.00","29.85","4.6","14.93","0","10.25"
"Norman Powell","Norman-Powell-18908","3700","SG/SF","34.18","231","19.2","105.50","20.87","16.00","25.07","3.42","12.54","0","16.5"
"Jaron Blossomgame","Jaron-Blossomgame-570197","3100","SF/PF","34.62","210","8.9","103.60","12.04","18.00","14.64","7.91","10.46","0","12.0"
"Wes Iwundu","Wes-Iwundu-37839","3300","SG/SF","39.48","224","17.4","105.10","15.85","18.00","21.65","2.83","10.83","0","11.25"
"Anthony Tolliver","Anthony-Tolliver-1263","3200","SF/PF","41.95","206","15.2","100.67","9.77","13.00","18.57","2.93","10.26","0","4.5"
"Rodney Hood","Rodney-Hood-18629","3500","SG/SF","44.62","211.5","28.8","104.50","14.05","14.00","18.58","3.2","11.18","0","0.0"
"Jevon Carter","Jevon-Carter-409100","3400","PG/SG","40.02","206","16.2","103.30","15.77","15.00","14.69","7.93","10.49","0","-0.5"
"Isaiah Canaan","Isaiah-Canaan-16875","3000","PG","49.02","206","8.7","100.67","16.88","12.00","17.68","3.15","9.16","0","14.25"
"OG Anunoby","OG-Anunoby-37807","3300","SF/PF","35.11","231","12.9","105.50","12.12","14.00","18.35","2.67","9.99","0","9.5"
"Meyers Leonard","Meyers-Leonard-13905","3500","PF/C","54.58","211.5","16.9","104.50","16.14","10.00","20.89","2.51","10.45","0","20.0"
"Jerome Robinson","Jerome-Robinson-409263","3200","SG","49.86","223","14.1","108.38","12.07","12.00","13.06","7.39","9.33","0","2.5"
"Edmond Sumner","Edmond-Sumner-37818","3500","SG/SF","36.84","218","17.0","107.67","15.90","13.00","13.55","8.12","9.68","0","27.0"
"Marcin Gortat","Marcin-Gortat-1479","3200","C","53.22","223","13.6","108.38","15.82","8.00","16.51","1.9","8.56","0","11.5"
"Furkan Korkmaz","Furkan-Korkmaz-35185","3100","SG/SF","35.38","231","4.5","108.33","21.85","10.00","16.45","2.29","8.23","0","14.25"
"Patrick Patterson","Patrick-Patterson-1260","3300","PF/C","48.51","224","15.4","102.62","9.08","13.00","16.36","2.03","8.44","0","7.25"
"Bismack Biyombo","Bismack-Biyombo-13312","3700","C","58.79","223","20.3","103.00","10.31","9.00","14.62","2.56","8.55","0","18.0"
"Kadeem Allen","Kadeem-Allen-37787","3500","PG/SG","41.55","207","22.9","100.17","13.46","11.00","15.87","1.65","7.94","0","10.0"
"Jake Layman","Jake-Layman-35216","3500","SF/PF","37.88","211.5","25.9","104.50","18.32","10.00","13.95","1.76","7.05","0","41.0"
"Greg Monroe","Greg-Monroe-1487","3400","C","52.76","231","8.4","105.50","19.18","6.00","11.2","2.13","6.58","0","18.75"
"Abdel Nader","Abdel-Nader-35179","3100","SF","32.16","224","13.8","102.62","13.37","8.00","11.61","1.45","5.81","0","16.25"
"Alex Abrines","Alex-Abrines-36054","3000","SG/SF","39.54","224","7.6","102.62","10.58","7.00","10.15","1.69","5.08","0","0.0"
"Guerschon Yabusele","Guerschon-Yabusele-35176","3000","PF/C","48.75","210","4.0","101.75","22.29","6.00","9.88","1.37","4.94","0","0.0"
"TJ Leaf","TJ-Leaf-37817","3100","SF/PF","58.94","218","10.1","107.67","18.76","6.00","9.46","0.89","4.73","0","9.25"
"Willy Hernangomez","Willy-Hernangomez-18901","3700","C","58.79","223","12.0","103.00","20.24","4.00","9.72","1.25","4.86","0","0.0"
"Michael Beasley","Michael-Beasley-1338","3600","SF/PF","46.73","218","12.6","112.50","26.01","4.00","7.88","0.99","4.09","0","10.25"
"Tyson Chandler","Tyson-Chandler-1482","3400","C","50.80","218","11.2","112.50","9.10","4.00","6.84","0.61","3.42","0","0.0"
"C.J. Miles","C.J.-Miles-1299","3400","SG/SF","35.11","231","14.4","105.50","18.55","4.00","6.08","0.71","3.06","0","0.0"
"Wayne Ellington","Wayne-Ellington-1009","3500","SG/SF","35.51","211.5","22.7","106.90","17.45","4.00","5.96","0.78","2.98","0","0.0"
"Tyrone Wallace","Tyrone-Wallace-35220","3200","PG/SG","49.77","223","5.3","108.38","17.02","2.00","2.9","0.44","1.47","0","0.0"
"Sindarius Thornwell","Sindarius-Thornwell-37881","3000","SG/SF","39.12","223","4.9","108.38","13.11","2.00","2.44","0.23","1.22","0","9.5"
