"nameCol","idCol","salaryCol","positionCol","dvpCol","ouCol","mpgCol","paceCol","usgCol","pminCol","ceilCol","floorCol","pointsCol","predictCol","actualCol"
"Bobby Portis","Bobby-Portis-18909","6600","PF/C","52.60","212.5","25.2","104.50","24.47","31.00","67.53","12.64","39.49","0","13.5"
"Matthew Dellavedova","Matthew-Dellavedova-16839","3400","PG/SG","40.29","212.5","17.3","103.60","19.65","21.00","42.88","4.46","21.45","0","29.5"
"Elie Okobo","Elie-Okobo-409300","3500","PG","35.26","226","16.1","108.80","16.49","30.00","31.64","18.28","22.6","0","12.5"
"Wayne Selden","Wayne-Selden-36045","3200","SG/SF","56.64","212.5","17.3","104.50","16.00","28.00","37.96","4.14","19.98","0","32.0"
"Trey Burke","Trey-Burke-17029","3900","PG/SG","48.79","209.5","33.0","100.17","27.84","24.00","41.2","6.95","24.29","0","19.75"
"Rajon Rondo","Rajon-Rondo-1085","6200","PG","46.56","226","37.0","112.50","18.69","35.00","56.73","11.84","38.2","0","30.0"
"Dion Waiters","Dion-Waiters-13897","4100","SG/SF","48.02","209.5","18.6","106.90","24.50","26.00","47.81","7.83","24.38","0","7.25"
"Shai Gilgeous-Alexander","Shai-Gilgeous-Alexander-408990","4000","PG/SG","45.98","229.5","26.3","108.38","21.66","30.00","35.67","20.18","25.48","0","33.0"
"Mikal Bridges","Mikal-Bridges-408842","3800","SG/SF","39.66","226","29.3","108.80","10.63","32.00","31.33","18.11","22.38","0","28.0"
"Kenneth Faried","Kenneth-Faried-13313","5900","PF/C","51.91","223","28.7","101.42","18.98","32.00","53.48","17.61","34.66","0","36.5"
"Ante Zizic","Ante-Zizic-35180","6100","C","56.49","212.5","26.6","103.60","18.27","30.00","55.85","14.6","32.66","0","34.0"
"Otto Porter","Otto-Porter-17069","6100","SF/PF","37.47","221.5","33.8","103.80","20.55","35.00","69.71","10.11","34.87","0","26.75"
"Dennis Smith Jr.","Dennis-Smith-Jr.-37847","5000","PG","47.39","219","36.0","100.08","24.47","32.00","48.67","11.86","28.58","0","30.5"
"Damyean Dotson","Damyean-Dotson-37795","3600","SG/SF","37.91","209.5","26.0","100.17","11.30","24.00","36.12","6.23","20.57","0","27.25"
"Kris Dunn","Kris-Dunn-35215","6900","PG/SG","56.64","212.5","30.8","104.50","20.46","32.00","64.78","21.39","37.6","0","26.0"
"Alec Burks","Alec-Burks-13353","4500","PG/SG","46.59","212.5","24.3","103.60","19.36","28.00","41.52","10.4","25.49","0","31.5"
"Tyler Johnson","Tyler-Johnson-18720","4600","PG/SG","53.31","209.5","29.3","106.90","18.28","31.00","43.22","8.62","25.88","0","0.0"
"Patrick Beverley","Patrick-Beverley-14108","4700","PG/SG","45.98","229.5","31.6","108.38","12.14","35.00","46.82","9.95","26.88","0","47.0"
"Jonathon Simmons","Jonathon-Simmons-31808","3600","SG/SF","47.20","223","21.0","105.10","15.41","26.00","38.91","2.98","20.11","0","8.75"
"JaVale McGee","JaVale-McGee-1485","4500","C","59.28","226","16.7","112.50","19.53","21.00","49.86","6.43","24.94","0","7.75"
"Willie Cauley-Stein","Willie-Cauley-Stein-18951","5800","C","59.24","229.5","26.8","98.20","15.13","28.00","45.14","16.74","32.13","0","32.0"
"Jerami Grant","Jerami-Grant-18576","5000.00","PF","43.89","235","35.3","102.62","14.86","35.00","55.29","3.54","27.66","0","35.0"
"Dennis Schroder","Dennis-Schroder-18595","4800.00","PG/SG","47.57","235","23.3","102.62","28.97","25.00","43.56","7.28","26.56","0","28.0"
"George Hill","George-Hill-993","3300.00","PG/SG","39.57","235","19.2","98.80","14.86","21.00","33.1","4.81","18.02","0","11.5"
"Nemanja Bjelica","Nemanja-Bjelica-31814","4300","SF/PF","49.85","229.5","18.0","98.20","16.43","21.00","35.98","8.92","21.3","0","12.0"
"Jabari Parker","Jabari-Parker-18593","4200","SF/PF","48.98","212.5","17.2","104.50","24.91","22.00","44.81","3.68","22.85","0","10.75"
"Cedi Osman","Cedi-Osman-18912","4900","SF/PF","38.86","212.5","30.7","103.60","19.30","33.00","39.58","12.6","26.04","0","34.0"
"Kyle Korver","Kyle-Korver-1269","3600","SG/SF","39.73","220","23.8","98.88","19.22","26.00","38.9","5.41","19.46","0","20.5"
"Bogdan Bogdanovic","Bogdan-Bogdanovic-37899","5400","SG/SF","48.32","229.5","28.0","98.20","26.08","31.00","59.29","9.68","30.16","0","29.25"
"Wesley Matthews","Wesley-Matthews-1339","4300","SG/SF","35.98","219","27.0","100.08","19.43","31.00","42.72","10.55","23.19","0","15.0"
"Ivica Zubac","Ivica-Zubac-35226","4800","C","59.28","226","17.7","112.50","24.74","24.00","47.09","11.96","25.89","0","52.5"
"James Johnson","James-Johnson-1195","3700","PF/C","54.56","209.5","23.7","106.90","12.91","22.00","28.73","9.09","19.8","0","23.5"
"Jamal Crawford","Jamal-Crawford-1075","3500","PG/SG","48.97","226","21.2","108.80","13.87","20.00","34.82","4.49","18.7","0","17.0"
"Marcin Gortat","Marcin-Gortat-1479","3300","C","54.49","229.5","13.0","108.38","15.51","16.00","30.15","7.8","17.53","0","12.75"
"Brandon Ingram","Brandon-Ingram-35227","6200","SG/SF","49.45","226","36.7","112.50","22.12","34.00","48.62","15.14","32.92","0","39.75"
"Harrison Barnes","Harrison-Barnes-13901","5100","SF/PF","47.41","219","33.7","100.08","21.36","33.00","42.21","11.46","27.09","0","27.0"
"D.J. Wilson","D.J.-Wilson-37822","3400.00","PF/C","48.41","235","17.2","98.80","14.18","20.00","36.12","4.52","18.07","0","6.75"
"Marvin Bagley III","Marvin-Bagley-III-409321","5500","PF/C","49.85","229.5","26.0","98.20","24.87","29.00","39.24","22.2","28.03","0","25.25"
"Kelly Oubre","Kelly-Oubre-18925","5800","SG/SF","39.66","226","28.9","108.80","25.40","31.00","56.81","9.06","30.71","0","30.25"
"Lauri Markkanen","Lauri-Markkanen-37809","6700","PF","48.98","212.5","30.8","104.50","23.00","32.00","63.19","17.19","34.38","0","46.75"
"Frank Ntilikina","Frank-Ntilikina-37796","3700","PG/SG","39.33","209.5","22.8","100.17","19.58","28.00","38.94","7.17","19.48","0","16.5"
"Jordan Clarkson","Jordan-Clarkson-18631","4600","PG/SG","46.59","212.5","25.4","103.60","24.72","24.00","47.82","8.21","24.14","0","35.75"
"Antonio Blakeney","Antonio-Blakeney-37811","3100","PG/SG","37.89","212.5","4.7","104.50","28.23","17.00","32.56","3.19","16.29","0","8.5"
"Andrew Wiggins","Andrew-Wiggins-18620","5900","SG/SF","40.93","220","34.8","100.67","26.34","35.00","48.7","12.73","30.9","0","50.25"
"Josh Jackson","Josh-Jackson-37890","5500","SF/PF","48.97","226","25.0","108.80","24.57","32.00","53.64","11.86","28.79","0","25.5"
"Jerryd Bayless","Jerryd-Bayless-1021","4400","PG/SG","40.93","220","23.0","100.67","20.59","28.00","45.92","6.04","22.97","0","31.75"
"Aaron Gordon","Aaron-Gordon-18601","6600","SF/PF","46.59","223","32.8","105.10","21.40","34.00","58.81","14.17","34.39","0","42.5"
"Russell Westbrook","Russell-Westbrook-1083","10700.00","PG","47.57","235","35.7","102.62","35.78","37.00","77.83","30.41","55.59","0","53.25"
"DeAndre Jordan","DeAndre-Jordan-1486","7100","C","51.98","219","31.0","100.08","15.03","31.00","51.63","22.31","36.88","0","24.25"
"Luka Doncic","Luka-Doncic-408971","8200","PG/SF","48.89","219","31.5","100.08","32.95","33.00","59.56","33.69","42.54","0","69.5"
"Sterling Brown","Sterling-Brown-37821","3400.00","SG/SF","42.26","235","20.7","98.80","15.60","22.00","34.18","4.87","17.5","0","10.75"
"Danny Green","Danny-Green-940","4500","SG/SF","36.69","219","28.3","105.50","17.63","29.00","36.42","8.02","23.17","0","25.25"
"Karl-Anthony Towns","Karl-Anthony-Towns-18937","10500","C","55.62","220","29.7","100.67","31.53","36.00","84.91","28.55","54.08","0","46.5"
"Kevin Knox","Kevin-Knox-408820","5100","SF/PF","44.92","209.5","31.0","100.17","21.91","33.00","36.71","20.77","26.22","0","5.5"
"Tim Hardaway Jr.","Tim-Hardaway-Jr.-16879","5900","SG/SF","44.92","209.5","31.0","100.17","21.40","32.00","54.23","13.84","30.28","0","40.0"
"Rudy Gay","Rudy-Gay-1341","5700","SF/PF","47.82","221.5","28.8","99.70","23.67","29.00","43.89","10.92","29.2","0","26.0"
"Josh Okogie","Josh-Okogie-409174","4400","SG/SF","40.93","220","24.5","100.67","18.47","30.00","31.53","13.08","22.52","0","8.5"
"Kyle Lowry","Kyle-Lowry-1057","7400","PG","55.48","219","36.9","105.50","22.22","33.00","65.6","18.41","37.81","0","46.75"
"DeMar DeRozan","DeMar-DeRozan-1053","7700","SG/SF","44.83","221.5","35.8","99.70","25.24","35.00","71.61","20.76","39.24","0","0.0"
"Shaquille Harrison","Shaquille-Harrison-36065","3500","PG/SF","44.45","212.5","14.5","104.50","14.98","20.00","35.6","5.09","17.81","0","3.5"
"Nikola Vucevic","Nikola-Vucevic-13296","9900","C","53.31","223","33.0","105.10","29.56","33.00","75.25","18.13","50.37","0","53.25"
"Patty Mills","Patty-Mills-13977","3900","PG/SG","45.89","221.5","21.5","99.70","21.44","22.00","39.5","4.94","19.76","0","30.25"
"Tomas Satoransky ","Tomas-Satoransky--36031","5400","PG/SG","52.89","221.5","35.4","103.80","16.49","35.00","53.66","9.12","27.39","0","46.75"
"Lou Williams","Lou-Williams-1044","7500","PG/SG","45.26","229.5","26.4","108.38","34.85","29.00","67.77","7.53","33.9","0","38.0"
"Paul George","Paul-George-1245","9600.00","SF/PF","43.89","235","37.2","102.62","28.46","38.00","77.49","22.54","48.58","0","65.75"
"Rudy Gobert","Rudy-Gobert-16935","8500","C","50.20","220","33.3","98.88","18.67","35.00","71.75","21.7","42.89","0","37.0"
"Rodney Hood","Rodney-Hood-18629","4000","SG/SF","46.59","212.5","24.0","103.60","21.39","27.00","31.7","8.52","20.14","0","23.25"
"Bradley Beal","Bradley-Beal-13898","9000","SG","46.96","221.5","40.8","103.80","31.39","37.00","70.19","22.98","45.14","0","44.5"
"Dwyane Wade","Dwyane-Wade-967","4800","PG/SG","48.02","209.5","25.0","106.90","27.07","24.00","37.59","7.28","24.11","0","37.75"
"LaMarcus Aldridge","LaMarcus-Aldridge-1349","8400","PF/C","59.13","221.5","31.5","99.70","28.15","34.00","61.14","21.45","42.05","0","55.25"
"Avery Bradley","Avery-Bradley-941","3900","SG","41.41","229.5","33.4","108.38","17.06","33.00","38.24","6.09","19.52","0","30.5"
"Deandre Ayton","Deandre-Ayton-409301","6600","C","56.74","226","28.0","108.80","18.18","30.00","46.17","26.68","32.98","0","0.0"
"Bam Adebayo","Bam-Adebayo-37835","4400","PF/C","56.09","209.5","23.0","106.90","14.62","23.00","36.42","5.63","21.99","0","19.5"
"Steven Adams","Steven-Adams-16848","6600.00","C","48.14","235","35.5","102.62","15.90","35.00","56.54","15.02","32.93","0","30.5"
"Evan Fournier","Evan-Fournier-13913","5500","SG/SF","37.10","223","34.3","105.10","20.91","33.00","42.88","9.84","27.42","0","29.75"
"Dario Saric","Dario-Saric-36004","4000","PF","47.41","220","20.5","100.67","13.28","21.00","34.5","5.86","19.92","0","16.75"
"Giannis Antetokounmpo","Giannis-Antetokounmpo-16852","10700.00","SF/PF","48.41","235","29.8","98.80","34.36","34.00","74.38","30.82","53.13","0","58.5"
"Terrance Ferguson","Terrance-Ferguson-37871","3700.00","SG/SF","36.72","235","29.7","102.62","14.64","33.00","36.78","4.08","18.4","0","23.25"
"Hassan Whiteside","Hassan-Whiteside-18664","6900","C","56.09","209.5","23.8","106.90","20.07","26.00","47.91","15.71","34.22","0","43.5"
"Collin Sexton","Collin-Sexton-408896","4600","PG","52.85","212.5","30.3","103.60","23.89","30.00","34.66","20.03","24.76","0","15.25"
"James Harden","James-Harden-1037","13700","PG/SG","51.98","223","39.1","101.42","46.42","39.00","94.96","49.24","67.83","0","71.75"
"Joe Ingles","Joe-Ingles-18627","5600","SG/SF","39.73","220","31.2","98.88","18.10","30.00","43.4","10.1","27.59","0","29.5"
"Khris Middleton","Khris-Middleton-13990","6400.00","SG/SF","46.64","235","28.8","98.80","24.74","30.00","46.23","12.39","31.45","0","38.5"
"Derrick Favors","Derrick-Favors-1266","5100","PF/C","53.32","220","19.7","98.88","19.96","24.00","39.44","10.39","24.98","0","31.75"
"Eric Gordon","Eric-Gordon-1077","5600","SG/SF","46.73","223","30.2","101.42","26.48","34.00","45.64","9.33","27.36","0","26.25"
"Larry Nance","Larry-Nance-18946","6000","PF/C","60.82","212.5","21.0","103.60","17.14","24.00","56.57","3.74","28.3","0","6.75"
"Lance Thomas","Lance-Thomas-13363","3100","SF/PF","37.91","209.5","19.3","100.17","7.73","22.00","29.64","4.04","15.14","0","8.5"
"Derrick White","Derrick-White-37858","5700","PG/SG","45.89","221.5","30.8","99.70","15.97","30.00","49.73","9.46","27.75","0","29.25"
"Pascal Siakam","Pascal-Siakam-35186","6500","PF/C","54.64","219","34.4","105.50","19.21","32.00","49.11","15.32","31.58","0","25.25"
"Marco Belinelli","Marco-Belinelli-1033","4300","SG/SF","39.71","221.5","25.2","99.70","21.23","24.00","34.74","6.1","20.9","0","24.75"
"Devin Booker","Devin-Booker-18949","8300","PG/SG","52.87","226","30.6","108.80","35.01","33.00","72.52","16.97","40.22","0","31.0"
"Justise Winslow","Justise-Winslow-18921","6300","PG/SF","53.31","209.5","30.3","106.90","22.29","32.00","52.88","14.68","30.15","0","27.75"
"Maxi Kleber","Maxi-Kleber-37845","4000","PF/C","47.41","219","21.2","100.08","12.20","22.00","38.28","4.42","19.15","0","4.0"
"Montrezl Harrell","Montrezl-Harrell-18930","7100","PF/C","56.51","229.5","28.3","108.38","20.15","30.00","54.36","3.76","31.9","0","35.75"
"Zach LaVine","Zach-LaVine-18622","8100","PG/SG","56.64","212.5","31.3","104.50","29.00","31.00","52.56","16.73","34.22","0","34.5"
"Fred VanVleet","Fred-VanVleet-36011","4600","PG/SG","41.70","219","27.3","105.50","18.83","21.00","41.46","5.83","21.82","0","24.75"
"Donovan Mitchell","Donovan-Mitchell-37875","8800","PG/SG","51.54","220","34.3","98.88","36.80","36.00","67.61","17.75","41.66","0","42.0"
"Kentavious Caldwell-Pope","Kentavious-Caldwell-Pope-16869","4400","SG/SF","36.50","226","27.8","112.50","16.24","29.00","32.94","9.51","20.72","0","36.0"
"Kawhi Leonard","Kawhi-Leonard-13310","9700","SF/PF","47.88","219","39.3","105.50","31.47","35.00","67.64","17.45","45.67","0","53.0"
"Josh Richardson","Josh-Richardson-18922","6700","SG/SF","48.02","209.5","31.6","106.90","20.00","35.00","50.23","12.71","31.45","0","25.25"
"Bryn Forbes","Bryn-Forbes-36052","4300","PG/SG","54.89","221.5","30.5","99.70","14.71","29.00","31.78","5.26","20.09","0","29.0"
"Ryan Arcidiacono","Ryan-Arcidiacono-36050","3300","PG","44.45","212.5","16.0","104.50","12.65","17.00","29.85","4.81","14.93","0","14.0"
"Malcolm Brogdon","Malcolm-Brogdon-35195","5800.00","PG/SG","49.03","235","27.5","98.80","22.35","30.00","49.89","9.47","26.98","0","32.0"
"Noah Vonleh","Noah-Vonleh-18597","6200","PF/C","55.40","209.5","27.2","100.17","17.91","31.00","49.23","13.15","28.77","0","15.25"
"Trevor Ariza","Trevor-Ariza-1323","6200","SF/PF","37.47","221.5","38.4","103.80","18.89","36.00","42.32","8.9","28.63","0","34.0"
"Serge Ibaka","Serge-Ibaka-1294","6400","PF/C","46.67","219","31.6","105.50","22.29","29.00","49.8","11.84","29.59","0","35.25"
"Jeff Green","Jeff-Green-1314","4500","SF/PF","49.61","221.5","28.4","103.80","19.92","26.00","39.39","7.67","20.73","0","21.75"
"Jonathan Isaac","Jonathan-Isaac-37841","4700","SF/PF","46.59","223","29.9","105.10","13.76","27.00","39.41","6.59","21.69","0","26.5"
"Tobias Harris","Tobias-Harris-13332","8500","SF/PF","50.84","229.5","36.4","108.38","23.00","35.00","60.13","17.09","37.82","0","31.0"
"Josh Hart","Josh-Hart-37889","4500","SG/SF","36.50","226","25.5","112.50","13.61","25.00","39.93","4.87","20.71","0","11.25"
"Richaun Holmes","Richaun-Holmes-18905","4200","PF/C","56.74","226","15.0","108.80","19.72","16.00","38.4","3.44","19.21","0","37.5"
"De'Aaron Fox","De'Aaron-Fox-37900","7800","PG","51.51","229.5","32.0","98.20","25.86","31.00","53.09","16.37","33.33","0","31.0"
"Derrick Jones","Derrick-Jones-36064","4100","SF/PF","36.06","209.5","17.7","106.90","17.21","21.00","37.4","5.76","18.71","0","1.25"
"Jakob Poeltl","Jakob-Poeltl-35187","3300","C","55.91","221.5","11.8","99.70","10.05","17.00","29.81","3.1","14.91","0","15.25"
"Lance Stephenson","Lance-Stephenson-947","4100","SG/SF","49.45","226","15.7","112.50","19.96","18.00","36.24","3.69","18.46","0","30.25"
"Ricky Rubio","Ricky-Rubio-1001","5700","PG","39.18","220","19.7","98.88","28.64","28.00","40.76","11.19","25.67","0","39.5"
"Jae Crowder","Jae-Crowder-13942","5000","SF/PF","38.75","220","28.2","98.88","21.38","28.00","43.94","4.32","22.52","0","23.75"
"Iman Shumpert","Iman-Shumpert-13350","3800","SG/SF","33.32","229.5","27.8","98.20","16.61","24.00","30.4","5.97","17.35","0","32.0"
"Davis Bertans","Davis-Bertans-36051","4100","SF/PF","59.13","221.5","25.8","99.70","10.26","20.00","36.3","4.78","18.16","0","29.25"
"Kyle Kuzma","Kyle-Kuzma-37886","6800","SF/PF","47.67","226","34.3","112.50","28.10","30.00","45.21","15.66","30.06","0","0.0"
"Michael Beasley","Michael-Beasley-1338","3700","SF/PF","47.67","226","10.5","112.50","34.17","14.00","31.69","4.4","16.3","0","28.5"
"Derrick Rose","Derrick-Rose-1086","6000","PG/SG","47.59","220","23.8","100.67","30.46","28.00","52.87","6.61","26.45","0","0.0"
"Allonzo Trier","Allonzo-Trier-554950","5100","PG/SG","44.92","209.5","23.6","100.17","23.57","28.00","31.39","16.95","22.42","0","16.5"
"Terrence Ross","Terrence-Ross-13902","5100","SG/SF","37.10","223","29.0","105.10","22.22","27.00","44.74","4.63","22.38","0","28.5"
"P.J. Tucker","P.J.-Tucker-13947","5100","SF/PF","32.73","223","36.3","101.42","11.48","35.00","33.2","6.83","22.16","0","10.0"
"Dwight Powell","Dwight-Powell-18566","3400","PF/C","53.62","219","14.8","100.08","17.74","13.00","29.29","4.57","14.65","0","10.5"
"Gerald Green","Gerald-Green-13374","4200","SG/SF","46.73","223","27.6","101.42","18.36","22.00","31.35","5.18","18.12","0","7.75"
"Eric Bledsoe","Eric-Bledsoe-1031","7400.00","PG/SG","49.03","235","27.3","98.80","27.27","31.00","62.87","13.34","31.53","0","23.5"
"Taj Gibson","Taj-Gibson-1277","4500","PF/C","52.47","220","23.7","100.67","18.21","25.00","32.16","7.17","19.12","0","10.75"
"Austin Rivers","Austin-Rivers-13903","4600","PG/SG","37.29","223","37.1","101.42","13.66","30.00","38.86","4.49","19.44","0","5.5"
"Justin Jackson","Justin-Jackson-37895","3400","SF/PF","33.32","229.5","18.0","98.20","13.28","20.00","27.6","3.73","14.28","0","7.5"
"Ian Mahinmi","Ian-Mahinmi-1357","3200","C","51.10","221.5","12.0","103.80","13.23","14.00","26.29","2.2","13.15","0","0.0"
"D.J. Augustin","D.J.-Augustin-1064","5000","PG","40.14","223","28.6","105.10","18.79","28.00","36.66","9.71","20.49","0","19.5"
"OG Anunoby","OG-Anunoby-37807","3300","SF/PF","36.69","219","15.5","105.50","15.17","19.00","24.8","3.6","13.5","0","8.0"
"Buddy Hield","Buddy-Hield-35206","6800","SG/SF","33.32","229.5","32.3","98.20","22.23","30.00","48.62","11.53","27.64","0","33.0"
"Sam Dekker","Sam-Dekker-18929","3400","SF/PF","37.47","221.5","16.8","103.80","15.49","16.00","25.19","2.4","13.66","0","0.0"
"Chris Paul","Chris-Paul-1087","7200","PG","51.98","223","0","101.42","0","24.00","42.26","13.18","28.83","0","32.75"
"Brook Lopez","Brook-Lopez-1498","5500.00","C","51.63","235","26.8","98.80","12.58","26.00","39.9","8.81","22.02","0","35.0"
"Dirk Nowitzki","Dirk-Nowitzki-1346","3000","PF/C","53.62","219","9.0","100.08","19.55","12.00","19.93","3.11","11.84","0","7.5"
"Dorian Finney-Smith","Dorian-Finney-Smith-36032","3600","SF/PF","37.66","219","23.3","100.08","12.40","20.00","27.45","5.42","14.09","0","26.75"
"Royce O'Neale","Royce-O'Neale-37872","4100","SF","38.75","220","29.8","98.88","10.41","23.00","31.59","5.01","15.81","0","9.25"
"Isaiah Briscoe","Isaiah-Briscoe-37868","3200","PG/SG","40.14","223","19.2","105.10","16.32","14.00","17.09","9.67","12.21","0","0.0"
"Troy Daniels","Troy-Daniels-17383","3100","SG","36.36","226","10.2","108.80","20.11","12.00","23.27","3.42","11.64","0","4.5"
"Nerlens Noel","Nerlens-Noel-18575","3200.00","C","48.14","235","13.0","102.62","12.92","12.00","23.35","1.89","11.72","0","17.5"
"Thomas Bryant ","Thomas-Bryant--37884","5300","PF/C","51.31","221.5","23.0","103.80","19.92","22.00","38.58","2.26","19.3","0","32.0"
"Devin Harris","Devin-Harris-1076","3200","PG/SG","47.39","219","13.5","100.08","21.03","13.00","23.04","2.76","11.58","0","3.0"
"Mitchell Robinson","Mitchell-Robinson-408821","4100","C","48.57","209.5","14.0","100.17","13.24","18.00","20.61","11.13","14.72","0","26.25"
"Delon Wright","Delon-Wright-18907","3900","PG/SG","41.70","219","18.5","105.50","18.42","17.00","21.73","6.08","13.94","0","14.75"
"Greg Monroe","Greg-Monroe-1487","3400","C","49.75","219","10.3","105.50","23.47","10.00","20.48","3.97","12.14","0","1.25"
"Anthony Tolliver","Anthony-Tolliver-1263","3300","SF/PF","47.41","220","14.2","100.67","9.55","15.00","21.2","4.46","11.71","0","0.0"
"Jaron Blossomgame","Jaron-Blossomgame-570197","3300","SF/PF","38.86","212.5","17.1","103.60","12.54","15.00","16.69","9.29","11.92","0","0.0"
"Mohamed Bamba","Mohamed-Bamba-409026","3600","C","54.78","223","15.2","105.10","17.05","14.00","17.36","9.82","12.4","0","-0.5"
"Tony Snell","Tony-Snell-16872","3000.00","SG/SF","39.37","235","12.8","98.80","11.88","16.00","20.35","2.83","10.18","0","13.75"
"Patrick Patterson","Patrick-Patterson-1260","3200.00","PF/C","57.37","235","12.0","102.62","11.35","14.00","21.13","2.31","10.68","0","5.25"
"Gorgui Dieng","Gorgui-Dieng-16939","3200","PF/C","52.47","220","10.3","100.67","17.76","11.00","18.99","2.59","10.51","0","13.75"
"Nene Hilario","Nene-Hilario-17321","3300","C","51.91","223","12.4","101.42","10.37","10.00","20.78","3.0","10.79","0","9.25"
"Jerome Robinson","Jerome-Robinson-409263","3100","SG","54.62","229.5","11.0","108.38","14.30","14.00","13.64","7.36","9.74","0","7.75"
"Yogi Ferrell","Yogi-Ferrell-35999","3500","PG/SG","51.51","229.5","17.3","98.20","15.96","14.00","21.8","3.4","11.05","0","12.25"
"Norman Powell","Norman-Powell-18908","4100","SG/SF","33.67","219","19.1","105.50","20.04","15.00","24.47","3.34","12.24","0","9.75"
"Chasson Randle","Chasson-Randle-36002","3100","PG/SG","52.89","221.5","13.6","103.80","15.14","13.00","18.17","2.18","9.09","0","22.25"
"Georges Niang","Georges-Niang-35193","3100","SF/PF","50.98","220","9.2","98.88","14.30","10.00","18.07","1.72","9.04","0","9.75"
"Harry Giles","Harry-Giles-37897","3500","PF/C","49.85","229.5","15.8","98.20","21.52","12.00","14.6","8.26","10.43","0","9.75"
"Johnathan Motley","Johnathan-Motley-37844","3200","PF/C","50.84","229.5","10.5","108.38","30.00","10.00","18.31","2.13","9.16","0","8.0"
"Ersan Ilyasova","Ersan-Ilyasova-1301","3200.00","PF/C","48.41","235","12.7","98.80","11.23","10.00","15.89","1.52","8.87","0","0.0"
"James Ennis","James-Ennis-18599","3600","SF/PF","32.73","223","23.5","101.42","10.86","14.00","19.83","3.1","9.92","0","14.5"
"Luol Deng","Luol-Deng-1328","3000","SF/PF","30.91","220","12.8","100.67","16.98","11.00","16.25","2.71","8.13","0","25.0"
"Robin Lopez","Robin-Lopez-1466","3700","C","50.32","212.5","16.8","104.50","17.34","10.00","19.77","2.37","9.89","0","31.75"
"Abdel Nader","Abdel-Nader-35179","3100.00","SF","39.38","235","12.3","102.62","17.16","11.00","14.31","1.66","7.16","0","6.5"
"Deng Adel","Deng-Adel-554989","3000","SF/PF","38.86","212.5","6.5","103.60","7.69","8.00","8.89","4.95","6.35","0","11.75"
"Sindarius Thornwell","Sindarius-Thornwell-37881","3000","SG/SF","39.30","229.5","6.2","108.38","11.26","8.00","10.39","1.04","5.2","0","0.0"
"Sviatoslav Mykhailiuk","Sviatoslav-Mykhailiuk-409280","3400","PG/SG","35.58","226","12.7","112.50","14.96","10.00","7.73","4.63","5.52","0","3.0"
"Troy Brown","Troy-Brown-409043","3000","SG/SF","37.47","221.5","6.5","103.80","10.75","6.00","5.15","2.87","3.68","0","7.0"
"Jerian Grant","Jerian-Grant-18900","3200","PG","40.14","223","18.5","105.10","16.66","4.00","6.37","0.89","3.35","0","23.75"
"Quincy Acy","Quincy-Acy-13972","3600","PF/C","58.33","226","13.4","108.80","10.71","4.00","6.9","0.82","3.45","0","0"
"Dragan Bender","Dragan-Bender-35228","4600","PF/C","58.33","226","20.5","108.80","19.52","4.00","6.3","0.93","3.15","0","11.0"
