"nameCol","idCol","salaryCol","positionCol","dvpCol","ouCol","mpgCol","paceCol","usgCol","pminCol","ceilCol","floorCol","pointsCol","predictCol","actualCol"
"Mike Muscala","Mike-Muscala-17379","3200","PF/C","58.65","231","17.7","108.33","13.82","27.00","40.61","18.68","22.24","0","27.75"
"Royce O'Neale","Royce-O'Neale-37872","3300","SF","38.57","217","12.0","98.88","8.82","32.00","43.54","19.05","22.82","0","32.75"
"Jonah Bolden","Jonah-Bolden-554969","3400","PF","52.60","231","18.8","108.33","15.12","24.00","32.13","5.94","22.95","0","13.0"
"Ersan Ilyasova","Ersan-Ilyasova-1301","3400","PF/C","48.19","226.5","14.5","98.80","22.75","25.00","40.2","18.94","22.15","0","25.25"
"Joe Ingles","Joe-Ingles-18627","5700","SG/SF","35.88","217","29.7","98.88","18.44","37.00","54.52","23.23","35.15","0","38.0"
"Malcolm Brogdon","Malcolm-Brogdon-35195","5700","PG/SG","55.68","226.5","28.7","98.80","21.35","32.00","59.65","25.32","34.78","0","35.0"
"Kyle Korver","Kyle-Korver-1269","3500","SG/SF","35.88","217","20.3","98.88","17.22","25.00","41.18","21.15","21.15","0","16.5"
"Austin Rivers","Austin-Rivers-13903","5000","PG/SG","44.70","217","40.2","101.42","14.53","39.00","47.55","18.22","30.06","0","19.5"
"Jae Crowder","Jae-Crowder-13942","4400","SF/PF","38.57","217","27.6","98.88","19.29","30.00","48.59","20.98","26","0","26.5"
"Domantas Sabonis","Domantas-Sabonis-35217","7500","PF/C","56.54","218.5","28.8","107.67","23.95","32.00","80.86","37.11","43.45","0","46.75"
"Kyle O'Quinn","Kyle-O'Quinn-13934","3700","PF/C","59.44","218.5","13.8","107.67","24.53","18.00","42.62","17.76","21.32","0","11.5"
"Clint Capela","Clint-Capela-18610","7600","C","49.19","217","36.8","101.42","18.13","34.00","72.0","27.13","43.48","0","32.5"
"Noah Vonleh","Noah-Vonleh-18597","5800","PF/C","47.82","218.5","24.0","100.17","16.67","32.00","54.87","18.12","32.76","0","20.75"
"Lauri Markkanen","Lauri-Markkanen-37809","5900","PF","48.93","219.5","33.5","104.50","21.61","32.00","54.99","23.46","33.33","0","14.25"
"Eric Bledsoe","Eric-Bledsoe-1031","6100","PG/SG","55.68","226.5","27.0","98.80","24.46","33.00","64.64","20.72","34.42","0","48.0"
"Otto Porter","Otto-Porter-17069","5800","SF/PF","38.92","226.5","21.8","103.80","28.23","32.00","62.74","25.0","32.59","0","26.75"
"Khris Middleton","Khris-Middleton-13990","6900","SG/SF","44.78","226.5","30.3","98.80","22.79","36.00","57.82","27.47","38.47","0","41.5"
"Tristan Thompson","Tristan-Thompson-13308","5800","C","53.47","217","27.6","103.60","18.74","32.00","53.25","21.07","32.37","0","18.75"
"Donovan Mitchell","Donovan-Mitchell-37875","7900","PG/SG","52.22","217","34.5","98.88","28.33","39.00","70.18","26.51","43.89","0","58.0"
"Rudy Gobert","Rudy-Gobert-16935","8000","C","57.33","217","31.0","98.88","15.16","34.00","67.19","21.82","44.09","0","46.0"
"Serge Ibaka","Serge-Ibaka-1294","6200","PF/C","47.80","223.5","28.4","105.50","22.96","30.00","52.75","20.36","34.1","0","27.25"
"Bobby Portis","Bobby-Portis-18909","4600","PF/C","48.52","219.5","18.5","104.50","31.09","24.00","50.41","22.9","25.22","0","26.5"
"DeAndre Bembry","DeAndre-Bembry-35198","4400","SG/SF","35.53","231","28.8","105.10","18.39","31.00","37.86","13.62","24.07","0","30.5"
"James Harden","James-Harden-1037","12500","PG/SG","55.69","217","39.5","101.42","43.99","39.00","95.51","21.56","68.22","0","88.0"
"Maxi Kleber","Maxi-Kleber-37845","3600","PF/C","52.29","224","20.7","100.08","11.45","24.00","36.2","13.47","19.61","0","22.25"
"Wilson Chandler","Wilson-Chandler-1327","3600","SF/PF","43.73","231","23.5","108.33","9.82","30.00","31.55","12.03","19.62","0","18.0"
"Derrick Favors","Derrick-Favors-1266","5200","PF/C","57.17","217","25.0","98.88","18.40","25.00","44.6","16.06","28.12","0","36.25"
"C.J. McCollum","C.J.-McCollum-17121","6300","PG/SG","50.21","223.5","34.0","104.50","23.36","34.00","52.4","16.56","33.87","0","44.5"
"Rodions Kurucs","Rodions-Kurucs-408801","4100","SF/PF","46.78","223.5","22.4","114.62","18.05","25.00","30.56","7.16","21.83","0","6.25"
"George Hill","George-Hill-993","3400","PG/SG","46.70","226.5","21.8","98.80","13.40","24.00","32.54","14.43","17.97","0","0.25"
"Bradley Beal","Bradley-Beal-13898","8600","SG","47.27","226.5","36.3","103.80","32.43","38.00","65.68","22.1","45.39","0","57.25"
"Jusuf Nurkic","Jusuf-Nurkic-18619","8100","C","52.73","223.5","27.1","104.50","28.90","30.00","64.75","23.7","42.71","0","51.75"
"Emmanuel Mudiay","Emmanuel-Mudiay-18936","5700","PG","35.99","218.5","29.0","100.17","26.59","32.00","49.85","17.97","29.85","0","29.5"
"Thaddeus Young","Thaddeus-Young-1289","5600","SF/PF","55.83","218.5","32.3","107.67","16.52","33.00","44.83","17.23","29.3","0","33.5"
"Marvin Williams","Marvin-Williams-1318","5200","SF/PF","52.15","223.5","30.1","103.00","17.57","33.00","48.88","21.52","27.17","0","18.25"
"JaVale McGee","JaVale-McGee-1485","5100","C","51.71","217","21.5","112.50","21.24","24.00","41.16","14.87","26.64","0","19.0"
"Danuel House","Danuel-House-36029","3900","SF/PF","55.69","217","29.0","101.42","11.70","27.00","36.6","12.51","20.31","0","29.75"
"Trae Young","Trae-Young-409063","6000","PG","51.96","231","29.8","105.10","28.09","30.00","43.36","10.16","30.97","0","34.0"
"Cedi Osman","Cedi-Osman-18912","4300","SF/PF","36.25","217","31.1","103.60","17.98","32.00","31.97","12.18","22.14","0","21.25"
"Jimmy Butler","Jimmy-Butler-13327","7600","SG/SF","51.66","231","29.5","108.33","25.45","34.00","57.05","19.67","39.1","0","46.5"
"Cory Joseph","Cory-Joseph-13339","3400","PG","42.48","218.5","26.0","107.67","12.91","24.00","29.3","13.07","17.49","0","11.25"
"Ante Zizic","Ante-Zizic-35180","3300","C","53.47","217","16.5","103.60","16.12","18.00","33.78","16.9","16.9","0","32.0"
"Kyle Lowry","Kyle-Lowry-1057","7600","PG","50.28","223.5","31.5","105.50","23.02","33.00","60.95","22.08","38.87","0","21.0"
"Karl-Anthony Towns","Karl-Anthony-Towns-18937","10200","C","54.39","224","34.6","100.67","31.35","35.00","75.58","26.76","52.16","0","56.75"
"D'Angelo Russell","D'Angelo-Russell-18947","6900","PG/SG","46.85","223.5","30.5","114.62","31.36","32.00","53.08","20.56","35.27","0","47.0"
"Luke Kornet","Luke-Kornet-37800","4400","PF/C","54.58","218.5","22.2","100.17","16.36","25.00","38.86","14.34","22.4","0","12.75"
"Trevor Ariza","Trevor-Ariza-1323","5700","SF/PF","38.92","226.5","35.6","103.80","20.75","36.00","45.3","20.84","29.02","0","34.75"
"Willy Hernangomez","Willy-Hernangomez-18901","4400","C","50.74","223.5","14.9","103.00","26.70","19.00","42.85","18.64","22.32","0","18.5"
"Draymond Green","Draymond-Green-13976","7000","PF/C","61.78","219.5","33.0","103.10","13.16","33.00","51.89","18.58","35.25","0","23.25"
"Kemba Walker","Kemba-Walker-13335","8300","PG","48.48","223.5","31.4","103.00","31.75","34.00","70.03","24.27","41.56","0","28.25"
"Brook Lopez","Brook-Lopez-1498","4900","C","60.80","226.5","27.7","98.80","16.85","28.00","39.78","15.65","24.57","0","32.25"
"Collin Sexton","Collin-Sexton-408896","4400","PG","49.35","217","28.3","103.60","25.09","30.00","30.84","7.23","22.03","0","28.25"
"Zach LaVine","Zach-LaVine-18622","6400","PG/SG","50.64","219.5","31.7","104.50","26.84","33.00","47.19","16.93","31.95","0","33.0"
"Tyreke Evans","Tyreke-Evans-1070","3800","SG/SF","48.35","218.5","17.3","107.67","30.00","18.00","30.32","10.54","18.95","0","23.0"
"Victor Oladipo","Victor-Oladipo-16807","8200","PG/SG","52.25","218.5","31.3","107.67","27.03","33.00","64.22","31.23","40.88","0","34.0"
"Kevon Looney","Kevon-Looney-18945","4100","PF/C","55.76","219.5","21.6","103.10","11.83","25.00","33.73","12.51","20.44","0","30.25"
"Tim Hardaway Jr.","Tim-Hardaway-Jr.-16879","5900","SG/SF","47.22","218.5","29.4","100.17","21.87","32.00","49.28","16.87","29.44","0","25.5"
"Tomas Satoransky ","Tomas-Satoransky--36031","5300","PG/SG","47.63","226.5","31.4","103.80","16.87","34.00","46.72","20.57","26.47","0","54.5"
"Al-Farouq Aminu","Al-Farouq-Aminu-1279","5200","SF/PF","38.47","223.5","29.3","104.50","14.39","32.00","38.8","18.49","25.97","0","22.75"
"John Collins","John-Collins-37823","7800","PF/C","52.07","231","31.1","105.10","22.33","33.00","66.93","24.41","38.87","0","41.25"
"Josh Okogie","Josh-Okogie-409174","4300","SG/SF","48.94","224","25.4","100.67","14.15","28.00","29.96","9.22","21.4","0","22.0"
"Wesley Matthews","Wesley-Matthews-1339","4600","SG/SF","39.94","224","27.0","100.08","15.70","32.00","38.53","13.73","22.88","0","9.5"
"T.J. McConnell","T.J.-McConnell-18956","3700","PG/SG","43.14","231","26.2","108.33","15.79","24.00","33.47","15.36","18.4","0","32.75"
"Jeremy Lamb","Jeremy-Lamb-13955","5600","SG/SF","44.61","223.5","26.8","103.00","22.57","30.00","44.96","18.11","27.82","0","23.75"
"Damian Lillard","Damian-Lillard-13900","8700","PG","51.74","223.5","34.6","104.50","29.62","34.00","65.08","23.43","43.07","0","46.5"
"Evan Turner","Evan-Turner-1291","4000","SG/SF","50.21","223.5","21.3","104.50","16.88","25.00","32.26","13.91","19.79","0","28.25"
"Andrew Wiggins","Andrew-Wiggins-18620","6800","SG/SF","48.94","224","37.3","100.67","26.87","34.00","49.72","20.46","33.48","0","34.5"
"Damyean Dotson","Damyean-Dotson-37795","3300","SG/SF","35.91","218.5","20.2","100.17","14.15","22.00","28.15","13.73","16.19","0","29.5"
"Harrison Barnes","Harrison-Barnes-13901","5800","SF/PF","52.29","224","31.6","100.08","20.43","33.00","42.97","17.9","28.46","0","27.0"
"Seth Curry","Seth-Curry-16825","3600","PG/SG","38.08","223.5","19.7","104.50","18.12","23.00","34.31","14.8","17.64","0","8.75"
"J.J. Barea","J.J.-Barea-18605","4300","PG/SG","51.76","224","17.7","100.08","29.58","18.00","31.19","14.2","21.03","0","32.0"
"Jeff Teague","Jeff-Teague-1005","6700","PG","55.17","224","27.0","100.67","24.19","32.00","51.58","16.9","32.75","0","30.75"
"Dewayne Dedmon","Dewayne-Dedmon-16894","5300","PF/C","52.07","231","25.7","105.10","20.54","28.00","39.26","15.54","25.86","0","42.5"
"Kris Dunn","Kris-Dunn-35215","6600","PG/SG","50.64","219.5","32.0","104.50","23.41","33.00","50.12","15.43","32.15","0","17.5"
"Luka Doncic","Luka-Doncic-408971","8400","SG/SF","47.03","224","29.6","100.08","32.40","33.00","57.12","13.38","40.8","0","63.0"
"DeAndre Jordan","DeAndre-Jordan-1486","7300","C","50.14","224","29.8","100.08","13.42","32.00","49.53","13.69","35.38","0","29.25"
"P.J. Tucker","P.J.-Tucker-13947","4700","SF/PF","38.62","217","36.8","101.42","9.51","35.00","35.52","15.83","22.68","0","15.0"
"Dario Saric","Dario-Saric-36004","4500","PF","47.44","224","21.7","100.67","19.37","24.00","37.09","16.65","21.68","0","6.0"
"J.J. Redick","J.J.-Redick-1030","5500","SG/SF","41.67","231","31.5","108.33","20.88","28.00","42.62","16.39","26.44","0","27.75"
"Ben Simmons","Ben-Simmons-35184","8900","PG/SF","43.14","231","32.0","108.33","29.85","34.00","61.37","17.44","42.74","0","67.0"
"Kawhi Leonard","Kawhi-Leonard-13310","9700","SF/PF","44.31","223.5","33.7","105.50","30.60","34.00","68.22","28.38","46.6","0","43.25"
"Gerald Green","Gerald-Green-13374","4200","SG/SF","51.36","217","27.2","101.42","18.15","28.00","35.54","20.09","20.09","0","15.0"
"Andre Iguodala","Andre-Iguodala-1334","3800","SG/SF","38.37","219.5","23.0","103.10","10.99","24.00","28.65","9.96","18.11","0","17.5"
"Wendell Carter","Wendell-Carter-408878","5400","PF/C","48.52","219.5","28.3","104.50","15.43","27.00","35.97","8.43","25.69","0","12.75"
"Pascal Siakam","Pascal-Siakam-35186","6700","PF/C","58.33","223.5","31.1","105.50","21.73","32.00","48.31","17.6","31.89","0","28.0"
"Jeremy Lin","Jeremy-Lin-916","4600","PG/SG","51.96","231","21.9","105.10","25.31","24.00","38.14","16.56","21.88","0","12.0"
"Kevin Huerter","Kevin-Huerter-408969","4700","SG/SF","33.31","231","34.7","105.10","19.64","35.00","31.29","7.33","22.35","0","42.75"
"Kevin Durant","Kevin-Durant-1348","9800","SF/PF","47.57","219.5","34.4","103.10","30.90","33.00","67.75","22.94","46.53","0","39.0"
"Nicolas Batum","Nicolas-Batum-1315","4800","SG/SF","37.40","223.5","31.9","103.00","11.33","32.00","38.83","14.92","22.71","0","16.75"
"Ed Davis","Ed-Davis-1265","4000","C","50.81","223.5","21.0","114.62","12.67","20.00","37.38","16.3","18.87","0","13.25"
"Stephen Curry","Stephen-Curry-1079","9900","PG/SG","52.45","219.5","35.2","103.10","32.95","33.00","77.55","29.88","46.69","0","46.75"
"Alec Burks","Alec-Burks-13353","4800","PG/SG","46.29","217","30.7","103.60","17.27","27.00","44.49","22.63","22.63","0","34.25"
"Kevin Knox","Kevin-Knox-408820","5400","SF/PF","47.22","218.5","33.6","100.17","17.07","34.00","35.25","5.09","25.18","0","19.0"
"Kyle Kuzma","Kyle-Kuzma-37886","7200","SF/PF","49.70","217","32.6","112.50","28.10","36.00","48.06","16.6","33.47","0","24.0"
"Meyers Leonard","Meyers-Leonard-13905","3400","PF/C","59.28","223.5","16.3","104.50","16.39","18.00","31.56","15.79","15.79","0","12.75"
"Josh Hart","Josh-Hart-37889","5800","PG/SG","34.32","217","33.9","112.50","17.08","36.00","41.81","15.3","26.85","0","13.25"
"Jeff Green","Jeff-Green-1314","4800","SF/PF","45.94","226.5","32.1","103.80","18.20","28.00","39.29","16.12","22.17","0","31.25"
"Danny Green","Danny-Green-940","4400","SG/SF","32.00","223.5","26.8","105.50","12.09","30.00","32.65","13.67","20.34","0","27.5"
"Jonas Jerebko","Jonas-Jerebko-1106","3400","PF/C","47.57","219.5","15.2","103.10","14.60","18.00","30.56","15.59","15.59","0","17.5"
"Lonzo Ball","Lonzo-Ball-37885","6500","PG","43.88","217","33.4","112.50","19.15","36.00","42.46","15.56","29.86","0","28.75"
"Darren Collison","Darren-Collison-1060","4800","PG","42.48","218.5","24.5","107.67","15.99","24.00","34.8","12.3","21.97","0","31.75"
"Jarrett Allen","Jarrett-Allen-37794","5500","C","50.81","223.5","23.6","114.62","17.69","26.00","46.78","15.47","25.11","0","30.0"
"Derrick Rose","Derrick-Rose-1086","6100","PG/SG","55.17","224","38.0","100.67","31.88","27.00","52.99","25.69","27.83","0","34.75"
"Brandon Ingram","Brandon-Ingram-35227","6600","PG/SG","40.41","217","34.0","112.50","27.24","36.00","43.84","17.8","30.01","0","22.25"
"Lance Stephenson","Lance-Stephenson-947","3700","SG/SF","40.41","217","17.9","112.50","19.98","19.00","29.83","14.2","16.73","0","14.75"
"Chandler Hutchison","Chandler-Hutchison-408877","3400","SF/PF","36.11","219.5","21.3","104.50","13.29","26.00","21.5","5.04","15.36","0","15.0"
"Taj Gibson","Taj-Gibson-1277","4400","PF/C","49.29","224","26.0","100.67","15.42","24.00","32.12","12.62","19.78","0","33.75"
"Dwight Powell","Dwight-Powell-18566","3600","PF/C","53.04","224","16.1","100.08","18.84","16.00","29.07","12.55","16.15","0","22.25"
"Alex Len","Alex-Len-16886","4200","C","52.07","231","22.1","105.10","24.62","20.00","31.63","11.76","18.75","0","18.5"
"Dorian Finney-Smith","Dorian-Finney-Smith-36032","3300","SF/PF","39.40","224","19.6","100.08","15.27","20.00","26.19","10.56","14.65","0","13.0"
"Spencer Dinwiddie","Spencer-Dinwiddie-18588","6100","PG/SG","46.85","223.5","25.0","114.62","24.45","28.00","44.64","20.52","27.04","0","16.75"
"Daniel Hamilton","Daniel-Hamilton-35210","3400","SG/SF","33.31","231","17.7","105.10","17.63","19.00","21.06","3.04","15.04","0","0.0"
"Trey Burke","Trey-Burke-17029","3400","PG/SG","47.62","218.5","15.8","100.17","29.78","15.00","24.87","11.16","15","0","17.75"
"Bojan Bogdanovic","Bojan-Bogdanovic-18571","5700","SG/SF","35.65","218.5","31.7","107.67","20.47","32.00","40.73","17.11","25.16","0","22.0"
"Shaquille Harrison","Shaquille-Harrison-36065","3400","PG/SF","38.11","219.5","19.7","104.50","17.15","18.00","27.06","12.04","14.85","0","14.75"
"Tony Parker","Tony-Parker-982","3500","PG","41.69","223.5","16.2","103.00","26.58","16.00","29.44","15.24","15.24","0","6.5"
"Klay Thompson","Klay-Thompson-13315","7200","SG","38.37","219.5","34.4","103.10","25.36","33.00","47.8","17.93","31.3","0","41.5"
"Fred VanVleet","Fred-VanVleet-36011","5200","PG/SG","39.21","223.5","31.1","105.50","18.51","25.00","42.9","21.02","22.46","0","24.5"
"Jake Layman","Jake-Layman-35216","3500","SF/PF","38.47","223.5","13.8","104.50","16.68","20.00","28.32","12.97","15.12","0","18.75"
"Jordan Clarkson","Jordan-Clarkson-18631","5700","PG/SG","46.29","217","26.7","103.60","26.76","26.00","42.84","17.02","24.38","0","20.25"
"Tyson Chandler","Tyson-Chandler-1482","3100","C","51.71","217","18.0","112.50","11.86","16.00","26.18","13.26","13.26","0","7.25"
"Bismack Biyombo","Bismack-Biyombo-13312","4300","C","50.74","223.5","17.2","103.00","15.84","22.00","30.13","12.98","18.33","0","19.0"
"Devin Harris","Devin-Harris-1076","3100","PG/SG","51.76","224","13.0","100.08","19.03","16.00","25.6","13.04","13.04","0","0.0"
"Ryan Arcidiacono","Ryan-Arcidiacono-36050","3100","PG","38.11","219.5","18.0","104.50","8.26","18.00","23.65","11.07","12.98","0","16.75"
"Shabazz Napier","Shabazz-Napier-18598","4300","PG/SG","40.68","223.5","24.4","114.62","24.85","21.00","26.01","10.91","17.89","0","25.5"
"Matthew Dellavedova","Matthew-Dellavedova-16839","3500","PG/SG","38.75","217","18.6","103.60","20.66","19.00","29.11","12.93","14.56","0","10.75"
"Michael Kidd-Gilchrist","Michael-Kidd-Gilchrist-13896","3200","SF/PF","37.40","223.5","17.4","103.00","14.15","18.00","23.87","9.22","13.26","0","10.25"
"Landry Shamet","Landry-Shamet-408841","3100","PG/SG","41.67","231","20.2","108.33","17.47","19.00","17.93","3.32","12.81","0","9.25"
"Joe Harris","Joe-Harris-18587","5200","SG/SF","36.43","223.5","26.0","114.62","19.27","32.00","35.77","13.69","21.46","0","11.75"
"Thomas Bryant ","Thomas-Bryant--37884","5600","PF/C","58.37","226.5","25.4","103.80","15.43","23.00","46.2","21.58","23.11","0","19.75"
"DeMarre Carroll","DeMarre-Carroll-1174","5300","SF/PF","37.25","223.5","28.7","114.62","19.75","28.00","41.09","17.55","21.88","0","12.5"
"Chasson Randle","Chasson-Randle-36002","3100","PG/SG","47.63","226.5","16.7","103.80","19.12","16.00","23.22","10.36","12.71","0","8.25"
"Sam Dekker","Sam-Dekker-18929","3300","SF/PF","38.92","226.5","17.7","103.80","18.40","18.00","24.03","11.62","13.54","0","4.5"
"D.J. Wilson","D.J.-Wilson-37822","3400","PF/C","48.19","226.5","16.2","98.80","11.12","16.00","18.11","12.54","13.93","0","12.75"
"Allonzo Trier","Allonzo-Trier-554950","3300","PG/SG","47.22","218.5","17.8","100.17","19.61","18.00","18.79","3.48","13.42","0","10.75"
"Antonio Blakeney","Antonio-Blakeney-37811","3200","PG/SG","42.13","219.5","15.4","104.50","21.63","17.00","25.99","10.58","13","0","14.0"
"Nene Hilario","Nene-Hilario-17321","3100","C","49.19","217","12.0","101.42","12.19","12.00","22.39","10.89","12.52","0","6.5"
"Mario Hezonja","Mario-Hezonja-18923","3900","SF/PF","35.87","218.5","18.2","100.17","21.27","18.00","30.71","13.18","15.71","0","32.5"
"Doug McDermott","Doug-McDermott-18583","3000","SF/PF","35.65","218.5","16.5","107.67","14.35","16.00","21.8","10.18","11.88","0","12.5"
"Naz Mitrou-Long","Naz-Mitrou-Long-37874","3000","PG","49.67","217","8.0","98.88","21.65","15.00","16.59","1.87","11.85","0","1.5"
"Furkan Korkmaz","Furkan-Korkmaz-35185","3900","SG/SF","41.67","231","22.8","108.33","20.86","20.00","30.72","11.73","15.37","0","-0.5"
"Gorgui Dieng","Gorgui-Dieng-16939","3200","PF/C","49.29","224","13.0","100.67","12.09","12.00","22.83","10.12","12.59","0","19.25"
"Zach Collins","Zach-Collins-37866","3700","PF/C","59.28","223.5","17.1","104.50","15.94","16.00","24.98","11.27","14.38","0","19.5"
"OG Anunoby","OG-Anunoby-37807","3400","SF/PF","32.00","223.5","20.6","105.50","12.11","18.00","24.92","11.62","12.98","0","19.25"
"Cameron Payne","Cameron-Payne-18941","3500","PG/SG","38.75","217","16.3","103.60","17.03","16.00","22.24","10.32","13.3","0","28.5"
"Michael Beasley","Michael-Beasley-1338","3400","SF/PF","49.70","217","14.5","112.50","29.84","12.00","23.18","11.11","12.75","0","27.75"
"Kentavious Caldwell-Pope","Kentavious-Caldwell-Pope-16869","5100","SG/SF","34.32","217","27.6","112.50","21.18","25.00","36.64","14.76","18.83","0","19.75"
"Greg Monroe","Greg-Monroe-1487","3500","C","61.80","223.5","14.1","105.50","19.00","11.00","20.92","8.87","12.78","0","24.5"
"Tony Snell","Tony-Snell-16872","3000","SG/SF","35.82","226.5","14.8","98.80","13.82","19.00","21.51","10.76","10.76","0","9.0"
"Ian Mahinmi","Ian-Mahinmi-1357","3700","C","48.05","226.5","19.4","103.80","14.95","15.00","26.51","12.05","13.26","0","3.25"
"Sterling Brown","Sterling-Brown-37821","3400","SG/SF","40.48","226.5","15.8","98.80","17.71","17.00","23.69","11.85","11.85","0","19.75"
"Miles Bridges","Miles-Bridges-409262","3200","SF/PF","52.15","223.5","14.0","103.00","14.10","14.00","15.53","2.48","11.09","0","10.25"
"Malik Monk","Malik-Monk-37827","3600","PG/SG","48.48","223.5","16.9","103.00","26.48","14.00","22.32","10.24","12.44","0","14.75"
"Treveon Graham","Treveon-Graham-36023","3100","SF/PF","37.25","223.5","17.2","114.62","17.70","18.00","20.93","10.47","10.47","0","10.0"
"James Ennis","James-Ennis-18599","3100","SG/SF","38.62","217","10.8","101.42","12.17","16.00","20.89","10.45","10.45","0","19.5"
"Dirk Nowitzki","Dirk-Nowitzki-1346","3000","PF/C","53.04","224","11.2","100.08","22.53","12.00","16.39","8.29","10.04","0","9.0"
"Shaun Livingston","Shaun-Livingston-14007","3300","PG","40.79","219.5","12.2","103.10","13.49","15.00","20.05","8.43","10.74","0","5.25"
"Anthony Tolliver","Anthony-Tolliver-1263","3400","SF/PF","47.44","224","24.5","100.67","12.19","14.00","19.79","10.92","10.92","0","0.0"
"Vince Carter","Vince-Carter-1066","3200","SF/PF","33.31","231","15.0","105.10","20.14","15.00","20.35","10.18","10.18","0","6.0"
"Norman Powell","Norman-Powell-18908","3800","SG/SF","29.65","223.5","22.0","105.50","18.84","15.00","23.71","10.6","11.86","0","18.0"
"Jalen Jones","Jalen-Jones-35996","3200","SF/PF","36.25","217","17.9","103.60","17.22","14.00","19.69","8.65","9.85","0","19.5"
"Brandon Knight","Brandon-Knight-13336","3000","PG/SG","55.69","217","9.4","101.42","18.42","10.00","14.15","6.64","9.12","0","21.5"
"Rodney Hood","Rodney-Hood-18629","4200","SG/SF","46.29","217","25.5","103.60","14.19","16.00","19.47","7.38","12.32","0","11.0"
"Kenneth Faried","Kenneth-Faried-13313","3500","PF/C","50.81","223.5","27.5","114.62","22.03","10.00","20.25","10.13","10.13","0","10.25"
"Channing Frye","Channing-Frye-1484","3100","PF/C","53.10","217","11.9","103.60","18.35","10.00","15.12","6.61","8.65","0","0.0"
"TJ Leaf","TJ-Leaf-37817","3000","SF/PF","59.44","218.5","8.0","107.67","19.68","10.00","16.07","8.04","8.04","0","13.5"
"Delon Wright","Delon-Wright-18907","3700","PG/SG","39.21","223.5","19.9","105.50","17.81","12.00","14.75","6.24","9.88","0","27.75"
"Thon Maker","Thon-Maker-35194","3100","PF/C","56.46","226.5","12.8","98.80","17.69","10.00","16.01","6.72","8.28","0","2.0"
"Quinn Cook","Quinn-Cook-31771","3200","PG","52.45","219.5","11.8","103.10","23.56","10.00","16.39","8.2","8.2","0","27.25"
"Jordan Bell","Jordan-Bell-37877","3100","PF/C","55.76","219.5","8.0","103.10","11.98","8.00","15.76","6.86","7.89","0","20.75"
"Lance Thomas","Lance-Thomas-13363","3000","SF/PF","35.91","218.5","7.0","100.17","11.43","12.00","15.15","7.58","7.58","0","0"
"Tyus Jones","Tyus-Jones-18938","3800","PG","41.77","224","28.6","100.67","17.67","10.00","15.6","7.83","8.73","0","15.5"
"Alfonzo McKinnie","Alfonzo-McKinnie-37808","3000","SF/PF","35.14","219.5","10.8","103.10","13.57","8.00","11.01","4.56","5.51","0","13.0"
"Devonte' Graham","Devonte'-Graham-408968","3700","PG/SG","41.69","223.5","20.1","103.00","18.53","8.00","9.0","1.44","6.43","0","9.5"
"Nik Stauskas","Nik-Stauskas-18636","3200","SG/SF","38.08","223.5","11.8","104.50","16.44","8.00","9.94","4.4","5.47","0","25.75"
"Robin Lopez","Robin-Lopez-1466","3100","C","54.69","219.5","11.7","104.50","16.57","6.00","9.56","4.29","4.78","0","6.75"
"Wayne Selden","Wayne-Selden-36045","3100","SG/SF","50.64","219.5","4.2","104.50","21.52","6.00","8.47","3.64","4.56","0","12.0"
"Tyler Dorsey","Tyler-Dorsey-37825","3100","PG/SG","33.31","231","10.0","105.10","17.58","5.00","5.71","2.76","3.46","0","0.0"
"Jalen Brunson","Jalen-Brunson-409062","3400","PG","35.41","224","12.4","100.08","26.69","4.00","3.96","0.57","2.83","0","15.5"
"Georges Niang","Georges-Niang-35193","3000","SF/PF","44.07","217","5.7","98.88","18.82","3.00","4.79","2.07","2.43","0","12.0"
