"nameCol","idCol","salaryCol","positionCol","dvpCol","ouCol","mpgCol","paceCol","usgCol","pminCol","ceilCol","floorCol","pointsCol","predictCol","actualCol"
"Jon Leuer","Jon-Leuer-13317","3100","PF/C","56.49","220","13.5","100.30","13.75","25.00","33.54","17.57","20.65","0","27.25"
"Stanley Johnson","Stanley-Johnson-18913","3100","SF/PF","37.83","220","13.0","100.30","22.53","24.00","31.61","15.19","19.18","0","22.0"
"Marco Belinelli","Marco-Belinelli-1033","3200","SG/SF","41.02","224.5","21.4","99.70","18.28","24.00","28.07","14.68","19.21","0","26.5"
"Dennis Schroder","Dennis-Schroder-18595","4800","PG/SG","51.53","224.5","28.3","102.62","24.82","29.00","43.4","22.37","28.46","0","23.0"
"LaMarcus Aldridge","LaMarcus-Aldridge-1349","7200","PF/C","52.39","224.5","32.3","99.70","27.75","35.00","59.46","26.15","41.12","0","78.75"
"DeMar DeRozan","DeMar-DeRozan-1053","8300","SG/SF","46.83","224.5","34.4","99.70","26.84","36.00","62.94","21.45","45.84","0","46.0"
"Reggie Jackson","Reggie-Jackson-13352","5000","PG/SG","55.78","220","26.4","100.30","22.46","28.00","38.33","14.41","27.44","0","13.5"
"Jakob Poeltl","Jakob-Poeltl-35187","3600","C","49.74","224.5","16.7","99.70","14.24","21.00","26.86","10.63","19.58","0","4.75"
"Bruce Brown","Bruce-Brown-408913","3700","PG/SG","41.84","220","26.7","100.30","14.93","32.00","23.3","7.32","19.9","0","26.75"
"De'Aaron Fox","De'Aaron-Fox-37900","7600","PG","53.86","220","31.0","98.20","28.26","34.00","50.27","20.91","40.84","0","30.75"
"Bryn Forbes","Bryn-Forbes-36052","4300","PG/SG","48.37","224.5","32.3","99.70","15.66","31.00","32.84","14.0","22.92","0","29.0"
"Hassan Whiteside","Hassan-Whiteside-18664","6800","C","50.47","212","23.2","106.90","20.09","27.00","45.68","17.07","36.17","0","26.5"
"Patty Mills","Patty-Mills-13977","3500","PG/SG","35.03","224.5","21.6","99.70","19.63","23.00","27.71","14.48","18.56","0","31.75"
"Derrick White","Derrick-White-37858","4900","PG/SG","35.03","224.5","27.9","99.70","17.28","31.00","41.72","21.44","25.77","0","46.75"
"Josh Richardson","Josh-Richardson-18922","5800","SG/SF","44.74","212","33.2","106.90","21.22","34.00","44.56","17.76","30.31","0","32.75"
"Davis Bertans","Davis-Bertans-36051","3700","SF/PF","52.39","224.5","22.9","99.70","12.05","25.00","33.01","15.47","19.34","0","24.0"
"Kelly Olynyk","Kelly-Olynyk-16845","3900","PF/C","50.63","212","21.8","106.90","17.79","22.00","30.52","17.02","20.29","0","2.5"
"Willie Cauley-Stein","Willie-Cauley-Stein-18951","6600","C","51.57","220","29.4","98.20","21.17","32.00","46.85","19.33","33.8","0","43.0"
"Russell Westbrook","Russell-Westbrook-1083","11300","PG","51.53","224.5","36.7","102.62","38.41","36.00","64.35","19.79","57.87","0","83.25"
"Steven Adams","Steven-Adams-16848","7000","C","50.87","224.5","34.6","102.62","13.78","35.00","47.12","23.54","35.78","0","36.25"
"Reggie Bullock","Reggie-Bullock-16943","4600","SG/SF","37.83","220","30.4","100.30","18.76","34.00","37.32","16.06","23.41","0","28.75"
"Iman Shumpert","Iman-Shumpert-13350","3700","SG/SF","37.77","220","27.2","98.20","17.43","26.00","28.95","5.26","18.8","0","19.5"
"Jamal Murray","Jamal-Murray-35211","7300","PG/SG","53.41","226.5","34.1","99.62","29.51","34.00","54.13","22.03","36.77","0","32.5"
"Andre Drummond","Andre-Drummond-13904","9100","C","55.93","220","31.7","100.30","20.56","34.00","56.33","21.26","45.72","0","28.75"
"Patrick Beverley","Patrick-Beverley-14108","3800","PG/SG","38.69","226.5","25.8","108.38","11.41","25.00","29.82","11.72","18.91","0","17.25"
"Paul Millsap","Paul-Millsap-1335","6300","PF/C","53.01","226.5","22.7","99.62","21.98","29.00","43.99","19.87","31.24","0","20.75"
"Buddy Hield","Buddy-Hield-35206","6700","SG/SF","37.77","220","32.6","98.20","22.97","34.00","50.08","22.87","33.19","0","21.0"
"Jerami Grant","Jerami-Grant-18576","4800","PF","50.62","224.5","32.1","102.62","13.46","33.00","36.76","16.88","23.64","0","48.0"
"Paul George","Paul-George-1245","9800","SF/PF","50.62","224.5","35.0","102.62","33.54","36.00","67.28","29.75","48.3","0","48.0"
"Nikola Jokic","Nikola-Jokic-31812","10500","C","55.41","226.5","34.1","99.62","32.36","33.00","65.69","21.21","51.6","0","58.5"
"Avery Bradley","Avery-Bradley-941","3400","SG","33.44","226.5","27.3","108.38","14.51","30.00","24.46","10.99","16.65","0","11.5"
"Tobias Harris","Tobias-Harris-13332","7400","SF/PF","47.43","226.5","32.2","108.38","23.78","34.00","47.69","19.41","36.02","0","41.25"
"Danilo Gallinari","Danilo-Gallinari-1329","7100","SF/PF","47.43","226.5","32.3","108.38","22.41","34.00","48.54","19.47","34.4","0","30.25"
"Jayson Tatum","Jayson-Tatum-37782","6000","SF/PF","48.80","212","29.3","101.75","20.08","32.00","36.91","15.52","29.06","0","26.0"
"Dwyane Wade","Dwyane-Wade-967","5100","PG/SG","44.74","212","25.0","106.90","25.72","24.00","34.4","16.06","24.26","0","23.0"
"Justise Winslow","Justise-Winslow-18921","5900","PG/SF","33.26","212","29.0","106.90","25.88","30.00","42.69","16.21","27.9","0","40.25"
"Bogdan Bogdanovic","Bogdan-Bogdanovic-37899","6200","SG/SF","43.53","220","31.6","98.20","25.43","30.00","42.5","17.73","29.31","0","19.75"
"Daniel Theis","Daniel-Theis-37784","3900","PF/C","49.65","212","16.1","101.75","16.08","20.00","30.08","16.47","18.22","0","7.75"
"Kyrie Irving","Kyrie-Irving-13334","9000","PG","49.68","212","29.4","101.75","27.24","33.00","55.97","22.37","41.74","0","39.25"
"Montrezl Harrell","Montrezl-Harrell-18930","6500","PF/C","53.73","226.5","23.3","108.38","26.59","26.00","45.04","23.45","30.07","0","24.5"
"Terry Rozier","Terry-Rozier-18894","4000","PG/SG","45.15","212","21.4","101.75","20.44","20.00","29.1","15.67","18.35","0","13.0"
"Marcus Smart","Marcus-Smart-18567","4700","PG/SG","49.68","212","26.9","101.75","15.67","28.00","29.45","11.96","21.4","0","25.25"
"Malik Beasley","Malik-Beasley-35213","3800","PG/SG","34.08","226.5","27.3","99.62","17.32","24.00","31.59","17.28","17.28","0","31.25"
"Gordon Hayward","Gordon-Hayward-1239","5700","SF/PF","48.80","212","25.6","101.75","23.35","27.00","37.79","17.72","25.6","0","13.25"
"Jaylen Brown","Jaylen-Brown-35181","4500","SG/SF","37.39","212","25.7","101.75","21.84","25.00","37.35","16.74","20.17","0","8.0"
"Rodney McGruder","Rodney-McGruder-16850","3300","SG/SF","33.77","212","21.3","106.90","17.55","21.00","22.43","9.09","14.61","0","7.75"
"Gary Harris","Gary-Harris-18617","5600","SG","49.05","226.5","25.5","99.62","20.44","28.00","34.75","14.54","24.73","0","0.0"
"Monte Morris","Monte-Morris-37860","3800","PG","53.41","226.5","20.6","99.62","19.69","20.00","25.03","12.99","16.8","0","23.5"
"Dion Waiters","Dion-Waiters-13897","3500","SG/SF","44.74","212","17.0","106.90","27.14","18.00","25.5","12.22","15.37","0","20.5"
"James Johnson","James-Johnson-1195","4200","SF/PF","42.68","212","17.0","106.90","18.13","24.00","23.78","9.54","18.28","0","24.75"
"Marvin Bagley III","Marvin-Bagley-III-409321","5000","PF/C","47.12","220","20.0","98.20","19.94","20.00","22.43","4.26","21.76","0","23.25"
"Marcus Morris","Marcus-Morris-13316","5600","SF/PF","37.39","212","26.8","101.75","20.37","28.00","32.01","12.28","23.71","0","33.5"
"Jose Calderon","Jose-Calderon-1071","3200","PG","45.18","220","18.6","100.30","10.34","18.00","23.71","10.66","13.44","0","17.25"
"Mason Plumlee","Mason-Plumlee-16798","4200","PF/C","57.80","226.5","21.3","99.62","15.18","19.00","29.48","13.67","17.62","0","42.0"
"Al Horford","Al-Horford-1499","6100","PF/C","54.00","212","23.0","101.75","21.36","27.00","34.21","13.85","25.19","0","12.5"
"Torrey Craig","Torrey-Craig-37861","4000","SG/SF","34.08","226.5","28.3","99.62","13.42","26.00","22.81","9.68","16.35","0","27.5"
"Nemanja Bjelica","Nemanja-Bjelica-31814","5400","SF/PF","47.12","220","26.3","98.20","17.56","24.00","35.92","14.69","22.09","0","24.25"
"Harry Giles","Harry-Giles-37897","3200","PF/C","47.12","220","15.4","98.20","19.37","15.00","13.43","2.55","13.03","0","31.0"
"Bam Adebayo","Bam-Adebayo-37835","4600","PF/C","50.47","212","23.2","106.90","16.75","20.00","27.5","16.5","18.67","0","32.25"
"Lou Williams","Lou-Williams-1044","6900","PG/SG","43.96","226.5","27.2","108.38","33.02","26.00","42.09","16.89","27.6","0","26.0"
"Shai Gilgeous-Alexander","Shai-Gilgeous-Alexander-408990","4600","PG/SG","38.69","226.5","19.8","108.38","18.79","23.00","27.38","7.52","18.25","0","8.0"
"Marcin Gortat","Marcin-Gortat-1479","4000","C","52.22","226.5","15.8","108.38","18.64","18.00","22.65","9.28","15.46","0","6.75"
"Glenn Robinson","Glenn-Robinson-18621","3000","SF/PF","37.83","220","5.3","100.30","11.65","15.00","19.27","9.64","11.18","0","0"
"Juan Hernangomez","Juan-Hernangomez-35212","3700","SF/PF","53.01","226.5","20.9","99.62","9.79","18.00","26.04","13.7","13.7","0","11.25"
"Luke Kennard","Luke-Kennard-37814","3300","SG/SF","41.84","220","19.6","100.30","20.83","16.00","18.28","8.37","12.05","0","13.25"
"Tyler Johnson","Tyler-Johnson-18720","4400","PG/SG","49.46","212","22.2","106.90","21.03","20.00","25.28","11.31","16.06","0","17.75"
"Terrance Ferguson","Terrance-Ferguson-37871","3400","SG/SF","32.90","224.5","22.0","102.62","10.13","24.00","19.06","7.45","11.96","0","25.25"
"Justin Jackson","Justin-Jackson-37895","4100","SF/PF","37.77","220","26.7","98.20","14.31","20.00","21.2","11.23","13.93","0","10.5"
"Patrick Patterson","Patrick-Patterson-1260","3200","PF/C","50.39","224.5","13.6","102.62","12.62","16.00","18.62","8.93","10.54","0","7.5"
"Langston Galloway","Langston-Galloway-18717","3100","PG/SG","41.84","220","11.7","100.30","19.44","14.00","17.41","8.45","10.19","0","14.25"
"Mike Scott","Mike-Scott-13999","3000","SF/PF","47.43","226.5","11.0","108.38","16.95","12.00","19.13","5.36","9.57","0","5.5"
"Pau Gasol","Pau-Gasol-1502","3100","C","52.39","224.5","10.7","99.70","13.03","9.00","14.42","6.37","9.68","0","14.25"
"Tyrone Wallace","Tyrone-Wallace-35220","3100","PG/SG","43.96","226.5","12.0","108.38","15.48","12.00","14.01","5.09","8.77","0","13.5"
"Hamidou Diallo","Hamidou-Diallo-408800","3000","SG/SF","32.90","224.5","9.6","102.62","13.32","13.00","8.95","2.06","8.45","0","4.75"
"Abdel Nader","Abdel-Nader-35179","3200","SF","38.02","224.5","15.7","102.62","16.56","14.00","15.99","8.04","8.04","0","14.75"
"Trey Lyles","Trey-Lyles-18942","3600","SF/PF","53.01","226.5","12.4","99.62","23.37","9.00","13.61","7.16","8.64","0","13.5"
"Dante Cunningham","Dante-Cunningham-1259","3000","SF/PF","46.94","224.5","4.7","99.70","17.61","5.00","6.03","2.56","3.2","0","0.0"
"Yogi Ferrell","Yogi-Ferrell-35999","3300","PG/SG","53.86","220","15.1","98.20","15.86","5.00","6.06","3.09","3.49","0","16.25"
"Timothe Luwawu-Cabarrot","Timothe-Luwawu-Cabarrot-35183","3000","SG/SF","38.02","224.5","2.0","102.62","0.00","4.00","4.34","2.69","2.69","0","0.0"
