"nameCol","idCol","salaryCol","positionCol","dvpCol","ouCol","mpgCol","paceCol","usgCol","pminCol","ceilCol","floorCol","pointsCol","predictCol","actualCol"
"Rondae Hollis-Jefferson","Rondae-Hollis-Jefferson-18897","3800","PF/C","47.92","218.5","14.5","114.62","25.72","24.00","50.37","6.3","25.2","0","25.0"
"Richaun Holmes","Richaun-Holmes-18905","4700","PF/C","51.10","225.5","17.8","108.80","17.24","30.00","61.55","5.51","30.79","0","22.0"
"Stanley Johnson","Stanley-Johnson-18913","3200","SF/PF","39.22","216.5","16.7","100.30","12.38","25.00","40.17","4.61","20.76","0","26.75"
"Pau Gasol","Pau-Gasol-1502","3100","C","57.64","225.5","9.6","99.70","19.13","16.00","33.54","7.59","18.6","0","1.0"
"Elie Okobo","Elie-Okobo-409300","3500","PG","43.25","225.5","16.8","108.80","16.29","30.00","29.27","16.92","20.91","0","11.25"
"Jahlil Okafor","Jahlil-Okafor-18902","6100","C","54.13","233.5","22.7","104.88","19.16","34.00","63.13","15.11","36.24","0","48.5"
"Reggie Jackson","Reggie-Jackson-13352","4800","PG/SG","47.97","216.5","30.0","100.30","17.14","31.00","42.87","15.49","28.26","0","39.75"
"Luke Kennard","Luke-Kennard-37814","3500","SG/SF","36.81","216.5","23.3","100.30","20.84","27.00","38.05","6.58","20.36","0","28.0"
"Rodney Hood","Rodney-Hood-18629","4000","SG/SF","44.77","218","24.9","103.60","19.59","30.00","37.29","9.32","23.29","0","19.0"
"Eric Gordon","Eric-Gordon-1077","5000","SG/SF","49.45","233.5","31.2","101.42","24.95","35.00","48.49","10.64","29.07","0","22.25"
"Kelly Oubre","Kelly-Oubre-18925","5700","SG/SF","37.58","225.5","29.1","108.80","25.48","31.00","61.29","9.77","33.13","0","25.75"
"Kenneth Faried","Kenneth-Faried-13313","6300","PF/C","51.32","233.5","30.5","101.42","18.25","34.00","58.02","18.58","36.58","0","39.75"
"Russell Westbrook","Russell-Westbrook-1083","10600","PG","52.90","222","35.7","102.62","35.19","36.00","85.9","31.17","61.36","0","66.0"
"Shabazz Napier","Shabazz-Napier-18598","4900","PG/SG","40.80","218.5","17.2","114.62","30.28","28.00","54.81","7.86","27.98","0","41.75"
"Cheick Diallo","Cheick-Diallo-35225","3200","PF/C","54.13","233.5","11.0","104.88","23.95","19.00","36.26","5.5","18.14","0","8.5"
"Tomas Satoransky ","Tomas-Satoransky--36031","6000","PG/SG","55.82","218","35.4","103.80","17.56","37.00","66.17","11.26","33.42","0","20.75"
"Rudy Gay","Rudy-Gay-1341","5900","SF/PF","47.73","225.5","28.3","99.70","23.39","31.00","49.03","12.2","32.62","0","33.25"
"Mikal Bridges","Mikal-Bridges-408842","3900","SG/SF","37.58","225.5","30.2","108.80","11.00","33.00","30.21","17.46","21.58","0","38.0"
"Khris Middleton","Khris-Middleton-13990","6400","SG/SF","45.51","216.5","29.8","98.80","22.91","34.00","52.92","10.04","34.86","0","29.0"
"Joel Embiid","Joel-Embiid-18578","10200","C","58.20","","31.4","108.33","36.45","34.00","88.68","38.65","55.53","0","52.25"
"Joe Harris","Joe-Harris-18587","4900","SG/SF","35.12","218.5","29.5","114.62","20.04","32.00","46.48","10.09","26.41","0","30.25"
"Solomon Hill","Solomon-Hill-16863","3400","SF/PF","36.91","233.5","24.0","104.88","9.55","31.00","36.52","4.81","18.27","0","15.0"
"Giannis Antetokounmpo","Giannis-Antetokounmpo-16852","10700","SF/PF","44.67","216.5","30.5","98.80","34.02","34.00","79.65","32.65","56.89","0","58.5"
"Jimmy Butler","Jimmy-Butler-13327","6900","SG/SF","48.58","","33.3","108.33","23.78","35.00","53.31","18.59","36.74","0","47.25"
"Darius Miller","Darius-Miller-13951","3700","SF/PF","36.91","233.5","29.3","104.88","13.95","32.00","39.18","6.53","19.6","0","28.75"
"Elfrid Payton","Elfrid-Payton-18602","5400","PG","40.27","233.5","28.0","104.88","19.91","30.00","45.35","13.5","28.54","0","0.0"
"Josh Jackson","Josh-Jackson-37890","5300","SF/PF","47.20","225.5","26.1","108.80","24.69","32.00","52.24","11.55","28.04","0","31.0"
"Aaron Gordon","Aaron-Gordon-18601","6700","SF/PF","48.72","222","33.8","105.10","21.54","36.00","60.76","14.3","35.39","0","40.25"
"Nikola Vucevic","Nikola-Vucevic-13296","9500","C","51.75","222","32.7","105.10","30.63","34.00","79.36","20.72","50.04","0","54.75"
"Jarrett Allen","Jarrett-Allen-37794","5600","C","56.28","218.5","26.7","114.62","14.82","26.00","58.69","12.68","29.36","0","22.5"
"Rajon Rondo","Rajon-Rondo-1085","6700","PG","39.69","","39.5","112.50","16.67","36.00","53.97","10.23","34.8","0","30.25"
"Evan Fournier","Evan-Fournier-13913","5500","SG/SF","42.00","222","33.4","105.10","21.51","34.00","43.96","12.43","28.51","0","25.0"
"LaMarcus Aldridge","LaMarcus-Aldridge-1349","8700","PF/C","57.64","225.5","30.8","99.70","30.20","35.00","65.36","22.92","44.95","0","55.0"
"Devin Booker","Devin-Booker-18949","8100","PG/SG","53.15","225.5","31.2","108.80","33.86","35.00","75.4","17.65","41.82","0","57.25"
"Bryn Forbes","Bryn-Forbes-36052","4300","PG/SG","53.08","225.5","29.5","99.70","14.30","31.00","35.06","5.81","22.16","0","17.25"
"Lauri Markkanen","Lauri-Markkanen-37809","6600","PF","46.74","218.5","31.9","104.50","22.23","34.00","57.87","14.52","33.84","0","48.25"
"J.J. Redick","J.J.-Redick-1030","5700","SG/SF","36.30","","30.2","108.33","22.07","32.00","49.98","12.42","29.23","0","19.0"
"D'Angelo Russell","D'Angelo-Russell-18947","8400","PG/SG","52.55","218.5","28.3","114.62","33.61","32.00","67.46","20.8","42.97","0","52.5"
"Chris Paul","Chris-Paul-1087","6900","PG","51.67","233.5","25.0","101.42","22.18","30.00","51.75","15.64","35.3","0","32.0"
"Ante Zizic","Ante-Zizic-35180","6100","C","55.79","218","30.1","103.60","18.13","32.00","51.82","13.18","31.16","0","29.0"
"Steven Adams","Steven-Adams-16848","6500","C","51.72","222","34.7","102.62","16.00","34.00","56.8","15.1","33.18","0","0.0"
"Trevor Ariza","Trevor-Ariza-1323","6300","SF/PF","38.74","218","37.0","103.80","18.17","37.00","47.5","10.0","32.14","0","27.75"
"Malcolm Brogdon","Malcolm-Brogdon-35195","5800","PG/SG","51.81","216.5","28.3","98.80","21.93","32.00","56.04","10.37","29.54","0","0.0"
"Otto Porter","Otto-Porter-17069","6200","SF/PF","38.74","218","30.6","103.80","21.42","32.00","63.01","9.65","31.52","0","18.25"
"D.J. Augustin","D.J.-Augustin-1064","4600","PG","39.31","222","28.3","105.10","19.82","28.00","41.95","9.44","23.37","0","21.5"
"Paul George","Paul-George-1245","9800","SF/PF","49.12","222","37.1","102.62","28.97","37.00","78.36","23.94","49.66","0","57.5"
"Alec Burks","Alec-Burks-13353","4900","PG/SG","44.77","218","24.3","103.60","19.97","30.00","42.08","10.01","24.78","0","27.75"
"Cedi Osman","Cedi-Osman-18912","5200","SF/PF","35.53","218","30.1","103.60","19.73","35.00","43.34","12.76","26.09","0","49.25"
"Bradley Beal","Bradley-Beal-13898","9200","SG","48.16","218","37.8","103.80","29.35","38.00","71.81","23.51","46.18","0","47.5"
"Davis Bertans","Davis-Bertans-36051","4100","SF/PF","57.64","225.5","25.8","99.70","12.59","26.00","41.04","5.4","20.53","0","38.25"
"Ed Davis","Ed-Davis-1265","4100","C","56.28","218.5","20.2","114.62","13.04","20.00","41.1","5.88","20.56","0","19.25"
"DeMarre Carroll","DeMarre-Carroll-1174","4600","SF/PF","39.05","218.5","28.3","114.62","18.71","28.00","46.06","5.94","23.04","0","22.25"
"Jrue Holiday","Jrue-Holiday-1073","8600","PG/SG","49.59","233.5","37.2","104.88","27.17","38.00","68.72","20.52","43.11","0","51.5"
"Andre Drummond","Andre-Drummond-13904","8500","C","48.17","216.5","27.7","100.30","19.20","34.00","59.64","22.45","42.6","0","49.75"
"Dennis Schroder","Dennis-Schroder-18595","5000","PG/SG","52.90","222","23.9","102.62","28.00","26.00","40.82","6.24","24.95","0","33.75"
"Wilson Chandler","Wilson-Chandler-1327","3800","SF/PF","39.96","","30.6","108.33","10.50","29.00","31.7","6.58","18.96","0","25.0"
"Jordan Clarkson","Jordan-Clarkson-18631","4700","PG/SG","44.77","218","24.6","103.60","25.99","25.00","46.82","8.15","23.42","0","38.25"
"P.J. Tucker","P.J.-Tucker-13947","4800","SF/PF","42.17","233.5","37.2","101.42","10.87","36.00","35.77","7.36","23.88","0","27.25"
"Blake Griffin","Blake-Griffin-1503","9300","PF/C","56.93","216.5","37.5","100.30","34.44","36.00","81.97","26.48","46.13","0","39.25"
"Collin Sexton","Collin-Sexton-408896","4400","PG","54.75","218","29.1","103.60","23.70","30.00","30.55","12.68","21.82","0","19.25"
"Kris Dunn","Kris-Dunn-35215","6700","PG/SG","51.11","218.5","31.3","104.50","19.69","34.00","55.95","18.73","33.03","0","20.75"
"Jonathan Isaac","Jonathan-Isaac-37841","4500","SF/PF","48.72","222","29.4","105.10","14.08","27.00","37.46","6.28","21.96","0","29.0"
"Derrick White","Derrick-White-37858","5700","PG/SG","46.16","225.5","30.2","99.70","15.54","32.00","49.75","9.47","27.76","0","32.25"
"James Harden","James-Harden-1037","13600","PG/SG","51.67","233.5","39.0","101.42","44.85","38.00","92.62","47.24","66.16","0","71.75"
"Brandon Ingram","Brandon-Ingram-35227","6400","SG/SF","47.82","","35.3","112.50","22.15","36.00","45.67","13.67","30.92","0","48.25"
"Terrence Ross","Terrence-Ross-13902","5100","SG/SF","42.00","222","29.3","105.10","22.25","28.00","49.26","6.21","24.64","0","28.5"
"D.J. Wilson","D.J.-Wilson-37822","3300","PF/C","44.67","216.5","17.0","98.80","13.93","19.00","31.82","3.98","15.92","0","12.75"
"Ben Simmons","Ben-Simmons-35184","9000","PG/SF","35.11","","32.0","108.33","27.13","35.00","62.92","25.78","43.33","0","45.0"
"Jeff Green","Jeff-Green-1314","4700","SF/PF","49.18","218","27.6","103.80","20.01","28.00","42.98","8.37","22.62","0","15.25"
"Zach LaVine","Zach-LaVine-18622","7200","PG/SG","51.11","218.5","32.0","104.50","28.60","35.00","53.13","16.91","34.59","0","41.5"
"Terrance Ferguson","Terrance-Ferguson-37871","3700","SG/SF","40.03","222","29.3","102.62","15.10","31.00","35.46","5.25","17.74","0","0.0"
"Rodions Kurucs","Rodions-Kurucs-408801","3900","SF/PF","47.92","218.5","21.3","114.62","19.36","23.00","26.08","10.82","18.63","0","15.5"
"Kyle Kuzma","Kyle-Kuzma-37886","6800","SF/PF","47.76","","34.0","112.50","26.45","33.00","48.32","16.94","32.52","0","0.0"
"Kentavious Caldwell-Pope","Kentavious-Caldwell-Pope-16869","4600","SG/SF","33.61","","29.5","112.50","17.71","30.00","34.75","10.02","21.83","0","20.5"
"Matthew Dellavedova","Matthew-Dellavedova-16839","3600","PG/SG","46.32","218","18.1","103.60","20.54","21.00","34.1","4.06","17.06","0","16.0"
"Mohamed Bamba","Mohamed-Bamba-409026","3500","C","51.31","222","15.0","105.10","15.73","15.00","23.2","12.53","16.57","0","17.0"
"Sterling Brown","Sterling-Brown-37821","3300","SG/SF","37.85","216.5","21.3","98.80","16.36","22.00","30.47","4.34","15.6","0","0.0"
"Eric Bledsoe","Eric-Bledsoe-1031","7000","PG","51.81","216.5","28.2","98.80","26.68","31.00","65.99","14.06","33.01","0","42.25"
"Wayne Selden","Wayne-Selden-36045","4200","SG/SF","51.11","218.5","20.1","104.50","14.64","33.00","34.12","7.5","19.84","0","12.5"
"Jerami Grant","Jerami-Grant-18576","5300","PF","49.12","222","35.0","102.62","15.28","34.00","49.99","3.3","25.01","0","34.75"
"Frank Jackson","Frank-Jackson-37855","3400","PG/SG","49.59","233.5","16.5","104.88","19.01","22.00","22.41","12.68","16.01","0","21.25"
"Marco Belinelli","Marco-Belinelli-1033","4200","SG/SF","36.70","225.5","25.0","99.70","20.47","24.00","32.84","5.77","19.76","0","29.5"
"Jerian Grant","Jerian-Grant-18900","3400","PG","39.31","222","18.7","105.10","14.96","19.00","29.98","3.68","15.78","0","10.75"
"Bobby Portis","Bobby-Portis-18909","6400","PF/C","58.91","218.5","24.3","104.50","24.40","26.00","58.79","5.65","29.41","0","21.75"
"Langston Galloway","Langston-Galloway-18717","3400","PG/SG","36.81","216.5","18.0","100.30","17.17","22.00","31.22","3.9","15.62","0","8.5"
"Jonathon Simmons","Jonathon-Simmons-31808","3500","SG/SF","46.81","222","20.2","105.10","15.72","20.00","31.55","2.46","15.96","0","16.0"
"Jakob Poeltl","Jakob-Poeltl-35187","3300","C","59.43","225.5","12.5","99.70","10.99","15.00","29.85","3.11","14.93","0","6.75"
"George Hill","George-Hill-993","3300","PG/SG","41.77","216.5","18.3","98.80","13.59","21.00","26.75","3.89","14.56","0","22.5"
"Ian Mahinmi","Ian-Mahinmi-1357","3200","C","50.45","218","13.7","103.80","10.28","14.00","28.15","2.35","14.08","0","4.0"
"T.J. McConnell","T.J.-McConnell-18956","3800","PG/SG","35.11","","21.7","108.33","18.15","21.00","31.12","3.45","16.67","0","20.75"
"Jamal Crawford","Jamal-Crawford-1075","3400","PG/SG","47.20","225.5","21.4","108.80","14.83","20.00","27.76","3.58","14.91","0","37.5"
"Josh Hart","Josh-Hart-37889","4100","SG/SF","33.61","","23.0","112.50","12.32","24.00","33.4","3.68","17.87","0","19.0"
"Thomas Bryant ","Thomas-Bryant--37884","5500","PF/C","52.29","218","22.2","103.80","18.19","24.00","47.48","2.94","23.75","0","19.5"
"Larry Nance","Larry-Nance-18946","5400","PF/C","59.66","218","19.0","103.60","16.14","22.00","46.58","2.91","23.3","0","33.25"
"Ivica Zubac","Ivica-Zubac-35226","5600","C","52.39","","21.7","112.50","25.60","24.00","44.18","11.23","24.09","0","13.0"
"Brook Lopez","Brook-Lopez-1498","5600","C","52.66","216.5","27.5","98.80","12.92","27.00","42.96","9.61","23.72","0","29.5"
"JaVale McGee","JaVale-McGee-1485","4200","C","52.39","","14.5","112.50","24.44","16.00","34.88","4.5","17.45","0","42.5"
"Nerlens Noel","Nerlens-Noel-18575","3600","C","51.72","222","13.7","102.62","13.65","14.00","29.72","2.89","14.92","0","33.75"
"James Ennis","James-Ennis-18599","3500","SF/PF","42.17","233.5","26.4","101.42","11.09","22.00","28.85","4.5","14.43","0","17.0"
"Patty Mills","Patty-Mills-13977","4000","PG/SG","46.16","225.5","21.2","99.70","21.41","22.00","32.3","4.04","16.16","0","27.5"
"Lance Stephenson","Lance-Stephenson-947","4300","SG/SF","47.82","","16.7","112.50","20.40","18.00","33.92","3.46","17.28","0","14.0"
"Bruce Brown","Bruce-Brown-408913","3500","PG/SG","36.81","216.5","20.8","100.30","12.28","24.00","19.63","8.15","14.02","0","4.75"
"Sam Dekker","Sam-Dekker-18929","3300","SF/PF","38.74","218","18.0","103.80","15.85","16.00","24.23","2.31","13.14","0","12.25"
"Jabari Parker","Jabari-Parker-18593","4400","SF/PF","46.74","218.5","16.2","104.50","24.87","17.00","31.83","3.22","17.42","0","45.75"
"Antonio Blakeney","Antonio-Blakeney-37811","3100","PG/SG","30.38","218.5","6.2","104.50","26.99","14.00","23.37","2.34","11.69","0","6.5"
"Jose Calderon","Jose-Calderon-1071","3100","PG","42.73","216.5","14.0","100.30","13.16","17.00","22.87","3.18","11.44","0","0.0"
"Robin Lopez","Robin-Lopez-1466","4000","C","61.08","218.5","18.3","104.50","18.61","20.00","29.06","5.29","14.73","0","6.5"
"Chasson Randle","Chasson-Randle-36002","3300","PG/SG","55.82","218","15.0","103.80","16.73","14.00","24.19","2.9","12.1","0","2.75"
"Zaza Pachulia","Zaza-Pachulia-1455","3500","C","48.17","216.5","23.3","100.30","11.66","14.00","22.38","4.5","12.82","0","15.0"
"Nene Hilario","Nene-Hilario-17321","3300","C","51.32","233.5","12.0","101.42","12.05","12.00","22.65","3.16","11.84","0","8.0"
"Landry Shamet","Landry-Shamet-408841","3300","PG/SG","36.30","","19.8","108.33","19.55","16.00","16.3","9.07","11.64","0","13.75"
"Tim Frazier","Tim-Frazier-18743","3200","PG/SG","40.27","233.5","11.8","104.88","17.46","13.00","22.13","2.89","11.07","0","32.0"
"Ryan Arcidiacono","Ryan-Arcidiacono-36050","3200","PG","40.77","218.5","15.9","104.50","13.22","16.00","21.81","3.27","10.91","0","7.5"
"Michael Beasley","Michael-Beasley-1338","3800","SF/PF","47.76","","13.7","112.50","30.47","12.00","25.01","3.82","12.85","0","11.75"
"Abdel Nader","Abdel-Nader-35179","3100","SF","32.27","222","12.7","102.62","16.06","14.00","20.67","2.39","10.34","0","8.0"
"Treveon Graham","Treveon-Graham-36023","3500","SF/PF","39.05","218.5","26.4","114.62","13.25","20.00","18.23","3.6","11.46","0","11.25"
"Jonah Bolden","Jonah-Bolden-554969","3400","PF","44.35","","11.7","108.33","16.69","12.00","15.53","8.64","11.09","0","0.0"
"Austin Rivers","Austin-Rivers-13903","4400","PG/SG","48.70","233.5","34.3","101.42","12.78","20.00","27.35","3.16","13.68","0","17.0"
"Mike Muscala","Mike-Muscala-17379","3700","PF/C","58.20","","20.2","108.33","12.22","14.00","21.72","2.18","11.25","0","29.25"
"Patrick Patterson","Patrick-Patterson-1260","3400","PF/C","48.92","222","12.3","102.62","10.12","14.00","19.67","2.03","10.15","0","4.0"
"Dragan Bender","Dragan-Bender-35228","4200","PF/C","51.25","225.5","19.3","108.80","19.69","17.00","24.41","3.59","12.21","0","0.0"
"Troy Daniels","Troy-Daniels-17383","3100","SG","32.89","225.5","9.8","108.80","20.77","12.00","17.91","2.63","8.96","0","2.5"
"Deng Adel","Deng-Adel-554989","3000","SF/PF","35.53","218","7.2","103.60","9.26","12.00","11.97","7.17","8.55","0","2.25"
"Tony Snell","Tony-Snell-16872","3000","SG/SF","35.12","216.5","12.2","98.80","14.35","14.00","16.19","2.25","8.1","0","19.5"
"Gerald Green","Gerald-Green-13374","4000","SG/SF","49.45","233.5","25.7","101.42","18.68","13.00","18.68","2.96","10.35","0","8.75"
"Shaquille Harrison","Shaquille-Harrison-36065","3400","PG/SF","40.77","218.5","13.6","104.50","14.56","11.00","17.11","2.45","8.56","0","19.5"
"Ian Clark","Ian-Clark-16922","3000","PG/SG","37.47","233.5","4.0","104.88","24.43","10.00","13.97","1.82","6.99","0","19.75"
"Corey Brewer","Corey-Brewer-1278","3900","SG/SF","36.30","","24.8","108.33","18.87","12.00","17.33","3.3","8.67","0","12.75"
"Sviatoslav Mykhailiuk","Sviatoslav-Mykhailiuk-409280","3200","PG/SG","35.31","","14.3","112.50","15.08","11.00","9.72","5.25","6.94","0","20.25"
"Khyri Thomas","Khyri-Thomas-408839","3000","SG","36.81","216.5","9.3","100.30","15.71","10.00","8.88","5.32","6.34","0","8.5"
"Ersan Ilyasova","Ersan-Ilyasova-1301","3200","PF/C","44.67","216.5","10.5","98.80","11.64","6.00","9.63","0.91","5.31","0","5.75"
"Wesley Johnson","Wesley-Johnson-1280","3000","SF/PF","36.91","233.5","0","104.88","0","6.00","9.64","1.05","4.82","0","7.0"
"Theo Pinson","Theo-Pinson-554931","4500","SG/SF","35.12","218.5","25.0","114.62","20.50","7.00","9.16","5.49","6.54","0","0.0"
"Kenrich Williams","Kenrich-Williams-570179","3100","SG/SF","36.91","233.5","12.0","104.88","10.55","5.00","4.96","2.8","3.54","0","31.0"
"Dante Cunningham","Dante-Cunningham-1259","3000","SF/PF","47.73","225.5","10.0","99.70","8.15","4.00","5.7","0.68","2.85","0","2.0"
"Lonnie Walker","Lonnie-Walker-409137","3000","PG/SG","50.08","225.5","9.5","99.70","19.64","4.00","3.96","2.37","2.83","0","1.25"
"Channing Frye","Channing-Frye-1484","3100","PF/C","59.66","218","13.2","103.60","14.05","3.00","5.14","0.64","2.57","0","0.0"
