"nameCol","idCol","salaryCol","positionCol","dvpCol","ouCol","mpgCol","paceCol","usgCol","pminCol","ceilCol","floorCol","pointsCol","predictCol","actualCol"
"Jaylen Brown","Jaylen-Brown-35181","4700","SG/SF","38.51","214.5","24.0","101.75","21.75","29.00","58.97","6.7","29.5","0","43.0"
"Shaquille Harrison","Shaquille-Harrison-36065","3300","PG/SF","39.51","207","13.7","104.50","12.15","27.00","41.28","5.91","20.65","0","11.75"
"Jahlil Okafor","Jahlil-Okafor-18902","6600","C","52.35","226.5","24.6","104.88","20.23","35.00","70.79","17.49","40.2","0","26.5"
"Justin Holiday","Justin-Holiday-14559","4300","SG/SF","39.89","208.5","32.1","103.30","14.03","36.00","46.15","14.94","26.16","0","9.0"
"Antonio Blakeney","Antonio-Blakeney-37811","3100","PG/SG","37.26","207","6.2","104.50","24.35","24.00","37.64","3.77","18.83","0","0.0"
"Kyle Anderson","Kyle-Anderson-18615","4500","PG/SF","38.59","208.5","29.0","103.30","19.13","32.00","46.76","15.36","27.14","0","24.75"
"Tim Frazier","Tim-Frazier-18743","3200","PG/SG","39.87","226.5","13.4","104.88","19.71","22.00","38.58","5.04","19.3","0","26.0"
"Otto Porter","Otto-Porter-17069","5700","SF/PF","36.51","217.5","29.7","103.80","21.26","34.00","67.95","10.6","33.99","0","15.5"
"Darius Miller","Darius-Miller-13951","3800","SF/PF","37.31","226.5","30.9","104.88","14.10","36.00","45.22","6.29","22.62","0","35.5"
"Wayne Ellington","Wayne-Ellington-1009","3500","SG/SF","38.78","207","16.5","106.90","18.97","28.00","39.52","4.95","20.8","0","24.5"
"Dion Waiters","Dion-Waiters-13897","4200","SG/SF","46.95","207","19.8","106.90","22.34","28.00","47.94","7.96","24.79","0","18.5"
"Bogdan Bogdanovic","Bogdan-Bogdanovic-37899","5500","SG/SF","52.43","236","28.0","98.20","26.70","31.00","63.6","11.16","32.35","0","34.0"
"Trey Burke","Trey-Burke-17029","4800","PG/SG","55.59","214.5","26.7","100.17","27.53","28.00","40.55","14.07","27.87","0","27.75"
"Jerryd Bayless","Jerryd-Bayless-1021","5000","PG/SG","42.28","208.5","27.7","100.67","21.31","36.00","57.69","7.59","28.86","0","51.75"
"Marcus Morris","Marcus-Morris-13316","5300","SF/PF","38.51","214.5","27.0","101.75","19.93","28.00","51.78","11.21","30.46","0","28.25"
"Frank Jackson","Frank-Jackson-37855","3400","PG/SG","49.58","226.5","17.4","104.88","20.09","24.00","27.29","14.73","19.49","0","16.0"
"Marvin Bagley III","Marvin-Bagley-III-409321","5400","PF/C","53.12","236","25.3","98.20","25.06","28.00","43.08","23.26","30.77","0","37.5"
"Marcus Smart","Marcus-Smart-18567","5200","PG/SG","51.26","214.5","28.0","101.75","16.68","31.00","49.02","12.68","29.55","0","19.5"
"Ian Clark","Ian-Clark-16922","3000","PG/SG","33.44","226.5","7.2","104.88","23.90","21.00","33.3","4.35","16.66","0","10.25"
"Jayson Tatum","Jayson-Tatum-37782","5800","SF/PF","49.11","214.5","30.7","101.75","20.92","32.00","47.59","14.7","32.09","0","30.75"
"Bruno Caboclo","Bruno-Caboclo-18581","3300","SF/PF","39.89","208.5","19.7","103.30","11.59","22.00","33.92","5.86","18.15","0","23.25"
"Jrue Holiday","Jrue-Holiday-1073","8900","PG/SG","49.58","226.5","37.3","104.88","27.33","38.00","72.53","23.67","48.71","0","40.0"
"Jabari Parker","Jabari-Parker-18593","4100","SF/PF","49.03","207","17.2","104.50","25.54","24.00","40.87","4.14","22.37","0","2.0"
"Josh Okogie","Josh-Okogie-409174","4100","SG/SF","42.28","208.5","26.0","100.67","18.24","32.00","31.36","13.01","22.4","0","11.5"
"Domantas Sabonis","Domantas-Sabonis-35217","6300","PF/C","55.81","217.5","22.3","107.67","20.23","26.00","64.28","5.03","34.23","0","25.5"
"De'Aaron Fox","De'Aaron-Fox-37900","7700","PG","56.39","236","32.0","98.20","27.06","32.00","63.75","21.84","41.75","0","25.0"
"Cory Joseph","Cory-Joseph-13339","4000","PG","46.30","217.5","23.5","107.67","17.37","28.00","39.24","6.35","21.61","0","15.75"
"Dario Saric","Dario-Saric-36004","3900","PF","42.36","208.5","21.7","100.67","11.13","24.00","36.42","6.18","21.03","0","15.75"
"Noah Vonleh","Noah-Vonleh-18597","5900","PF/C","54.05","214.5","29.7","100.17","16.36","32.00","55.27","14.31","31.8","0","11.25"
"Jaren Jackson","Jaren-Jackson-409099","5400","PF/C","53.36","208.5","26.6","103.30","22.38","28.00","40.5","20.11","28.93","0","15.25"
"Harrison Barnes","Harrison-Barnes-13901","5200","SF/PF","53.71","214.5","32.8","100.08","21.29","34.00","44.2","10.87","27.8","0","26.5"
"Wesley Matthews","Wesley-Matthews-1339","4200","SG/SF","36.00","214.5","29.0","100.08","17.53","32.00","40.04","10.21","22.43","0","23.5"
"Darren Collison","Darren-Collison-1060","6200","PG","46.30","217.5","28.2","107.67","22.69","33.00","53.9","14.97","33.05","0","10.0"
"Bam Adebayo","Bam-Adebayo-37835","4300","PF/C","55.96","207","22.2","106.90","15.21","23.00","38.97","6.43","22.79","0","22.75"
"Terry Rozier","Terry-Rozier-18894","6100","PG/SG","49.17","214.5","23.6","101.75","19.18","34.00","56.5","10.06","32.25","0","46.75"
"Monte Morris","Monte-Morris-37860","4500","PG","52.51","226.5","22.3","99.62","16.93","29.00","33.15","18.45","23.68","0","44.75"
"Paul Millsap","Paul-Millsap-1335","5000","PF/C","49.58","226.5","22.2","99.62","16.78","25.00","42.71","9.57","26.3","0","29.5"
"Josh Richardson","Josh-Richardson-18922","6300","SG/SF","46.95","207","33.4","106.90","18.86","35.00","53.01","13.29","33.07","0","23.75"
"Bismack Biyombo","Bismack-Biyombo-13312","3900","C","51.52","214.5","19.3","103.00","12.50","23.00","35.06","6.21","20.31","0","12.75"
"Bojan Bogdanovic","Bojan-Bogdanovic-18571","5500","SG/SF","39.84","217.5","31.8","107.67","19.59","34.00","45.32","9.53","28.63","0","17.5"
"Damyean Dotson","Damyean-Dotson-37795","3500","SG/SF","36.75","214.5","22.3","100.17","13.64","23.00","31.99","5.41","18.22","0","9.5"
"Justise Winslow","Justise-Winslow-18921","6100","PG/SF","52.89","207","31.3","106.90","20.56","33.00","52.96","15.49","31.75","0","32.0"
"Bradley Beal","Bradley-Beal-13898","8700","SG","47.05","217.5","37.3","103.80","29.64","38.00","67.06","23.8","45.16","0","43.5"
"Nikola Jokic","Nikola-Jokic-31812","10900","C","55.72","226.5","31.2","99.62","32.93","34.00","82.96","33.93","56.55","0","64.75"
"Gordon Hayward","Gordon-Hayward-1239","4800","SF/PF","49.11","214.5","22.2","101.75","21.88","25.00","49.62","8.04","24.82","0","28.25"
"Willie Cauley-Stein","Willie-Cauley-Stein-18951","6200","C","54.36","236","27.2","98.20","13.45","29.00","46.56","16.76","31.8","0","18.25"
"Damian Lillard","Damian-Lillard-13900","8500","PG","47.59","217.5","34.6","104.50","31.82","36.00","71.61","22.87","43.24","0","68.0"
"Kris Dunn","Kris-Dunn-35215","6400","PG/SG","48.69","207","31.3","104.50","20.10","35.00","55.12","18.45","32.54","0","35.25"
"Gary Harris","Gary-Harris-18617","5500","SG","49.02","226.5","22.8","99.62","21.78","30.00","39.13","9.95","27.95","0","25.5"
"Will Barton","Will-Barton-13982","6800","SG/SF","49.02","226.5","27.2","99.62","21.80","32.00","59.36","11.93","34.39","0","16.25"
"DeAndre Jordan","DeAndre-Jordan-1486","7000","C","56.38","214.5","30.8","100.08","14.98","32.00","49.56","21.7","35.4","0","18.25"
"Cheick Diallo","Cheick-Diallo-35225","3200","PF/C","52.35","226.5","10.8","104.88","23.03","17.00","32.32","4.9","16.17","0","13.25"
"Jeremy Lin","Jeremy-Lin-916","4100","PG/SG","54.44","236","22.8","105.10","25.83","20.00","38.1","5.9","20.64","0","21.0"
"Kevin Huerter","Kevin-Huerter-408969","4600","SG/SF","41.39","236","28.3","105.10","21.57","30.00","32.3","16.03","23.07","0","29.0"
"Tomas Satoransky ","Tomas-Satoransky--36031","6200","PG/SG","48.10","217.5","34.7","103.80","17.29","35.00","60.28","10.26","31.09","0","16.5"
"Thaddeus Young","Thaddeus-Young-1289","5600","SF/PF","47.63","217.5","27.8","107.67","19.68","32.00","47.41","12.06","27.97","0","29.25"
"Marvin Williams","Marvin-Williams-1318","5100","SF/PF","43.82","214.5","30.0","103.00","15.71","32.00","50.75","6.04","25.39","0","15.5"
"Rudy Gobert","Rudy-Gobert-16935","8100","C","51.09","217.5","32.7","98.88","18.93","34.00","67.54","20.47","40.37","0","32.75"
"Kyle Korver","Kyle-Korver-1269","3700","SG/SF","37.52","217.5","21.8","98.88","17.93","24.00","36.68","4.83","18.35","0","8.75"
"Karl-Anthony Towns","Karl-Anthony-Towns-18937","10600","C","50.82","208.5","31.0","100.67","31.22","37.00","82.24","27.66","52.38","0","32.0"
"Ricky Rubio","Ricky-Rubio-1001","6000","PG","42.09","217.5","22.0","98.88","26.96","30.00","46.64","12.51","29.65","0","28.0"
"Jeremy Lamb","Jeremy-Lamb-13955","5500","SG/SF","45.39","214.5","27.2","103.00","23.55","30.00","45.55","10.28","27.05","0","13.75"
"Edmond Sumner","Edmond-Sumner-37818","3700","PG","46.30","217.5","28.0","107.67","14.29","25.00","25.47","14.17","18.19","0","20.25"
"Willy Hernangomez","Willy-Hernangomez-18901","3900","C","51.52","214.5","17.7","103.00","19.77","16.00","38.24","4.94","19.13","0","6.5"
"Marc Gasol","Marc-Gasol-1493","7800","C","53.36","208.5","31.7","103.30","25.24","34.00","62.04","20.05","38.11","0","33.75"
"Al Horford","Al-Horford-1499","7000","PF/C","57.65","214.5","30.8","101.75","20.45","31.00","53.36","16.7","34.16","0","37.75"
"Al-Farouq Aminu","Al-Farouq-Aminu-1279","5100","SF/PF","31.21","217.5","26.7","104.50","13.97","31.00","36.59","7.04","24.89","0","11.5"
"Taurean Prince","Taurean-Prince-35218","5200","SF","39.30","236","28.2","105.10","18.46","30.00","44.72","6.25","25.31","0","16.5"
"Luka Doncic","Luka-Doncic-408971","8800","PG/SF","47.98","214.5","32.2","100.08","33.25","34.00","59.98","29.77","42.84","0","33.0"
"Andrew Wiggins","Andrew-Wiggins-18620","6500","SG/SF","42.28","208.5","36.5","100.67","27.65","37.00","49.8","13.02","31.6","0","27.25"
"DeAndre Bembry","DeAndre-Bembry-35198","4400","SG/SF","39.30","236","29.2","105.10","14.50","26.00","35.83","9.9","21.33","0","20.25"
"Kemba Walker","Kemba-Walker-13335","8200","PG","49.30","214.5","34.0","103.00","27.20","35.00","72.36","17.88","39.65","0","29.75"
"Lauri Markkanen","Lauri-Markkanen-37809","6700","PF","49.03","207","31.7","104.50","22.54","34.00","55.51","13.93","32.46","0","36.75"
"Kenrich Williams","Kenrich-Williams-570179","3100","SG/SF","37.31","226.5","17.7","104.88","11.73","21.00","20.97","11.32","14.98","0","41.0"
"Kevin Knox","Kevin-Knox-408820","5200","SF/PF","48.56","214.5","28.0","100.17","19.72","34.00","35.17","14.59","25.12","0","26.25"
"Dennis Smith Jr.","Dennis-Smith-Jr.-37847","5700","PG","52.85","214.5","34.3","100.08","24.87","32.00","49.73","12.12","27.55","0","50.0"
"Trevor Ariza","Trevor-Ariza-1323","6000","SF/PF","36.51","217.5","35.3","103.80","18.43","34.00","42.79","9.0","28.95","0","19.5"
"Hassan Whiteside","Hassan-Whiteside-18664","7500","C","55.96","207","23.3","106.90","19.65","26.00","50.61","15.83","36.15","0","21.25"
"Taj Gibson","Taj-Gibson-1277","4300","PF/C","47.87","208.5","23.8","100.67","17.31","26.00","34.88","7.78","20.74","0","26.25"
"Thomas Bryant ","Thomas-Bryant--37884","5400","PF/C","54.29","217.5","22.3","103.80","17.42","25.00","51.87","3.22","25.95","0","13.25"
"Trey Lyles","Trey-Lyles-18942","3700","SF/PF","49.58","226.5","18.2","99.62","24.20","18.00","33.68","4.95","17.8","0","9.5"
"Jusuf Nurkic","Jusuf-Nurkic-18619","8300","C","52.22","217.5","29.5","104.50","27.21","30.00","60.22","17.65","39.75","0","0.0"
"John Collins","John-Collins-37823","7900","PF/C","54.43","236","29.2","105.10","21.82","32.00","69.46","15.02","37.75","0","24.75"
"Michael Kidd-Gilchrist","Michael-Kidd-Gilchrist-13896","3700","SF/PF","34.36","214.5","20.8","103.00","17.12","22.00","35.26","7.18","17.64","0","12.25"
"Tim Hardaway Jr.","Tim-Hardaway-Jr.-16879","6000","SG/SF","48.56","214.5","30.8","100.17","22.02","32.00","51.04","13.02","28.5","0","16.25"
"Solomon Hill","Solomon-Hill-16863","3400","SF/PF","37.31","226.5","22.5","104.88","10.84","26.00","32.28","4.49","16.15","0","7.5"
"Gorgui Dieng","Gorgui-Dieng-16939","3300","PF/C","47.87","208.5","9.0","100.67","19.65","16.00","28.19","3.84","15.6","0","23.75"
"Jae Crowder","Jae-Crowder-13942","4700","SF/PF","35.88","217.5","28.0","98.88","21.41","28.00","44.32","4.26","22.17","0","11.75"
"Joe Ingles","Joe-Ingles-18627","5600","SG/SF","37.52","217.5","32.2","98.88","17.33","32.00","42.14","9.39","26.37","0","26.0"
"Mike Conley","Mike-Conley-1062","8000","PG","39.87","208.5","31.8","103.30","26.28","34.00","66.94","14.22","37.71","0","49.25"
"Nicolas Batum","Nicolas-Batum-1315","4800","SG/SF","34.36","214.5","32.5","103.00","14.81","32.00","41.8","8.8","22.63","0","24.5"
"Dewayne Dedmon","Dewayne-Dedmon-16894","5600","PF/C","54.43","236","24.8","105.10","17.97","26.00","41.77","10.99","26.29","0","21.25"
"Shelvin Mack","Shelvin-Mack-13354","3500","PG/SG","39.87","208.5","19.1","103.30","22.97","20.00","29.24","2.74","16.39","0","6.25"
"Wayne Selden","Wayne-Selden-36045","4300","SG/SF","48.69","207","22.9","104.50","14.32","31.00","34.55","7.59","20.09","0","38.0"
"James Johnson","James-Johnson-1195","4000","PF/C","47.79","207","25.0","106.90","16.22","24.00","26.32","8.64","18.67","0","12.0"
"Mason Plumlee","Mason-Plumlee-16798","3900","PF/C","51.43","226.5","17.7","99.62","18.94","18.00","35.35","4.59","18.13","0","15.0"
"Trae Young","Trae-Young-409063","7400","PG","54.44","236","31.2","105.10","29.57","32.00","47.98","23.82","34.27","0","37.75"
"Mario Hezonja","Mario-Hezonja-18923","3500","SF/PF","33.65","214.5","21.0","100.17","19.45","18.00","32.2","3.72","16.11","0","21.0"
"Luol Deng","Luol-Deng-1328","3400","SF/PF","37.22","208.5","15.0","100.67","13.67","20.00","31.26","5.21","15.64","0","11.5"
"Malik Monk","Malik-Monk-37827","3400","PG/SG","49.30","214.5","16.2","103.00","24.31","19.00","30.55","4.52","15.58","0","25.5"
"Dwight Powell","Dwight-Powell-18566","3300","PF/C","58.99","214.5","14.0","100.08","17.06","15.00","30.22","4.79","15.12","0","15.5"
"Derrick Favors","Derrick-Favors-1266","5300","PF/C","52.70","217.5","20.2","98.88","18.56","25.00","38.74","10.18","24.24","0","21.75"
"Donovan Mitchell","Donovan-Mitchell-37875","8400","PG/SG","49.08","217.5","34.3","98.88","36.69","36.00","62.84","15.95","38.25","0","31.5"
"Malik Beasley","Malik-Beasley-35213","4200","PG/SG","41.98","226.5","22.7","99.62","17.79","26.00","37.96","4.52","18.99","0","30.0"
"Myles Turner","Myles-Turner-18915","6900","C","59.74","217.5","29.3","107.67","16.57","28.00","60.91","9.54","31.19","0","22.0"
"Bobby Portis","Bobby-Portis-18909","5900","PF/C","54.89","207","25.3","104.50","22.81","25.00","53.05","5.1","26.54","0","35.5"
"Royce O'Neale","Royce-O'Neale-37872","3800","SF","35.88","217.5","28.8","98.88","11.39","24.00","33.19","5.73","16.61","0","11.0"
"JaMychal Green","JaMychal-Green-18729","4800","SF/PF","53.36","208.5","19.9","103.30","22.16","22.00","41.82","4.41","20.92","0","0.75"
"Evan Turner","Evan-Turner-1291","4100","SG/SF","40.90","217.5","20.7","104.50","14.81","23.00","29.35","5.35","17.82","0","19.0"
"Iman Shumpert","Iman-Shumpert-13350","3900","SG/SF","41.32","236","29.4","98.20","17.09","23.00","29.57","5.33","16.88","0","17.0"
"C.J. McCollum","C.J.-McCollum-17121","7300","PG/SG","40.90","217.5","33.2","104.50","25.34","35.00","50.4","16.45","31.46","0","41.25"
"Jake Layman","Jake-Layman-35216","3500","SF/PF","31.21","217.5","23.8","104.50","20.01","20.00","28.27","4.46","14.88","0","26.25"
"Buddy Hield","Buddy-Hield-35206","7200","SG/SF","41.32","236","34.0","98.20","22.75","32.00","52.68","13.25","30.52","0","31.25"
"Mitchell Robinson","Mitchell-Robinson-408821","4000","C","49.72","214.5","15.0","100.17","14.00","18.00","23.66","14.18","16.9","0","22.25"
"Ian Mahinmi","Ian-Mahinmi-1357","3200","C","51.09","217.5","14.2","103.80","8.33","15.00","27.03","2.18","13.52","0","8.0"
"Aaron Holiday","Aaron-Holiday-408932","3600","PG/SG","46.30","217.5","8.2","107.67","28.27","17.00","21.01","11.69","15.01","0","17.5"
"Devonte' Graham","Devonte'-Graham-408968","3200","PG/SG","39.68","214.5","8.5","103.00","17.62","15.00","18.41","10.41","13.15","0","0"
"Zach Collins","Zach-Collins-37866","3400","PF/C","55.79","217.5","16.2","104.50","19.18","16.00","25.9","4.51","13.93","0","26.0"
"Aron Baynes","Aron-Baynes-14114","3900","C","53.41","214.5","16.7","101.75","17.08","16.00","31.86","3.19","15.94","0","4.75"
"Sam Dekker","Sam-Dekker-18929","3200","SF/PF","36.51","217.5","17.2","103.80","16.16","16.00","24.12","2.3","13.08","0","22.25"
"Rodney McGruder","Rodney-McGruder-16850","3200","SG/SF","35.35","207","15.5","106.90","15.26","18.00","26.19","3.35","13.1","0","0"
"Maurice Harkless","Maurice-Harkless-16971","3900","SF/PF","31.21","217.5","21.6","104.50","14.30","23.00","31.74","5.84","15.88","0","14.0"
"Harry Giles","Harry-Giles-37897","3400","PF/C","53.12","236","14.7","98.20","21.57","14.00","19.24","10.39","13.74","0","30.25"
"Jeff Green","Jeff-Green-1314","4600","SF/PF","46.92","217.5","27.2","103.80","18.41","23.00","35.62","6.81","18.41","0","42.75"
"Nemanja Bjelica","Nemanja-Bjelica-31814","4200","PF","53.12","236","17.4","98.20","16.23","18.00","27.57","7.13","16.63","0","27.5"
"Maxi Kleber","Maxi-Kleber-37845","3700","PF/C","53.71","214.5","18.8","100.08","11.04","18.00","29.21","2.81","14.61","0","11.25"
"Allonzo Trier","Allonzo-Trier-554950","4900","PG/SG","48.56","214.5","24.5","100.17","24.07","23.00","26.87","16.1","19.19","0","19.5"
"Justin Jackson","Justin-Jackson-37895","3300","SF/PF","41.32","236","18.2","98.20","12.91","20.00","24.95","3.51","12.84","0","16.25"
"Ryan Arcidiacono","Ryan-Arcidiacono-36050","3200","PG","39.51","207","15.4","104.50","14.08","20.00","24.79","3.72","12.4","0","24.5"
"Lance Thomas","Lance-Thomas-13363","3100","SF/PF","36.75","214.5","19.8","100.17","8.03","20.00","21.87","3.19","11.93","0","6.25"
"Dorian Finney-Smith","Dorian-Finney-Smith-36032","3600","SF/PF","40.58","214.5","23.5","100.08","13.51","21.00","26.97","4.73","13.67","0","16.0"
"Doug McDermott","Doug-McDermott-18583","3200","SF/PF","39.84","217.5","15.5","107.67","17.66","17.00","23.67","3.79","11.84","0","13.5"
"Chasson Randle","Chasson-Randle-36002","3300","PG/SG","48.10","217.5","13.8","103.80","16.56","14.00","23.35","2.8","11.68","0","19.25"
"Meyers Leonard","Meyers-Leonard-13905","3100","PF/C","55.79","217.5","14.0","104.50","13.12","10.00","20.87","2.45","10.44","0","31.5"
"Miles Bridges","Miles-Bridges-409262","3700","SF/PF","43.82","214.5","16.5","103.00","19.37","16.00","17.16","9.71","12.26","0","8.75"
"Tyler Johnson","Tyler-Johnson-18720","4500","PG/SG","52.89","207","30.4","106.90","18.71","19.00","25.37","5.07","14.73","0","22.25"
"Robin Lopez","Robin-Lopez-1466","4400","C","48.72","207","18.4","104.50","18.58","20.00","28.27","5.14","14.33","0","19.75"
"Torrey Craig","Torrey-Craig-37861","4400","SG/SF","41.98","226.5","27.0","99.62","13.29","21.00","27.95","3.16","13.98","0","4.25"
"Devin Harris","Devin-Harris-1076","3100","PG/SG","52.85","214.5","13.0","100.08","20.42","12.00","19.49","2.44","9.75","0","11.75"
"Joakim Noah","Joakim-Noah-1404","3300","C","50.32","208.5","16.8","103.30","15.68","12.00","20.73","3.58","10.37","0","17.25"
"Yogi Ferrell","Yogi-Ferrell-35999","3400","PG/SG","56.39","236","16.2","98.20","16.61","13.00","21.03","2.87","10.66","0","20.75"
"Kent Bazemore","Kent-Bazemore-13987","5300","SG/SF","45.68","236","0","105.10","0","18.00","27.13","6.3","16.15","0","14.25"
"Alex Len","Alex-Len-16886","4500","C","54.43","236","17.4","105.10","29.17","14.00","25.45","5.58","13.6","0","16.25"
"Dirk Nowitzki","Dirk-Nowitzki-1346","3000","PF/C","58.99","214.5","9.6","100.08","19.15","10.00","14.15","1.47","8.6","0","15.0"
"Omari Spellman","Omari-Spellman-408970","3400","PF/C","50.66","236","15.0","105.10","11.85","12.00","13.61","7.7","9.72","0","6.25"
"Brad Wanamaker","Brad-Wanamaker-438951","3100","PG/SG","43.57","214.5","10.0","101.75","18.93","10.00","11.86","6.4","8.47","0","8.75"
"Kadeem Allen","Kadeem-Allen-37787","3300","PG/SG","42.11","214.5","18.0","100.17","19.98","12.00","18.01","1.87","9.01","0","15.0"
"Seth Curry","Seth-Curry-16825","4300","PG/SG","34.04","217.5","19.3","104.50","17.42","16.00","23.35","2.78","11.68","0","11.0"
"Isaiah Canaan","Isaiah-Canaan-16875","3100","PG","49.35","208.5","0","100.67","0","12.00","10.93","7.57","8.41","0","0"
"Georges Niang","Georges-Niang-35193","3100","SF/PF","50.37","217.5","9.3","98.88","13.56","7.00","12.81","1.22","6.41","0","8.75"
"Juancho Hernangomez","Juancho-Hernangomez-35212","3300","SF/PF","49.58","226.5","12.6","99.62","10.79","7.00","11.11","0.96","5.56","0","4.75"
"Kelly Olynyk","Kelly-Olynyk-16845","3800","PF/C","60.18","207","9.2","106.90","16.43","6.00","9.3","2.59","6.01","0","18.75"
"Daniel Theis","Daniel-Theis-37784","3300","PF/C","53.41","214.5","6.0","101.75","9.98","4.00","7.49","1.02","3.94","0","19.25"
"Troy Brown","Troy-Brown-409043","3000","SG/SF","36.51","217.5","8.0","103.80","14.07","3.00","3.56","1.92","2.54","0","2.25"
"Jordan McRae","Jordan-McRae-18772","3000","PG/SG","48.10","217.5","4.3","103.80","32.77","3.00","4.98","0.79","2.49","0","18.25"
