"nameCol","idCol","salaryCol","positionCol","dvpCol","ouCol","mpgCol","paceCol","usgCol","pminCol","ceilCol","floorCol","pointsCol","predictCol","actualCol"
"Michael Beasley","Michael-Beasley-1338","3800","SF/PF","47.76","230","13.7","112.50","30.47","26.00","54.14","8.26","27.82","0","11.75"
"Richaun Holmes","Richaun-Holmes-18905","4700","PF/C","51.10","226","17.8","108.80","17.24","30.00","68.21","6.11","34.12","0","22.0"
"Rondae Hollis-Jefferson","Rondae-Hollis-Jefferson-18897","3800","PF/C","47.92","220","14.5","114.62","25.72","24.00","50.37","6.3","25.2","0","25.0"
"D.J. Wilson","D.J.-Wilson-37822","3300","PF/C","44.67","217","17.0","98.80","13.93","26.00","43.6","5.45","21.81","0","12.75"
"Stanley Johnson","Stanley-Johnson-18913","3200","SF/PF","39.22","217","16.7","100.30","12.38","25.00","38.7","4.44","20","0","26.75"
"Pau Gasol","Pau-Gasol-1502","3100","C","57.64","226","9.6","99.70","19.13","16.00","33.54","7.59","18.6","0","1.0"
"Elie Okobo","Elie-Okobo-409300","3500","PG","43.25","226","16.8","108.80","16.29","30.00","29.27","16.92","20.91","0","11.25"
"Jahlil Okafor","Jahlil-Okafor-18902","6100","C","54.13","234","22.7","104.88","19.16","34.00","63.13","15.11","36.24","0","48.5"
"Kenneth Faried","Kenneth-Faried-13313","6300","PF/C","51.32","234","30.5","101.42","18.25","34.00","58.94","18.88","37.16","0","39.75"
"Reggie Jackson","Reggie-Jackson-13352","4800","PG/SG","47.97","217","30.0","100.30","17.14","31.00","42.87","15.49","28.26","0","39.75"
"Rodney Hood","Rodney-Hood-18629","4000","SG/SF","44.77","218","24.9","103.60","19.59","30.00","37.29","9.32","23.29","0","19.0"
"Luke Kennard","Luke-Kennard-37814","3500","SG/SF","36.81","217","23.3","100.30","20.84","27.00","38.05","6.58","20.36","0","28.0"
"Eric Gordon","Eric-Gordon-1077","5000","SG/SF","49.45","234","31.2","101.42","24.95","35.00","48.49","10.64","29.07","0","22.25"
"Kelly Oubre","Kelly-Oubre-18925","5700","SG/SF","37.58","226","29.1","108.80","25.48","31.00","61.29","9.77","33.13","0","25.75"
"Russell Westbrook","Russell-Westbrook-1083","10600","PG","52.90","222","35.7","102.62","35.19","36.00","85.9","31.17","61.36","0","66.0"
"Cheick Diallo","Cheick-Diallo-35225","3200","PF/C","54.13","234","11.0","104.88","23.95","19.00","36.88","5.59","18.45","0","8.5"
"Shabazz Napier","Shabazz-Napier-18598","4900","PG/SG","40.80","220","17.2","114.62","30.28","28.00","54.81","7.86","27.98","0","41.75"
"Josh Jackson","Josh-Jackson-37890","5300","SF/PF","47.20","226","26.1","108.80","24.69","32.00","55.37","12.24","29.72","0","31.0"
"Khris Middleton","Khris-Middleton-13990","6400","SG/SF","45.51","217","29.8","98.80","22.91","35.00","54.45","10.33","35.87","0","29.0"
"Tomas Satoransky ","Tomas-Satoransky--36031","6000","PG/SG","55.82","218","35.4","103.80","17.56","37.00","66.17","11.26","33.42","0","20.75"
"Rudy Gay","Rudy-Gay-1341","5900","SF/PF","47.73","226","28.3","99.70","23.39","31.00","49.03","12.2","32.62","0","33.25"
"Mikal Bridges","Mikal-Bridges-408842","3900","SG/SF","37.58","226","30.2","108.80","11.00","33.00","30.21","17.46","21.58","0","38.0"
"Jimmy Butler","Jimmy-Butler-13327","6900","SG/SF","48.58","230","33.3","108.33","23.78","36.00","54.85","19.13","37.8","0","47.25"
"LaMarcus Aldridge","LaMarcus-Aldridge-1349","8700","PF/C","57.64","226","30.8","99.70","30.20","35.00","69.21","24.28","47.6","0","55.0"
"George Hill","George-Hill-993","3300","PG/SG","41.77","217","18.3","98.80","13.59","26.00","33.14","4.82","18.04","0","22.5"
"Lauri Markkanen","Lauri-Markkanen-37809","6600","PF","46.74","220","31.9","104.50","22.23","34.00","61.61","15.46","36.03","0","48.25"
"Joel Embiid","Joel-Embiid-18578","10200","C","58.20","230","31.4","108.33","36.45","34.00","88.68","38.65","55.53","0","52.25"
"Tony Snell","Tony-Snell-16872","3000","SG/SF","35.12","217","12.2","98.80","14.35","28.00","32.38","4.5","16.2","0","19.5"
"Aaron Gordon","Aaron-Gordon-18601","6700","SF/PF","48.72","222","33.8","105.10","21.54","36.00","61.74","14.53","35.96","0","40.25"
"Solomon Hill","Solomon-Hill-16863","3400","SF/PF","36.91","234","24.0","104.88","9.55","31.00","36.52","4.81","18.27","0","15.0"
"Darius Miller","Darius-Miller-13951","3700","SF/PF","36.91","234","29.3","104.88","13.95","32.00","39.18","6.53","19.6","0","28.75"
"Elfrid Payton","Elfrid-Payton-18602","5400","PG","40.27","234","28.0","104.88","19.91","30.00","45.35","13.5","28.54","0","0.0"
"Giannis Antetokounmpo","Giannis-Antetokounmpo-16852","10700","SF/PF","44.67","217","30.5","98.80","34.02","35.00","79.06","32.41","56.47","0","58.5"
"Joe Harris","Joe-Harris-18587","4900","SG/SF","35.12","220","29.5","114.62","20.04","32.00","45.53","9.88","25.87","0","30.25"
"Nikola Vucevic","Nikola-Vucevic-13296","9500","C","51.75","222","32.7","105.10","30.63","34.00","79.36","20.72","50.04","0","54.75"
"Jarrett Allen","Jarrett-Allen-37794","5600","C","56.28","220","26.7","114.62","14.82","26.00","58.69","12.68","29.36","0","22.5"
"Rajon Rondo","Rajon-Rondo-1085","6700","PG","39.69","230","39.5","112.50","16.67","36.00","53.97","10.23","34.8","0","30.25"
"Evan Fournier","Evan-Fournier-13913","5500","SG/SF","42.00","222","33.4","105.10","21.51","34.00","43.96","12.43","28.51","0","25.0"
"Eric Bledsoe","Eric-Bledsoe-1031","7000","PG","51.81","217","28.2","98.80","26.68","34.00","72.38","15.43","36.21","0","42.25"
"Devin Booker","Devin-Booker-18949","8100","PG/SG","53.15","226","31.2","108.80","33.86","35.00","75.4","17.65","41.82","0","57.25"
"Bryn Forbes","Bryn-Forbes-36052","4300","PG/SG","53.08","226","29.5","99.70","14.30","31.00","35.06","5.81","22.16","0","17.25"
"J.J. Redick","J.J.-Redick-1030","5700","SG/SF","36.30","230","30.2","108.33","22.07","32.00","49.98","12.42","29.23","0","19.0"
"D'Angelo Russell","D'Angelo-Russell-18947","8400","PG/SG","52.55","220","28.3","114.62","33.61","32.00","67.46","20.8","42.97","0","52.5"
"Chris Paul","Chris-Paul-1087","6900","PG","51.67","234","25.0","101.42","22.18","30.00","51.75","15.64","35.3","0","32.0"
"Ante Zizic","Ante-Zizic-35180","6100","C","55.79","218","30.1","103.60","18.13","32.00","51.82","13.18","31.16","0","29.0"
"Steven Adams","Steven-Adams-16848","6500","C","51.72","222","34.7","102.62","16.00","34.00","56.8","15.1","33.18","0","0.0"
"D.J. Augustin","D.J.-Augustin-1064","4600","PG","39.31","222","28.3","105.10","19.82","28.00","41.95","9.44","23.37","0","21.5"
"Alec Burks","Alec-Burks-13353","4900","PG/SG","44.77","218","24.3","103.60","19.97","30.00","42.08","10.01","24.78","0","27.75"
"Trevor Ariza","Trevor-Ariza-1323","6300","SF/PF","38.74","218","37.0","103.80","18.17","37.00","47.0","9.89","31.8","0","27.75"
"P.J. Tucker","P.J.-Tucker-13947","4800","SF/PF","42.17","234","37.2","101.42","10.87","36.00","36.31","7.47","24.24","0","27.25"
"Otto Porter","Otto-Porter-17069","6200","SF/PF","38.74","218","30.6","103.80","21.42","32.00","62.37","9.55","31.2","0","18.25"
"Bradley Beal","Bradley-Beal-13898","9200","SG","48.16","218","37.8","103.80","29.35","38.00","71.81","23.51","46.18","0","47.5"
"Cedi Osman","Cedi-Osman-18912","5200","SF/PF","35.53","218","30.1","103.60","19.73","35.00","43.34","12.76","26.09","0","49.25"
"Davis Bertans","Davis-Bertans-36051","4100","SF/PF","57.64","226","25.8","99.70","12.59","26.00","41.04","5.4","20.53","0","38.25"
"Ed Davis","Ed-Davis-1265","4100","C","56.28","220","20.2","114.62","13.04","20.00","41.1","5.88","20.56","0","19.25"
"Jrue Holiday","Jrue-Holiday-1073","8600","PG/SG","49.59","234","37.2","104.88","27.17","38.00","68.72","20.52","43.11","0","51.5"
"Andre Drummond","Andre-Drummond-13904","8500","C","48.17","217","27.7","100.30","19.20","34.00","59.64","22.45","42.6","0","49.75"
"Paul George","Paul-George-1245","9800","SF/PF","49.12","222","37.1","102.62","28.97","37.00","77.12","23.56","48.87","0","57.5"
"Dennis Schroder","Dennis-Schroder-18595","5000","PG/SG","52.90","222","23.9","102.62","28.00","26.00","40.82","6.24","24.95","0","33.75"
"Wilson Chandler","Wilson-Chandler-1327","3800","SF/PF","39.96","230","30.6","108.33","10.50","29.00","31.7","6.58","18.96","0","25.0"
"Jordan Clarkson","Jordan-Clarkson-18631","4700","PG/SG","44.77","218","24.6","103.60","25.99","25.00","46.82","8.15","23.42","0","38.25"
"Blake Griffin","Blake-Griffin-1503","9300","PF/C","56.93","217","37.5","100.30","34.44","36.00","81.97","26.48","46.13","0","39.25"
"Collin Sexton","Collin-Sexton-408896","4400","PG","54.75","218","29.1","103.60","23.70","30.00","30.55","12.68","21.82","0","19.25"
"Ben Simmons","Ben-Simmons-35184","9000","PG/SF","35.11","230","32.0","108.33","27.13","36.00","64.73","26.53","44.58","0","45.0"
"Kris Dunn","Kris-Dunn-35215","6700","PG/SG","51.11","220","31.3","104.50","19.69","34.00","55.95","18.73","33.03","0","20.75"
"Lance Stephenson","Lance-Stephenson-947","4300","SG/SF","47.82","230","16.7","112.50","20.40","22.00","41.48","4.23","21.13","0","14.0"
"DeMarre Carroll","DeMarre-Carroll-1174","4600","SF/PF","39.05","220","28.3","114.62","18.71","28.00","45.12","5.82","22.57","0","22.25"
"Jonathan Isaac","Jonathan-Isaac-37841","4500","SF/PF","48.72","222","29.4","105.10","14.08","27.00","37.46","6.28","21.96","0","29.0"
"Derrick White","Derrick-White-37858","5700","PG/SG","46.16","226","30.2","99.70","15.54","32.00","49.75","9.47","27.76","0","32.25"
"James Harden","James-Harden-1037","13600","PG/SG","51.67","234","39.0","101.42","44.85","38.00","92.62","47.24","66.16","0","71.75"
"Terrence Ross","Terrence-Ross-13902","5100","SG/SF","42.00","222","29.3","105.10","22.25","28.00","49.26","6.21","24.64","0","28.5"
"Brandon Ingram","Brandon-Ingram-35227","6400","SG/SF","47.82","230","35.3","112.50","22.15","36.00","45.67","13.67","30.92","0","48.25"
"Jeff Green","Jeff-Green-1314","4700","SF/PF","49.18","218","27.6","103.80","20.01","28.00","42.98","8.37","22.62","0","15.25"
"Zach LaVine","Zach-LaVine-18622","7200","PG/SG","51.11","220","32.0","104.50","28.60","35.00","53.13","16.91","34.59","0","41.5"
"Terrance Ferguson","Terrance-Ferguson-37871","3700","SG/SF","40.03","222","29.3","102.62","15.10","31.00","35.46","5.25","17.74","0","0.0"
"Rodions Kurucs","Rodions-Kurucs-408801","3900","SF/PF","47.92","220","21.3","114.62","19.36","23.00","26.08","10.82","18.63","0","15.5"
"Kentavious Caldwell-Pope","Kentavious-Caldwell-Pope-16869","4600","SG/SF","33.61","230","29.5","112.50","17.71","30.00","34.75","10.02","21.83","0","20.5"
"Matthew Dellavedova","Matthew-Dellavedova-16839","3600","PG/SG","46.32","218","18.1","103.60","20.54","21.00","34.1","4.06","17.06","0","16.0"
"Mohamed Bamba","Mohamed-Bamba-409026","3500","C","51.31","222","15.0","105.10","15.73","15.00","23.2","12.53","16.57","0","17.0"
"Wayne Selden","Wayne-Selden-36045","4200","SG/SF","51.11","220","20.1","104.50","14.64","33.00","34.12","7.5","19.84","0","12.5"
"Jerami Grant","Jerami-Grant-18576","5300","PF","49.12","222","35.0","102.62","15.28","34.00","49.99","3.3","25.01","0","34.75"
"Frank Jackson","Frank-Jackson-37855","3400","PG/SG","49.59","234","16.5","104.88","19.01","22.00","22.41","12.68","16.01","0","21.25"
"Marco Belinelli","Marco-Belinelli-1033","4200","SG/SF","36.70","226","25.0","99.70","20.47","24.00","32.84","5.77","19.76","0","29.5"
"Bobby Portis","Bobby-Portis-18909","6400","PF/C","58.91","220","24.3","104.50","24.40","26.00","60.03","5.77","30.03","0","21.75"
"Jerian Grant","Jerian-Grant-18900","3400","PG","39.31","222","18.7","105.10","14.96","19.00","29.98","3.68","15.78","0","10.75"
"Langston Galloway","Langston-Galloway-18717","3400","PG/SG","36.81","217","18.0","100.30","17.17","22.00","31.22","3.9","15.62","0","8.5"
"Jonathon Simmons","Jonathon-Simmons-31808","3500","SG/SF","46.81","222","20.2","105.10","15.72","20.00","31.55","2.46","15.96","0","16.0"
"Jakob Poeltl","Jakob-Poeltl-35187","3300","C","59.43","226","12.5","99.70","10.99","15.00","29.85","3.11","14.93","0","6.75"
"Ian Mahinmi","Ian-Mahinmi-1357","3200","C","50.45","218","13.7","103.80","10.28","14.00","28.15","2.35","14.08","0","4.0"
"Jamal Crawford","Jamal-Crawford-1075","3400","PG/SG","47.20","226","21.4","108.80","14.83","20.00","27.76","3.58","14.91","0","37.5"
"Larry Nance","Larry-Nance-18946","5400","PF/C","59.66","218","19.0","103.60","16.14","22.00","47.12","2.95","23.57","0","33.25"
"Josh Hart","Josh-Hart-37889","4100","SG/SF","33.61","230","23.0","112.50","12.32","24.00","33.4","3.68","17.87","0","19.0"
"Thomas Bryant ","Thomas-Bryant--37884","5500","PF/C","52.29","218","22.2","103.80","18.19","24.00","47.48","2.94","23.75","0","19.5"
"Ivica Zubac","Ivica-Zubac-35226","5600","C","52.39","230","21.7","112.50","25.60","24.00","44.18","11.23","24.09","0","13.0"
"Brook Lopez","Brook-Lopez-1498","5600","C","52.66","217","27.5","98.80","12.92","27.00","42.96","9.61","23.72","0","29.5"
"T.J. McConnell","T.J.-McConnell-18956","3800","PG/SG","35.11","230","21.7","108.33","18.15","20.00","29.61","3.28","15.86","0","20.75"
"Nerlens Noel","Nerlens-Noel-18575","3600","C","51.72","222","13.7","102.62","13.65","14.00","29.72","2.89","14.92","0","33.75"
"James Ennis","James-Ennis-18599","3500","SF/PF","42.17","234","26.4","101.42","11.09","22.00","28.85","4.5","14.43","0","17.0"
"Patty Mills","Patty-Mills-13977","4000","PG/SG","46.16","226","21.2","99.70","21.41","22.00","32.3","4.04","16.16","0","27.5"
"Bruce Brown","Bruce-Brown-408913","3500","PG/SG","36.81","217","20.8","100.30","12.28","24.00","19.63","8.15","14.02","0","4.75"
"Jabari Parker","Jabari-Parker-18593","4400","SF/PF","46.74","220","16.2","104.50","24.87","17.00","31.83","3.22","17.42","0","45.75"
"Sam Dekker","Sam-Dekker-18929","3300","SF/PF","38.74","218","18.0","103.80","15.85","16.00","23.97","2.29","13","0","12.25"
"Ersan Ilyasova","Ersan-Ilyasova-1301","3200","PF/C","44.67","217","10.5","98.80","11.64","14.00","22.57","2.13","12.45","0","5.75"
"Antonio Blakeney","Antonio-Blakeney-37811","3100","PG/SG","30.38","220","6.2","104.50","26.99","14.00","23.37","2.34","11.69","0","6.5"
"Jose Calderon","Jose-Calderon-1071","3100","PG","42.73","217","14.0","100.30","13.16","17.00","22.87","3.18","11.44","0","0.0"
"Robin Lopez","Robin-Lopez-1466","4000","C","61.08","220","18.3","104.50","18.61","20.00","29.06","5.29","14.73","0","6.5"
"Chasson Randle","Chasson-Randle-36002","3300","PG/SG","55.82","218","15.0","103.80","16.73","14.00","24.19","2.9","12.1","0","2.75"
"Zaza Pachulia","Zaza-Pachulia-1455","3500","C","48.17","217","23.3","100.30","11.66","14.00","22.38","4.5","12.82","0","15.0"
"Pat Connaughton","Pat-Connaughton-18939","3000","SG/SF","37.85","217","11.3","98.80","20.38","15.00","21.81","3.03","10.91","0","0"
"JaVale McGee","JaVale-McGee-1485","4200","C","52.39","230","14.5","112.50","24.44","14.00","30.54","3.94","15.28","0","42.5"
"Nene Hilario","Nene-Hilario-17321","3300","C","51.32","234","12.0","101.42","12.05","12.00","22.65","3.16","11.84","0","8.0"
"Sviatoslav Mykhailiuk","Sviatoslav-Mykhailiuk-409280","3200","PG/SG","35.31","230","14.3","112.50","15.08","18.00","15.92","8.6","11.37","0","20.25"
"Landry Shamet","Landry-Shamet-408841","3300","PG/SG","36.30","230","19.8","108.33","19.55","16.00","16.3","9.07","11.64","0","13.75"
"Tim Frazier","Tim-Frazier-18743","3200","PG/SG","40.27","234","11.8","104.88","17.46","13.00","22.13","2.89","11.07","0","32.0"
"Ryan Arcidiacono","Ryan-Arcidiacono-36050","3200","PG","40.77","220","15.9","104.50","13.22","16.00","21.81","3.27","10.91","0","7.5"
"Corey Brewer","Corey-Brewer-1278","3900","SG/SF","36.30","230","24.8","108.33","18.87","18.00","26.03","4.96","13.02","0","12.75"
"Abdel Nader","Abdel-Nader-35179","3100","SF","32.27","222","12.7","102.62","16.06","14.00","20.41","2.36","10.21","0","8.0"
"Treveon Graham","Treveon-Graham-36023","3500","SF/PF","39.05","220","26.4","114.62","13.25","20.00","18.23","3.6","11.46","0","11.25"
"Austin Rivers","Austin-Rivers-13903","4400","PG/SG","48.70","234","34.3","101.42","12.78","20.00","27.35","3.16","13.68","0","17.0"
"Dragan Bender","Dragan-Bender-35228","4200","PF/C","51.25","226","19.3","108.80","19.69","17.00","25.89","3.81","12.95","0","0.0"
"Mike Muscala","Mike-Muscala-17379","3700","PF/C","58.20","230","20.2","108.33","12.22","14.00","21.72","2.18","11.25","0","29.25"
"Patrick Patterson","Patrick-Patterson-1260","3400","PF/C","48.92","222","12.3","102.62","10.12","14.00","19.67","2.03","10.15","0","4.0"
"Tyson Chandler","Tyson-Chandler-1482","3300","C","52.39","230","16.0","112.50","10.74","10.00","19.17","1.65","9.59","0","0"
"Troy Daniels","Troy-Daniels-17383","3100","SG","32.89","226","9.8","108.80","20.77","12.00","17.91","2.63","8.96","0","2.5"
"Deng Adel","Deng-Adel-554989","3000","SF/PF","35.53","218","7.2","103.60","9.26","12.00","11.97","7.17","8.55","0","2.25"
"Gerald Green","Gerald-Green-13374","4000","SG/SF","49.45","234","25.7","101.42","18.68","13.00","18.68","2.96","10.35","0","8.75"
"Shaquille Harrison","Shaquille-Harrison-36065","3400","PG/SF","40.77","220","13.6","104.50","14.56","11.00","17.11","2.45","8.56","0","19.5"
"Ian Clark","Ian-Clark-16922","3000","PG/SG","37.47","234","4.0","104.88","24.43","10.00","13.97","1.82","6.99","0","19.75"
"Khyri Thomas","Khyri-Thomas-408839","3000","SG","36.81","217","9.3","100.30","15.71","10.00","8.88","5.32","6.34","0","8.5"
"Wesley Johnson","Wesley-Johnson-1280","3000","SF/PF","36.91","234","0","104.88","0","6.00","9.64","1.05","4.82","0","7.0"
"Theo Pinson","Theo-Pinson-554931","4500","SG/SF","35.12","220","25.0","114.62","20.50","7.00","9.0","5.39","6.43","0","0.0"
"Kenrich Williams","Kenrich-Williams-570179","3100","SG/SF","36.91","234","12.0","104.88","10.55","5.00","5.04","2.85","3.6","0","31.0"
"Furkan Korkmaz","Furkan-Korkmaz-35185","3100","SG/SF","36.30","230","7.5","108.33","18.92","5.00","6.1","0.68","3.05","0","0"
"Dante Cunningham","Dante-Cunningham-1259","3000","SF/PF","47.73","226","10.0","99.70","8.15","4.00","5.7","0.68","2.85","0","2.0"
"Lonnie Walker","Lonnie-Walker-409137","3000","PG/SG","50.08","226","9.5","99.70","19.64","4.00","3.96","2.37","2.83","0","1.25"
"Channing Frye","Channing-Frye-1484","3100","PF/C","59.66","218","13.2","103.60","14.05","3.00","5.16","0.65","2.58","0","0.0"
