"Kyle-Lowry-1057","Tyreke-Evans-1070","Iman-Shumpert-13350","Serge-Ibaka-1294","Willie-Cauley-Stein-18951","Buddy-Hield-35206","Kevin-Durant-1348","Marvin-Bagley-III-409321","50000","276.79"
"Quinn-Cook-31771","Buddy-Hield-35206","Tyreke-Evans-1070","Marvin-Bagley-III-409321","Montrezl-Harrell-18930","Darren-Collison-1060","Kevin-Durant-1348","Willie-Cauley-Stein-18951","50000","275.33"

"Kyle-Lowry-1057","Tyreke-Evans-1070","Iman-Shumpert-13350","Serge-Ibaka-1294","Willie-Cauley-Stein-18951","Buddy-Hield-35206","Kevin-Durant-1348","Marvin-Bagley-III-409321","50000","276.79"
"Quinn-Cook-31771","Buddy-Hield-35206","Tyreke-Evans-1070","Marvin-Bagley-III-409321","Montrezl-Harrell-18930","Darren-Collison-1060","Kevin-Durant-1348","Willie-Cauley-Stein-18951","50000","275.33"
"Kyle-Lowry-1057","Tyreke-Evans-1070","Kentavious-Caldwell-Pope-16869","Marvin-Bagley-III-409321","Willie-Cauley-Stein-18951","Buddy-Hield-35206","Serge-Ibaka-1294","Kevin-Durant-1348","50000","275.33"
"Quinn-Cook-31771","Tyreke-Evans-1070","Buddy-Hield-35206","Marvin-Bagley-III-409321","Serge-Ibaka-1294","Darren-Collison-1060","Kevin-Durant-1348","Kyle-Lowry-1057","50000","274.86"
"Quinn-Cook-31771","Buddy-Hield-35206","Iman-Shumpert-13350","Serge-Ibaka-1294","Willie-Cauley-Stein-18951","Kyle-Lowry-1057","Kevin-Durant-1348","Marvin-Bagley-III-409321","49800","274.83"
"Quinn-Cook-31771","Andre-Iguodala-1334","Buddy-Hield-35206","Marvin-Bagley-III-409321","Willie-Cauley-Stein-18951","Kyle-Lowry-1057","Serge-Ibaka-1294","Kevin-Durant-1348","50000","274.68"
"Quinn-Cook-31771","Tyreke-Evans-1070","Kevin-Durant-1348","Marvin-Bagley-III-409321","Willie-Cauley-Stein-18951","Darren-Collison-1060","Serge-Ibaka-1294","Montrezl-Harrell-18930","49800","274.41"
"Darren-Collison-1060","Buddy-Hield-35206","Iman-Shumpert-13350","Serge-Ibaka-1294","Willie-Cauley-Stein-18951","Kyle-Lowry-1057","Kevin-Durant-1348","Marvin-Bagley-III-409321","49700","274.39"
"Darren-Collison-1060","Andre-Iguodala-1334","Buddy-Hield-35206","Marvin-Bagley-III-409321","Willie-Cauley-Stein-18951","Kyle-Lowry-1057","Serge-Ibaka-1294","Kevin-Durant-1348","49900","274.24"
"De'Aaron-Fox-37900","Tyreke-Evans-1070","Buddy-Hield-35206","Marvin-Bagley-III-409321","Willie-Cauley-Stein-18951","Klay-Thompson-13315","Serge-Ibaka-1294","Kyle-Lowry-1057","50000","274.06"
"Quinn-Cook-31771","Klay-Thompson-13315","Tyreke-Evans-1070","Kevin-Durant-1348","Willie-Cauley-Stein-18951","Darren-Collison-1060","Buddy-Hield-35206","Serge-Ibaka-1294","50000","274.04"
"De'Aaron-Fox-37900","Buddy-Hield-35206","Iman-Shumpert-13350","Serge-Ibaka-1294","Willie-Cauley-Stein-18951","Brandon-Ingram-35227","Kevin-Durant-1348","Marvin-Bagley-III-409321","50000","273.61"
"Shai-Gilgeous-Alexander-408990","Tyreke-Evans-1070","Kevin-Durant-1348","Marvin-Bagley-III-409321","Willie-Cauley-Stein-18951","Quinn-Cook-31771","Serge-Ibaka-1294","Montrezl-Harrell-18930","50000","273.4"
"Shai-Gilgeous-Alexander-408990","Buddy-Hield-35206","Iman-Shumpert-13350","Serge-Ibaka-1294","Willie-Cauley-Stein-18951","Kyle-Lowry-1057","Kevin-Durant-1348","Marvin-Bagley-III-409321","49900","273.38"
"Quinn-Cook-31771","Buddy-Hield-35206","Kentavious-Caldwell-Pope-16869","Marvin-Bagley-III-409321","Willie-Cauley-Stein-18951","Kyle-Lowry-1057","Serge-Ibaka-1294","Kevin-Durant-1348","49800","273.37"
"Quinn-Cook-31771","Klay-Thompson-13315","Tyreke-Evans-1070","Kevin-Durant-1348","Willie-Cauley-Stein-18951","Darren-Collison-1060","Buddy-Hield-35206","Marvin-Bagley-III-409321","49800","273.37"
"Kyle-Lowry-1057","Tyreke-Evans-1070","Kevin-Durant-1348","Marvin-Bagley-III-409321","Willie-Cauley-Stein-18951","Iman-Shumpert-13350","Serge-Ibaka-1294","Kyle-Kuzma-37886","49900","273.3"
"Quinn-Cook-31771","Tyreke-Evans-1070","Kevin-Durant-1348","Marvin-Bagley-III-409321","Willie-Cauley-Stein-18951","Buddy-Hield-35206","Serge-Ibaka-1294","Danilo-Gallinari-1329","49700","273.27"
"Darren-Collison-1060","Buddy-Hield-35206","Tyreke-Evans-1070","Marvin-Bagley-III-409321","Montrezl-Harrell-18930","Bogdan-Bogdanovic-37899","Kevin-Durant-1348","Serge-Ibaka-1294","50000","273.26"
"Quinn-Cook-31771","Buddy-Hield-35206","Tyreke-Evans-1070","Serge-Ibaka-1294","Willie-Cauley-Stein-18951","De'Aaron-Fox-37900","Kevin-Durant-1348","Darren-Collison-1060","49800","273.14"
"Lonzo-Ball-37885","Tyreke-Evans-1070","Buddy-Hield-35206","Marvin-Bagley-III-409321","Willie-Cauley-Stein-18951","Brandon-Ingram-35227","Serge-Ibaka-1294","Kevin-Durant-1348","49900","273.12"
"Quinn-Cook-31771","Tyreke-Evans-1070","Kevin-Durant-1348","Marvin-Bagley-III-409321","JaVale-McGee-1485","Buddy-Hield-35206","Montrezl-Harrell-18930","Serge-Ibaka-1294","50000","273.05"
"Shai-Gilgeous-Alexander-408990","Tyreke-Evans-1070","Kevin-Durant-1348","Marvin-Bagley-III-409321","Willie-Cauley-Stein-18951","Darren-Collison-1060","Serge-Ibaka-1294","Montrezl-Harrell-18930","49900","272.96"
"Quinn-Cook-31771","Buddy-Hield-35206","Tyreke-Evans-1070","Marvin-Bagley-III-409321","Montrezl-Harrell-18930","Darren-Collison-1060","Kevin-Durant-1348","Serge-Ibaka-1294","49600","272.95"
"Darren-Collison-1060","Buddy-Hield-35206","Kentavious-Caldwell-Pope-16869","Marvin-Bagley-III-409321","Willie-Cauley-Stein-18951","Kyle-Lowry-1057","Serge-Ibaka-1294","Kevin-Durant-1348","49700","272.93"
"Quinn-Cook-31771","Buddy-Hield-35206","Kevin-Durant-1348","Marvin-Bagley-III-409321","Willie-Cauley-Stein-18951","Iman-Shumpert-13350","Serge-Ibaka-1294","Montrezl-Harrell-18930","49400","272.92"
"Kyle-Lowry-1057","Tyreke-Evans-1070","Buddy-Hield-35206","Kevin-Durant-1348","Serge-Ibaka-1294","Brandon-Ingram-35227","Iman-Shumpert-13350","Marvin-Bagley-III-409321","49900","272.88"
"Darren-Collison-1060","Brandon-Ingram-35227","Buddy-Hield-35206","Kevin-Durant-1348","Willie-Cauley-Stein-18951","Kyle-Lowry-1057","Iman-Shumpert-13350","Marvin-Bagley-III-409321","50000","272.86"
"Darren-Collison-1060","Tyreke-Evans-1070","Kevin-Durant-1348","Marvin-Bagley-III-409321","Willie-Cauley-Stein-18951","Buddy-Hield-35206","Serge-Ibaka-1294","Danilo-Gallinari-1329","49600","272.83"
"Kyle-Lowry-1057","Tyreke-Evans-1070","Buddy-Hield-35206","Marvin-Bagley-III-409321","Willie-Cauley-Stein-18951","Bogdan-Bogdanovic-37899","Serge-Ibaka-1294","Kawhi-Leonard-13310","49900","272.78"
"De'Aaron-Fox-37900","Bogdan-Bogdanovic-37899","Tyreke-Evans-1070","Kevin-Durant-1348","Willie-Cauley-Stein-18951","Darren-Collison-1060","Buddy-Hield-35206","Marvin-Bagley-III-409321","50000","272.78"
"Quinn-Cook-31771","Buddy-Hield-35206","Kevin-Durant-1348","Marvin-Bagley-III-409321","Willie-Cauley-Stein-18951","Andre-Iguodala-1334","Serge-Ibaka-1294","Montrezl-Harrell-18930","49600","272.77"
"Darren-Collison-1060","Tyreke-Evans-1070","Bogdan-Bogdanovic-37899","Marvin-Bagley-III-409321","Serge-Ibaka-1294","Klay-Thompson-13315","Kevin-Durant-1348","Willie-Cauley-Stein-18951","50000","272.76"
"Quinn-Cook-31771","Bogdan-Bogdanovic-37899","Kevin-Durant-1348","Marvin-Bagley-III-409321","Willie-Cauley-Stein-18951","Darren-Collison-1060","Serge-Ibaka-1294","Montrezl-Harrell-18930","50000","272.76"
"Quinn-Cook-31771","Buddy-Hield-35206","Kevin-Durant-1348","Marvin-Bagley-III-409321","Willie-Cauley-Stein-18951","Kyle-Lowry-1057","Serge-Ibaka-1294","Kevon-Looney-18945","50000","272.75"
"Lou-Williams-1044","Tyreke-Evans-1070","Buddy-Hield-35206","Marvin-Bagley-III-409321","Willie-Cauley-Stein-18951","Brandon-Ingram-35227","Serge-Ibaka-1294","Kevin-Durant-1348","49800","272.73"
"Kyle-Lowry-1057","Iman-Shumpert-13350","Tyreke-Evans-1070","Kevin-Durant-1348","Willie-Cauley-Stein-18951","Bogdan-Bogdanovic-37899","Buddy-Hield-35206","Serge-Ibaka-1294","49900","272.69"
"Lonzo-Ball-37885","Tyreke-Evans-1070","Iman-Shumpert-13350","Serge-Ibaka-1294","Willie-Cauley-Stein-18951","Kyle-Lowry-1057","Kevin-Durant-1348","Marvin-Bagley-III-409321","50000","272.65"
"Kyle-Lowry-1057","Tyreke-Evans-1070","Kevin-Durant-1348","Marvin-Bagley-III-409321","Willie-Cauley-Stein-18951","Buddy-Hield-35206","Serge-Ibaka-1294","Tyson-Chandler-1482","49500","272.64"
"Kyle-Lowry-1057","Buddy-Hield-35206","Kevin-Durant-1348","Marvin-Bagley-III-409321","Willie-Cauley-Stein-18951","Iman-Shumpert-13350","Serge-Ibaka-1294","Jonas-Valanciunas-13301","50000","272.64"
"Darren-Collison-1060","Tyreke-Evans-1070","Kevin-Durant-1348","Marvin-Bagley-III-409321","JaVale-McGee-1485","Buddy-Hield-35206","Montrezl-Harrell-18930","Serge-Ibaka-1294","49900","272.61"
"De'Aaron-Fox-37900","Buddy-Hield-35206","Tyreke-Evans-1070","Kevin-Durant-1348","Serge-Ibaka-1294","Darren-Collison-1060","Kyle-Kuzma-37886","Marvin-Bagley-III-409321","50000","272.6"
"Darren-Collison-1060","Buddy-Hield-35206","Kawhi-Leonard-13310","Marvin-Bagley-III-409321","Willie-Cauley-Stein-18951","Kyle-Lowry-1057","Serge-Ibaka-1294","Kyle-Kuzma-37886","50000","272.58"
"Quinn-Cook-31771","Buddy-Hield-35206","Tyreke-Evans-1070","Marvin-Bagley-III-409321","JaVale-McGee-1485","De'Aaron-Fox-37900","Kevin-Durant-1348","Willie-Cauley-Stein-18951","50000","272.57"
"De'Aaron-Fox-37900","Buddy-Hield-35206","Kevin-Durant-1348","Marvin-Bagley-III-409321","Willie-Cauley-Stein-18951","Iman-Shumpert-13350","Serge-Ibaka-1294","Kyle-Kuzma-37886","49800","272.57"
"Quinn-Cook-31771","Tyreke-Evans-1070","Kevin-Durant-1348","Marvin-Bagley-III-409321","Willie-Cauley-Stein-18951","Klay-Thompson-13315","Serge-Ibaka-1294","JaVale-McGee-1485","50000","272.55"
"Quinn-Cook-31771","Klay-Thompson-13315","Tyreke-Evans-1070","Serge-Ibaka-1294","Willie-Cauley-Stein-18951","Kyle-Lowry-1057","Buddy-Hield-35206","Montrezl-Harrell-18930","49900","272.51"
"Darren-Collison-1060","Buddy-Hield-35206","Iman-Shumpert-13350","Serge-Ibaka-1294","Willie-Cauley-Stein-18951","Kyle-Lowry-1057","Kevin-Durant-1348","Kyle-Kuzma-37886","50000","272.49"
"Darren-Collison-1060","Buddy-Hield-35206","Kevin-Durant-1348","Marvin-Bagley-III-409321","Willie-Cauley-Stein-18951","Iman-Shumpert-13350","Serge-Ibaka-1294","Montrezl-Harrell-18930","49300","272.48"
"Quinn-Cook-31771","Tyreke-Evans-1070","Buddy-Hield-35206","Marvin-Bagley-III-409321","Willie-Cauley-Stein-18951","Kyle-Lowry-1057","Serge-Ibaka-1294","Kawhi-Leonard-13310","49500","272.47"
"Quinn-Cook-31771","Buddy-Hield-35206","Tyreke-Evans-1070","Marvin-Bagley-III-409321","Willie-Cauley-Stein-18951","De'Aaron-Fox-37900","Kevin-Durant-1348","Darren-Collison-1060","49600","272.47"
"Quinn-Cook-31771","Tyreke-Evans-1070","Kevin-Durant-1348","Marvin-Bagley-III-409321","Willie-Cauley-Stein-18951","Klay-Thompson-13315","Serge-Ibaka-1294","Darren-Collison-1060","49600","272.45"
"Lou-Williams-1044","Buddy-Hield-35206","Iman-Shumpert-13350","Serge-Ibaka-1294","Willie-Cauley-Stein-18951","Klay-Thompson-13315","Kevin-Durant-1348","Marvin-Bagley-III-409321","50000","272.43"
"De'Aaron-Fox-37900","Buddy-Hield-35206","Kevin-Durant-1348","Marvin-Bagley-III-409321","Willie-Cauley-Stein-18951","Andre-Iguodala-1334","Serge-Ibaka-1294","Kyle-Kuzma-37886","50000","272.42"
"Lonzo-Ball-37885","Tyreke-Evans-1070","Kawhi-Leonard-13310","Serge-Ibaka-1294","Willie-Cauley-Stein-18951","Buddy-Hield-35206","Montrezl-Harrell-18930","Marvin-Bagley-III-409321","50000","272.42"
"Quinn-Cook-31771","Iman-Shumpert-13350","Tyreke-Evans-1070","Kevin-Durant-1348","Willie-Cauley-Stein-18951","Kyle-Lowry-1057","Buddy-Hield-35206","Serge-Ibaka-1294","49500","272.38"
"Quinn-Cook-31771","Brandon-Ingram-35227","Iman-Shumpert-13350","Serge-Ibaka-1294","Willie-Cauley-Stein-18951","Kyle-Lowry-1057","Kevin-Durant-1348","Marvin-Bagley-III-409321","49900","272.38"
"Shai-Gilgeous-Alexander-408990","Klay-Thompson-13315","Tyreke-Evans-1070","Kevin-Durant-1348","Willie-Cauley-Stein-18951","Quinn-Cook-31771","Buddy-Hield-35206","Marvin-Bagley-III-409321","50000","272.36"
"Lonzo-Ball-37885","Tyreke-Evans-1070","Iman-Shumpert-13350","Serge-Ibaka-1294","Willie-Cauley-Stein-18951","Buddy-Hield-35206","Kevin-Durant-1348","Montrezl-Harrell-18930","50000","272.33"
"Darren-Collison-1060","Buddy-Hield-35206","Kevin-Durant-1348","Marvin-Bagley-III-409321","Willie-Cauley-Stein-18951","Andre-Iguodala-1334","Serge-Ibaka-1294","Montrezl-Harrell-18930","49500","272.33"
"Darren-Collison-1060","Buddy-Hield-35206","Kevin-Durant-1348","Marvin-Bagley-III-409321","Willie-Cauley-Stein-18951","Kyle-Lowry-1057","Serge-Ibaka-1294","Kevon-Looney-18945","49900","272.31"
"Quinn-Cook-31771","Tyreke-Evans-1070","Bogdan-Bogdanovic-37899","Marvin-Bagley-III-409321","Serge-Ibaka-1294","De'Aaron-Fox-37900","Kevin-Durant-1348","Willie-Cauley-Stein-18951","49900","272.3"
"Kyle-Lowry-1057","Tyreke-Evans-1070","Iman-Shumpert-13350","Serge-Ibaka-1294","Willie-Cauley-Stein-18951","Lou-Williams-1044","Kevin-Durant-1348","Marvin-Bagley-III-409321","49900","272.26"
"Quinn-Cook-31771","Buddy-Hield-35206","Iman-Shumpert-13350","Kevin-Durant-1348","Willie-Cauley-Stein-18951","Kyle-Lowry-1057","Kyle-Kuzma-37886","Marvin-Bagley-III-409321","49900","272.26"
"Quinn-Cook-31771","Andre-Iguodala-1334","Tyreke-Evans-1070","Kevin-Durant-1348","Willie-Cauley-Stein-18951","Kyle-Lowry-1057","Buddy-Hield-35206","Serge-Ibaka-1294","49700","272.23"
"Kyle-Lowry-1057","Tyreke-Evans-1070","Buddy-Hield-35206","Serge-Ibaka-1294","Montrezl-Harrell-18930","Iman-Shumpert-13350","Kawhi-Leonard-13310","Marvin-Bagley-III-409321","50000","272.18"
"De'Aaron-Fox-37900","Buddy-Hield-35206","Kentavious-Caldwell-Pope-16869","Marvin-Bagley-III-409321","Willie-Cauley-Stein-18951","Brandon-Ingram-35227","Serge-Ibaka-1294","Kevin-Durant-1348","50000","272.15"
"Quinn-Cook-31771","Buddy-Hield-35206","Kawhi-Leonard-13310","Serge-Ibaka-1294","Willie-Cauley-Stein-18951","Brandon-Ingram-35227","Montrezl-Harrell-18930","Marvin-Bagley-III-409321","49900","272.15"
"De'Aaron-Fox-37900","Tyreke-Evans-1070","Buddy-Hield-35206","Marvin-Bagley-III-409321","Willie-Cauley-Stein-18951","Klay-Thompson-13315","Serge-Ibaka-1294","Montrezl-Harrell-18930","49600","272.15"
"Kyle-Lowry-1057","Tyreke-Evans-1070","Kawhi-Leonard-13310","Marvin-Bagley-III-409321","Willie-Cauley-Stein-18951","Buddy-Hield-35206","Serge-Ibaka-1294","JaVale-McGee-1485","49800","272.13"
"De'Aaron-Fox-37900","Buddy-Hield-35206","Tyreke-Evans-1070","Marvin-Bagley-III-409321","JaVale-McGee-1485","Darren-Collison-1060","Kevin-Durant-1348","Willie-Cauley-Stein-18951","49900","272.13"
"Shai-Gilgeous-Alexander-408990","Buddy-Hield-35206","Tyreke-Evans-1070","Serge-Ibaka-1294","Willie-Cauley-Stein-18951","Quinn-Cook-31771","Kevin-Durant-1348","De'Aaron-Fox-37900","50000","272.13"
"Darren-Collison-1060","Tyreke-Evans-1070","Kevin-Durant-1348","Marvin-Bagley-III-409321","Willie-Cauley-Stein-18951","Klay-Thompson-13315","Serge-Ibaka-1294","JaVale-McGee-1485","49900","272.11"
"Quinn-Cook-31771","Klay-Thompson-13315","Buddy-Hield-35206","Marvin-Bagley-III-409321","Willie-Cauley-Stein-18951","De'Aaron-Fox-37900","Serge-Ibaka-1294","Kyle-Lowry-1057","49800","272.1"
"Lonzo-Ball-37885","Tyreke-Evans-1070","Kevin-Durant-1348","Marvin-Bagley-III-409321","Willie-Cauley-Stein-18951","Buddy-Hield-35206","Serge-Ibaka-1294","Kyle-Kuzma-37886","49700","272.08"
"Darren-Collison-1060","Klay-Thompson-13315","Tyreke-Evans-1070","Serge-Ibaka-1294","Willie-Cauley-Stein-18951","Kyle-Lowry-1057","Buddy-Hield-35206","Montrezl-Harrell-18930","49800","272.07"
"Quinn-Cook-31771","Buddy-Hield-35206","Iman-Shumpert-13350","Serge-Ibaka-1294","Willie-Cauley-Stein-18951","Brandon-Ingram-35227","Kevin-Durant-1348","Montrezl-Harrell-18930","49900","272.06"
"Kyle-Lowry-1057","Tyreke-Evans-1070","Iman-Shumpert-13350","Serge-Ibaka-1294","Willie-Cauley-Stein-18951","Buddy-Hield-35206","Kevin-Durant-1348","JaVale-McGee-1485","49800","272.04"
"Darren-Collison-1060","Tyreke-Evans-1070","Buddy-Hield-35206","Marvin-Bagley-III-409321","Willie-Cauley-Stein-18951","Kyle-Lowry-1057","Serge-Ibaka-1294","Kawhi-Leonard-13310","49400","272.03"
"Lou-Williams-1044","Tyreke-Evans-1070","Kawhi-Leonard-13310","Serge-Ibaka-1294","Willie-Cauley-Stein-18951","Buddy-Hield-35206","Montrezl-Harrell-18930","Marvin-Bagley-III-409321","49900","272.03"
"Kyle-Lowry-1057","Iman-Shumpert-13350","Tyreke-Evans-1070","Kevin-Durant-1348","Willie-Cauley-Stein-18951","Bogdan-Bogdanovic-37899","Buddy-Hield-35206","Marvin-Bagley-III-409321","49700","272.02"
"De'Aaron-Fox-37900","Tyreke-Evans-1070","Iman-Shumpert-13350","Serge-Ibaka-1294","Willie-Cauley-Stein-18951","Buddy-Hield-35206","Kevin-Durant-1348","Marvin-Bagley-III-409321","49200","272.02"
"Quinn-Cook-31771","Buddy-Hield-35206","Kevin-Durant-1348","Marvin-Bagley-III-409321","Willie-Cauley-Stein-18951","Danny-Green-940","Serge-Ibaka-1294","Montrezl-Harrell-18930","49900","272.0"
"Lou-Williams-1044","Tyreke-Evans-1070","Iman-Shumpert-13350","Serge-Ibaka-1294","Willie-Cauley-Stein-18951","Buddy-Hield-35206","Kevin-Durant-1348","Montrezl-Harrell-18930","49900","271.94"
"Shai-Gilgeous-Alexander-408990","Buddy-Hield-35206","Tyreke-Evans-1070","Marvin-Bagley-III-409321","Montrezl-Harrell-18930","Quinn-Cook-31771","Kevin-Durant-1348","Serge-Ibaka-1294","49800","271.94"
"Darren-Collison-1060","Iman-Shumpert-13350","Tyreke-Evans-1070","Kevin-Durant-1348","Willie-Cauley-Stein-18951","Kyle-Lowry-1057","Buddy-Hield-35206","Serge-Ibaka-1294","49400","271.94"
"Darren-Collison-1060","Brandon-Ingram-35227","Iman-Shumpert-13350","Serge-Ibaka-1294","Willie-Cauley-Stein-18951","Kyle-Lowry-1057","Kevin-Durant-1348","Marvin-Bagley-III-409321","49800","271.94"
"Darren-Collison-1060","Tyreke-Evans-1070","Kawhi-Leonard-13310","Marvin-Bagley-III-409321","Willie-Cauley-Stein-18951","Buddy-Hield-35206","Kevin-Durant-1348","Tyson-Chandler-1482","50000","271.94"
"Shai-Gilgeous-Alexander-408990","Klay-Thompson-13315","Tyreke-Evans-1070","Kevin-Durant-1348","Willie-Cauley-Stein-18951","Darren-Collison-1060","Buddy-Hield-35206","Marvin-Bagley-III-409321","49900","271.92"
"Lonzo-Ball-37885","Buddy-Hield-35206","Iman-Shumpert-13350","Serge-Ibaka-1294","Willie-Cauley-Stein-18951","De'Aaron-Fox-37900","Kevin-Durant-1348","Marvin-Bagley-III-409321","49900","271.92"
"Shai-Gilgeous-Alexander-408990","Buddy-Hield-35206","Kentavious-Caldwell-Pope-16869","Marvin-Bagley-III-409321","Willie-Cauley-Stein-18951","Kyle-Lowry-1057","Serge-Ibaka-1294","Kevin-Durant-1348","49900","271.92"
"Shai-Gilgeous-Alexander-408990","Buddy-Hield-35206","Kevin-Durant-1348","Marvin-Bagley-III-409321","Willie-Cauley-Stein-18951","Quinn-Cook-31771","Montrezl-Harrell-18930","Darren-Collison-1060","49900","271.92"
"Kyle-Lowry-1057","Tyreke-Evans-1070","Andre-Iguodala-1334","Serge-Ibaka-1294","JaVale-McGee-1485","Buddy-Hield-35206","Kevin-Durant-1348","Willie-Cauley-Stein-18951","50000","271.89"
"De'Aaron-Fox-37900","Tyreke-Evans-1070","Buddy-Hield-35206","Marvin-Bagley-III-409321","Willie-Cauley-Stein-18951","Darren-Collison-1060","Serge-Ibaka-1294","LeBron-James-1227","50000","271.88"
"Kyle-Lowry-1057","Andre-Iguodala-1334","Tyreke-Evans-1070","Kevin-Durant-1348","Willie-Cauley-Stein-18951","Bogdan-Bogdanovic-37899","Buddy-Hield-35206","Marvin-Bagley-III-409321","49900","271.87"
"De'Aaron-Fox-37900","Tyreke-Evans-1070","Buddy-Hield-35206","Marvin-Bagley-III-409321","Willie-Cauley-Stein-18951","Andre-Iguodala-1334","Serge-Ibaka-1294","Kevin-Durant-1348","49400","271.87"
"De'Aaron-Fox-37900","Tyreke-Evans-1070","Bogdan-Bogdanovic-37899","Marvin-Bagley-III-409321","Serge-Ibaka-1294","Darren-Collison-1060","Kevin-Durant-1348","Willie-Cauley-Stein-18951","49800","271.86"
"Kyle-Lowry-1057","Tyreke-Evans-1070","Kevin-Durant-1348","Marvin-Bagley-III-409321","Willie-Cauley-Stein-18951","Kentavious-Caldwell-Pope-16869","Serge-Ibaka-1294","Kyle-Kuzma-37886","49900","271.84"
"Quinn-Cook-31771","Tyreke-Evans-1070","Kevin-Durant-1348","Marvin-Bagley-III-409321","Willie-Cauley-Stein-18951","Darren-Collison-1060","Kyle-Kuzma-37886","Montrezl-Harrell-18930","49900","271.84"
"Quinn-Cook-31771","Klay-Thompson-13315","Tyreke-Evans-1070","Marvin-Bagley-III-409321","Willie-Cauley-Stein-18951","Kyle-Lowry-1057","Buddy-Hield-35206","Montrezl-Harrell-18930","49700","271.84"
