"Justise-Winslow-18921","D'Angelo-Russell-18947","Josh-Richardson-18922","Al-Farouq-Aminu-1279","Jusuf-Nurkic-18619","Spencer-Dinwiddie-18588","Tim-Hardaway-Jr.-16879","Enes-Kanter-13299","50000","272.68"

"Justise-Winslow-18921","D'Angelo-Russell-18947","Josh-Richardson-18922","Al-Farouq-Aminu-1279","Jusuf-Nurkic-18619","Spencer-Dinwiddie-18588","Tim-Hardaway-Jr.-16879","Enes-Kanter-13299","50000","272.68"
"D'Angelo-Russell-18947","C.J.-McCollum-17121","Justise-Winslow-18921","Al-Farouq-Aminu-1279","Jusuf-Nurkic-18619","Spencer-Dinwiddie-18588","Josh-Richardson-18922","Enes-Kanter-13299","49600","271.81"
"D'Angelo-Russell-18947","C.J.-McCollum-17121","Rodney-McGruder-16850","Al-Farouq-Aminu-1279","Jusuf-Nurkic-18619","Spencer-Dinwiddie-18588","Josh-Richardson-18922","Enes-Kanter-13299","49900","271.65"
"D'Angelo-Russell-18947","C.J.-McCollum-17121","Justise-Winslow-18921","Mario-Hezonja-18923","Enes-Kanter-13299","Tim-Hardaway-Jr.-16879","Josh-Richardson-18922","Jusuf-Nurkic-18619","50000","270.42"
"Damian-Lillard-13900","D'Angelo-Russell-18947","Derrick-Jones-36064","Al-Farouq-Aminu-1279","Enes-Kanter-13299","Josh-Richardson-18922","Justise-Winslow-18921","Jusuf-Nurkic-18619","50000","270.3"
"Damian-Lillard-13900","D'Angelo-Russell-18947","Mario-Hezonja-18923","Al-Farouq-Aminu-1279","Enes-Kanter-13299","Josh-Richardson-18922","Allen-Crabbe-16978","Jusuf-Nurkic-18619","49700","269.38"
"Damian-Lillard-13900","Rodney-McGruder-16850","Justise-Winslow-18921","Al-Farouq-Aminu-1279","Jusuf-Nurkic-18619","Spencer-Dinwiddie-18588","Josh-Richardson-18922","Enes-Kanter-13299","50000","269.37"
"D'Angelo-Russell-18947","Wayne-Ellington-1009","Josh-Richardson-18922","Al-Farouq-Aminu-1279","Jusuf-Nurkic-18619","Spencer-Dinwiddie-18588","Tim-Hardaway-Jr.-16879","Enes-Kanter-13299","49900","269.32"
"D'Angelo-Russell-18947","C.J.-McCollum-17121","Justise-Winslow-18921","Al-Farouq-Aminu-1279","Enes-Kanter-13299","Spencer-Dinwiddie-18588","Tim-Hardaway-Jr.-16879","Jusuf-Nurkic-18619","49700","269.32"
"D'Angelo-Russell-18947","C.J.-McCollum-17121","Rodney-McGruder-16850","Al-Farouq-Aminu-1279","Enes-Kanter-13299","Spencer-Dinwiddie-18588","Tim-Hardaway-Jr.-16879","Jusuf-Nurkic-18619","50000","269.16"
"D'Angelo-Russell-18947","C.J.-McCollum-17121","Derrick-Jones-36064","Al-Farouq-Aminu-1279","Jusuf-Nurkic-18619","Josh-Richardson-18922","Tim-Hardaway-Jr.-16879","Enes-Kanter-13299","49800","268.96"
"D'Angelo-Russell-18947","Tim-Hardaway-Jr.-16879","Allen-Crabbe-16978","Al-Farouq-Aminu-1279","Hassan-Whiteside-18664","Spencer-Dinwiddie-18588","Josh-Richardson-18922","Enes-Kanter-13299","49900","268.95"
"D'Angelo-Russell-18947","Allen-Crabbe-16978","Josh-Richardson-18922","Al-Farouq-Aminu-1279","Jusuf-Nurkic-18619","Spencer-Dinwiddie-18588","Tim-Hardaway-Jr.-16879","Enes-Kanter-13299","49300","268.85"
"Justise-Winslow-18921","Allen-Crabbe-16978","Josh-Richardson-18922","Al-Farouq-Aminu-1279","Jusuf-Nurkic-18619","D'Angelo-Russell-18947","Tim-Hardaway-Jr.-16879","Hassan-Whiteside-18664","50000","268.79"
"Damian-Lillard-13900","C.J.-McCollum-17121","Mario-Hezonja-18923","Al-Farouq-Aminu-1279","Enes-Kanter-13299","Josh-Richardson-18922","Justise-Winslow-18921","Jusuf-Nurkic-18619","49900","268.72"
"D'Angelo-Russell-18947","C.J.-McCollum-17121","Justise-Winslow-18921","Mario-Hezonja-18923","Hassan-Whiteside-18664","Spencer-Dinwiddie-18588","Josh-Richardson-18922","Jusuf-Nurkic-18619","50000","268.72"
"Justise-Winslow-18921","D'Angelo-Russell-18947","Rodney-McGruder-16850","Al-Farouq-Aminu-1279","Hassan-Whiteside-18664","Josh-Richardson-18922","Tim-Hardaway-Jr.-16879","Enes-Kanter-13299","49900","268.52"
"Justise-Winslow-18921","D'Angelo-Russell-18947","Josh-Richardson-18922","Al-Farouq-Aminu-1279","Jusuf-Nurkic-18619","Rodney-McGruder-16850","Tim-Hardaway-Jr.-16879","Enes-Kanter-13299","49300","268.42"
"D'Angelo-Russell-18947","Evan-Turner-1291","Josh-Richardson-18922","Al-Farouq-Aminu-1279","Jusuf-Nurkic-18619","Spencer-Dinwiddie-18588","Tim-Hardaway-Jr.-16879","Enes-Kanter-13299","49800","268.36"
"Damian-Lillard-13900","Allen-Crabbe-16978","Justise-Winslow-18921","Al-Farouq-Aminu-1279","Jusuf-Nurkic-18619","D'Angelo-Russell-18947","Josh-Richardson-18922","Spencer-Dinwiddie-18588","50000","268.26"
"Justise-Winslow-18921","C.J.-McCollum-17121","Josh-Richardson-18922","Al-Farouq-Aminu-1279","Jusuf-Nurkic-18619","Spencer-Dinwiddie-18588","Tim-Hardaway-Jr.-16879","Enes-Kanter-13299","49500","268.19"
"D'Angelo-Russell-18947","C.J.-McCollum-17121","Allen-Crabbe-16978","Al-Farouq-Aminu-1279","Hassan-Whiteside-18664","Spencer-Dinwiddie-18588","Josh-Richardson-18922","Enes-Kanter-13299","49500","268.08"
"C.J.-McCollum-17121","Rodney-McGruder-16850","Josh-Richardson-18922","Al-Farouq-Aminu-1279","Jusuf-Nurkic-18619","Spencer-Dinwiddie-18588","Tim-Hardaway-Jr.-16879","Enes-Kanter-13299","49800","268.03"
"Damian-Lillard-13900","D'Angelo-Russell-18947","Justise-Winslow-18921","Al-Farouq-Aminu-1279","Enes-Kanter-13299","Rodney-McGruder-16850","Josh-Richardson-18922","Spencer-Dinwiddie-18588","49900","267.99"
"D'Angelo-Russell-18947","C.J.-McCollum-17121","Allen-Crabbe-16978","Al-Farouq-Aminu-1279","Jusuf-Nurkic-18619","Spencer-Dinwiddie-18588","Josh-Richardson-18922","Enes-Kanter-13299","48900","267.98"
"Justise-Winslow-18921","D'Angelo-Russell-18947","Allen-Crabbe-16978","Noah-Vonleh-18597","Enes-Kanter-13299","Damian-Lillard-13900","Josh-Richardson-18922","Jusuf-Nurkic-18619","50000","267.98"
"Damian-Lillard-13900","Allen-Crabbe-16978","Justise-Winslow-18921","Mario-Hezonja-18923","Enes-Kanter-13299","D'Angelo-Russell-18947","Josh-Richardson-18922","Jusuf-Nurkic-18619","49500","267.93"
"Justise-Winslow-18921","C.J.-McCollum-17121","Allen-Crabbe-16978","Al-Farouq-Aminu-1279","Hassan-Whiteside-18664","D'Angelo-Russell-18947","Josh-Richardson-18922","Jusuf-Nurkic-18619","49600","267.92"
"Damian-Lillard-13900","D'Angelo-Russell-18947","Allen-Crabbe-16978","Mario-Hezonja-18923","Enes-Kanter-13299","Josh-Richardson-18922","Rodney-McGruder-16850","Jusuf-Nurkic-18619","49800","267.77"
"D'Angelo-Russell-18947","C.J.-McCollum-17121","Allen-Crabbe-16978","Al-Farouq-Aminu-1279","Hassan-Whiteside-18664","Rodney-McGruder-16850","Josh-Richardson-18922","Jusuf-Nurkic-18619","49900","267.76"
"D'Angelo-Russell-18947","C.J.-McCollum-17121","Justise-Winslow-18921","Zach-Collins-37866","Jusuf-Nurkic-18619","Tim-Hardaway-Jr.-16879","Josh-Richardson-18922","Enes-Kanter-13299","50000","267.71"
"D'Angelo-Russell-18947","C.J.-McCollum-17121","Joe-Harris-18587","Al-Farouq-Aminu-1279","Jusuf-Nurkic-18619","Spencer-Dinwiddie-18588","Josh-Richardson-18922","Enes-Kanter-13299","49700","267.66"
"D'Angelo-Russell-18947","C.J.-McCollum-17121","Justise-Winslow-18921","Al-Farouq-Aminu-1279","Enes-Kanter-13299","Rodney-McGruder-16850","Josh-Richardson-18922","Hassan-Whiteside-18664","49500","267.65"
"D'Angelo-Russell-18947","C.J.-McCollum-17121","Evan-Turner-1291","Al-Farouq-Aminu-1279","Enes-Kanter-13299","Spencer-Dinwiddie-18588","Josh-Richardson-18922","Hassan-Whiteside-18664","50000","267.59"
"Damian-Lillard-13900","D'Angelo-Russell-18947","Mario-Hezonja-18923","Noah-Vonleh-18597","Enes-Kanter-13299","Josh-Richardson-18922","Al-Farouq-Aminu-1279","Jusuf-Nurkic-18619","49800","267.58"
"D'Angelo-Russell-18947","C.J.-McCollum-17121","Justise-Winslow-18921","Al-Farouq-Aminu-1279","Jusuf-Nurkic-18619","Rodney-McGruder-16850","Josh-Richardson-18922","Enes-Kanter-13299","48900","267.55"
"Damian-Lillard-13900","C.J.-McCollum-17121","Allen-Crabbe-16978","Mario-Hezonja-18923","Jusuf-Nurkic-18619","Spencer-Dinwiddie-18588","Josh-Richardson-18922","Enes-Kanter-13299","50000","267.54"
"D'Angelo-Russell-18947","C.J.-McCollum-17121","Evan-Turner-1291","Al-Farouq-Aminu-1279","Jusuf-Nurkic-18619","Spencer-Dinwiddie-18588","Josh-Richardson-18922","Enes-Kanter-13299","49400","267.49"
"Damian-Lillard-13900","Evan-Turner-1291","Justise-Winslow-18921","Mario-Hezonja-18923","Enes-Kanter-13299","D'Angelo-Russell-18947","Josh-Richardson-18922","Jusuf-Nurkic-18619","50000","267.44"
"Damian-Lillard-13900","C.J.-McCollum-17121","Justise-Winslow-18921","Mario-Hezonja-18923","Enes-Kanter-13299","D'Angelo-Russell-18947","Josh-Richardson-18922","Al-Farouq-Aminu-1279","49800","267.34"
"Damian-Lillard-13900","D'Angelo-Russell-18947","Derrick-Jones-36064","Mario-Hezonja-18923","Enes-Kanter-13299","Spencer-Dinwiddie-18588","Josh-Richardson-18922","Jusuf-Nurkic-18619","49700","267.27"
"D'Angelo-Russell-18947","C.J.-McCollum-17121","Derrick-Jones-36064","Al-Farouq-Aminu-1279","Jusuf-Nurkic-18619","Spencer-Dinwiddie-18588","Josh-Richardson-18922","Hassan-Whiteside-18664","49800","267.26"
"D'Angelo-Russell-18947","Tim-Hardaway-Jr.-16879","Al-Farouq-Aminu-1279","Noah-Vonleh-18597","Enes-Kanter-13299","Spencer-Dinwiddie-18588","Josh-Richardson-18922","Hassan-Whiteside-18664","50000","267.15"
"Damian-Lillard-13900","C.J.-McCollum-17121","Justise-Winslow-18921","Mario-Hezonja-18923","Enes-Kanter-13299","Rodney-McGruder-16850","Josh-Richardson-18922","Jusuf-Nurkic-18619","50000","267.11"
"D'Angelo-Russell-18947","Josh-Richardson-18922","Mario-Hezonja-18923","Al-Farouq-Aminu-1279","Hassan-Whiteside-18664","Spencer-Dinwiddie-18588","Tim-Hardaway-Jr.-16879","Enes-Kanter-13299","49500","267.1"
"Trey-Burke-17029","D'Angelo-Russell-18947","Josh-Richardson-18922","Al-Farouq-Aminu-1279","Jusuf-Nurkic-18619","Spencer-Dinwiddie-18588","Tim-Hardaway-Jr.-16879","Enes-Kanter-13299","49700","267.07"
"D'Angelo-Russell-18947","C.J.-McCollum-17121","Josh-Richardson-18922","Mario-Hezonja-18923","Enes-Kanter-13299","Wayne-Ellington-1009","Tim-Hardaway-Jr.-16879","Jusuf-Nurkic-18619","49900","267.06"
"D'Angelo-Russell-18947","Tim-Hardaway-Jr.-16879","Al-Farouq-Aminu-1279","Noah-Vonleh-18597","Jusuf-Nurkic-18619","Spencer-Dinwiddie-18588","Josh-Richardson-18922","Enes-Kanter-13299","49400","267.05"
"D'Angelo-Russell-18947","Josh-Richardson-18922","Mario-Hezonja-18923","Al-Farouq-Aminu-1279","Jusuf-Nurkic-18619","Spencer-Dinwiddie-18588","Tim-Hardaway-Jr.-16879","Enes-Kanter-13299","48900","267.0"
"Damian-Lillard-13900","C.J.-McCollum-17121","Derrick-Jones-36064","Al-Farouq-Aminu-1279","Enes-Kanter-13299","D'Angelo-Russell-18947","Justise-Winslow-18921","Jusuf-Nurkic-18619","49700","266.94"
"Damian-Lillard-13900","D'Angelo-Russell-18947","Derrick-Jones-36064","Al-Farouq-Aminu-1279","Enes-Kanter-13299","Wayne-Ellington-1009","Josh-Richardson-18922","Jusuf-Nurkic-18619","49900","266.94"
"Justise-Winslow-18921","D'Angelo-Russell-18947","Mario-Hezonja-18923","Al-Farouq-Aminu-1279","Jusuf-Nurkic-18619","Josh-Richardson-18922","Tim-Hardaway-Jr.-16879","Hassan-Whiteside-18664","49600","266.94"
"Damian-Lillard-13900","D'Angelo-Russell-18947","Justise-Winslow-18921","Al-Farouq-Aminu-1279","Enes-Kanter-13299","Spencer-Dinwiddie-18588","Allen-Crabbe-16978","Hassan-Whiteside-18664","49800","266.93"
"D'Angelo-Russell-18947","C.J.-McCollum-17121","Josh-Richardson-18922","Al-Farouq-Aminu-1279","Jusuf-Nurkic-18619","Allen-Crabbe-16978","Tim-Hardaway-Jr.-16879","Spencer-Dinwiddie-18588","49800","266.92"
"Damian-Lillard-13900","Allen-Crabbe-16978","Mario-Hezonja-18923","Al-Farouq-Aminu-1279","Jusuf-Nurkic-18619","D'Angelo-Russell-18947","Tim-Hardaway-Jr.-16879","Enes-Kanter-13299","49800","266.89"
"Damian-Lillard-13900","D'Angelo-Russell-18947","Justise-Winslow-18921","Al-Farouq-Aminu-1279","Enes-Kanter-13299","Spencer-Dinwiddie-18588","Allen-Crabbe-16978","Jusuf-Nurkic-18619","49200","266.83"
"D'Angelo-Russell-18947","C.J.-McCollum-17121","Justise-Winslow-18921","Al-Farouq-Aminu-1279","Enes-Kanter-13299","Josh-Richardson-18922","Tim-Hardaway-Jr.-16879","Spencer-Dinwiddie-18588","49400","266.81"
"Damian-Lillard-13900","C.J.-McCollum-17121","Derrick-Jones-36064","Al-Farouq-Aminu-1279","Jusuf-Nurkic-18619","D'Angelo-Russell-18947","Rodney-McGruder-16850","Enes-Kanter-13299","50000","266.78"
"D'Angelo-Russell-18947","Rodney-McGruder-16850","Mario-Hezonja-18923","Al-Farouq-Aminu-1279","Jusuf-Nurkic-18619","Josh-Richardson-18922","Tim-Hardaway-Jr.-16879","Hassan-Whiteside-18664","49900","266.78"
"D'Angelo-Russell-18947","Rodney-McGruder-16850","Justise-Winslow-18921","Al-Farouq-Aminu-1279","Jusuf-Nurkic-18619","Spencer-Dinwiddie-18588","Josh-Richardson-18922","Hassan-Whiteside-18664","49300","266.72"
"D'Angelo-Russell-18947","C.J.-McCollum-17121","Allen-Crabbe-16978","Mario-Hezonja-18923","Enes-Kanter-13299","Josh-Richardson-18922","Tim-Hardaway-Jr.-16879","Hassan-Whiteside-18664","49900","266.69"
"Justise-Winslow-18921","Josh-Richardson-18922","Derrick-Jones-36064","Al-Farouq-Aminu-1279","Jusuf-Nurkic-18619","Damian-Lillard-13900","Tim-Hardaway-Jr.-16879","Enes-Kanter-13299","49900","266.68"
"Damian-Lillard-13900","Allen-Crabbe-16978","Al-Farouq-Aminu-1279","Zach-Collins-37866","Jusuf-Nurkic-18619","D'Angelo-Russell-18947","Josh-Richardson-18922","Enes-Kanter-13299","49700","266.67"
"Damian-Lillard-13900","D'Angelo-Russell-18947","Allen-Crabbe-16978","Al-Farouq-Aminu-1279","Jusuf-Nurkic-18619","Spencer-Dinwiddie-18588","Rodney-McGruder-16850","Enes-Kanter-13299","49500","266.67"
"D'Angelo-Russell-18947","C.J.-McCollum-17121","Rodney-McGruder-16850","Al-Farouq-Aminu-1279","Enes-Kanter-13299","Josh-Richardson-18922","Tim-Hardaway-Jr.-16879","Spencer-Dinwiddie-18588","49700","266.65"
"D'Angelo-Russell-18947","C.J.-McCollum-17121","Allen-Crabbe-16978","Noah-Vonleh-18597","Enes-Kanter-13299","Tim-Hardaway-Jr.-16879","Josh-Richardson-18922","Jusuf-Nurkic-18619","49800","266.64"
"D'Angelo-Russell-18947","C.J.-McCollum-17121","Allen-Crabbe-16978","Mario-Hezonja-18923","Enes-Kanter-13299","Josh-Richardson-18922","Tim-Hardaway-Jr.-16879","Jusuf-Nurkic-18619","49300","266.59"
"Damian-Lillard-13900","D'Angelo-Russell-18947","Derrick-Jones-36064","Al-Farouq-Aminu-1279","Enes-Kanter-13299","Josh-Richardson-18922","Allen-Crabbe-16978","Hassan-Whiteside-18664","49900","266.57"
"Damian-Lillard-13900","D'Angelo-Russell-18947","Justise-Winslow-18921","Al-Farouq-Aminu-1279","Jusuf-Nurkic-18619","Spencer-Dinwiddie-18588","Joe-Harris-18587","Enes-Kanter-13299","50000","266.51"
"Emmanuel-Mudiay-18936","D'Angelo-Russell-18947","Josh-Richardson-18922","Al-Farouq-Aminu-1279","Jusuf-Nurkic-18619","Spencer-Dinwiddie-18588","Tim-Hardaway-Jr.-16879","Enes-Kanter-13299","49900","266.5"
"Justise-Winslow-18921","C.J.-McCollum-17121","Josh-Richardson-18922","Al-Farouq-Aminu-1279","Jusuf-Nurkic-18619","Rodney-McGruder-16850","Tim-Hardaway-Jr.-16879","D'Angelo-Russell-18947","49800","266.49"
"Damian-Lillard-13900","D'Angelo-Russell-18947","Derrick-Jones-36064","Al-Farouq-Aminu-1279","Enes-Kanter-13299","Josh-Richardson-18922","Allen-Crabbe-16978","Jusuf-Nurkic-18619","49300","266.47"
"Damian-Lillard-13900","D'Angelo-Russell-18947","Justise-Winslow-18921","Al-Farouq-Aminu-1279","Jusuf-Nurkic-18619","Spencer-Dinwiddie-18588","Josh-Richardson-18922","Mario-Hezonja-18923","49600","266.41"
"Damian-Lillard-13900","D'Angelo-Russell-18947","Justise-Winslow-18921","Al-Farouq-Aminu-1279","Enes-Kanter-13299","Spencer-Dinwiddie-18588","Evan-Turner-1291","Jusuf-Nurkic-18619","49700","266.34"
"Damian-Lillard-13900","D'Angelo-Russell-18947","Mario-Hezonja-18923","James-Johnson-1195","Jusuf-Nurkic-18619","Josh-Richardson-18922","Al-Farouq-Aminu-1279","Enes-Kanter-13299","50000","266.32"
"D'Angelo-Russell-18947","C.J.-McCollum-17121","Al-Farouq-Aminu-1279","Noah-Vonleh-18597","Enes-Kanter-13299","Spencer-Dinwiddie-18588","Josh-Richardson-18922","Hassan-Whiteside-18664","49600","266.28"
"Damian-Lillard-13900","D'Angelo-Russell-18947","Mario-Hezonja-18923","Al-Farouq-Aminu-1279","Jusuf-Nurkic-18619","Josh-Richardson-18922","Rodney-McGruder-16850","Spencer-Dinwiddie-18588","49900","266.25"
"Justise-Winslow-18921","C.J.-McCollum-17121","Mario-Hezonja-18923","Al-Farouq-Aminu-1279","Jusuf-Nurkic-18619","Damian-Lillard-13900","Tim-Hardaway-Jr.-16879","Enes-Kanter-13299","50000","266.23"
"D'Angelo-Russell-18947","C.J.-McCollum-17121","Mario-Hezonja-18923","Al-Farouq-Aminu-1279","Hassan-Whiteside-18664","Spencer-Dinwiddie-18588","Josh-Richardson-18922","Enes-Kanter-13299","49100","266.23"
"Damian-Lillard-13900","D'Angelo-Russell-18947","Evan-Turner-1291","Al-Farouq-Aminu-1279","Jusuf-Nurkic-18619","Spencer-Dinwiddie-18588","Rodney-McGruder-16850","Enes-Kanter-13299","50000","266.18"
"D'Angelo-Russell-18947","C.J.-McCollum-17121","Al-Farouq-Aminu-1279","Noah-Vonleh-18597","Jusuf-Nurkic-18619","Spencer-Dinwiddie-18588","Josh-Richardson-18922","Enes-Kanter-13299","49000","266.18"
"Damian-Lillard-13900","Wayne-Ellington-1009","Justise-Winslow-18921","Al-Farouq-Aminu-1279","Jusuf-Nurkic-18619","Spencer-Dinwiddie-18588","Josh-Richardson-18922","Enes-Kanter-13299","49600","266.17"
"Damian-Lillard-13900","C.J.-McCollum-17121","Allen-Crabbe-16978","Mario-Hezonja-18923","Enes-Kanter-13299","D'Angelo-Russell-18947","Josh-Richardson-18922","Spencer-Dinwiddie-18588","49900","266.16"
"Trey-Burke-17029","D'Angelo-Russell-18947","Justise-Winslow-18921","Mario-Hezonja-18923","Enes-Kanter-13299","Damian-Lillard-13900","Josh-Richardson-18922","Jusuf-Nurkic-18619","49900","266.15"
"Trey-Burke-17029","C.J.-McCollum-17121","Justise-Winslow-18921","Al-Farouq-Aminu-1279","Jusuf-Nurkic-18619","D'Angelo-Russell-18947","Josh-Richardson-18922","Hassan-Whiteside-18664","50000","266.14"
"D'Angelo-Russell-18947","C.J.-McCollum-17121","Mario-Hezonja-18923","Al-Farouq-Aminu-1279","Enes-Kanter-13299","Spencer-Dinwiddie-18588","Josh-Richardson-18922","Jusuf-Nurkic-18619","48500","266.13"
"Damian-Lillard-13900","D'Angelo-Russell-18947","Mario-Hezonja-18923","Noah-Vonleh-18597","Enes-Kanter-13299","Josh-Richardson-18922","Justise-Winslow-18921","Jusuf-Nurkic-18619","49600","266.13"
"Damian-Lillard-13900","C.J.-McCollum-17121","Mario-Hezonja-18923","Al-Farouq-Aminu-1279","Hassan-Whiteside-18664","D'Angelo-Russell-18947","Allen-Crabbe-16978","Enes-Kanter-13299","50000","266.12"
"Justise-Winslow-18921","C.J.-McCollum-17121","Al-Farouq-Aminu-1279","Noah-Vonleh-18597","Jusuf-Nurkic-18619","D'Angelo-Russell-18947","Josh-Richardson-18922","Hassan-Whiteside-18664","49700","266.12"
"D'Angelo-Russell-18947","C.J.-McCollum-17121","Evan-Turner-1291","Mario-Hezonja-18923","Jusuf-Nurkic-18619","Josh-Richardson-18922","Tim-Hardaway-Jr.-16879","Enes-Kanter-13299","49800","266.1"
"Damian-Lillard-13900","C.J.-McCollum-17121","Allen-Crabbe-16978","Noah-Vonleh-18597","Enes-Kanter-13299","D'Angelo-Russell-18947","Al-Farouq-Aminu-1279","Jusuf-Nurkic-18619","49900","266.07"
"Justise-Winslow-18921","C.J.-McCollum-17121","Mario-Hezonja-18923","Al-Farouq-Aminu-1279","Hassan-Whiteside-18664","D'Angelo-Russell-18947","Josh-Richardson-18922","Jusuf-Nurkic-18619","49200","266.07"
"Damian-Lillard-13900","C.J.-McCollum-17121","Mario-Hezonja-18923","Al-Farouq-Aminu-1279","Enes-Kanter-13299","D'Angelo-Russell-18947","Allen-Crabbe-16978","Jusuf-Nurkic-18619","49400","266.02"
"Damian-Lillard-13900","C.J.-McCollum-17121","Justise-Winslow-18921","Al-Farouq-Aminu-1279","Enes-Kanter-13299","Spencer-Dinwiddie-18588","Rodney-McGruder-16850","Jusuf-Nurkic-18619","49700","266.01"
"Damian-Lillard-13900","Wayne-Ellington-1009","Rodney-McGruder-16850","Al-Farouq-Aminu-1279","Jusuf-Nurkic-18619","Spencer-Dinwiddie-18588","Josh-Richardson-18922","Enes-Kanter-13299","49900","266.01"
"Justise-Winslow-18921","C.J.-McCollum-17121","Al-Farouq-Aminu-1279","Zach-Collins-37866","Jusuf-Nurkic-18619","Damian-Lillard-13900","Josh-Richardson-18922","Enes-Kanter-13299","49900","266.01"
"D'Angelo-Russell-18947","C.J.-McCollum-17121","Justise-Winslow-18921","Zach-Collins-37866","Hassan-Whiteside-18664","Spencer-Dinwiddie-18588","Josh-Richardson-18922","Jusuf-Nurkic-18619","50000","266.01"
"Justise-Winslow-18921","C.J.-McCollum-17121","Allen-Crabbe-16978","Mario-Hezonja-18923","Jusuf-Nurkic-18619","Damian-Lillard-13900","Josh-Richardson-18922","D'Angelo-Russell-18947","50000","266.0"
"Damian-Lillard-13900","D'Angelo-Russell-18947","Derrick-Jones-36064","Al-Farouq-Aminu-1279","Jusuf-Nurkic-18619","Josh-Richardson-18922","Evan-Turner-1291","Enes-Kanter-13299","49800","265.98"
"Damian-Lillard-13900","D'Angelo-Russell-18947","Mario-Hezonja-18923","Noah-Vonleh-18597","Enes-Kanter-13299","Rodney-McGruder-16850","Josh-Richardson-18922","Jusuf-Nurkic-18619","49900","265.97"
