"Victor-Oladipo-16807","Terrence-Ross-13902","Jeremy-Lamb-13955","Aaron-Gordon-18601","John-Collins-37823","Jerian-Grant-18900","Tyreke-Evans-1070","Nikola-Vucevic-13296","49900","279.07"
"Jerian-Grant-18900","Evan-Fournier-13913","Terrence-Ross-13902","Domantas-Sabonis-35217","Nikola-Vucevic-13296","Jeremy-Lamb-13955","John-Collins-37823","Aaron-Gordon-18601","49700","278.96"
"Victor-Oladipo-16807","Terrence-Ross-13902","Evan-Fournier-13913","Aaron-Gordon-18601","Nikola-Vucevic-13296","Jerian-Grant-18900","John-Collins-37823","Cody-Zeller-16836","49600","278.93"

"Victor-Oladipo-16807","Terrence-Ross-13902","Jeremy-Lamb-13955","Aaron-Gordon-18601","John-Collins-37823","Jerian-Grant-18900","Tyreke-Evans-1070","Nikola-Vucevic-13296","49900","279.07"
"Jerian-Grant-18900","Evan-Fournier-13913","Terrence-Ross-13902","Domantas-Sabonis-35217","Nikola-Vucevic-13296","Jeremy-Lamb-13955","John-Collins-37823","Aaron-Gordon-18601","49700","278.96"
"Victor-Oladipo-16807","Terrence-Ross-13902","Evan-Fournier-13913","Aaron-Gordon-18601","Nikola-Vucevic-13296","Jerian-Grant-18900","John-Collins-37823","Cody-Zeller-16836","49600","278.93"
"Victor-Oladipo-16807","Evan-Fournier-13913","Nicolas-Batum-1315","Aaron-Gordon-18601","Nikola-Vucevic-13296","Jerian-Grant-18900","Terrence-Ross-13902","John-Collins-37823","49900","278.71"
"Victor-Oladipo-16807","Terrence-Ross-13902","Bojan-Bogdanovic-18571","John-Collins-37823","Nikola-Vucevic-13296","Jerian-Grant-18900","Jeremy-Lamb-13955","Evan-Fournier-13913","50000","278.33"
"Victor-Oladipo-16807","Terrence-Ross-13902","Aaron-Gordon-18601","Domantas-Sabonis-35217","Cody-Zeller-16836","Evan-Fournier-13913","Jeremy-Lamb-13955","John-Collins-37823","49900","278.3"
"Victor-Oladipo-16807","Terrence-Ross-13902","Evan-Fournier-13913","Aaron-Gordon-18601","Nikola-Vucevic-13296","Jerian-Grant-18900","John-Collins-37823","Alex-Len-16886","49500","278.16"
"Jerian-Grant-18900","Terrence-Ross-13902","Aaron-Gordon-18601","John-Collins-37823","Nikola-Vucevic-13296","Evan-Fournier-13913","Jeremy-Lamb-13955","Myles-Turner-18915","50000","278.13"
"Victor-Oladipo-16807","Jeremy-Lin-916","Aaron-Gordon-18601","John-Collins-37823","Nikola-Vucevic-13296","Terrence-Ross-13902","Tyreke-Evans-1070","Evan-Fournier-13913","49700","278.06"
"Victor-Oladipo-16807","Jeremy-Lin-916","Terrence-Ross-13902","Aaron-Gordon-18601","Nikola-Vucevic-13296","Jerian-Grant-18900","Evan-Fournier-13913","John-Collins-37823","49100","278.05"
"Victor-Oladipo-16807","Terrence-Ross-13902","Evan-Fournier-13913","John-Collins-37823","Nikola-Vucevic-13296","Tyreke-Evans-1070","Kevin-Huerter-408969","Aaron-Gordon-18601","49900","277.73"
"Victor-Oladipo-16807","Terrence-Ross-13902","Evan-Fournier-13913","John-Collins-37823","Nikola-Vucevic-13296","Jerian-Grant-18900","Kevin-Huerter-408969","Aaron-Gordon-18601","49300","277.72"
"Victor-Oladipo-16807","Terrence-Ross-13902","Aaron-Gordon-18601","John-Collins-37823","Nikola-Vucevic-13296","Jerian-Grant-18900","Tyreke-Evans-1070","Evan-Fournier-13913","48900","277.62"
"Victor-Oladipo-16807","Terrence-Ross-13902","Evan-Fournier-13913","Domantas-Sabonis-35217","Alex-Len-16886","Jeremy-Lamb-13955","John-Collins-37823","Aaron-Gordon-18601","49800","277.53"
"Victor-Oladipo-16807","Jeremy-Lin-916","Evan-Fournier-13913","Aaron-Gordon-18601","Domantas-Sabonis-35217","Terrence-Ross-13902","Jeremy-Lamb-13955","John-Collins-37823","49400","277.42"
"Victor-Oladipo-16807","Jeremy-Lamb-13955","Terrence-Ross-13902","Michael-Kidd-Gilchrist-13896","Nikola-Vucevic-13296","Jerian-Grant-18900","Evan-Fournier-13913","Kemba-Walker-13335","50000","277.28"
"Victor-Oladipo-16807","Terrence-Ross-13902","Evan-Fournier-13913","John-Collins-37823","Cody-Zeller-16836","Jeremy-Lamb-13955","Tyreke-Evans-1070","Nikola-Vucevic-13296","50000","277.23"
"Victor-Oladipo-16807","Evan-Fournier-13913","Terrence-Ross-13902","John-Collins-37823","Cody-Zeller-16836","Jerian-Grant-18900","Jeremy-Lamb-13955","Nikola-Vucevic-13296","49400","277.22"
"Victor-Oladipo-16807","Terrence-Ross-13902","Marvin-Williams-1318","Domantas-Sabonis-35217","Nikola-Vucevic-13296","Jerian-Grant-18900","Evan-Fournier-13913","Aaron-Gordon-18601","50000","277.21"
"Victor-Oladipo-16807","Terrence-Ross-13902","Evan-Fournier-13913","Domantas-Sabonis-35217","Alex-Len-16886","Jerian-Grant-18900","John-Collins-37823","Nikola-Vucevic-13296","50000","277.13"
"Victor-Oladipo-16807","Terrence-Ross-13902","Evan-Fournier-13913","Aaron-Gordon-18601","Domantas-Sabonis-35217","Kevin-Huerter-408969","Jeremy-Lamb-13955","John-Collins-37823","49600","277.09"
"Victor-Oladipo-16807","Jeremy-Lin-916","Terrence-Ross-13902","Domantas-Sabonis-35217","Nikola-Vucevic-13296","Jerian-Grant-18900","John-Collins-37823","Evan-Fournier-13913","49600","277.02"
"Victor-Oladipo-16807","Terrence-Ross-13902","Nicolas-Batum-1315","John-Collins-37823","Nikola-Vucevic-13296","Jerian-Grant-18900","Evan-Fournier-13913","Jeremy-Lamb-13955","49700","277.0"
"Victor-Oladipo-16807","Terrence-Ross-13902","Jeremy-Lamb-13955","Aaron-Gordon-18601","John-Collins-37823","Evan-Fournier-13913","Tyreke-Evans-1070","Domantas-Sabonis-35217","49200","276.99"
"Victor-Oladipo-16807","Terrence-Ross-13902","Evan-Fournier-13913","Aaron-Gordon-18601","Domantas-Sabonis-35217","Jerian-Grant-18900","Jeremy-Lamb-13955","John-Collins-37823","48600","276.98"
"Victor-Oladipo-16807","Terrence-Ross-13902","Evan-Fournier-13913","Thaddeus-Young-1289","Nikola-Vucevic-13296","Tyreke-Evans-1070","Jeremy-Lamb-13955","Aaron-Gordon-18601","50000","276.94"
"Victor-Oladipo-16807","Terrence-Ross-13902","Evan-Fournier-13913","Thaddeus-Young-1289","Nikola-Vucevic-13296","Jerian-Grant-18900","Jeremy-Lamb-13955","Aaron-Gordon-18601","49400","276.93"
"Victor-Oladipo-16807","Evan-Fournier-13913","Terrence-Ross-13902","Domantas-Sabonis-35217","Myles-Turner-18915","Jerian-Grant-18900","Aaron-Gordon-18601","John-Collins-37823","49600","276.83"
"Victor-Oladipo-16807","Terrence-Ross-13902","Aaron-Gordon-18601","Michael-Kidd-Gilchrist-13896","John-Collins-37823","Jerian-Grant-18900","Jeremy-Lamb-13955","Nikola-Vucevic-13296","49500","276.69"
"Victor-Oladipo-16807","Terrence-Ross-13902","Evan-Fournier-13913","John-Collins-37823","Nikola-Vucevic-13296","Jerian-Grant-18900","Kevin-Huerter-408969","Domantas-Sabonis-35217","49800","276.69"
"Victor-Oladipo-16807","Evan-Fournier-13913","Terrence-Ross-13902","Domantas-Sabonis-35217","Nikola-Vucevic-13296","Jerian-Grant-18900","John-Collins-37823","Tyreke-Evans-1070","49400","276.59"
"Victor-Oladipo-16807","Jeremy-Lin-916","Evan-Fournier-13913","John-Collins-37823","Myles-Turner-18915","Terrence-Ross-13902","Jeremy-Lamb-13955","Aaron-Gordon-18601","49700","276.59"
"Victor-Oladipo-16807","Terrence-Ross-13902","Aaron-Gordon-18601","John-Collins-37823","Nikola-Vucevic-13296","Evan-Fournier-13913","Michael-Kidd-Gilchrist-13896","Cody-Zeller-16836","49800","276.56"
"Victor-Oladipo-16807","Terrence-Ross-13902","Evan-Fournier-13913","Aaron-Gordon-18601","John-Collins-37823","Jerian-Grant-18900","Bojan-Bogdanovic-18571","Kemba-Walker-13335","49800","276.55"
"Jerian-Grant-18900","Jeremy-Lin-916","Terrence-Ross-13902","Aaron-Gordon-18601","Nikola-Vucevic-13296","Kemba-Walker-13335","Evan-Fournier-13913","John-Collins-37823","49800","276.54"
"Victor-Oladipo-16807","Jeremy-Lamb-13955","Terrence-Ross-13902","Marvin-Williams-1318","Nikola-Vucevic-13296","Tyreke-Evans-1070","Evan-Fournier-13913","Aaron-Gordon-18601","49900","276.54"
"Victor-Oladipo-16807","Jeremy-Lamb-13955","Terrence-Ross-13902","Marvin-Williams-1318","Nikola-Vucevic-13296","Jerian-Grant-18900","Evan-Fournier-13913","Aaron-Gordon-18601","49300","276.53"
"Victor-Oladipo-16807","Evan-Fournier-13913","Terrence-Ross-13902","John-Collins-37823","Alex-Len-16886","Jeremy-Lamb-13955","Tyreke-Evans-1070","Nikola-Vucevic-13296","49900","276.46"
"Victor-Oladipo-16807","Terrence-Ross-13902","Evan-Fournier-13913","John-Collins-37823","Alex-Len-16886","Jerian-Grant-18900","Jeremy-Lamb-13955","Nikola-Vucevic-13296","49300","276.45"
"Victor-Oladipo-16807","Jeremy-Lin-916","Evan-Fournier-13913","John-Collins-37823","Nikola-Vucevic-13296","Terrence-Ross-13902","Kevin-Huerter-408969","Jeremy-Lamb-13955","49900","276.45"
"Victor-Oladipo-16807","Jeremy-Lin-916","Jeremy-Lamb-13955","John-Collins-37823","Nikola-Vucevic-13296","Terrence-Ross-13902","Tyreke-Evans-1070","Evan-Fournier-13913","49500","276.35"
"Victor-Oladipo-16807","Jeremy-Lin-916","Evan-Fournier-13913","John-Collins-37823","Nikola-Vucevic-13296","Terrence-Ross-13902","Jeremy-Lamb-13955","Jerian-Grant-18900","48900","276.34"
"Victor-Oladipo-16807","Terrence-Ross-13902","Kevin-Huerter-408969","Aaron-Gordon-18601","Myles-Turner-18915","Evan-Fournier-13913","Jeremy-Lamb-13955","John-Collins-37823","49900","276.26"
"Jerian-Grant-18900","Terrence-Ross-13902","Evan-Fournier-13913","John-Collins-37823","Nikola-Vucevic-13296","Kemba-Walker-13335","Kevin-Huerter-408969","Aaron-Gordon-18601","50000","276.21"
"Victor-Oladipo-16807","Jeremy-Lin-916","Terrence-Ross-13902","John-Collins-37823","Myles-Turner-18915","Jerian-Grant-18900","Evan-Fournier-13913","Nikola-Vucevic-13296","49900","276.19"
"Victor-Oladipo-16807","Terrence-Ross-13902","Jeremy-Lamb-13955","Aaron-Gordon-18601","John-Collins-37823","Evan-Fournier-13913","Tyreke-Evans-1070","Myles-Turner-18915","49500","276.16"
"Victor-Oladipo-16807","Terrence-Ross-13902","Evan-Fournier-13913","John-Collins-37823","Myles-Turner-18915","Jerian-Grant-18900","Jeremy-Lamb-13955","Aaron-Gordon-18601","48900","276.15"
"Trae-Young-409063","Evan-Fournier-13913","Terrence-Ross-13902","Domantas-Sabonis-35217","Nikola-Vucevic-13296","Jerian-Grant-18900","John-Collins-37823","Aaron-Gordon-18601","50000","276.12"
"Jerian-Grant-18900","Terrence-Ross-13902","Aaron-Gordon-18601","John-Collins-37823","Nikola-Vucevic-13296","Evan-Fournier-13913","Tyreke-Evans-1070","Kemba-Walker-13335","49600","276.11"
"Victor-Oladipo-16807","Terrence-Ross-13902","Aaron-Gordon-18601","Domantas-Sabonis-35217","Cody-Zeller-16836","Jerian-Grant-18900","Jeremy-Lamb-13955","Nikola-Vucevic-13296","49900","276.07"
"Victor-Oladipo-16807","Terrence-Ross-13902","Evan-Fournier-13913","John-Collins-37823","Nikola-Vucevic-13296","Jeremy-Lamb-13955","Kevin-Huerter-408969","Tyreke-Evans-1070","49700","276.02"
"Victor-Oladipo-16807","Terrence-Ross-13902","Evan-Fournier-13913","John-Collins-37823","Nikola-Vucevic-13296","Jerian-Grant-18900","Kevin-Huerter-408969","Jeremy-Lamb-13955","49100","276.01"
"Victor-Oladipo-16807","Jeremy-Lin-916","Terrence-Ross-13902","Aaron-Gordon-18601","John-Collins-37823","Jerian-Grant-18900","Jeremy-Lamb-13955","Kemba-Walker-13335","49700","276.01"
"Victor-Oladipo-16807","Terrence-Ross-13902","Jeremy-Lamb-13955","John-Collins-37823","Nikola-Vucevic-13296","Jerian-Grant-18900","Tyreke-Evans-1070","Evan-Fournier-13913","48700","275.91"
"Victor-Oladipo-16807","Terrence-Ross-13902","Evan-Fournier-13913","Thaddeus-Young-1289","Nikola-Vucevic-13296","Jerian-Grant-18900","Jeremy-Lamb-13955","Domantas-Sabonis-35217","49900","275.9"
"Victor-Oladipo-16807","Jeremy-Lin-916","Terrence-Ross-13902","Aaron-Gordon-18601","Cody-Zeller-16836","Kemba-Walker-13335","Evan-Fournier-13913","John-Collins-37823","50000","275.88"
"Victor-Oladipo-16807","Terrence-Ross-13902","Aaron-Gordon-18601","John-Collins-37823","Alex-Len-16886","Evan-Fournier-13913","Michael-Kidd-Gilchrist-13896","Nikola-Vucevic-13296","49700","275.79"
"Victor-Oladipo-16807","Terrence-Ross-13902","Evan-Fournier-13913","John-Collins-37823","Myles-Turner-18915","Jerian-Grant-18900","Tyreke-Evans-1070","Nikola-Vucevic-13296","49700","275.76"
"Victor-Oladipo-16807","Terrence-Ross-13902","Bojan-Bogdanovic-18571","Domantas-Sabonis-35217","Nikola-Vucevic-13296","Jerian-Grant-18900","Aaron-Gordon-18601","Evan-Fournier-13913","49500","275.73"
"Victor-Oladipo-16807","Terrence-Ross-13902","Aaron-Gordon-18601","John-Collins-37823","Willy-Hernangomez-18901","Jerian-Grant-18900","Jeremy-Lamb-13955","Nikola-Vucevic-13296","49900","275.72"
"Victor-Oladipo-16807","Jeremy-Lamb-13955","Terrence-Ross-13902","Aaron-Gordon-18601","John-Collins-37823","Jerian-Grant-18900","Kevin-Huerter-408969","Kemba-Walker-13335","49900","275.68"
"Victor-Oladipo-16807","Jeremy-Lin-916","Evan-Fournier-13913","Aaron-Gordon-18601","Nikola-Vucevic-13296","Terrence-Ross-13902","Michael-Kidd-Gilchrist-13896","John-Collins-37823","49300","275.68"
"Victor-Oladipo-16807","Jeremy-Lamb-13955","Terrence-Ross-13902","Domantas-Sabonis-35217","Nikola-Vucevic-13296","Jerian-Grant-18900","John-Collins-37823","Michael-Kidd-Gilchrist-13896","50000","275.66"
"Victor-Oladipo-16807","Jeremy-Lin-916","Terrence-Ross-13902","Aaron-Gordon-18601","Nikola-Vucevic-13296","Evan-Fournier-13913","Jonathan-Isaac-37841","John-Collins-37823","50000","275.6"
"Victor-Oladipo-16807","Terrence-Ross-13902","Bojan-Bogdanovic-18571","Aaron-Gordon-18601","Alex-Len-16886","Evan-Fournier-13913","Jeremy-Lamb-13955","Nikola-Vucevic-13296","50000","275.6"
"Trae-Young-409063","Victor-Oladipo-16807","Terrence-Ross-13902","Aaron-Gordon-18601","John-Collins-37823","Jerian-Grant-18900","Jeremy-Lamb-13955","Domantas-Sabonis-35217","49900","275.59"
"Victor-Oladipo-16807","Terrence-Ross-13902","Jeremy-Lamb-13955","Aaron-Gordon-18601","John-Collins-37823","Jerian-Grant-18900","Tyreke-Evans-1070","Kemba-Walker-13335","49500","275.58"
"Victor-Oladipo-16807","Terrence-Ross-13902","Marvin-Williams-1318","Domantas-Sabonis-35217","Nikola-Vucevic-13296","Jerian-Grant-18900","Evan-Fournier-13913","Jeremy-Lamb-13955","49800","275.5"
"Victor-Oladipo-16807","Jeremy-Lin-916","Evan-Fournier-13913","Aaron-Gordon-18601","Nikola-Vucevic-13296","Terrence-Ross-13902","Jeremy-Lamb-13955","Bojan-Bogdanovic-18571","49600","275.49"
"Kemba-Walker-13335","Terrence-Ross-13902","Jeremy-Lamb-13955","Aaron-Gordon-18601","John-Collins-37823","Evan-Fournier-13913","Tyreke-Evans-1070","Domantas-Sabonis-35217","49900","275.48"
"Jerian-Grant-18900","Terrence-Ross-13902","Evan-Fournier-13913","Aaron-Gordon-18601","Domantas-Sabonis-35217","Kemba-Walker-13335","Jeremy-Lamb-13955","John-Collins-37823","49300","275.47"
"Victor-Oladipo-16807","Terrence-Ross-13902","DeAndre-Bembry-35198","Aaron-Gordon-18601","Nikola-Vucevic-13296","Evan-Fournier-13913","John-Collins-37823","Tyreke-Evans-1070","50000","275.45"
"Trae-Young-409063","Terrence-Ross-13902","Jeremy-Lamb-13955","Aaron-Gordon-18601","John-Collins-37823","Evan-Fournier-13913","Tyreke-Evans-1070","Nikola-Vucevic-13296","49900","275.45"
"Victor-Oladipo-16807","Terrence-Ross-13902","Evan-Fournier-13913","John-Collins-37823","Cody-Zeller-16836","Kemba-Walker-13335","Tyreke-Evans-1070","Aaron-Gordon-18601","49800","275.45"
"Victor-Oladipo-16807","Terrence-Ross-13902","DeAndre-Bembry-35198","Aaron-Gordon-18601","Nikola-Vucevic-13296","Jerian-Grant-18900","John-Collins-37823","Evan-Fournier-13913","49400","275.44"
"Jerian-Grant-18900","Victor-Oladipo-16807","Terrence-Ross-13902","Aaron-Gordon-18601","Cody-Zeller-16836","Kemba-Walker-13335","Evan-Fournier-13913","John-Collins-37823","49200","275.44"
"Trae-Young-409063","Terrence-Ross-13902","Aaron-Gordon-18601","John-Collins-37823","Nikola-Vucevic-13296","Jerian-Grant-18900","Jeremy-Lamb-13955","Evan-Fournier-13913","49300","275.44"
"Victor-Oladipo-16807","Terrence-Ross-13902","Aaron-Gordon-18601","John-Collins-37823","Nikola-Vucevic-13296","Evan-Fournier-13913","Kevin-Huerter-408969","Michael-Kidd-Gilchrist-13896","49500","275.35"
"Victor-Oladipo-16807","Jeremy-Lin-916","Jeremy-Lamb-13955","Aaron-Gordon-18601","John-Collins-37823","Jerian-Grant-18900","Tyreke-Evans-1070","Nikola-Vucevic-13296","50000","275.35"
"Victor-Oladipo-16807","Jeremy-Lamb-13955","Terrence-Ross-13902","Domantas-Sabonis-35217","Alex-Len-16886","Jerian-Grant-18900","Aaron-Gordon-18601","Nikola-Vucevic-13296","49800","275.3"
"Victor-Oladipo-16807","Bojan-Bogdanovic-18571","Evan-Fournier-13913","Aaron-Gordon-18601","Domantas-Sabonis-35217","Jerian-Grant-18900","Jeremy-Lamb-13955","John-Collins-37823","49800","275.25"
"Victor-Oladipo-16807","Terrence-Ross-13902","Aaron-Gordon-18601","John-Collins-37823","Nikola-Vucevic-13296","Evan-Fournier-13913","Tyreke-Evans-1070","Michael-Kidd-Gilchrist-13896","49100","275.25"
"Victor-Oladipo-16807","Terrence-Ross-13902","Evan-Fournier-13913","Aaron-Gordon-18601","Nikola-Vucevic-13296","Jerian-Grant-18900","Michael-Kidd-Gilchrist-13896","John-Collins-37823","48500","275.24"
"Jeremy-Lin-916","Evan-Fournier-13913","Aaron-Gordon-18601","John-Collins-37823","Nikola-Vucevic-13296","Jerian-Grant-18900","Jeremy-Lamb-13955","Domantas-Sabonis-35217","49800","275.24"
"Victor-Oladipo-16807","Evan-Fournier-13913","Nicolas-Batum-1315","Aaron-Gordon-18601","John-Collins-37823","Jerian-Grant-18900","Terrence-Ross-13902","Kemba-Walker-13335","49500","275.22"
"Victor-Oladipo-16807","Jeremy-Lin-916","Evan-Fournier-13913","Aaron-Gordon-18601","Nikola-Vucevic-13296","Jerian-Grant-18900","John-Collins-37823","Cody-Zeller-16836","49700","275.21"
"Victor-Oladipo-16807","Jeremy-Lin-916","Terrence-Ross-13902","Domantas-Sabonis-35217","Nikola-Vucevic-13296","Jeremy-Lamb-13955","Tyreke-Evans-1070","Aaron-Gordon-18601","50000","275.2"
"Victor-Oladipo-16807","Jeremy-Lin-916","Terrence-Ross-13902","Domantas-Sabonis-35217","Nikola-Vucevic-13296","Jerian-Grant-18900","Aaron-Gordon-18601","Jeremy-Lamb-13955","49400","275.19"
"Victor-Oladipo-16807","Evan-Fournier-13913","Terrence-Ross-13902","Aaron-Gordon-18601","Nikola-Vucevic-13296","Tyreke-Evans-1070","Jonathan-Isaac-37841","John-Collins-37823","49800","275.17"
"Victor-Oladipo-16807","Terrence-Ross-13902","Evan-Fournier-13913","Aaron-Gordon-18601","Nikola-Vucevic-13296","Bojan-Bogdanovic-18571","Jeremy-Lamb-13955","Kevin-Huerter-408969","49800","275.16"
"Victor-Oladipo-16807","Evan-Fournier-13913","Terrence-Ross-13902","Aaron-Gordon-18601","Nikola-Vucevic-13296","Jerian-Grant-18900","Jonathan-Isaac-37841","John-Collins-37823","49200","275.16"
"Victor-Oladipo-16807","Terrence-Ross-13902","Jeremy-Lamb-13955","John-Collins-37823","Myles-Turner-18915","Evan-Fournier-13913","Tyreke-Evans-1070","Domantas-Sabonis-35217","50000","275.13"
"Victor-Oladipo-16807","Terrence-Ross-13902","Evan-Fournier-13913","Domantas-Sabonis-35217","Myles-Turner-18915","Jerian-Grant-18900","Jeremy-Lamb-13955","John-Collins-37823","49400","275.12"
"Victor-Oladipo-16807","Jeremy-Lin-916","Terrence-Ross-13902","Aaron-Gordon-18601","John-Collins-37823","Kemba-Walker-13335","Evan-Fournier-13913","Alex-Len-16886","49900","275.11"
"Victor-Oladipo-16807","Terrence-Ross-13902","Evan-Fournier-13913","Aaron-Gordon-18601","Nikola-Vucevic-13296","Bojan-Bogdanovic-18571","Jeremy-Lamb-13955","Tyreke-Evans-1070","49400","275.06"
"Victor-Oladipo-16807","Jeremy-Lin-916","Terrence-Ross-13902","Domantas-Sabonis-35217","Nikola-Vucevic-13296","Evan-Fournier-13913","Aaron-Gordon-18601","Cody-Zeller-16836","49700","275.06"
"Victor-Oladipo-16807","Terrence-Ross-13902","Evan-Fournier-13913","Aaron-Gordon-18601","Nikola-Vucevic-13296","Jerian-Grant-18900","Jeremy-Lamb-13955","Bojan-Bogdanovic-18571","48800","275.05"
"Victor-Oladipo-16807","Nicolas-Batum-1315","Evan-Fournier-13913","Aaron-Gordon-18601","Cody-Zeller-16836","Terrence-Ross-13902","Jeremy-Lamb-13955","Nikola-Vucevic-13296","49800","275.04"
"Jerian-Grant-18900","Jeremy-Lamb-13955","Terrence-Ross-13902","Marvin-Williams-1318","Nikola-Vucevic-13296","Kemba-Walker-13335","Evan-Fournier-13913","Aaron-Gordon-18601","50000","275.02"
"Victor-Oladipo-16807","Jeremy-Lin-916","Nicolas-Batum-1315","John-Collins-37823","Nikola-Vucevic-13296","Jerian-Grant-18900","Evan-Fournier-13913","Aaron-Gordon-18601","50000","274.99"
