"Shai-Gilgeous-Alexander-408990","DeMar-DeRozan-1053","Rudy-Gay-1341","LaMarcus-Aldridge-1349","DeAndre-Jordan-1486","Damian-Lillard-13900","Wesley-Matthews-1339","Dwight-Powell-18566","50000","282.02"
"Lou-Williams-1044","DeMar-DeRozan-1053","Rudy-Gay-1341","LaMarcus-Aldridge-1349","DeAndre-Jordan-1486","Dennis-Smith-Jr.-37847","Wesley-Matthews-1339","Jusuf-Nurkic-18619","49800","281.96"
"Lou-Williams-1044","DeMar-DeRozan-1053","Danilo-Gallinari-1329","Rudy-Gay-1341","DeAndre-Jordan-1486","Wesley-Matthews-1339","Harrison-Barnes-13901","LaMarcus-Aldridge-1349","49800","281.2"

"Shai-Gilgeous-Alexander-408990","DeMar-DeRozan-1053","Rudy-Gay-1341","LaMarcus-Aldridge-1349","DeAndre-Jordan-1486","Damian-Lillard-13900","Wesley-Matthews-1339","Dwight-Powell-18566","50000","282.02"
"Lou-Williams-1044","DeMar-DeRozan-1053","Rudy-Gay-1341","LaMarcus-Aldridge-1349","DeAndre-Jordan-1486","Dennis-Smith-Jr.-37847","Wesley-Matthews-1339","Jusuf-Nurkic-18619","49800","281.96"
"Lou-Williams-1044","DeMar-DeRozan-1053","Danilo-Gallinari-1329","Rudy-Gay-1341","DeAndre-Jordan-1486","Wesley-Matthews-1339","Harrison-Barnes-13901","LaMarcus-Aldridge-1349","49800","281.2"
"J.J.-Barea-18605","DeMar-DeRozan-1053","Rudy-Gay-1341","LaMarcus-Aldridge-1349","DeAndre-Jordan-1486","Damian-Lillard-13900","Wesley-Matthews-1339","Dwight-Powell-18566","49900","281.18"
"C.J.-McCollum-17121","DeMar-DeRozan-1053","Rudy-Gay-1341","Dwight-Powell-18566","DeAndre-Jordan-1486","Wesley-Matthews-1339","LaMarcus-Aldridge-1349","Jusuf-Nurkic-18619","49500","280.75"
"Dennis-Smith-Jr.-37847","DeMar-DeRozan-1053","Harrison-Barnes-13901","LaMarcus-Aldridge-1349","DeAndre-Jordan-1486","Wesley-Matthews-1339","Al-Farouq-Aminu-1279","Jusuf-Nurkic-18619","49900","280.55"
"Dennis-Smith-Jr.-37847","Wesley-Matthews-1339","Rudy-Gay-1341","Dwight-Powell-18566","DeAndre-Jordan-1486","Damian-Lillard-13900","LaMarcus-Aldridge-1349","Jusuf-Nurkic-18619","49700","280.3"
"Dennis-Smith-Jr.-37847","DeMar-DeRozan-1053","Rudy-Gay-1341","Dwight-Powell-18566","LaMarcus-Aldridge-1349","Damian-Lillard-13900","Wesley-Matthews-1339","Harrison-Barnes-13901","49900","280.28"
"Damian-Lillard-13900","DeMar-DeRozan-1053","Rudy-Gay-1341","Dwight-Powell-18566","LaMarcus-Aldridge-1349","Wesley-Matthews-1339","Al-Farouq-Aminu-1279","DeAndre-Jordan-1486","49400","280.15"
"Shai-Gilgeous-Alexander-408990","DeMar-DeRozan-1053","Rudy-Gay-1341","LaMarcus-Aldridge-1349","DeAndre-Jordan-1486","Dennis-Smith-Jr.-37847","Wesley-Matthews-1339","Jusuf-Nurkic-18619","49700","280.11"
"Damian-Lillard-13900","DeMar-DeRozan-1053","Harrison-Barnes-13901","LaMarcus-Aldridge-1349","DeAndre-Jordan-1486","Avery-Bradley-941","Wesley-Matthews-1339","Dwight-Powell-18566","49900","279.46"
"Dennis-Smith-Jr.-37847","DeMar-DeRozan-1053","Tobias-Harris-13332","Dwight-Powell-18566","DeAndre-Jordan-1486","Wesley-Matthews-1339","LaMarcus-Aldridge-1349","Harrison-Barnes-13901","49800","279.41"
"Lou-Williams-1044","DeMar-DeRozan-1053","Harrison-Barnes-13901","LaMarcus-Aldridge-1349","DeAndre-Jordan-1486","Wesley-Matthews-1339","Al-Farouq-Aminu-1279","Jusuf-Nurkic-18619","49600","279.4"
"Shai-Gilgeous-Alexander-408990","DeMar-DeRozan-1053","Danilo-Gallinari-1329","Rudy-Gay-1341","DeAndre-Jordan-1486","Wesley-Matthews-1339","Harrison-Barnes-13901","LaMarcus-Aldridge-1349","49700","279.35"
"Dennis-Smith-Jr.-37847","DeMar-DeRozan-1053","Harrison-Barnes-13901","Dwight-Powell-18566","Jusuf-Nurkic-18619","Wesley-Matthews-1339","LaMarcus-Aldridge-1349","DeAndre-Jordan-1486","48900","279.32"
"Dennis-Smith-Jr.-37847","DeMar-DeRozan-1053","Rudy-Gay-1341","Dwight-Powell-18566","DeAndre-Jordan-1486","Damian-Lillard-13900","Wesley-Matthews-1339","Jusuf-Nurkic-18619","49900","279.32"
"Lou-Williams-1044","DeMar-DeRozan-1053","Harrison-Barnes-13901","LaMarcus-Aldridge-1349","DeAndre-Jordan-1486","Dennis-Smith-Jr.-37847","Wesley-Matthews-1339","Danilo-Gallinari-1329","49900","279.29"
"J.J.-Barea-18605","DeMar-DeRozan-1053","Rudy-Gay-1341","LaMarcus-Aldridge-1349","DeAndre-Jordan-1486","Dennis-Smith-Jr.-37847","Wesley-Matthews-1339","Jusuf-Nurkic-18619","49600","279.27"
"J.J.-Barea-18605","DeMar-DeRozan-1053","Wesley-Matthews-1339","Dwight-Powell-18566","DeAndre-Jordan-1486","Dennis-Smith-Jr.-37847","LaMarcus-Aldridge-1349","Damian-Lillard-13900","50000","279.27"
"Lou-Williams-1044","DeMar-DeRozan-1053","Harrison-Barnes-13901","Dwight-Powell-18566","Jusuf-Nurkic-18619","Dennis-Smith-Jr.-37847","LaMarcus-Aldridge-1349","DeAndre-Jordan-1486","49600","279.26"
"Lou-Williams-1044","Wesley-Matthews-1339","Rudy-Gay-1341","Dwight-Powell-18566","DeAndre-Jordan-1486","Damian-Lillard-13900","LaMarcus-Aldridge-1349","Jusuf-Nurkic-18619","49400","279.15"
"Lou-Williams-1044","DeMar-DeRozan-1053","Rudy-Gay-1341","Dwight-Powell-18566","LaMarcus-Aldridge-1349","Damian-Lillard-13900","Wesley-Matthews-1339","Harrison-Barnes-13901","49600","279.13"
"Patty-Mills-13977","DeMar-DeRozan-1053","Rudy-Gay-1341","LaMarcus-Aldridge-1349","Jusuf-Nurkic-18619","Dennis-Smith-Jr.-37847","Harrison-Barnes-13901","DeAndre-Jordan-1486","49900","279.0"
"Lou-Williams-1044","DeMar-DeRozan-1053","Wesley-Matthews-1339","Dwight-Powell-18566","DeAndre-Jordan-1486","Shai-Gilgeous-Alexander-408990","LaMarcus-Aldridge-1349","Damian-Lillard-13900","49800","278.96"
"Lou-Williams-1044","DeMar-DeRozan-1053","Rudy-Gay-1341","LaMarcus-Aldridge-1349","DeAndre-Jordan-1486","Shai-Gilgeous-Alexander-408990","Wesley-Matthews-1339","Jusuf-Nurkic-18619","49400","278.96"
"Damian-Lillard-13900","DeMar-DeRozan-1053","Rudy-Gay-1341","Dwight-Powell-18566","LaMarcus-Aldridge-1349","Wesley-Matthews-1339","Al-Farouq-Aminu-1279","Jusuf-Nurkic-18619","49800","278.88"
"C.J.-McCollum-17121","DeMar-DeRozan-1053","Wesley-Matthews-1339","Dwight-Powell-18566","DeAndre-Jordan-1486","Dennis-Smith-Jr.-37847","LaMarcus-Aldridge-1349","Jusuf-Nurkic-18619","49600","278.84"
"J.J.-Barea-18605","Wesley-Matthews-1339","Harrison-Barnes-13901","Dwight-Powell-18566","Jusuf-Nurkic-18619","Damian-Lillard-13900","LaMarcus-Aldridge-1349","DeAndre-Jordan-1486","50000","278.77"
"Patty-Mills-13977","DeMar-DeRozan-1053","Danilo-Gallinari-1329","LaMarcus-Aldridge-1349","Jusuf-Nurkic-18619","Wesley-Matthews-1339","Harrison-Barnes-13901","DeAndre-Jordan-1486","49900","278.71"
"C.J.-McCollum-17121","Wesley-Matthews-1339","Rudy-Gay-1341","LaMarcus-Aldridge-1349","Jusuf-Nurkic-18619","Dennis-Smith-Jr.-37847","Harrison-Barnes-13901","DeAndre-Jordan-1486","49900","278.66"
"Bryn-Forbes-36052","DeMar-DeRozan-1053","Rudy-Gay-1341","Tobias-Harris-13332","LaMarcus-Aldridge-1349","Wesley-Matthews-1339","Harrison-Barnes-13901","DeAndre-Jordan-1486","50000","278.59"
"J.J.-Barea-18605","DeMar-DeRozan-1053","Harrison-Barnes-13901","LaMarcus-Aldridge-1349","DeAndre-Jordan-1486","Shai-Gilgeous-Alexander-408990","Wesley-Matthews-1339","Jusuf-Nurkic-18619","50000","278.58"
"Damian-Lillard-13900","DeMar-DeRozan-1053","Danilo-Gallinari-1329","Rudy-Gay-1341","DeAndre-Jordan-1486","Wesley-Matthews-1339","Harrison-Barnes-13901","Dwight-Powell-18566","49900","278.56"
"C.J.-McCollum-17121","DeMar-DeRozan-1053","Rudy-Gay-1341","Harrison-Barnes-13901","LaMarcus-Aldridge-1349","Wesley-Matthews-1339","Al-Farouq-Aminu-1279","DeAndre-Jordan-1486","49600","278.51"
"J.J.-Barea-18605","DeMar-DeRozan-1053","Danilo-Gallinari-1329","Rudy-Gay-1341","DeAndre-Jordan-1486","Wesley-Matthews-1339","Harrison-Barnes-13901","LaMarcus-Aldridge-1349","49600","278.51"
"Bryn-Forbes-36052","DeMar-DeRozan-1053","Rudy-Gay-1341","LaMarcus-Aldridge-1349","Jusuf-Nurkic-18619","Wesley-Matthews-1339","Harrison-Barnes-13901","DeAndre-Jordan-1486","49100","278.5"
"Bryn-Forbes-36052","DeMar-DeRozan-1053","Harrison-Barnes-13901","LaMarcus-Aldridge-1349","DeAndre-Jordan-1486","Damian-Lillard-13900","Wesley-Matthews-1339","Dwight-Powell-18566","49500","278.5"
"Lou-Williams-1044","Wesley-Matthews-1339","DeMar-DeRozan-1053","Rudy-Gay-1341","DeAndre-Jordan-1486","Dennis-Smith-Jr.-37847","Harrison-Barnes-13901","LaMarcus-Aldridge-1349","48900","278.49"
"Lou-Williams-1044","DeMar-DeRozan-1053","Rudy-Gay-1341","LaMarcus-Aldridge-1349","Jusuf-Nurkic-18619","Bryn-Forbes-36052","Harrison-Barnes-13901","DeAndre-Jordan-1486","49800","278.44"
"C.J.-McCollum-17121","DeMar-DeRozan-1053","Rudy-Gay-1341","Dwight-Powell-18566","DeAndre-Jordan-1486","Dennis-Smith-Jr.-37847","Harrison-Barnes-13901","LaMarcus-Aldridge-1349","49600","278.37"
"Dennis-Smith-Jr.-37847","DeMar-DeRozan-1053","Rudy-Gay-1341","Tobias-Harris-13332","LaMarcus-Aldridge-1349","Wesley-Matthews-1339","Al-Farouq-Aminu-1279","DeAndre-Jordan-1486","50000","278.33"
"Lou-Williams-1044","DeMar-DeRozan-1053","Tobias-Harris-13332","Dwight-Powell-18566","DeAndre-Jordan-1486","Wesley-Matthews-1339","LaMarcus-Aldridge-1349","Harrison-Barnes-13901","49500","278.26"
"Dennis-Smith-Jr.-37847","DeMar-DeRozan-1053","Wesley-Matthews-1339","Dwight-Powell-18566","DeAndre-Jordan-1486","Damian-Lillard-13900","LaMarcus-Aldridge-1349","Al-Farouq-Aminu-1279","49500","278.24"
"Shai-Gilgeous-Alexander-408990","DeMar-DeRozan-1053","Rudy-Gay-1341","Dwight-Powell-18566","LaMarcus-Aldridge-1349","Damian-Lillard-13900","Al-Farouq-Aminu-1279","DeAndre-Jordan-1486","50000","278.24"
"Dennis-Smith-Jr.-37847","DeMar-DeRozan-1053","Rudy-Gay-1341","LaMarcus-Aldridge-1349","Jusuf-Nurkic-18619","Wesley-Matthews-1339","Al-Farouq-Aminu-1279","DeAndre-Jordan-1486","49100","278.24"
"Devin-Harris-1076","DeMar-DeRozan-1053","Wesley-Matthews-1339","Dwight-Powell-18566","DeAndre-Jordan-1486","Damian-Lillard-13900","LaMarcus-Aldridge-1349","Jusuf-Nurkic-18619","49900","278.21"
"Lou-Williams-1044","DeMar-DeRozan-1053","Rudy-Gay-1341","LaMarcus-Aldridge-1349","Jusuf-Nurkic-18619","Dennis-Smith-Jr.-37847","Al-Farouq-Aminu-1279","DeAndre-Jordan-1486","49800","278.18"
"Lou-Williams-1044","DeMar-DeRozan-1053","Rudy-Gay-1341","Dwight-Powell-18566","DeAndre-Jordan-1486","Damian-Lillard-13900","Wesley-Matthews-1339","Jusuf-Nurkic-18619","49600","278.17"
"Lou-Williams-1044","DeMar-DeRozan-1053","Harrison-Barnes-13901","Dwight-Powell-18566","Jusuf-Nurkic-18619","Wesley-Matthews-1339","LaMarcus-Aldridge-1349","DeAndre-Jordan-1486","48600","278.17"
"Lou-Williams-1044","DeMar-DeRozan-1053","Wesley-Matthews-1339","Dwight-Powell-18566","DeAndre-Jordan-1486","J.J.-Barea-18605","LaMarcus-Aldridge-1349","Damian-Lillard-13900","49700","278.12"
"Lou-Williams-1044","DeMar-DeRozan-1053","Rudy-Gay-1341","LaMarcus-Aldridge-1349","DeAndre-Jordan-1486","J.J.-Barea-18605","Wesley-Matthews-1339","Jusuf-Nurkic-18619","49300","278.12"
"C.J.-McCollum-17121","DeMar-DeRozan-1053","Danilo-Gallinari-1329","Dwight-Powell-18566","DeAndre-Jordan-1486","Wesley-Matthews-1339","LaMarcus-Aldridge-1349","Harrison-Barnes-13901","49600","278.08"
"Dennis-Smith-Jr.-37847","Wesley-Matthews-1339","Rudy-Gay-1341","Harrison-Barnes-13901","LaMarcus-Aldridge-1349","Damian-Lillard-13900","Al-Farouq-Aminu-1279","DeAndre-Jordan-1486","49800","278.06"
"C.J.-McCollum-17121","DeMar-DeRozan-1053","Rudy-Gay-1341","LaMarcus-Aldridge-1349","DeAndre-Jordan-1486","Bryn-Forbes-36052","Wesley-Matthews-1339","Jusuf-Nurkic-18619","49800","278.02"
"Lou-Williams-1044","DeMar-DeRozan-1053","Rudy-Gay-1341","LaMarcus-Aldridge-1349","DeAndre-Jordan-1486","C.J.-McCollum-17121","Wesley-Matthews-1339","Dennis-Smith-Jr.-37847","49600","278.01"
"C.J.-McCollum-17121","DeMar-DeRozan-1053","Rudy-Gay-1341","Dwight-Powell-18566","DeAndre-Jordan-1486","J.J.-Barea-18605","LaMarcus-Aldridge-1349","Jusuf-Nurkic-18619","50000","278.0"
"Patty-Mills-13977","DeMar-DeRozan-1053","Rudy-Gay-1341","Tobias-Harris-13332","LaMarcus-Aldridge-1349","Wesley-Matthews-1339","Harrison-Barnes-13901","DeAndre-Jordan-1486","49800","278.0"
"Damian-Lillard-13900","DeMar-DeRozan-1053","Harrison-Barnes-13901","Dwight-Powell-18566","DeAndre-Jordan-1486","Wesley-Matthews-1339","Davis-Bertans-36051","LaMarcus-Aldridge-1349","49300","277.95"
"Lou-Williams-1044","J.J.-Barea-18605","Harrison-Barnes-13901","LaMarcus-Aldridge-1349","DeAndre-Jordan-1486","Damian-Lillard-13900","Wesley-Matthews-1339","Rudy-Gay-1341","50000","277.94"
"Patty-Mills-13977","DeMar-DeRozan-1053","Harrison-Barnes-13901","LaMarcus-Aldridge-1349","DeAndre-Jordan-1486","Damian-Lillard-13900","Wesley-Matthews-1339","Dwight-Powell-18566","49300","277.91"
"Patty-Mills-13977","DeMar-DeRozan-1053","Rudy-Gay-1341","LaMarcus-Aldridge-1349","Jusuf-Nurkic-18619","Wesley-Matthews-1339","Harrison-Barnes-13901","DeAndre-Jordan-1486","48900","277.91"
"Dennis-Smith-Jr.-37847","DeMar-DeRozan-1053","Tobias-Harris-13332","Dwight-Powell-18566","DeAndre-Jordan-1486","Wesley-Matthews-1339","LaMarcus-Aldridge-1349","Danilo-Gallinari-1329","50000","277.9"
"J.J.-Barea-18605","DeMar-DeRozan-1053","Rudy-Gay-1341","LaMarcus-Aldridge-1349","DeAndre-Jordan-1486","Damian-Lillard-13900","Wesley-Matthews-1339","Davis-Bertans-36051","50000","277.9"
"Dennis-Smith-Jr.-37847","DeMar-DeRozan-1053","Rudy-Gay-1341","LaMarcus-Aldridge-1349","Jusuf-Nurkic-18619","Patrick-Beverley-14108","Harrison-Barnes-13901","DeAndre-Jordan-1486","50000","277.9"
"Lou-Williams-1044","DeMar-DeRozan-1053","Danilo-Gallinari-1329","LaMarcus-Aldridge-1349","Jusuf-Nurkic-18619","Wesley-Matthews-1339","Al-Farouq-Aminu-1279","DeAndre-Jordan-1486","49800","277.89"
"Lou-Williams-1044","DeMar-DeRozan-1053","Harrison-Barnes-13901","Dwight-Powell-18566","DeAndre-Jordan-1486","Damian-Lillard-13900","Davis-Bertans-36051","LaMarcus-Aldridge-1349","50000","277.89"
"Patty-Mills-13977","DeMar-DeRozan-1053","Rudy-Gay-1341","LaMarcus-Aldridge-1349","DeAndre-Jordan-1486","J.J.-Barea-18605","Wesley-Matthews-1339","Damian-Lillard-13900","50000","277.86"
"Lou-Williams-1044","DeMar-DeRozan-1053","Rudy-Gay-1341","LaMarcus-Aldridge-1349","Jusuf-Nurkic-18619","Patty-Mills-13977","Harrison-Barnes-13901","DeAndre-Jordan-1486","49600","277.85"
"Lou-Williams-1044","Patty-Mills-13977","DeMar-DeRozan-1053","LaMarcus-Aldridge-1349","DeAndre-Jordan-1486","Damian-Lillard-13900","Harrison-Barnes-13901","Dwight-Powell-18566","50000","277.85"
"Dennis-Smith-Jr.-37847","DeMar-DeRozan-1053","Danilo-Gallinari-1329","Dwight-Powell-18566","Jusuf-Nurkic-18619","Wesley-Matthews-1339","LaMarcus-Aldridge-1349","DeAndre-Jordan-1486","49100","277.81"
"Lou-Williams-1044","DeMar-DeRozan-1053","Danilo-Gallinari-1329","Dwight-Powell-18566","Jusuf-Nurkic-18619","Dennis-Smith-Jr.-37847","LaMarcus-Aldridge-1349","DeAndre-Jordan-1486","49800","277.75"
"Devin-Harris-1076","DeMar-DeRozan-1053","Rudy-Gay-1341","Dwight-Powell-18566","DeAndre-Jordan-1486","Damian-Lillard-13900","Harrison-Barnes-13901","LaMarcus-Aldridge-1349","49900","277.74"
"Lou-Williams-1044","DeMar-DeRozan-1053","Wesley-Matthews-1339","Dwight-Powell-18566","DeAndre-Jordan-1486","C.J.-McCollum-17121","LaMarcus-Aldridge-1349","Jusuf-Nurkic-18619","49300","277.69"
"Dennis-Smith-Jr.-37847","Wesley-Matthews-1339","Danilo-Gallinari-1329","Dwight-Powell-18566","DeAndre-Jordan-1486","Damian-Lillard-13900","LaMarcus-Aldridge-1349","Harrison-Barnes-13901","49800","277.63"
"Lou-Williams-1044","Wesley-Matthews-1339","DeMar-DeRozan-1053","Danilo-Gallinari-1329","LaMarcus-Aldridge-1349","Damian-Lillard-13900","Rudy-Gay-1341","Dwight-Powell-18566","49800","277.62"
"Patrick-Beverley-14108","DeMar-DeRozan-1053","Danilo-Gallinari-1329","LaMarcus-Aldridge-1349","Jusuf-Nurkic-18619","Wesley-Matthews-1339","Harrison-Barnes-13901","DeAndre-Jordan-1486","50000","277.61"
"Dennis-Smith-Jr.-37847","Bryn-Forbes-36052","Rudy-Gay-1341","LaMarcus-Aldridge-1349","DeAndre-Jordan-1486","Damian-Lillard-13900","Wesley-Matthews-1339","Jusuf-Nurkic-18619","50000","277.57"
"Dennis-Smith-Jr.-37847","DeMar-DeRozan-1053","Harrison-Barnes-13901","LaMarcus-Aldridge-1349","DeAndre-Jordan-1486","Avery-Bradley-941","Wesley-Matthews-1339","Jusuf-Nurkic-18619","49600","277.55"
"Shai-Gilgeous-Alexander-408990","DeMar-DeRozan-1053","Harrison-Barnes-13901","LaMarcus-Aldridge-1349","DeAndre-Jordan-1486","Wesley-Matthews-1339","Al-Farouq-Aminu-1279","Jusuf-Nurkic-18619","49500","277.55"
"Lou-Williams-1044","C.J.-McCollum-17121","Rudy-Gay-1341","LaMarcus-Aldridge-1349","Jusuf-Nurkic-18619","Wesley-Matthews-1339","Harrison-Barnes-13901","DeAndre-Jordan-1486","49600","277.51"
"Lou-Williams-1044","C.J.-McCollum-17121","Harrison-Barnes-13901","LaMarcus-Aldridge-1349","DeAndre-Jordan-1486","Damian-Lillard-13900","Wesley-Matthews-1339","Dwight-Powell-18566","50000","277.51"
"C.J.-McCollum-17121","Wesley-Matthews-1339","DeMar-DeRozan-1053","Dwight-Powell-18566","LaMarcus-Aldridge-1349","Damian-Lillard-13900","Davis-Bertans-36051","DeAndre-Jordan-1486","50000","277.47"
"C.J.-McCollum-17121","DeMar-DeRozan-1053","Rudy-Gay-1341","Davis-Bertans-36051","DeAndre-Jordan-1486","Wesley-Matthews-1339","LaMarcus-Aldridge-1349","Jusuf-Nurkic-18619","49600","277.47"
"Shai-Gilgeous-Alexander-408990","DeMar-DeRozan-1053","Harrison-Barnes-13901","LaMarcus-Aldridge-1349","DeAndre-Jordan-1486","Dennis-Smith-Jr.-37847","Wesley-Matthews-1339","Danilo-Gallinari-1329","49800","277.44"
"C.J.-McCollum-17121","DeMar-DeRozan-1053","Wesley-Matthews-1339","Dwight-Powell-18566","DeAndre-Jordan-1486","Patty-Mills-13977","LaMarcus-Aldridge-1349","Damian-Lillard-13900","50000","277.43"
"C.J.-McCollum-17121","DeMar-DeRozan-1053","Rudy-Gay-1341","LaMarcus-Aldridge-1349","DeAndre-Jordan-1486","Patty-Mills-13977","Wesley-Matthews-1339","Jusuf-Nurkic-18619","49600","277.43"
"Bryn-Forbes-36052","DeMar-DeRozan-1053","Rudy-Gay-1341","LaMarcus-Aldridge-1349","DeAndre-Jordan-1486","Damian-Lillard-13900","Wesley-Matthews-1339","Al-Farouq-Aminu-1279","49700","277.42"
"Shai-Gilgeous-Alexander-408990","DeMar-DeRozan-1053","Harrison-Barnes-13901","Dwight-Powell-18566","Jusuf-Nurkic-18619","Dennis-Smith-Jr.-37847","LaMarcus-Aldridge-1349","DeAndre-Jordan-1486","49500","277.41"
"J.J.-Barea-18605","DeMar-DeRozan-1053","Rudy-Gay-1341","Dwight-Powell-18566","LaMarcus-Aldridge-1349","Damian-Lillard-13900","Al-Farouq-Aminu-1279","DeAndre-Jordan-1486","49900","277.4"
"Lou-Williams-1044","DeMar-DeRozan-1053","Rudy-Gay-1341","LaMarcus-Aldridge-1349","DeAndre-Jordan-1486","Devin-Harris-1076","Wesley-Matthews-1339","Damian-Lillard-13900","49900","277.38"
"Lou-Williams-1044","Wesley-Matthews-1339","Rudy-Gay-1341","LaMarcus-Aldridge-1349","Jusuf-Nurkic-18619","Dennis-Smith-Jr.-37847","Tobias-Harris-13332","DeAndre-Jordan-1486","50000","277.33"
"Lou-Williams-1044","DeMar-DeRozan-1053","Harrison-Barnes-13901","LaMarcus-Aldridge-1349","DeAndre-Jordan-1486","C.J.-McCollum-17121","Wesley-Matthews-1339","Shai-Gilgeous-Alexander-408990","50000","277.32"
"Shai-Gilgeous-Alexander-408990","Wesley-Matthews-1339","Rudy-Gay-1341","Dwight-Powell-18566","DeAndre-Jordan-1486","Damian-Lillard-13900","LaMarcus-Aldridge-1349","Jusuf-Nurkic-18619","49300","277.3"
"Shai-Gilgeous-Alexander-408990","DeMar-DeRozan-1053","Rudy-Gay-1341","Dwight-Powell-18566","LaMarcus-Aldridge-1349","Damian-Lillard-13900","Wesley-Matthews-1339","Harrison-Barnes-13901","49500","277.28"
"C.J.-McCollum-17121","DeMar-DeRozan-1053","Rudy-Gay-1341","Dwight-Powell-18566","DeAndre-Jordan-1486","Wesley-Matthews-1339","Harrison-Barnes-13901","LaMarcus-Aldridge-1349","48600","277.28"
"Dennis-Smith-Jr.-37847","Bryn-Forbes-36052","DeMar-DeRozan-1053","Dwight-Powell-18566","LaMarcus-Aldridge-1349","Damian-Lillard-13900","Rudy-Gay-1341","DeAndre-Jordan-1486","49700","277.28"
"Lou-Williams-1044","Shai-Gilgeous-Alexander-408990","Rudy-Gay-1341","Dwight-Powell-18566","DeAndre-Jordan-1486","Damian-Lillard-13900","LaMarcus-Aldridge-1349","Jusuf-Nurkic-18619","50000","277.24"
"J.J.-Barea-18605","DeMar-DeRozan-1053","Danilo-Gallinari-1329","Rudy-Gay-1341","Jusuf-Nurkic-18619","Wesley-Matthews-1339","Harrison-Barnes-13901","LaMarcus-Aldridge-1349","50000","277.24"
"C.J.-McCollum-17121","DeMar-DeRozan-1053","Rudy-Gay-1341","Harrison-Barnes-13901","LaMarcus-Aldridge-1349","Wesley-Matthews-1339","Al-Farouq-Aminu-1279","Jusuf-Nurkic-18619","50000","277.24"
"Dennis-Smith-Jr.-37847","Lou-Williams-1044","Wesley-Matthews-1339","Dwight-Powell-18566","DeAndre-Jordan-1486","Damian-Lillard-13900","LaMarcus-Aldridge-1349","Jusuf-Nurkic-18619","49500","277.24"
