"Darren-Collison-1060","Tyreke-Evans-1070","LeBron-James-1227","Montrezl-Harrell-18930","Willie-Cauley-Stein-18951","Buddy-Hield-35206","Marvin-Bagley-III-409321","JaVale-McGee-1485","50000","269.32"
"De'Aaron-Fox-37900","Tyreke-Evans-1070","Buddy-Hield-35206","Montrezl-Harrell-18930","Willie-Cauley-Stein-18951","Brandon-Ingram-35227","Domantas-Sabonis-35217","Marvin-Bagley-III-409321","50000","268.27"

"Darren-Collison-1060","Tyreke-Evans-1070","LeBron-James-1227","Montrezl-Harrell-18930","Willie-Cauley-Stein-18951","Buddy-Hield-35206","Marvin-Bagley-III-409321","JaVale-McGee-1485","50000","269.32"
"De'Aaron-Fox-37900","Tyreke-Evans-1070","Buddy-Hield-35206","Montrezl-Harrell-18930","Willie-Cauley-Stein-18951","Brandon-Ingram-35227","Domantas-Sabonis-35217","Marvin-Bagley-III-409321","50000","268.27"
"Darren-Collison-1060","Buddy-Hield-35206","Tyreke-Evans-1070","Montrezl-Harrell-18930","Willie-Cauley-Stein-18951","Shai-Gilgeous-Alexander-408990","Marvin-Bagley-III-409321","LeBron-James-1227","49800","268.21"
"Darren-Collison-1060","Iman-Shumpert-13350","Tyreke-Evans-1070","Montrezl-Harrell-18930","Willie-Cauley-Stein-18951","De'Aaron-Fox-37900","Marvin-Bagley-III-409321","LeBron-James-1227","50000","267.97"
"Darren-Collison-1060","Buddy-Hield-35206","Danilo-Gallinari-1329","Marvin-Bagley-III-409321","Willie-Cauley-Stein-18951","Iman-Shumpert-13350","LeBron-James-1227","Montrezl-Harrell-18930","50000","267.29"
"De'Aaron-Fox-37900","Tyreke-Evans-1070","Kyle-Kuzma-37886","Montrezl-Harrell-18930","Willie-Cauley-Stein-18951","Buddy-Hield-35206","Domantas-Sabonis-35217","Marvin-Bagley-III-409321","49800","267.23"
"Darren-Collison-1060","Tyreke-Evans-1070","LeBron-James-1227","Marvin-Bagley-III-409321","Willie-Cauley-Stein-18951","Buddy-Hield-35206","Bogdan-Bogdanovic-37899","De'Aaron-Fox-37900","49700","267.11"
"De'Aaron-Fox-37900","Tyreke-Evans-1070","Tobias-Harris-13332","Montrezl-Harrell-18930","JaVale-McGee-1485","Buddy-Hield-35206","Marvin-Bagley-III-409321","Willie-Cauley-Stein-18951","50000","267.0"
"Darren-Collison-1060","Buddy-Hield-35206","Tobias-Harris-13332","Marvin-Bagley-III-409321","Willie-Cauley-Stein-18951","De'Aaron-Fox-37900","Tyreke-Evans-1070","Montrezl-Harrell-18930","49600","266.9"
"De'Aaron-Fox-37900","Buddy-Hield-35206","Danilo-Gallinari-1329","LeBron-James-1227","Willie-Cauley-Stein-18951","Iman-Shumpert-13350","Tyreke-Evans-1070","Marvin-Bagley-III-409321","49900","266.83"
"Lonzo-Ball-37885","Tyreke-Evans-1070","Buddy-Hield-35206","Montrezl-Harrell-18930","Willie-Cauley-Stein-18951","De'Aaron-Fox-37900","Domantas-Sabonis-35217","Marvin-Bagley-III-409321","49900","266.58"
"Darren-Collison-1060","Buddy-Hield-35206","LeBron-James-1227","Montrezl-Harrell-18930","Willie-Cauley-Stein-18951","Shai-Gilgeous-Alexander-408990","Bogdan-Bogdanovic-37899","Marvin-Bagley-III-409321","50000","266.56"
"Darren-Collison-1060","Buddy-Hield-35206","Tyreke-Evans-1070","LeBron-James-1227","Montrezl-Harrell-18930","De'Aaron-Fox-37900","Iman-Shumpert-13350","Marvin-Bagley-III-409321","49800","266.51"
"Darren-Collison-1060","Kentavious-Caldwell-Pope-16869","Tyreke-Evans-1070","Montrezl-Harrell-18930","Willie-Cauley-Stein-18951","De'Aaron-Fox-37900","Marvin-Bagley-III-409321","LeBron-James-1227","50000","266.51"
"Darren-Collison-1060","Tyreke-Evans-1070","LeBron-James-1227","Montrezl-Harrell-18930","Willie-Cauley-Stein-18951","Bogdan-Bogdanovic-37899","Marvin-Bagley-III-409321","Kyle-Kuzma-37886","50000","266.48"
"Darren-Collison-1060","Buddy-Hield-35206","Tyreke-Evans-1070","Marvin-Bagley-III-409321","Willie-Cauley-Stein-18951","De'Aaron-Fox-37900","LeBron-James-1227","JaVale-McGee-1485","49600","266.46"
"Lou-Williams-1044","Tyreke-Evans-1070","Buddy-Hield-35206","Montrezl-Harrell-18930","Willie-Cauley-Stein-18951","De'Aaron-Fox-37900","Domantas-Sabonis-35217","Marvin-Bagley-III-409321","49800","266.19"
"Lou-Williams-1044","Buddy-Hield-35206","LeBron-James-1227","Montrezl-Harrell-18930","Willie-Cauley-Stein-18951","Iman-Shumpert-13350","Marvin-Bagley-III-409321","Kyle-Kuzma-37886","50000","266.15"
"De'Aaron-Fox-37900","Tyreke-Evans-1070","LeBron-James-1227","Marvin-Bagley-III-409321","Willie-Cauley-Stein-18951","Buddy-Hield-35206","Bogdan-Bogdanovic-37899","Shai-Gilgeous-Alexander-408990","49900","266.1"
"Darren-Collison-1060","Tyreke-Evans-1070","Buddy-Hield-35206","LeBron-James-1227","Montrezl-Harrell-18930","Bogdan-Bogdanovic-37899","Brandon-Ingram-35227","Marvin-Bagley-III-409321","50000","266.06"
"Lonzo-Ball-37885","Buddy-Hield-35206","Tyreke-Evans-1070","Montrezl-Harrell-18930","Willie-Cauley-Stein-18951","Iman-Shumpert-13350","Marvin-Bagley-III-409321","LeBron-James-1227","49500","265.99"
"Darren-Collison-1060","Buddy-Hield-35206","LeBron-James-1227","Montrezl-Harrell-18930","Willie-Cauley-Stein-18951","Shai-Gilgeous-Alexander-408990","Marvin-Bagley-III-409321","JaVale-McGee-1485","49900","265.91"
"Darren-Collison-1060","Buddy-Hield-35206","LeBron-James-1227","Marvin-Bagley-III-409321","Willie-Cauley-Stein-18951","De'Aaron-Fox-37900","Kyle-Kuzma-37886","Shai-Gilgeous-Alexander-408990","50000","265.9"
"De'Aaron-Fox-37900","Buddy-Hield-35206","Tobias-Harris-13332","Marvin-Bagley-III-409321","Willie-Cauley-Stein-18951","Shai-Gilgeous-Alexander-408990","Tyreke-Evans-1070","Montrezl-Harrell-18930","49800","265.89"
"Darren-Collison-1060","Brandon-Ingram-35227","Buddy-Hield-35206","Montrezl-Harrell-18930","Willie-Cauley-Stein-18951","De'Aaron-Fox-37900","Domantas-Sabonis-35217","Marvin-Bagley-III-409321","49700","265.87"
"Darren-Collison-1060","Buddy-Hield-35206","Danilo-Gallinari-1329","Marvin-Bagley-III-409321","Willie-Cauley-Stein-18951","Kentavious-Caldwell-Pope-16869","LeBron-James-1227","Montrezl-Harrell-18930","50000","265.83"
"Darren-Collison-1060","Brandon-Ingram-35227","Tyreke-Evans-1070","Montrezl-Harrell-18930","Willie-Cauley-Stein-18951","Shai-Gilgeous-Alexander-408990","Marvin-Bagley-III-409321","LeBron-James-1227","49900","265.76"
"Darren-Collison-1060","Buddy-Hield-35206","Tyreke-Evans-1070","Marvin-Bagley-III-409321","Domantas-Sabonis-35217","Bogdan-Bogdanovic-37899","LeBron-James-1227","Willie-Cauley-Stein-18951","50000","265.66"
"Darren-Collison-1060","Buddy-Hield-35206","Bojan-Bogdanovic-18571","Marvin-Bagley-III-409321","Willie-Cauley-Stein-18951","De'Aaron-Fox-37900","Tyreke-Evans-1070","LeBron-James-1227","49800","265.65"
"Darren-Collison-1060","Buddy-Hield-35206","Danilo-Gallinari-1329","LeBron-James-1227","Willie-Cauley-Stein-18951","Brandon-Ingram-35227","Tyreke-Evans-1070","Marvin-Bagley-III-409321","49600","265.63"
"Lou-Williams-1044","Buddy-Hield-35206","Tyreke-Evans-1070","Montrezl-Harrell-18930","Willie-Cauley-Stein-18951","Iman-Shumpert-13350","Marvin-Bagley-III-409321","LeBron-James-1227","49400","265.6"
"De'Aaron-Fox-37900","Buddy-Hield-35206","Kyle-Kuzma-37886","Montrezl-Harrell-18930","Willie-Cauley-Stein-18951","Bogdan-Bogdanovic-37899","Domantas-Sabonis-35217","Marvin-Bagley-III-409321","50000","265.58"
"De'Aaron-Fox-37900","Buddy-Hield-35206","Danilo-Gallinari-1329","Montrezl-Harrell-18930","Willie-Cauley-Stein-18951","Brandon-Ingram-35227","Marvin-Bagley-III-409321","Kyle-Kuzma-37886","49600","265.55"
"De'Aaron-Fox-37900","Buddy-Hield-35206","Tyreke-Evans-1070","LeBron-James-1227","Montrezl-Harrell-18930","Shai-Gilgeous-Alexander-408990","Iman-Shumpert-13350","Marvin-Bagley-III-409321","50000","265.5"
"Darren-Collison-1060","Tyreke-Evans-1070","Tobias-Harris-13332","Montrezl-Harrell-18930","Domantas-Sabonis-35217","Buddy-Hield-35206","Marvin-Bagley-III-409321","Willie-Cauley-Stein-18951","49900","265.45"
"De'Aaron-Fox-37900","Buddy-Hield-35206","Tyreke-Evans-1070","Marvin-Bagley-III-409321","Willie-Cauley-Stein-18951","Shai-Gilgeous-Alexander-408990","LeBron-James-1227","JaVale-McGee-1485","49800","265.45"
"Darren-Collison-1060","Tyreke-Evans-1070","LeBron-James-1227","Montrezl-Harrell-18930","Willie-Cauley-Stein-18951","Lou-Williams-1044","Bogdan-Bogdanovic-37899","Marvin-Bagley-III-409321","50000","265.44"
"Darren-Collison-1060","Tyreke-Evans-1070","Buddy-Hield-35206","Montrezl-Harrell-18930","Tyson-Chandler-1482","De'Aaron-Fox-37900","LeBron-James-1227","Willie-Cauley-Stein-18951","49900","265.41"
"Darren-Collison-1060","Buddy-Hield-35206","Tyreke-Evans-1070","Montrezl-Harrell-18930","JaVale-McGee-1485","Brandon-Ingram-35227","Marvin-Bagley-III-409321","LeBron-James-1227","49900","265.41"
"De'Aaron-Fox-37900","Tyreke-Evans-1070","Danilo-Gallinari-1329","Marvin-Bagley-III-409321","Willie-Cauley-Stein-18951","Buddy-Hield-35206","Kentavious-Caldwell-Pope-16869","LeBron-James-1227","49900","265.37"
"De'Aaron-Fox-37900","Buddy-Hield-35206","Iman-Shumpert-13350","Marvin-Bagley-III-409321","Willie-Cauley-Stein-18951","Brandon-Ingram-35227","Kyle-Kuzma-37886","LeBron-James-1227","49800","265.37"
"Darren-Collison-1060","Buddy-Hield-35206","Tyreke-Evans-1070","Marvin-Bagley-III-409321","Willie-Cauley-Stein-18951","De'Aaron-Fox-37900","LeBron-James-1227","Shai-Gilgeous-Alexander-408990","49400","265.35"
"Darren-Collison-1060","Iman-Shumpert-13350","Buddy-Hield-35206","Marvin-Bagley-III-409321","Montrezl-Harrell-18930","Brandon-Ingram-35227","LeBron-James-1227","Willie-Cauley-Stein-18951","49300","265.28"
"Darren-Collison-1060","Buddy-Hield-35206","Tobias-Harris-13332","Montrezl-Harrell-18930","Willie-Cauley-Stein-18951","De'Aaron-Fox-37900","Bogdan-Bogdanovic-37899","Marvin-Bagley-III-409321","49800","265.25"
"Darren-Collison-1060","Tyreke-Evans-1070","LeBron-James-1227","Montrezl-Harrell-18930","Willie-Cauley-Stein-18951","Buddy-Hield-35206","Bogdan-Bogdanovic-37899","JaVale-McGee-1485","49900","265.22"
"Darren-Collison-1060","Buddy-Hield-35206","Tyreke-Evans-1070","LeBron-James-1227","Willie-Cauley-Stein-18951","De'Aaron-Fox-37900","Bogdan-Bogdanovic-37899","Kyle-Kuzma-37886","50000","265.21"
"Lonzo-Ball-37885","Tyreke-Evans-1070","LeBron-James-1227","Montrezl-Harrell-18930","Willie-Cauley-Stein-18951","Darren-Collison-1060","Marvin-Bagley-III-409321","JaVale-McGee-1485","50000","265.18"
"Lonzo-Ball-37885","Tyreke-Evans-1070","Buddy-Hield-35206","LeBron-James-1227","Montrezl-Harrell-18930","Iman-Shumpert-13350","Brandon-Ingram-35227","Willie-Cauley-Stein-18951","50000","265.13"
"Darren-Collison-1060","Buddy-Hield-35206","Tyreke-Evans-1070","Marvin-Bagley-III-409321","Montrezl-Harrell-18930","De'Aaron-Fox-37900","Kentavious-Caldwell-Pope-16869","LeBron-James-1227","49800","265.05"
"De'Aaron-Fox-37900","Tyreke-Evans-1070","Buddy-Hield-35206","Montrezl-Harrell-18930","Willie-Cauley-Stein-18951","Bogdan-Bogdanovic-37899","Domantas-Sabonis-35217","Marvin-Bagley-III-409321","49400","265.03"
"Darren-Collison-1060","Buddy-Hield-35206","Tyreke-Evans-1070","Marvin-Bagley-III-409321","Montrezl-Harrell-18930","Bogdan-Bogdanovic-37899","Kyle-Kuzma-37886","LeBron-James-1227","49800","265.02"
"De'Aaron-Fox-37900","Iman-Shumpert-13350","Buddy-Hield-35206","Marvin-Bagley-III-409321","Montrezl-Harrell-18930","Kentavious-Caldwell-Pope-16869","LeBron-James-1227","Willie-Cauley-Stein-18951","49600","265.02"
"Darren-Collison-1060","Tyreke-Evans-1070","LeBron-James-1227","Marvin-Bagley-III-409321","Willie-Cauley-Stein-18951","Buddy-Hield-35206","Domantas-Sabonis-35217","JaVale-McGee-1485","49900","265.01"
"Darren-Collison-1060","Tyreke-Evans-1070","Tobias-Harris-13332","Montrezl-Harrell-18930","Willie-Cauley-Stein-18951","De'Aaron-Fox-37900","Buddy-Hield-35206","Kyle-Kuzma-37886","49900","265.0"
"De'Aaron-Fox-37900","Tyreke-Evans-1070","Danilo-Gallinari-1329","Montrezl-Harrell-18930","Willie-Cauley-Stein-18951","Brandon-Ingram-35227","Buddy-Hield-35206","Marvin-Bagley-III-409321","49000","265.0"
