"De'Anthony-Melton-409081","Eric-Gordon-1077","Jonathan-Isaac-37841","LaMarcus-Aldridge-1349","Clint-Capela-18610","Lonzo-Ball-37885","TJ-Warren-18634","Nikola-Vucevic-13296","49900","282.34"
"De'Anthony-Melton-409081","Eric-Gordon-1077","TJ-Warren-18634","LaMarcus-Aldridge-1349","Deandre-Ayton-409301","Lonzo-Ball-37885","Josh-Jackson-37890","Nikola-Vucevic-13296","49900","281.27"

"De'Anthony-Melton-409081","Eric-Gordon-1077","Jonathan-Isaac-37841","LaMarcus-Aldridge-1349","Clint-Capela-18610","Lonzo-Ball-37885","TJ-Warren-18634","Nikola-Vucevic-13296","49900","282.34"
"De'Anthony-Melton-409081","Eric-Gordon-1077","TJ-Warren-18634","LaMarcus-Aldridge-1349","Deandre-Ayton-409301","Lonzo-Ball-37885","Josh-Jackson-37890","Nikola-Vucevic-13296","49900","281.27"
"De'Anthony-Melton-409081","Eric-Gordon-1077","TJ-Warren-18634","Wendell-Carter-408878","Deandre-Ayton-409301","Lonzo-Ball-37885","LaMarcus-Aldridge-1349","Nikola-Vucevic-13296","49900","281.07"
"De'Anthony-Melton-409081","Eric-Gordon-1077","Tobias-Harris-13332","TJ-Warren-18634","LaMarcus-Aldridge-1349","Lonzo-Ball-37885","Josh-Jackson-37890","Nikola-Vucevic-13296","50000","281.07"
"Josh-Hart-37889","De'Anthony-Melton-409081","Eric-Gordon-1077","LaMarcus-Aldridge-1349","Clint-Capela-18610","Lonzo-Ball-37885","TJ-Warren-18634","Nikola-Vucevic-13296","49900","280.97"
"De'Anthony-Melton-409081","Eric-Gordon-1077","Tobias-Harris-13332","Wendell-Carter-408878","Nikola-Vucevic-13296","Lonzo-Ball-37885","TJ-Warren-18634","LaMarcus-Aldridge-1349","50000","280.87"
"Josh-Hart-37889","Eric-Gordon-1077","Tobias-Harris-13332","LaMarcus-Aldridge-1349","Clint-Capela-18610","De'Anthony-Melton-409081","Jonathan-Isaac-37841","Nikola-Vucevic-13296","50000","280.63"
"De'Anthony-Melton-409081","Eric-Gordon-1077","TJ-Warren-18634","Bobby-Portis-18909","Deandre-Ayton-409301","Lonzo-Ball-37885","LaMarcus-Aldridge-1349","Nikola-Vucevic-13296","50000","280.46"
"D.J.-Augustin-1064","Eric-Gordon-1077","TJ-Warren-18634","LaMarcus-Aldridge-1349","Nikola-Vucevic-13296","Lonzo-Ball-37885","DeMar-DeRozan-1053","De'Anthony-Melton-409081","50000","280.01"
"D.J.-Augustin-1064","Eric-Gordon-1077","Jonathan-Isaac-37841","LaMarcus-Aldridge-1349","Deandre-Ayton-409301","De'Anthony-Melton-409081","DeMar-DeRozan-1053","Nikola-Vucevic-13296","50000","279.87"
"Josh-Hart-37889","De'Anthony-Melton-409081","Tobias-Harris-13332","LaMarcus-Aldridge-1349","Deandre-Ayton-409301","Lonzo-Ball-37885","Jonathan-Isaac-37841","Nikola-Vucevic-13296","49800","279.87"
"De'Anthony-Melton-409081","Shai-Gilgeous-Alexander-408990","Jonathan-Isaac-37841","LaMarcus-Aldridge-1349","Clint-Capela-18610","Lonzo-Ball-37885","TJ-Warren-18634","Nikola-Vucevic-13296","49800","279.67"
"D.J.-Augustin-1064","De'Anthony-Melton-409081","Eric-Gordon-1077","LaMarcus-Aldridge-1349","Clint-Capela-18610","Lonzo-Ball-37885","TJ-Warren-18634","Nikola-Vucevic-13296","49700","279.66"
"Josh-Hart-37889","Eric-Gordon-1077","Tobias-Harris-13332","LaMarcus-Aldridge-1349","Nikola-Vucevic-13296","De'Anthony-Melton-409081","Josh-Jackson-37890","Deandre-Ayton-409301","50000","279.56"
"De'Anthony-Melton-409081","Eric-Gordon-1077","Justin-Holiday-14559","LaMarcus-Aldridge-1349","Deandre-Ayton-409301","Lonzo-Ball-37885","TJ-Warren-18634","Nikola-Vucevic-13296","49800","279.44"
"De'Anthony-Melton-409081","Eric-Gordon-1077","Jonathan-Isaac-37841","TJ-Warren-18634","LaMarcus-Aldridge-1349","DeMar-DeRozan-1053","Josh-Jackson-37890","Nikola-Vucevic-13296","49800","279.37"
"Josh-Hart-37889","Eric-Gordon-1077","Tobias-Harris-13332","Wendell-Carter-408878","Nikola-Vucevic-13296","De'Anthony-Melton-409081","LaMarcus-Aldridge-1349","Deandre-Ayton-409301","50000","279.36"
"De'Anthony-Melton-409081","Eric-Gordon-1077","TJ-Warren-18634","LaMarcus-Aldridge-1349","Nikola-Vucevic-13296","Shai-Gilgeous-Alexander-408990","Josh-Jackson-37890","Clint-Capela-18610","50000","279.36"
"De'Anthony-Melton-409081","DeMar-DeRozan-1053","Eric-Gordon-1077","Jonathan-Isaac-37841","Deandre-Ayton-409301","Lonzo-Ball-37885","TJ-Warren-18634","Nikola-Vucevic-13296","49900","279.35"
"D.J.-Augustin-1064","Eric-Gordon-1077","Tobias-Harris-13332","LaMarcus-Aldridge-1349","Clint-Capela-18610","De'Anthony-Melton-409081","Jonathan-Isaac-37841","Nikola-Vucevic-13296","49800","279.32"
"De'Anthony-Melton-409081","Eric-Gordon-1077","Jonathan-Isaac-37841","LaMarcus-Aldridge-1349","Deandre-Ayton-409301","Lonzo-Ball-37885","DeMar-DeRozan-1053","Tobias-Harris-13332","50000","279.3"
"Josh-Hart-37889","Eric-Gordon-1077","Wesley-Matthews-1339","LaMarcus-Aldridge-1349","Nikola-Vucevic-13296","De'Anthony-Melton-409081","Jonathan-Isaac-37841","James-Harden-1037","50000","279.29"
"De'Anthony-Melton-409081","Eric-Gordon-1077","Jonathan-Isaac-37841","Harrison-Barnes-13901","Nikola-Vucevic-13296","Lonzo-Ball-37885","LaMarcus-Aldridge-1349","Clint-Capela-18610","50000","279.25"
"De'Anthony-Melton-409081","Eric-Gordon-1077","Justin-Holiday-14559","Tobias-Harris-13332","Nikola-Vucevic-13296","Lonzo-Ball-37885","LaMarcus-Aldridge-1349","TJ-Warren-18634","49900","279.24"
"De'Anthony-Melton-409081","James-Harden-1037","Eric-Gordon-1077","LaMarcus-Aldridge-1349","Deandre-Ayton-409301","Shai-Gilgeous-Alexander-408990","TJ-Warren-18634","Jonathan-Isaac-37841","50000","279.21"
"De'Anthony-Melton-409081","Eric-Gordon-1077","Jonathan-Isaac-37841","Wendell-Carter-408878","LaMarcus-Aldridge-1349","DeMar-DeRozan-1053","TJ-Warren-18634","Nikola-Vucevic-13296","49800","279.17"
"De'Anthony-Melton-409081","Wesley-Matthews-1339","TJ-Warren-18634","LaMarcus-Aldridge-1349","Nikola-Vucevic-13296","Lonzo-Ball-37885","DeMar-DeRozan-1053","Jonathan-Isaac-37841","50000","279.16"
"De'Anthony-Melton-409081","Eric-Gordon-1077","Danilo-Gallinari-1329","LaMarcus-Aldridge-1349","Deandre-Ayton-409301","Lonzo-Ball-37885","Jonathan-Isaac-37841","Nikola-Vucevic-13296","49700","279.16"
"De'Anthony-Melton-409081","Eric-Gordon-1077","TJ-Warren-18634","Wendell-Carter-408878","Nikola-Vucevic-13296","Shai-Gilgeous-Alexander-408990","LaMarcus-Aldridge-1349","Clint-Capela-18610","50000","279.16"
"De'Anthony-Melton-409081","Eric-Gordon-1077","Tobias-Harris-13332","Jonathan-Isaac-37841","Nikola-Vucevic-13296","Lonzo-Ball-37885","DeMar-DeRozan-1053","TJ-Warren-18634","50000","279.15"
"D.J.-Augustin-1064","De'Anthony-Melton-409081","Eric-Gordon-1077","Tobias-Harris-13332","Nikola-Vucevic-13296","Lonzo-Ball-37885","LaMarcus-Aldridge-1349","DeAndre-Jordan-1486","50000","279.1"
"De'Anthony-Melton-409081","Eric-Gordon-1077","Tobias-Harris-13332","LaMarcus-Aldridge-1349","Deandre-Ayton-409301","Justin-Holiday-14559","Jonathan-Isaac-37841","Nikola-Vucevic-13296","49900","279.1"
"Josh-Hart-37889","De'Anthony-Melton-409081","Eric-Gordon-1077","LaMarcus-Aldridge-1349","JaVale-McGee-1485","James-Harden-1037","Jonathan-Isaac-37841","Nikola-Vucevic-13296","49900","279.02"
"De'Anthony-Melton-409081","Eric-Gordon-1077","Tobias-Harris-13332","Danilo-Gallinari-1329","LaMarcus-Aldridge-1349","Lonzo-Ball-37885","Jonathan-Isaac-37841","Nikola-Vucevic-13296","49800","278.96"
"De'Anthony-Melton-409081","Eric-Gordon-1077","Tobias-Harris-13332","LaMarcus-Aldridge-1349","Clint-Capela-18610","Lonzo-Ball-37885","Jonathan-Isaac-37841","Deandre-Ayton-409301","49700","278.95"
"De'Anthony-Melton-409081","DeMar-DeRozan-1053","Jonathan-Isaac-37841","LaMarcus-Aldridge-1349","JaVale-McGee-1485","Lonzo-Ball-37885","TJ-Warren-18634","Nikola-Vucevic-13296","49900","278.89"
"De'Anthony-Melton-409081","Shai-Gilgeous-Alexander-408990","Eric-Gordon-1077","LaMarcus-Aldridge-1349","Deandre-Ayton-409301","Lonzo-Ball-37885","TJ-Warren-18634","Nikola-Vucevic-13296","49400","278.86"
"D.J.-Augustin-1064","De'Anthony-Melton-409081","Eric-Gordon-1077","LaMarcus-Aldridge-1349","Nikola-Vucevic-13296","Shai-Gilgeous-Alexander-408990","Jonathan-Isaac-37841","James-Harden-1037","49900","278.84"
"De'Anthony-Melton-409081","Wesley-Matthews-1339","Jonathan-Isaac-37841","LaMarcus-Aldridge-1349","Clint-Capela-18610","Lonzo-Ball-37885","TJ-Warren-18634","Nikola-Vucevic-13296","49700","278.81"
"De'Anthony-Melton-409081","Eric-Gordon-1077","Trevor-Ariza-1323","LaMarcus-Aldridge-1349","Nikola-Vucevic-13296","Lonzo-Ball-37885","TJ-Warren-18634","Deandre-Ayton-409301","49700","278.81"
"De'Anthony-Melton-409081","Eric-Gordon-1077","Tobias-Harris-13332","Jonathan-Isaac-37841","Clint-Capela-18610","Lonzo-Ball-37885","TJ-Warren-18634","Nikola-Vucevic-13296","49700","278.8"
"De'Anthony-Melton-409081","Eric-Gordon-1077","TJ-Warren-18634","LaMarcus-Aldridge-1349","DeAndre-Jordan-1486","Lonzo-Ball-37885","Josh-Jackson-37890","Nikola-Vucevic-13296","49700","278.8"
"Patrick-Beverley-14108","Eric-Gordon-1077","Tobias-Harris-13332","LaMarcus-Aldridge-1349","Deandre-Ayton-409301","De'Anthony-Melton-409081","TJ-Warren-18634","Nikola-Vucevic-13296","50000","278.73"
"Josh-Hart-37889","De'Anthony-Melton-409081","Eric-Gordon-1077","LaMarcus-Aldridge-1349","Nikola-Vucevic-13296","DeMar-DeRozan-1053","Jonathan-Isaac-37841","DeAndre-Jordan-1486","50000","278.71"
"De'Anthony-Melton-409081","Shai-Gilgeous-Alexander-408990","Eric-Gordon-1077","Tobias-Harris-13332","LaMarcus-Aldridge-1349","Lonzo-Ball-37885","TJ-Warren-18634","Nikola-Vucevic-13296","49500","278.66"
"Josh-Hart-37889","Eric-Gordon-1077","Jonathan-Isaac-37841","LaMarcus-Aldridge-1349","JaVale-McGee-1485","De'Anthony-Melton-409081","LeBron-James-1227","Nikola-Vucevic-13296","50000","278.66"
"De'Anthony-Melton-409081","Eric-Gordon-1077","DeMar-DeRozan-1053","LaMarcus-Aldridge-1349","Nikola-Vucevic-13296","Lonzo-Ball-37885","Josh-Jackson-37890","Jonathan-Isaac-37841","49600","278.63"
"De'Anthony-Melton-409081","Shai-Gilgeous-Alexander-408990","Eric-Gordon-1077","LaMarcus-Aldridge-1349","Clint-Capela-18610","Lonzo-Ball-37885","Josh-Jackson-37890","Nikola-Vucevic-13296","49800","278.62"
"De'Anthony-Melton-409081","Eric-Gordon-1077","Trevor-Ariza-1323","Tobias-Harris-13332","Nikola-Vucevic-13296","Lonzo-Ball-37885","LaMarcus-Aldridge-1349","TJ-Warren-18634","49800","278.61"
"De'Anthony-Melton-409081","Eric-Gordon-1077","TJ-Warren-18634","Wendell-Carter-408878","DeAndre-Jordan-1486","Lonzo-Ball-37885","LaMarcus-Aldridge-1349","Nikola-Vucevic-13296","49700","278.6"
"De'Anthony-Melton-409081","Shai-Gilgeous-Alexander-408990","TJ-Warren-18634","LaMarcus-Aldridge-1349","Deandre-Ayton-409301","Lonzo-Ball-37885","Josh-Jackson-37890","Nikola-Vucevic-13296","49800","278.6"
"De'Anthony-Melton-409081","Eric-Gordon-1077","Jonathan-Isaac-37841","Bobby-Portis-18909","Nikola-Vucevic-13296","DeMar-DeRozan-1053","TJ-Warren-18634","LaMarcus-Aldridge-1349","49900","278.56"
"D.J.-Augustin-1064","De'Anthony-Melton-409081","Tobias-Harris-13332","LaMarcus-Aldridge-1349","Deandre-Ayton-409301","Lonzo-Ball-37885","Jonathan-Isaac-37841","Nikola-Vucevic-13296","49600","278.56"
"Josh-Hart-37889","Eric-Gordon-1077","Danilo-Gallinari-1329","LaMarcus-Aldridge-1349","Deandre-Ayton-409301","De'Anthony-Melton-409081","TJ-Warren-18634","Nikola-Vucevic-13296","49900","278.53"
"De'Anthony-Melton-409081","Eric-Gordon-1077","Tobias-Harris-13332","LaMarcus-Aldridge-1349","Deandre-Ayton-409301","Shai-Gilgeous-Alexander-408990","Jonathan-Isaac-37841","Nikola-Vucevic-13296","49500","278.52"
"De'Anthony-Melton-409081","Eric-Gordon-1077","Jonathan-Isaac-37841","LaMarcus-Aldridge-1349","Deandre-Ayton-409301","Lonzo-Ball-37885","TJ-Warren-18634","Nikola-Vucevic-13296","48900","278.52"
"D.J.-Augustin-1064","Josh-Hart-37889","Eric-Gordon-1077","LaMarcus-Aldridge-1349","Nikola-Vucevic-13296","De'Anthony-Melton-409081","DeMar-DeRozan-1053","Deandre-Ayton-409301","50000","278.5"
"De'Anthony-Melton-409081","Eric-Gordon-1077","TJ-Warren-18634","LaMarcus-Aldridge-1349","Nikola-Vucevic-13296","Wesley-Matthews-1339","Josh-Jackson-37890","Clint-Capela-18610","49900","278.5"
"D.J.-Augustin-1064","De'Anthony-Melton-409081","Eric-Gordon-1077","Jonathan-Isaac-37841","Nikola-Vucevic-13296","Shai-Gilgeous-Alexander-408990","LeBron-James-1227","LaMarcus-Aldridge-1349","50000","278.48"
"De'Anthony-Melton-409081","Eric-Gordon-1077","Tobias-Harris-13332","LaMarcus-Aldridge-1349","Deandre-Ayton-409301","Avery-Bradley-941","TJ-Warren-18634","Nikola-Vucevic-13296","49900","278.48"
"De'Anthony-Melton-409081","James-Harden-1037","Eric-Gordon-1077","LaMarcus-Aldridge-1349","Deandre-Ayton-409301","Lonzo-Ball-37885","Jonathan-Isaac-37841","Shai-Gilgeous-Alexander-408990","49800","278.47"
"De'Anthony-Melton-409081","Eric-Gordon-1077","Tobias-Harris-13332","LaMarcus-Aldridge-1349","Nikola-Vucevic-13296","Lonzo-Ball-37885","P.J.-Tucker-13947","Deandre-Ayton-409301","50000","278.47"
"De'Anthony-Melton-409081","DeMar-DeRozan-1053","Eric-Gordon-1077","Wendell-Carter-408878","LaMarcus-Aldridge-1349","Lonzo-Ball-37885","Jonathan-Isaac-37841","Nikola-Vucevic-13296","49600","278.43"
"De'Anthony-Melton-409081","Eric-Gordon-1077","Jonathan-Isaac-37841","LaMarcus-Aldridge-1349","Clint-Capela-18610","Evan-Fournier-13913","TJ-Warren-18634","Nikola-Vucevic-13296","50000","278.42"
"De'Anthony-Melton-409081","Shai-Gilgeous-Alexander-408990","Eric-Gordon-1077","Wendell-Carter-408878","Clint-Capela-18610","Lonzo-Ball-37885","LaMarcus-Aldridge-1349","Nikola-Vucevic-13296","49800","278.42"
"De'Anthony-Melton-409081","Shai-Gilgeous-Alexander-408990","TJ-Warren-18634","Wendell-Carter-408878","Deandre-Ayton-409301","Lonzo-Ball-37885","LaMarcus-Aldridge-1349","Nikola-Vucevic-13296","49800","278.4"
"De'Anthony-Melton-409081","Shai-Gilgeous-Alexander-408990","Tobias-Harris-13332","TJ-Warren-18634","LaMarcus-Aldridge-1349","Lonzo-Ball-37885","Josh-Jackson-37890","Nikola-Vucevic-13296","49900","278.4"
"De'Anthony-Melton-409081","Eric-Gordon-1077","Wesley-Matthews-1339","Jonathan-Isaac-37841","LaMarcus-Aldridge-1349","James-Harden-1037","TJ-Warren-18634","Deandre-Ayton-409301","49900","278.35"
"Josh-Hart-37889","Eric-Gordon-1077","Tobias-Harris-13332","Danilo-Gallinari-1329","Nikola-Vucevic-13296","De'Anthony-Melton-409081","TJ-Warren-18634","LaMarcus-Aldridge-1349","50000","278.33"
"De'Anthony-Melton-409081","Eric-Gordon-1077","Tobias-Harris-13332","Jonathan-Isaac-37841","Nikola-Vucevic-13296","Lonzo-Ball-37885","TJ-Warren-18634","LaMarcus-Aldridge-1349","49000","278.32"
"De'Anthony-Melton-409081","James-Harden-1037","Eric-Gordon-1077","Jonathan-Isaac-37841","Nikola-Vucevic-13296","Lonzo-Ball-37885","TJ-Warren-18634","Shai-Gilgeous-Alexander-408990","49800","278.32"
"Josh-Hart-37889","Eric-Gordon-1077","Tobias-Harris-13332","LaMarcus-Aldridge-1349","Deandre-Ayton-409301","De'Anthony-Melton-409081","TJ-Warren-18634","Clint-Capela-18610","49900","278.32"
"Josh-Hart-37889","De'Anthony-Melton-409081","TJ-Warren-18634","LaMarcus-Aldridge-1349","Nikola-Vucevic-13296","Lonzo-Ball-37885","DeMar-DeRozan-1053","Jonathan-Isaac-37841","49600","278.31"
"De'Anthony-Melton-409081","Eric-Gordon-1077","TJ-Warren-18634","Wendell-Carter-408878","Nikola-Vucevic-13296","Wesley-Matthews-1339","LaMarcus-Aldridge-1349","Clint-Capela-18610","49900","278.3"
"De'Anthony-Melton-409081","Eric-Gordon-1077","Jonathan-Isaac-37841","LaMarcus-Aldridge-1349","Clint-Capela-18610","Lonzo-Ball-37885","Josh-Jackson-37890","Nikola-Vucevic-13296","49300","278.28"
"De'Anthony-Melton-409081","James-Harden-1037","Eric-Gordon-1077","Tobias-Harris-13332","LaMarcus-Aldridge-1349","Lonzo-Ball-37885","Jonathan-Isaac-37841","Shai-Gilgeous-Alexander-408990","49900","278.27"
"D.J.-Augustin-1064","Eric-Gordon-1077","Tobias-Harris-13332","LaMarcus-Aldridge-1349","Nikola-Vucevic-13296","De'Anthony-Melton-409081","Josh-Jackson-37890","Deandre-Ayton-409301","49800","278.25"
"De'Anthony-Melton-409081","Wesley-Matthews-1339","Tobias-Harris-13332","LaMarcus-Aldridge-1349","Nikola-Vucevic-13296","Lonzo-Ball-37885","Jonathan-Isaac-37841","DeAndre-Jordan-1486","50000","278.25"
"De'Anthony-Melton-409081","Shai-Gilgeous-Alexander-408990","Tobias-Harris-13332","Wendell-Carter-408878","Nikola-Vucevic-13296","Lonzo-Ball-37885","TJ-Warren-18634","LaMarcus-Aldridge-1349","49900","278.2"
"De'Anthony-Melton-409081","Eric-Gordon-1077","Harrison-Barnes-13901","LaMarcus-Aldridge-1349","Deandre-Ayton-409301","Lonzo-Ball-37885","Josh-Jackson-37890","Nikola-Vucevic-13296","50000","278.18"
"De'Anthony-Melton-409081","DeMar-DeRozan-1053","Jonathan-Isaac-37841","Wendell-Carter-408878","Nikola-Vucevic-13296","Lonzo-Ball-37885","Josh-Jackson-37890","LaMarcus-Aldridge-1349","50000","278.17"
"De'Anthony-Melton-409081","Wesley-Matthews-1339","Eric-Gordon-1077","Tobias-Harris-13332","LaMarcus-Aldridge-1349","James-Harden-1037","TJ-Warren-18634","Jonathan-Isaac-37841","50000","278.15"
"De'Anthony-Melton-409081","Derrick-White-37858","Eric-Gordon-1077","Tobias-Harris-13332","Nikola-Vucevic-13296","Lonzo-Ball-37885","LaMarcus-Aldridge-1349","Deandre-Ayton-409301","50000","278.14"
"De'Anthony-Melton-409081","Shai-Gilgeous-Alexander-408990","Eric-Gordon-1077","Jonathan-Isaac-37841","LaMarcus-Aldridge-1349","Lonzo-Ball-37885","LeBron-James-1227","Deandre-Ayton-409301","49900","278.11"
"De'Anthony-Melton-409081","Eric-Gordon-1077","Wesley-Matthews-1339","LaMarcus-Aldridge-1349","Nikola-Vucevic-13296","Lonzo-Ball-37885","Josh-Jackson-37890","DeMar-DeRozan-1053","50000","278.11"
"De'Anthony-Melton-409081","Eric-Gordon-1077","Jonathan-Isaac-37841","LaMarcus-Aldridge-1349","JaVale-McGee-1485","James-Harden-1037","TJ-Warren-18634","Deandre-Ayton-409301","49800","278.08"
"De'Anthony-Melton-409081","Eric-Gordon-1077","Jonathan-Isaac-37841","Wendell-Carter-408878","Clint-Capela-18610","Lonzo-Ball-37885","LaMarcus-Aldridge-1349","Nikola-Vucevic-13296","49300","278.08"
"D.J.-Augustin-1064","Eric-Gordon-1077","Tobias-Harris-13332","Wendell-Carter-408878","Nikola-Vucevic-13296","De'Anthony-Melton-409081","LaMarcus-Aldridge-1349","Deandre-Ayton-409301","49800","278.05"
"D.J.-Augustin-1064","De'Anthony-Melton-409081","Wesley-Matthews-1339","Tobias-Harris-13332","Deandre-Ayton-409301","Lonzo-Ball-37885","LaMarcus-Aldridge-1349","Nikola-Vucevic-13296","50000","278.04"
"De'Anthony-Melton-409081","Wesley-Matthews-1339","Eric-Gordon-1077","Tobias-Harris-13332","Nikola-Vucevic-13296","Shai-Gilgeous-Alexander-408990","LaMarcus-Aldridge-1349","Deandre-Ayton-409301","49900","278.0"
"Josh-Hart-37889","Eric-Gordon-1077","TJ-Warren-18634","LaMarcus-Aldridge-1349","Nikola-Vucevic-13296","De'Anthony-Melton-409081","DeMar-DeRozan-1053","Josh-Jackson-37890","49800","278.0"
"De'Anthony-Melton-409081","Wesley-Matthews-1339","Eric-Gordon-1077","LaMarcus-Aldridge-1349","Deandre-Ayton-409301","Lonzo-Ball-37885","TJ-Warren-18634","Nikola-Vucevic-13296","49300","278.0"
"De'Anthony-Melton-409081","Eric-Gordon-1077","Jonathan-Isaac-37841","TJ-Warren-18634","LaMarcus-Aldridge-1349","Wesley-Matthews-1339","LeBron-James-1227","Deandre-Ayton-409301","50000","277.99"
"De'Anthony-Melton-409081","Eric-Gordon-1077","TJ-Warren-18634","Bobby-Portis-18909","Nikola-Vucevic-13296","Lonzo-Ball-37885","LaMarcus-Aldridge-1349","DeAndre-Jordan-1486","49800","277.99"
"Patrick-Beverley-14108","De'Anthony-Melton-409081","Eric-Gordon-1077","Tobias-Harris-13332","Nikola-Vucevic-13296","Lonzo-Ball-37885","LaMarcus-Aldridge-1349","Deandre-Ayton-409301","49800","277.99"
"D.J.-Augustin-1064","Eric-Gordon-1077","Wesley-Matthews-1339","LaMarcus-Aldridge-1349","Nikola-Vucevic-13296","De'Anthony-Melton-409081","Jonathan-Isaac-37841","James-Harden-1037","49800","277.98"
"De'Anthony-Melton-409081","Eric-Gordon-1077","Harrison-Barnes-13901","Wendell-Carter-408878","Nikola-Vucevic-13296","Lonzo-Ball-37885","LaMarcus-Aldridge-1349","Deandre-Ayton-409301","50000","277.98"
"Josh-Hart-37889","De'Anthony-Melton-409081","Eric-Gordon-1077","TJ-Warren-18634","Nikola-Vucevic-13296","Lonzo-Ball-37885","DeMar-DeRozan-1053","Deandre-Ayton-409301","49900","277.98"
"Josh-Hart-37889","De'Anthony-Melton-409081","Tobias-Harris-13332","LaMarcus-Aldridge-1349","Clint-Capela-18610","Shai-Gilgeous-Alexander-408990","Jonathan-Isaac-37841","Nikola-Vucevic-13296","49900","277.96"
"De'Anthony-Melton-409081","Shai-Gilgeous-Alexander-408990","Eric-Gordon-1077","Jonathan-Isaac-37841","Nikola-Vucevic-13296","Lonzo-Ball-37885","LeBron-James-1227","TJ-Warren-18634","49900","277.96"
