"Derrick-Rose-1086","Kevin-Huerter-408969","James-Johnson-1195","Anthony-Davis-13895","Channing-Frye-1484","Andrew-Wiggins-18620","Dewayne-Dedmon-16894","Julius-Randle-18632","49600","284.85"

"Derrick-Rose-1086","Kevin-Huerter-408969","James-Johnson-1195","Anthony-Davis-13895","Channing-Frye-1484","Andrew-Wiggins-18620","Dewayne-Dedmon-16894","Julius-Randle-18632","49600","284.85"
"Derrick-Rose-1086","Kevin-Huerter-408969","James-Johnson-1195","Anthony-Davis-13895","Dewayne-Dedmon-16894","Andrew-Wiggins-18620","Dorian-Finney-Smith-36032","Julius-Randle-18632","49900","284.33"
"Derrick-Rose-1086","Andrew-Wiggins-18620","James-Johnson-1195","Anthony-Davis-13895","Channing-Frye-1484","Alec-Burks-13353","Dewayne-Dedmon-16894","Julius-Randle-18632","50000","284.1"
"Derrick-Rose-1086","Andrew-Wiggins-18620","Dorian-Finney-Smith-36032","Julius-Randle-18632","Hassan-Whiteside-18664","DeAndre-Bembry-35198","Dewayne-Dedmon-16894","Karl-Anthony-Towns-18937","50000","283.34"
"Derrick-Rose-1086","Kevin-Huerter-408969","James-Johnson-1195","Julius-Randle-18632","Karl-Anthony-Towns-18937","E'Twaun-Moore-18582","Dewayne-Dedmon-16894","Hassan-Whiteside-18664","49800","283.31"
"Derrick-Rose-1086","Andrew-Wiggins-18620","Harrison-Barnes-13901","Julius-Randle-18632","Karl-Anthony-Towns-18937","E'Twaun-Moore-18582","Dewayne-Dedmon-16894","James-Johnson-1195","49900","283.2"
"Derrick-Rose-1086","Kent-Bazemore-13987","James-Johnson-1195","Julius-Randle-18632","Channing-Frye-1484","Andrew-Wiggins-18620","Dewayne-Dedmon-16894","Karl-Anthony-Towns-18937","49500","283.18"
"Derrick-Rose-1086","Kevin-Huerter-408969","Robert-Covington-16874","Dewayne-Dedmon-16894","Karl-Anthony-Towns-18937","Andrew-Wiggins-18620","Channing-Frye-1484","Julius-Randle-18632","49400","283.16"
"Derrick-Rose-1086","Kent-Bazemore-13987","James-Johnson-1195","Anthony-Davis-13895","Channing-Frye-1484","Kevin-Huerter-408969","Dewayne-Dedmon-16894","Julius-Randle-18632","49900","283.1"
"Justise-Winslow-18921","Kevin-Huerter-408969","Andrew-Wiggins-18620","Julius-Randle-18632","Hassan-Whiteside-18664","E'Twaun-Moore-18582","Dewayne-Dedmon-16894","Karl-Anthony-Towns-18937","49900","283.04"
"Derrick-Rose-1086","Andrew-Wiggins-18620","James-Johnson-1195","Anthony-Davis-13895","Channing-Frye-1484","E'Twaun-Moore-18582","Dewayne-Dedmon-16894","Julius-Randle-18632","49400","282.96"
"Derrick-Rose-1086","Dwyane-Wade-967","Andrew-Wiggins-18620","Julius-Randle-18632","Channing-Frye-1484","E'Twaun-Moore-18582","Dewayne-Dedmon-16894","Anthony-Davis-13895","50000","282.94"
"Justise-Winslow-18921","Kent-Bazemore-13987","Kevin-Huerter-408969","Julius-Randle-18632","Channing-Frye-1484","Andrew-Wiggins-18620","Dewayne-Dedmon-16894","Anthony-Davis-13895","50000","282.83"
"Derrick-Rose-1086","Kevin-Huerter-408969","Harrison-Barnes-13901","Anthony-Davis-13895","Hassan-Whiteside-18664","Andrew-Wiggins-18620","Dewayne-Dedmon-16894","Channing-Frye-1484","50000","282.76"
"Derrick-Rose-1086","Andrew-Wiggins-18620","Kevin-Huerter-408969","Julius-Randle-18632","Channing-Frye-1484","Alec-Burks-13353","Dewayne-Dedmon-16894","Anthony-Davis-13895","49800","282.74"
"Justise-Winslow-18921","Jeremy-Lin-916","James-Johnson-1195","Julius-Randle-18632","Karl-Anthony-Towns-18937","Andrew-Wiggins-18620","Dewayne-Dedmon-16894","Hassan-Whiteside-18664","49900","282.68"
"Derrick-Rose-1086","Kent-Bazemore-13987","James-Johnson-1195","Julius-Randle-18632","Karl-Anthony-Towns-18937","Andrew-Wiggins-18620","Dewayne-Dedmon-16894","Dorian-Finney-Smith-36032","49800","282.66"
"Derrick-Rose-1086","Kevin-Huerter-408969","Dorian-Finney-Smith-36032","Julius-Randle-18632","Karl-Anthony-Towns-18937","Andrew-Wiggins-18620","Robert-Covington-16874","Dewayne-Dedmon-16894","49700","282.64"
"Justise-Winslow-18921","Kevin-Huerter-408969","James-Johnson-1195","Anthony-Davis-13895","Karl-Anthony-Towns-18937","Andrew-Wiggins-18620","Channing-Frye-1484","Dewayne-Dedmon-16894","50000","282.63"
"Jeremy-Lin-916","Kevin-Huerter-408969","Kent-Bazemore-13987","Julius-Randle-18632","Hassan-Whiteside-18664","Andrew-Wiggins-18620","Dewayne-Dedmon-16894","Karl-Anthony-Towns-18937","50000","282.62"
"Derrick-Rose-1086","Andrew-Wiggins-18620","James-Johnson-1195","Julius-Randle-18632","Channing-Frye-1484","Trae-Young-409063","Dewayne-Dedmon-16894","Karl-Anthony-Towns-18937","49800","282.6"
"Derrick-Rose-1086","E'Twaun-Moore-18582","Andrew-Wiggins-18620","Julius-Randle-18632","Channing-Frye-1484","Dennis-Smith-Jr.-37847","Dewayne-Dedmon-16894","Anthony-Davis-13895","50000","282.54"
"Justise-Winslow-18921","Kent-Bazemore-13987","Robert-Covington-16874","Dewayne-Dedmon-16894","Karl-Anthony-Towns-18937","Andrew-Wiggins-18620","Channing-Frye-1484","Julius-Randle-18632","50000","282.5"
"Derrick-Rose-1086","Kevin-Huerter-408969","James-Johnson-1195","Julius-Randle-18632","Hassan-Whiteside-18664","Andrew-Wiggins-18620","John-Collins-37823","Dewayne-Dedmon-16894","49700","282.45"
"Derrick-Rose-1086","Andrew-Wiggins-18620","James-Johnson-1195","Anthony-Davis-13895","Dewayne-Dedmon-16894","E'Twaun-Moore-18582","Dorian-Finney-Smith-36032","Julius-Randle-18632","49700","282.44"
"Derrick-Rose-1086","Andrew-Wiggins-18620","Robert-Covington-16874","Dewayne-Dedmon-16894","Karl-Anthony-Towns-18937","Alec-Burks-13353","Channing-Frye-1484","Julius-Randle-18632","49800","282.41"
"Jeremy-Lin-916","Andrew-Wiggins-18620","Kevin-Huerter-408969","Anthony-Davis-13895","Hassan-Whiteside-18664","E'Twaun-Moore-18582","Dewayne-Dedmon-16894","Julius-Randle-18632","49900","282.4"
"Justise-Winslow-18921","Andrew-Wiggins-18620","Robert-Covington-16874","Anthony-Davis-13895","Channing-Frye-1484","E'Twaun-Moore-18582","Dewayne-Dedmon-16894","Julius-Randle-18632","49900","282.28"
"Derrick-Rose-1086","Josh-Richardson-18922","Dorian-Finney-Smith-36032","Julius-Randle-18632","Channing-Frye-1484","Andrew-Wiggins-18620","Dewayne-Dedmon-16894","Karl-Anthony-Towns-18937","49800","282.27"
"Derrick-Rose-1086","Andrew-Wiggins-18620","Dorian-Finney-Smith-36032","Julius-Randle-18632","Hassan-Whiteside-18664","E'Twaun-Moore-18582","Channing-Frye-1484","Anthony-Davis-13895","50000","282.26"
"Derrick-Rose-1086","Andrew-Wiggins-18620","James-Johnson-1195","Julius-Randle-18632","Channing-Frye-1484","Jordan-Clarkson-18631","Dewayne-Dedmon-16894","Karl-Anthony-Towns-18937","49400","282.22"
"Derrick-Rose-1086","Dwyane-Wade-967","Andrew-Wiggins-18620","Julius-Randle-18632","Channing-Frye-1484","Jordan-Clarkson-18631","Dewayne-Dedmon-16894","Karl-Anthony-Towns-18937","50000","282.2"
"Derrick-Rose-1086","Andrew-Wiggins-18620","James-Johnson-1195","Julius-Randle-18632","Hassan-Whiteside-18664","Jrue-Holiday-1073","Channing-Frye-1484","Dewayne-Dedmon-16894","49800","282.18"
"Derrick-Rose-1086","Andrew-Wiggins-18620","Robert-Covington-16874","Julius-Randle-18632","Hassan-Whiteside-18664","Jordan-Clarkson-18631","Dewayne-Dedmon-16894","James-Johnson-1195","50000","282.15"
"Derrick-Rose-1086","Dwyane-Wade-967","James-Johnson-1195","Julius-Randle-18632","Hassan-Whiteside-18664","Andrew-Wiggins-18620","Channing-Frye-1484","Karl-Anthony-Towns-18937","50000","282.14"
"Dwyane-Wade-967","Kevin-Huerter-408969","James-Johnson-1195","Julius-Randle-18632","Karl-Anthony-Towns-18937","Andrew-Wiggins-18620","Dewayne-Dedmon-16894","Hassan-Whiteside-18664","49500","282.14"
"Derrick-Rose-1086","Kevin-Huerter-408969","James-Johnson-1195","Anthony-Davis-13895","Channing-Frye-1484","Jordan-Clarkson-18631","Dewayne-Dedmon-16894","Julius-Randle-18632","49800","282.14"
"Derrick-Rose-1086","Kevin-Huerter-408969","Harrison-Barnes-13901","Julius-Randle-18632","Karl-Anthony-Towns-18937","Andrew-Wiggins-18620","Cedi-Osman-18912","Dewayne-Dedmon-16894","49900","282.09"
"Jeremy-Lin-916","Andrew-Wiggins-18620","Robert-Covington-16874","Julius-Randle-18632","Hassan-Whiteside-18664","E'Twaun-Moore-18582","Dewayne-Dedmon-16894","Karl-Anthony-Towns-18937","49900","282.07"
"Dwyane-Wade-967","Kevin-Huerter-408969","Harrison-Barnes-13901","Julius-Randle-18632","Anthony-Davis-13895","Andrew-Wiggins-18620","James-Johnson-1195","Dewayne-Dedmon-16894","50000","281.95"
"Trae-Young-409063","Kevin-Huerter-408969","Dorian-Finney-Smith-36032","Julius-Randle-18632","Hassan-Whiteside-18664","Andrew-Wiggins-18620","Dewayne-Dedmon-16894","Karl-Anthony-Towns-18937","49900","281.9"
"Justise-Winslow-18921","Derrick-Rose-1086","James-Johnson-1195","Julius-Randle-18632","Channing-Frye-1484","Andrew-Wiggins-18620","Dewayne-Dedmon-16894","Karl-Anthony-Towns-18937","49200","281.88"
"Jordan-Clarkson-18631","Kevin-Huerter-408969","Justise-Winslow-18921","Anthony-Davis-13895","Channing-Frye-1484","Andrew-Wiggins-18620","Dewayne-Dedmon-16894","Julius-Randle-18632","49900","281.87"
"Jeremy-Lin-916","Kent-Bazemore-13987","Robert-Covington-16874","Anthony-Davis-13895","Channing-Frye-1484","Andrew-Wiggins-18620","Dewayne-Dedmon-16894","Julius-Randle-18632","50000","281.86"
"Derrick-Rose-1086","Andrew-Wiggins-18620","Kevin-Huerter-408969","Dewayne-Dedmon-16894","Karl-Anthony-Towns-18937","E'Twaun-Moore-18582","Justise-Winslow-18921","Julius-Randle-18632","49900","281.86"
"Justise-Winslow-18921","Derrick-Rose-1086","Andrew-Wiggins-18620","Julius-Randle-18632","Channing-Frye-1484","Dwyane-Wade-967","Dewayne-Dedmon-16894","Karl-Anthony-Towns-18937","49800","281.86"
"Jordan-Clarkson-18631","Kevin-Huerter-408969","Harrison-Barnes-13901","Julius-Randle-18632","Anthony-Davis-13895","Andrew-Wiggins-18620","Channing-Frye-1484","Dewayne-Dedmon-16894","49700","281.85"
"Derrick-Rose-1086","Kevin-Huerter-408969","Cedi-Osman-18912","Julius-Randle-18632","Channing-Frye-1484","Andrew-Wiggins-18620","Dewayne-Dedmon-16894","Anthony-Davis-13895","49400","281.85"
"Derrick-Rose-1086","Dwyane-Wade-967","Harrison-Barnes-13901","Dewayne-Dedmon-16894","Karl-Anthony-Towns-18937","Andrew-Wiggins-18620","Channing-Frye-1484","Julius-Randle-18632","49600","281.84"
"Derrick-Rose-1086","Andrew-Wiggins-18620","Kevin-Huerter-408969","Harrison-Barnes-13901","Karl-Anthony-Towns-18937","E'Twaun-Moore-18582","Julius-Randle-18632","Dewayne-Dedmon-16894","49700","281.84"
"Derrick-Rose-1086","Kent-Bazemore-13987","Kevin-Huerter-408969","Julius-Randle-18632","Channing-Frye-1484","Andrew-Wiggins-18620","Dewayne-Dedmon-16894","Karl-Anthony-Towns-18937","49300","281.82"
"Justise-Winslow-18921","Kevin-Huerter-408969","James-Johnson-1195","Julius-Randle-18632","Hassan-Whiteside-18664","Andrew-Wiggins-18620","Channing-Frye-1484","Anthony-Davis-13895","49900","281.81"
"Justise-Winslow-18921","Derrick-Rose-1086","Robert-Covington-16874","Julius-Randle-18632","Hassan-Whiteside-18664","Andrew-Wiggins-18620","Dewayne-Dedmon-16894","James-Johnson-1195","49800","281.81"
"Derrick-Rose-1086","Jordan-Clarkson-18631","Andrew-Wiggins-18620","Julius-Randle-18632","Channing-Frye-1484","Dennis-Smith-Jr.-37847","Dewayne-Dedmon-16894","Karl-Anthony-Towns-18937","50000","281.8"
"Justise-Winslow-18921","Kevin-Huerter-408969","James-Johnson-1195","Anthony-Davis-13895","Channing-Frye-1484","Derrick-Rose-1086","Dewayne-Dedmon-16894","Julius-Randle-18632","49600","281.8"
"Derrick-Rose-1086","Kevin-Huerter-408969","Harrison-Barnes-13901","Julius-Randle-18632","Anthony-Davis-13895","Dwyane-Wade-967","Channing-Frye-1484","Dewayne-Dedmon-16894","50000","281.76"
"Derrick-Rose-1086","Kent-Bazemore-13987","Kevin-Huerter-408969","Julius-Randle-18632","Hassan-Whiteside-18664","Andrew-Wiggins-18620","Robert-Covington-16874","Dewayne-Dedmon-16894","49900","281.75"
"Dennis-Smith-Jr.-37847","Kevin-Huerter-408969","James-Johnson-1195","Julius-Randle-18632","Karl-Anthony-Towns-18937","Andrew-Wiggins-18620","Dewayne-Dedmon-16894","Hassan-Whiteside-18664","49500","281.74"
"Derrick-Rose-1086","Andrew-Wiggins-18620","James-Johnson-1195","Julius-Randle-18632","Hassan-Whiteside-18664","Dennis-Smith-Jr.-37847","Channing-Frye-1484","Karl-Anthony-Towns-18937","50000","281.74"
"Alec-Burks-13353","Kent-Bazemore-13987","Dorian-Finney-Smith-36032","Julius-Randle-18632","Hassan-Whiteside-18664","Andrew-Wiggins-18620","Dewayne-Dedmon-16894","Karl-Anthony-Towns-18937","50000","281.73"
"Derrick-Rose-1086","Andrew-Wiggins-18620","James-Johnson-1195","Julius-Randle-18632","Karl-Anthony-Towns-18937","Jordan-Clarkson-18631","Dewayne-Dedmon-16894","Dorian-Finney-Smith-36032","49700","281.7"
"Jeremy-Lin-916","Kevin-Huerter-408969","Andrew-Wiggins-18620","Julius-Randle-18632","Hassan-Whiteside-18664","Jordan-Clarkson-18631","Dewayne-Dedmon-16894","Karl-Anthony-Towns-18937","49900","281.66"
"Derrick-Rose-1086","Andrew-Wiggins-18620","Kevin-Huerter-408969","Julius-Randle-18632","Channing-Frye-1484","E'Twaun-Moore-18582","Dewayne-Dedmon-16894","Anthony-Davis-13895","49200","281.6"
"Jeremy-Lin-916","Kevin-Huerter-408969","James-Johnson-1195","Julius-Randle-18632","Karl-Anthony-Towns-18937","Derrick-Rose-1086","Dewayne-Dedmon-16894","Hassan-Whiteside-18664","49600","281.59"
"Derrick-Rose-1086","Kevin-Huerter-408969","James-Johnson-1195","Robert-Covington-16874","Karl-Anthony-Towns-18937","Andrew-Wiggins-18620","Dewayne-Dedmon-16894","Hassan-Whiteside-18664","49900","281.55"
"Dennis-Smith-Jr.-37847","Kevin-Huerter-408969","Harrison-Barnes-13901","Julius-Randle-18632","Anthony-Davis-13895","Andrew-Wiggins-18620","James-Johnson-1195","Dewayne-Dedmon-16894","50000","281.55"
"Jeremy-Lin-916","Kevin-Huerter-408969","Dorian-Finney-Smith-36032","Julius-Randle-18632","Anthony-Davis-13895","E'Twaun-Moore-18582","Dewayne-Dedmon-16894","Karl-Anthony-Towns-18937","50000","281.54"
"Justise-Winslow-18921","Andrew-Wiggins-18620","Robert-Covington-16874","Dewayne-Dedmon-16894","Karl-Anthony-Towns-18937","Jordan-Clarkson-18631","Channing-Frye-1484","Julius-Randle-18632","49900","281.54"
"Jordan-Clarkson-18631","Kevin-Huerter-408969","Dorian-Finney-Smith-36032","Julius-Randle-18632","Hassan-Whiteside-18664","Andrew-Wiggins-18620","Dewayne-Dedmon-16894","Karl-Anthony-Towns-18937","49500","281.52"
"Derrick-Rose-1086","Andrew-Wiggins-18620","Dorian-Finney-Smith-36032","Julius-Randle-18632","Hassan-Whiteside-18664","Jordan-Clarkson-18631","Channing-Frye-1484","Karl-Anthony-Towns-18937","50000","281.52"
"Alec-Burks-13353","Andrew-Wiggins-18620","Dorian-Finney-Smith-36032","Julius-Randle-18632","Hassan-Whiteside-18664","E'Twaun-Moore-18582","Dewayne-Dedmon-16894","Anthony-Davis-13895","49900","281.51"
"Justise-Winslow-18921","Kevin-Huerter-408969","Harrison-Barnes-13901","Julius-Randle-18632","Anthony-Davis-13895","Andrew-Wiggins-18620","Channing-Frye-1484","Dewayne-Dedmon-16894","49500","281.51"
"Justise-Winslow-18921","Jeremy-Lin-916","James-Johnson-1195","Julius-Randle-18632","Dewayne-Dedmon-16894","Derrick-Rose-1086","Andrew-Wiggins-18620","Karl-Anthony-Towns-18937","49900","281.5"
"Jeremy-Lin-916","Derrick-Rose-1086","Harrison-Barnes-13901","Julius-Randle-18632","Karl-Anthony-Towns-18937","Andrew-Wiggins-18620","Dewayne-Dedmon-16894","James-Johnson-1195","49700","281.48"
"Justise-Winslow-18921","Derrick-Rose-1086","Andrew-Wiggins-18620","Julius-Randle-18632","Channing-Frye-1484","Dennis-Smith-Jr.-37847","Dewayne-Dedmon-16894","Karl-Anthony-Towns-18937","49800","281.46"
"Derrick-Rose-1086","Andrew-Wiggins-18620","Harrison-Barnes-13901","Dewayne-Dedmon-16894","Karl-Anthony-Towns-18937","Dennis-Smith-Jr.-37847","Channing-Frye-1484","Julius-Randle-18632","49600","281.44"
"Jeremy-Lin-916","Kent-Bazemore-13987","Kevin-Huerter-408969","Julius-Randle-18632","Karl-Anthony-Towns-18937","Derrick-Rose-1086","Andrew-Wiggins-18620","Dewayne-Dedmon-16894","50000","281.44"
"Derrick-Rose-1086","Kevin-Huerter-408969","Dorian-Finney-Smith-36032","Julius-Randle-18632","Hassan-Whiteside-18664","Dwyane-Wade-967","Dewayne-Dedmon-16894","Karl-Anthony-Towns-18937","49800","281.43"
"Derrick-Rose-1086","Kent-Bazemore-13987","Robert-Covington-16874","Dewayne-Dedmon-16894","Karl-Anthony-Towns-18937","Kevin-Huerter-408969","Channing-Frye-1484","Julius-Randle-18632","49700","281.41"
"Justise-Winslow-18921","Andrew-Wiggins-18620","Cedi-Osman-18912","Julius-Randle-18632","Hassan-Whiteside-18664","E'Twaun-Moore-18582","Dewayne-Dedmon-16894","Karl-Anthony-Towns-18937","49900","281.4"
"Dwyane-Wade-967","Andrew-Wiggins-18620","James-Johnson-1195","Julius-Randle-18632","Karl-Anthony-Towns-18937","Alec-Burks-13353","Dewayne-Dedmon-16894","Hassan-Whiteside-18664","49900","281.39"
"Derrick-Rose-1086","Kent-Bazemore-13987","Josh-Richardson-18922","Julius-Randle-18632","Hassan-Whiteside-18664","Andrew-Wiggins-18620","Channing-Frye-1484","Dewayne-Dedmon-16894","50000","281.38"
"Derrick-Rose-1086","Kevin-Huerter-408969","Harrison-Barnes-13901","Julius-Randle-18632","Anthony-Davis-13895","Dennis-Smith-Jr.-37847","Channing-Frye-1484","Dewayne-Dedmon-16894","50000","281.36"
"Jeremy-Lin-916","Derrick-Rose-1086","Dorian-Finney-Smith-36032","Anthony-Davis-13895","Channing-Frye-1484","Andrew-Wiggins-18620","Dewayne-Dedmon-16894","Karl-Anthony-Towns-18937","49900","281.36"
"Justise-Winslow-18921","Derrick-Rose-1086","James-Johnson-1195","Julius-Randle-18632","Karl-Anthony-Towns-18937","Andrew-Wiggins-18620","Dewayne-Dedmon-16894","Dorian-Finney-Smith-36032","49500","281.36"
"Jordan-Clarkson-18631","Andrew-Wiggins-18620","James-Johnson-1195","Julius-Randle-18632","Karl-Anthony-Towns-18937","DeAndre-Bembry-35198","Dewayne-Dedmon-16894","Hassan-Whiteside-18664","49900","281.34"
"Jordan-Clarkson-18631","Kevin-Huerter-408969","Harrison-Barnes-13901","Anthony-Davis-13895","Dewayne-Dedmon-16894","Andrew-Wiggins-18620","Dorian-Finney-Smith-36032","Julius-Randle-18632","50000","281.33"
"Derrick-Rose-1086","Kevin-Huerter-408969","Cedi-Osman-18912","Julius-Randle-18632","Anthony-Davis-13895","Andrew-Wiggins-18620","Dorian-Finney-Smith-36032","Dewayne-Dedmon-16894","49700","281.33"
"Derrick-Rose-1086","Dwyane-Wade-967","Harrison-Barnes-13901","Dorian-Finney-Smith-36032","Karl-Anthony-Towns-18937","Andrew-Wiggins-18620","Dewayne-Dedmon-16894","Julius-Randle-18632","49900","281.32"
"Jeremy-Lin-916","Kevin-Huerter-408969","Justise-Winslow-18921","Julius-Randle-18632","Hassan-Whiteside-18664","Andrew-Wiggins-18620","Dewayne-Dedmon-16894","Karl-Anthony-Towns-18937","49700","281.32"
"Justise-Winslow-18921","Kevin-Huerter-408969","Dorian-Finney-Smith-36032","Julius-Randle-18632","Dewayne-Dedmon-16894","Andrew-Wiggins-18620","John-Collins-37823","Karl-Anthony-Towns-18937","49900","281.32"
"Jeremy-Lin-916","Kevin-Huerter-408969","Harrison-Barnes-13901","Julius-Randle-18632","Karl-Anthony-Towns-18937","Andrew-Wiggins-18620","Dewayne-Dedmon-16894","Hassan-Whiteside-18664","49500","281.3"
"Derrick-Rose-1086","Kevin-Huerter-408969","Kent-Bazemore-13987","Julius-Randle-18632","Karl-Anthony-Towns-18937","Andrew-Wiggins-18620","Dorian-Finney-Smith-36032","Dewayne-Dedmon-16894","49600","281.3"
"Jeremy-Lin-916","Derrick-Rose-1086","Harrison-Barnes-13901","Julius-Randle-18632","Karl-Anthony-Towns-18937","Andrew-Wiggins-18620","Channing-Frye-1484","Hassan-Whiteside-18664","50000","281.3"
"Justise-Winslow-18921","Kevin-Huerter-408969","James-Johnson-1195","Anthony-Davis-13895","Dewayne-Dedmon-16894","Derrick-Rose-1086","Dorian-Finney-Smith-36032","Julius-Randle-18632","49900","281.28"
"Jordan-Clarkson-18631","Kent-Bazemore-13987","Andrew-Wiggins-18620","Julius-Randle-18632","Channing-Frye-1484","E'Twaun-Moore-18582","Dewayne-Dedmon-16894","Anthony-Davis-13895","50000","281.28"
"Derrick-Rose-1086","Andrew-Wiggins-18620","Robert-Covington-16874","Dewayne-Dedmon-16894","Karl-Anthony-Towns-18937","E'Twaun-Moore-18582","Channing-Frye-1484","Julius-Randle-18632","49200","281.27"
"Derrick-Rose-1086","Andrew-Wiggins-18620","Kevin-Huerter-408969","Julius-Randle-18632","Channing-Frye-1484","Trae-Young-409063","Dewayne-Dedmon-16894","Karl-Anthony-Towns-18937","49600","281.24"
"Jeremy-Lin-916","Derrick-Rose-1086","James-Johnson-1195","Anthony-Davis-13895","Channing-Frye-1484","Andrew-Wiggins-18620","Dewayne-Dedmon-16894","Julius-Randle-18632","49200","281.24"
"Jeremy-Lin-916","Derrick-Rose-1086","Kevin-Huerter-408969","Anthony-Davis-13895","Dewayne-Dedmon-16894","Andrew-Wiggins-18620","E'Twaun-Moore-18582","Julius-Randle-18632","49900","281.22"
