"Eric-Bledsoe-1031","Khris-Middleton-13990","Giannis-Antetokounmpo-16852","Bam-Adebayo-37835","Kelly-Olynyk-16845","De'Anthony-Melton-409081","Josh-Richardson-18922","Malcolm-Brogdon-35195","49900","278.54"

"Eric-Bledsoe-1031","Khris-Middleton-13990","Giannis-Antetokounmpo-16852","Bam-Adebayo-37835","Kelly-Olynyk-16845","De'Anthony-Melton-409081","Josh-Richardson-18922","Malcolm-Brogdon-35195","49900","278.54"
"Eric-Bledsoe-1031","Khris-Middleton-13990","Giannis-Antetokounmpo-16852","Bam-Adebayo-37835","Kelly-Olynyk-16845","De'Anthony-Melton-409081","Josh-Richardson-18922","Josh-Jackson-37890","49600","277.88"
"Goran-Dragic-1040","Khris-Middleton-13990","Giannis-Antetokounmpo-16852","Bam-Adebayo-37835","Kelly-Olynyk-16845","Eric-Bledsoe-1031","Josh-Richardson-18922","De'Anthony-Melton-409081","50000","277.87"
"Elie-Okobo-409300","Khris-Middleton-13990","Josh-Richardson-18922","Giannis-Antetokounmpo-16852","Bam-Adebayo-37835","Stephen-Curry-1079","Andre-Iguodala-1334","Kelly-Olynyk-16845","49900","277.49"
"Eric-Bledsoe-1031","Khris-Middleton-13990","Giannis-Antetokounmpo-16852","Bam-Adebayo-37835","Kelly-Olynyk-16845","De'Anthony-Melton-409081","Josh-Richardson-18922","Trevor-Ariza-1323","49700","277.1"
"Justise-Winslow-18921","Khris-Middleton-13990","Giannis-Antetokounmpo-16852","Bam-Adebayo-37835","Kelly-Olynyk-16845","Eric-Bledsoe-1031","Josh-Richardson-18922","Malcolm-Brogdon-35195","50000","276.99"
"Justise-Winslow-18921","Khris-Middleton-13990","Giannis-Antetokounmpo-16852","Bam-Adebayo-37835","Kelly-Olynyk-16845","Eric-Bledsoe-1031","Josh-Richardson-18922","Josh-Jackson-37890","49700","276.33"
"Eric-Bledsoe-1031","Khris-Middleton-13990","Josh-Richardson-18922","Giannis-Antetokounmpo-16852","Bam-Adebayo-37835","Klay-Thompson-13315","Andre-Iguodala-1334","Kelly-Olynyk-16845","49800","276.32"
"Eric-Bledsoe-1031","Khris-Middleton-13990","Giannis-Antetokounmpo-16852","Bam-Adebayo-37835","Kelly-Olynyk-16845","Rodney-McGruder-16850","Josh-Richardson-18922","Josh-Jackson-37890","49900","276.28"
"Stephen-Curry-1079","Khris-Middleton-13990","Giannis-Antetokounmpo-16852","Josh-Jackson-37890","Kelly-Olynyk-16845","De'Anthony-Melton-409081","Justise-Winslow-18921","Bam-Adebayo-37835","50000","276.19"
"De'Anthony-Melton-409081","Klay-Thompson-13315","Khris-Middleton-13990","Bam-Adebayo-37835","Deandre-Ayton-409301","Josh-Richardson-18922","Kelly-Olynyk-16845","Giannis-Antetokounmpo-16852","50000","276.01"
"Elie-Okobo-409300","Khris-Middleton-13990","Giannis-Antetokounmpo-16852","Bam-Adebayo-37835","Kelly-Olynyk-16845","Eric-Bledsoe-1031","Josh-Richardson-18922","Malcolm-Brogdon-35195","49500","275.87"
"Elie-Okobo-409300","Stephen-Curry-1079","Khris-Middleton-13990","Giannis-Antetokounmpo-16852","Kelly-Olynyk-16845","De'Anthony-Melton-409081","Bam-Adebayo-37835","Malcolm-Brogdon-35195","49800","275.73"
"Dwyane-Wade-967","Khris-Middleton-13990","Giannis-Antetokounmpo-16852","Bam-Adebayo-37835","Kelly-Olynyk-16845","Eric-Bledsoe-1031","Josh-Richardson-18922","De'Anthony-Melton-409081","49500","275.58"
"Justise-Winslow-18921","Khris-Middleton-13990","Giannis-Antetokounmpo-16852","Bam-Adebayo-37835","Kelly-Olynyk-16845","Eric-Bledsoe-1031","Josh-Richardson-18922","Trevor-Ariza-1323","49800","275.55"
"Elie-Okobo-409300","Khris-Middleton-13990","Giannis-Antetokounmpo-16852","Kevin-Durant-1348","Kelly-Olynyk-16845","De'Anthony-Melton-409081","Josh-Jackson-37890","Bam-Adebayo-37835","49800","275.52"
"Eric-Bledsoe-1031","Khris-Middleton-13990","Giannis-Antetokounmpo-16852","Bam-Adebayo-37835","Kelly-Olynyk-16845","Rodney-McGruder-16850","Josh-Richardson-18922","Trevor-Ariza-1323","50000","275.5"
"Elie-Okobo-409300","Khris-Middleton-13990","Josh-Richardson-18922","Ersan-Ilyasova-1301","Kelly-Olynyk-16845","Stephen-Curry-1079","Bam-Adebayo-37835","Giannis-Antetokounmpo-16852","49800","275.32"
"Elie-Okobo-409300","Klay-Thompson-13315","Khris-Middleton-13990","Giannis-Antetokounmpo-16852","Kelly-Olynyk-16845","Stephen-Curry-1079","James-Johnson-1195","Bam-Adebayo-37835","50000","275.28"
"Stephen-Curry-1079","Khris-Middleton-13990","Giannis-Antetokounmpo-16852","Bam-Adebayo-37835","Kelly-Olynyk-16845","Andre-Iguodala-1334","Josh-Richardson-18922","James-Johnson-1195","49800","275.26"
"Elie-Okobo-409300","Khris-Middleton-13990","Giannis-Antetokounmpo-16852","Bam-Adebayo-37835","Kelly-Olynyk-16845","Eric-Bledsoe-1031","Josh-Richardson-18922","Josh-Jackson-37890","49200","275.21"
"Goran-Dragic-1040","Khris-Middleton-13990","Giannis-Antetokounmpo-16852","Bam-Adebayo-37835","Kelly-Olynyk-16845","Elie-Okobo-409300","Josh-Richardson-18922","Eric-Bledsoe-1031","49600","275.2"
"Justise-Winslow-18921","Stephen-Curry-1079","Giannis-Antetokounmpo-16852","Bam-Adebayo-37835","Kelly-Olynyk-16845","De'Anthony-Melton-409081","Josh-Richardson-18922","Josh-Jackson-37890","50000","275.16"
"Elie-Okobo-409300","Khris-Middleton-13990","Giannis-Antetokounmpo-16852","Bam-Adebayo-37835","Kelly-Olynyk-16845","Josh-Richardson-18922","Pat-Connaughton-18939","Stephen-Curry-1079","50000","275.14"
"Elie-Okobo-409300","Stephen-Curry-1079","Giannis-Antetokounmpo-16852","Bam-Adebayo-37835","Kelly-Olynyk-16845","Eric-Bledsoe-1031","Josh-Jackson-37890","De'Anthony-Melton-409081","50000","275.11"
"Elie-Okobo-409300","Stephen-Curry-1079","Khris-Middleton-13990","Bam-Adebayo-37835","Kelly-Olynyk-16845","De'Anthony-Melton-409081","Josh-Jackson-37890","Giannis-Antetokounmpo-16852","49500","275.07"
"Goran-Dragic-1040","Stephen-Curry-1079","Khris-Middleton-13990","Giannis-Antetokounmpo-16852","Kelly-Olynyk-16845","Elie-Okobo-409300","Bam-Adebayo-37835","De'Anthony-Melton-409081","49900","275.06"
"Eric-Bledsoe-1031","Khris-Middleton-13990","Giannis-Antetokounmpo-16852","Bam-Adebayo-37835","Kelly-Olynyk-16845","Malcolm-Brogdon-35195","Josh-Richardson-18922","Richaun-Holmes-18905","49900","274.77"
"Elie-Okobo-409300","Khris-Middleton-13990","Giannis-Antetokounmpo-16852","Trevor-Ariza-1323","Kelly-Olynyk-16845","De'Anthony-Melton-409081","Kevin-Durant-1348","Bam-Adebayo-37835","49900","274.74"
"Elie-Okobo-409300","Stephen-Curry-1079","Giannis-Antetokounmpo-16852","Bam-Adebayo-37835","Kelly-Olynyk-16845","De'Anthony-Melton-409081","Josh-Richardson-18922","Malcolm-Brogdon-35195","49800","274.7"
"Eric-Bledsoe-1031","Klay-Thompson-13315","Khris-Middleton-13990","Giannis-Antetokounmpo-16852","Kelly-Olynyk-16845","De'Anthony-Melton-409081","Bam-Adebayo-37835","Malcolm-Brogdon-35195","49700","274.56"
"Elie-Okobo-409300","Josh-Richardson-18922","Giannis-Antetokounmpo-16852","Kevin-Durant-1348","Kelly-Olynyk-16845","De'Anthony-Melton-409081","Josh-Jackson-37890","Bam-Adebayo-37835","49800","274.49"
"Elie-Okobo-409300","Khris-Middleton-13990","Giannis-Antetokounmpo-16852","Bam-Adebayo-37835","Kelly-Olynyk-16845","Eric-Bledsoe-1031","Josh-Richardson-18922","Trevor-Ariza-1323","49300","274.43"
"Eric-Bledsoe-1031","Josh-Richardson-18922","Khris-Middleton-13990","Bam-Adebayo-37835","Deandre-Ayton-409301","Andre-Iguodala-1334","Kelly-Olynyk-16845","Giannis-Antetokounmpo-16852","49900","274.39"
"Eric-Bledsoe-1031","Khris-Middleton-13990","Mikal-Bridges-408842","Bam-Adebayo-37835","Kelly-Olynyk-16845","Malcolm-Brogdon-35195","Josh-Richardson-18922","Giannis-Antetokounmpo-16852","49700","274.34"
"Elie-Okobo-409300","Stephen-Curry-1079","Khris-Middleton-13990","Giannis-Antetokounmpo-16852","Bam-Adebayo-37835","De'Anthony-Melton-409081","Trevor-Ariza-1323","Kelly-Olynyk-16845","49600","274.29"
"Elie-Okobo-409300","Klay-Thompson-13315","Giannis-Antetokounmpo-16852","Bam-Adebayo-37835","Kelly-Olynyk-16845","Stephen-Curry-1079","Josh-Richardson-18922","James-Johnson-1195","50000","274.25"
"Stephen-Curry-1079","De'Anthony-Melton-409081","Khris-Middleton-13990","Bam-Adebayo-37835","Kelly-Olynyk-16845","Malcolm-Brogdon-35195","Mikal-Bridges-408842","Giannis-Antetokounmpo-16852","50000","274.2"
"Elie-Okobo-409300","Stephen-Curry-1079","Khris-Middleton-13990","Bam-Adebayo-37835","Kelly-Olynyk-16845","Malcolm-Brogdon-35195","Justise-Winslow-18921","Giannis-Antetokounmpo-16852","49900","274.18"
"Eric-Bledsoe-1031","Khris-Middleton-13990","Josh-Richardson-18922","Ersan-Ilyasova-1301","Kelly-Olynyk-16845","Klay-Thompson-13315","Bam-Adebayo-37835","Giannis-Antetokounmpo-16852","49700","274.15"
"Eric-Bledsoe-1031","Khris-Middleton-13990","Giannis-Antetokounmpo-16852","Josh-Jackson-37890","Kelly-Olynyk-16845","Josh-Richardson-18922","Richaun-Holmes-18905","Bam-Adebayo-37835","49600","274.11"
"Goran-Dragic-1040","Khris-Middleton-13990","Giannis-Antetokounmpo-16852","Bam-Adebayo-37835","Kelly-Olynyk-16845","Eric-Bledsoe-1031","Josh-Richardson-18922","Richaun-Holmes-18905","50000","274.1"
"Elie-Okobo-409300","Khris-Middleton-13990","Giannis-Antetokounmpo-16852","Bam-Adebayo-37835","Kelly-Olynyk-16845","Troy-Daniels-17383","Josh-Richardson-18922","Stephen-Curry-1079","49900","274.08"
"Elie-Okobo-409300","Stephen-Curry-1079","Giannis-Antetokounmpo-16852","Bam-Adebayo-37835","Kelly-Olynyk-16845","De'Anthony-Melton-409081","Josh-Richardson-18922","Josh-Jackson-37890","49500","274.04"
"Dwyane-Wade-967","Khris-Middleton-13990","Giannis-Antetokounmpo-16852","Bam-Adebayo-37835","Kelly-Olynyk-16845","Justise-Winslow-18921","Josh-Richardson-18922","Eric-Bledsoe-1031","49600","274.03"
"Goran-Dragic-1040","Stephen-Curry-1079","Giannis-Antetokounmpo-16852","Bam-Adebayo-37835","Kelly-Olynyk-16845","Elie-Okobo-409300","Josh-Richardson-18922","De'Anthony-Melton-409081","49900","274.03"
"Stephen-Curry-1079","Klay-Thompson-13315","Khris-Middleton-13990","Giannis-Antetokounmpo-16852","Kelly-Olynyk-16845","De'Anthony-Melton-409081","Ersan-Ilyasova-1301","Bam-Adebayo-37835","50000","274.01"
"De'Anthony-Melton-409081","Khris-Middleton-13990","Giannis-Antetokounmpo-16852","Kevin-Durant-1348","Kelly-Olynyk-16845","Mikal-Bridges-408842","Josh-Jackson-37890","Bam-Adebayo-37835","50000","273.99"
"Dwyane-Wade-967","Khris-Middleton-13990","Giannis-Antetokounmpo-16852","Bam-Adebayo-37835","Kelly-Olynyk-16845","Eric-Bledsoe-1031","Josh-Richardson-18922","Rodney-McGruder-16850","49800","273.98"
"Stephen-Curry-1079","Khris-Middleton-13990","Giannis-Antetokounmpo-16852","Josh-Jackson-37890","Kelly-Olynyk-16845","De'Anthony-Melton-409081","Richaun-Holmes-18905","Bam-Adebayo-37835","49900","273.97"
"Elie-Okobo-409300","Khris-Middleton-13990","Giannis-Antetokounmpo-16852","Kevin-Durant-1348","Kelly-Olynyk-16845","Justise-Winslow-18921","Josh-Jackson-37890","Bam-Adebayo-37835","49900","273.97"
"Eric-Bledsoe-1031","Khris-Middleton-13990","Giannis-Antetokounmpo-16852","Bam-Adebayo-37835","Kelly-Olynyk-16845","Klay-Thompson-13315","Pat-Connaughton-18939","Josh-Richardson-18922","49900","273.97"
"Elie-Okobo-409300","Khris-Middleton-13990","Kevin-Durant-1348","Bam-Adebayo-37835","Kelly-Olynyk-16845","Klay-Thompson-13315","Andre-Iguodala-1334","Giannis-Antetokounmpo-16852","50000","273.96"
"De'Anthony-Melton-409081","Khris-Middleton-13990","James-Johnson-1195","Kevin-Durant-1348","Kelly-Olynyk-16845","Malcolm-Brogdon-35195","Bam-Adebayo-37835","Giannis-Antetokounmpo-16852","50000","273.95"
"Eric-Bledsoe-1031","Klay-Thompson-13315","Khris-Middleton-13990","Bam-Adebayo-37835","Kelly-Olynyk-16845","De'Anthony-Melton-409081","Josh-Jackson-37890","Giannis-Antetokounmpo-16852","49400","273.9"
"Dwyane-Wade-967","Stephen-Curry-1079","Khris-Middleton-13990","Bam-Adebayo-37835","Kelly-Olynyk-16845","De'Anthony-Melton-409081","Justise-Winslow-18921","Giannis-Antetokounmpo-16852","49900","273.89"
"Goran-Dragic-1040","Klay-Thompson-13315","Khris-Middleton-13990","Giannis-Antetokounmpo-16852","Kelly-Olynyk-16845","Eric-Bledsoe-1031","Bam-Adebayo-37835","De'Anthony-Melton-409081","49800","273.89"
"Justise-Winslow-18921","Khris-Middleton-13990","Giannis-Antetokounmpo-16852","Bam-Adebayo-37835","Kelly-Olynyk-16845","Eric-Bledsoe-1031","Josh-Richardson-18922","De'Anthony-Melton-409081","48400","273.83"
"Stephen-Curry-1079","Khris-Middleton-13990","Josh-Richardson-18922","Ersan-Ilyasova-1301","Kelly-Olynyk-16845","Mikal-Bridges-408842","Bam-Adebayo-37835","Giannis-Antetokounmpo-16852","50000","273.79"
"Eric-Bledsoe-1031","Khris-Middleton-13990","Giannis-Antetokounmpo-16852","Bam-Adebayo-37835","Kelly-Olynyk-16845","De'Anthony-Melton-409081","Josh-Richardson-18922","Rodney-McGruder-16850","48600","273.78"
"Eric-Bledsoe-1031","Josh-Richardson-18922","Khris-Middleton-13990","Josh-Jackson-37890","Bam-Adebayo-37835","De'Anthony-Melton-409081","Justise-Winslow-18921","Giannis-Antetokounmpo-16852","49900","273.72"
"Eric-Bledsoe-1031","Khris-Middleton-13990","Josh-Richardson-18922","Giannis-Antetokounmpo-16852","Bam-Adebayo-37835","Klay-Thompson-13315","Andre-Iguodala-1334","De'Anthony-Melton-409081","50000","273.71"
"Elie-Okobo-409300","Josh-Richardson-18922","Giannis-Antetokounmpo-16852","Trevor-Ariza-1323","Kelly-Olynyk-16845","De'Anthony-Melton-409081","Kevin-Durant-1348","Bam-Adebayo-37835","49900","273.71"
"Eric-Bledsoe-1031","Khris-Middleton-13990","Giannis-Antetokounmpo-16852","Bam-Adebayo-37835","Kelly-Olynyk-16845","Mikal-Bridges-408842","Josh-Richardson-18922","Josh-Jackson-37890","49400","273.68"
"Goran-Dragic-1040","Khris-Middleton-13990","Mikal-Bridges-408842","Bam-Adebayo-37835","Kelly-Olynyk-16845","Eric-Bledsoe-1031","Josh-Richardson-18922","Giannis-Antetokounmpo-16852","49800","273.67"
"Eric-Bledsoe-1031","Khris-Middleton-13990","Giannis-Antetokounmpo-16852","Bam-Adebayo-37835","Kelly-Olynyk-16845","Malcolm-Brogdon-35195","Josh-Richardson-18922","James-Johnson-1195","49400","273.64"
"Stephen-Curry-1079","Khris-Middleton-13990","Mikal-Bridges-408842","Giannis-Antetokounmpo-16852","Kelly-Olynyk-16845","De'Anthony-Melton-409081","Bam-Adebayo-37835","Josh-Jackson-37890","49700","273.54"
"Eric-Bledsoe-1031","Klay-Thompson-13315","Giannis-Antetokounmpo-16852","Bam-Adebayo-37835","Kelly-Olynyk-16845","De'Anthony-Melton-409081","Josh-Richardson-18922","Malcolm-Brogdon-35195","49700","273.53"
"Elie-Okobo-409300","Khris-Middleton-13990","Giannis-Antetokounmpo-16852","Josh-Jackson-37890","Kelly-Olynyk-16845","Stephen-Curry-1079","Justise-Winslow-18921","Bam-Adebayo-37835","49600","273.52"
"Goran-Dragic-1040","Stephen-Curry-1079","Khris-Middleton-13990","Bam-Adebayo-37835","Kelly-Olynyk-16845","Elie-Okobo-409300","Justise-Winslow-18921","Giannis-Antetokounmpo-16852","50000","273.51"
"Elie-Okobo-409300","Klay-Thompson-13315","Khris-Middleton-13990","Giannis-Antetokounmpo-16852","Kelly-Olynyk-16845","Stephen-Curry-1079","Andre-Iguodala-1334","Bam-Adebayo-37835","49700","273.51"
"Stephen-Curry-1079","De'Anthony-Melton-409081","Khris-Middleton-13990","Giannis-Antetokounmpo-16852","Kelly-Olynyk-16845","Malcolm-Brogdon-35195","James-Johnson-1195","Bam-Adebayo-37835","49700","273.5"
"De'Anthony-Melton-409081","Khris-Middleton-13990","Giannis-Antetokounmpo-16852","Bam-Adebayo-37835","Kelly-Olynyk-16845","Klay-Thompson-13315","Josh-Richardson-18922","Malcolm-Brogdon-35195","49200","273.49"
"Elie-Okobo-409300","Rodney-McGruder-16850","Khris-Middleton-13990","Bam-Adebayo-37835","Kelly-Olynyk-16845","Stephen-Curry-1079","Josh-Jackson-37890","Giannis-Antetokounmpo-16852","49800","273.47"
"Elie-Okobo-409300","Klay-Thompson-13315","Khris-Middleton-13990","Bam-Adebayo-37835","Deandre-Ayton-409301","Josh-Richardson-18922","Kelly-Olynyk-16845","Giannis-Antetokounmpo-16852","49600","273.34"
"Eric-Bledsoe-1031","Khris-Middleton-13990","Giannis-Antetokounmpo-16852","Trevor-Ariza-1323","Kelly-Olynyk-16845","Josh-Richardson-18922","Bam-Adebayo-37835","Richaun-Holmes-18905","49700","273.33"
"Eric-Bledsoe-1031","Khris-Middleton-13990","Giannis-Antetokounmpo-16852","Bam-Adebayo-37835","Kelly-Olynyk-16845","Malcolm-Brogdon-35195","Josh-Richardson-18922","Kevon-Looney-18945","50000","273.28"
"Elie-Okobo-409300","Eric-Bledsoe-1031","Khris-Middleton-13990","Giannis-Antetokounmpo-16852","Bam-Adebayo-37835","De'Anthony-Melton-409081","Josh-Richardson-18922","Malcolm-Brogdon-35195","49700","273.26"
"Elie-Okobo-409300","Stephen-Curry-1079","Giannis-Antetokounmpo-16852","Bam-Adebayo-37835","Kelly-Olynyk-16845","De'Anthony-Melton-409081","Josh-Richardson-18922","Trevor-Ariza-1323","49600","273.26"
"Elie-Okobo-409300","Stephen-Curry-1079","Khris-Middleton-13990","Kevin-Durant-1348","Bam-Adebayo-37835","De'Anthony-Melton-409081","Josh-Richardson-18922","Kelly-Olynyk-16845","49900","273.24"
"Dwyane-Wade-967","De'Anthony-Melton-409081","Khris-Middleton-13990","Giannis-Antetokounmpo-16852","Kelly-Olynyk-16845","Elie-Okobo-409300","Kevin-Durant-1348","Bam-Adebayo-37835","49700","273.22"
"Stephen-Curry-1079","Khris-Middleton-13990","Giannis-Antetokounmpo-16852","Trevor-Ariza-1323","Kelly-Olynyk-16845","De'Anthony-Melton-409081","Bam-Adebayo-37835","Richaun-Holmes-18905","50000","273.19"
"Elie-Okobo-409300","Khris-Middleton-13990","Giannis-Antetokounmpo-16852","Trevor-Ariza-1323","Kelly-Olynyk-16845","Justise-Winslow-18921","Kevin-Durant-1348","Bam-Adebayo-37835","50000","273.19"
"Stephen-Curry-1079","De'Anthony-Melton-409081","Mikal-Bridges-408842","Bam-Adebayo-37835","Kelly-Olynyk-16845","Malcolm-Brogdon-35195","Josh-Richardson-18922","Giannis-Antetokounmpo-16852","50000","273.17"
"Elie-Okobo-409300","Stephen-Curry-1079","Giannis-Antetokounmpo-16852","Bam-Adebayo-37835","Kelly-Olynyk-16845","Justise-Winslow-18921","Josh-Richardson-18922","Malcolm-Brogdon-35195","49900","273.15"
"Eric-Bledsoe-1031","Klay-Thompson-13315","Khris-Middleton-13990","Giannis-Antetokounmpo-16852","Bam-Adebayo-37835","De'Anthony-Melton-409081","Trevor-Ariza-1323","Kelly-Olynyk-16845","49500","273.12"
"Stephen-Curry-1079","Khris-Middleton-13990","Giannis-Antetokounmpo-16852","James-Johnson-1195","Kelly-Olynyk-16845","Josh-Richardson-18922","Ersan-Ilyasova-1301","Bam-Adebayo-37835","49700","273.09"
"Eric-Bledsoe-1031","Klay-Thompson-13315","Khris-Middleton-13990","Bam-Adebayo-37835","Kelly-Olynyk-16845","Malcolm-Brogdon-35195","Justise-Winslow-18921","Giannis-Antetokounmpo-16852","49800","273.01"
"Stephen-Curry-1079","Klay-Thompson-13315","Josh-Richardson-18922","Ersan-Ilyasova-1301","Kelly-Olynyk-16845","De'Anthony-Melton-409081","Bam-Adebayo-37835","Giannis-Antetokounmpo-16852","50000","272.98"
"Eric-Bledsoe-1031","Khris-Middleton-13990","James-Johnson-1195","Bam-Adebayo-37835","Kelly-Olynyk-16845","Josh-Richardson-18922","Josh-Jackson-37890","Giannis-Antetokounmpo-16852","49100","272.98"
"Goran-Dragic-1040","Khris-Middleton-13990","Giannis-Antetokounmpo-16852","Bam-Adebayo-37835","Kelly-Olynyk-16845","Eric-Bledsoe-1031","Josh-Richardson-18922","James-Johnson-1195","49500","272.97"
"Eric-Bledsoe-1031","Klay-Thompson-13315","Khris-Middleton-13990","Giannis-Antetokounmpo-16852","Kelly-Olynyk-16845","Malcolm-Brogdon-35195","Rodney-McGruder-16850","Bam-Adebayo-37835","50000","272.96"
"De'Anthony-Melton-409081","Mikal-Bridges-408842","Giannis-Antetokounmpo-16852","Kevin-Durant-1348","Kelly-Olynyk-16845","Josh-Richardson-18922","Josh-Jackson-37890","Bam-Adebayo-37835","50000","272.96"
"Elie-Okobo-409300","Josh-Richardson-18922","Giannis-Antetokounmpo-16852","Kevin-Durant-1348","Kelly-Olynyk-16845","Justise-Winslow-18921","Josh-Jackson-37890","Bam-Adebayo-37835","49900","272.94"
"Justise-Winslow-18921","Josh-Richardson-18922","Khris-Middleton-13990","Giannis-Antetokounmpo-16852","Bam-Adebayo-37835","Eric-Bledsoe-1031","Trevor-Ariza-1323","De'Anthony-Melton-409081","50000","272.94"
"Stephen-Curry-1079","Josh-Richardson-18922","Giannis-Antetokounmpo-16852","Josh-Jackson-37890","Kelly-Olynyk-16845","De'Anthony-Melton-409081","Richaun-Holmes-18905","Bam-Adebayo-37835","49900","272.94"
"Elie-Okobo-409300","Klay-Thompson-13315","Kevin-Durant-1348","Bam-Adebayo-37835","Kelly-Olynyk-16845","Josh-Richardson-18922","Andre-Iguodala-1334","Giannis-Antetokounmpo-16852","50000","272.93"
"De'Anthony-Melton-409081","Josh-Richardson-18922","James-Johnson-1195","Kevin-Durant-1348","Kelly-Olynyk-16845","Malcolm-Brogdon-35195","Bam-Adebayo-37835","Giannis-Antetokounmpo-16852","50000","272.92"
"Dwyane-Wade-967","Khris-Middleton-13990","Giannis-Antetokounmpo-16852","Bam-Adebayo-37835","Kelly-Olynyk-16845","Elie-Okobo-409300","Josh-Richardson-18922","Eric-Bledsoe-1031","49100","272.91"
"Stephen-Curry-1079","Khris-Middleton-13990","Giannis-Antetokounmpo-16852","Bam-Adebayo-37835","Kelly-Olynyk-16845","Josh-Richardson-18922","Pat-Connaughton-18939","James-Johnson-1195","49900","272.91"
