"Patrick-Beverley-14108","Patty-Mills-13977","DeMar-DeRozan-1053","Josh-Jackson-37890","LaMarcus-Aldridge-1349","De'Anthony-Melton-409081","Eric-Gordon-1077","James-Harden-1037","49800","277.52"
"Patrick-Beverley-14108","De'Anthony-Melton-409081","Danilo-Gallinari-1329","LaMarcus-Aldridge-1349","Clint-Capela-18610","Damian-Lillard-13900","Eric-Gordon-1077","Josh-Jackson-37890","49900","277.49"

"Patrick-Beverley-14108","Patty-Mills-13977","DeMar-DeRozan-1053","Josh-Jackson-37890","LaMarcus-Aldridge-1349","De'Anthony-Melton-409081","Eric-Gordon-1077","James-Harden-1037","49800","277.52"
"Patrick-Beverley-14108","De'Anthony-Melton-409081","Danilo-Gallinari-1329","LaMarcus-Aldridge-1349","Clint-Capela-18610","Damian-Lillard-13900","Eric-Gordon-1077","Josh-Jackson-37890","49900","277.49"
"Patrick-Beverley-14108","Derrick-White-37858","DeMar-DeRozan-1053","Josh-Jackson-37890","LaMarcus-Aldridge-1349","De'Anthony-Melton-409081","Eric-Gordon-1077","James-Harden-1037","49700","277.41"
"Patrick-Beverley-14108","De'Anthony-Melton-409081","DeMar-DeRozan-1053","Tobias-Harris-13332","LaMarcus-Aldridge-1349","Kyle-Lowry-1057","Eric-Gordon-1077","Josh-Jackson-37890","49800","277.35"
"De'Anthony-Melton-409081","Marco-Belinelli-1033","DeMar-DeRozan-1053","Josh-Jackson-37890","Clint-Capela-18610","Kyle-Lowry-1057","Eric-Gordon-1077","LaMarcus-Aldridge-1349","50000","277.34"
"Patrick-Beverley-14108","De'Anthony-Melton-409081","Marco-Belinelli-1033","Josh-Jackson-37890","LaMarcus-Aldridge-1349","Damian-Lillard-13900","Eric-Gordon-1077","James-Harden-1037","49900","277.3"
"Patrick-Beverley-14108","De'Anthony-Melton-409081","Josh-Jackson-37890","LaMarcus-Aldridge-1349","Clint-Capela-18610","Marco-Belinelli-1033","Danilo-Gallinari-1329","James-Harden-1037","49900","277.07"
"Patrick-Beverley-14108","De'Anthony-Melton-409081","Marco-Belinelli-1033","Tobias-Harris-13332","Clint-Capela-18610","James-Harden-1037","Eric-Gordon-1077","LaMarcus-Aldridge-1349","49800","276.92"
"Patrick-Beverley-14108","De'Anthony-Melton-409081","Eric-Gordon-1077","LaMarcus-Aldridge-1349","Clint-Capela-18610","Avery-Bradley-941","Tobias-Harris-13332","James-Harden-1037","50000","276.84"
"Patrick-Beverley-14108","DeMar-DeRozan-1053","Danilo-Gallinari-1329","LaMarcus-Aldridge-1349","Clint-Capela-18610","De'Anthony-Melton-409081","Eric-Gordon-1077","Josh-Jackson-37890","49400","276.8"
"Patrick-Beverley-14108","De'Anthony-Melton-409081","DeMar-DeRozan-1053","Josh-Jackson-37890","LaMarcus-Aldridge-1349","Marco-Belinelli-1033","Eric-Gordon-1077","James-Harden-1037","49400","276.61"
"Patrick-Beverley-14108","De'Anthony-Melton-409081","Josh-Jackson-37890","Danilo-Gallinari-1329","Clint-Capela-18610","Kyle-Lowry-1057","Eric-Gordon-1077","James-Harden-1037","50000","276.55"
"Patrick-Beverley-14108","De'Anthony-Melton-409081","DeMar-DeRozan-1053","Josh-Jackson-37890","LaMarcus-Aldridge-1349","Avery-Bradley-941","Eric-Gordon-1077","James-Harden-1037","49600","276.53"
"Patrick-Beverley-14108","De'Anthony-Melton-409081","DeMar-DeRozan-1053","Josh-Jackson-37890","LaMarcus-Aldridge-1349","Kyle-Lowry-1057","Eric-Gordon-1077","Jusuf-Nurkic-18619","49900","276.29"
"De'Anthony-Melton-409081","DeMar-DeRozan-1053","Josh-Jackson-37890","Danilo-Gallinari-1329","LaMarcus-Aldridge-1349","Eric-Gordon-1077","Evan-Turner-1291","Clint-Capela-18610","50000","276.24"
"Patrick-Beverley-14108","De'Anthony-Melton-409081","DeMar-DeRozan-1053","Josh-Jackson-37890","LaMarcus-Aldridge-1349","Mikal-Bridges-408842","Eric-Gordon-1077","James-Harden-1037","49900","276.14"
"Patrick-Beverley-14108","De'Anthony-Melton-409081","Josh-Jackson-37890","Danilo-Gallinari-1329","LaMarcus-Aldridge-1349","C.J.-McCollum-17121","Eric-Gordon-1077","James-Harden-1037","50000","276.1"
"Patrick-Beverley-14108","De'Anthony-Melton-409081","Josh-Jackson-37890","LaMarcus-Aldridge-1349","Clint-Capela-18610","Shai-Gilgeous-Alexander-408990","Eric-Gordon-1077","James-Harden-1037","49300","276.1"
"Patrick-Beverley-14108","De'Anthony-Melton-409081","DeMar-DeRozan-1053","LaMarcus-Aldridge-1349","Jakob-Poeltl-35187","James-Harden-1037","Eric-Gordon-1077","Josh-Jackson-37890","50000","276.08"
"De'Anthony-Melton-409081","Marco-Belinelli-1033","DeMar-DeRozan-1053","Josh-Jackson-37890","LaMarcus-Aldridge-1349","Eric-Gordon-1077","Evan-Turner-1291","James-Harden-1037","50000","276.05"
"Patty-Mills-13977","Derrick-White-37858","DeMar-DeRozan-1053","Josh-Jackson-37890","LaMarcus-Aldridge-1349","De'Anthony-Melton-409081","Eric-Gordon-1077","James-Harden-1037","50000","275.89"
"Patrick-Beverley-14108","De'Anthony-Melton-409081","Marco-Belinelli-1033","LaMarcus-Aldridge-1349","Jusuf-Nurkic-18619","James-Harden-1037","Eric-Gordon-1077","Clint-Capela-18610","49900","275.86"
"Patrick-Beverley-14108","DeMar-DeRozan-1053","Josh-Jackson-37890","LaMarcus-Aldridge-1349","Clint-Capela-18610","De'Anthony-Melton-409081","Tobias-Harris-13332","Evan-Turner-1291","50000","275.84"
"Derrick-White-37858","De'Anthony-Melton-409081","DeMar-DeRozan-1053","Tobias-Harris-13332","LaMarcus-Aldridge-1349","Kyle-Lowry-1057","Eric-Gordon-1077","Josh-Jackson-37890","50000","275.72"
"Patrick-Beverley-14108","De'Anthony-Melton-409081","Josh-Jackson-37890","Danilo-Gallinari-1329","LaMarcus-Aldridge-1349","Damian-Lillard-13900","Eric-Gordon-1077","Chris-Paul-1087","50000","275.64"
"Patrick-Beverley-14108","De'Anthony-Melton-409081","Marco-Belinelli-1033","LaMarcus-Aldridge-1349","Clint-Capela-18610","Kyle-Lowry-1057","Eric-Gordon-1077","James-Harden-1037","49600","275.62"
"Patrick-Beverley-14108","Patty-Mills-13977","Josh-Jackson-37890","Danilo-Gallinari-1329","LaMarcus-Aldridge-1349","De'Anthony-Melton-409081","Tobias-Harris-13332","James-Harden-1037","50000","275.56"
"De'Anthony-Melton-409081","Shai-Gilgeous-Alexander-408990","Eric-Gordon-1077","Josh-Jackson-37890","LaMarcus-Aldridge-1349","James-Harden-1037","Evan-Turner-1291","Clint-Capela-18610","49900","275.54"
"Patrick-Beverley-14108","Derrick-White-37858","Josh-Jackson-37890","Danilo-Gallinari-1329","LaMarcus-Aldridge-1349","De'Anthony-Melton-409081","Tobias-Harris-13332","James-Harden-1037","49900","275.45"
"Patrick-Beverley-14108","De'Anthony-Melton-409081","DeMar-DeRozan-1053","Josh-Jackson-37890","LaMarcus-Aldridge-1349","James-Harden-1037","Eric-Gordon-1077","P.J.-Tucker-13947","49900","275.44"
"Patrick-Beverley-14108","De'Anthony-Melton-409081","DeMar-DeRozan-1053","Josh-Jackson-37890","Clint-Capela-18610","C.J.-McCollum-17121","Eric-Gordon-1077","LaMarcus-Aldridge-1349","49700","275.42"
"Patrick-Beverley-14108","Derrick-White-37858","Josh-Jackson-37890","LaMarcus-Aldridge-1349","Clint-Capela-18610","De'Anthony-Melton-409081","DeMar-DeRozan-1053","Chris-Paul-1087","50000","275.34"
"Patrick-Beverley-14108","De'Anthony-Melton-409081","Danny-Green-940","LaMarcus-Aldridge-1349","Clint-Capela-18610","James-Harden-1037","Eric-Gordon-1077","Danilo-Gallinari-1329","50000","275.32"
"Patrick-Beverley-14108","De'Anthony-Melton-409081","DeMar-DeRozan-1053","Josh-Jackson-37890","Clint-Capela-18610","Chris-Paul-1087","Eric-Gordon-1077","Tobias-Harris-13332","50000","275.32"
"Derrick-White-37858","De'Anthony-Melton-409081","Marco-Belinelli-1033","Tobias-Harris-13332","Clint-Capela-18610","James-Harden-1037","Eric-Gordon-1077","LaMarcus-Aldridge-1349","50000","275.29"
"Patty-Mills-13977","DeMar-DeRozan-1053","Danilo-Gallinari-1329","LaMarcus-Aldridge-1349","Clint-Capela-18610","De'Anthony-Melton-409081","Eric-Gordon-1077","Josh-Jackson-37890","49700","275.28"
"Patrick-Beverley-14108","De'Anthony-Melton-409081","Danilo-Gallinari-1329","Tobias-Harris-13332","Clint-Capela-18610","Chris-Paul-1087","Eric-Gordon-1077","LaMarcus-Aldridge-1349","49900","275.26"
"Patrick-Beverley-14108","De'Anthony-Melton-409081","Josh-Jackson-37890","Danilo-Gallinari-1329","LaMarcus-Aldridge-1349","Chris-Paul-1087","Marco-Belinelli-1033","James-Harden-1037","50000","275.22"
"Patrick-Beverley-14108","De'Anthony-Melton-409081","Josh-Jackson-37890","LaMarcus-Aldridge-1349","Richaun-Holmes-18905","Eric-Gordon-1077","DeMar-DeRozan-1053","James-Harden-1037","50000","275.19"
"Derrick-White-37858","DeMar-DeRozan-1053","Danilo-Gallinari-1329","LaMarcus-Aldridge-1349","Clint-Capela-18610","De'Anthony-Melton-409081","Eric-Gordon-1077","Josh-Jackson-37890","49600","275.17"
"De'Anthony-Melton-409081","DeMar-DeRozan-1053","Josh-Jackson-37890","Tobias-Harris-13332","Jusuf-Nurkic-18619","Eric-Gordon-1077","Marco-Belinelli-1033","LaMarcus-Aldridge-1349","50000","275.16"
"Patty-Mills-13977","De'Anthony-Melton-409081","DeMar-DeRozan-1053","Josh-Jackson-37890","LaMarcus-Aldridge-1349","Marco-Belinelli-1033","Eric-Gordon-1077","James-Harden-1037","49700","275.09"
"Patrick-Beverley-14108","De'Anthony-Melton-409081","Eric-Gordon-1077","Tobias-Harris-13332","LaMarcus-Aldridge-1349","Kyle-Lowry-1057","Evan-Turner-1291","James-Harden-1037","50000","275.07"
"Patrick-Beverley-14108","De'Anthony-Melton-409081","Marco-Belinelli-1033","Tobias-Harris-13332","LaMarcus-Aldridge-1349","Chris-Paul-1087","Eric-Gordon-1077","James-Harden-1037","49900","275.07"
"Patrick-Beverley-14108","De'Anthony-Melton-409081","Josh-Jackson-37890","Danilo-Gallinari-1329","LaMarcus-Aldridge-1349","Damian-Lillard-13900","Eric-Gordon-1077","Tobias-Harris-13332","49600","275.07"
"De'Anthony-Melton-409081","Marco-Belinelli-1033","Danilo-Gallinari-1329","LaMarcus-Aldridge-1349","Clint-Capela-18610","Damian-Lillard-13900","Eric-Gordon-1077","Josh-Jackson-37890","49800","275.06"
"Patty-Mills-13977","De'Anthony-Melton-409081","DeMar-DeRozan-1053","Josh-Jackson-37890","LaMarcus-Aldridge-1349","Avery-Bradley-941","Eric-Gordon-1077","James-Harden-1037","49900","275.01"
"Derrick-White-37858","De'Anthony-Melton-409081","DeMar-DeRozan-1053","Josh-Jackson-37890","LaMarcus-Aldridge-1349","Marco-Belinelli-1033","Eric-Gordon-1077","James-Harden-1037","49600","274.98"
"De'Anthony-Melton-409081","Avery-Bradley-941","Danilo-Gallinari-1329","LaMarcus-Aldridge-1349","Clint-Capela-18610","Damian-Lillard-13900","Eric-Gordon-1077","Josh-Jackson-37890","50000","274.98"
"De'Anthony-Melton-409081","Shai-Gilgeous-Alexander-408990","Josh-Jackson-37890","LaMarcus-Aldridge-1349","Clint-Capela-18610","Chris-Paul-1087","Eric-Gordon-1077","Kyle-Lowry-1057","50000","274.98"
"Patrick-Beverley-14108","De'Anthony-Melton-409081","DeMar-DeRozan-1053","Josh-Jackson-37890","LaMarcus-Aldridge-1349","Chris-Paul-1087","Eric-Gordon-1077","Danilo-Gallinari-1329","49500","274.95"
"De'Anthony-Melton-409081","Marco-Belinelli-1033","DeMar-DeRozan-1053","Tobias-Harris-13332","LaMarcus-Aldridge-1349","Kyle-Lowry-1057","Eric-Gordon-1077","Josh-Jackson-37890","49700","274.92"
"Derrick-White-37858","De'Anthony-Melton-409081","DeMar-DeRozan-1053","Josh-Jackson-37890","LaMarcus-Aldridge-1349","Avery-Bradley-941","Eric-Gordon-1077","James-Harden-1037","49800","274.9"
"Patrick-Beverley-14108","Patty-Mills-13977","Josh-Jackson-37890","LaMarcus-Aldridge-1349","Clint-Capela-18610","De'Anthony-Melton-409081","Tobias-Harris-13332","DeMar-DeRozan-1053","49700","274.88"
"De'Anthony-Melton-409081","Avery-Bradley-941","DeMar-DeRozan-1053","Tobias-Harris-13332","LaMarcus-Aldridge-1349","Kyle-Lowry-1057","Eric-Gordon-1077","Josh-Jackson-37890","49900","274.84"
"Patrick-Beverley-14108","De'Anthony-Melton-409081","Danilo-Gallinari-1329","Tobias-Harris-13332","LaMarcus-Aldridge-1349","Shai-Gilgeous-Alexander-408990","Eric-Gordon-1077","James-Harden-1037","50000","274.83"
"Patrick-Beverley-14108","De'Anthony-Melton-409081","Josh-Jackson-37890","LaMarcus-Aldridge-1349","Jonas-Valanciunas-13301","James-Harden-1037","Eric-Gordon-1077","Clint-Capela-18610","49200","274.81"
"De'Anthony-Melton-409081","Avery-Bradley-941","Marco-Belinelli-1033","Josh-Jackson-37890","LaMarcus-Aldridge-1349","Damian-Lillard-13900","Eric-Gordon-1077","James-Harden-1037","50000","274.79"
"Patrick-Beverley-14108","Derrick-White-37858","Josh-Jackson-37890","LaMarcus-Aldridge-1349","Clint-Capela-18610","De'Anthony-Melton-409081","Tobias-Harris-13332","DeMar-DeRozan-1053","49600","274.77"
"De'Anthony-Melton-409081","Eric-Gordon-1077","Josh-Jackson-37890","LaMarcus-Aldridge-1349","Clint-Capela-18610","Chris-Paul-1087","Tobias-Harris-13332","Al-Farouq-Aminu-1279","50000","274.73"
"Patrick-Beverley-14108","De'Anthony-Melton-409081","Josh-Jackson-37890","LaMarcus-Aldridge-1349","Clint-Capela-18610","Damian-Lillard-13900","Tobias-Harris-13332","Marco-Belinelli-1033","49800","274.66"
"De'Anthony-Melton-409081","Shai-Gilgeous-Alexander-408990","Josh-Jackson-37890","LaMarcus-Aldridge-1349","Clint-Capela-18610","Eric-Gordon-1077","Tobias-Harris-13332","Jusuf-Nurkic-18619","49900","274.65"
"Patrick-Beverley-14108","De'Anthony-Melton-409081","Josh-Jackson-37890","Tobias-Harris-13332","LaMarcus-Aldridge-1349","James-Harden-1037","Marco-Belinelli-1033","Danilo-Gallinari-1329","49600","274.65"
"Patrick-Beverley-14108","De'Anthony-Melton-409081","Josh-Jackson-37890","LaMarcus-Aldridge-1349","Clint-Capela-18610","Damian-Lillard-13900","Tobias-Harris-13332","Avery-Bradley-941","50000","274.58"
"Patty-Mills-13977","De'Anthony-Melton-409081","Josh-Jackson-37890","LaMarcus-Aldridge-1349","Clint-Capela-18610","Shai-Gilgeous-Alexander-408990","Eric-Gordon-1077","James-Harden-1037","49600","274.58"
"Patrick-Beverley-14108","De'Anthony-Melton-409081","DeMar-DeRozan-1053","Josh-Jackson-37890","Clint-Capela-18610","Evan-Turner-1291","Eric-Gordon-1077","James-Harden-1037","49700","274.58"
"Patrick-Beverley-14108","De'Anthony-Melton-409081","Josh-Jackson-37890","Danilo-Gallinari-1329","LaMarcus-Aldridge-1349","Avery-Bradley-941","Tobias-Harris-13332","James-Harden-1037","49800","274.57"
"De'Anthony-Melton-409081","Marco-Belinelli-1033","Josh-Jackson-37890","LaMarcus-Aldridge-1349","Clint-Capela-18610","Avery-Bradley-941","Danilo-Gallinari-1329","James-Harden-1037","50000","274.56"
"Patrick-Beverley-14108","De'Anthony-Melton-409081","Josh-Jackson-37890","Al-Farouq-Aminu-1279","LaMarcus-Aldridge-1349","James-Harden-1037","Eric-Gordon-1077","Clint-Capela-18610","49100","274.55"
"Patrick-Beverley-14108","De'Anthony-Melton-409081","DeMar-DeRozan-1053","Josh-Jackson-37890","LaMarcus-Aldridge-1349","Kyle-Lowry-1057","Evan-Turner-1291","Clint-Capela-18610","49800","274.54"
"Patrick-Beverley-14108","De'Anthony-Melton-409081","DeMar-DeRozan-1053","LaMarcus-Aldridge-1349","Clint-Capela-18610","Chris-Paul-1087","Marco-Belinelli-1033","Josh-Jackson-37890","49700","274.54"
"Patrick-Beverley-14108","De'Anthony-Melton-409081","DeMar-DeRozan-1053","Josh-Jackson-37890","LaMarcus-Aldridge-1349","Damian-Lillard-13900","Eric-Gordon-1077","Shai-Gilgeous-Alexander-408990","49800","274.53"
"Patrick-Beverley-14108","De'Anthony-Melton-409081","Danilo-Gallinari-1329","LaMarcus-Aldridge-1349","Clint-Capela-18610","Evan-Turner-1291","Eric-Gordon-1077","James-Harden-1037","49600","274.52"
"Patrick-Beverley-14108","De'Anthony-Melton-409081","DeMar-DeRozan-1053","Josh-Jackson-37890","Clint-Capela-18610","Fred-VanVleet-36011","Eric-Gordon-1077","James-Harden-1037","49900","274.51"
"Patrick-Beverley-14108","De'Anthony-Melton-409081","Josh-Jackson-37890","TJ-Warren-18634","LaMarcus-Aldridge-1349","Kyle-Lowry-1057","Eric-Gordon-1077","James-Harden-1037","49900","274.49"
"Derrick-White-37858","De'Anthony-Melton-409081","Josh-Jackson-37890","LaMarcus-Aldridge-1349","Clint-Capela-18610","Shai-Gilgeous-Alexander-408990","Eric-Gordon-1077","James-Harden-1037","49500","274.47"
"Patrick-Beverley-14108","De'Anthony-Melton-409081","Josh-Jackson-37890","LaMarcus-Aldridge-1349","Clint-Capela-18610","Fred-VanVleet-36011","DeMar-DeRozan-1053","Kyle-Lowry-1057","50000","274.47"
"Patrick-Beverley-14108","De'Anthony-Melton-409081","Josh-Jackson-37890","LaMarcus-Aldridge-1349","Clint-Capela-18610","Chris-Paul-1087","DeMar-DeRozan-1053","Avery-Bradley-941","49900","274.46"
"Patrick-Beverley-14108","De'Anthony-Melton-409081","Danilo-Gallinari-1329","LaMarcus-Aldridge-1349","Clint-Capela-18610","Fred-VanVleet-36011","Eric-Gordon-1077","James-Harden-1037","49800","274.45"
"De'Anthony-Melton-409081","Shai-Gilgeous-Alexander-408990","Josh-Jackson-37890","LaMarcus-Aldridge-1349","Clint-Capela-18610","Eric-Gordon-1077","Tobias-Harris-13332","Kyle-Lowry-1057","49600","274.41"
"De'Anthony-Melton-409081","Avery-Bradley-941","Marco-Belinelli-1033","Tobias-Harris-13332","Clint-Capela-18610","James-Harden-1037","Eric-Gordon-1077","LaMarcus-Aldridge-1349","49900","274.41"
"Patrick-Beverley-14108","Derrick-White-37858","Josh-Jackson-37890","LaMarcus-Aldridge-1349","Jusuf-Nurkic-18619","De'Anthony-Melton-409081","Danilo-Gallinari-1329","James-Harden-1037","50000","274.39"
"Patrick-Beverley-14108","DeMar-DeRozan-1053","Josh-Jackson-37890","Danilo-Gallinari-1329","LaMarcus-Aldridge-1349","De'Anthony-Melton-409081","Eric-Gordon-1077","Tobias-Harris-13332","49100","274.38"
"Patrick-Beverley-14108","De'Anthony-Melton-409081","Josh-Jackson-37890","Tobias-Harris-13332","Jusuf-Nurkic-18619","James-Harden-1037","Eric-Gordon-1077","Danilo-Gallinari-1329","50000","274.37"
"De'Anthony-Melton-409081","DeMar-DeRozan-1053","Danilo-Gallinari-1329","LaMarcus-Aldridge-1349","Clint-Capela-18610","Marco-Belinelli-1033","Eric-Gordon-1077","Josh-Jackson-37890","49300","274.37"
"De'Anthony-Melton-409081","Eric-Gordon-1077","Josh-Jackson-37890","Tobias-Harris-13332","Clint-Capela-18610","Chris-Paul-1087","Danny-Green-940","LaMarcus-Aldridge-1349","49900","274.35"
"Patrick-Beverley-14108","Patty-Mills-13977","Eric-Gordon-1077","LaMarcus-Aldridge-1349","Jusuf-Nurkic-18619","De'Anthony-Melton-409081","Tobias-Harris-13332","James-Harden-1037","50000","274.35"
"Patrick-Beverley-14108","De'Anthony-Melton-409081","Danilo-Gallinari-1329","LaMarcus-Aldridge-1349","Deandre-Ayton-409301","James-Harden-1037","Eric-Gordon-1077","Josh-Jackson-37890","49900","274.33"
"Patrick-Beverley-14108","De'Anthony-Melton-409081","DeMar-DeRozan-1053","LaMarcus-Aldridge-1349","Clint-Capela-18610","Shai-Gilgeous-Alexander-408990","Danilo-Gallinari-1329","Josh-Jackson-37890","49800","274.3"
"De'Anthony-Melton-409081","DeMar-DeRozan-1053","Danilo-Gallinari-1329","LaMarcus-Aldridge-1349","Clint-Capela-18610","Avery-Bradley-941","Eric-Gordon-1077","Josh-Jackson-37890","49500","274.29"
"De'Anthony-Melton-409081","Evan-Turner-1291","Josh-Jackson-37890","LaMarcus-Aldridge-1349","Jonas-Valanciunas-13301","James-Harden-1037","Eric-Gordon-1077","Clint-Capela-18610","49800","274.25"
"Patrick-Beverley-14108","Derrick-White-37858","Eric-Gordon-1077","LaMarcus-Aldridge-1349","Jusuf-Nurkic-18619","De'Anthony-Melton-409081","Tobias-Harris-13332","James-Harden-1037","49900","274.24"
"Patrick-Beverley-14108","De'Anthony-Melton-409081","Danilo-Gallinari-1329","LaMarcus-Aldridge-1349","Clint-Capela-18610","Chris-Paul-1087","Eric-Gordon-1077","Jusuf-Nurkic-18619","50000","274.2"
"De'Anthony-Melton-409081","Fred-VanVleet-36011","Josh-Jackson-37890","LaMarcus-Aldridge-1349","Jonas-Valanciunas-13301","James-Harden-1037","Eric-Gordon-1077","Clint-Capela-18610","50000","274.18"
"Patrick-Beverley-14108","De'Anthony-Melton-409081","Danny-Green-940","LaMarcus-Aldridge-1349","Clint-Capela-18610","James-Harden-1037","Eric-Gordon-1077","Josh-Jackson-37890","49000","274.17"
"Patrick-Beverley-14108","De'Anthony-Melton-409081","DeMar-DeRozan-1053","LaMarcus-Aldridge-1349","Clint-Capela-18610","Shai-Gilgeous-Alexander-408990","Tobias-Harris-13332","Eric-Gordon-1077","49700","274.15"
"Patrick-Beverley-14108","De'Anthony-Melton-409081","Josh-Jackson-37890","Tobias-Harris-13332","Clint-Capela-18610","Damian-Lillard-13900","Eric-Gordon-1077","Kyle-Lowry-1057","49900","274.14"
"De'Anthony-Melton-409081","James-Harden-1037","Marco-Belinelli-1033","Josh-Jackson-37890","Clint-Capela-18610","Kyle-Lowry-1057","Eric-Gordon-1077","Danilo-Gallinari-1329","49900","274.12"
"Patrick-Beverley-14108","De'Anthony-Melton-409081","DeMar-DeRozan-1053","Josh-Jackson-37890","LaMarcus-Aldridge-1349","Shai-Gilgeous-Alexander-408990","Marco-Belinelli-1033","James-Harden-1037","49800","274.11"
"Patrick-Beverley-14108","De'Anthony-Melton-409081","Josh-Jackson-37890","LaMarcus-Aldridge-1349","Clint-Capela-18610","Chris-Paul-1087","Tobias-Harris-13332","Eric-Gordon-1077","48900","274.11"
