"Deandre-Ayton-409301","Dennis-Schroder-18595","Devin-Booker-18949","Giannis-Antetokounmpo-16852","Jordan-Bell-37877","Patrick-Beverley-14108","Steven-Adams-16848","TJ-Warren-18634","50000","277.68"
"Devin-Booker-18949","Giannis-Antetokounmpo-16852","Isaiah-Canaan-16875","James-Harden-1037","Jordan-Bell-37877","Shai-Gilgeous-Alexander-408990","Steven-Adams-16848","TJ-Warren-18634","50000","277.68"
"Al-Horford-1499","Devin-Booker-18949","James-Harden-1037","Jordan-Bell-37877","Patrick-Beverley-14108","Paul-George-1245","Shai-Gilgeous-Alexander-408990","Steven-Adams-16848","50000","277.67"
"Devin-Booker-18949","Giannis-Antetokounmpo-16852","James-Harden-1037","Jordan-Bell-37877","Patrick-Beverley-14108","Shai-Gilgeous-Alexander-408990","Steven-Adams-16848","TJ-Warren-18634","49900","277.59"
"Al-Farouq-Aminu-1279","Deandre-Ayton-409301","Devin-Booker-18949","Giannis-Antetokounmpo-16852","Khris-Middleton-13990","Patrick-Beverley-14108","Shai-Gilgeous-Alexander-408990","Steven-Adams-16848","50000","277.47"
"Devin-Booker-18949","Eric-Bledsoe-1031","Giannis-Antetokounmpo-16852","Isaiah-Canaan-16875","Kevon-Looney-18945","Paul-George-1245","Shai-Gilgeous-Alexander-408990","Steven-Adams-16848","50000","277.4"
"Danilo-Gallinari-1329","Deandre-Ayton-409301","Devin-Booker-18949","Eric-Bledsoe-1031","Giannis-Antetokounmpo-16852","Kevon-Looney-18945","Shai-Gilgeous-Alexander-408990","Steven-Adams-16848","50000","277.36"
"Devin-Booker-18949","Eric-Bledsoe-1031","Giannis-Antetokounmpo-16852","Kevon-Looney-18945","Patrick-Beverley-14108","Paul-George-1245","Shai-Gilgeous-Alexander-408990","Steven-Adams-16848","49900","277.31"
"Devin-Booker-18949","Eric-Bledsoe-1031","Isaiah-Canaan-16875","James-Harden-1037","Jordan-Bell-37877","Paul-George-1245","Steven-Adams-16848","TJ-Warren-18634","50000","277.24"
"Danilo-Gallinari-1329","Deandre-Ayton-409301","Devin-Booker-18949","Eric-Bledsoe-1031","James-Harden-1037","Jordan-Bell-37877","Steven-Adams-16848","TJ-Warren-18634","50000","277.2"
"Al-Horford-1499","Alfonzo-McKinnie-37808","Deandre-Ayton-409301","Devin-Booker-18949","Eric-Bledsoe-1031","James-Harden-1037","Jordan-Bell-37877","Steven-Adams-16848","50000","277.18"
"Devin-Booker-18949","Eric-Bledsoe-1031","James-Harden-1037","Jordan-Bell-37877","Patrick-Beverley-14108","Paul-George-1245","Steven-Adams-16848","TJ-Warren-18634","49900","277.15"
"Devin-Booker-18949","Eric-Bledsoe-1031","Giannis-Antetokounmpo-16852","Jordan-Bell-37877","Kevon-Looney-18945","Paul-George-1245","Shai-Gilgeous-Alexander-408990","Steven-Adams-16848","50000","277.04"
"Al-Farouq-Aminu-1279","Deandre-Ayton-409301","Devin-Booker-18949","Eric-Bledsoe-1031","Khris-Middleton-13990","Patrick-Beverley-14108","Paul-George-1245","Steven-Adams-16848","50000","277.03"
"Al-Horford-1499","Deandre-Ayton-409301","Dennis-Schroder-18595","Devin-Booker-18949","Jordan-Bell-37877","Paul-George-1245","Shai-Gilgeous-Alexander-408990","Steven-Adams-16848","49900","277.0"
"Devin-Booker-18949","James-Harden-1037","Jordan-Bell-37877","Jusuf-Nurkic-18619","Kevon-Looney-18945","Paul-George-1245","Shai-Gilgeous-Alexander-408990","Steven-Adams-16848","50000","276.94"
"Al-Farouq-Aminu-1279","Deandre-Ayton-409301","Dennis-Schroder-18595","Devin-Booker-18949","Giannis-Antetokounmpo-16852","Kevon-Looney-18945","Shai-Gilgeous-Alexander-408990","Steven-Adams-16848","50000","276.94"
"Deandre-Ayton-409301","Dennis-Schroder-18595","Devin-Booker-18949","Giannis-Antetokounmpo-16852","Jordan-Bell-37877","Shai-Gilgeous-Alexander-408990","Steven-Adams-16848","TJ-Warren-18634","49800","276.92"
"Danilo-Gallinari-1329","Devin-Booker-18949","Isaiah-Canaan-16875","James-Harden-1037","Jordan-Bell-37877","Patrick-Beverley-14108","Paul-George-1245","Steven-Adams-16848","50000","276.87"
"Danilo-Gallinari-1329","Deandre-Ayton-409301","Dennis-Schroder-18595","Devin-Booker-18949","Patrick-Beverley-14108","Paul-George-1245","Steven-Adams-16848","TJ-Warren-18634","50000","276.83"
"Danilo-Gallinari-1329","Devin-Booker-18949","Isaiah-Canaan-16875","James-Harden-1037","Paul-George-1245","Shai-Gilgeous-Alexander-408990","Steven-Adams-16848","TJ-Warren-18634","50000","276.83"
"Alfonzo-McKinnie-37808","Deandre-Ayton-409301","Dennis-Schroder-18595","Devin-Booker-18949","Giannis-Antetokounmpo-16852","Isaiah-Canaan-16875","Steven-Adams-16848","TJ-Warren-18634","50000","276.82"
"Al-Horford-1499","Alfonzo-McKinnie-37808","Deandre-Ayton-409301","Dennis-Schroder-18595","Devin-Booker-18949","Patrick-Beverley-14108","Paul-George-1245","Steven-Adams-16848","50000","276.81"
"Al-Horford-1499","Alfonzo-McKinnie-37808","Devin-Booker-18949","Isaiah-Canaan-16875","James-Harden-1037","Paul-George-1245","Shai-Gilgeous-Alexander-408990","Steven-Adams-16848","50000","276.81"
"Devin-Booker-18949","James-Harden-1037","Kevon-Looney-18945","Khris-Middleton-13990","Patrick-Beverley-14108","Paul-George-1245","Shai-Gilgeous-Alexander-408990","Steven-Adams-16848","50000","276.81"
"Al-Farouq-Aminu-1279","Deandre-Ayton-409301","Dennis-Schroder-18595","Devin-Booker-18949","James-Harden-1037","Jordan-Bell-37877","Steven-Adams-16848","TJ-Warren-18634","50000","276.78"
"Al-Horford-1499","Alfonzo-McKinnie-37808","Danilo-Gallinari-1329","Deandre-Ayton-409301","Devin-Booker-18949","James-Harden-1037","Shai-Gilgeous-Alexander-408990","Steven-Adams-16848","50000","276.77"
"Alfonzo-McKinnie-37808","Devin-Booker-18949","Giannis-Antetokounmpo-16852","Isaiah-Canaan-16875","James-Harden-1037","Jordan-Bell-37877","Patrick-Beverley-14108","Steven-Adams-16848","49900","276.77"
"Danilo-Gallinari-1329","Devin-Booker-18949","James-Harden-1037","Patrick-Beverley-14108","Paul-George-1245","Shai-Gilgeous-Alexander-408990","Steven-Adams-16848","TJ-Warren-18634","49900","276.74"
"Alfonzo-McKinnie-37808","Devin-Booker-18949","Giannis-Antetokounmpo-16852","Isaiah-Canaan-16875","James-Harden-1037","Shai-Gilgeous-Alexander-408990","Steven-Adams-16848","TJ-Warren-18634","49900","276.73"
"Alfonzo-McKinnie-37808","Deandre-Ayton-409301","Dennis-Schroder-18595","Devin-Booker-18949","Giannis-Antetokounmpo-16852","Patrick-Beverley-14108","Steven-Adams-16848","TJ-Warren-18634","49900","276.73"
"Al-Horford-1499","Alfonzo-McKinnie-37808","Devin-Booker-18949","James-Harden-1037","Patrick-Beverley-14108","Paul-George-1245","Shai-Gilgeous-Alexander-408990","Steven-Adams-16848","49900","276.72"
"Alfonzo-McKinnie-37808","Devin-Booker-18949","Giannis-Antetokounmpo-16852","James-Harden-1037","Patrick-Beverley-14108","Shai-Gilgeous-Alexander-408990","Steven-Adams-16848","TJ-Warren-18634","49800","276.64"
"Devin-Booker-18949","Eric-Bledsoe-1031","Giannis-Antetokounmpo-16852","Isaiah-Canaan-16875","Mikal-Bridges-408842","Paul-George-1245","Shai-Gilgeous-Alexander-408990","Steven-Adams-16848","50000","276.56"
"Al-Farouq-Aminu-1279","Al-Horford-1499","Deandre-Ayton-409301","Devin-Booker-18949","Giannis-Antetokounmpo-16852","Isaiah-Canaan-16875","Patrick-Beverley-14108","Steven-Adams-16848","49900","276.55"
"Danilo-Gallinari-1329","Deandre-Ayton-409301","Devin-Booker-18949","Eric-Bledsoe-1031","Giannis-Antetokounmpo-16852","Mikal-Bridges-408842","Shai-Gilgeous-Alexander-408990","Steven-Adams-16848","50000","276.52"
"Al-Farouq-Aminu-1279","Dennis-Schroder-18595","Devin-Booker-18949","Eric-Bledsoe-1031","Khris-Middleton-13990","Paul-George-1245","Shai-Gilgeous-Alexander-408990","Steven-Adams-16848","50000","276.52"
"Al-Farouq-Aminu-1279","Deandre-Ayton-409301","Dennis-Schroder-18595","Devin-Booker-18949","Eric-Bledsoe-1031","Kevon-Looney-18945","Paul-George-1245","Steven-Adams-16848","50000","276.5"
"Deandre-Ayton-409301","Dennis-Schroder-18595","Devin-Booker-18949","Eric-Bledsoe-1031","Jordan-Bell-37877","Paul-George-1245","Steven-Adams-16848","TJ-Warren-18634","49800","276.48"
"Devin-Booker-18949","Eric-Bledsoe-1031","Giannis-Antetokounmpo-16852","Mikal-Bridges-408842","Patrick-Beverley-14108","Paul-George-1245","Shai-Gilgeous-Alexander-408990","Steven-Adams-16848","49900","276.47"
"Danilo-Gallinari-1329","Devin-Booker-18949","James-Harden-1037","Jordan-Bell-37877","Paul-George-1245","Shai-Gilgeous-Alexander-408990","Steven-Adams-16848","TJ-Warren-18634","50000","276.47"
"Al-Horford-1499","Danilo-Gallinari-1329","Devin-Booker-18949","Eric-Bledsoe-1031","Giannis-Antetokounmpo-16852","Isaiah-Canaan-16875","Shai-Gilgeous-Alexander-408990","Steven-Adams-16848","49900","276.46"
"Al-Horford-1499","Alfonzo-McKinnie-37808","Devin-Booker-18949","James-Harden-1037","Jordan-Bell-37877","Paul-George-1245","Shai-Gilgeous-Alexander-408990","Steven-Adams-16848","50000","276.45"
"Al-Farouq-Aminu-1279","Devin-Booker-18949","Eric-Bledsoe-1031","James-Harden-1037","Kevon-Looney-18945","Paul-George-1245","Shai-Gilgeous-Alexander-408990","Steven-Adams-16848","49900","276.41"
"Danilo-Gallinari-1329","Devin-Booker-18949","Eric-Bledsoe-1031","Giannis-Antetokounmpo-16852","Jusuf-Nurkic-18619","Kevon-Looney-18945","Patrick-Beverley-14108","Steven-Adams-16848","50000","276.4"
"Devin-Booker-18949","Eric-Bledsoe-1031","James-Harden-1037","Jordan-Bell-37877","Paul-George-1245","Shai-Gilgeous-Alexander-408990","Steven-Adams-16848","TJ-Warren-18634","49700","276.39"
"Al-Horford-1499","Devin-Booker-18949","Eric-Bledsoe-1031","Isaiah-Canaan-16875","James-Harden-1037","Jordan-Bell-37877","Khris-Middleton-13990","Steven-Adams-16848","50000","276.37"
"Al-Horford-1499","Danilo-Gallinari-1329","Devin-Booker-18949","Eric-Bledsoe-1031","Giannis-Antetokounmpo-16852","Patrick-Beverley-14108","Shai-Gilgeous-Alexander-408990","Steven-Adams-16848","49800","276.37"
"Alfonzo-McKinnie-37808","Devin-Booker-18949","Giannis-Antetokounmpo-16852","James-Harden-1037","Jordan-Bell-37877","Shai-Gilgeous-Alexander-408990","Steven-Adams-16848","TJ-Warren-18634","49900","276.37"
"Damian-Lillard-13900","Deandre-Ayton-409301","Devin-Booker-18949","Jordan-Bell-37877","Patrick-Beverley-14108","Paul-George-1245","Steven-Adams-16848","TJ-Warren-18634","50000","276.34"
"Al-Horford-1499","Deandre-Ayton-409301","Dennis-Schroder-18595","Devin-Booker-18949","Eric-Bledsoe-1031","Khris-Middleton-13990","Steven-Adams-16848","TJ-Warren-18634","50000","276.33"
"Alfonzo-McKinnie-37808","Deandre-Ayton-409301","Devin-Booker-18949","Eric-Bledsoe-1031","James-Harden-1037","Kevon-Looney-18945","Khris-Middleton-13990","Steven-Adams-16848","50000","276.32"
"Alfonzo-McKinnie-37808","Devin-Booker-18949","Eric-Bledsoe-1031","Isaiah-Canaan-16875","James-Harden-1037","Paul-George-1245","Steven-Adams-16848","TJ-Warren-18634","49900","276.29"
"Al-Horford-1499","Devin-Booker-18949","Eric-Bledsoe-1031","James-Harden-1037","Jordan-Bell-37877","Khris-Middleton-13990","Patrick-Beverley-14108","Steven-Adams-16848","49900","276.28"
"Al-Farouq-Aminu-1279","Deandre-Ayton-409301","Devin-Booker-18949","Eric-Bledsoe-1031","Khris-Middleton-13990","Paul-George-1245","Shai-Gilgeous-Alexander-408990","Steven-Adams-16848","49800","276.27"
"Alfonzo-McKinnie-37808","Danilo-Gallinari-1329","Deandre-Ayton-409301","Devin-Booker-18949","Eric-Bledsoe-1031","James-Harden-1037","Steven-Adams-16848","TJ-Warren-18634","49900","276.25"
"Al-Farouq-Aminu-1279","Alfonzo-McKinnie-37808","Deandre-Ayton-409301","Devin-Booker-18949","Giannis-Antetokounmpo-16852","Khris-Middleton-13990","Shai-Gilgeous-Alexander-408990","Steven-Adams-16848","50000","276.25"
"Al-Horford-1499","Devin-Booker-18949","Eric-Bledsoe-1031","James-Harden-1037","Khris-Middleton-13990","Shai-Gilgeous-Alexander-408990","Steven-Adams-16848","TJ-Warren-18634","49900","276.24"
"Al-Farouq-Aminu-1279","Al-Horford-1499","Danilo-Gallinari-1329","Devin-Booker-18949","Eric-Bledsoe-1031","James-Harden-1037","Patrick-Beverley-14108","Steven-Adams-16848","50000","276.23"
"Al-Horford-1499","Deandre-Ayton-409301","Devin-Booker-18949","Eric-Bledsoe-1031","James-Harden-1037","Kevon-Looney-18945","Steven-Adams-16848","TJ-Warren-18634","49900","276.22"
"Danilo-Gallinari-1329","Deandre-Ayton-409301","Dennis-Schroder-18595","Devin-Booker-18949","Isaiah-Canaan-16875","Jordan-Bell-37877","Paul-George-1245","Steven-Adams-16848","49900","276.2"
"Devin-Booker-18949","Eric-Bledsoe-1031","Giannis-Antetokounmpo-16852","Jordan-Bell-37877","Mikal-Bridges-408842","Paul-George-1245","Shai-Gilgeous-Alexander-408990","Steven-Adams-16848","50000","276.2"
"Alfonzo-McKinnie-37808","Devin-Booker-18949","Eric-Bledsoe-1031","James-Harden-1037","Patrick-Beverley-14108","Paul-George-1245","Steven-Adams-16848","TJ-Warren-18634","49800","276.2"
"Al-Horford-1499","Alfonzo-McKinnie-37808","Devin-Booker-18949","Eric-Bledsoe-1031","James-Harden-1037","Jusuf-Nurkic-18619","Steven-Adams-16848","TJ-Warren-18634","50000","276.18"
"Deandre-Ayton-409301","Dennis-Schroder-18595","Devin-Booker-18949","Kevon-Looney-18945","Khris-Middleton-13990","Paul-George-1245","Shai-Gilgeous-Alexander-408990","Steven-Adams-16848","49900","276.14"
"Al-Horford-1499","Dennis-Schroder-18595","Devin-Booker-18949","Isaiah-Canaan-16875","Jordan-Bell-37877","Jusuf-Nurkic-18619","Paul-George-1245","Steven-Adams-16848","50000","276.13"
"Deandre-Ayton-409301","Eric-Bledsoe-1031","Giannis-Antetokounmpo-16852","Isaiah-Canaan-16875","Patrick-Beverley-14108","Paul-George-1245","Steven-Adams-16848","TJ-Warren-18634","50000","276.13"
"Devin-Booker-18949","Eric-Bledsoe-1031","Giannis-Antetokounmpo-16852","Jonas-Jerebko-1106","Patrick-Beverley-14108","Paul-George-1245","Shai-Gilgeous-Alexander-408990","Steven-Adams-16848","50000","276.12"
"Danilo-Gallinari-1329","Devin-Booker-18949","Isaiah-Canaan-16875","James-Harden-1037","Jordan-Bell-37877","Paul-George-1245","Shai-Gilgeous-Alexander-408990","Steven-Adams-16848","49800","276.11"
"Danilo-Gallinari-1329","Deandre-Ayton-409301","Dennis-Schroder-18595","Devin-Booker-18949","Jordan-Bell-37877","Patrick-Beverley-14108","Paul-George-1245","Steven-Adams-16848","49800","276.11"
"Al-Horford-1499","Deandre-Ayton-409301","Devin-Booker-18949","Khris-Middleton-13990","Patrick-Beverley-14108","Paul-George-1245","Steven-Adams-16848","TJ-Warren-18634","50000","276.11"
"Alfonzo-McKinnie-37808","Deandre-Ayton-409301","Dennis-Schroder-18595","Devin-Booker-18949","Giannis-Antetokounmpo-16852","Isaiah-Canaan-16875","Jordan-Bell-37877","Steven-Adams-16848","49800","276.1"
"Devin-Booker-18949","James-Harden-1037","Jordan-Bell-37877","Jusuf-Nurkic-18619","Mikal-Bridges-408842","Paul-George-1245","Shai-Gilgeous-Alexander-408990","Steven-Adams-16848","50000","276.1"
"Al-Farouq-Aminu-1279","Deandre-Ayton-409301","Dennis-Schroder-18595","Devin-Booker-18949","Giannis-Antetokounmpo-16852","Mikal-Bridges-408842","Shai-Gilgeous-Alexander-408990","Steven-Adams-16848","50000","276.1"
"Al-Horford-1499","Danilo-Gallinari-1329","Devin-Booker-18949","Eric-Bledsoe-1031","Giannis-Antetokounmpo-16852","Jordan-Bell-37877","Shai-Gilgeous-Alexander-408990","Steven-Adams-16848","49900","276.1"
"Alfonzo-McKinnie-37808","Dennis-Schroder-18595","Devin-Booker-18949","Jusuf-Nurkic-18619","Khris-Middleton-13990","Paul-George-1245","Shai-Gilgeous-Alexander-408990","Steven-Adams-16848","50000","276.1"
"Dennis-Schroder-18595","Devin-Booker-18949","Giannis-Antetokounmpo-16852","Patrick-Beverley-14108","Shai-Gilgeous-Alexander-408990","Steven-Adams-16848","TJ-Warren-18634","Tobias-Harris-13332","50000","276.09"
"Alfonzo-McKinnie-37808","Devin-Booker-18949","Eric-Bledsoe-1031","Giannis-Antetokounmpo-16852","Kevon-Looney-18945","Paul-George-1245","Shai-Gilgeous-Alexander-408990","Steven-Adams-16848","49900","276.09"
"Danilo-Gallinari-1329","Deandre-Ayton-409301","Dennis-Schroder-18595","Devin-Booker-18949","Paul-George-1245","Shai-Gilgeous-Alexander-408990","Steven-Adams-16848","TJ-Warren-18634","49800","276.07"
"Al-Horford-1499","Alfonzo-McKinnie-37808","Deandre-Ayton-409301","Dennis-Schroder-18595","Devin-Booker-18949","Paul-George-1245","Shai-Gilgeous-Alexander-408990","Steven-Adams-16848","49800","276.05"
"Dennis-Schroder-18595","Devin-Booker-18949","Giannis-Antetokounmpo-16852","Isaiah-Canaan-16875","Jordan-Bell-37877","Jusuf-Nurkic-18619","Steven-Adams-16848","TJ-Warren-18634","49900","276.05"
"Al-Horford-1499","Dennis-Schroder-18595","Devin-Booker-18949","Jordan-Bell-37877","Jusuf-Nurkic-18619","Patrick-Beverley-14108","Paul-George-1245","Steven-Adams-16848","49900","276.04"
"Al-Farouq-Aminu-1279","Al-Horford-1499","Dennis-Schroder-18595","Devin-Booker-18949","Giannis-Antetokounmpo-16852","Isaiah-Canaan-16875","Shai-Gilgeous-Alexander-408990","Steven-Adams-16848","49900","276.04"
"Danilo-Gallinari-1329","Devin-Booker-18949","James-Harden-1037","Jordan-Bell-37877","Patrick-Beverley-14108","Paul-George-1245","Shai-Gilgeous-Alexander-408990","Steven-Adams-16848","49700","276.02"
"Alfonzo-McKinnie-37808","Devin-Booker-18949","Giannis-Antetokounmpo-16852","Isaiah-Canaan-16875","James-Harden-1037","Jordan-Bell-37877","Shai-Gilgeous-Alexander-408990","Steven-Adams-16848","49700","276.01"
"Al-Horford-1499","Deandre-Ayton-409301","Devin-Booker-18949","Isaiah-Canaan-16875","Paul-George-1245","Shai-Gilgeous-Alexander-408990","Steven-Adams-16848","Tobias-Harris-13332","50000","276.01"
"Alfonzo-McKinnie-37808","Deandre-Ayton-409301","Dennis-Schroder-18595","Devin-Booker-18949","Giannis-Antetokounmpo-16852","Jordan-Bell-37877","Patrick-Beverley-14108","Steven-Adams-16848","49700","276.01"
"Al-Horford-1499","Dennis-Schroder-18595","Devin-Booker-18949","Isaiah-Canaan-16875","Khris-Middleton-13990","Patrick-Beverley-14108","Paul-George-1245","Steven-Adams-16848","50000","276.0"
"Al-Horford-1499","Danilo-Gallinari-1329","Devin-Booker-18949","James-Harden-1037","Jordan-Bell-37877","Jusuf-Nurkic-18619","Shai-Gilgeous-Alexander-408990","Steven-Adams-16848","49900","276.0"
"Al-Horford-1499","Dennis-Schroder-18595","Devin-Booker-18949","Jusuf-Nurkic-18619","Paul-George-1245","Shai-Gilgeous-Alexander-408990","Steven-Adams-16848","TJ-Warren-18634","49900","276.0"
"Alfonzo-McKinnie-37808","Devin-Booker-18949","James-Harden-1037","Jusuf-Nurkic-18619","Kevon-Looney-18945","Paul-George-1245","Shai-Gilgeous-Alexander-408990","Steven-Adams-16848","49900","275.99"
"Al-Farouq-Aminu-1279","Dennis-Schroder-18595","Devin-Booker-18949","Giannis-Antetokounmpo-16852","Jusuf-Nurkic-18619","Kevon-Looney-18945","Patrick-Beverley-14108","Steven-Adams-16848","50000","275.98"
"Deandre-Ayton-409301","Devin-Booker-18949","Giannis-Antetokounmpo-16852","Isaiah-Canaan-16875","Jordan-Bell-37877","Patrick-Beverley-14108","Steven-Adams-16848","Tobias-Harris-13332","49900","275.97"
"Devin-Booker-18949","James-Harden-1037","Khris-Middleton-13990","Mikal-Bridges-408842","Patrick-Beverley-14108","Paul-George-1245","Shai-Gilgeous-Alexander-408990","Steven-Adams-16848","50000","275.97"
"Alfonzo-McKinnie-37808","Deandre-Ayton-409301","Dennis-Schroder-18595","Devin-Booker-18949","Giannis-Antetokounmpo-16852","Shai-Gilgeous-Alexander-408990","Steven-Adams-16848","TJ-Warren-18634","49700","275.97"
"Al-Horford-1499","Danilo-Gallinari-1329","Deandre-Ayton-409301","Dennis-Schroder-18595","Devin-Booker-18949","Khris-Middleton-13990","Patrick-Beverley-14108","Steven-Adams-16848","50000","275.96"
"Dennis-Schroder-18595","Devin-Booker-18949","Giannis-Antetokounmpo-16852","Jordan-Bell-37877","Jusuf-Nurkic-18619","Patrick-Beverley-14108","Steven-Adams-16848","TJ-Warren-18634","49800","275.96"
"Al-Horford-1499","Danilo-Gallinari-1329","Devin-Booker-18949","Isaiah-Canaan-16875","James-Harden-1037","Khris-Middleton-13990","Shai-Gilgeous-Alexander-408990","Steven-Adams-16848","50000","275.96"
"Al-Farouq-Aminu-1279","Al-Horford-1499","Dennis-Schroder-18595","Devin-Booker-18949","Giannis-Antetokounmpo-16852","Patrick-Beverley-14108","Shai-Gilgeous-Alexander-408990","Steven-Adams-16848","49800","275.95"
"Deandre-Ayton-409301","Devin-Booker-18949","James-Harden-1037","Kevon-Looney-18945","Mikal-Bridges-408842","Patrick-Beverley-14108","Paul-George-1245","Steven-Adams-16848","50000","275.95"
