"Marcus-Smart-18567","Fred-VanVleet-36011","Andrew-Wiggins-18620","Jabari-Parker-18593","Clint-Capela-18610","Chris-Paul-1087","Gordon-Hayward-1239","Zach-LaVine-18622","50000","282.73"
"Fred-VanVleet-36011","Zach-LaVine-18622","Rodney-Hood-18629","Jabari-Parker-18593","Clint-Capela-18610","Chris-Paul-1087","Andrew-Wiggins-18620","Jonas-Valanciunas-13301","49900","282.09"
"Marcus-Smart-18567","Fred-VanVleet-36011","Rodney-Hood-18629","Jabari-Parker-18593","Clint-Capela-18610","James-Harden-1037","Andrew-Wiggins-18620","Jonas-Valanciunas-13301","49900","281.75"
"Marcus-Smart-18567","Fred-VanVleet-36011","Andrew-Wiggins-18620","Larry-Nance-18946","Karl-Anthony-Towns-18937","Zach-LaVine-18622","Gordon-Hayward-1239","Clint-Capela-18610","50000","281.52"
"Marcus-Smart-18567","Fred-VanVleet-36011","Rodney-Hood-18629","Al-Horford-1499","Clint-Capela-18610","Chris-Paul-1087","Andrew-Wiggins-18620","Karl-Anthony-Towns-18937","49900","281.46"

"Marcus-Smart-18567","Fred-VanVleet-36011","Andrew-Wiggins-18620","Jabari-Parker-18593","Clint-Capela-18610","Chris-Paul-1087","Gordon-Hayward-1239","Zach-LaVine-18622","50000","282.73"
"Fred-VanVleet-36011","Zach-LaVine-18622","Rodney-Hood-18629","Jabari-Parker-18593","Clint-Capela-18610","Chris-Paul-1087","Andrew-Wiggins-18620","Jonas-Valanciunas-13301","49900","282.09"
"Marcus-Smart-18567","Fred-VanVleet-36011","Rodney-Hood-18629","Jabari-Parker-18593","Clint-Capela-18610","James-Harden-1037","Andrew-Wiggins-18620","Jonas-Valanciunas-13301","49900","281.75"
"Marcus-Smart-18567","Fred-VanVleet-36011","Andrew-Wiggins-18620","Larry-Nance-18946","Karl-Anthony-Towns-18937","Zach-LaVine-18622","Gordon-Hayward-1239","Clint-Capela-18610","50000","281.52"
"Marcus-Smart-18567","Fred-VanVleet-36011","Rodney-Hood-18629","Al-Horford-1499","Clint-Capela-18610","Chris-Paul-1087","Andrew-Wiggins-18620","Karl-Anthony-Towns-18937","49900","281.46"
"Marcus-Smart-18567","Fred-VanVleet-36011","Andrew-Wiggins-18620","Marcus-Morris-13316","Karl-Anthony-Towns-18937","Zach-LaVine-18622","Gordon-Hayward-1239","Clint-Capela-18610","50000","281.37"
"Marcus-Smart-18567","Fred-VanVleet-36011","Andrew-Wiggins-18620","Kawhi-Leonard-13310","Clint-Capela-18610","Zach-LaVine-18622","Gordon-Hayward-1239","Jonas-Valanciunas-13301","49700","281.06"
"Marcus-Smart-18567","Fred-VanVleet-36011","Andrew-Wiggins-18620","Jayson-Tatum-37782","Clint-Capela-18610","Chris-Paul-1087","Gordon-Hayward-1239","Zach-LaVine-18622","49900","280.93"
"Fred-VanVleet-36011","Zach-LaVine-18622","Rodney-Hood-18629","Jabari-Parker-18593","Clint-Capela-18610","Chris-Paul-1087","Gordon-Hayward-1239","Jonas-Valanciunas-13301","49800","280.91"
"Fred-VanVleet-36011","Andrew-Wiggins-18620","Rodney-Hood-18629","Al-Horford-1499","Clint-Capela-18610","Chris-Paul-1087","Gordon-Hayward-1239","Zach-LaVine-18622","50000","280.76"
"Marcus-Smart-18567","Fred-VanVleet-36011","Andrew-Wiggins-18620","Al-Horford-1499","Clint-Capela-18610","Chris-Paul-1087","Gordon-Hayward-1239","Zach-LaVine-18622","49600","280.61"
"Marcus-Smart-18567","Fred-VanVleet-36011","Rodney-Hood-18629","Jabari-Parker-18593","Clint-Capela-18610","James-Harden-1037","Gordon-Hayward-1239","Jonas-Valanciunas-13301","49800","280.57"
"Fred-VanVleet-36011","Alec-Burks-13353","Rodney-Hood-18629","Jabari-Parker-18593","Clint-Capela-18610","Zach-LaVine-18622","Andrew-Wiggins-18620","Karl-Anthony-Towns-18937","49900","280.43"
"Marcus-Smart-18567","Fred-VanVleet-36011","Rodney-Hood-18629","Al-Horford-1499","Clint-Capela-18610","James-Harden-1037","Gordon-Hayward-1239","Andrew-Wiggins-18620","50000","280.42"
"Fred-VanVleet-36011","Zach-LaVine-18622","Rodney-Hood-18629","Jayson-Tatum-37782","Jonas-Valanciunas-13301","Chris-Paul-1087","Andrew-Wiggins-18620","Clint-Capela-18610","49800","280.29"
"Marcus-Smart-18567","Fred-VanVleet-36011","Alec-Burks-13353","Jabari-Parker-18593","Clint-Capela-18610","Zach-LaVine-18622","Andrew-Wiggins-18620","Karl-Anthony-Towns-18937","49500","280.28"
"Marcus-Smart-18567","Fred-VanVleet-36011","Rodney-Hood-18629","Al-Horford-1499","Clint-Capela-18610","Chris-Paul-1087","Gordon-Hayward-1239","Karl-Anthony-Towns-18937","49800","280.28"
"Marcus-Smart-18567","Zach-LaVine-18622","Andrew-Wiggins-18620","Al-Horford-1499","Clint-Capela-18610","Chris-Paul-1087","Gordon-Hayward-1239","Jonas-Valanciunas-13301","50000","280.28"
"Marcus-Smart-18567","Fred-VanVleet-36011","Andrew-Wiggins-18620","Kawhi-Leonard-13310","Clint-Capela-18610","Jordan-Clarkson-18631","Gordon-Hayward-1239","Zach-LaVine-18622","50000","280.19"
"Fred-VanVleet-36011","Zach-LaVine-18622","Andrew-Wiggins-18620","Dario-Saric-36004","Karl-Anthony-Towns-18937","Jordan-Clarkson-18631","Gordon-Hayward-1239","Clint-Capela-18610","49900","280.16"
"Fred-VanVleet-36011","Andrew-Wiggins-18620","Alec-Burks-13353","Jabari-Parker-18593","Clint-Capela-18610","James-Harden-1037","Gordon-Hayward-1239","Jonas-Valanciunas-13301","49900","280.05"
"Fred-VanVleet-36011","Zach-LaVine-18622","Andrew-Wiggins-18620","Al-Horford-1499","Wendell-Carter-408878","Chris-Paul-1087","Gordon-Hayward-1239","Clint-Capela-18610","50000","280.01"
"Fred-VanVleet-36011","Zach-LaVine-18622","Rodney-Hood-18629","Al-Horford-1499","Jonas-Valanciunas-13301","Chris-Paul-1087","Andrew-Wiggins-18620","Clint-Capela-18610","49500","279.97"
"Fred-VanVleet-36011","Zach-LaVine-18622","Alec-Burks-13353","Al-Horford-1499","Karl-Anthony-Towns-18937","Jordan-Clarkson-18631","Andrew-Wiggins-18620","Clint-Capela-18610","50000","279.95"
"Marcus-Smart-18567","Fred-VanVleet-36011","Rodney-Hood-18629","Jayson-Tatum-37782","Jonas-Valanciunas-13301","James-Harden-1037","Andrew-Wiggins-18620","Clint-Capela-18610","49800","279.95"
"Marcus-Smart-18567","Fred-VanVleet-36011","Alec-Burks-13353","Dario-Saric-36004","Clint-Capela-18610","James-Harden-1037","Andrew-Wiggins-18620","Zach-LaVine-18622","49900","279.93"
"Fred-VanVleet-36011","Zach-LaVine-18622","Alec-Burks-13353","Jabari-Parker-18593","Clint-Capela-18610","Jeff-Teague-1005","Andrew-Wiggins-18620","Chris-Paul-1087","50000","279.85"
"Marcus-Smart-18567","Fred-VanVleet-36011","Andrew-Wiggins-18620","Serge-Ibaka-1294","Karl-Anthony-Towns-18937","Chris-Paul-1087","Gordon-Hayward-1239","Clint-Capela-18610","50000","279.81"
"Fred-VanVleet-36011","Gordon-Hayward-1239","Alec-Burks-13353","Al-Horford-1499","Karl-Anthony-Towns-18937","Chris-Paul-1087","Andrew-Wiggins-18620","Clint-Capela-18610","49900","279.76"
"Fred-VanVleet-36011","Jordan-Clarkson-18631","Andrew-Wiggins-18620","Jabari-Parker-18593","Clint-Capela-18610","Jeff-Teague-1005","Gordon-Hayward-1239","Karl-Anthony-Towns-18937","50000","279.74"
"Marcus-Smart-18567","Fred-VanVleet-36011","Andrew-Wiggins-18620","Larry-Nance-18946","Karl-Anthony-Towns-18937","Chris-Paul-1087","Gordon-Hayward-1239","Clint-Capela-18610","49700","279.67"
"Marcus-Smart-18567","Fred-VanVleet-36011","Andrew-Wiggins-18620","Al-Horford-1499","Wendell-Carter-408878","James-Harden-1037","Gordon-Hayward-1239","Clint-Capela-18610","50000","279.67"
"Marcus-Smart-18567","Fred-VanVleet-36011","Rodney-Hood-18629","Al-Horford-1499","Jonas-Valanciunas-13301","James-Harden-1037","Andrew-Wiggins-18620","Clint-Capela-18610","49500","279.63"
"Fred-VanVleet-36011","Zach-LaVine-18622","Rodney-Hood-18629","Kawhi-Leonard-13310","Clint-Capela-18610","Jordan-Clarkson-18631","Andrew-Wiggins-18620","Jonas-Valanciunas-13301","49900","279.55"
"Marcus-Smart-18567","Fred-VanVleet-36011","Andrew-Wiggins-18620","Marcus-Morris-13316","Karl-Anthony-Towns-18937","Chris-Paul-1087","Gordon-Hayward-1239","Clint-Capela-18610","49700","279.52"
"Marcus-Smart-18567","Fred-VanVleet-36011","Danny-Green-940","Al-Horford-1499","Karl-Anthony-Towns-18937","Zach-LaVine-18622","Gordon-Hayward-1239","Clint-Capela-18610","50000","279.51"
"Marcus-Smart-18567","Fred-VanVleet-36011","Alec-Burks-13353","Jabari-Parker-18593","Clint-Capela-18610","James-Harden-1037","Andrew-Wiggins-18620","Jeff-Teague-1005","50000","279.51"
"Fred-VanVleet-36011","Zach-LaVine-18622","Danny-Green-940","Jabari-Parker-18593","Clint-Capela-18610","Chris-Paul-1087","Andrew-Wiggins-18620","Jonas-Valanciunas-13301","49800","279.47"
"Marcus-Smart-18567","Fred-VanVleet-36011","Rodney-Hood-18629","Robert-Covington-16874","Clint-Capela-18610","Chris-Paul-1087","Andrew-Wiggins-18620","Karl-Anthony-Towns-18937","50000","279.47"
"Fred-VanVleet-36011","Zach-LaVine-18622","Rodney-Hood-18629","Dario-Saric-36004","Clint-Capela-18610","Jeff-Teague-1005","Gordon-Hayward-1239","Karl-Anthony-Towns-18937","50000","279.46"
"Marcus-Smart-18567","Fred-VanVleet-36011","Rodney-Hood-18629","Jabari-Parker-18593","Clint-Capela-18610","Chris-Paul-1087","Andrew-Wiggins-18620","Zach-LaVine-18622","49300","279.43"
"Fred-VanVleet-36011","Andrew-Wiggins-18620","Rodney-Hood-18629","Kawhi-Leonard-13310","Jonas-Valanciunas-13301","Chris-Paul-1087","Gordon-Hayward-1239","Clint-Capela-18610","49800","279.36"
"Fred-VanVleet-36011","Alec-Burks-13353","Rodney-Hood-18629","Jabari-Parker-18593","Clint-Capela-18610","Zach-LaVine-18622","Gordon-Hayward-1239","Karl-Anthony-Towns-18937","49800","279.25"
"Marcus-Smart-18567","Fred-VanVleet-36011","Andrew-Wiggins-18620","Kawhi-Leonard-13310","Clint-Capela-18610","Chris-Paul-1087","Gordon-Hayward-1239","Jonas-Valanciunas-13301","49400","279.21"
"Marcus-Smart-18567","Fred-VanVleet-36011","Danny-Green-940","Jabari-Parker-18593","Clint-Capela-18610","James-Harden-1037","Andrew-Wiggins-18620","Jonas-Valanciunas-13301","49800","279.13"
"Fred-VanVleet-36011","Zach-LaVine-18622","Rodney-Hood-18629","Jayson-Tatum-37782","Clint-Capela-18610","Chris-Paul-1087","Gordon-Hayward-1239","Jonas-Valanciunas-13301","49700","279.11"
"Marcus-Smart-18567","Fred-VanVleet-36011","Alec-Burks-13353","Jabari-Parker-18593","Clint-Capela-18610","Zach-LaVine-18622","Gordon-Hayward-1239","Karl-Anthony-Towns-18937","49400","279.1"
"Fred-VanVleet-36011","Zach-LaVine-18622","Rodney-Hood-18629","Al-Horford-1499","Clint-Capela-18610","Jordan-Clarkson-18631","Andrew-Wiggins-18620","Chris-Paul-1087","49800","279.1"
"Marcus-Smart-18567","Zach-LaVine-18622","Rodney-Hood-18629","Jabari-Parker-18593","Clint-Capela-18610","Chris-Paul-1087","Andrew-Wiggins-18620","Jonas-Valanciunas-13301","49700","279.1"
"Fred-VanVleet-36011","Jordan-Clarkson-18631","Alec-Burks-13353","Jabari-Parker-18593","Clint-Capela-18610","Chris-Paul-1087","Gordon-Hayward-1239","Karl-Anthony-Towns-18937","50000","279.04"
"Terry-Rozier-18894","Fred-VanVleet-36011","Andrew-Wiggins-18620","Jabari-Parker-18593","Clint-Capela-18610","Chris-Paul-1087","Gordon-Hayward-1239","Zach-LaVine-18622","49900","278.99"
"Fred-VanVleet-36011","Derrick-Rose-1086","Rodney-Hood-18629","Dario-Saric-36004","Clint-Capela-18610","Zach-LaVine-18622","Andrew-Wiggins-18620","Karl-Anthony-Towns-18937","50000","278.91"
"Marcus-Smart-18567","Fred-VanVleet-36011","Gordon-Hayward-1239","Dario-Saric-36004","Clint-Capela-18610","Zach-LaVine-18622","Al-Horford-1499","Karl-Anthony-Towns-18937","50000","278.89"
"Fred-VanVleet-36011","Zach-LaVine-18622","Jabari-Parker-18593","Dario-Saric-36004","Clint-Capela-18610","Chris-Paul-1087","Andrew-Wiggins-18620","Jonas-Valanciunas-13301","49800","278.85"
"Marcus-Smart-18567","Fred-VanVleet-36011","Danny-Green-940","Al-Horford-1499","Clint-Capela-18610","Chris-Paul-1087","Andrew-Wiggins-18620","Karl-Anthony-Towns-18937","49800","278.84"
"Fred-VanVleet-36011","Zach-LaVine-18622","Rodney-Hood-18629","Jabari-Parker-18593","Clint-Capela-18610","Chris-Paul-1087","Andrew-Wiggins-18620","Wendell-Carter-408878","49700","278.83"
"Marcus-Smart-18567","Fred-VanVleet-36011","Rodney-Hood-18629","Kawhi-Leonard-13310","Clint-Capela-18610","Jeff-Teague-1005","Andrew-Wiggins-18620","Chris-Paul-1087","49900","278.82"
"Terry-Rozier-18894","Marcus-Smart-18567","Andrew-Wiggins-18620","Kawhi-Leonard-13310","Clint-Capela-18610","Fred-VanVleet-36011","Gordon-Hayward-1239","Karl-Anthony-Towns-18937","50000","278.81"
"Marcus-Smart-18567","Fred-VanVleet-36011","Rodney-Hood-18629","Jabari-Parker-18593","Jonas-Valanciunas-13301","James-Harden-1037","Andrew-Wiggins-18620","Chris-Paul-1087","50000","278.79"
"Fred-VanVleet-36011","Zach-LaVine-18622","Rodney-Hood-18629","Al-Horford-1499","Clint-Capela-18610","Chris-Paul-1087","Gordon-Hayward-1239","Jonas-Valanciunas-13301","49400","278.79"
"Jeff-Teague-1005","Fred-VanVleet-36011","Rodney-Hood-18629","Dario-Saric-36004","Clint-Capela-18610","Chris-Paul-1087","Andrew-Wiggins-18620","Karl-Anthony-Towns-18937","49800","278.79"
"Marcus-Smart-18567","Fred-VanVleet-36011","Rodney-Hood-18629","Jayson-Tatum-37782","Clint-Capela-18610","James-Harden-1037","Gordon-Hayward-1239","Jonas-Valanciunas-13301","49700","278.77"
"Fred-VanVleet-36011","Zach-LaVine-18622","Alec-Burks-13353","Al-Horford-1499","Clint-Capela-18610","Jordan-Clarkson-18631","Gordon-Hayward-1239","Karl-Anthony-Towns-18937","49900","278.77"
"Marcus-Smart-18567","Fred-VanVleet-36011","Rodney-Hood-18629","Al-Horford-1499","Clint-Capela-18610","James-Harden-1037","Andrew-Wiggins-18620","Jordan-Clarkson-18631","49800","278.76"
"Marcus-Smart-18567","Fred-VanVleet-36011","Alec-Burks-13353","Dario-Saric-36004","Clint-Capela-18610","James-Harden-1037","Gordon-Hayward-1239","Zach-LaVine-18622","49800","278.75"
"Fred-VanVleet-36011","Zach-LaVine-18622","Alec-Burks-13353","Jabari-Parker-18593","Clint-Capela-18610","Jeff-Teague-1005","Gordon-Hayward-1239","Chris-Paul-1087","49900","278.67"
"Terry-Rozier-18894","Marcus-Smart-18567","Andrew-Wiggins-18620","Jabari-Parker-18593","Clint-Capela-18610","James-Harden-1037","Gordon-Hayward-1239","Fred-VanVleet-36011","49900","278.65"
"Fred-VanVleet-36011","Zach-LaVine-18622","Alec-Burks-13353","Larry-Nance-18946","Clint-Capela-18610","Jeff-Teague-1005","Andrew-Wiggins-18620","Karl-Anthony-Towns-18937","50000","278.64"
"Fred-VanVleet-36011","Rodney-Hood-18629","Alec-Burks-13353","Jayson-Tatum-37782","Clint-Capela-18610","Zach-LaVine-18622","Andrew-Wiggins-18620","Karl-Anthony-Towns-18937","49800","278.63"
"Marcus-Smart-18567","Zach-LaVine-18622","Alec-Burks-13353","Al-Horford-1499","Karl-Anthony-Towns-18937","Gordon-Hayward-1239","Andrew-Wiggins-18620","Clint-Capela-18610","50000","278.62"
"Marcus-Smart-18567","Fred-VanVleet-36011","Andrew-Wiggins-18620","Robert-Covington-16874","Clint-Capela-18610","Chris-Paul-1087","Gordon-Hayward-1239","Zach-LaVine-18622","49700","278.62"
"Fred-VanVleet-36011","Zach-LaVine-18622","Danny-Green-940","Kawhi-Leonard-13310","Jonas-Valanciunas-13301","Gordon-Hayward-1239","Andrew-Wiggins-18620","Clint-Capela-18610","50000","278.59"
"Fred-VanVleet-36011","Alec-Burks-13353","Rodney-Hood-18629","Jabari-Parker-18593","Clint-Capela-18610","Chris-Paul-1087","Andrew-Wiggins-18620","Karl-Anthony-Towns-18937","49600","278.58"
"Marcus-Smart-18567","Rodney-Hood-18629","Andrew-Wiggins-18620","Kawhi-Leonard-13310","Clint-Capela-18610","Fred-VanVleet-36011","Gordon-Hayward-1239","Zach-LaVine-18622","49500","278.55"
"Fred-VanVleet-36011","James-Harden-1037","Andrew-Wiggins-18620","Dario-Saric-36004","Jonas-Valanciunas-13301","Derrick-Rose-1086","Gordon-Hayward-1239","Clint-Capela-18610","50000","278.53"
"Marcus-Smart-18567","Fred-VanVleet-36011","Rodney-Hood-18629","Al-Horford-1499","Jonas-Valanciunas-13301","James-Harden-1037","Andrew-Wiggins-18620","Zach-LaVine-18622","49900","278.52"
"Fred-VanVleet-36011","Rodney-Hood-18629","Andrew-Wiggins-18620","Dario-Saric-36004","Karl-Anthony-Towns-18937","Zach-LaVine-18622","Gordon-Hayward-1239","Clint-Capela-18610","49400","278.52"
"Marcus-Smart-18567","Fred-VanVleet-36011","Jabari-Parker-18593","Dario-Saric-36004","Clint-Capela-18610","James-Harden-1037","Andrew-Wiggins-18620","Jonas-Valanciunas-13301","49800","278.51"
"Marcus-Smart-18567","Fred-VanVleet-36011","Rodney-Hood-18629","Jabari-Parker-18593","Clint-Capela-18610","James-Harden-1037","Andrew-Wiggins-18620","Wendell-Carter-408878","49700","278.49"
"Fred-VanVleet-36011","Zach-LaVine-18622","Alec-Burks-13353","Marcus-Morris-13316","Clint-Capela-18610","Jeff-Teague-1005","Andrew-Wiggins-18620","Karl-Anthony-Towns-18937","50000","278.49"
"Marcus-Smart-18567","Fred-VanVleet-36011","Alec-Burks-13353","Kawhi-Leonard-13310","Karl-Anthony-Towns-18937","Jeff-Teague-1005","Gordon-Hayward-1239","Clint-Capela-18610","50000","278.49"
"Marcus-Smart-18567","Fred-VanVleet-36011","Alec-Burks-13353","Jayson-Tatum-37782","Clint-Capela-18610","Zach-LaVine-18622","Andrew-Wiggins-18620","Karl-Anthony-Towns-18937","49400","278.48"
"Marcus-Smart-18567","Fred-VanVleet-36011","Rodney-Hood-18629","Al-Horford-1499","Clint-Capela-18610","James-Harden-1037","Gordon-Hayward-1239","Jonas-Valanciunas-13301","49400","278.45"
"Marcus-Smart-18567","Fred-VanVleet-36011","Alec-Burks-13353","Jabari-Parker-18593","Clint-Capela-18610","Chris-Paul-1087","Andrew-Wiggins-18620","Karl-Anthony-Towns-18937","49200","278.43"
"Fred-VanVleet-36011","Jordan-Clarkson-18631","Alec-Burks-13353","Jayson-Tatum-37782","Clint-Capela-18610","Chris-Paul-1087","Andrew-Wiggins-18620","Karl-Anthony-Towns-18937","50000","278.42"
"Terry-Rozier-18894","Fred-VanVleet-36011","Rodney-Hood-18629","Al-Horford-1499","Clint-Capela-18610","Zach-LaVine-18622","Gordon-Hayward-1239","Karl-Anthony-Towns-18937","50000","278.39"
"Fred-VanVleet-36011","James-Harden-1037","Alec-Burks-13353","Jabari-Parker-18593","Clint-Capela-18610","Jordan-Clarkson-18631","Andrew-Wiggins-18620","Jonas-Valanciunas-13301","49700","278.39"
"Fred-VanVleet-36011","Zach-LaVine-18622","Rodney-Hood-18629","Kawhi-Leonard-13310","Jonas-Valanciunas-13301","Jordan-Clarkson-18631","Gordon-Hayward-1239","Clint-Capela-18610","49800","278.37"
"Marcus-Smart-18567","Fred-VanVleet-36011","Andrew-Wiggins-18620","Dario-Saric-36004","Karl-Anthony-Towns-18937","Zach-LaVine-18622","Gordon-Hayward-1239","Clint-Capela-18610","49000","278.37"
"Marcus-Smart-18567","Fred-VanVleet-36011","Rodney-Hood-18629","Serge-Ibaka-1294","Clint-Capela-18610","Zach-LaVine-18622","Andrew-Wiggins-18620","Karl-Anthony-Towns-18937","49600","278.36"
"Marcus-Smart-18567","Fred-VanVleet-36011","Andrew-Wiggins-18620","Kawhi-Leonard-13310","Clint-Capela-18610","Jordan-Clarkson-18631","Gordon-Hayward-1239","Chris-Paul-1087","49700","278.34"
"Marcus-Smart-18567","Fred-VanVleet-36011","Rodney-Hood-18629","Jabari-Parker-18593","Karl-Anthony-Towns-18937","Zach-LaVine-18622","Danny-Green-940","Clint-Capela-18610","49700","278.33"
"Marcus-Smart-18567","Fred-VanVleet-36011","Alec-Burks-13353","Jabari-Parker-18593","Clint-Capela-18610","James-Harden-1037","Gordon-Hayward-1239","Jeff-Teague-1005","49900","278.33"
"Fred-VanVleet-36011","Zach-LaVine-18622","Andrew-Wiggins-18620","Serge-Ibaka-1294","Clint-Capela-18610","Chris-Paul-1087","Gordon-Hayward-1239","Jonas-Valanciunas-13301","49600","278.32"
"Fred-VanVleet-36011","Jordan-Clarkson-18631","Andrew-Wiggins-18620","Dario-Saric-36004","Karl-Anthony-Towns-18937","Chris-Paul-1087","Gordon-Hayward-1239","Clint-Capela-18610","49600","278.31"
"Fred-VanVleet-36011","Rodney-Hood-18629","Alec-Burks-13353","Al-Horford-1499","Karl-Anthony-Towns-18937","Zach-LaVine-18622","Andrew-Wiggins-18620","Clint-Capela-18610","49500","278.31"
"Fred-VanVleet-36011","Zach-LaVine-18622","Danny-Green-940","Jabari-Parker-18593","Jonas-Valanciunas-13301","Chris-Paul-1087","Gordon-Hayward-1239","Clint-Capela-18610","49700","278.29"
"Marcus-Smart-18567","Fred-VanVleet-36011","Rodney-Hood-18629","Robert-Covington-16874","Clint-Capela-18610","Chris-Paul-1087","Gordon-Hayward-1239","Karl-Anthony-Towns-18937","49900","278.29"
"Marcus-Smart-18567","Fred-VanVleet-36011","Rodney-Hood-18629","Al-Horford-1499","Clint-Capela-18610","Zach-LaVine-18622","Kawhi-Leonard-13310","Jonas-Valanciunas-13301","50000","278.28"
"Marcus-Smart-18567","Fred-VanVleet-36011","Rodney-Hood-18629","Jabari-Parker-18593","Clint-Capela-18610","Chris-Paul-1087","Gordon-Hayward-1239","Zach-LaVine-18622","49200","278.25"
