"Kyle-Anderson-18615","Fred-VanVleet-36011","Jeremy-Lamb-13955","Gordon-Hayward-1239","Jusuf-Nurkic-18619","Damian-Lillard-13900","Daniel-Theis-37784","Andre-Drummond-13904","49700","288.32"

"Kyle-Anderson-18615","Fred-VanVleet-36011","Jeremy-Lamb-13955","Gordon-Hayward-1239","Jusuf-Nurkic-18619","Damian-Lillard-13900","Daniel-Theis-37784","Andre-Drummond-13904","49700","288.32"
"Fred-VanVleet-36011","Jeremy-Lamb-13955","Gordon-Hayward-1239","Rondae-Hollis-Jefferson-18897","Jusuf-Nurkic-18619","Damian-Lillard-13900","Daniel-Theis-37784","Andre-Drummond-13904","50000","288.25"
"Kyle-Anderson-18615","Andrew-Wiggins-18620","Jeremy-Lamb-13955","Gordon-Hayward-1239","Jusuf-Nurkic-18619","Damian-Lillard-13900","Daniel-Theis-37784","Andre-Drummond-13904","50000","288.07"
"Kyle-Anderson-18615","Fred-VanVleet-36011","Jeremy-Lamb-13955","Noah-Vonleh-18597","Andre-Drummond-13904","Damian-Lillard-13900","Daniel-Theis-37784","Jusuf-Nurkic-18619","49900","287.93"
"Kyle-Anderson-18615","Jeremy-Lamb-13955","Gordon-Hayward-1239","Noah-Vonleh-18597","Jusuf-Nurkic-18619","Damian-Lillard-13900","Daniel-Theis-37784","Andre-Drummond-13904","49800","287.8"
"Kyle-Anderson-18615","Jeremy-Lamb-13955","Gordon-Hayward-1239","Wendell-Carter-408878","Andre-Drummond-13904","Damian-Lillard-13900","Rondae-Hollis-Jefferson-18897","Jusuf-Nurkic-18619","50000","286.84"
"Kyle-Anderson-18615","Jeremy-Lamb-13955","Gordon-Hayward-1239","Marvin-Williams-1318","Andre-Drummond-13904","Damian-Lillard-13900","Rondae-Hollis-Jefferson-18897","Jusuf-Nurkic-18619","50000","286.61"
"Fred-VanVleet-36011","Jeremy-Lamb-13955","Kyle-Anderson-18615","Rondae-Hollis-Jefferson-18897","Andre-Drummond-13904","Damian-Lillard-13900","Daniel-Theis-37784","Jusuf-Nurkic-18619","49200","286.57"
"Kyle-Anderson-18615","Fred-VanVleet-36011","Gordon-Hayward-1239","Rondae-Hollis-Jefferson-18897","Jusuf-Nurkic-18619","Damian-Lillard-13900","Noah-Vonleh-18597","Andre-Drummond-13904","50000","286.5"
"Kyle-Anderson-18615","Jeremy-Lamb-13955","Gordon-Hayward-1239","Rondae-Hollis-Jefferson-18897","Jusuf-Nurkic-18619","Damian-Lillard-13900","Daniel-Theis-37784","Andre-Drummond-13904","49100","286.44"
"Fred-VanVleet-36011","Jeremy-Lamb-13955","Gordon-Hayward-1239","Wendell-Carter-408878","Andre-Drummond-13904","Damian-Lillard-13900","Daniel-Theis-37784","Jusuf-Nurkic-18619","50000","286.33"
"Kyle-Anderson-18615","Jeremy-Lamb-13955","Andrew-Wiggins-18620","Rondae-Hollis-Jefferson-18897","Andre-Drummond-13904","Damian-Lillard-13900","Daniel-Theis-37784","Jusuf-Nurkic-18619","49500","286.32"
"Fred-VanVleet-36011","Jeremy-Lamb-13955","Kyle-Anderson-18615","Rondae-Hollis-Jefferson-18897","Andre-Drummond-13904","Damian-Lillard-13900","Kevin-Huerter-408969","Jusuf-Nurkic-18619","49700","286.23"
"Damian-Lillard-13900","Jeremy-Lamb-13955","Kyle-Anderson-18615","Gordon-Hayward-1239","Jusuf-Nurkic-18619","Kevin-Huerter-408969","Rondae-Hollis-Jefferson-18897","Andre-Drummond-13904","49600","286.1"
"Fred-VanVleet-36011","Jeremy-Lamb-13955","Gordon-Hayward-1239","Marvin-Williams-1318","Jusuf-Nurkic-18619","Damian-Lillard-13900","Daniel-Theis-37784","Andre-Drummond-13904","50000","286.1"
"Damian-Lillard-13900","Jeremy-Lamb-13955","Andrew-Wiggins-18620","Rondae-Hollis-Jefferson-18897","Jusuf-Nurkic-18619","Kevin-Huerter-408969","Kyle-Anderson-18615","Andre-Drummond-13904","50000","285.98"
"Kyle-Anderson-18615","Kevin-Huerter-408969","Jeremy-Lamb-13955","Rondae-Hollis-Jefferson-18897","Andre-Drummond-13904","Damian-Lillard-13900","Noah-Vonleh-18597","Jusuf-Nurkic-18619","49800","285.71"
"Fred-VanVleet-36011","Jeremy-Lamb-13955","Danny-Green-940","Gordon-Hayward-1239","Jusuf-Nurkic-18619","Damian-Lillard-13900","Kyle-Anderson-18615","Andre-Drummond-13904","50000","285.59"
"Fred-VanVleet-36011","Kevin-Huerter-408969","Jeremy-Lamb-13955","Gordon-Hayward-1239","Jusuf-Nurkic-18619","Damian-Lillard-13900","Daniel-Theis-37784","Andre-Drummond-13904","49600","285.59"
"Fred-VanVleet-36011","Jeremy-Lamb-13955","Al-Farouq-Aminu-1279","Rondae-Hollis-Jefferson-18897","Andre-Drummond-13904","Damian-Lillard-13900","Kyle-Anderson-18615","Jusuf-Nurkic-18619","49700","285.47"
"Fred-VanVleet-36011","Jeremy-Lamb-13955","Andrew-Wiggins-18620","Daniel-Theis-37784","Jusuf-Nurkic-18619","Damian-Lillard-13900","Kevin-Huerter-408969","Andre-Drummond-13904","50000","285.47"
"Fred-VanVleet-36011","Jeremy-Lamb-13955","Kyle-Anderson-18615","Robert-Williams-408780","Andre-Drummond-13904","Damian-Lillard-13900","Gordon-Hayward-1239","Jusuf-Nurkic-18619","49500","285.35"
"Damian-Lillard-13900","Andrew-Wiggins-18620","Jeremy-Lamb-13955","Gordon-Hayward-1239","Jusuf-Nurkic-18619","Kevin-Huerter-408969","Daniel-Theis-37784","Andre-Drummond-13904","49900","285.34"
"Kyle-Anderson-18615","Jeremy-Lamb-13955","Al-Farouq-Aminu-1279","Gordon-Hayward-1239","Andre-Drummond-13904","Damian-Lillard-13900","Rondae-Hollis-Jefferson-18897","Jusuf-Nurkic-18619","49600","285.34"
"Fred-VanVleet-36011","Jeremy-Lamb-13955","Gordon-Hayward-1239","Robert-Williams-408780","Jusuf-Nurkic-18619","Damian-Lillard-13900","Rondae-Hollis-Jefferson-18897","Andre-Drummond-13904","49800","285.28"
"Kyle-Anderson-18615","Fred-VanVleet-36011","Jeremy-Lamb-13955","Robert-Williams-408780","Andre-Drummond-13904","Damian-Lillard-13900","Andrew-Wiggins-18620","Jusuf-Nurkic-18619","49900","285.23"
"Kyle-Anderson-18615","Jeremy-Lamb-13955","Andrew-Wiggins-18620","Al-Farouq-Aminu-1279","Andre-Drummond-13904","Damian-Lillard-13900","Rondae-Hollis-Jefferson-18897","Jusuf-Nurkic-18619","50000","285.22"
"Fred-VanVleet-36011","Jeremy-Lamb-13955","Kevin-Huerter-408969","Noah-Vonleh-18597","Andre-Drummond-13904","Damian-Lillard-13900","Daniel-Theis-37784","Jusuf-Nurkic-18619","49800","285.2"
"Damian-Lillard-13900","Jeremy-Lamb-13955","Kyle-Anderson-18615","Robert-Williams-408780","Andre-Drummond-13904","Andrew-Wiggins-18620","Gordon-Hayward-1239","Jusuf-Nurkic-18619","49800","285.1"
"Kyle-Anderson-18615","Fred-VanVleet-36011","Jeremy-Lamb-13955","Cedi-Osman-18912","Jusuf-Nurkic-18619","Damian-Lillard-13900","Gordon-Hayward-1239","Andre-Drummond-13904","49900","285.1"
"Damian-Lillard-13900","Jeremy-Lamb-13955","Gordon-Hayward-1239","Noah-Vonleh-18597","Jusuf-Nurkic-18619","Kevin-Huerter-408969","Daniel-Theis-37784","Andre-Drummond-13904","49700","285.07"
"Kyle-Anderson-18615","Fred-VanVleet-36011","Jeremy-Lamb-13955","Robert-Williams-408780","Andre-Drummond-13904","Damian-Lillard-13900","Noah-Vonleh-18597","Jusuf-Nurkic-18619","49700","284.96"
"Kyle-Anderson-18615","Jeremy-Lamb-13955","Al-Farouq-Aminu-1279","Rondae-Hollis-Jefferson-18897","Andre-Drummond-13904","Damian-Lillard-13900","Noah-Vonleh-18597","Jusuf-Nurkic-18619","49800","284.95"
"Kyle-Anderson-18615","Fred-VanVleet-36011","Jeremy-Lamb-13955","Gordon-Hayward-1239","Andre-Drummond-13904","Damian-Lillard-13900","DeMarre-Carroll-1174","Jusuf-Nurkic-18619","49300","284.85"
"Fred-VanVleet-36011","Jeremy-Lamb-13955","Al-Farouq-Aminu-1279","Gordon-Hayward-1239","Jusuf-Nurkic-18619","Damian-Lillard-13900","Daniel-Theis-37784","Andre-Drummond-13904","49600","284.83"
"Kyle-Anderson-18615","Jeremy-Lamb-13955","Gordon-Hayward-1239","Robert-Williams-408780","Andre-Drummond-13904","Damian-Lillard-13900","Noah-Vonleh-18597","Jusuf-Nurkic-18619","49600","284.83"
"Fred-VanVleet-36011","Jeremy-Lamb-13955","Gordon-Hayward-1239","DeMarre-Carroll-1174","Andre-Drummond-13904","Damian-Lillard-13900","Rondae-Hollis-Jefferson-18897","Jusuf-Nurkic-18619","49600","284.78"
"Fred-VanVleet-36011","Andrew-Wiggins-18620","Jeremy-Lamb-13955","DeMarre-Carroll-1174","Jusuf-Nurkic-18619","Damian-Lillard-13900","Kyle-Anderson-18615","Andre-Drummond-13904","49700","284.73"
"Fred-VanVleet-36011","Andrew-Wiggins-18620","Jeremy-Lamb-13955","Al-Farouq-Aminu-1279","Jusuf-Nurkic-18619","Damian-Lillard-13900","Daniel-Theis-37784","Andre-Drummond-13904","50000","284.71"
"Kyle-Anderson-18615","Andrew-Wiggins-18620","Jeremy-Lamb-13955","Robert-Williams-408780","Andre-Drummond-13904","Damian-Lillard-13900","Noah-Vonleh-18597","Jusuf-Nurkic-18619","50000","284.71"
"Kyle-Anderson-18615","Jeremy-Lamb-13955","Gordon-Hayward-1239","Wendell-Carter-408878","Jusuf-Nurkic-18619","Damian-Lillard-13900","Marvin-Williams-1318","Andre-Drummond-13904","50000","284.69"
"Fred-VanVleet-36011","Andrew-Wiggins-18620","Jeremy-Lamb-13955","DeMarre-Carroll-1174","Andre-Drummond-13904","Damian-Lillard-13900","Rondae-Hollis-Jefferson-18897","Jusuf-Nurkic-18619","50000","284.66"
"Kyle-Anderson-18615","Fred-VanVleet-36011","Jeremy-Lamb-13955","Wendell-Carter-408878","Andre-Drummond-13904","Damian-Lillard-13900","Daniel-Theis-37784","Jusuf-Nurkic-18619","49200","284.65"
"Kyle-Anderson-18615","Jeremy-Lamb-13955","Andrew-Wiggins-18620","Gordon-Hayward-1239","Andre-Drummond-13904","Damian-Lillard-13900","DeMarre-Carroll-1174","Jusuf-Nurkic-18619","49600","284.6"
"Kyle-Anderson-18615","Fred-VanVleet-36011","Jeremy-Lamb-13955","Rondae-Hollis-Jefferson-18897","Jusuf-Nurkic-18619","Damian-Lillard-13900","Nicolas-Batum-1315","Andre-Drummond-13904","49800","284.59"
"Kyle-Anderson-18615","Jeremy-Lamb-13955","Cedi-Osman-18912","Gordon-Hayward-1239","Jusuf-Nurkic-18619","Damian-Lillard-13900","Noah-Vonleh-18597","Andre-Drummond-13904","50000","284.58"
"Damian-Lillard-13900","Jeremy-Lamb-13955","Al-Farouq-Aminu-1279","Gordon-Hayward-1239","Jusuf-Nurkic-18619","Andrew-Wiggins-18620","Daniel-Theis-37784","Andre-Drummond-13904","49900","284.58"
"Kyle-Anderson-18615","Fred-VanVleet-36011","Gordon-Hayward-1239","Wendell-Carter-408878","Andre-Drummond-13904","Damian-Lillard-13900","Noah-Vonleh-18597","Jusuf-Nurkic-18619","50000","284.58"
"Damian-Lillard-13900","Jeremy-Lamb-13955","Gordon-Hayward-1239","DeMarre-Carroll-1174","Andre-Drummond-13904","Andrew-Wiggins-18620","Rondae-Hollis-Jefferson-18897","Jusuf-Nurkic-18619","49900","284.53"
"Kyle-Anderson-18615","Jeremy-Lamb-13955","Gordon-Hayward-1239","Wendell-Carter-408878","Andre-Drummond-13904","Damian-Lillard-13900","Daniel-Theis-37784","Jusuf-Nurkic-18619","49100","284.52"
"Kyle-Anderson-18615","Fred-VanVleet-36011","Jeremy-Lamb-13955","Jonathan-Isaac-37841","Jusuf-Nurkic-18619","Damian-Lillard-13900","Gordon-Hayward-1239","Andre-Drummond-13904","49800","284.52"
"Fred-VanVleet-36011","Jeremy-Lamb-13955","Kyle-Anderson-18615","DeMarre-Carroll-1174","Andre-Drummond-13904","Damian-Lillard-13900","Noah-Vonleh-18597","Jusuf-Nurkic-18619","49500","284.46"
"Damian-Lillard-13900","Jeremy-Lamb-13955","Kyle-Anderson-18615","Gordon-Hayward-1239","Jusuf-Nurkic-18619","Nicolas-Batum-1315","Rondae-Hollis-Jefferson-18897","Andre-Drummond-13904","49700","284.46"
"Kyle-Anderson-18615","Fred-VanVleet-36011","Andrew-Wiggins-18620","Gordon-Hayward-1239","Jusuf-Nurkic-18619","Damian-Lillard-13900","Daniel-Theis-37784","Andre-Drummond-13904","49300","284.45"
"Fred-VanVleet-36011","Jeremy-Lamb-13955","Al-Farouq-Aminu-1279","Noah-Vonleh-18597","Jusuf-Nurkic-18619","Damian-Lillard-13900","Daniel-Theis-37784","Andre-Drummond-13904","49800","284.44"
"Kyle-Anderson-18615","Fred-VanVleet-36011","Jeremy-Lamb-13955","Marvin-Williams-1318","Jusuf-Nurkic-18619","Damian-Lillard-13900","Daniel-Theis-37784","Andre-Drummond-13904","49200","284.42"
"Kyle-Anderson-18615","Jeremy-Lamb-13955","Andrew-Wiggins-18620","Wendell-Carter-408878","Jusuf-Nurkic-18619","Damian-Lillard-13900","Daniel-Theis-37784","Andre-Drummond-13904","49500","284.4"
"Fred-VanVleet-36011","Jeremy-Lamb-13955","DeMarre-Carroll-1174","Rondae-Hollis-Jefferson-18897","Jusuf-Nurkic-18619","Damian-Lillard-13900","Noah-Vonleh-18597","Andre-Drummond-13904","49800","284.39"
"Fred-VanVleet-36011","Andrew-Wiggins-18620","Gordon-Hayward-1239","Rondae-Hollis-Jefferson-18897","Jusuf-Nurkic-18619","Damian-Lillard-13900","Daniel-Theis-37784","Andre-Drummond-13904","49600","284.38"
"Fred-VanVleet-36011","Jeremy-Lamb-13955","Marvin-Williams-1318","Rondae-Hollis-Jefferson-18897","Jusuf-Nurkic-18619","Damian-Lillard-13900","Daniel-Theis-37784","Andre-Drummond-13904","49500","284.35"
"Kyle-Anderson-18615","Fred-VanVleet-36011","Gordon-Hayward-1239","Marvin-Williams-1318","Andre-Drummond-13904","Damian-Lillard-13900","Noah-Vonleh-18597","Jusuf-Nurkic-18619","50000","284.35"
"Kyle-Anderson-18615","Jeremy-Lamb-13955","Gordon-Hayward-1239","DeMarre-Carroll-1174","Andre-Drummond-13904","Damian-Lillard-13900","Noah-Vonleh-18597","Jusuf-Nurkic-18619","49400","284.33"
"Kyle-Anderson-18615","Fred-VanVleet-36011","Jeremy-Lamb-13955","Wendell-Carter-408878","Jusuf-Nurkic-18619","Damian-Lillard-13900","Kevin-Huerter-408969","Andre-Drummond-13904","49700","284.31"
"Kyle-Anderson-18615","Jeremy-Lamb-13955","Gordon-Hayward-1239","Marvin-Williams-1318","Jusuf-Nurkic-18619","Damian-Lillard-13900","Daniel-Theis-37784","Andre-Drummond-13904","49100","284.29"
"Fred-VanVleet-36011","Jeremy-Lamb-13955","Kevin-Huerter-408969","Wendell-Carter-408878","Andre-Drummond-13904","Damian-Lillard-13900","Rondae-Hollis-Jefferson-18897","Jusuf-Nurkic-18619","50000","284.24"
"Damian-Lillard-13900","Jeremy-Lamb-13955","Kyle-Anderson-18615","DeMarre-Carroll-1174","Andre-Drummond-13904","Andrew-Wiggins-18620","Noah-Vonleh-18597","Jusuf-Nurkic-18619","49800","284.21"
"Kyle-Anderson-18615","Fred-VanVleet-36011","Gordon-Hayward-1239","Noah-Vonleh-18597","Jusuf-Nurkic-18619","Damian-Lillard-13900","Daniel-Theis-37784","Andre-Drummond-13904","49100","284.18"
"Fred-VanVleet-36011","Jeremy-Lamb-13955","Kyle-Anderson-18615","Gordon-Hayward-1239","Andre-Drummond-13904","Damian-Lillard-13900","Maurice-Harkless-16971","Jusuf-Nurkic-18619","49100","284.18"
"Kyle-Anderson-18615","Kevin-Huerter-408969","Jeremy-Lamb-13955","Wendell-Carter-408878","Andre-Drummond-13904","Damian-Lillard-13900","Gordon-Hayward-1239","Jusuf-Nurkic-18619","49600","284.18"
"Kyle-Anderson-18615","Andrew-Wiggins-18620","Jeremy-Lamb-13955","Marvin-Williams-1318","Jusuf-Nurkic-18619","Damian-Lillard-13900","Daniel-Theis-37784","Andre-Drummond-13904","49500","284.17"
"Fred-VanVleet-36011","Jeremy-Lamb-13955","Jonathan-Isaac-37841","Noah-Vonleh-18597","Jusuf-Nurkic-18619","Damian-Lillard-13900","Kyle-Anderson-18615","Andre-Drummond-13904","50000","284.13"
"Fred-VanVleet-36011","Jeremy-Lamb-13955","Gordon-Hayward-1239","Rondae-Hollis-Jefferson-18897","Jusuf-Nurkic-18619","Damian-Lillard-13900","Maurice-Harkless-16971","Andre-Drummond-13904","49400","284.11"
"Fred-VanVleet-36011","Kevin-Huerter-408969","Andrew-Wiggins-18620","Gordon-Hayward-1239","Andre-Drummond-13904","Damian-Lillard-13900","Kyle-Anderson-18615","Jusuf-Nurkic-18619","49800","284.11"
"Damian-Lillard-13900","Jeremy-Lamb-13955","Gordon-Hayward-1239","Wendell-Carter-408878","Andre-Drummond-13904","Kevin-Huerter-408969","Rondae-Hollis-Jefferson-18897","Jusuf-Nurkic-18619","49900","284.11"
"Damian-Lillard-13900","Jeremy-Lamb-13955","Marvin-Williams-1318","Rondae-Hollis-Jefferson-18897","Jusuf-Nurkic-18619","Andrew-Wiggins-18620","Daniel-Theis-37784","Andre-Drummond-13904","49800","284.1"
"Kyle-Anderson-18615","Fred-VanVleet-36011","Jeremy-Lamb-13955","Marvin-Williams-1318","Jusuf-Nurkic-18619","Damian-Lillard-13900","Kevin-Huerter-408969","Andre-Drummond-13904","49700","284.08"
"Kyle-Anderson-18615","Nicolas-Batum-1315","Jeremy-Lamb-13955","Rondae-Hollis-Jefferson-18897","Andre-Drummond-13904","Damian-Lillard-13900","Noah-Vonleh-18597","Jusuf-Nurkic-18619","49900","284.07"
"Kyle-Anderson-18615","Kevin-Huerter-408969","Jeremy-Lamb-13955","Wendell-Carter-408878","Jusuf-Nurkic-18619","Damian-Lillard-13900","Andrew-Wiggins-18620","Andre-Drummond-13904","50000","284.06"
"Kyle-Anderson-18615","Fred-VanVleet-36011","Andrew-Wiggins-18620","Noah-Vonleh-18597","Andre-Drummond-13904","Damian-Lillard-13900","Daniel-Theis-37784","Jusuf-Nurkic-18619","49500","284.06"
"Fred-VanVleet-36011","Jeremy-Lamb-13955","Andrew-Wiggins-18620","Maurice-Harkless-16971","Jusuf-Nurkic-18619","Damian-Lillard-13900","Kyle-Anderson-18615","Andre-Drummond-13904","49500","284.06"
"Fred-VanVleet-36011","Jeremy-Lamb-13955","Kevin-Huerter-408969","Marvin-Williams-1318","Andre-Drummond-13904","Damian-Lillard-13900","Rondae-Hollis-Jefferson-18897","Jusuf-Nurkic-18619","50000","284.01"
"Kyle-Anderson-18615","Jeremy-Lamb-13955","Jonathan-Isaac-37841","Gordon-Hayward-1239","Jusuf-Nurkic-18619","Damian-Lillard-13900","Noah-Vonleh-18597","Andre-Drummond-13904","49900","284.0"
"Fred-VanVleet-36011","Andrew-Wiggins-18620","Jeremy-Lamb-13955","Rondae-Hollis-Jefferson-18897","Jusuf-Nurkic-18619","Damian-Lillard-13900","Maurice-Harkless-16971","Andre-Drummond-13904","49800","283.99"
"Fred-VanVleet-36011","Nicolas-Batum-1315","Jeremy-Lamb-13955","Gordon-Hayward-1239","Jusuf-Nurkic-18619","Damian-Lillard-13900","Daniel-Theis-37784","Andre-Drummond-13904","49700","283.95"
"Kyle-Anderson-18615","Kevin-Huerter-408969","Jeremy-Lamb-13955","Gordon-Hayward-1239","Andre-Drummond-13904","Damian-Lillard-13900","Marvin-Williams-1318","Jusuf-Nurkic-18619","49600","283.95"
"Kyle-Anderson-18615","Jeremy-Lamb-13955","Andrew-Wiggins-18620","Gordon-Hayward-1239","Jusuf-Nurkic-18619","Damian-Lillard-13900","Maurice-Harkless-16971","Andre-Drummond-13904","49400","283.93"
"Kyle-Anderson-18615","Andrew-Wiggins-18620","Gordon-Hayward-1239","Noah-Vonleh-18597","Jusuf-Nurkic-18619","Damian-Lillard-13900","Daniel-Theis-37784","Andre-Drummond-13904","49400","283.93"
"Fred-VanVleet-36011","Jeremy-Lamb-13955","Kyle-Anderson-18615","Daniel-Theis-37784","Jusuf-Nurkic-18619","Damian-Lillard-13900","Kevin-Huerter-408969","Andre-Drummond-13904","48800","283.91"
"Kyle-Anderson-18615","Jeremy-Lamb-13955","Marvin-Williams-1318","Noah-Vonleh-18597","Jusuf-Nurkic-18619","Damian-Lillard-13900","Daniel-Theis-37784","Andre-Drummond-13904","49300","283.9"
"Damian-Lillard-13900","Jeremy-Lamb-13955","Gordon-Hayward-1239","Marvin-Williams-1318","Andre-Drummond-13904","Kevin-Huerter-408969","Rondae-Hollis-Jefferson-18897","Jusuf-Nurkic-18619","49900","283.88"
"Damian-Lillard-13900","Jeremy-Lamb-13955","Gordon-Hayward-1239","Rondae-Hollis-Jefferson-18897","Jusuf-Nurkic-18619","Andrew-Wiggins-18620","Maurice-Harkless-16971","Andre-Drummond-13904","49700","283.86"
"Fred-VanVleet-36011","Jeremy-Lamb-13955","Kevin-Huerter-408969","Rondae-Hollis-Jefferson-18897","Andre-Drummond-13904","Damian-Lillard-13900","Daniel-Theis-37784","Jusuf-Nurkic-18619","49100","283.84"
"Kyle-Anderson-18615","Fred-VanVleet-36011","Gordon-Hayward-1239","Noah-Vonleh-18597","Andre-Drummond-13904","Damian-Lillard-13900","Kevin-Huerter-408969","Jusuf-Nurkic-18619","49600","283.84"
"Fred-VanVleet-36011","Jeremy-Lamb-13955","Danny-Green-940","Rondae-Hollis-Jefferson-18897","Andre-Drummond-13904","Damian-Lillard-13900","Kyle-Anderson-18615","Jusuf-Nurkic-18619","49500","283.84"
"Kyle-Anderson-18615","Andrew-Wiggins-18620","Jeremy-Lamb-13955","Marvin-Williams-1318","Jusuf-Nurkic-18619","Damian-Lillard-13900","Kevin-Huerter-408969","Andre-Drummond-13904","50000","283.83"
"Fred-VanVleet-36011","Jeremy-Lamb-13955","Kyle-Anderson-18615","Noah-Vonleh-18597","Jusuf-Nurkic-18619","Damian-Lillard-13900","Maurice-Harkless-16971","Andre-Drummond-13904","49300","283.79"
"Damian-Lillard-13900","Jeremy-Lamb-13955","Kyle-Anderson-18615","Wendell-Carter-408878","Andre-Drummond-13904","Kevin-Huerter-408969","Noah-Vonleh-18597","Jusuf-Nurkic-18619","49800","283.79"
"Kyle-Anderson-18615","Kevin-Huerter-408969","Jeremy-Lamb-13955","Gordon-Hayward-1239","Jusuf-Nurkic-18619","Damian-Lillard-13900","Daniel-Theis-37784","Andre-Drummond-13904","48700","283.78"
"Fred-VanVleet-36011","Kevin-Huerter-408969","Gordon-Hayward-1239","Rondae-Hollis-Jefferson-18897","Jusuf-Nurkic-18619","Damian-Lillard-13900","Noah-Vonleh-18597","Andre-Drummond-13904","49900","283.77"
"Darren-Collison-1060","Fred-VanVleet-36011","Jeremy-Lamb-13955","Rondae-Hollis-Jefferson-18897","Jusuf-Nurkic-18619","Damian-Lillard-13900","Kyle-Anderson-18615","Andre-Drummond-13904","49700","283.76"
