"Darren-Collison-1060","Kevin-Huerter-408969","Jeff-Green-1314","Dewayne-Dedmon-16894","Andre-Drummond-13904","John-Wall-1084","Blake-Griffin-1503","Alex-Len-16886","49700","287.76"

"Darren-Collison-1060","Kevin-Huerter-408969","Jeff-Green-1314","Dewayne-Dedmon-16894","Andre-Drummond-13904","John-Wall-1084","Blake-Griffin-1503","Alex-Len-16886","49700","287.76"
"Darren-Collison-1060","Kevin-Huerter-408969","Jeff-Green-1314","Dewayne-Dedmon-16894","Andre-Drummond-13904","Victor-Oladipo-16807","Blake-Griffin-1503","Alex-Len-16886","49500","286.3"
"Darren-Collison-1060","Victor-Oladipo-16807","Kevin-Huerter-408969","Dewayne-Dedmon-16894","Alex-Len-16886","John-Wall-1084","Blake-Griffin-1503","Trevor-Ariza-1323","50000","286.2"
"Darren-Collison-1060","Kevin-Huerter-408969","Trevor-Ariza-1323","Dewayne-Dedmon-16894","Andre-Drummond-13904","Bradley-Beal-13898","Blake-Griffin-1503","Alex-Len-16886","50000","285.96"
"Darren-Collison-1060","Victor-Oladipo-16807","Kevin-Huerter-408969","Dewayne-Dedmon-16894","Alex-Len-16886","John-Wall-1084","Trevor-Ariza-1323","Andre-Drummond-13904","49800","285.56"
"Darren-Collison-1060","Reggie-Bullock-16943","Kevin-Huerter-408969","Dewayne-Dedmon-16894","Alex-Len-16886","Victor-Oladipo-16807","Blake-Griffin-1503","Andre-Drummond-13904","49900","285.54"
"Langston-Galloway-18717","Kevin-Huerter-408969","Trevor-Ariza-1323","Dewayne-Dedmon-16894","Andre-Drummond-13904","John-Wall-1084","Blake-Griffin-1503","Alex-Len-16886","49800","285.26"
"Darren-Collison-1060","Jeremy-Lin-916","Trevor-Ariza-1323","Dewayne-Dedmon-16894","Andre-Drummond-13904","Victor-Oladipo-16807","Blake-Griffin-1503","Alex-Len-16886","50000","285.14"
"Darren-Collison-1060","Tomas-Satoransky--36031","Trevor-Ariza-1323","Dewayne-Dedmon-16894","Andre-Drummond-13904","John-Wall-1084","Blake-Griffin-1503","Alex-Len-16886","50000","284.95"
"Darren-Collison-1060","Reggie-Bullock-16943","Jeff-Green-1314","Dewayne-Dedmon-16894","Andre-Drummond-13904","John-Wall-1084","Blake-Griffin-1503","Alex-Len-16886","50000","284.82"
"John-Wall-1084","Kevin-Huerter-408969","Jeff-Green-1314","Dewayne-Dedmon-16894","Andre-Drummond-13904","Victor-Oladipo-16807","Trevor-Ariza-1323","Alex-Len-16886","50000","284.75"
"Darren-Collison-1060","Jeremy-Lin-916","Kevin-Huerter-408969","Dewayne-Dedmon-16894","Alex-Len-16886","John-Wall-1084","Blake-Griffin-1503","Andre-Drummond-13904","49200","284.61"
"Darren-Collison-1060","Victor-Oladipo-16807","Jeff-Green-1314","Dewayne-Dedmon-16894","Blake-Griffin-1503","John-Wall-1084","Trevor-Ariza-1323","Alex-Len-16886","49900","284.02"
"Darren-Collison-1060","Langston-Galloway-18717","Trevor-Ariza-1323","Dewayne-Dedmon-16894","Andre-Drummond-13904","John-Wall-1084","Blake-Griffin-1503","Alex-Len-16886","49500","283.89"
"Langston-Galloway-18717","Kevin-Huerter-408969","Trevor-Ariza-1323","Dewayne-Dedmon-16894","Andre-Drummond-13904","Victor-Oladipo-16807","Blake-Griffin-1503","Alex-Len-16886","49600","283.8"
"Jeremy-Lin-916","Kevin-Huerter-408969","Jeff-Green-1314","Dewayne-Dedmon-16894","Andre-Drummond-13904","John-Wall-1084","Blake-Griffin-1503","Alex-Len-16886","49400","283.8"
"John-Wall-1084","Luke-Kennard-37814","Trevor-Ariza-1323","Dewayne-Dedmon-16894","Andre-Drummond-13904","Kevin-Huerter-408969","Blake-Griffin-1503","Alex-Len-16886","49800","283.77"
"Darren-Collison-1060","Langston-Galloway-18717","Kent-Bazemore-13987","Dewayne-Dedmon-16894","Andre-Drummond-13904","Victor-Oladipo-16807","Blake-Griffin-1503","Alex-Len-16886","50000","283.74"
"Langston-Galloway-18717","Reggie-Jackson-13352","Kevin-Huerter-408969","Dewayne-Dedmon-16894","Alex-Len-16886","John-Wall-1084","Blake-Griffin-1503","Andre-Drummond-13904","49900","283.56"
"Darren-Collison-1060","Tomas-Satoransky--36031","Trevor-Ariza-1323","Dewayne-Dedmon-16894","Andre-Drummond-13904","Victor-Oladipo-16807","Blake-Griffin-1503","Alex-Len-16886","49800","283.49"
"John-Wall-1084","Kevin-Huerter-408969","Trevor-Ariza-1323","Dewayne-Dedmon-16894","Andre-Drummond-13904","Victor-Oladipo-16807","Markieff-Morris-13314","Alex-Len-16886","49900","283.49"
"Darren-Collison-1060","Jeremy-Lin-916","Jeff-Green-1314","Dewayne-Dedmon-16894","Andre-Drummond-13904","John-Wall-1084","Kevin-Huerter-408969","Blake-Griffin-1503","50000","283.47"
"Darren-Collison-1060","Victor-Oladipo-16807","Jeff-Green-1314","Dewayne-Dedmon-16894","Andre-Drummond-13904","John-Wall-1084","Trevor-Ariza-1323","Alex-Len-16886","49700","283.38"
"Darren-Collison-1060","Reggie-Bullock-16943","Jeff-Green-1314","Dewayne-Dedmon-16894","Andre-Drummond-13904","Victor-Oladipo-16807","Blake-Griffin-1503","Alex-Len-16886","49800","283.36"
"Darren-Collison-1060","Victor-Oladipo-16807","Thaddeus-Young-1289","Dewayne-Dedmon-16894","Andre-Drummond-13904","John-Wall-1084","Kevin-Huerter-408969","Alex-Len-16886","50000","283.34"
"Darren-Collison-1060","Jeremy-Lin-916","Kevin-Huerter-408969","Dewayne-Dedmon-16894","Alex-Len-16886","Victor-Oladipo-16807","Blake-Griffin-1503","Andre-Drummond-13904","49000","283.15"
"Darren-Collison-1060","DeAndre-Bembry-35198","Trevor-Ariza-1323","Dewayne-Dedmon-16894","Andre-Drummond-13904","Victor-Oladipo-16807","Blake-Griffin-1503","Alex-Len-16886","49900","283.06"
"Langston-Galloway-18717","Kevin-Huerter-408969","Thaddeus-Young-1289","Dewayne-Dedmon-16894","Andre-Drummond-13904","John-Wall-1084","Blake-Griffin-1503","Alex-Len-16886","50000","283.04"
"Jeremy-Lin-916","Reggie-Bullock-16943","Kevin-Huerter-408969","Dewayne-Dedmon-16894","Alex-Len-16886","John-Wall-1084","Blake-Griffin-1503","Andre-Drummond-13904","49800","283.04"
"Darren-Collison-1060","Tomas-Satoransky--36031","Kevin-Huerter-408969","Dewayne-Dedmon-16894","Alex-Len-16886","John-Wall-1084","Blake-Griffin-1503","Andre-Drummond-13904","49000","282.96"
"Darren-Collison-1060","Kevin-Huerter-408969","Jeff-Green-1314","Trevor-Ariza-1323","Alex-Len-16886","John-Wall-1084","Blake-Griffin-1503","Andre-Drummond-13904","49900","282.81"
"Darren-Collison-1060","Victor-Oladipo-16807","Trevor-Ariza-1323","Markieff-Morris-13314","Alex-Len-16886","John-Wall-1084","Blake-Griffin-1503","Dewayne-Dedmon-16894","49800","282.76"
"Darren-Collison-1060","Kevin-Huerter-408969","DeAndre-Bembry-35198","Dewayne-Dedmon-16894","Andre-Drummond-13904","John-Wall-1084","Blake-Griffin-1503","Alex-Len-16886","49100","282.53"
"Darren-Collison-1060","Langston-Galloway-18717","Trevor-Ariza-1323","Dewayne-Dedmon-16894","Andre-Drummond-13904","Victor-Oladipo-16807","Blake-Griffin-1503","Alex-Len-16886","49300","282.43"
"Darren-Collison-1060","Jeremy-Lin-916","Jeff-Green-1314","Dewayne-Dedmon-16894","Andre-Drummond-13904","John-Wall-1084","Blake-Griffin-1503","Alex-Len-16886","49100","282.43"
"Darren-Collison-1060","Luke-Kennard-37814","Trevor-Ariza-1323","Dewayne-Dedmon-16894","Andre-Drummond-13904","John-Wall-1084","Blake-Griffin-1503","Alex-Len-16886","49500","282.4"
"Darren-Collison-1060","Bradley-Beal-13898","Kent-Bazemore-13987","Dewayne-Dedmon-16894","Alex-Len-16886","John-Wall-1084","Kevin-Huerter-408969","Andre-Drummond-13904","49900","282.36"
"Jeremy-Lin-916","Kevin-Huerter-408969","Jeff-Green-1314","Dewayne-Dedmon-16894","Andre-Drummond-13904","Victor-Oladipo-16807","Blake-Griffin-1503","Alex-Len-16886","49200","282.34"
"Darren-Collison-1060","Reggie-Jackson-13352","Jeff-Green-1314","Dewayne-Dedmon-16894","Alex-Len-16886","John-Wall-1084","Blake-Griffin-1503","Victor-Oladipo-16807","50000","282.32"
"Victor-Oladipo-16807","Luke-Kennard-37814","Trevor-Ariza-1323","Dewayne-Dedmon-16894","Andre-Drummond-13904","Kevin-Huerter-408969","Blake-Griffin-1503","Alex-Len-16886","49600","282.31"
"Darren-Collison-1060","Kent-Bazemore-13987","Luke-Kennard-37814","Dewayne-Dedmon-16894","Andre-Drummond-13904","Victor-Oladipo-16807","Blake-Griffin-1503","Alex-Len-16886","50000","282.25"
"Jeremy-Lin-916","Victor-Oladipo-16807","Kevin-Huerter-408969","Dewayne-Dedmon-16894","Alex-Len-16886","John-Wall-1084","Blake-Griffin-1503","Trevor-Ariza-1323","49700","282.24"
"Darren-Collison-1060","Jeremy-Lin-916","Kevin-Huerter-408969","Dewayne-Dedmon-16894","Andre-Drummond-13904","John-Wall-1084","Markieff-Morris-13314","Blake-Griffin-1503","49900","282.21"
"Tomas-Satoransky--36031","Kevin-Huerter-408969","Jeff-Green-1314","Dewayne-Dedmon-16894","Andre-Drummond-13904","John-Wall-1084","Blake-Griffin-1503","Alex-Len-16886","49200","282.15"
"Langston-Galloway-18717","Victor-Oladipo-16807","Kevin-Huerter-408969","Dewayne-Dedmon-16894","Alex-Len-16886","John-Wall-1084","Blake-Griffin-1503","Trae-Young-409063","49900","282.14"
"Darren-Collison-1060","Victor-Oladipo-16807","Trevor-Ariza-1323","Dewayne-Dedmon-16894","Andre-Drummond-13904","John-Wall-1084","Markieff-Morris-13314","Alex-Len-16886","49600","282.12"
"Langston-Galloway-18717","Reggie-Jackson-13352","Kevin-Huerter-408969","Dewayne-Dedmon-16894","Alex-Len-16886","Victor-Oladipo-16807","Blake-Griffin-1503","Andre-Drummond-13904","49700","282.1"
"Darren-Collison-1060","Reggie-Jackson-13352","Jeff-Green-1314","Dewayne-Dedmon-16894","Andre-Drummond-13904","Bradley-Beal-13898","Blake-Griffin-1503","Alex-Len-16886","50000","282.08"
"Reggie-Jackson-13352","Luke-Kennard-37814","Kevin-Huerter-408969","Dewayne-Dedmon-16894","Alex-Len-16886","John-Wall-1084","Blake-Griffin-1503","Andre-Drummond-13904","49900","282.07"
"Darren-Collison-1060","Victor-Oladipo-16807","Jeff-Green-1314","Blake-Griffin-1503","Alex-Len-16886","John-Wall-1084","Kevin-Huerter-408969","Dewayne-Dedmon-16894","48900","282.03"
"Darren-Collison-1060","Jeremy-Lin-916","Jeff-Green-1314","Dewayne-Dedmon-16894","Andre-Drummond-13904","Victor-Oladipo-16807","Kevin-Huerter-408969","Blake-Griffin-1503","49800","282.01"
"Jeremy-Lin-916","Kevin-Huerter-408969","Trevor-Ariza-1323","Dewayne-Dedmon-16894","Andre-Drummond-13904","Bradley-Beal-13898","Blake-Griffin-1503","Alex-Len-16886","49700","282.0"
"Langston-Galloway-18717","Bradley-Beal-13898","Kevin-Huerter-408969","Dewayne-Dedmon-16894","Alex-Len-16886","Trae-Young-409063","Blake-Griffin-1503","Andre-Drummond-13904","49900","281.9"
"Darren-Collison-1060","Langston-Galloway-18717","Kevin-Huerter-408969","Dewayne-Dedmon-16894","Alex-Len-16886","John-Wall-1084","Blake-Griffin-1503","Andre-Drummond-13904","48500","281.9"
"Darren-Collison-1060","Jeremy-Lin-916","Bojan-Bogdanovic-18571","Dewayne-Dedmon-16894","Andre-Drummond-13904","John-Wall-1084","Blake-Griffin-1503","Alex-Len-16886","49800","281.82"
"Darren-Collison-1060","Tomas-Satoransky--36031","Jeff-Green-1314","Dewayne-Dedmon-16894","Andre-Drummond-13904","John-Wall-1084","Kevin-Huerter-408969","Blake-Griffin-1503","49800","281.82"
"Reggie-Jackson-13352","Victor-Oladipo-16807","Kevin-Huerter-408969","Dewayne-Dedmon-16894","Andre-Drummond-13904","John-Wall-1084","Markieff-Morris-13314","Alex-Len-16886","50000","281.79"
"Darren-Collison-1060","Kevin-Huerter-408969","Jeff-Green-1314","Dewayne-Dedmon-16894","Andre-Drummond-13904","Bradley-Beal-13898","Blake-Griffin-1503","Alex-Len-16886","48900","281.79"
"Jeremy-Lin-916","Bojan-Bogdanovic-18571","Kevin-Huerter-408969","Dewayne-Dedmon-16894","Alex-Len-16886","Victor-Oladipo-16807","Blake-Griffin-1503","Andre-Drummond-13904","49900","281.73"
"John-Wall-1084","DeAndre-Bembry-35198","Jeff-Green-1314","Dewayne-Dedmon-16894","Andre-Drummond-13904","Kevin-Huerter-408969","Blake-Griffin-1503","Alex-Len-16886","49300","281.72"
"Darren-Collison-1060","Bradley-Beal-13898","Kevin-Huerter-408969","Dewayne-Dedmon-16894","Alex-Len-16886","John-Wall-1084","Blake-Griffin-1503","Trevor-Ariza-1323","49400","281.69"
"Darren-Collison-1060","Langston-Galloway-18717","Thaddeus-Young-1289","Dewayne-Dedmon-16894","Andre-Drummond-13904","John-Wall-1084","Blake-Griffin-1503","Alex-Len-16886","49700","281.67"
"Darren-Collison-1060","Jeremy-Lin-916","Reggie-Bullock-16943","Dewayne-Dedmon-16894","Andre-Drummond-13904","John-Wall-1084","Blake-Griffin-1503","Alex-Len-16886","49500","281.67"
"Jeremy-Lin-916","Victor-Oladipo-16807","Kevin-Huerter-408969","Dewayne-Dedmon-16894","Alex-Len-16886","John-Wall-1084","Trevor-Ariza-1323","Andre-Drummond-13904","49500","281.6"
"Langston-Galloway-18717","Kevin-Huerter-408969","Thaddeus-Young-1289","Dewayne-Dedmon-16894","Andre-Drummond-13904","Victor-Oladipo-16807","Blake-Griffin-1503","Alex-Len-16886","49800","281.58"
"Jeremy-Lin-916","Reggie-Bullock-16943","Kevin-Huerter-408969","Dewayne-Dedmon-16894","Alex-Len-16886","Victor-Oladipo-16807","Blake-Griffin-1503","Andre-Drummond-13904","49600","281.58"
"Darren-Collison-1060","Kevin-Huerter-408969","Trevor-Ariza-1323","Markieff-Morris-13314","Alex-Len-16886","John-Wall-1084","Blake-Griffin-1503","Andre-Drummond-13904","49800","281.55"
"John-Wall-1084","Luke-Kennard-37814","Thaddeus-Young-1289","Dewayne-Dedmon-16894","Andre-Drummond-13904","Kevin-Huerter-408969","Blake-Griffin-1503","Alex-Len-16886","50000","281.55"
"Darren-Collison-1060","Kent-Bazemore-13987","Kevin-Huerter-408969","Dewayne-Dedmon-16894","Alex-Len-16886","Bradley-Beal-13898","Blake-Griffin-1503","Victor-Oladipo-16807","49900","281.54"
"Tomas-Satoransky--36031","Bojan-Bogdanovic-18571","Kevin-Huerter-408969","Dewayne-Dedmon-16894","Alex-Len-16886","John-Wall-1084","Blake-Griffin-1503","Andre-Drummond-13904","49900","281.54"
"Darren-Collison-1060","Tomas-Satoransky--36031","Kevin-Huerter-408969","Dewayne-Dedmon-16894","Alex-Len-16886","Victor-Oladipo-16807","Blake-Griffin-1503","Andre-Drummond-13904","48800","281.5"
"Darren-Collison-1060","Bojan-Bogdanovic-18571","Kevin-Huerter-408969","Dewayne-Dedmon-16894","Alex-Len-16886","John-Wall-1084","Blake-Griffin-1503","Victor-Oladipo-16807","49600","281.42"
"Darren-Collison-1060","Victor-Oladipo-16807","Jeff-Green-1314","Dewayne-Dedmon-16894","Andre-Drummond-13904","John-Wall-1084","Kevin-Huerter-408969","Alex-Len-16886","48700","281.39"
"Darren-Collison-1060","DeAndre-Bembry-35198","Jeff-Green-1314","Dewayne-Dedmon-16894","Andre-Drummond-13904","John-Wall-1084","Kevin-Huerter-408969","Blake-Griffin-1503","49900","281.39"
"Tomas-Satoransky--36031","Reggie-Bullock-16943","Kevin-Huerter-408969","Dewayne-Dedmon-16894","Alex-Len-16886","John-Wall-1084","Blake-Griffin-1503","Andre-Drummond-13904","49600","281.39"
"Langston-Galloway-18717","Reggie-Jackson-13352","Jeff-Green-1314","Dewayne-Dedmon-16894","Andre-Drummond-13904","John-Wall-1084","Blake-Griffin-1503","Alex-Len-16886","49800","281.38"
"Darren-Collison-1060","Reggie-Jackson-13352","DeAndre-Bembry-35198","Dewayne-Dedmon-16894","Andre-Drummond-13904","Victor-Oladipo-16807","Blake-Griffin-1503","Alex-Len-16886","50000","281.36"
"Darren-Collison-1060","Kevin-Huerter-408969","Jeff-Green-1314","Trevor-Ariza-1323","Alex-Len-16886","Victor-Oladipo-16807","Blake-Griffin-1503","Andre-Drummond-13904","49700","281.35"
"Darren-Collison-1060","Tomas-Satoransky--36031","Thaddeus-Young-1289","Dewayne-Dedmon-16894","Andre-Drummond-13904","Victor-Oladipo-16807","Blake-Griffin-1503","Alex-Len-16886","50000","281.27"
"Darren-Collison-1060","Victor-Oladipo-16807","Reggie-Bullock-16943","Dewayne-Dedmon-16894","Blake-Griffin-1503","John-Wall-1084","Kevin-Huerter-408969","Alex-Len-16886","49300","281.27"
"Tomas-Satoransky--36031","Victor-Oladipo-16807","Kent-Bazemore-13987","Dewayne-Dedmon-16894","Alex-Len-16886","John-Wall-1084","Kevin-Huerter-408969","Andre-Drummond-13904","50000","281.26"
"Langston-Galloway-18717","Jeremy-Lin-916","Kent-Bazemore-13987","Dewayne-Dedmon-16894","Andre-Drummond-13904","John-Wall-1084","Blake-Griffin-1503","Alex-Len-16886","49900","281.24"
"Darren-Collison-1060","Bojan-Bogdanovic-18571","Kevin-Huerter-408969","Dewayne-Dedmon-16894","Alex-Len-16886","Bradley-Beal-13898","Blake-Griffin-1503","Andre-Drummond-13904","49600","281.18"
"Darren-Collison-1060","Victor-Oladipo-16807","Thaddeus-Young-1289","Dewayne-Dedmon-16894","Alex-Len-16886","John-Wall-1084","Jeff-Green-1314","Andre-Drummond-13904","49900","281.16"
"John-Wall-1084","Bojan-Bogdanovic-18571","DeAndre-Bembry-35198","Dewayne-Dedmon-16894","Andre-Drummond-13904","Kevin-Huerter-408969","Blake-Griffin-1503","Alex-Len-16886","50000","281.11"
"Darren-Collison-1060","Reggie-Jackson-13352","Jeff-Green-1314","Blake-Griffin-1503","Alex-Len-16886","John-Wall-1084","Kevin-Huerter-408969","Andre-Drummond-13904","50000","281.11"
"Langston-Galloway-18717","Kevin-Huerter-408969","Jeff-Green-1314","Dewayne-Dedmon-16894","Andre-Drummond-13904","John-Wall-1084","Blake-Griffin-1503","Alex-Len-16886","48700","281.09"
"Darren-Collison-1060","Kevin-Huerter-408969","DeAndre-Bembry-35198","Dewayne-Dedmon-16894","Andre-Drummond-13904","Victor-Oladipo-16807","Blake-Griffin-1503","Alex-Len-16886","48900","281.07"
"Darren-Collison-1060","Bradley-Beal-13898","Kevin-Huerter-408969","Dewayne-Dedmon-16894","Alex-Len-16886","John-Wall-1084","Trevor-Ariza-1323","Andre-Drummond-13904","49200","281.05"
"Darren-Collison-1060","Reggie-Bullock-16943","Kevin-Huerter-408969","Dewayne-Dedmon-16894","Alex-Len-16886","Bradley-Beal-13898","Blake-Griffin-1503","Andre-Drummond-13904","49300","281.03"
"Jeremy-Lin-916","Bojan-Bogdanovic-18571","Jeff-Green-1314","Dewayne-Dedmon-16894","Andre-Drummond-13904","John-Wall-1084","Blake-Griffin-1503","Alex-Len-16886","50000","281.01"
"Jeremy-Lin-916","Tomas-Satoransky--36031","Trevor-Ariza-1323","Dewayne-Dedmon-16894","Andre-Drummond-13904","John-Wall-1084","Blake-Griffin-1503","Alex-Len-16886","49700","280.99"
"Darren-Collison-1060","Jeremy-Lin-916","Jeff-Green-1314","Dewayne-Dedmon-16894","Andre-Drummond-13904","Victor-Oladipo-16807","Blake-Griffin-1503","Alex-Len-16886","48900","280.97"
"John-Wall-1084","Reggie-Bullock-16943","DeAndre-Bembry-35198","Dewayne-Dedmon-16894","Andre-Drummond-13904","Kevin-Huerter-408969","Blake-Griffin-1503","Alex-Len-16886","49700","280.96"
"Darren-Collison-1060","Luke-Kennard-37814","Trevor-Ariza-1323","Dewayne-Dedmon-16894","Andre-Drummond-13904","Victor-Oladipo-16807","Blake-Griffin-1503","Alex-Len-16886","49300","280.94"
"Darren-Collison-1060","Bradley-Beal-13898","Kevin-Huerter-408969","Dewayne-Dedmon-16894","Alex-Len-16886","John-Wall-1084","Blake-Griffin-1503","Domantas-Sabonis-35217","49800","280.9"
"Darren-Collison-1060","Bradley-Beal-13898","Kent-Bazemore-13987","Dewayne-Dedmon-16894","Alex-Len-16886","Victor-Oladipo-16807","Kevin-Huerter-408969","Andre-Drummond-13904","49700","280.9"
"John-Wall-1084","Kevin-Huerter-408969","Jeff-Green-1314","Dewayne-Dedmon-16894","Blake-Griffin-1503","Bradley-Beal-13898","Trevor-Ariza-1323","Alex-Len-16886","49600","280.88"
"Darren-Collison-1060","Jeremy-Lin-916","Trevor-Ariza-1323","Dewayne-Dedmon-16894","Alex-Len-16886","John-Wall-1084","Blake-Griffin-1503","Victor-Oladipo-16807","49400","280.87"
"Langston-Galloway-18717","Reggie-Bullock-16943","Trevor-Ariza-1323","Dewayne-Dedmon-16894","Andre-Drummond-13904","Victor-Oladipo-16807","Blake-Griffin-1503","Alex-Len-16886","49900","280.86"
