"Eric-Bledsoe-1031","Khris-Middleton-13990","Sterling-Brown-37821","James-Johnson-1195","LaMarcus-Aldridge-1349","Gerald-Green-13374","DeMar-DeRozan-1053","Giannis-Antetokounmpo-16852","50000","272.5"
"Eric-Bledsoe-1031","DeMar-DeRozan-1053","Sterling-Brown-37821","Giannis-Antetokounmpo-16852","Clint-Capela-18610","Gerald-Green-13374","Khris-Middleton-13990","Patty-Mills-13977","50000","272.02"
"James-Harden-1037","Khris-Middleton-13990","Sterling-Brown-37821","James-Johnson-1195","Brook-Lopez-1498","Gerald-Green-13374","Eric-Gordon-1077","Giannis-Antetokounmpo-16852","50000","271.82"

"Eric-Bledsoe-1031","Khris-Middleton-13990","Sterling-Brown-37821","James-Johnson-1195","LaMarcus-Aldridge-1349","Gerald-Green-13374","DeMar-DeRozan-1053","Giannis-Antetokounmpo-16852","50000","272.5"
"Eric-Bledsoe-1031","DeMar-DeRozan-1053","Sterling-Brown-37821","Giannis-Antetokounmpo-16852","Clint-Capela-18610","Gerald-Green-13374","Khris-Middleton-13990","Patty-Mills-13977","50000","272.02"
"James-Harden-1037","Khris-Middleton-13990","Sterling-Brown-37821","James-Johnson-1195","Brook-Lopez-1498","Gerald-Green-13374","Eric-Gordon-1077","Giannis-Antetokounmpo-16852","50000","271.82"
"Eric-Bledsoe-1031","DeMar-DeRozan-1053","Sterling-Brown-37821","Giannis-Antetokounmpo-16852","Clint-Capela-18610","Gerald-Green-13374","Khris-Middleton-13990","Jakob-Poeltl-35187","50000","271.61"
"Eric-Bledsoe-1031","DeMar-DeRozan-1053","Sterling-Brown-37821","Giannis-Antetokounmpo-16852","Clint-Capela-18610","Patty-Mills-13977","Khris-Middleton-13990","James-Johnson-1195","49900","271.49"
"James-Harden-1037","Khris-Middleton-13990","Sterling-Brown-37821","James-Johnson-1195","Jakob-Poeltl-35187","Eric-Bledsoe-1031","Gerald-Green-13374","Giannis-Antetokounmpo-16852","49700","271.33"
"Eric-Bledsoe-1031","Khris-Middleton-13990","Sterling-Brown-37821","James-Johnson-1195","Jakob-Poeltl-35187","DeMar-DeRozan-1053","Giannis-Antetokounmpo-16852","Clint-Capela-18610","49900","271.08"
"Eric-Bledsoe-1031","Khris-Middleton-13990","Sterling-Brown-37821","Giannis-Antetokounmpo-16852","Hassan-Whiteside-18664","Gerald-Green-13374","DeMar-DeRozan-1053","Brook-Lopez-1498","49800","270.84"
"George-Hill-993","DeMar-DeRozan-1053","Sterling-Brown-37821","Giannis-Antetokounmpo-16852","Clint-Capela-18610","Eric-Bledsoe-1031","Khris-Middleton-13990","James-Johnson-1195","50000","270.35"
"Eric-Bledsoe-1031","Sterling-Brown-37821","Khris-Middleton-13990","James-Johnson-1195","Hassan-Whiteside-18664","DeMar-DeRozan-1053","Giannis-Antetokounmpo-16852","Brook-Lopez-1498","49700","270.31"
"Eric-Bledsoe-1031","Khris-Middleton-13990","Sterling-Brown-37821","Giannis-Antetokounmpo-16852","LaMarcus-Aldridge-1349","DeMar-DeRozan-1053","Gerald-Green-13374","Patty-Mills-13977","49800","270.17"
"James-Harden-1037","Eric-Bledsoe-1031","Sterling-Brown-37821","James-Johnson-1195","Brook-Lopez-1498","Patty-Mills-13977","Eric-Gordon-1077","Giannis-Antetokounmpo-16852","50000","269.94"
"Eric-Bledsoe-1031","Eric-Gordon-1077","Sterling-Brown-37821","James-Johnson-1195","Clint-Capela-18610","DeMar-DeRozan-1053","Gerald-Green-13374","Giannis-Antetokounmpo-16852","49800","269.88"
"Eric-Bledsoe-1031","Sterling-Brown-37821","Khris-Middleton-13990","Giannis-Antetokounmpo-16852","LaMarcus-Aldridge-1349","DeMar-DeRozan-1053","Danuel-House-36029","James-Johnson-1195","50000","269.81"
"Eric-Bledsoe-1031","Sterling-Brown-37821","Khris-Middleton-13990","LaMarcus-Aldridge-1349","Jakob-Poeltl-35187","Gerald-Green-13374","DeMar-DeRozan-1053","Giannis-Antetokounmpo-16852","49800","269.76"
"Eric-Bledsoe-1031","Khris-Middleton-13990","Sterling-Brown-37821","James-Johnson-1195","LaMarcus-Aldridge-1349","Patty-Mills-13977","DeMar-DeRozan-1053","Giannis-Antetokounmpo-16852","49700","269.64"
"James-Harden-1037","Khris-Middleton-13990","Sterling-Brown-37821","James-Johnson-1195","Brook-Lopez-1498","DeMar-DeRozan-1053","Eric-Gordon-1077","Eric-Bledsoe-1031","49900","269.62"
"James-Harden-1037","Sterling-Brown-37821","James-Johnson-1195","Giannis-Antetokounmpo-16852","Jakob-Poeltl-35187","Eric-Bledsoe-1031","Eric-Gordon-1077","Brook-Lopez-1498","50000","269.53"
"James-Harden-1037","Khris-Middleton-13990","Sterling-Brown-37821","Giannis-Antetokounmpo-16852","Brook-Lopez-1498","Gerald-Green-13374","Eric-Gordon-1077","Patty-Mills-13977","49800","269.49"
"James-Harden-1037","Eric-Bledsoe-1031","Khris-Middleton-13990","James-Johnson-1195","Jakob-Poeltl-35187","Patty-Mills-13977","Gerald-Green-13374","Giannis-Antetokounmpo-16852","49900","269.48"
"Eric-Bledsoe-1031","Khris-Middleton-13990","Sterling-Brown-37821","Giannis-Antetokounmpo-16852","Clint-Capela-18610","Gerald-Green-13374","LaMarcus-Aldridge-1349","Patty-Mills-13977","49900","269.43"
"James-Harden-1037","Gerald-Green-13374","Sterling-Brown-37821","James-Johnson-1195","Hassan-Whiteside-18664","Eric-Bledsoe-1031","Giannis-Antetokounmpo-16852","Patty-Mills-13977","49800","269.34"
"Eric-Bledsoe-1031","Sterling-Brown-37821","Khris-Middleton-13990","Danuel-House-36029","Clint-Capela-18610","Patty-Mills-13977","DeMar-DeRozan-1053","Giannis-Antetokounmpo-16852","50000","269.33"
"Eric-Bledsoe-1031","Khris-Middleton-13990","Sterling-Brown-37821","Giannis-Antetokounmpo-16852","Hassan-Whiteside-18664","Gerald-Green-13374","DeMar-DeRozan-1053","Bam-Adebayo-37835","50000","269.32"
"Eric-Bledsoe-1031","Sterling-Brown-37821","Josh-Richardson-18922","Giannis-Antetokounmpo-16852","Brook-Lopez-1498","Khris-Middleton-13990","DeMar-DeRozan-1053","Patty-Mills-13977","49900","269.28"
"Eric-Bledsoe-1031","Sterling-Brown-37821","DeMar-DeRozan-1053","P.J.-Tucker-13947","Hassan-Whiteside-18664","Khris-Middleton-13990","Gerald-Green-13374","Giannis-Antetokounmpo-16852","50000","269.26"
"James-Harden-1037","Sterling-Brown-37821","Josh-Richardson-18922","James-Johnson-1195","Jakob-Poeltl-35187","Khris-Middleton-13990","Gerald-Green-13374","Giannis-Antetokounmpo-16852","49900","269.25"
"Eric-Bledsoe-1031","Khris-Middleton-13990","James-Johnson-1195","Giannis-Antetokounmpo-16852","Brook-Lopez-1498","Gerald-Green-13374","Eric-Gordon-1077","DeMar-DeRozan-1053","49700","269.25"
"Patty-Mills-13977","Sterling-Brown-37821","Khris-Middleton-13990","Giannis-Antetokounmpo-16852","Clint-Capela-18610","DeMar-DeRozan-1053","Eric-Gordon-1077","Brook-Lopez-1498","50000","269.24"
"Eric-Bledsoe-1031","Sterling-Brown-37821","James-Johnson-1195","LaMarcus-Aldridge-1349","Jakob-Poeltl-35187","Khris-Middleton-13990","DeMar-DeRozan-1053","Giannis-Antetokounmpo-16852","49700","269.23"
"James-Harden-1037","Khris-Middleton-13990","Sterling-Brown-37821","James-Johnson-1195","D.J.-Wilson-37822","Gerald-Green-13374","Giannis-Antetokounmpo-16852","Eric-Bledsoe-1031","49900","269.17"
"James-Harden-1037","Sterling-Brown-37821","Giannis-Antetokounmpo-16852","Danuel-House-36029","Jakob-Poeltl-35187","Khris-Middleton-13990","Gerald-Green-13374","Eric-Bledsoe-1031","49800","269.17"
"James-Harden-1037","Sterling-Brown-37821","James-Johnson-1195","Giannis-Antetokounmpo-16852","Brook-Lopez-1498","Khris-Middleton-13990","Danuel-House-36029","Eric-Gordon-1077","50000","269.13"
"Eric-Bledsoe-1031","DeMar-DeRozan-1053","Sterling-Brown-37821","James-Johnson-1195","Hassan-Whiteside-18664","Patty-Mills-13977","Giannis-Antetokounmpo-16852","Clint-Capela-18610","50000","269.09"
"James-Harden-1037","Sterling-Brown-37821","Eric-Gordon-1077","Giannis-Antetokounmpo-16852","Jakob-Poeltl-35187","Khris-Middleton-13990","Gerald-Green-13374","Brook-Lopez-1498","49800","269.08"
"George-Hill-993","Khris-Middleton-13990","Sterling-Brown-37821","Giannis-Antetokounmpo-16852","LaMarcus-Aldridge-1349","DeMar-DeRozan-1053","Gerald-Green-13374","Eric-Bledsoe-1031","49900","269.03"
"James-Harden-1037","Sterling-Brown-37821","DeMar-DeRozan-1053","James-Johnson-1195","Hassan-Whiteside-18664","Khris-Middleton-13990","Gerald-Green-13374","Eric-Bledsoe-1031","49700","269.02"
"Eric-Bledsoe-1031","Khris-Middleton-13990","Sterling-Brown-37821","Giannis-Antetokounmpo-16852","Clint-Capela-18610","Gerald-Green-13374","LaMarcus-Aldridge-1349","Jakob-Poeltl-35187","49900","269.02"
"Eric-Bledsoe-1031","Sterling-Brown-37821","Khris-Middleton-13990","Giannis-Antetokounmpo-16852","Brook-Lopez-1498","Josh-Richardson-18922","LaMarcus-Aldridge-1349","James-Johnson-1195","50000","269.02"
"James-Harden-1037","Khris-Middleton-13990","Sterling-Brown-37821","Giannis-Antetokounmpo-16852","Jakob-Poeltl-35187","Eric-Bledsoe-1031","Gerald-Green-13374","Patty-Mills-13977","49500","269.0"
"Eric-Bledsoe-1031","Khris-Middleton-13990","DeMar-DeRozan-1053","Giannis-Antetokounmpo-16852","Brook-Lopez-1498","Patty-Mills-13977","Gerald-Green-13374","Hassan-Whiteside-18664","50000","268.99"
"James-Harden-1037","Khris-Middleton-13990","Sterling-Brown-37821","James-Johnson-1195","Brook-Lopez-1498","Patty-Mills-13977","Eric-Gordon-1077","Giannis-Antetokounmpo-16852","49700","268.96"
"James-Harden-1037","Gerald-Green-13374","Sterling-Brown-37821","James-Johnson-1195","Jakob-Poeltl-35187","Eric-Bledsoe-1031","Giannis-Antetokounmpo-16852","Hassan-Whiteside-18664","49800","268.93"
"Eric-Bledsoe-1031","Khris-Middleton-13990","Sterling-Brown-37821","Giannis-Antetokounmpo-16852","Clint-Capela-18610","DeMar-DeRozan-1053","Danuel-House-36029","Jakob-Poeltl-35187","50000","268.92"
"Eric-Bledsoe-1031","Sterling-Brown-37821","James-Johnson-1195","Giannis-Antetokounmpo-16852","Clint-Capela-18610","Khris-Middleton-13990","LaMarcus-Aldridge-1349","Patty-Mills-13977","49800","268.9"
"James-Harden-1037","Khris-Middleton-13990","Sterling-Brown-37821","James-Johnson-1195","Brook-Lopez-1498","Eric-Bledsoe-1031","Eric-Gordon-1077","Clint-Capela-18610","50000","268.88"
"Eric-Bledsoe-1031","Sterling-Brown-37821","Khris-Middleton-13990","Giannis-Antetokounmpo-16852","Jakob-Poeltl-35187","Josh-Richardson-18922","DeMar-DeRozan-1053","Brook-Lopez-1498","49900","268.87"
"Eric-Bledsoe-1031","DeMar-DeRozan-1053","Sterling-Brown-37821","Giannis-Antetokounmpo-16852","Clint-Capela-18610","Gerald-Green-13374","Khris-Middleton-13990","Tony-Snell-16872","50000","268.85"
"Eric-Bledsoe-1031","Sterling-Brown-37821","DeMar-DeRozan-1053","Kelly-Olynyk-16845","Hassan-Whiteside-18664","Khris-Middleton-13990","Gerald-Green-13374","Giannis-Antetokounmpo-16852","49900","268.83"
"James-Harden-1037","Khris-Middleton-13990","Sterling-Brown-37821","Giannis-Antetokounmpo-16852","Davis-Bertans-36051","Eric-Bledsoe-1031","Gerald-Green-13374","James-Johnson-1195","49900","268.83"
"Dwyane-Wade-967","Sterling-Brown-37821","DeMar-DeRozan-1053","Giannis-Antetokounmpo-16852","Brook-Lopez-1498","Eric-Bledsoe-1031","Gerald-Green-13374","Clint-Capela-18610","50000","268.79"
"Eric-Bledsoe-1031","Khris-Middleton-13990","Sterling-Brown-37821","Giannis-Antetokounmpo-16852","Hassan-Whiteside-18664","DeMar-DeRozan-1053","Bam-Adebayo-37835","James-Johnson-1195","49900","268.79"
"Eric-Bledsoe-1031","Sterling-Brown-37821","DeMar-DeRozan-1053","Giannis-Antetokounmpo-16852","Brook-Lopez-1498","Khris-Middleton-13990","Gerald-Green-13374","Eric-Gordon-1077","49300","268.77"
"Eric-Bledsoe-1031","DeMar-DeRozan-1053","Sterling-Brown-37821","Giannis-Antetokounmpo-16852","Clint-Capela-18610","Patty-Mills-13977","Khris-Middleton-13990","Jakob-Poeltl-35187","49700","268.75"
"Eric-Bledsoe-1031","Sterling-Brown-37821","Khris-Middleton-13990","James-Johnson-1195","Hassan-Whiteside-18664","DeMar-DeRozan-1053","Giannis-Antetokounmpo-16852","P.J.-Tucker-13947","49900","268.73"
"James-Harden-1037","Khris-Middleton-13990","Sterling-Brown-37821","James-Johnson-1195","Jakob-Poeltl-35187","Eric-Bledsoe-1031","Giannis-Antetokounmpo-16852","Danuel-House-36029","49700","268.64"
"Patty-Mills-13977","Khris-Middleton-13990","Sterling-Brown-37821","Giannis-Antetokounmpo-16852","Hassan-Whiteside-18664","Gerald-Green-13374","DeMar-DeRozan-1053","Clint-Capela-18610","49800","268.64"
"James-Harden-1037","Sterling-Brown-37821","Eric-Gordon-1077","Giannis-Antetokounmpo-16852","Jakob-Poeltl-35187","DeMar-DeRozan-1053","Gerald-Green-13374","Patty-Mills-13977","50000","268.6"
"James-Harden-1037","Sterling-Brown-37821","James-Johnson-1195","Giannis-Antetokounmpo-16852","Jakob-Poeltl-35187","Khris-Middleton-13990","Eric-Gordon-1077","Brook-Lopez-1498","49700","268.55"
"Eric-Bledsoe-1031","Khris-Middleton-13990","Sterling-Brown-37821","Giannis-Antetokounmpo-16852","Clint-Capela-18610","Patty-Mills-13977","Josh-Richardson-18922","Brook-Lopez-1498","50000","268.54"
"James-Harden-1037","Sterling-Brown-37821","Giannis-Antetokounmpo-16852","Danuel-House-36029","Hassan-Whiteside-18664","Khris-Middleton-13990","Gerald-Green-13374","James-Johnson-1195","49800","268.53"
"James-Harden-1037","Dwyane-Wade-967","Sterling-Brown-37821","James-Johnson-1195","Brook-Lopez-1498","Eric-Bledsoe-1031","Gerald-Green-13374","Giannis-Antetokounmpo-16852","49700","268.51"
"Eric-Bledsoe-1031","Khris-Middleton-13990","James-Johnson-1195","Giannis-Antetokounmpo-16852","Brook-Lopez-1498","Gerald-Green-13374","Eric-Gordon-1077","Clint-Capela-18610","49800","268.51"
"George-Hill-993","Khris-Middleton-13990","Sterling-Brown-37821","James-Johnson-1195","LaMarcus-Aldridge-1349","Eric-Bledsoe-1031","DeMar-DeRozan-1053","Giannis-Antetokounmpo-16852","49800","268.5"
"Eric-Bledsoe-1031","Sterling-Brown-37821","James-Johnson-1195","Giannis-Antetokounmpo-16852","Clint-Capela-18610","Khris-Middleton-13990","LaMarcus-Aldridge-1349","Jakob-Poeltl-35187","49800","268.49"
"James-Harden-1037","Khris-Middleton-13990","Sterling-Brown-37821","James-Johnson-1195","Jakob-Poeltl-35187","Eric-Bledsoe-1031","Giannis-Antetokounmpo-16852","Patty-Mills-13977","49400","268.47"
"James-Harden-1037","DeMar-DeRozan-1053","Sterling-Brown-37821","James-Johnson-1195","Brook-Lopez-1498","Gerald-Green-13374","Bam-Adebayo-37835","Giannis-Antetokounmpo-16852","49700","268.47"
"Eric-Bledsoe-1031","DeMar-DeRozan-1053","Khris-Middleton-13990","James-Johnson-1195","Hassan-Whiteside-18664","Patty-Mills-13977","Giannis-Antetokounmpo-16852","Brook-Lopez-1498","49900","268.46"
"James-Harden-1037","Sterling-Brown-37821","Eric-Gordon-1077","James-Johnson-1195","LaMarcus-Aldridge-1349","Gerald-Green-13374","DeMar-DeRozan-1053","Khris-Middleton-13990","50000","268.43"
"James-Harden-1037","DeMar-DeRozan-1053","Sterling-Brown-37821","Giannis-Antetokounmpo-16852","Brook-Lopez-1498","Gerald-Green-13374","P.J.-Tucker-13947","James-Johnson-1195","49700","268.41"
"James-Harden-1037","Sterling-Brown-37821","Khris-Middleton-13990","James-Johnson-1195","Hassan-Whiteside-18664","Gerald-Green-13374","Giannis-Antetokounmpo-16852","Patty-Mills-13977","49500","268.36"
"James-Harden-1037","Khris-Middleton-13990","Sterling-Brown-37821","Giannis-Antetokounmpo-16852","Brook-Lopez-1498","George-Hill-993","Eric-Gordon-1077","Gerald-Green-13374","49900","268.35"
"James-Harden-1037","George-Hill-993","Khris-Middleton-13990","James-Johnson-1195","Jakob-Poeltl-35187","Eric-Bledsoe-1031","Gerald-Green-13374","Giannis-Antetokounmpo-16852","50000","268.34"
"Eric-Bledsoe-1031","DeMar-DeRozan-1053","Sterling-Brown-37821","Giannis-Antetokounmpo-16852","Clint-Capela-18610","Tony-Snell-16872","Khris-Middleton-13990","James-Johnson-1195","49900","268.32"
"Eric-Bledsoe-1031","Khris-Middleton-13990","Sterling-Brown-37821","Kelly-Olynyk-16845","Hassan-Whiteside-18664","DeMar-DeRozan-1053","Giannis-Antetokounmpo-16852","James-Johnson-1195","49800","268.3"
"George-Hill-993","Khris-Middleton-13990","Sterling-Brown-37821","Giannis-Antetokounmpo-16852","Clint-Capela-18610","Gerald-Green-13374","LaMarcus-Aldridge-1349","Eric-Bledsoe-1031","50000","268.29"
"James-Harden-1037","Khris-Middleton-13990","Sterling-Brown-37821","James-Johnson-1195","Clint-Capela-18610","Eric-Bledsoe-1031","Gerald-Green-13374","Hassan-Whiteside-18664","49800","268.28"
"Dwyane-Wade-967","DeMar-DeRozan-1053","Sterling-Brown-37821","James-Johnson-1195","Clint-Capela-18610","Eric-Bledsoe-1031","Giannis-Antetokounmpo-16852","Brook-Lopez-1498","49900","268.26"
"Eric-Bledsoe-1031","Sterling-Brown-37821","Khris-Middleton-13990","Giannis-Antetokounmpo-16852","Brook-Lopez-1498","Gerald-Green-13374","LaMarcus-Aldridge-1349","Hassan-Whiteside-18664","49700","268.25"
"Eric-Bledsoe-1031","Khris-Middleton-13990","Sterling-Brown-37821","James-Johnson-1195","Brook-Lopez-1498","DeMar-DeRozan-1053","Eric-Gordon-1077","Giannis-Antetokounmpo-16852","49200","268.24"
"Eric-Bledsoe-1031","Khris-Middleton-13990","Sterling-Brown-37821","James-Johnson-1195","Clint-Capela-18610","Josh-Richardson-18922","Gerald-Green-13374","Giannis-Antetokounmpo-16852","49500","268.2"
"James-Harden-1037","George-Hill-993","Sterling-Brown-37821","James-Johnson-1195","Hassan-Whiteside-18664","Gerald-Green-13374","Giannis-Antetokounmpo-16852","Eric-Bledsoe-1031","49900","268.2"
"Eric-Bledsoe-1031","Sterling-Brown-37821","DeMar-DeRozan-1053","Giannis-Antetokounmpo-16852","Brook-Lopez-1498","Khris-Middleton-13990","Danuel-House-36029","Hassan-Whiteside-18664","49800","268.15"
"George-Hill-993","Sterling-Brown-37821","Josh-Richardson-18922","Giannis-Antetokounmpo-16852","Brook-Lopez-1498","Khris-Middleton-13990","DeMar-DeRozan-1053","Eric-Bledsoe-1031","50000","268.14"
"Patty-Mills-13977","Sterling-Brown-37821","Khris-Middleton-13990","James-Johnson-1195","Hassan-Whiteside-18664","DeMar-DeRozan-1053","Giannis-Antetokounmpo-16852","Clint-Capela-18610","49700","268.11"
"Eric-Bledsoe-1031","Sterling-Brown-37821","Giannis-Antetokounmpo-16852","Kelly-Olynyk-16845","Hassan-Whiteside-18664","Khris-Middleton-13990","Gerald-Green-13374","Clint-Capela-18610","50000","268.09"
"Patty-Mills-13977","Khris-Middleton-13990","Sterling-Brown-37821","Giannis-Antetokounmpo-16852","LaMarcus-Aldridge-1349","Josh-Richardson-18922","Gerald-Green-13374","DeMar-DeRozan-1053","50000","268.09"
"James-Harden-1037","Sterling-Brown-37821","James-Johnson-1195","Giannis-Antetokounmpo-16852","Jakob-Poeltl-35187","DeMar-DeRozan-1053","Eric-Gordon-1077","Patty-Mills-13977","49900","268.07"
"Eric-Bledsoe-1031","Sterling-Brown-37821","James-Johnson-1195","Giannis-Antetokounmpo-16852","Hassan-Whiteside-18664","Khris-Middleton-13990","Bam-Adebayo-37835","Clint-Capela-18610","50000","268.05"
"Eric-Bledsoe-1031","Sterling-Brown-37821","Eric-Gordon-1077","James-Johnson-1195","LaMarcus-Aldridge-1349","Gerald-Green-13374","DeMar-DeRozan-1053","Giannis-Antetokounmpo-16852","49600","268.03"
"Eric-Bledsoe-1031","DeMar-DeRozan-1053","Eric-Gordon-1077","James-Johnson-1195","Clint-Capela-18610","Patty-Mills-13977","Gerald-Green-13374","Giannis-Antetokounmpo-16852","50000","268.03"
"Eric-Bledsoe-1031","Sterling-Brown-37821","Khris-Middleton-13990","Giannis-Antetokounmpo-16852","Clint-Capela-18610","Gerald-Green-13374","Eric-Gordon-1077","Brook-Lopez-1498","49400","268.03"
"George-Hill-993","DeMar-DeRozan-1053","Sterling-Brown-37821","Giannis-Antetokounmpo-16852","Clint-Capela-18610","Eric-Bledsoe-1031","Khris-Middleton-13990","Patty-Mills-13977","49800","268.02"
"Eric-Bledsoe-1031","Sterling-Brown-37821","James-Johnson-1195","Giannis-Antetokounmpo-16852","Clint-Capela-18610","Khris-Middleton-13990","P.J.-Tucker-13947","Hassan-Whiteside-18664","50000","267.99"
"Eric-Bledsoe-1031","Khris-Middleton-13990","Sterling-Brown-37821","Giannis-Antetokounmpo-16852","Hassan-Whiteside-18664","Patty-Mills-13977","DeMar-DeRozan-1053","Brook-Lopez-1498","49500","267.98"
"James-Harden-1037","Sterling-Brown-37821","Giannis-Antetokounmpo-16852","Kelly-Olynyk-16845","Brook-Lopez-1498","DeMar-DeRozan-1053","Gerald-Green-13374","James-Johnson-1195","49600","267.98"
"James-Harden-1037","Khris-Middleton-13990","Sterling-Brown-37821","Giannis-Antetokounmpo-16852","Bam-Adebayo-37835","Gerald-Green-13374","Eric-Gordon-1077","Patty-Mills-13977","50000","267.97"
"James-Harden-1037","Khris-Middleton-13990","Sterling-Brown-37821","James-Johnson-1195","Jakob-Poeltl-35187","Gerald-Green-13374","Giannis-Antetokounmpo-16852","Hassan-Whiteside-18664","49500","267.95"
"Eric-Bledsoe-1031","Gerald-Green-13374","Khris-Middleton-13990","LaMarcus-Aldridge-1349","Jakob-Poeltl-35187","Patty-Mills-13977","DeMar-DeRozan-1053","Giannis-Antetokounmpo-16852","50000","267.91"
"James-Harden-1037","Gerald-Green-13374","Sterling-Brown-37821","Giannis-Antetokounmpo-16852","Jakob-Poeltl-35187","Eric-Bledsoe-1031","Josh-Richardson-18922","Patty-Mills-13977","50000","267.9"
