"Spencer-Dinwiddie-18588","C.J.-McCollum-17121","Josh-Richardson-18922","Al-Farouq-Aminu-1279","Enes-Kanter-13299","D'Angelo-Russell-18947","Justise-Winslow-18921","Jusuf-Nurkic-18619","49600","273.94"

"Spencer-Dinwiddie-18588","C.J.-McCollum-17121","Josh-Richardson-18922","Al-Farouq-Aminu-1279","Enes-Kanter-13299","D'Angelo-Russell-18947","Justise-Winslow-18921","Jusuf-Nurkic-18619","49600","273.94"
"Spencer-Dinwiddie-18588","Tim-Hardaway-Jr.-16879","Josh-Richardson-18922","Al-Farouq-Aminu-1279","Enes-Kanter-13299","D'Angelo-Russell-18947","Justise-Winslow-18921","Jusuf-Nurkic-18619","50000","273.75"
"Spencer-Dinwiddie-18588","Allen-Crabbe-16978","Josh-Richardson-18922","Al-Farouq-Aminu-1279","Jusuf-Nurkic-18619","Damian-Lillard-13900","Justise-Winslow-18921","D'Angelo-Russell-18947","50000","273.0"
"Justise-Winslow-18921","C.J.-McCollum-17121","Josh-Richardson-18922","Al-Farouq-Aminu-1279","Hassan-Whiteside-18664","D'Angelo-Russell-18947","Allen-Crabbe-16978","Jusuf-Nurkic-18619","49600","272.66"
"Justise-Winslow-18921","Tim-Hardaway-Jr.-16879","Josh-Richardson-18922","Al-Farouq-Aminu-1279","Hassan-Whiteside-18664","D'Angelo-Russell-18947","Allen-Crabbe-16978","Jusuf-Nurkic-18619","50000","272.47"
"Trey-Burke-17029","C.J.-McCollum-17121","Josh-Richardson-18922","Al-Farouq-Aminu-1279","Hassan-Whiteside-18664","D'Angelo-Russell-18947","Justise-Winslow-18921","Jusuf-Nurkic-18619","50000","271.9"
"Spencer-Dinwiddie-18588","Josh-Richardson-18922","Justise-Winslow-18921","Al-Farouq-Aminu-1279","Enes-Kanter-13299","Damian-Lillard-13900","Rodney-McGruder-16850","Jusuf-Nurkic-18619","50000","271.5"
"Spencer-Dinwiddie-18588","Josh-Richardson-18922","Justise-Winslow-18921","Al-Farouq-Aminu-1279","Hassan-Whiteside-18664","D'Angelo-Russell-18947","Rodney-McGruder-16850","Jusuf-Nurkic-18619","49300","271.46"
"Justise-Winslow-18921","C.J.-McCollum-17121","Josh-Richardson-18922","Al-Farouq-Aminu-1279","Hassan-Whiteside-18664","D'Angelo-Russell-18947","Kevin-Knox-408820","Jusuf-Nurkic-18619","49800","271.07"
"Spencer-Dinwiddie-18588","C.J.-McCollum-17121","Josh-Richardson-18922","Zach-Collins-37866","Jusuf-Nurkic-18619","D'Angelo-Russell-18947","Justise-Winslow-18921","Hassan-Whiteside-18664","50000","270.75"
"Spencer-Dinwiddie-18588","C.J.-McCollum-17121","Tim-Hardaway-Jr.-16879","Al-Farouq-Aminu-1279","Jusuf-Nurkic-18619","D'Angelo-Russell-18947","Justise-Winslow-18921","Enes-Kanter-13299","49700","270.39"
"Justise-Winslow-18921","Rodney-McGruder-16850","Josh-Richardson-18922","Al-Farouq-Aminu-1279","Hassan-Whiteside-18664","Damian-Lillard-13900","Allen-Crabbe-16978","Jusuf-Nurkic-18619","50000","270.22"
"C.J.-McCollum-17121","Josh-Richardson-18922","Tim-Hardaway-Jr.-16879","Al-Farouq-Aminu-1279","Jusuf-Nurkic-18619","D'Angelo-Russell-18947","Justise-Winslow-18921","Rodney-McGruder-16850","49800","270.17"
"Spencer-Dinwiddie-18588","Josh-Richardson-18922","Justise-Winslow-18921","Al-Farouq-Aminu-1279","Enes-Kanter-13299","Damian-Lillard-13900","Rodney-McGruder-16850","D'Angelo-Russell-18947","49900","270.12"
"C.J.-McCollum-17121","D'Angelo-Russell-18947","Josh-Richardson-18922","Al-Farouq-Aminu-1279","Hassan-Whiteside-18664","Allonzo-Trier-554950","Justise-Winslow-18921","Jusuf-Nurkic-18619","49800","269.78"
"C.J.-McCollum-17121","Josh-Richardson-18922","Justise-Winslow-18921","Al-Farouq-Aminu-1279","Enes-Kanter-13299","D'Angelo-Russell-18947","Rodney-McGruder-16850","Hassan-Whiteside-18664","49500","269.78"
"C.J.-McCollum-17121","Josh-Richardson-18922","Justise-Winslow-18921","Al-Farouq-Aminu-1279","Enes-Kanter-13299","D'Angelo-Russell-18947","Rodney-McGruder-16850","Jusuf-Nurkic-18619","48900","269.68"
"Spencer-Dinwiddie-18588","C.J.-McCollum-17121","Justise-Winslow-18921","Al-Farouq-Aminu-1279","Jusuf-Nurkic-18619","Damian-Lillard-13900","Allen-Crabbe-16978","D'Angelo-Russell-18947","49700","269.64"
"Justise-Winslow-18921","C.J.-McCollum-17121","James-Johnson-1195","Al-Farouq-Aminu-1279","Hassan-Whiteside-18664","D'Angelo-Russell-18947","Josh-Richardson-18922","Jusuf-Nurkic-18619","49900","269.6"
"Justise-Winslow-18921","D'Angelo-Russell-18947","Tim-Hardaway-Jr.-16879","Al-Farouq-Aminu-1279","Hassan-Whiteside-18664","Rodney-McGruder-16850","Josh-Richardson-18922","Enes-Kanter-13299","49900","269.59"
"D'Angelo-Russell-18947","Tim-Hardaway-Jr.-16879","Justise-Winslow-18921","Al-Farouq-Aminu-1279","Enes-Kanter-13299","Josh-Richardson-18922","Rodney-McGruder-16850","Jusuf-Nurkic-18619","49300","269.49"
"Spencer-Dinwiddie-18588","Tim-Hardaway-Jr.-16879","Josh-Richardson-18922","Al-Farouq-Aminu-1279","Enes-Kanter-13299","C.J.-McCollum-17121","Justise-Winslow-18921","Jusuf-Nurkic-18619","49500","269.26"
"Wayne-Ellington-1009","D'Angelo-Russell-18947","Josh-Richardson-18922","Al-Farouq-Aminu-1279","Jusuf-Nurkic-18619","Damian-Lillard-13900","Justise-Winslow-18921","Rodney-McGruder-16850","49900","269.21"
"C.J.-McCollum-17121","Allen-Crabbe-16978","Tim-Hardaway-Jr.-16879","Al-Farouq-Aminu-1279","Jusuf-Nurkic-18619","D'Angelo-Russell-18947","Justise-Winslow-18921","Hassan-Whiteside-18664","49700","269.11"
"Spencer-Dinwiddie-18588","D'Angelo-Russell-18947","Josh-Richardson-18922","Al-Farouq-Aminu-1279","Jusuf-Nurkic-18619","Damian-Lillard-13900","Justise-Winslow-18921","Mitchell-Robinson-408821","49800","269.09"
"Spencer-Dinwiddie-18588","D'Angelo-Russell-18947","Justise-Winslow-18921","Al-Farouq-Aminu-1279","Enes-Kanter-13299","Damian-Lillard-13900","Allen-Crabbe-16978","Hassan-Whiteside-18664","49800","269.06"
"Spencer-Dinwiddie-18588","C.J.-McCollum-17121","Josh-Richardson-18922","Al-Farouq-Aminu-1279","Enes-Kanter-13299","D'Angelo-Russell-18947","Rodney-McGruder-16850","Jusuf-Nurkic-18619","49900","269.04"
"Spencer-Dinwiddie-18588","D'Angelo-Russell-18947","Justise-Winslow-18921","Al-Farouq-Aminu-1279","Jusuf-Nurkic-18619","Damian-Lillard-13900","Allen-Crabbe-16978","Enes-Kanter-13299","49200","268.96"
"Justise-Winslow-18921","D'Angelo-Russell-18947","Josh-Richardson-18922","Al-Farouq-Aminu-1279","Hassan-Whiteside-18664","Damian-Lillard-13900","Allen-Crabbe-16978","Rodney-McGruder-16850","49900","268.84"
"C.J.-McCollum-17121","Tim-Hardaway-Jr.-16879","Josh-Richardson-18922","Zach-Collins-37866","Enes-Kanter-13299","D'Angelo-Russell-18947","Justise-Winslow-18921","Jusuf-Nurkic-18619","50000","268.78"
"D'Angelo-Russell-18947","Allen-Crabbe-16978","Josh-Richardson-18922","Al-Farouq-Aminu-1279","Jusuf-Nurkic-18619","Damian-Lillard-13900","Justise-Winslow-18921","Rodney-McGruder-16850","49300","268.74"
"Spencer-Dinwiddie-18588","D'Angelo-Russell-18947","Justise-Winslow-18921","Al-Farouq-Aminu-1279","Jusuf-Nurkic-18619","Damian-Lillard-13900","Joe-Harris-18587","Enes-Kanter-13299","50000","268.64"
"C.J.-McCollum-17121","Josh-Richardson-18922","Justise-Winslow-18921","DeMarre-Carroll-1174","Hassan-Whiteside-18664","D'Angelo-Russell-18947","Al-Farouq-Aminu-1279","Jusuf-Nurkic-18619","49700","268.59"
"Spencer-Dinwiddie-18588","C.J.-McCollum-17121","Josh-Richardson-18922","Jared-Dudley-1319","Jusuf-Nurkic-18619","D'Angelo-Russell-18947","Justise-Winslow-18921","Hassan-Whiteside-18664","49900","268.54"
"Spencer-Dinwiddie-18588","C.J.-McCollum-17121","Josh-Richardson-18922","Al-Farouq-Aminu-1279","Jusuf-Nurkic-18619","Damian-Lillard-13900","Justise-Winslow-18921","Allen-Crabbe-16978","49500","268.51"
"Spencer-Dinwiddie-18588","D'Angelo-Russell-18947","Justise-Winslow-18921","Al-Farouq-Aminu-1279","Enes-Kanter-13299","Damian-Lillard-13900","Evan-Turner-1291","Jusuf-Nurkic-18619","49700","268.47"
"Justise-Winslow-18921","Spencer-Dinwiddie-18588","Josh-Richardson-18922","Al-Farouq-Aminu-1279","Jusuf-Nurkic-18619","Damian-Lillard-13900","Zach-Collins-37866","D'Angelo-Russell-18947","49600","268.44"
"Spencer-Dinwiddie-18588","Josh-Richardson-18922","Tim-Hardaway-Jr.-16879","Al-Farouq-Aminu-1279","Jusuf-Nurkic-18619","Damian-Lillard-13900","Justise-Winslow-18921","Allen-Crabbe-16978","49900","268.32"
"Wayne-Ellington-1009","Spencer-Dinwiddie-18588","Josh-Richardson-18922","Al-Farouq-Aminu-1279","Enes-Kanter-13299","Damian-Lillard-13900","Justise-Winslow-18921","Jusuf-Nurkic-18619","49600","268.3"
"Wayne-Ellington-1009","Spencer-Dinwiddie-18588","Josh-Richardson-18922","Al-Farouq-Aminu-1279","Hassan-Whiteside-18664","D'Angelo-Russell-18947","Justise-Winslow-18921","Jusuf-Nurkic-18619","48900","268.26"
"D'Angelo-Russell-18947","Evan-Turner-1291","Josh-Richardson-18922","Al-Farouq-Aminu-1279","Jusuf-Nurkic-18619","Damian-Lillard-13900","Justise-Winslow-18921","Rodney-McGruder-16850","49800","268.25"
"Spencer-Dinwiddie-18588","C.J.-McCollum-17121","Josh-Richardson-18922","Al-Farouq-Aminu-1279","Jarrett-Allen-37794","D'Angelo-Russell-18947","Justise-Winslow-18921","Hassan-Whiteside-18664","49600","268.16"
"Wayne-Ellington-1009","D'Angelo-Russell-18947","Justise-Winslow-18921","Al-Farouq-Aminu-1279","Jusuf-Nurkic-18619","Damian-Lillard-13900","Allen-Crabbe-16978","Hassan-Whiteside-18664","49800","268.15"
"Justise-Winslow-18921","C.J.-McCollum-17121","Josh-Richardson-18922","Al-Farouq-Aminu-1279","Jusuf-Nurkic-18619","Damian-Lillard-13900","Zach-Collins-37866","Enes-Kanter-13299","49900","268.14"
"Spencer-Dinwiddie-18588","C.J.-McCollum-17121","Justise-Winslow-18921","Al-Farouq-Aminu-1279","Enes-Kanter-13299","Damian-Lillard-13900","Rodney-McGruder-16850","Jusuf-Nurkic-18619","49700","268.14"
"C.J.-McCollum-17121","Josh-Richardson-18922","Justise-Winslow-18921","Al-Farouq-Aminu-1279","Hassan-Whiteside-18664","D'Angelo-Russell-18947","Zach-Collins-37866","Jusuf-Nurkic-18619","49200","268.1"
"Spencer-Dinwiddie-18588","C.J.-McCollum-17121","Justise-Winslow-18921","Al-Farouq-Aminu-1279","Hassan-Whiteside-18664","D'Angelo-Russell-18947","Rodney-McGruder-16850","Jusuf-Nurkic-18619","49000","268.1"
"Spencer-Dinwiddie-18588","C.J.-McCollum-17121","Josh-Richardson-18922","Al-Farouq-Aminu-1279","Jarrett-Allen-37794","D'Angelo-Russell-18947","Justise-Winslow-18921","Jusuf-Nurkic-18619","49000","268.06"
"Spencer-Dinwiddie-18588","C.J.-McCollum-17121","Justise-Winslow-18921","Al-Farouq-Aminu-1279","Jusuf-Nurkic-18619","Damian-Lillard-13900","Kevin-Knox-408820","D'Angelo-Russell-18947","49900","268.05"
"C.J.-McCollum-17121","Allen-Crabbe-16978","Josh-Richardson-18922","Zach-Collins-37866","Jusuf-Nurkic-18619","Damian-Lillard-13900","Justise-Winslow-18921","D'Angelo-Russell-18947","50000","268.03"
"Spencer-Dinwiddie-18588","Evan-Turner-1291","Josh-Richardson-18922","Al-Farouq-Aminu-1279","Jusuf-Nurkic-18619","Damian-Lillard-13900","Justise-Winslow-18921","C.J.-McCollum-17121","50000","268.02"
"Justise-Winslow-18921","C.J.-McCollum-17121","Josh-Richardson-18922","James-Johnson-1195","Jusuf-Nurkic-18619","D'Angelo-Russell-18947","Rodney-McGruder-16850","Hassan-Whiteside-18664","50000","267.99"
"Justise-Winslow-18921","Tim-Hardaway-Jr.-16879","Josh-Richardson-18922","Al-Farouq-Aminu-1279","Hassan-Whiteside-18664","C.J.-McCollum-17121","Allen-Crabbe-16978","Jusuf-Nurkic-18619","49500","267.98"
"Trey-Burke-17029","D'Angelo-Russell-18947","Josh-Richardson-18922","Al-Farouq-Aminu-1279","Jusuf-Nurkic-18619","Damian-Lillard-13900","Justise-Winslow-18921","Rodney-McGruder-16850","49700","267.98"
"Justise-Winslow-18921","Spencer-Dinwiddie-18588","Tim-Hardaway-Jr.-16879","Al-Farouq-Aminu-1279","Hassan-Whiteside-18664","D'Angelo-Russell-18947","Josh-Richardson-18922","Jarrett-Allen-37794","50000","267.97"
"C.J.-McCollum-17121","D'Angelo-Russell-18947","Justise-Winslow-18921","Al-Farouq-Aminu-1279","Jarrett-Allen-37794","Damian-Lillard-13900","Allen-Crabbe-16978","Jusuf-Nurkic-18619","49900","267.95"
"Justise-Winslow-18921","Spencer-Dinwiddie-18588","Josh-Richardson-18922","Al-Farouq-Aminu-1279","Enes-Kanter-13299","Damian-Lillard-13900","Allen-Crabbe-16978","Hassan-Whiteside-18664","49600","267.93"
"Justise-Winslow-18921","Spencer-Dinwiddie-18588","Tim-Hardaway-Jr.-16879","Al-Farouq-Aminu-1279","Hassan-Whiteside-18664","D'Angelo-Russell-18947","Rodney-McGruder-16850","Jusuf-Nurkic-18619","49400","267.91"
"D'Angelo-Russell-18947","Tim-Hardaway-Jr.-16879","Justise-Winslow-18921","Al-Farouq-Aminu-1279","Hassan-Whiteside-18664","Josh-Richardson-18922","Zach-Collins-37866","Jusuf-Nurkic-18619","49600","267.91"
"Spencer-Dinwiddie-18588","Tim-Hardaway-Jr.-16879","Josh-Richardson-18922","Al-Farouq-Aminu-1279","Enes-Kanter-13299","C.J.-McCollum-17121","Justise-Winslow-18921","D'Angelo-Russell-18947","49400","267.88"
"Spencer-Dinwiddie-18588","Josh-Richardson-18922","Tim-Hardaway-Jr.-16879","Al-Farouq-Aminu-1279","Jarrett-Allen-37794","D'Angelo-Russell-18947","Justise-Winslow-18921","Jusuf-Nurkic-18619","49400","267.87"
"D'Angelo-Russell-18947","Josh-Richardson-18922","Justise-Winslow-18921","DeMarre-Carroll-1174","Enes-Kanter-13299","Damian-Lillard-13900","Allen-Crabbe-16978","Jusuf-Nurkic-18619","50000","267.84"
"Justise-Winslow-18921","Spencer-Dinwiddie-18588","Josh-Richardson-18922","Al-Farouq-Aminu-1279","Enes-Kanter-13299","Damian-Lillard-13900","Allen-Crabbe-16978","Jusuf-Nurkic-18619","49000","267.83"
"Justise-Winslow-18921","Spencer-Dinwiddie-18588","Josh-Richardson-18922","Al-Farouq-Aminu-1279","Hassan-Whiteside-18664","D'Angelo-Russell-18947","Allen-Crabbe-16978","Jusuf-Nurkic-18619","48300","267.79"
"C.J.-McCollum-17121","D'Angelo-Russell-18947","Josh-Richardson-18922","Al-Farouq-Aminu-1279","Hassan-Whiteside-18664","Rodney-McGruder-16850","Allen-Crabbe-16978","Jusuf-Nurkic-18619","49900","267.76"
"Trey-Burke-17029","Spencer-Dinwiddie-18588","Josh-Richardson-18922","Al-Farouq-Aminu-1279","Jusuf-Nurkic-18619","Damian-Lillard-13900","Justise-Winslow-18921","C.J.-McCollum-17121","49900","267.75"
"Justise-Winslow-18921","C.J.-McCollum-17121","Tim-Hardaway-Jr.-16879","Al-Farouq-Aminu-1279","Hassan-Whiteside-18664","D'Angelo-Russell-18947","Kevin-Knox-408820","Jusuf-Nurkic-18619","49900","267.52"
"Spencer-Dinwiddie-18588","Joe-Harris-18587","Josh-Richardson-18922","Al-Farouq-Aminu-1279","Enes-Kanter-13299","Damian-Lillard-13900","Justise-Winslow-18921","Jusuf-Nurkic-18619","49800","267.51"
"Spencer-Dinwiddie-18588","C.J.-McCollum-17121","Josh-Richardson-18922","Jake-Layman-35216","Hassan-Whiteside-18664","D'Angelo-Russell-18947","Justise-Winslow-18921","Jusuf-Nurkic-18619","49700","267.49"
"C.J.-McCollum-17121","Tim-Hardaway-Jr.-16879","Justise-Winslow-18921","Al-Farouq-Aminu-1279","Hassan-Whiteside-18664","Josh-Richardson-18922","Evan-Turner-1291","Jusuf-Nurkic-18619","50000","267.49"
"Spencer-Dinwiddie-18588","Josh-Richardson-18922","Justise-Winslow-18921","Al-Farouq-Aminu-1279","Hassan-Whiteside-18664","D'Angelo-Russell-18947","Joe-Harris-18587","Jusuf-Nurkic-18619","49100","267.47"
"Spencer-Dinwiddie-18588","D'Angelo-Russell-18947","Justise-Winslow-18921","Al-Farouq-Aminu-1279","Enes-Kanter-13299","Damian-Lillard-13900","Kevin-Knox-408820","Hassan-Whiteside-18664","50000","267.47"
"C.J.-McCollum-17121","D'Angelo-Russell-18947","Josh-Richardson-18922","Al-Farouq-Aminu-1279","Enes-Kanter-13299","Damian-Lillard-13900","Justise-Winslow-18921","Mitchell-Robinson-408821","50000","267.41"
"Spencer-Dinwiddie-18588","D'Angelo-Russell-18947","Justise-Winslow-18921","Al-Farouq-Aminu-1279","Enes-Kanter-13299","Damian-Lillard-13900","Kevin-Knox-408820","Jusuf-Nurkic-18619","49400","267.37"
"Justise-Winslow-18921","D'Angelo-Russell-18947","Joe-Harris-18587","Al-Farouq-Aminu-1279","Hassan-Whiteside-18664","Damian-Lillard-13900","Allen-Crabbe-16978","Jusuf-Nurkic-18619","50000","267.36"
"D'Angelo-Russell-18947","Allen-Crabbe-16978","Josh-Richardson-18922","Zach-Collins-37866","Enes-Kanter-13299","Damian-Lillard-13900","Justise-Winslow-18921","Jusuf-Nurkic-18619","49500","267.35"
"Spencer-Dinwiddie-18588","Evan-Turner-1291","Josh-Richardson-18922","Al-Farouq-Aminu-1279","Enes-Kanter-13299","Damian-Lillard-13900","Justise-Winslow-18921","Jusuf-Nurkic-18619","49500","267.34"
"Emmanuel-Mudiay-18936","D'Angelo-Russell-18947","Josh-Richardson-18922","Al-Farouq-Aminu-1279","Jusuf-Nurkic-18619","Damian-Lillard-13900","Justise-Winslow-18921","Rodney-McGruder-16850","49900","267.33"
"Spencer-Dinwiddie-18588","Josh-Richardson-18922","Justise-Winslow-18921","Al-Farouq-Aminu-1279","Hassan-Whiteside-18664","D'Angelo-Russell-18947","Evan-Turner-1291","Jusuf-Nurkic-18619","48800","267.3"
"Justise-Winslow-18921","Trey-Burke-17029","Tim-Hardaway-Jr.-16879","Al-Farouq-Aminu-1279","Hassan-Whiteside-18664","C.J.-McCollum-17121","Josh-Richardson-18922","Jusuf-Nurkic-18619","49900","267.22"
"D'Angelo-Russell-18947","Allen-Crabbe-16978","Justise-Winslow-18921","Al-Farouq-Aminu-1279","Hassan-Whiteside-18664","Damian-Lillard-13900","Evan-Turner-1291","Jusuf-Nurkic-18619","49700","267.19"
"Trey-Burke-17029","Spencer-Dinwiddie-18588","Josh-Richardson-18922","Al-Farouq-Aminu-1279","Enes-Kanter-13299","Damian-Lillard-13900","Justise-Winslow-18921","Hassan-Whiteside-18664","50000","267.17"
"D'Angelo-Russell-18947","Rodney-McGruder-16850","Josh-Richardson-18922","Al-Farouq-Aminu-1279","Jusuf-Nurkic-18619","Damian-Lillard-13900","Justise-Winslow-18921","Kevin-Knox-408820","49500","267.15"
"Justise-Winslow-18921","C.J.-McCollum-17121","Josh-Richardson-18922","Ed-Davis-1265","Hassan-Whiteside-18664","D'Angelo-Russell-18947","Al-Farouq-Aminu-1279","Jusuf-Nurkic-18619","49700","267.13"
"Justise-Winslow-18921","Wayne-Ellington-1009","Tim-Hardaway-Jr.-16879","Al-Farouq-Aminu-1279","Hassan-Whiteside-18664","C.J.-McCollum-17121","Josh-Richardson-18922","D'Angelo-Russell-18947","50000","267.07"
"Trey-Burke-17029","Spencer-Dinwiddie-18588","Josh-Richardson-18922","Al-Farouq-Aminu-1279","Enes-Kanter-13299","Damian-Lillard-13900","Justise-Winslow-18921","Jusuf-Nurkic-18619","49400","267.07"
"C.J.-McCollum-17121","D'Angelo-Russell-18947","Justise-Winslow-18921","Jared-Dudley-1319","Enes-Kanter-13299","Damian-Lillard-13900","Al-Farouq-Aminu-1279","Jusuf-Nurkic-18619","50000","267.06"
"Trey-Burke-17029","Spencer-Dinwiddie-18588","Josh-Richardson-18922","Al-Farouq-Aminu-1279","Hassan-Whiteside-18664","D'Angelo-Russell-18947","Justise-Winslow-18921","Jusuf-Nurkic-18619","48700","267.03"
"Justise-Winslow-18921","Wayne-Ellington-1009","Josh-Richardson-18922","Al-Farouq-Aminu-1279","Hassan-Whiteside-18664","Damian-Lillard-13900","Allen-Crabbe-16978","Jusuf-Nurkic-18619","49600","267.02"
"Justise-Winslow-18921","C.J.-McCollum-17121","Josh-Richardson-18922","DeMarre-Carroll-1174","Jusuf-Nurkic-18619","D'Angelo-Russell-18947","Rodney-McGruder-16850","Hassan-Whiteside-18664","49800","266.98"
"Spencer-Dinwiddie-18588","Josh-Richardson-18922","Justise-Winslow-18921","Al-Farouq-Aminu-1279","Hassan-Whiteside-18664","C.J.-McCollum-17121","Rodney-McGruder-16850","Jusuf-Nurkic-18619","48800","266.97"
"Wayne-Ellington-1009","Josh-Richardson-18922","Tim-Hardaway-Jr.-16879","Al-Farouq-Aminu-1279","Jusuf-Nurkic-18619","C.J.-McCollum-17121","Justise-Winslow-18921","D'Angelo-Russell-18947","49400","266.97"
"Trey-Burke-17029","D'Angelo-Russell-18947","Justise-Winslow-18921","Al-Farouq-Aminu-1279","Jusuf-Nurkic-18619","Damian-Lillard-13900","Allen-Crabbe-16978","Hassan-Whiteside-18664","49600","266.92"
"Spencer-Dinwiddie-18588","C.J.-McCollum-17121","Josh-Richardson-18922","Al-Farouq-Aminu-1279","Jusuf-Nurkic-18619","Damian-Lillard-13900","Justise-Winslow-18921","Kevin-Knox-408820","49700","266.92"
"Wayne-Ellington-1009","Spencer-Dinwiddie-18588","Josh-Richardson-18922","Al-Farouq-Aminu-1279","Enes-Kanter-13299","Damian-Lillard-13900","Justise-Winslow-18921","D'Angelo-Russell-18947","49500","266.92"
"C.J.-McCollum-17121","Allen-Crabbe-16978","Justise-Winslow-18921","Al-Farouq-Aminu-1279","Hassan-Whiteside-18664","Damian-Lillard-13900","Rodney-McGruder-16850","Jusuf-Nurkic-18619","49700","266.86"
"Justise-Winslow-18921","D'Angelo-Russell-18947","Josh-Richardson-18922","Zach-Collins-37866","Jusuf-Nurkic-18619","Damian-Lillard-13900","Evan-Turner-1291","Enes-Kanter-13299","50000","266.86"
"Spencer-Dinwiddie-18588","Josh-Richardson-18922","Justise-Winslow-18921","Zach-Collins-37866","Jusuf-Nurkic-18619","Damian-Lillard-13900","Rodney-McGruder-16850","D'Angelo-Russell-18947","49700","266.83"
"C.J.-McCollum-17121","Josh-Richardson-18922","Justise-Winslow-18921","Al-Farouq-Aminu-1279","Jarrett-Allen-37794","Damian-Lillard-13900","Allen-Crabbe-16978","Jusuf-Nurkic-18619","49700","266.82"
"D'Angelo-Russell-18947","Rodney-McGruder-16850","Justise-Winslow-18921","Al-Farouq-Aminu-1279","Hassan-Whiteside-18664","Damian-Lillard-13900","Zach-Collins-37866","Jusuf-Nurkic-18619","49800","266.79"
