"Chris-Paul-1087","James-Harden-1037","Gary-Clark-570141","Larry-Nance-18946","Clint-Capela-18610","Jordan-Clarkson-18631","Nicolas-Batum-1315","Alex-Len-16886","50000","285.57"

"Chris-Paul-1087","James-Harden-1037","Gary-Clark-570141","Larry-Nance-18946","Clint-Capela-18610","Jordan-Clarkson-18631","Nicolas-Batum-1315","Alex-Len-16886","50000","285.57"
"James-Harden-1037","Nicolas-Batum-1315","Gary-Clark-570141","Draymond-Green-13976","Alex-Len-16886","Jordan-Clarkson-18631","Larry-Nance-18946","Clint-Capela-18610","49900","282.55"
"Chris-Paul-1087","James-Harden-1037","Nicolas-Batum-1315","Larry-Nance-18946","Clint-Capela-18610","Collin-Sexton-408896","P.J.-Tucker-13947","Alex-Len-16886","50000","281.81"
"Chris-Paul-1087","James-Harden-1037","Gary-Clark-570141","P.J.-Tucker-13947","Clint-Capela-18610","Jordan-Clarkson-18631","Nicolas-Batum-1315","Larry-Nance-18946","49900","281.58"
"Chris-Paul-1087","James-Harden-1037","Gary-Clark-570141","Larry-Nance-18946","Clint-Capela-18610","Collin-Sexton-408896","Nicolas-Batum-1315","Alex-Len-16886","49400","281.45"
"James-Harden-1037","Jordan-Clarkson-18631","Gary-Clark-570141","Larry-Nance-18946","Clint-Capela-18610","Collin-Sexton-408896","J.R.-Smith-915","Nikola-Jokic-31812","50000","281.27"
"James-Harden-1037","Jordan-Clarkson-18631","Juan-Hernangomez-35212","Larry-Nance-18946","Nikola-Jokic-31812","Collin-Sexton-408896","Gary-Clark-570141","Clint-Capela-18610","49800","281.18"
"Chris-Paul-1087","James-Harden-1037","Gary-Clark-570141","Larry-Nance-18946","Clint-Capela-18610","Jamal-Murray-35211","Nicolas-Batum-1315","Guillermo-Hernangomez-18901","50000","280.79"
"Chris-Paul-1087","James-Harden-1037","Rodney-Hood-18629","Larry-Nance-18946","Clint-Capela-18610","Jordan-Clarkson-18631","Gary-Clark-570141","Alex-Len-16886","49600","280.75"
"James-Harden-1037","Jordan-Clarkson-18631","Gary-Clark-570141","Larry-Nance-18946","Alex-Len-16886","Collin-Sexton-408896","Nicolas-Batum-1315","Nikola-Jokic-31812","49800","280.64"
"Chris-Paul-1087","James-Harden-1037","Gary-Clark-570141","Larry-Nance-18946","Clint-Capela-18610","Trae-Young-409063","P.J.-Tucker-13947","Alex-Len-16886","50000","280.55"
"James-Harden-1037","Jordan-Clarkson-18631","P.J.-Tucker-13947","Draymond-Green-13976","Alex-Len-16886","Collin-Sexton-408896","Larry-Nance-18946","Clint-Capela-18610","49800","280.43"
"James-Harden-1037","Jordan-Clarkson-18631","Nicolas-Batum-1315","Draymond-Green-13976","Alex-Len-16886","Monte-Morris-37860","Larry-Nance-18946","Clint-Capela-18610","49900","280.37"
"James-Harden-1037","Jordan-Clarkson-18631","Rodney-Hood-18629","Larry-Nance-18946","Clint-Capela-18610","Jamal-Murray-35211","Nicolas-Batum-1315","Alex-Len-16886","50000","280.36"
"James-Harden-1037","Jordan-Clarkson-18631","Gary-Clark-570141","Larry-Nance-18946","Clint-Capela-18610","Kemba-Walker-13335","P.J.-Tucker-13947","Alex-Len-16886","49900","280.25"
"Chris-Paul-1087","James-Harden-1037","Gary-Clark-570141","Larry-Nance-18946","Clint-Capela-18610","Jamal-Murray-35211","P.J.-Tucker-13947","Alex-Len-16886","49400","280.24"
"Chris-Paul-1087","James-Harden-1037","Jeremy-Lamb-13955","Larry-Nance-18946","Clint-Capela-18610","Jordan-Clarkson-18631","Gary-Clark-570141","Collin-Sexton-408896","49900","280.16"
"James-Harden-1037","Nicolas-Batum-1315","Juan-Hernangomez-35212","Draymond-Green-13976","Alex-Len-16886","Jordan-Clarkson-18631","Larry-Nance-18946","Clint-Capela-18610","50000","280.09"
"James-Harden-1037","Jordan-Clarkson-18631","Gary-Clark-570141","Draymond-Green-13976","Alex-Len-16886","Collin-Sexton-408896","Larry-Nance-18946","Clint-Capela-18610","49200","280.07"
"Monte-Morris-37860","James-Harden-1037","Gary-Clark-570141","Larry-Nance-18946","Clint-Capela-18610","Collin-Sexton-408896","Nicolas-Batum-1315","Nikola-Jokic-31812","49800","279.82"
"Trae-Young-409063","James-Harden-1037","Gary-Clark-570141","Larry-Nance-18946","Clint-Capela-18610","Jamal-Murray-35211","Nicolas-Batum-1315","Alex-Len-16886","49800","279.8"
"James-Harden-1037","Jordan-Clarkson-18631","Gary-Clark-570141","Draymond-Green-13976","Clint-Capela-18610","Monte-Morris-37860","Larry-Nance-18946","Jamal-Murray-35211","50000","279.72"
"Chris-Paul-1087","James-Harden-1037","Jeremy-Lamb-13955","Larry-Nance-18946","Clint-Capela-18610","Jordan-Clarkson-18631","P.J.-Tucker-13947","Alex-Len-16886","49800","279.6"
"James-Harden-1037","David-Nwaba-36526","Gary-Clark-570141","Larry-Nance-18946","Clint-Capela-18610","Jordan-Clarkson-18631","Nicolas-Batum-1315","Nikola-Jokic-31812","49900","279.57"
"James-Harden-1037","Nicolas-Batum-1315","Juan-Hernangomez-35212","Larry-Nance-18946","Nikola-Jokic-31812","Collin-Sexton-408896","Gary-Clark-570141","Clint-Capela-18610","49900","279.54"
"James-Harden-1037","Jordan-Clarkson-18631","Gary-Clark-570141","Larry-Nance-18946","Nikola-Jokic-31812","Jamal-Murray-35211","P.J.-Tucker-13947","Alex-Len-16886","49800","279.43"
"James-Harden-1037","Jordan-Clarkson-18631","Gary-Clark-570141","Draymond-Green-13976","Clint-Capela-18610","Jamal-Murray-35211","Larry-Nance-18946","Guillermo-Hernangomez-18901","49800","279.41"
"Chris-Paul-1087","James-Harden-1037","Nicolas-Batum-1315","Larry-Nance-18946","Clint-Capela-18610","Monte-Morris-37860","P.J.-Tucker-13947","Jordan-Clarkson-18631","49900","279.4"
"Chris-Paul-1087","James-Harden-1037","Jeremy-Lamb-13955","Larry-Nance-18946","Alex-Len-16886","Jordan-Clarkson-18631","Gary-Clark-570141","Clint-Capela-18610","49200","279.24"
"James-Harden-1037","Jeremy-Lin-916","Nicolas-Batum-1315","Draymond-Green-13976","Alex-Len-16886","Jordan-Clarkson-18631","Larry-Nance-18946","Clint-Capela-18610","50000","279.22"
"Chris-Paul-1087","James-Harden-1037","Nicolas-Batum-1315","Larry-Nance-18946","Clint-Capela-18610","Jordan-Clarkson-18631","Mason-Plumlee-16798","Alex-Len-16886","49900","279.16"
"James-Harden-1037","Jordan-Clarkson-18631","Rodney-Hood-18629","Larry-Nance-18946","Clint-Capela-18610","Monte-Morris-37860","Gary-Clark-570141","Nikola-Jokic-31812","50000","279.12"
"Chris-Paul-1087","James-Harden-1037","Juan-Hernangomez-35212","P.J.-Tucker-13947","Clint-Capela-18610","Jordan-Clarkson-18631","Nicolas-Batum-1315","Larry-Nance-18946","50000","279.12"
"Chris-Paul-1087","Rodney-Hood-18629","Gary-Clark-570141","Larry-Nance-18946","Clint-Capela-18610","James-Harden-1037","Nicolas-Batum-1315","Alex-Len-16886","49700","279.11"
"Chris-Paul-1087","James-Harden-1037","Gary-Clark-570141","Larry-Nance-18946","Clint-Capela-18610","Jordan-Clarkson-18631","P.J.-Tucker-13947","Collin-Sexton-408896","49200","279.1"
"Chris-Paul-1087","James-Harden-1037","Nicolas-Batum-1315","Larry-Nance-18946","Clint-Capela-18610","Jordan-Clarkson-18631","P.J.-Tucker-13947","Guillermo-Hernangomez-18901","49700","279.09"
"Chris-Paul-1087","James-Harden-1037","Gary-Clark-570141","Larry-Nance-18946","Clint-Capela-18610","Tony-Parker-982","Nicolas-Batum-1315","Jordan-Clarkson-18631","49900","279.09"
"Chris-Paul-1087","James-Harden-1037","J.R.-Smith-915","Larry-Nance-18946","Clint-Capela-18610","Collin-Sexton-408896","Nicolas-Batum-1315","Alex-Len-16886","49700","279.08"
"Chris-Paul-1087","James-Harden-1037","Gary-Clark-570141","Larry-Nance-18946","Clint-Capela-18610","Monte-Morris-37860","Nicolas-Batum-1315","Jordan-Clarkson-18631","49300","279.04"
"Chris-Paul-1087","James-Harden-1037","David-Nwaba-36526","Larry-Nance-18946","Alex-Len-16886","Jordan-Clarkson-18631","Nicolas-Batum-1315","Clint-Capela-18610","49500","279.02"
"James-Harden-1037","Jordan-Clarkson-18631","Gary-Clark-570141","Larry-Nance-18946","Guillermo-Hernangomez-18901","Monte-Morris-37860","Kevin-Durant-1348","Clint-Capela-18610","49900","278.99"
"Chris-Paul-1087","James-Harden-1037","Juan-Hernangomez-35212","Larry-Nance-18946","Clint-Capela-18610","Collin-Sexton-408896","Nicolas-Batum-1315","Alex-Len-16886","49500","278.99"
"Chris-Paul-1087","James-Harden-1037","Gary-Clark-570141","Larry-Nance-18946","Clint-Capela-18610","Jordan-Clarkson-18631","J.R.-Smith-915","Nicolas-Batum-1315","49600","278.85"
"James-Harden-1037","Jordan-Clarkson-18631","Jeremy-Lamb-13955","Larry-Nance-18946","Alex-Len-16886","Jamal-Murray-35211","Nicolas-Batum-1315","Clint-Capela-18610","49600","278.85"
"James-Harden-1037","Nicolas-Batum-1315","P.J.-Tucker-13947","Draymond-Green-13976","Alex-Len-16886","Collin-Sexton-408896","Larry-Nance-18946","Clint-Capela-18610","49900","278.79"
"Chris-Paul-1087","James-Harden-1037","Gary-Clark-570141","Larry-Nance-18946","Clint-Capela-18610","Jordan-Clarkson-18631","Nicolas-Batum-1315","Juan-Hernangomez-35212","49400","278.76"
"Chris-Paul-1087","James-Harden-1037","Gary-Clark-570141","Larry-Nance-18946","Clint-Capela-18610","Jordan-Clarkson-18631","Nicolas-Batum-1315","Guillermo-Hernangomez-18901","49100","278.73"
"James-Harden-1037","Jordan-Clarkson-18631","Nicolas-Batum-1315","Larry-Nance-18946","Clint-Capela-18610","Jamal-Murray-35211","P.J.-Tucker-13947","Collin-Sexton-408896","49600","278.71"
"James-Harden-1037","Jeremy-Lin-916","Gary-Clark-570141","Larry-Nance-18946","Clint-Capela-18610","Collin-Sexton-408896","Nicolas-Batum-1315","Nikola-Jokic-31812","49900","278.67"
"Trae-Young-409063","James-Harden-1037","Gary-Clark-570141","Larry-Nance-18946","Clint-Capela-18610","Jordan-Clarkson-18631","Nicolas-Batum-1315","Collin-Sexton-408896","49600","278.66"
"James-Harden-1037","Nicolas-Batum-1315","Gary-Clark-570141","Larry-Nance-18946","Clint-Capela-18610","Kemba-Walker-13335","P.J.-Tucker-13947","Alex-Len-16886","50000","278.61"
"James-Harden-1037","Jamal-Murray-35211","Gary-Clark-570141","Larry-Nance-18946","Clint-Capela-18610","Monte-Morris-37860","P.J.-Tucker-13947","Nikola-Jokic-31812","49800","278.61"
"James-Harden-1037","Nicolas-Batum-1315","Gary-Clark-570141","Draymond-Green-13976","Larry-Nance-18946","Jordan-Clarkson-18631","P.J.-Tucker-13947","Clint-Capela-18610","49800","278.56"
"Chris-Paul-1087","Jeremy-Lamb-13955","Gary-Clark-570141","Larry-Nance-18946","Clint-Capela-18610","James-Harden-1037","Nicolas-Batum-1315","Collin-Sexton-408896","50000","278.52"
"Chris-Paul-1087","James-Harden-1037","Gary-Clark-570141","Larry-Nance-18946","Clint-Capela-18610","Jordan-Clarkson-18631","Mason-Plumlee-16798","Jamal-Murray-35211","50000","278.51"
"Chris-Paul-1087","James-Harden-1037","Gary-Clark-570141","Draymond-Green-13976","Alex-Len-16886","David-Nwaba-36526","Larry-Nance-18946","Clint-Capela-18610","49900","278.45"
"Chris-Paul-1087","James-Harden-1037","Gary-Clark-570141","Larry-Nance-18946","Clint-Capela-18610","Jamal-Murray-35211","J.R.-Smith-915","Collin-Sexton-408896","49800","278.43"
"James-Harden-1037","Nicolas-Batum-1315","Gary-Clark-570141","Draymond-Green-13976","Alex-Len-16886","Collin-Sexton-408896","Larry-Nance-18946","Clint-Capela-18610","49300","278.43"
"Chris-Paul-1087","James-Harden-1037","Rodney-Hood-18629","Larry-Nance-18946","Alex-Len-16886","Jordan-Clarkson-18631","J.R.-Smith-915","Clint-Capela-18610","49900","278.38"
"Chris-Paul-1087","James-Harden-1037","Gary-Clark-570141","Larry-Nance-18946","Clint-Capela-18610","Jordan-Clarkson-18631","David-Nwaba-36526","Jamal-Murray-35211","49600","278.37"
"James-Harden-1037","Jordan-Clarkson-18631","Gary-Clark-570141","Larry-Nance-18946","Clint-Capela-18610","Jamal-Murray-35211","Nicolas-Batum-1315","Collin-Sexton-408896","49000","278.35"
"Chris-Paul-1087","James-Harden-1037","Juan-Hernangomez-35212","Larry-Nance-18946","Clint-Capela-18610","Jamal-Murray-35211","Gary-Clark-570141","Collin-Sexton-408896","49600","278.34"
"Chris-Paul-1087","James-Harden-1037","Rodney-Hood-18629","Larry-Nance-18946","Clint-Capela-18610","Jordan-Clarkson-18631","Juan-Hernangomez-35212","Alex-Len-16886","49700","278.29"
"James-Harden-1037","Jeremy-Lamb-13955","Gary-Clark-570141","Draymond-Green-13976","Alex-Len-16886","Jamal-Murray-35211","Larry-Nance-18946","Clint-Capela-18610","50000","278.28"
"Chris-Paul-1087","James-Harden-1037","Nicolas-Batum-1315","Larry-Nance-18946","Clint-Capela-18610","Jordan-Clarkson-18631","P.J.-Tucker-13947","Jeremy-Lin-916","50000","278.25"
"James-Harden-1037","Jordan-Clarkson-18631","Juan-Hernangomez-35212","Larry-Nance-18946","Alex-Len-16886","Collin-Sexton-408896","Nicolas-Batum-1315","Nikola-Jokic-31812","49900","278.18"
"Chris-Paul-1087","James-Harden-1037","Gary-Clark-570141","Larry-Nance-18946","Clint-Capela-18610","Jordan-Clarkson-18631","P.J.-Tucker-13947","Alex-Len-16886","48500","278.18"
"James-Harden-1037","Nicolas-Batum-1315","Gary-Clark-570141","Larry-Nance-18946","Guillermo-Hernangomez-18901","Jordan-Clarkson-18631","Kevin-Durant-1348","Alex-Len-16886","50000","278.17"
"James-Harden-1037","Jamal-Murray-35211","Gary-Clark-570141","Draymond-Green-13976","Larry-Nance-18946","Collin-Sexton-408896","P.J.-Tucker-13947","Clint-Capela-18610","50000","278.14"
"Trae-Young-409063","James-Harden-1037","Nicolas-Batum-1315","Larry-Nance-18946","Clint-Capela-18610","Jordan-Clarkson-18631","P.J.-Tucker-13947","Alex-Len-16886","49500","278.1"
"James-Harden-1037","Jordan-Clarkson-18631","Gary-Clark-570141","Larry-Nance-18946","Clint-Capela-18610","Collin-Sexton-408896","Andre-Iguodala-1334","Nikola-Jokic-31812","49800","278.07"
"James-Harden-1037","Jordan-Clarkson-18631","Gary-Clark-570141","Kevon-Looney-18945","Nikola-Jokic-31812","Collin-Sexton-408896","Larry-Nance-18946","Clint-Capela-18610","49800","278.04"
"Chris-Paul-1087","Jeremy-Lamb-13955","Nicolas-Batum-1315","Larry-Nance-18946","Clint-Capela-18610","James-Harden-1037","P.J.-Tucker-13947","Alex-Len-16886","49900","277.96"
"Chris-Paul-1087","James-Harden-1037","Gary-Clark-570141","Larry-Nance-18946","Clint-Capela-18610","Jordan-Clarkson-18631","Nicolas-Batum-1315","Jeremy-Lin-916","49400","277.89"
"Chris-Paul-1087","James-Harden-1037","J.R.-Smith-915","Larry-Nance-18946","Alex-Len-16886","Jamal-Murray-35211","P.J.-Tucker-13947","Clint-Capela-18610","49700","277.87"
"James-Harden-1037","Jeremy-Lin-916","Gary-Clark-570141","Larry-Nance-18946","Guillermo-Hernangomez-18901","Jordan-Clarkson-18631","Kevin-Durant-1348","Clint-Capela-18610","50000","277.84"
"Chris-Paul-1087","James-Harden-1037","Gary-Clark-570141","Larry-Nance-18946","Clint-Capela-18610","Trae-Young-409063","J.R.-Smith-915","Alex-Len-16886","49700","277.82"
"Chris-Paul-1087","James-Harden-1037","Gary-Clark-570141","Larry-Nance-18946","Alex-Len-16886","Jamal-Murray-35211","Nicolas-Batum-1315","Collin-Sexton-408896","49600","277.8"
"James-Harden-1037","Nicolas-Batum-1315","Gary-Clark-570141","Larry-Nance-18946","Nikola-Jokic-31812","Jamal-Murray-35211","P.J.-Tucker-13947","Alex-Len-16886","49900","277.79"
"James-Harden-1037","Jordan-Clarkson-18631","Juan-Hernangomez-35212","Larry-Nance-18946","Clint-Capela-18610","Kemba-Walker-13335","P.J.-Tucker-13947","Alex-Len-16886","50000","277.79"
"James-Harden-1037","Jordan-Clarkson-18631","Nicolas-Batum-1315","Larry-Nance-18946","Clint-Capela-18610","Jamal-Murray-35211","P.J.-Tucker-13947","Alex-Len-16886","48900","277.79"
"Chris-Paul-1087","James-Harden-1037","Juan-Hernangomez-35212","Larry-Nance-18946","Clint-Capela-18610","Jamal-Murray-35211","P.J.-Tucker-13947","Alex-Len-16886","49500","277.78"
"James-Harden-1037","Nicolas-Batum-1315","Gary-Clark-570141","Draymond-Green-13976","Clint-Capela-18610","Jamal-Murray-35211","Larry-Nance-18946","Guillermo-Hernangomez-18901","49900","277.77"
"Trae-Young-409063","James-Harden-1037","Gary-Clark-570141","Larry-Nance-18946","Clint-Capela-18610","Jordan-Clarkson-18631","Nicolas-Batum-1315","Alex-Len-16886","48900","277.74"
"Chris-Paul-1087","James-Harden-1037","Juan-Hernangomez-35212","Larry-Nance-18946","Alex-Len-16886","Trae-Young-409063","Gary-Clark-570141","Clint-Capela-18610","49500","277.73"
"James-Harden-1037","Rodney-Hood-18629","Gary-Clark-570141","Draymond-Green-13976","Alex-Len-16886","Jordan-Clarkson-18631","Larry-Nance-18946","Clint-Capela-18610","49500","277.73"
"Chris-Paul-1087","James-Harden-1037","Jeremy-Lamb-13955","Larry-Nance-18946","Clint-Capela-18610","Jordan-Clarkson-18631","Juan-Hernangomez-35212","Collin-Sexton-408896","50000","277.7"
"James-Harden-1037","Jordan-Clarkson-18631","J.R.-Smith-915","Draymond-Green-13976","Clint-Capela-18610","Collin-Sexton-408896","Larry-Nance-18946","Alex-Len-16886","49500","277.7"
"James-Harden-1037","Jordan-Clarkson-18631","Jeremy-Lamb-13955","Larry-Nance-18946","Nikola-Jokic-31812","Monte-Morris-37860","Gary-Clark-570141","Clint-Capela-18610","49600","277.61"
"James-Harden-1037","Jordan-Clarkson-18631","Juan-Hernangomez-35212","Draymond-Green-13976","Alex-Len-16886","Collin-Sexton-408896","Larry-Nance-18946","Clint-Capela-18610","49300","277.61"
"Chris-Paul-1087","Jeremy-Lamb-13955","Gary-Clark-570141","Larry-Nance-18946","Clint-Capela-18610","James-Harden-1037","Nicolas-Batum-1315","Alex-Len-16886","49300","277.6"
"Chris-Paul-1087","James-Harden-1037","Gary-Clark-570141","Larry-Nance-18946","Clint-Capela-18610","Eric-Gordon-1077","Nicolas-Batum-1315","Alex-Len-16886","49600","277.6"
"James-Harden-1037","Rodney-Hood-18629","Gary-Clark-570141","Larry-Nance-18946","Clint-Capela-18610","Collin-Sexton-408896","P.J.-Tucker-13947","Nikola-Jokic-31812","50000","277.54"
"James-Harden-1037","Jordan-Clarkson-18631","Juan-Hernangomez-35212","Larry-Nance-18946","Nikola-Jokic-31812","Jamal-Murray-35211","Gary-Clark-570141","Collin-Sexton-408896","50000","277.53"
"James-Harden-1037","Jordan-Clarkson-18631","Gary-Clark-570141","Larry-Nance-18946","Clint-Capela-18610","Kemba-Walker-13335","J.R.-Smith-915","Alex-Len-16886","49600","277.52"
"Chris-Paul-1087","James-Harden-1037","Gary-Clark-570141","Larry-Nance-18946","Clint-Capela-18610","Jamal-Murray-35211","J.R.-Smith-915","Alex-Len-16886","49100","277.51"
"Chris-Paul-1087","James-Harden-1037","Gary-Clark-570141","P.J.-Tucker-13947","Clint-Capela-18610","Collin-Sexton-408896","Nicolas-Batum-1315","Larry-Nance-18946","49300","277.46"
"James-Harden-1037","Jeremy-Lin-916","Gary-Clark-570141","Larry-Nance-18946","Clint-Capela-18610","Jamal-Murray-35211","P.J.-Tucker-13947","Nikola-Jokic-31812","49900","277.46"
"James-Harden-1037","Jordan-Clarkson-18631","David-Nwaba-36526","Larry-Nance-18946","Clint-Capela-18610","Collin-Sexton-408896","P.J.-Tucker-13947","Nikola-Jokic-31812","49800","277.45"
"Trae-Young-409063","James-Harden-1037","Gary-Clark-570141","Larry-Nance-18946","Clint-Capela-18610","Jordan-Clarkson-18631","P.J.-Tucker-13947","Jamal-Murray-35211","49600","277.45"
