"Stephen-Curry-1079","Donovan-Mitchell-37875","Wesley-Matthews-1339","Draymond-Green-13976","Derrick-Favors-1266","Ricky-Rubio-1001","Kevin-Durant-1348","Jonas-Jerebko-1106","50000","270.84"
"Stephen-Curry-1079","Dennis-Schroder-18595","Kevin-Durant-1348","Draymond-Green-13976","Derrick-Favors-1266","Ricky-Rubio-1001","Harrison-Barnes-13901","Jonas-Jerebko-1106","49800","269.47"

"Stephen-Curry-1079","Donovan-Mitchell-37875","Wesley-Matthews-1339","Draymond-Green-13976","Derrick-Favors-1266","Ricky-Rubio-1001","Kevin-Durant-1348","Jonas-Jerebko-1106","50000","270.84"
"Stephen-Curry-1079","Dennis-Schroder-18595","Kevin-Durant-1348","Draymond-Green-13976","Derrick-Favors-1266","Ricky-Rubio-1001","Harrison-Barnes-13901","Jonas-Jerebko-1106","49800","269.47"
"Stephen-Curry-1079","Donovan-Mitchell-37875","Wesley-Matthews-1339","Draymond-Green-13976","Derrick-Favors-1266","Dennis-Schroder-18595","Kevin-Durant-1348","Jonas-Jerebko-1106","50000","269.28"
"J.J.-Barea-18605","Stephen-Curry-1079","Wesley-Matthews-1339","Draymond-Green-13976","Jonas-Jerebko-1106","Ricky-Rubio-1001","Kevin-Durant-1348","Donovan-Mitchell-37875","50000","268.96"
"Stephen-Curry-1079","Dennis-Schroder-18595","Kevin-Durant-1348","Draymond-Green-13976","Derrick-Favors-1266","Ricky-Rubio-1001","Harrison-Barnes-13901","Jalen-Brunson-409062","50000","268.85"
"Stephen-Curry-1079","Klay-Thompson-13315","Kevin-Durant-1348","Derrick-Favors-1266","Jonas-Jerebko-1106","Ricky-Rubio-1001","Harrison-Barnes-13901","Dennis-Schroder-18595","49900","268.77"
"Stephen-Curry-1079","Wesley-Matthews-1339","Kevin-Durant-1348","Harrison-Barnes-13901","Draymond-Green-13976","Ricky-Rubio-1001","Jerami-Grant-18576","Derrick-Favors-1266","50000","268.75"
"Stephen-Curry-1079","Donovan-Mitchell-37875","Wesley-Matthews-1339","Kevin-Durant-1348","Draymond-Green-13976","Ricky-Rubio-1001","Jerami-Grant-18576","Jonas-Jerebko-1106","49900","268.69"
"Ricky-Rubio-1001","Klay-Thompson-13315","Kevin-Durant-1348","Draymond-Green-13976","Jonas-Jerebko-1106","Donovan-Mitchell-37875","Derrick-Favors-1266","Rudy-Gobert-16935","49900","268.51"
"J.J.-Barea-18605","Stephen-Curry-1079","Kevin-Durant-1348","Draymond-Green-13976","Jonas-Jerebko-1106","Klay-Thompson-13315","Derrick-Favors-1266","Ricky-Rubio-1001","49700","268.41"
"Stephen-Curry-1079","Dennis-Schroder-18595","Kevin-Durant-1348","Derrick-Favors-1266","Kevon-Looney-18945","Ricky-Rubio-1001","Harrison-Barnes-13901","Draymond-Green-13976","49900","268.35"
"Ricky-Rubio-1001","Klay-Thompson-13315","Kevin-Durant-1348","Harrison-Barnes-13901","Draymond-Green-13976","Donovan-Mitchell-37875","Jerami-Grant-18576","Dennis-Schroder-18595","50000","268.32"
"Ricky-Rubio-1001","Donovan-Mitchell-37875","Kevin-Durant-1348","Draymond-Green-13976","Rudy-Gobert-16935","Dennis-Schroder-18595","Jerami-Grant-18576","Derrick-Favors-1266","50000","268.31"
"Stephen-Curry-1079","Donovan-Mitchell-37875","Kevin-Durant-1348","Draymond-Green-13976","Jonas-Jerebko-1106","Ricky-Rubio-1001","Kevon-Looney-18945","Dennis-Schroder-18595","49800","268.29"
"J.J.-Barea-18605","Stephen-Curry-1079","Kevin-Durant-1348","Draymond-Green-13976","Derrick-Favors-1266","Ricky-Rubio-1001","Jerami-Grant-18576","Dennis-Schroder-18595","49800","268.21"
"Stephen-Curry-1079","Klay-Thompson-13315","Kevin-Durant-1348","Derrick-Favors-1266","Jonas-Jerebko-1106","Ricky-Rubio-1001","Jerami-Grant-18576","Draymond-Green-13976","49600","268.14"
"Stephen-Curry-1079","Donovan-Mitchell-37875","Wesley-Matthews-1339","Draymond-Green-13976","Derrick-Favors-1266","Ricky-Rubio-1001","Kevin-Durant-1348","Andre-Iguodala-1334","50000","268.14"
"Stephen-Curry-1079","Klay-Thompson-13315","Wesley-Matthews-1339","Draymond-Green-13976","Rudy-Gobert-16935","Ricky-Rubio-1001","Jonas-Jerebko-1106","Donovan-Mitchell-37875","50000","268.05"
"Stephen-Curry-1079","Klay-Thompson-13315","Wesley-Matthews-1339","Kevin-Durant-1348","Jonas-Jerebko-1106","Ricky-Rubio-1001","Jerami-Grant-18576","Donovan-Mitchell-37875","50000","267.99"
"Stephen-Curry-1079","Klay-Thompson-13315","Harrison-Barnes-13901","Draymond-Green-13976","Derrick-Favors-1266","Ricky-Rubio-1001","Jerami-Grant-18576","Donovan-Mitchell-37875","49600","267.96"
"Stephen-Curry-1079","Donovan-Mitchell-37875","Dorian-Finney-Smith-36032","Draymond-Green-13976","Derrick-Favors-1266","Ricky-Rubio-1001","Jerami-Grant-18576","Kevin-Durant-1348","50000","267.74"
"Ricky-Rubio-1001","Klay-Thompson-13315","Wesley-Matthews-1339","Kevin-Durant-1348","Draymond-Green-13976","Donovan-Mitchell-37875","Harrison-Barnes-13901","Dennis-Schroder-18595","49900","267.73"
"Ricky-Rubio-1001","Donovan-Mitchell-37875","Wesley-Matthews-1339","Draymond-Green-13976","Derrick-Favors-1266","Dennis-Schroder-18595","Kevin-Durant-1348","Rudy-Gobert-16935","49900","267.72"
"Ricky-Rubio-1001","Donovan-Mitchell-37875","Harrison-Barnes-13901","Draymond-Green-13976","Rudy-Gobert-16935","Dennis-Schroder-18595","Jonas-Jerebko-1106","Kevin-Durant-1348","50000","267.69"
"Stephen-Curry-1079","Klay-Thompson-13315","Kevin-Durant-1348","Derrick-Favors-1266","Kevon-Looney-18945","Ricky-Rubio-1001","Harrison-Barnes-13901","Dennis-Schroder-18595","50000","267.65"
"J.J.-Barea-18605","Stephen-Curry-1079","Wesley-Matthews-1339","Draymond-Green-13976","Derrick-Favors-1266","Ricky-Rubio-1001","Kevin-Durant-1348","Dennis-Schroder-18595","49700","267.62"
"J.J.-Barea-18605","Stephen-Curry-1079","Kevin-Durant-1348","Draymond-Green-13976","Jonas-Jerebko-1106","Ricky-Rubio-1001","Harrison-Barnes-13901","Dennis-Schroder-18595","49800","267.59"
"Stephen-Curry-1079","Donovan-Mitchell-37875","Wesley-Matthews-1339","Draymond-Green-13976","Kevon-Looney-18945","Ricky-Rubio-1001","Jerami-Grant-18576","Kevin-Durant-1348","50000","267.57"
"Stephen-Curry-1079","Klay-Thompson-13315","Wesley-Matthews-1339","Draymond-Green-13976","Derrick-Favors-1266","Ricky-Rubio-1001","Kevin-Durant-1348","Jonas-Jerebko-1106","49500","267.55"
"J.J.-Barea-18605","Stephen-Curry-1079","Kevin-Durant-1348","Derrick-Favors-1266","Jonas-Jerebko-1106","Ricky-Rubio-1001","Harrison-Barnes-13901","Donovan-Mitchell-37875","49700","267.54"
"Stephen-Curry-1079","Klay-Thompson-13315","Kevin-Durant-1348","Draymond-Green-13976","Derrick-Favors-1266","Ricky-Rubio-1001","Jerami-Grant-18576","Jalen-Brunson-409062","49800","267.52"
"J.J.-Barea-18605","Stephen-Curry-1079","Wesley-Matthews-1339","Draymond-Green-13976","Jonas-Jerebko-1106","Donovan-Mitchell-37875","Kevin-Durant-1348","Dennis-Schroder-18595","50000","267.4"
"Stephen-Curry-1079","Wesley-Matthews-1339","Kevin-Durant-1348","Draymond-Green-13976","Derrick-Favors-1266","Klay-Thompson-13315","Harrison-Barnes-13901","Jonas-Jerebko-1106","49900","267.39"
"Ricky-Rubio-1001","Klay-Thompson-13315","Kevin-Durant-1348","Draymond-Green-13976","Rudy-Gobert-16935","Donovan-Mitchell-37875","Kevon-Looney-18945","Derrick-Favors-1266","50000","267.39"
"Stephen-Curry-1079","Klay-Thompson-13315","Wesley-Matthews-1339","Draymond-Green-13976","Derrick-Favors-1266","Ricky-Rubio-1001","Harrison-Barnes-13901","Donovan-Mitchell-37875","49500","267.37"
"Stephen-Curry-1079","Klay-Thompson-13315","Kevin-Durant-1348","Derrick-Favors-1266","Jonas-Jerebko-1106","Donovan-Mitchell-37875","Andre-Iguodala-1334","Draymond-Green-13976","50000","267.37"
"Stephen-Curry-1079","Dennis-Schroder-18595","Wesley-Matthews-1339","Draymond-Green-13976","Derrick-Favors-1266","Ricky-Rubio-1001","Kevin-Durant-1348","Jerami-Grant-18576","49600","267.35"
"Stephen-Curry-1079","Donovan-Mitchell-37875","Harrison-Barnes-13901","Draymond-Green-13976","Rudy-Gobert-16935","Ricky-Rubio-1001","Jonas-Jerebko-1106","Derrick-Favors-1266","49600","267.33"
"Stephen-Curry-1079","Dennis-Schroder-18595","Harrison-Barnes-13901","Draymond-Green-13976","Jonas-Jerebko-1106","Ricky-Rubio-1001","Jerami-Grant-18576","Kevin-Durant-1348","49700","267.32"
"J.J.-Barea-18605","Stephen-Curry-1079","Kevin-Durant-1348","Draymond-Green-13976","Kevon-Looney-18945","Klay-Thompson-13315","Derrick-Favors-1266","Ricky-Rubio-1001","49800","267.29"
"Stephen-Curry-1079","Donovan-Mitchell-37875","Kevin-Durant-1348","Harrison-Barnes-13901","Derrick-Favors-1266","Ricky-Rubio-1001","Jerami-Grant-18576","Jonas-Jerebko-1106","49600","267.27"
"Stephen-Curry-1079","Wesley-Matthews-1339","Kevin-Durant-1348","Harrison-Barnes-13901","Draymond-Green-13976","Dennis-Schroder-18595","Jerami-Grant-18576","Derrick-Favors-1266","50000","267.19"
"Stephen-Curry-1079","Donovan-Mitchell-37875","Wesley-Matthews-1339","Draymond-Green-13976","Derrick-Favors-1266","Ricky-Rubio-1001","Kevin-Durant-1348","Dorian-Finney-Smith-36032","49900","267.15"
"Stephen-Curry-1079","Donovan-Mitchell-37875","Wesley-Matthews-1339","Kevin-Durant-1348","Draymond-Green-13976","Dennis-Schroder-18595","Jerami-Grant-18576","Jonas-Jerebko-1106","49900","267.13"
"Stephen-Curry-1079","Donovan-Mitchell-37875","Dorian-Finney-Smith-36032","Draymond-Green-13976","Jonas-Jerebko-1106","Ricky-Rubio-1001","Harrison-Barnes-13901","Kevin-Durant-1348","50000","267.12"
"Ricky-Rubio-1001","Klay-Thompson-13315","Wesley-Matthews-1339","Derrick-Favors-1266","Rudy-Gobert-16935","Donovan-Mitchell-37875","Kevin-Durant-1348","Dennis-Schroder-18595","50000","267.02"
"Stephen-Curry-1079","Klay-Thompson-13315","Kevin-Durant-1348","Derrick-Favors-1266","Kevon-Looney-18945","Ricky-Rubio-1001","Jerami-Grant-18576","Draymond-Green-13976","49700","267.02"
"Donovan-Mitchell-37875","Klay-Thompson-13315","Kevin-Durant-1348","Draymond-Green-13976","Jonas-Jerebko-1106","Dennis-Schroder-18595","Derrick-Favors-1266","Rudy-Gobert-16935","49900","266.95"
"Stephen-Curry-1079","Klay-Thompson-13315","Wesley-Matthews-1339","Draymond-Green-13976","Derrick-Favors-1266","Ricky-Rubio-1001","Kevin-Durant-1348","Jalen-Brunson-409062","49700","266.93"
"Stephen-Curry-1079","Joe-Ingles-18627","Kevin-Durant-1348","Draymond-Green-13976","Derrick-Favors-1266","Ricky-Rubio-1001","Harrison-Barnes-13901","Jonas-Jerebko-1106","50000","266.9"
"Stephen-Curry-1079","Klay-Thompson-13315","Kevin-Durant-1348","Draymond-Green-13976","Jonas-Jerebko-1106","Ricky-Rubio-1001","Harrison-Barnes-13901","Jalen-Brunson-409062","49800","266.9"
"Ricky-Rubio-1001","Stephen-Curry-1079","Kevin-Durant-1348","Draymond-Green-13976","Jonas-Jerebko-1106","Jalen-Brunson-409062","Derrick-Favors-1266","Rudy-Gobert-16935","49800","266.89"
"J.J.-Barea-18605","Stephen-Curry-1079","Kevin-Durant-1348","Derrick-Favors-1266","Rudy-Gobert-16935","Ricky-Rubio-1001","Jonas-Jerebko-1106","Dennis-Schroder-18595","49900","266.88"
"J.J.-Barea-18605","Wesley-Matthews-1339","Kevin-Durant-1348","Harrison-Barnes-13901","Draymond-Green-13976","Ricky-Rubio-1001","Jerami-Grant-18576","Stephen-Curry-1079","50000","266.87"
"J.J.-Barea-18605","Stephen-Curry-1079","Kevin-Durant-1348","Draymond-Green-13976","Jonas-Jerebko-1106","Klay-Thompson-13315","Derrick-Favors-1266","Dennis-Schroder-18595","49700","266.85"
"J.J.-Barea-18605","Stephen-Curry-1079","Kevin-Durant-1348","Draymond-Green-13976","Derrick-Favors-1266","Ricky-Rubio-1001","Kyle-Korver-1269","Donovan-Mitchell-37875","50000","266.83"
"Stephen-Curry-1079","Klay-Thompson-13315","Kevin-Durant-1348","Draymond-Green-13976","Jonas-Jerebko-1106","Donovan-Mitchell-37875","Jerami-Grant-18576","Kevon-Looney-18945","50000","266.8"
"Stephen-Curry-1079","Dennis-Schroder-18595","Kevin-Durant-1348","Harrison-Barnes-13901","Draymond-Green-13976","Ricky-Rubio-1001","Andre-Iguodala-1334","Derrick-Favors-1266","49800","266.77"
"Stephen-Curry-1079","Dennis-Schroder-18595","Wesley-Matthews-1339","Draymond-Green-13976","Jonas-Jerebko-1106","Ricky-Rubio-1001","Kevin-Durant-1348","Harrison-Barnes-13901","49600","266.73"
"Stephen-Curry-1079","Donovan-Mitchell-37875","Kevin-Durant-1348","Draymond-Green-13976","Jonas-Jerebko-1106","Ricky-Rubio-1001","Andre-Iguodala-1334","Dennis-Schroder-18595","49700","266.71"
"Stephen-Curry-1079","Donovan-Mitchell-37875","Harrison-Barnes-13901","Draymond-Green-13976","Rudy-Gobert-16935","Ricky-Rubio-1001","Derrick-Favors-1266","Jalen-Brunson-409062","49800","266.71"
"Stephen-Curry-1079","Klay-Thompson-13315","Wesley-Matthews-1339","Draymond-Green-13976","Rudy-Gobert-16935","Ricky-Rubio-1001","Derrick-Favors-1266","Dennis-Schroder-18595","49700","266.71"
"Stephen-Curry-1079","Klay-Thompson-13315","Wesley-Matthews-1339","Draymond-Green-13976","Jonas-Jerebko-1106","Donovan-Mitchell-37875","Kevin-Durant-1348","Jalen-Brunson-409062","50000","266.71"
"Stephen-Curry-1079","Dennis-Schroder-18595","Kevin-Durant-1348","Harrison-Barnes-13901","Draymond-Green-13976","Ricky-Rubio-1001","Jerami-Grant-18576","Jalen-Brunson-409062","49900","266.7"
"J.J.-Barea-18605","Klay-Thompson-13315","Kevin-Durant-1348","Draymond-Green-13976","Derrick-Favors-1266","Ricky-Rubio-1001","Harrison-Barnes-13901","Rudy-Gobert-16935","50000","266.69"
"Stephen-Curry-1079","Klay-Thompson-13315","Harrison-Barnes-13901","Draymond-Green-13976","Rudy-Gobert-16935","Ricky-Rubio-1001","Jonas-Jerebko-1106","Dennis-Schroder-18595","49800","266.68"
"Stephen-Curry-1079","Donovan-Mitchell-37875","Wesley-Matthews-1339","Derrick-Favors-1266","Jonas-Jerebko-1106","Ricky-Rubio-1001","Harrison-Barnes-13901","Kevin-Durant-1348","49500","266.68"
"Stephen-Curry-1079","Klay-Thompson-13315","Wesley-Matthews-1339","Kevin-Durant-1348","Derrick-Favors-1266","Ricky-Rubio-1001","Jerami-Grant-18576","Dennis-Schroder-18595","49700","266.65"
"Stephen-Curry-1079","Donovan-Mitchell-37875","Kevin-Durant-1348","Harrison-Barnes-13901","Derrick-Favors-1266","Ricky-Rubio-1001","Jerami-Grant-18576","Jalen-Brunson-409062","49800","266.65"
"Stephen-Curry-1079","Donovan-Mitchell-37875","Wesley-Matthews-1339","Draymond-Green-13976","Derrick-Favors-1266","Ricky-Rubio-1001","Kevin-Durant-1348","Dwight-Powell-18566","50000","266.63"
"Stephen-Curry-1079","Klay-Thompson-13315","Harrison-Barnes-13901","Derrick-Favors-1266","Rudy-Gobert-16935","Ricky-Rubio-1001","Jonas-Jerebko-1106","Donovan-Mitchell-37875","49700","266.63"
"J.J.-Barea-18605","Klay-Thompson-13315","Kevin-Durant-1348","Draymond-Green-13976","Rudy-Gobert-16935","Ricky-Rubio-1001","Jonas-Jerebko-1106","Donovan-Mitchell-37875","49900","266.63"
"Stephen-Curry-1079","Klay-Thompson-13315","Kevin-Durant-1348","Harrison-Barnes-13901","Jonas-Jerebko-1106","Ricky-Rubio-1001","Jerami-Grant-18576","Dennis-Schroder-18595","49800","266.62"
"Stephen-Curry-1079","Dennis-Schroder-18595","Kevin-Durant-1348","Derrick-Favors-1266","Rudy-Gobert-16935","Ricky-Rubio-1001","Jerami-Grant-18576","Jonas-Jerebko-1106","49800","266.61"
"Stephen-Curry-1079","Klay-Thompson-13315","Kevin-Durant-1348","Derrick-Favors-1266","Jonas-Jerebko-1106","Dennis-Schroder-18595","Jerami-Grant-18576","Draymond-Green-13976","49600","266.58"
"Stephen-Curry-1079","Donovan-Mitchell-37875","Wesley-Matthews-1339","Draymond-Green-13976","Derrick-Favors-1266","Dennis-Schroder-18595","Kevin-Durant-1348","Andre-Iguodala-1334","50000","266.58"
"Stephen-Curry-1079","Donovan-Mitchell-37875","Kevin-Durant-1348","Jerami-Grant-18576","Draymond-Green-13976","Ricky-Rubio-1001","Kyle-Korver-1269","Derrick-Favors-1266","49900","266.56"
"Ricky-Rubio-1001","Klay-Thompson-13315","Joe-Ingles-18627","Draymond-Green-13976","Derrick-Favors-1266","Donovan-Mitchell-37875","Kevin-Durant-1348","Dennis-Schroder-18595","49900","266.5"
"Stephen-Curry-1079","Klay-Thompson-13315","Wesley-Matthews-1339","Draymond-Green-13976","Rudy-Gobert-16935","Donovan-Mitchell-37875","Jonas-Jerebko-1106","Dennis-Schroder-18595","50000","266.49"
"Stephen-Curry-1079","Donovan-Mitchell-37875","Kevin-Durant-1348","Draymond-Green-13976","Derrick-Favors-1266","Ricky-Rubio-1001","Jerami-Grant-18576","Devin-Harris-1076","49900","266.48"
"J.J.-Barea-18605","Stephen-Curry-1079","Kevin-Durant-1348","Draymond-Green-13976","Kevon-Looney-18945","Ricky-Rubio-1001","Harrison-Barnes-13901","Dennis-Schroder-18595","49900","266.47"
"Stephen-Curry-1079","Klay-Thompson-13315","Wesley-Matthews-1339","Dorian-Finney-Smith-36032","Derrick-Favors-1266","Ricky-Rubio-1001","Kevin-Durant-1348","Donovan-Mitchell-37875","50000","266.45"
"Stephen-Curry-1079","Klay-Thompson-13315","Wesley-Matthews-1339","Kevin-Durant-1348","Jonas-Jerebko-1106","Donovan-Mitchell-37875","Jerami-Grant-18576","Dennis-Schroder-18595","50000","266.43"
"Stephen-Curry-1079","Donovan-Mitchell-37875","Harrison-Barnes-13901","Derrick-Favors-1266","Rudy-Gobert-16935","Ricky-Rubio-1001","Jerami-Grant-18576","Dennis-Schroder-18595","49800","266.43"
"J.J.-Barea-18605","Donovan-Mitchell-37875","Kevin-Durant-1348","Draymond-Green-13976","Rudy-Gobert-16935","Ricky-Rubio-1001","Jerami-Grant-18576","Dennis-Schroder-18595","50000","266.43"
"Stephen-Curry-1079","Klay-Thompson-13315","Wesley-Matthews-1339","Draymond-Green-13976","Derrick-Favors-1266","Ricky-Rubio-1001","Kevin-Durant-1348","Kevon-Looney-18945","49600","266.43"
"J.J.-Barea-18605","Stephen-Curry-1079","Kevin-Durant-1348","Derrick-Favors-1266","Kevon-Looney-18945","Ricky-Rubio-1001","Harrison-Barnes-13901","Donovan-Mitchell-37875","49800","266.42"
"Stephen-Curry-1079","Klay-Thompson-13315","Harrison-Barnes-13901","Draymond-Green-13976","Derrick-Favors-1266","Donovan-Mitchell-37875","Jerami-Grant-18576","Dennis-Schroder-18595","49600","266.4"
"Stephen-Curry-1079","Klay-Thompson-13315","Kevin-Durant-1348","Draymond-Green-13976","Jonas-Jerebko-1106","Ricky-Rubio-1001","Kevon-Looney-18945","Harrison-Barnes-13901","49700","266.4"
"Stephen-Curry-1079","Klay-Thompson-13315","Dorian-Finney-Smith-36032","Derrick-Favors-1266","Jonas-Jerebko-1106","Donovan-Mitchell-37875","Kevin-Durant-1348","Draymond-Green-13976","49900","266.38"
"Ricky-Rubio-1001","Klay-Thompson-13315","Kevin-Durant-1348","Draymond-Green-13976","Rudy-Gobert-16935","Donovan-Mitchell-37875","Jerami-Grant-18576","Jonas-Jerebko-1106","49800","266.36"
"Stephen-Curry-1079","Wesley-Matthews-1339","Kevin-Durant-1348","Derrick-Favors-1266","Kevon-Looney-18945","Klay-Thompson-13315","Harrison-Barnes-13901","Draymond-Green-13976","50000","266.27"
"J.J.-Barea-18605","Stephen-Curry-1079","Kevin-Durant-1348","Draymond-Green-13976","Jonas-Jerebko-1106","Klay-Thompson-13315","Jerami-Grant-18576","Ricky-Rubio-1001","49600","266.26"
"J.J.-Barea-18605","Stephen-Curry-1079","Wesley-Matthews-1339","Kevin-Durant-1348","Draymond-Green-13976","Ricky-Rubio-1001","Andre-Iguodala-1334","Donovan-Mitchell-37875","50000","266.26"
"Stephen-Curry-1079","Donovan-Mitchell-37875","Harrison-Barnes-13901","Derrick-Favors-1266","Rudy-Gobert-16935","Ricky-Rubio-1001","Kevon-Looney-18945","Draymond-Green-13976","49700","266.21"
"Stephen-Curry-1079","Klay-Thompson-13315","Wesley-Matthews-1339","Draymond-Green-13976","Jonas-Jerebko-1106","Donovan-Mitchell-37875","Kevon-Looney-18945","Kevin-Durant-1348","49900","266.21"
"Stephen-Curry-1079","Dennis-Schroder-18595","Kevin-Durant-1348","Harrison-Barnes-13901","Draymond-Green-13976","Ricky-Rubio-1001","Jerami-Grant-18576","Kevon-Looney-18945","49800","266.2"
"Stephen-Curry-1079","Klay-Thompson-13315","Kevin-Durant-1348","Derrick-Favors-1266","Rudy-Gobert-16935","Ricky-Rubio-1001","Jonas-Jerebko-1106","Jalen-Brunson-409062","49900","266.19"
"Stephen-Curry-1079","Donovan-Mitchell-37875","Dorian-Finney-Smith-36032","Draymond-Green-13976","Derrick-Favors-1266","Dennis-Schroder-18595","Jerami-Grant-18576","Kevin-Durant-1348","50000","266.18"
"Stephen-Curry-1079","Donovan-Mitchell-37875","Kevin-Durant-1348","Draymond-Green-13976","Jonas-Jerebko-1106","Ricky-Rubio-1001","Derrick-Favors-1266","Jalen-Brunson-409062","49200","266.15"
