"Luka-Doncic-408971","Patty-Mills-13977","Trey-Lyles-18942","Anthony-Davis-13895","DeAndre-Jordan-1486","Mike-Conley-1062","Rudy-Gay-1341","Dennis-Smith-Jr.-37847","50000","289.6"
"Luka-Doncic-408971","Devin-Harris-1076","Trey-Lyles-18942","Anthony-Davis-13895","DeAndre-Jordan-1486","Mike-Conley-1062","Rudy-Gay-1341","Harrison-Barnes-13901","49800","289.47"
"Mike-Conley-1062","Devin-Harris-1076","Trey-Lyles-18942","Giannis-Antetokounmpo-16852","DeAndre-Jordan-1486","Dennis-Smith-Jr.-37847","Rudy-Gay-1341","Marc-Gasol-1493","50000","288.58"
"Luka-Doncic-408971","Devin-Harris-1076","Trey-Lyles-18942","Anthony-Davis-13895","Marc-Gasol-1493","Dennis-Smith-Jr.-37847","Harrison-Barnes-13901","DeAndre-Jordan-1486","49900","288.45"

"Luka-Doncic-408971","Patty-Mills-13977","Trey-Lyles-18942","Anthony-Davis-13895","DeAndre-Jordan-1486","Mike-Conley-1062","Rudy-Gay-1341","Dennis-Smith-Jr.-37847","50000","289.6"
"Luka-Doncic-408971","Devin-Harris-1076","Trey-Lyles-18942","Anthony-Davis-13895","DeAndre-Jordan-1486","Mike-Conley-1062","Rudy-Gay-1341","Harrison-Barnes-13901","49800","289.47"
"Mike-Conley-1062","Devin-Harris-1076","Trey-Lyles-18942","Giannis-Antetokounmpo-16852","DeAndre-Jordan-1486","Dennis-Smith-Jr.-37847","Rudy-Gay-1341","Marc-Gasol-1493","50000","288.58"
"Luka-Doncic-408971","Devin-Harris-1076","Trey-Lyles-18942","Anthony-Davis-13895","Marc-Gasol-1493","Dennis-Smith-Jr.-37847","Harrison-Barnes-13901","DeAndre-Jordan-1486","49900","288.45"
"Luka-Doncic-408971","Devin-Harris-1076","Trey-Lyles-18942","Anthony-Davis-13895","DeAndre-Jordan-1486","Dennis-Smith-Jr.-37847","Rudy-Gay-1341","Marc-Gasol-1493","49700","288.18"
"Luka-Doncic-408971","Devin-Harris-1076","Dante-Cunningham-1259","Anthony-Davis-13895","Marc-Gasol-1493","Mike-Conley-1062","Trey-Lyles-18942","DeAndre-Jordan-1486","50000","288.1"
"Luka-Doncic-408971","Patty-Mills-13977","Trey-Lyles-18942","Giannis-Antetokounmpo-16852","DeAndre-Jordan-1486","Mike-Conley-1062","Harrison-Barnes-13901","Dennis-Smith-Jr.-37847","49900","288.08"
"Luka-Doncic-408971","Devin-Harris-1076","Harrison-Barnes-13901","Rudy-Gay-1341","DeAndre-Jordan-1486","Mike-Conley-1062","JaMychal-Green-18729","Anthony-Davis-13895","49900","288.03"
"Luka-Doncic-408971","Patty-Mills-13977","Trey-Lyles-18942","Giannis-Antetokounmpo-16852","DeAndre-Jordan-1486","Mike-Conley-1062","Rudy-Gay-1341","Dennis-Smith-Jr.-37847","49700","287.81"
"Luka-Doncic-408971","Devin-Harris-1076","Harrison-Barnes-13901","Anthony-Davis-13895","DeAndre-Jordan-1486","Shelvin-Mack-13354","Rudy-Gay-1341","Mike-Conley-1062","50000","287.77"
"Luka-Doncic-408971","Devin-Harris-1076","Trey-Lyles-18942","Giannis-Antetokounmpo-16852","DeAndre-Jordan-1486","Mike-Conley-1062","Rudy-Gay-1341","Harrison-Barnes-13901","49500","287.68"
"Luka-Doncic-408971","Marco-Belinelli-1033","Trey-Lyles-18942","Anthony-Davis-13895","DeAndre-Jordan-1486","Dennis-Smith-Jr.-37847","Rudy-Gay-1341","Marc-Gasol-1493","50000","287.35"
"Devin-Harris-1076","Patty-Mills-13977","Harrison-Barnes-13901","Anthony-Davis-13895","DeAndre-Jordan-1486","Luka-Doncic-408971","Rudy-Gay-1341","Mike-Conley-1062","49700","287.28"
"Luka-Doncic-408971","Devin-Harris-1076","Trey-Lyles-18942","Anthony-Davis-13895","DeAndre-Jordan-1486","Mike-Conley-1062","Harrison-Barnes-13901","Dennis-Smith-Jr.-37847","49500","287.23"
"Devin-Harris-1076","Malcolm-Brogdon-35195","Trey-Lyles-18942","Anthony-Davis-13895","DeAndre-Jordan-1486","Mike-Conley-1062","Rudy-Gay-1341","Marc-Gasol-1493","50000","287.12"
"Luka-Doncic-408971","Malcolm-Brogdon-35195","Trey-Lyles-18942","Rudy-Gay-1341","Anthony-Davis-13895","Mike-Conley-1062","JaMychal-Green-18729","DeAndre-Jordan-1486","49900","287.1"
"Luka-Doncic-408971","Patty-Mills-13977","Dante-Cunningham-1259","Harrison-Barnes-13901","DeAndre-Jordan-1486","Mike-Conley-1062","Rudy-Gay-1341","Anthony-Davis-13895","49900","287.09"
"Luka-Doncic-408971","Devin-Harris-1076","Harrison-Barnes-13901","Anthony-Davis-13895","DeAndre-Jordan-1486","Dennis-Smith-Jr.-37847","JaMychal-Green-18729","Marc-Gasol-1493","50000","287.01"
"Luka-Doncic-408971","Devin-Harris-1076","Trey-Lyles-18942","Anthony-Davis-13895","DeAndre-Jordan-1486","Mike-Conley-1062","Rudy-Gay-1341","Dennis-Smith-Jr.-37847","49300","286.96"
"Luka-Doncic-408971","Marco-Belinelli-1033","Trey-Lyles-18942","Giannis-Antetokounmpo-16852","DeAndre-Jordan-1486","Mike-Conley-1062","Rudy-Gay-1341","Harrison-Barnes-13901","49800","286.85"
"Luka-Doncic-408971","Malcolm-Brogdon-35195","Trey-Lyles-18942","Anthony-Davis-13895","DeAndre-Jordan-1486","Shelvin-Mack-13354","Rudy-Gay-1341","Mike-Conley-1062","50000","286.84"
"Luka-Doncic-408971","Devin-Harris-1076","Rudy-Gay-1341","Anthony-Davis-13895","Marc-Gasol-1493","Dennis-Smith-Jr.-37847","JaMychal-Green-18729","DeAndre-Jordan-1486","49800","286.74"
"Devin-Harris-1076","Patty-Mills-13977","Giannis-Antetokounmpo-16852","Harrison-Barnes-13901","DeAndre-Jordan-1486","Luka-Doncic-408971","Rudy-Gay-1341","Marc-Gasol-1493","49800","286.71"
"Luka-Doncic-408971","Devin-Harris-1076","Trey-Lyles-18942","Giannis-Antetokounmpo-16852","Marc-Gasol-1493","Dennis-Smith-Jr.-37847","Harrison-Barnes-13901","DeAndre-Jordan-1486","49600","286.66"
"Luka-Doncic-408971","Patty-Mills-13977","Giannis-Antetokounmpo-16852","Harrison-Barnes-13901","DeAndre-Jordan-1486","Mike-Conley-1062","JaMychal-Green-18729","Dennis-Smith-Jr.-37847","50000","286.64"
"Luka-Doncic-408971","Patty-Mills-13977","Trey-Lyles-18942","Anthony-Davis-13895","DeAndre-Jordan-1486","Malcolm-Brogdon-35195","Harrison-Barnes-13901","Mike-Conley-1062","49900","286.62"
"Luka-Doncic-408971","Malcolm-Brogdon-35195","Trey-Lyles-18942","Harrison-Barnes-13901","Anthony-Davis-13895","Mike-Conley-1062","Rudy-Gay-1341","Dennis-Smith-Jr.-37847","49900","286.61"
"Luka-Doncic-408971","Devin-Harris-1076","Trey-Lyles-18942","Giannis-Antetokounmpo-16852","DeAndre-Jordan-1486","Mike-Conley-1062","Dorian-Finney-Smith-36032","Marc-Gasol-1493","49900","286.61"
"Luka-Doncic-408971","Devin-Harris-1076","Rudy-Gay-1341","Anthony-Davis-13895","DeAndre-Jordan-1486","Mike-Conley-1062","Kyle-Anderson-18615","Dennis-Smith-Jr.-37847","49900","286.55"
"Mike-Conley-1062","Gary-Harris-18617","Trey-Lyles-18942","Anthony-Davis-13895","DeAndre-Jordan-1486","Patty-Mills-13977","Rudy-Gay-1341","Harrison-Barnes-13901","50000","286.52"
"Luka-Doncic-408971","Patty-Mills-13977","Marco-Belinelli-1033","Harrison-Barnes-13901","DeAndre-Jordan-1486","Mike-Conley-1062","Rudy-Gay-1341","Anthony-Davis-13895","50000","286.45"
"Luka-Doncic-408971","Marco-Belinelli-1033","Trey-Lyles-18942","Anthony-Davis-13895","DeAndre-Jordan-1486","Mike-Conley-1062","Harrison-Barnes-13901","Dennis-Smith-Jr.-37847","49800","286.4"
"Luka-Doncic-408971","Patty-Mills-13977","Trey-Lyles-18942","Anthony-Davis-13895","DeAndre-Jordan-1486","Kyle-Anderson-18615","Rudy-Gay-1341","Marc-Gasol-1493","50000","286.4"
"Luka-Doncic-408971","Devin-Harris-1076","Trey-Lyles-18942","Giannis-Antetokounmpo-16852","DeAndre-Jordan-1486","Dennis-Smith-Jr.-37847","Rudy-Gay-1341","Marc-Gasol-1493","49400","286.39"
"Luka-Doncic-408971","Patty-Mills-13977","Giannis-Antetokounmpo-16852","Rudy-Gay-1341","DeAndre-Jordan-1486","Mike-Conley-1062","JaMychal-Green-18729","Dennis-Smith-Jr.-37847","49800","286.37"
"Luka-Doncic-408971","Patty-Mills-13977","Trey-Lyles-18942","Anthony-Davis-13895","DeAndre-Jordan-1486","Malcolm-Brogdon-35195","Rudy-Gay-1341","Mike-Conley-1062","49700","286.35"
"Luka-Doncic-408971","Patty-Mills-13977","Trey-Lyles-18942","Giannis-Antetokounmpo-16852","Marc-Gasol-1493","Mike-Conley-1062","JaMychal-Green-18729","Rudy-Gay-1341","50000","286.32"
"Luka-Doncic-408971","Devin-Harris-1076","Trey-Lyles-18942","Giannis-Antetokounmpo-16852","DeAndre-Jordan-1486","Mike-Conley-1062","Ersan-Ilyasova-1301","Marc-Gasol-1493","49900","286.31"
"Luka-Doncic-408971","Devin-Harris-1076","Dante-Cunningham-1259","Trey-Lyles-18942","Marc-Gasol-1493","Mike-Conley-1062","Giannis-Antetokounmpo-16852","DeAndre-Jordan-1486","49700","286.31"
"Luka-Doncic-408971","Devin-Harris-1076","Harrison-Barnes-13901","Rudy-Gay-1341","DeAndre-Jordan-1486","Mike-Conley-1062","JaMychal-Green-18729","Giannis-Antetokounmpo-16852","49600","286.24"
"Luka-Doncic-408971","Gary-Harris-18617","Dante-Cunningham-1259","Trey-Lyles-18942","DeAndre-Jordan-1486","Mike-Conley-1062","Giannis-Antetokounmpo-16852","Dennis-Smith-Jr.-37847","50000","286.15"
"Luka-Doncic-408971","Marco-Belinelli-1033","Trey-Lyles-18942","Anthony-Davis-13895","DeAndre-Jordan-1486","Mike-Conley-1062","Rudy-Gay-1341","Dennis-Smith-Jr.-37847","49600","286.13"
"Devin-Harris-1076","Gary-Harris-18617","Giannis-Antetokounmpo-16852","Harrison-Barnes-13901","DeAndre-Jordan-1486","Mike-Conley-1062","Rudy-Gay-1341","Dennis-Smith-Jr.-37847","50000","286.1"
"Luka-Doncic-408971","Patty-Mills-13977","Dorian-Finney-Smith-36032","Anthony-Davis-13895","DeAndre-Jordan-1486","Dennis-Smith-Jr.-37847","Rudy-Gay-1341","Marc-Gasol-1493","50000","286.1"
"Luka-Doncic-408971","Devin-Harris-1076","Harrison-Barnes-13901","Anthony-Davis-13895","DeAndre-Jordan-1486","Mike-Conley-1062","Rudy-Gay-1341","Monte-Morris-37860","49900","286.09"
"Luka-Doncic-408971","Malcolm-Brogdon-35195","Trey-Lyles-18942","Anthony-Davis-13895","DeAndre-Jordan-1486","Dennis-Smith-Jr.-37847","JaMychal-Green-18729","Marc-Gasol-1493","50000","286.08"
"Luka-Doncic-408971","Patty-Mills-13977","Dante-Cunningham-1259","Anthony-Davis-13895","Marc-Gasol-1493","Dennis-Smith-Jr.-37847","Harrison-Barnes-13901","DeAndre-Jordan-1486","50000","286.07"
"Mike-Conley-1062","Malcolm-Brogdon-35195","Trey-Lyles-18942","Anthony-Davis-13895","DeAndre-Jordan-1486","Dennis-Smith-Jr.-37847","Rudy-Gay-1341","Harrison-Barnes-13901","49700","286.06"
"Luka-Doncic-408971","Patty-Mills-13977","Trey-Lyles-18942","Giannis-Antetokounmpo-16852","Marc-Gasol-1493","Malcolm-Brogdon-35195","Harrison-Barnes-13901","DeAndre-Jordan-1486","50000","286.05"
"Luka-Doncic-408971","Malcolm-Brogdon-35195","Trey-Lyles-18942","Giannis-Antetokounmpo-16852","Marc-Gasol-1493","Dennis-Smith-Jr.-37847","Harrison-Barnes-13901","Rudy-Gay-1341","50000","286.04"
"Luka-Doncic-408971","Patty-Mills-13977","Trey-Lyles-18942","Giannis-Antetokounmpo-16852","DeAndre-Jordan-1486","Mike-Conley-1062","Rudy-Gay-1341","Brook-Lopez-1498","49900","285.99"
"Luka-Doncic-408971","Devin-Harris-1076","Giannis-Antetokounmpo-16852","Harrison-Barnes-13901","DeAndre-Jordan-1486","Shelvin-Mack-13354","Rudy-Gay-1341","Mike-Conley-1062","49700","285.98"
"Luka-Doncic-408971","Devin-Harris-1076","Giannis-Antetokounmpo-16852","Rudy-Gay-1341","Marc-Gasol-1493","Dennis-Smith-Jr.-37847","Kyle-Anderson-18615","DeAndre-Jordan-1486","50000","285.98"
"Luka-Doncic-408971","Devin-Harris-1076","Trey-Lyles-18942","Maxi-Kleber-37845","DeAndre-Jordan-1486","Mike-Conley-1062","Anthony-Davis-13895","Marc-Gasol-1493","49800","285.98"
"Mike-Conley-1062","Devin-Harris-1076","Trey-Lyles-18942","Anthony-Davis-13895","DeAndre-Jordan-1486","Kyle-Anderson-18615","Rudy-Gay-1341","Marc-Gasol-1493","49900","285.95"
"Luka-Doncic-408971","Devin-Harris-1076","Dante-Cunningham-1259","Anthony-Davis-13895","Marc-Gasol-1493","Mike-Conley-1062","Rudy-Gay-1341","Dennis-Smith-Jr.-37847","49900","285.9"
"Devin-Harris-1076","Malcolm-Brogdon-35195","Trey-Lyles-18942","Giannis-Antetokounmpo-16852","Marc-Gasol-1493","Luka-Doncic-408971","Rudy-Gay-1341","Mike-Conley-1062","49900","285.88"
"Luka-Doncic-408971","Patty-Mills-13977","Trey-Lyles-18942","Anthony-Davis-13895","Marc-Gasol-1493","Mike-Conley-1062","JaMychal-Green-18729","Dennis-Smith-Jr.-37847","50000","285.87"
"Luka-Doncic-408971","Marco-Belinelli-1033","Trey-Lyles-18942","Giannis-Antetokounmpo-16852","Marc-Gasol-1493","Dennis-Smith-Jr.-37847","Harrison-Barnes-13901","DeAndre-Jordan-1486","49900","285.83"
"Luka-Doncic-408971","Patty-Mills-13977","Dante-Cunningham-1259","Anthony-Davis-13895","Marc-Gasol-1493","Dennis-Smith-Jr.-37847","Rudy-Gay-1341","DeAndre-Jordan-1486","49800","285.8"
"Luka-Doncic-408971","Patty-Mills-13977","Rudy-Gay-1341","Anthony-Davis-13895","DeAndre-Jordan-1486","Dennis-Smith-Jr.-37847","Ersan-Ilyasova-1301","Marc-Gasol-1493","50000","285.8"
"Luka-Doncic-408971","Devin-Harris-1076","Garrett-Temple-14077","Anthony-Davis-13895","Marc-Gasol-1493","Dennis-Smith-Jr.-37847","Rudy-Gay-1341","DeAndre-Jordan-1486","50000","285.79"
"Luka-Doncic-408971","Devin-Harris-1076","Harrison-Barnes-13901","Anthony-Davis-13895","DeAndre-Jordan-1486","Mike-Conley-1062","JaMychal-Green-18729","Dennis-Smith-Jr.-37847","49600","285.79"
"Luka-Doncic-408971","Patty-Mills-13977","Trey-Lyles-18942","Giannis-Antetokounmpo-16852","DeAndre-Jordan-1486","Malcolm-Brogdon-35195","Rudy-Gay-1341","Marc-Gasol-1493","49800","285.78"
"Luka-Doncic-408971","Malcolm-Brogdon-35195","Dante-Cunningham-1259","Giannis-Antetokounmpo-16852","DeAndre-Jordan-1486","Mike-Conley-1062","Rudy-Gay-1341","Dennis-Smith-Jr.-37847","49900","285.74"
"Luka-Doncic-408971","Devin-Harris-1076","Trey-Lyles-18942","Harrison-Barnes-13901","Marc-Gasol-1493","Mike-Conley-1062","JaMychal-Green-18729","Anthony-Davis-13895","49800","285.74"
"Devin-Harris-1076","Gary-Harris-18617","Harrison-Barnes-13901","Anthony-Davis-13895","DeAndre-Jordan-1486","Luka-Doncic-408971","Rudy-Gay-1341","Dennis-Smith-Jr.-37847","49700","285.7"
"Luka-Doncic-408971","Devin-Harris-1076","Trey-Lyles-18942","Giannis-Antetokounmpo-16852","DeAndre-Jordan-1486","Mike-Conley-1062","Marco-Belinelli-1033","Marc-Gasol-1493","49800","285.67"
"Devin-Harris-1076","Gary-Harris-18617","Dorian-Finney-Smith-36032","Anthony-Davis-13895","DeAndre-Jordan-1486","Luka-Doncic-408971","Rudy-Gay-1341","Mike-Conley-1062","50000","285.65"
"Devin-Harris-1076","Gary-Harris-18617","Harrison-Barnes-13901","Anthony-Davis-13895","Marc-Gasol-1493","Luka-Doncic-408971","Rudy-Gay-1341","Trey-Lyles-18942","49900","285.65"
"Mike-Conley-1062","Devin-Harris-1076","Dorian-Finney-Smith-36032","Anthony-Davis-13895","DeAndre-Jordan-1486","Dennis-Smith-Jr.-37847","Rudy-Gay-1341","Marc-Gasol-1493","49900","285.65"
"Devin-Harris-1076","Gary-Harris-18617","Dante-Cunningham-1259","Anthony-Davis-13895","DeAndre-Jordan-1486","Luka-Doncic-408971","Harrison-Barnes-13901","Mike-Conley-1062","50000","285.62"
"Mike-Conley-1062","Devin-Harris-1076","Dante-Cunningham-1259","Anthony-Davis-13895","Marc-Gasol-1493","Dennis-Smith-Jr.-37847","Harrison-Barnes-13901","DeAndre-Jordan-1486","49900","285.62"
"Devin-Harris-1076","Malcolm-Brogdon-35195","Trey-Lyles-18942","Giannis-Antetokounmpo-16852","Marc-Gasol-1493","Mike-Conley-1062","Harrison-Barnes-13901","DeAndre-Jordan-1486","49900","285.6"
"Luka-Doncic-408971","Patty-Mills-13977","Giannis-Antetokounmpo-16852","Rudy-Gay-1341","DeAndre-Jordan-1486","Mike-Conley-1062","Dorian-Finney-Smith-36032","Harrison-Barnes-13901","49800","285.6"
"Luka-Doncic-408971","Malcolm-Brogdon-35195","Giannis-Antetokounmpo-16852","Harrison-Barnes-13901","DeAndre-Jordan-1486","Mike-Conley-1062","JaMychal-Green-18729","Trey-Lyles-18942","49800","285.58"
"Luka-Doncic-408971","Marco-Belinelli-1033","Trey-Lyles-18942","Giannis-Antetokounmpo-16852","DeAndre-Jordan-1486","Dennis-Smith-Jr.-37847","Rudy-Gay-1341","Marc-Gasol-1493","49700","285.56"
"Luka-Doncic-408971","Devin-Harris-1076","Rudy-Gay-1341","Anthony-Davis-13895","DeAndre-Jordan-1486","Mike-Conley-1062","JaMychal-Green-18729","Dennis-Smith-Jr.-37847","49400","285.52"
"Luka-Doncic-408971","Devin-Harris-1076","Giannis-Antetokounmpo-16852","Harrison-Barnes-13901","DeAndre-Jordan-1486","Monte-Morris-37860","Rudy-Gay-1341","Marc-Gasol-1493","50000","285.52"
"Luka-Doncic-408971","Gary-Harris-18617","Dante-Cunningham-1259","Harrison-Barnes-13901","DeAndre-Jordan-1486","Dennis-Smith-Jr.-37847","Rudy-Gay-1341","Anthony-Davis-13895","49900","285.51"
"Mike-Conley-1062","Patty-Mills-13977","Trey-Lyles-18942","Giannis-Antetokounmpo-16852","DeAndre-Jordan-1486","Shelvin-Mack-13354","Rudy-Gay-1341","Marc-Gasol-1493","49900","285.51"
"Luka-Doncic-408971","Gary-Harris-18617","Trey-Lyles-18942","Giannis-Antetokounmpo-16852","DeAndre-Jordan-1486","Malcolm-Brogdon-35195","Rudy-Gay-1341","Harrison-Barnes-13901","49900","285.49"
"Devin-Harris-1076","Patty-Mills-13977","Giannis-Antetokounmpo-16852","Harrison-Barnes-13901","DeAndre-Jordan-1486","Luka-Doncic-408971","Rudy-Gay-1341","Mike-Conley-1062","49400","285.49"
"Luka-Doncic-408971","Devin-Harris-1076","Trey-Lyles-18942","Anthony-Davis-13895","Marc-Gasol-1493","Shelvin-Mack-13354","Harrison-Barnes-13901","Mike-Conley-1062","49900","285.48"
"Luka-Doncic-408971","Marco-Belinelli-1033","Dante-Cunningham-1259","Trey-Lyles-18942","Marc-Gasol-1493","Mike-Conley-1062","Giannis-Antetokounmpo-16852","DeAndre-Jordan-1486","50000","285.48"
"Luka-Doncic-408971","Devin-Harris-1076","Rudy-Gay-1341","Anthony-Davis-13895","Marc-Gasol-1493","Mike-Conley-1062","JaMychal-Green-18729","Trey-Lyles-18942","49600","285.47"
"Luka-Doncic-408971","Khris-Middleton-13990","Trey-Lyles-18942","Harrison-Barnes-13901","Marc-Gasol-1493","Mike-Conley-1062","Rudy-Gay-1341","DeAndre-Jordan-1486","50000","285.47"
"Luka-Doncic-408971","Patty-Mills-13977","Trey-Lyles-18942","Harrison-Barnes-13901","Anthony-Davis-13895","Mike-Conley-1062","Kyle-Anderson-18615","DeAndre-Jordan-1486","49800","285.45"
"Luka-Doncic-408971","Devin-Harris-1076","Trey-Lyles-18942","Giannis-Antetokounmpo-16852","DeAndre-Jordan-1486","Mike-Conley-1062","Harrison-Barnes-13901","Dennis-Smith-Jr.-37847","49200","285.44"
"Devin-Harris-1076","Marco-Belinelli-1033","Giannis-Antetokounmpo-16852","Harrison-Barnes-13901","DeAndre-Jordan-1486","Mike-Conley-1062","Rudy-Gay-1341","Marc-Gasol-1493","50000","285.43"
"Luka-Doncic-408971","Patty-Mills-13977","Giannis-Antetokounmpo-16852","Rudy-Gay-1341","DeAndre-Jordan-1486","Mike-Conley-1062","Garrett-Temple-14077","Dennis-Smith-Jr.-37847","50000","285.42"
"Luka-Doncic-408971","Malcolm-Brogdon-35195","Rudy-Gay-1341","Maxi-Kleber-37845","DeAndre-Jordan-1486","Mike-Conley-1062","Anthony-Davis-13895","Dennis-Smith-Jr.-37847","50000","285.41"
"Luka-Doncic-408971","Devin-Harris-1076","Trey-Lyles-18942","Anthony-Davis-13895","DeAndre-Jordan-1486","Mike-Conley-1062","Harrison-Barnes-13901","Brook-Lopez-1498","49700","285.41"
"Luka-Doncic-408971","Marco-Belinelli-1033","Harrison-Barnes-13901","Rudy-Gay-1341","DeAndre-Jordan-1486","Mike-Conley-1062","JaMychal-Green-18729","Giannis-Antetokounmpo-16852","49900","285.41"
"Luka-Doncic-408971","Patty-Mills-13977","Trey-Lyles-18942","Anthony-Davis-13895","Marc-Gasol-1493","Shelvin-Mack-13354","Harrison-Barnes-13901","DeAndre-Jordan-1486","49800","285.38"
"Devin-Harris-1076","Gary-Harris-18617","Rudy-Gay-1341","Anthony-Davis-13895","DeAndre-Jordan-1486","Luka-Doncic-408971","Ersan-Ilyasova-1301","Mike-Conley-1062","50000","285.35"
"Mike-Conley-1062","Devin-Harris-1076","Dante-Cunningham-1259","Anthony-Davis-13895","Marc-Gasol-1493","Dennis-Smith-Jr.-37847","Rudy-Gay-1341","DeAndre-Jordan-1486","49700","285.35"
"Devin-Harris-1076","Gary-Harris-18617","Dante-Cunningham-1259","Anthony-Davis-13895","DeAndre-Jordan-1486","Luka-Doncic-408971","Rudy-Gay-1341","Mike-Conley-1062","49800","285.35"
"Luka-Doncic-408971","Gary-Harris-18617","Trey-Lyles-18942","Julius-Randle-18632","Marc-Gasol-1493","Mike-Conley-1062","Rudy-Gay-1341","DeAndre-Jordan-1486","50000","285.35"
"Mike-Conley-1062","Devin-Harris-1076","Rudy-Gay-1341","Anthony-Davis-13895","DeAndre-Jordan-1486","Dennis-Smith-Jr.-37847","Ersan-Ilyasova-1301","Marc-Gasol-1493","49900","285.35"
