"Russell-Westbrook-1083","Marcus-Smart-18567","Josh-Jackson-37890","Nikola-Mirotic-18584","Jusuf-Nurkic-18619","Elie-Okobo-409300","Jeff-Green-1314","Andre-Drummond-13904","50000","304.59"

"Russell-Westbrook-1083","Marcus-Smart-18567","Josh-Jackson-37890","Nikola-Mirotic-18584","Jusuf-Nurkic-18619","Elie-Okobo-409300","Jeff-Green-1314","Andre-Drummond-13904","50000","304.59"
"Russell-Westbrook-1083","Marcus-Smart-18567","Josh-Jackson-37890","Dewayne-Dedmon-16894","Jusuf-Nurkic-18619","Elie-Okobo-409300","Nikola-Mirotic-18584","Andre-Drummond-13904","50000","304.33"
"Russell-Westbrook-1083","Marcus-Smart-18567","Marcus-Morris-13316","Nikola-Mirotic-18584","Andre-Drummond-13904","Elie-Okobo-409300","Josh-Jackson-37890","Rondae-Hollis-Jefferson-18897","50000","303.57"
"Russell-Westbrook-1083","Marcus-Smart-18567","Wilson-Chandler-1327","Nikola-Mirotic-18584","Andre-Drummond-13904","Elie-Okobo-409300","Josh-Jackson-37890","Jusuf-Nurkic-18619","49800","303.3"
"Russell-Westbrook-1083","Gary-Harris-18617","Marcus-Morris-13316","Nikola-Mirotic-18584","Jusuf-Nurkic-18619","Elie-Okobo-409300","Josh-Jackson-37890","DeAndre-Jordan-1486","50000","302.93"
"Russell-Westbrook-1083","Marcus-Smart-18567","Josh-Jackson-37890","Jayson-Tatum-37782","Jusuf-Nurkic-18619","Elie-Okobo-409300","Nikola-Mirotic-18584","DeAndre-Jordan-1486","50000","302.77"
"Russell-Westbrook-1083","Marcus-Smart-18567","Allen-Crabbe-16978","Nikola-Mirotic-18584","Jusuf-Nurkic-18619","Elie-Okobo-409300","Josh-Jackson-37890","Andre-Drummond-13904","49700","302.6"
"Russell-Westbrook-1083","Allen-Crabbe-16978","Kelly-Oubre-18925","Nikola-Mirotic-18584","Andre-Drummond-13904","Elie-Okobo-409300","Josh-Jackson-37890","Jusuf-Nurkic-18619","50000","302.6"
"Lonzo-Ball-37885","Marcus-Smart-18567","Josh-Jackson-37890","Rondae-Hollis-Jefferson-18897","Andre-Drummond-13904","Russell-Westbrook-1083","Nikola-Mirotic-18584","Elie-Okobo-409300","50000","302.44"
"Russell-Westbrook-1083","Marcus-Smart-18567","Marcus-Morris-13316","Larry-Nance-18946","Andre-Drummond-13904","Elie-Okobo-409300","Josh-Jackson-37890","Jusuf-Nurkic-18619","49700","302.37"
"Russell-Westbrook-1083","Kelly-Oubre-18925","Marcus-Morris-13316","Larry-Nance-18946","Andre-Drummond-13904","Elie-Okobo-409300","Josh-Jackson-37890","Jusuf-Nurkic-18619","50000","302.37"
"Russell-Westbrook-1083","Gary-Harris-18617","Josh-Jackson-37890","Jayson-Tatum-37782","Andre-Drummond-13904","Elie-Okobo-409300","Nikola-Mirotic-18584","Tyson-Chandler-1482","50000","302.21"
"Marcus-Smart-18567","Gary-Harris-18617","Josh-Jackson-37890","Rondae-Hollis-Jefferson-18897","Andre-Drummond-13904","Russell-Westbrook-1083","Nikola-Mirotic-18584","Elie-Okobo-409300","50000","302.12"
"Russell-Westbrook-1083","Allen-Crabbe-16978","Jerami-Grant-18576","Nikola-Mirotic-18584","Andre-Drummond-13904","Elie-Okobo-409300","Josh-Jackson-37890","Jusuf-Nurkic-18619","49900","302.1"
"Russell-Westbrook-1083","Kelly-Oubre-18925","Mikal-Bridges-408842","Nikola-Mirotic-18584","Andre-Drummond-13904","Elie-Okobo-409300","Josh-Jackson-37890","Jusuf-Nurkic-18619","49800","301.98"
"Russell-Westbrook-1083","Marcus-Smart-18567","Mikal-Bridges-408842","Nikola-Mirotic-18584","Andre-Drummond-13904","Elie-Okobo-409300","Josh-Jackson-37890","Jusuf-Nurkic-18619","49500","301.98"
"Russell-Westbrook-1083","Rodney-McGruder-16850","Mikal-Bridges-408842","Nikola-Mirotic-18584","Andre-Drummond-13904","Elie-Okobo-409300","Josh-Jackson-37890","Jusuf-Nurkic-18619","50000","301.81"
"Russell-Westbrook-1083","Tim-Frazier-18743","Josh-Jackson-37890","Nikola-Mirotic-18584","Jusuf-Nurkic-18619","Elie-Okobo-409300","Jeff-Green-1314","Andre-Drummond-13904","49900","301.71"
"Russell-Westbrook-1083","Marcus-Smart-18567","DeMarre-Carroll-1174","Nikola-Mirotic-18584","Jusuf-Nurkic-18619","Elie-Okobo-409300","Josh-Jackson-37890","Andre-Drummond-13904","49400","301.66"
"Russell-Westbrook-1083","Kelly-Oubre-18925","DeMarre-Carroll-1174","Nikola-Mirotic-18584","Jusuf-Nurkic-18619","Elie-Okobo-409300","Josh-Jackson-37890","Andre-Drummond-13904","49700","301.66"
"Russell-Westbrook-1083","Shabazz-Napier-18598","Josh-Jackson-37890","Nikola-Mirotic-18584","Jusuf-Nurkic-18619","Elie-Okobo-409300","Taurean-Prince-35218","Andre-Drummond-13904","49800","301.63"
"Russell-Westbrook-1083","Joe-Ingles-18627","Marcus-Morris-13316","Nikola-Mirotic-18584","Jusuf-Nurkic-18619","Elie-Okobo-409300","Josh-Jackson-37890","DeAndre-Jordan-1486","50000","301.63"
"Lonzo-Ball-37885","Tim-Frazier-18743","Marcus-Morris-13316","Nikola-Mirotic-18584","Andre-Drummond-13904","Russell-Westbrook-1083","Josh-Jackson-37890","Elie-Okobo-409300","50000","301.62"
"Russell-Westbrook-1083","Allen-Crabbe-16978","Marcus-Morris-13316","Jayson-Tatum-37782","Andre-Drummond-13904","Elie-Okobo-409300","Josh-Jackson-37890","Jusuf-Nurkic-18619","50000","301.62"
"Russell-Westbrook-1083","Marcus-Smart-18567","Wilson-Chandler-1327","Nikola-Mirotic-18584","DeAndre-Jordan-1486","Elie-Okobo-409300","Josh-Jackson-37890","Andre-Drummond-13904","50000","301.58"
"Russell-Westbrook-1083","Gary-Harris-18617","Kelly-Oubre-18925","Marcus-Morris-13316","Jusuf-Nurkic-18619","Elie-Okobo-409300","Josh-Jackson-37890","Andre-Drummond-13904","49800","301.54"
"Russell-Westbrook-1083","Dennis-Schroder-18595","Josh-Jackson-37890","Jayson-Tatum-37782","Jusuf-Nurkic-18619","Elie-Okobo-409300","Nikola-Mirotic-18584","Marcus-Morris-13316","49900","301.54"
"Russell-Westbrook-1083","Dennis-Schroder-18595","Jerami-Grant-18576","Marcus-Morris-13316","Andre-Drummond-13904","Elie-Okobo-409300","Josh-Jackson-37890","Jusuf-Nurkic-18619","50000","301.52"
"Russell-Westbrook-1083","Rodney-McGruder-16850","DeMarre-Carroll-1174","Nikola-Mirotic-18584","Jusuf-Nurkic-18619","Elie-Okobo-409300","Josh-Jackson-37890","Andre-Drummond-13904","49900","301.49"
"Russell-Westbrook-1083","Tim-Frazier-18743","Josh-Jackson-37890","Dewayne-Dedmon-16894","Jusuf-Nurkic-18619","Elie-Okobo-409300","Nikola-Mirotic-18584","Andre-Drummond-13904","49900","301.45"
"Russell-Westbrook-1083","Dennis-Schroder-18595","Marcus-Morris-13316","Nikola-Mirotic-18584","Andre-Drummond-13904","Elie-Okobo-409300","Josh-Jackson-37890","Aron-Baynes-14114","49300","301.43"
"Russell-Westbrook-1083","Marcus-Smart-18567","Kelly-Oubre-18925","Jayson-Tatum-37782","Andre-Drummond-13904","Elie-Okobo-409300","Josh-Jackson-37890","Jusuf-Nurkic-18619","49800","301.38"
"Russell-Westbrook-1083","Gary-Harris-18617","Rodney-McGruder-16850","Marcus-Morris-13316","Andre-Drummond-13904","Elie-Okobo-409300","Josh-Jackson-37890","Jusuf-Nurkic-18619","50000","301.37"
"Russell-Westbrook-1083","Wayne-Ellington-1009","Wilson-Chandler-1327","Nikola-Mirotic-18584","Andre-Drummond-13904","Elie-Okobo-409300","Josh-Jackson-37890","Jusuf-Nurkic-18619","49900","301.31"
"Russell-Westbrook-1083","Marcus-Smart-18567","Josh-Jackson-37890","Marcus-Morris-13316","Andre-Drummond-13904","Elie-Okobo-409300","Taurean-Prince-35218","Nikola-Mirotic-18584","49600","301.3"
"Russell-Westbrook-1083","Kelly-Oubre-18925","Josh-Jackson-37890","Marcus-Morris-13316","Andre-Drummond-13904","Elie-Okobo-409300","Taurean-Prince-35218","Nikola-Mirotic-18584","49900","301.3"
"Tim-Frazier-18743","Gary-Harris-18617","Marcus-Morris-13316","Nikola-Mirotic-18584","Andre-Drummond-13904","Russell-Westbrook-1083","Josh-Jackson-37890","Elie-Okobo-409300","50000","301.3"
"Russell-Westbrook-1083","Marcus-Smart-18567","Rodney-McGruder-16850","Jayson-Tatum-37782","Andre-Drummond-13904","Elie-Okobo-409300","Josh-Jackson-37890","Jusuf-Nurkic-18619","50000","301.21"
"Russell-Westbrook-1083","Kevin-Huerter-408969","Kelly-Oubre-18925","Nikola-Mirotic-18584","Andre-Drummond-13904","Elie-Okobo-409300","Josh-Jackson-37890","Jusuf-Nurkic-18619","49800","301.17"
"Russell-Westbrook-1083","Gary-Harris-18617","Marcus-Morris-13316","Nikola-Mirotic-18584","Andre-Drummond-13904","Elie-Okobo-409300","Josh-Jackson-37890","Jeff-Green-1314","49800","301.16"
"Marcus-Smart-18567","Tim-Frazier-18743","Josh-Jackson-37890","Jayson-Tatum-37782","Andre-Drummond-13904","Russell-Westbrook-1083","Nikola-Mirotic-18584","Elie-Okobo-409300","50000","301.14"
"Russell-Westbrook-1083","Gary-Harris-18617","Josh-Jackson-37890","Jayson-Tatum-37782","Jusuf-Nurkic-18619","Elie-Okobo-409300","Nikola-Mirotic-18584","Marcus-Morris-13316","49600","301.06"
"Russell-Westbrook-1083","Allen-Crabbe-16978","Josh-Jackson-37890","Nikola-Mirotic-18584","Jusuf-Nurkic-18619","Elie-Okobo-409300","Jonathan-Isaac-37841","Andre-Drummond-13904","49800","301.05"
"Russell-Westbrook-1083","Gary-Harris-18617","Jerami-Grant-18576","Marcus-Morris-13316","Andre-Drummond-13904","Elie-Okobo-409300","Josh-Jackson-37890","Jusuf-Nurkic-18619","49700","301.04"
"Russell-Westbrook-1083","Wesley-Matthews-1339","Wilson-Chandler-1327","Nikola-Mirotic-18584","Andre-Drummond-13904","Elie-Okobo-409300","Josh-Jackson-37890","Jusuf-Nurkic-18619","49900","301.02"
"Russell-Westbrook-1083","Rodney-Hood-18629","Mikal-Bridges-408842","Nikola-Mirotic-18584","Andre-Drummond-13904","Elie-Okobo-409300","Josh-Jackson-37890","Jusuf-Nurkic-18619","49900","301.02"
"Russell-Westbrook-1083","Kevin-Huerter-408969","Rodney-McGruder-16850","Nikola-Mirotic-18584","Andre-Drummond-13904","Elie-Okobo-409300","Josh-Jackson-37890","Jusuf-Nurkic-18619","50000","301.0"
"Russell-Westbrook-1083","Marcus-Smart-18567","Josh-Jackson-37890","Jayson-Tatum-37782","Andre-Drummond-13904","Elie-Okobo-409300","Nikola-Mirotic-18584","Jeff-Green-1314","49800","301.0"
"Russell-Westbrook-1083","Gary-Harris-18617","Marcus-Morris-13316","Nikola-Mirotic-18584","Andre-Drummond-13904","Elie-Okobo-409300","Josh-Jackson-37890","Aron-Baynes-14114","49000","300.95"
"Russell-Westbrook-1083","Marcus-Smart-18567","Marcus-Morris-13316","Rondae-Hollis-Jefferson-18897","Jusuf-Nurkic-18619","Elie-Okobo-409300","Josh-Jackson-37890","Andre-Drummond-13904","49400","300.93"
"Russell-Westbrook-1083","Kelly-Oubre-18925","Marcus-Morris-13316","Rondae-Hollis-Jefferson-18897","Jusuf-Nurkic-18619","Elie-Okobo-409300","Josh-Jackson-37890","Andre-Drummond-13904","49700","300.93"
"Russell-Westbrook-1083","Gary-Harris-18617","Kelly-Oubre-18925","Larry-Nance-18946","Jusuf-Nurkic-18619","Elie-Okobo-409300","Josh-Jackson-37890","Andre-Drummond-13904","50000","300.92"
"Russell-Westbrook-1083","Joe-Ingles-18627","Josh-Jackson-37890","Jayson-Tatum-37782","Andre-Drummond-13904","Elie-Okobo-409300","Nikola-Mirotic-18584","Tyson-Chandler-1482","50000","300.91"
"Russell-Westbrook-1083","Gary-Harris-18617","Marcus-Morris-13316","Nikola-Mirotic-18584","Dewayne-Dedmon-16894","Elie-Okobo-409300","Josh-Jackson-37890","Andre-Drummond-13904","49800","300.9"
"Russell-Westbrook-1083","Kelly-Oubre-18925","Jerami-Grant-18576","Jayson-Tatum-37782","Jusuf-Nurkic-18619","Elie-Okobo-409300","Josh-Jackson-37890","Andre-Drummond-13904","50000","300.88"
"Russell-Westbrook-1083","Marcus-Smart-18567","Jerami-Grant-18576","Jayson-Tatum-37782","Jusuf-Nurkic-18619","Elie-Okobo-409300","Josh-Jackson-37890","Andre-Drummond-13904","49700","300.88"
"Russell-Westbrook-1083","Marcus-Smart-18567","Allen-Crabbe-16978","Nikola-Mirotic-18584","DeAndre-Jordan-1486","Elie-Okobo-409300","Josh-Jackson-37890","Andre-Drummond-13904","49900","300.88"
"Russell-Westbrook-1083","Gary-Harris-18617","Josh-Jackson-37890","Rondae-Hollis-Jefferson-18897","DeAndre-Jordan-1486","Elie-Okobo-409300","Nikola-Mirotic-18584","Jusuf-Nurkic-18619","49900","300.87"
"Russell-Westbrook-1083","Marcus-Smart-18567","Joe-Ingles-18627","Rondae-Hollis-Jefferson-18897","Andre-Drummond-13904","Elie-Okobo-409300","Josh-Jackson-37890","Nikola-Mirotic-18584","50000","300.82"
"Russell-Westbrook-1083","Dennis-Schroder-18595","Josh-Jackson-37890","Larry-Nance-18946","Andre-Drummond-13904","Elie-Okobo-409300","Nikola-Mirotic-18584","Aron-Baynes-14114","49500","300.81"
"Russell-Westbrook-1083","Kelly-Oubre-18925","Josh-Jackson-37890","Jayson-Tatum-37782","Andre-Drummond-13904","Elie-Okobo-409300","Nikola-Mirotic-18584","Aron-Baynes-14114","49300","300.79"
"Russell-Westbrook-1083","Marcus-Smart-18567","Josh-Jackson-37890","Jayson-Tatum-37782","Andre-Drummond-13904","Elie-Okobo-409300","Nikola-Mirotic-18584","Aron-Baynes-14114","49000","300.79"
"Russell-Westbrook-1083","Rodney-McGruder-16850","Marcus-Morris-13316","Rondae-Hollis-Jefferson-18897","Jusuf-Nurkic-18619","Elie-Okobo-409300","Josh-Jackson-37890","Andre-Drummond-13904","49900","300.76"
"Russell-Westbrook-1083","Marcus-Smart-18567","Josh-Jackson-37890","Jayson-Tatum-37782","Andre-Drummond-13904","Elie-Okobo-409300","Nikola-Mirotic-18584","Dewayne-Dedmon-16894","49800","300.74"
"Russell-Westbrook-1083","Shabazz-Napier-18598","Kelly-Oubre-18925","Nikola-Mirotic-18584","Andre-Drummond-13904","Elie-Okobo-409300","Josh-Jackson-37890","Jusuf-Nurkic-18619","49500","300.71"
"Russell-Westbrook-1083","Gary-Harris-18617","Kyle-Anderson-18615","Marcus-Morris-13316","Jusuf-Nurkic-18619","Elie-Okobo-409300","Josh-Jackson-37890","Andre-Drummond-13904","49900","300.7"
"Russell-Westbrook-1083","Rodney-Hood-18629","DeMarre-Carroll-1174","Nikola-Mirotic-18584","Jusuf-Nurkic-18619","Elie-Okobo-409300","Josh-Jackson-37890","Andre-Drummond-13904","49800","300.7"
"Russell-Westbrook-1083","Tim-Frazier-18743","Marcus-Morris-13316","Nikola-Mirotic-18584","Andre-Drummond-13904","Elie-Okobo-409300","Josh-Jackson-37890","Rondae-Hollis-Jefferson-18897","49900","300.69"
"Russell-Westbrook-1083","Marcus-Smart-18567","Taurean-Prince-35218","Larry-Nance-18946","Andre-Drummond-13904","Elie-Okobo-409300","Nikola-Mirotic-18584","Josh-Jackson-37890","49800","300.68"
"Russell-Westbrook-1083","Kevin-Huerter-408969","Jerami-Grant-18576","Nikola-Mirotic-18584","Andre-Drummond-13904","Elie-Okobo-409300","Josh-Jackson-37890","Jusuf-Nurkic-18619","49700","300.67"
"Russell-Westbrook-1083","Marcus-Smart-18567","Marcus-Morris-13316","Larry-Nance-18946","DeAndre-Jordan-1486","Elie-Okobo-409300","Josh-Jackson-37890","Andre-Drummond-13904","49900","300.65"
"Russell-Westbrook-1083","Rodney-McGruder-16850","Josh-Jackson-37890","Jayson-Tatum-37782","Andre-Drummond-13904","Elie-Okobo-409300","Nikola-Mirotic-18584","Aron-Baynes-14114","49500","300.62"
"Russell-Westbrook-1083","Wayne-Ellington-1009","Allen-Crabbe-16978","Nikola-Mirotic-18584","Jusuf-Nurkic-18619","Elie-Okobo-409300","Josh-Jackson-37890","Andre-Drummond-13904","49800","300.61"
"Russell-Westbrook-1083","Gary-Harris-18617","Rodney-Hood-18629","Marcus-Morris-13316","Jusuf-Nurkic-18619","Elie-Okobo-409300","Josh-Jackson-37890","Andre-Drummond-13904","49900","300.58"
"Russell-Westbrook-1083","Shabazz-Napier-18598","Rodney-McGruder-16850","Nikola-Mirotic-18584","Andre-Drummond-13904","Elie-Okobo-409300","Josh-Jackson-37890","Jusuf-Nurkic-18619","49700","300.54"
"Russell-Westbrook-1083","Marcus-Smart-18567","Kyle-Anderson-18615","Jayson-Tatum-37782","Jusuf-Nurkic-18619","Elie-Okobo-409300","Josh-Jackson-37890","Andre-Drummond-13904","49900","300.54"
"Russell-Westbrook-1083","Gary-Harris-18617","Josh-Jackson-37890","Nikola-Mirotic-18584","Larry-Nance-18946","Elie-Okobo-409300","Jeff-Green-1314","Andre-Drummond-13904","50000","300.54"
"Russell-Westbrook-1083","Dennis-Schroder-18595","Marcus-Morris-13316","Jonathan-Isaac-37841","Jusuf-Nurkic-18619","Elie-Okobo-409300","Josh-Jackson-37890","Andre-Drummond-13904","49900","300.47"
"Russell-Westbrook-1083","Gary-Harris-18617","Josh-Jackson-37890","Jayson-Tatum-37782","Jusuf-Nurkic-18619","Elie-Okobo-409300","Nikola-Mirotic-18584","Larry-Nance-18946","49800","300.44"
"Russell-Westbrook-1083","Tim-Frazier-18743","Wilson-Chandler-1327","Nikola-Mirotic-18584","Andre-Drummond-13904","Elie-Okobo-409300","Josh-Jackson-37890","Jusuf-Nurkic-18619","49700","300.42"
"Russell-Westbrook-1083","Gary-Harris-18617","Jerami-Grant-18576","Larry-Nance-18946","Andre-Drummond-13904","Elie-Okobo-409300","Josh-Jackson-37890","Jusuf-Nurkic-18619","49900","300.42"
"Russell-Westbrook-1083","Marcus-Smart-18567","Rodney-Hood-18629","Jayson-Tatum-37782","Jusuf-Nurkic-18619","Elie-Okobo-409300","Josh-Jackson-37890","Andre-Drummond-13904","49900","300.42"
"Lonzo-Ball-37885","Dennis-Schroder-18595","Josh-Jackson-37890","Jayson-Tatum-37782","Jusuf-Nurkic-18619","Russell-Westbrook-1083","Nikola-Mirotic-18584","Elie-Okobo-409300","49900","300.41"
"Russell-Westbrook-1083","Gary-Harris-18617","Josh-Jackson-37890","Rondae-Hollis-Jefferson-18897","Jusuf-Nurkic-18619","Elie-Okobo-409300","Taurean-Prince-35218","Andre-Drummond-13904","50000","300.4"
"Marcus-Smart-18567","Kelly-Oubre-18925","Marcus-Morris-13316","Nikola-Mirotic-18584","Andre-Drummond-13904","Russell-Westbrook-1083","Josh-Jackson-37890","Elie-Okobo-409300","49300","300.38"
"Russell-Westbrook-1083","Wayne-Ellington-1009","Marcus-Morris-13316","Larry-Nance-18946","Andre-Drummond-13904","Elie-Okobo-409300","Josh-Jackson-37890","Jusuf-Nurkic-18619","49800","300.38"
"Russell-Westbrook-1083","Dennis-Schroder-18595","Marcus-Morris-13316","Nikola-Mirotic-18584","Andre-Drummond-13904","Elie-Okobo-409300","Josh-Jackson-37890","Wilson-Chandler-1327","49900","300.35"
"Russell-Westbrook-1083","Rodney-Hood-18629","Josh-Jackson-37890","Marcus-Morris-13316","Andre-Drummond-13904","Elie-Okobo-409300","Taurean-Prince-35218","Nikola-Mirotic-18584","50000","300.34"
"Russell-Westbrook-1083","Kevin-Huerter-408969","Kyle-Anderson-18615","Nikola-Mirotic-18584","Jusuf-Nurkic-18619","Elie-Okobo-409300","Josh-Jackson-37890","Andre-Drummond-13904","49900","300.33"
"Russell-Westbrook-1083","Gary-Harris-18617","Josh-Jackson-37890","Larry-Nance-18946","Andre-Drummond-13904","Elie-Okobo-409300","Nikola-Mirotic-18584","Aron-Baynes-14114","49200","300.33"
"Dennis-Schroder-18595","Marcus-Smart-18567","Josh-Jackson-37890","Nikola-Mirotic-18584","Andre-Drummond-13904","Russell-Westbrook-1083","Taurean-Prince-35218","Elie-Okobo-409300","49900","300.33"
"Russell-Westbrook-1083","Allen-Crabbe-16978","Wesley-Matthews-1339","Nikola-Mirotic-18584","Andre-Drummond-13904","Elie-Okobo-409300","Josh-Jackson-37890","Jusuf-Nurkic-18619","49800","300.32"
"Russell-Westbrook-1083","Marcus-Smart-18567","Josh-Jackson-37890","Rondae-Hollis-Jefferson-18897","Jusuf-Nurkic-18619","Elie-Okobo-409300","Larry-Nance-18946","Andre-Drummond-13904","49600","300.31"
"Russell-Westbrook-1083","Kelly-Oubre-18925","Josh-Jackson-37890","Rondae-Hollis-Jefferson-18897","Jusuf-Nurkic-18619","Elie-Okobo-409300","Larry-Nance-18946","Andre-Drummond-13904","49900","300.31"
"Russell-Westbrook-1083","Shabazz-Napier-18598","Josh-Jackson-37890","Rondae-Hollis-Jefferson-18897","Andre-Drummond-13904","Elie-Okobo-409300","Jayson-Tatum-37782","Nikola-Mirotic-18584","50000","300.31"
"Russell-Westbrook-1083","Gary-Harris-18617","Josh-Jackson-37890","Dewayne-Dedmon-16894","Andre-Drummond-13904","Elie-Okobo-409300","Larry-Nance-18946","Nikola-Mirotic-18584","50000","300.28"
"Russell-Westbrook-1083","Kelly-Oubre-18925","Mikal-Bridges-408842","Nikola-Mirotic-18584","Andre-Drummond-13904","Elie-Okobo-409300","Josh-Jackson-37890","DeAndre-Jordan-1486","50000","300.26"
"Russell-Westbrook-1083","Marcus-Smart-18567","Mikal-Bridges-408842","Nikola-Mirotic-18584","Andre-Drummond-13904","Elie-Okobo-409300","Josh-Jackson-37890","DeAndre-Jordan-1486","49700","300.26"
"Russell-Westbrook-1083","Joe-Ingles-18627","Kelly-Oubre-18925","Marcus-Morris-13316","Jusuf-Nurkic-18619","Elie-Okobo-409300","Josh-Jackson-37890","Andre-Drummond-13904","49800","300.24"
"Russell-Westbrook-1083","Marcus-Smart-18567","Joe-Ingles-18627","Marcus-Morris-13316","Jusuf-Nurkic-18619","Elie-Okobo-409300","Josh-Jackson-37890","Andre-Drummond-13904","49500","300.24"
