"Derrick-White-37858","Marcus-Smart-18567","Nikola-Mirotic-18584","Marcus-Morris-13316","Aron-Baynes-14114","Russell-Westbrook-1083","Josh-Jackson-37890","Joel-Embiid-18578","49800","294.78"

"Derrick-White-37858","Marcus-Smart-18567","Nikola-Mirotic-18584","Marcus-Morris-13316","Aron-Baynes-14114","Russell-Westbrook-1083","Josh-Jackson-37890","Joel-Embiid-18578","49800","294.78"
"Marcus-Smart-18567","Kevin-Huerter-408969","Nikola-Mirotic-18584","Marcus-Morris-13316","Aron-Baynes-14114","Russell-Westbrook-1083","Josh-Jackson-37890","Joel-Embiid-18578","49900","294.4"
"Derrick-White-37858","Marcus-Smart-18567","Nikola-Mirotic-18584","Larry-Nance-18946","Aron-Baynes-14114","Russell-Westbrook-1083","Josh-Jackson-37890","Joel-Embiid-18578","50000","294.16"
"Wayne-Ellington-1009","Marcus-Smart-18567","Josh-Jackson-37890","Nikola-Mirotic-18584","Aron-Baynes-14114","Russell-Westbrook-1083","Kelly-Oubre-18925","Joel-Embiid-18578","50000","293.6"
"Marcus-Smart-18567","Kelly-Oubre-18925","Nikola-Mirotic-18584","Marcus-Morris-13316","Aron-Baynes-14114","Russell-Westbrook-1083","Josh-Jackson-37890","Andre-Drummond-13904","49500","293.55"
"Lonzo-Ball-37885","Marcus-Smart-18567","Nikola-Mirotic-18584","Marcus-Morris-13316","Larry-Nance-18946","Russell-Westbrook-1083","Josh-Jackson-37890","Jusuf-Nurkic-18619","50000","293.52"
"Marcus-Smart-18567","Rodney-McGruder-16850","Nikola-Mirotic-18584","Marcus-Morris-13316","Aron-Baynes-14114","Russell-Westbrook-1083","Josh-Jackson-37890","Andre-Drummond-13904","49700","293.38"
"Russell-Westbrook-1083","Rodney-McGruder-16850","Nikola-Mirotic-18584","Marcus-Morris-13316","Aron-Baynes-14114","Kelly-Oubre-18925","Josh-Jackson-37890","Andre-Drummond-13904","50000","293.38"
"Lonzo-Ball-37885","Marcus-Smart-18567","Josh-Jackson-37890","Nikola-Mirotic-18584","Aron-Baynes-14114","Russell-Westbrook-1083","Taurean-Prince-35218","Andre-Drummond-13904","49800","293.34"
"Marcus-Smart-18567","Wesley-Matthews-1339","Josh-Jackson-37890","Nikola-Mirotic-18584","Aron-Baynes-14114","Russell-Westbrook-1083","Kelly-Oubre-18925","Joel-Embiid-18578","50000","293.31"
"Marcus-Smart-18567","Gary-Harris-18617","Nikola-Mirotic-18584","Marcus-Morris-13316","Larry-Nance-18946","Russell-Westbrook-1083","Josh-Jackson-37890","Jusuf-Nurkic-18619","50000","293.2"
"Wayne-Ellington-1009","Marcus-Smart-18567","Nikola-Mirotic-18584","Jerami-Grant-18576","Joel-Embiid-18578","Russell-Westbrook-1083","Josh-Jackson-37890","Aron-Baynes-14114","49900","293.1"
"Lonzo-Ball-37885","Gary-Harris-18617","Nikola-Mirotic-18584","Jayson-Tatum-37782","Jusuf-Nurkic-18619","Russell-Westbrook-1083","Josh-Jackson-37890","Aron-Baynes-14114","49800","293.1"
"Justise-Winslow-18921","Marcus-Smart-18567","Josh-Jackson-37890","Nikola-Mirotic-18584","Aron-Baynes-14114","Russell-Westbrook-1083","Kelly-Oubre-18925","Joel-Embiid-18578","50000","293.03"
"Marcus-Smart-18567","Gary-Harris-18617","Josh-Jackson-37890","Nikola-Mirotic-18584","Aron-Baynes-14114","Russell-Westbrook-1083","Taurean-Prince-35218","Andre-Drummond-13904","49800","293.02"
"Marcus-Smart-18567","Dennis-Schroder-18595","Nikola-Mirotic-18584","Marcus-Morris-13316","Nikola-Jokic-31812","Russell-Westbrook-1083","Josh-Jackson-37890","Aron-Baynes-14114","49800","292.93"
"Marcus-Smart-18567","Kelly-Oubre-18925","Nikola-Mirotic-18584","Larry-Nance-18946","Aron-Baynes-14114","Russell-Westbrook-1083","Josh-Jackson-37890","Andre-Drummond-13904","49700","292.93"
"Derrick-White-37858","Gary-Harris-18617","Nikola-Mirotic-18584","Jerami-Grant-18576","Joel-Embiid-18578","Russell-Westbrook-1083","Josh-Jackson-37890","Aron-Baynes-14114","50000","292.83"
"Marcus-Smart-18567","Wesley-Matthews-1339","Nikola-Mirotic-18584","Jerami-Grant-18576","Joel-Embiid-18578","Russell-Westbrook-1083","Josh-Jackson-37890","Aron-Baynes-14114","49900","292.81"
"Derrick-White-37858","Wayne-Ellington-1009","Nikola-Mirotic-18584","Marcus-Morris-13316","Aron-Baynes-14114","Russell-Westbrook-1083","Josh-Jackson-37890","Joel-Embiid-18578","49900","292.79"
"Lonzo-Ball-37885","Marcus-Smart-18567","Nikola-Mirotic-18584","Marcus-Morris-13316","Nikola-Jokic-31812","Russell-Westbrook-1083","Josh-Jackson-37890","Aron-Baynes-14114","49500","292.77"
"Lonzo-Ball-37885","Kelly-Oubre-18925","Nikola-Mirotic-18584","Marcus-Morris-13316","Nikola-Jokic-31812","Russell-Westbrook-1083","Josh-Jackson-37890","Aron-Baynes-14114","49800","292.77"
"Marcus-Smart-18567","Rodney-McGruder-16850","Nikola-Mirotic-18584","Larry-Nance-18946","Aron-Baynes-14114","Russell-Westbrook-1083","Josh-Jackson-37890","Andre-Drummond-13904","49900","292.76"
"Marcus-Smart-18567","Tim-Frazier-18743","Josh-Jackson-37890","Nikola-Mirotic-18584","Aron-Baynes-14114","Russell-Westbrook-1083","Kelly-Oubre-18925","Joel-Embiid-18578","49800","292.71"
"Kyle-Anderson-18615","Marcus-Smart-18567","Nikola-Mirotic-18584","Marcus-Morris-13316","Aron-Baynes-14114","Russell-Westbrook-1083","Josh-Jackson-37890","Andre-Drummond-13904","49600","292.71"
"Marcus-Smart-18567","Kelly-Oubre-18925","Nikola-Mirotic-18584","Jerami-Grant-18576","Tyson-Chandler-1482","Russell-Westbrook-1083","Josh-Jackson-37890","Joel-Embiid-18578","50000","292.71"
"Kyle-Anderson-18615","Kelly-Oubre-18925","Nikola-Mirotic-18584","Marcus-Morris-13316","Aron-Baynes-14114","Russell-Westbrook-1083","Josh-Jackson-37890","Andre-Drummond-13904","49900","292.71"
"Lonzo-Ball-37885","Marcus-Smart-18567","Nikola-Mirotic-18584","Marcus-Morris-13316","Jusuf-Nurkic-18619","Russell-Westbrook-1083","Josh-Jackson-37890","Gary-Harris-18617","49800","292.69"
"Wayne-Ellington-1009","Marcus-Smart-18567","Josh-Jackson-37890","Marcus-Morris-13316","Joel-Embiid-18578","Russell-Westbrook-1083","Jayson-Tatum-37782","Aron-Baynes-14114","50000","292.62"
"Lonzo-Ball-37885","Rodney-McGruder-16850","Nikola-Mirotic-18584","Marcus-Morris-13316","Nikola-Jokic-31812","Russell-Westbrook-1083","Josh-Jackson-37890","Aron-Baynes-14114","50000","292.6"
"Russell-Westbrook-1083","Kelly-Oubre-18925","Nikola-Mirotic-18584","Marcus-Morris-13316","Aron-Baynes-14114","Rodney-Hood-18629","Josh-Jackson-37890","Andre-Drummond-13904","49900","292.59"
"Marcus-Smart-18567","Rodney-Hood-18629","Nikola-Mirotic-18584","Marcus-Morris-13316","Aron-Baynes-14114","Russell-Westbrook-1083","Josh-Jackson-37890","Andre-Drummond-13904","49600","292.59"
"Marcus-Smart-18567","Dennis-Schroder-18595","Josh-Jackson-37890","Nikola-Mirotic-18584","Aron-Baynes-14114","Russell-Westbrook-1083","Kelly-Oubre-18925","Andre-Drummond-13904","49800","292.58"
"Marcus-Smart-18567","Tim-Frazier-18743","Josh-Jackson-37890","Nikola-Mirotic-18584","Aron-Baynes-14114","Russell-Westbrook-1083","Rodney-McGruder-16850","Joel-Embiid-18578","50000","292.54"
"Justise-Winslow-18921","Marcus-Smart-18567","Nikola-Mirotic-18584","Jerami-Grant-18576","Joel-Embiid-18578","Russell-Westbrook-1083","Josh-Jackson-37890","Aron-Baynes-14114","49900","292.53"
"Derrick-White-37858","Wesley-Matthews-1339","Nikola-Mirotic-18584","Marcus-Morris-13316","Aron-Baynes-14114","Russell-Westbrook-1083","Josh-Jackson-37890","Joel-Embiid-18578","49900","292.5"
"Marcus-Smart-18567","Gary-Harris-18617","Nikola-Mirotic-18584","Marcus-Morris-13316","Nikola-Jokic-31812","Russell-Westbrook-1083","Josh-Jackson-37890","Aron-Baynes-14114","49500","292.45"
"Russell-Westbrook-1083","Gary-Harris-18617","Nikola-Mirotic-18584","Marcus-Morris-13316","Nikola-Jokic-31812","Kelly-Oubre-18925","Josh-Jackson-37890","Aron-Baynes-14114","49800","292.45"
"Lonzo-Ball-37885","Marcus-Smart-18567","Josh-Jackson-37890","Nikola-Mirotic-18584","Aron-Baynes-14114","Russell-Westbrook-1083","Kelly-Oubre-18925","Andre-Drummond-13904","49500","292.42"
"Marcus-Smart-18567","Tomas-Satoransky--36031","Nikola-Mirotic-18584","Marcus-Morris-13316","Aron-Baynes-14114","Russell-Westbrook-1083","Josh-Jackson-37890","Joel-Embiid-18578","49800","292.41"
"Marcus-Smart-18567","Dennis-Schroder-18595","Josh-Jackson-37890","Nikola-Mirotic-18584","Aron-Baynes-14114","Russell-Westbrook-1083","Rodney-McGruder-16850","Andre-Drummond-13904","50000","292.41"
"Wayne-Ellington-1009","Kevin-Huerter-408969","Nikola-Mirotic-18584","Marcus-Morris-13316","Aron-Baynes-14114","Russell-Westbrook-1083","Josh-Jackson-37890","Joel-Embiid-18578","50000","292.41"
"Derrick-White-37858","Marcus-Smart-18567","Nikola-Mirotic-18584","Marcus-Morris-13316","Joel-Embiid-18578","Russell-Westbrook-1083","Josh-Jackson-37890","Tyson-Chandler-1482","49700","292.4"
"Derrick-White-37858","Kelly-Oubre-18925","Nikola-Mirotic-18584","Marcus-Morris-13316","Joel-Embiid-18578","Russell-Westbrook-1083","Josh-Jackson-37890","Tyson-Chandler-1482","50000","292.4"
"Elie-Okobo-409300","Marcus-Smart-18567","Nikola-Mirotic-18584","Marcus-Morris-13316","Aron-Baynes-14114","Russell-Westbrook-1083","Josh-Jackson-37890","Joel-Embiid-18578","49400","292.39"
"Elie-Okobo-409300","Kelly-Oubre-18925","Nikola-Mirotic-18584","Marcus-Morris-13316","Aron-Baynes-14114","Russell-Westbrook-1083","Josh-Jackson-37890","Joel-Embiid-18578","49700","292.39"
"Lonzo-Ball-37885","Marcus-Smart-18567","Josh-Jackson-37890","Marcus-Morris-13316","Aron-Baynes-14114","Russell-Westbrook-1083","Joe-Ingles-18627","Joel-Embiid-18578","49900","292.34"
"Marcus-Smart-18567","Kelly-Oubre-18925","Nikola-Mirotic-18584","Jonathan-Isaac-37841","Joel-Embiid-18578","Russell-Westbrook-1083","Josh-Jackson-37890","Aron-Baynes-14114","50000","292.33"
"Marcus-Smart-18567","Wesley-Matthews-1339","Josh-Jackson-37890","Marcus-Morris-13316","Joel-Embiid-18578","Russell-Westbrook-1083","Jayson-Tatum-37782","Aron-Baynes-14114","50000","292.33"
"Marcus-Smart-18567","Dennis-Schroder-18595","Nikola-Mirotic-18584","Larry-Nance-18946","Nikola-Jokic-31812","Russell-Westbrook-1083","Josh-Jackson-37890","Aron-Baynes-14114","50000","292.31"
"Marcus-Smart-18567","Kelly-Oubre-18925","Nikola-Mirotic-18584","Jayson-Tatum-37782","Nikola-Jokic-31812","Russell-Westbrook-1083","Josh-Jackson-37890","Aron-Baynes-14114","49800","292.29"
"Russell-Westbrook-1083","Rodney-McGruder-16850","Nikola-Mirotic-18584","Marcus-Morris-13316","Nikola-Jokic-31812","Gary-Harris-18617","Josh-Jackson-37890","Aron-Baynes-14114","50000","292.28"
"Lonzo-Ball-37885","Rodney-McGruder-16850","Josh-Jackson-37890","Nikola-Mirotic-18584","Aron-Baynes-14114","Russell-Westbrook-1083","Kelly-Oubre-18925","Andre-Drummond-13904","50000","292.25"
"Lonzo-Ball-37885","Marcus-Smart-18567","Josh-Jackson-37890","Nikola-Mirotic-18584","Aron-Baynes-14114","Russell-Westbrook-1083","Rodney-McGruder-16850","Andre-Drummond-13904","49700","292.25"
"Lonzo-Ball-37885","Marcus-Smart-18567","Nikola-Mirotic-18584","Marcus-Morris-13316","Jusuf-Nurkic-18619","Russell-Westbrook-1083","Josh-Jackson-37890","John-Collins-37823","50000","292.23"
"Elie-Okobo-409300","Rodney-McGruder-16850","Nikola-Mirotic-18584","Marcus-Morris-13316","Aron-Baynes-14114","Russell-Westbrook-1083","Josh-Jackson-37890","Joel-Embiid-18578","49900","292.22"
"Russell-Westbrook-1083","Kelly-Oubre-18925","Nikola-Mirotic-18584","Jerami-Grant-18576","Joel-Embiid-18578","Tim-Frazier-18743","Josh-Jackson-37890","Aron-Baynes-14114","50000","292.21"
"Marcus-Smart-18567","Tim-Frazier-18743","Nikola-Mirotic-18584","Jerami-Grant-18576","Joel-Embiid-18578","Russell-Westbrook-1083","Josh-Jackson-37890","Aron-Baynes-14114","49700","292.21"
"Lonzo-Ball-37885","Gary-Harris-18617","Nikola-Mirotic-18584","Jerami-Grant-18576","Jusuf-Nurkic-18619","Russell-Westbrook-1083","Marcus-Morris-13316","Josh-Jackson-37890","50000","292.19"
"Lonzo-Ball-37885","Kelly-Oubre-18925","Nikola-Mirotic-18584","Larry-Nance-18946","Nikola-Jokic-31812","Russell-Westbrook-1083","Josh-Jackson-37890","Aron-Baynes-14114","50000","292.15"
"Lonzo-Ball-37885","Marcus-Smart-18567","Nikola-Mirotic-18584","Larry-Nance-18946","Nikola-Jokic-31812","Russell-Westbrook-1083","Josh-Jackson-37890","Aron-Baynes-14114","49700","292.15"
"Russell-Westbrook-1083","Kevin-Huerter-408969","Nikola-Mirotic-18584","Marcus-Morris-13316","Aron-Baynes-14114","Wesley-Matthews-1339","Josh-Jackson-37890","Joel-Embiid-18578","50000","292.12"
"Marcus-Smart-18567","Rodney-McGruder-16850","Nikola-Mirotic-18584","Jayson-Tatum-37782","Nikola-Jokic-31812","Russell-Westbrook-1083","Josh-Jackson-37890","Aron-Baynes-14114","50000","292.12"
"Marcus-Smart-18567","Gary-Harris-18617","Josh-Jackson-37890","Nikola-Mirotic-18584","Aron-Baynes-14114","Russell-Westbrook-1083","Kelly-Oubre-18925","Andre-Drummond-13904","49500","292.1"
"Kyle-Anderson-18615","Marcus-Smart-18567","Nikola-Mirotic-18584","Larry-Nance-18946","Aron-Baynes-14114","Russell-Westbrook-1083","Josh-Jackson-37890","Andre-Drummond-13904","49800","292.09"
"Lonzo-Ball-37885","Marcus-Smart-18567","Josh-Jackson-37890","Marcus-Morris-13316","Joel-Embiid-18578","Russell-Westbrook-1083","Larry-Nance-18946","Tyson-Chandler-1482","50000","292.09"
"Dennis-Schroder-18595","Kelly-Oubre-18925","Nikola-Mirotic-18584","Jerami-Grant-18576","Andre-Drummond-13904","Russell-Westbrook-1083","Josh-Jackson-37890","Aron-Baynes-14114","50000","292.08"
"Marcus-Smart-18567","Dennis-Schroder-18595","Nikola-Mirotic-18584","Jerami-Grant-18576","Andre-Drummond-13904","Russell-Westbrook-1083","Josh-Jackson-37890","Aron-Baynes-14114","49700","292.08"
"Lonzo-Ball-37885","Marcus-Smart-18567","Nikola-Mirotic-18584","Larry-Nance-18946","Jusuf-Nurkic-18619","Russell-Westbrook-1083","Josh-Jackson-37890","Gary-Harris-18617","50000","292.07"
"Justise-Winslow-18921","Marcus-Smart-18567","Josh-Jackson-37890","Marcus-Morris-13316","Joel-Embiid-18578","Russell-Westbrook-1083","Jayson-Tatum-37782","Aron-Baynes-14114","50000","292.05"
"Derrick-White-37858","Marcus-Smart-18567","Josh-Jackson-37890","Nikola-Mirotic-18584","Aron-Baynes-14114","Russell-Westbrook-1083","Joe-Ingles-18627","Joel-Embiid-18578","49800","292.03"
"Lonzo-Ball-37885","Marcus-Smart-18567","Jerami-Grant-18576","Jayson-Tatum-37782","Jusuf-Nurkic-18619","Russell-Westbrook-1083","Josh-Jackson-37890","Nikola-Mirotic-18584","50000","292.03"
"Marcus-Smart-18567","Gary-Harris-18617","Josh-Jackson-37890","Marcus-Morris-13316","Aron-Baynes-14114","Russell-Westbrook-1083","Joe-Ingles-18627","Joel-Embiid-18578","49900","292.02"
"Marcus-Smart-18567","Kevin-Huerter-408969","Nikola-Mirotic-18584","Marcus-Morris-13316","Joel-Embiid-18578","Russell-Westbrook-1083","Josh-Jackson-37890","Tyson-Chandler-1482","49800","292.02"
"Marcus-Smart-18567","Rodney-Hood-18629","Nikola-Mirotic-18584","Larry-Nance-18946","Aron-Baynes-14114","Russell-Westbrook-1083","Josh-Jackson-37890","Andre-Drummond-13904","49800","291.97"
"Marcus-Smart-18567","Gary-Harris-18617","Josh-Jackson-37890","Nikola-Mirotic-18584","Aron-Baynes-14114","Russell-Westbrook-1083","Rodney-McGruder-16850","Andre-Drummond-13904","49700","291.93"
"Russell-Westbrook-1083","Rodney-McGruder-16850","Josh-Jackson-37890","Nikola-Mirotic-18584","Aron-Baynes-14114","Gary-Harris-18617","Kelly-Oubre-18925","Andre-Drummond-13904","50000","291.93"
"Lonzo-Ball-37885","Kelly-Oubre-18925","Nikola-Mirotic-18584","Jerami-Grant-18576","Andre-Drummond-13904","Russell-Westbrook-1083","Josh-Jackson-37890","Aron-Baynes-14114","49700","291.92"
"Lonzo-Ball-37885","Marcus-Smart-18567","Nikola-Mirotic-18584","Jerami-Grant-18576","Andre-Drummond-13904","Russell-Westbrook-1083","Josh-Jackson-37890","Aron-Baynes-14114","49400","291.92"
"Lonzo-Ball-37885","Gary-Harris-18617","Nikola-Mirotic-18584","Wilson-Chandler-1327","Andre-Drummond-13904","Russell-Westbrook-1083","Josh-Jackson-37890","Aron-Baynes-14114","49800","291.91"
"Marcus-Smart-18567","Gary-Harris-18617","Nikola-Mirotic-18584","Marcus-Morris-13316","Jusuf-Nurkic-18619","Russell-Westbrook-1083","Josh-Jackson-37890","John-Collins-37823","50000","291.91"
"Derrick-White-37858","Tim-Frazier-18743","Nikola-Mirotic-18584","Marcus-Morris-13316","Aron-Baynes-14114","Russell-Westbrook-1083","Josh-Jackson-37890","Joel-Embiid-18578","49700","291.9"
"Marcus-Smart-18567","Joe-Ingles-18627","Nikola-Mirotic-18584","Marcus-Morris-13316","Larry-Nance-18946","Russell-Westbrook-1083","Josh-Jackson-37890","Jusuf-Nurkic-18619","50000","291.9"
"Marcus-Smart-18567","Tim-Frazier-18743","Josh-Jackson-37890","Nikola-Mirotic-18584","Aron-Baynes-14114","Russell-Westbrook-1083","Kyle-Anderson-18615","Joel-Embiid-18578","49900","291.87"
"Elie-Okobo-409300","Gary-Harris-18617","Josh-Jackson-37890","Nikola-Mirotic-18584","Joel-Embiid-18578","Russell-Westbrook-1083","Taurean-Prince-35218","Aron-Baynes-14114","50000","291.86"
"Russell-Westbrook-1083","Marcus-Smart-18567","Josh-Jackson-37890","Nikola-Mirotic-18584","Aron-Baynes-14114","D.J.-Augustin-1064","Kelly-Oubre-18925","Joel-Embiid-18578","49900","291.84"
"Justise-Winslow-18921","Kevin-Huerter-408969","Nikola-Mirotic-18584","Marcus-Morris-13316","Aron-Baynes-14114","Russell-Westbrook-1083","Josh-Jackson-37890","Joel-Embiid-18578","50000","291.84"
"Russell-Westbrook-1083","Gary-Harris-18617","Nikola-Mirotic-18584","Larry-Nance-18946","Nikola-Jokic-31812","Kelly-Oubre-18925","Josh-Jackson-37890","Aron-Baynes-14114","50000","291.83"
"Marcus-Smart-18567","Gary-Harris-18617","Nikola-Mirotic-18584","Larry-Nance-18946","Nikola-Jokic-31812","Russell-Westbrook-1083","Josh-Jackson-37890","Aron-Baynes-14114","49700","291.83"
"Lonzo-Ball-37885","Rodney-Hood-18629","Nikola-Mirotic-18584","Marcus-Morris-13316","Nikola-Jokic-31812","Russell-Westbrook-1083","Josh-Jackson-37890","Aron-Baynes-14114","49900","291.81"
"Lonzo-Ball-37885","Joe-Ingles-18627","Nikola-Mirotic-18584","Jayson-Tatum-37782","Jusuf-Nurkic-18619","Russell-Westbrook-1083","Josh-Jackson-37890","Aron-Baynes-14114","49800","291.8"
"Marcus-Smart-18567","Tomas-Satoransky--36031","Nikola-Mirotic-18584","Larry-Nance-18946","Aron-Baynes-14114","Russell-Westbrook-1083","Josh-Jackson-37890","Joel-Embiid-18578","50000","291.79"
"Derrick-White-37858","Marcus-Smart-18567","Nikola-Mirotic-18584","Larry-Nance-18946","Tyson-Chandler-1482","Russell-Westbrook-1083","Josh-Jackson-37890","Joel-Embiid-18578","49900","291.78"
"Elie-Okobo-409300","Kelly-Oubre-18925","Nikola-Mirotic-18584","Larry-Nance-18946","Aron-Baynes-14114","Russell-Westbrook-1083","Josh-Jackson-37890","Joel-Embiid-18578","49900","291.77"
"Marcus-Smart-18567","Gary-Harris-18617","Josh-Jackson-37890","Marcus-Morris-13316","Joel-Embiid-18578","Russell-Westbrook-1083","Larry-Nance-18946","Tyson-Chandler-1482","50000","291.77"
"Derrick-White-37858","Dennis-Schroder-18595","Nikola-Mirotic-18584","Marcus-Morris-13316","Aron-Baynes-14114","Russell-Westbrook-1083","Josh-Jackson-37890","Andre-Drummond-13904","49700","291.77"
"Elie-Okobo-409300","Marcus-Smart-18567","Nikola-Mirotic-18584","Larry-Nance-18946","Aron-Baynes-14114","Russell-Westbrook-1083","Josh-Jackson-37890","Joel-Embiid-18578","49600","291.77"
"Lonzo-Ball-37885","Rodney-McGruder-16850","Nikola-Mirotic-18584","Jerami-Grant-18576","Andre-Drummond-13904","Russell-Westbrook-1083","Josh-Jackson-37890","Aron-Baynes-14114","49900","291.75"
"Kyle-Anderson-18615","Rodney-Hood-18629","Nikola-Mirotic-18584","Marcus-Morris-13316","Aron-Baynes-14114","Russell-Westbrook-1083","Josh-Jackson-37890","Andre-Drummond-13904","50000","291.75"
"Marcus-Smart-18567","Tim-Frazier-18743","Josh-Jackson-37890","Nikola-Mirotic-18584","Joel-Embiid-18578","Russell-Westbrook-1083","Rodney-Hood-18629","Aron-Baynes-14114","49900","291.75"
