"Elie-Okobo-409300","DeMar-DeRozan-1053","Josh-Jackson-37890","LaMarcus-Aldridge-1349","Deandre-Ayton-409301","De'Aaron-Fox-37900","Mikal-Bridges-408842","Willie-Cauley-Stein-18951","49800","282.11"

"Elie-Okobo-409300","DeMar-DeRozan-1053","Josh-Jackson-37890","LaMarcus-Aldridge-1349","Deandre-Ayton-409301","De'Aaron-Fox-37900","Mikal-Bridges-408842","Willie-Cauley-Stein-18951","49800","282.11"
"Elie-Okobo-409300","Donovan-Mitchell-37875","Josh-Jackson-37890","LaMarcus-Aldridge-1349","Deandre-Ayton-409301","De'Aaron-Fox-37900","Mikal-Bridges-408842","Willie-Cauley-Stein-18951","49400","280.7"
"Ricky-Rubio-1001","DeMar-DeRozan-1053","Josh-Jackson-37890","LaMarcus-Aldridge-1349","Deandre-Ayton-409301","Elie-Okobo-409300","Mikal-Bridges-408842","De'Aaron-Fox-37900","49600","280.02"
"Ricky-Rubio-1001","Donovan-Mitchell-37875","Trevor-Ariza-1323","LaMarcus-Aldridge-1349","Willie-Cauley-Stein-18951","Elie-Okobo-409300","Josh-Jackson-37890","Deandre-Ayton-409301","50000","279.86"
"Elie-Okobo-409300","DeMar-DeRozan-1053","Nemanja-Bjelica-31814","LaMarcus-Aldridge-1349","Deandre-Ayton-409301","De'Aaron-Fox-37900","Josh-Jackson-37890","Willie-Cauley-Stein-18951","49900","279.77"
"Ricky-Rubio-1001","Buddy-Hield-35206","Josh-Jackson-37890","LaMarcus-Aldridge-1349","Deandre-Ayton-409301","De'Aaron-Fox-37900","Mikal-Bridges-408842","Willie-Cauley-Stein-18951","49300","279.28"
"Ricky-Rubio-1001","Donovan-Mitchell-37875","Josh-Jackson-37890","LaMarcus-Aldridge-1349","Deandre-Ayton-409301","Elie-Okobo-409300","Mikal-Bridges-408842","DeMar-DeRozan-1053","50000","279.08"
"Elie-Okobo-409300","Buddy-Hield-35206","Josh-Jackson-37890","LaMarcus-Aldridge-1349","Deandre-Ayton-409301","De'Aaron-Fox-37900","Mikal-Bridges-408842","Rudy-Gobert-16935","49700","278.78"
"Ricky-Rubio-1001","Bogdan-Bogdanovic-37899","Josh-Jackson-37890","LaMarcus-Aldridge-1349","Deandre-Ayton-409301","DeMar-DeRozan-1053","Mikal-Bridges-408842","Willie-Cauley-Stein-18951","49900","278.69"
"Ricky-Rubio-1001","Donovan-Mitchell-37875","Josh-Jackson-37890","LaMarcus-Aldridge-1349","Deandre-Ayton-409301","De'Aaron-Fox-37900","Mikal-Bridges-408842","Jae-Crowder-13942","49800","278.64"
"Ricky-Rubio-1001","Donovan-Mitchell-37875","Josh-Jackson-37890","LaMarcus-Aldridge-1349","Deandre-Ayton-409301","Elie-Okobo-409300","Mikal-Bridges-408842","De'Aaron-Fox-37900","49200","278.61"
"Elie-Okobo-409300","DeMar-DeRozan-1053","Josh-Jackson-37890","LaMarcus-Aldridge-1349","Deandre-Ayton-409301","De'Aaron-Fox-37900","Mikal-Bridges-408842","Trevor-Ariza-1323","49100","278.6"
"Ricky-Rubio-1001","DeMar-DeRozan-1053","Josh-Jackson-37890","Trevor-Ariza-1323","Willie-Cauley-Stein-18951","De'Aaron-Fox-37900","Mikal-Bridges-408842","Deandre-Ayton-409301","49700","278.53"
"Ricky-Rubio-1001","Donovan-Mitchell-37875","Josh-Jackson-37890","LaMarcus-Aldridge-1349","Deandre-Ayton-409301","Joe-Ingles-18627","Mikal-Bridges-408842","De'Aaron-Fox-37900","49900","278.45"
"De'Aaron-Fox-37900","Joe-Ingles-18627","Josh-Jackson-37890","LaMarcus-Aldridge-1349","Deandre-Ayton-409301","DeMar-DeRozan-1053","Mikal-Bridges-408842","Trevor-Ariza-1323","49800","278.44"
"Elie-Okobo-409300","Buddy-Hield-35206","Trevor-Ariza-1323","LaMarcus-Aldridge-1349","Willie-Cauley-Stein-18951","De'Aaron-Fox-37900","Josh-Jackson-37890","Deandre-Ayton-409301","49400","278.39"
"Elie-Okobo-409300","Donovan-Mitchell-37875","Nemanja-Bjelica-31814","LaMarcus-Aldridge-1349","Deandre-Ayton-409301","De'Aaron-Fox-37900","Josh-Jackson-37890","Willie-Cauley-Stein-18951","49500","278.36"
"Ricky-Rubio-1001","Buddy-Hield-35206","Josh-Jackson-37890","LaMarcus-Aldridge-1349","Deandre-Ayton-409301","Donovan-Mitchell-37875","Mikal-Bridges-408842","Willie-Cauley-Stein-18951","49700","278.34"
"Ricky-Rubio-1001","Bogdan-Bogdanovic-37899","Josh-Jackson-37890","LaMarcus-Aldridge-1349","Deandre-Ayton-409301","De'Aaron-Fox-37900","Mikal-Bridges-408842","Willie-Cauley-Stein-18951","49100","278.22"
"Elie-Okobo-409300","Bogdan-Bogdanovic-37899","Trevor-Ariza-1323","LaMarcus-Aldridge-1349","Willie-Cauley-Stein-18951","DeMar-DeRozan-1053","Josh-Jackson-37890","Deandre-Ayton-409301","50000","277.8"
"Elie-Okobo-409300","Donovan-Mitchell-37875","Jae-Crowder-13942","LaMarcus-Aldridge-1349","Deandre-Ayton-409301","De'Aaron-Fox-37900","Josh-Jackson-37890","Trevor-Ariza-1323","49900","277.75"
"Elie-Okobo-409300","Bogdan-Bogdanovic-37899","Josh-Jackson-37890","LaMarcus-Aldridge-1349","Deandre-Ayton-409301","De'Aaron-Fox-37900","Mikal-Bridges-408842","Rudy-Gobert-16935","49500","277.72"
"Ricky-Rubio-1001","DeMar-DeRozan-1053","Nemanja-Bjelica-31814","LaMarcus-Aldridge-1349","Deandre-Ayton-409301","Elie-Okobo-409300","Josh-Jackson-37890","De'Aaron-Fox-37900","49700","277.68"
"Elie-Okobo-409300","Donovan-Mitchell-37875","Josh-Jackson-37890","LaMarcus-Aldridge-1349","Deandre-Ayton-409301","DeMar-DeRozan-1053","Mikal-Bridges-408842","Trevor-Ariza-1323","49500","277.66"
"De'Aaron-Fox-37900","Buddy-Hield-35206","Josh-Jackson-37890","LaMarcus-Aldridge-1349","Deandre-Ayton-409301","DeMar-DeRozan-1053","Mikal-Bridges-408842","Jae-Crowder-13942","50000","277.64"
"Elie-Okobo-409300","Buddy-Hield-35206","Josh-Jackson-37890","LaMarcus-Aldridge-1349","Deandre-Ayton-409301","DeMar-DeRozan-1053","Mikal-Bridges-408842","De'Aaron-Fox-37900","49400","277.61"
"Elie-Okobo-409300","Donovan-Mitchell-37875","Josh-Jackson-37890","LaMarcus-Aldridge-1349","Deandre-Ayton-409301","De'Aaron-Fox-37900","Joe-Ingles-18627","Trevor-Ariza-1323","50000","277.56"
"Elie-Okobo-409300","Buddy-Hield-35206","Trevor-Ariza-1323","LaMarcus-Aldridge-1349","Willie-Cauley-Stein-18951","Donovan-Mitchell-37875","Josh-Jackson-37890","Deandre-Ayton-409301","49800","277.45"
"Donovan-Mitchell-37875","Troy-Daniels-17383","Trevor-Ariza-1323","LaMarcus-Aldridge-1349","Willie-Cauley-Stein-18951","De'Aaron-Fox-37900","Josh-Jackson-37890","Deandre-Ayton-409301","49900","277.36"
"Elie-Okobo-409300","Bogdan-Bogdanovic-37899","Trevor-Ariza-1323","LaMarcus-Aldridge-1349","Willie-Cauley-Stein-18951","De'Aaron-Fox-37900","Josh-Jackson-37890","Deandre-Ayton-409301","49200","277.33"
"Ricky-Rubio-1001","Donovan-Mitchell-37875","Josh-Jackson-37890","LaMarcus-Aldridge-1349","Deandre-Ayton-409301","Bogdan-Bogdanovic-37899","Mikal-Bridges-408842","Willie-Cauley-Stein-18951","49500","277.28"
"Elie-Okobo-409300","Donovan-Mitchell-37875","Josh-Jackson-37890","LaMarcus-Aldridge-1349","Deandre-Ayton-409301","De'Aaron-Fox-37900","Mikal-Bridges-408842","Trevor-Ariza-1323","48700","277.19"
"De'Aaron-Fox-37900","Bogdan-Bogdanovic-37899","Trevor-Ariza-1323","LaMarcus-Aldridge-1349","Willie-Cauley-Stein-18951","Joe-Ingles-18627","Josh-Jackson-37890","Deandre-Ayton-409301","49900","277.17"
"Ricky-Rubio-1001","DeMar-DeRozan-1053","Josh-Jackson-37890","Nemanja-Bjelica-31814","LaMarcus-Aldridge-1349","De'Aaron-Fox-37900","Mikal-Bridges-408842","Deandre-Ayton-409301","49100","277.15"
"Ricky-Rubio-1001","Donovan-Mitchell-37875","Josh-Jackson-37890","Trevor-Ariza-1323","Willie-Cauley-Stein-18951","De'Aaron-Fox-37900","Mikal-Bridges-408842","Deandre-Ayton-409301","49300","277.12"
"Ricky-Rubio-1001","DeMar-DeRozan-1053","Jae-Crowder-13942","LaMarcus-Aldridge-1349","Willie-Cauley-Stein-18951","Elie-Okobo-409300","Josh-Jackson-37890","Deandre-Ayton-409301","49700","277.12"
"Donovan-Mitchell-37875","Joe-Ingles-18627","Josh-Jackson-37890","LaMarcus-Aldridge-1349","Deandre-Ayton-409301","De'Aaron-Fox-37900","Mikal-Bridges-408842","Trevor-Ariza-1323","49400","277.03"
"Ricky-Rubio-1001","Buddy-Hield-35206","Nemanja-Bjelica-31814","LaMarcus-Aldridge-1349","Deandre-Ayton-409301","De'Aaron-Fox-37900","Josh-Jackson-37890","Willie-Cauley-Stein-18951","49400","276.94"
"Ricky-Rubio-1001","Joe-Ingles-18627","Josh-Jackson-37890","LaMarcus-Aldridge-1349","Willie-Cauley-Stein-18951","Elie-Okobo-409300","DeMar-DeRozan-1053","Deandre-Ayton-409301","49800","276.93"
"Elie-Okobo-409300","Donovan-Mitchell-37875","Josh-Jackson-37890","LaMarcus-Aldridge-1349","Deandre-Ayton-409301","Bogdan-Bogdanovic-37899","Mikal-Bridges-408842","Rudy-Gobert-16935","49900","276.78"
"Ricky-Rubio-1001","DeMar-DeRozan-1053","Trevor-Ariza-1323","LaMarcus-Aldridge-1349","Deandre-Ayton-409301","Elie-Okobo-409300","Buddy-Hield-35206","Josh-Jackson-37890","50000","276.77"
"Elie-Okobo-409300","Buddy-Hield-35206","Josh-Jackson-37890","LaMarcus-Aldridge-1349","Deandre-Ayton-409301","Donovan-Mitchell-37875","Mikal-Bridges-408842","DeMar-DeRozan-1053","49800","276.67"
"Elie-Okobo-409300","Donovan-Mitchell-37875","Josh-Jackson-37890","Trevor-Ariza-1323","Rudy-Gobert-16935","De'Aaron-Fox-37900","Mikal-Bridges-408842","Deandre-Ayton-409301","49700","276.62"
"De'Aaron-Fox-37900","Bogdan-Bogdanovic-37899","Josh-Jackson-37890","LaMarcus-Aldridge-1349","Deandre-Ayton-409301","DeMar-DeRozan-1053","Mikal-Bridges-408842","Jae-Crowder-13942","49800","276.58"
"Donovan-Mitchell-37875","Troy-Daniels-17383","Josh-Jackson-37890","LaMarcus-Aldridge-1349","Deandre-Ayton-409301","DeMar-DeRozan-1053","Mikal-Bridges-408842","De'Aaron-Fox-37900","49900","276.58"
"Elie-Okobo-409300","Donovan-Mitchell-37875","Josh-Jackson-37890","LaMarcus-Aldridge-1349","Willie-Cauley-Stein-18951","De'Aaron-Fox-37900","Derrick-Favors-1266","Deandre-Ayton-409301","50000","276.56"
"Ricky-Rubio-1001","DeMar-DeRozan-1053","Josh-Jackson-37890","LaMarcus-Aldridge-1349","Deandre-Ayton-409301","Elie-Okobo-409300","Mikal-Bridges-408842","Willie-Cauley-Stein-18951","48500","276.56"
"Elie-Okobo-409300","Bogdan-Bogdanovic-37899","Josh-Jackson-37890","LaMarcus-Aldridge-1349","Deandre-Ayton-409301","DeMar-DeRozan-1053","Mikal-Bridges-408842","De'Aaron-Fox-37900","49200","276.55"
"Ricky-Rubio-1001","Joe-Ingles-18627","Jae-Crowder-13942","LaMarcus-Aldridge-1349","Willie-Cauley-Stein-18951","De'Aaron-Fox-37900","Josh-Jackson-37890","Deandre-Ayton-409301","49600","276.49"
"Elie-Okobo-409300","Buddy-Hield-35206","Nemanja-Bjelica-31814","LaMarcus-Aldridge-1349","Rudy-Gobert-16935","De'Aaron-Fox-37900","Josh-Jackson-37890","Deandre-Ayton-409301","49800","276.44"
"Ricky-Rubio-1001","Joe-Ingles-18627","Josh-Jackson-37890","LaMarcus-Aldridge-1349","Deandre-Ayton-409301","DeMar-DeRozan-1053","Mikal-Bridges-408842","Willie-Cauley-Stein-18951","49200","276.4"
"De'Aaron-Fox-37900","Bogdan-Bogdanovic-37899","Josh-Jackson-37890","LaMarcus-Aldridge-1349","Deandre-Ayton-409301","Joe-Ingles-18627","Mikal-Bridges-408842","DeMar-DeRozan-1053","49900","276.39"
"Elie-Okobo-409300","Donovan-Mitchell-37875","Trevor-Ariza-1323","LaMarcus-Aldridge-1349","Willie-Cauley-Stein-18951","Bogdan-Bogdanovic-37899","Josh-Jackson-37890","Deandre-Ayton-409301","49600","276.39"
"Ricky-Rubio-1001","Bogdan-Bogdanovic-37899","Nemanja-Bjelica-31814","LaMarcus-Aldridge-1349","Deandre-Ayton-409301","DeMar-DeRozan-1053","Josh-Jackson-37890","Willie-Cauley-Stein-18951","50000","276.35"
"Elie-Okobo-409300","Buddy-Hield-35206","Josh-Jackson-37890","LaMarcus-Aldridge-1349","Deandre-Ayton-409301","De'Aaron-Fox-37900","Bogdan-Bogdanovic-37899","Willie-Cauley-Stein-18951","49500","276.34"
"Ricky-Rubio-1001","Buddy-Hield-35206","Jae-Crowder-13942","LaMarcus-Aldridge-1349","Deandre-Ayton-409301","De'Aaron-Fox-37900","Josh-Jackson-37890","Trevor-Ariza-1323","49800","276.33"
"Ricky-Rubio-1001","Donovan-Mitchell-37875","Rudy-Gay-1341","LaMarcus-Aldridge-1349","Deandre-Ayton-409301","Elie-Okobo-409300","Josh-Jackson-37890","Willie-Cauley-Stein-18951","49800","276.32"
"Ricky-Rubio-1001","Buddy-Hield-35206","Trevor-Ariza-1323","LaMarcus-Aldridge-1349","Deandre-Ayton-409301","Elie-Okobo-409300","Josh-Jackson-37890","De'Aaron-Fox-37900","49200","276.3"
"Ricky-Rubio-1001","Donovan-Mitchell-37875","Nemanja-Bjelica-31814","LaMarcus-Aldridge-1349","Deandre-Ayton-409301","De'Aaron-Fox-37900","Josh-Jackson-37890","Jae-Crowder-13942","49900","276.3"
"Ricky-Rubio-1001","Donovan-Mitchell-37875","Nemanja-Bjelica-31814","LaMarcus-Aldridge-1349","Deandre-Ayton-409301","Elie-Okobo-409300","Josh-Jackson-37890","De'Aaron-Fox-37900","49300","276.27"
"Elie-Okobo-409300","DeMar-DeRozan-1053","Trevor-Ariza-1323","Nemanja-Bjelica-31814","Deandre-Ayton-409301","De'Aaron-Fox-37900","LaMarcus-Aldridge-1349","Josh-Jackson-37890","49200","276.26"
"Ricky-Rubio-1001","Buddy-Hield-35206","Josh-Jackson-37890","LaMarcus-Aldridge-1349","Deandre-Ayton-409301","DeMar-DeRozan-1053","Mikal-Bridges-408842","Trevor-Ariza-1323","49400","276.24"
"Donovan-Mitchell-37875","Buddy-Hield-35206","Josh-Jackson-37890","LaMarcus-Aldridge-1349","Deandre-Ayton-409301","De'Aaron-Fox-37900","Mikal-Bridges-408842","Jae-Crowder-13942","49600","276.23"
"Ricky-Rubio-1001","Donovan-Mitchell-37875","Josh-Jackson-37890","Nemanja-Bjelica-31814","LaMarcus-Aldridge-1349","DeMar-DeRozan-1053","Mikal-Bridges-408842","Deandre-Ayton-409301","49500","276.21"
"Elie-Okobo-409300","Buddy-Hield-35206","Josh-Jackson-37890","LaMarcus-Aldridge-1349","Deandre-Ayton-409301","Donovan-Mitchell-37875","Mikal-Bridges-408842","De'Aaron-Fox-37900","49000","276.2"
"Ricky-Rubio-1001","DeMar-DeRozan-1053","Trevor-Ariza-1323","Nemanja-Bjelica-31814","Willie-Cauley-Stein-18951","De'Aaron-Fox-37900","Josh-Jackson-37890","Deandre-Ayton-409301","49800","276.19"
"Ricky-Rubio-1001","Buddy-Hield-35206","Josh-Jackson-37890","LaMarcus-Aldridge-1349","Deandre-Ayton-409301","De'Aaron-Fox-37900","Joe-Ingles-18627","Trevor-Ariza-1323","49900","276.14"
"De'Aaron-Fox-37900","Buddy-Hield-35206","Josh-Jackson-37890","Trevor-Ariza-1323","Willie-Cauley-Stein-18951","DeMar-DeRozan-1053","Mikal-Bridges-408842","Deandre-Ayton-409301","49500","276.12"
"Ricky-Rubio-1001","Donovan-Mitchell-37875","Josh-Jackson-37890","Nemanja-Bjelica-31814","LaMarcus-Aldridge-1349","De'Aaron-Fox-37900","Joe-Ingles-18627","Deandre-Ayton-409301","50000","276.11"
"De'Aaron-Fox-37900","Joe-Ingles-18627","Trevor-Ariza-1323","Nemanja-Bjelica-31814","Deandre-Ayton-409301","DeMar-DeRozan-1053","LaMarcus-Aldridge-1349","Josh-Jackson-37890","49900","276.1"
"Donovan-Mitchell-37875","DeMar-DeRozan-1053","Josh-Jackson-37890","Nemanja-Bjelica-31814","Deandre-Ayton-409301","De'Aaron-Fox-37900","Mikal-Bridges-408842","Willie-Cauley-Stein-18951","49600","276.09"
"Donovan-Mitchell-37875","Buddy-Hield-35206","Josh-Jackson-37890","LaMarcus-Aldridge-1349","Deandre-Ayton-409301","Joe-Ingles-18627","Mikal-Bridges-408842","De'Aaron-Fox-37900","49700","276.04"
"Ricky-Rubio-1001","Buddy-Hield-35206","Nemanja-Bjelica-31814","LaMarcus-Aldridge-1349","Deandre-Ayton-409301","Donovan-Mitchell-37875","Josh-Jackson-37890","Willie-Cauley-Stein-18951","49800","276.0"
"Elie-Okobo-409300","Joe-Ingles-18627","Jae-Crowder-13942","LaMarcus-Aldridge-1349","Rudy-Gobert-16935","De'Aaron-Fox-37900","Josh-Jackson-37890","Deandre-Ayton-409301","50000","275.99"
"Ricky-Rubio-1001","Joe-Ingles-18627","Josh-Jackson-37890","LaMarcus-Aldridge-1349","Deandre-Ayton-409301","De'Aaron-Fox-37900","Mikal-Bridges-408842","Willie-Cauley-Stein-18951","48400","275.93"
"Elie-Okobo-409300","Joe-Ingles-18627","Josh-Jackson-37890","LaMarcus-Aldridge-1349","Deandre-Ayton-409301","DeMar-DeRozan-1053","Mikal-Bridges-408842","Rudy-Gobert-16935","49600","275.9"
"Ricky-Rubio-1001","Bogdan-Bogdanovic-37899","Nemanja-Bjelica-31814","LaMarcus-Aldridge-1349","Deandre-Ayton-409301","De'Aaron-Fox-37900","Josh-Jackson-37890","Willie-Cauley-Stein-18951","49200","275.88"
"De'Aaron-Fox-37900","Buddy-Hield-35206","Josh-Jackson-37890","LaMarcus-Aldridge-1349","Deandre-Ayton-409301","Bogdan-Bogdanovic-37899","Mikal-Bridges-408842","Willie-Cauley-Stein-18951","48900","275.81"
"Donovan-Mitchell-37875","Bogdan-Bogdanovic-37899","Josh-Jackson-37890","LaMarcus-Aldridge-1349","Deandre-Ayton-409301","De'Aaron-Fox-37900","Mikal-Bridges-408842","Rudy-Gay-1341","49900","275.78"
"Ricky-Rubio-1001","Buddy-Hield-35206","Josh-Jackson-37890","LaMarcus-Aldridge-1349","Deandre-Ayton-409301","De'Aaron-Fox-37900","Mikal-Bridges-408842","Trevor-Ariza-1323","48600","275.77"
"Ricky-Rubio-1001","Donovan-Mitchell-37875","Josh-Jackson-37890","Nemanja-Bjelica-31814","LaMarcus-Aldridge-1349","De'Aaron-Fox-37900","Mikal-Bridges-408842","Deandre-Ayton-409301","48700","275.74"
"Ricky-Rubio-1001","DeMar-DeRozan-1053","Josh-Jackson-37890","LaMarcus-Aldridge-1349","Deandre-Ayton-409301","Elie-Okobo-409300","Bogdan-Bogdanovic-37899","Trevor-Ariza-1323","49800","275.71"
"Ricky-Rubio-1001","Donovan-Mitchell-37875","Jae-Crowder-13942","LaMarcus-Aldridge-1349","Willie-Cauley-Stein-18951","Elie-Okobo-409300","Josh-Jackson-37890","Deandre-Ayton-409301","49300","275.71"
"Elie-Okobo-409300","Donovan-Mitchell-37875","Jae-Crowder-13942","LaMarcus-Aldridge-1349","Deandre-Ayton-409301","De'Aaron-Fox-37900","Bogdan-Bogdanovic-37899","Josh-Jackson-37890","50000","275.7"
"Elie-Okobo-409300","Donovan-Mitchell-37875","Josh-Jackson-37890","LaMarcus-Aldridge-1349","Deandre-Ayton-409301","Bogdan-Bogdanovic-37899","Mikal-Bridges-408842","DeMar-DeRozan-1053","49600","275.61"
"Elie-Okobo-409300","Bogdan-Bogdanovic-37899","Josh-Jackson-37890","Trevor-Ariza-1323","Willie-Cauley-Stein-18951","De'Aaron-Fox-37900","DeMar-DeRozan-1053","Deandre-Ayton-409301","49900","275.59"
"Ricky-Rubio-1001","Donovan-Mitchell-37875","Jae-Crowder-13942","LaMarcus-Aldridge-1349","Willie-Cauley-Stein-18951","Joe-Ingles-18627","Josh-Jackson-37890","Deandre-Ayton-409301","50000","275.55"
"Ricky-Rubio-1001","Donovan-Mitchell-37875","Josh-Jackson-37890","LaMarcus-Aldridge-1349","Deandre-Ayton-409301","Elie-Okobo-409300","Joe-Ingles-18627","Willie-Cauley-Stein-18951","49400","275.52"
"Elie-Okobo-409300","Joe-Ingles-18627","Trevor-Ariza-1323","LaMarcus-Aldridge-1349","Willie-Cauley-Stein-18951","DeMar-DeRozan-1053","Josh-Jackson-37890","Deandre-Ayton-409301","49300","275.51"
"Donovan-Mitchell-37875","DeMar-DeRozan-1053","Trevor-Ariza-1323","Jae-Crowder-13942","Deandre-Ayton-409301","De'Aaron-Fox-37900","Mikal-Bridges-408842","Josh-Jackson-37890","50000","275.48"
"Elie-Okobo-409300","Donovan-Mitchell-37875","Josh-Jackson-37890","Trevor-Ariza-1323","Deandre-Ayton-409301","DeMar-DeRozan-1053","Mikal-Bridges-408842","De'Aaron-Fox-37900","49400","275.45"
"Elie-Okobo-409300","Joe-Ingles-18627","Josh-Jackson-37890","LaMarcus-Aldridge-1349","Deandre-Ayton-409301","De'Aaron-Fox-37900","Mikal-Bridges-408842","Rudy-Gobert-16935","48800","275.43"
"Elie-Okobo-409300","Buddy-Hield-35206","Josh-Jackson-37890","LaMarcus-Aldridge-1349","Deandre-Ayton-409301","Donovan-Mitchell-37875","Bogdan-Bogdanovic-37899","Willie-Cauley-Stein-18951","49900","275.4"
"Ricky-Rubio-1001","Donovan-Mitchell-37875","Trevor-Ariza-1323","LaMarcus-Aldridge-1349","Deandre-Ayton-409301","De'Aaron-Fox-37900","Royce-O'Neale-37872","Josh-Jackson-37890","50000","275.39"
"Elie-Okobo-409300","Bogdan-Bogdanovic-37899","Nemanja-Bjelica-31814","LaMarcus-Aldridge-1349","Rudy-Gobert-16935","De'Aaron-Fox-37900","Josh-Jackson-37890","Deandre-Ayton-409301","49600","275.38"
"Ricky-Rubio-1001","Buddy-Hield-35206","Josh-Jackson-37890","LaMarcus-Aldridge-1349","Deandre-Ayton-409301","Bogdan-Bogdanovic-37899","Mikal-Bridges-408842","Rudy-Gobert-16935","49800","275.36"
"Ricky-Rubio-1001","Donovan-Mitchell-37875","Trevor-Ariza-1323","LaMarcus-Aldridge-1349","Deandre-Ayton-409301","Elie-Okobo-409300","Buddy-Hield-35206","Josh-Jackson-37890","49600","275.36"
"Ricky-Rubio-1001","DeMar-DeRozan-1053","Josh-Jackson-37890","LaMarcus-Aldridge-1349","Deandre-Ayton-409301","De'Aaron-Fox-37900","Mikal-Bridges-408842","Derrick-Favors-1266","49600","275.35"
"Elie-Okobo-409300","Donovan-Mitchell-37875","Trevor-Ariza-1323","Nemanja-Bjelica-31814","Deandre-Ayton-409301","DeMar-DeRozan-1053","LaMarcus-Aldridge-1349","Josh-Jackson-37890","49600","275.32"
"Elie-Okobo-409300","Buddy-Hield-35206","Rudy-Gay-1341","LaMarcus-Aldridge-1349","Deandre-Ayton-409301","DeMar-DeRozan-1053","Josh-Jackson-37890","Willie-Cauley-Stein-18951","50000","275.32"
