"Kemba-Walker-13335","Tim-Hardaway-Jr.-16879","Rudy-Gay-1341","Noah-Vonleh-18597","Brook-Lopez-1498","Kyle-Lowry-1057","LaMarcus-Aldridge-1349","Cody-Zeller-16836","50000","286.95"

"Kemba-Walker-13335","Tim-Hardaway-Jr.-16879","Rudy-Gay-1341","Noah-Vonleh-18597","Brook-Lopez-1498","Kyle-Lowry-1057","LaMarcus-Aldridge-1349","Cody-Zeller-16836","50000","286.95"
"Kemba-Walker-13335","Danny-Green-940","Rudy-Gay-1341","Noah-Vonleh-18597","Cody-Zeller-16836","Kyle-Lowry-1057","Tim-Hardaway-Jr.-16879","LaMarcus-Aldridge-1349","49400","284.51"
"Kemba-Walker-13335","Tim-Hardaway-Jr.-16879","Rudy-Gay-1341","Noah-Vonleh-18597","Brook-Lopez-1498","Kyle-Lowry-1057","Danny-Green-940","LaMarcus-Aldridge-1349","50000","284.41"
"Kemba-Walker-13335","Jeremy-Lamb-13955","Danny-Green-940","Rudy-Gay-1341","Cody-Zeller-16836","Kyle-Lowry-1057","Tim-Hardaway-Jr.-16879","LaMarcus-Aldridge-1349","49900","284.25"
"Donovan-Mitchell-37875","Nicolas-Batum-1315","Rudy-Gay-1341","Noah-Vonleh-18597","Cody-Zeller-16836","Kyle-Lowry-1057","Tim-Hardaway-Jr.-16879","LaMarcus-Aldridge-1349","49300","284.19"
"Donovan-Mitchell-37875","Tim-Hardaway-Jr.-16879","Nicolas-Batum-1315","Noah-Vonleh-18597","Brook-Lopez-1498","Kyle-Lowry-1057","LaMarcus-Aldridge-1349","Rudy-Gay-1341","49900","284.09"
"Kemba-Walker-13335","Tim-Hardaway-Jr.-16879","Rudy-Gay-1341","LaMarcus-Aldridge-1349","Cody-Zeller-16836","Kyle-Lowry-1057","Nicolas-Batum-1315","Brook-Lopez-1498","49300","284.09"
"Kyle-Lowry-1057","Nicolas-Batum-1315","Rudy-Gay-1341","Noah-Vonleh-18597","Enes-Kanter-13299","Tim-Hardaway-Jr.-16879","LaMarcus-Aldridge-1349","Cody-Zeller-16836","49400","284.05"
"Kyle-Lowry-1057","Khris-Middleton-13990","Jeremy-Lamb-13955","Noah-Vonleh-18597","Cody-Zeller-16836","Tim-Hardaway-Jr.-16879","LaMarcus-Aldridge-1349","Rudy-Gay-1341","49700","284.05"
"Kemba-Walker-13335","Danny-Green-940","Jeremy-Lamb-13955","Noah-Vonleh-18597","Cody-Zeller-16836","Kyle-Lowry-1057","LaMarcus-Aldridge-1349","Tim-Hardaway-Jr.-16879","50000","283.99"
"Kyle-Lowry-1057","Nicolas-Batum-1315","Rudy-Gay-1341","Noah-Vonleh-18597","Brook-Lopez-1498","Tim-Hardaway-Jr.-16879","LaMarcus-Aldridge-1349","Enes-Kanter-13299","50000","283.95"
"Kemba-Walker-13335","Nicolas-Batum-1315","Jeremy-Lamb-13955","Noah-Vonleh-18597","Cody-Zeller-16836","Kyle-Lowry-1057","LaMarcus-Aldridge-1349","Rudy-Gay-1341","49900","283.94"
"Donovan-Mitchell-37875","Jeremy-Lamb-13955","Nicolas-Batum-1315","Rudy-Gay-1341","LaMarcus-Aldridge-1349","Kyle-Lowry-1057","Tim-Hardaway-Jr.-16879","Cody-Zeller-16836","49800","283.93"
"Kemba-Walker-13335","Tim-Hardaway-Jr.-16879","Rudy-Gay-1341","LaMarcus-Aldridge-1349","Cody-Zeller-16836","Kyle-Lowry-1057","Danny-Green-940","Ricky-Rubio-1001","50000","283.9"
"Kyle-Lowry-1057","Nicolas-Batum-1315","Rudy-Gay-1341","Noah-Vonleh-18597","Cody-Zeller-16836","Danny-Green-940","Tim-Hardaway-Jr.-16879","Giannis-Antetokounmpo-16852","49800","283.88"
"Kemba-Walker-13335","Tim-Hardaway-Jr.-16879","Nicolas-Batum-1315","Noah-Vonleh-18597","Brook-Lopez-1498","Kyle-Lowry-1057","LaMarcus-Aldridge-1349","Cody-Zeller-16836","49400","283.83"
"Kyle-Lowry-1057","Nicolas-Batum-1315","Rudy-Gay-1341","LaMarcus-Aldridge-1349","Cody-Zeller-16836","Tim-Hardaway-Jr.-16879","Jeremy-Lamb-13955","Enes-Kanter-13299","49900","283.79"
"Kemba-Walker-13335","Tim-Hardaway-Jr.-16879","Mario-Hezonja-18923","Noah-Vonleh-18597","LaMarcus-Aldridge-1349","Kyle-Lowry-1057","Nicolas-Batum-1315","Rudy-Gay-1341","49600","283.75"
"Kyle-Lowry-1057","Khris-Middleton-13990","Rudy-Gay-1341","Noah-Vonleh-18597","Cody-Zeller-16836","Ricky-Rubio-1001","Tim-Hardaway-Jr.-16879","LaMarcus-Aldridge-1349","49800","283.7"
"Kemba-Walker-13335","Tim-Hardaway-Jr.-16879","Rudy-Gay-1341","LaMarcus-Aldridge-1349","Cody-Zeller-16836","Kyle-Lowry-1057","Nicolas-Batum-1315","Jonas-Valanciunas-13301","50000","283.68"
"Donovan-Mitchell-37875","Nicolas-Batum-1315","Jeremy-Lamb-13955","Noah-Vonleh-18597","Cody-Zeller-16836","Kyle-Lowry-1057","LaMarcus-Aldridge-1349","Tim-Hardaway-Jr.-16879","49900","283.67"
"Kemba-Walker-13335","Eric-Bledsoe-1031","Rudy-Gay-1341","Noah-Vonleh-18597","Cody-Zeller-16836","Nicolas-Batum-1315","Tim-Hardaway-Jr.-16879","LaMarcus-Aldridge-1349","49900","283.61"
"Kyle-Lowry-1057","Nicolas-Batum-1315","Kawhi-Leonard-13310","Rudy-Gay-1341","Cody-Zeller-16836","Tim-Hardaway-Jr.-16879","Danny-Green-940","LaMarcus-Aldridge-1349","49700","283.61"
"Kemba-Walker-13335","Nicolas-Batum-1315","Rudy-Gay-1341","Noah-Vonleh-18597","Cody-Zeller-16836","Kyle-Lowry-1057","LaMarcus-Aldridge-1349","Ricky-Rubio-1001","50000","283.59"
"Kyle-Lowry-1057","Donovan-Mitchell-37875","Nicolas-Batum-1315","Rudy-Gay-1341","LaMarcus-Aldridge-1349","Ricky-Rubio-1001","Tim-Hardaway-Jr.-16879","Cody-Zeller-16836","49900","283.58"
"Kemba-Walker-13335","Nicolas-Batum-1315","Jeremy-Lamb-13955","LaMarcus-Aldridge-1349","Brook-Lopez-1498","Kyle-Lowry-1057","Tim-Hardaway-Jr.-16879","Cody-Zeller-16836","49900","283.57"
"Kyle-Lowry-1057","Nicolas-Batum-1315","Jeremy-Lamb-13955","Noah-Vonleh-18597","Cody-Zeller-16836","Tim-Hardaway-Jr.-16879","LaMarcus-Aldridge-1349","Enes-Kanter-13299","50000","283.53"
"Kemba-Walker-13335","Nicolas-Batum-1315","Rudy-Gay-1341","Noah-Vonleh-18597","Cody-Zeller-16836","Kyle-Lowry-1057","Tim-Hardaway-Jr.-16879","Khris-Middleton-13990","49700","283.46"
"Kyle-Lowry-1057","Tim-Hardaway-Jr.-16879","Rudy-Gay-1341","LaMarcus-Aldridge-1349","Cody-Zeller-16836","Ricky-Rubio-1001","Nicolas-Batum-1315","Enes-Kanter-13299","50000","283.44"
"Kyle-Lowry-1057","Eric-Bledsoe-1031","Nicolas-Batum-1315","Rudy-Gay-1341","LaMarcus-Aldridge-1349","Tim-Hardaway-Jr.-16879","Khris-Middleton-13990","Cody-Zeller-16836","49900","283.36"
"Kyle-Lowry-1057","Danny-Green-940","Kawhi-Leonard-13310","Noah-Vonleh-18597","LaMarcus-Aldridge-1349","Tim-Hardaway-Jr.-16879","Nicolas-Batum-1315","Cody-Zeller-16836","49800","283.35"
"Kyle-Lowry-1057","Donovan-Mitchell-37875","Nicolas-Batum-1315","Noah-Vonleh-18597","LaMarcus-Aldridge-1349","Ricky-Rubio-1001","Tim-Hardaway-Jr.-16879","Cody-Zeller-16836","50000","283.32"
"Kemba-Walker-13335","Nicolas-Batum-1315","Rudy-Gay-1341","Noah-Vonleh-18597","Cody-Zeller-16836","Khris-Middleton-13990","Tim-Hardaway-Jr.-16879","LaMarcus-Aldridge-1349","49400","283.28"
"Emmanuel-Mudiay-18936","Tim-Hardaway-Jr.-16879","Rudy-Gay-1341","LaMarcus-Aldridge-1349","Cody-Zeller-16836","Kemba-Walker-13335","Danny-Green-940","Kyle-Lowry-1057","49800","283.24"
"Kyle-Lowry-1057","Jeremy-Lamb-13955","Rudy-Gay-1341","Serge-Ibaka-1294","LaMarcus-Aldridge-1349","Tim-Hardaway-Jr.-16879","Nicolas-Batum-1315","Noah-Vonleh-18597","49900","283.22"
"Kemba-Walker-13335","Nicolas-Batum-1315","Rudy-Gay-1341","LaMarcus-Aldridge-1349","Brook-Lopez-1498","Tim-Hardaway-Jr.-16879","Khris-Middleton-13990","Noah-Vonleh-18597","50000","283.18"
"Kyle-Lowry-1057","Eric-Bledsoe-1031","Nicolas-Batum-1315","Noah-Vonleh-18597","LaMarcus-Aldridge-1349","Khris-Middleton-13990","Tim-Hardaway-Jr.-16879","Cody-Zeller-16836","50000","283.1"
"Emmanuel-Mudiay-18936","Khris-Middleton-13990","Rudy-Gay-1341","Noah-Vonleh-18597","Cody-Zeller-16836","Kyle-Lowry-1057","Tim-Hardaway-Jr.-16879","LaMarcus-Aldridge-1349","49600","283.04"
"Kemba-Walker-13335","Jeremy-Lamb-13955","Nicolas-Batum-1315","Rudy-Gay-1341","LaMarcus-Aldridge-1349","Tim-Hardaway-Jr.-16879","Khris-Middleton-13990","Cody-Zeller-16836","49900","283.02"
"Emmanuel-Mudiay-18936","Tim-Hardaway-Jr.-16879","Danny-Green-940","Noah-Vonleh-18597","Cody-Zeller-16836","Kemba-Walker-13335","LaMarcus-Aldridge-1349","Kyle-Lowry-1057","49900","282.98"
"Kemba-Walker-13335","Khris-Middleton-13990","Nicolas-Batum-1315","LaMarcus-Aldridge-1349","Cody-Zeller-16836","Kyle-Lowry-1057","Danny-Green-940","Tim-Hardaway-Jr.-16879","49700","282.97"
"Emmanuel-Mudiay-18936","Nicolas-Batum-1315","Rudy-Gay-1341","Noah-Vonleh-18597","Cody-Zeller-16836","Kemba-Walker-13335","LaMarcus-Aldridge-1349","Kyle-Lowry-1057","49800","282.93"
"Emmanuel-Mudiay-18936","Donovan-Mitchell-37875","Nicolas-Batum-1315","Rudy-Gay-1341","LaMarcus-Aldridge-1349","Kyle-Lowry-1057","Tim-Hardaway-Jr.-16879","Cody-Zeller-16836","49700","282.92"
"Kemba-Walker-13335","Derrick-White-37858","Khris-Middleton-13990","Rudy-Gay-1341","LaMarcus-Aldridge-1349","Kyle-Lowry-1057","Tim-Hardaway-Jr.-16879","Cody-Zeller-16836","50000","282.91"
"Kyle-Lowry-1057","Tim-Hardaway-Jr.-16879","Rudy-Gay-1341","Serge-Ibaka-1294","LaMarcus-Aldridge-1349","Ricky-Rubio-1001","Nicolas-Batum-1315","Noah-Vonleh-18597","50000","282.87"
"Emmanuel-Mudiay-18936","Tim-Hardaway-Jr.-16879","Rudy-Gay-1341","LaMarcus-Aldridge-1349","Cody-Zeller-16836","Kyle-Lowry-1057","Nicolas-Batum-1315","Enes-Kanter-13299","49800","282.78"
"Kemba-Walker-13335","Nicolas-Batum-1315","Jeremy-Lamb-13955","Noah-Vonleh-18597","Cody-Zeller-16836","Tim-Hardaway-Jr.-16879","LaMarcus-Aldridge-1349","Khris-Middleton-13990","50000","282.76"
"Kemba-Walker-13335","Tim-Hardaway-Jr.-16879","Nicolas-Batum-1315","Rudy-Gay-1341","LaMarcus-Aldridge-1349","Ricky-Rubio-1001","Khris-Middleton-13990","Cody-Zeller-16836","50000","282.67"
"Emmanuel-Mudiay-18936","Donovan-Mitchell-37875","Nicolas-Batum-1315","Noah-Vonleh-18597","LaMarcus-Aldridge-1349","Kyle-Lowry-1057","Tim-Hardaway-Jr.-16879","Cody-Zeller-16836","49800","282.66"
"Emmanuel-Mudiay-18936","Nicolas-Batum-1315","Rudy-Gay-1341","Noah-Vonleh-18597","LaMarcus-Aldridge-1349","Kyle-Lowry-1057","Tim-Hardaway-Jr.-16879","Pascal-Siakam-35186","50000","282.58"
"Emmanuel-Mudiay-18936","Tim-Hardaway-Jr.-16879","Nicolas-Batum-1315","Noah-Vonleh-18597","Cody-Zeller-16836","Kyle-Lowry-1057","LaMarcus-Aldridge-1349","Enes-Kanter-13299","49900","282.52"
"Emmanuel-Mudiay-18936","Tim-Hardaway-Jr.-16879","Mario-Hezonja-18923","Rudy-Gay-1341","LaMarcus-Aldridge-1349","Kemba-Walker-13335","Nicolas-Batum-1315","Kyle-Lowry-1057","50000","282.48"
"Kemba-Walker-13335","Tim-Hardaway-Jr.-16879","Rudy-Gay-1341","Noah-Vonleh-18597","Cody-Zeller-16836","Kyle-Lowry-1057","LaMarcus-Aldridge-1349","Jakob-Poeltl-35187","49300","282.47"
"Emmanuel-Mudiay-18936","Nicolas-Batum-1315","Danny-Green-940","LaMarcus-Aldridge-1349","Cody-Zeller-16836","Tim-Hardaway-Jr.-16879","Giannis-Antetokounmpo-16852","Rudy-Gay-1341","49900","282.43"
"Kemba-Walker-13335","Marco-Belinelli-1033","Nicolas-Batum-1315","Noah-Vonleh-18597","LaMarcus-Aldridge-1349","Kyle-Lowry-1057","Tim-Hardaway-Jr.-16879","Rudy-Gay-1341","49800","282.43"
"Emmanuel-Mudiay-18936","Nicolas-Batum-1315","Kawhi-Leonard-13310","Noah-Vonleh-18597","LaMarcus-Aldridge-1349","Tim-Hardaway-Jr.-16879","Rudy-Gay-1341","Cody-Zeller-16836","49900","282.39"
"Kemba-Walker-13335","Tim-Hardaway-Jr.-16879","Rudy-Gay-1341","Noah-Vonleh-18597","Brook-Lopez-1498","Kyle-Lowry-1057","LaMarcus-Aldridge-1349","Jakob-Poeltl-35187","49900","282.37"
"Kyle-Lowry-1057","Joe-Ingles-18627","Nicolas-Batum-1315","Noah-Vonleh-18597","LaMarcus-Aldridge-1349","Jeremy-Lamb-13955","Tim-Hardaway-Jr.-16879","Rudy-Gay-1341","50000","282.28"
"Kemba-Walker-13335","Tim-Hardaway-Jr.-16879","Rudy-Gay-1341","LaMarcus-Aldridge-1349","Cody-Zeller-16836","Kyle-Lowry-1057","Jeremy-Lamb-13955","Jakob-Poeltl-35187","49800","282.21"
"Emmanuel-Mudiay-18936","Tim-Hardaway-Jr.-16879","Rudy-Gay-1341","Serge-Ibaka-1294","LaMarcus-Aldridge-1349","Kyle-Lowry-1057","Nicolas-Batum-1315","Noah-Vonleh-18597","49800","282.21"
"Emmanuel-Mudiay-18936","Nicolas-Batum-1315","Danny-Green-940","LaMarcus-Aldridge-1349","Cody-Zeller-16836","Tim-Hardaway-Jr.-16879","Giannis-Antetokounmpo-16852","Noah-Vonleh-18597","50000","282.17"
"Kemba-Walker-13335","Fred-VanVleet-36011","Rudy-Gay-1341","Noah-Vonleh-18597","Cody-Zeller-16836","Kyle-Lowry-1057","Tim-Hardaway-Jr.-16879","LaMarcus-Aldridge-1349","49600","282.05"
"Emmanuel-Mudiay-18936","Tim-Hardaway-Jr.-16879","Nicolas-Batum-1315","Rudy-Gay-1341","LaMarcus-Aldridge-1349","Kemba-Walker-13335","Khris-Middleton-13990","Cody-Zeller-16836","49800","282.01"
"Kemba-Walker-13335","Tim-Hardaway-Jr.-16879","Rudy-Gay-1341","Noah-Vonleh-18597","LaMarcus-Aldridge-1349","Kyle-Lowry-1057","Damyean-Dotson-37795","Cody-Zeller-16836","49700","281.98"
"Kemba-Walker-13335","Tim-Hardaway-Jr.-16879","Jeremy-Lamb-13955","Noah-Vonleh-18597","Cody-Zeller-16836","Kyle-Lowry-1057","LaMarcus-Aldridge-1349","Jakob-Poeltl-35187","49900","281.95"
"Donovan-Mitchell-37875","Tim-Hardaway-Jr.-16879","Rudy-Gay-1341","Noah-Vonleh-18597","Brook-Lopez-1498","Kemba-Walker-13335","LaMarcus-Aldridge-1349","Cody-Zeller-16836","49800","281.94"
"Kemba-Walker-13335","Tim-Hardaway-Jr.-16879","Rudy-Gay-1341","LaMarcus-Aldridge-1349","Cody-Zeller-16836","Kyle-Lowry-1057","Nicolas-Batum-1315","Derrick-Favors-1266","49800","281.93"
"Kyle-Lowry-1057","Tim-Hardaway-Jr.-16879","Jeremy-Lamb-13955","Noah-Vonleh-18597","Cody-Zeller-16836","Ricky-Rubio-1001","LaMarcus-Aldridge-1349","Rudy-Gay-1341","49400","281.86"
"Kyle-Lowry-1057","Nicolas-Batum-1315","Rudy-Gay-1341","Noah-Vonleh-18597","Jakob-Poeltl-35187","Tim-Hardaway-Jr.-16879","Giannis-Antetokounmpo-16852","Cody-Zeller-16836","49700","281.84"
"Kyle-Lowry-1057","Eric-Bledsoe-1031","Rudy-Gay-1341","Noah-Vonleh-18597","Cody-Zeller-16836","Nicolas-Batum-1315","Tim-Hardaway-Jr.-16879","LaMarcus-Aldridge-1349","49000","281.78"
"Kyle-Lowry-1057","Eric-Bledsoe-1031","Rudy-Gay-1341","LaMarcus-Aldridge-1349","Cody-Zeller-16836","Tim-Hardaway-Jr.-16879","Pascal-Siakam-35186","Noah-Vonleh-18597","50000","281.78"
"Kyle-Lowry-1057","Danny-Green-940","Mario-Hezonja-18923","LaMarcus-Aldridge-1349","Cody-Zeller-16836","Tim-Hardaway-Jr.-16879","Rudy-Gay-1341","Giannis-Antetokounmpo-16852","49600","281.77"
"Kyle-Lowry-1057","Tim-Hardaway-Jr.-16879","Rudy-Gay-1341","Noah-Vonleh-18597","Brook-Lopez-1498","Ricky-Rubio-1001","Jeremy-Lamb-13955","LaMarcus-Aldridge-1349","50000","281.76"
"Emmanuel-Mudiay-18936","Khris-Middleton-13990","Nicolas-Batum-1315","Noah-Vonleh-18597","LaMarcus-Aldridge-1349","Kemba-Walker-13335","Tim-Hardaway-Jr.-16879","Cody-Zeller-16836","49900","281.75"
"Kemba-Walker-13335","Tim-Hardaway-Jr.-16879","Nicolas-Batum-1315","LaMarcus-Aldridge-1349","Cody-Zeller-16836","Kyle-Lowry-1057","Marvin-Williams-1318","Rudy-Gay-1341","49600","281.71"
"Kemba-Walker-13335","Khris-Middleton-13990","Rudy-Gay-1341","Noah-Vonleh-18597","Brook-Lopez-1498","Kyle-Lowry-1057","LaMarcus-Aldridge-1349","Cody-Zeller-16836","49900","281.7"
"Donovan-Mitchell-37875","Tim-Hardaway-Jr.-16879","Rudy-Gay-1341","LaMarcus-Aldridge-1349","Brook-Lopez-1498","Kyle-Lowry-1057","Khris-Middleton-13990","Cody-Zeller-16836","49800","281.69"
"Kyle-Lowry-1057","Eric-Bledsoe-1031","Nicolas-Batum-1315","Noah-Vonleh-18597","Brook-Lopez-1498","Tim-Hardaway-Jr.-16879","LaMarcus-Aldridge-1349","Rudy-Gay-1341","49600","281.68"
"Kemba-Walker-13335","Eric-Bledsoe-1031","Mario-Hezonja-18923","LaMarcus-Aldridge-1349","Cody-Zeller-16836","Kyle-Lowry-1057","Tim-Hardaway-Jr.-16879","Rudy-Gay-1341","50000","281.68"
"Kemba-Walker-13335","Tim-Hardaway-Jr.-16879","Nicolas-Batum-1315","Noah-Vonleh-18597","Cody-Zeller-16836","Kyle-Lowry-1057","Derrick-Favors-1266","LaMarcus-Aldridge-1349","49900","281.67"
"Kemba-Walker-13335","Danny-Green-940","Rudy-Gay-1341","LaMarcus-Aldridge-1349","Cody-Zeller-16836","Kyle-Lowry-1057","Pascal-Siakam-35186","Tim-Hardaway-Jr.-16879","49700","281.65"
"Donovan-Mitchell-37875","Danny-Green-940","Nicolas-Batum-1315","Noah-Vonleh-18597","LaMarcus-Aldridge-1349","Kyle-Lowry-1057","Tim-Hardaway-Jr.-16879","Rudy-Gay-1341","49300","281.65"
"Kemba-Walker-13335","Nicolas-Batum-1315","Danny-Green-940","Rudy-Gay-1341","Cody-Zeller-16836","Kyle-Lowry-1057","Tim-Hardaway-Jr.-16879","LaMarcus-Aldridge-1349","48700","281.65"
"Kemba-Walker-13335","Jeremy-Lamb-13955","Rudy-Gay-1341","Noah-Vonleh-18597","Cody-Zeller-16836","Kyle-Lowry-1057","Tim-Hardaway-Jr.-16879","Nicolas-Batum-1315","49300","281.62"
"Kemba-Walker-13335","Donovan-Mitchell-37875","Rudy-Gay-1341","LaMarcus-Aldridge-1349","Cody-Zeller-16836","Kyle-Lowry-1057","Nicolas-Batum-1315","Brook-Lopez-1498","50000","281.58"
"Kyle-Lowry-1057","Nicolas-Batum-1315","Kawhi-Leonard-13310","LaMarcus-Aldridge-1349","Jakob-Poeltl-35187","Tim-Hardaway-Jr.-16879","Rudy-Gay-1341","Cody-Zeller-16836","49600","281.57"
"Kemba-Walker-13335","Tim-Hardaway-Jr.-16879","Nicolas-Batum-1315","Rudy-Gay-1341","Brook-Lopez-1498","Kyle-Lowry-1057","Danny-Green-940","LaMarcus-Aldridge-1349","49300","281.55"
"Kyle-Lowry-1057","Eric-Bledsoe-1031","Nicolas-Batum-1315","Rudy-Gay-1341","LaMarcus-Aldridge-1349","Jeremy-Lamb-13955","Tim-Hardaway-Jr.-16879","Cody-Zeller-16836","49500","281.52"
"Kemba-Walker-13335","Nicolas-Batum-1315","Rudy-Gay-1341","Noah-Vonleh-18597","Brook-Lopez-1498","Kyle-Lowry-1057","Jeremy-Lamb-13955","Tim-Hardaway-Jr.-16879","49900","281.52"
"Kyle-Lowry-1057","Danny-Green-940","Mario-Hezonja-18923","Noah-Vonleh-18597","Cody-Zeller-16836","Tim-Hardaway-Jr.-16879","Giannis-Antetokounmpo-16852","LaMarcus-Aldridge-1349","49700","281.51"
"Kyle-Lowry-1057","Nicolas-Batum-1315","Rudy-Gay-1341","LaMarcus-Aldridge-1349","Enes-Kanter-13299","Danny-Green-940","Tim-Hardaway-Jr.-16879","Noah-Vonleh-18597","49400","281.51"
"Kyle-Lowry-1057","Khris-Middleton-13990","Jeremy-Lamb-13955","Rudy-Gay-1341","Noah-Vonleh-18597","Danny-Green-940","Tim-Hardaway-Jr.-16879","LaMarcus-Aldridge-1349","49700","281.51"
"Kemba-Walker-13335","Tim-Hardaway-Jr.-16879","Nicolas-Batum-1315","LaMarcus-Aldridge-1349","Cody-Zeller-16836","Kyle-Lowry-1057","Marvin-Williams-1318","Noah-Vonleh-18597","49700","281.45"
"Kyle-Lowry-1057","Khris-Middleton-13990","Rudy-Gay-1341","LaMarcus-Aldridge-1349","Cody-Zeller-16836","Tim-Hardaway-Jr.-16879","Pascal-Siakam-35186","Noah-Vonleh-18597","49500","281.45"
"Kyle-Lowry-1057","Nicolas-Batum-1315","Rudy-Gay-1341","Noah-Vonleh-18597","Cody-Zeller-16836","Khris-Middleton-13990","Tim-Hardaway-Jr.-16879","LaMarcus-Aldridge-1349","48500","281.45"
"Kemba-Walker-13335","Jeremy-Lamb-13955","Rudy-Gay-1341","LaMarcus-Aldridge-1349","Cody-Zeller-16836","Tim-Hardaway-Jr.-16879","Pascal-Siakam-35186","Noah-Vonleh-18597","50000","281.44"
"Kemba-Walker-13335","Nicolas-Batum-1315","Jeremy-Lamb-13955","Noah-Vonleh-18597","Cody-Zeller-16836","Tim-Hardaway-Jr.-16879","LaMarcus-Aldridge-1349","Rudy-Gay-1341","49000","281.44"
"Donovan-Mitchell-37875","Tim-Hardaway-Jr.-16879","Khris-Middleton-13990","Noah-Vonleh-18597","Cody-Zeller-16836","Kyle-Lowry-1057","LaMarcus-Aldridge-1349","Brook-Lopez-1498","49900","281.43"
"Kyle-Lowry-1057","Nicolas-Batum-1315","Rudy-Gay-1341","Noah-Vonleh-18597","Cody-Zeller-16836","Fred-VanVleet-36011","Tim-Hardaway-Jr.-16879","Giannis-Antetokounmpo-16852","50000","281.42"
"Kyle-Lowry-1057","Eric-Bledsoe-1031","Rudy-Gay-1341","Serge-Ibaka-1294","Cody-Zeller-16836","Tim-Hardaway-Jr.-16879","LaMarcus-Aldridge-1349","Noah-Vonleh-18597","49800","281.41"
