"Lonzo-Ball-37885","Tomas-Satoransky--36031","Aaron-Gordon-18601","Julius-Randle-18632","Nikola-Jokic-31812","Dennis-Schroder-18595","Dewayne-Dedmon-16894","Jamal-Murray-35211","50000","317.92"
"Josh-Hart-37889","Tomas-Satoransky--36031","Aaron-Gordon-18601","Julius-Randle-18632","Nikola-Jokic-31812","Dennis-Schroder-18595","Dewayne-Dedmon-16894","Nikola-Vucevic-13296","49900","317.48"
"Tomas-Satoransky--36031","Jamal-Murray-35211","Jeff-Green-1314","Julius-Randle-18632","Nikola-Jokic-31812","Dennis-Schroder-18595","Dewayne-Dedmon-16894","Nikola-Vucevic-13296","49900","317.2"
"Tomas-Satoransky--36031","Jamal-Murray-35211","Trevor-Ariza-1323","Aaron-Gordon-18601","Nikola-Jokic-31812","Dennis-Schroder-18595","Dewayne-Dedmon-16894","Nikola-Vucevic-13296","50000","316.43"
"Fred-VanVleet-36011","Tomas-Satoransky--36031","Aaron-Gordon-18601","Jeff-Green-1314","Nikola-Vucevic-13296","Dennis-Schroder-18595","Julius-Randle-18632","Nikola-Jokic-31812","49900","316.42"

"Lonzo-Ball-37885","Tomas-Satoransky--36031","Aaron-Gordon-18601","Julius-Randle-18632","Nikola-Jokic-31812","Dennis-Schroder-18595","Dewayne-Dedmon-16894","Jamal-Murray-35211","50000","317.92"
"Josh-Hart-37889","Tomas-Satoransky--36031","Aaron-Gordon-18601","Julius-Randle-18632","Nikola-Jokic-31812","Dennis-Schroder-18595","Dewayne-Dedmon-16894","Nikola-Vucevic-13296","49900","317.48"
"Tomas-Satoransky--36031","Jamal-Murray-35211","Jeff-Green-1314","Julius-Randle-18632","Nikola-Jokic-31812","Dennis-Schroder-18595","Dewayne-Dedmon-16894","Nikola-Vucevic-13296","49900","317.2"
"Tomas-Satoransky--36031","Jamal-Murray-35211","Trevor-Ariza-1323","Aaron-Gordon-18601","Nikola-Jokic-31812","Dennis-Schroder-18595","Dewayne-Dedmon-16894","Nikola-Vucevic-13296","50000","316.43"
"Fred-VanVleet-36011","Tomas-Satoransky--36031","Aaron-Gordon-18601","Jeff-Green-1314","Nikola-Vucevic-13296","Dennis-Schroder-18595","Julius-Randle-18632","Nikola-Jokic-31812","49900","316.42"
"Tomas-Satoransky--36031","Jamal-Murray-35211","Andrew-Wiggins-18620","Julius-Randle-18632","Nikola-Jokic-31812","Dennis-Schroder-18595","Dewayne-Dedmon-16894","Aaron-Gordon-18601","49900","316.32"
"Tomas-Satoransky--36031","Jamal-Murray-35211","Aaron-Gordon-18601","Dewayne-Dedmon-16894","Nikola-Jokic-31812","Dennis-Schroder-18595","Evan-Fournier-13913","Nikola-Vucevic-13296","49800","316.09"
"Tomas-Satoransky--36031","Jamal-Murray-35211","Aaron-Gordon-18601","Serge-Ibaka-1294","Nikola-Jokic-31812","Dennis-Schroder-18595","Julius-Randle-18632","Dewayne-Dedmon-16894","49800","315.94"
"Fred-VanVleet-36011","Tomas-Satoransky--36031","Aaron-Gordon-18601","Julius-Randle-18632","Nikola-Jokic-31812","Dennis-Schroder-18595","Dewayne-Dedmon-16894","Jamal-Murray-35211","49700","315.93"
"Tomas-Satoransky--36031","Kevin-Huerter-408969","Aaron-Gordon-18601","Julius-Randle-18632","Nikola-Jokic-31812","Dennis-Schroder-18595","Dewayne-Dedmon-16894","Nikola-Vucevic-13296","49900","315.92"
"Tomas-Satoransky--36031","Evan-Fournier-13913","Aaron-Gordon-18601","Jeff-Green-1314","Nikola-Vucevic-13296","Dennis-Schroder-18595","Julius-Randle-18632","Nikola-Jokic-31812","49700","315.92"
"Tomas-Satoransky--36031","Evan-Fournier-13913","Danny-Green-940","Aaron-Gordon-18601","Nikola-Vucevic-13296","Dennis-Schroder-18595","Julius-Randle-18632","Nikola-Jokic-31812","50000","315.89"
"Lonzo-Ball-37885","Tomas-Satoransky--36031","Aaron-Gordon-18601","Julius-Randle-18632","Nikola-Jokic-31812","Dennis-Schroder-18595","Evan-Fournier-13913","Jamal-Murray-35211","49900","315.86"
"Tomas-Satoransky--36031","Jamal-Murray-35211","Aaron-Gordon-18601","Julius-Randle-18632","Nikola-Jokic-31812","Dennis-Schroder-18595","Channing-Frye-1484","Nikola-Vucevic-13296","49900","315.82"
"Tomas-Satoransky--36031","Jamal-Murray-35211","Trevor-Ariza-1323","Aaron-Gordon-18601","Nikola-Jokic-31812","Dennis-Schroder-18595","Dewayne-Dedmon-16894","Julius-Randle-18632","49700","315.77"
"Josh-Hart-37889","Tomas-Satoransky--36031","Trevor-Ariza-1323","Aaron-Gordon-18601","Nikola-Jokic-31812","Dennis-Schroder-18595","Julius-Randle-18632","Nikola-Vucevic-13296","50000","315.76"
"Tomas-Satoransky--36031","Jamal-Murray-35211","Trevor-Ariza-1323","Jeff-Green-1314","Nikola-Vucevic-13296","Dennis-Schroder-18595","Julius-Randle-18632","Nikola-Jokic-31812","50000","315.48"
"Lonzo-Ball-37885","Tomas-Satoransky--36031","Aaron-Gordon-18601","DeMarre-Carroll-1174","Nikola-Vucevic-13296","Dennis-Schroder-18595","Julius-Randle-18632","Nikola-Jokic-31812","49800","315.43"
"Tomas-Satoransky--36031","Jamal-Murray-35211","Aaron-Gordon-18601","Dewayne-Dedmon-16894","Nikola-Jokic-31812","Dennis-Schroder-18595","Evan-Fournier-13913","Julius-Randle-18632","49500","315.43"
"Josh-Hart-37889","Tomas-Satoransky--36031","Aaron-Gordon-18601","Julius-Randle-18632","Nikola-Jokic-31812","Dennis-Schroder-18595","Evan-Fournier-13913","Nikola-Vucevic-13296","49800","315.42"
"Tomas-Satoransky--36031","Evan-Fournier-13913","James-Johnson-1195","Aaron-Gordon-18601","Nikola-Jokic-31812","Dennis-Schroder-18595","Julius-Randle-18632","Nikola-Vucevic-13296","50000","315.22"
"Tomas-Satoransky--36031","Jamal-Murray-35211","Evan-Fournier-13913","Jeff-Green-1314","Nikola-Vucevic-13296","Dennis-Schroder-18595","Julius-Randle-18632","Nikola-Jokic-31812","49800","315.14"
"Tomas-Satoransky--36031","Jamal-Murray-35211","Kevin-Huerter-408969","Julius-Randle-18632","Nikola-Vucevic-13296","Dennis-Schroder-18595","Dewayne-Dedmon-16894","Nikola-Jokic-31812","50000","315.14"
"Tomas-Satoransky--36031","Evan-Fournier-13913","Aaron-Gordon-18601","Julius-Randle-18632","Nikola-Jokic-31812","Dennis-Schroder-18595","Josh-Jackson-37890","Nikola-Vucevic-13296","50000","314.83"
"Tomas-Satoransky--36031","Jamal-Murray-35211","Aaron-Gordon-18601","Julius-Randle-18632","Dewayne-Dedmon-16894","Dennis-Schroder-18595","Rudy-Gay-1341","Nikola-Jokic-31812","49800","314.79"
"Fred-VanVleet-36011","Tomas-Satoransky--36031","Aaron-Gordon-18601","Julius-Randle-18632","Nikola-Jokic-31812","Dennis-Schroder-18595","Andrew-Wiggins-18620","Jamal-Murray-35211","50000","314.76"
"Tomas-Satoransky--36031","Jamal-Murray-35211","Trevor-Ariza-1323","Julius-Randle-18632","Nikola-Jokic-31812","Dennis-Schroder-18595","Andrew-Wiggins-18620","Aaron-Gordon-18601","50000","314.6"
"Tomas-Satoransky--36031","Jamal-Murray-35211","Aaron-Gordon-18601","Serge-Ibaka-1294","Nikola-Jokic-31812","Dennis-Schroder-18595","Evan-Fournier-13913","Nikola-Vucevic-13296","50000","314.54"
"Lonzo-Ball-37885","Tomas-Satoransky--36031","Jeff-Green-1314","Julius-Randle-18632","Nikola-Jokic-31812","Dennis-Schroder-18595","Dewayne-Dedmon-16894","Nikola-Vucevic-13296","49200","314.5"
"Lonzo-Ball-37885","Tomas-Satoransky--36031","Danny-Green-940","Julius-Randle-18632","Nikola-Vucevic-13296","Dennis-Schroder-18595","Dewayne-Dedmon-16894","Nikola-Jokic-31812","49500","314.47"
"Fred-VanVleet-36011","Tomas-Satoransky--36031","Aaron-Gordon-18601","Serge-Ibaka-1294","Nikola-Jokic-31812","Dennis-Schroder-18595","Julius-Randle-18632","Jamal-Murray-35211","49900","314.38"
"Tomas-Satoransky--36031","Jamal-Murray-35211","Trevor-Ariza-1323","Aaron-Gordon-18601","Nikola-Jokic-31812","Dennis-Schroder-18595","Evan-Fournier-13913","Nikola-Vucevic-13296","49900","314.37"
"Fred-VanVleet-36011","Tomas-Satoransky--36031","Aaron-Gordon-18601","Julius-Randle-18632","Nikola-Vucevic-13296","Dennis-Schroder-18595","Kevin-Huerter-408969","Nikola-Jokic-31812","50000","314.36"
"Lonzo-Ball-37885","Tomas-Satoransky--36031","Aaron-Gordon-18601","Dewayne-Dedmon-16894","Nikola-Vucevic-13296","Dennis-Schroder-18595","Andrew-Wiggins-18620","Nikola-Jokic-31812","49500","314.28"
"Tomas-Satoransky--36031","Jamal-Murray-35211","Evan-Fournier-13913","Aaron-Gordon-18601","Nikola-Jokic-31812","Dennis-Schroder-18595","Andrew-Wiggins-18620","Julius-Randle-18632","49800","314.26"
"Tomas-Satoransky--36031","Jamal-Murray-35211","DeMarre-Carroll-1174","Julius-Randle-18632","Nikola-Vucevic-13296","Dennis-Schroder-18595","Dewayne-Dedmon-16894","Nikola-Jokic-31812","49500","314.22"
"Tomas-Satoransky--36031","Jamal-Murray-35211","Aaron-Gordon-18601","Serge-Ibaka-1294","Nikola-Jokic-31812","Dennis-Schroder-18595","Julius-Randle-18632","Trevor-Ariza-1323","49900","314.22"
"Fred-VanVleet-36011","Tomas-Satoransky--36031","Trevor-Ariza-1323","Aaron-Gordon-18601","Nikola-Jokic-31812","Dennis-Schroder-18595","Julius-Randle-18632","Jamal-Murray-35211","49800","314.21"
"Tomas-Satoransky--36031","Kevin-Huerter-408969","Trevor-Ariza-1323","Aaron-Gordon-18601","Nikola-Jokic-31812","Dennis-Schroder-18595","Julius-Randle-18632","Nikola-Vucevic-13296","50000","314.2"
"Tomas-Satoransky--36031","E'Twaun-Moore-18582","Aaron-Gordon-18601","Julius-Randle-18632","Nikola-Jokic-31812","Dennis-Schroder-18595","Dewayne-Dedmon-16894","Nikola-Vucevic-13296","49700","314.03"
"Tomas-Satoransky--36031","Jamal-Murray-35211","Aaron-Gordon-18601","Mason-Plumlee-16798","Nikola-Vucevic-13296","Dennis-Schroder-18595","Dewayne-Dedmon-16894","Nikola-Jokic-31812","49600","313.97"
"Fred-VanVleet-36011","Tomas-Satoransky--36031","Evan-Fournier-13913","Mason-Plumlee-16798","Nikola-Vucevic-13296","Dennis-Schroder-18595","Julius-Randle-18632","Nikola-Jokic-31812","49900","313.92"
"Lonzo-Ball-37885","Tomas-Satoransky--36031","Aaron-Gordon-18601","Serge-Ibaka-1294","Nikola-Vucevic-13296","Dennis-Schroder-18595","Dewayne-Dedmon-16894","Nikola-Jokic-31812","49400","313.9"
"Tomas-Satoransky--36031","Jamal-Murray-35211","Aaron-Gordon-18601","Serge-Ibaka-1294","Nikola-Jokic-31812","Dennis-Schroder-18595","Evan-Fournier-13913","Julius-Randle-18632","49700","313.88"
"Fred-VanVleet-36011","Tomas-Satoransky--36031","Aaron-Gordon-18601","Julius-Randle-18632","Nikola-Jokic-31812","Dennis-Schroder-18595","Evan-Fournier-13913","Jamal-Murray-35211","49600","313.87"
"Tomas-Satoransky--36031","Evan-Fournier-13913","Aaron-Gordon-18601","Julius-Randle-18632","Nikola-Vucevic-13296","Dennis-Schroder-18595","Kevin-Huerter-408969","Nikola-Jokic-31812","49800","313.86"
"Tomas-Satoransky--36031","Andrew-Wiggins-18620","Aaron-Gordon-18601","DeMarre-Carroll-1174","Nikola-Vucevic-13296","Dennis-Schroder-18595","Julius-Randle-18632","Nikola-Jokic-31812","49700","313.83"
"Lonzo-Ball-37885","Tomas-Satoransky--36031","James-Johnson-1195","Julius-Randle-18632","Nikola-Vucevic-13296","Dennis-Schroder-18595","Dewayne-Dedmon-16894","Nikola-Jokic-31812","49500","313.8"
"Lonzo-Ball-37885","Tomas-Satoransky--36031","Aaron-Gordon-18601","Julius-Randle-18632","Nikola-Jokic-31812","Dennis-Schroder-18595","Tyreke-Evans-1070","Nikola-Vucevic-13296","49900","313.79"
"Tomas-Satoransky--36031","Danny-Green-940","Aaron-Gordon-18601","Mason-Plumlee-16798","Nikola-Jokic-31812","Dennis-Schroder-18595","Julius-Randle-18632","Nikola-Vucevic-13296","49800","313.77"
"Tomas-Satoransky--36031","Evan-Fournier-13913","Trevor-Ariza-1323","Mason-Plumlee-16798","Nikola-Jokic-31812","Dennis-Schroder-18595","Julius-Randle-18632","Nikola-Vucevic-13296","49900","313.76"
"Lonzo-Ball-37885","Tomas-Satoransky--36031","Aaron-Gordon-18601","Mason-Plumlee-16798","Nikola-Jokic-31812","Dennis-Schroder-18595","Julius-Randle-18632","Jamal-Murray-35211","49700","313.74"
"Lonzo-Ball-37885","Tomas-Satoransky--36031","Trevor-Ariza-1323","Aaron-Gordon-18601","Nikola-Jokic-31812","Dennis-Schroder-18595","Dewayne-Dedmon-16894","Nikola-Vucevic-13296","49300","313.73"
"Tomas-Satoransky--36031","Jamal-Murray-35211","Trevor-Ariza-1323","Aaron-Gordon-18601","Julius-Randle-18632","Dennis-Schroder-18595","Evan-Fournier-13913","Nikola-Jokic-31812","49600","313.71"
"Lonzo-Ball-37885","Tomas-Satoransky--36031","Andrew-Wiggins-18620","Julius-Randle-18632","Nikola-Jokic-31812","Dennis-Schroder-18595","Dewayne-Dedmon-16894","Aaron-Gordon-18601","49200","313.62"
"Lonzo-Ball-37885","Tomas-Satoransky--36031","Aaron-Gordon-18601","Davis-Bertans-36051","Nikola-Vucevic-13296","Dennis-Schroder-18595","Julius-Randle-18632","Nikola-Jokic-31812","49600","313.56"
"Lonzo-Ball-37885","Tomas-Satoransky--36031","Kelly-Oubre-18925","Julius-Randle-18632","Nikola-Vucevic-13296","Dennis-Schroder-18595","Dewayne-Dedmon-16894","Nikola-Jokic-31812","49700","313.49"
"Fred-VanVleet-36011","Tomas-Satoransky--36031","Aaron-Gordon-18601","DeMarre-Carroll-1174","Nikola-Vucevic-13296","Dennis-Schroder-18595","Julius-Randle-18632","Nikola-Jokic-31812","49500","313.44"
"Lonzo-Ball-37885","Tomas-Satoransky--36031","Josh-Jackson-37890","Julius-Randle-18632","Nikola-Vucevic-13296","Dennis-Schroder-18595","Dewayne-Dedmon-16894","Nikola-Jokic-31812","49500","313.41"
"Tomas-Satoransky--36031","Jamal-Murray-35211","Aaron-Gordon-18601","Rudy-Gay-1341","Nikola-Jokic-31812","Dennis-Schroder-18595","Evan-Fournier-13913","Nikola-Vucevic-13296","50000","313.39"
"Lonzo-Ball-37885","Tomas-Satoransky--36031","Aaron-Gordon-18601","Dewayne-Dedmon-16894","Nikola-Jokic-31812","Dennis-Schroder-18595","Evan-Fournier-13913","Nikola-Vucevic-13296","49100","313.39"
"Tomas-Satoransky--36031","Tyreke-Evans-1070","Aaron-Gordon-18601","Julius-Randle-18632","Nikola-Jokic-31812","Dennis-Schroder-18595","Dewayne-Dedmon-16894","Nikola-Vucevic-13296","49500","313.36"
"Lonzo-Ball-37885","Tomas-Satoransky--36031","Jeff-Green-1314","Julius-Randle-18632","Nikola-Vucevic-13296","Dennis-Schroder-18595","Andrew-Wiggins-18620","Nikola-Jokic-31812","49500","313.33"
"Tomas-Satoransky--36031","Jamal-Murray-35211","Aaron-Gordon-18601","Mason-Plumlee-16798","Dewayne-Dedmon-16894","Dennis-Schroder-18595","Julius-Randle-18632","Nikola-Jokic-31812","49300","313.31"
"Lonzo-Ball-37885","Tomas-Satoransky--36031","Danny-Green-940","Julius-Randle-18632","Nikola-Vucevic-13296","Dennis-Schroder-18595","Andrew-Wiggins-18620","Nikola-Jokic-31812","49800","313.3"
"Josh-Hart-37889","Tomas-Satoransky--36031","Aaron-Gordon-18601","Mason-Plumlee-16798","Nikola-Jokic-31812","Dennis-Schroder-18595","Julius-Randle-18632","Nikola-Vucevic-13296","49600","313.3"
"Tomas-Satoransky--36031","Jamal-Murray-35211","E'Twaun-Moore-18582","Julius-Randle-18632","Nikola-Jokic-31812","Dennis-Schroder-18595","Dewayne-Dedmon-16894","Nikola-Vucevic-13296","49800","313.25"
"Lonzo-Ball-37885","Tomas-Satoransky--36031","Aaron-Gordon-18601","Serge-Ibaka-1294","Nikola-Jokic-31812","Dennis-Schroder-18595","Julius-Randle-18632","Dewayne-Dedmon-16894","49100","313.24"
"Tomas-Satoransky--36031","Jamal-Murray-35211","Aaron-Gordon-18601","Serge-Ibaka-1294","Julius-Randle-18632","Dennis-Schroder-18595","Rudy-Gay-1341","Nikola-Jokic-31812","50000","313.24"
"Fred-VanVleet-36011","Tomas-Satoransky--36031","Aaron-Gordon-18601","Julius-Randle-18632","Nikola-Jokic-31812","Dennis-Schroder-18595","Rudy-Gay-1341","Jamal-Murray-35211","49900","313.23"
"Fred-VanVleet-36011","Tomas-Satoransky--36031","Aaron-Gordon-18601","Julius-Randle-18632","Nikola-Jokic-31812","Lonzo-Ball-37885","Dewayne-Dedmon-16894","Dennis-Schroder-18595","49000","313.23"
"Lonzo-Ball-37885","Tomas-Satoransky--36031","Aaron-Gordon-18601","Julius-Randle-18632","Nikola-Jokic-31812","Dennis-Schroder-18595","Channing-Frye-1484","Nikola-Vucevic-13296","49200","313.12"
"Tomas-Satoransky--36031","Jamal-Murray-35211","Kevin-Huerter-408969","Julius-Randle-18632","Nikola-Jokic-31812","Dennis-Schroder-18595","Evan-Fournier-13913","Nikola-Vucevic-13296","49900","313.08"
"Lonzo-Ball-37885","Tomas-Satoransky--36031","Trevor-Ariza-1323","Aaron-Gordon-18601","Nikola-Jokic-31812","Dennis-Schroder-18595","Dewayne-Dedmon-16894","Julius-Randle-18632","49000","313.07"
"Tomas-Satoransky--36031","Jamal-Murray-35211","Trevor-Ariza-1323","Julius-Randle-18632","Nikola-Jokic-31812","Dennis-Schroder-18595","Rudy-Gay-1341","Aaron-Gordon-18601","49900","313.07"
"Tomas-Satoransky--36031","Jamal-Murray-35211","DeMarre-Carroll-1174","Julius-Randle-18632","Nikola-Vucevic-13296","Dennis-Schroder-18595","Andrew-Wiggins-18620","Nikola-Jokic-31812","49800","313.05"
"Patrick-Beverley-14108","Tomas-Satoransky--36031","Aaron-Gordon-18601","Julius-Randle-18632","Nikola-Jokic-31812","Dennis-Schroder-18595","Dewayne-Dedmon-16894","Nikola-Vucevic-13296","49500","313.05"
"Tomas-Satoransky--36031","Jamal-Murray-35211","Jeff-Green-1314","Mason-Plumlee-16798","Nikola-Vucevic-13296","Dennis-Schroder-18595","Julius-Randle-18632","Nikola-Jokic-31812","49600","313.02"
"Tomas-Satoransky--36031","Jamal-Murray-35211","Danny-Green-940","Mason-Plumlee-16798","Nikola-Jokic-31812","Dennis-Schroder-18595","Julius-Randle-18632","Nikola-Vucevic-13296","49900","312.99"
"Lonzo-Ball-37885","Tomas-Satoransky--36031","Jeff-Green-1314","Serge-Ibaka-1294","Nikola-Vucevic-13296","Dennis-Schroder-18595","Julius-Randle-18632","Nikola-Jokic-31812","49400","312.95"
"Tomas-Satoransky--36031","Evan-Fournier-13913","Aaron-Gordon-18601","DeMarre-Carroll-1174","Nikola-Vucevic-13296","Dennis-Schroder-18595","Julius-Randle-18632","Nikola-Jokic-31812","49300","312.94"
"Josh-Hart-37889","Evan-Fournier-13913","Aaron-Gordon-18601","Julius-Randle-18632","Nikola-Jokic-31812","Tomas-Satoransky--36031","Dewayne-Dedmon-16894","Nikola-Vucevic-13296","50000","312.94"
"Lonzo-Ball-37885","Tomas-Satoransky--36031","Danny-Green-940","Serge-Ibaka-1294","Nikola-Vucevic-13296","Dennis-Schroder-18595","Julius-Randle-18632","Nikola-Jokic-31812","49700","312.92"
"Tomas-Satoransky--36031","Andrew-Wiggins-18620","Jeff-Green-1314","Julius-Randle-18632","Nikola-Jokic-31812","Dennis-Schroder-18595","Dewayne-Dedmon-16894","Nikola-Vucevic-13296","49100","312.9"
"Tomas-Satoransky--36031","Andrew-Wiggins-18620","Danny-Green-940","Julius-Randle-18632","Nikola-Vucevic-13296","Dennis-Schroder-18595","Dewayne-Dedmon-16894","Nikola-Jokic-31812","49400","312.87"
"Tomas-Satoransky--36031","Andrew-Wiggins-18620","E'Twaun-Moore-18582","Aaron-Gordon-18601","Nikola-Jokic-31812","Dennis-Schroder-18595","Julius-Randle-18632","Nikola-Vucevic-13296","50000","312.86"
"Lonzo-Ball-37885","Tomas-Satoransky--36031","Andrew-Wiggins-18620","Julius-Randle-18632","Nikola-Jokic-31812","Dennis-Schroder-18595","Dewayne-Dedmon-16894","Jamal-Murray-35211","49300","312.84"
"Tomas-Satoransky--36031","Jamal-Murray-35211","Aaron-Gordon-18601","Mason-Plumlee-16798","Nikola-Vucevic-13296","Dennis-Schroder-18595","Andrew-Wiggins-18620","Nikola-Jokic-31812","49900","312.8"
"Tomas-Satoransky--36031","Kelly-Oubre-18925","Aaron-Gordon-18601","Mason-Plumlee-16798","Nikola-Jokic-31812","Dennis-Schroder-18595","Julius-Randle-18632","Nikola-Vucevic-13296","50000","312.79"
"Tomas-Satoransky--36031","Evan-Fournier-13913","Rudy-Gay-1341","Mason-Plumlee-16798","Nikola-Vucevic-13296","Dennis-Schroder-18595","Julius-Randle-18632","Nikola-Jokic-31812","50000","312.78"
"Lonzo-Ball-37885","Tomas-Satoransky--36031","Trevor-Ariza-1323","Jeff-Green-1314","Nikola-Vucevic-13296","Dennis-Schroder-18595","Julius-Randle-18632","Nikola-Jokic-31812","49300","312.78"
"Lonzo-Ball-37885","Tomas-Satoransky--36031","Aaron-Gordon-18601","Dewayne-Dedmon-16894","Nikola-Vucevic-13296","Dennis-Schroder-18595","Rudy-Gay-1341","Nikola-Jokic-31812","49400","312.75"
"Lonzo-Ball-37885","Tomas-Satoransky--36031","Danny-Green-940","Trevor-Ariza-1323","Nikola-Vucevic-13296","Dennis-Schroder-18595","Julius-Randle-18632","Nikola-Jokic-31812","49600","312.75"
"Lonzo-Ball-37885","Tomas-Satoransky--36031","Aaron-Gordon-18601","Serge-Ibaka-1294","Nikola-Vucevic-13296","Dennis-Schroder-18595","Andrew-Wiggins-18620","Nikola-Jokic-31812","49700","312.73"
"Tomas-Satoransky--36031","Jamal-Murray-35211","Aaron-Gordon-18601","Rudy-Gay-1341","Julius-Randle-18632","Dennis-Schroder-18595","Evan-Fournier-13913","Nikola-Jokic-31812","49700","312.73"
"Lonzo-Ball-37885","Tomas-Satoransky--36031","Aaron-Gordon-18601","Dewayne-Dedmon-16894","Nikola-Jokic-31812","Dennis-Schroder-18595","Evan-Fournier-13913","Julius-Randle-18632","48800","312.73"
"Tomas-Satoransky--36031","Jamal-Murray-35211","DeMarre-Carroll-1174","Serge-Ibaka-1294","Nikola-Vucevic-13296","Dennis-Schroder-18595","Julius-Randle-18632","Nikola-Jokic-31812","49700","312.67"
"Tomas-Satoransky--36031","Evan-Fournier-13913","Jeff-Green-1314","Julius-Randle-18632","Nikola-Jokic-31812","Jamal-Murray-35211","Dewayne-Dedmon-16894","Nikola-Vucevic-13296","50000","312.66"
"Lonzo-Ball-37885","Tomas-Satoransky--36031","Kentavious-Caldwell-Pope-16869","Aaron-Gordon-18601","Nikola-Vucevic-13296","Dennis-Schroder-18595","Julius-Randle-18632","Nikola-Jokic-31812","49900","312.64"
"Lonzo-Ball-37885","Tomas-Satoransky--36031","James-Johnson-1195","Julius-Randle-18632","Nikola-Jokic-31812","Dennis-Schroder-18595","Andrew-Wiggins-18620","Nikola-Vucevic-13296","49800","312.63"
