"Dennis-Schroder-18595","Patrick-Beverley-14108","Paul-George-1245","Dario-Saric-36004","Karl-Anthony-Towns-18937","Jeff-Teague-1005","Tobias-Harris-13332","Jerami-Grant-18576","49700","281.71"

"Dennis-Schroder-18595","Patrick-Beverley-14108","Paul-George-1245","Dario-Saric-36004","Karl-Anthony-Towns-18937","Jeff-Teague-1005","Tobias-Harris-13332","Jerami-Grant-18576","49700","281.71"
"Dennis-Schroder-18595","Andrew-Wiggins-18620","Paul-George-1245","Dario-Saric-36004","Karl-Anthony-Towns-18937","Patrick-Beverley-14108","Tobias-Harris-13332","Jerami-Grant-18576","49900","281.42"
"Russell-Westbrook-1083","Patrick-Beverley-14108","Josh-Jackson-37890","Dario-Saric-36004","Karl-Anthony-Towns-18937","De'Anthony-Melton-409081","Jerami-Grant-18576","Danilo-Gallinari-1329","49800","281.34"
"Russell-Westbrook-1083","Patrick-Beverley-14108","Robert-Covington-16874","Dario-Saric-36004","Karl-Anthony-Towns-18937","Jeff-Teague-1005","Jerami-Grant-18576","Josh-Jackson-37890","49900","281.1"
"Dennis-Schroder-18595","Patrick-Beverley-14108","Robert-Covington-16874","Dario-Saric-36004","Karl-Anthony-Towns-18937","Russell-Westbrook-1083","Jerami-Grant-18576","Josh-Jackson-37890","49500","280.95"
"Russell-Westbrook-1083","Patrick-Beverley-14108","Josh-Jackson-37890","Dario-Saric-36004","Karl-Anthony-Towns-18937","Jeff-Teague-1005","Jerami-Grant-18576","De'Anthony-Melton-409081","49700","280.53"
"Dennis-Schroder-18595","Patrick-Beverley-14108","Josh-Jackson-37890","Dario-Saric-36004","Karl-Anthony-Towns-18937","Russell-Westbrook-1083","Jerami-Grant-18576","Derrick-Rose-1086","50000","280.41"
"Dennis-Schroder-18595","Patrick-Beverley-14108","Josh-Jackson-37890","Dario-Saric-36004","Karl-Anthony-Towns-18937","Russell-Westbrook-1083","Jerami-Grant-18576","De'Anthony-Melton-409081","49300","280.38"
"Russell-Westbrook-1083","Andrew-Wiggins-18620","Josh-Jackson-37890","Dario-Saric-36004","Karl-Anthony-Towns-18937","Patrick-Beverley-14108","Jerami-Grant-18576","De'Anthony-Melton-409081","49900","280.24"
"Dennis-Schroder-18595","Patrick-Beverley-14108","Mikal-Bridges-408842","Josh-Jackson-37890","Karl-Anthony-Towns-18937","Russell-Westbrook-1083","Dario-Saric-36004","Jeff-Teague-1005","50000","279.75"
"Russell-Westbrook-1083","Patrick-Beverley-14108","Josh-Jackson-37890","Dario-Saric-36004","Karl-Anthony-Towns-18937","De'Anthony-Melton-409081","Jerami-Grant-18576","Steven-Adams-16848","50000","279.47"
"Dennis-Schroder-18595","Patrick-Beverley-14108","Mikal-Bridges-408842","Danilo-Gallinari-1329","Karl-Anthony-Towns-18937","Russell-Westbrook-1083","Jerami-Grant-18576","Josh-Jackson-37890","49800","279.47"
"Russell-Westbrook-1083","Mikal-Bridges-408842","Tobias-Harris-13332","Dario-Saric-36004","Karl-Anthony-Towns-18937","Patrick-Beverley-14108","Jerami-Grant-18576","Danilo-Gallinari-1329","49700","279.39"
"Dennis-Schroder-18595","Patrick-Beverley-14108","Paul-George-1245","Josh-Jackson-37890","Karl-Anthony-Towns-18937","De'Anthony-Melton-409081","Dario-Saric-36004","Danilo-Gallinari-1329","49700","279.33"
"Dennis-Schroder-18595","Patrick-Beverley-14108","Paul-George-1245","Josh-Jackson-37890","Karl-Anthony-Towns-18937","Jeff-Teague-1005","Dario-Saric-36004","Robert-Covington-16874","49800","279.09"
"Russell-Westbrook-1083","Patrick-Beverley-14108","Mikal-Bridges-408842","Tobias-Harris-13332","Karl-Anthony-Towns-18937","De'Anthony-Melton-409081","Jerami-Grant-18576","Josh-Jackson-37890","50000","279.08"
"Dennis-Schroder-18595","Patrick-Beverley-14108","Robert-Covington-16874","Danilo-Gallinari-1329","Karl-Anthony-Towns-18937","Jeff-Teague-1005","Tobias-Harris-13332","Josh-Jackson-37890","49700","278.95"
"Dennis-Schroder-18595","Andrew-Wiggins-18620","Paul-George-1245","Josh-Jackson-37890","Karl-Anthony-Towns-18937","Patrick-Beverley-14108","Dario-Saric-36004","Robert-Covington-16874","50000","278.8"
"Dennis-Schroder-18595","Patrick-Beverley-14108","Josh-Jackson-37890","Richaun-Holmes-18905","Karl-Anthony-Towns-18937","Russell-Westbrook-1083","Jerami-Grant-18576","Jeff-Teague-1005","50000","278.8"
"Russell-Westbrook-1083","Patrick-Beverley-14108","Tobias-Harris-13332","Dario-Saric-36004","Richaun-Holmes-18905","Jeff-Teague-1005","Jerami-Grant-18576","Karl-Anthony-Towns-18937","49900","278.72"
"Dennis-Schroder-18595","Andrew-Wiggins-18620","Robert-Covington-16874","Danilo-Gallinari-1329","Karl-Anthony-Towns-18937","Patrick-Beverley-14108","Tobias-Harris-13332","Josh-Jackson-37890","49900","278.66"
"Dennis-Schroder-18595","Patrick-Beverley-14108","Mikal-Bridges-408842","Josh-Jackson-37890","Karl-Anthony-Towns-18937","Russell-Westbrook-1083","Jerami-Grant-18576","Jeff-Teague-1005","49700","278.66"
"Dennis-Schroder-18595","Patrick-Beverley-14108","Danilo-Gallinari-1329","Josh-Jackson-37890","Karl-Anthony-Towns-18937","Russell-Westbrook-1083","Jerami-Grant-18576","Avery-Bradley-941","49800","278.64"
"Russell-Westbrook-1083","Patrick-Beverley-14108","Mikal-Bridges-408842","Dario-Saric-36004","Karl-Anthony-Towns-18937","Jeff-Teague-1005","Jerami-Grant-18576","Tobias-Harris-13332","49600","278.58"
"Dennis-Schroder-18595","Patrick-Beverley-14108","Tobias-Harris-13332","Dario-Saric-36004","Richaun-Holmes-18905","Russell-Westbrook-1083","Jerami-Grant-18576","Karl-Anthony-Towns-18937","49500","278.57"
"Russell-Westbrook-1083","Patrick-Beverley-14108","Tobias-Harris-13332","Dario-Saric-36004","Karl-Anthony-Towns-18937","Avery-Bradley-941","Jerami-Grant-18576","Danilo-Gallinari-1329","49700","278.56"
"Dennis-Schroder-18595","Patrick-Beverley-14108","Paul-George-1245","Josh-Jackson-37890","Karl-Anthony-Towns-18937","Jeff-Teague-1005","Dario-Saric-36004","De'Anthony-Melton-409081","49600","278.52"
"Dennis-Schroder-18595","Patrick-Beverley-14108","Josh-Jackson-37890","Dario-Saric-36004","Steven-Adams-16848","Russell-Westbrook-1083","Tobias-Harris-13332","Jeff-Teague-1005","50000","278.5"
"Dennis-Schroder-18595","Patrick-Beverley-14108","Mikal-Bridges-408842","Dario-Saric-36004","Karl-Anthony-Towns-18937","Russell-Westbrook-1083","Jerami-Grant-18576","Tobias-Harris-13332","49200","278.43"
"Patrick-Beverley-14108","De'Anthony-Melton-409081","Paul-George-1245","Josh-Jackson-37890","Karl-Anthony-Towns-18937","Jeff-Teague-1005","Jerami-Grant-18576","Danilo-Gallinari-1329","49800","278.39"
"Dennis-Schroder-18595","Patrick-Beverley-14108","Danilo-Gallinari-1329","Josh-Jackson-37890","Karl-Anthony-Towns-18937","Jeff-Teague-1005","Tobias-Harris-13332","De'Anthony-Melton-409081","49500","278.38"
"Dennis-Schroder-18595","Patrick-Beverley-14108","Andrew-Wiggins-18620","Jerami-Grant-18576","Karl-Anthony-Towns-18937","Russell-Westbrook-1083","Mikal-Bridges-408842","Josh-Jackson-37890","49900","278.37"
"Dennis-Schroder-18595","Patrick-Beverley-14108","Paul-George-1245","Josh-Jackson-37890","Steven-Adams-16848","Russell-Westbrook-1083","Dario-Saric-36004","Jerami-Grant-18576","49900","278.36"
"Russell-Westbrook-1083","Andrew-Wiggins-18620","Mikal-Bridges-408842","Dario-Saric-36004","Karl-Anthony-Towns-18937","Patrick-Beverley-14108","Jerami-Grant-18576","Tobias-Harris-13332","49800","278.29"
"Russell-Westbrook-1083","Patrick-Beverley-14108","Josh-Jackson-37890","Tobias-Harris-13332","Karl-Anthony-Towns-18937","Avery-Bradley-941","Jerami-Grant-18576","De'Anthony-Melton-409081","50000","278.25"
"Dennis-Schroder-18595","Patrick-Beverley-14108","Paul-George-1245","Josh-Jackson-37890","Karl-Anthony-Towns-18937","De'Anthony-Melton-409081","Jerami-Grant-18576","Danilo-Gallinari-1329","49400","278.24"
"Dennis-Schroder-18595","Andrew-Wiggins-18620","Paul-George-1245","Josh-Jackson-37890","Karl-Anthony-Towns-18937","Patrick-Beverley-14108","Dario-Saric-36004","De'Anthony-Melton-409081","49800","278.23"
"Dennis-Schroder-18595","Patrick-Beverley-14108","Danilo-Gallinari-1329","Josh-Jackson-37890","Steven-Adams-16848","Russell-Westbrook-1083","Tobias-Harris-13332","Jerami-Grant-18576","49800","278.22"
"Russell-Westbrook-1083","Patrick-Beverley-14108","Robert-Covington-16874","Dario-Saric-36004","Karl-Anthony-Towns-18937","De'Anthony-Melton-409081","Jerami-Grant-18576","Danilo-Gallinari-1329","49800","278.19"
"Patrick-Beverley-14108","Andrew-Wiggins-18620","Paul-George-1245","Josh-Jackson-37890","Karl-Anthony-Towns-18937","De'Anthony-Melton-409081","Jerami-Grant-18576","Danilo-Gallinari-1329","50000","278.1"
"Dennis-Schroder-18595","Patrick-Beverley-14108","Andrew-Wiggins-18620","Danilo-Gallinari-1329","Karl-Anthony-Towns-18937","De'Anthony-Melton-409081","Tobias-Harris-13332","Josh-Jackson-37890","49700","278.09"
"Dennis-Schroder-18595","Patrick-Beverley-14108","Paul-George-1245","Robert-Covington-16874","Karl-Anthony-Towns-18937","Jeff-Teague-1005","Jerami-Grant-18576","Josh-Jackson-37890","49500","278.0"
"Dennis-Schroder-18595","De'Anthony-Melton-409081","Paul-George-1245","Josh-Jackson-37890","Karl-Anthony-Towns-18937","Jeff-Teague-1005","Dario-Saric-36004","Jerami-Grant-18576","49900","277.99"
"Dennis-Schroder-18595","De'Anthony-Melton-409081","Josh-Jackson-37890","Tobias-Harris-13332","Karl-Anthony-Towns-18937","Jeff-Teague-1005","Jerami-Grant-18576","Danilo-Gallinari-1329","49800","277.85"
"Dennis-Schroder-18595","Patrick-Beverley-14108","Andrew-Wiggins-18620","Robert-Covington-16874","Karl-Anthony-Towns-18937","Jeff-Teague-1005","Tobias-Harris-13332","Josh-Jackson-37890","49800","277.85"
"Russell-Westbrook-1083","Mikal-Bridges-408842","Josh-Jackson-37890","Dario-Saric-36004","Karl-Anthony-Towns-18937","Patrick-Beverley-14108","Tobias-Harris-13332","Jerami-Grant-18576","48900","277.79"
"Russell-Westbrook-1083","Patrick-Beverley-14108","Tobias-Harris-13332","Dario-Saric-36004","Karl-Anthony-Towns-18937","Avery-Bradley-941","Jerami-Grant-18576","Jeff-Teague-1005","49600","277.75"
"Dennis-Schroder-18595","Patrick-Beverley-14108","Paul-George-1245","Dario-Saric-36004","Karl-Anthony-Towns-18937","Jeff-Teague-1005","Jerami-Grant-18576","Danilo-Gallinari-1329","49000","277.74"
"Dennis-Schroder-18595","Andrew-Wiggins-18620","Paul-George-1245","Robert-Covington-16874","Karl-Anthony-Towns-18937","Patrick-Beverley-14108","Jerami-Grant-18576","Josh-Jackson-37890","49700","277.71"
"Russell-Westbrook-1083","Mikal-Bridges-408842","TJ-Warren-18634","Dario-Saric-36004","Karl-Anthony-Towns-18937","Patrick-Beverley-14108","Jerami-Grant-18576","Tobias-Harris-13332","50000","277.67"
"Dennis-Schroder-18595","Patrick-Beverley-14108","Paul-George-1245","Josh-Jackson-37890","Karl-Anthony-Towns-18937","De'Anthony-Melton-409081","Dario-Saric-36004","TJ-Warren-18634","50000","277.61"
"Patrick-Beverley-14108","Andrew-Wiggins-18620","Paul-George-1245","Dario-Saric-36004","Karl-Anthony-Towns-18937","Jeff-Teague-1005","Jerami-Grant-18576","Danilo-Gallinari-1329","49600","277.6"
"Dennis-Schroder-18595","Patrick-Beverley-14108","Mikal-Bridges-408842","Josh-Jackson-37890","Steven-Adams-16848","Russell-Westbrook-1083","Jerami-Grant-18576","Karl-Anthony-Towns-18937","50000","277.6"
"Dennis-Schroder-18595","Patrick-Beverley-14108","Tobias-Harris-13332","Dario-Saric-36004","Karl-Anthony-Towns-18937","Russell-Westbrook-1083","Jerami-Grant-18576","Avery-Bradley-941","49200","277.6"
"Dennis-Schroder-18595","Andrew-Wiggins-18620","Danilo-Gallinari-1329","Dario-Saric-36004","Karl-Anthony-Towns-18937","Patrick-Beverley-14108","Tobias-Harris-13332","Jeff-Teague-1005","49300","277.59"
"Dennis-Schroder-18595","Andrew-Wiggins-18620","Josh-Jackson-37890","Tobias-Harris-13332","Karl-Anthony-Towns-18937","De'Anthony-Melton-409081","Jerami-Grant-18576","Danilo-Gallinari-1329","50000","277.56"
"Dennis-Schroder-18595","Patrick-Beverley-14108","Andrew-Wiggins-18620","Josh-Jackson-37890","Karl-Anthony-Towns-18937","Russell-Westbrook-1083","Jerami-Grant-18576","Avery-Bradley-941","49900","277.54"
"Patrick-Beverley-14108","Mikal-Bridges-408842","Paul-George-1245","Danilo-Gallinari-1329","Karl-Anthony-Towns-18937","Jeff-Teague-1005","Tobias-Harris-13332","Dario-Saric-36004","50000","277.53"
"Russell-Westbrook-1083","Mikal-Bridges-408842","Tobias-Harris-13332","Dario-Saric-36004","Karl-Anthony-Towns-18937","Patrick-Beverley-14108","Jerami-Grant-18576","Steven-Adams-16848","49900","277.52"
"Dennis-Schroder-18595","Patrick-Beverley-14108","Danilo-Gallinari-1329","Josh-Jackson-37890","Karl-Anthony-Towns-18937","De'Anthony-Melton-409081","Tobias-Harris-13332","TJ-Warren-18634","49900","277.47"
"Dennis-Schroder-18595","Patrick-Beverley-14108","Paul-George-1245","Josh-Jackson-37890","Karl-Anthony-Towns-18937","De'Anthony-Melton-409081","Dario-Saric-36004","Steven-Adams-16848","49900","277.46"
"Dennis-Schroder-18595","Patrick-Beverley-14108","Paul-George-1245","Josh-Jackson-37890","Karl-Anthony-Towns-18937","Derrick-Rose-1086","Jerami-Grant-18576","Jeff-Teague-1005","50000","277.46"
"Russell-Westbrook-1083","Andrew-Wiggins-18620","Tobias-Harris-13332","Dario-Saric-36004","Karl-Anthony-Towns-18937","Patrick-Beverley-14108","Jerami-Grant-18576","Avery-Bradley-941","49800","277.46"
"Dennis-Schroder-18595","Andrew-Wiggins-18620","Paul-George-1245","Dario-Saric-36004","Karl-Anthony-Towns-18937","Patrick-Beverley-14108","Jerami-Grant-18576","Danilo-Gallinari-1329","49200","277.45"
"Dennis-Schroder-18595","Patrick-Beverley-14108","Paul-George-1245","Josh-Jackson-37890","Karl-Anthony-Towns-18937","Jeff-Teague-1005","Jerami-Grant-18576","De'Anthony-Melton-409081","49300","277.43"
"Dennis-Schroder-18595","Patrick-Beverley-14108","Josh-Jackson-37890","Tobias-Harris-13332","Steven-Adams-16848","Russell-Westbrook-1083","Jerami-Grant-18576","Jeff-Teague-1005","49700","277.41"
"Russell-Westbrook-1083","Patrick-Beverley-14108","Robert-Covington-16874","Dario-Saric-36004","Karl-Anthony-Towns-18937","Jeff-Teague-1005","Jerami-Grant-18576","De'Anthony-Melton-409081","49700","277.38"
"Patrick-Beverley-14108","Derrick-Rose-1086","Paul-George-1245","Dario-Saric-36004","Karl-Anthony-Towns-18937","Jeff-Teague-1005","Tobias-Harris-13332","Jerami-Grant-18576","49900","277.38"
"Dennis-Schroder-18595","Mikal-Bridges-408842","Paul-George-1245","Danilo-Gallinari-1329","Karl-Anthony-Towns-18937","Patrick-Beverley-14108","Tobias-Harris-13332","Dario-Saric-36004","49600","277.38"
"Patrick-Beverley-14108","De'Anthony-Melton-409081","Paul-George-1245","Dario-Saric-36004","Karl-Anthony-Towns-18937","Jeff-Teague-1005","Tobias-Harris-13332","Jerami-Grant-18576","49200","277.35"
"Dennis-Schroder-18595","Patrick-Beverley-14108","Danilo-Gallinari-1329","Josh-Jackson-37890","Steven-Adams-16848","De'Anthony-Melton-409081","Tobias-Harris-13332","Karl-Anthony-Towns-18937","49800","277.32"
"Patrick-Beverley-14108","De'Anthony-Melton-409081","Andrew-Wiggins-18620","Josh-Jackson-37890","Karl-Anthony-Towns-18937","Jeff-Teague-1005","Jerami-Grant-18576","Paul-George-1245","49900","277.29"
"Dennis-Schroder-18595","Patrick-Beverley-14108","Andrew-Wiggins-18620","Josh-Jackson-37890","Karl-Anthony-Towns-18937","Jeff-Teague-1005","Tobias-Harris-13332","De'Anthony-Melton-409081","49600","277.28"
"Dennis-Schroder-18595","Patrick-Beverley-14108","Robert-Covington-16874","Dario-Saric-36004","Karl-Anthony-Towns-18937","Russell-Westbrook-1083","Jerami-Grant-18576","Derrick-Rose-1086","50000","277.26"
"Dennis-Schroder-18595","Patrick-Beverley-14108","Paul-George-1245","Dario-Saric-36004","Karl-Anthony-Towns-18937","Derrick-Rose-1086","Tobias-Harris-13332","Jerami-Grant-18576","49500","277.23"
"Dennis-Schroder-18595","Patrick-Beverley-14108","TJ-Warren-18634","Robert-Covington-16874","Karl-Anthony-Towns-18937","Jeff-Teague-1005","Josh-Jackson-37890","Tobias-Harris-13332","50000","277.23"
"Dennis-Schroder-18595","Patrick-Beverley-14108","Robert-Covington-16874","Dario-Saric-36004","Karl-Anthony-Towns-18937","Russell-Westbrook-1083","Jerami-Grant-18576","De'Anthony-Melton-409081","49300","277.23"
"Dennis-Schroder-18595","Patrick-Beverley-14108","Paul-George-1245","Dario-Saric-36004","Karl-Anthony-Towns-18937","De'Anthony-Melton-409081","Tobias-Harris-13332","Jerami-Grant-18576","48800","277.2"
"Dennis-Schroder-18595","Patrick-Beverley-14108","Andrew-Wiggins-18620","Josh-Jackson-37890","Karl-Anthony-Towns-18937","De'Anthony-Melton-409081","Jerami-Grant-18576","Paul-George-1245","49500","277.14"
"Dennis-Schroder-18595","Patrick-Beverley-14108","Andrew-Wiggins-18620","Tobias-Harris-13332","Steven-Adams-16848","Russell-Westbrook-1083","Jerami-Grant-18576","Josh-Jackson-37890","49900","277.12"
"Dennis-Schroder-18595","Patrick-Beverley-14108","Josh-Jackson-37890","Dario-Saric-36004","Karl-Anthony-Towns-18937","Jeff-Teague-1005","Tobias-Harris-13332","Danilo-Gallinari-1329","48400","277.09"
"Russell-Westbrook-1083","Andrew-Wiggins-18620","Robert-Covington-16874","Dario-Saric-36004","Karl-Anthony-Towns-18937","Patrick-Beverley-14108","Jerami-Grant-18576","De'Anthony-Melton-409081","49900","277.09"
"Dennis-Schroder-18595","Patrick-Beverley-14108","Robert-Covington-16874","Josh-Jackson-37890","Karl-Anthony-Towns-18937","Jeff-Teague-1005","Tobias-Harris-13332","Steven-Adams-16848","49900","277.08"
"Dennis-Schroder-18595","Patrick-Beverley-14108","Paul-George-1245","Josh-Jackson-37890","Karl-Anthony-Towns-18937","De'Anthony-Melton-409081","Mikal-Bridges-408842","Tobias-Harris-13332","49900","277.07"
"Patrick-Beverley-14108","Andrew-Wiggins-18620","Paul-George-1245","Dario-Saric-36004","Karl-Anthony-Towns-18937","De'Anthony-Melton-409081","Tobias-Harris-13332","Jerami-Grant-18576","49400","277.06"
"Dennis-Schroder-18595","Andrew-Wiggins-18620","Tobias-Harris-13332","Dario-Saric-36004","Karl-Anthony-Towns-18937","Jeff-Teague-1005","Jerami-Grant-18576","Danilo-Gallinari-1329","49600","277.06"
"Dennis-Schroder-18595","Shai-Gilgeous-Alexander-408990","Paul-George-1245","Josh-Jackson-37890","Karl-Anthony-Towns-18937","Patrick-Beverley-14108","Tobias-Harris-13332","Jerami-Grant-18576","49800","277.04"
"Dennis-Schroder-18595","Patrick-Beverley-14108","TJ-Warren-18634","Danilo-Gallinari-1329","Karl-Anthony-Towns-18937","Jeff-Teague-1005","Dario-Saric-36004","Tobias-Harris-13332","49500","276.97"
"Russell-Westbrook-1083","Patrick-Beverley-14108","Josh-Jackson-37890","Dario-Saric-36004","Karl-Anthony-Towns-18937","Avery-Bradley-941","Tobias-Harris-13332","Jerami-Grant-18576","48900","276.96"
"Patrick-Beverley-14108","Andrew-Wiggins-18620","Josh-Jackson-37890","Dario-Saric-36004","Karl-Anthony-Towns-18937","Jeff-Teague-1005","Tobias-Harris-13332","Danilo-Gallinari-1329","49000","276.95"
"Dennis-Schroder-18595","Patrick-Beverley-14108","Mikal-Bridges-408842","Danilo-Gallinari-1329","Karl-Anthony-Towns-18937","Russell-Westbrook-1083","Dario-Saric-36004","De'Anthony-Melton-409081","49900","276.84"
"Russell-Westbrook-1083","Patrick-Beverley-14108","TJ-Warren-18634","Dario-Saric-36004","Karl-Anthony-Towns-18937","Avery-Bradley-941","Jerami-Grant-18576","Tobias-Harris-13332","50000","276.84"
"Dennis-Schroder-18595","Patrick-Beverley-14108","Danilo-Gallinari-1329","Dario-Saric-36004","Karl-Anthony-Towns-18937","Jeff-Teague-1005","Tobias-Harris-13332","Steven-Adams-16848","49400","276.82"
"Dennis-Schroder-18595","Shai-Gilgeous-Alexander-408990","Danilo-Gallinari-1329","Dario-Saric-36004","Karl-Anthony-Towns-18937","Russell-Westbrook-1083","Jerami-Grant-18576","Patrick-Beverley-14108","49800","276.81"
"Dennis-Schroder-18595","Andrew-Wiggins-18620","Josh-Jackson-37890","Dario-Saric-36004","Karl-Anthony-Towns-18937","Patrick-Beverley-14108","Tobias-Harris-13332","Danilo-Gallinari-1329","48600","276.8"
"Russell-Westbrook-1083","Mikal-Bridges-408842","Robert-Covington-16874","Danilo-Gallinari-1329","Karl-Anthony-Towns-18937","Patrick-Beverley-14108","Dario-Saric-36004","Josh-Jackson-37890","49800","276.77"
"Dennis-Schroder-18595","De'Anthony-Melton-409081","Andrew-Wiggins-18620","Tobias-Harris-13332","Karl-Anthony-Towns-18937","Jeff-Teague-1005","Jerami-Grant-18576","Josh-Jackson-37890","49900","276.75"
"Russell-Westbrook-1083","Patrick-Beverley-14108","Josh-Jackson-37890","Dario-Saric-36004","Karl-Anthony-Towns-18937","Jeff-Teague-1005","Jerami-Grant-18576","Montrezl-Harrell-18930","50000","276.75"
"Dennis-Schroder-18595","Devin-Booker-18949","Paul-George-1245","Josh-Jackson-37890","Karl-Anthony-Towns-18937","Patrick-Beverley-14108","Dario-Saric-36004","Jerami-Grant-18576","50000","276.73"
"Dennis-Schroder-18595","Patrick-Beverley-14108","Paul-George-1245","Richaun-Holmes-18905","Karl-Anthony-Towns-18937","Jeff-Teague-1005","Tobias-Harris-13332","Dario-Saric-36004","49800","276.71"
