"Dennis-Schroder-18595","Andrew-Wiggins-18620","Josh-Jackson-37890","Kevon-Looney-18945","DeAndre-Jordan-1486","Devin-Booker-18949","Anthony-Davis-13895","Tyus-Jones-18938","50000","279.2"

"Dennis-Schroder-18595","Andrew-Wiggins-18620","Josh-Jackson-37890","Kevon-Looney-18945","DeAndre-Jordan-1486","Devin-Booker-18949","Anthony-Davis-13895","Tyus-Jones-18938","50000","279.2"
"Dennis-Schroder-18595","Devin-Booker-18949","Andrew-Wiggins-18620","Josh-Jackson-37890","DeAndre-Jordan-1486","Tyus-Jones-18938","Anthony-Davis-13895","De'Anthony-Melton-409081","49800","278.1"
"Elfrid-Payton-18602","Andrew-Wiggins-18620","Josh-Jackson-37890","Kevon-Looney-18945","DeAndre-Jordan-1486","Devin-Booker-18949","Anthony-Davis-13895","Tyus-Jones-18938","50000","278.07"
"Tyus-Jones-18938","Devin-Booker-18949","Andrew-Wiggins-18620","Josh-Jackson-37890","Anthony-Davis-13895","De'Anthony-Melton-409081","Harrison-Barnes-13901","DeAndre-Jordan-1486","50000","278.0"
"Tyus-Jones-18938","Mikal-Bridges-408842","Josh-Jackson-37890","Anthony-Davis-13895","DeAndre-Jordan-1486","Devin-Booker-18949","Taj-Gibson-1277","Draymond-Green-13976","50000","277.89"
"Elfrid-Payton-18602","Dennis-Schroder-18595","Josh-Jackson-37890","Anthony-Davis-13895","DeAndre-Jordan-1486","Devin-Booker-18949","Mikal-Bridges-408842","Tyus-Jones-18938","50000","277.64"
"Tyus-Jones-18938","Devin-Booker-18949","Josh-Jackson-37890","Anthony-Davis-13895","Deandre-Ayton-409301","De'Anthony-Melton-409081","Mikal-Bridges-408842","DeAndre-Jordan-1486","50000","277.31"
"Devin-Booker-18949","Mikal-Bridges-408842","Josh-Jackson-37890","Julius-Randle-18632","Taj-Gibson-1277","De'Anthony-Melton-409081","Anthony-Davis-13895","DeAndre-Jordan-1486","50000","277.27"
"Tyus-Jones-18938","E'Twaun-Moore-18582","Josh-Jackson-37890","Anthony-Davis-13895","DeAndre-Jordan-1486","Devin-Booker-18949","Taj-Gibson-1277","Draymond-Green-13976","50000","277.08"
"Elfrid-Payton-18602","Devin-Booker-18949","Andrew-Wiggins-18620","Josh-Jackson-37890","DeAndre-Jordan-1486","Tyus-Jones-18938","Anthony-Davis-13895","De'Anthony-Melton-409081","49800","276.97"
"Dennis-Schroder-18595","Devin-Booker-18949","Josh-Jackson-37890","Anthony-Davis-13895","DeAndre-Jordan-1486","Tyus-Jones-18938","Taj-Gibson-1277","Dennis-Smith-Jr.-37847","49900","276.95"
"Dennis-Schroder-18595","Devin-Booker-18949","Josh-Jackson-37890","Kevon-Looney-18945","DeAndre-Jordan-1486","Tyus-Jones-18938","Anthony-Davis-13895","Harrison-Barnes-13901","49700","276.89"
"Elfrid-Payton-18602","Dennis-Schroder-18595","Josh-Jackson-37890","Anthony-Davis-13895","DeAndre-Jordan-1486","Devin-Booker-18949","E'Twaun-Moore-18582","Tyus-Jones-18938","50000","276.83"
"Dennis-Schroder-18595","Mikal-Bridges-408842","Andrew-Wiggins-18620","Josh-Jackson-37890","DeAndre-Jordan-1486","Devin-Booker-18949","Anthony-Davis-13895","Taj-Gibson-1277","49900","276.81"
"Tyus-Jones-18938","Andrew-Wiggins-18620","Josh-Jackson-37890","Anthony-Davis-13895","DeAndre-Jordan-1486","Devin-Booker-18949","Taj-Gibson-1277","Dario-Saric-36004","49800","276.78"
"Tyus-Jones-18938","Devin-Booker-18949","Josh-Jackson-37890","Jonas-Jerebko-1106","Anthony-Davis-13895","De'Anthony-Melton-409081","Julius-Randle-18632","DeAndre-Jordan-1486","50000","276.78"
"Dennis-Schroder-18595","Andrew-Wiggins-18620","Josh-Jackson-37890","Anthony-Davis-13895","DeAndre-Jordan-1486","Devin-Booker-18949","Wesley-Matthews-1339","Taj-Gibson-1277","50000","276.6"
"Dennis-Schroder-18595","Mikal-Bridges-408842","Josh-Jackson-37890","Anthony-Davis-13895","DeAndre-Jordan-1486","Tyus-Jones-18938","Taj-Gibson-1277","Karl-Anthony-Towns-18937","50000","276.57"
"Tyus-Jones-18938","Devin-Booker-18949","Andrew-Wiggins-18620","Kevon-Looney-18945","Anthony-Davis-13895","De'Anthony-Melton-409081","Julius-Randle-18632","Josh-Jackson-37890","49900","276.51"
"Tyus-Jones-18938","Devin-Booker-18949","Josh-Jackson-37890","Anthony-Davis-13895","Deandre-Ayton-409301","De'Anthony-Melton-409081","E'Twaun-Moore-18582","DeAndre-Jordan-1486","50000","276.5"
"Devin-Booker-18949","E'Twaun-Moore-18582","Josh-Jackson-37890","Julius-Randle-18632","Taj-Gibson-1277","De'Anthony-Melton-409081","Anthony-Davis-13895","DeAndre-Jordan-1486","50000","276.46"
"Dennis-Schroder-18595","Devin-Booker-18949","Harrison-Barnes-13901","Anthony-Davis-13895","DeAndre-Jordan-1486","Tyus-Jones-18938","Taj-Gibson-1277","Kevon-Looney-18945","50000","276.45"
"Dennis-Schroder-18595","Devin-Booker-18949","Josh-Jackson-37890","Anthony-Davis-13895","DeAndre-Jordan-1486","Tyus-Jones-18938","Taj-Gibson-1277","Jerami-Grant-18576","50000","276.34"
"Tyus-Jones-18938","Dennis-Schroder-18595","Josh-Jackson-37890","Draymond-Green-13976","DeAndre-Jordan-1486","De'Anthony-Melton-409081","Julius-Randle-18632","Anthony-Davis-13895","49900","276.32"
"Dennis-Schroder-18595","Devin-Booker-18949","Andrew-Wiggins-18620","Josh-Jackson-37890","DeAndre-Jordan-1486","Tyus-Jones-18938","Anthony-Davis-13895","Jonas-Jerebko-1106","49900","276.32"
"Tyus-Jones-18938","Devin-Booker-18949","Josh-Jackson-37890","Draymond-Green-13976","DeAndre-Jordan-1486","Dennis-Smith-Jr.-37847","Anthony-Davis-13895","De'Anthony-Melton-409081","50000","276.3"
"Tyus-Jones-18938","Mikal-Bridges-408842","Andrew-Wiggins-18620","Josh-Jackson-37890","DeAndre-Jordan-1486","Devin-Booker-18949","Anthony-Davis-13895","Taj-Gibson-1277","49500","276.22"
"Devin-Booker-18949","Mikal-Bridges-408842","Andrew-Wiggins-18620","Josh-Jackson-37890","DeAndre-Jordan-1486","De'Anthony-Melton-409081","Anthony-Davis-13895","Draymond-Green-13976","50000","276.16"
"Elfrid-Payton-18602","Dennis-Schroder-18595","Andrew-Wiggins-18620","Josh-Jackson-37890","Taj-Gibson-1277","Devin-Booker-18949","Anthony-Davis-13895","Tyus-Jones-18938","50000","276.14"
"Dennis-Schroder-18595","Devin-Booker-18949","Josh-Jackson-37890","Kevon-Looney-18945","DeAndre-Jordan-1486","De'Anthony-Melton-409081","Anthony-Davis-13895","Deandre-Ayton-409301","49900","276.12"
"Dennis-Schroder-18595","Devin-Booker-18949","Josh-Jackson-37890","Julius-Randle-18632","Anthony-Davis-13895","Tyus-Jones-18938","Mikal-Bridges-408842","De'Anthony-Melton-409081","49900","276.08"
"Tyus-Jones-18938","Mikal-Bridges-408842","Josh-Jackson-37890","Anthony-Davis-13895","DeAndre-Jordan-1486","Devin-Booker-18949","Wesley-Matthews-1339","Draymond-Green-13976","49900","276.03"
"Dennis-Schroder-18595","Devin-Booker-18949","Andrew-Wiggins-18620","Anthony-Davis-13895","DeAndre-Jordan-1486","Tyus-Jones-18938","Mikal-Bridges-408842","De'Anthony-Melton-409081","49900","276.01"
"Tyus-Jones-18938","Andrew-Wiggins-18620","Josh-Jackson-37890","Anthony-Davis-13895","DeAndre-Jordan-1486","Devin-Booker-18949","Wesley-Matthews-1339","Taj-Gibson-1277","49600","276.01"
"Dennis-Schroder-18595","E'Twaun-Moore-18582","Andrew-Wiggins-18620","Josh-Jackson-37890","DeAndre-Jordan-1486","Devin-Booker-18949","Anthony-Davis-13895","Taj-Gibson-1277","49900","276.0"
"Tyus-Jones-18938","Mikal-Bridges-408842","Josh-Jackson-37890","Anthony-Davis-13895","DeAndre-Jordan-1486","Devin-Booker-18949","Taj-Gibson-1277","Klay-Thompson-13315","49800","275.98"
"Devin-Booker-18949","Mikal-Bridges-408842","Josh-Jackson-37890","Kevon-Looney-18945","DeAndre-Jordan-1486","E'Twaun-Moore-18582","Anthony-Davis-13895","Julius-Randle-18632","50000","275.91"
"Devin-Booker-18949","Klay-Thompson-13315","Andrew-Wiggins-18620","Josh-Jackson-37890","DeAndre-Jordan-1486","De'Anthony-Melton-409081","Anthony-Davis-13895","Taj-Gibson-1277","50000","275.9"
"Tyus-Jones-18938","Andrew-Wiggins-18620","Josh-Jackson-37890","Anthony-Davis-13895","DeAndre-Jordan-1486","De'Anthony-Melton-409081","Taj-Gibson-1277","Karl-Anthony-Towns-18937","49800","275.9"
"Dennis-Schroder-18595","Devin-Booker-18949","Josh-Jackson-37890","Julius-Randle-18632","Anthony-Davis-13895","Tyus-Jones-18938","Wesley-Matthews-1339","De'Anthony-Melton-409081","50000","275.87"
"Dennis-Schroder-18595","Devin-Booker-18949","Josh-Jackson-37890","Dario-Saric-36004","DeAndre-Jordan-1486","Tyus-Jones-18938","Anthony-Davis-13895","Dennis-Smith-Jr.-37847","50000","275.86"
"Elfrid-Payton-18602","Dennis-Schroder-18595","Josh-Jackson-37890","Kevon-Looney-18945","DeAndre-Jordan-1486","Devin-Booker-18949","Anthony-Davis-13895","Tyus-Jones-18938","49500","275.86"
"Elfrid-Payton-18602","Dennis-Schroder-18595","Josh-Jackson-37890","Julius-Randle-18632","Taj-Gibson-1277","Tyus-Jones-18938","Anthony-Davis-13895","DeAndre-Jordan-1486","49800","275.84"
"Elfrid-Payton-18602","Devin-Booker-18949","Josh-Jackson-37890","Anthony-Davis-13895","DeAndre-Jordan-1486","Tyus-Jones-18938","Taj-Gibson-1277","Dennis-Smith-Jr.-37847","49900","275.82"
"Tyus-Jones-18938","Devin-Booker-18949","Andrew-Wiggins-18620","Josh-Jackson-37890","Taj-Gibson-1277","De'Anthony-Melton-409081","Anthony-Davis-13895","Deandre-Ayton-409301","50000","275.81"
"Dennis-Schroder-18595","Devin-Booker-18949","Andrew-Wiggins-18620","Anthony-Davis-13895","DeAndre-Jordan-1486","Tyus-Jones-18938","Wesley-Matthews-1339","De'Anthony-Melton-409081","50000","275.8"
"Dennis-Schroder-18595","Devin-Booker-18949","Josh-Jackson-37890","Harrison-Barnes-13901","DeAndre-Jordan-1486","Tyus-Jones-18938","Anthony-Davis-13895","De'Anthony-Melton-409081","49500","275.79"
"J.J.-Barea-18605","Devin-Booker-18949","Andrew-Wiggins-18620","Josh-Jackson-37890","DeAndre-Jordan-1486","Tyus-Jones-18938","Anthony-Davis-13895","Taj-Gibson-1277","49900","275.78"
"Tyus-Jones-18938","Klay-Thompson-13315","Josh-Jackson-37890","Anthony-Davis-13895","DeAndre-Jordan-1486","Devin-Booker-18949","Wesley-Matthews-1339","Taj-Gibson-1277","49900","275.77"
"Dennis-Schroder-18595","E'Twaun-Moore-18582","Josh-Jackson-37890","Anthony-Davis-13895","DeAndre-Jordan-1486","Tyus-Jones-18938","Taj-Gibson-1277","Karl-Anthony-Towns-18937","50000","275.76"
"Elfrid-Payton-18602","Devin-Booker-18949","Josh-Jackson-37890","Kevon-Looney-18945","DeAndre-Jordan-1486","Tyus-Jones-18938","Anthony-Davis-13895","Harrison-Barnes-13901","49700","275.76"
"Dennis-Schroder-18595","Andrew-Wiggins-18620","Josh-Jackson-37890","Harrison-Barnes-13901","DeAndre-Jordan-1486","Tyus-Jones-18938","Anthony-Davis-13895","Draymond-Green-13976","50000","275.76"
"Dennis-Schroder-18595","Andrew-Wiggins-18620","Josh-Jackson-37890","Kevon-Looney-18945","DeAndre-Jordan-1486","Tyus-Jones-18938","Anthony-Davis-13895","Julius-Randle-18632","49600","275.75"
"Tyus-Jones-18938","Andrew-Wiggins-18620","Josh-Jackson-37890","Kevon-Looney-18945","DeAndre-Jordan-1486","Devin-Booker-18949","Anthony-Davis-13895","Dennis-Smith-Jr.-37847","49700","275.73"
"Dennis-Schroder-18595","Mikal-Bridges-408842","Andrew-Wiggins-18620","Josh-Jackson-37890","DeAndre-Jordan-1486","Devin-Booker-18949","Anthony-Davis-13895","Dario-Saric-36004","50000","275.72"
"Tyus-Jones-18938","Andrew-Wiggins-18620","Josh-Jackson-37890","Julius-Randle-18632","Taj-Gibson-1277","Dennis-Smith-Jr.-37847","Anthony-Davis-13895","DeAndre-Jordan-1486","50000","275.71"
"Elfrid-Payton-18602","Mikal-Bridges-408842","Andrew-Wiggins-18620","Josh-Jackson-37890","DeAndre-Jordan-1486","Devin-Booker-18949","Anthony-Davis-13895","Taj-Gibson-1277","49900","275.68"
"Dennis-Schroder-18595","Devin-Booker-18949","Josh-Jackson-37890","Anthony-Davis-13895","DeAndre-Jordan-1486","De'Anthony-Melton-409081","Taj-Gibson-1277","Draymond-Green-13976","49700","275.6"
"Tyus-Jones-18938","Devin-Booker-18949","Josh-Jackson-37890","Kevon-Looney-18945","Taj-Gibson-1277","De'Anthony-Melton-409081","Anthony-Davis-13895","Karl-Anthony-Towns-18937","49800","275.55"
"Tyus-Jones-18938","Devin-Booker-18949","Josh-Jackson-37890","Kevon-Looney-18945","DeAndre-Jordan-1486","De'Anthony-Melton-409081","Anthony-Davis-13895","Deandre-Ayton-409301","49500","275.53"
"Dennis-Schroder-18595","Mikal-Bridges-408842","Andrew-Wiggins-18620","Josh-Jackson-37890","Anthony-Davis-13895","Devin-Booker-18949","Harrison-Barnes-13901","Tyus-Jones-18938","50000","275.52"
"Dennis-Schroder-18595","Klay-Thompson-13315","Josh-Jackson-37890","Kevon-Looney-18945","DeAndre-Jordan-1486","Tyus-Jones-18938","Anthony-Davis-13895","Julius-Randle-18632","49900","275.51"
"Tyus-Jones-18938","Klay-Thompson-13315","Josh-Jackson-37890","Kevon-Looney-18945","DeAndre-Jordan-1486","Devin-Booker-18949","Anthony-Davis-13895","Dennis-Smith-Jr.-37847","50000","275.49"
"Elfrid-Payton-18602","Andrew-Wiggins-18620","Josh-Jackson-37890","Anthony-Davis-13895","DeAndre-Jordan-1486","Devin-Booker-18949","Wesley-Matthews-1339","Taj-Gibson-1277","50000","275.47"
"Dennis-Schroder-18595","Devin-Booker-18949","Andrew-Wiggins-18620","Josh-Jackson-37890","DeAndre-Jordan-1486","Tyus-Jones-18938","Julius-Randle-18632","Deandre-Ayton-409301","50000","275.46"
"Elfrid-Payton-18602","Mikal-Bridges-408842","Josh-Jackson-37890","Anthony-Davis-13895","DeAndre-Jordan-1486","Tyus-Jones-18938","Taj-Gibson-1277","Karl-Anthony-Towns-18937","50000","275.44"
"Tyus-Jones-18938","Mikal-Bridges-408842","Josh-Jackson-37890","Draymond-Green-13976","DeAndre-Jordan-1486","Devin-Booker-18949","E'Twaun-Moore-18582","Anthony-Davis-13895","49800","275.43"
"Devin-Booker-18949","Mikal-Bridges-408842","Josh-Jackson-37890","Anthony-Davis-13895","DeAndre-Jordan-1486","De'Anthony-Melton-409081","Wesley-Matthews-1339","Julius-Randle-18632","49900","275.41"
"Dennis-Schroder-18595","Devin-Booker-18949","Harrison-Barnes-13901","Draymond-Green-13976","Anthony-Davis-13895","Tyus-Jones-18938","Kevon-Looney-18945","Josh-Jackson-37890","50000","275.41"
"Dennis-Schroder-18595","Kelly-Oubre-18925","Andrew-Wiggins-18620","Josh-Jackson-37890","DeAndre-Jordan-1486","Devin-Booker-18949","Anthony-Davis-13895","Taj-Gibson-1277","50000","275.41"
"Tyus-Jones-18938","E'Twaun-Moore-18582","Andrew-Wiggins-18620","Josh-Jackson-37890","DeAndre-Jordan-1486","Devin-Booker-18949","Anthony-Davis-13895","Taj-Gibson-1277","49500","275.41"
"Tyus-Jones-18938","Devin-Booker-18949","Josh-Jackson-37890","Julius-Randle-18632","Taj-Gibson-1277","Dennis-Smith-Jr.-37847","Anthony-Davis-13895","Kevon-Looney-18945","50000","275.36"
"Devin-Booker-18949","Andrew-Wiggins-18620","Josh-Jackson-37890","Kevon-Looney-18945","DeAndre-Jordan-1486","Mikal-Bridges-408842","Anthony-Davis-13895","Klay-Thompson-13315","50000","275.35"
"Dennis-Schroder-18595","Devin-Booker-18949","Harrison-Barnes-13901","Anthony-Davis-13895","DeAndre-Jordan-1486","Tyus-Jones-18938","Taj-Gibson-1277","De'Anthony-Melton-409081","49800","275.35"
"Tyus-Jones-18938","Andrew-Wiggins-18620","Josh-Jackson-37890","Kevon-Looney-18945","DeAndre-Jordan-1486","Mikal-Bridges-408842","Anthony-Davis-13895","Karl-Anthony-Towns-18937","49800","275.35"
"Devin-Booker-18949","E'Twaun-Moore-18582","Andrew-Wiggins-18620","Josh-Jackson-37890","DeAndre-Jordan-1486","De'Anthony-Melton-409081","Anthony-Davis-13895","Draymond-Green-13976","50000","275.35"
"Elfrid-Payton-18602","Devin-Booker-18949","Harrison-Barnes-13901","Anthony-Davis-13895","DeAndre-Jordan-1486","Tyus-Jones-18938","Taj-Gibson-1277","Kevon-Looney-18945","50000","275.32"
"Dennis-Schroder-18595","Devin-Booker-18949","Josh-Jackson-37890","Anthony-Davis-13895","DeAndre-Jordan-1486","Tyus-Jones-18938","Mikal-Bridges-408842","Dennis-Smith-Jr.-37847","49700","275.3"
"Tyus-Jones-18938","Devin-Booker-18949","Andrew-Wiggins-18620","Kevon-Looney-18945","DeAndre-Jordan-1486","Dennis-Smith-Jr.-37847","Taj-Gibson-1277","Anthony-Davis-13895","50000","275.29"
"Dennis-Schroder-18595","Devin-Booker-18949","Josh-Jackson-37890","Julius-Randle-18632","Anthony-Davis-13895","Tyus-Jones-18938","E'Twaun-Moore-18582","De'Anthony-Melton-409081","49900","275.27"
"Tyus-Jones-18938","Andrew-Wiggins-18620","Josh-Jackson-37890","Anthony-Davis-13895","Deandre-Ayton-409301","Devin-Booker-18949","Mikal-Bridges-408842","Kevon-Looney-18945","50000","275.26"
"Elfrid-Payton-18602","Dennis-Schroder-18595","Josh-Jackson-37890","Harrison-Barnes-13901","DeAndre-Jordan-1486","Devin-Booker-18949","Anthony-Davis-13895","De'Anthony-Melton-409081","49900","275.25"
"Dennis-Schroder-18595","Devin-Booker-18949","Josh-Jackson-37890","Anthony-Davis-13895","DeAndre-Jordan-1486","De'Anthony-Melton-409081","Taj-Gibson-1277","TJ-Warren-18634","49900","275.24"
"Dennis-Schroder-18595","Devin-Booker-18949","Andrew-Wiggins-18620","Josh-Jackson-37890","DeAndre-Jordan-1486","Dennis-Smith-Jr.-37847","Anthony-Davis-13895","De'Anthony-Melton-409081","49900","275.22"
"Tyus-Jones-18938","E'Twaun-Moore-18582","Josh-Jackson-37890","Anthony-Davis-13895","DeAndre-Jordan-1486","Devin-Booker-18949","Wesley-Matthews-1339","Draymond-Green-13976","49900","275.22"
"Devin-Booker-18949","Andrew-Wiggins-18620","Josh-Jackson-37890","Julius-Randle-18632","Taj-Gibson-1277","Mikal-Bridges-408842","Anthony-Davis-13895","Kevon-Looney-18945","50000","275.22"
"Dennis-Schroder-18595","Mikal-Bridges-408842","Josh-Jackson-37890","Harrison-Barnes-13901","DeAndre-Jordan-1486","Tyus-Jones-18938","Anthony-Davis-13895","Julius-Randle-18632","49800","275.22"
"Elfrid-Payton-18602","Andrew-Wiggins-18620","Josh-Jackson-37890","Kevon-Looney-18945","DeAndre-Jordan-1486","Dennis-Schroder-18595","Anthony-Davis-13895","Julius-Randle-18632","50000","275.21"
"Elfrid-Payton-18602","Devin-Booker-18949","Josh-Jackson-37890","Anthony-Davis-13895","DeAndre-Jordan-1486","Tyus-Jones-18938","Taj-Gibson-1277","Jerami-Grant-18576","50000","275.21"
"Dennis-Schroder-18595","Devin-Booker-18949","Andrew-Wiggins-18620","Anthony-Davis-13895","DeAndre-Jordan-1486","Tyus-Jones-18938","E'Twaun-Moore-18582","De'Anthony-Melton-409081","49900","275.2"
"Tyus-Jones-18938","Mikal-Bridges-408842","Josh-Jackson-37890","Harrison-Barnes-13901","DeAndre-Jordan-1486","Devin-Booker-18949","Anthony-Davis-13895","Dennis-Smith-Jr.-37847","49900","275.2"
"Dennis-Schroder-18595","Devin-Booker-18949","Josh-Jackson-37890","Kevon-Looney-18945","Karl-Anthony-Towns-18937","Tyus-Jones-18938","Julius-Randle-18632","DeAndre-Jordan-1486","49800","275.2"
"Elfrid-Payton-18602","Devin-Booker-18949","Andrew-Wiggins-18620","Josh-Jackson-37890","DeAndre-Jordan-1486","Tyus-Jones-18938","Anthony-Davis-13895","Jonas-Jerebko-1106","49900","275.19"
"Tyus-Jones-18938","E'Twaun-Moore-18582","Josh-Jackson-37890","Anthony-Davis-13895","DeAndre-Jordan-1486","Devin-Booker-18949","Taj-Gibson-1277","Klay-Thompson-13315","49800","275.17"
"Dennis-Schroder-18595","Andrew-Wiggins-18620","Josh-Jackson-37890","Harrison-Barnes-13901","DeAndre-Jordan-1486","De'Anthony-Melton-409081","Anthony-Davis-13895","Julius-Randle-18632","50000","275.14"
"Tyus-Jones-18938","Andrew-Wiggins-18620","Josh-Jackson-37890","Kevon-Looney-18945","DeAndre-Jordan-1486","Wesley-Matthews-1339","Anthony-Davis-13895","Karl-Anthony-Towns-18937","49900","275.14"
"Tyus-Jones-18938","Mikal-Bridges-408842","Andrew-Wiggins-18620","Josh-Jackson-37890","DeAndre-Jordan-1486","Devin-Booker-18949","Anthony-Davis-13895","Dario-Saric-36004","49600","275.13"
"Tyus-Jones-18938","Andrew-Wiggins-18620","Josh-Jackson-37890","Kevon-Looney-18945","DeAndre-Jordan-1486","Devin-Booker-18949","Anthony-Davis-13895","Jerami-Grant-18576","49800","275.12"
"Dennis-Schroder-18595","Devin-Booker-18949","Josh-Jackson-37890","Anthony-Davis-13895","DeAndre-Jordan-1486","Tyus-Jones-18938","Wesley-Matthews-1339","Dennis-Smith-Jr.-37847","49800","275.09"
"Tyus-Jones-18938","E'Twaun-Moore-18582","Josh-Jackson-37890","TJ-Warren-18634","Anthony-Davis-13895","Devin-Booker-18949","Mikal-Bridges-408842","DeAndre-Jordan-1486","50000","275.07"
