"Trae-Young-409063","Kevin-Huerter-408969","Jeff-Green-1314","Julius-Randle-18632","Joel-Embiid-18578","Kent-Bazemore-13987","Larry-Nance-18946","Marc-Gasol-1493","49900","303.81"
"Trae-Young-409063","Khris-Middleton-13990","J.J.-Redick-1030","Cedi-Osman-18912","Joel-Embiid-18578","Wesley-Matthews-1339","Larry-Nance-18946","Julius-Randle-18632","49900","303.59"
"Trae-Young-409063","Furkan-Korkmaz-35185","Cedi-Osman-18912","Julius-Randle-18632","Joel-Embiid-18578","J.J.-Redick-1030","Larry-Nance-18946","Marc-Gasol-1493","50000","303.37"
"Trae-Young-409063","Kevin-Huerter-408969","Cedi-Osman-18912","Julius-Randle-18632","Joel-Embiid-18578","Kent-Bazemore-13987","Larry-Nance-18946","Jusuf-Nurkic-18619","50000","303.22"
"Trae-Young-409063","Evan-Turner-1291","Cedi-Osman-18912","Julius-Randle-18632","Joel-Embiid-18578","Wesley-Matthews-1339","Larry-Nance-18946","Marc-Gasol-1493","50000","303.18"

"Trae-Young-409063","Kevin-Huerter-408969","Jeff-Green-1314","Julius-Randle-18632","Joel-Embiid-18578","Kent-Bazemore-13987","Larry-Nance-18946","Marc-Gasol-1493","49900","303.81"
"Trae-Young-409063","Khris-Middleton-13990","J.J.-Redick-1030","Cedi-Osman-18912","Joel-Embiid-18578","Wesley-Matthews-1339","Larry-Nance-18946","Julius-Randle-18632","49900","303.59"
"Trae-Young-409063","Furkan-Korkmaz-35185","Cedi-Osman-18912","Julius-Randle-18632","Joel-Embiid-18578","J.J.-Redick-1030","Larry-Nance-18946","Marc-Gasol-1493","50000","303.37"
"Trae-Young-409063","Kevin-Huerter-408969","Cedi-Osman-18912","Julius-Randle-18632","Joel-Embiid-18578","Kent-Bazemore-13987","Larry-Nance-18946","Jusuf-Nurkic-18619","50000","303.22"
"Trae-Young-409063","Evan-Turner-1291","Cedi-Osman-18912","Julius-Randle-18632","Joel-Embiid-18578","Wesley-Matthews-1339","Larry-Nance-18946","Marc-Gasol-1493","50000","303.18"
"Trae-Young-409063","Kevin-Huerter-408969","Cedi-Osman-18912","Julius-Randle-18632","Joel-Embiid-18578","Wesley-Matthews-1339","Larry-Nance-18946","Marc-Gasol-1493","49600","302.93"
"Trae-Young-409063","Wesley-Matthews-1339","Jeff-Green-1314","Julius-Randle-18632","Joel-Embiid-18578","J.J.-Redick-1030","Larry-Nance-18946","Jusuf-Nurkic-18619","50000","302.86"
"Jalen-Brunson-409062","Khris-Middleton-13990","Cedi-Osman-18912","Julius-Randle-18632","Joel-Embiid-18578","Wesley-Matthews-1339","Larry-Nance-18946","Marc-Gasol-1493","50000","302.85"
"Trae-Young-409063","Kevin-Huerter-408969","Jeff-Green-1314","Julius-Randle-18632","Joel-Embiid-18578","J.J.-Redick-1030","Larry-Nance-18946","Marc-Gasol-1493","49700","302.76"
"Jalen-Brunson-409062","Wesley-Matthews-1339","Cedi-Osman-18912","Julius-Randle-18632","Joel-Embiid-18578","Trae-Young-409063","Larry-Nance-18946","Marc-Gasol-1493","49800","302.74"
"Trae-Young-409063","Kevin-Huerter-408969","Jeff-Green-1314","Julius-Randle-18632","Joel-Embiid-18578","Khris-Middleton-13990","Larry-Nance-18946","Jusuf-Nurkic-18619","50000","302.68"
"Jalen-Brunson-409062","J.J.-Redick-1030","Jeff-Green-1314","Julius-Randle-18632","Joel-Embiid-18578","Trae-Young-409063","Larry-Nance-18946","Marc-Gasol-1493","49900","302.57"
"Trae-Young-409063","Jeremy-Lamb-13955","Cedi-Osman-18912","Julius-Randle-18632","Joel-Embiid-18578","Donovan-Mitchell-37875","Larry-Nance-18946","Jeff-Green-1314","50000","302.49"
"Trae-Young-409063","Kevin-Huerter-408969","Cedi-Osman-18912","Julius-Randle-18632","Joel-Embiid-18578","Alec-Burks-13353","Larry-Nance-18946","Marc-Gasol-1493","49900","302.45"
"Ricky-Rubio-1001","Donovan-Mitchell-37875","Cedi-Osman-18912","Julius-Randle-18632","Joel-Embiid-18578","Trae-Young-409063","Larry-Nance-18946","Jeff-Green-1314","50000","302.41"
"Trae-Young-409063","Kent-Bazemore-13987","Cedi-Osman-18912","Julius-Randle-18632","Joel-Embiid-18578","Khris-Middleton-13990","Larry-Nance-18946","Dewayne-Dedmon-16894","50000","302.25"
"T.J.-McConnell-18956","Kent-Bazemore-13987","Jeff-Green-1314","Julius-Randle-18632","Joel-Embiid-18578","Khris-Middleton-13990","Larry-Nance-18946","Marc-Gasol-1493","50000","302.24"
"Trae-Young-409063","Kevin-Huerter-408969","J.J.-Redick-1030","Julius-Randle-18632","Jusuf-Nurkic-18619","Wesley-Matthews-1339","Larry-Nance-18946","Joel-Embiid-18578","50000","302.21"
"Donovan-Mitchell-37875","Khris-Middleton-13990","Kent-Bazemore-13987","Julius-Randle-18632","Joel-Embiid-18578","Wesley-Matthews-1339","Jeff-Green-1314","Larry-Nance-18946","50000","302.21"
"Donovan-Mitchell-37875","Kent-Bazemore-13987","Cedi-Osman-18912","Julius-Randle-18632","Joel-Embiid-18578","Khris-Middleton-13990","Larry-Nance-18946","Jeff-Green-1314","49800","302.17"
"Trae-Young-409063","Kevin-Huerter-408969","Cedi-Osman-18912","Julius-Randle-18632","Joel-Embiid-18578","J.J.-Redick-1030","Larry-Nance-18946","Jusuf-Nurkic-18619","49800","302.17"
"Trae-Young-409063","Kent-Bazemore-13987","Jeff-Green-1314","Julius-Randle-18632","Joel-Embiid-18578","T.J.-McConnell-18956","Larry-Nance-18946","Marc-Gasol-1493","49800","302.13"
"Trae-Young-409063","Wesley-Matthews-1339","Kent-Bazemore-13987","Julius-Randle-18632","Joel-Embiid-18578","Donovan-Mitchell-37875","Jeff-Green-1314","Larry-Nance-18946","49800","302.1"
"Trae-Young-409063","Kent-Bazemore-13987","Cedi-Osman-18912","Julius-Randle-18632","Joel-Embiid-18578","Donovan-Mitchell-37875","Larry-Nance-18946","Jeff-Green-1314","49600","302.06"
"Seth-Curry-16825","Kent-Bazemore-13987","Cedi-Osman-18912","Julius-Randle-18632","Joel-Embiid-18578","Trae-Young-409063","Larry-Nance-18946","Marc-Gasol-1493","50000","302.02"
"Jalen-Brunson-409062","J.J.-Redick-1030","Cedi-Osman-18912","Julius-Randle-18632","Joel-Embiid-18578","Trae-Young-409063","Larry-Nance-18946","Jusuf-Nurkic-18619","50000","301.98"
"Trae-Young-409063","J.J.-Redick-1030","Kyle-Anderson-18615","Cedi-Osman-18912","Joel-Embiid-18578","Donovan-Mitchell-37875","Larry-Nance-18946","Julius-Randle-18632","50000","301.97"
"Jalen-Brunson-409062","J.J.-Redick-1030","Kevin-Huerter-408969","Julius-Randle-18632","Marc-Gasol-1493","Trae-Young-409063","Larry-Nance-18946","Joel-Embiid-18578","49900","301.92"
"Tim-Frazier-18743","Wesley-Matthews-1339","Jeff-Green-1314","Julius-Randle-18632","Joel-Embiid-18578","Donovan-Mitchell-37875","Larry-Nance-18946","Marc-Gasol-1493","50000","301.86"
"Trae-Young-409063","J.J.-Redick-1030","Cedi-Osman-18912","Julius-Randle-18632","Joel-Embiid-18578","Donovan-Mitchell-37875","Larry-Nance-18946","Jerami-Grant-18576","49900","301.85"
"Trae-Young-409063","Kevin-Huerter-408969","Cedi-Osman-18912","Julius-Randle-18632","Joel-Embiid-18578","Donovan-Mitchell-37875","Larry-Nance-18946","Jeremy-Lamb-13955","50000","301.84"
"T.J.-McConnell-18956","Kent-Bazemore-13987","J.J.-Redick-1030","Julius-Randle-18632","Marc-Gasol-1493","Wesley-Matthews-1339","Larry-Nance-18946","Joel-Embiid-18578","50000","301.77"
"Ricky-Rubio-1001","Kevin-Huerter-408969","Cedi-Osman-18912","Julius-Randle-18632","Joel-Embiid-18578","Trae-Young-409063","Larry-Nance-18946","Donovan-Mitchell-37875","50000","301.76"
"Derrick-Rose-1086","Donovan-Mitchell-37875","Cedi-Osman-18912","Julius-Randle-18632","Joel-Embiid-18578","Trae-Young-409063","Larry-Nance-18946","Jeff-Green-1314","49900","301.73"
"T.J.-McConnell-18956","Kent-Bazemore-13987","Cedi-Osman-18912","Julius-Randle-18632","Joel-Embiid-18578","J.J.-Redick-1030","Larry-Nance-18946","Marc-Gasol-1493","49800","301.73"
"Tim-Frazier-18743","Donovan-Mitchell-37875","J.J.-Redick-1030","Cedi-Osman-18912","Joel-Embiid-18578","Trae-Young-409063","Larry-Nance-18946","Julius-Randle-18632","49900","301.72"
"Ricky-Rubio-1001","Kent-Bazemore-13987","Cedi-Osman-18912","Julius-Randle-18632","Joel-Embiid-18578","Khris-Middleton-13990","Larry-Nance-18946","Wesley-Matthews-1339","50000","301.7"
"Donovan-Mitchell-37875","Kent-Bazemore-13987","J.J.-Redick-1030","Cedi-Osman-18912","Joel-Embiid-18578","Wesley-Matthews-1339","Larry-Nance-18946","Julius-Randle-18632","49800","301.7"
"Trae-Young-409063","Kevin-Huerter-408969","Wilson-Chandler-1327","Julius-Randle-18632","Marc-Gasol-1493","J.J.-Redick-1030","Larry-Nance-18946","Joel-Embiid-18578","49900","301.68"
"Trae-Young-409063","Kent-Bazemore-13987","Cedi-Osman-18912","Julius-Randle-18632","Joel-Embiid-18578","Jeremy-Lamb-13955","Larry-Nance-18946","Wesley-Matthews-1339","49800","301.67"
"Trae-Young-409063","Kent-Bazemore-13987","Kyle-Anderson-18615","Julius-Randle-18632","Larry-Nance-18946","Khris-Middleton-13990","Wesley-Matthews-1339","Joel-Embiid-18578","50000","301.66"
"Trae-Young-409063","Kent-Bazemore-13987","Cedi-Osman-18912","Julius-Randle-18632","Joel-Embiid-18578","Evan-Turner-1291","Larry-Nance-18946","Donovan-Mitchell-37875","50000","301.66"
"Trae-Young-409063","Kent-Bazemore-13987","Kyle-Anderson-18615","Cedi-Osman-18912","Joel-Embiid-18578","Khris-Middleton-13990","Larry-Nance-18946","Julius-Randle-18632","49800","301.62"
"Trae-Young-409063","Kent-Bazemore-13987","Cedi-Osman-18912","Julius-Randle-18632","Joel-Embiid-18578","Khris-Middleton-13990","Larry-Nance-18946","Rodney-Hood-18629","49900","301.61"
"T.J.-McConnell-18956","Kent-Bazemore-13987","Kevin-Huerter-408969","Julius-Randle-18632","Marc-Gasol-1493","Khris-Middleton-13990","Larry-Nance-18946","Joel-Embiid-18578","50000","301.59"
"Ricky-Rubio-1001","Kent-Bazemore-13987","Cedi-Osman-18912","Julius-Randle-18632","Joel-Embiid-18578","Trae-Young-409063","Larry-Nance-18946","Wesley-Matthews-1339","49800","301.59"
"Donovan-Mitchell-37875","Kent-Bazemore-13987","Kevin-Huerter-408969","Julius-Randle-18632","Larry-Nance-18946","Khris-Middleton-13990","Wesley-Matthews-1339","Joel-Embiid-18578","50000","301.56"
"Trae-Young-409063","Kent-Bazemore-13987","Wesley-Matthews-1339","Julius-Randle-18632","Joel-Embiid-18578","Khris-Middleton-13990","Jerami-Grant-18576","Larry-Nance-18946","49900","301.54"
"Trae-Young-409063","Kent-Bazemore-13987","Cedi-Osman-18912","Julius-Randle-18632","Joel-Embiid-18578","T.J.-McConnell-18956","Larry-Nance-18946","Jusuf-Nurkic-18619","49900","301.54"
"Donovan-Mitchell-37875","Kevin-Huerter-408969","Cedi-Osman-18912","Julius-Randle-18632","Joel-Embiid-18578","Kent-Bazemore-13987","Larry-Nance-18946","Khris-Middleton-13990","49800","301.52"
"Trae-Young-409063","Rodney-Hood-18629","Cedi-Osman-18912","Julius-Randle-18632","Joel-Embiid-18578","Kyle-Anderson-18615","Larry-Nance-18946","Marc-Gasol-1493","50000","301.51"
"Trae-Young-409063","Kent-Bazemore-13987","Cedi-Osman-18912","Julius-Randle-18632","Joel-Embiid-18578","Khris-Middleton-13990","Larry-Nance-18946","Jerami-Grant-18576","49700","301.5"
"Trae-Young-409063","Jeremy-Lamb-13955","Kent-Bazemore-13987","Julius-Randle-18632","Joel-Embiid-18578","J.J.-Redick-1030","Jeff-Green-1314","Larry-Nance-18946","49900","301.5"
"Trae-Young-409063","Khris-Middleton-13990","Cedi-Osman-18912","Julius-Randle-18632","Joel-Embiid-18578","Donovan-Mitchell-37875","Larry-Nance-18946","Furkan-Korkmaz-35185","49900","301.48"
"Seth-Curry-16825","Khris-Middleton-13990","Jeff-Green-1314","Julius-Randle-18632","Joel-Embiid-18578","Trae-Young-409063","Larry-Nance-18946","Marc-Gasol-1493","50000","301.48"
"Trae-Young-409063","Kent-Bazemore-13987","Kevin-Huerter-408969","Julius-Randle-18632","Marc-Gasol-1493","T.J.-McConnell-18956","Larry-Nance-18946","Joel-Embiid-18578","49800","301.48"
"Donovan-Mitchell-37875","Khris-Middleton-13990","Cedi-Osman-18912","Julius-Randle-18632","Joel-Embiid-18578","Wesley-Matthews-1339","Larry-Nance-18946","Marvin-Bagley-III-409321","50000","301.47"
"Trae-Young-409063","Kent-Bazemore-13987","Kevin-Huerter-408969","Julius-Randle-18632","Larry-Nance-18946","Donovan-Mitchell-37875","Wesley-Matthews-1339","Joel-Embiid-18578","49800","301.45"
"Trae-Young-409063","Kent-Bazemore-13987","Cedi-Osman-18912","Julius-Randle-18632","Joel-Embiid-18578","Khris-Middleton-13990","Larry-Nance-18946","Cody-Zeller-16836","50000","301.45"
"Tim-Frazier-18743","Jeremy-Lamb-13955","Cedi-Osman-18912","Julius-Randle-18632","Joel-Embiid-18578","Wesley-Matthews-1339","Larry-Nance-18946","Marc-Gasol-1493","50000","301.43"
"Ricky-Rubio-1001","J.J.-Redick-1030","Kent-Bazemore-13987","Julius-Randle-18632","Joel-Embiid-18578","Trae-Young-409063","Jeff-Green-1314","Larry-Nance-18946","49900","301.42"
"Kyle-Anderson-18615","Kevin-Huerter-408969","Cedi-Osman-18912","Julius-Randle-18632","Joel-Embiid-18578","Donovan-Mitchell-37875","Larry-Nance-18946","Marc-Gasol-1493","49900","301.42"
"Tim-Frazier-18743","Wesley-Matthews-1339","Kent-Bazemore-13987","Larry-Nance-18946","Joel-Embiid-18578","Trae-Young-409063","Khris-Middleton-13990","Julius-Randle-18632","49900","301.41"
"Donovan-Mitchell-37875","Kevin-Huerter-408969","Cedi-Osman-18912","Julius-Randle-18632","Joel-Embiid-18578","Rodney-Hood-18629","Larry-Nance-18946","Marc-Gasol-1493","50000","301.41"
"Trae-Young-409063","Kevin-Huerter-408969","Cedi-Osman-18912","Julius-Randle-18632","Joel-Embiid-18578","Kent-Bazemore-13987","Larry-Nance-18946","Donovan-Mitchell-37875","49600","301.41"
"Donovan-Mitchell-37875","Wesley-Matthews-1339","Cedi-Osman-18912","Julius-Randle-18632","Joel-Embiid-18578","Garrett-Temple-14077","Larry-Nance-18946","Marc-Gasol-1493","50000","301.4"
"Tim-Frazier-18743","Khris-Middleton-13990","Cedi-Osman-18912","Julius-Randle-18632","Joel-Embiid-18578","Kyle-Anderson-18615","Larry-Nance-18946","Marc-Gasol-1493","50000","301.38"
"Tim-Frazier-18743","Kent-Bazemore-13987","Cedi-Osman-18912","Julius-Randle-18632","Joel-Embiid-18578","Khris-Middleton-13990","Larry-Nance-18946","Trae-Young-409063","49700","301.37"
"T.J.-McConnell-18956","Khris-Middleton-13990","Cedi-Osman-18912","Julius-Randle-18632","Joel-Embiid-18578","Wesley-Matthews-1339","Larry-Nance-18946","Marc-Gasol-1493","49700","301.36"
"Trae-Young-409063","Wesley-Matthews-1339","Cedi-Osman-18912","Julius-Randle-18632","Joel-Embiid-18578","Donovan-Mitchell-37875","Larry-Nance-18946","Marvin-Bagley-III-409321","49800","301.36"
"Ricky-Rubio-1001","Tim-Frazier-18743","Cedi-Osman-18912","Julius-Randle-18632","Joel-Embiid-18578","Wesley-Matthews-1339","Larry-Nance-18946","Marc-Gasol-1493","50000","301.35"
"Jalen-Brunson-409062","Kent-Bazemore-13987","Cedi-Osman-18912","Julius-Randle-18632","Joel-Embiid-18578","Khris-Middleton-13990","Larry-Nance-18946","Donovan-Mitchell-37875","50000","301.33"
"Tim-Frazier-18743","Wesley-Matthews-1339","Kyle-Anderson-18615","Julius-Randle-18632","Joel-Embiid-18578","Trae-Young-409063","Larry-Nance-18946","Marc-Gasol-1493","50000","301.31"
"Jalen-Brunson-409062","T.J.-McConnell-18956","Kent-Bazemore-13987","Julius-Randle-18632","Marc-Gasol-1493","Trae-Young-409063","Larry-Nance-18946","Joel-Embiid-18578","50000","301.29"
"Trae-Young-409063","Tim-Frazier-18743","Cedi-Osman-18912","Julius-Randle-18632","Joel-Embiid-18578","Kyle-Anderson-18615","Larry-Nance-18946","Marc-Gasol-1493","49800","301.27"
"Tim-Frazier-18743","Rodney-Hood-18629","Cedi-Osman-18912","Julius-Randle-18632","Joel-Embiid-18578","Trae-Young-409063","Larry-Nance-18946","Marc-Gasol-1493","49900","301.26"
"Jalen-Brunson-409062","Donovan-Mitchell-37875","Kent-Bazemore-13987","Julius-Randle-18632","Larry-Nance-18946","Trae-Young-409063","Wesley-Matthews-1339","Joel-Embiid-18578","50000","301.26"
"Trae-Young-409063","Wesley-Matthews-1339","Cedi-Osman-18912","Julius-Randle-18632","Joel-Embiid-18578","T.J.-McConnell-18956","Larry-Nance-18946","Marc-Gasol-1493","49500","301.25"
"Kyle-Anderson-18615","Kent-Bazemore-13987","Cedi-Osman-18912","Julius-Randle-18632","Joel-Embiid-18578","Wesley-Matthews-1339","Larry-Nance-18946","Marc-Gasol-1493","49700","301.25"
"Trae-Young-409063","Khris-Middleton-13990","Wesley-Matthews-1339","Julius-Randle-18632","Larry-Nance-18946","J.J.-Redick-1030","Dewayne-Dedmon-16894","Joel-Embiid-18578","50000","301.24"
"Jalen-Brunson-409062","Kent-Bazemore-13987","Cedi-Osman-18912","Julius-Randle-18632","Joel-Embiid-18578","Trae-Young-409063","Larry-Nance-18946","Donovan-Mitchell-37875","49800","301.22"
"Tim-Frazier-18743","Wesley-Matthews-1339","Kevin-Huerter-408969","Julius-Randle-18632","Marc-Gasol-1493","Donovan-Mitchell-37875","Larry-Nance-18946","Joel-Embiid-18578","50000","301.21"
"Trae-Young-409063","Khris-Middleton-13990","Cedi-Osman-18912","Julius-Randle-18632","Joel-Embiid-18578","J.J.-Redick-1030","Larry-Nance-18946","Dewayne-Dedmon-16894","49800","301.2"
"J.J.-Barea-18605","Kent-Bazemore-13987","Cedi-Osman-18912","Julius-Randle-18632","Joel-Embiid-18578","Khris-Middleton-13990","Larry-Nance-18946","Trae-Young-409063","50000","301.2"
"Tim-Frazier-18743","Kent-Bazemore-13987","Furkan-Korkmaz-35185","Julius-Randle-18632","Marc-Gasol-1493","Trae-Young-409063","Larry-Nance-18946","Joel-Embiid-18578","50000","301.19"
"Trae-Young-409063","J.J.-Redick-1030","Jeff-Green-1314","Julius-Randle-18632","Joel-Embiid-18578","Donovan-Mitchell-37875","Larry-Nance-18946","Marvin-Bagley-III-409321","49900","301.19"
"T.J.-McConnell-18956","Khris-Middleton-13990","Jeff-Green-1314","Julius-Randle-18632","Joel-Embiid-18578","J.J.-Redick-1030","Larry-Nance-18946","Marc-Gasol-1493","49800","301.19"
"Derrick-Rose-1086","Khris-Middleton-13990","Cedi-Osman-18912","Julius-Randle-18632","Joel-Embiid-18578","Trae-Young-409063","Larry-Nance-18946","Jerami-Grant-18576","50000","301.17"
"Tim-Frazier-18743","Kevin-Huerter-408969","Cedi-Osman-18912","Julius-Randle-18632","Joel-Embiid-18578","Donovan-Mitchell-37875","Larry-Nance-18946","Marc-Gasol-1493","49800","301.17"
"Collin-Sexton-408896","Khris-Middleton-13990","Kent-Bazemore-13987","Julius-Randle-18632","Joel-Embiid-18578","Trae-Young-409063","Jeff-Green-1314","Larry-Nance-18946","50000","301.16"
"Donovan-Mitchell-37875","Khris-Middleton-13990","J.J.-Redick-1030","Julius-Randle-18632","Joel-Embiid-18578","Wesley-Matthews-1339","Jeff-Green-1314","Larry-Nance-18946","49800","301.16"
"Trae-Young-409063","Khris-Middleton-13990","Wesley-Matthews-1339","Larry-Nance-18946","Joel-Embiid-18578","Jeremy-Lamb-13955","Jeff-Green-1314","Julius-Randle-18632","49800","301.13"
"Donovan-Mitchell-37875","Khris-Middleton-13990","Cedi-Osman-18912","Julius-Randle-18632","Joel-Embiid-18578","J.J.-Redick-1030","Larry-Nance-18946","Jeff-Green-1314","49600","301.12"
"Trae-Young-409063","Khris-Middleton-13990","Jeff-Green-1314","Julius-Randle-18632","Joel-Embiid-18578","Evan-Turner-1291","Larry-Nance-18946","Donovan-Mitchell-37875","50000","301.12"
"Donovan-Mitchell-37875","Furkan-Korkmaz-35185","Cedi-Osman-18912","Julius-Randle-18632","Joel-Embiid-18578","Wesley-Matthews-1339","Larry-Nance-18946","Marc-Gasol-1493","49800","301.11"
"Trae-Young-409063","Khris-Middleton-13990","Cedi-Osman-18912","Julius-Randle-18632","Joel-Embiid-18578","Jeremy-Lamb-13955","Larry-Nance-18946","Jeff-Green-1314","49600","301.09"
"Donovan-Mitchell-37875","Kent-Bazemore-13987","Cedi-Osman-18912","Julius-Randle-18632","Joel-Embiid-18578","Khris-Middleton-13990","Larry-Nance-18946","Wilson-Chandler-1327","50000","301.09"
"Derrick-Rose-1086","Kevin-Huerter-408969","Cedi-Osman-18912","Julius-Randle-18632","Joel-Embiid-18578","Trae-Young-409063","Larry-Nance-18946","Donovan-Mitchell-37875","49900","301.08"
"Kyle-Anderson-18615","Kent-Bazemore-13987","Jeff-Green-1314","Julius-Randle-18632","Joel-Embiid-18578","J.J.-Redick-1030","Larry-Nance-18946","Marc-Gasol-1493","49800","301.08"
"Trae-Young-409063","J.J.-Redick-1030","Jeff-Green-1314","Julius-Randle-18632","Joel-Embiid-18578","T.J.-McConnell-18956","Larry-Nance-18946","Marc-Gasol-1493","49600","301.08"
