"Donovan-Mitchell-37875","Wesley-Matthews-1339","Cedi-Osman-18912","Jeff-Green-1314","Marc-Gasol-1493","Kent-Bazemore-13987","Julius-Randle-18632","Joel-Embiid-18578","50000","299.2"
"Trae-Young-409063","Evan-Turner-1291","Cedi-Osman-18912","Jeff-Green-1314","Marc-Gasol-1493","Donovan-Mitchell-37875","Julius-Randle-18632","Joel-Embiid-18578","50000","298.93"
"Trae-Young-409063","Wesley-Matthews-1339","Cedi-Osman-18912","Cheick-Diallo-35225","Joel-Embiid-18578","Donovan-Mitchell-37875","Julius-Randle-18632","Marc-Gasol-1493","49900","298.81"
"T.J.-McConnell-18956","Wesley-Matthews-1339","Cedi-Osman-18912","Julius-Randle-18632","Joel-Embiid-18578","Trae-Young-409063","Khris-Middleton-13990","Marc-Gasol-1493","50000","298.76"
"Trae-Young-409063","Kent-Bazemore-13987","Cedi-Osman-18912","Julius-Randle-18632","Joel-Embiid-18578","Kyle-Anderson-18615","Wesley-Matthews-1339","Marc-Gasol-1493","50000","298.65"

"Donovan-Mitchell-37875","Wesley-Matthews-1339","Cedi-Osman-18912","Jeff-Green-1314","Marc-Gasol-1493","Kent-Bazemore-13987","Julius-Randle-18632","Joel-Embiid-18578","50000","299.2"
"Trae-Young-409063","Evan-Turner-1291","Cedi-Osman-18912","Jeff-Green-1314","Marc-Gasol-1493","Donovan-Mitchell-37875","Julius-Randle-18632","Joel-Embiid-18578","50000","298.93"
"Trae-Young-409063","Wesley-Matthews-1339","Cedi-Osman-18912","Cheick-Diallo-35225","Joel-Embiid-18578","Donovan-Mitchell-37875","Julius-Randle-18632","Marc-Gasol-1493","49900","298.81"
"T.J.-McConnell-18956","Wesley-Matthews-1339","Cedi-Osman-18912","Julius-Randle-18632","Joel-Embiid-18578","Trae-Young-409063","Khris-Middleton-13990","Marc-Gasol-1493","50000","298.76"
"Trae-Young-409063","Kent-Bazemore-13987","Cedi-Osman-18912","Julius-Randle-18632","Joel-Embiid-18578","Kyle-Anderson-18615","Wesley-Matthews-1339","Marc-Gasol-1493","50000","298.65"
"Trae-Young-409063","J.J.-Redick-1030","Jeff-Green-1314","Cheick-Diallo-35225","Marc-Gasol-1493","Donovan-Mitchell-37875","Julius-Randle-18632","Joel-Embiid-18578","50000","298.64"
"Donovan-Mitchell-37875","Wesley-Matthews-1339","Cedi-Osman-18912","Julius-Randle-18632","Joel-Embiid-18578","Kent-Bazemore-13987","Kevin-Huerter-408969","Marc-Gasol-1493","50000","298.55"
"Trae-Young-409063","Wesley-Matthews-1339","Cedi-Osman-18912","Jerami-Grant-18576","Marc-Gasol-1493","Kent-Bazemore-13987","Julius-Randle-18632","Joel-Embiid-18578","49900","298.53"
"Trae-Young-409063","J.J.-Redick-1030","Cedi-Osman-18912","Jeff-Green-1314","Julius-Randle-18632","Donovan-Mitchell-37875","Khris-Middleton-13990","Joel-Embiid-18578","49900","298.52"
"Tim-Frazier-18743","Kent-Bazemore-13987","Cedi-Osman-18912","Julius-Randle-18632","Joel-Embiid-18578","Trae-Young-409063","Wesley-Matthews-1339","Marc-Gasol-1493","49900","298.4"
"Trae-Young-409063","J.J.-Redick-1030","Jeff-Green-1314","Jerami-Grant-18576","Marc-Gasol-1493","Kent-Bazemore-13987","Julius-Randle-18632","Joel-Embiid-18578","50000","298.36"
"Trae-Young-409063","Khris-Middleton-13990","Jeff-Green-1314","Cheick-Diallo-35225","Marc-Gasol-1493","Kent-Bazemore-13987","Julius-Randle-18632","Joel-Embiid-18578","49800","298.29"
"Trae-Young-409063","Evan-Turner-1291","Cedi-Osman-18912","Julius-Randle-18632","Joel-Embiid-18578","Donovan-Mitchell-37875","Kevin-Huerter-408969","Marc-Gasol-1493","50000","298.28"
"Tim-Frazier-18743","Kent-Bazemore-13987","J.J.-Redick-1030","Jeff-Green-1314","Marc-Gasol-1493","Trae-Young-409063","Julius-Randle-18632","Joel-Embiid-18578","50000","298.23"
"Trae-Young-409063","J.J.-Redick-1030","Cedi-Osman-18912","Dewayne-Dedmon-16894","Joel-Embiid-18578","Wesley-Matthews-1339","Julius-Randle-18632","Marc-Gasol-1493","50000","298.23"
"Trae-Young-409063","J.J.-Redick-1030","Cedi-Osman-18912","Cheick-Diallo-35225","Joel-Embiid-18578","Jeremy-Lamb-13955","Julius-Randle-18632","Marc-Gasol-1493","50000","298.21"
"Collin-Sexton-408896","Kent-Bazemore-13987","Cedi-Osman-18912","Jeff-Green-1314","Marc-Gasol-1493","Trae-Young-409063","Julius-Randle-18632","Joel-Embiid-18578","50000","298.15"
"Ricky-Rubio-1001","Khris-Middleton-13990","Cedi-Osman-18912","Jeff-Green-1314","Marc-Gasol-1493","Wesley-Matthews-1339","Julius-Randle-18632","Joel-Embiid-18578","50000","298.15"
"Donovan-Mitchell-37875","J.J.-Redick-1030","Cedi-Osman-18912","Jeff-Green-1314","Marc-Gasol-1493","Wesley-Matthews-1339","Julius-Randle-18632","Joel-Embiid-18578","49800","298.15"
"Ricky-Rubio-1001","J.J.-Redick-1030","Cedi-Osman-18912","Cheick-Diallo-35225","Joel-Embiid-18578","Trae-Young-409063","Julius-Randle-18632","Marc-Gasol-1493","50000","298.13"
"Trae-Young-409063","Wesley-Matthews-1339","Cedi-Osman-18912","Jeff-Green-1314","Marc-Gasol-1493","Jeremy-Lamb-13955","Julius-Randle-18632","Joel-Embiid-18578","49800","298.12"
"Trae-Young-409063","Khris-Middleton-13990","Jeff-Green-1314","Julius-Randle-18632","Marc-Gasol-1493","Wesley-Matthews-1339","Kyle-Anderson-18615","Joel-Embiid-18578","50000","298.11"
"Trae-Young-409063","Kent-Bazemore-13987","Cedi-Osman-18912","Julius-Randle-18632","Joel-Embiid-18578","Evan-Turner-1291","Wesley-Matthews-1339","Marc-Gasol-1493","49800","298.11"
"Trae-Young-409063","Khris-Middleton-13990","Cedi-Osman-18912","Jeff-Green-1314","Marc-Gasol-1493","Kyle-Anderson-18615","Julius-Randle-18632","Joel-Embiid-18578","49800","298.07"
"Trae-Young-409063","Khris-Middleton-13990","Cedi-Osman-18912","Jeff-Green-1314","Marc-Gasol-1493","Rodney-Hood-18629","Julius-Randle-18632","Joel-Embiid-18578","49900","298.06"
"Trae-Young-409063","Khris-Middleton-13990","Cedi-Osman-18912","Dewayne-Dedmon-16894","Joel-Embiid-18578","Kevin-Huerter-408969","Julius-Randle-18632","Marc-Gasol-1493","50000","298.05"
"Ricky-Rubio-1001","Wesley-Matthews-1339","Cedi-Osman-18912","Jeff-Green-1314","Marc-Gasol-1493","Trae-Young-409063","Julius-Randle-18632","Joel-Embiid-18578","49800","298.04"
"Donovan-Mitchell-37875","Wesley-Matthews-1339","Khris-Middleton-13990","Jeff-Green-1314","Marc-Gasol-1493","Kevin-Huerter-408969","Julius-Randle-18632","Joel-Embiid-18578","50000","298.01"
"Trae-Young-409063","Khris-Middleton-13990","Jeff-Green-1314","Julius-Randle-18632","Joel-Embiid-18578","Kent-Bazemore-13987","Furkan-Korkmaz-35185","Marc-Gasol-1493","50000","297.99"
"Trae-Young-409063","Khris-Middleton-13990","Jeff-Green-1314","Jerami-Grant-18576","Marc-Gasol-1493","Wesley-Matthews-1339","Julius-Randle-18632","Joel-Embiid-18578","49900","297.99"
"Trae-Young-409063","J.J.-Redick-1030","Kevin-Huerter-408969","Cheick-Diallo-35225","Joel-Embiid-18578","Donovan-Mitchell-37875","Julius-Randle-18632","Marc-Gasol-1493","50000","297.99"
"Donovan-Mitchell-37875","Khris-Middleton-13990","Cedi-Osman-18912","Jeff-Green-1314","Marc-Gasol-1493","Kevin-Huerter-408969","Julius-Randle-18632","Joel-Embiid-18578","49800","297.97"
"Trae-Young-409063","Wesley-Matthews-1339","Cedi-Osman-18912","Jeff-Green-1314","Joel-Embiid-18578","Donovan-Mitchell-37875","Julius-Randle-18632","Jusuf-Nurkic-18619","49900","297.96"
"Trae-Young-409063","J.J.-Redick-1030","Jeff-Green-1314","Julius-Randle-18632","Marc-Gasol-1493","Kent-Bazemore-13987","Evan-Turner-1291","Joel-Embiid-18578","49900","297.94"
"Trae-Young-409063","Kevin-Huerter-408969","Wesley-Matthews-1339","Jeff-Green-1314","Marc-Gasol-1493","Donovan-Mitchell-37875","Julius-Randle-18632","Joel-Embiid-18578","49800","297.9"
"Trae-Young-409063","Khris-Middleton-13990","J.J.-Redick-1030","Cedi-Osman-18912","Julius-Randle-18632","Donovan-Mitchell-37875","Kevin-Huerter-408969","Joel-Embiid-18578","49900","297.87"
"Trae-Young-409063","Wesley-Matthews-1339","Jeff-Green-1314","Marvin-Bagley-III-409321","Joel-Embiid-18578","Kent-Bazemore-13987","Julius-Randle-18632","Marc-Gasol-1493","49900","297.87"
"Tim-Frazier-18743","Wesley-Matthews-1339","Khris-Middleton-13990","Jeff-Green-1314","Marc-Gasol-1493","Trae-Young-409063","Julius-Randle-18632","Joel-Embiid-18578","49900","297.86"
"Trae-Young-409063","Kevin-Huerter-408969","Cedi-Osman-18912","Jeff-Green-1314","Marc-Gasol-1493","Donovan-Mitchell-37875","Julius-Randle-18632","Joel-Embiid-18578","49600","297.86"
"Derrick-Rose-1086","J.J.-Redick-1030","Cedi-Osman-18912","Jeff-Green-1314","Marc-Gasol-1493","Kent-Bazemore-13987","Julius-Randle-18632","Joel-Embiid-18578","50000","297.84"
"Trae-Young-409063","J.J.-Redick-1030","Cedi-Osman-18912","Marvin-Bagley-III-409321","Joel-Embiid-18578","Khris-Middleton-13990","Julius-Randle-18632","Kent-Bazemore-13987","50000","297.84"
"Tim-Frazier-18743","Khris-Middleton-13990","Cedi-Osman-18912","Jeff-Green-1314","Marc-Gasol-1493","Trae-Young-409063","Julius-Randle-18632","Joel-Embiid-18578","49700","297.82"
"Trae-Young-409063","J.J.-Redick-1030","Kent-Bazemore-13987","Cheick-Diallo-35225","Marc-Gasol-1493","Wesley-Matthews-1339","Julius-Randle-18632","Joel-Embiid-18578","49800","297.82"
"Jalen-Brunson-409062","Khris-Middleton-13990","Cedi-Osman-18912","Jeff-Green-1314","Marc-Gasol-1493","Donovan-Mitchell-37875","Julius-Randle-18632","Joel-Embiid-18578","50000","297.78"
"Trae-Young-409063","J.J.-Redick-1030","Cedi-Osman-18912","Cheick-Diallo-35225","Joel-Embiid-18578","Kent-Bazemore-13987","Julius-Randle-18632","Marc-Gasol-1493","49600","297.78"
"Trae-Young-409063","J.J.-Redick-1030","Cedi-Osman-18912","Julius-Randle-18632","Marc-Gasol-1493","Kent-Bazemore-13987","Garrett-Temple-14077","Joel-Embiid-18578","50000","297.77"
"Jalen-Brunson-409062","Donovan-Mitchell-37875","Wesley-Matthews-1339","Jeff-Green-1314","Marc-Gasol-1493","Trae-Young-409063","Julius-Randle-18632","Joel-Embiid-18578","50000","297.71"
"Trae-Young-409063","J.J.-Redick-1030","Kevin-Huerter-408969","Jerami-Grant-18576","Joel-Embiid-18578","Kent-Bazemore-13987","Julius-Randle-18632","Marc-Gasol-1493","50000","297.71"
"Kyle-Anderson-18615","J.J.-Redick-1030","Cedi-Osman-18912","Julius-Randle-18632","Joel-Embiid-18578","Wesley-Matthews-1339","Khris-Middleton-13990","Marc-Gasol-1493","50000","297.71"
"Trae-Young-409063","Khris-Middleton-13990","Cedi-Osman-18912","Cheick-Diallo-35225","Jusuf-Nurkic-18619","Kent-Bazemore-13987","Julius-Randle-18632","Joel-Embiid-18578","49900","297.7"
"Trae-Young-409063","Khris-Middleton-13990","J.J.-Redick-1030","Cedi-Osman-18912","Joel-Embiid-18578","Kent-Bazemore-13987","Wesley-Matthews-1339","Julius-Randle-18632","49700","297.7"
"Trae-Young-409063","Wesley-Matthews-1339","Cedi-Osman-18912","Jeff-Green-1314","Marc-Gasol-1493","Kent-Bazemore-13987","Julius-Randle-18632","Joel-Embiid-18578","49400","297.69"
"Jalen-Brunson-409062","Donovan-Mitchell-37875","Cedi-Osman-18912","Jeff-Green-1314","Marc-Gasol-1493","Trae-Young-409063","Julius-Randle-18632","Joel-Embiid-18578","49800","297.67"
"Trae-Young-409063","J.J.-Redick-1030","Evan-Turner-1291","Cheick-Diallo-35225","Marc-Gasol-1493","Khris-Middleton-13990","Julius-Randle-18632","Joel-Embiid-18578","50000","297.66"
"Trae-Young-409063","Khris-Middleton-13990","Kent-Bazemore-13987","Cheick-Diallo-35225","Marc-Gasol-1493","Kevin-Huerter-408969","Julius-Randle-18632","Joel-Embiid-18578","49800","297.64"
"Trae-Young-409063","J.J.-Redick-1030","Cedi-Osman-18912","Julius-Randle-18632","Joel-Embiid-18578","Kyle-Anderson-18615","Wesley-Matthews-1339","Marc-Gasol-1493","49800","297.6"
"Trae-Young-409063","J.J.-Redick-1030","Cedi-Osman-18912","Julius-Randle-18632","Joel-Embiid-18578","Rodney-Hood-18629","Wesley-Matthews-1339","Marc-Gasol-1493","49900","297.59"
"Trae-Young-409063","Kevin-Huerter-408969","Kent-Bazemore-13987","Jeff-Green-1314","Joel-Embiid-18578","Derrick-Rose-1086","Julius-Randle-18632","Marc-Gasol-1493","50000","297.59"
"Tim-Frazier-18743","Kent-Bazemore-13987","J.J.-Redick-1030","Julius-Randle-18632","Joel-Embiid-18578","Trae-Young-409063","Kevin-Huerter-408969","Marc-Gasol-1493","50000","297.58"
"Trae-Young-409063","Wesley-Matthews-1339","Khris-Middleton-13990","Jeff-Green-1314","Marc-Gasol-1493","Evan-Turner-1291","Julius-Randle-18632","Joel-Embiid-18578","49800","297.57"
"Trae-Young-409063","Khris-Middleton-13990","Cedi-Osman-18912","Jeff-Green-1314","Marc-Gasol-1493","Evan-Turner-1291","Julius-Randle-18632","Joel-Embiid-18578","49600","297.53"
"Trae-Young-409063","Kent-Bazemore-13987","J.J.-Redick-1030","Julius-Randle-18632","Joel-Embiid-18578","Furkan-Korkmaz-35185","Wesley-Matthews-1339","Marc-Gasol-1493","50000","297.52"
"Donovan-Mitchell-37875","J.J.-Redick-1030","Cedi-Osman-18912","Julius-Randle-18632","Joel-Embiid-18578","Wesley-Matthews-1339","Kevin-Huerter-408969","Marc-Gasol-1493","49800","297.5"
"Ricky-Rubio-1001","Khris-Middleton-13990","Cedi-Osman-18912","Julius-Randle-18632","Joel-Embiid-18578","Wesley-Matthews-1339","Kevin-Huerter-408969","Marc-Gasol-1493","50000","297.5"
"Collin-Sexton-408896","Kent-Bazemore-13987","Cedi-Osman-18912","Julius-Randle-18632","Joel-Embiid-18578","Trae-Young-409063","Kevin-Huerter-408969","Marc-Gasol-1493","50000","297.5"
"Tim-Frazier-18743","J.J.-Redick-1030","Cedi-Osman-18912","Marvin-Bagley-III-409321","Joel-Embiid-18578","Trae-Young-409063","Julius-Randle-18632","Marc-Gasol-1493","50000","297.49"
"Trae-Young-409063","J.J.-Redick-1030","Cedi-Osman-18912","Julius-Randle-18632","Marc-Gasol-1493","Kent-Bazemore-13987","Furkan-Korkmaz-35185","Joel-Embiid-18578","49800","297.48"
"Trae-Young-409063","J.J.-Redick-1030","Cedi-Osman-18912","Jerami-Grant-18576","Marc-Gasol-1493","Wesley-Matthews-1339","Julius-Randle-18632","Joel-Embiid-18578","49700","297.48"
"Trae-Young-409063","Wesley-Matthews-1339","Cedi-Osman-18912","Julius-Randle-18632","Joel-Embiid-18578","Jeremy-Lamb-13955","Kevin-Huerter-408969","Marc-Gasol-1493","49800","297.47"
"Trae-Young-409063","Wesley-Matthews-1339","Jeff-Green-1314","Wilson-Chandler-1327","Joel-Embiid-18578","Donovan-Mitchell-37875","Julius-Randle-18632","Marc-Gasol-1493","50000","297.47"
"Derrick-Rose-1086","Khris-Middleton-13990","Cedi-Osman-18912","Jeff-Green-1314","Marc-Gasol-1493","Wesley-Matthews-1339","Julius-Randle-18632","Joel-Embiid-18578","49900","297.47"
"Tim-Frazier-18743","J.J.-Redick-1030","Cedi-Osman-18912","Julius-Randle-18632","Joel-Embiid-18578","Wesley-Matthews-1339","Khris-Middleton-13990","Marc-Gasol-1493","49900","297.46"
"Trae-Young-409063","Khris-Middleton-13990","Kevin-Huerter-408969","Julius-Randle-18632","Marc-Gasol-1493","Wesley-Matthews-1339","Kyle-Anderson-18615","Joel-Embiid-18578","50000","297.46"
"Jalen-Brunson-409062","Khris-Middleton-13990","Kent-Bazemore-13987","Cheick-Diallo-35225","Marc-Gasol-1493","Trae-Young-409063","Julius-Randle-18632","Joel-Embiid-18578","50000","297.45"
"Trae-Young-409063","J.J.-Redick-1030","Cedi-Osman-18912","Cheick-Diallo-35225","Joel-Embiid-18578","Derrick-Rose-1086","Julius-Randle-18632","Marc-Gasol-1493","49900","297.45"
"Trae-Young-409063","Khris-Middleton-13990","Cedi-Osman-18912","Julius-Randle-18632","Joel-Embiid-18578","Kyle-Anderson-18615","Kevin-Huerter-408969","Marc-Gasol-1493","49800","297.42"
"Trae-Young-409063","Khris-Middleton-13990","Cedi-Osman-18912","Cheick-Diallo-35225","Joel-Embiid-18578","Wesley-Matthews-1339","Julius-Randle-18632","Marc-Gasol-1493","49500","297.41"
"Trae-Young-409063","Khris-Middleton-13990","Cedi-Osman-18912","Julius-Randle-18632","Joel-Embiid-18578","Rodney-Hood-18629","Kevin-Huerter-408969","Marc-Gasol-1493","49900","297.41"
"Trae-Young-409063","Khris-Middleton-13990","Cedi-Osman-18912","Jerami-Grant-18576","Jusuf-Nurkic-18619","Wesley-Matthews-1339","Julius-Randle-18632","Joel-Embiid-18578","50000","297.4"
"Trae-Young-409063","Khris-Middleton-13990","Cedi-Osman-18912","Julius-Randle-18632","Marc-Gasol-1493","Wesley-Matthews-1339","Garrett-Temple-14077","Joel-Embiid-18578","49900","297.4"
"Ricky-Rubio-1001","Wesley-Matthews-1339","Cedi-Osman-18912","Julius-Randle-18632","Joel-Embiid-18578","Trae-Young-409063","Kevin-Huerter-408969","Marc-Gasol-1493","49800","297.39"
"Trae-Young-409063","Khris-Middleton-13990","J.J.-Redick-1030","Cedi-Osman-18912","Joel-Embiid-18578","Derrick-Rose-1086","Wesley-Matthews-1339","Julius-Randle-18632","50000","297.37"
"Trae-Young-409063","J.J.-Redick-1030","Cedi-Osman-18912","Jeff-Green-1314","Joel-Embiid-18578","Jeremy-Lamb-13955","Julius-Randle-18632","Jusuf-Nurkic-18619","50000","297.36"
"Trae-Young-409063","Wesley-Matthews-1339","Cedi-Osman-18912","Jeff-Green-1314","Marc-Gasol-1493","Derrick-Rose-1086","Julius-Randle-18632","Joel-Embiid-18578","49700","297.36"
"Tim-Frazier-18743","J.J.-Redick-1030","Cedi-Osman-18912","Julius-Randle-18632","Joel-Embiid-18578","Trae-Young-409063","Wesley-Matthews-1339","Marc-Gasol-1493","49700","297.35"
"Trae-Young-409063","J.J.-Redick-1030","Cedi-Osman-18912","Julius-Randle-18632","Jusuf-Nurkic-18619","Evan-Turner-1291","Kent-Bazemore-13987","Joel-Embiid-18578","50000","297.35"
"Trae-Young-409063","Kevin-Huerter-408969","Khris-Middleton-13990","Julius-Randle-18632","Joel-Embiid-18578","Furkan-Korkmaz-35185","Kent-Bazemore-13987","Marc-Gasol-1493","50000","297.34"
"Trae-Young-409063","Khris-Middleton-13990","Wesley-Matthews-1339","Jerami-Grant-18576","Joel-Embiid-18578","Kevin-Huerter-408969","Julius-Randle-18632","Marc-Gasol-1493","49900","297.34"
"Alec-Burks-13353","Khris-Middleton-13990","Cedi-Osman-18912","Jeff-Green-1314","Marc-Gasol-1493","Kent-Bazemore-13987","Julius-Randle-18632","Joel-Embiid-18578","49900","297.32"
"Trae-Young-409063","Wesley-Matthews-1339","Cedi-Osman-18912","Julius-Randle-18632","Joel-Embiid-18578","Donovan-Mitchell-37875","Kevin-Huerter-408969","Jusuf-Nurkic-18619","49900","297.31"
"Jalen-Brunson-409062","J.J.-Redick-1030","Cedi-Osman-18912","Julius-Randle-18632","Joel-Embiid-18578","Donovan-Mitchell-37875","Wesley-Matthews-1339","Marc-Gasol-1493","50000","297.31"
"Trae-Young-409063","Khris-Middleton-13990","Cedi-Osman-18912","Jerami-Grant-18576","Marc-Gasol-1493","Kevin-Huerter-408969","Julius-Randle-18632","Joel-Embiid-18578","49700","297.3"
"Trae-Young-409063","J.J.-Redick-1030","Jeremy-Lamb-13955","Jeff-Green-1314","Joel-Embiid-18578","Kevin-Huerter-408969","Julius-Randle-18632","Marc-Gasol-1493","49900","297.3"
"Trae-Young-409063","Kent-Bazemore-13987","J.J.-Redick-1030","Julius-Randle-18632","Joel-Embiid-18578","Evan-Turner-1291","Kevin-Huerter-408969","Marc-Gasol-1493","49900","297.29"
"Jalen-Brunson-409062","Wesley-Matthews-1339","Cedi-Osman-18912","Julius-Randle-18632","Marc-Gasol-1493","Trae-Young-409063","Jeremy-Lamb-13955","Joel-Embiid-18578","50000","297.28"
"Ricky-Rubio-1001","J.J.-Redick-1030","Cedi-Osman-18912","Jeff-Green-1314","Joel-Embiid-18578","Trae-Young-409063","Julius-Randle-18632","Jusuf-Nurkic-18619","50000","297.28"
"Trae-Young-409063","Wesley-Matthews-1339","Cedi-Osman-18912","Marvin-Bagley-III-409321","Joel-Embiid-18578","Kent-Bazemore-13987","Julius-Randle-18632","Jusuf-Nurkic-18619","50000","297.28"
"Tim-Frazier-18743","Wesley-Matthews-1339","Cedi-Osman-18912","Julius-Randle-18632","Joel-Embiid-18578","Trae-Young-409063","Khris-Middleton-13990","Jusuf-Nurkic-18619","50000","297.27"
"Shelvin-Mack-13354","Wesley-Matthews-1339","Cedi-Osman-18912","Julius-Randle-18632","Joel-Embiid-18578","Trae-Young-409063","Khris-Middleton-13990","Marc-Gasol-1493","50000","297.25"
"Trae-Young-409063","Khris-Middleton-13990","Cedi-Osman-18912","Marvin-Bagley-III-409321","Joel-Embiid-18578","Furkan-Korkmaz-35185","Julius-Randle-18632","Marc-Gasol-1493","50000","297.25"
