"Jamal-Murray-35211","J.J.-Redick-1030","Jabari-Parker-18593","Serge-Ibaka-1294","Steven-Adams-16848","Lonzo-Ball-37885","Evan-Fournier-13913","Clint-Capela-18610","49000","280.57"

"Jamal-Murray-35211","J.J.-Redick-1030","Jabari-Parker-18593","Serge-Ibaka-1294","Steven-Adams-16848","Lonzo-Ball-37885","Evan-Fournier-13913","Clint-Capela-18610","49000","280.57"
"Jamal-Murray-35211","Evan-Fournier-13913","Jabari-Parker-18593","Serge-Ibaka-1294","DeAndre-Jordan-1486","Lonzo-Ball-37885","J.J.-Redick-1030","Clint-Capela-18610","48400","279.2"
"Jamal-Murray-35211","Evan-Fournier-13913","Jabari-Parker-18593","Serge-Ibaka-1294","Clint-Capela-18610","J.J.-Redick-1030","Gordon-Hayward-1239","Steven-Adams-16848","48900","278.87"
"Jamal-Murray-35211","Evan-Fournier-13913","Jabari-Parker-18593","Serge-Ibaka-1294","DeAndre-Jordan-1486","Lonzo-Ball-37885","J.J.-Redick-1030","Steven-Adams-16848","48400","278.55"
"Jamal-Murray-35211","Evan-Fournier-13913","Jabari-Parker-18593","Serge-Ibaka-1294","Clint-Capela-18610","Lonzo-Ball-37885","Gordon-Hayward-1239","Steven-Adams-16848","48800","278.27"
"Jamal-Murray-35211","Evan-Fournier-13913","Eric-Gordon-1077","Jabari-Parker-18593","Steven-Adams-16848","J.J.-Redick-1030","Serge-Ibaka-1294","Clint-Capela-18610","48500","278.11"
"Jamal-Murray-35211","Evan-Fournier-13913","Eric-Gordon-1077","Jabari-Parker-18593","Steven-Adams-16848","Lonzo-Ball-37885","Serge-Ibaka-1294","Clint-Capela-18610","48400","277.51"
"Jamal-Murray-35211","Evan-Fournier-13913","Jabari-Parker-18593","Serge-Ibaka-1294","DeAndre-Jordan-1486","Gordon-Hayward-1239","J.J.-Redick-1030","Clint-Capela-18610","48300","277.5"
"Jamal-Murray-35211","Gordon-Hayward-1239","Evan-Fournier-13913","Serge-Ibaka-1294","Clint-Capela-18610","Lonzo-Ball-37885","J.J.-Redick-1030","Steven-Adams-16848","48600","277.42"
"Jamal-Murray-35211","J.J.-Redick-1030","Jabari-Parker-18593","Serge-Ibaka-1294","Clint-Capela-18610","Lonzo-Ball-37885","Gordon-Hayward-1239","Steven-Adams-16848","48700","277.33"
"Jamal-Murray-35211","Jeremy-Lamb-13955","Jabari-Parker-18593","Serge-Ibaka-1294","Steven-Adams-16848","J.J.-Redick-1030","Evan-Fournier-13913","Clint-Capela-18610","48700","277.24"
"Jamal-Murray-35211","Evan-Fournier-13913","Jabari-Parker-18593","Serge-Ibaka-1294","Clint-Capela-18610","Lonzo-Ball-37885","Gordon-Hayward-1239","DeAndre-Jordan-1486","48200","276.9"
"Jamal-Murray-35211","Evan-Fournier-13913","Jabari-Parker-18593","Serge-Ibaka-1294","DeAndre-Jordan-1486","Gordon-Hayward-1239","J.J.-Redick-1030","Steven-Adams-16848","48300","276.85"
"Jamal-Murray-35211","Evan-Fournier-13913","Jerami-Grant-18576","Jabari-Parker-18593","Clint-Capela-18610","J.J.-Redick-1030","Serge-Ibaka-1294","Steven-Adams-16848","48200","276.84"
"Jamal-Murray-35211","Eric-Gordon-1077","Jabari-Parker-18593","Serge-Ibaka-1294","DeAndre-Jordan-1486","Evan-Fournier-13913","J.J.-Redick-1030","Clint-Capela-18610","47900","276.74"
"Jamal-Murray-35211","Evan-Fournier-13913","Eric-Gordon-1077","Serge-Ibaka-1294","Steven-Adams-16848","Lonzo-Ball-37885","J.J.-Redick-1030","Clint-Capela-18610","48200","276.66"
"Jamal-Murray-35211","Jeremy-Lamb-13955","Jabari-Parker-18593","Serge-Ibaka-1294","Steven-Adams-16848","Lonzo-Ball-37885","Evan-Fournier-13913","Clint-Capela-18610","48600","276.64"
"Jamal-Murray-35211","J.J.-Redick-1030","Eric-Gordon-1077","Jabari-Parker-18593","Steven-Adams-16848","Lonzo-Ball-37885","Serge-Ibaka-1294","Clint-Capela-18610","48300","276.57"
"Jamal-Murray-35211","Evan-Fournier-13913","Justin-Holiday-14559","Jabari-Parker-18593","Clint-Capela-18610","J.J.-Redick-1030","Serge-Ibaka-1294","Steven-Adams-16848","48000","276.33"
"Jamal-Murray-35211","Evan-Fournier-13913","Jabari-Parker-18593","Serge-Ibaka-1294","DeAndre-Jordan-1486","Lonzo-Ball-37885","Gordon-Hayward-1239","Steven-Adams-16848","48200","276.25"
"Jamal-Murray-35211","Evan-Fournier-13913","Jerami-Grant-18576","Jabari-Parker-18593","Clint-Capela-18610","Lonzo-Ball-37885","Serge-Ibaka-1294","Steven-Adams-16848","48100","276.24"
"Jamal-Murray-35211","Eric-Gordon-1077","Jabari-Parker-18593","Serge-Ibaka-1294","DeAndre-Jordan-1486","Lonzo-Ball-37885","Evan-Fournier-13913","Clint-Capela-18610","47800","276.14"
"Jamal-Murray-35211","Evan-Fournier-13913","J.J.-Redick-1030","Jabari-Parker-18593","Clint-Capela-18610","Lonzo-Ball-37885","Gordon-Hayward-1239","Steven-Adams-16848","48200","276.1"
"Jamal-Murray-35211","Eric-Gordon-1077","Jabari-Parker-18593","Serge-Ibaka-1294","DeAndre-Jordan-1486","Evan-Fournier-13913","J.J.-Redick-1030","Steven-Adams-16848","47900","276.09"
"Jamal-Murray-35211","Gordon-Hayward-1239","Evan-Fournier-13913","Serge-Ibaka-1294","Clint-Capela-18610","Lonzo-Ball-37885","J.J.-Redick-1030","DeAndre-Jordan-1486","48000","276.05"
"Jamal-Murray-35211","Gordon-Hayward-1239","Jabari-Parker-18593","Serge-Ibaka-1294","DeAndre-Jordan-1486","Lonzo-Ball-37885","J.J.-Redick-1030","Clint-Capela-18610","48100","275.96"
"Lonzo-Ball-37885","Evan-Fournier-13913","Jabari-Parker-18593","Serge-Ibaka-1294","Clint-Capela-18610","J.J.-Redick-1030","Gordon-Hayward-1239","Steven-Adams-16848","48000","275.91"
"Jamal-Murray-35211","Jeremy-Lamb-13955","Jabari-Parker-18593","Serge-Ibaka-1294","DeAndre-Jordan-1486","Evan-Fournier-13913","J.J.-Redick-1030","Clint-Capela-18610","48100","275.87"
"Jamal-Murray-35211","Eric-Gordon-1077","Jabari-Parker-18593","Serge-Ibaka-1294","Clint-Capela-18610","Evan-Fournier-13913","Gordon-Hayward-1239","Steven-Adams-16848","48300","275.81"
"Jamal-Murray-35211","Evan-Fournier-13913","Jeremy-Lamb-13955","Serge-Ibaka-1294","Clint-Capela-18610","Lonzo-Ball-37885","J.J.-Redick-1030","Steven-Adams-16848","48400","275.79"
"Jamal-Murray-35211","Evan-Fournier-13913","Jabari-Parker-18593","Serge-Ibaka-1294","Wendell-Carter-408878","Lonzo-Ball-37885","J.J.-Redick-1030","Clint-Capela-18610","47000","275.76"
"Jamal-Murray-35211","Evan-Fournier-13913","Justin-Holiday-14559","Jabari-Parker-18593","Clint-Capela-18610","Lonzo-Ball-37885","Serge-Ibaka-1294","Steven-Adams-16848","47900","275.73"
"Jamal-Murray-35211","J.J.-Redick-1030","Jeremy-Lamb-13955","Jabari-Parker-18593","Clint-Capela-18610","Lonzo-Ball-37885","Serge-Ibaka-1294","Steven-Adams-16848","48500","275.7"
"Jamal-Murray-35211","J.J.-Redick-1030","Jabari-Parker-18593","Serge-Ibaka-1294","Steven-Adams-16848","Darren-Collison-1060","Evan-Fournier-13913","Clint-Capela-18610","48100","275.68"
"Jamal-Murray-35211","Evan-Fournier-13913","Eric-Gordon-1077","Jabari-Parker-18593","Steven-Adams-16848","Lonzo-Ball-37885","Serge-Ibaka-1294","DeAndre-Jordan-1486","47800","275.49"
"Jamal-Murray-35211","Evan-Fournier-13913","Jerami-Grant-18576","Jabari-Parker-18593","Clint-Capela-18610","J.J.-Redick-1030","Serge-Ibaka-1294","DeAndre-Jordan-1486","47600","275.47"
"Jamal-Murray-35211","Gordon-Hayward-1239","Evan-Fournier-13913","Serge-Ibaka-1294","Steven-Adams-16848","Lonzo-Ball-37885","J.J.-Redick-1030","DeAndre-Jordan-1486","48000","275.4"
"Jamal-Murray-35211","J.J.-Redick-1030","Jerami-Grant-18576","Serge-Ibaka-1294","Clint-Capela-18610","Lonzo-Ball-37885","Evan-Fournier-13913","Steven-Adams-16848","47900","275.39"
"Jamal-Murray-35211","J.J.-Redick-1030","Eric-Gordon-1077","Jabari-Parker-18593","Steven-Adams-16848","Lonzo-Ball-37885","Evan-Fournier-13913","Clint-Capela-18610","47800","275.34"
"Jamal-Murray-35211","Gordon-Hayward-1239","Jabari-Parker-18593","Serge-Ibaka-1294","DeAndre-Jordan-1486","Lonzo-Ball-37885","J.J.-Redick-1030","Steven-Adams-16848","48100","275.31"
"Jamal-Murray-35211","J.J.-Redick-1030","Jerami-Grant-18576","Jabari-Parker-18593","Clint-Capela-18610","Lonzo-Ball-37885","Serge-Ibaka-1294","Steven-Adams-16848","48000","275.3"
"Jamal-Murray-35211","Evan-Fournier-13913","Eric-Gordon-1077","Serge-Ibaka-1294","Clint-Capela-18610","Lonzo-Ball-37885","J.J.-Redick-1030","DeAndre-Jordan-1486","47600","275.29"
"Jamal-Murray-35211","Evan-Fournier-13913","Jeremy-Lamb-13955","Jabari-Parker-18593","DeAndre-Jordan-1486","Lonzo-Ball-37885","Serge-Ibaka-1294","Clint-Capela-18610","48000","275.27"
"Jamal-Murray-35211","Jeremy-Lamb-13955","Jabari-Parker-18593","Serge-Ibaka-1294","DeAndre-Jordan-1486","Evan-Fournier-13913","J.J.-Redick-1030","Steven-Adams-16848","48100","275.22"
"Jamal-Murray-35211","Eric-Gordon-1077","Jabari-Parker-18593","Serge-Ibaka-1294","DeAndre-Jordan-1486","Lonzo-Ball-37885","J.J.-Redick-1030","Clint-Capela-18610","47700","275.2"
"Lonzo-Ball-37885","Evan-Fournier-13913","Eric-Gordon-1077","Jabari-Parker-18593","Steven-Adams-16848","J.J.-Redick-1030","Serge-Ibaka-1294","Clint-Capela-18610","47600","275.15"
"Jamal-Murray-35211","Evan-Fournier-13913","Jabari-Parker-18593","Derrick-Favors-1266","Clint-Capela-18610","J.J.-Redick-1030","Serge-Ibaka-1294","Steven-Adams-16848","48300","275.13"
"Jamal-Murray-35211","Evan-Fournier-13913","Jabari-Parker-18593","Serge-Ibaka-1294","Wendell-Carter-408878","Lonzo-Ball-37885","J.J.-Redick-1030","Steven-Adams-16848","47000","275.11"
"Lonzo-Ball-37885","Jamal-Murray-35211","Jabari-Parker-18593","Serge-Ibaka-1294","Steven-Adams-16848","Darren-Collison-1060","Evan-Fournier-13913","Clint-Capela-18610","48000","275.08"
"Jamal-Murray-35211","Evan-Fournier-13913","Justin-Holiday-14559","Jabari-Parker-18593","DeAndre-Jordan-1486","J.J.-Redick-1030","Serge-Ibaka-1294","Clint-Capela-18610","47400","274.96"
"Jamal-Murray-35211","Evan-Fournier-13913","Eric-Gordon-1077","Serge-Ibaka-1294","Steven-Adams-16848","Gordon-Hayward-1239","J.J.-Redick-1030","Clint-Capela-18610","48100","274.96"
"Jamal-Murray-35211","Jeremy-Lamb-13955","Jabari-Parker-18593","Serge-Ibaka-1294","Clint-Capela-18610","Evan-Fournier-13913","Gordon-Hayward-1239","Steven-Adams-16848","48500","274.94"
"Jamal-Murray-35211","Evan-Fournier-13913","Justin-Holiday-14559","Serge-Ibaka-1294","Steven-Adams-16848","Lonzo-Ball-37885","J.J.-Redick-1030","Clint-Capela-18610","47700","274.88"
"Jamal-Murray-35211","Eric-Gordon-1077","Jabari-Parker-18593","Serge-Ibaka-1294","Clint-Capela-18610","J.J.-Redick-1030","Gordon-Hayward-1239","Steven-Adams-16848","48200","274.87"
"Jamal-Murray-35211","Evan-Fournier-13913","Jerami-Grant-18576","Jabari-Parker-18593","Clint-Capela-18610","Lonzo-Ball-37885","Serge-Ibaka-1294","DeAndre-Jordan-1486","47500","274.87"
"Jamal-Murray-35211","Evan-Fournier-13913","Jerami-Grant-18576","Jabari-Parker-18593","DeAndre-Jordan-1486","J.J.-Redick-1030","Serge-Ibaka-1294","Steven-Adams-16848","47600","274.82"
"Jamal-Murray-35211","J.J.-Redick-1030","Justin-Holiday-14559","Jabari-Parker-18593","Clint-Capela-18610","Lonzo-Ball-37885","Serge-Ibaka-1294","Steven-Adams-16848","47800","274.79"
"Jamal-Murray-35211","Evan-Fournier-13913","J.J.-Redick-1030","Jabari-Parker-18593","Clint-Capela-18610","Lonzo-Ball-37885","Gordon-Hayward-1239","DeAndre-Jordan-1486","47600","274.73"
"Jamal-Murray-35211","Evan-Fournier-13913","Jabari-Parker-18593","Serge-Ibaka-1294","Steven-Adams-16848","J.J.-Redick-1030","Trey-Lyles-18942","Clint-Capela-18610","48000","274.72"
"Jamal-Murray-35211","Evan-Fournier-13913","Eric-Gordon-1077","Serge-Ibaka-1294","Steven-Adams-16848","Lonzo-Ball-37885","J.J.-Redick-1030","DeAndre-Jordan-1486","47600","274.64"
"Jamal-Murray-35211","Evan-Fournier-13913","Danny-Green-940","Jabari-Parker-18593","Clint-Capela-18610","J.J.-Redick-1030","Serge-Ibaka-1294","Steven-Adams-16848","47500","274.62"
"Jamal-Murray-35211","Evan-Fournier-13913","Jeremy-Lamb-13955","Jabari-Parker-18593","DeAndre-Jordan-1486","Lonzo-Ball-37885","Serge-Ibaka-1294","Steven-Adams-16848","48000","274.62"
"Jamal-Murray-35211","Eric-Gordon-1077","Jabari-Parker-18593","Serge-Ibaka-1294","DeAndre-Jordan-1486","Lonzo-Ball-37885","J.J.-Redick-1030","Steven-Adams-16848","47700","274.55"
"Jamal-Murray-35211","Evan-Fournier-13913","Jerami-Grant-18576","Jabari-Parker-18593","Clint-Capela-18610","Gordon-Hayward-1239","Serge-Ibaka-1294","Steven-Adams-16848","48000","274.54"
"Lonzo-Ball-37885","Evan-Fournier-13913","Jabari-Parker-18593","Serge-Ibaka-1294","DeAndre-Jordan-1486","Gordon-Hayward-1239","J.J.-Redick-1030","Clint-Capela-18610","47400","274.54"
"Jamal-Murray-35211","Evan-Fournier-13913","Jabari-Parker-18593","Derrick-Favors-1266","Clint-Capela-18610","Lonzo-Ball-37885","Serge-Ibaka-1294","Steven-Adams-16848","48200","274.53"
"Jamal-Murray-35211","Jeremy-Lamb-13955","Evan-Fournier-13913","Jabari-Parker-18593","Clint-Capela-18610","Lonzo-Ball-37885","J.J.-Redick-1030","Steven-Adams-16848","48000","274.47"
"Jamal-Murray-35211","Eric-Gordon-1077","Jabari-Parker-18593","Serge-Ibaka-1294","Clint-Capela-18610","Evan-Fournier-13913","Gordon-Hayward-1239","DeAndre-Jordan-1486","47700","274.44"
"Jamal-Murray-35211","Evan-Fournier-13913","Jeremy-Lamb-13955","Serge-Ibaka-1294","Clint-Capela-18610","Lonzo-Ball-37885","J.J.-Redick-1030","DeAndre-Jordan-1486","47800","274.42"
"Jamal-Murray-35211","Evan-Fournier-13913","Justin-Holiday-14559","Jabari-Parker-18593","DeAndre-Jordan-1486","Lonzo-Ball-37885","Serge-Ibaka-1294","Clint-Capela-18610","47300","274.36"
"Jamal-Murray-35211","Eric-Gordon-1077","Evan-Fournier-13913","Serge-Ibaka-1294","Clint-Capela-18610","Lonzo-Ball-37885","Gordon-Hayward-1239","Steven-Adams-16848","48000","274.36"
"Jamal-Murray-35211","Jeremy-Lamb-13955","Jabari-Parker-18593","Serge-Ibaka-1294","DeAndre-Jordan-1486","Lonzo-Ball-37885","J.J.-Redick-1030","Clint-Capela-18610","47900","274.33"
"Jamal-Murray-35211","Evan-Fournier-13913","Justin-Holiday-14559","Jabari-Parker-18593","DeAndre-Jordan-1486","J.J.-Redick-1030","Serge-Ibaka-1294","Steven-Adams-16848","47400","274.31"
"Jamal-Murray-35211","Evan-Fournier-13913","Jabari-Parker-18593","Serge-Ibaka-1294","DeAndre-Jordan-1486","Darren-Collison-1060","J.J.-Redick-1030","Clint-Capela-18610","47500","274.31"
"Lonzo-Ball-37885","Jeremy-Lamb-13955","Jabari-Parker-18593","Serge-Ibaka-1294","Steven-Adams-16848","J.J.-Redick-1030","Evan-Fournier-13913","Clint-Capela-18610","47800","274.28"
"Jamal-Murray-35211","Eric-Gordon-1077","Jabari-Parker-18593","Serge-Ibaka-1294","Clint-Capela-18610","Lonzo-Ball-37885","Gordon-Hayward-1239","Steven-Adams-16848","48100","274.27"
"Lonzo-Ball-37885","Jamal-Murray-35211","Evan-Fournier-13913","Serge-Ibaka-1294","Clint-Capela-18610","Darren-Collison-1060","J.J.-Redick-1030","Steven-Adams-16848","47800","274.23"
"Jamal-Murray-35211","Evan-Fournier-13913","Jerami-Grant-18576","Jabari-Parker-18593","DeAndre-Jordan-1486","Lonzo-Ball-37885","Serge-Ibaka-1294","Steven-Adams-16848","47500","274.22"
"Jamal-Murray-35211","Jeremy-Lamb-13955","Eric-Gordon-1077","Jabari-Parker-18593","Steven-Adams-16848","Evan-Fournier-13913","Serge-Ibaka-1294","Clint-Capela-18610","48100","274.18"
"Lonzo-Ball-37885","Jamal-Murray-35211","Jabari-Parker-18593","Serge-Ibaka-1294","Clint-Capela-18610","Darren-Collison-1060","J.J.-Redick-1030","Steven-Adams-16848","47900","274.14"
"Jamal-Murray-35211","Evan-Fournier-13913","Jabari-Parker-18593","Serge-Ibaka-1294","Steven-Adams-16848","Lonzo-Ball-37885","Trey-Lyles-18942","Clint-Capela-18610","47900","274.12"
"Jamal-Murray-35211","Evan-Fournier-13913","Jeremy-Lamb-13955","Serge-Ibaka-1294","Clint-Capela-18610","Gordon-Hayward-1239","J.J.-Redick-1030","Steven-Adams-16848","48300","274.09"
"Jamal-Murray-35211","J.J.-Redick-1030","Evan-Fournier-13913","Jabari-Parker-18593","DeAndre-Jordan-1486","Lonzo-Ball-37885","Gordon-Hayward-1239","Steven-Adams-16848","47600","274.08"
"Jamal-Murray-35211","J.J.-Redick-1030","Jerami-Grant-18576","Jabari-Parker-18593","Clint-Capela-18610","Lonzo-Ball-37885","Evan-Fournier-13913","Steven-Adams-16848","47500","274.07"
"Jamal-Murray-35211","Evan-Fournier-13913","Jabari-Parker-18593","Serge-Ibaka-1294","Clint-Capela-18610","J.J.-Redick-1030","Gordon-Hayward-1239","Wendell-Carter-408878","46900","274.06"
"Jamal-Murray-35211","Evan-Fournier-13913","Justin-Holiday-14559","Jabari-Parker-18593","Clint-Capela-18610","Gordon-Hayward-1239","Serge-Ibaka-1294","Steven-Adams-16848","47800","274.03"
"Jamal-Murray-35211","Evan-Fournier-13913","Danny-Green-940","Jabari-Parker-18593","Clint-Capela-18610","Lonzo-Ball-37885","Serge-Ibaka-1294","Steven-Adams-16848","47400","274.02"
"Jamal-Murray-35211","J.J.-Redick-1030","Jerami-Grant-18576","Serge-Ibaka-1294","Clint-Capela-18610","Lonzo-Ball-37885","Evan-Fournier-13913","DeAndre-Jordan-1486","47300","274.02"
"Jamal-Murray-35211","Jeremy-Lamb-13955","Jabari-Parker-18593","Serge-Ibaka-1294","Clint-Capela-18610","J.J.-Redick-1030","Gordon-Hayward-1239","Steven-Adams-16848","48400","274.0"
"Jamal-Murray-35211","Eric-Gordon-1077","Evan-Fournier-13913","Jabari-Parker-18593","DeAndre-Jordan-1486","Lonzo-Ball-37885","J.J.-Redick-1030","Clint-Capela-18610","47200","273.97"
"Jamal-Murray-35211","J.J.-Redick-1030","Jerami-Grant-18576","Jabari-Parker-18593","Clint-Capela-18610","Lonzo-Ball-37885","Serge-Ibaka-1294","DeAndre-Jordan-1486","47400","273.93"
"Lonzo-Ball-37885","Evan-Fournier-13913","Jabari-Parker-18593","Serge-Ibaka-1294","DeAndre-Jordan-1486","Gordon-Hayward-1239","J.J.-Redick-1030","Steven-Adams-16848","47400","273.89"
"Lonzo-Ball-37885","Evan-Fournier-13913","Jerami-Grant-18576","Jabari-Parker-18593","Clint-Capela-18610","J.J.-Redick-1030","Serge-Ibaka-1294","Steven-Adams-16848","47300","273.88"
"Jamal-Murray-35211","Evan-Fournier-13913","Eric-Gordon-1077","Jabari-Parker-18593","Steven-Adams-16848","Gordon-Hayward-1239","Serge-Ibaka-1294","DeAndre-Jordan-1486","47700","273.79"
"Jamal-Murray-35211","Eric-Gordon-1077","Jerami-Grant-18576","Jabari-Parker-18593","Clint-Capela-18610","Evan-Fournier-13913","Serge-Ibaka-1294","Steven-Adams-16848","47600","273.78"
"Lonzo-Ball-37885","Eric-Gordon-1077","Jabari-Parker-18593","Serge-Ibaka-1294","DeAndre-Jordan-1486","Evan-Fournier-13913","J.J.-Redick-1030","Clint-Capela-18610","47000","273.78"
"Jamal-Murray-35211","Jeremy-Lamb-13955","Evan-Fournier-13913","Serge-Ibaka-1294","Steven-Adams-16848","Lonzo-Ball-37885","J.J.-Redick-1030","DeAndre-Jordan-1486","47800","273.77"
"Jamal-Murray-35211","Evan-Fournier-13913","Jabari-Parker-18593","Derrick-Favors-1266","Clint-Capela-18610","J.J.-Redick-1030","Serge-Ibaka-1294","DeAndre-Jordan-1486","47700","273.76"
"Jamal-Murray-35211","Evan-Fournier-13913","Jabari-Parker-18593","Serge-Ibaka-1294","DeAndre-Jordan-1486","Lonzo-Ball-37885","J.J.-Redick-1030","Wendell-Carter-408878","46400","273.74"
"Lonzo-Ball-37885","Jamal-Murray-35211","Jabari-Parker-18593","Serge-Ibaka-1294","DeAndre-Jordan-1486","Darren-Collison-1060","Evan-Fournier-13913","Clint-Capela-18610","47400","273.71"
