"Mike-Conley-1062","MarShon-Brooks-188837","Andrew-Wiggins-18620","Paul-George-1245","Marc-Gasol-1493","Jeff-Teague-1005","Khris-Middleton-13990","Elfrid-Payton-18602","50000","283.44"
"Mike-Conley-1062","MarShon-Brooks-188837","Andrew-Wiggins-18620","Giannis-Antetokounmpo-16852","Marc-Gasol-1493","Jeff-Teague-1005","Khris-Middleton-13990","Shelvin-Mack-13354","50000","283.26"
"Mike-Conley-1062","MarShon-Brooks-188837","Andrew-Wiggins-18620","Anthony-Davis-13895","Marc-Gasol-1493","Elfrid-Payton-18602","Khris-Middleton-13990","Shelvin-Mack-13354","49900","282.44"
"Mike-Conley-1062","MarShon-Brooks-188837","Robert-Covington-16874","Anthony-Davis-13895","Marc-Gasol-1493","Jeff-Teague-1005","Andrew-Wiggins-18620","Elfrid-Payton-18602","49700","282.38"
"Mike-Conley-1062","Khris-Middleton-13990","Robert-Covington-16874","Paul-George-1245","Marc-Gasol-1493","Jeff-Teague-1005","Andrew-Wiggins-18620","Shelvin-Mack-13354","50000","282.15"

"Mike-Conley-1062","MarShon-Brooks-188837","Andrew-Wiggins-18620","Paul-George-1245","Marc-Gasol-1493","Jeff-Teague-1005","Khris-Middleton-13990","Elfrid-Payton-18602","50000","283.44"
"Mike-Conley-1062","MarShon-Brooks-188837","Andrew-Wiggins-18620","Giannis-Antetokounmpo-16852","Marc-Gasol-1493","Jeff-Teague-1005","Khris-Middleton-13990","Shelvin-Mack-13354","50000","283.26"
"Mike-Conley-1062","MarShon-Brooks-188837","Andrew-Wiggins-18620","Anthony-Davis-13895","Marc-Gasol-1493","Elfrid-Payton-18602","Khris-Middleton-13990","Shelvin-Mack-13354","49900","282.44"
"Mike-Conley-1062","MarShon-Brooks-188837","Robert-Covington-16874","Anthony-Davis-13895","Marc-Gasol-1493","Jeff-Teague-1005","Andrew-Wiggins-18620","Elfrid-Payton-18602","49700","282.38"
"Mike-Conley-1062","Khris-Middleton-13990","Robert-Covington-16874","Paul-George-1245","Marc-Gasol-1493","Jeff-Teague-1005","Andrew-Wiggins-18620","Shelvin-Mack-13354","50000","282.15"
"Jeff-Teague-1005","MarShon-Brooks-188837","Andrew-Wiggins-18620","Paul-George-1245","Karl-Anthony-Towns-18937","Elfrid-Payton-18602","Garrett-Temple-14077","Marc-Gasol-1493","50000","281.86"
"Mike-Conley-1062","MarShon-Brooks-188837","Khris-Middleton-13990","Anthony-Davis-13895","Marc-Gasol-1493","Jeff-Teague-1005","Garrett-Temple-14077","Elfrid-Payton-18602","50000","281.77"
"Jeff-Teague-1005","Garrett-Temple-14077","Robert-Covington-16874","Giannis-Antetokounmpo-16852","Marc-Gasol-1493","Andrew-Wiggins-18620","Khris-Middleton-13990","Elfrid-Payton-18602","50000","281.75"
"Shelvin-Mack-13354","MarShon-Brooks-188837","Andrew-Wiggins-18620","Giannis-Antetokounmpo-16852","Marc-Gasol-1493","Jeff-Teague-1005","Garrett-Temple-14077","Karl-Anthony-Towns-18937","50000","281.68"
"Shelvin-Mack-13354","Andrew-Wiggins-18620","Robert-Covington-16874","Giannis-Antetokounmpo-16852","Marc-Gasol-1493","Jeff-Teague-1005","Khris-Middleton-13990","Elfrid-Payton-18602","49800","281.43"
"Mike-Conley-1062","Garrett-Temple-14077","Andrew-Wiggins-18620","Robert-Covington-16874","Anthony-Davis-13895","Jeff-Teague-1005","Khris-Middleton-13990","Elfrid-Payton-18602","50000","281.41"
"Mike-Conley-1062","MarShon-Brooks-188837","Andrew-Wiggins-18620","Anthony-Davis-13895","Karl-Anthony-Towns-18937","Jeff-Teague-1005","Garrett-Temple-14077","Shelvin-Mack-13354","50000","281.34"
"Mike-Conley-1062","MarShon-Brooks-188837","Andrew-Wiggins-18620","Anthony-Davis-13895","Marc-Gasol-1493","Jeff-Teague-1005","Kyle-Anderson-18615","Elfrid-Payton-18602","49800","281.31"
"Mike-Conley-1062","Garrett-Temple-14077","Andrew-Wiggins-18620","Giannis-Antetokounmpo-16852","Marc-Gasol-1493","MarShon-Brooks-188837","Khris-Middleton-13990","Elfrid-Payton-18602","49800","281.19"
"Mike-Conley-1062","Eric-Bledsoe-1031","Andrew-Wiggins-18620","Giannis-Antetokounmpo-16852","Marc-Gasol-1493","Elfrid-Payton-18602","Garrett-Temple-14077","Shelvin-Mack-13354","49900","281.1"
"Mike-Conley-1062","Khris-Middleton-13990","Andrew-Wiggins-18620","Robert-Covington-16874","Karl-Anthony-Towns-18937","Elfrid-Payton-18602","Garrett-Temple-14077","Marc-Gasol-1493","49700","281.01"
"Mike-Conley-1062","MarShon-Brooks-188837","Andrew-Wiggins-18620","Giannis-Antetokounmpo-16852","Marc-Gasol-1493","Jeff-Teague-1005","Khris-Middleton-13990","Emmanuel-Mudiay-18936","49900","280.98"
"Mike-Conley-1062","Andrew-Wiggins-18620","Garrett-Temple-14077","Anthony-Davis-13895","Marc-Gasol-1493","Jeff-Teague-1005","Jaren-Jackson-409099","Shelvin-Mack-13354","49900","280.96"
"Mike-Conley-1062","Garrett-Temple-14077","Andrew-Wiggins-18620","Robert-Covington-16874","Karl-Anthony-Towns-18937","Elfrid-Payton-18602","Tim-Hardaway-Jr.-16879","Marc-Gasol-1493","50000","280.9"
"Mike-Conley-1062","MarShon-Brooks-188837","Andrew-Wiggins-18620","Giannis-Antetokounmpo-16852","Marc-Gasol-1493","Elfrid-Payton-18602","Khris-Middleton-13990","Shelvin-Mack-13354","49600","280.87"
"Shelvin-Mack-13354","MarShon-Brooks-188837","Andrew-Wiggins-18620","Anthony-Davis-13895","Karl-Anthony-Towns-18937","Elfrid-Payton-18602","Garrett-Temple-14077","Marc-Gasol-1493","49900","280.86"
"Mike-Conley-1062","Wayne-Selden-36045","Andrew-Wiggins-18620","Anthony-Davis-13895","Marc-Gasol-1493","Jeff-Teague-1005","Khris-Middleton-13990","Shelvin-Mack-13354","50000","280.85"
"Mike-Conley-1062","MarShon-Brooks-188837","Robert-Covington-16874","Giannis-Antetokounmpo-16852","Marc-Gasol-1493","Jeff-Teague-1005","Andrew-Wiggins-18620","Elfrid-Payton-18602","49400","280.81"
"Mike-Conley-1062","MarShon-Brooks-188837","Andrew-Wiggins-18620","Giannis-Antetokounmpo-16852","Marc-Gasol-1493","Elfrid-Payton-18602","Tim-Hardaway-Jr.-16879","Shelvin-Mack-13354","49900","280.76"
"Mike-Conley-1062","Andrew-Wiggins-18620","Robert-Covington-16874","Giannis-Antetokounmpo-16852","Marc-Gasol-1493","Jeff-Teague-1005","Kevin-Knox-408820","Elfrid-Payton-18602","50000","280.75"
"Emmanuel-Mudiay-18936","Khris-Middleton-13990","Robert-Covington-16874","Anthony-Davis-13895","Marc-Gasol-1493","Jeff-Teague-1005","Andrew-Wiggins-18620","Elfrid-Payton-18602","50000","280.72"
"Shelvin-Mack-13354","Eric-Bledsoe-1031","Andrew-Wiggins-18620","Paul-George-1245","Marc-Gasol-1493","Jeff-Teague-1005","Khris-Middleton-13990","Elfrid-Payton-18602","50000","280.64"
"Mike-Conley-1062","Garrett-Temple-14077","Andrew-Wiggins-18620","Giannis-Antetokounmpo-16852","Brook-Lopez-1498","Jeff-Teague-1005","Khris-Middleton-13990","Elfrid-Payton-18602","50000","280.6"
"Mike-Conley-1062","Garrett-Temple-14077","Robert-Covington-16874","Giannis-Antetokounmpo-16852","Brook-Lopez-1498","Jeff-Teague-1005","Andrew-Wiggins-18620","Marc-Gasol-1493","49900","280.6"
"Shelvin-Mack-13354","Garrett-Temple-14077","Robert-Covington-16874","Paul-George-1245","Marc-Gasol-1493","Jeff-Teague-1005","Andrew-Wiggins-18620","Karl-Anthony-Towns-18937","50000","280.57"
"Mike-Conley-1062","Garrett-Temple-14077","Robert-Covington-16874","Anthony-Davis-13895","Marc-Gasol-1493","Jeff-Teague-1005","Khris-Middleton-13990","Shelvin-Mack-13354","50000","280.48"
"Jeff-Teague-1005","MarShon-Brooks-188837","Andrew-Wiggins-18620","Anthony-Davis-13895","Marc-Gasol-1493","Elfrid-Payton-18602","Khris-Middleton-13990","Brook-Lopez-1498","49900","280.43"
"Shelvin-Mack-13354","Khris-Middleton-13990","Andrew-Wiggins-18620","Giannis-Antetokounmpo-16852","Marc-Gasol-1493","Jeff-Teague-1005","Kyle-Anderson-18615","Elfrid-Payton-18602","49900","280.36"
"Mike-Conley-1062","Garrett-Temple-14077","Andrew-Wiggins-18620","Robert-Covington-16874","Anthony-Davis-13895","Jeff-Teague-1005","Kyle-Anderson-18615","Marc-Gasol-1493","50000","280.34"
"Mike-Conley-1062","MarShon-Brooks-188837","Andrew-Wiggins-18620","Anthony-Davis-13895","Marc-Gasol-1493","Jeff-Teague-1005","Jerami-Grant-18576","Elfrid-Payton-18602","49700","280.3"
"Mike-Conley-1062","MarShon-Brooks-188837","Robert-Covington-16874","Giannis-Antetokounmpo-16852","Karl-Anthony-Towns-18937","Elfrid-Payton-18602","Andrew-Wiggins-18620","Shelvin-Mack-13354","50000","280.28"
"Mike-Conley-1062","MarShon-Brooks-188837","Khris-Middleton-13990","Giannis-Antetokounmpo-16852","Marc-Gasol-1493","Jeff-Teague-1005","Garrett-Temple-14077","Elfrid-Payton-18602","49700","280.2"
"Mike-Conley-1062","MarShon-Brooks-188837","Andrew-Wiggins-18620","Anthony-Davis-13895","Marc-Gasol-1493","Elfrid-Payton-18602","Khris-Middleton-13990","Emmanuel-Mudiay-18936","49800","280.16"
"Mike-Conley-1062","MarShon-Brooks-188837","Andrew-Wiggins-18620","Giannis-Antetokounmpo-16852","Marc-Gasol-1493","Jeff-Teague-1005","Garrett-Temple-14077","Eric-Bledsoe-1031","49800","280.16"
"Mike-Conley-1062","MarShon-Brooks-188837","Andrew-Wiggins-18620","Jaren-Jackson-409099","Marc-Gasol-1493","Elfrid-Payton-18602","Khris-Middleton-13990","Karl-Anthony-Towns-18937","49900","280.13"
"Shelvin-Mack-13354","Garrett-Temple-14077","Andrew-Wiggins-18620","Anthony-Davis-13895","Marc-Gasol-1493","Jeff-Teague-1005","Khris-Middleton-13990","Elfrid-Payton-18602","49400","280.1"
"Mike-Conley-1062","MarShon-Brooks-188837","Garrett-Temple-14077","Giannis-Antetokounmpo-16852","Marc-Gasol-1493","Jeff-Teague-1005","Tim-Hardaway-Jr.-16879","Elfrid-Payton-18602","50000","280.09"
"Jeff-Teague-1005","MarShon-Brooks-188837","Robert-Covington-16874","Giannis-Antetokounmpo-16852","Steven-Adams-16848","Elfrid-Payton-18602","Andrew-Wiggins-18620","Marc-Gasol-1493","49900","280.09"
"Mike-Conley-1062","Garrett-Temple-14077","Robert-Covington-16874","Paul-George-1245","Marc-Gasol-1493","Elfrid-Payton-18602","Andrew-Wiggins-18620","Khris-Middleton-13990","49800","280.08"
"Mike-Conley-1062","Khris-Middleton-13990","Andrew-Wiggins-18620","Paul-George-1245","Marc-Gasol-1493","Jeff-Teague-1005","Jerami-Grant-18576","Shelvin-Mack-13354","50000","280.07"
"Mike-Conley-1062","Malcolm-Brogdon-35195","Robert-Covington-16874","Paul-George-1245","Marc-Gasol-1493","Jeff-Teague-1005","Andrew-Wiggins-18620","Elfrid-Payton-18602","49900","280.04"
"Mike-Conley-1062","Andrew-Wiggins-18620","Robert-Covington-16874","Anthony-Davis-13895","Marc-Gasol-1493","Jeff-Teague-1005","Kyle-Anderson-18615","Shelvin-Mack-13354","49800","280.02"
"Mike-Conley-1062","MarShon-Brooks-188837","Andrew-Wiggins-18620","Paul-George-1245","Karl-Anthony-Towns-18937","Shelvin-Mack-13354","Garrett-Temple-14077","Marc-Gasol-1493","49800","280.01"
"Shelvin-Mack-13354","Tim-Hardaway-Jr.-16879","Andrew-Wiggins-18620","Anthony-Davis-13895","Marc-Gasol-1493","Jeff-Teague-1005","Garrett-Temple-14077","Elfrid-Payton-18602","49700","279.99"
"Mike-Conley-1062","Eric-Bledsoe-1031","Andrew-Wiggins-18620","Robert-Covington-16874","Karl-Anthony-Towns-18937","Jeff-Teague-1005","Garrett-Temple-14077","Marc-Gasol-1493","49700","279.98"
"Mike-Conley-1062","MarShon-Brooks-188837","Andrew-Wiggins-18620","Paul-George-1245","Karl-Anthony-Towns-18937","Jeff-Teague-1005","Garrett-Temple-14077","Elfrid-Payton-18602","49700","279.95"
"Shelvin-Mack-13354","MarShon-Brooks-188837","Andrew-Wiggins-18620","Paul-George-1245","Marc-Gasol-1493","Elfrid-Payton-18602","Garrett-Temple-14077","Anthony-Davis-13895","50000","279.93"
"Jeff-Teague-1005","Garrett-Temple-14077","Robert-Covington-16874","Anthony-Davis-13895","Marc-Gasol-1493","Eric-Bledsoe-1031","Andrew-Wiggins-18620","Elfrid-Payton-18602","49900","279.9"
"Mike-Conley-1062","Garrett-Temple-14077","Robert-Covington-16874","Giannis-Antetokounmpo-16852","Marc-Gasol-1493","Andrew-Wiggins-18620","Khris-Middleton-13990","Shelvin-Mack-13354","49800","279.9"
"Mike-Conley-1062","Andrew-Wiggins-18620","Robert-Covington-16874","Giannis-Antetokounmpo-16852","Marc-Gasol-1493","Elfrid-Payton-18602","Jaren-Jackson-409099","Shelvin-Mack-13354","49900","279.9"
"Mike-Conley-1062","Khris-Middleton-13990","Robert-Covington-16874","Paul-George-1245","Marc-Gasol-1493","Jeff-Teague-1005","Andrew-Wiggins-18620","Emmanuel-Mudiay-18936","49900","279.87"
"Mike-Conley-1062","Malcolm-Brogdon-35195","Robert-Covington-16874","Giannis-Antetokounmpo-16852","Marc-Gasol-1493","Jeff-Teague-1005","Andrew-Wiggins-18620","Shelvin-Mack-13354","49900","279.86"
"Mike-Conley-1062","MarShon-Brooks-188837","Robert-Covington-16874","Anthony-Davis-13895","Marc-Gasol-1493","Shelvin-Mack-13354","Andrew-Wiggins-18620","Steven-Adams-16848","50000","279.81"
"Mike-Conley-1062","Andrew-Wiggins-18620","Robert-Covington-16874","Anthony-Davis-13895","Brook-Lopez-1498","Elfrid-Payton-18602","Garrett-Temple-14077","Marc-Gasol-1493","49800","279.78"
"Mike-Conley-1062","MarShon-Brooks-188837","Andrew-Wiggins-18620","Giannis-Antetokounmpo-16852","Karl-Anthony-Towns-18937","Jeff-Teague-1005","Garrett-Temple-14077","Shelvin-Mack-13354","49700","279.77"
"Mike-Conley-1062","Khris-Middleton-13990","Robert-Covington-16874","Paul-George-1245","Marc-Gasol-1493","Elfrid-Payton-18602","Andrew-Wiggins-18620","Shelvin-Mack-13354","49600","279.76"
"Mike-Conley-1062","MarShon-Brooks-188837","Robert-Covington-16874","Anthony-Davis-13895","Steven-Adams-16848","Jeff-Teague-1005","Andrew-Wiggins-18620","Elfrid-Payton-18602","49900","279.75"
"Mike-Conley-1062","MarShon-Brooks-188837","Andrew-Wiggins-18620","Robert-Covington-16874","Karl-Anthony-Towns-18937","Jeff-Teague-1005","Khris-Middleton-13990","Marc-Gasol-1493","49400","279.75"
"Mike-Conley-1062","MarShon-Brooks-188837","Andrew-Wiggins-18620","Giannis-Antetokounmpo-16852","Marc-Gasol-1493","Jeff-Teague-1005","Kyle-Anderson-18615","Elfrid-Payton-18602","49500","279.74"
"Mike-Conley-1062","Andrew-Wiggins-18620","Khris-Middleton-13990","Robert-Covington-16874","Karl-Anthony-Towns-18937","Jeff-Teague-1005","Kevin-Knox-408820","Marc-Gasol-1493","50000","279.69"
"Shelvin-Mack-13354","MarShon-Brooks-188837","Andrew-Wiggins-18620","Giannis-Antetokounmpo-16852","Anthony-Davis-13895","Jeff-Teague-1005","Garrett-Temple-14077","Elfrid-Payton-18602","49900","279.69"
"Jeff-Teague-1005","Garrett-Temple-14077","Khris-Middleton-13990","Giannis-Antetokounmpo-16852","Marc-Gasol-1493","Andrew-Wiggins-18620","Jerami-Grant-18576","Elfrid-Payton-18602","50000","279.67"
"Jeff-Teague-1005","Khris-Middleton-13990","Robert-Covington-16874","Anthony-Davis-13895","Marc-Gasol-1493","MarShon-Brooks-188837","Andrew-Wiggins-18620","Elfrid-Payton-18602","49600","279.67"
"Mike-Conley-1062","Tim-Hardaway-Jr.-16879","Robert-Covington-16874","Paul-George-1245","Marc-Gasol-1493","Elfrid-Payton-18602","Andrew-Wiggins-18620","Shelvin-Mack-13354","49900","279.65"
"Mike-Conley-1062","MarShon-Brooks-188837","Andrew-Wiggins-18620","Robert-Covington-16874","Karl-Anthony-Towns-18937","Jeff-Teague-1005","Tim-Hardaway-Jr.-16879","Marc-Gasol-1493","49700","279.64"
"Mike-Conley-1062","Garrett-Temple-14077","Andrew-Wiggins-18620","Giannis-Antetokounmpo-16852","Marc-Gasol-1493","Wayne-Selden-36045","Khris-Middleton-13990","Jeff-Teague-1005","49900","279.6"
"Mike-Conley-1062","Wayne-Selden-36045","Andrew-Wiggins-18620","Giannis-Antetokounmpo-16852","Marc-Gasol-1493","Jeff-Teague-1005","Jaren-Jackson-409099","Elfrid-Payton-18602","50000","279.6"
"Mike-Conley-1062","MarShon-Brooks-188837","Andrew-Wiggins-18620","Paul-George-1245","Brook-Lopez-1498","Jeff-Teague-1005","Khris-Middleton-13990","Marc-Gasol-1493","49800","279.58"
"Shelvin-Mack-13354","Eric-Bledsoe-1031","Robert-Covington-16874","Anthony-Davis-13895","Marc-Gasol-1493","Jeff-Teague-1005","Andrew-Wiggins-18620","Elfrid-Payton-18602","49700","279.58"
"Mike-Conley-1062","Andrew-Wiggins-18620","Garrett-Temple-14077","Jaren-Jackson-409099","Marc-Gasol-1493","Jeff-Teague-1005","Paul-George-1245","Elfrid-Payton-18602","49600","279.57"
"Mike-Conley-1062","MarShon-Brooks-188837","Andrew-Wiggins-18620","Anthony-Davis-13895","Enes-Kanter-13299","Elfrid-Payton-18602","Garrett-Temple-14077","Marc-Gasol-1493","50000","279.57"
"Jeff-Teague-1005","MarShon-Brooks-188837","Robert-Covington-16874","Anthony-Davis-13895","Marc-Gasol-1493","Elfrid-Payton-18602","Andrew-Wiggins-18620","Tim-Hardaway-Jr.-16879","49900","279.56"
"Mike-Conley-1062","Damyean-Dotson-37795","Andrew-Wiggins-18620","Anthony-Davis-13895","Marc-Gasol-1493","Jeff-Teague-1005","Garrett-Temple-14077","Elfrid-Payton-18602","49700","279.55"
"Mike-Conley-1062","Garrett-Temple-14077","Andrew-Wiggins-18620","Giannis-Antetokounmpo-16852","Marc-Gasol-1493","Jeff-Teague-1005","Kyle-Anderson-18615","Brook-Lopez-1498","50000","279.53"
"Shelvin-Mack-13354","Andrew-Wiggins-18620","Robert-Covington-16874","Anthony-Davis-13895","Karl-Anthony-Towns-18937","Jeff-Teague-1005","Garrett-Temple-14077","Elfrid-Payton-18602","49800","279.51"
"Mike-Conley-1062","MarShon-Brooks-188837","Andrew-Wiggins-18620","Anthony-Davis-13895","Marc-Gasol-1493","Jeff-Teague-1005","Garrett-Temple-14077","Elfrid-Payton-18602","49000","279.48"
"Mike-Conley-1062","Wayne-Selden-36045","Andrew-Wiggins-18620","Paul-George-1245","Marc-Gasol-1493","Jeff-Teague-1005","Khris-Middleton-13990","Elfrid-Payton-18602","49700","279.46"
"Mike-Conley-1062","Andrew-Wiggins-18620","Kevin-Knox-408820","Anthony-Davis-13895","Marc-Gasol-1493","Jeff-Teague-1005","Garrett-Temple-14077","Elfrid-Payton-18602","49600","279.42"
"Emmanuel-Mudiay-18936","MarShon-Brooks-188837","Andrew-Wiggins-18620","Giannis-Antetokounmpo-16852","Marc-Gasol-1493","Jeff-Teague-1005","Garrett-Temple-14077","Karl-Anthony-Towns-18937","49900","279.4"
"Mike-Conley-1062","Garrett-Temple-14077","Andrew-Wiggins-18620","Giannis-Antetokounmpo-16852","Marc-Gasol-1493","Jeff-Teague-1005","Jaren-Jackson-409099","Shelvin-Mack-13354","49600","279.39"
"Mike-Conley-1062","Garrett-Temple-14077","Robert-Covington-16874","Anthony-Davis-13895","Marc-Gasol-1493","Malcolm-Brogdon-35195","Andrew-Wiggins-18620","Elfrid-Payton-18602","50000","279.36"
"Mike-Conley-1062","Wayne-Selden-36045","Andrew-Wiggins-18620","Paul-George-1245","Marc-Gasol-1493","Jeff-Teague-1005","Tim-Hardaway-Jr.-16879","Elfrid-Payton-18602","50000","279.35"
"Shelvin-Mack-13354","Andrew-Wiggins-18620","Khris-Middleton-13990","Giannis-Antetokounmpo-16852","Marc-Gasol-1493","Jeff-Teague-1005","Jerami-Grant-18576","Elfrid-Payton-18602","49800","279.35"
"Mike-Conley-1062","MarShon-Brooks-188837","Andrew-Wiggins-18620","Anthony-Davis-13895","Marc-Gasol-1493","Eric-Bledsoe-1031","Garrett-Temple-14077","Elfrid-Payton-18602","49700","279.34"
"Mike-Conley-1062","Andrew-Wiggins-18620","Garrett-Temple-14077","Anthony-Davis-13895","Marc-Gasol-1493","Jeff-Teague-1005","Jerami-Grant-18576","Robert-Covington-16874","49900","279.33"
"Mike-Conley-1062","Andrew-Wiggins-18620","Khris-Middleton-13990","Jerami-Grant-18576","Anthony-Davis-13895","Jeff-Teague-1005","Garrett-Temple-14077","Elfrid-Payton-18602","50000","279.33"
"Shelvin-Mack-13354","MarShon-Brooks-188837","Andrew-Wiggins-18620","Giannis-Antetokounmpo-16852","Marc-Gasol-1493","Elfrid-Payton-18602","Garrett-Temple-14077","Karl-Anthony-Towns-18937","49600","279.29"
"Mike-Conley-1062","Wayne-Selden-36045","Andrew-Wiggins-18620","Giannis-Antetokounmpo-16852","Marc-Gasol-1493","Jeff-Teague-1005","Khris-Middleton-13990","Shelvin-Mack-13354","49700","279.28"
"Shelvin-Mack-13354","Wayne-Selden-36045","Andrew-Wiggins-18620","Anthony-Davis-13895","Karl-Anthony-Towns-18937","Jeff-Teague-1005","Garrett-Temple-14077","Marc-Gasol-1493","50000","279.27"
"Mike-Conley-1062","Tim-Hardaway-Jr.-16879","Andrew-Wiggins-18620","Jaren-Jackson-409099","Marc-Gasol-1493","Jeff-Teague-1005","Khris-Middleton-13990","Elfrid-Payton-18602","49700","279.26"
"Mike-Conley-1062","Khris-Middleton-13990","Andrew-Wiggins-18620","Paul-George-1245","Marc-Gasol-1493","Jeff-Teague-1005","Garrett-Temple-14077","Shelvin-Mack-13354","49300","279.25"
"Mike-Conley-1062","Garrett-Temple-14077","Robert-Covington-16874","Giannis-Antetokounmpo-16852","Marc-Gasol-1493","Jeff-Teague-1005","Jaren-Jackson-409099","Elfrid-Payton-18602","50000","279.23"
"Mike-Conley-1062","Andrew-Wiggins-18620","Khris-Middleton-13990","Jaren-Jackson-409099","Marc-Gasol-1493","MarShon-Brooks-188837","Paul-George-1245","Elfrid-Payton-18602","50000","279.2"
"Mike-Conley-1062","Garrett-Temple-14077","Robert-Covington-16874","Anthony-Davis-13895","Marc-Gasol-1493","Khris-Middleton-13990","Andrew-Wiggins-18620","Emmanuel-Mudiay-18936","50000","279.19"
"Mike-Conley-1062","Wayne-Selden-36045","Andrew-Wiggins-18620","Giannis-Antetokounmpo-16852","Marc-Gasol-1493","Jeff-Teague-1005","Tim-Hardaway-Jr.-16879","Shelvin-Mack-13354","50000","279.17"
