"Damian-Lillard-13900","DeMar-DeRozan-1053","Rudy-Gay-1341","Dwight-Powell-18566","DeAndre-Jordan-1486","Shai-Gilgeous-Alexander-408990","Wesley-Matthews-1339","LaMarcus-Aldridge-1349","50000","282.02"
"Dennis-Smith-Jr.-37847","Lou-Williams-1044","DeMar-DeRozan-1053","LaMarcus-Aldridge-1349","Jusuf-Nurkic-18619","Wesley-Matthews-1339","Rudy-Gay-1341","DeAndre-Jordan-1486","49800","281.96"
"Lou-Williams-1044","DeMar-DeRozan-1053","Harrison-Barnes-13901","LaMarcus-Aldridge-1349","DeAndre-Jordan-1486","Wesley-Matthews-1339","Rudy-Gay-1341","Danilo-Gallinari-1329","49800","281.2"

"Damian-Lillard-13900","DeMar-DeRozan-1053","Rudy-Gay-1341","Dwight-Powell-18566","DeAndre-Jordan-1486","Shai-Gilgeous-Alexander-408990","Wesley-Matthews-1339","LaMarcus-Aldridge-1349","50000","282.02"
"Dennis-Smith-Jr.-37847","Lou-Williams-1044","DeMar-DeRozan-1053","LaMarcus-Aldridge-1349","Jusuf-Nurkic-18619","Wesley-Matthews-1339","Rudy-Gay-1341","DeAndre-Jordan-1486","49800","281.96"
"Lou-Williams-1044","DeMar-DeRozan-1053","Harrison-Barnes-13901","LaMarcus-Aldridge-1349","DeAndre-Jordan-1486","Wesley-Matthews-1339","Rudy-Gay-1341","Danilo-Gallinari-1329","49800","281.2"
"J.J.-Barea-18605","DeMar-DeRozan-1053","Rudy-Gay-1341","Dwight-Powell-18566","DeAndre-Jordan-1486","Damian-Lillard-13900","Wesley-Matthews-1339","LaMarcus-Aldridge-1349","49900","281.18"
"C.J.-McCollum-17121","DeMar-DeRozan-1053","Rudy-Gay-1341","LaMarcus-Aldridge-1349","Jusuf-Nurkic-18619","Wesley-Matthews-1339","Dwight-Powell-18566","DeAndre-Jordan-1486","49500","280.75"
"Dennis-Smith-Jr.-37847","DeMar-DeRozan-1053","Harrison-Barnes-13901","LaMarcus-Aldridge-1349","DeAndre-Jordan-1486","Wesley-Matthews-1339","Al-Farouq-Aminu-1279","Jusuf-Nurkic-18619","49900","280.55"
"Dennis-Smith-Jr.-37847","Wesley-Matthews-1339","Rudy-Gay-1341","LaMarcus-Aldridge-1349","Jusuf-Nurkic-18619","Damian-Lillard-13900","Dwight-Powell-18566","DeAndre-Jordan-1486","49700","280.3"
"Dennis-Smith-Jr.-37847","DeMar-DeRozan-1053","Rudy-Gay-1341","LaMarcus-Aldridge-1349","Dwight-Powell-18566","Damian-Lillard-13900","Wesley-Matthews-1339","Harrison-Barnes-13901","49900","280.28"
"Damian-Lillard-13900","DeMar-DeRozan-1053","Al-Farouq-Aminu-1279","LaMarcus-Aldridge-1349","DeAndre-Jordan-1486","Wesley-Matthews-1339","Dwight-Powell-18566","Rudy-Gay-1341","49400","280.15"
"Dennis-Smith-Jr.-37847","Shai-Gilgeous-Alexander-408990","DeMar-DeRozan-1053","LaMarcus-Aldridge-1349","Jusuf-Nurkic-18619","Wesley-Matthews-1339","Rudy-Gay-1341","DeAndre-Jordan-1486","49700","280.11"
"Damian-Lillard-13900","DeMar-DeRozan-1053","Wesley-Matthews-1339","LaMarcus-Aldridge-1349","DeAndre-Jordan-1486","Avery-Bradley-941","Dwight-Powell-18566","Harrison-Barnes-13901","49900","279.46"
"Dennis-Smith-Jr.-37847","DeMar-DeRozan-1053","Harrison-Barnes-13901","LaMarcus-Aldridge-1349","Dwight-Powell-18566","Wesley-Matthews-1339","Tobias-Harris-13332","DeAndre-Jordan-1486","49800","279.41"
"Lou-Williams-1044","DeMar-DeRozan-1053","Harrison-Barnes-13901","LaMarcus-Aldridge-1349","DeAndre-Jordan-1486","Wesley-Matthews-1339","Al-Farouq-Aminu-1279","Jusuf-Nurkic-18619","49600","279.4"
"Shai-Gilgeous-Alexander-408990","DeMar-DeRozan-1053","Harrison-Barnes-13901","LaMarcus-Aldridge-1349","DeAndre-Jordan-1486","Wesley-Matthews-1339","Rudy-Gay-1341","Danilo-Gallinari-1329","49700","279.35"
"Dennis-Smith-Jr.-37847","DeMar-DeRozan-1053","Harrison-Barnes-13901","LaMarcus-Aldridge-1349","DeAndre-Jordan-1486","Wesley-Matthews-1339","Dwight-Powell-18566","Jusuf-Nurkic-18619","48900","279.32"
"Dennis-Smith-Jr.-37847","DeMar-DeRozan-1053","Rudy-Gay-1341","Dwight-Powell-18566","DeAndre-Jordan-1486","Damian-Lillard-13900","Wesley-Matthews-1339","Jusuf-Nurkic-18619","49900","279.32"
"Dennis-Smith-Jr.-37847","Lou-Williams-1044","Danilo-Gallinari-1329","LaMarcus-Aldridge-1349","DeAndre-Jordan-1486","DeMar-DeRozan-1053","Wesley-Matthews-1339","Harrison-Barnes-13901","49900","279.29"
"Dennis-Smith-Jr.-37847","J.J.-Barea-18605","Wesley-Matthews-1339","LaMarcus-Aldridge-1349","DeAndre-Jordan-1486","DeMar-DeRozan-1053","Dwight-Powell-18566","Damian-Lillard-13900","50000","279.27"
"Dennis-Smith-Jr.-37847","J.J.-Barea-18605","DeMar-DeRozan-1053","LaMarcus-Aldridge-1349","Jusuf-Nurkic-18619","Wesley-Matthews-1339","Rudy-Gay-1341","DeAndre-Jordan-1486","49600","279.27"
"Dennis-Smith-Jr.-37847","Lou-Williams-1044","Harrison-Barnes-13901","LaMarcus-Aldridge-1349","DeAndre-Jordan-1486","DeMar-DeRozan-1053","Dwight-Powell-18566","Jusuf-Nurkic-18619","49600","279.26"
"Lou-Williams-1044","Wesley-Matthews-1339","Rudy-Gay-1341","LaMarcus-Aldridge-1349","Jusuf-Nurkic-18619","Damian-Lillard-13900","Dwight-Powell-18566","DeAndre-Jordan-1486","49400","279.15"
"Lou-Williams-1044","DeMar-DeRozan-1053","Rudy-Gay-1341","LaMarcus-Aldridge-1349","Dwight-Powell-18566","Damian-Lillard-13900","Wesley-Matthews-1339","Harrison-Barnes-13901","49600","279.13"
"Dennis-Smith-Jr.-37847","Patty-Mills-13977","Harrison-Barnes-13901","LaMarcus-Aldridge-1349","DeAndre-Jordan-1486","DeMar-DeRozan-1053","Rudy-Gay-1341","Jusuf-Nurkic-18619","49900","279.0"
"Lou-Williams-1044","DeMar-DeRozan-1053","Wesley-Matthews-1339","LaMarcus-Aldridge-1349","DeAndre-Jordan-1486","Damian-Lillard-13900","Dwight-Powell-18566","Shai-Gilgeous-Alexander-408990","49800","278.96"
"Lou-Williams-1044","Shai-Gilgeous-Alexander-408990","DeMar-DeRozan-1053","LaMarcus-Aldridge-1349","Jusuf-Nurkic-18619","Wesley-Matthews-1339","Rudy-Gay-1341","DeAndre-Jordan-1486","49400","278.96"
"Damian-Lillard-13900","DeMar-DeRozan-1053","Rudy-Gay-1341","Al-Farouq-Aminu-1279","Jusuf-Nurkic-18619","Wesley-Matthews-1339","Dwight-Powell-18566","LaMarcus-Aldridge-1349","49800","278.88"
"C.J.-McCollum-17121","DeMar-DeRozan-1053","Wesley-Matthews-1339","LaMarcus-Aldridge-1349","DeAndre-Jordan-1486","Dennis-Smith-Jr.-37847","Dwight-Powell-18566","Jusuf-Nurkic-18619","49600","278.84"
"J.J.-Barea-18605","Wesley-Matthews-1339","Harrison-Barnes-13901","LaMarcus-Aldridge-1349","DeAndre-Jordan-1486","Damian-Lillard-13900","Dwight-Powell-18566","Jusuf-Nurkic-18619","50000","278.77"
"Patty-Mills-13977","DeMar-DeRozan-1053","Danilo-Gallinari-1329","LaMarcus-Aldridge-1349","Jusuf-Nurkic-18619","Wesley-Matthews-1339","Harrison-Barnes-13901","DeAndre-Jordan-1486","49900","278.71"
"C.J.-McCollum-17121","Wesley-Matthews-1339","Harrison-Barnes-13901","LaMarcus-Aldridge-1349","DeAndre-Jordan-1486","Dennis-Smith-Jr.-37847","Rudy-Gay-1341","Jusuf-Nurkic-18619","49900","278.66"
"Bryn-Forbes-36052","DeMar-DeRozan-1053","Harrison-Barnes-13901","Tobias-Harris-13332","LaMarcus-Aldridge-1349","Wesley-Matthews-1339","Rudy-Gay-1341","DeAndre-Jordan-1486","50000","278.59"
"J.J.-Barea-18605","Shai-Gilgeous-Alexander-408990","Harrison-Barnes-13901","LaMarcus-Aldridge-1349","Jusuf-Nurkic-18619","Wesley-Matthews-1339","DeMar-DeRozan-1053","DeAndre-Jordan-1486","50000","278.58"
"Damian-Lillard-13900","DeMar-DeRozan-1053","Danilo-Gallinari-1329","Harrison-Barnes-13901","DeAndre-Jordan-1486","Wesley-Matthews-1339","Rudy-Gay-1341","Dwight-Powell-18566","49900","278.56"
"C.J.-McCollum-17121","DeMar-DeRozan-1053","Harrison-Barnes-13901","LaMarcus-Aldridge-1349","DeAndre-Jordan-1486","Wesley-Matthews-1339","Rudy-Gay-1341","Al-Farouq-Aminu-1279","49600","278.51"
"J.J.-Barea-18605","DeMar-DeRozan-1053","Harrison-Barnes-13901","LaMarcus-Aldridge-1349","DeAndre-Jordan-1486","Wesley-Matthews-1339","Rudy-Gay-1341","Danilo-Gallinari-1329","49600","278.51"
"Bryn-Forbes-36052","DeMar-DeRozan-1053","Wesley-Matthews-1339","LaMarcus-Aldridge-1349","DeAndre-Jordan-1486","Damian-Lillard-13900","Dwight-Powell-18566","Harrison-Barnes-13901","49500","278.5"
"Bryn-Forbes-36052","DeMar-DeRozan-1053","Harrison-Barnes-13901","LaMarcus-Aldridge-1349","DeAndre-Jordan-1486","Wesley-Matthews-1339","Rudy-Gay-1341","Jusuf-Nurkic-18619","49100","278.5"
"Dennis-Smith-Jr.-37847","Lou-Williams-1044","Harrison-Barnes-13901","Rudy-Gay-1341","DeAndre-Jordan-1486","Wesley-Matthews-1339","DeMar-DeRozan-1053","LaMarcus-Aldridge-1349","48900","278.49"
"Bryn-Forbes-36052","Lou-Williams-1044","Harrison-Barnes-13901","LaMarcus-Aldridge-1349","DeAndre-Jordan-1486","DeMar-DeRozan-1053","Rudy-Gay-1341","Jusuf-Nurkic-18619","49800","278.44"
"C.J.-McCollum-17121","DeMar-DeRozan-1053","Harrison-Barnes-13901","LaMarcus-Aldridge-1349","Dwight-Powell-18566","Dennis-Smith-Jr.-37847","Rudy-Gay-1341","DeAndre-Jordan-1486","49600","278.37"
"Dennis-Smith-Jr.-37847","DeMar-DeRozan-1053","Tobias-Harris-13332","Rudy-Gay-1341","LaMarcus-Aldridge-1349","Wesley-Matthews-1339","Al-Farouq-Aminu-1279","DeAndre-Jordan-1486","50000","278.33"
"Lou-Williams-1044","DeMar-DeRozan-1053","Harrison-Barnes-13901","LaMarcus-Aldridge-1349","Dwight-Powell-18566","Wesley-Matthews-1339","Tobias-Harris-13332","DeAndre-Jordan-1486","49500","278.26"
"Damian-Lillard-13900","DeMar-DeRozan-1053","Al-Farouq-Aminu-1279","LaMarcus-Aldridge-1349","DeAndre-Jordan-1486","Shai-Gilgeous-Alexander-408990","Dwight-Powell-18566","Rudy-Gay-1341","50000","278.24"
"Dennis-Smith-Jr.-37847","DeMar-DeRozan-1053","Wesley-Matthews-1339","LaMarcus-Aldridge-1349","DeAndre-Jordan-1486","Damian-Lillard-13900","Dwight-Powell-18566","Al-Farouq-Aminu-1279","49500","278.24"
"Dennis-Smith-Jr.-37847","DeMar-DeRozan-1053","Rudy-Gay-1341","LaMarcus-Aldridge-1349","Jusuf-Nurkic-18619","Wesley-Matthews-1339","Al-Farouq-Aminu-1279","DeAndre-Jordan-1486","49100","278.24"
"Devin-Harris-1076","DeMar-DeRozan-1053","Wesley-Matthews-1339","LaMarcus-Aldridge-1349","DeAndre-Jordan-1486","Damian-Lillard-13900","Dwight-Powell-18566","Jusuf-Nurkic-18619","49900","278.21"
"Dennis-Smith-Jr.-37847","Lou-Williams-1044","Rudy-Gay-1341","LaMarcus-Aldridge-1349","Jusuf-Nurkic-18619","DeMar-DeRozan-1053","Al-Farouq-Aminu-1279","DeAndre-Jordan-1486","49800","278.18"
"Lou-Williams-1044","DeMar-DeRozan-1053","Harrison-Barnes-13901","LaMarcus-Aldridge-1349","DeAndre-Jordan-1486","Wesley-Matthews-1339","Dwight-Powell-18566","Jusuf-Nurkic-18619","48600","278.17"
"Lou-Williams-1044","DeMar-DeRozan-1053","Rudy-Gay-1341","Dwight-Powell-18566","DeAndre-Jordan-1486","Damian-Lillard-13900","Wesley-Matthews-1339","Jusuf-Nurkic-18619","49600","278.17"
"Lou-Williams-1044","J.J.-Barea-18605","Wesley-Matthews-1339","LaMarcus-Aldridge-1349","DeAndre-Jordan-1486","DeMar-DeRozan-1053","Dwight-Powell-18566","Damian-Lillard-13900","49700","278.12"
"Lou-Williams-1044","J.J.-Barea-18605","DeMar-DeRozan-1053","LaMarcus-Aldridge-1349","Jusuf-Nurkic-18619","Wesley-Matthews-1339","Rudy-Gay-1341","DeAndre-Jordan-1486","49300","278.12"
"C.J.-McCollum-17121","DeMar-DeRozan-1053","Danilo-Gallinari-1329","LaMarcus-Aldridge-1349","Dwight-Powell-18566","Wesley-Matthews-1339","Harrison-Barnes-13901","DeAndre-Jordan-1486","49600","278.08"
"Dennis-Smith-Jr.-37847","Wesley-Matthews-1339","Harrison-Barnes-13901","LaMarcus-Aldridge-1349","DeAndre-Jordan-1486","Damian-Lillard-13900","Rudy-Gay-1341","Al-Farouq-Aminu-1279","49800","278.06"
"C.J.-McCollum-17121","Bryn-Forbes-36052","DeMar-DeRozan-1053","LaMarcus-Aldridge-1349","Jusuf-Nurkic-18619","Wesley-Matthews-1339","Rudy-Gay-1341","DeAndre-Jordan-1486","49800","278.02"
"C.J.-McCollum-17121","Lou-Williams-1044","DeMar-DeRozan-1053","Rudy-Gay-1341","DeAndre-Jordan-1486","Dennis-Smith-Jr.-37847","Wesley-Matthews-1339","LaMarcus-Aldridge-1349","49600","278.01"
"C.J.-McCollum-17121","J.J.-Barea-18605","Rudy-Gay-1341","LaMarcus-Aldridge-1349","Jusuf-Nurkic-18619","DeMar-DeRozan-1053","Dwight-Powell-18566","DeAndre-Jordan-1486","50000","278.0"
"Patty-Mills-13977","DeMar-DeRozan-1053","Harrison-Barnes-13901","Tobias-Harris-13332","LaMarcus-Aldridge-1349","Wesley-Matthews-1339","Rudy-Gay-1341","DeAndre-Jordan-1486","49800","278.0"
"Damian-Lillard-13900","DeMar-DeRozan-1053","Harrison-Barnes-13901","LaMarcus-Aldridge-1349","DeAndre-Jordan-1486","Wesley-Matthews-1339","Davis-Bertans-36051","Dwight-Powell-18566","49300","277.95"
"Lou-Williams-1044","J.J.-Barea-18605","Harrison-Barnes-13901","LaMarcus-Aldridge-1349","DeAndre-Jordan-1486","Damian-Lillard-13900","Rudy-Gay-1341","Wesley-Matthews-1339","50000","277.94"
"Damian-Lillard-13900","Patty-Mills-13977","Wesley-Matthews-1339","LaMarcus-Aldridge-1349","DeAndre-Jordan-1486","DeMar-DeRozan-1053","Dwight-Powell-18566","Harrison-Barnes-13901","49300","277.91"
"Patty-Mills-13977","DeMar-DeRozan-1053","Harrison-Barnes-13901","LaMarcus-Aldridge-1349","DeAndre-Jordan-1486","Wesley-Matthews-1339","Rudy-Gay-1341","Jusuf-Nurkic-18619","48900","277.91"
"Dennis-Smith-Jr.-37847","DeMar-DeRozan-1053","Harrison-Barnes-13901","LaMarcus-Aldridge-1349","DeAndre-Jordan-1486","Patrick-Beverley-14108","Rudy-Gay-1341","Jusuf-Nurkic-18619","50000","277.9"
"J.J.-Barea-18605","Wesley-Matthews-1339","DeMar-DeRozan-1053","LaMarcus-Aldridge-1349","DeAndre-Jordan-1486","Damian-Lillard-13900","Davis-Bertans-36051","Rudy-Gay-1341","50000","277.9"
"Dennis-Smith-Jr.-37847","DeMar-DeRozan-1053","Danilo-Gallinari-1329","LaMarcus-Aldridge-1349","DeAndre-Jordan-1486","Wesley-Matthews-1339","Tobias-Harris-13332","Dwight-Powell-18566","50000","277.9"
"Lou-Williams-1044","DeMar-DeRozan-1053","Harrison-Barnes-13901","LaMarcus-Aldridge-1349","DeAndre-Jordan-1486","Damian-Lillard-13900","Davis-Bertans-36051","Dwight-Powell-18566","50000","277.89"
"Lou-Williams-1044","DeMar-DeRozan-1053","Danilo-Gallinari-1329","LaMarcus-Aldridge-1349","DeAndre-Jordan-1486","Wesley-Matthews-1339","Al-Farouq-Aminu-1279","Jusuf-Nurkic-18619","49800","277.89"
"J.J.-Barea-18605","Patty-Mills-13977","DeMar-DeRozan-1053","Rudy-Gay-1341","DeAndre-Jordan-1486","Damian-Lillard-13900","Wesley-Matthews-1339","LaMarcus-Aldridge-1349","50000","277.86"
"Lou-Williams-1044","Patty-Mills-13977","DeMar-DeRozan-1053","LaMarcus-Aldridge-1349","DeAndre-Jordan-1486","Damian-Lillard-13900","Dwight-Powell-18566","Harrison-Barnes-13901","50000","277.85"
"Lou-Williams-1044","Patty-Mills-13977","Harrison-Barnes-13901","LaMarcus-Aldridge-1349","DeAndre-Jordan-1486","DeMar-DeRozan-1053","Rudy-Gay-1341","Jusuf-Nurkic-18619","49600","277.85"
"Dennis-Smith-Jr.-37847","DeMar-DeRozan-1053","Danilo-Gallinari-1329","LaMarcus-Aldridge-1349","Jusuf-Nurkic-18619","Wesley-Matthews-1339","Dwight-Powell-18566","DeAndre-Jordan-1486","49100","277.81"
"Dennis-Smith-Jr.-37847","Lou-Williams-1044","Danilo-Gallinari-1329","LaMarcus-Aldridge-1349","Jusuf-Nurkic-18619","DeMar-DeRozan-1053","Dwight-Powell-18566","DeAndre-Jordan-1486","49800","277.75"
"Devin-Harris-1076","DeMar-DeRozan-1053","Harrison-Barnes-13901","LaMarcus-Aldridge-1349","Dwight-Powell-18566","Damian-Lillard-13900","Rudy-Gay-1341","DeAndre-Jordan-1486","49900","277.74"
"C.J.-McCollum-17121","Lou-Williams-1044","Wesley-Matthews-1339","LaMarcus-Aldridge-1349","DeAndre-Jordan-1486","DeMar-DeRozan-1053","Dwight-Powell-18566","Jusuf-Nurkic-18619","49300","277.69"
"Dennis-Smith-Jr.-37847","Wesley-Matthews-1339","Danilo-Gallinari-1329","LaMarcus-Aldridge-1349","Dwight-Powell-18566","Damian-Lillard-13900","Harrison-Barnes-13901","DeAndre-Jordan-1486","49800","277.63"
"Lou-Williams-1044","DeMar-DeRozan-1053","Rudy-Gay-1341","LaMarcus-Aldridge-1349","Dwight-Powell-18566","Damian-Lillard-13900","Wesley-Matthews-1339","Danilo-Gallinari-1329","49800","277.62"
"Patrick-Beverley-14108","DeMar-DeRozan-1053","Danilo-Gallinari-1329","LaMarcus-Aldridge-1349","Jusuf-Nurkic-18619","Wesley-Matthews-1339","Harrison-Barnes-13901","DeAndre-Jordan-1486","50000","277.61"
"Dennis-Smith-Jr.-37847","Bryn-Forbes-36052","Rudy-Gay-1341","LaMarcus-Aldridge-1349","DeAndre-Jordan-1486","Damian-Lillard-13900","Wesley-Matthews-1339","Jusuf-Nurkic-18619","50000","277.57"
"Dennis-Smith-Jr.-37847","Wesley-Matthews-1339","Harrison-Barnes-13901","LaMarcus-Aldridge-1349","Jusuf-Nurkic-18619","Avery-Bradley-941","DeMar-DeRozan-1053","DeAndre-Jordan-1486","49600","277.55"
"Shai-Gilgeous-Alexander-408990","DeMar-DeRozan-1053","Harrison-Barnes-13901","LaMarcus-Aldridge-1349","DeAndre-Jordan-1486","Wesley-Matthews-1339","Al-Farouq-Aminu-1279","Jusuf-Nurkic-18619","49500","277.55"
"C.J.-McCollum-17121","Lou-Williams-1044","Wesley-Matthews-1339","LaMarcus-Aldridge-1349","DeAndre-Jordan-1486","Damian-Lillard-13900","Dwight-Powell-18566","Harrison-Barnes-13901","50000","277.51"
"C.J.-McCollum-17121","Lou-Williams-1044","Harrison-Barnes-13901","LaMarcus-Aldridge-1349","DeAndre-Jordan-1486","Wesley-Matthews-1339","Rudy-Gay-1341","Jusuf-Nurkic-18619","49600","277.51"
"C.J.-McCollum-17121","DeMar-DeRozan-1053","Rudy-Gay-1341","LaMarcus-Aldridge-1349","Jusuf-Nurkic-18619","Wesley-Matthews-1339","Davis-Bertans-36051","DeAndre-Jordan-1486","49600","277.47"
"C.J.-McCollum-17121","DeMar-DeRozan-1053","Wesley-Matthews-1339","LaMarcus-Aldridge-1349","DeAndre-Jordan-1486","Damian-Lillard-13900","Dwight-Powell-18566","Davis-Bertans-36051","50000","277.47"
"Dennis-Smith-Jr.-37847","DeMar-DeRozan-1053","Danilo-Gallinari-1329","LaMarcus-Aldridge-1349","DeAndre-Jordan-1486","Shai-Gilgeous-Alexander-408990","Wesley-Matthews-1339","Harrison-Barnes-13901","49800","277.44"
"C.J.-McCollum-17121","Patty-Mills-13977","DeMar-DeRozan-1053","LaMarcus-Aldridge-1349","Jusuf-Nurkic-18619","Wesley-Matthews-1339","Rudy-Gay-1341","DeAndre-Jordan-1486","49600","277.43"
"C.J.-McCollum-17121","Patty-Mills-13977","Wesley-Matthews-1339","LaMarcus-Aldridge-1349","DeAndre-Jordan-1486","DeMar-DeRozan-1053","Dwight-Powell-18566","Damian-Lillard-13900","50000","277.43"
"Bryn-Forbes-36052","DeMar-DeRozan-1053","Al-Farouq-Aminu-1279","LaMarcus-Aldridge-1349","DeAndre-Jordan-1486","Damian-Lillard-13900","Wesley-Matthews-1339","Rudy-Gay-1341","49700","277.42"
"Dennis-Smith-Jr.-37847","DeMar-DeRozan-1053","Harrison-Barnes-13901","LaMarcus-Aldridge-1349","DeAndre-Jordan-1486","Shai-Gilgeous-Alexander-408990","Dwight-Powell-18566","Jusuf-Nurkic-18619","49500","277.41"
"J.J.-Barea-18605","DeMar-DeRozan-1053","Al-Farouq-Aminu-1279","LaMarcus-Aldridge-1349","DeAndre-Jordan-1486","Damian-Lillard-13900","Dwight-Powell-18566","Rudy-Gay-1341","49900","277.4"
"Lou-Williams-1044","Devin-Harris-1076","DeMar-DeRozan-1053","Rudy-Gay-1341","DeAndre-Jordan-1486","Damian-Lillard-13900","Wesley-Matthews-1339","LaMarcus-Aldridge-1349","49900","277.38"
"Dennis-Smith-Jr.-37847","Lou-Williams-1044","Tobias-Harris-13332","LaMarcus-Aldridge-1349","DeAndre-Jordan-1486","Wesley-Matthews-1339","Rudy-Gay-1341","Jusuf-Nurkic-18619","50000","277.33"
"C.J.-McCollum-17121","Lou-Williams-1044","DeMar-DeRozan-1053","Harrison-Barnes-13901","DeAndre-Jordan-1486","Shai-Gilgeous-Alexander-408990","Wesley-Matthews-1339","LaMarcus-Aldridge-1349","50000","277.32"
"Damian-Lillard-13900","Shai-Gilgeous-Alexander-408990","Rudy-Gay-1341","LaMarcus-Aldridge-1349","Jusuf-Nurkic-18619","Wesley-Matthews-1339","Dwight-Powell-18566","DeAndre-Jordan-1486","49300","277.3"
"Dennis-Smith-Jr.-37847","Bryn-Forbes-36052","DeMar-DeRozan-1053","LaMarcus-Aldridge-1349","DeAndre-Jordan-1486","Damian-Lillard-13900","Dwight-Powell-18566","Rudy-Gay-1341","49700","277.28"
"Damian-Lillard-13900","DeMar-DeRozan-1053","Rudy-Gay-1341","LaMarcus-Aldridge-1349","Dwight-Powell-18566","Shai-Gilgeous-Alexander-408990","Wesley-Matthews-1339","Harrison-Barnes-13901","49500","277.28"
"C.J.-McCollum-17121","DeMar-DeRozan-1053","Harrison-Barnes-13901","LaMarcus-Aldridge-1349","Dwight-Powell-18566","Wesley-Matthews-1339","Rudy-Gay-1341","DeAndre-Jordan-1486","48600","277.28"
"J.J.-Barea-18605","DeMar-DeRozan-1053","Danilo-Gallinari-1329","LaMarcus-Aldridge-1349","Jusuf-Nurkic-18619","Wesley-Matthews-1339","Harrison-Barnes-13901","Rudy-Gay-1341","50000","277.24"
"Lou-Williams-1044","Shai-Gilgeous-Alexander-408990","Rudy-Gay-1341","LaMarcus-Aldridge-1349","Jusuf-Nurkic-18619","Damian-Lillard-13900","Dwight-Powell-18566","DeAndre-Jordan-1486","50000","277.24"
"C.J.-McCollum-17121","DeMar-DeRozan-1053","Rudy-Gay-1341","LaMarcus-Aldridge-1349","Jusuf-Nurkic-18619","Wesley-Matthews-1339","Al-Farouq-Aminu-1279","Harrison-Barnes-13901","50000","277.24"
"Dennis-Smith-Jr.-37847","Lou-Williams-1044","Wesley-Matthews-1339","LaMarcus-Aldridge-1349","DeAndre-Jordan-1486","Damian-Lillard-13900","Dwight-Powell-18566","Jusuf-Nurkic-18619","49500","277.24"
