"De'Aaron-Fox-37900","Buddy-Hield-35206","Nemanja-Bjelica-31814","Julius-Randle-18632","Willie-Cauley-Stein-18951","Jamal-Murray-35211","Maxi-Kleber-37845","Montrezl-Harrell-18930","49700","286.09"
"De'Aaron-Fox-37900","Bogdan-Bogdanovic-37899","Nemanja-Bjelica-31814","Montrezl-Harrell-18930","Mason-Plumlee-16798","Jamal-Murray-35211","Julius-Randle-18632","Willie-Cauley-Stein-18951","50000","285.2"
"Jamal-Murray-35211","Buddy-Hield-35206","Nemanja-Bjelica-31814","Julius-Randle-18632","Willie-Cauley-Stein-18951","Wesley-Matthews-1339","Maxi-Kleber-37845","Nikola-Jokic-31812","49800","284.93"
"Jamal-Murray-35211","Buddy-Hield-35206","Nemanja-Bjelica-31814","Montrezl-Harrell-18930","Willie-Cauley-Stein-18951","Wesley-Matthews-1339","Maxi-Kleber-37845","Anthony-Davis-13895","49800","284.59"
"Jamal-Murray-35211","Buddy-Hield-35206","Nemanja-Bjelica-31814","Montrezl-Harrell-18930","Willie-Cauley-Stein-18951","Wesley-Matthews-1339","Julius-Randle-18632","LaMarcus-Aldridge-1349","50000","284.59"

"De'Aaron-Fox-37900","Buddy-Hield-35206","Nemanja-Bjelica-31814","Julius-Randle-18632","Willie-Cauley-Stein-18951","Jamal-Murray-35211","Maxi-Kleber-37845","Montrezl-Harrell-18930","49700","286.09"
"De'Aaron-Fox-37900","Bogdan-Bogdanovic-37899","Nemanja-Bjelica-31814","Montrezl-Harrell-18930","Mason-Plumlee-16798","Jamal-Murray-35211","Julius-Randle-18632","Willie-Cauley-Stein-18951","50000","285.2"
"Jamal-Murray-35211","Buddy-Hield-35206","Nemanja-Bjelica-31814","Julius-Randle-18632","Willie-Cauley-Stein-18951","Wesley-Matthews-1339","Maxi-Kleber-37845","Nikola-Jokic-31812","49800","284.93"
"Jamal-Murray-35211","Buddy-Hield-35206","Nemanja-Bjelica-31814","Montrezl-Harrell-18930","Willie-Cauley-Stein-18951","Wesley-Matthews-1339","Maxi-Kleber-37845","Anthony-Davis-13895","49800","284.59"
"Jamal-Murray-35211","Buddy-Hield-35206","Nemanja-Bjelica-31814","Montrezl-Harrell-18930","Willie-Cauley-Stein-18951","Wesley-Matthews-1339","Julius-Randle-18632","LaMarcus-Aldridge-1349","50000","284.59"
"Shai-Gilgeous-Alexander-408990","Buddy-Hield-35206","Nemanja-Bjelica-31814","Julius-Randle-18632","Willie-Cauley-Stein-18951","Jamal-Murray-35211","Maxi-Kleber-37845","Nikola-Jokic-31812","49900","284.53"
"De'Aaron-Fox-37900","Wesley-Matthews-1339","Nemanja-Bjelica-31814","Julius-Randle-18632","DeAndre-Jordan-1486","Jamal-Murray-35211","Mason-Plumlee-16798","Willie-Cauley-Stein-18951","49600","284.38"
"Shai-Gilgeous-Alexander-408990","Buddy-Hield-35206","Nemanja-Bjelica-31814","Montrezl-Harrell-18930","Willie-Cauley-Stein-18951","Jamal-Murray-35211","Maxi-Kleber-37845","Anthony-Davis-13895","49900","284.19"
"Jamal-Murray-35211","Buddy-Hield-35206","Nemanja-Bjelica-31814","Julius-Randle-18632","DeAndre-Jordan-1486","Bogdan-Bogdanovic-37899","Mason-Plumlee-16798","Willie-Cauley-Stein-18951","49700","284.18"
"De'Aaron-Fox-37900","Buddy-Hield-35206","Nemanja-Bjelica-31814","Montrezl-Harrell-18930","Mason-Plumlee-16798","Wesley-Matthews-1339","Julius-Randle-18632","Willie-Cauley-Stein-18951","49800","284.14"
"Jamal-Murray-35211","Buddy-Hield-35206","Nemanja-Bjelica-31814","Montrezl-Harrell-18930","Willie-Cauley-Stein-18951","Wesley-Matthews-1339","Julius-Randle-18632","DeAndre-Jordan-1486","49200","284.06"
"De'Aaron-Fox-37900","Wesley-Matthews-1339","Buddy-Hield-35206","Julius-Randle-18632","Willie-Cauley-Stein-18951","Jamal-Murray-35211","Maxi-Kleber-37845","DeAndre-Jordan-1486","50000","284.03"
"De'Aaron-Fox-37900","Shai-Gilgeous-Alexander-408990","Nemanja-Bjelica-31814","Julius-Randle-18632","DeAndre-Jordan-1486","Jamal-Murray-35211","Mason-Plumlee-16798","Willie-Cauley-Stein-18951","49700","283.98"
"De'Aaron-Fox-37900","Buddy-Hield-35206","Nemanja-Bjelica-31814","Montrezl-Harrell-18930","Mason-Plumlee-16798","Shai-Gilgeous-Alexander-408990","Julius-Randle-18632","Willie-Cauley-Stein-18951","49900","283.74"
"Derrick-White-37858","Buddy-Hield-35206","Nemanja-Bjelica-31814","Julius-Randle-18632","Anthony-Davis-13895","Jamal-Murray-35211","Maxi-Kleber-37845","Mason-Plumlee-16798","49900","283.7"
"Jamal-Murray-35211","Wesley-Matthews-1339","Nemanja-Bjelica-31814","Montrezl-Harrell-18930","Willie-Cauley-Stein-18951","DeMar-DeRozan-1053","Julius-Randle-18632","DeAndre-Jordan-1486","49900","283.69"
"Jrue-Holiday-1073","Buddy-Hield-35206","Nemanja-Bjelica-31814","Julius-Randle-18632","Willie-Cauley-Stein-18951","Jamal-Murray-35211","Maxi-Kleber-37845","Mason-Plumlee-16798","49700","283.66"
"Shai-Gilgeous-Alexander-408990","Buddy-Hield-35206","Nemanja-Bjelica-31814","Montrezl-Harrell-18930","Willie-Cauley-Stein-18951","Jamal-Murray-35211","Julius-Randle-18632","DeAndre-Jordan-1486","49300","283.66"
"Shai-Gilgeous-Alexander-408990","Wesley-Matthews-1339","Nemanja-Bjelica-31814","Montrezl-Harrell-18930","Willie-Cauley-Stein-18951","Jamal-Murray-35211","Julius-Randle-18632","Nikola-Jokic-31812","49700","283.52"
"Jamal-Murray-35211","Buddy-Hield-35206","Nemanja-Bjelica-31814","Tobias-Harris-13332","Mason-Plumlee-16798","Wesley-Matthews-1339","Julius-Randle-18632","Willie-Cauley-Stein-18951","50000","283.3"
"Shai-Gilgeous-Alexander-408990","DeMar-DeRozan-1053","Nemanja-Bjelica-31814","Montrezl-Harrell-18930","Willie-Cauley-Stein-18951","Jamal-Murray-35211","Julius-Randle-18632","DeAndre-Jordan-1486","50000","283.29"
"De'Aaron-Fox-37900","Derrick-White-37858","Nemanja-Bjelica-31814","Montrezl-Harrell-18930","Willie-Cauley-Stein-18951","Jamal-Murray-35211","Julius-Randle-18632","DeAndre-Jordan-1486","49500","283.27"
"De'Aaron-Fox-37900","Buddy-Hield-35206","Nemanja-Bjelica-31814","Julius-Randle-18632","Willie-Cauley-Stein-18951","Jamal-Murray-35211","Maxi-Kleber-37845","Mason-Plumlee-16798","49100","283.15"
"Shai-Gilgeous-Alexander-408990","Wesley-Matthews-1339","Nemanja-Bjelica-31814","Julius-Randle-18632","Willie-Cauley-Stein-18951","Jamal-Murray-35211","Maxi-Kleber-37845","Anthony-Davis-13895","49300","283.14"
"De'Aaron-Fox-37900","J.J.-Barea-18605","Nemanja-Bjelica-31814","Julius-Randle-18632","DeAndre-Jordan-1486","Jamal-Murray-35211","Mason-Plumlee-16798","Willie-Cauley-Stein-18951","50000","283.06"
"Derrick-White-37858","Bogdan-Bogdanovic-37899","Nemanja-Bjelica-31814","Montrezl-Harrell-18930","Willie-Cauley-Stein-18951","Jamal-Murray-35211","Julius-Randle-18632","Nikola-Jokic-31812","50000","282.93"
"De'Aaron-Fox-37900","Derrick-White-37858","Nemanja-Bjelica-31814","Julius-Randle-18632","Mason-Plumlee-16798","Jamal-Murray-35211","Buddy-Hield-35206","Willie-Cauley-Stein-18951","49700","282.82"
"Jamal-Murray-35211","Wesley-Matthews-1339","Buddy-Hield-35206","Montrezl-Harrell-18930","DeAndre-Jordan-1486","Bogdan-Bogdanovic-37899","Julius-Randle-18632","Willie-Cauley-Stein-18951","49900","282.82"
"Derrick-White-37858","Jamal-Murray-35211","Nemanja-Bjelica-31814","Julius-Randle-18632","Willie-Cauley-Stein-18951","Bryn-Forbes-36052","Anthony-Davis-13895","Mason-Plumlee-16798","49900","282.82"
"Shai-Gilgeous-Alexander-408990","Derrick-White-37858","Nemanja-Bjelica-31814","Anthony-Davis-13895","Willie-Cauley-Stein-18951","Jamal-Murray-35211","Wesley-Matthews-1339","Julius-Randle-18632","49900","282.81"
"De'Aaron-Fox-37900","DeMar-DeRozan-1053","Nemanja-Bjelica-31814","Julius-Randle-18632","Willie-Cauley-Stein-18951","Jamal-Murray-35211","Maxi-Kleber-37845","Mason-Plumlee-16798","49800","282.78"
"Derrick-White-37858","Buddy-Hield-35206","Nemanja-Bjelica-31814","Julius-Randle-18632","Willie-Cauley-Stein-18951","Jamal-Murray-35211","LaMarcus-Aldridge-1349","DeAndre-Jordan-1486","50000","282.78"
"Derrick-White-37858","Buddy-Hield-35206","Nemanja-Bjelica-31814","Maxi-Kleber-37845","Willie-Cauley-Stein-18951","Jamal-Murray-35211","Anthony-Davis-13895","DeAndre-Jordan-1486","49800","282.78"
"J.J.-Barea-18605","Buddy-Hield-35206","Nemanja-Bjelica-31814","Montrezl-Harrell-18930","Willie-Cauley-Stein-18951","Jamal-Murray-35211","Julius-Randle-18632","DeAndre-Jordan-1486","49600","282.74"
"Patty-Mills-13977","Derrick-White-37858","Nemanja-Bjelica-31814","Montrezl-Harrell-18930","Anthony-Davis-13895","Jamal-Murray-35211","Julius-Randle-18632","Willie-Cauley-Stein-18951","50000","282.74"
"Derrick-White-37858","Wesley-Matthews-1339","Nemanja-Bjelica-31814","Montrezl-Harrell-18930","Anthony-Davis-13895","Jamal-Murray-35211","Julius-Randle-18632","Mason-Plumlee-16798","49700","282.69"
"Jrue-Holiday-1073","Wesley-Matthews-1339","Nemanja-Bjelica-31814","Montrezl-Harrell-18930","Mason-Plumlee-16798","Jamal-Murray-35211","Julius-Randle-18632","Willie-Cauley-Stein-18951","49500","282.65"
"De'Aaron-Fox-37900","Shai-Gilgeous-Alexander-408990","Wesley-Matthews-1339","Montrezl-Harrell-18930","Willie-Cauley-Stein-18951","Jamal-Murray-35211","Julius-Randle-18632","DeAndre-Jordan-1486","49900","282.62"
"J.J.-Barea-18605","Wesley-Matthews-1339","Nemanja-Bjelica-31814","Montrezl-Harrell-18930","Willie-Cauley-Stein-18951","Jamal-Murray-35211","Julius-Randle-18632","Nikola-Jokic-31812","50000","282.6"
"De'Aaron-Fox-37900","Buddy-Hield-35206","Nemanja-Bjelica-31814","Montrezl-Harrell-18930","DeAndre-Jordan-1486","Jamal-Murray-35211","Julius-Randle-18632","Maxi-Kleber-37845","49600","282.6"
"Shai-Gilgeous-Alexander-408990","Buddy-Hield-35206","Nemanja-Bjelica-31814","Julius-Randle-18632","Nikola-Jokic-31812","Wesley-Matthews-1339","Mason-Plumlee-16798","Willie-Cauley-Stein-18951","50000","282.58"
"Derrick-White-37858","Bogdan-Bogdanovic-37899","Nemanja-Bjelica-31814","Julius-Randle-18632","Willie-Cauley-Stein-18951","Jamal-Murray-35211","Maxi-Kleber-37845","Anthony-Davis-13895","49600","282.55"
"Shai-Gilgeous-Alexander-408990","Wesley-Matthews-1339","Nemanja-Bjelica-31814","Mason-Plumlee-16798","DeAndre-Jordan-1486","Jamal-Murray-35211","Anthony-Davis-13895","Willie-Cauley-Stein-18951","49800","282.48"
"De'Aaron-Fox-37900","Wesley-Matthews-1339","Nemanja-Bjelica-31814","Montrezl-Harrell-18930","Nikola-Jokic-31812","Jamal-Murray-35211","Maxi-Kleber-37845","Julius-Randle-18632","50000","282.46"
"Jamal-Murray-35211","Buddy-Hield-35206","Nemanja-Bjelica-31814","Julius-Randle-18632","Willie-Cauley-Stein-18951","DeMar-DeRozan-1053","Maxi-Kleber-37845","Montrezl-Harrell-18930","49400","282.46"
"Shai-Gilgeous-Alexander-408990","Bogdan-Bogdanovic-37899","Buddy-Hield-35206","Montrezl-Harrell-18930","DeAndre-Jordan-1486","Jamal-Murray-35211","Julius-Randle-18632","Willie-Cauley-Stein-18951","50000","282.42"
"De'Aaron-Fox-37900","Buddy-Hield-35206","Nemanja-Bjelica-31814","Julius-Randle-18632","DeAndre-Jordan-1486","Derrick-White-37858","Mason-Plumlee-16798","Willie-Cauley-Stein-18951","49800","282.33"
"Shai-Gilgeous-Alexander-408990","Wesley-Matthews-1339","Nemanja-Bjelica-31814","Julius-Randle-18632","DeAndre-Jordan-1486","Derrick-White-37858","Anthony-Davis-13895","Willie-Cauley-Stein-18951","50000","282.32"
"Jrue-Holiday-1073","Wesley-Matthews-1339","Buddy-Hield-35206","Montrezl-Harrell-18930","Willie-Cauley-Stein-18951","Jamal-Murray-35211","Maxi-Kleber-37845","Julius-Randle-18632","49900","282.3"
"Shai-Gilgeous-Alexander-408990","Derrick-White-37858","Nemanja-Bjelica-31814","Montrezl-Harrell-18930","Anthony-Davis-13895","Jamal-Murray-35211","Julius-Randle-18632","Mason-Plumlee-16798","49800","282.29"
"Jrue-Holiday-1073","Shai-Gilgeous-Alexander-408990","Nemanja-Bjelica-31814","Montrezl-Harrell-18930","Mason-Plumlee-16798","Jamal-Murray-35211","Julius-Randle-18632","Willie-Cauley-Stein-18951","49600","282.25"
"De'Aaron-Fox-37900","Buddy-Hield-35206","Nemanja-Bjelica-31814","Julius-Randle-18632","Willie-Cauley-Stein-18951","Jamal-Murray-35211","Maxi-Kleber-37845","Rudy-Gay-1341","49900","282.24"
"Shai-Gilgeous-Alexander-408990","Buddy-Hield-35206","Nemanja-Bjelica-31814","Montrezl-Harrell-18930","Willie-Cauley-Stein-18951","Wesley-Matthews-1339","Mason-Plumlee-16798","Anthony-Davis-13895","50000","282.24"
"De'Aaron-Fox-37900","Wesley-Matthews-1339","Nemanja-Bjelica-31814","Julius-Randle-18632","DeAndre-Jordan-1486","Jamal-Murray-35211","Bogdan-Bogdanovic-37899","Willie-Cauley-Stein-18951","50000","282.23"
"J.J.-Barea-18605","Wesley-Matthews-1339","Nemanja-Bjelica-31814","Julius-Randle-18632","Willie-Cauley-Stein-18951","Jamal-Murray-35211","Maxi-Kleber-37845","Anthony-Davis-13895","49600","282.22"
"Derrick-White-37858","Buddy-Hield-35206","Nemanja-Bjelica-31814","Montrezl-Harrell-18930","Julius-Randle-18632","Jamal-Murray-35211","Tobias-Harris-13332","Willie-Cauley-Stein-18951","49900","282.19"
"Jamal-Murray-35211","Buddy-Hield-35206","Nemanja-Bjelica-31814","Julius-Randle-18632","Anthony-Davis-13895","Bryn-Forbes-36052","Maxi-Kleber-37845","Mason-Plumlee-16798","50000","282.15"
"De'Aaron-Fox-37900","Wesley-Matthews-1339","Rudy-Gay-1341","Montrezl-Harrell-18930","Mason-Plumlee-16798","Jamal-Murray-35211","Julius-Randle-18632","Willie-Cauley-Stein-18951","50000","282.14"
"Shai-Gilgeous-Alexander-408990","Buddy-Hield-35206","Nemanja-Bjelica-31814","Julius-Randle-18632","Maxi-Kleber-37845","Jamal-Murray-35211","Wesley-Matthews-1339","Anthony-Davis-13895","50000","282.14"
"De'Aaron-Fox-37900","Wesley-Matthews-1339","Nemanja-Bjelica-31814","Montrezl-Harrell-18930","Mason-Plumlee-16798","Jamal-Murray-35211","Julius-Randle-18632","Willie-Cauley-Stein-18951","48900","282.14"
"Derrick-White-37858","Buddy-Hield-35206","Nemanja-Bjelica-31814","Montrezl-Harrell-18930","Julius-Randle-18632","Jamal-Murray-35211","DeMar-DeRozan-1053","Willie-Cauley-Stein-18951","50000","282.13"
"Jamal-Murray-35211","Buddy-Hield-35206","Nemanja-Bjelica-31814","Montrezl-Harrell-18930","Nikola-Jokic-31812","Wesley-Matthews-1339","Mason-Plumlee-16798","Willie-Cauley-Stein-18951","49600","282.03"
"Jamal-Murray-35211","Buddy-Hield-35206","Nemanja-Bjelica-31814","Montrezl-Harrell-18930","Mason-Plumlee-16798","Bogdan-Bogdanovic-37899","Julius-Randle-18632","Willie-Cauley-Stein-18951","49000","281.94"
"De'Aaron-Fox-37900","Bogdan-Bogdanovic-37899","Buddy-Hield-35206","Julius-Randle-18632","Mason-Plumlee-16798","Jamal-Murray-35211","Maxi-Kleber-37845","Willie-Cauley-Stein-18951","49800","281.91"
"Jrue-Holiday-1073","Shai-Gilgeous-Alexander-408990","Buddy-Hield-35206","Montrezl-Harrell-18930","Willie-Cauley-Stein-18951","Jamal-Murray-35211","Maxi-Kleber-37845","Julius-Randle-18632","50000","281.9"
"Shai-Gilgeous-Alexander-408990","Bogdan-Bogdanovic-37899","Wesley-Matthews-1339","Julius-Randle-18632","Anthony-Davis-13895","Jamal-Murray-35211","Maxi-Kleber-37845","Willie-Cauley-Stein-18951","50000","281.9"
"Derrick-White-37858","Buddy-Hield-35206","Nemanja-Bjelica-31814","Montrezl-Harrell-18930","Willie-Cauley-Stein-18951","Wesley-Matthews-1339","Julius-Randle-18632","Nikola-Jokic-31812","49800","281.87"
"De'Aaron-Fox-37900","Buddy-Hield-35206","Trey-Lyles-18942","Julius-Randle-18632","Willie-Cauley-Stein-18951","Jamal-Murray-35211","Mason-Plumlee-16798","Nemanja-Bjelica-31814","49900","281.83"
"J.J.-Barea-18605","Shai-Gilgeous-Alexander-408990","Nemanja-Bjelica-31814","Julius-Randle-18632","Willie-Cauley-Stein-18951","Jamal-Murray-35211","Maxi-Kleber-37845","Anthony-Davis-13895","49700","281.82"
"Jamal-Murray-35211","Buddy-Hield-35206","Nemanja-Bjelica-31814","Montrezl-Harrell-18930","Willie-Cauley-Stein-18951","DeMar-DeRozan-1053","Mason-Plumlee-16798","DeAndre-Jordan-1486","49900","281.8"
"De'Aaron-Fox-37900","Wesley-Matthews-1339","Buddy-Hield-35206","Montrezl-Harrell-18930","Willie-Cauley-Stein-18951","Jamal-Murray-35211","Maxi-Kleber-37845","Julius-Randle-18632","49300","281.79"
"Derrick-White-37858","Wesley-Matthews-1339","Nemanja-Bjelica-31814","Montrezl-Harrell-18930","Willie-Cauley-Stein-18951","Jamal-Murray-35211","Anthony-Davis-13895","DeAndre-Jordan-1486","49600","281.77"
"Monte-Morris-37860","Buddy-Hield-35206","Nemanja-Bjelica-31814","Julius-Randle-18632","Willie-Cauley-Stein-18951","Jamal-Murray-35211","Maxi-Kleber-37845","Nikola-Jokic-31812","50000","281.74"
"De'Aaron-Fox-37900","Shai-Gilgeous-Alexander-408990","Nemanja-Bjelica-31814","Montrezl-Harrell-18930","Mason-Plumlee-16798","Jamal-Murray-35211","Julius-Randle-18632","Willie-Cauley-Stein-18951","49000","281.74"
"De'Aaron-Fox-37900","Jamal-Murray-35211","Nemanja-Bjelica-31814","Montrezl-Harrell-18930","Willie-Cauley-Stein-18951","Bryn-Forbes-36052","Julius-Randle-18632","DeAndre-Jordan-1486","49600","281.72"
"Jrue-Holiday-1073","Jamal-Murray-35211","Nemanja-Bjelica-31814","Julius-Randle-18632","Maxi-Kleber-37845","De'Aaron-Fox-37900","Wesley-Matthews-1339","Willie-Cauley-Stein-18951","50000","281.71"
"De'Aaron-Fox-37900","Bogdan-Bogdanovic-37899","Nemanja-Bjelica-31814","Julius-Randle-18632","DeAndre-Jordan-1486","Jamal-Murray-35211","Mason-Plumlee-16798","Montrezl-Harrell-18930","49900","281.71"
"Jamal-Murray-35211","Buddy-Hield-35206","Nemanja-Bjelica-31814","Mason-Plumlee-16798","Anthony-Davis-13895","Wesley-Matthews-1339","Maxi-Kleber-37845","Willie-Cauley-Stein-18951","49200","281.65"
"Jamal-Murray-35211","Buddy-Hield-35206","Nemanja-Bjelica-31814","Mason-Plumlee-16798","Willie-Cauley-Stein-18951","Wesley-Matthews-1339","LaMarcus-Aldridge-1349","Julius-Randle-18632","49400","281.65"
"Shai-Gilgeous-Alexander-408990","Buddy-Hield-35206","Nemanja-Bjelica-31814","Montrezl-Harrell-18930","Nikola-Jokic-31812","Jamal-Murray-35211","Mason-Plumlee-16798","Willie-Cauley-Stein-18951","49700","281.63"
"De'Aaron-Fox-37900","Buddy-Hield-35206","Nemanja-Bjelica-31814","Montrezl-Harrell-18930","Jakob-Poeltl-35187","Jamal-Murray-35211","Julius-Randle-18632","Willie-Cauley-Stein-18951","49900","281.59"
"Jamal-Murray-35211","Bogdan-Bogdanovic-37899","Nemanja-Bjelica-31814","Montrezl-Harrell-18930","Mason-Plumlee-16798","DeMar-DeRozan-1053","Julius-Randle-18632","Willie-Cauley-Stein-18951","49700","281.57"
"Derrick-White-37858","Wesley-Matthews-1339","Nemanja-Bjelica-31814","Juan-Hernangomez-35212","Willie-Cauley-Stein-18951","Jamal-Murray-35211","Julius-Randle-18632","Anthony-Davis-13895","49900","281.56"
"Derrick-White-37858","Buddy-Hield-35206","Nemanja-Bjelica-31814","Julius-Randle-18632","Willie-Cauley-Stein-18951","Wesley-Matthews-1339","Maxi-Kleber-37845","Anthony-Davis-13895","49400","281.49"
"De'Aaron-Fox-37900","Wesley-Matthews-1339","Tobias-Harris-13332","Julius-Randle-18632","Willie-Cauley-Stein-18951","Jamal-Murray-35211","Maxi-Kleber-37845","Montrezl-Harrell-18930","49900","281.48"
"Shai-Gilgeous-Alexander-408990","Buddy-Hield-35206","Nemanja-Bjelica-31814","Montrezl-Harrell-18930","Willie-Cauley-Stein-18951","Derrick-White-37858","Julius-Randle-18632","Nikola-Jokic-31812","49900","281.47"
"Derrick-White-37858","Iman-Shumpert-13350","Nemanja-Bjelica-31814","Julius-Randle-18632","Willie-Cauley-Stein-18951","Jamal-Murray-35211","Anthony-Davis-13895","Mason-Plumlee-16798","49600","281.46"
"De'Aaron-Fox-37900","Buddy-Hield-35206","Wesley-Matthews-1339","Montrezl-Harrell-18930","Willie-Cauley-Stein-18951","Derrick-White-37858","Julius-Randle-18632","Jamal-Murray-35211","49900","281.46"
"Jamal-Murray-35211","Buddy-Hield-35206","Nemanja-Bjelica-31814","Julius-Randle-18632","Nikola-Jokic-31812","Wesley-Matthews-1339","Maxi-Kleber-37845","DeAndre-Jordan-1486","49700","281.44"
"De'Aaron-Fox-37900","DeMar-DeRozan-1053","Wesley-Matthews-1339","Montrezl-Harrell-18930","Willie-Cauley-Stein-18951","Jamal-Murray-35211","Maxi-Kleber-37845","Julius-Randle-18632","50000","281.42"
"Monte-Morris-37860","Buddy-Hield-35206","Nemanja-Bjelica-31814","Montrezl-Harrell-18930","Willie-Cauley-Stein-18951","Jamal-Murray-35211","Maxi-Kleber-37845","Anthony-Davis-13895","50000","281.4"
"De'Aaron-Fox-37900","Shai-Gilgeous-Alexander-408990","Buddy-Hield-35206","Montrezl-Harrell-18930","Willie-Cauley-Stein-18951","Jamal-Murray-35211","Maxi-Kleber-37845","Julius-Randle-18632","49400","281.39"
"Shai-Gilgeous-Alexander-408990","Derrick-White-37858","Nemanja-Bjelica-31814","Montrezl-Harrell-18930","Willie-Cauley-Stein-18951","Jamal-Murray-35211","Anthony-Davis-13895","DeAndre-Jordan-1486","49700","281.37"
"De'Aaron-Fox-37900","Wesley-Matthews-1339","Juan-Hernangomez-35212","Montrezl-Harrell-18930","DeAndre-Jordan-1486","Jamal-Murray-35211","Julius-Randle-18632","Willie-Cauley-Stein-18951","49900","281.37"
"Jrue-Holiday-1073","J.J.-Barea-18605","Nemanja-Bjelica-31814","Montrezl-Harrell-18930","Mason-Plumlee-16798","Jamal-Murray-35211","Julius-Randle-18632","Willie-Cauley-Stein-18951","49900","281.33"
"Derrick-White-37858","Buddy-Hield-35206","Nemanja-Bjelica-31814","Mason-Plumlee-16798","Willie-Cauley-Stein-18951","Jamal-Murray-35211","Wesley-Matthews-1339","Anthony-Davis-13895","49800","281.32"
"Jamal-Murray-35211","Buddy-Hield-35206","Tobias-Harris-13332","Julius-Randle-18632","Willie-Cauley-Stein-18951","Bogdan-Bogdanovic-37899","Maxi-Kleber-37845","Montrezl-Harrell-18930","50000","281.28"
"Jamal-Murray-35211","Wesley-Matthews-1339","Nemanja-Bjelica-31814","Mason-Plumlee-16798","Anthony-Davis-13895","DeMar-DeRozan-1053","Maxi-Kleber-37845","Willie-Cauley-Stein-18951","49900","281.28"
"De'Aaron-Fox-37900","Jamal-Murray-35211","Nemanja-Bjelica-31814","Julius-Randle-18632","Mason-Plumlee-16798","Bryn-Forbes-36052","Buddy-Hield-35206","Willie-Cauley-Stein-18951","49800","281.27"
"De'Aaron-Fox-37900","Shai-Gilgeous-Alexander-408990","Buddy-Hield-35206","Nemanja-Bjelica-31814","Julius-Randle-18632","Jamal-Murray-35211","Wesley-Matthews-1339","Willie-Cauley-Stein-18951","49800","281.26"
