"Dennis-Smith-Jr.-37847","Malcolm-Brogdon-35195","Trey-Lyles-18942","Harrison-Barnes-13901","Anthony-Davis-13895","Luka-Doncic-408971","Rudy-Gay-1341","Mike-Conley-1062","49900","286.61"
"Luka-Doncic-408971","Patty-Mills-13977","JaMychal-Green-18729","Trey-Lyles-18942","Marc-Gasol-1493","Mike-Conley-1062","Giannis-Antetokounmpo-16852","Rudy-Gay-1341","50000","286.32"
"Dennis-Smith-Jr.-37847","Malcolm-Brogdon-35195","Trey-Lyles-18942","Harrison-Barnes-13901","Marc-Gasol-1493","Luka-Doncic-408971","Giannis-Antetokounmpo-16852","Rudy-Gay-1341","50000","286.04"
"Dennis-Smith-Jr.-37847","Devin-Harris-1076","Dante-Cunningham-1259","Anthony-Davis-13895","Marc-Gasol-1493","Luka-Doncic-408971","Rudy-Gay-1341","Mike-Conley-1062","49900","285.9"
"Devin-Harris-1076","Malcolm-Brogdon-35195","Trey-Lyles-18942","Rudy-Gay-1341","Marc-Gasol-1493","Luka-Doncic-408971","Giannis-Antetokounmpo-16852","Mike-Conley-1062","49900","285.88"

"Dennis-Smith-Jr.-37847","Malcolm-Brogdon-35195","Trey-Lyles-18942","Harrison-Barnes-13901","Anthony-Davis-13895","Luka-Doncic-408971","Rudy-Gay-1341","Mike-Conley-1062","49900","286.61"
"Luka-Doncic-408971","Patty-Mills-13977","JaMychal-Green-18729","Trey-Lyles-18942","Marc-Gasol-1493","Mike-Conley-1062","Giannis-Antetokounmpo-16852","Rudy-Gay-1341","50000","286.32"
"Dennis-Smith-Jr.-37847","Malcolm-Brogdon-35195","Trey-Lyles-18942","Harrison-Barnes-13901","Marc-Gasol-1493","Luka-Doncic-408971","Giannis-Antetokounmpo-16852","Rudy-Gay-1341","50000","286.04"
"Dennis-Smith-Jr.-37847","Devin-Harris-1076","Dante-Cunningham-1259","Anthony-Davis-13895","Marc-Gasol-1493","Luka-Doncic-408971","Rudy-Gay-1341","Mike-Conley-1062","49900","285.9"
"Devin-Harris-1076","Malcolm-Brogdon-35195","Trey-Lyles-18942","Rudy-Gay-1341","Marc-Gasol-1493","Luka-Doncic-408971","Giannis-Antetokounmpo-16852","Mike-Conley-1062","49900","285.88"
"Dennis-Smith-Jr.-37847","Patty-Mills-13977","JaMychal-Green-18729","Anthony-Davis-13895","Marc-Gasol-1493","Luka-Doncic-408971","Trey-Lyles-18942","Mike-Conley-1062","50000","285.87"
"Dennis-Smith-Jr.-37847","Patty-Mills-13977","Trey-Lyles-18942","Anthony-Davis-13895","DeAndre-Jordan-1486","Luka-Doncic-408971","Rudy-Gay-1341","Mike-Conley-1062","50000","285.81"
"Luka-Doncic-408971","Devin-Harris-1076","JaMychal-Green-18729","Anthony-Davis-13895","Marc-Gasol-1493","Mike-Conley-1062","Harrison-Barnes-13901","Trey-Lyles-18942","49800","285.74"
"Luka-Doncic-408971","Devin-Harris-1076","Trey-Lyles-18942","Harrison-Barnes-13901","DeAndre-Jordan-1486","Mike-Conley-1062","Rudy-Gay-1341","Anthony-Davis-13895","49800","285.68"
"Devin-Harris-1076","Gary-Harris-18617","Harrison-Barnes-13901","Anthony-Davis-13895","Marc-Gasol-1493","Luka-Doncic-408971","Rudy-Gay-1341","Trey-Lyles-18942","49900","285.65"
"Shelvin-Mack-13354","Devin-Harris-1076","Trey-Lyles-18942","Anthony-Davis-13895","Marc-Gasol-1493","Luka-Doncic-408971","Harrison-Barnes-13901","Mike-Conley-1062","49900","285.48"
"Luka-Doncic-408971","Devin-Harris-1076","JaMychal-Green-18729","Trey-Lyles-18942","Marc-Gasol-1493","Mike-Conley-1062","Rudy-Gay-1341","Anthony-Davis-13895","49600","285.47"
"Devin-Harris-1076","Gary-Harris-18617","Trey-Lyles-18942","Anthony-Davis-13895","Marc-Gasol-1493","Dennis-Smith-Jr.-37847","Rudy-Gay-1341","Mike-Conley-1062","50000","285.33"
"Dennis-Smith-Jr.-37847","Gary-Harris-18617","JaMychal-Green-18729","Trey-Lyles-18942","Anthony-Davis-13895","Luka-Doncic-408971","Rudy-Gay-1341","Mike-Conley-1062","49900","285.31"
"Dennis-Smith-Jr.-37847","Patty-Mills-13977","Trey-Lyles-18942","Harrison-Barnes-13901","Marc-Gasol-1493","Mike-Conley-1062","Giannis-Antetokounmpo-16852","Rudy-Gay-1341","49800","285.28"
"Dennis-Smith-Jr.-37847","Devin-Harris-1076","Rudy-Gay-1341","Anthony-Davis-13895","Marc-Gasol-1493","Luka-Doncic-408971","Marco-Belinelli-1033","Mike-Conley-1062","50000","285.26"
"Shelvin-Mack-13354","Devin-Harris-1076","Trey-Lyles-18942","Anthony-Davis-13895","Marc-Gasol-1493","Luka-Doncic-408971","Rudy-Gay-1341","Mike-Conley-1062","49700","285.21"
"Dennis-Smith-Jr.-37847","Malcolm-Brogdon-35195","JaMychal-Green-18729","Harrison-Barnes-13901","Anthony-Davis-13895","Luka-Doncic-408971","Rudy-Gay-1341","Mike-Conley-1062","50000","285.17"
"Luka-Doncic-408971","Patty-Mills-13977","Dorian-Finney-Smith-36032","Trey-Lyles-18942","Anthony-Davis-13895","Mike-Conley-1062","Harrison-Barnes-13901","Marc-Gasol-1493","50000","285.1"
"Patty-Mills-13977","Devin-Harris-1076","Trey-Lyles-18942","Anthony-Davis-13895","Marc-Gasol-1493","Luka-Doncic-408971","Harrison-Barnes-13901","Mike-Conley-1062","49600","284.99"
"Kyle-Anderson-18615","Devin-Harris-1076","Trey-Lyles-18942","Harrison-Barnes-13901","Marc-Gasol-1493","Luka-Doncic-408971","Giannis-Antetokounmpo-16852","Mike-Conley-1062","50000","284.98"
"Dennis-Smith-Jr.-37847","Patty-Mills-13977","Harrison-Barnes-13901","Anthony-Davis-13895","Marc-Gasol-1493","Luka-Doncic-408971","Rudy-Gay-1341","Trey-Lyles-18942","49500","284.88"
"Luka-Doncic-408971","Patty-Mills-13977","Dorian-Finney-Smith-36032","Anthony-Davis-13895","Marc-Gasol-1493","Mike-Conley-1062","Rudy-Gay-1341","Trey-Lyles-18942","49800","284.83"
"Luka-Doncic-408971","Patty-Mills-13977","Harrison-Barnes-13901","Anthony-Davis-13895","Marc-Gasol-1493","Mike-Conley-1062","Dante-Cunningham-1259","Trey-Lyles-18942","49800","284.8"
"Luka-Doncic-408971","Patty-Mills-13977","Trey-Lyles-18942","Anthony-Davis-13895","Marc-Gasol-1493","Mike-Conley-1062","Harrison-Barnes-13901","Ersan-Ilyasova-1301","50000","284.8"
"Dennis-Smith-Jr.-37847","Devin-Harris-1076","Trey-Lyles-18942","Rudy-Gay-1341","DeAndre-Jordan-1486","Mike-Conley-1062","Giannis-Antetokounmpo-16852","Marc-Gasol-1493","50000","284.79"
"Luka-Doncic-408971","Devin-Harris-1076","Garrett-Temple-14077","Anthony-Davis-13895","Marc-Gasol-1493","Mike-Conley-1062","Harrison-Barnes-13901","Trey-Lyles-18942","50000","284.79"
"Dennis-Smith-Jr.-37847","Gary-Harris-18617","JaMychal-Green-18729","Trey-Lyles-18942","Marc-Gasol-1493","Luka-Doncic-408971","Giannis-Antetokounmpo-16852","Rudy-Gay-1341","50000","284.74"
"Patty-Mills-13977","Devin-Harris-1076","Trey-Lyles-18942","Anthony-Davis-13895","Marc-Gasol-1493","Luka-Doncic-408971","Rudy-Gay-1341","Mike-Conley-1062","49400","284.72"
"Luka-Doncic-408971","Devin-Harris-1076","Rudy-Gay-1341","Giannis-Antetokounmpo-16852","Marc-Gasol-1493","Mike-Conley-1062","Kyle-Anderson-18615","Trey-Lyles-18942","49800","284.71"
"Dennis-Smith-Jr.-37847","Garrett-Temple-14077","Harrison-Barnes-13901","Anthony-Davis-13895","Marc-Gasol-1493","Luka-Doncic-408971","Rudy-Gay-1341","Trey-Lyles-18942","49900","284.68"
"Dennis-Smith-Jr.-37847","Devin-Harris-1076","Dorian-Finney-Smith-36032","Harrison-Barnes-13901","Marc-Gasol-1493","Luka-Doncic-408971","Giannis-Antetokounmpo-16852","Mike-Conley-1062","50000","284.68"
"Dennis-Smith-Jr.-37847","Devin-Harris-1076","Trey-Lyles-18942","Anthony-Davis-13895","Marc-Gasol-1493","Luka-Doncic-408971","Harrison-Barnes-13901","DeAndre-Jordan-1486","49900","284.66"
"Patty-Mills-13977","Devin-Harris-1076","JaMychal-Green-18729","Rudy-Gay-1341","Anthony-Davis-13895","Luka-Doncic-408971","Giannis-Antetokounmpo-16852","Trey-Lyles-18942","50000","284.65"
"Luka-Doncic-408971","Marco-Belinelli-1033","JaMychal-Green-18729","Trey-Lyles-18942","Marc-Gasol-1493","Mike-Conley-1062","Rudy-Gay-1341","Anthony-Davis-13895","49900","284.64"
"Luka-Doncic-408971","Gary-Harris-18617","Dorian-Finney-Smith-36032","Harrison-Barnes-13901","Anthony-Davis-13895","Mike-Conley-1062","Rudy-Gay-1341","Trey-Lyles-18942","49900","284.54"
"Luka-Doncic-408971","Patty-Mills-13977","Trey-Lyles-18942","Rudy-Gay-1341","Marc-Gasol-1493","Mike-Conley-1062","Ersan-Ilyasova-1301","Anthony-Davis-13895","49800","284.53"
"Luka-Doncic-408971","Patty-Mills-13977","Trey-Lyles-18942","Dante-Cunningham-1259","Marc-Gasol-1493","Mike-Conley-1062","Rudy-Gay-1341","Anthony-Davis-13895","49600","284.53"
"Luka-Doncic-408971","Devin-Harris-1076","Garrett-Temple-14077","Trey-Lyles-18942","Anthony-Davis-13895","Mike-Conley-1062","Rudy-Gay-1341","Marc-Gasol-1493","49800","284.52"
"Luka-Doncic-408971","Devin-Harris-1076","Harrison-Barnes-13901","Giannis-Antetokounmpo-16852","Marc-Gasol-1493","Mike-Conley-1062","Maxi-Kleber-37845","Rudy-Gay-1341","49900","284.5"
"Dennis-Smith-Jr.-37847","Devin-Harris-1076","Trey-Lyles-18942","Rudy-Gay-1341","Anthony-Davis-13895","Luka-Doncic-408971","Nikola-Mirotic-18584","Mike-Conley-1062","50000","284.46"
"Devin-Harris-1076","Malcolm-Brogdon-35195","JaMychal-Green-18729","Rudy-Gay-1341","Marc-Gasol-1493","Luka-Doncic-408971","Giannis-Antetokounmpo-16852","Mike-Conley-1062","50000","284.44"
"Devin-Harris-1076","Gary-Harris-18617","Trey-Lyles-18942","Harrison-Barnes-13901","Anthony-Davis-13895","Luka-Doncic-408971","Rudy-Gay-1341","Mike-Conley-1062","49500","284.43"
"Dennis-Smith-Jr.-37847","Devin-Harris-1076","Harrison-Barnes-13901","Anthony-Davis-13895","Marc-Gasol-1493","Luka-Doncic-408971","Rudy-Gay-1341","Brook-Lopez-1498","50000","284.43"
"Dennis-Smith-Jr.-37847","Devin-Harris-1076","Harrison-Barnes-13901","Anthony-Davis-13895","Marc-Gasol-1493","Mike-Conley-1062","Rudy-Gay-1341","Trey-Lyles-18942","49400","284.43"
"Dennis-Smith-Jr.-37847","Devin-Harris-1076","Dorian-Finney-Smith-36032","Rudy-Gay-1341","Marc-Gasol-1493","Luka-Doncic-408971","Giannis-Antetokounmpo-16852","Mike-Conley-1062","49800","284.41"
"Dennis-Smith-Jr.-37847","Devin-Harris-1076","Trey-Lyles-18942","Anthony-Davis-13895","Marc-Gasol-1493","Luka-Doncic-408971","Rudy-Gay-1341","DeAndre-Jordan-1486","49700","284.39"
"Dennis-Smith-Jr.-37847","Devin-Harris-1076","Harrison-Barnes-13901","Giannis-Antetokounmpo-16852","Marc-Gasol-1493","Luka-Doncic-408971","Ersan-Ilyasova-1301","Mike-Conley-1062","50000","284.38"
"Monte-Morris-37860","Patty-Mills-13977","Trey-Lyles-18942","Rudy-Gay-1341","Marc-Gasol-1493","Luka-Doncic-408971","Giannis-Antetokounmpo-16852","Mike-Conley-1062","50000","284.38"
"Dennis-Smith-Jr.-37847","Devin-Harris-1076","Harrison-Barnes-13901","Dante-Cunningham-1259","Marc-Gasol-1493","Luka-Doncic-408971","Giannis-Antetokounmpo-16852","Mike-Conley-1062","49800","284.38"
"Shelvin-Mack-13354","Marco-Belinelli-1033","Trey-Lyles-18942","Anthony-Davis-13895","Marc-Gasol-1493","Luka-Doncic-408971","Rudy-Gay-1341","Mike-Conley-1062","50000","284.38"
"Luka-Doncic-408971","Garrett-Temple-14077","Trey-Lyles-18942","Dante-Cunningham-1259","Marc-Gasol-1493","Mike-Conley-1062","Rudy-Gay-1341","Anthony-Davis-13895","50000","284.33"
"Luka-Doncic-408971","Devin-Harris-1076","Trey-Lyles-18942","Anthony-Davis-13895","DeAndre-Jordan-1486","Mike-Conley-1062","Dante-Cunningham-1259","Marc-Gasol-1493","50000","284.31"
"Patty-Mills-13977","Devin-Harris-1076","Rudy-Gay-1341","Anthony-Davis-13895","Marc-Gasol-1493","Luka-Doncic-408971","Kyle-Anderson-18615","Mike-Conley-1062","50000","284.31"
"Dennis-Smith-Jr.-37847","Patty-Mills-13977","Trey-Lyles-18942","Harrison-Barnes-13901","DeAndre-Jordan-1486","Luka-Doncic-408971","Giannis-Antetokounmpo-16852","Mike-Conley-1062","49900","284.29"
"Patty-Mills-13977","Gary-Harris-18617","Trey-Lyles-18942","Harrison-Barnes-13901","Marc-Gasol-1493","Luka-Doncic-408971","Giannis-Antetokounmpo-16852","Dennis-Smith-Jr.-37847","50000","284.26"
"Dennis-Smith-Jr.-37847","Devin-Harris-1076","Trey-Lyles-18942","Anthony-Davis-13895","Marc-Gasol-1493","Luka-Doncic-408971","Kyle-Anderson-18615","Mike-Conley-1062","49800","284.26"
"Luka-Doncic-408971","Devin-Harris-1076","Harrison-Barnes-13901","Anthony-Davis-13895","DeAndre-Jordan-1486","Mike-Conley-1062","Rudy-Gay-1341","JaMychal-Green-18729","49900","284.24"
"Luka-Doncic-408971","Gary-Harris-18617","Trey-Lyles-18942","Harrison-Barnes-13901","Anthony-Davis-13895","Mike-Conley-1062","Rudy-Gay-1341","Ersan-Ilyasova-1301","49900","284.24"
"Luka-Doncic-408971","Gary-Harris-18617","Harrison-Barnes-13901","Dante-Cunningham-1259","Anthony-Davis-13895","Mike-Conley-1062","Rudy-Gay-1341","Trey-Lyles-18942","49700","284.24"
"Devin-Harris-1076","Gary-Harris-18617","JaMychal-Green-18729","Anthony-Davis-13895","Marc-Gasol-1493","Luka-Doncic-408971","Harrison-Barnes-13901","Rudy-Gay-1341","50000","284.21"
"Luka-Doncic-408971","Patty-Mills-13977","Harrison-Barnes-13901","Anthony-Davis-13895","Marc-Gasol-1493","Mike-Conley-1062","Marco-Belinelli-1033","Trey-Lyles-18942","49900","284.16"
"Dennis-Smith-Jr.-37847","Devin-Harris-1076","Rudy-Gay-1341","Giannis-Antetokounmpo-16852","Marc-Gasol-1493","Luka-Doncic-408971","Ersan-Ilyasova-1301","Mike-Conley-1062","49800","284.11"
"Dennis-Smith-Jr.-37847","Devin-Harris-1076","Dante-Cunningham-1259","Rudy-Gay-1341","Marc-Gasol-1493","Luka-Doncic-408971","Giannis-Antetokounmpo-16852","Mike-Conley-1062","49600","284.11"
"Dennis-Smith-Jr.-37847","Patty-Mills-13977","JaMychal-Green-18729","Trey-Lyles-18942","Marc-Gasol-1493","Luka-Doncic-408971","Giannis-Antetokounmpo-16852","Mike-Conley-1062","49700","284.08"
"Dennis-Smith-Jr.-37847","Patty-Mills-13977","Harrison-Barnes-13901","Rudy-Gay-1341","Brook-Lopez-1498","Luka-Doncic-408971","Giannis-Antetokounmpo-16852","Mike-Conley-1062","50000","284.06"
"Dennis-Smith-Jr.-37847","Devin-Harris-1076","Harrison-Barnes-13901","Anthony-Davis-13895","Marc-Gasol-1493","Luka-Doncic-408971","Maxi-Kleber-37845","Mike-Conley-1062","49900","284.05"
"Shelvin-Mack-13354","Devin-Harris-1076","JaMychal-Green-18729","Anthony-Davis-13895","Marc-Gasol-1493","Luka-Doncic-408971","Harrison-Barnes-13901","Mike-Conley-1062","50000","284.04"
"Dennis-Smith-Jr.-37847","Patty-Mills-13977","Trey-Lyles-18942","Rudy-Gay-1341","DeAndre-Jordan-1486","Luka-Doncic-408971","Giannis-Antetokounmpo-16852","Mike-Conley-1062","49700","284.02"
"Dennis-Smith-Jr.-37847","Devin-Harris-1076","Harrison-Barnes-13901","Anthony-Davis-13895","Marc-Gasol-1493","Mike-Conley-1062","Kyle-Anderson-18615","Rudy-Gay-1341","50000","284.02"
"Patty-Mills-13977","Gary-Harris-18617","Trey-Lyles-18942","Rudy-Gay-1341","Marc-Gasol-1493","Luka-Doncic-408971","Giannis-Antetokounmpo-16852","Dennis-Smith-Jr.-37847","49800","283.99"
"Shelvin-Mack-13354","Devin-Harris-1076","Harrison-Barnes-13901","Anthony-Davis-13895","DeAndre-Jordan-1486","Luka-Doncic-408971","Rudy-Gay-1341","Mike-Conley-1062","50000","283.98"
"Luka-Doncic-408971","Devin-Harris-1076","JaMychal-Green-18729","Trey-Lyles-18942","Marc-Gasol-1493","Mike-Conley-1062","Harrison-Barnes-13901","Giannis-Antetokounmpo-16852","49500","283.95"
"Luka-Doncic-408971","Patty-Mills-13977","Trey-Lyles-18942","Rudy-Gay-1341","Marc-Gasol-1493","Mike-Conley-1062","Marco-Belinelli-1033","Anthony-Davis-13895","49700","283.89"
"Luka-Doncic-408971","Devin-Harris-1076","Trey-Lyles-18942","Harrison-Barnes-13901","DeAndre-Jordan-1486","Mike-Conley-1062","Rudy-Gay-1341","Giannis-Antetokounmpo-16852","49500","283.89"
"Devin-Harris-1076","Gary-Harris-18617","Trey-Lyles-18942","Harrison-Barnes-13901","Marc-Gasol-1493","Luka-Doncic-408971","Giannis-Antetokounmpo-16852","Rudy-Gay-1341","49600","283.86"
"Patty-Mills-13977","Malcolm-Brogdon-35195","Harrison-Barnes-13901","Rudy-Gay-1341","Marc-Gasol-1493","Luka-Doncic-408971","Giannis-Antetokounmpo-16852","Dennis-Smith-Jr.-37847","49900","283.85"
"Dennis-Smith-Jr.-37847","Patty-Mills-13977","JaMychal-Green-18729","Harrison-Barnes-13901","Marc-Gasol-1493","Mike-Conley-1062","Giannis-Antetokounmpo-16852","Rudy-Gay-1341","49900","283.84"
"Patty-Mills-13977","Malcolm-Brogdon-35195","Harrison-Barnes-13901","Anthony-Davis-13895","Marc-Gasol-1493","Mike-Conley-1062","Rudy-Gay-1341","Trey-Lyles-18942","49800","283.82"
"Devin-Harris-1076","Gary-Harris-18617","Trey-Lyles-18942","Harrison-Barnes-13901","Marc-Gasol-1493","Dennis-Smith-Jr.-37847","Giannis-Antetokounmpo-16852","Mike-Conley-1062","49900","283.81"
"Monte-Morris-37860","Devin-Harris-1076","Trey-Lyles-18942","Anthony-Davis-13895","Marc-Gasol-1493","Luka-Doncic-408971","Harrison-Barnes-13901","Mike-Conley-1062","49800","283.8"
"Dennis-Smith-Jr.-37847","Devin-Harris-1076","Rudy-Gay-1341","Anthony-Davis-13895","Marc-Gasol-1493","Luka-Doncic-408971","Maxi-Kleber-37845","Mike-Conley-1062","49700","283.78"
"Shelvin-Mack-13354","Devin-Harris-1076","JaMychal-Green-18729","Anthony-Davis-13895","Marc-Gasol-1493","Luka-Doncic-408971","Rudy-Gay-1341","Mike-Conley-1062","49800","283.77"
"Dennis-Smith-Jr.-37847","Malcolm-Brogdon-35195","Dorian-Finney-Smith-36032","Trey-Lyles-18942","Marc-Gasol-1493","Luka-Doncic-408971","Giannis-Antetokounmpo-16852","Mike-Conley-1062","50000","283.75"
"Dennis-Smith-Jr.-37847","Devin-Harris-1076","Harrison-Barnes-13901","Giannis-Antetokounmpo-16852","Marc-Gasol-1493","Luka-Doncic-408971","Marco-Belinelli-1033","Mike-Conley-1062","49900","283.74"
"Luka-Doncic-408971","Devin-Harris-1076","Harrison-Barnes-13901","Rudy-Gay-1341","Julius-Randle-18632","Mike-Conley-1062","Giannis-Antetokounmpo-16852","Trey-Lyles-18942","49900","283.73"
"Shelvin-Mack-13354","Devin-Harris-1076","Trey-Lyles-18942","Harrison-Barnes-13901","Marc-Gasol-1493","Luka-Doncic-408971","Giannis-Antetokounmpo-16852","Mike-Conley-1062","49600","283.69"
"Luka-Doncic-408971","Devin-Harris-1076","JaMychal-Green-18729","Trey-Lyles-18942","Marc-Gasol-1493","Mike-Conley-1062","Giannis-Antetokounmpo-16852","Rudy-Gay-1341","49300","283.68"
"Dennis-Smith-Jr.-37847","Patty-Mills-13977","Trey-Lyles-18942","Harrison-Barnes-13901","Anthony-Davis-13895","Luka-Doncic-408971","Rudy-Gay-1341","Mike-Conley-1062","49100","283.66"
"Patty-Mills-13977","Devin-Harris-1076","Trey-Lyles-18942","Harrison-Barnes-13901","Anthony-Davis-13895","Dennis-Smith-Jr.-37847","Rudy-Gay-1341","Giannis-Antetokounmpo-16852","49800","283.61"
"Dennis-Smith-Jr.-37847","Marco-Belinelli-1033","Harrison-Barnes-13901","Anthony-Davis-13895","Marc-Gasol-1493","Mike-Conley-1062","Rudy-Gay-1341","Trey-Lyles-18942","49700","283.6"
"Luka-Doncic-408971","Gary-Harris-18617","Trey-Lyles-18942","Harrison-Barnes-13901","Anthony-Davis-13895","Marco-Belinelli-1033","Rudy-Gay-1341","Mike-Conley-1062","49800","283.6"
"Shelvin-Mack-13354","Patty-Mills-13977","Harrison-Barnes-13901","Rudy-Gay-1341","Marc-Gasol-1493","Dennis-Smith-Jr.-37847","Giannis-Antetokounmpo-16852","Mike-Conley-1062","50000","283.58"
"Luka-Doncic-408971","Malcolm-Brogdon-35195","Trey-Lyles-18942","Giannis-Antetokounmpo-16852","Marc-Gasol-1493","Mike-Conley-1062","Maxi-Kleber-37845","Rudy-Gay-1341","49900","283.57"
"Dennis-Smith-Jr.-37847","Marco-Belinelli-1033","Trey-Lyles-18942","Anthony-Davis-13895","Marc-Gasol-1493","Luka-Doncic-408971","Rudy-Gay-1341","DeAndre-Jordan-1486","50000","283.56"
"Patty-Mills-13977","Devin-Harris-1076","JaMychal-Green-18729","Anthony-Davis-13895","Marc-Gasol-1493","Luka-Doncic-408971","Harrison-Barnes-13901","Mike-Conley-1062","49700","283.55"
"Devin-Harris-1076","Gary-Harris-18617","Trey-Lyles-18942","Rudy-Gay-1341","Marc-Gasol-1493","Dennis-Smith-Jr.-37847","Giannis-Antetokounmpo-16852","Mike-Conley-1062","49700","283.54"
"Monte-Morris-37860","Devin-Harris-1076","Trey-Lyles-18942","Anthony-Davis-13895","Marc-Gasol-1493","Luka-Doncic-408971","Rudy-Gay-1341","Mike-Conley-1062","49600","283.53"
"Dennis-Smith-Jr.-37847","Gary-Harris-18617","Dorian-Finney-Smith-36032","Trey-Lyles-18942","Anthony-Davis-13895","Luka-Doncic-408971","Harrison-Barnes-13901","Marc-Gasol-1493","50000","283.52"
"Patty-Mills-13977","Malcolm-Brogdon-35195","Dante-Cunningham-1259","Rudy-Gay-1341","Marc-Gasol-1493","Luka-Doncic-408971","Giannis-Antetokounmpo-16852","Mike-Conley-1062","50000","283.5"
