"Jamal-Murray-35211","Jeremy-Lamb-13955","J.J.-Redick-1030","Mason-Plumlee-16798","Nikola-Jokic-31812","De'Aaron-Fox-37900","Rondae-Hollis-Jefferson-18897","Jusuf-Nurkic-18619","50000","286.77"

"Jamal-Murray-35211","Jeremy-Lamb-13955","J.J.-Redick-1030","Mason-Plumlee-16798","Nikola-Jokic-31812","De'Aaron-Fox-37900","Rondae-Hollis-Jefferson-18897","Jusuf-Nurkic-18619","50000","286.77"
"Jamal-Murray-35211","Josh-Richardson-18922","J.J.-Redick-1030","Mason-Plumlee-16798","Nikola-Jokic-31812","De'Aaron-Fox-37900","Rondae-Hollis-Jefferson-18897","Jusuf-Nurkic-18619","50000","285.96"
"Jamal-Murray-35211","Jeremy-Lamb-13955","J.J.-Redick-1030","Dewayne-Dedmon-16894","Nikola-Jokic-31812","De'Aaron-Fox-37900","Rondae-Hollis-Jefferson-18897","Jusuf-Nurkic-18619","50000","285.74"
"Dennis-Schroder-18595","Jamal-Murray-35211","J.J.-Redick-1030","Mason-Plumlee-16798","Nikola-Jokic-31812","De'Aaron-Fox-37900","Rondae-Hollis-Jefferson-18897","Jusuf-Nurkic-18619","50000","285.68"
"Jamal-Murray-35211","Klay-Thompson-13315","J.J.-Redick-1030","Mason-Plumlee-16798","Jusuf-Nurkic-18619","De'Aaron-Fox-37900","Dewayne-Dedmon-16894","Nikola-Jokic-31812","49900","285.19"
"Jamal-Murray-35211","J.J.-Redick-1030","Jeff-Green-1314","Rondae-Hollis-Jefferson-18897","Nikola-Jokic-31812","De'Aaron-Fox-37900","Jeremy-Lamb-13955","Jusuf-Nurkic-18619","50000","285.08"
"Jamal-Murray-35211","Joe-Harris-18587","Jeremy-Lamb-13955","Rondae-Hollis-Jefferson-18897","Nikola-Jokic-31812","De'Aaron-Fox-37900","J.J.-Redick-1030","Jusuf-Nurkic-18619","50000","284.98"
"Jamal-Murray-35211","Josh-Richardson-18922","J.J.-Redick-1030","Dewayne-Dedmon-16894","Nikola-Jokic-31812","De'Aaron-Fox-37900","Rondae-Hollis-Jefferson-18897","Jusuf-Nurkic-18619","50000","284.93"
"Jamal-Murray-35211","Jeremy-Lamb-13955","Buddy-Hield-35206","Mason-Plumlee-16798","Jusuf-Nurkic-18619","De'Aaron-Fox-37900","Dewayne-Dedmon-16894","Nikola-Jokic-31812","50000","284.83"
"Jamal-Murray-35211","Jeremy-Lamb-13955","Josh-Richardson-18922","Mason-Plumlee-16798","Nikola-Jokic-31812","Klay-Thompson-13315","Rondae-Hollis-Jefferson-18897","De'Aaron-Fox-37900","50000","284.65"
"Dennis-Schroder-18595","Jamal-Murray-35211","J.J.-Redick-1030","Dewayne-Dedmon-16894","Nikola-Jokic-31812","De'Aaron-Fox-37900","Rondae-Hollis-Jefferson-18897","Jusuf-Nurkic-18619","50000","284.65"
"Jamal-Murray-35211","Klay-Thompson-13315","Jeff-Green-1314","Mason-Plumlee-16798","Jusuf-Nurkic-18619","De'Aaron-Fox-37900","J.J.-Redick-1030","Nikola-Jokic-31812","49900","284.53"
"Jamal-Murray-35211","Klay-Thompson-13315","Joe-Harris-18587","Mason-Plumlee-16798","Jusuf-Nurkic-18619","De'Aaron-Fox-37900","J.J.-Redick-1030","Nikola-Jokic-31812","49900","284.43"
"Jamal-Murray-35211","Jeremy-Lamb-13955","J.J.-Redick-1030","Jerami-Grant-18576","Jusuf-Nurkic-18619","De'Aaron-Fox-37900","Rondae-Hollis-Jefferson-18897","Nikola-Jokic-31812","49700","284.41"
"Jamal-Murray-35211","Buddy-Hield-35206","J.J.-Redick-1030","Jerami-Grant-18576","Jusuf-Nurkic-18619","De'Aaron-Fox-37900","Rondae-Hollis-Jefferson-18897","Nikola-Jokic-31812","49900","284.4"
"Dennis-Schroder-18595","Jamal-Murray-35211","Jeremy-Lamb-13955","Mason-Plumlee-16798","Nikola-Jokic-31812","Klay-Thompson-13315","Rondae-Hollis-Jefferson-18897","De'Aaron-Fox-37900","50000","284.37"
"Jamal-Murray-35211","J.J.-Redick-1030","Kyle-Anderson-18615","Rondae-Hollis-Jefferson-18897","Nikola-Jokic-31812","De'Aaron-Fox-37900","Jeremy-Lamb-13955","Jusuf-Nurkic-18619","49900","284.33"
"Jamal-Murray-35211","J.J.-Redick-1030","Jeff-Green-1314","Rondae-Hollis-Jefferson-18897","Jusuf-Nurkic-18619","De'Aaron-Fox-37900","Josh-Richardson-18922","Nikola-Jokic-31812","50000","284.27"
"Jamal-Murray-35211","J.J.-Redick-1030","Buddy-Hield-35206","Jerami-Grant-18576","Nikola-Jokic-31812","Klay-Thompson-13315","Jeremy-Lamb-13955","De'Aaron-Fox-37900","50000","284.22"
"Jamal-Murray-35211","J.J.-Redick-1030","Buddy-Hield-35206","Mason-Plumlee-16798","Jusuf-Nurkic-18619","Klay-Thompson-13315","Jeremy-Lamb-13955","Nikola-Jokic-31812","50000","284.2"
"Jamal-Murray-35211","Klay-Thompson-13315","Jeremy-Lamb-13955","Rondae-Hollis-Jefferson-18897","Nikola-Jokic-31812","De'Aaron-Fox-37900","J.J.-Redick-1030","Mason-Plumlee-16798","49500","284.17"
"Jamal-Murray-35211","Jeremy-Lamb-13955","Buddy-Hield-35206","Mason-Plumlee-16798","Jusuf-Nurkic-18619","De'Aaron-Fox-37900","Jeff-Green-1314","Nikola-Jokic-31812","50000","284.17"
"Jamal-Murray-35211","Joe-Harris-18587","J.J.-Redick-1030","Rondae-Hollis-Jefferson-18897","Jusuf-Nurkic-18619","De'Aaron-Fox-37900","Josh-Richardson-18922","Nikola-Jokic-31812","50000","284.17"
"Jamal-Murray-35211","Klay-Thompson-13315","Buddy-Hield-35206","Rondae-Hollis-Jefferson-18897","Nikola-Jokic-31812","De'Aaron-Fox-37900","J.J.-Redick-1030","Mason-Plumlee-16798","49700","284.16"
"Jamal-Murray-35211","J.J.-Redick-1030","Buddy-Hield-35206","Mason-Plumlee-16798","Nikola-Jokic-31812","Josh-Richardson-18922","Jeremy-Lamb-13955","De'Aaron-Fox-37900","49700","284.13"
"Jamal-Murray-35211","Joe-Harris-18587","Buddy-Hield-35206","Mason-Plumlee-16798","Jusuf-Nurkic-18619","De'Aaron-Fox-37900","Jeremy-Lamb-13955","Nikola-Jokic-31812","50000","284.07"
"Jamal-Murray-35211","Jeremy-Lamb-13955","Buddy-Hield-35206","Rondae-Hollis-Jefferson-18897","Nikola-Jokic-31812","De'Aaron-Fox-37900","J.J.-Redick-1030","Markieff-Morris-13314","49900","284.04"
"Jamal-Murray-35211","Josh-Richardson-18922","Jeremy-Lamb-13955","Mason-Plumlee-16798","Jusuf-Nurkic-18619","De'Aaron-Fox-37900","Dewayne-Dedmon-16894","Nikola-Jokic-31812","49800","284.03"
"Jamal-Murray-35211","Josh-Richardson-18922","Buddy-Hield-35206","Mason-Plumlee-16798","Jusuf-Nurkic-18619","De'Aaron-Fox-37900","Dewayne-Dedmon-16894","Nikola-Jokic-31812","50000","284.02"
"Jamal-Murray-35211","J.J.-Redick-1030","Kelly-Oubre-18925","Mason-Plumlee-16798","Jusuf-Nurkic-18619","De'Aaron-Fox-37900","Rondae-Hollis-Jefferson-18897","Nikola-Jokic-31812","49800","283.99"
"Dennis-Schroder-18595","Jamal-Murray-35211","Jeff-Green-1314","Rondae-Hollis-Jefferson-18897","Nikola-Jokic-31812","De'Aaron-Fox-37900","J.J.-Redick-1030","Jusuf-Nurkic-18619","50000","283.99"
"De'Aaron-Fox-37900","J.J.-Redick-1030","Jeremy-Lamb-13955","Mason-Plumlee-16798","Jusuf-Nurkic-18619","Klay-Thompson-13315","Josh-Richardson-18922","Nikola-Jokic-31812","49900","283.93"
"Jamal-Murray-35211","Alec-Burks-13353","Jeremy-Lamb-13955","Mason-Plumlee-16798","Jusuf-Nurkic-18619","De'Aaron-Fox-37900","Josh-Richardson-18922","Nikola-Jokic-31812","50000","283.92"
"Dennis-Schroder-18595","Jamal-Murray-35211","Joe-Harris-18587","Rondae-Hollis-Jefferson-18897","Jusuf-Nurkic-18619","De'Aaron-Fox-37900","J.J.-Redick-1030","Nikola-Jokic-31812","50000","283.89"
"Jamal-Murray-35211","Klay-Thompson-13315","J.J.-Redick-1030","Mason-Plumlee-16798","Nikola-Jokic-31812","De'Aaron-Fox-37900","Jerami-Grant-18576","Jusuf-Nurkic-18619","49600","283.86"
"Dennis-Schroder-18595","J.J.-Redick-1030","Buddy-Hield-35206","Mason-Plumlee-16798","Nikola-Jokic-31812","Jamal-Murray-35211","Jeremy-Lamb-13955","De'Aaron-Fox-37900","49700","283.85"
"Jamal-Murray-35211","J.J.-Redick-1030","Jeremy-Lamb-13955","Mason-Plumlee-16798","Nikola-Jokic-31812","De'Aaron-Fox-37900","Kevin-Knox-408820","Jusuf-Nurkic-18619","49800","283.81"
"Jamal-Murray-35211","J.J.-Redick-1030","Jeremy-Lamb-13955","Mason-Plumlee-16798","Nikola-Jokic-31812","Klay-Thompson-13315","Kelly-Oubre-18925","De'Aaron-Fox-37900","49900","283.81"
"Jamal-Murray-35211","J.J.-Redick-1030","Buddy-Hield-35206","Mason-Plumlee-16798","Jusuf-Nurkic-18619","De'Aaron-Fox-37900","Kevin-Knox-408820","Nikola-Jokic-31812","50000","283.8"
"Jamal-Murray-35211","Klay-Thompson-13315","Kyle-Anderson-18615","Mason-Plumlee-16798","Jusuf-Nurkic-18619","De'Aaron-Fox-37900","J.J.-Redick-1030","Nikola-Jokic-31812","49800","283.78"
"Dennis-Schroder-18595","Jamal-Murray-35211","Jeremy-Lamb-13955","Mason-Plumlee-16798","Jusuf-Nurkic-18619","De'Aaron-Fox-37900","Dewayne-Dedmon-16894","Nikola-Jokic-31812","49800","283.75"
"Dennis-Schroder-18595","Jamal-Murray-35211","Buddy-Hield-35206","Mason-Plumlee-16798","Jusuf-Nurkic-18619","De'Aaron-Fox-37900","Dewayne-Dedmon-16894","Nikola-Jokic-31812","50000","283.74"
"Jamal-Murray-35211","J.J.-Redick-1030","Jeremy-Lamb-13955","Jerami-Grant-18576","Jusuf-Nurkic-18619","De'Aaron-Fox-37900","Markieff-Morris-13314","Nikola-Jokic-31812","49800","283.74"
"Jamal-Murray-35211","J.J.-Redick-1030","Buddy-Hield-35206","Jerami-Grant-18576","Nikola-Jokic-31812","De'Aaron-Fox-37900","Markieff-Morris-13314","Jusuf-Nurkic-18619","50000","283.73"
"Jamal-Murray-35211","Klay-Thompson-13315","J.J.-Redick-1030","Rondae-Hollis-Jefferson-18897","Jusuf-Nurkic-18619","De'Aaron-Fox-37900","Frank-Ntilikina-37796","Nikola-Jokic-31812","49900","283.72"
"Kyle-Anderson-18615","Jamal-Murray-35211","Jeremy-Lamb-13955","Markieff-Morris-13314","Nikola-Jokic-31812","De'Aaron-Fox-37900","J.J.-Redick-1030","Jusuf-Nurkic-18619","50000","283.66"
"Dennis-Schroder-18595","Klay-Thompson-13315","Jeremy-Lamb-13955","Mason-Plumlee-16798","Nikola-Jokic-31812","De'Aaron-Fox-37900","J.J.-Redick-1030","Jusuf-Nurkic-18619","49900","283.65"
"Jamal-Murray-35211","Klay-Thompson-13315","Jeremy-Lamb-13955","Dewayne-Dedmon-16894","Nikola-Jokic-31812","De'Aaron-Fox-37900","Josh-Richardson-18922","Rondae-Hollis-Jefferson-18897","50000","283.62"
"De'Aaron-Fox-37900","Jeremy-Lamb-13955","Buddy-Hield-35206","Mason-Plumlee-16798","Nikola-Jokic-31812","Klay-Thompson-13315","Rondae-Hollis-Jefferson-18897","Jusuf-Nurkic-18619","50000","283.6"
"Jamal-Murray-35211","J.J.-Redick-1030","Josh-Richardson-18922","Jerami-Grant-18576","Nikola-Jokic-31812","De'Aaron-Fox-37900","Rondae-Hollis-Jefferson-18897","Jusuf-Nurkic-18619","49700","283.6"
"Jamal-Murray-35211","Jeremy-Lamb-13955","J.J.-Redick-1030","Mason-Plumlee-16798","Jusuf-Nurkic-18619","De'Aaron-Fox-37900","Juan-Hernangomez-35212","Nikola-Jokic-31812","49700","283.57"
"Dennis-Schroder-18595","Jamal-Murray-35211","Josh-Richardson-18922","Mason-Plumlee-16798","Nikola-Jokic-31812","Klay-Thompson-13315","Rondae-Hollis-Jefferson-18897","De'Aaron-Fox-37900","50000","283.56"
"Jamal-Murray-35211","Buddy-Hield-35206","J.J.-Redick-1030","Mason-Plumlee-16798","Jusuf-Nurkic-18619","De'Aaron-Fox-37900","Juan-Hernangomez-35212","Nikola-Jokic-31812","49900","283.56"
"Jamal-Murray-35211","J.J.-Redick-1030","Jeremy-Lamb-13955","Rondae-Hollis-Jefferson-18897","Nikola-Jokic-31812","Josh-Richardson-18922","Kelly-Oubre-18925","De'Aaron-Fox-37900","50000","283.55"
"Jamal-Murray-35211","Klay-Thompson-13315","J.J.-Redick-1030","Rondae-Hollis-Jefferson-18897","Jusuf-Nurkic-18619","De'Aaron-Fox-37900","Iman-Shumpert-13350","Nikola-Jokic-31812","49900","283.55"
"Jamal-Murray-35211","J.J.-Redick-1030","Jeremy-Lamb-13955","Mason-Plumlee-16798","Jusuf-Nurkic-18619","De'Aaron-Fox-37900","Dewayne-Dedmon-16894","Nikola-Jokic-31812","49300","283.55"
"Jamal-Murray-35211","J.J.-Redick-1030","Buddy-Hield-35206","Mason-Plumlee-16798","Jusuf-Nurkic-18619","De'Aaron-Fox-37900","Dewayne-Dedmon-16894","Nikola-Jokic-31812","49500","283.54"
"Kyle-Anderson-18615","Jamal-Murray-35211","J.J.-Redick-1030","Rondae-Hollis-Jefferson-18897","Jusuf-Nurkic-18619","De'Aaron-Fox-37900","Josh-Richardson-18922","Nikola-Jokic-31812","49900","283.52"
"Jamal-Murray-35211","Klay-Thompson-13315","Jeremy-Lamb-13955","Markieff-Morris-13314","Nikola-Jokic-31812","De'Aaron-Fox-37900","J.J.-Redick-1030","Mason-Plumlee-16798","49600","283.5"
"Jamal-Murray-35211","Klay-Thompson-13315","Jeff-Green-1314","Dewayne-Dedmon-16894","Nikola-Jokic-31812","De'Aaron-Fox-37900","J.J.-Redick-1030","Jusuf-Nurkic-18619","49900","283.5"
"Jamal-Murray-35211","Buddy-Hield-35206","Jeremy-Lamb-13955","Mason-Plumlee-16798","Jusuf-Nurkic-18619","De'Aaron-Fox-37900","Jerami-Grant-18576","Nikola-Jokic-31812","49700","283.5"
"Jamal-Murray-35211","J.J.-Redick-1030","Buddy-Hield-35206","Mason-Plumlee-16798","Nikola-Jokic-31812","Klay-Thompson-13315","Markieff-Morris-13314","De'Aaron-Fox-37900","49800","283.49"
"Jamal-Murray-35211","Alec-Burks-13353","Jeremy-Lamb-13955","Mason-Plumlee-16798","Nikola-Jokic-31812","De'Aaron-Fox-37900","J.J.-Redick-1030","Jusuf-Nurkic-18619","49500","283.44"
"Jamal-Murray-35211","Alec-Burks-13353","Buddy-Hield-35206","Mason-Plumlee-16798","Jusuf-Nurkic-18619","De'Aaron-Fox-37900","J.J.-Redick-1030","Nikola-Jokic-31812","49700","283.43"
"Kyle-Anderson-18615","Jamal-Murray-35211","Buddy-Hield-35206","Mason-Plumlee-16798","Jusuf-Nurkic-18619","De'Aaron-Fox-37900","Jeremy-Lamb-13955","Nikola-Jokic-31812","49900","283.42"
"Jamal-Murray-35211","Jeremy-Lamb-13955","J.J.-Redick-1030","Jerami-Grant-18576","Nikola-Jokic-31812","Klay-Thompson-13315","Josh-Richardson-18922","De'Aaron-Fox-37900","49800","283.42"
"Jamal-Murray-35211","Josh-Richardson-18922","Buddy-Hield-35206","Jerami-Grant-18576","Nikola-Jokic-31812","Klay-Thompson-13315","J.J.-Redick-1030","De'Aaron-Fox-37900","50000","283.41"
"Jamal-Murray-35211","Klay-Thompson-13315","Joe-Harris-18587","Dewayne-Dedmon-16894","Jusuf-Nurkic-18619","De'Aaron-Fox-37900","J.J.-Redick-1030","Nikola-Jokic-31812","49900","283.4"
"Jamal-Murray-35211","Klay-Thompson-13315","Jeremy-Lamb-13955","Rondae-Hollis-Jefferson-18897","Nikola-Jokic-31812","De'Aaron-Fox-37900","J.J.-Redick-1030","Kevin-Knox-408820","50000","283.4"
"Jamal-Murray-35211","Klay-Thompson-13315","Jeff-Green-1314","Mason-Plumlee-16798","Jusuf-Nurkic-18619","De'Aaron-Fox-37900","Rondae-Hollis-Jefferson-18897","Nikola-Jokic-31812","49800","283.4"
"Jamal-Murray-35211","J.J.-Redick-1030","Jeremy-Lamb-13955","Mason-Plumlee-16798","Jusuf-Nurkic-18619","Klay-Thompson-13315","Josh-Richardson-18922","Nikola-Jokic-31812","49800","283.4"
"Dennis-Schroder-18595","Jeremy-Lamb-13955","J.J.-Redick-1030","Rondae-Hollis-Jefferson-18897","Jusuf-Nurkic-18619","De'Aaron-Fox-37900","Josh-Richardson-18922","Nikola-Jokic-31812","50000","283.39"
"Jamal-Murray-35211","Josh-Richardson-18922","Buddy-Hield-35206","Mason-Plumlee-16798","Jusuf-Nurkic-18619","Klay-Thompson-13315","J.J.-Redick-1030","Nikola-Jokic-31812","50000","283.39"
"Jamal-Murray-35211","Jeremy-Lamb-13955","Jeff-Green-1314","Mason-Plumlee-16798","Jusuf-Nurkic-18619","De'Aaron-Fox-37900","Josh-Richardson-18922","Nikola-Jokic-31812","49800","283.37"
"Jamal-Murray-35211","Buddy-Hield-35206","Jeremy-Lamb-13955","Rondae-Hollis-Jefferson-18897","Nikola-Jokic-31812","De'Aaron-Fox-37900","Frank-Ntilikina-37796","Jusuf-Nurkic-18619","50000","283.36"
"Jamal-Murray-35211","Klay-Thompson-13315","J.J.-Redick-1030","Rondae-Hollis-Jefferson-18897","Nikola-Jokic-31812","De'Aaron-Fox-37900","Josh-Richardson-18922","Mason-Plumlee-16798","49500","283.36"
"Jamal-Murray-35211","Josh-Richardson-18922","Buddy-Hield-35206","Mason-Plumlee-16798","Jusuf-Nurkic-18619","De'Aaron-Fox-37900","Jeff-Green-1314","Nikola-Jokic-31812","50000","283.36"
"Dennis-Schroder-18595","Jamal-Murray-35211","Jeremy-Lamb-13955","Dewayne-Dedmon-16894","Nikola-Jokic-31812","Klay-Thompson-13315","Rondae-Hollis-Jefferson-18897","De'Aaron-Fox-37900","50000","283.34"
"Dennis-Schroder-18595","Jamal-Murray-35211","J.J.-Redick-1030","Jerami-Grant-18576","Jusuf-Nurkic-18619","De'Aaron-Fox-37900","Rondae-Hollis-Jefferson-18897","Nikola-Jokic-31812","49700","283.32"
"Jamal-Murray-35211","Kelly-Oubre-18925","J.J.-Redick-1030","Mason-Plumlee-16798","Nikola-Jokic-31812","De'Aaron-Fox-37900","Markieff-Morris-13314","Jusuf-Nurkic-18619","49900","283.32"
"Jamal-Murray-35211","J.J.-Redick-1030","Jeremy-Lamb-13955","Rondae-Hollis-Jefferson-18897","Nikola-Jokic-31812","Klay-Thompson-13315","Markieff-Morris-13314","Jusuf-Nurkic-18619","50000","283.31"
"Jamal-Murray-35211","Klay-Thompson-13315","Joe-Harris-18587","Mason-Plumlee-16798","Jusuf-Nurkic-18619","De'Aaron-Fox-37900","Rondae-Hollis-Jefferson-18897","Nikola-Jokic-31812","49800","283.3"
"Jamal-Murray-35211","Jeremy-Lamb-13955","Jeff-Green-1314","Rondae-Hollis-Jefferson-18897","Nikola-Jokic-31812","De'Aaron-Fox-37900","Markieff-Morris-13314","Jusuf-Nurkic-18619","50000","283.28"
"Dennis-Schroder-18595","J.J.-Redick-1030","Jeremy-Lamb-13955","Rondae-Hollis-Jefferson-18897","Nikola-Jokic-31812","Jamal-Murray-35211","Kelly-Oubre-18925","De'Aaron-Fox-37900","50000","283.27"
"Jamal-Murray-35211","Joe-Harris-18587","Jeremy-Lamb-13955","Mason-Plumlee-16798","Jusuf-Nurkic-18619","De'Aaron-Fox-37900","Josh-Richardson-18922","Nikola-Jokic-31812","49800","283.27"
"Jamal-Murray-35211","Josh-Richardson-18922","Joe-Harris-18587","Mason-Plumlee-16798","Nikola-Jokic-31812","De'Aaron-Fox-37900","Buddy-Hield-35206","Jusuf-Nurkic-18619","50000","283.26"
"Dennis-Schroder-18595","Jamal-Murray-35211","Kyle-Anderson-18615","Rondae-Hollis-Jefferson-18897","Nikola-Jokic-31812","De'Aaron-Fox-37900","J.J.-Redick-1030","Jusuf-Nurkic-18619","49900","283.24"
"Jamal-Murray-35211","J.J.-Redick-1030","Jeremy-Lamb-13955","Rondae-Hollis-Jefferson-18897","Nikola-Jokic-31812","Josh-Richardson-18922","Markieff-Morris-13314","De'Aaron-Fox-37900","49700","283.24"
"Jamal-Murray-35211","Josh-Richardson-18922","Buddy-Hield-35206","Rondae-Hollis-Jefferson-18897","Nikola-Jokic-31812","De'Aaron-Fox-37900","J.J.-Redick-1030","Markieff-Morris-13314","49900","283.23"
"Jamal-Murray-35211","Iman-Shumpert-13350","Buddy-Hield-35206","Rondae-Hollis-Jefferson-18897","Nikola-Jokic-31812","De'Aaron-Fox-37900","Jeremy-Lamb-13955","Jusuf-Nurkic-18619","50000","283.19"
"Jamal-Murray-35211","Joe-Harris-18587","Jeremy-Lamb-13955","Rondae-Hollis-Jefferson-18897","Nikola-Jokic-31812","De'Aaron-Fox-37900","Markieff-Morris-13314","Jusuf-Nurkic-18619","50000","283.18"
"Jamal-Murray-35211","Buddy-Hield-35206","Jeremy-Lamb-13955","Dewayne-Dedmon-16894","Nikola-Jokic-31812","Klay-Thompson-13315","J.J.-Redick-1030","Jusuf-Nurkic-18619","50000","283.17"
"Jamal-Murray-35211","Klay-Thompson-13315","Jeremy-Lamb-13955","Rondae-Hollis-Jefferson-18897","Nikola-Jokic-31812","De'Aaron-Fox-37900","J.J.-Redick-1030","Juan-Hernangomez-35212","49900","283.16"
"Dennis-Schroder-18595","Jamal-Murray-35211","Jeremy-Lamb-13955","Jerami-Grant-18576","Nikola-Jokic-31812","Klay-Thompson-13315","J.J.-Redick-1030","De'Aaron-Fox-37900","49800","283.14"
"Jamal-Murray-35211","Jeremy-Lamb-13955","J.J.-Redick-1030","Dewayne-Dedmon-16894","Nikola-Jokic-31812","Klay-Thompson-13315","Rondae-Hollis-Jefferson-18897","De'Aaron-Fox-37900","49500","283.14"
"Jamal-Murray-35211","Jeremy-Lamb-13955","Buddy-Hield-35206","Jeff-Green-1314","Nikola-Jokic-31812","De'Aaron-Fox-37900","Dewayne-Dedmon-16894","Jusuf-Nurkic-18619","50000","283.14"
"Dennis-Schroder-18595","Jamal-Murray-35211","Buddy-Hield-35206","Jerami-Grant-18576","Nikola-Jokic-31812","Klay-Thompson-13315","J.J.-Redick-1030","De'Aaron-Fox-37900","50000","283.13"
"Jamal-Murray-35211","Klay-Thompson-13315","Buddy-Hield-35206","Rondae-Hollis-Jefferson-18897","Nikola-Jokic-31812","De'Aaron-Fox-37900","J.J.-Redick-1030","Dewayne-Dedmon-16894","49700","283.13"
"Dennis-Schroder-18595","Jamal-Murray-35211","Jeremy-Lamb-13955","Mason-Plumlee-16798","Nikola-Jokic-31812","Klay-Thompson-13315","J.J.-Redick-1030","Jusuf-Nurkic-18619","49800","283.12"
"Jamal-Murray-35211","Klay-Thompson-13315","Jeremy-Lamb-13955","Mason-Plumlee-16798","Nikola-Jokic-31812","De'Aaron-Fox-37900","Wilson-Chandler-1327","Jusuf-Nurkic-18619","49900","283.12"
