"John-Wall-1084","Zach-LaVine-18622","Gordon-Hayward-1239","Otto-Porter-17069","Clint-Capela-18610","Fred-VanVleet-36011","Tyreke-Evans-1070","Jonas-Valanciunas-13301","50000","288.07"
"John-Wall-1084","Fred-VanVleet-36011","Andrew-Wiggins-18620","Otto-Porter-17069","Clint-Capela-18610","Chris-Paul-1087","Tyreke-Evans-1070","Jonas-Valanciunas-13301","49800","287.4"
"John-Wall-1084","Zach-LaVine-18622","Andrew-Wiggins-18620","Rondae-Hollis-Jefferson-18897","Clint-Capela-18610","Fred-VanVleet-36011","Tyreke-Evans-1070","Jonas-Valanciunas-13301","50000","287.25"
"John-Wall-1084","Zach-LaVine-18622","Rodney-Hood-18629","Otto-Porter-17069","Clint-Capela-18610","Andrew-Wiggins-18620","Tyreke-Evans-1070","Fred-VanVleet-36011","49900","286.74"

"John-Wall-1084","Zach-LaVine-18622","Gordon-Hayward-1239","Otto-Porter-17069","Clint-Capela-18610","Fred-VanVleet-36011","Tyreke-Evans-1070","Jonas-Valanciunas-13301","50000","288.07"
"John-Wall-1084","Fred-VanVleet-36011","Andrew-Wiggins-18620","Otto-Porter-17069","Clint-Capela-18610","Chris-Paul-1087","Tyreke-Evans-1070","Jonas-Valanciunas-13301","49800","287.4"
"John-Wall-1084","Zach-LaVine-18622","Andrew-Wiggins-18620","Rondae-Hollis-Jefferson-18897","Clint-Capela-18610","Fred-VanVleet-36011","Tyreke-Evans-1070","Jonas-Valanciunas-13301","50000","287.25"
"John-Wall-1084","Zach-LaVine-18622","Rodney-Hood-18629","Otto-Porter-17069","Clint-Capela-18610","Andrew-Wiggins-18620","Tyreke-Evans-1070","Fred-VanVleet-36011","49900","286.74"
"John-Wall-1084","Marcus-Smart-18567","Andrew-Wiggins-18620","Otto-Porter-17069","Clint-Capela-18610","Fred-VanVleet-36011","Tyreke-Evans-1070","Zach-LaVine-18622","49500","286.59"
"John-Wall-1084","Marcus-Smart-18567","Gordon-Hayward-1239","Otto-Porter-17069","Clint-Capela-18610","Fred-VanVleet-36011","Andrew-Wiggins-18620","Zach-LaVine-18622","49800","286.31"
"John-Wall-1084","Marcus-Smart-18567","Andrew-Wiggins-18620","Rondae-Hollis-Jefferson-18897","Clint-Capela-18610","Fred-VanVleet-36011","Otto-Porter-17069","Zach-LaVine-18622","50000","286.3"
"John-Wall-1084","Marcus-Smart-18567","Andrew-Wiggins-18620","Otto-Porter-17069","Clint-Capela-18610","Zach-LaVine-18622","Tyreke-Evans-1070","Jonas-Valanciunas-13301","49900","286.26"
"John-Wall-1084","Fred-VanVleet-36011","Gordon-Hayward-1239","Otto-Porter-17069","Clint-Capela-18610","Chris-Paul-1087","Tyreke-Evans-1070","Jonas-Valanciunas-13301","49700","286.22"
"John-Wall-1084","Fred-VanVleet-36011","Tyreke-Evans-1070","Rondae-Hollis-Jefferson-18897","Jonas-Valanciunas-13301","Chris-Paul-1087","Otto-Porter-17069","Clint-Capela-18610","49900","286.21"
"John-Wall-1084","Fred-VanVleet-36011","Tyreke-Evans-1070","Marvin-Bagley-III-409321","Clint-Capela-18610","Chris-Paul-1087","Otto-Porter-17069","Jonas-Valanciunas-13301","50000","286.11"
"John-Wall-1084","Zach-LaVine-18622","Gordon-Hayward-1239","Rondae-Hollis-Jefferson-18897","Clint-Capela-18610","Fred-VanVleet-36011","Tyreke-Evans-1070","Jonas-Valanciunas-13301","49900","286.07"
"De'Aaron-Fox-37900","Fred-VanVleet-36011","Andrew-Wiggins-18620","Otto-Porter-17069","Willie-Cauley-Stein-18951","John-Wall-1084","Tyreke-Evans-1070","Clint-Capela-18610","50000","286.03"
"John-Wall-1084","Zach-LaVine-18622","Andrew-Wiggins-18620","Otto-Porter-17069","Wendell-Carter-408878","Fred-VanVleet-36011","Tyreke-Evans-1070","Clint-Capela-18610","49900","285.99"
"John-Wall-1084","Zach-LaVine-18622","Gordon-Hayward-1239","Marvin-Bagley-III-409321","Clint-Capela-18610","Fred-VanVleet-36011","Tyreke-Evans-1070","Jonas-Valanciunas-13301","50000","285.97"
"De'Aaron-Fox-37900","Fred-VanVleet-36011","Andrew-Wiggins-18620","Otto-Porter-17069","Clint-Capela-18610","John-Wall-1084","Tyreke-Evans-1070","Jeff-Teague-1005","50000","285.73"
"John-Wall-1084","Zach-LaVine-18622","Rodney-Hood-18629","Otto-Porter-17069","Jonas-Valanciunas-13301","Fred-VanVleet-36011","Andrew-Wiggins-18620","Clint-Capela-18610","49700","285.67"
"John-Wall-1084","Zach-LaVine-18622","Rodney-Hood-18629","Otto-Porter-17069","Clint-Capela-18610","Tyreke-Evans-1070","Gordon-Hayward-1239","Fred-VanVleet-36011","49800","285.56"
"John-Wall-1084","Zach-LaVine-18622","Rodney-Hood-18629","Otto-Porter-17069","Clint-Capela-18610","Fred-VanVleet-36011","Tyreke-Evans-1070","Rondae-Hollis-Jefferson-18897","50000","285.55"
"John-Wall-1084","Marcus-Smart-18567","Bogdan-Bogdanovic-37899","Otto-Porter-17069","Clint-Capela-18610","Fred-VanVleet-36011","Andrew-Wiggins-18620","Zach-LaVine-18622","50000","285.49"
"John-Wall-1084","Marcus-Smart-18567","Gordon-Hayward-1239","Otto-Porter-17069","Clint-Capela-18610","Fred-VanVleet-36011","Tyreke-Evans-1070","Zach-LaVine-18622","49400","285.41"
"John-Wall-1084","Fred-VanVleet-36011","Bogdan-Bogdanovic-37899","Otto-Porter-17069","Jonas-Valanciunas-13301","Chris-Paul-1087","Tyreke-Evans-1070","Clint-Capela-18610","49900","285.4"
"John-Wall-1084","Marcus-Smart-18567","Tyreke-Evans-1070","Rondae-Hollis-Jefferson-18897","Clint-Capela-18610","Fred-VanVleet-36011","Otto-Porter-17069","Zach-LaVine-18622","49600","285.4"
"John-Wall-1084","Fred-VanVleet-36011","Andrew-Wiggins-18620","Rondae-Hollis-Jefferson-18897","Clint-Capela-18610","Chris-Paul-1087","Tyreke-Evans-1070","Jonas-Valanciunas-13301","49700","285.4"
"John-Wall-1084","Marcus-Smart-18567","Tyreke-Evans-1070","Otto-Porter-17069","Clint-Capela-18610","Fred-VanVleet-36011","Buddy-Hield-35206","Zach-LaVine-18622","49800","285.39"
"John-Wall-1084","Jordan-Clarkson-18631","Gordon-Hayward-1239","Otto-Porter-17069","Clint-Capela-18610","Fred-VanVleet-36011","Tyreke-Evans-1070","Chris-Paul-1087","50000","285.35"
"John-Wall-1084","Marcus-Smart-18567","Tyreke-Evans-1070","Marvin-Bagley-III-409321","Clint-Capela-18610","Fred-VanVleet-36011","Otto-Porter-17069","Zach-LaVine-18622","49700","285.3"
"John-Wall-1084","Fred-VanVleet-36011","Andrew-Wiggins-18620","Marvin-Bagley-III-409321","Jonas-Valanciunas-13301","Chris-Paul-1087","Tyreke-Evans-1070","Clint-Capela-18610","49800","285.3"
"John-Wall-1084","Zach-LaVine-18622","Andrew-Wiggins-18620","Thaddeus-Young-1289","Clint-Capela-18610","Fred-VanVleet-36011","Tyreke-Evans-1070","Otto-Porter-17069","50000","285.13"
"John-Wall-1084","Fred-VanVleet-36011","Gordon-Hayward-1239","Rondae-Hollis-Jefferson-18897","Clint-Capela-18610","Chris-Paul-1087","Andrew-Wiggins-18620","Jonas-Valanciunas-13301","50000","285.12"
"John-Wall-1084","Marcus-Smart-18567","Gordon-Hayward-1239","Rondae-Hollis-Jefferson-18897","Clint-Capela-18610","Fred-VanVleet-36011","Otto-Porter-17069","Zach-LaVine-18622","49900","285.12"
"John-Wall-1084","Marcus-Smart-18567","Gordon-Hayward-1239","Otto-Porter-17069","Clint-Capela-18610","Zach-LaVine-18622","Tyreke-Evans-1070","Jonas-Valanciunas-13301","49800","285.08"
"John-Wall-1084","Marcus-Smart-18567","Tyreke-Evans-1070","Rondae-Hollis-Jefferson-18897","Jonas-Valanciunas-13301","Zach-LaVine-18622","Otto-Porter-17069","Clint-Capela-18610","50000","285.07"
"De'Aaron-Fox-37900","Fred-VanVleet-36011","Tyreke-Evans-1070","Otto-Porter-17069","Clint-Capela-18610","Chris-Paul-1087","Alec-Burks-13353","John-Wall-1084","50000","285.03"
"John-Wall-1084","Marcus-Smart-18567","Gordon-Hayward-1239","Marvin-Bagley-III-409321","Clint-Capela-18610","Fred-VanVleet-36011","Otto-Porter-17069","Zach-LaVine-18622","50000","285.02"
"John-Wall-1084","Andrew-Wiggins-18620","Rodney-Hood-18629","Otto-Porter-17069","Clint-Capela-18610","Fred-VanVleet-36011","Tyreke-Evans-1070","Chris-Paul-1087","49600","284.89"
"De'Aaron-Fox-37900","Fred-VanVleet-36011","Gordon-Hayward-1239","Otto-Porter-17069","Willie-Cauley-Stein-18951","John-Wall-1084","Tyreke-Evans-1070","Clint-Capela-18610","49900","284.85"
"John-Wall-1084","Zach-LaVine-18622","Gordon-Hayward-1239","Otto-Porter-17069","Wendell-Carter-408878","Fred-VanVleet-36011","Tyreke-Evans-1070","Clint-Capela-18610","49800","284.81"
"John-Wall-1084","Zach-LaVine-18622","Tyreke-Evans-1070","Otto-Porter-17069","Clint-Capela-18610","Fred-VanVleet-36011","Bojan-Bogdanovic-18571","Jonas-Valanciunas-13301","49900","284.81"
"John-Wall-1084","Zach-LaVine-18622","Rodney-Hood-18629","Otto-Porter-17069","Clint-Capela-18610","Fred-VanVleet-36011","Andrew-Wiggins-18620","Jordan-Clarkson-18631","50000","284.8"
"John-Wall-1084","Zach-LaVine-18622","Tyreke-Evans-1070","Rondae-Hollis-Jefferson-18897","Wendell-Carter-408878","Fred-VanVleet-36011","Otto-Porter-17069","Clint-Capela-18610","50000","284.8"
"John-Wall-1084","Zach-LaVine-18622","Rodney-Hood-18629","Otto-Porter-17069","Clint-Capela-18610","Fred-VanVleet-36011","Tyreke-Evans-1070","Jonas-Valanciunas-13301","49300","284.77"
"John-Wall-1084","Bogdan-Bogdanovic-37899","Rodney-Hood-18629","Otto-Porter-17069","Clint-Capela-18610","Fred-VanVleet-36011","Tyreke-Evans-1070","Zach-LaVine-18622","50000","284.74"
"John-Wall-1084","Marcus-Smart-18567","Andrew-Wiggins-18620","Otto-Porter-17069","Clint-Capela-18610","Fred-VanVleet-36011","Tyreke-Evans-1070","Chris-Paul-1087","49200","284.74"
"John-Wall-1084","Zach-LaVine-18622","Rodney-Hood-18629","Rondae-Hollis-Jefferson-18897","Clint-Capela-18610","Tyreke-Evans-1070","Andrew-Wiggins-18620","Fred-VanVleet-36011","49800","284.74"
"John-Wall-1084","Zach-LaVine-18622","Rodney-Hood-18629","Marvin-Bagley-III-409321","Clint-Capela-18610","Tyreke-Evans-1070","Andrew-Wiggins-18620","Fred-VanVleet-36011","49900","284.64"
"Zach-LaVine-18622","Andrew-Wiggins-18620","Gordon-Hayward-1239","Otto-Porter-17069","Clint-Capela-18610","Fred-VanVleet-36011","Tyreke-Evans-1070","Chris-Paul-1087","49600","284.63"
"Zach-LaVine-18622","Fred-VanVleet-36011","Andrew-Wiggins-18620","Otto-Porter-17069","Rondae-Hollis-Jefferson-18897","Chris-Paul-1087","Tyreke-Evans-1070","Clint-Capela-18610","49800","284.62"
"Zach-LaVine-18622","Tyreke-Evans-1070","Andrew-Wiggins-18620","Otto-Porter-17069","Clint-Capela-18610","Fred-VanVleet-36011","Buddy-Hield-35206","Chris-Paul-1087","50000","284.61"
"John-Wall-1084","Andrew-Wiggins-18620","Rodney-Hood-18629","Otto-Porter-17069","Clint-Capela-18610","Fred-VanVleet-36011","Gordon-Hayward-1239","Chris-Paul-1087","49900","284.61"
"John-Wall-1084","Marcus-Smart-18567","Bogdan-Bogdanovic-37899","Otto-Porter-17069","Clint-Capela-18610","Fred-VanVleet-36011","Tyreke-Evans-1070","Zach-LaVine-18622","49600","284.59"
"John-Wall-1084","Marcus-Smart-18567","Andrew-Wiggins-18620","Rondae-Hollis-Jefferson-18897","Clint-Capela-18610","Fred-VanVleet-36011","Tyreke-Evans-1070","Zach-LaVine-18622","49400","284.59"
"John-Wall-1084","Andrew-Wiggins-18620","Rodney-Hood-18629","Otto-Porter-17069","Clint-Capela-18610","Chris-Paul-1087","Tyreke-Evans-1070","Jonas-Valanciunas-13301","50000","284.56"
"De'Aaron-Fox-37900","Fred-VanVleet-36011","Gordon-Hayward-1239","Otto-Porter-17069","Clint-Capela-18610","John-Wall-1084","Tyreke-Evans-1070","Jeff-Teague-1005","49900","284.55"
"John-Wall-1084","Jordan-Clarkson-18631","Andrew-Wiggins-18620","Rondae-Hollis-Jefferson-18897","Clint-Capela-18610","Fred-VanVleet-36011","Tyreke-Evans-1070","Chris-Paul-1087","50000","284.53"
"Zach-LaVine-18622","Andrew-Wiggins-18620","Tyreke-Evans-1070","Marvin-Bagley-III-409321","Clint-Capela-18610","Fred-VanVleet-36011","Otto-Porter-17069","Chris-Paul-1087","49900","284.52"
"John-Wall-1084","Marcus-Smart-18567","Andrew-Wiggins-18620","Marvin-Bagley-III-409321","Clint-Capela-18610","Fred-VanVleet-36011","Tyreke-Evans-1070","Zach-LaVine-18622","49500","284.49"
"John-Wall-1084","Zach-LaVine-18622","Rodney-Hood-18629","Otto-Porter-17069","Jonas-Valanciunas-13301","Fred-VanVleet-36011","Gordon-Hayward-1239","Clint-Capela-18610","49600","284.49"
"John-Wall-1084","Zach-LaVine-18622","Rodney-Hood-18629","Rondae-Hollis-Jefferson-18897","Jonas-Valanciunas-13301","Fred-VanVleet-36011","Otto-Porter-17069","Clint-Capela-18610","49800","284.48"
"John-Wall-1084","Zach-LaVine-18622","Rodney-Hood-18629","Otto-Porter-17069","Jonas-Valanciunas-13301","Fred-VanVleet-36011","Buddy-Hield-35206","Clint-Capela-18610","50000","284.47"
"John-Wall-1084","Marcus-Smart-18567","Gordon-Hayward-1239","Otto-Porter-17069","Clint-Capela-18610","Fred-VanVleet-36011","Andrew-Wiggins-18620","Chris-Paul-1087","49500","284.46"
"John-Wall-1084","Marcus-Smart-18567","Andrew-Wiggins-18620","Rondae-Hollis-Jefferson-18897","Clint-Capela-18610","Fred-VanVleet-36011","Otto-Porter-17069","Chris-Paul-1087","49700","284.45"
"John-Wall-1084","Marcus-Smart-18567","Andrew-Wiggins-18620","Otto-Porter-17069","Clint-Capela-18610","Fred-VanVleet-36011","Buddy-Hield-35206","Chris-Paul-1087","49900","284.44"
"John-Wall-1084","Marcus-Smart-18567","Andrew-Wiggins-18620","Otto-Porter-17069","Clint-Capela-18610","Chris-Paul-1087","Tyreke-Evans-1070","Jonas-Valanciunas-13301","49600","284.41"
"John-Wall-1084","Zach-LaVine-18622","Rodney-Hood-18629","Marvin-Bagley-III-409321","Jonas-Valanciunas-13301","Fred-VanVleet-36011","Otto-Porter-17069","Clint-Capela-18610","49900","284.38"
"John-Wall-1084","Marcus-Smart-18567","Andrew-Wiggins-18620","Marvin-Bagley-III-409321","Clint-Capela-18610","Fred-VanVleet-36011","Otto-Porter-17069","Chris-Paul-1087","49800","284.35"
"John-Wall-1084","Marcus-Smart-18567","Bogdan-Bogdanovic-37899","Otto-Porter-17069","Clint-Capela-18610","Fred-VanVleet-36011","Gordon-Hayward-1239","Zach-LaVine-18622","49900","284.31"
"John-Wall-1084","Marcus-Smart-18567","Gordon-Hayward-1239","Rondae-Hollis-Jefferson-18897","Clint-Capela-18610","Fred-VanVleet-36011","Andrew-Wiggins-18620","Zach-LaVine-18622","49700","284.31"
"Zach-LaVine-18622","Andrew-Wiggins-18620","Gordon-Hayward-1239","Otto-Porter-17069","Clint-Capela-18610","Chris-Paul-1087","Tyreke-Evans-1070","Jonas-Valanciunas-13301","50000","284.3"
"John-Wall-1084","Marcus-Smart-18567","Bogdan-Bogdanovic-37899","Otto-Porter-17069","Jonas-Valanciunas-13301","Zach-LaVine-18622","Tyreke-Evans-1070","Clint-Capela-18610","50000","284.26"
"John-Wall-1084","Marcus-Smart-18567","Andrew-Wiggins-18620","Rondae-Hollis-Jefferson-18897","Clint-Capela-18610","Zach-LaVine-18622","Tyreke-Evans-1070","Jonas-Valanciunas-13301","49800","284.26"
"John-Wall-1084","Fred-VanVleet-36011","Gordon-Hayward-1239","Rondae-Hollis-Jefferson-18897","Clint-Capela-18610","Chris-Paul-1087","Tyreke-Evans-1070","Jonas-Valanciunas-13301","49600","284.22"
"John-Wall-1084","Marcus-Smart-18567","Gordon-Hayward-1239","Marvin-Bagley-III-409321","Clint-Capela-18610","Fred-VanVleet-36011","Andrew-Wiggins-18620","Zach-LaVine-18622","49800","284.21"
"John-Wall-1084","Marcus-Smart-18567","Andrew-Wiggins-18620","Marvin-Bagley-III-409321","Clint-Capela-18610","Fred-VanVleet-36011","Rondae-Hollis-Jefferson-18897","Zach-LaVine-18622","50000","284.2"
"John-Wall-1084","Fred-VanVleet-36011","Tyreke-Evans-1070","Rondae-Hollis-Jefferson-18897","Jonas-Valanciunas-13301","Chris-Paul-1087","Buddy-Hield-35206","Clint-Capela-18610","50000","284.2"
"John-Wall-1084","Marcus-Smart-18567","Andrew-Wiggins-18620","Marvin-Bagley-III-409321","Jonas-Valanciunas-13301","Zach-LaVine-18622","Tyreke-Evans-1070","Clint-Capela-18610","49900","284.16"
"John-Wall-1084","Fred-VanVleet-36011","Andrew-Wiggins-18620","Otto-Porter-17069","Wendell-Carter-408878","Chris-Paul-1087","Tyreke-Evans-1070","Clint-Capela-18610","49600","284.14"
"John-Wall-1084","Marcus-Smart-18567","Gordon-Hayward-1239","Otto-Porter-17069","Clint-Capela-18610","Chris-Paul-1087","Andrew-Wiggins-18620","Jonas-Valanciunas-13301","49900","284.13"
"John-Wall-1084","Fred-VanVleet-36011","Gordon-Hayward-1239","Marvin-Bagley-III-409321","Clint-Capela-18610","Chris-Paul-1087","Tyreke-Evans-1070","Jonas-Valanciunas-13301","49700","284.12"
"John-Wall-1084","Zach-LaVine-18622","Danny-Green-940","Otto-Porter-17069","Clint-Capela-18610","Andrew-Wiggins-18620","Tyreke-Evans-1070","Fred-VanVleet-36011","49800","284.12"
"John-Wall-1084","Fred-VanVleet-36011","Tyreke-Evans-1070","Marvin-Bagley-III-409321","Jonas-Valanciunas-13301","Chris-Paul-1087","Rondae-Hollis-Jefferson-18897","Clint-Capela-18610","49900","284.11"
"John-Wall-1084","Zach-LaVine-18622","Andrew-Wiggins-18620","Thaddeus-Young-1289","Jonas-Valanciunas-13301","Fred-VanVleet-36011","Otto-Porter-17069","Clint-Capela-18610","49800","284.06"
"De'Aaron-Fox-37900","Fred-VanVleet-36011","Andrew-Wiggins-18620","Rondae-Hollis-Jefferson-18897","Willie-Cauley-Stein-18951","John-Wall-1084","Tyreke-Evans-1070","Clint-Capela-18610","49900","284.03"
"De'Aaron-Fox-37900","Derrick-Rose-1086","Andrew-Wiggins-18620","Otto-Porter-17069","Clint-Capela-18610","Fred-VanVleet-36011","Tyreke-Evans-1070","John-Wall-1084","49900","284.0"
"John-Wall-1084","Zach-LaVine-18622","Bogdan-Bogdanovic-37899","Otto-Porter-17069","Clint-Capela-18610","Fred-VanVleet-36011","Tyreke-Evans-1070","Wendell-Carter-408878","50000","283.99"
"John-Wall-1084","Zach-LaVine-18622","Andrew-Wiggins-18620","Rondae-Hollis-Jefferson-18897","Clint-Capela-18610","Fred-VanVleet-36011","Tyreke-Evans-1070","Wendell-Carter-408878","49800","283.99"
"John-Wall-1084","Zach-LaVine-18622","Gordon-Hayward-1239","Otto-Porter-17069","Clint-Capela-18610","Fred-VanVleet-36011","Tyreke-Evans-1070","Thaddeus-Young-1289","49900","283.95"
"De'Aaron-Fox-37900","Fred-VanVleet-36011","Andrew-Wiggins-18620","Marvin-Bagley-III-409321","Willie-Cauley-Stein-18951","John-Wall-1084","Tyreke-Evans-1070","Clint-Capela-18610","50000","283.93"
"John-Wall-1084","Zach-LaVine-18622","Rodney-Hood-18629","Otto-Porter-17069","Clint-Capela-18610","Fred-VanVleet-36011","Tyreke-Evans-1070","Jordan-Clarkson-18631","49600","283.9"
"John-Wall-1084","Zach-LaVine-18622","Andrew-Wiggins-18620","Marvin-Bagley-III-409321","Wendell-Carter-408878","Fred-VanVleet-36011","Tyreke-Evans-1070","Clint-Capela-18610","49900","283.89"
"John-Wall-1084","Fred-VanVleet-36011","Andrew-Wiggins-18620","Otto-Porter-17069","Jonas-Valanciunas-13301","Chris-Paul-1087","Bojan-Bogdanovic-18571","Clint-Capela-18610","50000","283.86"
"John-Wall-1084","Fred-VanVleet-36011","Gordon-Hayward-1239","Otto-Porter-17069","Clint-Capela-18610","Chris-Paul-1087","Andrew-Wiggins-18620","Wendell-Carter-408878","49900","283.86"
"Zach-LaVine-18622","Reggie-Jackson-13352","Andrew-Wiggins-18620","Otto-Porter-17069","Clint-Capela-18610","Fred-VanVleet-36011","Tyreke-Evans-1070","Chris-Paul-1087","49900","283.84"
"Zach-LaVine-18622","Fred-VanVleet-36011","Andrew-Wiggins-18620","Otto-Porter-17069","Clint-Capela-18610","Chris-Paul-1087","Tyreke-Evans-1070","Jonas-Valanciunas-13301","49100","283.84"
"John-Wall-1084","Fred-VanVleet-36011","Rodney-Hood-18629","Otto-Porter-17069","Jonas-Valanciunas-13301","Chris-Paul-1087","Andrew-Wiggins-18620","Clint-Capela-18610","49400","283.82"
"Zach-LaVine-18622","Andrew-Wiggins-18620","Bogdan-Bogdanovic-37899","Otto-Porter-17069","Clint-Capela-18610","Fred-VanVleet-36011","Tyreke-Evans-1070","Chris-Paul-1087","49800","283.81"
"John-Wall-1084","Marcus-Smart-18567","Rodney-Hood-18629","Otto-Porter-17069","Clint-Capela-18610","Andrew-Wiggins-18620","Tyreke-Evans-1070","Zach-LaVine-18622","49700","283.75"
"De'Aaron-Fox-37900","Fred-VanVleet-36011","Andrew-Wiggins-18620","Rondae-Hollis-Jefferson-18897","Clint-Capela-18610","John-Wall-1084","Tyreke-Evans-1070","Jeff-Teague-1005","49900","283.73"
"John-Wall-1084","Zach-LaVine-18622","Andrew-Wiggins-18620","Otto-Porter-17069","Willie-Cauley-Stein-18951","Fred-VanVleet-36011","Alec-Burks-13353","Clint-Capela-18610","49800","283.73"
"John-Wall-1084","Tyreke-Evans-1070","Rodney-Hood-18629","Otto-Porter-17069","Clint-Capela-18610","Fred-VanVleet-36011","Gordon-Hayward-1239","Chris-Paul-1087","49500","283.71"
