"Chris-Paul-1087","Marcus-Smart-18567","Gordon-Hayward-1239","Jabari-Parker-18593","Clint-Capela-18610","Fred-VanVleet-36011","Andrew-Wiggins-18620","Zach-LaVine-18622","50000","282.73"
"Chris-Paul-1087","Zach-LaVine-18622","Rodney-Hood-18629","Jabari-Parker-18593","Clint-Capela-18610","Fred-VanVleet-36011","Andrew-Wiggins-18620","Jonas-Valanciunas-13301","49900","282.09"
"Marcus-Smart-18567","Fred-VanVleet-36011","Rodney-Hood-18629","Jabari-Parker-18593","Clint-Capela-18610","James-Harden-1037","Andrew-Wiggins-18620","Jonas-Valanciunas-13301","49900","281.75"
"Marcus-Smart-18567","Zach-LaVine-18622","Gordon-Hayward-1239","Larry-Nance-18946","Clint-Capela-18610","Fred-VanVleet-36011","Andrew-Wiggins-18620","Karl-Anthony-Towns-18937","50000","281.52"
"Chris-Paul-1087","Marcus-Smart-18567","Rodney-Hood-18629","Al-Horford-1499","Karl-Anthony-Towns-18937","Fred-VanVleet-36011","Andrew-Wiggins-18620","Clint-Capela-18610","49900","281.46"

"Chris-Paul-1087","Marcus-Smart-18567","Gordon-Hayward-1239","Jabari-Parker-18593","Clint-Capela-18610","Fred-VanVleet-36011","Andrew-Wiggins-18620","Zach-LaVine-18622","50000","282.73"
"Chris-Paul-1087","Zach-LaVine-18622","Rodney-Hood-18629","Jabari-Parker-18593","Clint-Capela-18610","Fred-VanVleet-36011","Andrew-Wiggins-18620","Jonas-Valanciunas-13301","49900","282.09"
"Marcus-Smart-18567","Fred-VanVleet-36011","Rodney-Hood-18629","Jabari-Parker-18593","Clint-Capela-18610","James-Harden-1037","Andrew-Wiggins-18620","Jonas-Valanciunas-13301","49900","281.75"
"Marcus-Smart-18567","Zach-LaVine-18622","Gordon-Hayward-1239","Larry-Nance-18946","Clint-Capela-18610","Fred-VanVleet-36011","Andrew-Wiggins-18620","Karl-Anthony-Towns-18937","50000","281.52"
"Chris-Paul-1087","Marcus-Smart-18567","Rodney-Hood-18629","Al-Horford-1499","Karl-Anthony-Towns-18937","Fred-VanVleet-36011","Andrew-Wiggins-18620","Clint-Capela-18610","49900","281.46"
"Marcus-Smart-18567","Zach-LaVine-18622","Gordon-Hayward-1239","Marcus-Morris-13316","Clint-Capela-18610","Fred-VanVleet-36011","Andrew-Wiggins-18620","Karl-Anthony-Towns-18937","50000","281.37"
"Marcus-Smart-18567","Zach-LaVine-18622","Gordon-Hayward-1239","Kawhi-Leonard-13310","Clint-Capela-18610","Fred-VanVleet-36011","Andrew-Wiggins-18620","Jonas-Valanciunas-13301","49700","281.06"
"Chris-Paul-1087","Marcus-Smart-18567","Gordon-Hayward-1239","Jayson-Tatum-37782","Clint-Capela-18610","Fred-VanVleet-36011","Andrew-Wiggins-18620","Zach-LaVine-18622","49900","280.93"
"Chris-Paul-1087","Zach-LaVine-18622","Rodney-Hood-18629","Jabari-Parker-18593","Clint-Capela-18610","Fred-VanVleet-36011","Gordon-Hayward-1239","Jonas-Valanciunas-13301","49800","280.91"
"Chris-Paul-1087","Andrew-Wiggins-18620","Rodney-Hood-18629","Al-Horford-1499","Clint-Capela-18610","Fred-VanVleet-36011","Gordon-Hayward-1239","Zach-LaVine-18622","50000","280.76"
"Chris-Paul-1087","Marcus-Smart-18567","Gordon-Hayward-1239","Al-Horford-1499","Clint-Capela-18610","Fred-VanVleet-36011","Andrew-Wiggins-18620","Zach-LaVine-18622","49600","280.61"
"Marcus-Smart-18567","Fred-VanVleet-36011","Rodney-Hood-18629","Jabari-Parker-18593","Clint-Capela-18610","James-Harden-1037","Gordon-Hayward-1239","Jonas-Valanciunas-13301","49800","280.57"
"Zach-LaVine-18622","Rodney-Hood-18629","Andrew-Wiggins-18620","Jabari-Parker-18593","Karl-Anthony-Towns-18937","Fred-VanVleet-36011","Alec-Burks-13353","Clint-Capela-18610","49900","280.43"
"Marcus-Smart-18567","Andrew-Wiggins-18620","Rodney-Hood-18629","Al-Horford-1499","Clint-Capela-18610","Fred-VanVleet-36011","Gordon-Hayward-1239","James-Harden-1037","50000","280.42"
"Chris-Paul-1087","Zach-LaVine-18622","Rodney-Hood-18629","Jayson-Tatum-37782","Jonas-Valanciunas-13301","Fred-VanVleet-36011","Andrew-Wiggins-18620","Clint-Capela-18610","49800","280.29"
"Marcus-Smart-18567","Zach-LaVine-18622","Andrew-Wiggins-18620","Jabari-Parker-18593","Karl-Anthony-Towns-18937","Fred-VanVleet-36011","Alec-Burks-13353","Clint-Capela-18610","49500","280.28"
"Chris-Paul-1087","Marcus-Smart-18567","Gordon-Hayward-1239","Al-Horford-1499","Jonas-Valanciunas-13301","Zach-LaVine-18622","Andrew-Wiggins-18620","Clint-Capela-18610","50000","280.28"
"Chris-Paul-1087","Marcus-Smart-18567","Rodney-Hood-18629","Al-Horford-1499","Clint-Capela-18610","Fred-VanVleet-36011","Gordon-Hayward-1239","Karl-Anthony-Towns-18937","49800","280.28"
"Marcus-Smart-18567","Zach-LaVine-18622","Gordon-Hayward-1239","Kawhi-Leonard-13310","Clint-Capela-18610","Fred-VanVleet-36011","Andrew-Wiggins-18620","Jordan-Clarkson-18631","50000","280.19"
"Zach-LaVine-18622","Jordan-Clarkson-18631","Gordon-Hayward-1239","Dario-Saric-36004","Clint-Capela-18610","Fred-VanVleet-36011","Andrew-Wiggins-18620","Karl-Anthony-Towns-18937","49900","280.16"
"Fred-VanVleet-36011","James-Harden-1037","Gordon-Hayward-1239","Jabari-Parker-18593","Clint-Capela-18610","Alec-Burks-13353","Andrew-Wiggins-18620","Jonas-Valanciunas-13301","49900","280.05"
"Chris-Paul-1087","Zach-LaVine-18622","Gordon-Hayward-1239","Al-Horford-1499","Wendell-Carter-408878","Fred-VanVleet-36011","Andrew-Wiggins-18620","Clint-Capela-18610","50000","280.01"
"Chris-Paul-1087","Zach-LaVine-18622","Rodney-Hood-18629","Al-Horford-1499","Jonas-Valanciunas-13301","Fred-VanVleet-36011","Andrew-Wiggins-18620","Clint-Capela-18610","49500","279.97"
"Zach-LaVine-18622","Jordan-Clarkson-18631","Andrew-Wiggins-18620","Al-Horford-1499","Clint-Capela-18610","Fred-VanVleet-36011","Alec-Burks-13353","Karl-Anthony-Towns-18937","50000","279.95"
"Marcus-Smart-18567","Fred-VanVleet-36011","Rodney-Hood-18629","Jayson-Tatum-37782","Jonas-Valanciunas-13301","James-Harden-1037","Andrew-Wiggins-18620","Clint-Capela-18610","49800","279.95"
"Marcus-Smart-18567","Zach-LaVine-18622","Andrew-Wiggins-18620","Dario-Saric-36004","Clint-Capela-18610","Fred-VanVleet-36011","Alec-Burks-13353","James-Harden-1037","49900","279.93"
"Chris-Paul-1087","Zach-LaVine-18622","Andrew-Wiggins-18620","Jabari-Parker-18593","Clint-Capela-18610","Fred-VanVleet-36011","Alec-Burks-13353","Jeff-Teague-1005","50000","279.85"
"Chris-Paul-1087","Marcus-Smart-18567","Gordon-Hayward-1239","Serge-Ibaka-1294","Clint-Capela-18610","Fred-VanVleet-36011","Andrew-Wiggins-18620","Karl-Anthony-Towns-18937","50000","279.81"
"Chris-Paul-1087","Andrew-Wiggins-18620","Gordon-Hayward-1239","Al-Horford-1499","Karl-Anthony-Towns-18937","Fred-VanVleet-36011","Alec-Burks-13353","Clint-Capela-18610","49900","279.76"
"Jeff-Teague-1005","Jordan-Clarkson-18631","Gordon-Hayward-1239","Jabari-Parker-18593","Clint-Capela-18610","Fred-VanVleet-36011","Andrew-Wiggins-18620","Karl-Anthony-Towns-18937","50000","279.74"
"Marcus-Smart-18567","Fred-VanVleet-36011","Gordon-Hayward-1239","Al-Horford-1499","Wendell-Carter-408878","James-Harden-1037","Andrew-Wiggins-18620","Clint-Capela-18610","50000","279.67"
"Chris-Paul-1087","Marcus-Smart-18567","Gordon-Hayward-1239","Larry-Nance-18946","Clint-Capela-18610","Fred-VanVleet-36011","Andrew-Wiggins-18620","Karl-Anthony-Towns-18937","49700","279.67"
"Marcus-Smart-18567","Fred-VanVleet-36011","Rodney-Hood-18629","Al-Horford-1499","Jonas-Valanciunas-13301","James-Harden-1037","Andrew-Wiggins-18620","Clint-Capela-18610","49500","279.63"
"Zach-LaVine-18622","Jordan-Clarkson-18631","Rodney-Hood-18629","Kawhi-Leonard-13310","Jonas-Valanciunas-13301","Fred-VanVleet-36011","Andrew-Wiggins-18620","Clint-Capela-18610","49900","279.55"
"Chris-Paul-1087","Marcus-Smart-18567","Gordon-Hayward-1239","Marcus-Morris-13316","Clint-Capela-18610","Fred-VanVleet-36011","Andrew-Wiggins-18620","Karl-Anthony-Towns-18937","49700","279.52"
"Marcus-Smart-18567","Zach-LaVine-18622","Gordon-Hayward-1239","Al-Horford-1499","Karl-Anthony-Towns-18937","Fred-VanVleet-36011","Danny-Green-940","Clint-Capela-18610","50000","279.51"
"Jeff-Teague-1005","Marcus-Smart-18567","Andrew-Wiggins-18620","Jabari-Parker-18593","Clint-Capela-18610","Fred-VanVleet-36011","Alec-Burks-13353","James-Harden-1037","50000","279.51"
"Chris-Paul-1087","Zach-LaVine-18622","Andrew-Wiggins-18620","Jabari-Parker-18593","Jonas-Valanciunas-13301","Fred-VanVleet-36011","Danny-Green-940","Clint-Capela-18610","49800","279.47"
"Chris-Paul-1087","Marcus-Smart-18567","Rodney-Hood-18629","Robert-Covington-16874","Clint-Capela-18610","Fred-VanVleet-36011","Andrew-Wiggins-18620","Karl-Anthony-Towns-18937","50000","279.47"
"Jeff-Teague-1005","Zach-LaVine-18622","Rodney-Hood-18629","Dario-Saric-36004","Clint-Capela-18610","Fred-VanVleet-36011","Gordon-Hayward-1239","Karl-Anthony-Towns-18937","50000","279.46"
"Chris-Paul-1087","Marcus-Smart-18567","Rodney-Hood-18629","Jabari-Parker-18593","Clint-Capela-18610","Fred-VanVleet-36011","Andrew-Wiggins-18620","Zach-LaVine-18622","49300","279.43"
"Chris-Paul-1087","Rodney-Hood-18629","Gordon-Hayward-1239","Kawhi-Leonard-13310","Clint-Capela-18610","Fred-VanVleet-36011","Andrew-Wiggins-18620","Jonas-Valanciunas-13301","49800","279.36"
"Zach-LaVine-18622","Fred-VanVleet-36011","Rodney-Hood-18629","Jabari-Parker-18593","Clint-Capela-18610","Alec-Burks-13353","Gordon-Hayward-1239","Karl-Anthony-Towns-18937","49800","279.25"
"Chris-Paul-1087","Marcus-Smart-18567","Gordon-Hayward-1239","Kawhi-Leonard-13310","Clint-Capela-18610","Fred-VanVleet-36011","Andrew-Wiggins-18620","Jonas-Valanciunas-13301","49400","279.21"
"Marcus-Smart-18567","Fred-VanVleet-36011","Andrew-Wiggins-18620","Jabari-Parker-18593","Jonas-Valanciunas-13301","James-Harden-1037","Danny-Green-940","Clint-Capela-18610","49800","279.13"
"Chris-Paul-1087","Zach-LaVine-18622","Rodney-Hood-18629","Jayson-Tatum-37782","Clint-Capela-18610","Fred-VanVleet-36011","Gordon-Hayward-1239","Jonas-Valanciunas-13301","49700","279.11"
"Chris-Paul-1087","Zach-LaVine-18622","Rodney-Hood-18629","Al-Horford-1499","Clint-Capela-18610","Fred-VanVleet-36011","Andrew-Wiggins-18620","Jordan-Clarkson-18631","49800","279.1"
"Chris-Paul-1087","Marcus-Smart-18567","Rodney-Hood-18629","Jabari-Parker-18593","Clint-Capela-18610","Zach-LaVine-18622","Andrew-Wiggins-18620","Jonas-Valanciunas-13301","49700","279.1"
"Marcus-Smart-18567","Zach-LaVine-18622","Gordon-Hayward-1239","Jabari-Parker-18593","Clint-Capela-18610","Fred-VanVleet-36011","Alec-Burks-13353","Karl-Anthony-Towns-18937","49400","279.1"
"Chris-Paul-1087","Jordan-Clarkson-18631","Gordon-Hayward-1239","Jabari-Parker-18593","Clint-Capela-18610","Fred-VanVleet-36011","Alec-Burks-13353","Karl-Anthony-Towns-18937","50000","279.04"
"Chris-Paul-1087","Zach-LaVine-18622","Gordon-Hayward-1239","Jabari-Parker-18593","Clint-Capela-18610","Fred-VanVleet-36011","Andrew-Wiggins-18620","Terry-Rozier-18894","49900","278.99"
"Derrick-Rose-1086","Zach-LaVine-18622","Rodney-Hood-18629","Dario-Saric-36004","Clint-Capela-18610","Fred-VanVleet-36011","Andrew-Wiggins-18620","Karl-Anthony-Towns-18937","50000","278.91"
"Marcus-Smart-18567","Zach-LaVine-18622","Gordon-Hayward-1239","Al-Horford-1499","Karl-Anthony-Towns-18937","Fred-VanVleet-36011","Dario-Saric-36004","Clint-Capela-18610","50000","278.89"
"Chris-Paul-1087","Zach-LaVine-18622","Andrew-Wiggins-18620","Jabari-Parker-18593","Clint-Capela-18610","Fred-VanVleet-36011","Dario-Saric-36004","Jonas-Valanciunas-13301","49800","278.85"
"Chris-Paul-1087","Marcus-Smart-18567","Andrew-Wiggins-18620","Al-Horford-1499","Clint-Capela-18610","Fred-VanVleet-36011","Danny-Green-940","Karl-Anthony-Towns-18937","49800","278.84"
"Chris-Paul-1087","Zach-LaVine-18622","Rodney-Hood-18629","Jabari-Parker-18593","Clint-Capela-18610","Fred-VanVleet-36011","Andrew-Wiggins-18620","Wendell-Carter-408878","49700","278.83"
"Chris-Paul-1087","Marcus-Smart-18567","Rodney-Hood-18629","Kawhi-Leonard-13310","Clint-Capela-18610","Fred-VanVleet-36011","Andrew-Wiggins-18620","Jeff-Teague-1005","49900","278.82"
"Marcus-Smart-18567","Terry-Rozier-18894","Gordon-Hayward-1239","Kawhi-Leonard-13310","Clint-Capela-18610","Fred-VanVleet-36011","Andrew-Wiggins-18620","Karl-Anthony-Towns-18937","50000","278.81"
"Chris-Paul-1087","Marcus-Smart-18567","Rodney-Hood-18629","Jabari-Parker-18593","Jonas-Valanciunas-13301","Fred-VanVleet-36011","Andrew-Wiggins-18620","James-Harden-1037","50000","278.79"
"Chris-Paul-1087","Zach-LaVine-18622","Rodney-Hood-18629","Al-Horford-1499","Clint-Capela-18610","Fred-VanVleet-36011","Gordon-Hayward-1239","Jonas-Valanciunas-13301","49400","278.79"
"Chris-Paul-1087","Fred-VanVleet-36011","Rodney-Hood-18629","Dario-Saric-36004","Clint-Capela-18610","Jeff-Teague-1005","Andrew-Wiggins-18620","Karl-Anthony-Towns-18937","49800","278.79"
"Marcus-Smart-18567","Fred-VanVleet-36011","Rodney-Hood-18629","Jayson-Tatum-37782","Clint-Capela-18610","James-Harden-1037","Gordon-Hayward-1239","Jonas-Valanciunas-13301","49700","278.77"
"Zach-LaVine-18622","Jordan-Clarkson-18631","Gordon-Hayward-1239","Al-Horford-1499","Karl-Anthony-Towns-18937","Fred-VanVleet-36011","Alec-Burks-13353","Clint-Capela-18610","49900","278.77"
"Marcus-Smart-18567","Jordan-Clarkson-18631","Rodney-Hood-18629","Al-Horford-1499","Clint-Capela-18610","Fred-VanVleet-36011","Andrew-Wiggins-18620","James-Harden-1037","49800","278.76"
"Marcus-Smart-18567","Zach-LaVine-18622","Gordon-Hayward-1239","Dario-Saric-36004","Clint-Capela-18610","Fred-VanVleet-36011","Alec-Burks-13353","James-Harden-1037","49800","278.75"
"Chris-Paul-1087","Zach-LaVine-18622","Gordon-Hayward-1239","Jabari-Parker-18593","Clint-Capela-18610","Fred-VanVleet-36011","Alec-Burks-13353","Jeff-Teague-1005","49900","278.67"
"Marcus-Smart-18567","Terry-Rozier-18894","Gordon-Hayward-1239","Jabari-Parker-18593","Clint-Capela-18610","Fred-VanVleet-36011","Andrew-Wiggins-18620","James-Harden-1037","49900","278.65"
"Jeff-Teague-1005","Zach-LaVine-18622","Andrew-Wiggins-18620","Larry-Nance-18946","Clint-Capela-18610","Fred-VanVleet-36011","Alec-Burks-13353","Karl-Anthony-Towns-18937","50000","278.64"
"Zach-LaVine-18622","Andrew-Wiggins-18620","Rodney-Hood-18629","Jayson-Tatum-37782","Clint-Capela-18610","Fred-VanVleet-36011","Alec-Burks-13353","Karl-Anthony-Towns-18937","49800","278.63"
"Marcus-Smart-18567","Andrew-Wiggins-18620","Gordon-Hayward-1239","Al-Horford-1499","Karl-Anthony-Towns-18937","Zach-LaVine-18622","Alec-Burks-13353","Clint-Capela-18610","50000","278.62"
"Chris-Paul-1087","Marcus-Smart-18567","Gordon-Hayward-1239","Robert-Covington-16874","Clint-Capela-18610","Fred-VanVleet-36011","Andrew-Wiggins-18620","Zach-LaVine-18622","49700","278.62"
"Zach-LaVine-18622","Andrew-Wiggins-18620","Gordon-Hayward-1239","Kawhi-Leonard-13310","Jonas-Valanciunas-13301","Fred-VanVleet-36011","Danny-Green-940","Clint-Capela-18610","50000","278.59"
"Chris-Paul-1087","Rodney-Hood-18629","Andrew-Wiggins-18620","Jabari-Parker-18593","Karl-Anthony-Towns-18937","Fred-VanVleet-36011","Alec-Burks-13353","Clint-Capela-18610","49600","278.58"
"Marcus-Smart-18567","Rodney-Hood-18629","Gordon-Hayward-1239","Kawhi-Leonard-13310","Clint-Capela-18610","Fred-VanVleet-36011","Andrew-Wiggins-18620","Zach-LaVine-18622","49500","278.55"
"Derrick-Rose-1086","Fred-VanVleet-36011","Gordon-Hayward-1239","Dario-Saric-36004","Clint-Capela-18610","James-Harden-1037","Andrew-Wiggins-18620","Jonas-Valanciunas-13301","50000","278.53"
"Marcus-Smart-18567","Zach-LaVine-18622","Rodney-Hood-18629","Al-Horford-1499","Jonas-Valanciunas-13301","Fred-VanVleet-36011","Andrew-Wiggins-18620","James-Harden-1037","49900","278.52"
"Zach-LaVine-18622","Gordon-Hayward-1239","Rodney-Hood-18629","Dario-Saric-36004","Clint-Capela-18610","Fred-VanVleet-36011","Andrew-Wiggins-18620","Karl-Anthony-Towns-18937","49400","278.52"
"Marcus-Smart-18567","Fred-VanVleet-36011","Andrew-Wiggins-18620","Jabari-Parker-18593","Clint-Capela-18610","James-Harden-1037","Dario-Saric-36004","Jonas-Valanciunas-13301","49800","278.51"
"Jeff-Teague-1005","Zach-LaVine-18622","Andrew-Wiggins-18620","Marcus-Morris-13316","Karl-Anthony-Towns-18937","Fred-VanVleet-36011","Alec-Burks-13353","Clint-Capela-18610","50000","278.49"
"Jeff-Teague-1005","Marcus-Smart-18567","Gordon-Hayward-1239","Kawhi-Leonard-13310","Clint-Capela-18610","Fred-VanVleet-36011","Alec-Burks-13353","Karl-Anthony-Towns-18937","50000","278.49"
"Marcus-Smart-18567","Fred-VanVleet-36011","Rodney-Hood-18629","Jabari-Parker-18593","Clint-Capela-18610","James-Harden-1037","Andrew-Wiggins-18620","Wendell-Carter-408878","49700","278.49"
"Marcus-Smart-18567","Zach-LaVine-18622","Andrew-Wiggins-18620","Jayson-Tatum-37782","Karl-Anthony-Towns-18937","Fred-VanVleet-36011","Alec-Burks-13353","Clint-Capela-18610","49400","278.48"
"Marcus-Smart-18567","Fred-VanVleet-36011","Rodney-Hood-18629","Al-Horford-1499","Clint-Capela-18610","James-Harden-1037","Gordon-Hayward-1239","Jonas-Valanciunas-13301","49400","278.45"
"Chris-Paul-1087","Marcus-Smart-18567","Andrew-Wiggins-18620","Jabari-Parker-18593","Karl-Anthony-Towns-18937","Fred-VanVleet-36011","Alec-Burks-13353","Clint-Capela-18610","49200","278.43"
"Chris-Paul-1087","Jordan-Clarkson-18631","Andrew-Wiggins-18620","Jayson-Tatum-37782","Karl-Anthony-Towns-18937","Fred-VanVleet-36011","Alec-Burks-13353","Clint-Capela-18610","50000","278.42"
"Zach-LaVine-18622","Terry-Rozier-18894","Rodney-Hood-18629","Al-Horford-1499","Clint-Capela-18610","Fred-VanVleet-36011","Gordon-Hayward-1239","Karl-Anthony-Towns-18937","50000","278.39"
"Jordan-Clarkson-18631","Fred-VanVleet-36011","Andrew-Wiggins-18620","Jabari-Parker-18593","Jonas-Valanciunas-13301","James-Harden-1037","Alec-Burks-13353","Clint-Capela-18610","49700","278.39"
"Marcus-Smart-18567","Zach-LaVine-18622","Gordon-Hayward-1239","Dario-Saric-36004","Clint-Capela-18610","Fred-VanVleet-36011","Andrew-Wiggins-18620","Karl-Anthony-Towns-18937","49000","278.37"
"Zach-LaVine-18622","Jordan-Clarkson-18631","Rodney-Hood-18629","Kawhi-Leonard-13310","Jonas-Valanciunas-13301","Fred-VanVleet-36011","Gordon-Hayward-1239","Clint-Capela-18610","49800","278.37"
"Marcus-Smart-18567","Zach-LaVine-18622","Rodney-Hood-18629","Serge-Ibaka-1294","Karl-Anthony-Towns-18937","Fred-VanVleet-36011","Andrew-Wiggins-18620","Clint-Capela-18610","49600","278.36"
"Chris-Paul-1087","Marcus-Smart-18567","Gordon-Hayward-1239","Kawhi-Leonard-13310","Clint-Capela-18610","Fred-VanVleet-36011","Andrew-Wiggins-18620","Jordan-Clarkson-18631","49700","278.34"
"Marcus-Smart-18567","Zach-LaVine-18622","Rodney-Hood-18629","Jabari-Parker-18593","Karl-Anthony-Towns-18937","Fred-VanVleet-36011","Danny-Green-940","Clint-Capela-18610","49700","278.33"
"Jeff-Teague-1005","Marcus-Smart-18567","Gordon-Hayward-1239","Jabari-Parker-18593","Clint-Capela-18610","Fred-VanVleet-36011","Alec-Burks-13353","James-Harden-1037","49900","278.33"
"Chris-Paul-1087","Zach-LaVine-18622","Gordon-Hayward-1239","Serge-Ibaka-1294","Clint-Capela-18610","Fred-VanVleet-36011","Andrew-Wiggins-18620","Jonas-Valanciunas-13301","49600","278.32"
"Chris-Paul-1087","Jordan-Clarkson-18631","Gordon-Hayward-1239","Dario-Saric-36004","Clint-Capela-18610","Fred-VanVleet-36011","Andrew-Wiggins-18620","Karl-Anthony-Towns-18937","49600","278.31"
"Zach-LaVine-18622","Rodney-Hood-18629","Andrew-Wiggins-18620","Al-Horford-1499","Clint-Capela-18610","Fred-VanVleet-36011","Alec-Burks-13353","Karl-Anthony-Towns-18937","49500","278.31"
"Chris-Paul-1087","Zach-LaVine-18622","Gordon-Hayward-1239","Jabari-Parker-18593","Clint-Capela-18610","Fred-VanVleet-36011","Danny-Green-940","Jonas-Valanciunas-13301","49700","278.29"
"Chris-Paul-1087","Marcus-Smart-18567","Rodney-Hood-18629","Robert-Covington-16874","Karl-Anthony-Towns-18937","Fred-VanVleet-36011","Gordon-Hayward-1239","Clint-Capela-18610","49900","278.29"
"Marcus-Smart-18567","Zach-LaVine-18622","Rodney-Hood-18629","Al-Horford-1499","Clint-Capela-18610","Fred-VanVleet-36011","Kawhi-Leonard-13310","Jonas-Valanciunas-13301","50000","278.28"
"Chris-Paul-1087","Marcus-Smart-18567","Rodney-Hood-18629","Jabari-Parker-18593","Clint-Capela-18610","Fred-VanVleet-36011","Gordon-Hayward-1239","Zach-LaVine-18622","49200","278.25"
