"James-Harden-1037","Justin-Holiday-14559","Rodney-Hood-18629","Al-Farouq-Aminu-1279","Karl-Anthony-Towns-18937","Gary-Harris-18617","Cedi-Osman-18912","Jusuf-Nurkic-18619","50000","280.58"
"James-Harden-1037","C.J.-McCollum-17121","Cedi-Osman-18912","Al-Farouq-Aminu-1279","Karl-Anthony-Towns-18937","Isaiah-Canaan-16875","Justin-Holiday-14559","Jusuf-Nurkic-18619","50000","279.18"
"James-Harden-1037","Justin-Holiday-14559","Cedi-Osman-18912","Al-Farouq-Aminu-1279","Jusuf-Nurkic-18619","Antonio-Blakeney-37811","Khris-Middleton-13990","Karl-Anthony-Towns-18937","50000","279.0"

"James-Harden-1037","Justin-Holiday-14559","Rodney-Hood-18629","Al-Farouq-Aminu-1279","Karl-Anthony-Towns-18937","Gary-Harris-18617","Cedi-Osman-18912","Jusuf-Nurkic-18619","50000","280.58"
"James-Harden-1037","C.J.-McCollum-17121","Cedi-Osman-18912","Al-Farouq-Aminu-1279","Karl-Anthony-Towns-18937","Isaiah-Canaan-16875","Justin-Holiday-14559","Jusuf-Nurkic-18619","50000","279.18"
"James-Harden-1037","Justin-Holiday-14559","Cedi-Osman-18912","Al-Farouq-Aminu-1279","Jusuf-Nurkic-18619","Antonio-Blakeney-37811","Khris-Middleton-13990","Karl-Anthony-Towns-18937","50000","279.0"
"James-Harden-1037","C.J.-McCollum-17121","Cedi-Osman-18912","Al-Farouq-Aminu-1279","Karl-Anthony-Towns-18937","Ryan-Arcidiacono-36050","Justin-Holiday-14559","Jusuf-Nurkic-18619","50000","278.91"
"James-Harden-1037","Justin-Holiday-14559","Al-Farouq-Aminu-1279","Dario-Saric-36004","Jusuf-Nurkic-18619","Gary-Harris-18617","Cedi-Osman-18912","Karl-Anthony-Towns-18937","49800","278.75"
"James-Harden-1037","Justin-Holiday-14559","Al-Farouq-Aminu-1279","P.J.-Tucker-13947","Jusuf-Nurkic-18619","Gary-Harris-18617","Cedi-Osman-18912","Karl-Anthony-Towns-18937","49900","278.74"
"James-Harden-1037","Justin-Holiday-14559","Al-Farouq-Aminu-1279","Dario-Saric-36004","Jusuf-Nurkic-18619","Brandon-Ingram-35227","Cedi-Osman-18912","Karl-Anthony-Towns-18937","49900","278.5"
"James-Harden-1037","Justin-Holiday-14559","Al-Farouq-Aminu-1279","P.J.-Tucker-13947","Jusuf-Nurkic-18619","Brandon-Ingram-35227","Cedi-Osman-18912","Karl-Anthony-Towns-18937","50000","278.49"
"James-Harden-1037","Justin-Holiday-14559","Al-Farouq-Aminu-1279","Dario-Saric-36004","Karl-Anthony-Towns-18937","Gary-Harris-18617","Rodney-Hood-18629","Jusuf-Nurkic-18619","49900","278.35"
"James-Harden-1037","Rodney-Hood-18629","Al-Farouq-Aminu-1279","P.J.-Tucker-13947","Karl-Anthony-Towns-18937","Gary-Harris-18617","Justin-Holiday-14559","Jusuf-Nurkic-18619","50000","278.34"
"Zach-LaVine-18622","James-Harden-1037","Al-Farouq-Aminu-1279","Ersan-Ilyasova-1301","Karl-Anthony-Towns-18937","Antonio-Blakeney-37811","Justin-Holiday-14559","Jusuf-Nurkic-18619","50000","278.31"
"James-Harden-1037","Rodney-Hood-18629","Al-Farouq-Aminu-1279","Robert-Covington-16874","Karl-Anthony-Towns-18937","Justin-Holiday-14559","Cedi-Osman-18912","Jusuf-Nurkic-18619","49800","278.24"
"James-Harden-1037","Rodney-Hood-18629","Al-Farouq-Aminu-1279","Dario-Saric-36004","Karl-Anthony-Towns-18937","Justin-Holiday-14559","Brandon-Ingram-35227","Jusuf-Nurkic-18619","50000","278.1"
"James-Harden-1037","Gary-Harris-18617","Cedi-Osman-18912","Al-Farouq-Aminu-1279","Karl-Anthony-Towns-18937","Josh-Hart-37889","Justin-Holiday-14559","Jusuf-Nurkic-18619","49600","278.06"
"James-Harden-1037","Langston-Galloway-18717","Cedi-Osman-18912","Al-Farouq-Aminu-1279","Karl-Anthony-Towns-18937","C.J.-McCollum-17121","Justin-Holiday-14559","Jusuf-Nurkic-18619","50000","278.05"
"James-Harden-1037","Justin-Holiday-14559","Reggie-Bullock-16943","Al-Farouq-Aminu-1279","Karl-Anthony-Towns-18937","Gary-Harris-18617","Cedi-Osman-18912","Jusuf-Nurkic-18619","49900","278.01"
"James-Harden-1037","Justin-Holiday-14559","David-Nwaba-36526","Al-Farouq-Aminu-1279","Karl-Anthony-Towns-18937","C.J.-McCollum-17121","Cedi-Osman-18912","Jusuf-Nurkic-18619","49800","277.87"
"James-Harden-1037","Gary-Harris-18617","Justin-Holiday-14559","Al-Farouq-Aminu-1279","Karl-Anthony-Towns-18937","Josh-Hart-37889","Eric-Gordon-1077","Jusuf-Nurkic-18619","50000","277.85"
"James-Harden-1037","Justin-Holiday-14559","Cedi-Osman-18912","Al-Farouq-Aminu-1279","Jusuf-Nurkic-18619","Josh-Hart-37889","Brandon-Ingram-35227","Karl-Anthony-Towns-18937","49700","277.81"
"James-Harden-1037","Justin-Holiday-14559","Reggie-Bullock-16943","Al-Farouq-Aminu-1279","Karl-Anthony-Towns-18937","Brandon-Ingram-35227","Cedi-Osman-18912","Jusuf-Nurkic-18619","50000","277.76"
"James-Harden-1037","Justin-Holiday-14559","Al-Farouq-Aminu-1279","Trey-Lyles-18942","Karl-Anthony-Towns-18937","C.J.-McCollum-17121","Cedi-Osman-18912","Jusuf-Nurkic-18619","50000","277.69"
"James-Harden-1037","Rodney-Hood-18629","David-Nwaba-36526","TJ-Warren-18634","Jusuf-Nurkic-18619","Justin-Holiday-14559","Cedi-Osman-18912","Karl-Anthony-Towns-18937","50000","277.67"
"James-Harden-1037","Justin-Holiday-14559","Al-Farouq-Aminu-1279","TJ-Warren-18634","Jusuf-Nurkic-18619","Antonio-Blakeney-37811","Cedi-Osman-18912","Karl-Anthony-Towns-18937","49700","277.67"
"James-Harden-1037","Gary-Harris-18617","Rodney-Hood-18629","Al-Farouq-Aminu-1279","Jusuf-Nurkic-18619","Josh-Hart-37889","Justin-Holiday-14559","Karl-Anthony-Towns-18937","49700","277.66"
"James-Harden-1037","Eric-Gordon-1077","Cedi-Osman-18912","Dario-Saric-36004","Karl-Anthony-Towns-18937","Gary-Harris-18617","Justin-Holiday-14559","Jusuf-Nurkic-18619","50000","277.61"
"James-Harden-1037","Reggie-Bullock-16943","Rodney-Hood-18629","Al-Farouq-Aminu-1279","Jusuf-Nurkic-18619","Gary-Harris-18617","Justin-Holiday-14559","Karl-Anthony-Towns-18937","50000","277.61"
"James-Harden-1037","Josh-Hart-37889","Rodney-Hood-18629","Al-Farouq-Aminu-1279","Karl-Anthony-Towns-18937","C.J.-McCollum-17121","Cedi-Osman-18912","Jusuf-Nurkic-18619","50000","277.59"
"Zach-LaVine-18622","James-Harden-1037","David-Nwaba-36526","Al-Farouq-Aminu-1279","Karl-Anthony-Towns-18937","Antonio-Blakeney-37811","Cedi-Osman-18912","Jusuf-Nurkic-18619","49900","277.58"
"James-Harden-1037","Justin-Holiday-14559","Al-Farouq-Aminu-1279","Jabari-Parker-18593","Jusuf-Nurkic-18619","Josh-Hart-37889","Cedi-Osman-18912","Karl-Anthony-Towns-18937","49800","277.58"
"Zach-LaVine-18622","James-Harden-1037","Cedi-Osman-18912","Al-Farouq-Aminu-1279","Karl-Anthony-Towns-18937","Gary-Harris-18617","Justin-Holiday-14559","Antonio-Blakeney-37811","50000","277.5"
"James-Harden-1037","David-Nwaba-36526","Rodney-Hood-18629","Al-Farouq-Aminu-1279","Jusuf-Nurkic-18619","C.J.-McCollum-17121","Justin-Holiday-14559","Karl-Anthony-Towns-18937","49900","277.47"
"James-Harden-1037","Rodney-Hood-18629","Cedi-Osman-18912","Dario-Saric-36004","Karl-Anthony-Towns-18937","Gary-Harris-18617","Justin-Holiday-14559","Jusuf-Nurkic-18619","49700","277.42"
"James-Harden-1037","Brandon-Ingram-35227","Rodney-Hood-18629","Al-Farouq-Aminu-1279","Jusuf-Nurkic-18619","Josh-Hart-37889","Justin-Holiday-14559","Karl-Anthony-Towns-18937","49800","277.41"
"James-Harden-1037","Rodney-Hood-18629","Cedi-Osman-18912","P.J.-Tucker-13947","Karl-Anthony-Towns-18937","Gary-Harris-18617","Justin-Holiday-14559","Jusuf-Nurkic-18619","49800","277.41"
"Zach-LaVine-18622","James-Harden-1037","Al-Farouq-Aminu-1279","Dario-Saric-36004","Karl-Anthony-Towns-18937","Gary-Harris-18617","Justin-Holiday-14559","Tyson-Chandler-1482","50000","277.39"
"James-Harden-1037","Josh-Hart-37889","Al-Farouq-Aminu-1279","TJ-Warren-18634","Karl-Anthony-Towns-18937","Isaiah-Canaan-16875","Justin-Holiday-14559","Jusuf-Nurkic-18619","50000","277.39"
"Zach-LaVine-18622","James-Harden-1037","Cedi-Osman-18912","Ersan-Ilyasova-1301","Karl-Anthony-Towns-18937","Antonio-Blakeney-37811","Justin-Holiday-14559","Jusuf-Nurkic-18619","49800","277.38"
"James-Harden-1037","Gary-Harris-18617","Cedi-Osman-18912","Robert-Covington-16874","Jusuf-Nurkic-18619","Antonio-Blakeney-37811","Justin-Holiday-14559","Karl-Anthony-Towns-18937","49900","277.34"
"Zach-LaVine-18622","James-Harden-1037","Al-Farouq-Aminu-1279","Robert-Covington-16874","Tyson-Chandler-1482","Justin-Holiday-14559","Cedi-Osman-18912","Karl-Anthony-Towns-18937","49900","277.28"
"James-Harden-1037","Justin-Holiday-14559","Al-Farouq-Aminu-1279","TJ-Warren-18634","Jusuf-Nurkic-18619","Antonio-Blakeney-37811","Rodney-Hood-18629","Karl-Anthony-Towns-18937","49800","277.27"
"Zach-LaVine-18622","James-Harden-1037","Al-Farouq-Aminu-1279","Zach-Collins-37866","Jusuf-Nurkic-18619","Antonio-Blakeney-37811","Justin-Holiday-14559","Karl-Anthony-Towns-18937","49900","277.25"
"James-Harden-1037","Josh-Hart-37889","Cedi-Osman-18912","Dario-Saric-36004","Karl-Anthony-Towns-18937","C.J.-McCollum-17121","Justin-Holiday-14559","Jusuf-Nurkic-18619","49900","277.22"
"James-Harden-1037","Josh-Hart-37889","Cedi-Osman-18912","P.J.-Tucker-13947","Karl-Anthony-Towns-18937","C.J.-McCollum-17121","Justin-Holiday-14559","Jusuf-Nurkic-18619","50000","277.21"
"James-Harden-1037","Rodney-Hood-18629","Al-Farouq-Aminu-1279","Jabari-Parker-18593","Jusuf-Nurkic-18619","Josh-Hart-37889","Justin-Holiday-14559","Karl-Anthony-Towns-18937","49900","277.18"
"Zach-LaVine-18622","James-Harden-1037","David-Nwaba-36526","Al-Farouq-Aminu-1279","Karl-Anthony-Towns-18937","Antonio-Blakeney-37811","Rodney-Hood-18629","Jusuf-Nurkic-18619","50000","277.18"
"James-Harden-1037","Rodney-Hood-18629","Cedi-Osman-18912","Dario-Saric-36004","Jusuf-Nurkic-18619","Justin-Holiday-14559","Brandon-Ingram-35227","Karl-Anthony-Towns-18937","49800","277.17"
"James-Harden-1037","Rodney-Hood-18629","Cedi-Osman-18912","P.J.-Tucker-13947","Jusuf-Nurkic-18619","Justin-Holiday-14559","Brandon-Ingram-35227","Karl-Anthony-Towns-18937","49900","277.16"
"James-Harden-1037","Justin-Holiday-14559","Cedi-Osman-18912","TJ-Warren-18634","Jusuf-Nurkic-18619","Isaiah-Canaan-16875","Dario-Saric-36004","Karl-Anthony-Towns-18937","50000","277.15"
"Zach-LaVine-18622","James-Harden-1037","Cedi-Osman-18912","Al-Farouq-Aminu-1279","Wendell-Carter-408878","Antonio-Blakeney-37811","Justin-Holiday-14559","Karl-Anthony-Towns-18937","49700","277.15"
"James-Harden-1037","Josh-Hart-37889","Al-Farouq-Aminu-1279","TJ-Warren-18634","Karl-Anthony-Towns-18937","Ryan-Arcidiacono-36050","Justin-Holiday-14559","Jusuf-Nurkic-18619","50000","277.12"
"James-Harden-1037","Jamal-Murray-35211","Cedi-Osman-18912","Al-Farouq-Aminu-1279","Karl-Anthony-Towns-18937","Antonio-Blakeney-37811","Justin-Holiday-14559","Jusuf-Nurkic-18619","49800","277.11"
"James-Harden-1037","Rodney-Hood-18629","Cedi-Osman-18912","Al-Farouq-Aminu-1279","Wendell-Carter-408878","Justin-Holiday-14559","Khris-Middleton-13990","Karl-Anthony-Towns-18937","50000","277.11"
"Zach-LaVine-18622","James-Harden-1037","Al-Farouq-Aminu-1279","Robert-Covington-16874","Wendell-Carter-408878","Justin-Holiday-14559","Cedi-Osman-18912","Jusuf-Nurkic-18619","50000","277.11"
"James-Harden-1037","Eric-Gordon-1077","Rodney-Hood-18629","Robert-Covington-16874","Karl-Anthony-Towns-18937","Justin-Holiday-14559","Cedi-Osman-18912","Jusuf-Nurkic-18619","50000","277.1"
"James-Harden-1037","Brandon-Ingram-35227","Cedi-Osman-18912","Robert-Covington-16874","Jusuf-Nurkic-18619","Antonio-Blakeney-37811","Justin-Holiday-14559","Karl-Anthony-Towns-18937","50000","277.09"
"Zach-LaVine-18622","James-Harden-1037","Cedi-Osman-18912","Richaun-Holmes-18905","Jusuf-Nurkic-18619","David-Nwaba-36526","Justin-Holiday-14559","Karl-Anthony-Towns-18937","50000","277.03"
"James-Harden-1037","Gary-Harris-18617","Cedi-Osman-18912","Trevor-Ariza-1323","Karl-Anthony-Towns-18937","Isaiah-Canaan-16875","Justin-Holiday-14559","Jusuf-Nurkic-18619","50000","276.99"
"James-Harden-1037","Khris-Middleton-13990","Al-Farouq-Aminu-1279","Richaun-Holmes-18905","Karl-Anthony-Towns-18937","Justin-Holiday-14559","Cedi-Osman-18912","Jusuf-Nurkic-18619","50000","276.99"
"Zach-LaVine-18622","James-Harden-1037","Rodney-Hood-18629","Ersan-Ilyasova-1301","Karl-Anthony-Towns-18937","Antonio-Blakeney-37811","Justin-Holiday-14559","Jusuf-Nurkic-18619","49900","276.98"
"James-Harden-1037","C.J.-McCollum-17121","Al-Farouq-Aminu-1279","Dario-Saric-36004","Jusuf-Nurkic-18619","Isaiah-Canaan-16875","Justin-Holiday-14559","Karl-Anthony-Towns-18937","49900","276.95"
"James-Harden-1037","Rodney-Hood-18629","Jabari-Parker-18593","Dario-Saric-36004","Jusuf-Nurkic-18619","Justin-Holiday-14559","Cedi-Osman-18912","Karl-Anthony-Towns-18937","49900","276.94"
"James-Harden-1037","Rodney-Hood-18629","Al-Farouq-Aminu-1279","TJ-Warren-18634","Karl-Anthony-Towns-18937","Justin-Holiday-14559","Ersan-Ilyasova-1301","Jusuf-Nurkic-18619","50000","276.94"
"James-Harden-1037","Gary-Harris-18617","Rodney-Hood-18629","Robert-Covington-16874","Jusuf-Nurkic-18619","Antonio-Blakeney-37811","Justin-Holiday-14559","Karl-Anthony-Towns-18937","50000","276.94"
"James-Harden-1037","C.J.-McCollum-17121","Al-Farouq-Aminu-1279","P.J.-Tucker-13947","Karl-Anthony-Towns-18937","Isaiah-Canaan-16875","Justin-Holiday-14559","Jusuf-Nurkic-18619","50000","276.94"
"James-Harden-1037","Rodney-Hood-18629","Jabari-Parker-18593","P.J.-Tucker-13947","Karl-Anthony-Towns-18937","Justin-Holiday-14559","Cedi-Osman-18912","Jusuf-Nurkic-18619","50000","276.93"
"Zach-LaVine-18622","James-Harden-1037","Al-Farouq-Aminu-1279","Robert-Covington-16874","Tyson-Chandler-1482","Justin-Holiday-14559","Rodney-Hood-18629","Karl-Anthony-Towns-18937","50000","276.88"
"James-Harden-1037","Justin-Holiday-14559","Cedi-Osman-18912","TJ-Warren-18634","Jusuf-Nurkic-18619","Ryan-Arcidiacono-36050","Dario-Saric-36004","Karl-Anthony-Towns-18937","50000","276.88"
"James-Harden-1037","Gary-Harris-18617","Cedi-Osman-18912","Al-Farouq-Aminu-1279","Karl-Anthony-Towns-18937","Isaiah-Canaan-16875","Justin-Holiday-14559","Jusuf-Nurkic-18619","49400","276.86"
"Zach-LaVine-18622","James-Harden-1037","Rodney-Hood-18629","Al-Farouq-Aminu-1279","Karl-Anthony-Towns-18937","Gary-Harris-18617","Cedi-Osman-18912","Tyson-Chandler-1482","49900","276.83"
"James-Harden-1037","Josh-Hart-37889","Rodney-Hood-18629","Dario-Saric-36004","Karl-Anthony-Towns-18937","C.J.-McCollum-17121","Justin-Holiday-14559","Jusuf-Nurkic-18619","50000","276.82"
"Zach-LaVine-18622","James-Harden-1037","Al-Farouq-Aminu-1279","Ersan-Ilyasova-1301","Wendell-Carter-408878","Justin-Holiday-14559","Cedi-Osman-18912","Karl-Anthony-Towns-18937","49900","276.82"
"Zach-LaVine-18622","James-Harden-1037","David-Nwaba-36526","Dario-Saric-36004","Jusuf-Nurkic-18619","Antonio-Blakeney-37811","Justin-Holiday-14559","Karl-Anthony-Towns-18937","49900","276.81"
"Zach-LaVine-18622","James-Harden-1037","David-Nwaba-36526","P.J.-Tucker-13947","Karl-Anthony-Towns-18937","Antonio-Blakeney-37811","Justin-Holiday-14559","Jusuf-Nurkic-18619","50000","276.8"
"Zach-LaVine-18622","Justin-Holiday-14559","Al-Farouq-Aminu-1279","TJ-Warren-18634","Jusuf-Nurkic-18619","C.J.-McCollum-17121","Cedi-Osman-18912","Karl-Anthony-Towns-18937","49900","276.79"
"James-Harden-1037","Justin-Holiday-14559","Al-Farouq-Aminu-1279","Robert-Covington-16874","Wendell-Carter-408878","Gary-Harris-18617","Cedi-Osman-18912","Karl-Anthony-Towns-18937","50000","276.78"
"James-Harden-1037","Justin-Holiday-14559","Al-Farouq-Aminu-1279","Ersan-Ilyasova-1301","Karl-Anthony-Towns-18937","Jamal-Murray-35211","Cedi-Osman-18912","Jusuf-Nurkic-18619","50000","276.78"
"James-Harden-1037","Justin-Holiday-14559","Al-Farouq-Aminu-1279","Dario-Saric-36004","Karl-Anthony-Towns-18937","Antonio-Blakeney-37811","Khris-Middleton-13990","Jusuf-Nurkic-18619","49900","276.77"
"James-Harden-1037","David-Nwaba-36526","Al-Farouq-Aminu-1279","TJ-Warren-18634","Karl-Anthony-Towns-18937","Justin-Holiday-14559","Dario-Saric-36004","Jusuf-Nurkic-18619","50000","276.77"
"James-Harden-1037","Khris-Middleton-13990","Al-Farouq-Aminu-1279","P.J.-Tucker-13947","Karl-Anthony-Towns-18937","Antonio-Blakeney-37811","Justin-Holiday-14559","Jusuf-Nurkic-18619","50000","276.76"
"Zach-LaVine-18622","James-Harden-1037","Rodney-Hood-18629","Al-Farouq-Aminu-1279","Wendell-Carter-408878","Antonio-Blakeney-37811","Justin-Holiday-14559","Karl-Anthony-Towns-18937","49800","276.75"
"James-Harden-1037","Gary-Harris-18617","Cedi-Osman-18912","Trevor-Ariza-1323","Karl-Anthony-Towns-18937","Ryan-Arcidiacono-36050","Justin-Holiday-14559","Jusuf-Nurkic-18619","50000","276.72"
"James-Harden-1037","Jamal-Murray-35211","Rodney-Hood-18629","Al-Farouq-Aminu-1279","Jusuf-Nurkic-18619","Antonio-Blakeney-37811","Justin-Holiday-14559","Karl-Anthony-Towns-18937","49900","276.71"
"James-Harden-1037","C.J.-McCollum-17121","Al-Farouq-Aminu-1279","Dario-Saric-36004","Jusuf-Nurkic-18619","Ryan-Arcidiacono-36050","Justin-Holiday-14559","Karl-Anthony-Towns-18937","49900","276.68"
"James-Harden-1037","C.J.-McCollum-17121","Cedi-Osman-18912","Trevor-Ariza-1323","Karl-Anthony-Towns-18937","Antonio-Blakeney-37811","Justin-Holiday-14559","Jusuf-Nurkic-18619","50000","276.67"
"James-Harden-1037","C.J.-McCollum-17121","Al-Farouq-Aminu-1279","P.J.-Tucker-13947","Karl-Anthony-Towns-18937","Ryan-Arcidiacono-36050","Justin-Holiday-14559","Jusuf-Nurkic-18619","50000","276.67"
"Zach-LaVine-18622","James-Harden-1037","Rodney-Hood-18629","Al-Farouq-Aminu-1279","Wendell-Carter-408878","Gary-Harris-18617","Cedi-Osman-18912","Jusuf-Nurkic-18619","50000","276.66"
"James-Harden-1037","Gary-Harris-18617","Justin-Holiday-14559","Al-Farouq-Aminu-1279","Karl-Anthony-Towns-18937","Isaiah-Canaan-16875","Eric-Gordon-1077","Jusuf-Nurkic-18619","49800","276.65"
"Zach-LaVine-18622","James-Harden-1037","Cedi-Osman-18912","Dario-Saric-36004","Karl-Anthony-Towns-18937","Isaiah-Canaan-16875","Justin-Holiday-14559","Wendell-Carter-408878","50000","276.63"
"Zach-LaVine-18622","James-Harden-1037","Al-Farouq-Aminu-1279","Richaun-Holmes-18905","Jusuf-Nurkic-18619","Antonio-Blakeney-37811","Justin-Holiday-14559","Karl-Anthony-Towns-18937","49800","276.63"
"James-Harden-1037","David-Nwaba-36526","Al-Farouq-Aminu-1279","Trevor-Ariza-1323","Jusuf-Nurkic-18619","Gary-Harris-18617","Justin-Holiday-14559","Karl-Anthony-Towns-18937","50000","276.61"
"James-Harden-1037","Justin-Holiday-14559","Cedi-Osman-18912","Al-Farouq-Aminu-1279","Jusuf-Nurkic-18619","Isaiah-Canaan-16875","Brandon-Ingram-35227","Karl-Anthony-Towns-18937","49500","276.61"
"James-Harden-1037","Gary-Harris-18617","Cedi-Osman-18912","Al-Farouq-Aminu-1279","Karl-Anthony-Towns-18937","Ryan-Arcidiacono-36050","Justin-Holiday-14559","Jusuf-Nurkic-18619","49400","276.59"
"Zach-LaVine-18622","James-Harden-1037","Cedi-Osman-18912","Al-Farouq-Aminu-1279","Karl-Anthony-Towns-18937","Rodney-Hood-18629","Brandon-Ingram-35227","Tyson-Chandler-1482","50000","276.58"
"James-Harden-1037","C.J.-McCollum-17121","Cedi-Osman-18912","Al-Farouq-Aminu-1279","Karl-Anthony-Towns-18937","Antonio-Blakeney-37811","Justin-Holiday-14559","Jusuf-Nurkic-18619","49400","276.54"
"James-Harden-1037","Justin-Holiday-14559","Cedi-Osman-18912","TJ-Warren-18634","Karl-Anthony-Towns-18937","Antonio-Blakeney-37811","Eric-Gordon-1077","Jusuf-Nurkic-18619","49900","276.53"
"James-Harden-1037","Justin-Holiday-14559","Al-Farouq-Aminu-1279","P.J.-Tucker-13947","Jusuf-Nurkic-18619","Gary-Harris-18617","Dario-Saric-36004","Karl-Anthony-Towns-18937","49800","276.51"
"Zach-LaVine-18622","James-Harden-1037","David-Nwaba-36526","Al-Farouq-Aminu-1279","Tyson-Chandler-1482","C.J.-McCollum-17121","Justin-Holiday-14559","Karl-Anthony-Towns-18937","50000","276.51"
"James-Harden-1037","Josh-Hart-37889","Cedi-Osman-18912","TJ-Warren-18634","Jusuf-Nurkic-18619","Isaiah-Canaan-16875","Justin-Holiday-14559","Karl-Anthony-Towns-18937","49800","276.46"
"Zach-LaVine-18622","James-Harden-1037","Cedi-Osman-18912","Dario-Saric-36004","Tyson-Chandler-1482","Gary-Harris-18617","Justin-Holiday-14559","Karl-Anthony-Towns-18937","49800","276.46"
"Zach-LaVine-18622","James-Harden-1037","Al-Farouq-Aminu-1279","TJ-Warren-18634","Jusuf-Nurkic-18619","Rodney-Hood-18629","Cedi-Osman-18912","Justin-Holiday-14559","50000","276.46"
