"James-Harden-1037","Bradley-Beal-13898","Jeff-Green-1314","Trevor-Ariza-1323","Nikola-Jokic-31812","Tomas-Satoransky--36031","Cedi-Osman-18912","Josh-Jackson-37890","50000","303.08"
"Damian-Lillard-13900","James-Harden-1037","Trevor-Ariza-1323","Cedi-Osman-18912","Nikola-Jokic-31812","Tomas-Satoransky--36031","Mikal-Bridges-408842","Jeff-Green-1314","50000","302.69"
"James-Harden-1037","Bradley-Beal-13898","Maurice-Harkless-16971","Al-Farouq-Aminu-1279","Nikola-Jokic-31812","Tomas-Satoransky--36031","Trevor-Ariza-1323","Cedi-Osman-18912","50000","302.6"
"James-Harden-1037","Kevin-Huerter-408969","Cedi-Osman-18912","LaMarcus-Aldridge-1349","Nikola-Jokic-31812","Tomas-Satoransky--36031","Derrick-Favors-1266","Trevor-Ariza-1323","50000","302.4"
"James-Harden-1037","Bradley-Beal-13898","Al-Farouq-Aminu-1279","Cedi-Osman-18912","Nikola-Jokic-31812","Tomas-Satoransky--36031","Kevin-Huerter-408969","Derrick-Favors-1266","50000","302.4"

"James-Harden-1037","Bradley-Beal-13898","Jeff-Green-1314","Trevor-Ariza-1323","Nikola-Jokic-31812","Tomas-Satoransky--36031","Cedi-Osman-18912","Josh-Jackson-37890","50000","303.08"
"Damian-Lillard-13900","James-Harden-1037","Trevor-Ariza-1323","Cedi-Osman-18912","Nikola-Jokic-31812","Tomas-Satoransky--36031","Mikal-Bridges-408842","Jeff-Green-1314","50000","302.69"
"James-Harden-1037","Bradley-Beal-13898","Maurice-Harkless-16971","Al-Farouq-Aminu-1279","Nikola-Jokic-31812","Tomas-Satoransky--36031","Trevor-Ariza-1323","Cedi-Osman-18912","50000","302.6"
"James-Harden-1037","Kevin-Huerter-408969","Cedi-Osman-18912","LaMarcus-Aldridge-1349","Nikola-Jokic-31812","Tomas-Satoransky--36031","Derrick-Favors-1266","Trevor-Ariza-1323","50000","302.4"
"James-Harden-1037","Bradley-Beal-13898","Al-Farouq-Aminu-1279","Cedi-Osman-18912","Nikola-Jokic-31812","Tomas-Satoransky--36031","Kevin-Huerter-408969","Derrick-Favors-1266","50000","302.4"
"James-Harden-1037","Bradley-Beal-13898","Al-Farouq-Aminu-1279","Trevor-Ariza-1323","Nikola-Jokic-31812","Tomas-Satoransky--36031","Davis-Bertans-36051","Cedi-Osman-18912","49900","302.39"
"James-Harden-1037","Bradley-Beal-13898","Jeff-Green-1314","Al-Farouq-Aminu-1279","Nikola-Jokic-31812","Tomas-Satoransky--36031","Derrick-Favors-1266","Cedi-Osman-18912","49800","302.32"
"Damian-Lillard-13900","James-Harden-1037","Josh-Jackson-37890","Trevor-Ariza-1323","Davis-Bertans-36051","Tomas-Satoransky--36031","Cedi-Osman-18912","Nikola-Jokic-31812","50000","302.29"
"James-Harden-1037","Bradley-Beal-13898","Trevor-Ariza-1323","Cedi-Osman-18912","Nikola-Jokic-31812","Tomas-Satoransky--36031","Mikal-Bridges-408842","Josh-Jackson-37890","50000","302.28"
"Damian-Lillard-13900","James-Harden-1037","E'Twaun-Moore-18582","Trevor-Ariza-1323","Nikola-Jokic-31812","Tomas-Satoransky--36031","Cedi-Osman-18912","Jeff-Green-1314","50000","302.27"
"James-Harden-1037","Bradley-Beal-13898","Al-Farouq-Aminu-1279","Cedi-Osman-18912","Nikola-Jokic-31812","Tomas-Satoransky--36031","Marvin-Williams-1318","Jeff-Green-1314","50000","302.26"
"Damian-Lillard-13900","James-Harden-1037","Jeff-Green-1314","Josh-Jackson-37890","Nikola-Jokic-31812","Tomas-Satoransky--36031","Derrick-Favors-1266","Cedi-Osman-18912","49900","302.22"
"Damian-Lillard-13900","James-Harden-1037","Al-Farouq-Aminu-1279","Danuel-House-36029","Nikola-Jokic-31812","Tomas-Satoransky--36031","Derrick-Favors-1266","Cedi-Osman-18912","50000","302.16"
"Damian-Lillard-13900","James-Harden-1037","Kyle-Anderson-18615","Al-Farouq-Aminu-1279","Nikola-Jokic-31812","Tomas-Satoransky--36031","Jeff-Green-1314","Cedi-Osman-18912","49900","302.14"
"Jeremy-Lin-916","James-Harden-1037","Jeff-Green-1314","Trevor-Ariza-1323","Nikola-Jokic-31812","Damian-Lillard-13900","Cedi-Osman-18912","Tomas-Satoransky--36031","49900","301.96"
"James-Harden-1037","Bradley-Beal-13898","Josh-Jackson-37890","Cedi-Osman-18912","Nikola-Jokic-31812","Tomas-Satoransky--36031","E'Twaun-Moore-18582","Trevor-Ariza-1323","50000","301.86"
"James-Harden-1037","Bradley-Beal-13898","Maurice-Harkless-16971","Trevor-Ariza-1323","Nikola-Jokic-31812","Kyle-Anderson-18615","Cedi-Osman-18912","Tomas-Satoransky--36031","50000","301.79"
"James-Harden-1037","Bradley-Beal-13898","Al-Farouq-Aminu-1279","Trevor-Ariza-1323","Nikola-Jokic-31812","Tomas-Satoransky--36031","Gerald-Green-13374","Cedi-Osman-18912","50000","301.77"
"James-Harden-1037","Bradley-Beal-13898","Trevor-Ariza-1323","Cedi-Osman-18912","Nikola-Jokic-31812","Tomas-Satoransky--36031","Kevin-Huerter-408969","Jeff-Green-1314","49800","301.74"
"Damian-Lillard-13900","James-Harden-1037","Maurice-Harkless-16971","Al-Farouq-Aminu-1279","Nikola-Jokic-31812","Tomas-Satoransky--36031","Cedi-Osman-18912","Derrick-Favors-1266","49900","301.74"
"James-Harden-1037","Tomas-Satoransky--36031","Josh-Jackson-37890","Trevor-Ariza-1323","LaMarcus-Aldridge-1349","Kyle-Anderson-18615","Cedi-Osman-18912","Nikola-Jokic-31812","49900","301.73"
"James-Harden-1037","Bradley-Beal-13898","Al-Farouq-Aminu-1279","Josh-Jackson-37890","Nikola-Jokic-31812","Kyle-Anderson-18615","Cedi-Osman-18912","Tomas-Satoransky--36031","49900","301.73"
"James-Harden-1037","Kevin-Huerter-408969","Jeff-Green-1314","TJ-Warren-18634","LaMarcus-Aldridge-1349","Tomas-Satoransky--36031","Cedi-Osman-18912","Nikola-Jokic-31812","50000","301.62"
"Damian-Lillard-13900","James-Harden-1037","JaMychal-Green-18729","Trevor-Ariza-1323","Nikola-Jokic-31812","Tomas-Satoransky--36031","Jeff-Green-1314","Cedi-Osman-18912","50000","301.62"
"James-Harden-1037","Bradley-Beal-13898","Kyle-Anderson-18615","Derrick-Favors-1266","Nikola-Jokic-31812","Tomas-Satoransky--36031","Kevin-Huerter-408969","Cedi-Osman-18912","50000","301.59"
"Damian-Lillard-13900","James-Harden-1037","Trevor-Ariza-1323","Cedi-Osman-18912","Nikola-Jokic-31812","Tomas-Satoransky--36031","Kevin-Huerter-408969","Danuel-House-36029","50000","301.58"
"James-Harden-1037","Bradley-Beal-13898","Kyle-Anderson-18615","Trevor-Ariza-1323","Davis-Bertans-36051","Tomas-Satoransky--36031","Cedi-Osman-18912","Nikola-Jokic-31812","49900","301.58"
"Jeremy-Lin-916","Bradley-Beal-13898","Josh-Jackson-37890","Trevor-Ariza-1323","Nikola-Jokic-31812","Tomas-Satoransky--36031","Cedi-Osman-18912","James-Harden-1037","49900","301.55"
"Damian-Lillard-13900","James-Harden-1037","Cedi-Osman-18912","Davis-Bertans-36051","Nikola-Jokic-31812","Tomas-Satoransky--36031","Derrick-Favors-1266","Al-Farouq-Aminu-1279","49800","301.53"
"James-Harden-1037","Bradley-Beal-13898","Al-Farouq-Aminu-1279","Cedi-Osman-18912","Nikola-Jokic-31812","Tomas-Satoransky--36031","Mikal-Bridges-408842","Derrick-Favors-1266","49800","301.52"
"James-Harden-1037","Mikal-Bridges-408842","Cedi-Osman-18912","LaMarcus-Aldridge-1349","Nikola-Jokic-31812","Tomas-Satoransky--36031","Derrick-Favors-1266","Trevor-Ariza-1323","49800","301.52"
"James-Harden-1037","Bradley-Beal-13898","Kyle-Anderson-18615","Derrick-Favors-1266","Nikola-Jokic-31812","Tomas-Satoransky--36031","Jeff-Green-1314","Cedi-Osman-18912","49800","301.51"
"Damian-Lillard-13900","James-Harden-1037","Jeff-Green-1314","Danuel-House-36029","Nikola-Jokic-31812","Tomas-Satoransky--36031","Cedi-Osman-18912","Trevor-Ariza-1323","49800","301.5"
"Damian-Lillard-13900","James-Harden-1037","Trevor-Ariza-1323","Cedi-Osman-18912","Nikola-Jokic-31812","Tomas-Satoransky--36031","Mikal-Bridges-408842","E'Twaun-Moore-18582","50000","301.47"
"Damian-Lillard-13900","James-Harden-1037","Cedi-Osman-18912","Davis-Bertans-36051","Nikola-Jokic-31812","Tomas-Satoransky--36031","Marvin-Williams-1318","Al-Farouq-Aminu-1279","50000","301.47"
"James-Harden-1037","Mikal-Bridges-408842","Trevor-Ariza-1323","Cedi-Osman-18912","LaMarcus-Aldridge-1349","Tomas-Satoransky--36031","Marvin-Williams-1318","Nikola-Jokic-31812","50000","301.46"
"James-Harden-1037","Bradley-Beal-13898","Al-Farouq-Aminu-1279","Cedi-Osman-18912","Nikola-Jokic-31812","Tomas-Satoransky--36031","Mikal-Bridges-408842","Marvin-Williams-1318","50000","301.46"
"James-Harden-1037","Bradley-Beal-13898","Kyle-Anderson-18615","Marvin-Williams-1318","Nikola-Jokic-31812","Tomas-Satoransky--36031","Jeff-Green-1314","Cedi-Osman-18912","50000","301.45"
"Damian-Lillard-13900","James-Harden-1037","Josh-Jackson-37890","Cedi-Osman-18912","Derrick-Favors-1266","Tomas-Satoransky--36031","Mikal-Bridges-408842","Nikola-Jokic-31812","49900","301.42"
"Trae-Young-409063","James-Harden-1037","Jeff-Green-1314","Josh-Jackson-37890","Nikola-Jokic-31812","Tomas-Satoransky--36031","LaMarcus-Aldridge-1349","Cedi-Osman-18912","50000","301.38"
"Damian-Lillard-13900","James-Harden-1037","Kyle-Anderson-18615","Danuel-House-36029","Derrick-Favors-1266","Tomas-Satoransky--36031","Cedi-Osman-18912","Nikola-Jokic-31812","50000","301.35"
"Damian-Lillard-13900","James-Harden-1037","Al-Farouq-Aminu-1279","Cedi-Osman-18912","Nikola-Jokic-31812","Kyle-Anderson-18615","Mikal-Bridges-408842","Tomas-Satoransky--36031","49900","301.34"
"James-Harden-1037","Bradley-Beal-13898","Trevor-Ariza-1323","Cedi-Osman-18912","Nikola-Jokic-31812","Tomas-Satoransky--36031","Derrick-Favors-1266","Malik-Monk-37827","50000","301.23"
"Trae-Young-409063","Bradley-Beal-13898","Jeff-Green-1314","Davis-Bertans-36051","Nikola-Jokic-31812","Tomas-Satoransky--36031","Cedi-Osman-18912","James-Harden-1037","50000","301.23"
"James-Harden-1037","Tomas-Satoransky--36031","Al-Farouq-Aminu-1279","Trevor-Ariza-1323","Nikola-Jokic-31812","Nicolas-Batum-1315","LaMarcus-Aldridge-1349","Cedi-Osman-18912","50000","301.22"
"James-Harden-1037","Bradley-Beal-13898","JaMychal-Green-18729","Trevor-Ariza-1323","Nikola-Jokic-31812","Tomas-Satoransky--36031","Josh-Jackson-37890","Cedi-Osman-18912","50000","301.21"
"James-Harden-1037","Kevin-Huerter-408969","Al-Farouq-Aminu-1279","Trevor-Ariza-1323","Nikola-Jokic-31812","Tomas-Satoransky--36031","LaMarcus-Aldridge-1349","Cedi-Osman-18912","49700","301.2"
"Jeremy-Lin-916","James-Harden-1037","Trevor-Ariza-1323","Cedi-Osman-18912","Nikola-Jokic-31812","Damian-Lillard-13900","Mikal-Bridges-408842","Tomas-Satoransky--36031","49900","301.16"
"Damian-Lillard-13900","James-Harden-1037","Trevor-Ariza-1323","Cedi-Osman-18912","Nikola-Jokic-31812","Tomas-Satoransky--36031","Kevin-Huerter-408969","Maurice-Harkless-16971","49900","301.16"
"Jeremy-Lin-916","James-Harden-1037","Jeff-Green-1314","Cedi-Osman-18912","Nikola-Jokic-31812","Tomas-Satoransky--36031","Draymond-Green-13976","LaMarcus-Aldridge-1349","50000","301.14"
"Damian-Lillard-13900","James-Harden-1037","Al-Farouq-Aminu-1279","Cedi-Osman-18912","Nikola-Jokic-31812","Tomas-Satoransky--36031","Kevin-Huerter-408969","Josh-Jackson-37890","49800","301.1"
"James-Harden-1037","Tomas-Satoransky--36031","Cedi-Osman-18912","LaMarcus-Aldridge-1349","Nikola-Jokic-31812","E'Twaun-Moore-18582","Derrick-Favors-1266","Trevor-Ariza-1323","49800","301.1"
"James-Harden-1037","Bradley-Beal-13898","E'Twaun-Moore-18582","Cedi-Osman-18912","Nikola-Jokic-31812","Tomas-Satoransky--36031","Derrick-Favors-1266","Al-Farouq-Aminu-1279","49800","301.1"
"James-Harden-1037","Bradley-Beal-13898","Danuel-House-36029","Josh-Jackson-37890","Nikola-Jokic-31812","Tomas-Satoransky--36031","Cedi-Osman-18912","Trevor-Ariza-1323","49800","301.09"
"Damian-Lillard-13900","James-Harden-1037","Maurice-Harkless-16971","Trevor-Ariza-1323","Nikola-Jokic-31812","Tomas-Satoransky--36031","Jeff-Green-1314","Cedi-Osman-18912","49700","301.08"
"Damian-Lillard-13900","James-Harden-1037","Jeff-Green-1314","Al-Farouq-Aminu-1279","Nikola-Jokic-31812","Tomas-Satoransky--36031","Cedi-Osman-18912","Gordon-Hayward-1239","50000","301.07"
"James-Harden-1037","Bradley-Beal-13898","Cedi-Osman-18912","Marvin-Williams-1318","Nikola-Jokic-31812","Tomas-Satoransky--36031","Derrick-Favors-1266","Maurice-Harkless-16971","50000","301.05"
"James-Harden-1037","Tomas-Satoransky--36031","Trevor-Ariza-1323","Cedi-Osman-18912","LaMarcus-Aldridge-1349","E'Twaun-Moore-18582","Marvin-Williams-1318","Nikola-Jokic-31812","50000","301.04"
"James-Harden-1037","Bradley-Beal-13898","Al-Farouq-Aminu-1279","Marvin-Williams-1318","Nikola-Jokic-31812","Tomas-Satoransky--36031","E'Twaun-Moore-18582","Cedi-Osman-18912","50000","301.04"
"Damian-Lillard-13900","James-Harden-1037","Jeff-Green-1314","Al-Farouq-Aminu-1279","Nikola-Jokic-31812","Tomas-Satoransky--36031","Josh-Jackson-37890","Cedi-Osman-18912","49600","301.02"
"Damian-Lillard-13900","James-Harden-1037","Josh-Jackson-37890","Cedi-Osman-18912","Derrick-Favors-1266","Tomas-Satoransky--36031","E'Twaun-Moore-18582","Nikola-Jokic-31812","49900","301.0"
"James-Harden-1037","Tomas-Satoransky--36031","Cedi-Osman-18912","LaMarcus-Aldridge-1349","Nikola-Jokic-31812","Kyle-Anderson-18615","Derrick-Favors-1266","Al-Farouq-Aminu-1279","49700","300.97"
"James-Harden-1037","Bradley-Beal-13898","Kyle-Anderson-18615","Trevor-Ariza-1323","Nikola-Jokic-31812","Tomas-Satoransky--36031","Gerald-Green-13374","Cedi-Osman-18912","50000","300.96"
"Damian-Lillard-13900","James-Harden-1037","Trevor-Ariza-1323","Cedi-Osman-18912","Nikola-Jokic-31812","Tomas-Satoransky--36031","Kevin-Huerter-408969","Davis-Bertans-36051","49800","300.95"
"James-Harden-1037","Bradley-Beal-13898","Trevor-Ariza-1323","Cedi-Osman-18912","Nikola-Jokic-31812","Tomas-Satoransky--36031","Kevin-Huerter-408969","Mikal-Bridges-408842","49800","300.94"
"Damian-Lillard-13900","James-Harden-1037","Maurice-Harkless-16971","Derrick-Favors-1266","Nikola-Jokic-31812","Tomas-Satoransky--36031","Kyle-Anderson-18615","Cedi-Osman-18912","49900","300.93"
"Damian-Lillard-13900","James-Harden-1037","Kyle-Anderson-18615","Cedi-Osman-18912","Nikola-Jokic-31812","Tomas-Satoransky--36031","E'Twaun-Moore-18582","Al-Farouq-Aminu-1279","49900","300.92"
"Dante-Exum-18626","Bradley-Beal-13898","Al-Farouq-Aminu-1279","Trevor-Ariza-1323","Nikola-Jokic-31812","Tomas-Satoransky--36031","Cedi-Osman-18912","James-Harden-1037","49900","300.92"
"James-Harden-1037","Tomas-Satoransky--36031","Al-Farouq-Aminu-1279","Cedi-Osman-18912","Nikola-Jokic-31812","Kyle-Anderson-18615","Marvin-Williams-1318","LaMarcus-Aldridge-1349","49900","300.91"
"Damian-Lillard-13900","James-Harden-1037","Al-Farouq-Aminu-1279","Trevor-Ariza-1323","Nikola-Jokic-31812","Tomas-Satoransky--36031","Solomon-Hill-16863","Cedi-Osman-18912","50000","300.91"
"Damian-Lillard-13900","James-Harden-1037","Al-Farouq-Aminu-1279","Cedi-Osman-18912","Derrick-Favors-1266","Tomas-Satoransky--36031","Gerald-Green-13374","Nikola-Jokic-31812","49900","300.91"
"Damian-Lillard-13900","James-Harden-1037","Jeff-Green-1314","Cedi-Osman-18912","Derrick-Favors-1266","Tomas-Satoransky--36031","Nicolas-Batum-1315","Nikola-Jokic-31812","50000","300.9"
"Trae-Young-409063","James-Harden-1037","Maurice-Harkless-16971","Al-Farouq-Aminu-1279","Nikola-Jokic-31812","Tomas-Satoransky--36031","Cedi-Osman-18912","LaMarcus-Aldridge-1349","50000","300.9"
"Damian-Lillard-13900","James-Harden-1037","Jeff-Green-1314","Cedi-Osman-18912","Derrick-Favors-1266","Tomas-Satoransky--36031","Kevin-Huerter-408969","Nikola-Jokic-31812","49700","300.88"
"James-Harden-1037","Bradley-Beal-13898","Jeff-Green-1314","Trevor-Ariza-1323","Draymond-Green-13976","Tomas-Satoransky--36031","Cedi-Osman-18912","LaMarcus-Aldridge-1349","50000","300.87"
"Damian-Lillard-13900","James-Harden-1037","Jeff-Green-1314","Davis-Bertans-36051","Nikola-Jokic-31812","Tomas-Satoransky--36031","Cedi-Osman-18912","Trevor-Ariza-1323","49600","300.87"
"James-Harden-1037","Bradley-Beal-13898","Trevor-Ariza-1323","Cedi-Osman-18912","Nikola-Jokic-31812","Tomas-Satoransky--36031","Mikal-Bridges-408842","Jeff-Green-1314","49600","300.86"
"James-Harden-1037","Bradley-Beal-13898","Marvin-Williams-1318","Davis-Bertans-36051","Nikola-Jokic-31812","Tomas-Satoransky--36031","Derrick-Favors-1266","Cedi-Osman-18912","49900","300.84"
"James-Harden-1037","Kevin-Huerter-408969","TJ-Warren-18634","Cedi-Osman-18912","LaMarcus-Aldridge-1349","Tomas-Satoransky--36031","Mikal-Bridges-408842","Nikola-Jokic-31812","50000","300.82"
"Dante-Exum-18626","James-Harden-1037","Josh-Jackson-37890","Trevor-Ariza-1323","Nikola-Jokic-31812","Damian-Lillard-13900","Cedi-Osman-18912","Tomas-Satoransky--36031","50000","300.82"
"Damian-Lillard-13900","James-Harden-1037","JaMychal-Green-18729","Cedi-Osman-18912","Nikola-Jokic-31812","Tomas-Satoransky--36031","Mikal-Bridges-408842","Trevor-Ariza-1323","50000","300.82"
"James-Harden-1037","Bradley-Beal-13898","Danuel-House-36029","TJ-Warren-18634","Nikola-Jokic-31812","Tomas-Satoransky--36031","Davis-Bertans-36051","Cedi-Osman-18912","50000","300.82"
"Damian-Lillard-13900","James-Harden-1037","Jeff-Green-1314","Cedi-Osman-18912","Nikola-Jokic-31812","Kevin-Huerter-408969","Marvin-Williams-1318","Tomas-Satoransky--36031","49900","300.82"
"Jeremy-Lin-916","James-Harden-1037","Cedi-Osman-18912","LaMarcus-Aldridge-1349","Nikola-Jokic-31812","Tomas-Satoransky--36031","Derrick-Favors-1266","Trevor-Ariza-1323","49700","300.79"
"Jeremy-Lin-916","Bradley-Beal-13898","Al-Farouq-Aminu-1279","Cedi-Osman-18912","Nikola-Jokic-31812","Tomas-Satoransky--36031","Derrick-Favors-1266","James-Harden-1037","49700","300.79"
"James-Harden-1037","Bradley-Beal-13898","Jeff-Green-1314","Cedi-Osman-18912","Nikola-Jokic-31812","Tomas-Satoransky--36031","Joe-Ingles-18627","Josh-Jackson-37890","49900","300.76"
"Jeremy-Lin-916","James-Harden-1037","E'Twaun-Moore-18582","Trevor-Ariza-1323","Nikola-Jokic-31812","Damian-Lillard-13900","Cedi-Osman-18912","Tomas-Satoransky--36031","49900","300.74"
"James-Harden-1037","Mikal-Bridges-408842","Jeff-Green-1314","TJ-Warren-18634","LaMarcus-Aldridge-1349","Tomas-Satoransky--36031","Cedi-Osman-18912","Nikola-Jokic-31812","49800","300.74"
"Jeremy-Lin-916","Bradley-Beal-13898","Al-Farouq-Aminu-1279","Cedi-Osman-18912","Nikola-Jokic-31812","Tomas-Satoransky--36031","Marvin-Williams-1318","James-Harden-1037","49900","300.73"
"Austin-Rivers-13903","James-Harden-1037","Jeff-Green-1314","Trevor-Ariza-1323","Nikola-Jokic-31812","Damian-Lillard-13900","Cedi-Osman-18912","Tomas-Satoransky--36031","49900","300.73"
"Jeremy-Lin-916","James-Harden-1037","Trevor-Ariza-1323","Cedi-Osman-18912","LaMarcus-Aldridge-1349","Tomas-Satoransky--36031","Marvin-Williams-1318","Nikola-Jokic-31812","49900","300.73"
"Damian-Lillard-13900","James-Harden-1037","Kyle-Anderson-18615","Davis-Bertans-36051","Derrick-Favors-1266","Tomas-Satoransky--36031","Cedi-Osman-18912","Nikola-Jokic-31812","49800","300.72"
"James-Harden-1037","Bradley-Beal-13898","Kyle-Anderson-18615","Cedi-Osman-18912","Derrick-Favors-1266","Tomas-Satoransky--36031","Mikal-Bridges-408842","Nikola-Jokic-31812","49800","300.71"
"Damian-Lillard-13900","James-Harden-1037","Trevor-Ariza-1323","Cedi-Osman-18912","Nikola-Jokic-31812","Tomas-Satoransky--36031","Mikal-Bridges-408842","Danuel-House-36029","49800","300.7"
"James-Harden-1037","Joe-Ingles-18627","Danuel-House-36029","Trevor-Ariza-1323","LaMarcus-Aldridge-1349","Tomas-Satoransky--36031","Cedi-Osman-18912","Nikola-Jokic-31812","50000","300.7"
"James-Harden-1037","Tomas-Satoransky--36031","TJ-Warren-18634","Cedi-Osman-18912","Nikola-Jokic-31812","Kyle-Anderson-18615","Derrick-Favors-1266","Trevor-Ariza-1323","49800","300.7"
"James-Harden-1037","Bradley-Beal-13898","Al-Farouq-Aminu-1279","Danuel-House-36029","Nikola-Jokic-31812","Tomas-Satoransky--36031","Joe-Ingles-18627","Cedi-Osman-18912","50000","300.7"
"Jeremy-Lin-916","James-Harden-1037","Josh-Jackson-37890","Cedi-Osman-18912","Nikola-Jokic-31812","Damian-Lillard-13900","Derrick-Favors-1266","Tomas-Satoransky--36031","49800","300.69"
"Trae-Young-409063","James-Harden-1037","Al-Farouq-Aminu-1279","Davis-Bertans-36051","Nikola-Jokic-31812","Tomas-Satoransky--36031","LaMarcus-Aldridge-1349","Cedi-Osman-18912","49900","300.69"
"James-Harden-1037","Bradley-Beal-13898","Maurice-Harkless-16971","Trevor-Ariza-1323","Nikola-Jokic-31812","Tomas-Satoransky--36031","Cedi-Osman-18912","Josh-Jackson-37890","49700","300.67"
