"C.J.-McCollum-17121","Dwyane-Wade-967","Josh-Richardson-18922","Al-Farouq-Aminu-1279","Hassan-Whiteside-18664","Damian-Lillard-13900","Evan-Turner-1291","Justise-Winslow-18921","50000","256.69"
"Damian-Lillard-13900","Evan-Fournier-13913","Josh-Richardson-18922","Al-Farouq-Aminu-1279","Hassan-Whiteside-18664","Justise-Winslow-18921","Evan-Turner-1291","DeAndre-Jordan-1486","50000","256.57"
"Damian-Lillard-13900","Josh-Richardson-18922","Evan-Fournier-13913","James-Johnson-1195","Hassan-Whiteside-18664","Dwyane-Wade-967","Justise-Winslow-18921","Aaron-Gordon-18601","50000","256.48"
"Damian-Lillard-13900","Josh-Richardson-18922","Al-Farouq-Aminu-1279","James-Johnson-1195","Jusuf-Nurkic-18619","Dwyane-Wade-967","Justise-Winslow-18921","Hassan-Whiteside-18664","50000","256.2"

"C.J.-McCollum-17121","Dwyane-Wade-967","Josh-Richardson-18922","Al-Farouq-Aminu-1279","Hassan-Whiteside-18664","Damian-Lillard-13900","Evan-Turner-1291","Justise-Winslow-18921","50000","256.69"
"Damian-Lillard-13900","Evan-Fournier-13913","Josh-Richardson-18922","Al-Farouq-Aminu-1279","Hassan-Whiteside-18664","Justise-Winslow-18921","Evan-Turner-1291","DeAndre-Jordan-1486","50000","256.57"
"Damian-Lillard-13900","Josh-Richardson-18922","Evan-Fournier-13913","James-Johnson-1195","Hassan-Whiteside-18664","Dwyane-Wade-967","Justise-Winslow-18921","Aaron-Gordon-18601","50000","256.48"
"Damian-Lillard-13900","Josh-Richardson-18922","Al-Farouq-Aminu-1279","James-Johnson-1195","Jusuf-Nurkic-18619","Dwyane-Wade-967","Justise-Winslow-18921","Hassan-Whiteside-18664","50000","256.2"
"C.J.-McCollum-17121","Evan-Fournier-13913","Josh-Richardson-18922","Al-Farouq-Aminu-1279","Hassan-Whiteside-18664","Damian-Lillard-13900","Evan-Turner-1291","Justise-Winslow-18921","49800","256.14"
"Damian-Lillard-13900","Wesley-Matthews-1339","Josh-Richardson-18922","James-Johnson-1195","Jusuf-Nurkic-18619","Dwyane-Wade-967","Justise-Winslow-18921","Hassan-Whiteside-18664","49900","256.02"
"Dennis-Smith-Jr.-37847","C.J.-McCollum-17121","Josh-Richardson-18922","Al-Farouq-Aminu-1279","Hassan-Whiteside-18664","Damian-Lillard-13900","Evan-Turner-1291","Justise-Winslow-18921","50000","255.72"
"Damian-Lillard-13900","Evan-Fournier-13913","Al-Farouq-Aminu-1279","James-Johnson-1195","Jusuf-Nurkic-18619","Josh-Richardson-18922","Justise-Winslow-18921","Hassan-Whiteside-18664","49800","255.65"
"Damian-Lillard-13900","Dwyane-Wade-967","Al-Farouq-Aminu-1279","James-Johnson-1195","Hassan-Whiteside-18664","Justise-Winslow-18921","Josh-Richardson-18922","DeAndre-Jordan-1486","49900","255.65"
"C.J.-McCollum-17121","Dwyane-Wade-967","Wesley-Matthews-1339","James-Johnson-1195","Hassan-Whiteside-18664","Damian-Lillard-13900","Justise-Winslow-18921","Jusuf-Nurkic-18619","50000","255.58"
"Dennis-Smith-Jr.-37847","Evan-Fournier-13913","Josh-Richardson-18922","Al-Farouq-Aminu-1279","Hassan-Whiteside-18664","Damian-Lillard-13900","Justise-Winslow-18921","Dwyane-Wade-967","49700","255.54"
"Dennis-Smith-Jr.-37847","Dwyane-Wade-967","Evan-Fournier-13913","Al-Farouq-Aminu-1279","Hassan-Whiteside-18664","Damian-Lillard-13900","Justise-Winslow-18921","DeAndre-Jordan-1486","50000","255.53"
"Dennis-Smith-Jr.-37847","Josh-Richardson-18922","Evan-Fournier-13913","James-Johnson-1195","Hassan-Whiteside-18664","Damian-Lillard-13900","Justise-Winslow-18921","Aaron-Gordon-18601","50000","255.51"
"Damian-Lillard-13900","Wesley-Matthews-1339","Evan-Fournier-13913","James-Johnson-1195","Hassan-Whiteside-18664","Josh-Richardson-18922","Justise-Winslow-18921","Jusuf-Nurkic-18619","49700","255.47"
"Damian-Lillard-13900","Josh-Richardson-18922","Wesley-Matthews-1339","James-Johnson-1195","Hassan-Whiteside-18664","Dwyane-Wade-967","Justise-Winslow-18921","DeAndre-Jordan-1486","49800","255.47"
"C.J.-McCollum-17121","Evan-Fournier-13913","Josh-Richardson-18922","James-Johnson-1195","Jusuf-Nurkic-18619","Damian-Lillard-13900","Justise-Winslow-18921","Dwyane-Wade-967","49900","255.33"
"Wayne-Ellington-1009","Josh-Richardson-18922","Wesley-Matthews-1339","Al-Farouq-Aminu-1279","Hassan-Whiteside-18664","Damian-Lillard-13900","Justise-Winslow-18921","DeAndre-Jordan-1486","50000","255.24"
"Dennis-Smith-Jr.-37847","Josh-Richardson-18922","Al-Farouq-Aminu-1279","James-Johnson-1195","Jusuf-Nurkic-18619","Damian-Lillard-13900","Justise-Winslow-18921","Hassan-Whiteside-18664","50000","255.23"
"C.J.-McCollum-17121","Dwyane-Wade-967","Josh-Richardson-18922","Al-Farouq-Aminu-1279","Hassan-Whiteside-18664","Damian-Lillard-13900","Justise-Winslow-18921","James-Johnson-1195","49700","255.22"
"C.J.-McCollum-17121","Evan-Fournier-13913","Al-Farouq-Aminu-1279","James-Johnson-1195","Jusuf-Nurkic-18619","Damian-Lillard-13900","Justise-Winslow-18921","Hassan-Whiteside-18664","49900","255.21"
"C.J.-McCollum-17121","Dwyane-Wade-967","Al-Farouq-Aminu-1279","James-Johnson-1195","Hassan-Whiteside-18664","Damian-Lillard-13900","Justise-Winslow-18921","DeAndre-Jordan-1486","50000","255.21"
"Damian-Lillard-13900","Evan-Fournier-13913","Josh-Richardson-18922","Aaron-Gordon-18601","Jusuf-Nurkic-18619","Justise-Winslow-18921","Evan-Turner-1291","Dwyane-Wade-967","50000","255.13"
"Damian-Lillard-13900","Evan-Fournier-13913","Jonathon-Simmons-31808","Aaron-Gordon-18601","Hassan-Whiteside-18664","Justise-Winslow-18921","Josh-Richardson-18922","Dwyane-Wade-967","49800","255.13"
"Damian-Lillard-13900","Evan-Fournier-13913","Al-Farouq-Aminu-1279","James-Johnson-1195","Hassan-Whiteside-18664","Justise-Winslow-18921","Josh-Richardson-18922","DeAndre-Jordan-1486","49700","255.1"
"C.J.-McCollum-17121","Dwyane-Wade-967","Evan-Fournier-13913","Al-Farouq-Aminu-1279","Hassan-Whiteside-18664","Dennis-Smith-Jr.-37847","Justise-Winslow-18921","Damian-Lillard-13900","49800","255.1"
"Dennis-Smith-Jr.-37847","Wesley-Matthews-1339","Josh-Richardson-18922","James-Johnson-1195","Jusuf-Nurkic-18619","Damian-Lillard-13900","Justise-Winslow-18921","Hassan-Whiteside-18664","49900","255.05"
"D.J.-Augustin-1064","Wesley-Matthews-1339","Evan-Fournier-13913","Aaron-Gordon-18601","Hassan-Whiteside-18664","Damian-Lillard-13900","Josh-Richardson-18922","Justise-Winslow-18921","50000","255.04"
"C.J.-McCollum-17121","Josh-Richardson-18922","Wesley-Matthews-1339","James-Johnson-1195","Hassan-Whiteside-18664","Damian-Lillard-13900","Justise-Winslow-18921","Dwyane-Wade-967","49600","255.04"
"C.J.-McCollum-17121","Wesley-Matthews-1339","Evan-Fournier-13913","James-Johnson-1195","Hassan-Whiteside-18664","Damian-Lillard-13900","Justise-Winslow-18921","Jusuf-Nurkic-18619","49800","255.03"
"C.J.-McCollum-17121","Dwyane-Wade-967","Wesley-Matthews-1339","James-Johnson-1195","Hassan-Whiteside-18664","Damian-Lillard-13900","Justise-Winslow-18921","DeAndre-Jordan-1486","49900","255.03"
"Damian-Lillard-13900","Dwyane-Wade-967","Josh-Richardson-18922","Al-Farouq-Aminu-1279","Hassan-Whiteside-18664","Justise-Winslow-18921","Evan-Turner-1291","Aaron-Gordon-18601","49800","255.02"
"Damian-Lillard-13900","Evan-Fournier-13913","Al-Farouq-Aminu-1279","Aaron-Gordon-18601","Hassan-Whiteside-18664","Justise-Winslow-18921","Evan-Turner-1291","Jusuf-Nurkic-18619","50000","255.01"
