"Jordan-Clarkson-18631","Alec-Burks-13353","Cedi-Osman-18912","Julius-Randle-18632","Jusuf-Nurkic-18619","Damian-Lillard-13900","Wendell-Carter-408878","Marc-Gasol-1493","49900","302.32"

"Jordan-Clarkson-18631","Alec-Burks-13353","Cedi-Osman-18912","Julius-Randle-18632","Jusuf-Nurkic-18619","Damian-Lillard-13900","Wendell-Carter-408878","Marc-Gasol-1493","49900","302.32"
"Alec-Burks-13353","Andrew-Wiggins-18620","Cedi-Osman-18912","Julius-Randle-18632","Jusuf-Nurkic-18619","Damian-Lillard-13900","Wendell-Carter-408878","Marc-Gasol-1493","50000","300.98"
"Alec-Burks-13353","Jeremy-Lamb-13955","Cedi-Osman-18912","Julius-Randle-18632","Jusuf-Nurkic-18619","Damian-Lillard-13900","Wendell-Carter-408878","Marc-Gasol-1493","49700","300.35"
"Alec-Burks-13353","Gordon-Hayward-1239","Josh-Jackson-37890","Julius-Randle-18632","Jusuf-Nurkic-18619","Damian-Lillard-13900","Wendell-Carter-408878","Marc-Gasol-1493","50000","300.29"
"Alec-Burks-13353","Buddy-Hield-35206","Cedi-Osman-18912","Wendell-Carter-408878","Jusuf-Nurkic-18619","Damian-Lillard-13900","Draymond-Green-13976","Julius-Randle-18632","49600","300.01"
"Jordan-Clarkson-18631","Alec-Burks-13353","Josh-Jackson-37890","Cedi-Osman-18912","Jusuf-Nurkic-18619","Damian-Lillard-13900","Julius-Randle-18632","Marc-Gasol-1493","49800","299.89"
"Jordan-Clarkson-18631","Alec-Burks-13353","Josh-Jackson-37890","Julius-Randle-18632","Jusuf-Nurkic-18619","Damian-Lillard-13900","Draymond-Green-13976","Wendell-Carter-408878","49500","299.58"
"Jordan-Clarkson-18631","Alec-Burks-13353","Cedi-Osman-18912","Julius-Randle-18632","Marc-Gasol-1493","Damian-Lillard-13900","Wendell-Carter-408878","Draymond-Green-13976","49500","299.21"
"Matthew-Dellavedova-16839","Alec-Burks-13353","Cedi-Osman-18912","Julius-Randle-18632","Jusuf-Nurkic-18619","Damian-Lillard-13900","Draymond-Green-13976","Marc-Gasol-1493","49400","299.19"
"Alec-Burks-13353","Nicolas-Batum-1315","Cedi-Osman-18912","Julius-Randle-18632","Jusuf-Nurkic-18619","Damian-Lillard-13900","Draymond-Green-13976","Marc-Gasol-1493","50000","299.18"
"Jordan-Clarkson-18631","Alec-Burks-13353","Andrew-Wiggins-18620","Cedi-Osman-18912","Draymond-Green-13976","Damian-Lillard-13900","Julius-Randle-18632","Jusuf-Nurkic-18619","50000","299.0"
"Matthew-Dellavedova-16839","Alec-Burks-13353","Andrew-Wiggins-18620","Julius-Randle-18632","Marc-Gasol-1493","Damian-Lillard-13900","Wendell-Carter-408878","Jusuf-Nurkic-18619","49800","298.99"
"C.J.-McCollum-17121","Alec-Burks-13353","Josh-Jackson-37890","Julius-Randle-18632","Jusuf-Nurkic-18619","Damian-Lillard-13900","Draymond-Green-13976","Wendell-Carter-408878","49800","298.99"
"Alec-Burks-13353","Jeremy-Lamb-13955","Josh-Jackson-37890","Wendell-Carter-408878","Marc-Gasol-1493","Damian-Lillard-13900","Draymond-Green-13976","Julius-Randle-18632","50000","298.98"
"Alec-Burks-13353","Jeremy-Lamb-13955","Gordon-Hayward-1239","Julius-Randle-18632","Jusuf-Nurkic-18619","Damian-Lillard-13900","Wendell-Carter-408878","Draymond-Green-13976","49900","298.77"
"Matthew-Dellavedova-16839","Jordan-Clarkson-18631","Josh-Jackson-37890","Julius-Randle-18632","Jusuf-Nurkic-18619","Damian-Lillard-13900","Wendell-Carter-408878","Marc-Gasol-1493","50000","298.74"
"Jordan-Clarkson-18631","Alec-Burks-13353","Buddy-Hield-35206","Josh-Jackson-37890","Wendell-Carter-408878","Damian-Lillard-13900","Julius-Randle-18632","Jusuf-Nurkic-18619","49800","298.72"
"Alec-Burks-13353","Buddy-Hield-35206","Josh-Jackson-37890","Wendell-Carter-408878","Marc-Gasol-1493","Damian-Lillard-13900","Draymond-Green-13976","Jusuf-Nurkic-18619","50000","298.7"
"C.J.-McCollum-17121","Alec-Burks-13353","Cedi-Osman-18912","Julius-Randle-18632","Marc-Gasol-1493","Damian-Lillard-13900","Wendell-Carter-408878","Draymond-Green-13976","49800","298.62"
"Alec-Burks-13353","Gordon-Hayward-1239","Cedi-Osman-18912","Julius-Randle-18632","Jusuf-Nurkic-18619","Damian-Lillard-13900","Wendell-Carter-408878","Marc-Gasol-1493","49300","298.55"
"Alec-Burks-13353","Andrew-Wiggins-18620","Josh-Jackson-37890","Cedi-Osman-18912","Jusuf-Nurkic-18619","Damian-Lillard-13900","Julius-Randle-18632","Marc-Gasol-1493","49900","298.55"
"Tyus-Jones-18938","Alec-Burks-13353","Cedi-Osman-18912","Julius-Randle-18632","Jusuf-Nurkic-18619","Damian-Lillard-13900","Draymond-Green-13976","Marc-Gasol-1493","49900","298.45"
"Alec-Burks-13353","Wesley-Matthews-1339","Cedi-Osman-18912","Julius-Randle-18632","Jusuf-Nurkic-18619","Damian-Lillard-13900","Draymond-Green-13976","Marc-Gasol-1493","49900","298.43"
"Jordan-Clarkson-18631","Alec-Burks-13353","DeMarre-Carroll-1174","Julius-Randle-18632","Jusuf-Nurkic-18619","Damian-Lillard-13900","Wendell-Carter-408878","Marc-Gasol-1493","49800","298.42"
"Jordan-Clarkson-18631","Alec-Burks-13353","Jeremy-Lamb-13955","Julius-Randle-18632","Jusuf-Nurkic-18619","Damian-Lillard-13900","Draymond-Green-13976","Cedi-Osman-18912","49700","298.37"
"Matthew-Dellavedova-16839","Alec-Burks-13353","Jeremy-Lamb-13955","Julius-Randle-18632","Marc-Gasol-1493","Damian-Lillard-13900","Wendell-Carter-408878","Jusuf-Nurkic-18619","49500","298.36"
"Jordan-Clarkson-18631","Alec-Burks-13353","Buddy-Hield-35206","Cedi-Osman-18912","Wendell-Carter-408878","Damian-Lillard-13900","Julius-Randle-18632","Marc-Gasol-1493","49800","298.35"
"Matthew-Dellavedova-16839","Alec-Burks-13353","Buddy-Hield-35206","Cedi-Osman-18912","Jusuf-Nurkic-18619","Damian-Lillard-13900","Julius-Randle-18632","Marc-Gasol-1493","49700","298.33"
"Jordan-Clarkson-18631","Alec-Burks-13353","Josh-Jackson-37890","Draymond-Green-13976","Jusuf-Nurkic-18619","Damian-Lillard-13900","Gordon-Hayward-1239","Julius-Randle-18632","50000","298.31"
"Alec-Burks-13353","Andrew-Wiggins-18620","Josh-Jackson-37890","Julius-Randle-18632","Jusuf-Nurkic-18619","Damian-Lillard-13900","Draymond-Green-13976","Wendell-Carter-408878","49600","298.24"
"Jordan-Clarkson-18631","Alec-Burks-13353","Maurice-Harkless-16971","Julius-Randle-18632","Jusuf-Nurkic-18619","Damian-Lillard-13900","Wendell-Carter-408878","Marc-Gasol-1493","49300","298.16"
"D.J.-Augustin-1064","Alec-Burks-13353","Cedi-Osman-18912","Julius-Randle-18632","Jusuf-Nurkic-18619","Damian-Lillard-13900","Draymond-Green-13976","Marc-Gasol-1493","49900","298.08"
"Jordan-Clarkson-18631","Alec-Burks-13353","Kyle-Anderson-18615","Cedi-Osman-18912","Jusuf-Nurkic-18619","Damian-Lillard-13900","Julius-Randle-18632","Marc-Gasol-1493","49900","298.05"
"Matthew-Dellavedova-16839","Alec-Burks-13353","Buddy-Hield-35206","Wendell-Carter-408878","Jusuf-Nurkic-18619","Damian-Lillard-13900","Draymond-Green-13976","Julius-Randle-18632","49400","298.02"
"Alec-Burks-13353","Nicolas-Batum-1315","Buddy-Hield-35206","Wendell-Carter-408878","Jusuf-Nurkic-18619","Damian-Lillard-13900","Draymond-Green-13976","Julius-Randle-18632","50000","298.01"
"Dwyane-Wade-967","Alec-Burks-13353","Josh-Jackson-37890","Julius-Randle-18632","Jusuf-Nurkic-18619","Damian-Lillard-13900","Wendell-Carter-408878","Marc-Gasol-1493","49900","297.98"
"Jordan-Clarkson-18631","Alec-Burks-13353","Cedi-Osman-18912","Julius-Randle-18632","Marc-Gasol-1493","Damian-Lillard-13900","Gordon-Hayward-1239","Draymond-Green-13976","50000","297.94"
"Alec-Burks-13353","Jeremy-Lamb-13955","Josh-Jackson-37890","Cedi-Osman-18912","Jusuf-Nurkic-18619","Damian-Lillard-13900","Julius-Randle-18632","Marc-Gasol-1493","49600","297.92"
"Alec-Burks-13353","Buddy-Hield-35206","Josh-Jackson-37890","Julius-Randle-18632","Jusuf-Nurkic-18619","Damian-Lillard-13900","Maurice-Harkless-16971","Marc-Gasol-1493","50000","297.9"
"Alec-Burks-13353","Andrew-Wiggins-18620","Cedi-Osman-18912","Julius-Randle-18632","Marc-Gasol-1493","Damian-Lillard-13900","Wendell-Carter-408878","Draymond-Green-13976","49600","297.87"
"Jordan-Clarkson-18631","Alec-Burks-13353","Cedi-Osman-18912","Wendell-Carter-408878","Jusuf-Nurkic-18619","Damian-Lillard-13900","Draymond-Green-13976","Julius-Randle-18632","48800","297.84"
"C.J.-McCollum-17121","Alec-Burks-13353","Jeremy-Lamb-13955","Julius-Randle-18632","Jusuf-Nurkic-18619","Damian-Lillard-13900","Draymond-Green-13976","Cedi-Osman-18912","50000","297.78"
"Jordan-Clarkson-18631","Alec-Burks-13353","Kyle-Anderson-18615","Julius-Randle-18632","Jusuf-Nurkic-18619","Damian-Lillard-13900","Draymond-Green-13976","Wendell-Carter-408878","49600","297.74"
"Jordan-Clarkson-18631","Alec-Burks-13353","Nemanja-Bjelica-31814","Cedi-Osman-18912","Marc-Gasol-1493","Damian-Lillard-13900","Julius-Randle-18632","Jusuf-Nurkic-18619","50000","297.7"
"Jordan-Clarkson-18631","Alec-Burks-13353","Gordon-Hayward-1239","Wendell-Carter-408878","Marc-Gasol-1493","Damian-Lillard-13900","Draymond-Green-13976","Jusuf-Nurkic-18619","49800","297.69"
"Alec-Burks-13353","Buddy-Hield-35206","Al-Farouq-Aminu-1279","Wendell-Carter-408878","Jusuf-Nurkic-18619","Damian-Lillard-13900","Draymond-Green-13976","Julius-Randle-18632","50000","297.67"
"Tyus-Jones-18938","Alec-Burks-13353","Jeremy-Lamb-13955","Julius-Randle-18632","Marc-Gasol-1493","Damian-Lillard-13900","Wendell-Carter-408878","Jusuf-Nurkic-18619","50000","297.62"
"Alec-Burks-13353","Jeremy-Lamb-13955","Josh-Jackson-37890","Julius-Randle-18632","Jusuf-Nurkic-18619","Damian-Lillard-13900","Draymond-Green-13976","Wendell-Carter-408878","49300","297.61"
"Alec-Burks-13353","Wesley-Matthews-1339","Jeremy-Lamb-13955","Julius-Randle-18632","Marc-Gasol-1493","Damian-Lillard-13900","Wendell-Carter-408878","Jusuf-Nurkic-18619","50000","297.6"
"Alec-Burks-13353","Buddy-Hield-35206","Josh-Jackson-37890","Cedi-Osman-18912","Jusuf-Nurkic-18619","Damian-Lillard-13900","Julius-Randle-18632","Draymond-Green-13976","49500","297.58"
"C.J.-McCollum-17121","Alec-Burks-13353","Maurice-Harkless-16971","Julius-Randle-18632","Jusuf-Nurkic-18619","Damian-Lillard-13900","Wendell-Carter-408878","Marc-Gasol-1493","49600","297.57"
"Jordan-Clarkson-18631","Alec-Burks-13353","Buddy-Hield-35206","Cedi-Osman-18912","Jusuf-Nurkic-18619","Damian-Lillard-13900","Jeremy-Lamb-13955","Julius-Randle-18632","50000","297.51"
"Jordan-Clarkson-18631","Alec-Burks-13353","Bogdan-Bogdanovic-37899","Julius-Randle-18632","Jusuf-Nurkic-18619","Damian-Lillard-13900","Draymond-Green-13976","Wendell-Carter-408878","49800","297.45"
"Jordan-Clarkson-18631","Gordon-Hayward-1239","Cedi-Osman-18912","Wendell-Carter-408878","Jusuf-Nurkic-18619","Damian-Lillard-13900","Draymond-Green-13976","Julius-Randle-18632","49700","297.41"
"Jordan-Clarkson-18631","Alec-Burks-13353","Nemanja-Bjelica-31814","Wendell-Carter-408878","Jusuf-Nurkic-18619","Damian-Lillard-13900","Draymond-Green-13976","Julius-Randle-18632","49700","297.39"
"Matthew-Dellavedova-16839","Alec-Burks-13353","Buddy-Hield-35206","Julius-Randle-18632","Jusuf-Nurkic-18619","Damian-Lillard-13900","Draymond-Green-13976","Jarrett-Allen-37794","50000","297.39"
"Alec-Burks-13353","Andrew-Wiggins-18620","Buddy-Hield-35206","Josh-Jackson-37890","Wendell-Carter-408878","Damian-Lillard-13900","Julius-Randle-18632","Jusuf-Nurkic-18619","49900","297.38"
"Jordan-Clarkson-18631","C.J.-McCollum-17121","Josh-Jackson-37890","Julius-Randle-18632","Marc-Gasol-1493","Alec-Burks-13353","Wendell-Carter-408878","Damian-Lillard-13900","50000","297.33"
"Kyle-Anderson-18615","Alec-Burks-13353","Josh-Jackson-37890","Julius-Randle-18632","Jusuf-Nurkic-18619","Damian-Lillard-13900","Wendell-Carter-408878","Marc-Gasol-1493","49500","297.29"
"Tyus-Jones-18938","Alec-Burks-13353","Buddy-Hield-35206","Wendell-Carter-408878","Jusuf-Nurkic-18619","Damian-Lillard-13900","Draymond-Green-13976","Julius-Randle-18632","49900","297.28"
"Alec-Burks-13353","Wesley-Matthews-1339","Buddy-Hield-35206","Wendell-Carter-408878","Jusuf-Nurkic-18619","Damian-Lillard-13900","Draymond-Green-13976","Julius-Randle-18632","49900","297.26"
"C.J.-McCollum-17121","Alec-Burks-13353","Cedi-Osman-18912","Wendell-Carter-408878","Jusuf-Nurkic-18619","Damian-Lillard-13900","Draymond-Green-13976","Julius-Randle-18632","49100","297.25"
"D.J.-Augustin-1064","Alec-Burks-13353","Jeremy-Lamb-13955","Julius-Randle-18632","Marc-Gasol-1493","Damian-Lillard-13900","Wendell-Carter-408878","Jusuf-Nurkic-18619","50000","297.25"
"Alec-Burks-13353","Jeremy-Lamb-13955","Cedi-Osman-18912","Julius-Randle-18632","Marc-Gasol-1493","Damian-Lillard-13900","Wendell-Carter-408878","Draymond-Green-13976","49300","297.24"
"Alec-Burks-13353","Buddy-Hield-35206","Maurice-Harkless-16971","Julius-Randle-18632","Draymond-Green-13976","Damian-Lillard-13900","Wendell-Carter-408878","Marc-Gasol-1493","49700","297.22"
"Matthew-Dellavedova-16839","Jordan-Clarkson-18631","Jeremy-Lamb-13955","Julius-Randle-18632","Jusuf-Nurkic-18619","Damian-Lillard-13900","Draymond-Green-13976","Wendell-Carter-408878","49900","297.22"
"Jordan-Clarkson-18631","Alec-Burks-13353","Nicolas-Batum-1315","Julius-Randle-18632","Marc-Gasol-1493","Damian-Lillard-13900","Wendell-Carter-408878","Draymond-Green-13976","49900","297.21"
"Jordan-Clarkson-18631","Alec-Burks-13353","Cedi-Osman-18912","Julius-Randle-18632","Jusuf-Nurkic-18619","Damian-Lillard-13900","Draymond-Green-13976","Jarrett-Allen-37794","49400","297.21"
"Matthew-Dellavedova-16839","Alec-Burks-13353","Nicolas-Batum-1315","Julius-Randle-18632","Jusuf-Nurkic-18619","Damian-Lillard-13900","Draymond-Green-13976","Marc-Gasol-1493","49800","297.19"
"Alec-Burks-13353","Gordon-Hayward-1239","Josh-Jackson-37890","Wendell-Carter-408878","Marc-Gasol-1493","Damian-Lillard-13900","Draymond-Green-13976","Julius-Randle-18632","49600","297.18"
"C.J.-McCollum-17121","Alec-Burks-13353","Kyle-Anderson-18615","Julius-Randle-18632","Jusuf-Nurkic-18619","Damian-Lillard-13900","Draymond-Green-13976","Wendell-Carter-408878","49900","297.15"
"Jordan-Clarkson-18631","C.J.-McCollum-17121","Gordon-Hayward-1239","Julius-Randle-18632","Jusuf-Nurkic-18619","Alec-Burks-13353","Wendell-Carter-408878","Damian-Lillard-13900","49900","297.12"
"Matthew-Dellavedova-16839","Alec-Burks-13353","Jeremy-Lamb-13955","Julius-Randle-18632","Jusuf-Nurkic-18619","Damian-Lillard-13900","Gordon-Hayward-1239","Marc-Gasol-1493","50000","297.09"
"Alec-Burks-13353","Andrew-Wiggins-18620","DeMarre-Carroll-1174","Julius-Randle-18632","Jusuf-Nurkic-18619","Damian-Lillard-13900","Wendell-Carter-408878","Marc-Gasol-1493","49900","297.08"
"Alec-Burks-13353","Andrew-Wiggins-18620","Jeremy-Lamb-13955","Julius-Randle-18632","Jusuf-Nurkic-18619","Damian-Lillard-13900","Draymond-Green-13976","Cedi-Osman-18912","49800","297.03"
"Matthew-Dellavedova-16839","Jordan-Clarkson-18631","Andrew-Wiggins-18620","Julius-Randle-18632","Jusuf-Nurkic-18619","Alec-Burks-13353","Draymond-Green-13976","Damian-Lillard-13900","49800","297.01"
"Alec-Burks-13353","Andrew-Wiggins-18620","Buddy-Hield-35206","Cedi-Osman-18912","Wendell-Carter-408878","Damian-Lillard-13900","Julius-Randle-18632","Marc-Gasol-1493","49900","297.01"
"Jordan-Clarkson-18631","Alec-Burks-13353","Andrew-Wiggins-18620","Julius-Randle-18632","Jarrett-Allen-37794","Damian-Lillard-13900","Wendell-Carter-408878","Jusuf-Nurkic-18619","49800","297.01"
"Matthew-Dellavedova-16839","Jordan-Clarkson-18631","Cedi-Osman-18912","Julius-Randle-18632","Jusuf-Nurkic-18619","Damian-Lillard-13900","Wendell-Carter-408878","Marc-Gasol-1493","49300","297.0"
"Alec-Burks-13353","Bogdan-Bogdanovic-37899","Josh-Jackson-37890","Julius-Randle-18632","Jusuf-Nurkic-18619","Damian-Lillard-13900","Wendell-Carter-408878","Marc-Gasol-1493","49700","297.0"
"Jordan-Clarkson-18631","Nicolas-Batum-1315","Cedi-Osman-18912","Julius-Randle-18632","Jusuf-Nurkic-18619","Damian-Lillard-13900","Wendell-Carter-408878","Marc-Gasol-1493","49900","296.99"
"Jordan-Clarkson-18631","Alec-Burks-13353","Buddy-Hield-35206","Cedi-Osman-18912","Wendell-Carter-408878","Damian-Lillard-13900","Julius-Randle-18632","Jusuf-Nurkic-18619","49100","296.98"
"Alec-Burks-13353","Jeremy-Lamb-13955","Josh-Jackson-37890","Julius-Randle-18632","Jusuf-Nurkic-18619","Damian-Lillard-13900","Draymond-Green-13976","Jarrett-Allen-37794","49900","296.98"
"Alec-Burks-13353","Buddy-Hield-35206","Josh-Jackson-37890","Julius-Randle-18632","Jarrett-Allen-37794","Damian-Lillard-13900","Wendell-Carter-408878","Marc-Gasol-1493","50000","296.96"
"Alec-Burks-13353","Buddy-Hield-35206","Cedi-Osman-18912","Wendell-Carter-408878","Jusuf-Nurkic-18619","Damian-Lillard-13900","Draymond-Green-13976","Marc-Gasol-1493","49300","296.96"
"Matthew-Dellavedova-16839","Alec-Burks-13353","Buddy-Hield-35206","Josh-Jackson-37890","Draymond-Green-13976","Damian-Lillard-13900","Julius-Randle-18632","Marc-Gasol-1493","50000","296.96"
"Kyle-Anderson-18615","Alec-Burks-13353","Maurice-Harkless-16971","Julius-Randle-18632","Marc-Gasol-1493","Damian-Lillard-13900","Draymond-Green-13976","Jusuf-Nurkic-18619","49800","296.92"
"D.J.-Augustin-1064","Alec-Burks-13353","Buddy-Hield-35206","Wendell-Carter-408878","Jusuf-Nurkic-18619","Damian-Lillard-13900","Draymond-Green-13976","Julius-Randle-18632","49900","296.91"
"Jordan-Clarkson-18631","Alec-Burks-13353","Maurice-Harkless-16971","Julius-Randle-18632","Marc-Gasol-1493","Damian-Lillard-13900","Gordon-Hayward-1239","Jusuf-Nurkic-18619","49800","296.89"
"Jordan-Clarkson-18631","Alec-Burks-13353","Kyle-Anderson-18615","Wendell-Carter-408878","Jusuf-Nurkic-18619","Damian-Lillard-13900","Buddy-Hield-35206","Julius-Randle-18632","49900","296.88"
"Jordan-Clarkson-18631","Alec-Burks-13353","Al-Farouq-Aminu-1279","Julius-Randle-18632","Marc-Gasol-1493","Damian-Lillard-13900","Wendell-Carter-408878","Draymond-Green-13976","49900","296.87"
"Matthew-Dellavedova-16839","Alec-Burks-13353","Al-Farouq-Aminu-1279","Julius-Randle-18632","Marc-Gasol-1493","Damian-Lillard-13900","Draymond-Green-13976","Jusuf-Nurkic-18619","49800","296.85"
"C.J.-McCollum-17121","Gordon-Hayward-1239","Cedi-Osman-18912","Wendell-Carter-408878","Jusuf-Nurkic-18619","Damian-Lillard-13900","Draymond-Green-13976","Julius-Randle-18632","50000","296.82"
"Alec-Burks-13353","Andrew-Wiggins-18620","Maurice-Harkless-16971","Julius-Randle-18632","Jusuf-Nurkic-18619","Damian-Lillard-13900","Wendell-Carter-408878","Marc-Gasol-1493","49400","296.82"
"C.J.-McCollum-17121","Alec-Burks-13353","Nemanja-Bjelica-31814","Wendell-Carter-408878","Jusuf-Nurkic-18619","Damian-Lillard-13900","Draymond-Green-13976","Julius-Randle-18632","50000","296.8"
"Jordan-Clarkson-18631","Jeremy-Lamb-13955","Josh-Jackson-37890","Cedi-Osman-18912","Jusuf-Nurkic-18619","Damian-Lillard-13900","Julius-Randle-18632","Draymond-Green-13976","50000","296.78"
"Jordan-Clarkson-18631","Alec-Burks-13353","Josh-Jackson-37890","Cedi-Osman-18912","Draymond-Green-13976","Damian-Lillard-13900","Julius-Randle-18632","Marc-Gasol-1493","49400","296.78"
"Jordan-Clarkson-18631","Alec-Burks-13353","Buddy-Hield-35206","Wendell-Carter-408878","Draymond-Green-13976","Damian-Lillard-13900","Gordon-Hayward-1239","Julius-Randle-18632","50000","296.77"
"Matthew-Dellavedova-16839","Jeremy-Lamb-13955","Josh-Jackson-37890","Julius-Randle-18632","Jusuf-Nurkic-18619","Damian-Lillard-13900","Wendell-Carter-408878","Marc-Gasol-1493","49800","296.77"
"Jordan-Clarkson-18631","Buddy-Hield-35206","Cedi-Osman-18912","Julius-Randle-18632","Jusuf-Nurkic-18619","Alec-Burks-13353","Draymond-Green-13976","Marc-Gasol-1493","49500","296.76"
