"Shabazz-Napier-18598","Allen-Crabbe-16978","Taurean-Prince-35218","Nikola-Mirotic-18584","John-Collins-37823","Jeff-Teague-1005","Anthony-Davis-13895","Nikola-Jokic-31812","49800","297.27"
"Jeff-Teague-1005","Tim-Hardaway-Jr.-16879","Taurean-Prince-35218","Anthony-Davis-13895","John-Collins-37823","Allen-Crabbe-16978","Dewayne-Dedmon-16894","Nikola-Jokic-31812","49800","296.81"

"Shabazz-Napier-18598","Allen-Crabbe-16978","Taurean-Prince-35218","Nikola-Mirotic-18584","John-Collins-37823","Jeff-Teague-1005","Anthony-Davis-13895","Nikola-Jokic-31812","49800","297.27"
"Jeff-Teague-1005","Tim-Hardaway-Jr.-16879","Taurean-Prince-35218","Anthony-Davis-13895","John-Collins-37823","Allen-Crabbe-16978","Dewayne-Dedmon-16894","Nikola-Jokic-31812","49800","296.81"
"Jeff-Teague-1005","Allen-Crabbe-16978","Taurean-Prince-35218","Nikola-Mirotic-18584","John-Collins-37823","Tomas-Satoransky--36031","Anthony-Davis-13895","Nikola-Jokic-31812","50000","296.49"
"Jeff-Teague-1005","Kevin-Huerter-408969","Taurean-Prince-35218","Nikola-Mirotic-18584","John-Collins-37823","Allen-Crabbe-16978","Anthony-Davis-13895","Nikola-Jokic-31812","50000","296.47"
"Jeff-Teague-1005","Allen-Crabbe-16978","Tim-Hardaway-Jr.-16879","Anthony-Davis-13895","John-Collins-37823","Reggie-Bullock-16943","Taurean-Prince-35218","Nikola-Jokic-31812","50000","296.4"
"Shabazz-Napier-18598","Allen-Crabbe-16978","Tim-Hardaway-Jr.-16879","Anthony-Davis-13895","John-Collins-37823","Trae-Young-409063","Taurean-Prince-35218","Nikola-Jokic-31812","49900","296.35"
"Shabazz-Napier-18598","Tim-Hardaway-Jr.-16879","Taurean-Prince-35218","Anthony-Davis-13895","Karl-Anthony-Towns-18937","Gary-Harris-18617","Allen-Crabbe-16978","John-Collins-37823","49800","295.97"
"Shabazz-Napier-18598","Allen-Crabbe-16978","Tim-Hardaway-Jr.-16879","Anthony-Davis-13895","John-Collins-37823","Jeff-Teague-1005","Taurean-Prince-35218","Nikola-Jokic-31812","49500","295.96"
"Trae-Young-409063","Allen-Crabbe-16978","Taurean-Prince-35218","Anthony-Davis-13895","Karl-Anthony-Towns-18937","Jeff-Teague-1005","E'Twaun-Moore-18582","John-Collins-37823","50000","295.76"
"Jeff-Teague-1005","Tim-Hardaway-Jr.-16879","Taurean-Prince-35218","Anthony-Davis-13895","John-Collins-37823","Allen-Crabbe-16978","Alec-Burks-13353","Nikola-Jokic-31812","49800","295.63"
"Shabazz-Napier-18598","Tomas-Satoransky--36031","Taurean-Prince-35218","Anthony-Davis-13895","Karl-Anthony-Towns-18937","Jeff-Teague-1005","Allen-Crabbe-16978","Nikola-Jokic-31812","50000","295.6"
"Shabazz-Napier-18598","Gary-Harris-18617","Tim-Hardaway-Jr.-16879","Nikola-Mirotic-18584","John-Collins-37823","Jeff-Teague-1005","Taurean-Prince-35218","Anthony-Davis-13895","49900","295.59"
"Shabazz-Napier-18598","Kevin-Huerter-408969","Taurean-Prince-35218","Anthony-Davis-13895","Karl-Anthony-Towns-18937","Jeff-Teague-1005","Allen-Crabbe-16978","Nikola-Jokic-31812","50000","295.58"
"Shabazz-Napier-18598","Tim-Hardaway-Jr.-16879","Taurean-Prince-35218","Anthony-Davis-13895","John-Collins-37823","Trae-Young-409063","Dewayne-Dedmon-16894","Nikola-Jokic-31812","50000","295.44"
"Shabazz-Napier-18598","Tim-Hardaway-Jr.-16879","Taurean-Prince-35218","Anthony-Davis-13895","Nikola-Jokic-31812","Jeff-Teague-1005","E'Twaun-Moore-18582","John-Collins-37823","49900","295.43"
"Trae-Young-409063","Allen-Crabbe-16978","Taurean-Prince-35218","Anthony-Davis-13895","Karl-Anthony-Towns-18937","Jeff-Teague-1005","Dewayne-Dedmon-16894","John-Collins-37823","49700","295.38"
"Shabazz-Napier-18598","Tim-Hardaway-Jr.-16879","Taurean-Prince-35218","Noah-Vonleh-18597","John-Collins-37823","Allen-Crabbe-16978","Anthony-Davis-13895","Karl-Anthony-Towns-18937","50000","295.31"
"Shabazz-Napier-18598","Tim-Hardaway-Jr.-16879","Taurean-Prince-35218","Jonas-Jerebko-1106","John-Collins-37823","Jeff-Teague-1005","Anthony-Davis-13895","Nikola-Jokic-31812","50000","295.23"
"Tomas-Satoransky--36031","Tim-Hardaway-Jr.-16879","Taurean-Prince-35218","Anthony-Davis-13895","Karl-Anthony-Towns-18937","Gary-Harris-18617","Allen-Crabbe-16978","John-Collins-37823","50000","295.19"
"Jeff-Teague-1005","Allen-Crabbe-16978","Tim-Hardaway-Jr.-16879","Anthony-Davis-13895","John-Collins-37823","Tomas-Satoransky--36031","Taurean-Prince-35218","Nikola-Jokic-31812","49700","295.18"
"Shabazz-Napier-18598","Alec-Burks-13353","Taurean-Prince-35218","Nikola-Mirotic-18584","John-Collins-37823","Jeff-Teague-1005","Anthony-Davis-13895","Nikola-Jokic-31812","49900","295.18"
"Jeff-Teague-1005","Kevin-Huerter-408969","Tim-Hardaway-Jr.-16879","Anthony-Davis-13895","John-Collins-37823","Allen-Crabbe-16978","Taurean-Prince-35218","Nikola-Jokic-31812","49700","295.16"
"Shabazz-Napier-18598","Tim-Hardaway-Jr.-16879","Taurean-Prince-35218","Anthony-Davis-13895","Karl-Anthony-Towns-18937","Gary-Harris-18617","Dewayne-Dedmon-16894","John-Collins-37823","49900","295.06"
"Shabazz-Napier-18598","Jamal-Murray-35211","Taurean-Prince-35218","Anthony-Davis-13895","Karl-Anthony-Towns-18937","Jeff-Teague-1005","Allen-Crabbe-16978","John-Collins-37823","49800","295.05"
"Shabazz-Napier-18598","Tim-Hardaway-Jr.-16879","Taurean-Prince-35218","Anthony-Davis-13895","John-Collins-37823","Jeff-Teague-1005","Dewayne-Dedmon-16894","Nikola-Jokic-31812","49600","295.05"
"Trae-Young-409063","Reggie-Bullock-16943","Taurean-Prince-35218","Anthony-Davis-13895","Karl-Anthony-Towns-18937","Jeff-Teague-1005","Allen-Crabbe-16978","John-Collins-37823","49900","294.97"
"Jeff-Teague-1005","Allen-Crabbe-16978","Nikola-Mirotic-18584","Anthony-Davis-13895","Nikola-Jokic-31812","Gary-Harris-18617","Dewayne-Dedmon-16894","Taurean-Prince-35218","49900","294.75"
"Shabazz-Napier-18598","Tomas-Satoransky--36031","Taurean-Prince-35218","Nikola-Mirotic-18584","John-Collins-37823","Jeff-Teague-1005","Anthony-Davis-13895","Nikola-Jokic-31812","49800","294.73"
"Jeff-Teague-1005","Tim-Hardaway-Jr.-16879","Taurean-Prince-35218","Anthony-Davis-13895","John-Collins-37823","Alec-Burks-13353","Dewayne-Dedmon-16894","Nikola-Jokic-31812","49900","294.72"
"Shabazz-Napier-18598","Kevin-Huerter-408969","Taurean-Prince-35218","Nikola-Mirotic-18584","John-Collins-37823","Jeff-Teague-1005","Anthony-Davis-13895","Nikola-Jokic-31812","49800","294.71"
"Shabazz-Napier-18598","Langston-Galloway-18717","Tim-Hardaway-Jr.-16879","Anthony-Davis-13895","John-Collins-37823","Jeff-Teague-1005","Taurean-Prince-35218","Karl-Anthony-Towns-18937","50000","294.65"
"Shabazz-Napier-18598","Allen-Crabbe-16978","Tim-Hardaway-Jr.-16879","Anthony-Davis-13895","John-Collins-37823","Gary-Harris-18617","Taurean-Prince-35218","Andre-Drummond-13904","50000","294.65"
"Shabazz-Napier-18598","Reggie-Bullock-16943","Tim-Hardaway-Jr.-16879","Anthony-Davis-13895","John-Collins-37823","Jeff-Teague-1005","Taurean-Prince-35218","Nikola-Jokic-31812","49800","294.64"
"Jeff-Teague-1005","Tim-Hardaway-Jr.-16879","Taurean-Prince-35218","Mario-Hezonja-18923","John-Collins-37823","Allen-Crabbe-16978","Anthony-Davis-13895","Karl-Anthony-Towns-18937","50000","294.62"
"Shabazz-Napier-18598","Allen-Crabbe-16978","Taurean-Prince-35218","Anthony-Davis-13895","Nikola-Jokic-31812","Jeff-Teague-1005","Andrew-Wiggins-18620","Nikola-Mirotic-18584","50000","294.61"
"Trae-Young-409063","Shabazz-Napier-18598","Taurean-Prince-35218","Anthony-Davis-13895","Karl-Anthony-Towns-18937","Jeff-Teague-1005","Allen-Crabbe-16978","John-Collins-37823","49400","294.53"
"Jeff-Teague-1005","Allen-Crabbe-16978","Taurean-Prince-35218","Rondae-Hollis-Jefferson-18897","Nikola-Jokic-31812","Gary-Harris-18617","Anthony-Davis-13895","John-Collins-37823","49800","294.46"
"Jeff-Teague-1005","Allen-Crabbe-16978","Taurean-Prince-35218","Anthony-Davis-13895","Nikola-Jokic-31812","Gary-Harris-18617","Andrew-Wiggins-18620","John-Collins-37823","49700","294.39"
"Trae-Young-409063","Shabazz-Napier-18598","Taurean-Prince-35218","Anthony-Davis-13895","Karl-Anthony-Towns-18937","Jeff-Teague-1005","Rodney-Hood-18629","John-Collins-37823","50000","294.36"
"Shabazz-Napier-18598","Tim-Hardaway-Jr.-16879","Taurean-Prince-35218","Dario-Saric-36004","Nikola-Jokic-31812","Jeff-Teague-1005","Anthony-Davis-13895","John-Collins-37823","50000","294.29"
"Shabazz-Napier-18598","Gary-Harris-18617","Taurean-Prince-35218","Nikola-Mirotic-18584","Anthony-Davis-13895","Trae-Young-409063","Allen-Crabbe-16978","Nikola-Jokic-31812","50000","294.29"
"Jamal-Murray-35211","Tomas-Satoransky--36031","Taurean-Prince-35218","Anthony-Davis-13895","Karl-Anthony-Towns-18937","Jeff-Teague-1005","Allen-Crabbe-16978","John-Collins-37823","50000","294.27"
"Jeff-Teague-1005","Tim-Hardaway-Jr.-16879","Taurean-Prince-35218","Anthony-Davis-13895","John-Collins-37823","Tomas-Satoransky--36031","Dewayne-Dedmon-16894","Nikola-Jokic-31812","49800","294.27"
"Shabazz-Napier-18598","Tim-Hardaway-Jr.-16879","Taurean-Prince-35218","Anthony-Davis-13895","John-Collins-37823","Trae-Young-409063","Alec-Burks-13353","Nikola-Jokic-31812","50000","294.26"
"Jeff-Teague-1005","Tim-Hardaway-Jr.-16879","Taurean-Prince-35218","Anthony-Davis-13895","John-Collins-37823","Kevin-Huerter-408969","Dewayne-Dedmon-16894","Nikola-Jokic-31812","49800","294.25"
"Jamal-Murray-35211","Kevin-Huerter-408969","Taurean-Prince-35218","Anthony-Davis-13895","Karl-Anthony-Towns-18937","Jeff-Teague-1005","Allen-Crabbe-16978","John-Collins-37823","50000","294.25"
"Shabazz-Napier-18598","Tim-Hardaway-Jr.-16879","Taurean-Prince-35218","Anthony-Davis-13895","John-Collins-37823","Jeff-Teague-1005","Jordan-Bell-37877","Karl-Anthony-Towns-18937","50000","294.23"
"Trae-Young-409063","Alec-Burks-13353","Taurean-Prince-35218","Anthony-Davis-13895","Karl-Anthony-Towns-18937","Jeff-Teague-1005","Allen-Crabbe-16978","John-Collins-37823","49700","294.2"
"Shabazz-Napier-18598","Allen-Crabbe-16978","Taurean-Prince-35218","Nikola-Mirotic-18584","Jarrett-Allen-37794","Jeff-Teague-1005","Anthony-Davis-13895","Nikola-Jokic-31812","50000","294.16"
"Jeff-Teague-1005","Tim-Hardaway-Jr.-16879","Allen-Crabbe-16978","Anthony-Davis-13895","Nikola-Jokic-31812","Andrew-Wiggins-18620","Dewayne-Dedmon-16894","Taurean-Prince-35218","50000","294.15"
"Shabazz-Napier-18598","Jamal-Murray-35211","Taurean-Prince-35218","Anthony-Davis-13895","Karl-Anthony-Towns-18937","Jeff-Teague-1005","Dewayne-Dedmon-16894","John-Collins-37823","49900","294.14"
"Shabazz-Napier-18598","Allen-Crabbe-16978","Taurean-Prince-35218","Nikola-Mirotic-18584","John-Collins-37823","Andrew-Wiggins-18620","Anthony-Davis-13895","Nikola-Jokic-31812","49700","294.12"
"Shabazz-Napier-18598","Allen-Crabbe-16978","Taurean-Prince-35218","Anthony-Davis-13895","Karl-Anthony-Towns-18937","Andrew-Wiggins-18620","Dewayne-Dedmon-16894","Nikola-Jokic-31812","50000","294.08"
"Trae-Young-409063","Gary-Harris-18617","Tim-Hardaway-Jr.-16879","Nikola-Mirotic-18584","Karl-Anthony-Towns-18937","Jeff-Teague-1005","Taurean-Prince-35218","John-Collins-37823","49900","294.08"
"Trae-Young-409063","Reggie-Bullock-16943","Taurean-Prince-35218","Anthony-Davis-13895","Karl-Anthony-Towns-18937","Jeff-Teague-1005","Dewayne-Dedmon-16894","John-Collins-37823","50000","294.06"
"Trae-Young-409063","Allen-Crabbe-16978","Taurean-Prince-35218","Anthony-Davis-13895","John-Collins-37823","Jeff-Teague-1005","Dewayne-Dedmon-16894","Andre-Drummond-13904","49900","294.06"
"Trae-Young-409063","Shabazz-Napier-18598","Taurean-Prince-35218","Anthony-Davis-13895","Karl-Anthony-Towns-18937","Jeff-Teague-1005","E'Twaun-Moore-18582","John-Collins-37823","49800","294.0"
"Shabazz-Napier-18598","Tim-Hardaway-Jr.-16879","Taurean-Prince-35218","Ed-Davis-1265","John-Collins-37823","Jeff-Teague-1005","Anthony-Davis-13895","Karl-Anthony-Towns-18937","49900","293.98"
"Jeff-Teague-1005","Kevin-Huerter-408969","Taurean-Prince-35218","Nikola-Mirotic-18584","John-Collins-37823","Tomas-Satoransky--36031","Anthony-Davis-13895","Nikola-Jokic-31812","50000","293.93"
"Jeff-Teague-1005","Tim-Hardaway-Jr.-16879","Taurean-Prince-35218","Anthony-Davis-13895","John-Collins-37823","Allen-Crabbe-16978","Jared-Dudley-1319","Karl-Anthony-Towns-18937","49900","293.91"
"Shabazz-Napier-18598","Gary-Harris-18617","Taurean-Prince-35218","Nikola-Mirotic-18584","Anthony-Davis-13895","Jeff-Teague-1005","Allen-Crabbe-16978","Nikola-Jokic-31812","49600","293.9"
"Shabazz-Napier-18598","Tim-Hardaway-Jr.-16879","Taurean-Prince-35218","Anthony-Davis-13895","John-Collins-37823","Gary-Harris-18617","Alec-Burks-13353","Karl-Anthony-Towns-18937","49900","293.88"
"Shabazz-Napier-18598","Tim-Hardaway-Jr.-16879","Taurean-Prince-35218","Anthony-Davis-13895","John-Collins-37823","Jeff-Teague-1005","Alec-Burks-13353","Nikola-Jokic-31812","49600","293.87"
"Langston-Galloway-18717","Allen-Crabbe-16978","Taurean-Prince-35218","Nikola-Mirotic-18584","John-Collins-37823","Gary-Harris-18617","Anthony-Davis-13895","Karl-Anthony-Towns-18937","50000","293.86"
"Jeff-Teague-1005","Reggie-Bullock-16943","Tim-Hardaway-Jr.-16879","Anthony-Davis-13895","John-Collins-37823","Tomas-Satoransky--36031","Taurean-Prince-35218","Nikola-Jokic-31812","50000","293.86"
"Langston-Galloway-18717","Allen-Crabbe-16978","Taurean-Prince-35218","Nikola-Mirotic-18584","John-Collins-37823","Jeff-Teague-1005","Anthony-Davis-13895","Nikola-Jokic-31812","49700","293.85"
"Jeff-Teague-1005","Kevin-Huerter-408969","Tim-Hardaway-Jr.-16879","Anthony-Davis-13895","John-Collins-37823","Reggie-Bullock-16943","Taurean-Prince-35218","Nikola-Jokic-31812","50000","293.84"
"Jeff-Teague-1005","Tim-Hardaway-Jr.-16879","Taurean-Prince-35218","Jeff-Green-1314","Nikola-Jokic-31812","Allen-Crabbe-16978","Anthony-Davis-13895","John-Collins-37823","49800","293.83"
"Trae-Young-409063","Tim-Hardaway-Jr.-16879","Allen-Crabbe-16978","Anthony-Davis-13895","Nikola-Jokic-31812","Gary-Harris-18617","Dewayne-Dedmon-16894","Taurean-Prince-35218","50000","293.83"
"Shabazz-Napier-18598","Gary-Harris-18617","Tim-Hardaway-Jr.-16879","Anthony-Davis-13895","Nikola-Jokic-31812","Jeff-Teague-1005","Allen-Crabbe-16978","John-Collins-37823","49800","293.82"
"Jeff-Teague-1005","E'Twaun-Moore-18582","Tim-Hardaway-Jr.-16879","Anthony-Davis-13895","Nikola-Jokic-31812","Gary-Harris-18617","Allen-Crabbe-16978","Taurean-Prince-35218","49900","293.82"
"Shabazz-Napier-18598","Tomas-Satoransky--36031","Tim-Hardaway-Jr.-16879","Anthony-Davis-13895","John-Collins-37823","Trae-Young-409063","Taurean-Prince-35218","Nikola-Jokic-31812","49900","293.81"
"Langston-Galloway-18717","Allen-Crabbe-16978","Taurean-Prince-35218","Anthony-Davis-13895","Karl-Anthony-Towns-18937","Jeff-Teague-1005","Dewayne-Dedmon-16894","Nikola-Jokic-31812","50000","293.81"
"Trae-Young-409063","Shabazz-Napier-18598","Taurean-Prince-35218","Jonas-Jerebko-1106","John-Collins-37823","Jeff-Teague-1005","Anthony-Davis-13895","Karl-Anthony-Towns-18937","49900","293.8"
"Shabazz-Napier-18598","Kevin-Huerter-408969","Tim-Hardaway-Jr.-16879","Anthony-Davis-13895","John-Collins-37823","Trae-Young-409063","Taurean-Prince-35218","Nikola-Jokic-31812","49900","293.79"
"Shabazz-Napier-18598","Allen-Crabbe-16978","Taurean-Prince-35218","Anthony-Davis-13895","Karl-Anthony-Towns-18937","Gary-Harris-18617","E'Twaun-Moore-18582","Nikola-Jokic-31812","49900","293.75"
"Shabazz-Napier-18598","Jamal-Murray-35211","Tim-Hardaway-Jr.-16879","Anthony-Davis-13895","John-Collins-37823","Jeff-Teague-1005","Taurean-Prince-35218","Trae-Young-409063","50000","293.75"
"Trae-Young-409063","Tomas-Satoransky--36031","Taurean-Prince-35218","Anthony-Davis-13895","Karl-Anthony-Towns-18937","Jeff-Teague-1005","Allen-Crabbe-16978","John-Collins-37823","49600","293.75"
"Trae-Young-409063","Kevin-Huerter-408969","Taurean-Prince-35218","Anthony-Davis-13895","Karl-Anthony-Towns-18937","Jeff-Teague-1005","Allen-Crabbe-16978","John-Collins-37823","49600","293.73"
"Shabazz-Napier-18598","Jamal-Murray-35211","Taurean-Prince-35218","Anthony-Davis-13895","Andre-Drummond-13904","Jeff-Teague-1005","Allen-Crabbe-16978","John-Collins-37823","50000","293.73"
"Jeff-Teague-1005","Allen-Crabbe-16978","Taurean-Prince-35218","Noah-Vonleh-18597","Nikola-Jokic-31812","Andrew-Wiggins-18620","Anthony-Davis-13895","John-Collins-37823","49900","293.73"
"Jeff-Teague-1005","Tim-Hardaway-Jr.-16879","Taurean-Prince-35218","Anthony-Davis-13895","Jarrett-Allen-37794","Allen-Crabbe-16978","Dewayne-Dedmon-16894","Nikola-Jokic-31812","50000","293.7"
"Trae-Young-409063","Shabazz-Napier-18598","Taurean-Prince-35218","Anthony-Davis-13895","John-Collins-37823","Jeff-Teague-1005","Larry-Nance-18946","Nikola-Jokic-31812","50000","293.66"
"Trae-Young-409063","Shabazz-Napier-18598","Taurean-Prince-35218","Anthony-Davis-13895","Karl-Anthony-Towns-18937","Jeff-Teague-1005","Dewayne-Dedmon-16894","John-Collins-37823","49500","293.62"
"Jeff-Teague-1005","Tim-Hardaway-Jr.-16879","Allen-Crabbe-16978","Jonas-Jerebko-1106","Nikola-Jokic-31812","Gary-Harris-18617","Anthony-Davis-13895","Taurean-Prince-35218","50000","293.62"
"Jeff-Teague-1005","Allen-Crabbe-16978","Taurean-Prince-35218","Nikola-Mirotic-18584","Nikola-Jokic-31812","Gary-Harris-18617","Alec-Burks-13353","Anthony-Davis-13895","49900","293.57"
"Jeff-Teague-1005","Allen-Crabbe-16978","Taurean-Prince-35218","Nikola-Mirotic-18584","John-Collins-37823","Gary-Harris-18617","Anthony-Davis-13895","Julius-Randle-18632","49900","293.57"
"Shabazz-Napier-18598","Allen-Crabbe-16978","Taurean-Prince-35218","Jonas-Jerebko-1106","Karl-Anthony-Towns-18937","Gary-Harris-18617","Anthony-Davis-13895","Nikola-Jokic-31812","50000","293.55"
"Shabazz-Napier-18598","Tim-Hardaway-Jr.-16879","Taurean-Prince-35218","Anthony-Davis-13895","Nikola-Jokic-31812","Allen-Crabbe-16978","E'Twaun-Moore-18582","Nikola-Mirotic-18584","49900","293.55"
"Jeff-Teague-1005","Andrew-Wiggins-18620","Taurean-Prince-35218","Anthony-Davis-13895","John-Collins-37823","Gary-Harris-18617","Dewayne-Dedmon-16894","Nikola-Jokic-31812","49800","293.48"
"Shabazz-Napier-18598","Tim-Hardaway-Jr.-16879","Taurean-Prince-35218","Anthony-Davis-13895","John-Collins-37823","Allen-Crabbe-16978","Larry-Nance-18946","Karl-Anthony-Towns-18937","49800","293.46"
"Jeff-Teague-1005","Tim-Hardaway-Jr.-16879","Allen-Crabbe-16978","Anthony-Davis-13895","Nikola-Jokic-31812","Gary-Harris-18617","Dewayne-Dedmon-16894","Taurean-Prince-35218","49600","293.44"
"Shabazz-Napier-18598","Tomas-Satoransky--36031","Tim-Hardaway-Jr.-16879","Anthony-Davis-13895","John-Collins-37823","Gary-Harris-18617","Taurean-Prince-35218","Karl-Anthony-Towns-18937","49800","293.43"
"Shabazz-Napier-18598","Tomas-Satoransky--36031","Tim-Hardaway-Jr.-16879","Anthony-Davis-13895","John-Collins-37823","Jeff-Teague-1005","Taurean-Prince-35218","Nikola-Jokic-31812","49500","293.42"
"Shabazz-Napier-18598","Kevin-Huerter-408969","Tim-Hardaway-Jr.-16879","Anthony-Davis-13895","John-Collins-37823","Gary-Harris-18617","Taurean-Prince-35218","Karl-Anthony-Towns-18937","49800","293.41"
"Jeff-Teague-1005","Allen-Crabbe-16978","Taurean-Prince-35218","Julius-Randle-18632","Nikola-Jokic-31812","E'Twaun-Moore-18582","Anthony-Davis-13895","John-Collins-37823","49900","293.41"
"Trae-Young-409063","Allen-Crabbe-16978","Taurean-Prince-35218","Noah-Vonleh-18597","Nikola-Jokic-31812","Gary-Harris-18617","Anthony-Davis-13895","John-Collins-37823","49900","293.41"
"Shabazz-Napier-18598","Andrew-Wiggins-18620","Taurean-Prince-35218","Rondae-Hollis-Jefferson-18897","Nikola-Jokic-31812","Jeff-Teague-1005","Anthony-Davis-13895","John-Collins-37823","50000","293.41"
"Shabazz-Napier-18598","Allen-Crabbe-16978","Taurean-Prince-35218","Nikola-Mirotic-18584","John-Collins-37823","Gary-Harris-18617","Anthony-Davis-13895","Nikola-Jokic-31812","49300","293.41"
"Shabazz-Napier-18598","Kevin-Huerter-408969","Tim-Hardaway-Jr.-16879","Anthony-Davis-13895","John-Collins-37823","Jeff-Teague-1005","Taurean-Prince-35218","Nikola-Jokic-31812","49500","293.4"
