"De'Aaron-Fox-37900","Jamal-Murray-35211","Nemanja-Bjelica-31814","Montrezl-Harrell-18930","Willie-Cauley-Stein-18951","Bogdan-Bogdanovic-37899","Mason-Plumlee-16798","Julius-Randle-18632","50000","285.2"
"Jamal-Murray-35211","Buddy-Hield-35206","Nemanja-Bjelica-31814","Julius-Randle-18632","Montrezl-Harrell-18930","Wesley-Matthews-1339","LaMarcus-Aldridge-1349","Willie-Cauley-Stein-18951","50000","284.59"
"De'Aaron-Fox-37900","Jamal-Murray-35211","Nemanja-Bjelica-31814","Julius-Randle-18632","DeAndre-Jordan-1486","Wesley-Matthews-1339","Mason-Plumlee-16798","Willie-Cauley-Stein-18951","49600","284.38"

"De'Aaron-Fox-37900","Jamal-Murray-35211","Nemanja-Bjelica-31814","Montrezl-Harrell-18930","Willie-Cauley-Stein-18951","Bogdan-Bogdanovic-37899","Mason-Plumlee-16798","Julius-Randle-18632","50000","285.2"
"Jamal-Murray-35211","Buddy-Hield-35206","Nemanja-Bjelica-31814","Julius-Randle-18632","Montrezl-Harrell-18930","Wesley-Matthews-1339","LaMarcus-Aldridge-1349","Willie-Cauley-Stein-18951","50000","284.59"
"De'Aaron-Fox-37900","Jamal-Murray-35211","Nemanja-Bjelica-31814","Julius-Randle-18632","DeAndre-Jordan-1486","Wesley-Matthews-1339","Mason-Plumlee-16798","Willie-Cauley-Stein-18951","49600","284.38"
"De'Aaron-Fox-37900","Jamal-Murray-35211","Nemanja-Bjelica-31814","Julius-Randle-18632","DeAndre-Jordan-1486","J.J.-Barea-18605","Mason-Plumlee-16798","Willie-Cauley-Stein-18951","50000","284.27"
"Jamal-Murray-35211","Bogdan-Bogdanovic-37899","Nemanja-Bjelica-31814","Julius-Randle-18632","DeAndre-Jordan-1486","Buddy-Hield-35206","Mason-Plumlee-16798","Willie-Cauley-Stein-18951","49700","284.18"
"De'Aaron-Fox-37900","Buddy-Hield-35206","Nemanja-Bjelica-31814","Montrezl-Harrell-18930","Willie-Cauley-Stein-18951","Wesley-Matthews-1339","Mason-Plumlee-16798","Julius-Randle-18632","49800","284.14"
"Jamal-Murray-35211","Buddy-Hield-35206","Nemanja-Bjelica-31814","Julius-Randle-18632","DeAndre-Jordan-1486","Wesley-Matthews-1339","Montrezl-Harrell-18930","Willie-Cauley-Stein-18951","49200","284.06"
"De'Aaron-Fox-37900","Jamal-Murray-35211","Nemanja-Bjelica-31814","Julius-Randle-18632","DeAndre-Jordan-1486","Shai-Gilgeous-Alexander-408990","Mason-Plumlee-16798","Willie-Cauley-Stein-18951","49700","283.98"
"Jamal-Murray-35211","Buddy-Hield-35206","Nemanja-Bjelica-31814","Julius-Randle-18632","DeAndre-Jordan-1486","J.J.-Barea-18605","Montrezl-Harrell-18930","Willie-Cauley-Stein-18951","49600","283.95"
"Jamal-Murray-35211","J.J.-Barea-18605","Nemanja-Bjelica-31814","Julius-Randle-18632","Nikola-Jokic-31812","Wesley-Matthews-1339","Montrezl-Harrell-18930","Willie-Cauley-Stein-18951","50000","283.81"
"De'Aaron-Fox-37900","Shai-Gilgeous-Alexander-408990","Nemanja-Bjelica-31814","Montrezl-Harrell-18930","Willie-Cauley-Stein-18951","Buddy-Hield-35206","Mason-Plumlee-16798","Julius-Randle-18632","49900","283.74"
"Jamal-Murray-35211","DeMar-DeRozan-1053","Nemanja-Bjelica-31814","Julius-Randle-18632","DeAndre-Jordan-1486","Wesley-Matthews-1339","Montrezl-Harrell-18930","Willie-Cauley-Stein-18951","49900","283.69"
"Jamal-Murray-35211","Shai-Gilgeous-Alexander-408990","Nemanja-Bjelica-31814","Julius-Randle-18632","DeAndre-Jordan-1486","Buddy-Hield-35206","Montrezl-Harrell-18930","Willie-Cauley-Stein-18951","49300","283.66"
"Jamal-Murray-35211","Shai-Gilgeous-Alexander-408990","Nemanja-Bjelica-31814","Julius-Randle-18632","Nikola-Jokic-31812","Wesley-Matthews-1339","Montrezl-Harrell-18930","Willie-Cauley-Stein-18951","49700","283.52"
"Jamal-Murray-35211","Buddy-Hield-35206","Tobias-Harris-13332","Nemanja-Bjelica-31814","Willie-Cauley-Stein-18951","Wesley-Matthews-1339","Mason-Plumlee-16798","Julius-Randle-18632","50000","283.3"
"Jamal-Murray-35211","Shai-Gilgeous-Alexander-408990","Nemanja-Bjelica-31814","Julius-Randle-18632","DeAndre-Jordan-1486","DeMar-DeRozan-1053","Montrezl-Harrell-18930","Willie-Cauley-Stein-18951","50000","283.29"
"De'Aaron-Fox-37900","Jamal-Murray-35211","Nemanja-Bjelica-31814","Julius-Randle-18632","DeAndre-Jordan-1486","Derrick-White-37858","Montrezl-Harrell-18930","Willie-Cauley-Stein-18951","49500","283.27"
"Jamal-Murray-35211","Derrick-White-37858","Nemanja-Bjelica-31814","Julius-Randle-18632","Nikola-Jokic-31812","Bogdan-Bogdanovic-37899","Montrezl-Harrell-18930","Willie-Cauley-Stein-18951","50000","282.93"
"Jamal-Murray-35211","Luka-Doncic-408971","Nemanja-Bjelica-31814","Julius-Randle-18632","DeAndre-Jordan-1486","Wesley-Matthews-1339","Mason-Plumlee-16798","Willie-Cauley-Stein-18951","49700","282.83"
"Jamal-Murray-35211","Derrick-White-37858","Nemanja-Bjelica-31814","Anthony-Davis-13895","Willie-Cauley-Stein-18951","Bryn-Forbes-36052","Mason-Plumlee-16798","Julius-Randle-18632","49900","282.82"
"Jamal-Murray-35211","Bogdan-Bogdanovic-37899","Buddy-Hield-35206","Julius-Randle-18632","DeAndre-Jordan-1486","Wesley-Matthews-1339","Montrezl-Harrell-18930","Willie-Cauley-Stein-18951","49900","282.82"
"De'Aaron-Fox-37900","Jamal-Murray-35211","Buddy-Hield-35206","Julius-Randle-18632","Willie-Cauley-Stein-18951","Derrick-White-37858","Nemanja-Bjelica-31814","Mason-Plumlee-16798","49700","282.82"
"Jamal-Murray-35211","Shai-Gilgeous-Alexander-408990","Wesley-Matthews-1339","Julius-Randle-18632","Willie-Cauley-Stein-18951","Derrick-White-37858","Anthony-Davis-13895","Nemanja-Bjelica-31814","49900","282.81"
"Jamal-Murray-35211","Derrick-White-37858","Nemanja-Bjelica-31814","Julius-Randle-18632","DeAndre-Jordan-1486","Buddy-Hield-35206","LaMarcus-Aldridge-1349","Willie-Cauley-Stein-18951","50000","282.78"
"Patty-Mills-13977","Jamal-Murray-35211","Nemanja-Bjelica-31814","Julius-Randle-18632","Montrezl-Harrell-18930","Derrick-White-37858","Anthony-Davis-13895","Willie-Cauley-Stein-18951","50000","282.74"
"Jamal-Murray-35211","Derrick-White-37858","Nemanja-Bjelica-31814","Julius-Randle-18632","Montrezl-Harrell-18930","Wesley-Matthews-1339","Anthony-Davis-13895","Mason-Plumlee-16798","49700","282.69"
"Jamal-Murray-35211","Jrue-Holiday-1073","Nemanja-Bjelica-31814","Montrezl-Harrell-18930","Willie-Cauley-Stein-18951","Wesley-Matthews-1339","Mason-Plumlee-16798","Julius-Randle-18632","49500","282.65"
"De'Aaron-Fox-37900","Jamal-Murray-35211","Wesley-Matthews-1339","Julius-Randle-18632","Willie-Cauley-Stein-18951","Shai-Gilgeous-Alexander-408990","Montrezl-Harrell-18930","DeAndre-Jordan-1486","49900","282.62"
"Shai-Gilgeous-Alexander-408990","Buddy-Hield-35206","Nemanja-Bjelica-31814","Julius-Randle-18632","Willie-Cauley-Stein-18951","Wesley-Matthews-1339","Mason-Plumlee-16798","Nikola-Jokic-31812","50000","282.58"
"Jamal-Murray-35211","Jrue-Holiday-1073","Nemanja-Bjelica-31814","Montrezl-Harrell-18930","Willie-Cauley-Stein-18951","J.J.-Barea-18605","Mason-Plumlee-16798","Julius-Randle-18632","49900","282.54"
"Jamal-Murray-35211","Derrick-White-37858","Nemanja-Bjelica-31814","Julius-Randle-18632","Montrezl-Harrell-18930","Devin-Harris-1076","Anthony-Davis-13895","Willie-Cauley-Stein-18951","50000","282.5"
"Jamal-Murray-35211","Shai-Gilgeous-Alexander-408990","Nemanja-Bjelica-31814","Anthony-Davis-13895","DeAndre-Jordan-1486","Wesley-Matthews-1339","Mason-Plumlee-16798","Willie-Cauley-Stein-18951","49800","282.48"
"Jamal-Murray-35211","Shai-Gilgeous-Alexander-408990","Nemanja-Bjelica-31814","Julius-Randle-18632","DeAndre-Jordan-1486","Luka-Doncic-408971","Mason-Plumlee-16798","Willie-Cauley-Stein-18951","49800","282.43"
"Jamal-Murray-35211","Shai-Gilgeous-Alexander-408990","Buddy-Hield-35206","Julius-Randle-18632","DeAndre-Jordan-1486","Bogdan-Bogdanovic-37899","Montrezl-Harrell-18930","Willie-Cauley-Stein-18951","50000","282.42"
"De'Aaron-Fox-37900","Derrick-White-37858","Nemanja-Bjelica-31814","Julius-Randle-18632","DeAndre-Jordan-1486","Buddy-Hield-35206","Mason-Plumlee-16798","Willie-Cauley-Stein-18951","49800","282.33"
"Shai-Gilgeous-Alexander-408990","Derrick-White-37858","Nemanja-Bjelica-31814","Julius-Randle-18632","DeAndre-Jordan-1486","Wesley-Matthews-1339","Anthony-Davis-13895","Willie-Cauley-Stein-18951","50000","282.32"
"Jamal-Murray-35211","Shai-Gilgeous-Alexander-408990","Nemanja-Bjelica-31814","Julius-Randle-18632","Montrezl-Harrell-18930","Derrick-White-37858","Anthony-Davis-13895","Mason-Plumlee-16798","49800","282.29"
"Jamal-Murray-35211","Shai-Gilgeous-Alexander-408990","Nemanja-Bjelica-31814","Montrezl-Harrell-18930","Willie-Cauley-Stein-18951","Jrue-Holiday-1073","Mason-Plumlee-16798","Julius-Randle-18632","49600","282.25"
"Shai-Gilgeous-Alexander-408990","Buddy-Hield-35206","Nemanja-Bjelica-31814","Anthony-Davis-13895","Willie-Cauley-Stein-18951","Wesley-Matthews-1339","Montrezl-Harrell-18930","Mason-Plumlee-16798","50000","282.24"
"De'Aaron-Fox-37900","Jamal-Murray-35211","Nemanja-Bjelica-31814","Julius-Randle-18632","DeAndre-Jordan-1486","Bogdan-Bogdanovic-37899","Wesley-Matthews-1339","Willie-Cauley-Stein-18951","50000","282.23"
"Jamal-Murray-35211","Derrick-White-37858","Tobias-Harris-13332","Julius-Randle-18632","Montrezl-Harrell-18930","Buddy-Hield-35206","Nemanja-Bjelica-31814","Willie-Cauley-Stein-18951","49900","282.19"
"Shai-Gilgeous-Alexander-408990","Buddy-Hield-35206","Nemanja-Bjelica-31814","Montrezl-Harrell-18930","Willie-Cauley-Stein-18951","Luka-Doncic-408971","Mason-Plumlee-16798","Julius-Randle-18632","50000","282.19"
"De'Aaron-Fox-37900","Jamal-Murray-35211","Nemanja-Bjelica-31814","Montrezl-Harrell-18930","Willie-Cauley-Stein-18951","Wesley-Matthews-1339","Mason-Plumlee-16798","Julius-Randle-18632","48900","282.14"
"De'Aaron-Fox-37900","Jamal-Murray-35211","Rudy-Gay-1341","Julius-Randle-18632","Willie-Cauley-Stein-18951","Wesley-Matthews-1339","Mason-Plumlee-16798","Montrezl-Harrell-18930","50000","282.14"
"Jamal-Murray-35211","Derrick-White-37858","DeMar-DeRozan-1053","Julius-Randle-18632","Willie-Cauley-Stein-18951","Buddy-Hield-35206","Nemanja-Bjelica-31814","Montrezl-Harrell-18930","50000","282.13"
"De'Aaron-Fox-37900","Jamal-Murray-35211","Nemanja-Bjelica-31814","Montrezl-Harrell-18930","Willie-Cauley-Stein-18951","J.J.-Barea-18605","Mason-Plumlee-16798","Julius-Randle-18632","49300","282.03"
"Jamal-Murray-35211","Buddy-Hield-35206","Nemanja-Bjelica-31814","Montrezl-Harrell-18930","Willie-Cauley-Stein-18951","Wesley-Matthews-1339","Mason-Plumlee-16798","Nikola-Jokic-31812","49600","282.03"
"Jamal-Murray-35211","Bogdan-Bogdanovic-37899","Nemanja-Bjelica-31814","Montrezl-Harrell-18930","Willie-Cauley-Stein-18951","Buddy-Hield-35206","Mason-Plumlee-16798","Julius-Randle-18632","49000","281.94"
"Jamal-Murray-35211","Buddy-Hield-35206","Nemanja-Bjelica-31814","Montrezl-Harrell-18930","Willie-Cauley-Stein-18951","J.J.-Barea-18605","Mason-Plumlee-16798","Nikola-Jokic-31812","50000","281.92"
"Derrick-White-37858","Buddy-Hield-35206","Nemanja-Bjelica-31814","Julius-Randle-18632","Nikola-Jokic-31812","Wesley-Matthews-1339","Montrezl-Harrell-18930","Willie-Cauley-Stein-18951","49800","281.87"
"De'Aaron-Fox-37900","Jamal-Murray-35211","Trey-Lyles-18942","Julius-Randle-18632","Willie-Cauley-Stein-18951","Buddy-Hield-35206","Mason-Plumlee-16798","Nemanja-Bjelica-31814","49900","281.83"
"Jamal-Murray-35211","Buddy-Hield-35206","Nemanja-Bjelica-31814","Montrezl-Harrell-18930","Willie-Cauley-Stein-18951","DeMar-DeRozan-1053","Mason-Plumlee-16798","DeAndre-Jordan-1486","49900","281.8"
"Jamal-Murray-35211","Derrick-White-37858","Nemanja-Bjelica-31814","Anthony-Davis-13895","Willie-Cauley-Stein-18951","Wesley-Matthews-1339","Montrezl-Harrell-18930","DeAndre-Jordan-1486","49600","281.77"
"De'Aaron-Fox-37900","Jamal-Murray-35211","Nemanja-Bjelica-31814","Montrezl-Harrell-18930","Willie-Cauley-Stein-18951","Shai-Gilgeous-Alexander-408990","Mason-Plumlee-16798","Julius-Randle-18632","49000","281.74"
"De'Aaron-Fox-37900","Jamal-Murray-35211","Nemanja-Bjelica-31814","Julius-Randle-18632","DeAndre-Jordan-1486","Bryn-Forbes-36052","Montrezl-Harrell-18930","Willie-Cauley-Stein-18951","49600","281.72"
"Jamal-Murray-35211","Derrick-White-37858","Nemanja-Bjelica-31814","Julius-Randle-18632","DeAndre-Jordan-1486","Luka-Doncic-408971","Montrezl-Harrell-18930","Willie-Cauley-Stein-18951","49600","281.72"
"De'Aaron-Fox-37900","Jamal-Murray-35211","Nemanja-Bjelica-31814","Julius-Randle-18632","DeAndre-Jordan-1486","Bogdan-Bogdanovic-37899","Mason-Plumlee-16798","Montrezl-Harrell-18930","49900","281.71"
"Jamal-Murray-35211","Derrick-White-37858","Nemanja-Bjelica-31814","Anthony-Davis-13895","Willie-Cauley-Stein-18951","J.J.-Barea-18605","Montrezl-Harrell-18930","DeAndre-Jordan-1486","50000","281.66"
"Jamal-Murray-35211","Buddy-Hield-35206","Nemanja-Bjelica-31814","Julius-Randle-18632","Willie-Cauley-Stein-18951","Wesley-Matthews-1339","Mason-Plumlee-16798","LaMarcus-Aldridge-1349","49400","281.65"
"Jamal-Murray-35211","Shai-Gilgeous-Alexander-408990","Nemanja-Bjelica-31814","Montrezl-Harrell-18930","Willie-Cauley-Stein-18951","Buddy-Hield-35206","Mason-Plumlee-16798","Nikola-Jokic-31812","49700","281.63"
"De'Aaron-Fox-37900","Jamal-Murray-35211","Nemanja-Bjelica-31814","Julius-Randle-18632","Jakob-Poeltl-35187","Buddy-Hield-35206","Montrezl-Harrell-18930","Willie-Cauley-Stein-18951","49900","281.59"
"Jamal-Murray-35211","Bogdan-Bogdanovic-37899","Nemanja-Bjelica-31814","Montrezl-Harrell-18930","Willie-Cauley-Stein-18951","DeMar-DeRozan-1053","Mason-Plumlee-16798","Julius-Randle-18632","49700","281.57"
"Jamal-Murray-35211","Derrick-White-37858","Juan-Hernangomez-35212","Julius-Randle-18632","Anthony-Davis-13895","Wesley-Matthews-1339","Nemanja-Bjelica-31814","Willie-Cauley-Stein-18951","49900","281.56"
"Jamal-Murray-35211","Buddy-Hield-35206","Nemanja-Bjelica-31814","Julius-Randle-18632","Willie-Cauley-Stein-18951","J.J.-Barea-18605","Mason-Plumlee-16798","LaMarcus-Aldridge-1349","49800","281.54"
"Shai-Gilgeous-Alexander-408990","Derrick-White-37858","Nemanja-Bjelica-31814","Julius-Randle-18632","Nikola-Jokic-31812","Buddy-Hield-35206","Montrezl-Harrell-18930","Willie-Cauley-Stein-18951","49900","281.47"
"De'Aaron-Fox-37900","Jamal-Murray-35211","Buddy-Hield-35206","Julius-Randle-18632","Willie-Cauley-Stein-18951","Derrick-White-37858","Wesley-Matthews-1339","Montrezl-Harrell-18930","49900","281.46"
"Jamal-Murray-35211","Derrick-White-37858","Nemanja-Bjelica-31814","Anthony-Davis-13895","Willie-Cauley-Stein-18951","Iman-Shumpert-13350","Mason-Plumlee-16798","Julius-Randle-18632","49600","281.46"
"Jamal-Murray-35211","Shai-Gilgeous-Alexander-408990","Nemanja-Bjelica-31814","Anthony-Davis-13895","Willie-Cauley-Stein-18951","Derrick-White-37858","Montrezl-Harrell-18930","DeAndre-Jordan-1486","49700","281.37"
"De'Aaron-Fox-37900","Jamal-Murray-35211","Juan-Hernangomez-35212","Julius-Randle-18632","Willie-Cauley-Stein-18951","Wesley-Matthews-1339","Montrezl-Harrell-18930","DeAndre-Jordan-1486","49900","281.37"
"Jamal-Murray-35211","Derrick-White-37858","Buddy-Hield-35206","Nemanja-Bjelica-31814","Willie-Cauley-Stein-18951","Wesley-Matthews-1339","Anthony-Davis-13895","Mason-Plumlee-16798","49800","281.32"
"Jamal-Murray-35211","Derrick-White-37858","Luka-Doncic-408971","Julius-Randle-18632","Willie-Cauley-Stein-18951","Buddy-Hield-35206","Mason-Plumlee-16798","Nemanja-Bjelica-31814","49800","281.27"
"De'Aaron-Fox-37900","Jamal-Murray-35211","Buddy-Hield-35206","Julius-Randle-18632","Willie-Cauley-Stein-18951","Bryn-Forbes-36052","Nemanja-Bjelica-31814","Mason-Plumlee-16798","49800","281.27"
"Jamal-Murray-35211","Shai-Gilgeous-Alexander-408990","Wesley-Matthews-1339","Julius-Randle-18632","Willie-Cauley-Stein-18951","Bryn-Forbes-36052","Anthony-Davis-13895","Nemanja-Bjelica-31814","50000","281.26"
"De'Aaron-Fox-37900","Jamal-Murray-35211","Buddy-Hield-35206","Nemanja-Bjelica-31814","Willie-Cauley-Stein-18951","Shai-Gilgeous-Alexander-408990","Wesley-Matthews-1339","Julius-Randle-18632","49800","281.26"
"Jamal-Murray-35211","Shai-Gilgeous-Alexander-408990","Nemanja-Bjelica-31814","Julius-Randle-18632","Willie-Cauley-Stein-18951","Buddy-Hield-35206","Mason-Plumlee-16798","LaMarcus-Aldridge-1349","49500","281.25"
"De'Aaron-Fox-37900","Jamal-Murray-35211","Nemanja-Bjelica-31814","Montrezl-Harrell-18930","Willie-Cauley-Stein-18951","Derrick-White-37858","Mason-Plumlee-16798","Nikola-Jokic-31812","49900","281.24"
"De'Aaron-Fox-37900","Jamal-Murray-35211","Nemanja-Bjelica-31814","Julius-Randle-18632","Montrezl-Harrell-18930","Wesley-Matthews-1339","Rudy-Gay-1341","Willie-Cauley-Stein-18951","49700","281.23"
"De'Aaron-Fox-37900","Jamal-Murray-35211","Nemanja-Bjelica-31814","Julius-Randle-18632","DeAndre-Jordan-1486","Monte-Morris-37860","Mason-Plumlee-16798","Willie-Cauley-Stein-18951","49800","281.19"
"Patty-Mills-13977","Jamal-Murray-35211","Buddy-Hield-35206","Nemanja-Bjelica-31814","Willie-Cauley-Stein-18951","De'Aaron-Fox-37900","Montrezl-Harrell-18930","Julius-Randle-18632","49900","281.19"
"Jamal-Murray-35211","Bogdan-Bogdanovic-37899","Juan-Hernangomez-35212","Julius-Randle-18632","Willie-Cauley-Stein-18951","Buddy-Hield-35206","Montrezl-Harrell-18930","DeAndre-Jordan-1486","50000","281.17"
"Jamal-Murray-35211","Shai-Gilgeous-Alexander-408990","Juan-Hernangomez-35212","Julius-Randle-18632","Anthony-Davis-13895","Derrick-White-37858","Nemanja-Bjelica-31814","Willie-Cauley-Stein-18951","50000","281.16"
"De'Aaron-Fox-37900","Jamal-Murray-35211","Wesley-Matthews-1339","Julius-Randle-18632","Montrezl-Harrell-18930","Buddy-Hield-35206","Mason-Plumlee-16798","Nemanja-Bjelica-31814","49600","281.14"
"Jamal-Murray-35211","Bryn-Forbes-36052","Nemanja-Bjelica-31814","Julius-Randle-18632","Montrezl-Harrell-18930","Wesley-Matthews-1339","Anthony-Davis-13895","Mason-Plumlee-16798","49800","281.14"
"De'Aaron-Fox-37900","Jamal-Murray-35211","Wesley-Matthews-1339","Montrezl-Harrell-18930","Willie-Cauley-Stein-18951","Buddy-Hield-35206","Mason-Plumlee-16798","DeAndre-Jordan-1486","49800","281.13"
"Jamal-Murray-35211","Buddy-Hield-35206","Rudy-Gay-1341","Julius-Randle-18632","DeAndre-Jordan-1486","Wesley-Matthews-1339","Mason-Plumlee-16798","Willie-Cauley-Stein-18951","49700","281.12"
"Jamal-Murray-35211","Buddy-Hield-35206","Nemanja-Bjelica-31814","Julius-Randle-18632","DeAndre-Jordan-1486","Wesley-Matthews-1339","Mason-Plumlee-16798","Willie-Cauley-Stein-18951","48600","281.12"
"Jamal-Murray-35211","Buddy-Hield-35206","Nemanja-Bjelica-31814","Julius-Randle-18632","Montrezl-Harrell-18930","Wesley-Matthews-1339","LaMarcus-Aldridge-1349","DeAndre-Jordan-1486","49900","281.1"
"Shai-Gilgeous-Alexander-408990","J.J.-Barea-18605","Nemanja-Bjelica-31814","Anthony-Davis-13895","Willie-Cauley-Stein-18951","Wesley-Matthews-1339","Mason-Plumlee-16798","Julius-Randle-18632","49800","281.08"
"Jamal-Murray-35211","Shai-Gilgeous-Alexander-408990","Luka-Doncic-408971","Julius-Randle-18632","DeAndre-Jordan-1486","Wesley-Matthews-1339","Montrezl-Harrell-18930","Willie-Cauley-Stein-18951","50000","281.07"
"De'Aaron-Fox-37900","Jamal-Murray-35211","Buddy-Hield-35206","Julius-Randle-18632","Willie-Cauley-Stein-18951","Shai-Gilgeous-Alexander-408990","Montrezl-Harrell-18930","Derrick-White-37858","50000","281.06"
"De'Aaron-Fox-37900","Jamal-Murray-35211","Buddy-Hield-35206","Nemanja-Bjelica-31814","Montrezl-Harrell-18930","J.J.-Barea-18605","Mason-Plumlee-16798","Julius-Randle-18632","50000","281.03"
"Jamal-Murray-35211","Bogdan-Bogdanovic-37899","Nemanja-Bjelica-31814","Julius-Randle-18632","Montrezl-Harrell-18930","Buddy-Hield-35206","Rudy-Gay-1341","Willie-Cauley-Stein-18951","49800","281.03"
"Jamal-Murray-35211","Buddy-Hield-35206","Nemanja-Bjelica-31814","Julius-Randle-18632","DeAndre-Jordan-1486","J.J.-Barea-18605","Mason-Plumlee-16798","Willie-Cauley-Stein-18951","49000","281.01"
"De'Aaron-Fox-37900","Jamal-Murray-35211","Juan-Hernangomez-35212","Julius-Randle-18632","Willie-Cauley-Stein-18951","Shai-Gilgeous-Alexander-408990","Montrezl-Harrell-18930","DeAndre-Jordan-1486","50000","280.97"
"De'Aaron-Fox-37900","Derrick-White-37858","Buddy-Hield-35206","Julius-Randle-18632","DeAndre-Jordan-1486","Wesley-Matthews-1339","Montrezl-Harrell-18930","Willie-Cauley-Stein-18951","50000","280.97"
"De'Aaron-Fox-37900","Buddy-Hield-35206","Nemanja-Bjelica-31814","Montrezl-Harrell-18930","Willie-Cauley-Stein-18951","Monte-Morris-37860","Mason-Plumlee-16798","Julius-Randle-18632","50000","280.95"
"De'Aaron-Fox-37900","Jamal-Murray-35211","Buddy-Hield-35206","Nemanja-Bjelica-31814","Willie-Cauley-Stein-18951","Devin-Harris-1076","Montrezl-Harrell-18930","Julius-Randle-18632","49900","280.95"
"Jamal-Murray-35211","Shai-Gilgeous-Alexander-408990","Buddy-Hield-35206","Nemanja-Bjelica-31814","Willie-Cauley-Stein-18951","Derrick-White-37858","Anthony-Davis-13895","Mason-Plumlee-16798","49900","280.92"
"De'Aaron-Fox-37900","Jamal-Murray-35211","Wesley-Matthews-1339","Julius-Randle-18632","Montrezl-Harrell-18930","Bogdan-Bogdanovic-37899","Mason-Plumlee-16798","Willie-Cauley-Stein-18951","49600","280.9"
"Jamal-Murray-35211","Iman-Shumpert-13350","Nemanja-Bjelica-31814","Julius-Randle-18632","DeAndre-Jordan-1486","Jrue-Holiday-1073","Montrezl-Harrell-18930","Willie-Cauley-Stein-18951","49900","280.87"
