"Chris-Paul-1087","Seth-Curry-16825","Tim-Hardaway-Jr.-16879","Al-Horford-1499","Jusuf-Nurkic-18619","De'Anthony-Melton-409081","Evan-Turner-1291","James-Harden-1037","50000","266.28"
"Seth-Curry-16825","De'Anthony-Melton-409081","Mikal-Bridges-408842","Al-Horford-1499","Jusuf-Nurkic-18619","Damian-Lillard-13900","Evan-Turner-1291","James-Harden-1037","49900","265.87"
"Elie-Okobo-409300","De'Anthony-Melton-409081","Evan-Turner-1291","Al-Horford-1499","Jusuf-Nurkic-18619","Damian-Lillard-13900","Nik-Stauskas-18636","James-Harden-1037","49900","265.6"
"Seth-Curry-16825","De'Anthony-Melton-409081","Marcus-Morris-13316","Al-Horford-1499","Jusuf-Nurkic-18619","Damian-Lillard-13900","Nik-Stauskas-18636","James-Harden-1037","50000","265.57"

"Chris-Paul-1087","Seth-Curry-16825","Tim-Hardaway-Jr.-16879","Al-Horford-1499","Jusuf-Nurkic-18619","De'Anthony-Melton-409081","Evan-Turner-1291","James-Harden-1037","50000","266.28"
"Seth-Curry-16825","De'Anthony-Melton-409081","Mikal-Bridges-408842","Al-Horford-1499","Jusuf-Nurkic-18619","Damian-Lillard-13900","Evan-Turner-1291","James-Harden-1037","49900","265.87"
"Elie-Okobo-409300","De'Anthony-Melton-409081","Evan-Turner-1291","Al-Horford-1499","Jusuf-Nurkic-18619","Damian-Lillard-13900","Nik-Stauskas-18636","James-Harden-1037","49900","265.6"
"Seth-Curry-16825","De'Anthony-Melton-409081","Marcus-Morris-13316","Al-Horford-1499","Jusuf-Nurkic-18619","Damian-Lillard-13900","Nik-Stauskas-18636","James-Harden-1037","50000","265.57"
"Seth-Curry-16825","Evan-Turner-1291","Marcus-Morris-13316","Al-Horford-1499","Jusuf-Nurkic-18619","Damian-Lillard-13900","Nik-Stauskas-18636","James-Harden-1037","50000","265.52"
"Damian-Lillard-13900","Evan-Turner-1291","Mikal-Bridges-408842","Al-Horford-1499","Jusuf-Nurkic-18619","De'Anthony-Melton-409081","Nik-Stauskas-18636","James-Harden-1037","50000","265.29"
"Seth-Curry-16825","Donovan-Mitchell-37875","Tim-Hardaway-Jr.-16879","Al-Horford-1499","Jusuf-Nurkic-18619","De'Anthony-Melton-409081","Evan-Turner-1291","James-Harden-1037","49900","265.27"
"Elie-Okobo-409300","Seth-Curry-16825","Josh-Jackson-37890","Al-Horford-1499","Jusuf-Nurkic-18619","Damian-Lillard-13900","Nik-Stauskas-18636","James-Harden-1037","49900","265.11"
