"Alec-Burks-13353","Kent-Bazemore-13987","Tim-Hardaway-Jr.-16879","Tobias-Harris-13332","Nikola-Jokic-31812","Jordan-Clarkson-18631","Otto-Porter-17069","Trae-Young-409063","49700","305.8"
"Jordan-Clarkson-18631","Kent-Bazemore-13987","Otto-Porter-17069","Tobias-Harris-13332","Noah-Vonleh-18597","Tim-Hardaway-Jr.-16879","Larry-Nance-18946","Nikola-Jokic-31812","49800","305.62"

"Alec-Burks-13353","Kent-Bazemore-13987","Tim-Hardaway-Jr.-16879","Tobias-Harris-13332","Nikola-Jokic-31812","Jordan-Clarkson-18631","Otto-Porter-17069","Trae-Young-409063","49700","305.8"
"Jordan-Clarkson-18631","Kent-Bazemore-13987","Otto-Porter-17069","Tobias-Harris-13332","Noah-Vonleh-18597","Tim-Hardaway-Jr.-16879","Larry-Nance-18946","Nikola-Jokic-31812","49800","305.62"
"Jordan-Clarkson-18631","Tim-Hardaway-Jr.-16879","Otto-Porter-17069","Noah-Vonleh-18597","Nikola-Jokic-31812","Kyle-Anderson-18615","Kent-Bazemore-13987","Tobias-Harris-13332","49600","305.03"
"Jordan-Clarkson-18631","Kent-Bazemore-13987","Tobias-Harris-13332","Larry-Nance-18946","Nikola-Jokic-31812","Tim-Hardaway-Jr.-16879","Marvin-Bagley-III-409321","Otto-Porter-17069","49800","304.93"
"Alec-Burks-13353","Jordan-Clarkson-18631","Otto-Porter-17069","Noah-Vonleh-18597","Nikola-Jokic-31812","Tim-Hardaway-Jr.-16879","Kent-Bazemore-13987","Tobias-Harris-13332","49000","304.53"
"Jordan-Clarkson-18631","Kent-Bazemore-13987","Tim-Hardaway-Jr.-16879","Noah-Vonleh-18597","Nikola-Jokic-31812","Trae-Young-409063","Marvin-Bagley-III-409321","Tobias-Harris-13332","50000","304.45"
"Jordan-Clarkson-18631","Tim-Hardaway-Jr.-16879","Otto-Porter-17069","Marvin-Bagley-III-409321","Nikola-Jokic-31812","Kyle-Anderson-18615","Kent-Bazemore-13987","Tobias-Harris-13332","49600","304.34"
"Alec-Burks-13353","Jordan-Clarkson-18631","Otto-Porter-17069","Marvin-Bagley-III-409321","Nikola-Jokic-31812","Tim-Hardaway-Jr.-16879","Kent-Bazemore-13987","Tobias-Harris-13332","49000","303.84"
"Alec-Burks-13353","Jordan-Clarkson-18631","Otto-Porter-17069","Tobias-Harris-13332","Marvin-Bagley-III-409321","Tim-Hardaway-Jr.-16879","Noah-Vonleh-18597","Nikola-Jokic-31812","49500","303.83"
"Alec-Burks-13353","Jordan-Clarkson-18631","Tim-Hardaway-Jr.-16879","Tobias-Harris-13332","Larry-Nance-18946","Trae-Young-409063","Otto-Porter-17069","Nikola-Jokic-31812","49600","303.83"
"Alec-Burks-13353","Jordan-Clarkson-18631","Otto-Porter-17069","Tobias-Harris-13332","Nikola-Jokic-31812","Tim-Hardaway-Jr.-16879","Kyle-Anderson-18615","Trae-Young-409063","49400","303.24"
"Jordan-Clarkson-18631","Tim-Hardaway-Jr.-16879","Kent-Bazemore-13987","Noah-Vonleh-18597","Nikola-Jokic-31812","Trae-Young-409063","Larry-Nance-18946","Tobias-Harris-13332","49400","303.18"
"Alec-Burks-13353","Jordan-Clarkson-18631","Gordon-Hayward-1239","Tobias-Harris-13332","Nikola-Jokic-31812","Tim-Hardaway-Jr.-16879","Kent-Bazemore-13987","Otto-Porter-17069","49600","303.14"
"Jordan-Clarkson-18631","Kent-Bazemore-13987","Justise-Winslow-18921","Tobias-Harris-13332","Nikola-Jokic-31812","Tim-Hardaway-Jr.-16879","Noah-Vonleh-18597","Otto-Porter-17069","49400","303.12"
"Jordan-Clarkson-18631","Tim-Hardaway-Jr.-16879","Otto-Porter-17069","Tobias-Harris-13332","Larry-Nance-18946","Kyle-Anderson-18615","Kent-Bazemore-13987","Nikola-Jokic-31812","49000","303.07"
"Jordan-Clarkson-18631","Tim-Hardaway-Jr.-16879","Otto-Porter-17069","Tobias-Harris-13332","Noah-Vonleh-18597","Kyle-Anderson-18615","Larry-Nance-18946","Nikola-Jokic-31812","49500","303.06"
"Jordan-Clarkson-18631","Kent-Bazemore-13987","Otto-Porter-17069","Tobias-Harris-13332","Marvin-Bagley-III-409321","Trae-Young-409063","Noah-Vonleh-18597","Nikola-Jokic-31812","49500","302.95"
"Alec-Burks-13353","Tim-Hardaway-Jr.-16879","Otto-Porter-17069","Noah-Vonleh-18597","Nikola-Jokic-31812","Trae-Young-409063","Kent-Bazemore-13987","Tobias-Harris-13332","49900","302.93"
"Trae-Young-409063","Jordan-Clarkson-18631","Tim-Hardaway-Jr.-16879","Tobias-Harris-13332","Noah-Vonleh-18597","Kyle-Anderson-18615","Kent-Bazemore-13987","Nikola-Jokic-31812","49200","302.59"
"Alec-Burks-13353","Jordan-Clarkson-18631","Otto-Porter-17069","Tobias-Harris-13332","Larry-Nance-18946","Tim-Hardaway-Jr.-16879","Kent-Bazemore-13987","Nikola-Jokic-31812","48400","302.57"
"Alec-Burks-13353","Jordan-Clarkson-18631","Otto-Porter-17069","Tobias-Harris-13332","Noah-Vonleh-18597","Tim-Hardaway-Jr.-16879","Larry-Nance-18946","Nikola-Jokic-31812","48900","302.56"
"Jordan-Clarkson-18631","Kent-Bazemore-13987","Tobias-Harris-13332","Larry-Nance-18946","Nikola-Jokic-31812","Tim-Hardaway-Jr.-16879","Marvin-Bagley-III-409321","Trae-Young-409063","49400","302.49"
"Jordan-Clarkson-18631","Tim-Hardaway-Jr.-16879","Tobias-Harris-13332","Larry-Nance-18946","Nikola-Jokic-31812","Trae-Young-409063","Marvin-Bagley-III-409321","Noah-Vonleh-18597","49900","302.48"
"Jordan-Clarkson-18631","Kent-Bazemore-13987","Justise-Winslow-18921","Tobias-Harris-13332","Nikola-Jokic-31812","Tim-Hardaway-Jr.-16879","Otto-Porter-17069","Marvin-Bagley-III-409321","49400","302.43"
"Jordan-Clarkson-18631","Tim-Hardaway-Jr.-16879","Justise-Winslow-18921","Tobias-Harris-13332","Nikola-Jokic-31812","Trae-Young-409063","Otto-Porter-17069","Larry-Nance-18946","50000","302.42"
"Jordan-Clarkson-18631","Tyreke-Evans-1070","Otto-Porter-17069","Noah-Vonleh-18597","Nikola-Jokic-31812","Tim-Hardaway-Jr.-16879","Kent-Bazemore-13987","Tobias-Harris-13332","50000","302.39"
"Jordan-Clarkson-18631","Tim-Hardaway-Jr.-16879","Tobias-Harris-13332","Larry-Nance-18946","Nikola-Jokic-31812","Kyle-Anderson-18615","Marvin-Bagley-III-409321","Otto-Porter-17069","49500","302.37"
"Alec-Burks-13353","Tim-Hardaway-Jr.-16879","Otto-Porter-17069","Marvin-Bagley-III-409321","Nikola-Jokic-31812","Trae-Young-409063","Kent-Bazemore-13987","Tobias-Harris-13332","49900","302.24"
"Jordan-Clarkson-18631","Kent-Bazemore-13987","Otto-Porter-17069","Tobias-Harris-13332","Nikola-Jokic-31812","Tim-Hardaway-Jr.-16879","Noah-Vonleh-18597","Cedi-Osman-18912","49700","302.22"
"Jordan-Clarkson-18631","Tim-Hardaway-Jr.-16879","Otto-Porter-17069","Marvin-Bagley-III-409321","Nikola-Jokic-31812","Trae-Young-409063","Kent-Bazemore-13987","Noah-Vonleh-18597","49000","302.13"
"Alec-Burks-13353","Jordan-Clarkson-18631","Tim-Hardaway-Jr.-16879","Tobias-Harris-13332","Noah-Vonleh-18597","Trae-Young-409063","Kent-Bazemore-13987","Nikola-Jokic-31812","48600","302.09"
"Alec-Burks-13353","Kent-Bazemore-13987","Otto-Porter-17069","Tobias-Harris-13332","Nikola-Jokic-31812","Jordan-Clarkson-18631","Kyle-Anderson-18615","Tim-Hardaway-Jr.-16879","48200","301.98"
"Alec-Burks-13353","Jordan-Clarkson-18631","Tim-Hardaway-Jr.-16879","Tobias-Harris-13332","Noah-Vonleh-18597","Kyle-Anderson-18615","Otto-Porter-17069","Nikola-Jokic-31812","48700","301.97"
"Jordan-Clarkson-18631","Kent-Bazemore-13987","Tim-Hardaway-Jr.-16879","Tobias-Harris-13332","Nikola-Jokic-31812","Trae-Young-409063","Trey-Lyles-18942","Otto-Porter-17069","49300","301.95"
"Jordan-Clarkson-18631","Tim-Hardaway-Jr.-16879","Otto-Porter-17069","Noah-Vonleh-18597","Nikola-Jokic-31812","Trae-Young-409063","Trey-Lyles-18942","Tobias-Harris-13332","49800","301.94"
"Jordan-Clarkson-18631","Kent-Bazemore-13987","Tobias-Harris-13332","Marvin-Bagley-III-409321","Nikola-Jokic-31812","Tim-Hardaway-Jr.-16879","Kyle-Anderson-18615","Trae-Young-409063","49200","301.9"
"Jordan-Clarkson-18631","Tim-Hardaway-Jr.-16879","Tobias-Harris-13332","Marvin-Bagley-III-409321","Nikola-Jokic-31812","Trae-Young-409063","Kyle-Anderson-18615","Noah-Vonleh-18597","49700","301.89"
"Alec-Burks-13353","Jordan-Clarkson-18631","Tobias-Harris-13332","Larry-Nance-18946","Nikola-Jokic-31812","Tim-Hardaway-Jr.-16879","Marvin-Bagley-III-409321","Otto-Porter-17069","48900","301.87"
"Jordan-Clarkson-18631","Tim-Hardaway-Jr.-16879","Justise-Winslow-18921","Tobias-Harris-13332","Nikola-Jokic-31812","Trae-Young-409063","Otto-Porter-17069","Kyle-Anderson-18615","49800","301.83"
"Jordan-Clarkson-18631","Kent-Bazemore-13987","Gordon-Hayward-1239","Tobias-Harris-13332","Marvin-Bagley-III-409321","Tim-Hardaway-Jr.-16879","Noah-Vonleh-18597","Nikola-Jokic-31812","49900","301.79"
"Jordan-Clarkson-18631","Kent-Bazemore-13987","Tim-Hardaway-Jr.-16879","Gordon-Hayward-1239","Nikola-Jokic-31812","Trae-Young-409063","Larry-Nance-18946","Tobias-Harris-13332","50000","301.79"
"Jordan-Clarkson-18631","Kent-Bazemore-13987","Justise-Winslow-18921","Tobias-Harris-13332","Nikola-Jokic-31812","Tim-Hardaway-Jr.-16879","Otto-Porter-17069","Gordon-Hayward-1239","50000","301.73"
"Jordan-Clarkson-18631","Tyreke-Evans-1070","Otto-Porter-17069","Marvin-Bagley-III-409321","Nikola-Jokic-31812","Tim-Hardaway-Jr.-16879","Kent-Bazemore-13987","Tobias-Harris-13332","50000","301.7"
"Jordan-Clarkson-18631","Kent-Bazemore-13987","Otto-Porter-17069","Tobias-Harris-13332","Noah-Vonleh-18597","Trae-Young-409063","Larry-Nance-18946","Nikola-Jokic-31812","48900","301.68"
"Jordan-Clarkson-18631","Kent-Bazemore-13987","Tobias-Harris-13332","Cedi-Osman-18912","Nikola-Jokic-31812","Tim-Hardaway-Jr.-16879","Marvin-Bagley-III-409321","Otto-Porter-17069","49700","301.53"
"Jordan-Clarkson-18631","Tim-Hardaway-Jr.-16879","Otto-Porter-17069","Noah-Vonleh-18597","Nikola-Jokic-31812","Collin-Sexton-408896","Kent-Bazemore-13987","Tobias-Harris-13332","50000","301.52"
"Kyle-Anderson-18615","Kent-Bazemore-13987","Otto-Porter-17069","Tobias-Harris-13332","Marvin-Bagley-III-409321","Tim-Hardaway-Jr.-16879","Noah-Vonleh-18597","Nikola-Jokic-31812","49800","301.47"
"Trae-Young-409063","Tim-Hardaway-Jr.-16879","Otto-Porter-17069","Tobias-Harris-13332","Larry-Nance-18946","Kyle-Anderson-18615","Kent-Bazemore-13987","Nikola-Jokic-31812","49900","301.47"
"Lonzo-Ball-37885","Kent-Bazemore-13987","Otto-Porter-17069","Tobias-Harris-13332","Nikola-Jokic-31812","Jordan-Clarkson-18631","Kyle-Anderson-18615","Tim-Hardaway-Jr.-16879","49900","301.44"
"Jordan-Clarkson-18631","Tim-Hardaway-Jr.-16879","Otto-Porter-17069","Noah-Vonleh-18597","Nikola-Jokic-31812","Trae-Young-409063","Kent-Bazemore-13987","Gordon-Hayward-1239","49600","301.43"
"Alec-Burks-13353","Jordan-Clarkson-18631","Kent-Bazemore-13987","Tobias-Harris-13332","Nikola-Jokic-31812","Tim-Hardaway-Jr.-16879","Marvin-Bagley-III-409321","Trae-Young-409063","48600","301.4"
"Alec-Burks-13353","Jordan-Clarkson-18631","Tim-Hardaway-Jr.-16879","Noah-Vonleh-18597","Nikola-Jokic-31812","Trae-Young-409063","Marvin-Bagley-III-409321","Tobias-Harris-13332","49100","301.39"
"Jordan-Clarkson-18631","Kent-Bazemore-13987","Otto-Porter-17069","Juan-Hernangomez-35212","Noah-Vonleh-18597","Tim-Hardaway-Jr.-16879","Tobias-Harris-13332","Nikola-Jokic-31812","49400","301.38"
"Jordan-Clarkson-18631","Kent-Bazemore-13987","Thaddeus-Young-1289","Tobias-Harris-13332","Noah-Vonleh-18597","Tim-Hardaway-Jr.-16879","Otto-Porter-17069","Nikola-Jokic-31812","49700","301.38"
"Alec-Burks-13353","Jordan-Clarkson-18631","Justise-Winslow-18921","Tobias-Harris-13332","Nikola-Jokic-31812","Tim-Hardaway-Jr.-16879","Otto-Porter-17069","Trae-Young-409063","49200","301.33"
"Alec-Burks-13353","Jordan-Clarkson-18631","Tobias-Harris-13332","Marvin-Bagley-III-409321","Nikola-Jokic-31812","Tim-Hardaway-Jr.-16879","Kyle-Anderson-18615","Otto-Porter-17069","48700","301.28"
"Jordan-Clarkson-18631","Tim-Hardaway-Jr.-16879","Otto-Porter-17069","Tobias-Harris-13332","Marvin-Bagley-III-409321","Trae-Young-409063","Trey-Lyles-18942","Nikola-Jokic-31812","49800","301.25"
"Jordan-Clarkson-18631","Kent-Bazemore-13987","Tobias-Harris-13332","Larry-Nance-18946","Nikola-Jokic-31812","Tim-Hardaway-Jr.-16879","Marvin-Bagley-III-409321","Noah-Vonleh-18597","48700","301.22"
"Jordan-Clarkson-18631","Tim-Hardaway-Jr.-16879","Kent-Bazemore-13987","Gordon-Hayward-1239","Nikola-Jokic-31812","Trae-Young-409063","Kyle-Anderson-18615","Tobias-Harris-13332","49800","301.2"
"Alec-Burks-13353","Jordan-Clarkson-18631","Otto-Porter-17069","Tobias-Harris-13332","Larry-Nance-18946","Tim-Hardaway-Jr.-16879","Gordon-Hayward-1239","Nikola-Jokic-31812","49500","301.17"
"Jordan-Clarkson-18631","Kent-Bazemore-13987","Justise-Winslow-18921","Tobias-Harris-13332","Nikola-Jokic-31812","Tim-Hardaway-Jr.-16879","Otto-Porter-17069","Larry-Nance-18946","48800","301.16"
"Trae-Young-409063","Jordan-Clarkson-18631","Otto-Porter-17069","Noah-Vonleh-18597","Nikola-Jokic-31812","Kyle-Anderson-18615","Kent-Bazemore-13987","Tobias-Harris-13332","48700","301.09"
"Jordan-Clarkson-18631","Kent-Bazemore-13987","Otto-Porter-17069","Tobias-Harris-13332","Nikola-Jokic-31812","Tim-Hardaway-Jr.-16879","Mason-Plumlee-16798","Trae-Young-409063","49900","301.01"
"Jordan-Clarkson-18631","Kent-Bazemore-13987","Tobias-Harris-13332","Larry-Nance-18946","Nikola-Jokic-31812","Trae-Young-409063","Marvin-Bagley-III-409321","Otto-Porter-17069","48900","300.99"
"Alec-Burks-13353","Tim-Hardaway-Jr.-16879","Otto-Porter-17069","Tobias-Harris-13332","Larry-Nance-18946","Trae-Young-409063","Kent-Bazemore-13987","Nikola-Jokic-31812","49300","300.97"
"Alec-Burks-13353","Kent-Bazemore-13987","Otto-Porter-17069","Tobias-Harris-13332","Marvin-Bagley-III-409321","Tim-Hardaway-Jr.-16879","Noah-Vonleh-18597","Nikola-Jokic-31812","49200","300.97"
"Alec-Burks-13353","Tim-Hardaway-Jr.-16879","Otto-Porter-17069","Tobias-Harris-13332","Noah-Vonleh-18597","Trae-Young-409063","Larry-Nance-18946","Nikola-Jokic-31812","49800","300.96"
"Lonzo-Ball-37885","Alec-Burks-13353","Tim-Hardaway-Jr.-16879","Tobias-Harris-13332","Nikola-Jokic-31812","Jordan-Clarkson-18631","Otto-Porter-17069","Kent-Bazemore-13987","49300","300.94"
"Lonzo-Ball-37885","Alec-Burks-13353","Tim-Hardaway-Jr.-16879","Tobias-Harris-13332","Noah-Vonleh-18597","Jordan-Clarkson-18631","Otto-Porter-17069","Nikola-Jokic-31812","49800","300.93"
"Jordan-Clarkson-18631","Tim-Hardaway-Jr.-16879","Otto-Porter-17069","Noah-Vonleh-18597","Nikola-Jokic-31812","Trae-Young-409063","Kent-Bazemore-13987","Larry-Nance-18946","48400","300.86"
"Jordan-Clarkson-18631","Tim-Hardaway-Jr.-16879","Otto-Porter-17069","Marvin-Bagley-III-409321","Nikola-Jokic-31812","Collin-Sexton-408896","Kent-Bazemore-13987","Tobias-Harris-13332","50000","300.83"
"Jordan-Clarkson-18631","Tim-Hardaway-Jr.-16879","Otto-Porter-17069","Marvin-Bagley-III-409321","Nikola-Jokic-31812","Trae-Young-409063","Kent-Bazemore-13987","Gordon-Hayward-1239","49600","300.74"
"Alec-Burks-13353","Jordan-Clarkson-18631","Gordon-Hayward-1239","Tobias-Harris-13332","Nikola-Jokic-31812","Tim-Hardaway-Jr.-16879","Kent-Bazemore-13987","Trae-Young-409063","49200","300.7"
"Jordan-Clarkson-18631","Kent-Bazemore-13987","Otto-Porter-17069","Juan-Hernangomez-35212","Nikola-Jokic-31812","Tim-Hardaway-Jr.-16879","Marvin-Bagley-III-409321","Tobias-Harris-13332","49400","300.69"
"Jordan-Clarkson-18631","Kent-Bazemore-13987","Thaddeus-Young-1289","Otto-Porter-17069","Nikola-Jokic-31812","Tim-Hardaway-Jr.-16879","Marvin-Bagley-III-409321","Tobias-Harris-13332","49700","300.69"
"Alec-Burks-13353","Jordan-Clarkson-18631","Tim-Hardaway-Jr.-16879","Tobias-Harris-13332","Nikola-Jokic-31812","Trae-Young-409063","Noah-Vonleh-18597","Gordon-Hayward-1239","49700","300.69"
"Jordan-Clarkson-18631","Kent-Bazemore-13987","Otto-Porter-17069","Noah-Vonleh-18597","Nikola-Jokic-31812","Tim-Hardaway-Jr.-16879","Trey-Lyles-18942","Tobias-Harris-13332","48600","300.68"
"Jordan-Clarkson-18631","Kent-Bazemore-13987","Justise-Winslow-18921","Tobias-Harris-13332","Nikola-Jokic-31812","Tim-Hardaway-Jr.-16879","Noah-Vonleh-18597","Trae-Young-409063","49000","300.68"
"Jordan-Clarkson-18631","Tim-Hardaway-Jr.-16879","Otto-Porter-17069","Juan-Hernangomez-35212","Larry-Nance-18946","Trae-Young-409063","Tobias-Harris-13332","Nikola-Jokic-31812","50000","300.68"
"Jordan-Clarkson-18631","Tim-Hardaway-Jr.-16879","Kent-Bazemore-13987","Larry-Nance-18946","Nikola-Jokic-31812","Trae-Young-409063","Kyle-Anderson-18615","Tobias-Harris-13332","48600","300.63"
"Jordan-Clarkson-18631","Kent-Bazemore-13987","Tobias-Harris-13332","Marvin-Bagley-III-409321","Nikola-Jokic-31812","Tim-Hardaway-Jr.-16879","Kyle-Anderson-18615","Noah-Vonleh-18597","48500","300.63"
"Jordan-Clarkson-18631","Tim-Hardaway-Jr.-16879","Tobias-Harris-13332","Larry-Nance-18946","Nikola-Jokic-31812","Trae-Young-409063","Kyle-Anderson-18615","Noah-Vonleh-18597","49100","300.62"
"Alec-Burks-13353","Jordan-Clarkson-18631","Otto-Porter-17069","Tobias-Harris-13332","Nikola-Jokic-31812","Tim-Hardaway-Jr.-16879","Tyreke-Evans-1070","Trae-Young-409063","49800","300.6"
"Alec-Burks-13353","Jordan-Clarkson-18631","Otto-Porter-17069","Noah-Vonleh-18597","Nikola-Jokic-31812","Trae-Young-409063","Kent-Bazemore-13987","Tobias-Harris-13332","48100","300.59"
"Alec-Burks-13353","Jordan-Clarkson-18631","Gordon-Hayward-1239","Tobias-Harris-13332","Nikola-Jokic-31812","Tim-Hardaway-Jr.-16879","Kyle-Anderson-18615","Otto-Porter-17069","49300","300.58"
"Jordan-Clarkson-18631","Kent-Bazemore-13987","Justise-Winslow-18921","Tobias-Harris-13332","Nikola-Jokic-31812","Tim-Hardaway-Jr.-16879","Otto-Porter-17069","Kyle-Anderson-18615","48600","300.57"
"Jordan-Clarkson-18631","Tim-Hardaway-Jr.-16879","Justise-Winslow-18921","Tobias-Harris-13332","Nikola-Jokic-31812","Kyle-Anderson-18615","Noah-Vonleh-18597","Otto-Porter-17069","49100","300.56"
"Jordan-Clarkson-18631","Kent-Bazemore-13987","Gordon-Hayward-1239","Tobias-Harris-13332","Noah-Vonleh-18597","Tim-Hardaway-Jr.-16879","Larry-Nance-18946","Nikola-Jokic-31812","49300","300.52"
"Jordan-Clarkson-18631","Tyreke-Evans-1070","Otto-Porter-17069","Tobias-Harris-13332","Larry-Nance-18946","Tim-Hardaway-Jr.-16879","Kent-Bazemore-13987","Nikola-Jokic-31812","49400","300.43"
"Alec-Burks-13353","Jordan-Clarkson-18631","Tim-Hardaway-Jr.-16879","Tobias-Harris-13332","Nikola-Jokic-31812","Trae-Young-409063","Cedi-Osman-18912","Otto-Porter-17069","49500","300.43"
"Jordan-Clarkson-18631","Tyreke-Evans-1070","Otto-Porter-17069","Tobias-Harris-13332","Noah-Vonleh-18597","Tim-Hardaway-Jr.-16879","Larry-Nance-18946","Nikola-Jokic-31812","49900","300.42"
"Trae-Young-409063","Jordan-Clarkson-18631","Otto-Porter-17069","Marvin-Bagley-III-409321","Nikola-Jokic-31812","Kyle-Anderson-18615","Kent-Bazemore-13987","Tobias-Harris-13332","48700","300.4"
"Trae-Young-409063","Jordan-Clarkson-18631","Otto-Porter-17069","Tobias-Harris-13332","Marvin-Bagley-III-409321","Kyle-Anderson-18615","Noah-Vonleh-18597","Nikola-Jokic-31812","49200","300.39"
"Alec-Burks-13353","Kent-Bazemore-13987","Otto-Porter-17069","Tobias-Harris-13332","Nikola-Jokic-31812","Tim-Hardaway-Jr.-16879","Kyle-Anderson-18615","Trae-Young-409063","49100","300.38"
"Trae-Young-409063","Alec-Burks-13353","Tim-Hardaway-Jr.-16879","Tobias-Harris-13332","Noah-Vonleh-18597","Kyle-Anderson-18615","Otto-Porter-17069","Nikola-Jokic-31812","49600","300.37"
"Jordan-Clarkson-18631","Kent-Bazemore-13987","Otto-Porter-17069","Marcus-Morris-13316","Nikola-Jokic-31812","Tim-Hardaway-Jr.-16879","Larry-Nance-18946","Tobias-Harris-13332","49700","300.32"
"Jordan-Clarkson-18631","Kent-Bazemore-13987","Otto-Porter-17069","Tobias-Harris-13332","Larry-Nance-18946","Trae-Young-409063","Gordon-Hayward-1239","Nikola-Jokic-31812","49500","300.29"
"Alec-Burks-13353","Tim-Hardaway-Jr.-16879","Tobias-Harris-13332","Larry-Nance-18946","Nikola-Jokic-31812","Trae-Young-409063","Marvin-Bagley-III-409321","Otto-Porter-17069","49800","300.27"
"Jordan-Clarkson-18631","Tim-Hardaway-Jr.-16879","Otto-Porter-17069","Noah-Vonleh-18597","Nikola-Jokic-31812","Trae-Young-409063","Kent-Bazemore-13987","Kyle-Anderson-18615","48200","300.27"
"Alec-Burks-13353","Kent-Bazemore-13987","Otto-Porter-17069","Tobias-Harris-13332","Noah-Vonleh-18597","Tim-Hardaway-Jr.-16879","Gordon-Hayward-1239","Nikola-Jokic-31812","49800","300.27"
