"De'Aaron-Fox-37900","DeMar-DeRozan-1053","Josh-Jackson-37890","LaMarcus-Aldridge-1349","Willie-Cauley-Stein-18951","Elie-Okobo-409300","Mikal-Bridges-408842","Deandre-Ayton-409301","49800","282.11"

"De'Aaron-Fox-37900","DeMar-DeRozan-1053","Josh-Jackson-37890","LaMarcus-Aldridge-1349","Willie-Cauley-Stein-18951","Elie-Okobo-409300","Mikal-Bridges-408842","Deandre-Ayton-409301","49800","282.11"
"De'Aaron-Fox-37900","Donovan-Mitchell-37875","Josh-Jackson-37890","LaMarcus-Aldridge-1349","Willie-Cauley-Stein-18951","Elie-Okobo-409300","Mikal-Bridges-408842","Deandre-Ayton-409301","49400","280.7"
"De'Aaron-Fox-37900","DeMar-DeRozan-1053","Josh-Jackson-37890","LaMarcus-Aldridge-1349","Deandre-Ayton-409301","Ricky-Rubio-1001","Mikal-Bridges-408842","Elie-Okobo-409300","49600","280.02"
"Ricky-Rubio-1001","Donovan-Mitchell-37875","Josh-Jackson-37890","LaMarcus-Aldridge-1349","Willie-Cauley-Stein-18951","Elie-Okobo-409300","Trevor-Ariza-1323","Deandre-Ayton-409301","50000","279.86"
"De'Aaron-Fox-37900","DeMar-DeRozan-1053","Josh-Jackson-37890","LaMarcus-Aldridge-1349","Deandre-Ayton-409301","Elie-Okobo-409300","Nemanja-Bjelica-31814","Willie-Cauley-Stein-18951","49900","279.77"
"De'Aaron-Fox-37900","Buddy-Hield-35206","Josh-Jackson-37890","LaMarcus-Aldridge-1349","Willie-Cauley-Stein-18951","Ricky-Rubio-1001","Mikal-Bridges-408842","Deandre-Ayton-409301","49300","279.28"
"Donovan-Mitchell-37875","DeMar-DeRozan-1053","Josh-Jackson-37890","LaMarcus-Aldridge-1349","Deandre-Ayton-409301","Ricky-Rubio-1001","Mikal-Bridges-408842","Elie-Okobo-409300","50000","279.08"
"De'Aaron-Fox-37900","Buddy-Hield-35206","Josh-Jackson-37890","LaMarcus-Aldridge-1349","Rudy-Gobert-16935","Elie-Okobo-409300","Mikal-Bridges-408842","Deandre-Ayton-409301","49700","278.78"
"Ricky-Rubio-1001","DeMar-DeRozan-1053","Josh-Jackson-37890","LaMarcus-Aldridge-1349","Willie-Cauley-Stein-18951","Bogdan-Bogdanovic-37899","Mikal-Bridges-408842","Deandre-Ayton-409301","49900","278.69"
"De'Aaron-Fox-37900","Donovan-Mitchell-37875","Josh-Jackson-37890","LaMarcus-Aldridge-1349","Deandre-Ayton-409301","Ricky-Rubio-1001","Jae-Crowder-13942","Mikal-Bridges-408842","49800","278.64"
"De'Aaron-Fox-37900","Donovan-Mitchell-37875","Josh-Jackson-37890","LaMarcus-Aldridge-1349","Deandre-Ayton-409301","Ricky-Rubio-1001","Mikal-Bridges-408842","Elie-Okobo-409300","49200","278.61"
"De'Aaron-Fox-37900","DeMar-DeRozan-1053","Trevor-Ariza-1323","LaMarcus-Aldridge-1349","Deandre-Ayton-409301","Elie-Okobo-409300","Mikal-Bridges-408842","Josh-Jackson-37890","49100","278.6"
"De'Aaron-Fox-37900","DeMar-DeRozan-1053","Josh-Jackson-37890","Trevor-Ariza-1323","Willie-Cauley-Stein-18951","Ricky-Rubio-1001","Mikal-Bridges-408842","Deandre-Ayton-409301","49700","278.53"
"De'Aaron-Fox-37900","Donovan-Mitchell-37875","Joe-Ingles-18627","LaMarcus-Aldridge-1349","Deandre-Ayton-409301","Ricky-Rubio-1001","Mikal-Bridges-408842","Josh-Jackson-37890","49900","278.45"
"De'Aaron-Fox-37900","Joe-Ingles-18627","Trevor-Ariza-1323","LaMarcus-Aldridge-1349","Deandre-Ayton-409301","DeMar-DeRozan-1053","Mikal-Bridges-408842","Josh-Jackson-37890","49800","278.44"
"De'Aaron-Fox-37900","Buddy-Hield-35206","Josh-Jackson-37890","LaMarcus-Aldridge-1349","Willie-Cauley-Stein-18951","Elie-Okobo-409300","Trevor-Ariza-1323","Deandre-Ayton-409301","49400","278.39"
"De'Aaron-Fox-37900","Donovan-Mitchell-37875","Josh-Jackson-37890","LaMarcus-Aldridge-1349","Deandre-Ayton-409301","Elie-Okobo-409300","Nemanja-Bjelica-31814","Willie-Cauley-Stein-18951","49500","278.36"
"Donovan-Mitchell-37875","Buddy-Hield-35206","Josh-Jackson-37890","LaMarcus-Aldridge-1349","Willie-Cauley-Stein-18951","Ricky-Rubio-1001","Mikal-Bridges-408842","Deandre-Ayton-409301","49700","278.34"
"De'Aaron-Fox-37900","Bogdan-Bogdanovic-37899","Josh-Jackson-37890","LaMarcus-Aldridge-1349","Willie-Cauley-Stein-18951","Ricky-Rubio-1001","Mikal-Bridges-408842","Deandre-Ayton-409301","49100","278.22"
"Elie-Okobo-409300","DeMar-DeRozan-1053","Josh-Jackson-37890","LaMarcus-Aldridge-1349","Willie-Cauley-Stein-18951","Bogdan-Bogdanovic-37899","Trevor-Ariza-1323","Deandre-Ayton-409301","50000","277.8"
"De'Aaron-Fox-37900","Donovan-Mitchell-37875","Josh-Jackson-37890","LaMarcus-Aldridge-1349","Deandre-Ayton-409301","Elie-Okobo-409300","Jae-Crowder-13942","Trevor-Ariza-1323","49900","277.75"
"De'Aaron-Fox-37900","Bogdan-Bogdanovic-37899","Josh-Jackson-37890","LaMarcus-Aldridge-1349","Rudy-Gobert-16935","Elie-Okobo-409300","Mikal-Bridges-408842","Deandre-Ayton-409301","49500","277.72"
"De'Aaron-Fox-37900","DeMar-DeRozan-1053","Josh-Jackson-37890","LaMarcus-Aldridge-1349","Deandre-Ayton-409301","Ricky-Rubio-1001","Nemanja-Bjelica-31814","Elie-Okobo-409300","49700","277.68"
"Donovan-Mitchell-37875","DeMar-DeRozan-1053","Trevor-Ariza-1323","LaMarcus-Aldridge-1349","Deandre-Ayton-409301","Elie-Okobo-409300","Mikal-Bridges-408842","Josh-Jackson-37890","49500","277.66"
"De'Aaron-Fox-37900","DeMar-DeRozan-1053","Josh-Jackson-37890","LaMarcus-Aldridge-1349","Deandre-Ayton-409301","Buddy-Hield-35206","Jae-Crowder-13942","Mikal-Bridges-408842","50000","277.64"
"De'Aaron-Fox-37900","DeMar-DeRozan-1053","Josh-Jackson-37890","LaMarcus-Aldridge-1349","Deandre-Ayton-409301","Elie-Okobo-409300","Buddy-Hield-35206","Mikal-Bridges-408842","49400","277.61"
"Donovan-Mitchell-37875","Joe-Ingles-18627","Josh-Jackson-37890","LaMarcus-Aldridge-1349","Deandre-Ayton-409301","De'Aaron-Fox-37900","Trevor-Ariza-1323","Elie-Okobo-409300","50000","277.56"
"Donovan-Mitchell-37875","Buddy-Hield-35206","Josh-Jackson-37890","LaMarcus-Aldridge-1349","Willie-Cauley-Stein-18951","Elie-Okobo-409300","Trevor-Ariza-1323","Deandre-Ayton-409301","49800","277.45"
"Donovan-Mitchell-37875","Troy-Daniels-17383","Josh-Jackson-37890","LaMarcus-Aldridge-1349","Willie-Cauley-Stein-18951","De'Aaron-Fox-37900","Trevor-Ariza-1323","Deandre-Ayton-409301","49900","277.36"
"De'Aaron-Fox-37900","Bogdan-Bogdanovic-37899","Josh-Jackson-37890","LaMarcus-Aldridge-1349","Willie-Cauley-Stein-18951","Elie-Okobo-409300","Trevor-Ariza-1323","Deandre-Ayton-409301","49200","277.33"
"Donovan-Mitchell-37875","Bogdan-Bogdanovic-37899","Josh-Jackson-37890","LaMarcus-Aldridge-1349","Willie-Cauley-Stein-18951","Ricky-Rubio-1001","Mikal-Bridges-408842","Deandre-Ayton-409301","49500","277.28"
"De'Aaron-Fox-37900","Donovan-Mitchell-37875","Trevor-Ariza-1323","LaMarcus-Aldridge-1349","Deandre-Ayton-409301","Elie-Okobo-409300","Mikal-Bridges-408842","Josh-Jackson-37890","48700","277.19"
"De'Aaron-Fox-37900","Joe-Ingles-18627","Josh-Jackson-37890","LaMarcus-Aldridge-1349","Willie-Cauley-Stein-18951","Bogdan-Bogdanovic-37899","Trevor-Ariza-1323","Deandre-Ayton-409301","49900","277.17"
"De'Aaron-Fox-37900","DeMar-DeRozan-1053","Josh-Jackson-37890","Nemanja-Bjelica-31814","LaMarcus-Aldridge-1349","Ricky-Rubio-1001","Mikal-Bridges-408842","Deandre-Ayton-409301","49100","277.15"
"De'Aaron-Fox-37900","Donovan-Mitchell-37875","Josh-Jackson-37890","Trevor-Ariza-1323","Willie-Cauley-Stein-18951","Ricky-Rubio-1001","Mikal-Bridges-408842","Deandre-Ayton-409301","49300","277.12"
"Ricky-Rubio-1001","DeMar-DeRozan-1053","Josh-Jackson-37890","LaMarcus-Aldridge-1349","Deandre-Ayton-409301","Elie-Okobo-409300","Jae-Crowder-13942","Willie-Cauley-Stein-18951","49700","277.12"
"Donovan-Mitchell-37875","Joe-Ingles-18627","Trevor-Ariza-1323","LaMarcus-Aldridge-1349","Deandre-Ayton-409301","De'Aaron-Fox-37900","Mikal-Bridges-408842","Josh-Jackson-37890","49400","277.03"
"De'Aaron-Fox-37900","Buddy-Hield-35206","Josh-Jackson-37890","LaMarcus-Aldridge-1349","Deandre-Ayton-409301","Ricky-Rubio-1001","Nemanja-Bjelica-31814","Willie-Cauley-Stein-18951","49400","276.94"
"Ricky-Rubio-1001","Joe-Ingles-18627","Josh-Jackson-37890","LaMarcus-Aldridge-1349","Willie-Cauley-Stein-18951","Elie-Okobo-409300","DeMar-DeRozan-1053","Deandre-Ayton-409301","49800","276.93"
"Donovan-Mitchell-37875","Bogdan-Bogdanovic-37899","Josh-Jackson-37890","LaMarcus-Aldridge-1349","Rudy-Gobert-16935","Elie-Okobo-409300","Mikal-Bridges-408842","Deandre-Ayton-409301","49900","276.78"
"Ricky-Rubio-1001","Buddy-Hield-35206","Josh-Jackson-37890","Trevor-Ariza-1323","Deandre-Ayton-409301","Elie-Okobo-409300","DeMar-DeRozan-1053","LaMarcus-Aldridge-1349","50000","276.77"
"Donovan-Mitchell-37875","DeMar-DeRozan-1053","Josh-Jackson-37890","LaMarcus-Aldridge-1349","Deandre-Ayton-409301","Elie-Okobo-409300","Buddy-Hield-35206","Mikal-Bridges-408842","49800","276.67"
"De'Aaron-Fox-37900","Donovan-Mitchell-37875","Josh-Jackson-37890","Trevor-Ariza-1323","Rudy-Gobert-16935","Elie-Okobo-409300","Mikal-Bridges-408842","Deandre-Ayton-409301","49700","276.62"
"De'Aaron-Fox-37900","DeMar-DeRozan-1053","Josh-Jackson-37890","LaMarcus-Aldridge-1349","Deandre-Ayton-409301","Bogdan-Bogdanovic-37899","Jae-Crowder-13942","Mikal-Bridges-408842","49800","276.58"
"Donovan-Mitchell-37875","DeMar-DeRozan-1053","Josh-Jackson-37890","LaMarcus-Aldridge-1349","Deandre-Ayton-409301","De'Aaron-Fox-37900","Mikal-Bridges-408842","Troy-Daniels-17383","49900","276.58"
"De'Aaron-Fox-37900","Donovan-Mitchell-37875","Josh-Jackson-37890","LaMarcus-Aldridge-1349","Deandre-Ayton-409301","Elie-Okobo-409300","Derrick-Favors-1266","Willie-Cauley-Stein-18951","50000","276.56"
"Ricky-Rubio-1001","DeMar-DeRozan-1053","Josh-Jackson-37890","LaMarcus-Aldridge-1349","Willie-Cauley-Stein-18951","Elie-Okobo-409300","Mikal-Bridges-408842","Deandre-Ayton-409301","48500","276.56"
"De'Aaron-Fox-37900","DeMar-DeRozan-1053","Josh-Jackson-37890","LaMarcus-Aldridge-1349","Deandre-Ayton-409301","Elie-Okobo-409300","Bogdan-Bogdanovic-37899","Mikal-Bridges-408842","49200","276.55"
"De'Aaron-Fox-37900","Joe-Ingles-18627","Josh-Jackson-37890","LaMarcus-Aldridge-1349","Deandre-Ayton-409301","Ricky-Rubio-1001","Jae-Crowder-13942","Willie-Cauley-Stein-18951","49600","276.49"
"De'Aaron-Fox-37900","Buddy-Hield-35206","Josh-Jackson-37890","LaMarcus-Aldridge-1349","Deandre-Ayton-409301","Elie-Okobo-409300","Nemanja-Bjelica-31814","Rudy-Gobert-16935","49800","276.44"
"Ricky-Rubio-1001","Joe-Ingles-18627","Josh-Jackson-37890","LaMarcus-Aldridge-1349","Willie-Cauley-Stein-18951","DeMar-DeRozan-1053","Mikal-Bridges-408842","Deandre-Ayton-409301","49200","276.4"
"De'Aaron-Fox-37900","DeMar-DeRozan-1053","Joe-Ingles-18627","LaMarcus-Aldridge-1349","Deandre-Ayton-409301","Bogdan-Bogdanovic-37899","Mikal-Bridges-408842","Josh-Jackson-37890","49900","276.39"
"Donovan-Mitchell-37875","Bogdan-Bogdanovic-37899","Josh-Jackson-37890","LaMarcus-Aldridge-1349","Willie-Cauley-Stein-18951","Elie-Okobo-409300","Trevor-Ariza-1323","Deandre-Ayton-409301","49600","276.39"
"Ricky-Rubio-1001","DeMar-DeRozan-1053","Josh-Jackson-37890","LaMarcus-Aldridge-1349","Deandre-Ayton-409301","Bogdan-Bogdanovic-37899","Nemanja-Bjelica-31814","Willie-Cauley-Stein-18951","50000","276.35"
"De'Aaron-Fox-37900","Buddy-Hield-35206","Josh-Jackson-37890","LaMarcus-Aldridge-1349","Willie-Cauley-Stein-18951","Elie-Okobo-409300","Bogdan-Bogdanovic-37899","Deandre-Ayton-409301","49500","276.34"
"De'Aaron-Fox-37900","Buddy-Hield-35206","Josh-Jackson-37890","LaMarcus-Aldridge-1349","Deandre-Ayton-409301","Ricky-Rubio-1001","Jae-Crowder-13942","Trevor-Ariza-1323","49800","276.33"
"Ricky-Rubio-1001","Donovan-Mitchell-37875","Josh-Jackson-37890","LaMarcus-Aldridge-1349","Willie-Cauley-Stein-18951","Elie-Okobo-409300","Rudy-Gay-1341","Deandre-Ayton-409301","49800","276.32"
"De'Aaron-Fox-37900","Donovan-Mitchell-37875","Josh-Jackson-37890","LaMarcus-Aldridge-1349","Deandre-Ayton-409301","Ricky-Rubio-1001","Nemanja-Bjelica-31814","Jae-Crowder-13942","49900","276.3"
"De'Aaron-Fox-37900","Buddy-Hield-35206","Josh-Jackson-37890","LaMarcus-Aldridge-1349","Deandre-Ayton-409301","Ricky-Rubio-1001","Trevor-Ariza-1323","Elie-Okobo-409300","49200","276.3"
"De'Aaron-Fox-37900","Donovan-Mitchell-37875","Josh-Jackson-37890","LaMarcus-Aldridge-1349","Deandre-Ayton-409301","Ricky-Rubio-1001","Nemanja-Bjelica-31814","Elie-Okobo-409300","49300","276.27"
"De'Aaron-Fox-37900","DeMar-DeRozan-1053","Josh-Jackson-37890","Trevor-Ariza-1323","Deandre-Ayton-409301","Elie-Okobo-409300","Nemanja-Bjelica-31814","LaMarcus-Aldridge-1349","49200","276.26"
"Ricky-Rubio-1001","DeMar-DeRozan-1053","Trevor-Ariza-1323","LaMarcus-Aldridge-1349","Deandre-Ayton-409301","Buddy-Hield-35206","Mikal-Bridges-408842","Josh-Jackson-37890","49400","276.24"
"Donovan-Mitchell-37875","Buddy-Hield-35206","Josh-Jackson-37890","LaMarcus-Aldridge-1349","Deandre-Ayton-409301","De'Aaron-Fox-37900","Jae-Crowder-13942","Mikal-Bridges-408842","49600","276.23"
"Donovan-Mitchell-37875","DeMar-DeRozan-1053","Josh-Jackson-37890","Nemanja-Bjelica-31814","LaMarcus-Aldridge-1349","Ricky-Rubio-1001","Mikal-Bridges-408842","Deandre-Ayton-409301","49500","276.21"
"De'Aaron-Fox-37900","Donovan-Mitchell-37875","Josh-Jackson-37890","LaMarcus-Aldridge-1349","Deandre-Ayton-409301","Elie-Okobo-409300","Buddy-Hield-35206","Mikal-Bridges-408842","49000","276.2"
"De'Aaron-Fox-37900","DeMar-DeRozan-1053","Josh-Jackson-37890","Trevor-Ariza-1323","Deandre-Ayton-409301","Ricky-Rubio-1001","Nemanja-Bjelica-31814","Willie-Cauley-Stein-18951","49800","276.19"
"De'Aaron-Fox-37900","Joe-Ingles-18627","Trevor-Ariza-1323","LaMarcus-Aldridge-1349","Deandre-Ayton-409301","Ricky-Rubio-1001","Buddy-Hield-35206","Josh-Jackson-37890","49900","276.14"
"De'Aaron-Fox-37900","DeMar-DeRozan-1053","Josh-Jackson-37890","Trevor-Ariza-1323","Willie-Cauley-Stein-18951","Buddy-Hield-35206","Mikal-Bridges-408842","Deandre-Ayton-409301","49500","276.12"
"De'Aaron-Fox-37900","Donovan-Mitchell-37875","Joe-Ingles-18627","LaMarcus-Aldridge-1349","Deandre-Ayton-409301","Ricky-Rubio-1001","Nemanja-Bjelica-31814","Josh-Jackson-37890","50000","276.11"
"De'Aaron-Fox-37900","Joe-Ingles-18627","Josh-Jackson-37890","Trevor-Ariza-1323","Deandre-Ayton-409301","DeMar-DeRozan-1053","Nemanja-Bjelica-31814","LaMarcus-Aldridge-1349","49900","276.1"
"Donovan-Mitchell-37875","DeMar-DeRozan-1053","Josh-Jackson-37890","Nemanja-Bjelica-31814","Willie-Cauley-Stein-18951","De'Aaron-Fox-37900","Mikal-Bridges-408842","Deandre-Ayton-409301","49600","276.09"
"Donovan-Mitchell-37875","Joe-Ingles-18627","Josh-Jackson-37890","LaMarcus-Aldridge-1349","Deandre-Ayton-409301","De'Aaron-Fox-37900","Buddy-Hield-35206","Mikal-Bridges-408842","49700","276.04"
"Donovan-Mitchell-37875","Buddy-Hield-35206","Josh-Jackson-37890","LaMarcus-Aldridge-1349","Deandre-Ayton-409301","Ricky-Rubio-1001","Nemanja-Bjelica-31814","Willie-Cauley-Stein-18951","49800","276.0"
"De'Aaron-Fox-37900","Joe-Ingles-18627","Josh-Jackson-37890","LaMarcus-Aldridge-1349","Deandre-Ayton-409301","Elie-Okobo-409300","Jae-Crowder-13942","Rudy-Gobert-16935","50000","275.99"
"De'Aaron-Fox-37900","Joe-Ingles-18627","Josh-Jackson-37890","LaMarcus-Aldridge-1349","Willie-Cauley-Stein-18951","Ricky-Rubio-1001","Mikal-Bridges-408842","Deandre-Ayton-409301","48400","275.93"
"Elie-Okobo-409300","Joe-Ingles-18627","Josh-Jackson-37890","LaMarcus-Aldridge-1349","Rudy-Gobert-16935","DeMar-DeRozan-1053","Mikal-Bridges-408842","Deandre-Ayton-409301","49600","275.9"
"De'Aaron-Fox-37900","Bogdan-Bogdanovic-37899","Josh-Jackson-37890","LaMarcus-Aldridge-1349","Deandre-Ayton-409301","Ricky-Rubio-1001","Nemanja-Bjelica-31814","Willie-Cauley-Stein-18951","49200","275.88"
"De'Aaron-Fox-37900","Bogdan-Bogdanovic-37899","Josh-Jackson-37890","LaMarcus-Aldridge-1349","Willie-Cauley-Stein-18951","Buddy-Hield-35206","Mikal-Bridges-408842","Deandre-Ayton-409301","48900","275.81"
"Donovan-Mitchell-37875","Bogdan-Bogdanovic-37899","Josh-Jackson-37890","Rudy-Gay-1341","Deandre-Ayton-409301","De'Aaron-Fox-37900","Mikal-Bridges-408842","LaMarcus-Aldridge-1349","49900","275.78"
"De'Aaron-Fox-37900","Buddy-Hield-35206","Trevor-Ariza-1323","LaMarcus-Aldridge-1349","Deandre-Ayton-409301","Ricky-Rubio-1001","Mikal-Bridges-408842","Josh-Jackson-37890","48600","275.77"
"De'Aaron-Fox-37900","Donovan-Mitchell-37875","Josh-Jackson-37890","Nemanja-Bjelica-31814","LaMarcus-Aldridge-1349","Ricky-Rubio-1001","Mikal-Bridges-408842","Deandre-Ayton-409301","48700","275.74"
"Ricky-Rubio-1001","Donovan-Mitchell-37875","Josh-Jackson-37890","LaMarcus-Aldridge-1349","Deandre-Ayton-409301","Elie-Okobo-409300","Jae-Crowder-13942","Willie-Cauley-Stein-18951","49300","275.71"
"Ricky-Rubio-1001","Bogdan-Bogdanovic-37899","Josh-Jackson-37890","Trevor-Ariza-1323","Deandre-Ayton-409301","Elie-Okobo-409300","DeMar-DeRozan-1053","LaMarcus-Aldridge-1349","49800","275.71"
"Donovan-Mitchell-37875","Bogdan-Bogdanovic-37899","Josh-Jackson-37890","LaMarcus-Aldridge-1349","Deandre-Ayton-409301","De'Aaron-Fox-37900","Jae-Crowder-13942","Elie-Okobo-409300","50000","275.7"
"Donovan-Mitchell-37875","DeMar-DeRozan-1053","Josh-Jackson-37890","LaMarcus-Aldridge-1349","Deandre-Ayton-409301","Elie-Okobo-409300","Bogdan-Bogdanovic-37899","Mikal-Bridges-408842","49600","275.61"
"De'Aaron-Fox-37900","Bogdan-Bogdanovic-37899","Josh-Jackson-37890","Trevor-Ariza-1323","Deandre-Ayton-409301","Elie-Okobo-409300","DeMar-DeRozan-1053","Willie-Cauley-Stein-18951","49900","275.59"
"Donovan-Mitchell-37875","Joe-Ingles-18627","Josh-Jackson-37890","LaMarcus-Aldridge-1349","Deandre-Ayton-409301","Ricky-Rubio-1001","Jae-Crowder-13942","Willie-Cauley-Stein-18951","50000","275.55"
"Ricky-Rubio-1001","Donovan-Mitchell-37875","Josh-Jackson-37890","LaMarcus-Aldridge-1349","Willie-Cauley-Stein-18951","Elie-Okobo-409300","Joe-Ingles-18627","Deandre-Ayton-409301","49400","275.52"
"Elie-Okobo-409300","Joe-Ingles-18627","Josh-Jackson-37890","LaMarcus-Aldridge-1349","Willie-Cauley-Stein-18951","DeMar-DeRozan-1053","Trevor-Ariza-1323","Deandre-Ayton-409301","49300","275.51"
"Donovan-Mitchell-37875","DeMar-DeRozan-1053","Jae-Crowder-13942","Trevor-Ariza-1323","Deandre-Ayton-409301","De'Aaron-Fox-37900","Mikal-Bridges-408842","Josh-Jackson-37890","50000","275.48"
"De'Aaron-Fox-37900","Donovan-Mitchell-37875","Josh-Jackson-37890","Trevor-Ariza-1323","Deandre-Ayton-409301","Elie-Okobo-409300","DeMar-DeRozan-1053","Mikal-Bridges-408842","49400","275.45"
"De'Aaron-Fox-37900","Joe-Ingles-18627","Josh-Jackson-37890","LaMarcus-Aldridge-1349","Rudy-Gobert-16935","Elie-Okobo-409300","Mikal-Bridges-408842","Deandre-Ayton-409301","48800","275.43"
"Donovan-Mitchell-37875","Buddy-Hield-35206","Josh-Jackson-37890","LaMarcus-Aldridge-1349","Willie-Cauley-Stein-18951","Elie-Okobo-409300","Bogdan-Bogdanovic-37899","Deandre-Ayton-409301","49900","275.4"
"De'Aaron-Fox-37900","Donovan-Mitchell-37875","Josh-Jackson-37890","LaMarcus-Aldridge-1349","Deandre-Ayton-409301","Ricky-Rubio-1001","Trevor-Ariza-1323","Royce-O'Neale-37872","50000","275.39"
"De'Aaron-Fox-37900","Bogdan-Bogdanovic-37899","Josh-Jackson-37890","LaMarcus-Aldridge-1349","Deandre-Ayton-409301","Elie-Okobo-409300","Nemanja-Bjelica-31814","Rudy-Gobert-16935","49600","275.38"
"Ricky-Rubio-1001","Donovan-Mitchell-37875","Trevor-Ariza-1323","LaMarcus-Aldridge-1349","Deandre-Ayton-409301","Elie-Okobo-409300","Buddy-Hield-35206","Josh-Jackson-37890","49600","275.36"
"Ricky-Rubio-1001","Bogdan-Bogdanovic-37899","Josh-Jackson-37890","LaMarcus-Aldridge-1349","Rudy-Gobert-16935","Buddy-Hield-35206","Mikal-Bridges-408842","Deandre-Ayton-409301","49800","275.36"
"De'Aaron-Fox-37900","DeMar-DeRozan-1053","Josh-Jackson-37890","LaMarcus-Aldridge-1349","Derrick-Favors-1266","Ricky-Rubio-1001","Mikal-Bridges-408842","Deandre-Ayton-409301","49600","275.35"
"Donovan-Mitchell-37875","DeMar-DeRozan-1053","Josh-Jackson-37890","Trevor-Ariza-1323","Deandre-Ayton-409301","Elie-Okobo-409300","Nemanja-Bjelica-31814","LaMarcus-Aldridge-1349","49600","275.32"
"Elie-Okobo-409300","DeMar-DeRozan-1053","Josh-Jackson-37890","LaMarcus-Aldridge-1349","Willie-Cauley-Stein-18951","Buddy-Hield-35206","Rudy-Gay-1341","Deandre-Ayton-409301","50000","275.32"
