"Stephen-Curry-1079","Shai-Gilgeous-Alexander-408990","Andrew-Wiggins-18620","Jonas-Jerebko-1106","Kevon-Looney-18945","Klay-Thompson-13315","Kevin-Durant-1348","Draymond-Green-13976","49800","271.55"
"Shai-Gilgeous-Alexander-408990","Andrew-Wiggins-18620","Kevin-Durant-1348","Draymond-Green-13976","Karl-Anthony-Towns-18937","Klay-Thompson-13315","Jerami-Grant-18576","Jonas-Jerebko-1106","49900","271.39"
"Shai-Gilgeous-Alexander-408990","Klay-Thompson-13315","Kevin-Durant-1348","Jonas-Jerebko-1106","Kevon-Looney-18945","Russell-Westbrook-1083","Draymond-Green-13976","Jerami-Grant-18576","49600","271.31"
"Stephen-Curry-1079","Shai-Gilgeous-Alexander-408990","Kevin-Durant-1348","Jonas-Jerebko-1106","Draymond-Green-13976","Klay-Thompson-13315","Dario-Saric-36004","Jerami-Grant-18576","49700","271.01"

"Stephen-Curry-1079","Shai-Gilgeous-Alexander-408990","Andrew-Wiggins-18620","Jonas-Jerebko-1106","Kevon-Looney-18945","Klay-Thompson-13315","Kevin-Durant-1348","Draymond-Green-13976","49800","271.55"
"Shai-Gilgeous-Alexander-408990","Andrew-Wiggins-18620","Kevin-Durant-1348","Draymond-Green-13976","Karl-Anthony-Towns-18937","Klay-Thompson-13315","Jerami-Grant-18576","Jonas-Jerebko-1106","49900","271.39"
"Shai-Gilgeous-Alexander-408990","Klay-Thompson-13315","Kevin-Durant-1348","Jonas-Jerebko-1106","Kevon-Looney-18945","Russell-Westbrook-1083","Draymond-Green-13976","Jerami-Grant-18576","49600","271.31"
"Stephen-Curry-1079","Shai-Gilgeous-Alexander-408990","Kevin-Durant-1348","Jonas-Jerebko-1106","Draymond-Green-13976","Klay-Thompson-13315","Dario-Saric-36004","Jerami-Grant-18576","49700","271.01"
"Shai-Gilgeous-Alexander-408990","Andrew-Wiggins-18620","Kevin-Durant-1348","Draymond-Green-13976","Karl-Anthony-Towns-18937","Klay-Thompson-13315","Jerami-Grant-18576","Kevon-Looney-18945","50000","270.73"
"Stephen-Curry-1079","Shai-Gilgeous-Alexander-408990","Kevin-Durant-1348","Draymond-Green-13976","Kevon-Looney-18945","Klay-Thompson-13315","Dario-Saric-36004","Jerami-Grant-18576","49800","270.35"
"Stephen-Curry-1079","Andrew-Wiggins-18620","Kevin-Durant-1348","Jonas-Jerebko-1106","Kevon-Looney-18945","Klay-Thompson-13315","Draymond-Green-13976","Jerami-Grant-18576","49600","270.2"
"Stephen-Curry-1079","Avery-Bradley-941","Andrew-Wiggins-18620","Jonas-Jerebko-1106","Draymond-Green-13976","Shai-Gilgeous-Alexander-408990","Kevin-Durant-1348","Klay-Thompson-13315","49900","269.59"
"Shai-Gilgeous-Alexander-408990","Avery-Bradley-941","Kevin-Durant-1348","Jonas-Jerebko-1106","Draymond-Green-13976","Russell-Westbrook-1083","Jerami-Grant-18576","Klay-Thompson-13315","49700","269.35"
"Shai-Gilgeous-Alexander-408990","Klay-Thompson-13315","Kevin-Durant-1348","Dario-Saric-36004","Draymond-Green-13976","Russell-Westbrook-1083","Andre-Iguodala-1334","Jonas-Jerebko-1106","49900","269.09"
"Stephen-Curry-1079","Shai-Gilgeous-Alexander-408990","Andrew-Wiggins-18620","Danilo-Gallinari-1329","Jonas-Jerebko-1106","Andre-Iguodala-1334","Kevin-Durant-1348","Draymond-Green-13976","50000","269.02"
"Stephen-Curry-1079","Avery-Bradley-941","Andrew-Wiggins-18620","Draymond-Green-13976","Kevon-Looney-18945","Shai-Gilgeous-Alexander-408990","Kevin-Durant-1348","Klay-Thompson-13315","50000","268.93"
"Stephen-Curry-1079","Shai-Gilgeous-Alexander-408990","Andrew-Wiggins-18620","Jonas-Jerebko-1106","Draymond-Green-13976","Klay-Thompson-13315","Andre-Iguodala-1334","Kevin-Durant-1348","49600","268.88"
"Stephen-Curry-1079","Shai-Gilgeous-Alexander-408990","Andre-Iguodala-1334","Jonas-Jerebko-1106","Draymond-Green-13976","Russell-Westbrook-1083","Jerami-Grant-18576","Klay-Thompson-13315","49700","268.82"
"Shai-Gilgeous-Alexander-408990","Andre-Iguodala-1334","Danilo-Gallinari-1329","Jonas-Jerebko-1106","Draymond-Green-13976","Russell-Westbrook-1083","Kevin-Durant-1348","Jerami-Grant-18576","49800","268.78"
"Stephen-Curry-1079","Klay-Thompson-13315","Kevin-Durant-1348","Jonas-Jerebko-1106","Kevon-Looney-18945","Lou-Williams-1044","Draymond-Green-13976","Jerami-Grant-18576","50000","268.73"
"Shai-Gilgeous-Alexander-408990","Avery-Bradley-941","Kevin-Durant-1348","Draymond-Green-13976","Kevon-Looney-18945","Russell-Westbrook-1083","Jerami-Grant-18576","Klay-Thompson-13315","49800","268.69"
"Shai-Gilgeous-Alexander-408990","Klay-Thompson-13315","Kevin-Durant-1348","Jerami-Grant-18576","Jonas-Jerebko-1106","Russell-Westbrook-1083","Andre-Iguodala-1334","Draymond-Green-13976","49400","268.64"
"Stephen-Curry-1079","Shai-Gilgeous-Alexander-408990","Andrew-Wiggins-18620","Jonas-Jerebko-1106","Kevon-Looney-18945","Russell-Westbrook-1083","Dario-Saric-36004","Draymond-Green-13976","49900","268.63"
"Stephen-Curry-1079","Alex-Abrines-36054","Danilo-Gallinari-1329","Jonas-Jerebko-1106","Draymond-Green-13976","Klay-Thompson-13315","Kevin-Durant-1348","Jerami-Grant-18576","49900","268.48"
"Shai-Gilgeous-Alexander-408990","Andrew-Wiggins-18620","Kevin-Durant-1348","Draymond-Green-13976","Kevon-Looney-18945","Russell-Westbrook-1083","Dario-Saric-36004","Jonas-Jerebko-1106","49600","268.45"
"Russell-Westbrook-1083","Avery-Bradley-941","Kevin-Durant-1348","Jonas-Jerebko-1106","Draymond-Green-13976","Klay-Thompson-13315","Dario-Saric-36004","Jerami-Grant-18576","50000","268.45"
"Shai-Gilgeous-Alexander-408990","Klay-Thompson-13315","Kevin-Durant-1348","Draymond-Green-13976","Kevon-Looney-18945","Russell-Westbrook-1083","Dario-Saric-36004","Andre-Iguodala-1334","50000","268.43"
"Stephen-Curry-1079","Avery-Bradley-941","Kevin-Durant-1348","Jerami-Grant-18576","Draymond-Green-13976","Shai-Gilgeous-Alexander-408990","Dario-Saric-36004","Klay-Thompson-13315","49900","268.39"
"Russell-Westbrook-1083","Andrew-Wiggins-18620","Kevin-Durant-1348","Jonas-Jerebko-1106","Kevon-Looney-18945","Klay-Thompson-13315","Andre-Iguodala-1334","Draymond-Green-13976","49800","268.28"
"Shai-Gilgeous-Alexander-408990","Andrew-Wiggins-18620","Alex-Abrines-36054","Jerami-Grant-18576","Draymond-Green-13976","Russell-Westbrook-1083","Kevin-Durant-1348","Dario-Saric-36004","50000","268.28"
"Stephen-Curry-1079","Avery-Bradley-941","Andrew-Wiggins-18620","Jerami-Grant-18576","Jonas-Jerebko-1106","Klay-Thompson-13315","Kevin-Durant-1348","Draymond-Green-13976","49700","268.24"
"Stephen-Curry-1079","Shai-Gilgeous-Alexander-408990","Andrew-Wiggins-18620","Kevin-Durant-1348","Kevon-Looney-18945","Klay-Thompson-13315","Andre-Iguodala-1334","Draymond-Green-13976","49700","268.22"
"Stephen-Curry-1079","Shai-Gilgeous-Alexander-408990","Andrew-Wiggins-18620","Draymond-Green-13976","Kevon-Looney-18945","Russell-Westbrook-1083","Jerami-Grant-18576","Jonas-Jerebko-1106","49400","268.18"
"Stephen-Curry-1079","Shai-Gilgeous-Alexander-408990","Andre-Iguodala-1334","Draymond-Green-13976","Kevon-Looney-18945","Russell-Westbrook-1083","Jerami-Grant-18576","Klay-Thompson-13315","49800","268.16"
"Shai-Gilgeous-Alexander-408990","Andre-Iguodala-1334","Danilo-Gallinari-1329","Jerami-Grant-18576","Kevon-Looney-18945","Russell-Westbrook-1083","Kevin-Durant-1348","Draymond-Green-13976","49900","268.12"
"Stephen-Curry-1079","Avery-Bradley-941","Kevin-Durant-1348","Jonas-Jerebko-1106","Karl-Anthony-Towns-18937","Shai-Gilgeous-Alexander-408990","Draymond-Green-13976","Kevon-Looney-18945","49900","268.1"
"Shai-Gilgeous-Alexander-408990","Andrew-Wiggins-18620","Kevin-Durant-1348","Draymond-Green-13976","Karl-Anthony-Towns-18937","Klay-Thompson-13315","Jerami-Grant-18576","Andre-Iguodala-1334","49800","268.06"
"Patrick-Beverley-14108","Stephen-Curry-1079","Andrew-Wiggins-18620","Jonas-Jerebko-1106","Draymond-Green-13976","Shai-Gilgeous-Alexander-408990","Jerami-Grant-18576","Russell-Westbrook-1083","50000","268.05"
"Shai-Gilgeous-Alexander-408990","Andrew-Wiggins-18620","Kevin-Durant-1348","Jonas-Jerebko-1106","Kevon-Looney-18945","Russell-Westbrook-1083","Draymond-Green-13976","Jerami-Grant-18576","49100","268.0"
"Shai-Gilgeous-Alexander-408990","Klay-Thompson-13315","Kevin-Durant-1348","Jerami-Grant-18576","Draymond-Green-13976","Russell-Westbrook-1083","Andre-Iguodala-1334","Kevon-Looney-18945","49500","267.98"
"Stephen-Curry-1079","Andrew-Wiggins-18620","Kevin-Durant-1348","Dario-Saric-36004","Draymond-Green-13976","Klay-Thompson-13315","Andre-Iguodala-1334","Jonas-Jerebko-1106","49900","267.98"
"Stephen-Curry-1079","Shai-Gilgeous-Alexander-408990","Kevin-Durant-1348","Jonas-Jerebko-1106","Kevon-Looney-18945","Klay-Thompson-13315","Draymond-Green-13976","Montrezl-Harrell-18930","49900","267.95"
"Stephen-Curry-1079","Klay-Thompson-13315","Andre-Iguodala-1334","Jonas-Jerebko-1106","Draymond-Green-13976","Russell-Westbrook-1083","Jerami-Grant-18576","Dario-Saric-36004","50000","267.92"
"Stephen-Curry-1079","Klay-Thompson-13315","Danilo-Gallinari-1329","Jonas-Jerebko-1106","Draymond-Green-13976","Shaun-Livingston-14007","Kevin-Durant-1348","Jerami-Grant-18576","50000","267.9"
"Patrick-Beverley-14108","Shai-Gilgeous-Alexander-408990","Andrew-Wiggins-18620","Jerami-Grant-18576","Jonas-Jerebko-1106","Russell-Westbrook-1083","Kevin-Durant-1348","Draymond-Green-13976","49700","267.87"
"Stephen-Curry-1079","Shai-Gilgeous-Alexander-408990","Andrew-Wiggins-18620","Taj-Gibson-1277","Jonas-Jerebko-1106","Russell-Westbrook-1083","Jerami-Grant-18576","Draymond-Green-13976","50000","267.86"
"Stephen-Curry-1079","Alex-Abrines-36054","Danilo-Gallinari-1329","Jerami-Grant-18576","Kevon-Looney-18945","Klay-Thompson-13315","Kevin-Durant-1348","Draymond-Green-13976","50000","267.82"
"Stephen-Curry-1079","Shai-Gilgeous-Alexander-408990","Danilo-Gallinari-1329","Dario-Saric-36004","Draymond-Green-13976","Andre-Iguodala-1334","Kevin-Durant-1348","Jerami-Grant-18576","50000","267.82"
"Shai-Gilgeous-Alexander-408990","Klay-Thompson-13315","Andrew-Wiggins-18620","Dario-Saric-36004","Draymond-Green-13976","Russell-Westbrook-1083","Danilo-Gallinari-1329","Jonas-Jerebko-1106","50000","267.75"
"Shai-Gilgeous-Alexander-408990","Klay-Thompson-13315","Kevin-Durant-1348","Jonas-Jerebko-1106","Draymond-Green-13976","Russell-Westbrook-1083","Dario-Saric-36004","Gorgui-Dieng-16939","49800","267.75"
"Russell-Westbrook-1083","Klay-Thompson-13315","Kevin-Durant-1348","Jonas-Jerebko-1106","Draymond-Green-13976","Andre-Iguodala-1334","Dario-Saric-36004","Jerami-Grant-18576","49700","267.74"
"Stephen-Curry-1079","Andrew-Wiggins-18620","Kevin-Durant-1348","Jonas-Jerebko-1106","Draymond-Green-13976","Shai-Gilgeous-Alexander-408990","Dario-Saric-36004","Jerami-Grant-18576","49200","267.7"
"Shai-Gilgeous-Alexander-408990","Andrew-Wiggins-18620","Kevin-Durant-1348","Taj-Gibson-1277","Draymond-Green-13976","Russell-Westbrook-1083","Jerami-Grant-18576","Jonas-Jerebko-1106","49700","267.68"
"Stephen-Curry-1079","Shai-Gilgeous-Alexander-408990","Kevin-Durant-1348","Dario-Saric-36004","Draymond-Green-13976","Klay-Thompson-13315","Andre-Iguodala-1334","Jerami-Grant-18576","49600","267.68"
"Stephen-Curry-1079","Andrew-Wiggins-18620","Danilo-Gallinari-1329","Jonas-Jerebko-1106","Gorgui-Dieng-16939","Shai-Gilgeous-Alexander-408990","Draymond-Green-13976","Kevin-Durant-1348","49900","267.68"
"Stephen-Curry-1079","Andrew-Wiggins-18620","Danilo-Gallinari-1329","Jonas-Jerebko-1106","Draymond-Green-13976","Andre-Iguodala-1334","Kevin-Durant-1348","Jerami-Grant-18576","49800","267.67"
"Shai-Gilgeous-Alexander-408990","Dennis-Schroder-18595","Kevin-Durant-1348","Jonas-Jerebko-1106","Draymond-Green-13976","Russell-Westbrook-1083","Dario-Saric-36004","Jerami-Grant-18576","50000","267.64"
"Stephen-Curry-1079","Shai-Gilgeous-Alexander-408990","Danilo-Gallinari-1329","Jonas-Jerebko-1106","Gorgui-Dieng-16939","Russell-Westbrook-1083","Draymond-Green-13976","Jerami-Grant-18576","50000","267.62"
"Stephen-Curry-1079","Avery-Bradley-941","Andrew-Wiggins-18620","Draymond-Green-13976","Kevon-Looney-18945","Klay-Thompson-13315","Jerami-Grant-18576","Kevin-Durant-1348","49800","267.58"
"Stephen-Curry-1079","Andrew-Wiggins-18620","Kevin-Durant-1348","Jonas-Jerebko-1106","Gorgui-Dieng-16939","Shai-Gilgeous-Alexander-408990","Draymond-Green-13976","Klay-Thompson-13315","49500","267.54"
"Stephen-Curry-1079","Klay-Thompson-13315","Andrew-Wiggins-18620","Jerami-Grant-18576","Jonas-Jerebko-1106","Andre-Iguodala-1334","Kevin-Durant-1348","Draymond-Green-13976","49400","267.53"
"Stephen-Curry-1079","Alex-Abrines-36054","Kevin-Durant-1348","Jonas-Jerebko-1106","Kevon-Looney-18945","Russell-Westbrook-1083","Andre-Iguodala-1334","Draymond-Green-13976","50000","267.44"
"Stephen-Curry-1079","Shai-Gilgeous-Alexander-408990","Andrew-Wiggins-18620","Jerami-Grant-18576","Jonas-Jerebko-1106","Dennis-Schroder-18595","Kevin-Durant-1348","Draymond-Green-13976","49700","267.43"
"Stephen-Curry-1079","Shai-Gilgeous-Alexander-408990","Kevin-Durant-1348","Jonas-Jerebko-1106","Draymond-Green-13976","Klay-Thompson-13315","Andre-Iguodala-1334","Lou-Williams-1044","50000","267.41"
"Stephen-Curry-1079","Shai-Gilgeous-Alexander-408990","Kevin-Durant-1348","Jonas-Jerebko-1106","Kevon-Looney-18945","Andre-Iguodala-1334","Draymond-Green-13976","Paul-George-1245","49900","267.4"
"Stephen-Curry-1079","Shai-Gilgeous-Alexander-408990","Kevin-Durant-1348","Jonas-Jerebko-1106","Karl-Anthony-Towns-18937","Andre-Iguodala-1334","Draymond-Green-13976","Kevon-Looney-18945","49600","267.39"
"Stephen-Curry-1079","Andrew-Wiggins-18620","Kevin-Durant-1348","Draymond-Green-13976","Kevon-Looney-18945","Klay-Thompson-13315","Dario-Saric-36004","Andre-Iguodala-1334","50000","267.32"
"Shai-Gilgeous-Alexander-408990","Klay-Thompson-13315","Andrew-Wiggins-18620","Jonas-Jerebko-1106","Draymond-Green-13976","Russell-Westbrook-1083","Jerami-Grant-18576","Danilo-Gallinari-1329","49500","267.3"
"Shai-Gilgeous-Alexander-408990","Klay-Thompson-13315","Kevin-Durant-1348","Jonas-Jerebko-1106","Gorgui-Dieng-16939","Russell-Westbrook-1083","Draymond-Green-13976","Jerami-Grant-18576","49300","267.3"
"Stephen-Curry-1079","Shai-Gilgeous-Alexander-408990","Alex-Abrines-36054","Jerami-Grant-18576","Draymond-Green-13976","Andre-Iguodala-1334","Kevin-Durant-1348","Karl-Anthony-Towns-18937","50000","267.22"
"Shai-Gilgeous-Alexander-408990","Avery-Bradley-941","Kevin-Durant-1348","Jonas-Jerebko-1106","Karl-Anthony-Towns-18937","Klay-Thompson-13315","Draymond-Green-13976","Danilo-Gallinari-1329","50000","267.22"
"Patrick-Beverley-14108","Shai-Gilgeous-Alexander-408990","Andrew-Wiggins-18620","Draymond-Green-13976","Kevon-Looney-18945","Russell-Westbrook-1083","Jerami-Grant-18576","Kevin-Durant-1348","49800","267.21"
"Shai-Gilgeous-Alexander-408990","Klay-Thompson-13315","Andrew-Wiggins-18620","Jonas-Jerebko-1106","Draymond-Green-13976","Russell-Westbrook-1083","Alex-Abrines-36054","Karl-Anthony-Towns-18937","50000","267.15"
"Shai-Gilgeous-Alexander-408990","Klay-Thompson-13315","Kevin-Durant-1348","Jonas-Jerebko-1106","Draymond-Green-13976","Russell-Westbrook-1083","Dario-Saric-36004","Nerlens-Noel-18575","49800","267.12"
"Stephen-Curry-1079","Klay-Thompson-13315","Andrew-Wiggins-18620","Jonas-Jerebko-1106","Kevon-Looney-18945","Russell-Westbrook-1083","Gorgui-Dieng-16939","Draymond-Green-13976","50000","267.12"
"Shai-Gilgeous-Alexander-408990","Klay-Thompson-13315","Kevin-Durant-1348","Draymond-Green-13976","Kevon-Looney-18945","Russell-Westbrook-1083","Dario-Saric-36004","Gorgui-Dieng-16939","49900","267.09"
"Russell-Westbrook-1083","Klay-Thompson-13315","Kevin-Durant-1348","Draymond-Green-13976","Kevon-Looney-18945","Andre-Iguodala-1334","Dario-Saric-36004","Jerami-Grant-18576","49800","267.08"
"Stephen-Curry-1079","Andrew-Wiggins-18620","Danilo-Gallinari-1329","Jonas-Jerebko-1106","Draymond-Green-13976","Shai-Gilgeous-Alexander-408990","Kevin-Durant-1348","Nerlens-Noel-18575","49900","267.05"
"Stephen-Curry-1079","Andrew-Wiggins-18620","Kevin-Durant-1348","Draymond-Green-13976","Kevon-Looney-18945","Shai-Gilgeous-Alexander-408990","Dario-Saric-36004","Jerami-Grant-18576","49300","267.04"
"Stephen-Curry-1079","Andrew-Wiggins-18620","Danilo-Gallinari-1329","Draymond-Green-13976","Kevon-Looney-18945","Shai-Gilgeous-Alexander-408990","Gorgui-Dieng-16939","Kevin-Durant-1348","50000","267.02"
"Shai-Gilgeous-Alexander-408990","Andrew-Wiggins-18620","Kevin-Durant-1348","Taj-Gibson-1277","Kevon-Looney-18945","Russell-Westbrook-1083","Draymond-Green-13976","Jerami-Grant-18576","49800","267.02"
"Stephen-Curry-1079","Andrew-Wiggins-18620","Danilo-Gallinari-1329","Jerami-Grant-18576","Kevon-Looney-18945","Andre-Iguodala-1334","Kevin-Durant-1348","Draymond-Green-13976","49900","267.01"
"Stephen-Curry-1079","Shai-Gilgeous-Alexander-408990","Danilo-Gallinari-1329","Draymond-Green-13976","Nerlens-Noel-18575","Russell-Westbrook-1083","Jerami-Grant-18576","Jonas-Jerebko-1106","50000","266.99"
"Shai-Gilgeous-Alexander-408990","Lou-Williams-1044","Kevin-Durant-1348","Draymond-Green-13976","Kevon-Looney-18945","Russell-Westbrook-1083","Dario-Saric-36004","Jonas-Jerebko-1106","50000","266.98"
"Patrick-Beverley-14108","Andrew-Wiggins-18620","Kevin-Durant-1348","Jonas-Jerebko-1106","Draymond-Green-13976","Russell-Westbrook-1083","Dario-Saric-36004","Jerami-Grant-18576","50000","266.97"
"Russell-Westbrook-1083","Andrew-Wiggins-18620","Kevin-Durant-1348","Jonas-Jerebko-1106","Kevon-Looney-18945","Klay-Thompson-13315","Gorgui-Dieng-16939","Draymond-Green-13976","49700","266.94"
"Stephen-Curry-1079","Shai-Gilgeous-Alexander-408990","Andrew-Wiggins-18620","Jonas-Jerebko-1106","Nerlens-Noel-18575","Klay-Thompson-13315","Kevin-Durant-1348","Draymond-Green-13976","49500","266.91"
"Patrick-Beverley-14108","Stephen-Curry-1079","Andrew-Wiggins-18620","Jerami-Grant-18576","Draymond-Green-13976","Shai-Gilgeous-Alexander-408990","Kevin-Durant-1348","Dario-Saric-36004","49900","266.91"
"Stephen-Curry-1079","Shai-Gilgeous-Alexander-408990","Andrew-Wiggins-18620","Draymond-Green-13976","Karl-Anthony-Towns-18937","Klay-Thompson-13315","Jerami-Grant-18576","Gorgui-Dieng-16939","50000","266.9"
"Stephen-Curry-1079","Shai-Gilgeous-Alexander-408990","Andrew-Wiggins-18620","Draymond-Green-13976","Kevon-Looney-18945","Klay-Thompson-13315","Gorgui-Dieng-16939","Kevin-Durant-1348","49600","266.88"
"Stephen-Curry-1079","Klay-Thompson-13315","Andrew-Wiggins-18620","Draymond-Green-13976","Kevon-Looney-18945","Andre-Iguodala-1334","Jerami-Grant-18576","Kevin-Durant-1348","49500","266.87"
"Russell-Westbrook-1083","Andrew-Wiggins-18620","Kevin-Durant-1348","Jonas-Jerebko-1106","Kevon-Looney-18945","Dennis-Schroder-18595","Draymond-Green-13976","Jerami-Grant-18576","49900","266.83"
"Stephen-Curry-1079","Shai-Gilgeous-Alexander-408990","Terrance-Ferguson-37871","Jonas-Jerebko-1106","Draymond-Green-13976","Russell-Westbrook-1083","Dario-Saric-36004","Klay-Thompson-13315","50000","266.82"
"Stephen-Curry-1079","Shai-Gilgeous-Alexander-408990","Robert-Covington-16874","Kevin-Durant-1348","Jonas-Jerebko-1106","Klay-Thompson-13315","Andre-Iguodala-1334","Draymond-Green-13976","49900","266.8"
"Stephen-Curry-1079","Shai-Gilgeous-Alexander-408990","Andrew-Wiggins-18620","Jerami-Grant-18576","Draymond-Green-13976","Russell-Westbrook-1083","Josh-Okogie-409174","Jonas-Jerebko-1106","49900","266.78"
"Stephen-Curry-1079","Shai-Gilgeous-Alexander-408990","Alex-Abrines-36054","Jonas-Jerebko-1106","Draymond-Green-13976","Russell-Westbrook-1083","Dario-Saric-36004","Klay-Thompson-13315","49800","266.77"
"Stephen-Curry-1079","Shai-Gilgeous-Alexander-408990","Andrew-Wiggins-18620","Draymond-Green-13976","Kevon-Looney-18945","Dennis-Schroder-18595","Jerami-Grant-18576","Kevin-Durant-1348","49800","266.77"
"Stephen-Curry-1079","Shai-Gilgeous-Alexander-408990","Andrew-Wiggins-18620","Jonas-Jerebko-1106","Kevon-Looney-18945","Lou-Williams-1044","Kevin-Durant-1348","Draymond-Green-13976","49700","266.77"
"Shai-Gilgeous-Alexander-408990","Alex-Abrines-36054","Kevin-Durant-1348","Jonas-Jerebko-1106","Draymond-Green-13976","Russell-Westbrook-1083","Dario-Saric-36004","Danilo-Gallinari-1329","49900","266.73"
"Shai-Gilgeous-Alexander-408990","Andrew-Wiggins-18620","Kevin-Durant-1348","Jerami-Grant-18576","Draymond-Green-13976","Klay-Thompson-13315","Paul-George-1245","Gorgui-Dieng-16939","50000","266.73"
"Stephen-Curry-1079","Andrew-Wiggins-18620","Kevin-Durant-1348","Taj-Gibson-1277","Draymond-Green-13976","Shai-Gilgeous-Alexander-408990","Dario-Saric-36004","Jerami-Grant-18576","49900","266.72"
"Shai-Gilgeous-Alexander-408990","Andrew-Wiggins-18620","Kevin-Durant-1348","Draymond-Green-13976","Karl-Anthony-Towns-18937","Klay-Thompson-13315","Jerami-Grant-18576","Gorgui-Dieng-16939","49700","266.72"
"Stephen-Curry-1079","Shai-Gilgeous-Alexander-408990","Kevin-Durant-1348","Jonas-Jerebko-1106","Kevon-Looney-18945","Russell-Westbrook-1083","Andre-Iguodala-1334","Jerami-Grant-18576","49800","266.71"
"Stephen-Curry-1079","Shai-Gilgeous-Alexander-408990","Danilo-Gallinari-1329","Draymond-Green-13976","Karl-Anthony-Towns-18937","Klay-Thompson-13315","Andre-Iguodala-1334","Jonas-Jerebko-1106","50000","266.69"
