"Damian-Lillard-13900","C.J.-McCollum-17121","Maurice-Harkless-16971","Al-Farouq-Aminu-1279","Marc-Gasol-1493","Mike-Conley-1062","Kyle-Anderson-18615","Jusuf-Nurkic-18619","49700","279.73"

"Damian-Lillard-13900","C.J.-McCollum-17121","Maurice-Harkless-16971","Al-Farouq-Aminu-1279","Marc-Gasol-1493","Mike-Conley-1062","Kyle-Anderson-18615","Jusuf-Nurkic-18619","49700","279.73"
"Damian-Lillard-13900","C.J.-McCollum-17121","Kyle-Anderson-18615","Maurice-Harkless-16971","Jusuf-Nurkic-18619","Mike-Conley-1062","Wesley-Matthews-1339","Marc-Gasol-1493","49600","279.32"
"Damian-Lillard-13900","Wesley-Matthews-1339","Maurice-Harkless-16971","Al-Farouq-Aminu-1279","Jusuf-Nurkic-18619","Shelvin-Mack-13354","LeBron-James-1227","Marc-Gasol-1493","49700","278.89"
"Damian-Lillard-13900","Wesley-Matthews-1339","Maurice-Harkless-16971","Harrison-Barnes-13901","Jusuf-Nurkic-18619","C.J.-McCollum-17121","LeBron-James-1227","Ivica-Zubac-35226","50000","278.85"
"Kyle-Anderson-18615","Wesley-Matthews-1339","Maurice-Harkless-16971","Harrison-Barnes-13901","Jusuf-Nurkic-18619","C.J.-McCollum-17121","LeBron-James-1227","Marc-Gasol-1493","49900","277.95"
"Kyle-Anderson-18615","Wesley-Matthews-1339","Maurice-Harkless-16971","Al-Farouq-Aminu-1279","Jusuf-Nurkic-18619","Damian-Lillard-13900","LeBron-James-1227","C.J.-McCollum-17121","49500","277.92"
"Kyle-Anderson-18615","Wesley-Matthews-1339","Maurice-Harkless-16971","Al-Farouq-Aminu-1279","Jusuf-Nurkic-18619","Damian-Lillard-13900","LeBron-James-1227","DeAndre-Jordan-1486","49900","277.55"
"Damian-Lillard-13900","Wesley-Matthews-1339","Kyle-Anderson-18615","Al-Farouq-Aminu-1279","Ivica-Zubac-35226","C.J.-McCollum-17121","LeBron-James-1227","Jusuf-Nurkic-18619","49800","277.13"
"Kyle-Anderson-18615","C.J.-McCollum-17121","Maurice-Harkless-16971","Al-Farouq-Aminu-1279","Marc-Gasol-1493","Damian-Lillard-13900","LeBron-James-1227","Ivica-Zubac-35226","49600","277.09"
"Damian-Lillard-13900","C.J.-McCollum-17121","Maurice-Harkless-16971","Al-Farouq-Aminu-1279","Jusuf-Nurkic-18619","Mike-Conley-1062","Wesley-Matthews-1339","Marc-Gasol-1493","49200","277.08"
"Damian-Lillard-13900","C.J.-McCollum-17121","Kyle-Anderson-18615","Harrison-Barnes-13901","Marc-Gasol-1493","Brandon-Ingram-35227","Al-Farouq-Aminu-1279","Jusuf-Nurkic-18619","50000","276.99"
"Kyle-Anderson-18615","Wesley-Matthews-1339","Maurice-Harkless-16971","Dorian-Finney-Smith-36032","Jusuf-Nurkic-18619","Damian-Lillard-13900","LeBron-James-1227","Marc-Gasol-1493","50000","276.84"
"Kyle-Anderson-18615","Devin-Harris-1076","Maurice-Harkless-16971","Al-Farouq-Aminu-1279","Jusuf-Nurkic-18619","Damian-Lillard-13900","LeBron-James-1227","Marc-Gasol-1493","49800","276.69"
"Damian-Lillard-13900","Wesley-Matthews-1339","Maurice-Harkless-16971","Harrison-Barnes-13901","Marc-Gasol-1493","Mike-Conley-1062","Kyle-Anderson-18615","Jusuf-Nurkic-18619","49400","276.68"
"Kyle-Anderson-18615","C.J.-McCollum-17121","Maurice-Harkless-16971","LeBron-James-1227","Ivica-Zubac-35226","Damian-Lillard-13900","Wesley-Matthews-1339","Marc-Gasol-1493","49500","276.68"
"Kyle-Anderson-18615","Wesley-Matthews-1339","Harrison-Barnes-13901","Al-Farouq-Aminu-1279","Marc-Gasol-1493","Damian-Lillard-13900","LeBron-James-1227","Maurice-Harkless-16971","50000","276.65"
"Damian-Lillard-13900","C.J.-McCollum-17121","Kyle-Anderson-18615","Harrison-Barnes-13901","Jusuf-Nurkic-18619","Brandon-Ingram-35227","Wesley-Matthews-1339","Marc-Gasol-1493","49900","276.58"
"Damian-Lillard-13900","Wesley-Matthews-1339","Maurice-Harkless-16971","LeBron-James-1227","Marc-Gasol-1493","Jalen-Brunson-409062","Kyle-Anderson-18615","Jusuf-Nurkic-18619","50000","276.58"
"Damian-Lillard-13900","Wesley-Matthews-1339","Maurice-Harkless-16971","Harrison-Barnes-13901","Jusuf-Nurkic-18619","Shelvin-Mack-13354","LeBron-James-1227","C.J.-McCollum-17121","50000","276.57"
"Damian-Lillard-13900","Wesley-Matthews-1339","Maurice-Harkless-16971","Kyle-Kuzma-37886","Jusuf-Nurkic-18619","C.J.-McCollum-17121","Harrison-Barnes-13901","Marc-Gasol-1493","49800","276.36"
"Damian-Lillard-13900","C.J.-McCollum-17121","Maurice-Harkless-16971","Harrison-Barnes-13901","Marc-Gasol-1493","Lonzo-Ball-37885","Kyle-Anderson-18615","Jusuf-Nurkic-18619","49700","276.3"
"Kyle-Anderson-18615","Devin-Harris-1076","Maurice-Harkless-16971","LeBron-James-1227","Marc-Gasol-1493","Damian-Lillard-13900","Wesley-Matthews-1339","Jusuf-Nurkic-18619","49700","276.28"
"Kyle-Anderson-18615","C.J.-McCollum-17121","Maurice-Harkless-16971","Al-Farouq-Aminu-1279","Marc-Gasol-1493","Damian-Lillard-13900","Luka-Doncic-408971","Jusuf-Nurkic-18619","49900","276.08"
"Kyle-Anderson-18615","Josh-Hart-37889","Maurice-Harkless-16971","LeBron-James-1227","Marc-Gasol-1493","Damian-Lillard-13900","Wesley-Matthews-1339","Jusuf-Nurkic-18619","50000","275.88"
"Damian-Lillard-13900","Evan-Turner-1291","Maurice-Harkless-16971","LeBron-James-1227","Marc-Gasol-1493","Shelvin-Mack-13354","Kyle-Anderson-18615","Jusuf-Nurkic-18619","49900","275.75"
"Kyle-Anderson-18615","C.J.-McCollum-17121","Maurice-Harkless-16971","Al-Farouq-Aminu-1279","Jusuf-Nurkic-18619","Damian-Lillard-13900","LeBron-James-1227","Ivica-Zubac-35226","48900","275.72"
"Damian-Lillard-13900","Luka-Doncic-408971","Kyle-Anderson-18615","Maurice-Harkless-16971","Jusuf-Nurkic-18619","C.J.-McCollum-17121","Wesley-Matthews-1339","Marc-Gasol-1493","49800","275.67"
"Damian-Lillard-13900","C.J.-McCollum-17121","Maurice-Harkless-16971","JaMychal-Green-18729","Marc-Gasol-1493","Mike-Conley-1062","Kyle-Anderson-18615","Jusuf-Nurkic-18619","49300","275.44"
"Kyle-Anderson-18615","Wesley-Matthews-1339","Maurice-Harkless-16971","Al-Farouq-Aminu-1279","Jusuf-Nurkic-18619","Mike-Conley-1062","LeBron-James-1227","Marc-Gasol-1493","50000","275.42"
"Kyle-Anderson-18615","C.J.-McCollum-17121","Maurice-Harkless-16971","JaMychal-Green-18729","Marc-Gasol-1493","Damian-Lillard-13900","LeBron-James-1227","Al-Farouq-Aminu-1279","49900","275.41"
"Kyle-Anderson-18615","C.J.-McCollum-17121","Maurice-Harkless-16971","LeBron-James-1227","Ivica-Zubac-35226","Damian-Lillard-13900","Wesley-Matthews-1339","Jusuf-Nurkic-18619","48800","275.31"
"Kyle-Anderson-18615","Wesley-Matthews-1339","Maurice-Harkless-16971","Al-Farouq-Aminu-1279","Jusuf-Nurkic-18619","Damian-Lillard-13900","LeBron-James-1227","Harrison-Barnes-13901","49300","275.28"
"Damian-Lillard-13900","Wesley-Matthews-1339","Kyle-Anderson-18615","Harrison-Barnes-13901","Marc-Gasol-1493","C.J.-McCollum-17121","Al-Farouq-Aminu-1279","Jusuf-Nurkic-18619","48700","275.25"
"Kyle-Anderson-18615","Wesley-Matthews-1339","Maurice-Harkless-16971","Dwight-Powell-18566","Jusuf-Nurkic-18619","Damian-Lillard-13900","LeBron-James-1227","Marc-Gasol-1493","49900","275.23"
"Damian-Lillard-13900","C.J.-McCollum-17121","Maurice-Harkless-16971","Harrison-Barnes-13901","Marc-Gasol-1493","Brandon-Ingram-35227","Kyle-Anderson-18615","Jusuf-Nurkic-18619","49000","275.17"
"Kyle-Anderson-18615","Wesley-Matthews-1339","Maurice-Harkless-16971","JaMychal-Green-18729","Marc-Gasol-1493","Damian-Lillard-13900","LeBron-James-1227","C.J.-McCollum-17121","49800","275.0"
"Damian-Lillard-13900","C.J.-McCollum-17121","Kyle-Anderson-18615","Al-Farouq-Aminu-1279","Jusuf-Nurkic-18619","Shelvin-Mack-13354","Wesley-Matthews-1339","LeBron-James-1227","49800","274.85"
"Kyle-Anderson-18615","C.J.-McCollum-17121","Maurice-Harkless-16971","Al-Farouq-Aminu-1279","Marc-Gasol-1493","Damian-Lillard-13900","LeBron-James-1227","Shelvin-Mack-13354","49600","274.81"
"Damian-Lillard-13900","C.J.-McCollum-17121","Maurice-Harkless-16971","Al-Farouq-Aminu-1279","Jusuf-Nurkic-18619","Brandon-Ingram-35227","LeBron-James-1227","Ivica-Zubac-35226","49700","274.81"
"Damian-Lillard-13900","C.J.-McCollum-17121","Maurice-Harkless-16971","Harrison-Barnes-13901","Jusuf-Nurkic-18619","Mike-Conley-1062","Al-Farouq-Aminu-1279","DeAndre-Jordan-1486","50000","274.8"
"Kyle-Anderson-18615","C.J.-McCollum-17121","Kyle-Kuzma-37886","Al-Farouq-Aminu-1279","Marc-Gasol-1493","Damian-Lillard-13900","Wesley-Matthews-1339","Jusuf-Nurkic-18619","49600","274.64"
"Damian-Lillard-13900","C.J.-McCollum-17121","JaMychal-Green-18729","Al-Farouq-Aminu-1279","Marc-Gasol-1493","Mike-Conley-1062","Wesley-Matthews-1339","Jusuf-Nurkic-18619","49800","274.61"
"Damian-Lillard-13900","Wesley-Matthews-1339","Maurice-Harkless-16971","JaMychal-Green-18729","Marc-Gasol-1493","Shelvin-Mack-13354","LeBron-James-1227","Jusuf-Nurkic-18619","49300","274.6"
"Damian-Lillard-13900","C.J.-McCollum-17121","Maurice-Harkless-16971","Kyle-Kuzma-37886","Jusuf-Nurkic-18619","Brandon-Ingram-35227","Kyle-Anderson-18615","Marc-Gasol-1493","49900","274.56"
"Kyle-Anderson-18615","Wesley-Matthews-1339","Harrison-Barnes-13901","Al-Farouq-Aminu-1279","Jusuf-Nurkic-18619","Damian-Lillard-13900","LeBron-James-1227","Ivica-Zubac-35226","49600","274.49"
"Damian-Lillard-13900","Wesley-Matthews-1339","Maurice-Harkless-16971","Harrison-Barnes-13901","Jusuf-Nurkic-18619","Mike-Conley-1062","Al-Farouq-Aminu-1279","Marc-Gasol-1493","49000","274.44"
"Damian-Lillard-13900","Wesley-Matthews-1339","Maurice-Harkless-16971","Al-Farouq-Aminu-1279","Marc-Gasol-1493","C.J.-McCollum-17121","LeBron-James-1227","Ivica-Zubac-35226","49100","274.44"
"Kyle-Anderson-18615","Brandon-Ingram-35227","Maurice-Harkless-16971","Harrison-Barnes-13901","Jusuf-Nurkic-18619","Damian-Lillard-13900","LeBron-James-1227","Ivica-Zubac-35226","49900","274.41"
"Damian-Lillard-13900","C.J.-McCollum-17121","Kyle-Anderson-18615","LeBron-James-1227","Marc-Gasol-1493","Shelvin-Mack-13354","Wesley-Matthews-1339","Maurice-Harkless-16971","49500","274.4"
"Damian-Lillard-13900","C.J.-McCollum-17121","Maurice-Harkless-16971","LeBron-James-1227","Ivica-Zubac-35226","Brandon-Ingram-35227","Wesley-Matthews-1339","Jusuf-Nurkic-18619","49600","274.4"
"Damian-Lillard-13900","C.J.-McCollum-17121","Maurice-Harkless-16971","Harrison-Barnes-13901","Jusuf-Nurkic-18619","Mike-Conley-1062","Wesley-Matthews-1339","DeAndre-Jordan-1486","49900","274.39"
"Damian-Lillard-13900","C.J.-McCollum-17121","Maurice-Harkless-16971","Harrison-Barnes-13901","Jusuf-Nurkic-18619","Shelvin-Mack-13354","LeBron-James-1227","Ivica-Zubac-35226","49400","274.37"
"Damian-Lillard-13900","C.J.-McCollum-17121","Harrison-Barnes-13901","Al-Farouq-Aminu-1279","Jusuf-Nurkic-18619","Brandon-Ingram-35227","Wesley-Matthews-1339","Marc-Gasol-1493","49500","274.34"
"Damian-Lillard-13900","Wesley-Matthews-1339","Maurice-Harkless-16971","Al-Farouq-Aminu-1279","Jusuf-Nurkic-18619","Jalen-Brunson-409062","LeBron-James-1227","Marc-Gasol-1493","49600","274.34"
"Kyle-Anderson-18615","Wesley-Matthews-1339","Maurice-Harkless-16971","Zach-Collins-37866","Jusuf-Nurkic-18619","Damian-Lillard-13900","LeBron-James-1227","Marc-Gasol-1493","49600","274.33"
"Kyle-Anderson-18615","Nik-Stauskas-18636","Maurice-Harkless-16971","Al-Farouq-Aminu-1279","Jusuf-Nurkic-18619","Damian-Lillard-13900","LeBron-James-1227","Marc-Gasol-1493","49600","274.3"
"Damian-Lillard-13900","Wesley-Matthews-1339","Kyle-Anderson-18615","Harrison-Barnes-13901","Marc-Gasol-1493","Mike-Conley-1062","JaMychal-Green-18729","Jusuf-Nurkic-18619","50000","274.21"
"Damian-Lillard-13900","C.J.-McCollum-17121","Maurice-Harkless-16971","Harrison-Barnes-13901","Jusuf-Nurkic-18619","Lonzo-Ball-37885","Al-Farouq-Aminu-1279","Marc-Gasol-1493","49300","274.06"
"Damian-Lillard-13900","Brandon-Ingram-35227","Kyle-Anderson-18615","Al-Farouq-Aminu-1279","Jusuf-Nurkic-18619","Mike-Conley-1062","Wesley-Matthews-1339","Marc-Gasol-1493","50000","274.05"
"Kyle-Anderson-18615","Wesley-Matthews-1339","Maurice-Harkless-16971","Harrison-Barnes-13901","Ivica-Zubac-35226","Damian-Lillard-13900","LeBron-James-1227","Marc-Gasol-1493","49300","274.04"
"Damian-Lillard-13900","Wesley-Matthews-1339","Maurice-Harkless-16971","Al-Farouq-Aminu-1279","Jusuf-Nurkic-18619","Devin-Harris-1076","LeBron-James-1227","Marc-Gasol-1493","49300","274.04"
"Kyle-Anderson-18615","C.J.-McCollum-17121","Maurice-Harkless-16971","Al-Farouq-Aminu-1279","Jusuf-Nurkic-18619","Damian-Lillard-13900","LeBron-James-1227","JaMychal-Green-18729","49200","274.04"
"Damian-Lillard-13900","Wesley-Matthews-1339","Maurice-Harkless-16971","LeBron-James-1227","DeAndre-Jordan-1486","Shelvin-Mack-13354","Kyle-Anderson-18615","Marc-Gasol-1493","49900","274.03"
"Damian-Lillard-13900","C.J.-McCollum-17121","Kyle-Anderson-18615","Al-Farouq-Aminu-1279","Ivica-Zubac-35226","Shelvin-Mack-13354","LeBron-James-1227","Marc-Gasol-1493","49900","274.02"
"Kyle-Anderson-18615","Wesley-Matthews-1339","Maurice-Harkless-16971","Maxi-Kleber-37845","Marc-Gasol-1493","Damian-Lillard-13900","LeBron-James-1227","Jusuf-Nurkic-18619","49500","273.94"
"Damian-Lillard-13900","C.J.-McCollum-17121","Evan-Turner-1291","Maurice-Harkless-16971","Jusuf-Nurkic-18619","Mike-Conley-1062","Kyle-Anderson-18615","Marc-Gasol-1493","49400","273.94"
"Kyle-Anderson-18615","C.J.-McCollum-17121","Evan-Turner-1291","Maurice-Harkless-16971","Marc-Gasol-1493","Damian-Lillard-13900","Al-Farouq-Aminu-1279","LeBron-James-1227","50000","273.91"
"Kyle-Anderson-18615","C.J.-McCollum-17121","Maurice-Harkless-16971","Al-Farouq-Aminu-1279","Jusuf-Nurkic-18619","Brandon-Ingram-35227","LeBron-James-1227","Marc-Gasol-1493","49600","273.91"
"Kyle-Anderson-18615","Wesley-Matthews-1339","Maurice-Harkless-16971","LeBron-James-1227","Jusuf-Nurkic-18619","Damian-Lillard-13900","Nik-Stauskas-18636","Marc-Gasol-1493","49500","273.89"
"Damian-Lillard-13900","C.J.-McCollum-17121","Kyle-Anderson-18615","Maurice-Harkless-16971","Jusuf-Nurkic-18619","Mike-Conley-1062","Garrett-Temple-14077","Marc-Gasol-1493","49600","273.84"
"Kyle-Anderson-18615","C.J.-McCollum-17121","Maurice-Harkless-16971","Harrison-Barnes-13901","Jusuf-Nurkic-18619","Damian-Lillard-13900","Al-Farouq-Aminu-1279","Marc-Gasol-1493","47800","273.84"
"Damian-Lillard-13900","Wesley-Matthews-1339","Maurice-Harkless-16971","Kyle-Kuzma-37886","Marc-Gasol-1493","Mike-Conley-1062","Al-Farouq-Aminu-1279","Jusuf-Nurkic-18619","49900","273.83"
"Damian-Lillard-13900","Evan-Turner-1291","Maurice-Harkless-16971","JaMychal-Green-18729","Marc-Gasol-1493","Wesley-Matthews-1339","LeBron-James-1227","Jusuf-Nurkic-18619","49700","273.7"
"Damian-Lillard-13900","C.J.-McCollum-17121","Maurice-Harkless-16971","Harrison-Barnes-13901","Jusuf-Nurkic-18619","Lonzo-Ball-37885","Wesley-Matthews-1339","Marc-Gasol-1493","49200","273.65"
"Josh-Hart-37889","Wesley-Matthews-1339","Maurice-Harkless-16971","Al-Farouq-Aminu-1279","Jusuf-Nurkic-18619","Damian-Lillard-13900","LeBron-James-1227","Marc-Gasol-1493","49600","273.64"
"Damian-Lillard-13900","Wesley-Matthews-1339","Kyle-Anderson-18615","JaMychal-Green-18729","Jusuf-Nurkic-18619","C.J.-McCollum-17121","LeBron-James-1227","Maurice-Harkless-16971","49100","273.63"
"Damian-Lillard-13900","C.J.-McCollum-17121","Kyle-Anderson-18615","LeBron-James-1227","Marc-Gasol-1493","Shelvin-Mack-13354","Wesley-Matthews-1339","Ivica-Zubac-35226","49800","273.61"
"Damian-Lillard-13900","Wesley-Matthews-1339","Maurice-Harkless-16971","JaMychal-Green-18729","Marc-Gasol-1493","Garrett-Temple-14077","LeBron-James-1227","Jusuf-Nurkic-18619","49900","273.6"
"Damian-Lillard-13900","Evan-Turner-1291","Maurice-Harkless-16971","Al-Farouq-Aminu-1279","Jusuf-Nurkic-18619","Shelvin-Mack-13354","LeBron-James-1227","Marc-Gasol-1493","49500","273.51"
"Kyle-Anderson-18615","Wesley-Matthews-1339","Evan-Turner-1291","Maurice-Harkless-16971","Marc-Gasol-1493","Damian-Lillard-13900","LeBron-James-1227","C.J.-McCollum-17121","49900","273.5"
"Kyle-Anderson-18615","C.J.-McCollum-17121","Maurice-Harkless-16971","LeBron-James-1227","Marc-Gasol-1493","Brandon-Ingram-35227","Wesley-Matthews-1339","Jusuf-Nurkic-18619","49500","273.5"
"Damian-Lillard-13900","Evan-Turner-1291","Maurice-Harkless-16971","Harrison-Barnes-13901","Jusuf-Nurkic-18619","C.J.-McCollum-17121","LeBron-James-1227","Ivica-Zubac-35226","49800","273.47"
"Kyle-Anderson-18615","C.J.-McCollum-17121","Maurice-Harkless-16971","Harrison-Barnes-13901","Jusuf-Nurkic-18619","Shelvin-Mack-13354","LeBron-James-1227","Marc-Gasol-1493","49300","273.47"
"Kyle-Anderson-18615","C.J.-McCollum-17121","Maurice-Harkless-16971","Al-Farouq-Aminu-1279","Jusuf-Nurkic-18619","Damian-Lillard-13900","LeBron-James-1227","Shelvin-Mack-13354","48900","273.44"
"Kyle-Anderson-18615","Luka-Doncic-408971","Maurice-Harkless-16971","Harrison-Barnes-13901","Jusuf-Nurkic-18619","Damian-Lillard-13900","Al-Farouq-Aminu-1279","Marc-Gasol-1493","49700","273.44"
"Damian-Lillard-13900","Wesley-Matthews-1339","Maurice-Harkless-16971","Al-Farouq-Aminu-1279","Marc-Gasol-1493","C.J.-McCollum-17121","Luka-Doncic-408971","Jusuf-Nurkic-18619","49400","273.43"
"Kyle-Anderson-18615","C.J.-McCollum-17121","Maurice-Harkless-16971","Harrison-Barnes-13901","Jusuf-Nurkic-18619","Damian-Lillard-13900","Wesley-Matthews-1339","Marc-Gasol-1493","47700","273.43"
"Damian-Lillard-13900","Garrett-Temple-14077","Maurice-Harkless-16971","Al-Farouq-Aminu-1279","Jusuf-Nurkic-18619","Shelvin-Mack-13354","LeBron-James-1227","Marc-Gasol-1493","49700","273.41"
"Damian-Lillard-13900","Garrett-Temple-14077","Maurice-Harkless-16971","Harrison-Barnes-13901","Jusuf-Nurkic-18619","C.J.-McCollum-17121","LeBron-James-1227","Ivica-Zubac-35226","50000","273.37"
"Kyle-Anderson-18615","Wesley-Matthews-1339","Maurice-Harkless-16971","JaMychal-Green-18729","Jusuf-Nurkic-18619","Damian-Lillard-13900","LeBron-James-1227","DeAndre-Jordan-1486","49500","273.26"
"Kyle-Anderson-18615","C.J.-McCollum-17121","JaMychal-Green-18729","Al-Farouq-Aminu-1279","Jusuf-Nurkic-18619","Damian-Lillard-13900","LeBron-James-1227","Ivica-Zubac-35226","49500","273.25"
"Kyle-Anderson-18615","C.J.-McCollum-17121","Maurice-Harkless-16971","Kyle-Kuzma-37886","Marc-Gasol-1493","Damian-Lillard-13900","Al-Farouq-Aminu-1279","Jusuf-Nurkic-18619","48700","273.23"
"Damian-Lillard-13900","Devin-Harris-1076","Kyle-Anderson-18615","LeBron-James-1227","Marc-Gasol-1493","Shelvin-Mack-13354","Wesley-Matthews-1339","Jusuf-Nurkic-18619","50000","273.21"
"Damian-Lillard-13900","C.J.-McCollum-17121","Maurice-Harkless-16971","JaMychal-Green-18729","Jusuf-Nurkic-18619","Mike-Conley-1062","Al-Farouq-Aminu-1279","Marc-Gasol-1493","48900","273.2"
"Damian-Lillard-13900","C.J.-McCollum-17121","Maurice-Harkless-16971","Al-Farouq-Aminu-1279","Jusuf-Nurkic-18619","Brandon-Ingram-35227","LeBron-James-1227","JaMychal-Green-18729","50000","273.13"
"Damian-Lillard-13900","C.J.-McCollum-17121","Evan-Turner-1291","Al-Farouq-Aminu-1279","Jusuf-Nurkic-18619","Mike-Conley-1062","Wesley-Matthews-1339","Marc-Gasol-1493","49900","273.11"
"Damian-Lillard-13900","Wesley-Matthews-1339","Evan-Turner-1291","Maurice-Harkless-16971","Marc-Gasol-1493","Shelvin-Mack-13354","LeBron-James-1227","Jusuf-Nurkic-18619","49400","273.1"
"Damian-Lillard-13900","Wesley-Matthews-1339","Maurice-Harkless-16971","Al-Farouq-Aminu-1279","Jusuf-Nurkic-18619","C.J.-McCollum-17121","LeBron-James-1227","Ivica-Zubac-35226","48400","273.07"
"Damian-Lillard-13900","Kentavious-Caldwell-Pope-16869","Maurice-Harkless-16971","Al-Farouq-Aminu-1279","Jusuf-Nurkic-18619","Wesley-Matthews-1339","LeBron-James-1227","Marc-Gasol-1493","49700","273.06"
"Damian-Lillard-13900","C.J.-McCollum-17121","Kyle-Anderson-18615","Maurice-Harkless-16971","Jusuf-Nurkic-18619","Shelvin-Mack-13354","Wesley-Matthews-1339","LeBron-James-1227","48800","273.03"
