"Jamal-Murray-35211","Spencer-Dinwiddie-18588","Taurean-Prince-35218","Rondae-Hollis-Jefferson-18897","Nikola-Jokic-31812","Trae-Young-409063","Tim-Hardaway-Jr.-16879","John-Collins-37823","49700","283.61"
"Jamal-Murray-35211","Gary-Harris-18617","Taurean-Prince-35218","Rondae-Hollis-Jefferson-18897","Enes-Kanter-13299","Trae-Young-409063","Tim-Hardaway-Jr.-16879","Nikola-Jokic-31812","49600","283.19"

"Jamal-Murray-35211","Spencer-Dinwiddie-18588","Taurean-Prince-35218","Rondae-Hollis-Jefferson-18897","Nikola-Jokic-31812","Trae-Young-409063","Tim-Hardaway-Jr.-16879","John-Collins-37823","49700","283.61"
"Jamal-Murray-35211","Gary-Harris-18617","Taurean-Prince-35218","Rondae-Hollis-Jefferson-18897","Enes-Kanter-13299","Trae-Young-409063","Tim-Hardaway-Jr.-16879","Nikola-Jokic-31812","49600","283.19"
"Jamal-Murray-35211","Gary-Harris-18617","Taurean-Prince-35218","Rondae-Hollis-Jefferson-18897","Nikola-Jokic-31812","Trae-Young-409063","Tim-Hardaway-Jr.-16879","Tristan-Thompson-13308","49500","283.18"
"Jamal-Murray-35211","Tim-Hardaway-Jr.-16879","Taurean-Prince-35218","Noah-Vonleh-18597","Nikola-Jokic-31812","Trae-Young-409063","Rondae-Hollis-Jefferson-18897","Enes-Kanter-13299","49800","282.53"
"Jamal-Murray-35211","Tim-Hardaway-Jr.-16879","Taurean-Prince-35218","Noah-Vonleh-18597","Nikola-Jokic-31812","Trae-Young-409063","Rondae-Hollis-Jefferson-18897","Tristan-Thompson-13308","49700","282.52"
"Jamal-Murray-35211","Spencer-Dinwiddie-18588","Taurean-Prince-35218","Noah-Vonleh-18597","Nikola-Jokic-31812","Trae-Young-409063","Tim-Hardaway-Jr.-16879","John-Collins-37823","49400","282.17"
"Jamal-Murray-35211","Gary-Harris-18617","Taurean-Prince-35218","Noah-Vonleh-18597","Nikola-Jokic-31812","Trae-Young-409063","Tim-Hardaway-Jr.-16879","Enes-Kanter-13299","49300","281.75"
"Jamal-Murray-35211","Gary-Harris-18617","Taurean-Prince-35218","Noah-Vonleh-18597","Nikola-Jokic-31812","Trae-Young-409063","Tim-Hardaway-Jr.-16879","Tristan-Thompson-13308","49200","281.74"
"Jamal-Murray-35211","Spencer-Dinwiddie-18588","Taurean-Prince-35218","Rondae-Hollis-Jefferson-18897","Nikola-Jokic-31812","Gary-Harris-18617","Tim-Hardaway-Jr.-16879","Tristan-Thompson-13308","50000","281.5"
"Jamal-Murray-35211","Gary-Harris-18617","Taurean-Prince-35218","Rondae-Hollis-Jefferson-18897","Nikola-Jokic-31812","Trae-Young-409063","Tim-Hardaway-Jr.-16879","John-Collins-37823","48300","281.04"
"Spencer-Dinwiddie-18588","Gary-Harris-18617","Taurean-Prince-35218","Rondae-Hollis-Jefferson-18897","Enes-Kanter-13299","Trae-Young-409063","Tim-Hardaway-Jr.-16879","Nikola-Jokic-31812","49700","280.99"
"Spencer-Dinwiddie-18588","Gary-Harris-18617","Taurean-Prince-35218","Rondae-Hollis-Jefferson-18897","Nikola-Jokic-31812","Trae-Young-409063","Tim-Hardaway-Jr.-16879","Tristan-Thompson-13308","49600","280.98"
"Jamal-Murray-35211","Tim-Hardaway-Jr.-16879","Taurean-Prince-35218","Serge-Ibaka-1294","Enes-Kanter-13299","Trae-Young-409063","Rondae-Hollis-Jefferson-18897","Nikola-Jokic-31812","50000","280.85"
"Jamal-Murray-35211","Tim-Hardaway-Jr.-16879","Taurean-Prince-35218","Serge-Ibaka-1294","Tristan-Thompson-13308","Trae-Young-409063","Rondae-Hollis-Jefferson-18897","Nikola-Jokic-31812","49900","280.84"
"Jamal-Murray-35211","Spencer-Dinwiddie-18588","Taurean-Prince-35218","Rondae-Hollis-Jefferson-18897","Nikola-Jokic-31812","Trae-Young-409063","Tim-Hardaway-Jr.-16879","Jarrett-Allen-37794","49900","280.5"
"Jamal-Murray-35211","Spencer-Dinwiddie-18588","Taurean-Prince-35218","Serge-Ibaka-1294","Nikola-Jokic-31812","Trae-Young-409063","Tim-Hardaway-Jr.-16879","John-Collins-37823","49600","280.49"
"Jamal-Murray-35211","Tim-Hardaway-Jr.-16879","Taurean-Prince-35218","Noah-Vonleh-18597","Nikola-Jokic-31812","Trae-Young-409063","Rondae-Hollis-Jefferson-18897","John-Collins-37823","48500","280.38"
"Jamal-Murray-35211","Gary-Harris-18617","Tim-Hardaway-Jr.-16879","Noah-Vonleh-18597","Tristan-Thompson-13308","Trae-Young-409063","Rondae-Hollis-Jefferson-18897","Nikola-Jokic-31812","50000","280.38"
"Spencer-Dinwiddie-18588","Tim-Hardaway-Jr.-16879","Taurean-Prince-35218","Noah-Vonleh-18597","Nikola-Jokic-31812","Trae-Young-409063","Rondae-Hollis-Jefferson-18897","Enes-Kanter-13299","49900","280.33"
"Spencer-Dinwiddie-18588","Tim-Hardaway-Jr.-16879","Taurean-Prince-35218","Noah-Vonleh-18597","Nikola-Jokic-31812","Trae-Young-409063","Rondae-Hollis-Jefferson-18897","Tristan-Thompson-13308","49800","280.32"
"Jamal-Murray-35211","Spencer-Dinwiddie-18588","Taurean-Prince-35218","Rondae-Hollis-Jefferson-18897","Nikola-Jokic-31812","Trae-Young-409063","Tim-Hardaway-Jr.-16879","Gary-Harris-18617","49500","280.24"
"Jamal-Murray-35211","Gary-Harris-18617","Taurean-Prince-35218","Serge-Ibaka-1294","Enes-Kanter-13299","Trae-Young-409063","Tim-Hardaway-Jr.-16879","Nikola-Jokic-31812","49500","280.07"
"Jamal-Murray-35211","Spencer-Dinwiddie-18588","Taurean-Prince-35218","Noah-Vonleh-18597","Nikola-Jokic-31812","Gary-Harris-18617","Tim-Hardaway-Jr.-16879","Enes-Kanter-13299","49800","280.07"
"Jamal-Murray-35211","Gary-Harris-18617","Taurean-Prince-35218","Serge-Ibaka-1294","Nikola-Jokic-31812","Trae-Young-409063","Tim-Hardaway-Jr.-16879","Tristan-Thompson-13308","49400","280.06"
"Jamal-Murray-35211","Spencer-Dinwiddie-18588","Taurean-Prince-35218","Noah-Vonleh-18597","Nikola-Jokic-31812","Gary-Harris-18617","Tim-Hardaway-Jr.-16879","Tristan-Thompson-13308","49700","280.06"
"Jamal-Murray-35211","Tim-Hardaway-Jr.-16879","Taurean-Prince-35218","Larry-Nance-18946","Enes-Kanter-13299","Trae-Young-409063","Rondae-Hollis-Jefferson-18897","Nikola-Jokic-31812","49600","279.65"
"Jamal-Murray-35211","Tim-Hardaway-Jr.-16879","Taurean-Prince-35218","Larry-Nance-18946","Tristan-Thompson-13308","Trae-Young-409063","Rondae-Hollis-Jefferson-18897","Nikola-Jokic-31812","49500","279.64"
"Jamal-Murray-35211","Gary-Harris-18617","Taurean-Prince-35218","Noah-Vonleh-18597","Nikola-Jokic-31812","Trae-Young-409063","Tim-Hardaway-Jr.-16879","John-Collins-37823","48000","279.6"
"Jordan-Clarkson-18631","Jamal-Murray-35211","Taurean-Prince-35218","Rondae-Hollis-Jefferson-18897","Enes-Kanter-13299","Trae-Young-409063","Tim-Hardaway-Jr.-16879","Nikola-Jokic-31812","49500","279.6"
"Jordan-Clarkson-18631","Jamal-Murray-35211","Taurean-Prince-35218","Rondae-Hollis-Jefferson-18897","Nikola-Jokic-31812","Trae-Young-409063","Tim-Hardaway-Jr.-16879","Tristan-Thompson-13308","49400","279.59"
"Jamal-Murray-35211","Spencer-Dinwiddie-18588","Taurean-Prince-35218","Rondae-Hollis-Jefferson-18897","Nikola-Jokic-31812","Trae-Young-409063","Tim-Hardaway-Jr.-16879","Noah-Vonleh-18597","49700","279.58"
"Spencer-Dinwiddie-18588","Gary-Harris-18617","Taurean-Prince-35218","Noah-Vonleh-18597","Nikola-Jokic-31812","Trae-Young-409063","Tim-Hardaway-Jr.-16879","Enes-Kanter-13299","49400","279.55"
"Spencer-Dinwiddie-18588","Gary-Harris-18617","Taurean-Prince-35218","Noah-Vonleh-18597","Nikola-Jokic-31812","Trae-Young-409063","Tim-Hardaway-Jr.-16879","Tristan-Thompson-13308","49300","279.54"
"Jamal-Murray-35211","Tim-Hardaway-Jr.-16879","Taurean-Prince-35218","Noah-Vonleh-18597","Nikola-Jokic-31812","Trae-Young-409063","Serge-Ibaka-1294","Enes-Kanter-13299","49700","279.41"
"Jamal-Murray-35211","Tim-Hardaway-Jr.-16879","Taurean-Prince-35218","Noah-Vonleh-18597","Nikola-Jokic-31812","Trae-Young-409063","Serge-Ibaka-1294","Tristan-Thompson-13308","49600","279.4"
"Jamal-Murray-35211","Spencer-Dinwiddie-18588","Taurean-Prince-35218","Rondae-Hollis-Jefferson-18897","Nikola-Jokic-31812","Gary-Harris-18617","Tim-Hardaway-Jr.-16879","John-Collins-37823","48800","279.36"
"Jamal-Murray-35211","Spencer-Dinwiddie-18588","Taurean-Prince-35218","Larry-Nance-18946","Nikola-Jokic-31812","Trae-Young-409063","Tim-Hardaway-Jr.-16879","John-Collins-37823","49200","279.29"
"Jamal-Murray-35211","Spencer-Dinwiddie-18588","Taurean-Prince-35218","Noah-Vonleh-18597","Nikola-Jokic-31812","Trae-Young-409063","Tim-Hardaway-Jr.-16879","Jarrett-Allen-37794","49600","279.06"
"Jamal-Murray-35211","Gary-Harris-18617","Taurean-Prince-35218","Larry-Nance-18946","Nikola-Jokic-31812","Trae-Young-409063","Tim-Hardaway-Jr.-16879","Enes-Kanter-13299","49100","278.87"
"Jamal-Murray-35211","Gary-Harris-18617","Taurean-Prince-35218","Larry-Nance-18946","Nikola-Jokic-31812","Trae-Young-409063","Tim-Hardaway-Jr.-16879","Tristan-Thompson-13308","49000","278.86"
"Spencer-Dinwiddie-18588","Gary-Harris-18617","Taurean-Prince-35218","Rondae-Hollis-Jefferson-18897","Nikola-Jokic-31812","Trae-Young-409063","Tim-Hardaway-Jr.-16879","John-Collins-37823","48400","278.84"
"Jamal-Murray-35211","Spencer-Dinwiddie-18588","Taurean-Prince-35218","Noah-Vonleh-18597","Nikola-Jokic-31812","Trae-Young-409063","Tim-Hardaway-Jr.-16879","Gary-Harris-18617","49200","278.8"
"Jamal-Murray-35211","Spencer-Dinwiddie-18588","Taurean-Prince-35218","Jonas-Jerebko-1106","Enes-Kanter-13299","Trae-Young-409063","Tim-Hardaway-Jr.-16879","Nikola-Jokic-31812","49600","278.74"
"Jamal-Murray-35211","Spencer-Dinwiddie-18588","Taurean-Prince-35218","Jonas-Jerebko-1106","Nikola-Jokic-31812","Trae-Young-409063","Tim-Hardaway-Jr.-16879","Tristan-Thompson-13308","49500","278.73"
"Jamal-Murray-35211","Tim-Hardaway-Jr.-16879","Taurean-Prince-35218","Serge-Ibaka-1294","Nikola-Jokic-31812","Trae-Young-409063","Rondae-Hollis-Jefferson-18897","John-Collins-37823","48700","278.7"
"Jamal-Murray-35211","Spencer-Dinwiddie-18588","Taurean-Prince-35218","Noah-Vonleh-18597","Nikola-Jokic-31812","Tim-Hardaway-Jr.-16879","Rondae-Hollis-Jefferson-18897","John-Collins-37823","49000","278.7"
"Spencer-Dinwiddie-18588","Tim-Hardaway-Jr.-16879","Taurean-Prince-35218","Serge-Ibaka-1294","Tristan-Thompson-13308","Trae-Young-409063","Rondae-Hollis-Jefferson-18897","Nikola-Jokic-31812","50000","278.64"
"Jamal-Murray-35211","Spencer-Dinwiddie-18588","Taurean-Prince-35218","Dewayne-Dedmon-16894","Nikola-Jokic-31812","Trae-Young-409063","Tim-Hardaway-Jr.-16879","Enes-Kanter-13299","49200","278.56"
"Jamal-Murray-35211","Spencer-Dinwiddie-18588","Taurean-Prince-35218","Dewayne-Dedmon-16894","Nikola-Jokic-31812","Trae-Young-409063","Tim-Hardaway-Jr.-16879","Tristan-Thompson-13308","49100","278.55"
"Jamal-Murray-35211","Tim-Hardaway-Jr.-16879","Cedi-Osman-18912","Rondae-Hollis-Jefferson-18897","Enes-Kanter-13299","Trae-Young-409063","Taurean-Prince-35218","Nikola-Jokic-31812","49200","278.39"
"Jamal-Murray-35211","Spencer-Dinwiddie-18588","Taurean-Prince-35218","Serge-Ibaka-1294","Enes-Kanter-13299","Gary-Harris-18617","Tim-Hardaway-Jr.-16879","Nikola-Jokic-31812","50000","278.39"
"Jamal-Murray-35211","Spencer-Dinwiddie-18588","Taurean-Prince-35218","Serge-Ibaka-1294","Nikola-Jokic-31812","Gary-Harris-18617","Tim-Hardaway-Jr.-16879","Tristan-Thompson-13308","49900","278.38"
"Jamal-Murray-35211","Tim-Hardaway-Jr.-16879","Cedi-Osman-18912","Rondae-Hollis-Jefferson-18897","Tristan-Thompson-13308","Trae-Young-409063","Taurean-Prince-35218","Nikola-Jokic-31812","49100","278.38"
"Emmanuel-Mudiay-18936","Jamal-Murray-35211","Taurean-Prince-35218","Rondae-Hollis-Jefferson-18897","Enes-Kanter-13299","Trae-Young-409063","Tim-Hardaway-Jr.-16879","Nikola-Jokic-31812","49500","278.34"
"Emmanuel-Mudiay-18936","Jamal-Murray-35211","Taurean-Prince-35218","Rondae-Hollis-Jefferson-18897","Nikola-Jokic-31812","Trae-Young-409063","Tim-Hardaway-Jr.-16879","Tristan-Thompson-13308","49400","278.33"
"Jamal-Murray-35211","Tim-Hardaway-Jr.-16879","Taurean-Prince-35218","Noah-Vonleh-18597","Nikola-Jokic-31812","Gary-Harris-18617","Rondae-Hollis-Jefferson-18897","Enes-Kanter-13299","48900","278.28"
"Jamal-Murray-35211","Tim-Hardaway-Jr.-16879","Taurean-Prince-35218","Noah-Vonleh-18597","Nikola-Jokic-31812","Gary-Harris-18617","Rondae-Hollis-Jefferson-18897","Tristan-Thompson-13308","48800","278.27"
"Jamal-Murray-35211","Gary-Harris-18617","Tim-Hardaway-Jr.-16879","Noah-Vonleh-18597","Nikola-Jokic-31812","Trae-Young-409063","Rondae-Hollis-Jefferson-18897","John-Collins-37823","48800","278.24"
"Jamal-Murray-35211","Tim-Hardaway-Jr.-16879","Taurean-Prince-35218","Noah-Vonleh-18597","Nikola-Jokic-31812","Trae-Young-409063","Larry-Nance-18946","Enes-Kanter-13299","49300","278.21"
"Jamal-Murray-35211","Tim-Hardaway-Jr.-16879","Taurean-Prince-35218","Noah-Vonleh-18597","Nikola-Jokic-31812","Trae-Young-409063","Larry-Nance-18946","Tristan-Thompson-13308","49200","278.2"
"Spencer-Dinwiddie-18588","Tim-Hardaway-Jr.-16879","Taurean-Prince-35218","Noah-Vonleh-18597","Nikola-Jokic-31812","Trae-Young-409063","Rondae-Hollis-Jefferson-18897","John-Collins-37823","48600","278.18"
"Jordan-Clarkson-18631","Jamal-Murray-35211","Taurean-Prince-35218","Noah-Vonleh-18597","Nikola-Jokic-31812","Trae-Young-409063","Tim-Hardaway-Jr.-16879","Enes-Kanter-13299","49200","278.16"
"Jordan-Clarkson-18631","Jamal-Murray-35211","Taurean-Prince-35218","Noah-Vonleh-18597","Nikola-Jokic-31812","Trae-Young-409063","Tim-Hardaway-Jr.-16879","Tristan-Thompson-13308","49100","278.15"
"Jamal-Murray-35211","Spencer-Dinwiddie-18588","Allen-Crabbe-16978","Rondae-Hollis-Jefferson-18897","Nikola-Jokic-31812","Trae-Young-409063","Tim-Hardaway-Jr.-16879","Enes-Kanter-13299","49900","278.11"
"Jamal-Murray-35211","Spencer-Dinwiddie-18588","Allen-Crabbe-16978","Rondae-Hollis-Jefferson-18897","Nikola-Jokic-31812","Trae-Young-409063","Tim-Hardaway-Jr.-16879","Tristan-Thompson-13308","49800","278.1"
"Jamal-Murray-35211","Spencer-Dinwiddie-18588","Taurean-Prince-35218","Larry-Nance-18946","Tristan-Thompson-13308","Tim-Hardaway-Jr.-16879","Rondae-Hollis-Jefferson-18897","Nikola-Jokic-31812","50000","277.96"
"Jamal-Murray-35211","Spencer-Dinwiddie-18588","Tim-Hardaway-Jr.-16879","Larry-Nance-18946","John-Collins-37823","Trae-Young-409063","Rondae-Hollis-Jefferson-18897","Nikola-Jokic-31812","50000","277.93"
"Jamal-Murray-35211","Gary-Harris-18617","Taurean-Prince-35218","Rondae-Hollis-Jefferson-18897","Nikola-Jokic-31812","Trae-Young-409063","Tim-Hardaway-Jr.-16879","Jarrett-Allen-37794","48500","277.93"
"Jamal-Murray-35211","Spencer-Dinwiddie-18588","Taurean-Prince-35218","Noah-Vonleh-18597","Nikola-Jokic-31812","Gary-Harris-18617","Tim-Hardaway-Jr.-16879","John-Collins-37823","48500","277.92"
"Jamal-Murray-35211","Gary-Harris-18617","Taurean-Prince-35218","Serge-Ibaka-1294","Nikola-Jokic-31812","Trae-Young-409063","Tim-Hardaway-Jr.-16879","John-Collins-37823","48200","277.92"
"Jordan-Clarkson-18631","Jamal-Murray-35211","Taurean-Prince-35218","Rondae-Hollis-Jefferson-18897","Enes-Kanter-13299","Spencer-Dinwiddie-18588","Tim-Hardaway-Jr.-16879","Nikola-Jokic-31812","50000","277.92"
"Jordan-Clarkson-18631","Jamal-Murray-35211","Taurean-Prince-35218","Rondae-Hollis-Jefferson-18897","Nikola-Jokic-31812","Spencer-Dinwiddie-18588","Tim-Hardaway-Jr.-16879","Tristan-Thompson-13308","49900","277.91"
"Jamal-Murray-35211","Spencer-Dinwiddie-18588","Taurean-Prince-35218","Rondae-Hollis-Jefferson-18897","Nikola-Jokic-31812","Trae-Young-409063","Tim-Hardaway-Jr.-16879","Serge-Ibaka-1294","49900","277.9"
"Spencer-Dinwiddie-18588","Gary-Harris-18617","Taurean-Prince-35218","Serge-Ibaka-1294","Enes-Kanter-13299","Trae-Young-409063","Tim-Hardaway-Jr.-16879","Nikola-Jokic-31812","49600","277.87"
"Spencer-Dinwiddie-18588","Gary-Harris-18617","Taurean-Prince-35218","Serge-Ibaka-1294","Nikola-Jokic-31812","Trae-Young-409063","Tim-Hardaway-Jr.-16879","Tristan-Thompson-13308","49500","277.86"
"Jamal-Murray-35211","Kent-Bazemore-13987","Taurean-Prince-35218","Rondae-Hollis-Jefferson-18897","Enes-Kanter-13299","Trae-Young-409063","Tim-Hardaway-Jr.-16879","Nikola-Jokic-31812","49100","277.82"
"Jamal-Murray-35211","Kent-Bazemore-13987","Taurean-Prince-35218","Rondae-Hollis-Jefferson-18897","Nikola-Jokic-31812","Trae-Young-409063","Tim-Hardaway-Jr.-16879","Tristan-Thompson-13308","49000","277.81"
"Trae-Young-409063","Tim-Hardaway-Jr.-16879","Taurean-Prince-35218","Noah-Vonleh-18597","Nikola-Jokic-31812","Gary-Harris-18617","Rondae-Hollis-Jefferson-18897","Enes-Kanter-13299","48500","277.76"
"Trae-Young-409063","Tim-Hardaway-Jr.-16879","Taurean-Prince-35218","Noah-Vonleh-18597","Nikola-Jokic-31812","Gary-Harris-18617","Rondae-Hollis-Jefferson-18897","Tristan-Thompson-13308","48400","277.75"
"Jamal-Murray-35211","Allen-Crabbe-16978","Taurean-Prince-35218","Rondae-Hollis-Jefferson-18897","Enes-Kanter-13299","Trae-Young-409063","Tim-Hardaway-Jr.-16879","Nikola-Jokic-31812","48200","277.68"
"Jamal-Murray-35211","Tim-Hardaway-Jr.-16879","Taurean-Prince-35218","Rondae-Hollis-Jefferson-18897","Tristan-Thompson-13308","Trae-Young-409063","Allen-Crabbe-16978","Nikola-Jokic-31812","48100","277.67"
"Jamal-Murray-35211","Gary-Harris-18617","Tim-Hardaway-Jr.-16879","Larry-Nance-18946","Enes-Kanter-13299","Trae-Young-409063","Rondae-Hollis-Jefferson-18897","Nikola-Jokic-31812","49900","277.51"
"Jamal-Murray-35211","Rodney-Hood-18629","Taurean-Prince-35218","Rondae-Hollis-Jefferson-18897","Enes-Kanter-13299","Trae-Young-409063","Tim-Hardaway-Jr.-16879","Nikola-Jokic-31812","48800","277.51"
"Jamal-Murray-35211","Tim-Hardaway-Jr.-16879","Taurean-Prince-35218","Larry-Nance-18946","John-Collins-37823","Trae-Young-409063","Rondae-Hollis-Jefferson-18897","Nikola-Jokic-31812","48300","277.5"
"Jamal-Murray-35211","Tim-Hardaway-Jr.-16879","Taurean-Prince-35218","Rondae-Hollis-Jefferson-18897","Nikola-Jokic-31812","Trae-Young-409063","Rodney-Hood-18629","Tristan-Thompson-13308","48700","277.5"
"Jamal-Murray-35211","Gary-Harris-18617","Tim-Hardaway-Jr.-16879","Larry-Nance-18946","Tristan-Thompson-13308","Trae-Young-409063","Rondae-Hollis-Jefferson-18897","Nikola-Jokic-31812","49800","277.5"
"Jordan-Clarkson-18631","Jamal-Murray-35211","Taurean-Prince-35218","Rondae-Hollis-Jefferson-18897","Nikola-Jokic-31812","Trae-Young-409063","Tim-Hardaway-Jr.-16879","John-Collins-37823","48200","277.45"
"Spencer-Dinwiddie-18588","Tim-Hardaway-Jr.-16879","Taurean-Prince-35218","Larry-Nance-18946","Enes-Kanter-13299","Trae-Young-409063","Rondae-Hollis-Jefferson-18897","Nikola-Jokic-31812","49700","277.45"
"Spencer-Dinwiddie-18588","Tim-Hardaway-Jr.-16879","Taurean-Prince-35218","Larry-Nance-18946","Tristan-Thompson-13308","Trae-Young-409063","Rondae-Hollis-Jefferson-18897","Nikola-Jokic-31812","49600","277.44"
"Jamal-Murray-35211","Spencer-Dinwiddie-18588","Tim-Hardaway-Jr.-16879","Noah-Vonleh-18597","Nikola-Jokic-31812","Trae-Young-409063","Rondae-Hollis-Jefferson-18897","Gary-Harris-18617","50000","277.44"
"Jordan-Clarkson-18631","Spencer-Dinwiddie-18588","Taurean-Prince-35218","Rondae-Hollis-Jefferson-18897","Enes-Kanter-13299","Trae-Young-409063","Tim-Hardaway-Jr.-16879","Nikola-Jokic-31812","49600","277.4"
"Spencer-Dinwiddie-18588","Gary-Harris-18617","Taurean-Prince-35218","Noah-Vonleh-18597","Nikola-Jokic-31812","Trae-Young-409063","Tim-Hardaway-Jr.-16879","John-Collins-37823","48100","277.4"
"Jordan-Clarkson-18631","Spencer-Dinwiddie-18588","Taurean-Prince-35218","Rondae-Hollis-Jefferson-18897","Nikola-Jokic-31812","Trae-Young-409063","Tim-Hardaway-Jr.-16879","Tristan-Thompson-13308","49500","277.39"
"Jamal-Murray-35211","Spencer-Dinwiddie-18588","Taurean-Prince-35218","Serge-Ibaka-1294","Jarrett-Allen-37794","Trae-Young-409063","Tim-Hardaway-Jr.-16879","Nikola-Jokic-31812","49800","277.38"
"Jamal-Murray-35211","Spencer-Dinwiddie-18588","Taurean-Prince-35218","Juan-Hernangomez-35212","Nikola-Jokic-31812","Trae-Young-409063","Tim-Hardaway-Jr.-16879","Enes-Kanter-13299","49800","277.36"
"Jamal-Murray-35211","Spencer-Dinwiddie-18588","Taurean-Prince-35218","Juan-Hernangomez-35212","Nikola-Jokic-31812","Trae-Young-409063","Tim-Hardaway-Jr.-16879","Tristan-Thompson-13308","49700","277.35"
"Jamal-Murray-35211","Gary-Harris-18617","Tim-Hardaway-Jr.-16879","Noah-Vonleh-18597","Enes-Kanter-13299","Trae-Young-409063","Serge-Ibaka-1294","Nikola-Jokic-31812","50000","277.27"
"Jamal-Murray-35211","Tim-Hardaway-Jr.-16879","Taurean-Prince-35218","Noah-Vonleh-18597","Nikola-Jokic-31812","Trae-Young-409063","Rondae-Hollis-Jefferson-18897","Jarrett-Allen-37794","48700","277.27"
"Jamal-Murray-35211","Tim-Hardaway-Jr.-16879","Taurean-Prince-35218","Noah-Vonleh-18597","John-Collins-37823","Trae-Young-409063","Serge-Ibaka-1294","Nikola-Jokic-31812","48400","277.26"
"Jamal-Murray-35211","Gary-Harris-18617","Tim-Hardaway-Jr.-16879","Noah-Vonleh-18597","Tristan-Thompson-13308","Trae-Young-409063","Serge-Ibaka-1294","Nikola-Jokic-31812","49900","277.26"
