"Dennis-Smith-Jr.-37847","Dennis-Schroder-18595","Wesley-Matthews-1339","Harrison-Barnes-13901","DeAndre-Jordan-1486","De'Aaron-Fox-37900","Nemanja-Bjelica-31814","Steven-Adams-16848","49700","274.7"

"Dennis-Smith-Jr.-37847","Dennis-Schroder-18595","Wesley-Matthews-1339","Harrison-Barnes-13901","DeAndre-Jordan-1486","De'Aaron-Fox-37900","Nemanja-Bjelica-31814","Steven-Adams-16848","49700","274.7"
"Dennis-Smith-Jr.-37847","Dennis-Schroder-18595","Brandon-Ingram-35227","Harrison-Barnes-13901","Steven-Adams-16848","De'Aaron-Fox-37900","Wesley-Matthews-1339","DeAndre-Jordan-1486","49700","274.14"
"Dennis-Schroder-18595","Wesley-Matthews-1339","Harrison-Barnes-13901","Paul-George-1245","Steven-Adams-16848","De'Aaron-Fox-37900","Buddy-Hield-35206","Tyson-Chandler-1482","50000","273.6"
"Lonzo-Ball-37885","Dennis-Schroder-18595","Wesley-Matthews-1339","Harrison-Barnes-13901","Steven-Adams-16848","De'Aaron-Fox-37900","Buddy-Hield-35206","DeAndre-Jordan-1486","50000","273.58"
"Dennis-Smith-Jr.-37847","Wesley-Matthews-1339","Harrison-Barnes-13901","Paul-George-1245","DeAndre-Jordan-1486","De'Aaron-Fox-37900","Iman-Shumpert-13350","Steven-Adams-16848","49700","273.21"
"Dennis-Schroder-18595","Wesley-Matthews-1339","Harrison-Barnes-13901","Paul-George-1245","DeAndre-Jordan-1486","Dennis-Smith-Jr.-37847","Iman-Shumpert-13350","Steven-Adams-16848","49600","273.14"
"Dennis-Smith-Jr.-37847","J.J.-Barea-18605","Wesley-Matthews-1339","Harrison-Barnes-13901","DeAndre-Jordan-1486","De'Aaron-Fox-37900","Paul-George-1245","Steven-Adams-16848","49700","273.06"
"J.J.-Barea-18605","Dennis-Schroder-18595","Wesley-Matthews-1339","Harrison-Barnes-13901","DeAndre-Jordan-1486","Dennis-Smith-Jr.-37847","Paul-George-1245","Steven-Adams-16848","49600","272.99"
"Dennis-Smith-Jr.-37847","Buddy-Hield-35206","Wesley-Matthews-1339","Harrison-Barnes-13901","DeAndre-Jordan-1486","De'Aaron-Fox-37900","Nemanja-Bjelica-31814","Steven-Adams-16848","49600","272.91"
"Dennis-Schroder-18595","Buddy-Hield-35206","Wesley-Matthews-1339","Harrison-Barnes-13901","DeAndre-Jordan-1486","Dennis-Smith-Jr.-37847","Nemanja-Bjelica-31814","Steven-Adams-16848","49500","272.84"
"Dennis-Schroder-18595","Wesley-Matthews-1339","Harrison-Barnes-13901","Paul-George-1245","DeAndre-Jordan-1486","Iman-Shumpert-13350","Nemanja-Bjelica-31814","Steven-Adams-16848","50000","272.74"
"J.J.-Barea-18605","Wesley-Matthews-1339","Harrison-Barnes-13901","Paul-George-1245","DeAndre-Jordan-1486","Dennis-Schroder-18595","Nemanja-Bjelica-31814","Steven-Adams-16848","50000","272.59"
"Brandon-Ingram-35227","Dennis-Schroder-18595","Terrance-Ferguson-37871","Harrison-Barnes-13901","Steven-Adams-16848","Dennis-Smith-Jr.-37847","Paul-George-1245","DeAndre-Jordan-1486","49900","272.58"
"Dennis-Smith-Jr.-37847","Dennis-Schroder-18595","Terrance-Ferguson-37871","Paul-George-1245","Steven-Adams-16848","De'Aaron-Fox-37900","Nemanja-Bjelica-31814","Harrison-Barnes-13901","49800","272.4"
"Dennis-Smith-Jr.-37847","Dennis-Schroder-18595","Wesley-Matthews-1339","Harrison-Barnes-13901","Steven-Adams-16848","De'Aaron-Fox-37900","Iman-Shumpert-13350","Paul-George-1245","49500","272.4"
"Dennis-Smith-Jr.-37847","Buddy-Hield-35206","Brandon-Ingram-35227","Harrison-Barnes-13901","Steven-Adams-16848","De'Aaron-Fox-37900","Wesley-Matthews-1339","DeAndre-Jordan-1486","49600","272.35"
"Brandon-Ingram-35227","Dennis-Schroder-18595","Wesley-Matthews-1339","Harrison-Barnes-13901","Steven-Adams-16848","Dennis-Smith-Jr.-37847","Buddy-Hield-35206","DeAndre-Jordan-1486","49500","272.28"
"J.J.-Barea-18605","Dennis-Schroder-18595","Wesley-Matthews-1339","Harrison-Barnes-13901","Steven-Adams-16848","Dennis-Smith-Jr.-37847","Paul-George-1245","De'Aaron-Fox-37900","49500","272.25"
"Brandon-Ingram-35227","Wesley-Matthews-1339","Harrison-Barnes-13901","Paul-George-1245","DeAndre-Jordan-1486","Dennis-Schroder-18595","Iman-Shumpert-13350","Steven-Adams-16848","50000","272.18"
"Dennis-Smith-Jr.-37847","Dennis-Schroder-18595","Wesley-Matthews-1339","Nemanja-Bjelica-31814","Steven-Adams-16848","De'Aaron-Fox-37900","Buddy-Hield-35206","Harrison-Barnes-13901","49400","272.1"
"J.J.-Barea-18605","Wesley-Matthews-1339","Brandon-Ingram-35227","Harrison-Barnes-13901","Steven-Adams-16848","Dennis-Schroder-18595","Paul-George-1245","DeAndre-Jordan-1486","50000","272.03"
"Dennis-Schroder-18595","Wesley-Matthews-1339","Harrison-Barnes-13901","Nemanja-Bjelica-31814","Steven-Adams-16848","De'Aaron-Fox-37900","Iman-Shumpert-13350","Paul-George-1245","49900","272.0"
"Brandon-Ingram-35227","Buddy-Hield-35206","Wesley-Matthews-1339","Harrison-Barnes-13901","DeAndre-Jordan-1486","De'Aaron-Fox-37900","Nemanja-Bjelica-31814","Steven-Adams-16848","50000","271.95"
"Dennis-Smith-Jr.-37847","Dennis-Schroder-18595","Buddy-Hield-35206","Nemanja-Bjelica-31814","DeAndre-Jordan-1486","De'Aaron-Fox-37900","Iman-Shumpert-13350","Steven-Adams-16848","50000","271.93"
"Brandon-Ingram-35227","Dennis-Schroder-18595","Wesley-Matthews-1339","Harrison-Barnes-13901","DeAndre-Jordan-1486","Buddy-Hield-35206","Nemanja-Bjelica-31814","Steven-Adams-16848","49900","271.88"
"J.J.-Barea-18605","Dennis-Schroder-18595","Wesley-Matthews-1339","Harrison-Barnes-13901","Steven-Adams-16848","De'Aaron-Fox-37900","Paul-George-1245","Nemanja-Bjelica-31814","49900","271.85"
"Dennis-Smith-Jr.-37847","Dennis-Schroder-18595","Brandon-Ingram-35227","Harrison-Barnes-13901","Steven-Adams-16848","De'Aaron-Fox-37900","Paul-George-1245","Terrance-Ferguson-37871","49800","271.84"
"Dennis-Smith-Jr.-37847","Dennis-Schroder-18595","Buddy-Hield-35206","Harrison-Barnes-13901","Steven-Adams-16848","De'Aaron-Fox-37900","Iman-Shumpert-13350","DeAndre-Jordan-1486","49300","271.83"
"Dennis-Smith-Jr.-37847","Dennis-Schroder-18595","Harrison-Barnes-13901","Paul-George-1245","Tyson-Chandler-1482","De'Aaron-Fox-37900","Nemanja-Bjelica-31814","Steven-Adams-16848","49600","271.72"
"J.J.-Barea-18605","Dennis-Schroder-18595","Harrison-Barnes-13901","Paul-George-1245","DeAndre-Jordan-1486","De'Aaron-Fox-37900","Iman-Shumpert-13350","Steven-Adams-16848","49800","271.58"
"Brandon-Ingram-35227","Dennis-Schroder-18595","Wesley-Matthews-1339","Harrison-Barnes-13901","Steven-Adams-16848","Dennis-Smith-Jr.-37847","Buddy-Hield-35206","De'Aaron-Fox-37900","49400","271.54"
"Dennis-Schroder-18595","Iman-Shumpert-13350","Brandon-Ingram-35227","Harrison-Barnes-13901","Steven-Adams-16848","De'Aaron-Fox-37900","Wesley-Matthews-1339","Paul-George-1245","49900","271.44"
"Dennis-Schroder-18595","Buddy-Hield-35206","Harrison-Barnes-13901","Nemanja-Bjelica-31814","Steven-Adams-16848","De'Aaron-Fox-37900","Iman-Shumpert-13350","DeAndre-Jordan-1486","49700","271.43"
"Dennis-Smith-Jr.-37847","Wesley-Matthews-1339","Harrison-Barnes-13901","Paul-George-1245","DeAndre-Jordan-1486","Iman-Shumpert-13350","Buddy-Hield-35206","Steven-Adams-16848","49500","271.35"
"J.J.-Barea-18605","Dennis-Schroder-18595","Brandon-Ingram-35227","Harrison-Barnes-13901","Steven-Adams-16848","De'Aaron-Fox-37900","Wesley-Matthews-1339","Paul-George-1245","49900","271.29"
"J.J.-Barea-18605","Dennis-Schroder-18595","Harrison-Barnes-13901","Nemanja-Bjelica-31814","DeAndre-Jordan-1486","De'Aaron-Fox-37900","Buddy-Hield-35206","Steven-Adams-16848","49700","271.28"
"Dennis-Smith-Jr.-37847","Dennis-Schroder-18595","Harrison-Barnes-13901","Jerami-Grant-18576","DeAndre-Jordan-1486","De'Aaron-Fox-37900","Nemanja-Bjelica-31814","Steven-Adams-16848","49700","271.27"
"Lonzo-Ball-37885","Wesley-Matthews-1339","Harrison-Barnes-13901","Paul-George-1245","DeAndre-Jordan-1486","Dennis-Smith-Jr.-37847","Nemanja-Bjelica-31814","Steven-Adams-16848","49800","271.22"
"J.J.-Barea-18605","Wesley-Matthews-1339","Harrison-Barnes-13901","Paul-George-1245","DeAndre-Jordan-1486","Dennis-Smith-Jr.-37847","Buddy-Hield-35206","Steven-Adams-16848","49500","271.2"
"Dennis-Smith-Jr.-37847","Dennis-Schroder-18595","Brandon-Ingram-35227","Harrison-Barnes-13901","Steven-Adams-16848","De'Aaron-Fox-37900","Paul-George-1245","Tyson-Chandler-1482","49600","271.16"
"Brandon-Ingram-35227","Dennis-Schroder-18595","Wesley-Matthews-1339","Nemanja-Bjelica-31814","Steven-Adams-16848","De'Aaron-Fox-37900","Buddy-Hield-35206","Harrison-Barnes-13901","49800","271.14"
"Dennis-Schroder-18595","Alex-Abrines-36054","Wesley-Matthews-1339","Harrison-Barnes-13901","DeAndre-Jordan-1486","Dennis-Smith-Jr.-37847","Paul-George-1245","De'Aaron-Fox-37900","50000","270.91"
"Dennis-Smith-Jr.-37847","Dennis-Schroder-18595","Wesley-Matthews-1339","Harrison-Barnes-13901","DeAndre-Jordan-1486","De'Aaron-Fox-37900","Paul-George-1245","Terrance-Ferguson-37871","49700","270.91"
"Brandon-Ingram-35227","Dennis-Schroder-18595","Buddy-Hield-35206","Harrison-Barnes-13901","Steven-Adams-16848","De'Aaron-Fox-37900","Iman-Shumpert-13350","DeAndre-Jordan-1486","49700","270.87"
"J.J.-Barea-18605","Wesley-Matthews-1339","Harrison-Barnes-13901","Paul-George-1245","DeAndre-Jordan-1486","Buddy-Hield-35206","Nemanja-Bjelica-31814","Steven-Adams-16848","49900","270.8"
"Brandon-Ingram-35227","Buddy-Hield-35206","Terrance-Ferguson-37871","Harrison-Barnes-13901","Steven-Adams-16848","Dennis-Smith-Jr.-37847","Paul-George-1245","DeAndre-Jordan-1486","49800","270.79"
"Brandon-Ingram-35227","Dennis-Schroder-18595","Harrison-Barnes-13901","Paul-George-1245","Tyson-Chandler-1482","De'Aaron-Fox-37900","Nemanja-Bjelica-31814","Steven-Adams-16848","50000","270.76"
"Lonzo-Ball-37885","Dennis-Schroder-18595","Brandon-Ingram-35227","Harrison-Barnes-13901","Steven-Adams-16848","De'Aaron-Fox-37900","Nemanja-Bjelica-31814","DeAndre-Jordan-1486","50000","270.74"
"J.J.-Barea-18605","Dennis-Schroder-18595","Brandon-Ingram-35227","Harrison-Barnes-13901","DeAndre-Jordan-1486","De'Aaron-Fox-37900","Buddy-Hield-35206","Steven-Adams-16848","49700","270.72"
"Dennis-Smith-Jr.-37847","Dennis-Schroder-18595","Brandon-Ingram-35227","Harrison-Barnes-13901","DeAndre-Jordan-1486","De'Aaron-Fox-37900","Jerami-Grant-18576","Steven-Adams-16848","49700","270.71"
"Lonzo-Ball-37885","Wesley-Matthews-1339","Brandon-Ingram-35227","Harrison-Barnes-13901","Steven-Adams-16848","Dennis-Smith-Jr.-37847","Paul-George-1245","DeAndre-Jordan-1486","49800","270.66"
"Dennis-Schroder-18595","Iman-Shumpert-13350","Wesley-Matthews-1339","Nemanja-Bjelica-31814","Steven-Adams-16848","Dennis-Smith-Jr.-37847","Buddy-Hield-35206","Paul-George-1245","50000","270.64"
"Dennis-Smith-Jr.-37847","Iman-Shumpert-13350","Wesley-Matthews-1339","Harrison-Barnes-13901","Steven-Adams-16848","De'Aaron-Fox-37900","Buddy-Hield-35206","Paul-George-1245","49400","270.61"
"Dennis-Smith-Jr.-37847","Buddy-Hield-35206","Harrison-Barnes-13901","Paul-George-1245","Steven-Adams-16848","De'Aaron-Fox-37900","Alex-Abrines-36054","Nemanja-Bjelica-31814","50000","270.61"
"Dennis-Smith-Jr.-37847","Buddy-Hield-35206","Terrance-Ferguson-37871","Paul-George-1245","Steven-Adams-16848","De'Aaron-Fox-37900","Nemanja-Bjelica-31814","Harrison-Barnes-13901","49700","270.61"
"Lonzo-Ball-37885","Dennis-Schroder-18595","Harrison-Barnes-13901","Paul-George-1245","Steven-Adams-16848","De'Aaron-Fox-37900","Buddy-Hield-35206","Tyson-Chandler-1482","49900","270.6"
"Dennis-Schroder-18595","Iman-Shumpert-13350","Wesley-Matthews-1339","Harrison-Barnes-13901","Steven-Adams-16848","Dennis-Smith-Jr.-37847","Buddy-Hield-35206","Paul-George-1245","49300","270.54"
"Dennis-Schroder-18595","Buddy-Hield-35206","Terrance-Ferguson-37871","Paul-George-1245","Steven-Adams-16848","Dennis-Smith-Jr.-37847","Nemanja-Bjelica-31814","Harrison-Barnes-13901","49600","270.54"
"Dennis-Schroder-18595","Buddy-Hield-35206","Harrison-Barnes-13901","Paul-George-1245","Steven-Adams-16848","Dennis-Smith-Jr.-37847","Alex-Abrines-36054","Nemanja-Bjelica-31814","49900","270.54"
"J.J.-Barea-18605","Dennis-Schroder-18595","Wesley-Matthews-1339","Nemanja-Bjelica-31814","Steven-Adams-16848","Dennis-Smith-Jr.-37847","Buddy-Hield-35206","Paul-George-1245","50000","270.49"
"Lonzo-Ball-37885","Wesley-Matthews-1339","Harrison-Barnes-13901","Paul-George-1245","Steven-Adams-16848","Dennis-Smith-Jr.-37847","Nemanja-Bjelica-31814","De'Aaron-Fox-37900","49700","270.48"
"Dennis-Smith-Jr.-37847","J.J.-Barea-18605","Wesley-Matthews-1339","Harrison-Barnes-13901","Steven-Adams-16848","De'Aaron-Fox-37900","Buddy-Hield-35206","Paul-George-1245","49400","270.46"
"Lonzo-Ball-37885","Dennis-Schroder-18595","Wesley-Matthews-1339","Harrison-Barnes-13901","Steven-Adams-16848","Dennis-Smith-Jr.-37847","Paul-George-1245","Nemanja-Bjelica-31814","49600","270.41"
"Brandon-Ingram-35227","Wesley-Matthews-1339","Harrison-Barnes-13901","Paul-George-1245","DeAndre-Jordan-1486","Iman-Shumpert-13350","Buddy-Hield-35206","Steven-Adams-16848","49900","270.39"
"J.J.-Barea-18605","Dennis-Schroder-18595","Wesley-Matthews-1339","Harrison-Barnes-13901","Steven-Adams-16848","Dennis-Smith-Jr.-37847","Buddy-Hield-35206","Paul-George-1245","49300","270.39"
"Dennis-Smith-Jr.-37847","J.J.-Barea-18605","Buddy-Hield-35206","Paul-George-1245","Steven-Adams-16848","De'Aaron-Fox-37900","Iman-Shumpert-13350","DeAndre-Jordan-1486","50000","270.29"
"J.J.-Barea-18605","Wesley-Matthews-1339","Harrison-Barnes-13901","Paul-George-1245","DeAndre-Jordan-1486","Brandon-Ingram-35227","Buddy-Hield-35206","Steven-Adams-16848","49900","270.24"
"Dennis-Smith-Jr.-37847","Dennis-Schroder-18595","Wesley-Matthews-1339","Harrison-Barnes-13901","DeAndre-Jordan-1486","De'Aaron-Fox-37900","Paul-George-1245","Tyson-Chandler-1482","49500","270.23"
"Brandon-Ingram-35227","Wesley-Matthews-1339","Harrison-Barnes-13901","Jerami-Grant-18576","Steven-Adams-16848","Dennis-Smith-Jr.-37847","Paul-George-1245","DeAndre-Jordan-1486","49900","270.23"
"J.J.-Barea-18605","Dennis-Schroder-18595","Buddy-Hield-35206","Paul-George-1245","Steven-Adams-16848","Dennis-Smith-Jr.-37847","Iman-Shumpert-13350","DeAndre-Jordan-1486","49900","270.22"
"De'Aaron-Fox-37900","Wesley-Matthews-1339","Harrison-Barnes-13901","Nemanja-Bjelica-31814","Steven-Adams-16848","Buddy-Hield-35206","Iman-Shumpert-13350","Paul-George-1245","49800","270.21"
"Dennis-Schroder-18595","Buddy-Hield-35206","Harrison-Barnes-13901","Jerami-Grant-18576","Steven-Adams-16848","De'Aaron-Fox-37900","Paul-George-1245","Tyson-Chandler-1482","50000","270.17"
"Dennis-Smith-Jr.-37847","Wesley-Matthews-1339","Terrance-Ferguson-37871","Paul-George-1245","Steven-Adams-16848","De'Aaron-Fox-37900","Nemanja-Bjelica-31814","DeAndre-Jordan-1486","49800","270.16"
"Lonzo-Ball-37885","Dennis-Schroder-18595","Harrison-Barnes-13901","Jerami-Grant-18576","Steven-Adams-16848","De'Aaron-Fox-37900","Buddy-Hield-35206","DeAndre-Jordan-1486","50000","270.15"
"Dennis-Schroder-18595","Wesley-Matthews-1339","Harrison-Barnes-13901","Nemanja-Bjelica-31814","Steven-Adams-16848","Buddy-Hield-35206","Iman-Shumpert-13350","Paul-George-1245","49700","270.14"
"Lonzo-Ball-37885","Dennis-Schroder-18595","Harrison-Barnes-13901","Paul-George-1245","DeAndre-Jordan-1486","Dennis-Smith-Jr.-37847","Iman-Shumpert-13350","Steven-Adams-16848","49500","270.14"
"Dennis-Schroder-18595","Alex-Abrines-36054","Wesley-Matthews-1339","Paul-George-1245","DeAndre-Jordan-1486","Dennis-Smith-Jr.-37847","Nemanja-Bjelica-31814","Steven-Adams-16848","50000","270.09"
"Dennis-Schroder-18595","Wesley-Matthews-1339","Terrance-Ferguson-37871","Paul-George-1245","Steven-Adams-16848","Dennis-Smith-Jr.-37847","Nemanja-Bjelica-31814","DeAndre-Jordan-1486","49700","270.09"
"Brandon-Ingram-35227","Wesley-Matthews-1339","Buddy-Hield-35206","Paul-George-1245","Steven-Adams-16848","Dennis-Schroder-18595","Iman-Shumpert-13350","Dennis-Smith-Jr.-37847","50000","270.08"
"Dennis-Smith-Jr.-37847","Wesley-Matthews-1339","Terrance-Ferguson-37871","Harrison-Barnes-13901","Steven-Adams-16848","De'Aaron-Fox-37900","Paul-George-1245","DeAndre-Jordan-1486","49100","270.06"
"J.J.-Barea-18605","Wesley-Matthews-1339","Harrison-Barnes-13901","Paul-George-1245","Steven-Adams-16848","De'Aaron-Fox-37900","Buddy-Hield-35206","Nemanja-Bjelica-31814","49800","270.06"
"Dennis-Smith-Jr.-37847","Wesley-Matthews-1339","Harrison-Barnes-13901","Paul-George-1245","Steven-Adams-16848","De'Aaron-Fox-37900","Alex-Abrines-36054","DeAndre-Jordan-1486","49400","270.06"
"Dennis-Smith-Jr.-37847","Wesley-Matthews-1339","Harrison-Barnes-13901","Jerami-Grant-18576","Steven-Adams-16848","De'Aaron-Fox-37900","Paul-George-1245","Nemanja-Bjelica-31814","49800","270.05"
"J.J.-Barea-18605","Dennis-Schroder-18595","LeBron-James-1227","Harrison-Barnes-13901","Steven-Adams-16848","Dennis-Smith-Jr.-37847","Iman-Shumpert-13350","DeAndre-Jordan-1486","50000","270.05"
"Dennis-Smith-Jr.-37847","Buddy-Hield-35206","Brandon-Ingram-35227","Harrison-Barnes-13901","Steven-Adams-16848","De'Aaron-Fox-37900","Paul-George-1245","Terrance-Ferguson-37871","49700","270.05"
"Brandon-Ingram-35227","Buddy-Hield-35206","Harrison-Barnes-13901","Paul-George-1245","Steven-Adams-16848","Dennis-Smith-Jr.-37847","Alex-Abrines-36054","De'Aaron-Fox-37900","50000","270.05"
"Dennis-Smith-Jr.-37847","Dennis-Schroder-18595","Terrance-Ferguson-37871","Harrison-Barnes-13901","JaVale-McGee-1485","De'Aaron-Fox-37900","Paul-George-1245","Steven-Adams-16848","50000","270.02"
"J.J.-Barea-18605","Wesley-Matthews-1339","Harrison-Barnes-13901","Paul-George-1245","Steven-Adams-16848","Dennis-Schroder-18595","Buddy-Hield-35206","Nemanja-Bjelica-31814","49700","269.99"
"Dennis-Schroder-18595","Wesley-Matthews-1339","Harrison-Barnes-13901","Paul-George-1245","Steven-Adams-16848","Dennis-Smith-Jr.-37847","Alex-Abrines-36054","DeAndre-Jordan-1486","49300","269.99"
"Dennis-Schroder-18595","Wesley-Matthews-1339","Terrance-Ferguson-37871","Harrison-Barnes-13901","Steven-Adams-16848","Dennis-Smith-Jr.-37847","Paul-George-1245","DeAndre-Jordan-1486","49000","269.99"
"Brandon-Ingram-35227","Dennis-Schroder-18595","Harrison-Barnes-13901","Paul-George-1245","Steven-Adams-16848","Buddy-Hield-35206","Alex-Abrines-36054","Dennis-Smith-Jr.-37847","49900","269.98"
"Dennis-Schroder-18595","Wesley-Matthews-1339","Harrison-Barnes-13901","Jerami-Grant-18576","Steven-Adams-16848","Dennis-Smith-Jr.-37847","Paul-George-1245","Nemanja-Bjelica-31814","49700","269.98"
"Brandon-Ingram-35227","Dennis-Schroder-18595","Terrance-Ferguson-37871","Harrison-Barnes-13901","Steven-Adams-16848","Dennis-Smith-Jr.-37847","Buddy-Hield-35206","Paul-George-1245","49600","269.98"
"J.J.-Barea-18605","Wesley-Matthews-1339","Brandon-Ingram-35227","Paul-George-1245","Steven-Adams-16848","Dennis-Schroder-18595","Buddy-Hield-35206","Dennis-Smith-Jr.-37847","50000","269.93"
"Dennis-Smith-Jr.-37847","Buddy-Hield-35206","Harrison-Barnes-13901","Paul-George-1245","Tyson-Chandler-1482","De'Aaron-Fox-37900","Nemanja-Bjelica-31814","Steven-Adams-16848","49500","269.93"
"Lonzo-Ball-37885","Wesley-Matthews-1339","Brandon-Ingram-35227","Harrison-Barnes-13901","Steven-Adams-16848","Dennis-Smith-Jr.-37847","Paul-George-1245","De'Aaron-Fox-37900","49700","269.92"
"Dennis-Schroder-18595","Buddy-Hield-35206","Harrison-Barnes-13901","Paul-George-1245","Tyson-Chandler-1482","Dennis-Smith-Jr.-37847","Nemanja-Bjelica-31814","Steven-Adams-16848","49400","269.86"
"Lonzo-Ball-37885","Dennis-Schroder-18595","Brandon-Ingram-35227","Harrison-Barnes-13901","Steven-Adams-16848","Dennis-Smith-Jr.-37847","Wesley-Matthews-1339","Paul-George-1245","49600","269.85"
"Lonzo-Ball-37885","Dennis-Schroder-18595","Harrison-Barnes-13901","Nemanja-Bjelica-31814","DeAndre-Jordan-1486","Dennis-Smith-Jr.-37847","Buddy-Hield-35206","Steven-Adams-16848","49400","269.84"
"Dennis-Schroder-18595","Wesley-Matthews-1339","Harrison-Barnes-13901","Paul-George-1245","Tyson-Chandler-1482","De'Aaron-Fox-37900","Nemanja-Bjelica-31814","DeAndre-Jordan-1486","49900","269.83"
