"Jerian-Grant-18900","Victor-Oladipo-16807","Tyreke-Evans-1070","John-Collins-37823","Nikola-Vucevic-13296","Terrence-Ross-13902","Jeremy-Lamb-13955","Aaron-Gordon-18601","49900","279.07"
"Jerian-Grant-18900","Evan-Fournier-13913","Terrence-Ross-13902","John-Collins-37823","Nikola-Vucevic-13296","Jeremy-Lamb-13955","Domantas-Sabonis-35217","Aaron-Gordon-18601","49700","278.96"
"Jerian-Grant-18900","Victor-Oladipo-16807","Aaron-Gordon-18601","John-Collins-37823","Nikola-Vucevic-13296","Evan-Fournier-13913","Terrence-Ross-13902","Cody-Zeller-16836","49600","278.93"

"Jerian-Grant-18900","Victor-Oladipo-16807","Tyreke-Evans-1070","John-Collins-37823","Nikola-Vucevic-13296","Terrence-Ross-13902","Jeremy-Lamb-13955","Aaron-Gordon-18601","49900","279.07"
"Jerian-Grant-18900","Evan-Fournier-13913","Terrence-Ross-13902","John-Collins-37823","Nikola-Vucevic-13296","Jeremy-Lamb-13955","Domantas-Sabonis-35217","Aaron-Gordon-18601","49700","278.96"
"Jerian-Grant-18900","Victor-Oladipo-16807","Aaron-Gordon-18601","John-Collins-37823","Nikola-Vucevic-13296","Evan-Fournier-13913","Terrence-Ross-13902","Cody-Zeller-16836","49600","278.93"
"Jerian-Grant-18900","Victor-Oladipo-16807","Evan-Fournier-13913","Aaron-Gordon-18601","Nikola-Vucevic-13296","Nicolas-Batum-1315","Terrence-Ross-13902","John-Collins-37823","49900","278.71"
"Jerian-Grant-18900","Victor-Oladipo-16807","Bojan-Bogdanovic-18571","John-Collins-37823","Nikola-Vucevic-13296","Evan-Fournier-13913","Jeremy-Lamb-13955","Terrence-Ross-13902","50000","278.33"
"Victor-Oladipo-16807","Terrence-Ross-13902","Evan-Fournier-13913","Aaron-Gordon-18601","Domantas-Sabonis-35217","Jeremy-Lamb-13955","John-Collins-37823","Cody-Zeller-16836","49900","278.3"
"Jerian-Grant-18900","Victor-Oladipo-16807","Evan-Fournier-13913","Aaron-Gordon-18601","Alex-Len-16886","Terrence-Ross-13902","John-Collins-37823","Nikola-Vucevic-13296","49500","278.16"
"Jerian-Grant-18900","Evan-Fournier-13913","Aaron-Gordon-18601","John-Collins-37823","Nikola-Vucevic-13296","Terrence-Ross-13902","Jeremy-Lamb-13955","Myles-Turner-18915","50000","278.13"
"Victor-Oladipo-16807","Terrence-Ross-13902","Evan-Fournier-13913","John-Collins-37823","Nikola-Vucevic-13296","Jeremy-Lin-916","Tyreke-Evans-1070","Aaron-Gordon-18601","49700","278.06"
"Jerian-Grant-18900","Victor-Oladipo-16807","Evan-Fournier-13913","Aaron-Gordon-18601","Nikola-Vucevic-13296","Jeremy-Lin-916","Terrence-Ross-13902","John-Collins-37823","49100","278.05"
"Victor-Oladipo-16807","Kevin-Huerter-408969","Evan-Fournier-13913","John-Collins-37823","Nikola-Vucevic-13296","Terrence-Ross-13902","Tyreke-Evans-1070","Aaron-Gordon-18601","49900","277.73"
"Jerian-Grant-18900","Kevin-Huerter-408969","Evan-Fournier-13913","Aaron-Gordon-18601","Nikola-Vucevic-13296","Victor-Oladipo-16807","Terrence-Ross-13902","John-Collins-37823","49300","277.72"
"Jerian-Grant-18900","Victor-Oladipo-16807","Evan-Fournier-13913","John-Collins-37823","Nikola-Vucevic-13296","Terrence-Ross-13902","Tyreke-Evans-1070","Aaron-Gordon-18601","48900","277.62"
"Victor-Oladipo-16807","Terrence-Ross-13902","Evan-Fournier-13913","Aaron-Gordon-18601","Domantas-Sabonis-35217","Jeremy-Lamb-13955","John-Collins-37823","Alex-Len-16886","49800","277.53"
"Victor-Oladipo-16807","Terrence-Ross-13902","Evan-Fournier-13913","Aaron-Gordon-18601","Domantas-Sabonis-35217","Jeremy-Lamb-13955","John-Collins-37823","Jeremy-Lin-916","49400","277.42"
"Jerian-Grant-18900","Victor-Oladipo-16807","Terrence-Ross-13902","Michael-Kidd-Gilchrist-13896","Nikola-Vucevic-13296","Evan-Fournier-13913","Jeremy-Lamb-13955","Kemba-Walker-13335","50000","277.28"
"Victor-Oladipo-16807","Evan-Fournier-13913","Tyreke-Evans-1070","John-Collins-37823","Nikola-Vucevic-13296","Terrence-Ross-13902","Jeremy-Lamb-13955","Cody-Zeller-16836","50000","277.23"
"Jerian-Grant-18900","Victor-Oladipo-16807","Terrence-Ross-13902","John-Collins-37823","Cody-Zeller-16836","Evan-Fournier-13913","Jeremy-Lamb-13955","Nikola-Vucevic-13296","49400","277.22"
"Jerian-Grant-18900","Victor-Oladipo-16807","Aaron-Gordon-18601","Marvin-Williams-1318","Nikola-Vucevic-13296","Evan-Fournier-13913","Domantas-Sabonis-35217","Terrence-Ross-13902","50000","277.21"
"Jerian-Grant-18900","Victor-Oladipo-16807","Terrence-Ross-13902","John-Collins-37823","Nikola-Vucevic-13296","Evan-Fournier-13913","Domantas-Sabonis-35217","Alex-Len-16886","50000","277.13"
"Victor-Oladipo-16807","Evan-Fournier-13913","Kevin-Huerter-408969","John-Collins-37823","Domantas-Sabonis-35217","Jeremy-Lamb-13955","Terrence-Ross-13902","Aaron-Gordon-18601","49600","277.09"
"Jerian-Grant-18900","Victor-Oladipo-16807","Terrence-Ross-13902","John-Collins-37823","Nikola-Vucevic-13296","Evan-Fournier-13913","Domantas-Sabonis-35217","Jeremy-Lin-916","49600","277.02"
"Jerian-Grant-18900","Victor-Oladipo-16807","Terrence-Ross-13902","John-Collins-37823","Nikola-Vucevic-13296","Evan-Fournier-13913","Jeremy-Lamb-13955","Nicolas-Batum-1315","49700","277.0"
"Victor-Oladipo-16807","Evan-Fournier-13913","Terrence-Ross-13902","John-Collins-37823","Domantas-Sabonis-35217","Jeremy-Lamb-13955","Tyreke-Evans-1070","Aaron-Gordon-18601","49200","276.99"
"Jerian-Grant-18900","Victor-Oladipo-16807","Evan-Fournier-13913","Aaron-Gordon-18601","Domantas-Sabonis-35217","Terrence-Ross-13902","John-Collins-37823","Jeremy-Lamb-13955","48600","276.98"
"Victor-Oladipo-16807","Terrence-Ross-13902","Evan-Fournier-13913","Aaron-Gordon-18601","Nikola-Vucevic-13296","Tyreke-Evans-1070","Jeremy-Lamb-13955","Thaddeus-Young-1289","50000","276.94"
"Jerian-Grant-18900","Victor-Oladipo-16807","Evan-Fournier-13913","Aaron-Gordon-18601","Nikola-Vucevic-13296","Terrence-Ross-13902","Jeremy-Lamb-13955","Thaddeus-Young-1289","49400","276.93"
"Jerian-Grant-18900","Victor-Oladipo-16807","Evan-Fournier-13913","Aaron-Gordon-18601","Domantas-Sabonis-35217","Terrence-Ross-13902","John-Collins-37823","Myles-Turner-18915","49600","276.83"
"Jerian-Grant-18900","Victor-Oladipo-16807","Kevin-Huerter-408969","John-Collins-37823","Domantas-Sabonis-35217","Evan-Fournier-13913","Terrence-Ross-13902","Nikola-Vucevic-13296","49800","276.69"
"Jerian-Grant-18900","Victor-Oladipo-16807","Michael-Kidd-Gilchrist-13896","Aaron-Gordon-18601","Nikola-Vucevic-13296","Terrence-Ross-13902","Jeremy-Lamb-13955","John-Collins-37823","49500","276.69"
"Jerian-Grant-18900","Victor-Oladipo-16807","Terrence-Ross-13902","John-Collins-37823","Nikola-Vucevic-13296","Evan-Fournier-13913","Domantas-Sabonis-35217","Tyreke-Evans-1070","49400","276.59"
"Victor-Oladipo-16807","Jeremy-Lin-916","Evan-Fournier-13913","Aaron-Gordon-18601","Myles-Turner-18915","Jeremy-Lamb-13955","Terrence-Ross-13902","John-Collins-37823","49700","276.59"
"Victor-Oladipo-16807","Evan-Fournier-13913","Michael-Kidd-Gilchrist-13896","Aaron-Gordon-18601","Cody-Zeller-16836","Terrence-Ross-13902","John-Collins-37823","Nikola-Vucevic-13296","49800","276.56"
"Jerian-Grant-18900","Victor-Oladipo-16807","Bojan-Bogdanovic-18571","Aaron-Gordon-18601","John-Collins-37823","Evan-Fournier-13913","Terrence-Ross-13902","Kemba-Walker-13335","49800","276.55"
"Jerian-Grant-18900","Jeremy-Lin-916","Evan-Fournier-13913","Aaron-Gordon-18601","Nikola-Vucevic-13296","Kemba-Walker-13335","Terrence-Ross-13902","John-Collins-37823","49800","276.54"
"Victor-Oladipo-16807","Terrence-Ross-13902","Evan-Fournier-13913","Aaron-Gordon-18601","Nikola-Vucevic-13296","Tyreke-Evans-1070","Jeremy-Lamb-13955","Marvin-Williams-1318","49900","276.54"
"Jerian-Grant-18900","Victor-Oladipo-16807","Evan-Fournier-13913","Aaron-Gordon-18601","Nikola-Vucevic-13296","Terrence-Ross-13902","Jeremy-Lamb-13955","Marvin-Williams-1318","49300","276.53"
"Victor-Oladipo-16807","Evan-Fournier-13913","Tyreke-Evans-1070","John-Collins-37823","Nikola-Vucevic-13296","Terrence-Ross-13902","Jeremy-Lamb-13955","Alex-Len-16886","49900","276.46"
"Victor-Oladipo-16807","Evan-Fournier-13913","Kevin-Huerter-408969","John-Collins-37823","Nikola-Vucevic-13296","Jeremy-Lamb-13955","Terrence-Ross-13902","Jeremy-Lin-916","49900","276.45"
"Jerian-Grant-18900","Victor-Oladipo-16807","Terrence-Ross-13902","John-Collins-37823","Nikola-Vucevic-13296","Evan-Fournier-13913","Jeremy-Lamb-13955","Alex-Len-16886","49300","276.45"
"Victor-Oladipo-16807","Evan-Fournier-13913","Tyreke-Evans-1070","John-Collins-37823","Nikola-Vucevic-13296","Terrence-Ross-13902","Jeremy-Lamb-13955","Jeremy-Lin-916","49500","276.35"
"Jerian-Grant-18900","Victor-Oladipo-16807","Terrence-Ross-13902","John-Collins-37823","Nikola-Vucevic-13296","Evan-Fournier-13913","Jeremy-Lamb-13955","Jeremy-Lin-916","48900","276.34"
"Victor-Oladipo-16807","Kevin-Huerter-408969","Evan-Fournier-13913","Aaron-Gordon-18601","Myles-Turner-18915","Jeremy-Lamb-13955","Terrence-Ross-13902","John-Collins-37823","49900","276.26"
"Jerian-Grant-18900","Kevin-Huerter-408969","Evan-Fournier-13913","Aaron-Gordon-18601","Nikola-Vucevic-13296","Kemba-Walker-13335","Terrence-Ross-13902","John-Collins-37823","50000","276.21"
"Jerian-Grant-18900","Victor-Oladipo-16807","Evan-Fournier-13913","John-Collins-37823","Nikola-Vucevic-13296","Jeremy-Lin-916","Terrence-Ross-13902","Myles-Turner-18915","49900","276.19"
"Victor-Oladipo-16807","Tyreke-Evans-1070","Evan-Fournier-13913","Aaron-Gordon-18601","Myles-Turner-18915","Jeremy-Lamb-13955","Terrence-Ross-13902","John-Collins-37823","49500","276.16"
"Jerian-Grant-18900","Victor-Oladipo-16807","Evan-Fournier-13913","Aaron-Gordon-18601","Myles-Turner-18915","Jeremy-Lamb-13955","Terrence-Ross-13902","John-Collins-37823","48900","276.15"
"Jerian-Grant-18900","Evan-Fournier-13913","Terrence-Ross-13902","John-Collins-37823","Nikola-Vucevic-13296","Trae-Young-409063","Domantas-Sabonis-35217","Aaron-Gordon-18601","50000","276.12"
"Jerian-Grant-18900","Terrence-Ross-13902","Evan-Fournier-13913","John-Collins-37823","Nikola-Vucevic-13296","Kemba-Walker-13335","Tyreke-Evans-1070","Aaron-Gordon-18601","49600","276.11"
"Jerian-Grant-18900","Victor-Oladipo-16807","Aaron-Gordon-18601","Domantas-Sabonis-35217","Nikola-Vucevic-13296","Jeremy-Lamb-13955","Terrence-Ross-13902","Cody-Zeller-16836","49900","276.07"
"Victor-Oladipo-16807","Kevin-Huerter-408969","Tyreke-Evans-1070","John-Collins-37823","Nikola-Vucevic-13296","Evan-Fournier-13913","Jeremy-Lamb-13955","Terrence-Ross-13902","49700","276.02"
"Jerian-Grant-18900","Victor-Oladipo-16807","Terrence-Ross-13902","Aaron-Gordon-18601","John-Collins-37823","Kemba-Walker-13335","Jeremy-Lamb-13955","Jeremy-Lin-916","49700","276.01"
"Jerian-Grant-18900","Victor-Oladipo-16807","Kevin-Huerter-408969","John-Collins-37823","Nikola-Vucevic-13296","Evan-Fournier-13913","Terrence-Ross-13902","Jeremy-Lamb-13955","49100","276.01"
"Jerian-Grant-18900","Victor-Oladipo-16807","Tyreke-Evans-1070","John-Collins-37823","Nikola-Vucevic-13296","Evan-Fournier-13913","Jeremy-Lamb-13955","Terrence-Ross-13902","48700","275.91"
"Jerian-Grant-18900","Victor-Oladipo-16807","Terrence-Ross-13902","Domantas-Sabonis-35217","Nikola-Vucevic-13296","Evan-Fournier-13913","Jeremy-Lamb-13955","Thaddeus-Young-1289","49900","275.9"
"Victor-Oladipo-16807","Jeremy-Lin-916","Evan-Fournier-13913","Aaron-Gordon-18601","Cody-Zeller-16836","Kemba-Walker-13335","Terrence-Ross-13902","John-Collins-37823","50000","275.88"
"Victor-Oladipo-16807","Evan-Fournier-13913","Michael-Kidd-Gilchrist-13896","Aaron-Gordon-18601","Alex-Len-16886","Terrence-Ross-13902","John-Collins-37823","Nikola-Vucevic-13296","49700","275.79"
"Jerian-Grant-18900","Victor-Oladipo-16807","Evan-Fournier-13913","John-Collins-37823","Nikola-Vucevic-13296","Terrence-Ross-13902","Tyreke-Evans-1070","Myles-Turner-18915","49700","275.76"
"Jerian-Grant-18900","Victor-Oladipo-16807","Bojan-Bogdanovic-18571","Aaron-Gordon-18601","Domantas-Sabonis-35217","Evan-Fournier-13913","Terrence-Ross-13902","Nikola-Vucevic-13296","49500","275.73"
"Jerian-Grant-18900","Victor-Oladipo-16807","Aaron-Gordon-18601","John-Collins-37823","Nikola-Vucevic-13296","Terrence-Ross-13902","Jeremy-Lamb-13955","Willy-Hernangomez-18901","49900","275.72"
"Victor-Oladipo-16807","Evan-Fournier-13913","Michael-Kidd-Gilchrist-13896","John-Collins-37823","Nikola-Vucevic-13296","Jeremy-Lin-916","Terrence-Ross-13902","Aaron-Gordon-18601","49300","275.68"
"Jerian-Grant-18900","Victor-Oladipo-16807","Kevin-Huerter-408969","Aaron-Gordon-18601","John-Collins-37823","Terrence-Ross-13902","Jeremy-Lamb-13955","Kemba-Walker-13335","49900","275.68"
"Jerian-Grant-18900","Victor-Oladipo-16807","Michael-Kidd-Gilchrist-13896","John-Collins-37823","Nikola-Vucevic-13296","Terrence-Ross-13902","Domantas-Sabonis-35217","Jeremy-Lamb-13955","50000","275.66"
"Victor-Oladipo-16807","Evan-Fournier-13913","Terrence-Ross-13902","John-Collins-37823","Nikola-Vucevic-13296","Jeremy-Lin-916","Jonathan-Isaac-37841","Aaron-Gordon-18601","50000","275.6"
"Victor-Oladipo-16807","Bojan-Bogdanovic-18571","Evan-Fournier-13913","Aaron-Gordon-18601","Alex-Len-16886","Terrence-Ross-13902","Jeremy-Lamb-13955","Nikola-Vucevic-13296","50000","275.6"
"Jerian-Grant-18900","Victor-Oladipo-16807","Terrence-Ross-13902","John-Collins-37823","Domantas-Sabonis-35217","Trae-Young-409063","Jeremy-Lamb-13955","Aaron-Gordon-18601","49900","275.59"
"Jerian-Grant-18900","Victor-Oladipo-16807","Tyreke-Evans-1070","Aaron-Gordon-18601","John-Collins-37823","Terrence-Ross-13902","Jeremy-Lamb-13955","Kemba-Walker-13335","49500","275.58"
"Jerian-Grant-18900","Victor-Oladipo-16807","Terrence-Ross-13902","Domantas-Sabonis-35217","Nikola-Vucevic-13296","Evan-Fournier-13913","Jeremy-Lamb-13955","Marvin-Williams-1318","49800","275.5"
"Victor-Oladipo-16807","Bojan-Bogdanovic-18571","Evan-Fournier-13913","Aaron-Gordon-18601","Nikola-Vucevic-13296","Terrence-Ross-13902","Jeremy-Lamb-13955","Jeremy-Lin-916","49600","275.49"
"Kemba-Walker-13335","Evan-Fournier-13913","Terrence-Ross-13902","John-Collins-37823","Domantas-Sabonis-35217","Jeremy-Lamb-13955","Tyreke-Evans-1070","Aaron-Gordon-18601","49900","275.48"
"Jerian-Grant-18900","Terrence-Ross-13902","Evan-Fournier-13913","Aaron-Gordon-18601","Domantas-Sabonis-35217","Jeremy-Lamb-13955","John-Collins-37823","Kemba-Walker-13335","49300","275.47"
"Trae-Young-409063","Evan-Fournier-13913","Tyreke-Evans-1070","John-Collins-37823","Nikola-Vucevic-13296","Terrence-Ross-13902","Jeremy-Lamb-13955","Aaron-Gordon-18601","49900","275.45"
"Victor-Oladipo-16807","Terrence-Ross-13902","Evan-Fournier-13913","Aaron-Gordon-18601","Cody-Zeller-16836","Kemba-Walker-13335","Tyreke-Evans-1070","John-Collins-37823","49800","275.45"
"Victor-Oladipo-16807","DeAndre-Bembry-35198","Evan-Fournier-13913","John-Collins-37823","Nikola-Vucevic-13296","Terrence-Ross-13902","Tyreke-Evans-1070","Aaron-Gordon-18601","50000","275.45"
"Jerian-Grant-18900","Victor-Oladipo-16807","Evan-Fournier-13913","Aaron-Gordon-18601","Cody-Zeller-16836","Kemba-Walker-13335","Terrence-Ross-13902","John-Collins-37823","49200","275.44"
"Jerian-Grant-18900","Terrence-Ross-13902","Evan-Fournier-13913","Aaron-Gordon-18601","Nikola-Vucevic-13296","Trae-Young-409063","Jeremy-Lamb-13955","John-Collins-37823","49300","275.44"
"Jerian-Grant-18900","Victor-Oladipo-16807","Aaron-Gordon-18601","John-Collins-37823","Nikola-Vucevic-13296","Evan-Fournier-13913","DeAndre-Bembry-35198","Terrence-Ross-13902","49400","275.44"
"Victor-Oladipo-16807","Kevin-Huerter-408969","Michael-Kidd-Gilchrist-13896","John-Collins-37823","Nikola-Vucevic-13296","Evan-Fournier-13913","Terrence-Ross-13902","Aaron-Gordon-18601","49500","275.35"
"Jerian-Grant-18900","Victor-Oladipo-16807","Tyreke-Evans-1070","John-Collins-37823","Nikola-Vucevic-13296","Jeremy-Lin-916","Jeremy-Lamb-13955","Aaron-Gordon-18601","50000","275.35"
"Jerian-Grant-18900","Victor-Oladipo-16807","Aaron-Gordon-18601","Domantas-Sabonis-35217","Nikola-Vucevic-13296","Jeremy-Lamb-13955","Terrence-Ross-13902","Alex-Len-16886","49800","275.3"
"Victor-Oladipo-16807","Evan-Fournier-13913","Michael-Kidd-Gilchrist-13896","John-Collins-37823","Nikola-Vucevic-13296","Tyreke-Evans-1070","Terrence-Ross-13902","Aaron-Gordon-18601","49100","275.25"
"Jerian-Grant-18900","Victor-Oladipo-16807","Evan-Fournier-13913","Aaron-Gordon-18601","Domantas-Sabonis-35217","Bojan-Bogdanovic-18571","John-Collins-37823","Jeremy-Lamb-13955","49800","275.25"
"Jerian-Grant-18900","Jeremy-Lin-916","Evan-Fournier-13913","Aaron-Gordon-18601","Domantas-Sabonis-35217","Jeremy-Lamb-13955","John-Collins-37823","Nikola-Vucevic-13296","49800","275.24"
"Jerian-Grant-18900","Victor-Oladipo-16807","Michael-Kidd-Gilchrist-13896","John-Collins-37823","Nikola-Vucevic-13296","Evan-Fournier-13913","Terrence-Ross-13902","Aaron-Gordon-18601","48500","275.24"
"Jerian-Grant-18900","Victor-Oladipo-16807","Terrence-Ross-13902","Aaron-Gordon-18601","John-Collins-37823","Evan-Fournier-13913","Nicolas-Batum-1315","Kemba-Walker-13335","49500","275.22"
"Jerian-Grant-18900","Victor-Oladipo-16807","Evan-Fournier-13913","Aaron-Gordon-18601","Nikola-Vucevic-13296","Jeremy-Lin-916","John-Collins-37823","Cody-Zeller-16836","49700","275.21"
"Victor-Oladipo-16807","Terrence-Ross-13902","Tyreke-Evans-1070","Domantas-Sabonis-35217","Nikola-Vucevic-13296","Jeremy-Lin-916","Jeremy-Lamb-13955","Aaron-Gordon-18601","50000","275.2"
"Jerian-Grant-18900","Victor-Oladipo-16807","Terrence-Ross-13902","Domantas-Sabonis-35217","Nikola-Vucevic-13296","Jeremy-Lin-916","Jeremy-Lamb-13955","Aaron-Gordon-18601","49400","275.19"
"Victor-Oladipo-16807","Evan-Fournier-13913","Terrence-Ross-13902","John-Collins-37823","Nikola-Vucevic-13296","Tyreke-Evans-1070","Jonathan-Isaac-37841","Aaron-Gordon-18601","49800","275.17"
"Jerian-Grant-18900","Victor-Oladipo-16807","Terrence-Ross-13902","John-Collins-37823","Nikola-Vucevic-13296","Evan-Fournier-13913","Jonathan-Isaac-37841","Aaron-Gordon-18601","49200","275.16"
"Victor-Oladipo-16807","Kevin-Huerter-408969","Evan-Fournier-13913","Aaron-Gordon-18601","Nikola-Vucevic-13296","Bojan-Bogdanovic-18571","Jeremy-Lamb-13955","Terrence-Ross-13902","49800","275.16"
"Victor-Oladipo-16807","Evan-Fournier-13913","Terrence-Ross-13902","John-Collins-37823","Domantas-Sabonis-35217","Jeremy-Lamb-13955","Tyreke-Evans-1070","Myles-Turner-18915","50000","275.13"
"Jerian-Grant-18900","Victor-Oladipo-16807","Evan-Fournier-13913","Domantas-Sabonis-35217","Myles-Turner-18915","Jeremy-Lamb-13955","Terrence-Ross-13902","John-Collins-37823","49400","275.12"
"Victor-Oladipo-16807","Terrence-Ross-13902","Evan-Fournier-13913","Aaron-Gordon-18601","Alex-Len-16886","Kemba-Walker-13335","John-Collins-37823","Jeremy-Lin-916","49900","275.11"
"Victor-Oladipo-16807","Bojan-Bogdanovic-18571","Evan-Fournier-13913","Aaron-Gordon-18601","Nikola-Vucevic-13296","Terrence-Ross-13902","Jeremy-Lamb-13955","Tyreke-Evans-1070","49400","275.06"
"Victor-Oladipo-16807","Evan-Fournier-13913","Aaron-Gordon-18601","Domantas-Sabonis-35217","Nikola-Vucevic-13296","Jeremy-Lin-916","Terrence-Ross-13902","Cody-Zeller-16836","49700","275.06"
"Jerian-Grant-18900","Victor-Oladipo-16807","Evan-Fournier-13913","Aaron-Gordon-18601","Nikola-Vucevic-13296","Bojan-Bogdanovic-18571","Jeremy-Lamb-13955","Terrence-Ross-13902","48800","275.05"
"Victor-Oladipo-16807","Terrence-Ross-13902","Evan-Fournier-13913","Aaron-Gordon-18601","Nikola-Vucevic-13296","Nicolas-Batum-1315","Jeremy-Lamb-13955","Cody-Zeller-16836","49800","275.04"
"Jerian-Grant-18900","Terrence-Ross-13902","Evan-Fournier-13913","Aaron-Gordon-18601","Nikola-Vucevic-13296","Kemba-Walker-13335","Jeremy-Lamb-13955","Marvin-Williams-1318","50000","275.02"
"Jerian-Grant-18900","Victor-Oladipo-16807","Evan-Fournier-13913","Aaron-Gordon-18601","Nikola-Vucevic-13296","Nicolas-Batum-1315","John-Collins-37823","Jeremy-Lin-916","50000","274.99"
