"De'Anthony-Melton-409081","Justin-Holiday-14559","TJ-Warren-18634","Josh-Jackson-37890","Nikola-Vucevic-13296","Zach-LaVine-18622","Wendell-Carter-408878","Deandre-Ayton-409301","49700","269.27"
"D.J.-Augustin-1064","De'Anthony-Melton-409081","TJ-Warren-18634","Jonathan-Isaac-37841","Nikola-Vucevic-13296","Zach-LaVine-18622","Aaron-Gordon-18601","DeAndre-Jordan-1486","50000","269.07"
"De'Anthony-Melton-409081","Wesley-Matthews-1339","TJ-Warren-18634","Josh-Jackson-37890","Deandre-Ayton-409301","Zach-LaVine-18622","Harrison-Barnes-13901","Nikola-Vucevic-13296","49900","269.0"
"De'Anthony-Melton-409081","Evan-Fournier-13913","TJ-Warren-18634","Jonathan-Isaac-37841","Deandre-Ayton-409301","Zach-LaVine-18622","Harrison-Barnes-13901","Nikola-Vucevic-13296","50000","268.92"

"De'Anthony-Melton-409081","Justin-Holiday-14559","TJ-Warren-18634","Josh-Jackson-37890","Nikola-Vucevic-13296","Zach-LaVine-18622","Wendell-Carter-408878","Deandre-Ayton-409301","49700","269.27"
"D.J.-Augustin-1064","De'Anthony-Melton-409081","TJ-Warren-18634","Jonathan-Isaac-37841","Nikola-Vucevic-13296","Zach-LaVine-18622","Aaron-Gordon-18601","DeAndre-Jordan-1486","50000","269.07"
"De'Anthony-Melton-409081","Wesley-Matthews-1339","TJ-Warren-18634","Josh-Jackson-37890","Deandre-Ayton-409301","Zach-LaVine-18622","Harrison-Barnes-13901","Nikola-Vucevic-13296","49900","269.0"
"De'Anthony-Melton-409081","Evan-Fournier-13913","TJ-Warren-18634","Jonathan-Isaac-37841","Deandre-Ayton-409301","Zach-LaVine-18622","Harrison-Barnes-13901","Nikola-Vucevic-13296","50000","268.92"
"De'Anthony-Melton-409081","Wesley-Matthews-1339","TJ-Warren-18634","Wendell-Carter-408878","Nikola-Vucevic-13296","Zach-LaVine-18622","Harrison-Barnes-13901","Deandre-Ayton-409301","49900","268.8"
"De'Anthony-Melton-409081","Justin-Holiday-14559","TJ-Warren-18634","Jonathan-Isaac-37841","Nikola-Vucevic-13296","Zach-LaVine-18622","Lauri-Markkanen-37809","Deandre-Ayton-409301","50000","268.58"
"De'Anthony-Melton-409081","Luka-Doncic-408971","TJ-Warren-18634","Josh-Jackson-37890","Nikola-Vucevic-13296","Justin-Holiday-14559","Wendell-Carter-408878","Deandre-Ayton-409301","50000","268.05"
"De'Anthony-Melton-409081","Evan-Fournier-13913","TJ-Warren-18634","Jonathan-Isaac-37841","Deandre-Ayton-409301","Zach-LaVine-18622","Josh-Jackson-37890","Nikola-Vucevic-13296","49300","267.95"
"De'Anthony-Melton-409081","Wesley-Matthews-1339","TJ-Warren-18634","Josh-Jackson-37890","Nikola-Vucevic-13296","Zach-LaVine-18622","Wendell-Carter-408878","Deandre-Ayton-409301","49200","267.83"
"De'Anthony-Melton-409081","Evan-Fournier-13913","TJ-Warren-18634","Jonathan-Isaac-37841","Deandre-Ayton-409301","Zach-LaVine-18622","Wendell-Carter-408878","Nikola-Vucevic-13296","49300","267.75"
"D.J.-Augustin-1064","De'Anthony-Melton-409081","TJ-Warren-18634","Lauri-Markkanen-37809","Nikola-Vucevic-13296","Zach-LaVine-18622","Josh-Jackson-37890","Deandre-Ayton-409301","49900","267.73"
"De'Anthony-Melton-409081","Justin-Holiday-14559","TJ-Warren-18634","Jonathan-Isaac-37841","Deandre-Ayton-409301","Zach-LaVine-18622","Harrison-Barnes-13901","Nikola-Vucevic-13296","49400","267.69"
"De'Anthony-Melton-409081","Wesley-Matthews-1339","TJ-Warren-18634","Josh-Jackson-37890","Nikola-Vucevic-13296","Justin-Holiday-14559","Aaron-Gordon-18601","Deandre-Ayton-409301","49500","267.68"
"De'Anthony-Melton-409081","Evan-Fournier-13913","TJ-Warren-18634","Jonathan-Isaac-37841","Nikola-Vucevic-13296","Justin-Holiday-14559","Aaron-Gordon-18601","Deandre-Ayton-409301","49600","267.6"
"D.J.-Augustin-1064","De'Anthony-Melton-409081","TJ-Warren-18634","Lauri-Markkanen-37809","Deandre-Ayton-409301","Zach-LaVine-18622","Wendell-Carter-408878","Nikola-Vucevic-13296","49900","267.53"
"De'Anthony-Melton-409081","Wesley-Matthews-1339","TJ-Warren-18634","Aaron-Gordon-18601","Nikola-Vucevic-13296","Justin-Holiday-14559","Wendell-Carter-408878","Deandre-Ayton-409301","49500","267.48"
"D.J.-Augustin-1064","De'Anthony-Melton-409081","Jonathan-Isaac-37841","Josh-Jackson-37890","Nikola-Vucevic-13296","Zach-LaVine-18622","Aaron-Gordon-18601","Deandre-Ayton-409301","49600","267.48"
"De'Anthony-Melton-409081","Evan-Fournier-13913","TJ-Warren-18634","Josh-Jackson-37890","Deandre-Ayton-409301","Zach-LaVine-18622","Wesley-Matthews-1339","Nikola-Vucevic-13296","49700","267.43"
"De'Anthony-Melton-409081","Zach-LaVine-18622","TJ-Warren-18634","Jonathan-Isaac-37841","Deandre-Ayton-409301","Dennis-Smith-Jr.-37847","Harrison-Barnes-13901","Nikola-Vucevic-13296","49800","267.42"
"De'Anthony-Melton-409081","Wesley-Matthews-1339","TJ-Warren-18634","Josh-Jackson-37890","Nikola-Vucevic-13296","Dennis-Smith-Jr.-37847","Aaron-Gordon-18601","Deandre-Ayton-409301","49900","267.41"
"De'Anthony-Melton-409081","Zach-LaVine-18622","TJ-Warren-18634","Josh-Jackson-37890","Deandre-Ayton-409301","Dennis-Smith-Jr.-37847","Justin-Holiday-14559","Nikola-Vucevic-13296","50000","267.37"
"De'Anthony-Melton-409081","Evan-Fournier-13913","TJ-Warren-18634","Jonathan-Isaac-37841","Nikola-Vucevic-13296","Dennis-Smith-Jr.-37847","Aaron-Gordon-18601","Deandre-Ayton-409301","50000","267.33"
"D.J.-Augustin-1064","De'Anthony-Melton-409081","Jonathan-Isaac-37841","Aaron-Gordon-18601","Nikola-Vucevic-13296","Zach-LaVine-18622","Wendell-Carter-408878","Deandre-Ayton-409301","49600","267.28"
"De'Anthony-Melton-409081","Evan-Fournier-13913","TJ-Warren-18634","Wendell-Carter-408878","Nikola-Vucevic-13296","Zach-LaVine-18622","Wesley-Matthews-1339","Deandre-Ayton-409301","49700","267.23"
"De'Anthony-Melton-409081","Wesley-Matthews-1339","TJ-Warren-18634","Aaron-Gordon-18601","Nikola-Vucevic-13296","Dennis-Smith-Jr.-37847","Wendell-Carter-408878","Deandre-Ayton-409301","49900","267.21"
"De'Anthony-Melton-409081","Wesley-Matthews-1339","Jonathan-Isaac-37841","Aaron-Gordon-18601","Nikola-Vucevic-13296","Zach-LaVine-18622","Trevor-Ariza-1323","Deandre-Ayton-409301","50000","267.18"
"De'Anthony-Melton-409081","Wesley-Matthews-1339","TJ-Warren-18634","Harrison-Barnes-13901","Deandre-Ayton-409301","Zach-LaVine-18622","Justin-Holiday-14559","Nikola-Vucevic-13296","49800","267.17"
"De'Anthony-Melton-409081","Wesley-Matthews-1339","Jonathan-Isaac-37841","Josh-Jackson-37890","Nikola-Vucevic-13296","Zach-LaVine-18622","Aaron-Gordon-18601","DeAndre-Jordan-1486","50000","267.17"
"De'Anthony-Melton-409081","Zach-LaVine-18622","TJ-Warren-18634","Wendell-Carter-408878","Nikola-Vucevic-13296","Dennis-Smith-Jr.-37847","Justin-Holiday-14559","Deandre-Ayton-409301","50000","267.17"
"De'Anthony-Melton-409081","Wesley-Matthews-1339","TJ-Warren-18634","Jonathan-Isaac-37841","Nikola-Vucevic-13296","Zach-LaVine-18622","Lauri-Markkanen-37809","Deandre-Ayton-409301","49500","267.14"
"De'Anthony-Melton-409081","Wesley-Matthews-1339","Evan-Fournier-13913","TJ-Warren-18634","Nikola-Vucevic-13296","Justin-Holiday-14559","Aaron-Gordon-18601","Deandre-Ayton-409301","50000","267.08"
"De'Anthony-Melton-409081","Justin-Holiday-14559","TJ-Warren-18634","Josh-Jackson-37890","Deandre-Ayton-409301","Zach-LaVine-18622","Trevor-Ariza-1323","Nikola-Vucevic-13296","49500","267.01"
"De'Anthony-Melton-409081","Wesley-Matthews-1339","Jonathan-Isaac-37841","Aaron-Gordon-18601","DeAndre-Jordan-1486","Zach-LaVine-18622","Wendell-Carter-408878","Nikola-Vucevic-13296","50000","266.97"
"D.J.-Augustin-1064","De'Anthony-Melton-409081","Josh-Jackson-37890","Aaron-Gordon-18601","Deandre-Ayton-409301","Zach-LaVine-18622","Wesley-Matthews-1339","Nikola-Vucevic-13296","50000","266.96"
"D.J.-Augustin-1064","De'Anthony-Melton-409081","TJ-Warren-18634","Josh-Jackson-37890","Deandre-Ayton-409301","Zach-LaVine-18622","Harrison-Barnes-13901","Nikola-Vucevic-13296","49300","266.84"
"De'Anthony-Melton-409081","Justin-Holiday-14559","TJ-Warren-18634","Wendell-Carter-408878","Nikola-Vucevic-13296","Zach-LaVine-18622","Trevor-Ariza-1323","Deandre-Ayton-409301","49500","266.81"
"De'Anthony-Melton-409081","Justin-Holiday-14559","TJ-Warren-18634","Josh-Jackson-37890","Nikola-Vucevic-13296","Zach-LaVine-18622","Wendell-Carter-408878","DeAndre-Jordan-1486","49500","266.8"
"D.J.-Augustin-1064","De'Anthony-Melton-409081","Aaron-Gordon-18601","Wendell-Carter-408878","Deandre-Ayton-409301","Zach-LaVine-18622","Wesley-Matthews-1339","Nikola-Vucevic-13296","50000","266.76"
"D.J.-Augustin-1064","Evan-Fournier-13913","TJ-Warren-18634","Josh-Jackson-37890","Nikola-Vucevic-13296","De'Anthony-Melton-409081","Aaron-Gordon-18601","Deandre-Ayton-409301","49500","266.75"
"De'Anthony-Melton-409081","Zach-LaVine-18622","TJ-Warren-18634","Josh-Jackson-37890","Deandre-Ayton-409301","Dennis-Smith-Jr.-37847","Trevor-Ariza-1323","Nikola-Vucevic-13296","49900","266.74"
"De'Anthony-Melton-409081","Evan-Fournier-13913","TJ-Warren-18634","Jonathan-Isaac-37841","Deandre-Ayton-409301","Luka-Doncic-408971","Josh-Jackson-37890","Nikola-Vucevic-13296","49600","266.73"
"De'Anthony-Melton-409081","Justin-Holiday-14559","TJ-Warren-18634","Jonathan-Isaac-37841","Deandre-Ayton-409301","Zach-LaVine-18622","Josh-Jackson-37890","Nikola-Vucevic-13296","48700","266.72"
"D.J.-Augustin-1064","De'Anthony-Melton-409081","TJ-Warren-18634","Wendell-Carter-408878","Nikola-Vucevic-13296","Zach-LaVine-18622","Harrison-Barnes-13901","Deandre-Ayton-409301","49300","266.64"
"De'Anthony-Melton-409081","Luka-Doncic-408971","TJ-Warren-18634","Josh-Jackson-37890","Nikola-Vucevic-13296","Wesley-Matthews-1339","Wendell-Carter-408878","Deandre-Ayton-409301","49500","266.61"
"D.J.-Augustin-1064","Evan-Fournier-13913","TJ-Warren-18634","Aaron-Gordon-18601","Nikola-Vucevic-13296","De'Anthony-Melton-409081","Wendell-Carter-408878","Deandre-Ayton-409301","49500","266.55"
"De'Anthony-Melton-409081","Zach-LaVine-18622","TJ-Warren-18634","Wendell-Carter-408878","Nikola-Vucevic-13296","Dennis-Smith-Jr.-37847","Trevor-Ariza-1323","Deandre-Ayton-409301","49900","266.54"
"De'Anthony-Melton-409081","Wesley-Matthews-1339","TJ-Warren-18634","Trevor-Ariza-1323","Nikola-Vucevic-13296","Zach-LaVine-18622","Harrison-Barnes-13901","Deandre-Ayton-409301","49700","266.54"
"De'Anthony-Melton-409081","Evan-Fournier-13913","TJ-Warren-18634","Jonathan-Isaac-37841","Deandre-Ayton-409301","Luka-Doncic-408971","Wendell-Carter-408878","Nikola-Vucevic-13296","49600","266.53"
"De'Anthony-Melton-409081","Zach-LaVine-18622","TJ-Warren-18634","Josh-Jackson-37890","Nikola-Vucevic-13296","Dennis-Smith-Jr.-37847","Wendell-Carter-408878","DeAndre-Jordan-1486","49900","266.53"
"De'Anthony-Melton-409081","Wesley-Matthews-1339","TJ-Warren-18634","Josh-Jackson-37890","DeAndre-Jordan-1486","Zach-LaVine-18622","Harrison-Barnes-13901","Nikola-Vucevic-13296","49700","266.53"
"De'Anthony-Melton-409081","Justin-Holiday-14559","TJ-Warren-18634","Jonathan-Isaac-37841","Deandre-Ayton-409301","Zach-LaVine-18622","Wendell-Carter-408878","Nikola-Vucevic-13296","48700","266.52"
"D.J.-Augustin-1064","De'Anthony-Melton-409081","TJ-Warren-18634","Aaron-Gordon-18601","Nikola-Vucevic-13296","Justin-Holiday-14559","Harrison-Barnes-13901","Deandre-Ayton-409301","49600","266.49"
"De'Anthony-Melton-409081","Luka-Doncic-408971","TJ-Warren-18634","Jonathan-Isaac-37841","Deandre-Ayton-409301","Justin-Holiday-14559","Harrison-Barnes-13901","Nikola-Vucevic-13296","49700","266.47"
"De'Anthony-Melton-409081","Zach-LaVine-18622","TJ-Warren-18634","Jonathan-Isaac-37841","Deandre-Ayton-409301","Dennis-Smith-Jr.-37847","Josh-Jackson-37890","Nikola-Vucevic-13296","49100","266.45"
"De'Anthony-Melton-409081","Evan-Fournier-13913","TJ-Warren-18634","Jonathan-Isaac-37841","DeAndre-Jordan-1486","Zach-LaVine-18622","Harrison-Barnes-13901","Nikola-Vucevic-13296","49800","266.45"
"De'Anthony-Melton-409081","Evan-Fournier-13913","TJ-Warren-18634","Aaron-Gordon-18601","Nikola-Vucevic-13296","Wesley-Matthews-1339","Trevor-Ariza-1323","Deandre-Ayton-409301","49900","266.45"
"De'Anthony-Melton-409081","Evan-Fournier-13913","TJ-Warren-18634","Josh-Jackson-37890","Nikola-Vucevic-13296","Wesley-Matthews-1339","Aaron-Gordon-18601","DeAndre-Jordan-1486","49900","266.44"
"De'Anthony-Melton-409081","Justin-Holiday-14559","TJ-Warren-18634","Josh-Jackson-37890","Deandre-Ayton-409301","Zach-LaVine-18622","Bobby-Portis-18909","Nikola-Vucevic-13296","49800","266.43"
"De'Anthony-Melton-409081","Justin-Holiday-14559","Evan-Fournier-13913","TJ-Warren-18634","Deandre-Ayton-409301","Zach-LaVine-18622","Trevor-Ariza-1323","Nikola-Vucevic-13296","50000","266.41"
"De'Anthony-Melton-409081","Justin-Holiday-14559","Evan-Fournier-13913","TJ-Warren-18634","Nikola-Vucevic-13296","Zach-LaVine-18622","Josh-Jackson-37890","DeAndre-Jordan-1486","50000","266.4"
"De'Anthony-Melton-409081","Evan-Fournier-13913","TJ-Warren-18634","Josh-Jackson-37890","Nikola-Vucevic-13296","Zach-LaVine-18622","Aaron-Gordon-18601","Jonathan-Isaac-37841","49900","266.38"
"D.J.-Augustin-1064","De'Anthony-Melton-409081","Luka-Doncic-408971","TJ-Warren-18634","Nikola-Vucevic-13296","Zach-LaVine-18622","Jonathan-Isaac-37841","DeAndre-Jordan-1486","49900","266.37"
"De'Anthony-Melton-409081","Wesley-Matthews-1339","TJ-Warren-18634","Wendell-Carter-408878","Nikola-Vucevic-13296","Zach-LaVine-18622","Harrison-Barnes-13901","DeAndre-Jordan-1486","49700","266.33"
"D.J.-Augustin-1064","Luka-Doncic-408971","Jonathan-Isaac-37841","Josh-Jackson-37890","Nikola-Vucevic-13296","De'Anthony-Melton-409081","Aaron-Gordon-18601","Deandre-Ayton-409301","49900","266.26"
"De'Anthony-Melton-409081","Wesley-Matthews-1339","TJ-Warren-18634","Josh-Jackson-37890","Nikola-Vucevic-13296","Zach-LaVine-18622","Wendell-Carter-408878","Aaron-Gordon-18601","49800","266.26"
"De'Anthony-Melton-409081","Zach-LaVine-18622","TJ-Warren-18634","Jonathan-Isaac-37841","Deandre-Ayton-409301","Dennis-Smith-Jr.-37847","Wendell-Carter-408878","Nikola-Vucevic-13296","49100","266.25"
"De'Anthony-Melton-409081","Wesley-Matthews-1339","TJ-Warren-18634","Jonathan-Isaac-37841","Deandre-Ayton-409301","Zach-LaVine-18622","Harrison-Barnes-13901","Nikola-Vucevic-13296","48900","266.25"
"D.J.-Augustin-1064","De'Anthony-Melton-409081","Evan-Fournier-13913","TJ-Warren-18634","Deandre-Ayton-409301","Zach-LaVine-18622","Harrison-Barnes-13901","Nikola-Vucevic-13296","49800","266.24"
"De'Anthony-Melton-409081","Evan-Fournier-13913","TJ-Warren-18634","Aaron-Gordon-18601","DeAndre-Jordan-1486","Wesley-Matthews-1339","Wendell-Carter-408878","Nikola-Vucevic-13296","49900","266.24"
"De'Anthony-Melton-409081","Justin-Holiday-14559","TJ-Warren-18634","Wendell-Carter-408878","Deandre-Ayton-409301","Zach-LaVine-18622","Bobby-Portis-18909","Nikola-Vucevic-13296","49800","266.23"
"D.J.-Augustin-1064","De'Anthony-Melton-409081","TJ-Warren-18634","Aaron-Gordon-18601","Nikola-Vucevic-13296","Dennis-Smith-Jr.-37847","Harrison-Barnes-13901","Deandre-Ayton-409301","50000","266.22"
"De'Anthony-Melton-409081","Evan-Fournier-13913","TJ-Warren-18634","Josh-Jackson-37890","Deandre-Ayton-409301","Luka-Doncic-408971","Wesley-Matthews-1339","Nikola-Vucevic-13296","50000","266.21"
"De'Anthony-Melton-409081","Justin-Holiday-14559","Evan-Fournier-13913","TJ-Warren-18634","DeAndre-Jordan-1486","Zach-LaVine-18622","Wendell-Carter-408878","Nikola-Vucevic-13296","50000","266.2"
"De'Anthony-Melton-409081","Justin-Holiday-14559","TJ-Warren-18634","Josh-Jackson-37890","Deandre-Ayton-409301","Zach-LaVine-18622","Wesley-Matthews-1339","Nikola-Vucevic-13296","49100","266.2"
"De'Anthony-Melton-409081","Wesley-Matthews-1339","TJ-Warren-18634","Aaron-Gordon-18601","DeAndre-Jordan-1486","Justin-Holiday-14559","Harrison-Barnes-13901","Nikola-Vucevic-13296","50000","266.18"
"De'Anthony-Melton-409081","Evan-Fournier-13913","TJ-Warren-18634","Jonathan-Isaac-37841","Nikola-Vucevic-13296","Zach-LaVine-18622","Aaron-Gordon-18601","Wendell-Carter-408878","49900","266.18"
"De'Anthony-Melton-409081","Justin-Holiday-14559","Josh-Jackson-37890","Wendell-Carter-408878","Nikola-Vucevic-13296","Zach-LaVine-18622","Harrison-Barnes-13901","Deandre-Ayton-409301","49800","266.18"
"De'Anthony-Melton-409081","Evan-Fournier-13913","TJ-Warren-18634","Jonathan-Isaac-37841","Nikola-Vucevic-13296","Wesley-Matthews-1339","Aaron-Gordon-18601","Deandre-Ayton-409301","49100","266.16"
"De'Anthony-Melton-409081","Justin-Holiday-14559","TJ-Warren-18634","Jonathan-Isaac-37841","Nikola-Vucevic-13296","Zach-LaVine-18622","Aaron-Gordon-18601","Harrison-Barnes-13901","50000","266.12"
"De'Anthony-Melton-409081","Justin-Holiday-14559","Evan-Fournier-13913","TJ-Warren-18634","Nikola-Vucevic-13296","Zach-LaVine-18622","Jonathan-Isaac-37841","Deandre-Ayton-409301","49200","266.12"
"De'Anthony-Melton-409081","Justin-Holiday-14559","TJ-Warren-18634","Jonathan-Isaac-37841","DeAndre-Jordan-1486","Zach-LaVine-18622","Lauri-Markkanen-37809","Nikola-Vucevic-13296","49800","266.11"
"De'Anthony-Melton-409081","Justin-Holiday-14559","TJ-Warren-18634","Jonathan-Isaac-37841","Nikola-Vucevic-13296","Dennis-Smith-Jr.-37847","Aaron-Gordon-18601","Deandre-Ayton-409301","49400","266.1"
"De'Anthony-Melton-409081","Evan-Fournier-13913","Josh-Jackson-37890","Aaron-Gordon-18601","Deandre-Ayton-409301","Justin-Holiday-14559","Wendell-Carter-408878","Nikola-Vucevic-13296","50000","266.09"
"D.J.-Augustin-1064","Luka-Doncic-408971","Jonathan-Isaac-37841","Aaron-Gordon-18601","Nikola-Vucevic-13296","De'Anthony-Melton-409081","Wendell-Carter-408878","Deandre-Ayton-409301","49900","266.06"
"De'Anthony-Melton-409081","Evan-Fournier-13913","TJ-Warren-18634","Wendell-Carter-408878","Nikola-Vucevic-13296","Luka-Doncic-408971","Wesley-Matthews-1339","Deandre-Ayton-409301","50000","266.01"
"De'Anthony-Melton-409081","Justin-Holiday-14559","TJ-Warren-18634","Wendell-Carter-408878","Nikola-Vucevic-13296","Zach-LaVine-18622","Wesley-Matthews-1339","Deandre-Ayton-409301","49100","266.0"
"De'Anthony-Melton-409081","Wesley-Matthews-1339","TJ-Warren-18634","Bobby-Portis-18909","Deandre-Ayton-409301","Zach-LaVine-18622","Harrison-Barnes-13901","Nikola-Vucevic-13296","50000","265.96"
"D.J.-Augustin-1064","De'Anthony-Melton-409081","TJ-Warren-18634","Lauri-Markkanen-37809","Deandre-Ayton-409301","Wesley-Matthews-1339","Aaron-Gordon-18601","Nikola-Vucevic-13296","49700","265.94"
"De'Anthony-Melton-409081","Zach-LaVine-18622","TJ-Warren-18634","Josh-Jackson-37890","Deandre-Ayton-409301","Dennis-Smith-Jr.-37847","Wesley-Matthews-1339","Nikola-Vucevic-13296","49500","265.93"
"De'Anthony-Melton-409081","Luka-Doncic-408971","TJ-Warren-18634","Jonathan-Isaac-37841","Nikola-Vucevic-13296","Wesley-Matthews-1339","Lauri-Markkanen-37809","Deandre-Ayton-409301","49800","265.92"
"D.J.-Augustin-1064","De'Anthony-Melton-409081","TJ-Warren-18634","Lauri-Markkanen-37809","Deandre-Ayton-409301","Zach-LaVine-18622","Justin-Holiday-14559","Nikola-Vucevic-13296","49800","265.9"
"De'Anthony-Melton-409081","Zach-LaVine-18622","Evan-Fournier-13913","TJ-Warren-18634","Nikola-Vucevic-13296","Dennis-Smith-Jr.-37847","Jonathan-Isaac-37841","Deandre-Ayton-409301","49600","265.85"
"De'Anthony-Melton-409081","Luka-Doncic-408971","TJ-Warren-18634","Josh-Jackson-37890","Deandre-Ayton-409301","Justin-Holiday-14559","Trevor-Ariza-1323","Nikola-Vucevic-13296","49800","265.79"
"De'Anthony-Melton-409081","Evan-Fournier-13913","TJ-Warren-18634","Josh-Jackson-37890","DeAndre-Jordan-1486","Zach-LaVine-18622","Trevor-Ariza-1323","Nikola-Vucevic-13296","49900","265.77"
"De'Anthony-Melton-409081","Evan-Fournier-13913","Jonathan-Isaac-37841","Lauri-Markkanen-37809","Nikola-Vucevic-13296","Zach-LaVine-18622","Josh-Jackson-37890","Deandre-Ayton-409301","50000","265.75"
"De'Anthony-Melton-409081","Zach-LaVine-18622","TJ-Warren-18634","Wendell-Carter-408878","Nikola-Vucevic-13296","Dennis-Smith-Jr.-37847","Wesley-Matthews-1339","Deandre-Ayton-409301","49500","265.73"
"D.J.-Augustin-1064","De'Anthony-Melton-409081","TJ-Warren-18634","Josh-Jackson-37890","Nikola-Vucevic-13296","Zach-LaVine-18622","Wendell-Carter-408878","Deandre-Ayton-409301","48600","265.67"
"D.J.-Augustin-1064","De'Anthony-Melton-409081","Jonathan-Isaac-37841","Aaron-Gordon-18601","Nikola-Vucevic-13296","Zach-LaVine-18622","Justin-Holiday-14559","Deandre-Ayton-409301","49500","265.65"
"De'Anthony-Melton-409081","Wesley-Matthews-1339","Josh-Jackson-37890","Lauri-Markkanen-37809","Nikola-Vucevic-13296","Zach-LaVine-18622","Wendell-Carter-408878","Deandre-Ayton-409301","49900","265.63"
"D.J.-Augustin-1064","Luka-Doncic-408971","TJ-Warren-18634","Josh-Jackson-37890","Deandre-Ayton-409301","De'Anthony-Melton-409081","Harrison-Barnes-13901","Nikola-Vucevic-13296","49600","265.62"
