"Victor-Oladipo-16807","Tim-Hardaway-Jr.-16879","Jimmy-Butler-13327","Rondae-Hollis-Jefferson-18897","Larry-Nance-18946","Ben-Simmons-35184","Rodions-Kurucs-408801","DeMarre-Carroll-1174","50000","292.7"
"Alec-Burks-13353","Jimmy-Butler-13327","Ben-Simmons-35184","DeMarre-Carroll-1174","Joel-Embiid-18578","Tim-Hardaway-Jr.-16879","Rodions-Kurucs-408801","Cedi-Osman-18912","49900","292.02"
"Ben-Simmons-35184","Jimmy-Butler-13327","DeMarre-Carroll-1174","Rondae-Hollis-Jefferson-18897","Joel-Embiid-18578","Tim-Hardaway-Jr.-16879","Wilson-Chandler-1327","Rodions-Kurucs-408801","50000","291.85"

"Victor-Oladipo-16807","Tim-Hardaway-Jr.-16879","Jimmy-Butler-13327","Rondae-Hollis-Jefferson-18897","Larry-Nance-18946","Ben-Simmons-35184","Rodions-Kurucs-408801","DeMarre-Carroll-1174","50000","292.7"
"Alec-Burks-13353","Jimmy-Butler-13327","Ben-Simmons-35184","DeMarre-Carroll-1174","Joel-Embiid-18578","Tim-Hardaway-Jr.-16879","Rodions-Kurucs-408801","Cedi-Osman-18912","49900","292.02"
"Ben-Simmons-35184","Jimmy-Butler-13327","DeMarre-Carroll-1174","Rondae-Hollis-Jefferson-18897","Joel-Embiid-18578","Tim-Hardaway-Jr.-16879","Wilson-Chandler-1327","Rodions-Kurucs-408801","50000","291.85"
"Alec-Burks-13353","Jimmy-Butler-13327","Cedi-Osman-18912","Larry-Nance-18946","Joel-Embiid-18578","Ben-Simmons-35184","Rodions-Kurucs-408801","DeMarre-Carroll-1174","50000","291.76"
"Ben-Simmons-35184","Jimmy-Butler-13327","Cedi-Osman-18912","DeMarre-Carroll-1174","Joel-Embiid-18578","Joe-Harris-18587","Tim-Hardaway-Jr.-16879","Rodions-Kurucs-408801","49800","291.69"
"Ben-Simmons-35184","Jimmy-Butler-13327","Cedi-Osman-18912","Larry-Nance-18946","Joel-Embiid-18578","Joe-Harris-18587","Rodions-Kurucs-408801","DeMarre-Carroll-1174","49900","291.43"
"Trae-Young-409063","Jimmy-Butler-13327","Cedi-Osman-18912","Larry-Nance-18946","Domantas-Sabonis-35217","Tim-Hardaway-Jr.-16879","Ben-Simmons-35184","Rodions-Kurucs-408801","49900","290.96"
"Ben-Simmons-35184","Jimmy-Butler-13327","Cedi-Osman-18912","Rondae-Hollis-Jefferson-18897","John-Collins-37823","Tim-Hardaway-Jr.-16879","Rodions-Kurucs-408801","Larry-Nance-18946","49900","290.89"
"D'Angelo-Russell-18947","Tim-Hardaway-Jr.-16879","Jimmy-Butler-13327","Rondae-Hollis-Jefferson-18897","Larry-Nance-18946","Ben-Simmons-35184","Rodions-Kurucs-408801","Cedi-Osman-18912","49800","290.76"
"Ben-Simmons-35184","Jimmy-Butler-13327","DeMarre-Carroll-1174","Mike-Muscala-17379","Joel-Embiid-18578","Tim-Hardaway-Jr.-16879","Rodions-Kurucs-408801","Rondae-Hollis-Jefferson-18897","49800","290.76"
"Alec-Burks-13353","Tim-Hardaway-Jr.-16879","Jimmy-Butler-13327","Rodions-Kurucs-408801","Larry-Nance-18946","Victor-Oladipo-16807","Ben-Simmons-35184","Cedi-Osman-18912","50000","290.62"
"Alec-Burks-13353","Jimmy-Butler-13327","Tim-Hardaway-Jr.-16879","Rodions-Kurucs-408801","Joel-Embiid-18578","Joe-Harris-18587","Ben-Simmons-35184","DeMarre-Carroll-1174","50000","290.57"
"Victor-Oladipo-16807","Jimmy-Butler-13327","Tim-Hardaway-Jr.-16879","Cedi-Osman-18912","Larry-Nance-18946","Ben-Simmons-35184","Joe-Harris-18587","Rodions-Kurucs-408801","49900","290.29"
"Ben-Simmons-35184","Jimmy-Butler-13327","Rodions-Kurucs-408801","Rondae-Hollis-Jefferson-18897","Domantas-Sabonis-35217","Tim-Hardaway-Jr.-16879","Larry-Nance-18946","Cedi-Osman-18912","49000","290.28"
"Ben-Simmons-35184","Jimmy-Butler-13327","DeMarre-Carroll-1174","Larry-Nance-18946","Domantas-Sabonis-35217","Tim-Hardaway-Jr.-16879","Rodions-Kurucs-408801","Enes-Kanter-13299","49800","290.18"
"Ben-Simmons-35184","Jimmy-Butler-13327","Cedi-Osman-18912","DeMarre-Carroll-1174","Dewayne-Dedmon-16894","Tim-Hardaway-Jr.-16879","Rodions-Kurucs-408801","Joel-Embiid-18578","50000","289.81"
"Alec-Burks-13353","Jimmy-Butler-13327","Tim-Hardaway-Jr.-16879","Wilson-Chandler-1327","Joel-Embiid-18578","Ben-Simmons-35184","Rodions-Kurucs-408801","Cedi-Osman-18912","50000","289.77"
"Ben-Simmons-35184","Jimmy-Butler-13327","DeMarre-Carroll-1174","Rodions-Kurucs-408801","Joel-Embiid-18578","Tim-Hardaway-Jr.-16879","Kevin-Huerter-408969","Cedi-Osman-18912","49700","289.69"
"Alec-Burks-13353","Tim-Hardaway-Jr.-16879","Rodions-Kurucs-408801","Rondae-Hollis-Jefferson-18897","Joel-Embiid-18578","Ben-Simmons-35184","Larry-Nance-18946","DeMarre-Carroll-1174","49900","289.67"
"Alec-Burks-13353","Tim-Hardaway-Jr.-16879","Jimmy-Butler-13327","Rodions-Kurucs-408801","Larry-Nance-18946","D'Angelo-Russell-18947","Ben-Simmons-35184","Rondae-Hollis-Jefferson-18897","50000","289.64"
"Ben-Simmons-35184","Jimmy-Butler-13327","Cedi-Osman-18912","Rodions-Kurucs-408801","Larry-Nance-18946","Tim-Hardaway-Jr.-16879","Kent-Bazemore-13987","Domantas-Sabonis-35217","49700","289.61"
"Victor-Oladipo-16807","Jimmy-Butler-13327","Cedi-Osman-18912","DeMarre-Carroll-1174","Larry-Nance-18946","Ben-Simmons-35184","Tim-Hardaway-Jr.-16879","Rodions-Kurucs-408801","49100","289.56"
"Ben-Simmons-35184","Joe-Harris-18587","Jimmy-Butler-13327","Rodions-Kurucs-408801","Domantas-Sabonis-35217","Trae-Young-409063","Tim-Hardaway-Jr.-16879","Larry-Nance-18946","50000","289.51"
"Ben-Simmons-35184","Jimmy-Butler-13327","Cedi-Osman-18912","Wilson-Chandler-1327","Joel-Embiid-18578","Tim-Hardaway-Jr.-16879","Joe-Harris-18587","Rodions-Kurucs-408801","49900","289.44"
"Ben-Simmons-35184","Jimmy-Butler-13327","Tim-Hardaway-Jr.-16879","Rondae-Hollis-Jefferson-18897","John-Collins-37823","Joe-Harris-18587","Larry-Nance-18946","Rodions-Kurucs-408801","50000","289.44"
"Ben-Simmons-35184","Jimmy-Butler-13327","Cedi-Osman-18912","Larry-Nance-18946","Joel-Embiid-18578","Kevin-Huerter-408969","Rodions-Kurucs-408801","DeMarre-Carroll-1174","49800","289.43"
"Victor-Oladipo-16807","Tim-Hardaway-Jr.-16879","Jimmy-Butler-13327","Rondae-Hollis-Jefferson-18897","Larry-Nance-18946","Ben-Simmons-35184","Rodions-Kurucs-408801","Mike-Muscala-17379","49900","289.36"
"Ben-Simmons-35184","Tim-Hardaway-Jr.-16879","Rodions-Kurucs-408801","Rondae-Hollis-Jefferson-18897","Joel-Embiid-18578","Joe-Harris-18587","Larry-Nance-18946","DeMarre-Carroll-1174","49800","289.34"
"Matthew-Dellavedova-16839","Jimmy-Butler-13327","Tim-Hardaway-Jr.-16879","DeMarre-Carroll-1174","Rondae-Hollis-Jefferson-18897","Ben-Simmons-35184","Rodions-Kurucs-408801","Joel-Embiid-18578","49900","289.34"
"D'Angelo-Russell-18947","Jimmy-Butler-13327","Tim-Hardaway-Jr.-16879","Rodions-Kurucs-408801","Larry-Nance-18946","Ben-Simmons-35184","Joe-Harris-18587","Rondae-Hollis-Jefferson-18897","49900","289.31"
"D'Angelo-Russell-18947","Tim-Hardaway-Jr.-16879","Jimmy-Butler-13327","Rodions-Kurucs-408801","Larry-Nance-18946","Trae-Young-409063","Ben-Simmons-35184","DeMarre-Carroll-1174","50000","289.26"
"D'Angelo-Russell-18947","Jimmy-Butler-13327","Ben-Simmons-35184","Rondae-Hollis-Jefferson-18897","Domantas-Sabonis-35217","Tim-Hardaway-Jr.-16879","Rodions-Kurucs-408801","Cedi-Osman-18912","50000","289.25"
"Ben-Simmons-35184","Jimmy-Butler-13327","Cedi-Osman-18912","Larry-Nance-18946","Joel-Embiid-18578","Joe-Harris-18587","Rodions-Kurucs-408801","Wilson-Chandler-1327","50000","289.18"
"Alec-Burks-13353","Jimmy-Butler-13327","Ben-Simmons-35184","Rondae-Hollis-Jefferson-18897","Domantas-Sabonis-35217","Tim-Hardaway-Jr.-16879","Rodions-Kurucs-408801","Larry-Nance-18946","49200","289.16"
"Ben-Simmons-35184","Jimmy-Butler-13327","Cedi-Osman-18912","Rodions-Kurucs-408801","Enes-Kanter-13299","Trae-Young-409063","Tim-Hardaway-Jr.-16879","Larry-Nance-18946","50000","289.09"
"Matthew-Dellavedova-16839","Jimmy-Butler-13327","Rodions-Kurucs-408801","Rondae-Hollis-Jefferson-18897","Joel-Embiid-18578","Ben-Simmons-35184","Larry-Nance-18946","DeMarre-Carroll-1174","50000","289.08"
"Ben-Simmons-35184","J.J.-Redick-1030","Cedi-Osman-18912","Larry-Nance-18946","Joel-Embiid-18578","Tim-Hardaway-Jr.-16879","Rodions-Kurucs-408801","DeMarre-Carroll-1174","49900","288.91"
"D'Angelo-Russell-18947","Jimmy-Butler-13327","J.J.-Redick-1030","Rodions-Kurucs-408801","Larry-Nance-18946","Ben-Simmons-35184","Tim-Hardaway-Jr.-16879","Cedi-Osman-18912","50000","288.88"
"Ben-Simmons-35184","Jimmy-Butler-13327","J.J.-Redick-1030","DeMarre-Carroll-1174","Joel-Embiid-18578","Tim-Hardaway-Jr.-16879","Mike-Muscala-17379","Rodions-Kurucs-408801","50000","288.88"
"Ben-Simmons-35184","Tim-Hardaway-Jr.-16879","Jimmy-Butler-13327","Rondae-Hollis-Jefferson-18897","Larry-Nance-18946","Joe-Harris-18587","Rodions-Kurucs-408801","Domantas-Sabonis-35217","49100","288.83"
"Trae-Young-409063","Jimmy-Butler-13327","Ben-Simmons-35184","Larry-Nance-18946","Domantas-Sabonis-35217","Tim-Hardaway-Jr.-16879","Rodions-Kurucs-408801","DeMarre-Carroll-1174","49200","288.78"
"Ben-Simmons-35184","Jimmy-Butler-13327","DeMarre-Carroll-1174","Rondae-Hollis-Jefferson-18897","John-Collins-37823","Tim-Hardaway-Jr.-16879","Larry-Nance-18946","Rodions-Kurucs-408801","49200","288.71"
"Ben-Simmons-35184","Jimmy-Butler-13327","DeMarre-Carroll-1174","Wilson-Chandler-1327","Joel-Embiid-18578","Tim-Hardaway-Jr.-16879","Rodions-Kurucs-408801","Cedi-Osman-18912","49100","288.71"
"Ben-Simmons-35184","J.J.-Redick-1030","Cedi-Osman-18912","DeMarre-Carroll-1174","Joel-Embiid-18578","Jimmy-Butler-13327","Rodions-Kurucs-408801","Rondae-Hollis-Jefferson-18897","49700","288.68"
"Alec-Burks-13353","Jimmy-Butler-13327","Cedi-Osman-18912","Rodions-Kurucs-408801","Mike-Muscala-17379","Ben-Simmons-35184","Tim-Hardaway-Jr.-16879","Joel-Embiid-18578","49800","288.68"
"Ben-Simmons-35184","Jimmy-Butler-13327","Cedi-Osman-18912","Domantas-Sabonis-35217","Noah-Vonleh-18597","Tim-Hardaway-Jr.-16879","Rodions-Kurucs-408801","Larry-Nance-18946","49500","288.6"
"D'Angelo-Russell-18947","Tim-Hardaway-Jr.-16879","Jimmy-Butler-13327","Rondae-Hollis-Jefferson-18897","Larry-Nance-18946","Ben-Simmons-35184","Rodions-Kurucs-408801","DeMarre-Carroll-1174","49100","288.58"
"Alec-Burks-13353","Jimmy-Butler-13327","Tim-Hardaway-Jr.-16879","Rodions-Kurucs-408801","Joel-Embiid-18578","Kevin-Huerter-408969","Ben-Simmons-35184","DeMarre-Carroll-1174","49900","288.57"
"Ben-Simmons-35184","Jimmy-Butler-13327","Wilson-Chandler-1327","Mike-Muscala-17379","Joel-Embiid-18578","Tim-Hardaway-Jr.-16879","Rodions-Kurucs-408801","Rondae-Hollis-Jefferson-18897","49900","288.51"
"Alec-Burks-13353","Kent-Bazemore-13987","Jimmy-Butler-13327","Rodions-Kurucs-408801","Domantas-Sabonis-35217","Ben-Simmons-35184","Tim-Hardaway-Jr.-16879","Larry-Nance-18946","49900","288.49"
"Ben-Simmons-35184","Tim-Hardaway-Jr.-16879","Jimmy-Butler-13327","Rondae-Hollis-Jefferson-18897","Larry-Nance-18946","Trae-Young-409063","Rodions-Kurucs-408801","Noah-Vonleh-18597","49900","288.47"
"Alec-Burks-13353","Tim-Hardaway-Jr.-16879","Jimmy-Butler-13327","Rodions-Kurucs-408801","Larry-Nance-18946","Victor-Oladipo-16807","Ben-Simmons-35184","DeMarre-Carroll-1174","49300","288.44"
"Alec-Burks-13353","Jimmy-Butler-13327","Cedi-Osman-18912","Larry-Nance-18946","Joel-Embiid-18578","Ben-Simmons-35184","Rodions-Kurucs-408801","Mike-Muscala-17379","49900","288.42"
"Ben-Simmons-35184","Jimmy-Butler-13327","Cedi-Osman-18912","Rondae-Hollis-Jefferson-18897","Enes-Kanter-13299","Tim-Hardaway-Jr.-16879","Larry-Nance-18946","Rodions-Kurucs-408801","49100","288.41"
"Ben-Simmons-35184","J.J.-Redick-1030","Cedi-Osman-18912","Larry-Nance-18946","Domantas-Sabonis-35217","Tim-Hardaway-Jr.-16879","Jimmy-Butler-13327","Rodions-Kurucs-408801","49200","288.4"
"Ben-Simmons-35184","Jimmy-Butler-13327","Cedi-Osman-18912","Rodions-Kurucs-408801","Mike-Muscala-17379","Joe-Harris-18587","Tim-Hardaway-Jr.-16879","Joel-Embiid-18578","49700","288.35"
"Alec-Burks-13353","Kevin-Huerter-408969","Jimmy-Butler-13327","Larry-Nance-18946","Joel-Embiid-18578","Ben-Simmons-35184","DeMarre-Carroll-1174","Rodions-Kurucs-408801","50000","288.31"
"Victor-Oladipo-16807","Jimmy-Butler-13327","Ben-Simmons-35184","Rodions-Kurucs-408801","Larry-Nance-18946","Tim-Hardaway-Jr.-16879","Kevin-Huerter-408969","Cedi-Osman-18912","49800","288.29"
"Ben-Simmons-35184","Jimmy-Butler-13327","Cedi-Osman-18912","Larry-Nance-18946","Domantas-Sabonis-35217","Tim-Hardaway-Jr.-16879","Joe-Harris-18587","Rondae-Hollis-Jefferson-18897","50000","288.28"
"Ben-Simmons-35184","Jimmy-Butler-13327","J.J.-Redick-1030","Rodions-Kurucs-408801","Larry-Nance-18946","Trae-Young-409063","Tim-Hardaway-Jr.-16879","Rondae-Hollis-Jefferson-18897","49600","288.27"
"Ben-Simmons-35184","Tim-Hardaway-Jr.-16879","Jimmy-Butler-13327","Rodions-Kurucs-408801","Joel-Embiid-18578","Kevin-Huerter-408969","Joe-Harris-18587","DeMarre-Carroll-1174","49800","288.24"
"Alec-Burks-13353","Jimmy-Butler-13327","DeMarre-Carroll-1174","Larry-Nance-18946","Domantas-Sabonis-35217","Tim-Hardaway-Jr.-16879","Rodions-Kurucs-408801","Joel-Embiid-18578","49900","288.16"
"Ben-Simmons-35184","Jimmy-Butler-13327","Kent-Bazemore-13987","Larry-Nance-18946","Domantas-Sabonis-35217","Tim-Hardaway-Jr.-16879","Joe-Harris-18587","Rodions-Kurucs-408801","49800","288.16"
"Jordan-Clarkson-18631","Jimmy-Butler-13327","Cedi-Osman-18912","Larry-Nance-18946","Domantas-Sabonis-35217","Tim-Hardaway-Jr.-16879","Ben-Simmons-35184","Rodions-Kurucs-408801","49600","288.15"
"Victor-Oladipo-16807","Jimmy-Butler-13327","Tim-Hardaway-Jr.-16879","Rodions-Kurucs-408801","Larry-Nance-18946","Ben-Simmons-35184","Joe-Harris-18587","DeMarre-Carroll-1174","49200","288.11"
"Ben-Simmons-35184","Jimmy-Butler-13327","DeMarre-Carroll-1174","Larry-Nance-18946","Domantas-Sabonis-35217","Tim-Hardaway-Jr.-16879","Rodions-Kurucs-408801","Rondae-Hollis-Jefferson-18897","48300","288.1"
"Ben-Simmons-35184","Jimmy-Butler-13327","Cedi-Osman-18912","Larry-Nance-18946","Joel-Embiid-18578","Joe-Harris-18587","Rodions-Kurucs-408801","Mike-Muscala-17379","49800","288.09"
"Ben-Simmons-35184","Tim-Hardaway-Jr.-16879","Jimmy-Butler-13327","Rondae-Hollis-Jefferson-18897","Larry-Nance-18946","Spencer-Dinwiddie-18588","Rodions-Kurucs-408801","DeMarre-Carroll-1174","49400","288.07"
"Victor-Oladipo-16807","Tim-Hardaway-Jr.-16879","Cedi-Osman-18912","DeMarre-Carroll-1174","Domantas-Sabonis-35217","Ben-Simmons-35184","Jimmy-Butler-13327","Rodions-Kurucs-408801","49300","288.05"
"Ben-Simmons-35184","Tim-Hardaway-Jr.-16879","Jimmy-Butler-13327","DeMarre-Carroll-1174","John-Collins-37823","Kent-Bazemore-13987","Rodions-Kurucs-408801","Larry-Nance-18946","49900","288.04"
"D'Angelo-Russell-18947","Jimmy-Butler-13327","Cedi-Osman-18912","DeMarre-Carroll-1174","Larry-Nance-18946","Ben-Simmons-35184","Tim-Hardaway-Jr.-16879","Rondae-Hollis-Jefferson-18897","50000","288.03"
"Jordan-Clarkson-18631","Tim-Hardaway-Jr.-16879","Jimmy-Butler-13327","Rodions-Kurucs-408801","Larry-Nance-18946","Trae-Young-409063","Ben-Simmons-35184","Rondae-Hollis-Jefferson-18897","50000","288.02"
"Emmanuel-Mudiay-18936","Jimmy-Butler-13327","Cedi-Osman-18912","Larry-Nance-18946","Domantas-Sabonis-35217","Tim-Hardaway-Jr.-16879","Ben-Simmons-35184","Rodions-Kurucs-408801","50000","288.01"
"Ben-Simmons-35184","Jimmy-Butler-13327","Joe-Harris-18587","Larry-Nance-18946","Joel-Embiid-18578","Kevin-Huerter-408969","Rodions-Kurucs-408801","DeMarre-Carroll-1174","49900","287.98"
"Victor-Oladipo-16807","Tim-Hardaway-Jr.-16879","Jimmy-Butler-13327","Rodions-Kurucs-408801","Larry-Nance-18946","Matthew-Dellavedova-16839","Ben-Simmons-35184","Rondae-Hollis-Jefferson-18897","50000","287.94"
"Ben-Simmons-35184","Jimmy-Butler-13327","Wilson-Chandler-1327","Domantas-Sabonis-35217","Enes-Kanter-13299","Tim-Hardaway-Jr.-16879","Rodions-Kurucs-408801","Larry-Nance-18946","49900","287.93"
"Victor-Oladipo-16807","Jimmy-Butler-13327","Tim-Hardaway-Jr.-16879","Rodions-Kurucs-408801","Rondae-Hollis-Jefferson-18897","Trae-Young-409063","Ben-Simmons-35184","DeMarre-Carroll-1174","49700","287.92"
"Ben-Simmons-35184","Jimmy-Butler-13327","Cedi-Osman-18912","Domantas-Sabonis-35217","Joel-Embiid-18578","Kevin-Huerter-408969","Rodions-Kurucs-408801","DeMarre-Carroll-1174","50000","287.92"
"D'Angelo-Russell-18947","Jimmy-Butler-13327","Ben-Simmons-35184","DeMarre-Carroll-1174","Larry-Nance-18946","Tim-Hardaway-Jr.-16879","Kent-Bazemore-13987","Rodions-Kurucs-408801","49800","287.91"
"Victor-Oladipo-16807","Tim-Hardaway-Jr.-16879","Rodions-Kurucs-408801","Rondae-Hollis-Jefferson-18897","Domantas-Sabonis-35217","Ben-Simmons-35184","Larry-Nance-18946","Cedi-Osman-18912","50000","287.88"
"Ben-Simmons-35184","Tim-Hardaway-Jr.-16879","Rodions-Kurucs-408801","Rondae-Hollis-Jefferson-18897","Joel-Embiid-18578","Joe-Harris-18587","Domantas-Sabonis-35217","DeMarre-Carroll-1174","50000","287.83"
"Victor-Oladipo-16807","Jimmy-Butler-13327","DeMarre-Carroll-1174","Larry-Nance-18946","Domantas-Sabonis-35217","Ben-Simmons-35184","Rodions-Kurucs-408801","Cedi-Osman-18912","49400","287.79"
"Victor-Oladipo-16807","Jimmy-Butler-13327","Cedi-Osman-18912","Rodions-Kurucs-408801","Noah-Vonleh-18597","Tim-Hardaway-Jr.-16879","Ben-Simmons-35184","Rondae-Hollis-Jefferson-18897","50000","287.74"
"Ben-Simmons-35184","Jimmy-Butler-13327","Cedi-Osman-18912","Rodions-Kurucs-408801","Enes-Kanter-13299","Kent-Bazemore-13987","Tim-Hardaway-Jr.-16879","Larry-Nance-18946","49800","287.74"
"Ben-Simmons-35184","Victor-Oladipo-16807","Jimmy-Butler-13327","Rondae-Hollis-Jefferson-18897","Larry-Nance-18946","Trae-Young-409063","Rodions-Kurucs-408801","DeMarre-Carroll-1174","49800","287.66"
"Collin-Sexton-408896","Jimmy-Butler-13327","Ben-Simmons-35184","Rondae-Hollis-Jefferson-18897","Domantas-Sabonis-35217","Tim-Hardaway-Jr.-16879","Rodions-Kurucs-408801","Larry-Nance-18946","49800","287.64"
"Ben-Simmons-35184","Jimmy-Butler-13327","Cedi-Osman-18912","Mike-Muscala-17379","Joel-Embiid-18578","Tim-Hardaway-Jr.-16879","Rodions-Kurucs-408801","DeMarre-Carroll-1174","48900","287.62"
"Alec-Burks-13353","Jimmy-Butler-13327","Tim-Hardaway-Jr.-16879","DeMarre-Carroll-1174","Joel-Embiid-18578","Ben-Simmons-35184","Wilson-Chandler-1327","Rodions-Kurucs-408801","49300","287.59"
"Alec-Burks-13353","Jimmy-Butler-13327","J.J.-Redick-1030","Rondae-Hollis-Jefferson-18897","Joel-Embiid-18578","Ben-Simmons-35184","DeMarre-Carroll-1174","Rodions-Kurucs-408801","49900","287.56"
"Ben-Simmons-35184","Jimmy-Butler-13327","DeMarre-Carroll-1174","Rondae-Hollis-Jefferson-18897","Domantas-Sabonis-35217","Tim-Hardaway-Jr.-16879","Larry-Nance-18946","Cedi-Osman-18912","49200","287.55"
"Ben-Simmons-35184","Jimmy-Butler-13327","Cedi-Osman-18912","Larry-Nance-18946","Domantas-Sabonis-35217","Tim-Hardaway-Jr.-16879","Rodions-Kurucs-408801","Jarrett-Allen-37794","49300","287.55"
"Victor-Oladipo-16807","Jimmy-Butler-13327","J.J.-Redick-1030","Cedi-Osman-18912","Rondae-Hollis-Jefferson-18897","Tim-Hardaway-Jr.-16879","Ben-Simmons-35184","Rodions-Kurucs-408801","49700","287.54"
"Ben-Simmons-35184","Kevin-Huerter-408969","Jimmy-Butler-13327","Rodions-Kurucs-408801","Domantas-Sabonis-35217","Trae-Young-409063","Tim-Hardaway-Jr.-16879","Larry-Nance-18946","49900","287.51"
"Alec-Burks-13353","Jimmy-Butler-13327","Ben-Simmons-35184","Larry-Nance-18946","Domantas-Sabonis-35217","Tim-Hardaway-Jr.-16879","Rodions-Kurucs-408801","Noah-Vonleh-18597","49700","287.48"
"Ben-Simmons-35184","J.J.-Redick-1030","Joe-Harris-18587","Larry-Nance-18946","Joel-Embiid-18578","Tim-Hardaway-Jr.-16879","Rodions-Kurucs-408801","DeMarre-Carroll-1174","50000","287.46"
"Ben-Simmons-35184","Jimmy-Butler-13327","Tim-Hardaway-Jr.-16879","Rondae-Hollis-Jefferson-18897","John-Collins-37823","Kevin-Huerter-408969","Larry-Nance-18946","Rodions-Kurucs-408801","49900","287.44"
"Ben-Simmons-35184","Jimmy-Butler-13327","Kevin-Huerter-408969","Wilson-Chandler-1327","Joel-Embiid-18578","Tim-Hardaway-Jr.-16879","Rodions-Kurucs-408801","Cedi-Osman-18912","49800","287.44"
"Ben-Simmons-35184","Jimmy-Butler-13327","DeMarre-Carroll-1174","Larry-Nance-18946","Domantas-Sabonis-35217","Tim-Hardaway-Jr.-16879","Kent-Bazemore-13987","Rodions-Kurucs-408801","49000","287.43"
"Alec-Burks-13353","Tim-Hardaway-Jr.-16879","Rodions-Kurucs-408801","Rondae-Hollis-Jefferson-18897","Joel-Embiid-18578","Ben-Simmons-35184","Larry-Nance-18946","Wilson-Chandler-1327","50000","287.42"
"Ben-Simmons-35184","Jimmy-Butler-13327","Rodions-Kurucs-408801","Rondae-Hollis-Jefferson-18897","Jarrett-Allen-37794","Trae-Young-409063","Larry-Nance-18946","Tim-Hardaway-Jr.-16879","49700","287.42"
