"Victor-Oladipo-16807","Kent-Bazemore-13987","Rodions-Kurucs-408801","Domantas-Sabonis-35217","Dewayne-Dedmon-16894","Darren-Collison-1060","Serge-Ibaka-1294","Kawhi-Leonard-13310","49900","282.92"

"Victor-Oladipo-16807","Kent-Bazemore-13987","Rodions-Kurucs-408801","Domantas-Sabonis-35217","Dewayne-Dedmon-16894","Darren-Collison-1060","Serge-Ibaka-1294","Kawhi-Leonard-13310","49900","282.92"
"Victor-Oladipo-16807","Jeremy-Lamb-13955","Rodions-Kurucs-408801","Domantas-Sabonis-35217","Dewayne-Dedmon-16894","Darren-Collison-1060","Serge-Ibaka-1294","Kawhi-Leonard-13310","49700","282.09"
"Kemba-Walker-13335","Victor-Oladipo-16807","James-Johnson-1195","Dewayne-Dedmon-16894","Cody-Zeller-16836","Darren-Collison-1060","Kawhi-Leonard-13310","Serge-Ibaka-1294","49900","282.09"
"Kemba-Walker-13335","Victor-Oladipo-16807","Rodions-Kurucs-408801","James-Johnson-1195","Serge-Ibaka-1294","Jeremy-Lamb-13955","Kawhi-Leonard-13310","DeMarre-Carroll-1174","49900","282.01"
"Kemba-Walker-13335","Victor-Oladipo-16807","DeMarre-Carroll-1174","Serge-Ibaka-1294","Dewayne-Dedmon-16894","Darren-Collison-1060","Kawhi-Leonard-13310","Cody-Zeller-16836","50000","281.86"
"Kemba-Walker-13335","Victor-Oladipo-16807","Rodions-Kurucs-408801","Kawhi-Leonard-13310","Dewayne-Dedmon-16894","Darren-Collison-1060","Jeremy-Lamb-13955","James-Johnson-1195","49900","281.83"
"Kemba-Walker-13335","Victor-Oladipo-16807","Rodions-Kurucs-408801","Kawhi-Leonard-13310","Dewayne-Dedmon-16894","Darren-Collison-1060","Jeremy-Lamb-13955","DeMarre-Carroll-1174","50000","281.6"
"Kemba-Walker-13335","Victor-Oladipo-16807","Rodions-Kurucs-408801","Serge-Ibaka-1294","Dewayne-Dedmon-16894","Darren-Collison-1060","Ed-Davis-1265","Kawhi-Leonard-13310","50000","281.53"
"Kemba-Walker-13335","Victor-Oladipo-16807","Rodions-Kurucs-408801","Dewayne-Dedmon-16894","Cody-Zeller-16836","Jeremy-Lamb-13955","James-Johnson-1195","Kawhi-Leonard-13310","50000","281.52"
"Victor-Oladipo-16807","Kent-Bazemore-13987","Rodions-Kurucs-408801","James-Johnson-1195","Serge-Ibaka-1294","Josh-Richardson-18922","Kawhi-Leonard-13310","Dewayne-Dedmon-16894","49800","281.49"
"Victor-Oladipo-16807","Jeremy-Lamb-13955","Rodions-Kurucs-408801","Pascal-Siakam-35186","Dewayne-Dedmon-16894","Darren-Collison-1060","Serge-Ibaka-1294","Kawhi-Leonard-13310","50000","281.48"
"Victor-Oladipo-16807","D'Angelo-Russell-18947","Rodions-Kurucs-408801","Serge-Ibaka-1294","Cody-Zeller-16836","Darren-Collison-1060","Kawhi-Leonard-13310","Dewayne-Dedmon-16894","49900","281.33"
"Kemba-Walker-13335","Victor-Oladipo-16807","Rodions-Kurucs-408801","Kawhi-Leonard-13310","Serge-Ibaka-1294","Darren-Collison-1060","Miles-Bridges-409262","Dewayne-Dedmon-16894","50000","281.31"
"Victor-Oladipo-16807","Kent-Bazemore-13987","DeMarre-Carroll-1174","Serge-Ibaka-1294","Dewayne-Dedmon-16894","Josh-Richardson-18922","Kawhi-Leonard-13310","Rodions-Kurucs-408801","49900","281.26"
"Kemba-Walker-13335","Victor-Oladipo-16807","Rodions-Kurucs-408801","James-Johnson-1195","Serge-Ibaka-1294","Danny-Green-940","Kawhi-Leonard-13310","Dewayne-Dedmon-16894","50000","281.26"
"Victor-Oladipo-16807","Nicolas-Batum-1315","Rodions-Kurucs-408801","Domantas-Sabonis-35217","Dewayne-Dedmon-16894","Kent-Bazemore-13987","Serge-Ibaka-1294","Kawhi-Leonard-13310","50000","281.22"
"Spencer-Dinwiddie-18588","Victor-Oladipo-16807","Rodions-Kurucs-408801","James-Johnson-1195","Serge-Ibaka-1294","Jeremy-Lamb-13955","Kawhi-Leonard-13310","Dewayne-Dedmon-16894","49900","281.12"
"Victor-Oladipo-16807","Kent-Bazemore-13987","Kawhi-Leonard-13310","Serge-Ibaka-1294","Dewayne-Dedmon-16894","Darren-Collison-1060","Jeremy-Lamb-13955","Rodions-Kurucs-408801","49200","281.06"
"Spencer-Dinwiddie-18588","Victor-Oladipo-16807","DeMarre-Carroll-1174","Serge-Ibaka-1294","Dewayne-Dedmon-16894","Jeremy-Lamb-13955","Kawhi-Leonard-13310","Rodions-Kurucs-408801","50000","280.89"
"Victor-Oladipo-16807","D'Angelo-Russell-18947","DeMarre-Carroll-1174","Serge-Ibaka-1294","Dewayne-Dedmon-16894","Kent-Bazemore-13987","James-Johnson-1195","Kawhi-Leonard-13310","49800","280.85"
"Fred-VanVleet-36011","Victor-Oladipo-16807","Kawhi-Leonard-13310","Serge-Ibaka-1294","Dewayne-Dedmon-16894","Kent-Bazemore-13987","Jeremy-Lamb-13955","James-Johnson-1195","49900","280.85"
"Victor-Oladipo-16807","Kent-Bazemore-13987","Rodions-Kurucs-408801","Serge-Ibaka-1294","Cody-Zeller-16836","Jeremy-Lamb-13955","Kawhi-Leonard-13310","Dewayne-Dedmon-16894","49300","280.75"
"Kemba-Walker-13335","Victor-Oladipo-16807","Nicolas-Batum-1315","James-Johnson-1195","Serge-Ibaka-1294","Darren-Collison-1060","Kawhi-Leonard-13310","Dewayne-Dedmon-16894","49900","280.7"
"Victor-Oladipo-16807","Jeremy-Lamb-13955","Rodions-Kurucs-408801","James-Johnson-1195","Serge-Ibaka-1294","Josh-Richardson-18922","Kawhi-Leonard-13310","Dewayne-Dedmon-16894","49600","280.66"
"Fred-VanVleet-36011","Victor-Oladipo-16807","DeMarre-Carroll-1174","Serge-Ibaka-1294","Dewayne-Dedmon-16894","Jeremy-Lamb-13955","Kent-Bazemore-13987","Kawhi-Leonard-13310","50000","280.62"
"Kemba-Walker-13335","Victor-Oladipo-16807","DeMarre-Carroll-1174","James-Johnson-1195","Dewayne-Dedmon-16894","Kent-Bazemore-13987","Kawhi-Leonard-13310","Rodions-Kurucs-408801","49600","280.59"
"Trae-Young-409063","Victor-Oladipo-16807","Kawhi-Leonard-13310","Serge-Ibaka-1294","Dewayne-Dedmon-16894","Kent-Bazemore-13987","Jeremy-Lamb-13955","James-Johnson-1195","49900","280.57"
"Victor-Oladipo-16807","Kevin-Huerter-408969","Rodions-Kurucs-408801","Domantas-Sabonis-35217","Dewayne-Dedmon-16894","Kent-Bazemore-13987","Serge-Ibaka-1294","Kawhi-Leonard-13310","50000","280.49"
"Kemba-Walker-13335","Victor-Oladipo-16807","DeMarre-Carroll-1174","Serge-Ibaka-1294","Dewayne-Dedmon-16894","Nicolas-Batum-1315","Kawhi-Leonard-13310","Darren-Collison-1060","50000","280.47"
"Kemba-Walker-13335","Victor-Oladipo-16807","Rodions-Kurucs-408801","James-Johnson-1195","Jarrett-Allen-37794","Darren-Collison-1060","Kawhi-Leonard-13310","Dewayne-Dedmon-16894","50000","280.45"
"Victor-Oladipo-16807","Jeremy-Lamb-13955","DeMarre-Carroll-1174","Serge-Ibaka-1294","Dewayne-Dedmon-16894","Josh-Richardson-18922","Kawhi-Leonard-13310","Rodions-Kurucs-408801","49700","280.43"
"Fred-VanVleet-36011","Victor-Oladipo-16807","Kent-Bazemore-13987","Serge-Ibaka-1294","Dewayne-Dedmon-16894","Darren-Collison-1060","Kawhi-Leonard-13310","Rodions-Kurucs-408801","49600","280.4"
"Victor-Oladipo-16807","Dwyane-Wade-967","Kawhi-Leonard-13310","Serge-Ibaka-1294","Dewayne-Dedmon-16894","Kent-Bazemore-13987","Jeremy-Lamb-13955","Rodions-Kurucs-408801","50000","280.4"
"Victor-Oladipo-16807","Nicolas-Batum-1315","Rodions-Kurucs-408801","Domantas-Sabonis-35217","Dewayne-Dedmon-16894","Jeremy-Lamb-13955","Serge-Ibaka-1294","Kawhi-Leonard-13310","49800","280.39"
"Kemba-Walker-13335","Victor-Oladipo-16807","James-Johnson-1195","Dewayne-Dedmon-16894","Cody-Zeller-16836","Nicolas-Batum-1315","Kawhi-Leonard-13310","Serge-Ibaka-1294","50000","280.39"
"Trae-Young-409063","Victor-Oladipo-16807","DeMarre-Carroll-1174","Serge-Ibaka-1294","Dewayne-Dedmon-16894","Jeremy-Lamb-13955","Kent-Bazemore-13987","Kawhi-Leonard-13310","50000","280.34"
"Kemba-Walker-13335","Victor-Oladipo-16807","DeMarre-Carroll-1174","Serge-Ibaka-1294","Dewayne-Dedmon-16894","Darren-Collison-1060","James-Johnson-1195","Kawhi-Leonard-13310","49300","280.33"
"Victor-Oladipo-16807","Kent-Bazemore-13987","Kawhi-Leonard-13310","Serge-Ibaka-1294","Jarrett-Allen-37794","Jeremy-Lamb-13955","Dewayne-Dedmon-16894","James-Johnson-1195","49600","280.13"
"Kemba-Walker-13335","Victor-Oladipo-16807","Nicolas-Batum-1315","Rodions-Kurucs-408801","Dewayne-Dedmon-16894","Jeremy-Lamb-13955","Kawhi-Leonard-13310","James-Johnson-1195","50000","280.13"
"Trae-Young-409063","Victor-Oladipo-16807","Kent-Bazemore-13987","Serge-Ibaka-1294","Dewayne-Dedmon-16894","Darren-Collison-1060","Kawhi-Leonard-13310","Rodions-Kurucs-408801","49600","280.12"
"Fred-VanVleet-36011","Victor-Oladipo-16807","Rodions-Kurucs-408801","Serge-Ibaka-1294","Cody-Zeller-16836","Kent-Bazemore-13987","Kawhi-Leonard-13310","Dewayne-Dedmon-16894","49700","280.09"
"Kemba-Walker-13335","Victor-Oladipo-16807","DeMarre-Carroll-1174","James-Johnson-1195","Serge-Ibaka-1294","Darren-Collison-1060","Kent-Bazemore-13987","Kawhi-Leonard-13310","49800","280.09"
"Victor-Oladipo-16807","D'Angelo-Russell-18947","DeMarre-Carroll-1174","Serge-Ibaka-1294","Dewayne-Dedmon-16894","Jeremy-Lamb-13955","James-Johnson-1195","Kawhi-Leonard-13310","49600","280.02"
"Victor-Oladipo-16807","Kent-Bazemore-13987","Rodions-Kurucs-408801","James-Johnson-1195","Serge-Ibaka-1294","Jeremy-Lamb-13955","Kawhi-Leonard-13310","Domantas-Sabonis-35217","49600","280.01"
"Fred-VanVleet-36011","Victor-Oladipo-16807","Rodions-Kurucs-408801","James-Johnson-1195","Serge-Ibaka-1294","Josh-Richardson-18922","Kawhi-Leonard-13310","Dewayne-Dedmon-16894","50000","280.0"
"Kemba-Walker-13335","Victor-Oladipo-16807","Kawhi-Leonard-13310","Serge-Ibaka-1294","Dewayne-Dedmon-16894","Darren-Collison-1060","Kevin-Huerter-408969","James-Johnson-1195","49900","279.97"
"Victor-Oladipo-16807","D'Angelo-Russell-18947","Nicolas-Batum-1315","Rodions-Kurucs-408801","Dewayne-Dedmon-16894","Darren-Collison-1060","Kawhi-Leonard-13310","Serge-Ibaka-1294","49900","279.94"
"Victor-Oladipo-16807","Kent-Bazemore-13987","DeMarre-Carroll-1174","Serge-Ibaka-1294","Dewayne-Dedmon-16894","Jeremy-Lamb-13955","Kawhi-Leonard-13310","Jarrett-Allen-37794","49700","279.9"
"Victor-Oladipo-16807","Kent-Bazemore-13987","Kawhi-Leonard-13310","Domantas-Sabonis-35217","Cody-Zeller-16836","Darren-Collison-1060","Dewayne-Dedmon-16894","Serge-Ibaka-1294","49700","279.86"
"Trae-Young-409063","Victor-Oladipo-16807","Rodions-Kurucs-408801","Serge-Ibaka-1294","Cody-Zeller-16836","Kent-Bazemore-13987","Kawhi-Leonard-13310","Dewayne-Dedmon-16894","49700","279.81"
"Victor-Oladipo-16807","D'Angelo-Russell-18947","Rodions-Kurucs-408801","James-Johnson-1195","Serge-Ibaka-1294","Darren-Collison-1060","Kawhi-Leonard-13310","Dewayne-Dedmon-16894","49200","279.8"
"Victor-Oladipo-16807","Kent-Bazemore-13987","Rodions-Kurucs-408801","Domantas-Sabonis-35217","Serge-Ibaka-1294","Jeremy-Lamb-13955","DeMarre-Carroll-1174","Kawhi-Leonard-13310","49700","279.78"
"Kemba-Walker-13335","Victor-Oladipo-16807","DeMarre-Carroll-1174","Serge-Ibaka-1294","Cody-Zeller-16836","Kent-Bazemore-13987","James-Johnson-1195","Kawhi-Leonard-13310","49900","279.78"
"Victor-Oladipo-16807","Josh-Richardson-18922","James-Johnson-1195","Domantas-Sabonis-35217","Dewayne-Dedmon-16894","Darren-Collison-1060","Serge-Ibaka-1294","Kawhi-Leonard-13310","50000","279.77"
"Kemba-Walker-13335","Victor-Oladipo-16807","DeMarre-Carroll-1174","James-Johnson-1195","Dewayne-Dedmon-16894","Jeremy-Lamb-13955","Kawhi-Leonard-13310","Rodions-Kurucs-408801","49400","279.76"
"Kemba-Walker-13335","Victor-Oladipo-16807","DeMarre-Carroll-1174","Kawhi-Leonard-13310","Serge-Ibaka-1294","Darren-Collison-1060","Kevin-Huerter-408969","Dewayne-Dedmon-16894","50000","279.74"
"Trae-Young-409063","Victor-Oladipo-16807","Rodions-Kurucs-408801","James-Johnson-1195","Serge-Ibaka-1294","Josh-Richardson-18922","Kawhi-Leonard-13310","Dewayne-Dedmon-16894","50000","279.72"
"Victor-Oladipo-16807","Kent-Bazemore-13987","Kawhi-Leonard-13310","Serge-Ibaka-1294","Jarrett-Allen-37794","Darren-Collison-1060","Dewayne-Dedmon-16894","Rodions-Kurucs-408801","49300","279.68"
"Kemba-Walker-13335","Victor-Oladipo-16807","James-Johnson-1195","Dewayne-Dedmon-16894","Cody-Zeller-16836","Kevin-Huerter-408969","Kawhi-Leonard-13310","Serge-Ibaka-1294","50000","279.66"
"Victor-Oladipo-16807","Kevin-Huerter-408969","Rodions-Kurucs-408801","Domantas-Sabonis-35217","Dewayne-Dedmon-16894","Jeremy-Lamb-13955","Serge-Ibaka-1294","Kawhi-Leonard-13310","49800","279.66"
"Victor-Oladipo-16807","Nicolas-Batum-1315","Rodions-Kurucs-408801","Serge-Ibaka-1294","Cody-Zeller-16836","D'Angelo-Russell-18947","Kawhi-Leonard-13310","Dewayne-Dedmon-16894","50000","279.63"
"Victor-Oladipo-16807","Kent-Bazemore-13987","Rodions-Kurucs-408801","Domantas-Sabonis-35217","Dewayne-Dedmon-16894","Darren-Collison-1060","Jeremy-Lamb-13955","Kawhi-Leonard-13310","49700","279.6"
"Kemba-Walker-13335","Victor-Oladipo-16807","James-Johnson-1195","Dewayne-Dedmon-16894","Cody-Zeller-16836","Darren-Collison-1060","Kent-Bazemore-13987","Kawhi-Leonard-13310","49900","279.6"
"Victor-Oladipo-16807","Joe-Harris-18587","Kawhi-Leonard-13310","Serge-Ibaka-1294","Dewayne-Dedmon-16894","Kent-Bazemore-13987","Jeremy-Lamb-13955","Rodions-Kurucs-408801","49600","279.58"
"Fred-VanVleet-36011","Victor-Oladipo-16807","Kawhi-Leonard-13310","Serge-Ibaka-1294","Dewayne-Dedmon-16894","Darren-Collison-1060","Jeremy-Lamb-13955","Rodions-Kurucs-408801","49400","279.57"
"Victor-Oladipo-16807","D'Angelo-Russell-18947","DeMarre-Carroll-1174","Serge-Ibaka-1294","Dewayne-Dedmon-16894","Darren-Collison-1060","Kawhi-Leonard-13310","Rodions-Kurucs-408801","49300","279.57"
"Victor-Oladipo-16807","D'Angelo-Russell-18947","Rodions-Kurucs-408801","James-Johnson-1195","Serge-Ibaka-1294","Kent-Bazemore-13987","Kawhi-Leonard-13310","Darren-Collison-1060","49700","279.56"
"Victor-Oladipo-16807","Kent-Bazemore-13987","Kawhi-Leonard-13310","Serge-Ibaka-1294","Dewayne-Dedmon-16894","Jeremy-Lamb-13955","Marvin-Williams-1318","Rodions-Kurucs-408801","50000","279.54"
"Fred-VanVleet-36011","Victor-Oladipo-16807","Kawhi-Leonard-13310","Serge-Ibaka-1294","Jarrett-Allen-37794","Kent-Bazemore-13987","Dewayne-Dedmon-16894","James-Johnson-1195","50000","279.47"
"Kemba-Walker-13335","Victor-Oladipo-16807","Rodions-Kurucs-408801","James-Johnson-1195","Serge-Ibaka-1294","Kent-Bazemore-13987","Kawhi-Leonard-13310","Ed-Davis-1265","49900","279.45"
"Victor-Oladipo-16807","Kent-Bazemore-13987","Rodions-Kurucs-408801","James-Johnson-1195","Serge-Ibaka-1294","Jeremy-Lamb-13955","Kawhi-Leonard-13310","Hassan-Whiteside-18664","50000","279.44"
"Victor-Oladipo-16807","Josh-Richardson-18922","Kawhi-Leonard-13310","Serge-Ibaka-1294","Dewayne-Dedmon-16894","Darren-Collison-1060","Jeremy-Lamb-13955","Cody-Zeller-16836","50000","279.44"
"Kemba-Walker-13335","Victor-Oladipo-16807","Rodions-Kurucs-408801","Kawhi-Leonard-13310","Dewayne-Dedmon-16894","Darren-Collison-1060","Thaddeus-Young-1289","James-Johnson-1195","50000","279.42"
"Victor-Oladipo-16807","Kent-Bazemore-13987","Rodions-Kurucs-408801","James-Johnson-1195","Serge-Ibaka-1294","Jeremy-Lamb-13955","Kawhi-Leonard-13310","Pascal-Siakam-35186","49900","279.4"
"Kemba-Walker-13335","Victor-Oladipo-16807","James-Johnson-1195","Kawhi-Leonard-13310","Dewayne-Dedmon-16894","Jeremy-Lamb-13955","Kevin-Huerter-408969","Rodions-Kurucs-408801","50000","279.4"
"Kemba-Walker-13335","Victor-Oladipo-16807","DeMarre-Carroll-1174","Kawhi-Leonard-13310","Dewayne-Dedmon-16894","Darren-Collison-1060","Kent-Bazemore-13987","Cody-Zeller-16836","50000","279.37"
"Victor-Oladipo-16807","Nicolas-Batum-1315","Kawhi-Leonard-13310","Serge-Ibaka-1294","Dewayne-Dedmon-16894","Kent-Bazemore-13987","Jeremy-Lamb-13955","Rodions-Kurucs-408801","49300","279.36"
"Fred-VanVleet-36011","Victor-Oladipo-16807","DeMarre-Carroll-1174","Serge-Ibaka-1294","Dewayne-Dedmon-16894","D'Angelo-Russell-18947","James-Johnson-1195","Kawhi-Leonard-13310","50000","279.36"
"Fred-VanVleet-36011","Victor-Oladipo-16807","Rodions-Kurucs-408801","James-Johnson-1195","Serge-Ibaka-1294","Kent-Bazemore-13987","Kawhi-Leonard-13310","Domantas-Sabonis-35217","50000","279.35"
"Fred-VanVleet-36011","Victor-Oladipo-16807","Kent-Bazemore-13987","Rodions-Kurucs-408801","Serge-Ibaka-1294","Darren-Collison-1060","Jeremy-Lamb-13955","Kawhi-Leonard-13310","49900","279.33"
"Victor-Oladipo-16807","D'Angelo-Russell-18947","Rodions-Kurucs-408801","DeMarre-Carroll-1174","Serge-Ibaka-1294","Darren-Collison-1060","Kent-Bazemore-13987","Kawhi-Leonard-13310","49800","279.33"
"Victor-Oladipo-16807","Kent-Bazemore-13987","Rodions-Kurucs-408801","Domantas-Sabonis-35217","Cody-Zeller-16836","Jeremy-Lamb-13955","Dewayne-Dedmon-16894","Kawhi-Leonard-13310","49800","279.29"
"Trae-Young-409063","Victor-Oladipo-16807","Kawhi-Leonard-13310","Serge-Ibaka-1294","Dewayne-Dedmon-16894","Darren-Collison-1060","Jeremy-Lamb-13955","Rodions-Kurucs-408801","49400","279.29"
"Fred-VanVleet-36011","Victor-Oladipo-16807","Rodions-Kurucs-408801","Serge-Ibaka-1294","Cody-Zeller-16836","Jeremy-Lamb-13955","Kawhi-Leonard-13310","Dewayne-Dedmon-16894","49500","279.26"
"Kemba-Walker-13335","Victor-Oladipo-16807","James-Johnson-1195","Kawhi-Leonard-13310","Serge-Ibaka-1294","Darren-Collison-1060","Jeremy-Lamb-13955","DeMarre-Carroll-1174","49600","279.26"
"Victor-Oladipo-16807","D'Angelo-Russell-18947","Rodions-Kurucs-408801","James-Johnson-1195","Serge-Ibaka-1294","Kent-Bazemore-13987","Kawhi-Leonard-13310","Cody-Zeller-16836","49800","279.25"
"Victor-Oladipo-16807","Kent-Bazemore-13987","Kawhi-Leonard-13310","Pascal-Siakam-35186","Cody-Zeller-16836","Darren-Collison-1060","Dewayne-Dedmon-16894","Serge-Ibaka-1294","50000","279.25"
"Kemba-Walker-13335","Victor-Oladipo-16807","Rodions-Kurucs-408801","James-Johnson-1195","Serge-Ibaka-1294","Kent-Bazemore-13987","Kawhi-Leonard-13310","Miles-Bridges-409262","49900","279.23"
"Victor-Oladipo-16807","Kent-Bazemore-13987","Rodions-Kurucs-408801","James-Johnson-1195","Serge-Ibaka-1294","Jeremy-Lamb-13955","Kawhi-Leonard-13310","Dewayne-Dedmon-16894","48600","279.22"
"Kemba-Walker-13335","Victor-Oladipo-16807","DeMarre-Carroll-1174","Serge-Ibaka-1294","Ed-Davis-1265","Kent-Bazemore-13987","Kawhi-Leonard-13310","Rodions-Kurucs-408801","50000","279.22"
"Victor-Oladipo-16807","D'Angelo-Russell-18947","Kawhi-Leonard-13310","Serge-Ibaka-1294","Dewayne-Dedmon-16894","Darren-Collison-1060","Kevin-Huerter-408969","Rodions-Kurucs-408801","49900","279.21"
"Spencer-Dinwiddie-18588","Victor-Oladipo-16807","Kent-Bazemore-13987","Serge-Ibaka-1294","Dewayne-Dedmon-16894","Darren-Collison-1060","Kawhi-Leonard-13310","James-Johnson-1195","49800","279.2"
"Trae-Young-409063","Victor-Oladipo-16807","Kawhi-Leonard-13310","Serge-Ibaka-1294","Jarrett-Allen-37794","Kent-Bazemore-13987","Dewayne-Dedmon-16894","James-Johnson-1195","50000","279.19"
"Victor-Oladipo-16807","Kent-Bazemore-13987","Rodions-Kurucs-408801","DeMarre-Carroll-1174","Pascal-Siakam-35186","Jeremy-Lamb-13955","Kawhi-Leonard-13310","Serge-Ibaka-1294","50000","279.17"
"Victor-Oladipo-16807","Dwyane-Wade-967","Rodions-Kurucs-408801","James-Johnson-1195","Serge-Ibaka-1294","D'Angelo-Russell-18947","Kawhi-Leonard-13310","Dewayne-Dedmon-16894","50000","279.14"
"Victor-Oladipo-16807","Kent-Bazemore-13987","Kawhi-Leonard-13310","Serge-Ibaka-1294","Dewayne-Dedmon-16894","Jeremy-Lamb-13955","Thaddeus-Young-1289","James-Johnson-1195","49600","279.1"
"Fred-VanVleet-36011","Victor-Oladipo-16807","DeMarre-Carroll-1174","James-Johnson-1195","Dewayne-Dedmon-16894","Kemba-Walker-13335","Kawhi-Leonard-13310","Rodions-Kurucs-408801","49800","279.1"
"Trae-Young-409063","Victor-Oladipo-16807","DeMarre-Carroll-1174","Serge-Ibaka-1294","Dewayne-Dedmon-16894","D'Angelo-Russell-18947","James-Johnson-1195","Kawhi-Leonard-13310","50000","279.08"
"Trae-Young-409063","Victor-Oladipo-16807","Rodions-Kurucs-408801","James-Johnson-1195","Serge-Ibaka-1294","Kent-Bazemore-13987","Kawhi-Leonard-13310","Domantas-Sabonis-35217","50000","279.07"
"Trae-Young-409063","Victor-Oladipo-16807","Kent-Bazemore-13987","Rodions-Kurucs-408801","Serge-Ibaka-1294","Darren-Collison-1060","Jeremy-Lamb-13955","Kawhi-Leonard-13310","49900","279.05"
