"Lonzo-Ball-37885","Eric-Gordon-1077","TJ-Warren-18634","Jonathan-Isaac-37841","Nikola-Vucevic-13296","De'Anthony-Melton-409081","LaMarcus-Aldridge-1349","Clint-Capela-18610","49900","282.34"
"Lonzo-Ball-37885","Eric-Gordon-1077","TJ-Warren-18634","Josh-Jackson-37890","Nikola-Vucevic-13296","De'Anthony-Melton-409081","LaMarcus-Aldridge-1349","Deandre-Ayton-409301","49900","281.27"

"Lonzo-Ball-37885","Eric-Gordon-1077","TJ-Warren-18634","Jonathan-Isaac-37841","Nikola-Vucevic-13296","De'Anthony-Melton-409081","LaMarcus-Aldridge-1349","Clint-Capela-18610","49900","282.34"
"Lonzo-Ball-37885","Eric-Gordon-1077","TJ-Warren-18634","Josh-Jackson-37890","Nikola-Vucevic-13296","De'Anthony-Melton-409081","LaMarcus-Aldridge-1349","Deandre-Ayton-409301","49900","281.27"
"Lonzo-Ball-37885","Eric-Gordon-1077","TJ-Warren-18634","Wendell-Carter-408878","Deandre-Ayton-409301","De'Anthony-Melton-409081","LaMarcus-Aldridge-1349","Nikola-Vucevic-13296","49900","281.07"
"Lonzo-Ball-37885","Eric-Gordon-1077","Tobias-Harris-13332","TJ-Warren-18634","Nikola-Vucevic-13296","De'Anthony-Melton-409081","LaMarcus-Aldridge-1349","Josh-Jackson-37890","50000","281.07"
"Josh-Hart-37889","De'Anthony-Melton-409081","TJ-Warren-18634","LaMarcus-Aldridge-1349","Clint-Capela-18610","Lonzo-Ball-37885","Eric-Gordon-1077","Nikola-Vucevic-13296","49900","280.97"
"Lonzo-Ball-37885","Eric-Gordon-1077","Tobias-Harris-13332","TJ-Warren-18634","Nikola-Vucevic-13296","De'Anthony-Melton-409081","LaMarcus-Aldridge-1349","Wendell-Carter-408878","50000","280.87"
"Josh-Hart-37889","Eric-Gordon-1077","Tobias-Harris-13332","Jonathan-Isaac-37841","Nikola-Vucevic-13296","De'Anthony-Melton-409081","LaMarcus-Aldridge-1349","Clint-Capela-18610","50000","280.63"
"D.J.-Augustin-1064","De'Anthony-Melton-409081","Eric-Gordon-1077","LaMarcus-Aldridge-1349","Nikola-Vucevic-13296","Lonzo-Ball-37885","DeMar-DeRozan-1053","TJ-Warren-18634","50000","280.01"
"Josh-Hart-37889","De'Anthony-Melton-409081","Tobias-Harris-13332","Jonathan-Isaac-37841","Nikola-Vucevic-13296","Lonzo-Ball-37885","LaMarcus-Aldridge-1349","Deandre-Ayton-409301","49800","279.87"
"D.J.-Augustin-1064","Eric-Gordon-1077","Jonathan-Isaac-37841","LaMarcus-Aldridge-1349","Deandre-Ayton-409301","De'Anthony-Melton-409081","DeMar-DeRozan-1053","Nikola-Vucevic-13296","50000","279.87"
"Shai-Gilgeous-Alexander-408990","De'Anthony-Melton-409081","TJ-Warren-18634","Jonathan-Isaac-37841","Nikola-Vucevic-13296","Lonzo-Ball-37885","LaMarcus-Aldridge-1349","Clint-Capela-18610","49800","279.67"
"D.J.-Augustin-1064","De'Anthony-Melton-409081","TJ-Warren-18634","LaMarcus-Aldridge-1349","Clint-Capela-18610","Lonzo-Ball-37885","Eric-Gordon-1077","Nikola-Vucevic-13296","49700","279.66"
"Josh-Hart-37889","Eric-Gordon-1077","Tobias-Harris-13332","Josh-Jackson-37890","Nikola-Vucevic-13296","De'Anthony-Melton-409081","LaMarcus-Aldridge-1349","Deandre-Ayton-409301","50000","279.56"
"Lonzo-Ball-37885","Eric-Gordon-1077","TJ-Warren-18634","LaMarcus-Aldridge-1349","Deandre-Ayton-409301","De'Anthony-Melton-409081","Justin-Holiday-14559","Nikola-Vucevic-13296","49800","279.44"
"De'Anthony-Melton-409081","Eric-Gordon-1077","TJ-Warren-18634","Jonathan-Isaac-37841","Nikola-Vucevic-13296","DeMar-DeRozan-1053","Josh-Jackson-37890","LaMarcus-Aldridge-1349","49800","279.37"
"Josh-Hart-37889","Eric-Gordon-1077","Tobias-Harris-13332","Wendell-Carter-408878","Nikola-Vucevic-13296","De'Anthony-Melton-409081","LaMarcus-Aldridge-1349","Deandre-Ayton-409301","50000","279.36"
"Shai-Gilgeous-Alexander-408990","Eric-Gordon-1077","TJ-Warren-18634","Josh-Jackson-37890","Clint-Capela-18610","De'Anthony-Melton-409081","LaMarcus-Aldridge-1349","Nikola-Vucevic-13296","50000","279.36"
"Lonzo-Ball-37885","DeMar-DeRozan-1053","TJ-Warren-18634","Jonathan-Isaac-37841","Nikola-Vucevic-13296","De'Anthony-Melton-409081","Eric-Gordon-1077","Deandre-Ayton-409301","49900","279.35"
"D.J.-Augustin-1064","Eric-Gordon-1077","Tobias-Harris-13332","Jonathan-Isaac-37841","Nikola-Vucevic-13296","De'Anthony-Melton-409081","LaMarcus-Aldridge-1349","Clint-Capela-18610","49800","279.32"
"Lonzo-Ball-37885","Eric-Gordon-1077","Tobias-Harris-13332","Jonathan-Isaac-37841","Deandre-Ayton-409301","De'Anthony-Melton-409081","DeMar-DeRozan-1053","LaMarcus-Aldridge-1349","50000","279.3"
"James-Harden-1037","Josh-Hart-37889","Jonathan-Isaac-37841","LaMarcus-Aldridge-1349","Nikola-Vucevic-13296","Eric-Gordon-1077","Wesley-Matthews-1339","De'Anthony-Melton-409081","50000","279.29"
"Lonzo-Ball-37885","Eric-Gordon-1077","Jonathan-Isaac-37841","Harrison-Barnes-13901","Clint-Capela-18610","De'Anthony-Melton-409081","LaMarcus-Aldridge-1349","Nikola-Vucevic-13296","50000","279.25"
"Lonzo-Ball-37885","Eric-Gordon-1077","Tobias-Harris-13332","TJ-Warren-18634","Nikola-Vucevic-13296","De'Anthony-Melton-409081","LaMarcus-Aldridge-1349","Justin-Holiday-14559","49900","279.24"
"James-Harden-1037","Shai-Gilgeous-Alexander-408990","TJ-Warren-18634","Jonathan-Isaac-37841","Deandre-Ayton-409301","Eric-Gordon-1077","LaMarcus-Aldridge-1349","De'Anthony-Melton-409081","50000","279.21"
"De'Anthony-Melton-409081","Eric-Gordon-1077","TJ-Warren-18634","Jonathan-Isaac-37841","Nikola-Vucevic-13296","DeMar-DeRozan-1053","Wendell-Carter-408878","LaMarcus-Aldridge-1349","49800","279.17"
"Lonzo-Ball-37885","DeMar-DeRozan-1053","TJ-Warren-18634","LaMarcus-Aldridge-1349","Nikola-Vucevic-13296","De'Anthony-Melton-409081","Wesley-Matthews-1339","Jonathan-Isaac-37841","50000","279.16"
"Lonzo-Ball-37885","Eric-Gordon-1077","Danilo-Gallinari-1329","Jonathan-Isaac-37841","Deandre-Ayton-409301","De'Anthony-Melton-409081","LaMarcus-Aldridge-1349","Nikola-Vucevic-13296","49700","279.16"
"Shai-Gilgeous-Alexander-408990","Eric-Gordon-1077","TJ-Warren-18634","Wendell-Carter-408878","Clint-Capela-18610","De'Anthony-Melton-409081","LaMarcus-Aldridge-1349","Nikola-Vucevic-13296","50000","279.16"
"Lonzo-Ball-37885","DeMar-DeRozan-1053","Tobias-Harris-13332","TJ-Warren-18634","Nikola-Vucevic-13296","De'Anthony-Melton-409081","Eric-Gordon-1077","Jonathan-Isaac-37841","50000","279.15"
"De'Anthony-Melton-409081","Eric-Gordon-1077","Tobias-Harris-13332","Jonathan-Isaac-37841","Nikola-Vucevic-13296","Justin-Holiday-14559","LaMarcus-Aldridge-1349","Deandre-Ayton-409301","49900","279.1"
"D.J.-Augustin-1064","De'Anthony-Melton-409081","Tobias-Harris-13332","LaMarcus-Aldridge-1349","Nikola-Vucevic-13296","Lonzo-Ball-37885","Eric-Gordon-1077","DeAndre-Jordan-1486","50000","279.1"
"James-Harden-1037","Josh-Hart-37889","Jonathan-Isaac-37841","LaMarcus-Aldridge-1349","JaVale-McGee-1485","De'Anthony-Melton-409081","Eric-Gordon-1077","Nikola-Vucevic-13296","49900","279.02"
"Lonzo-Ball-37885","Eric-Gordon-1077","Danilo-Gallinari-1329","Tobias-Harris-13332","LaMarcus-Aldridge-1349","De'Anthony-Melton-409081","Jonathan-Isaac-37841","Nikola-Vucevic-13296","49800","278.96"
"Lonzo-Ball-37885","Eric-Gordon-1077","Tobias-Harris-13332","Jonathan-Isaac-37841","Deandre-Ayton-409301","De'Anthony-Melton-409081","LaMarcus-Aldridge-1349","Clint-Capela-18610","49700","278.95"
"Lonzo-Ball-37885","DeMar-DeRozan-1053","TJ-Warren-18634","Jonathan-Isaac-37841","Nikola-Vucevic-13296","De'Anthony-Melton-409081","LaMarcus-Aldridge-1349","JaVale-McGee-1485","49900","278.89"
"Shai-Gilgeous-Alexander-408990","De'Anthony-Melton-409081","TJ-Warren-18634","LaMarcus-Aldridge-1349","Deandre-Ayton-409301","Lonzo-Ball-37885","Eric-Gordon-1077","Nikola-Vucevic-13296","49400","278.86"
"James-Harden-1037","Shai-Gilgeous-Alexander-408990","Jonathan-Isaac-37841","LaMarcus-Aldridge-1349","Nikola-Vucevic-13296","D.J.-Augustin-1064","Eric-Gordon-1077","De'Anthony-Melton-409081","49900","278.84"
"Lonzo-Ball-37885","Eric-Gordon-1077","TJ-Warren-18634","LaMarcus-Aldridge-1349","Nikola-Vucevic-13296","De'Anthony-Melton-409081","Trevor-Ariza-1323","Deandre-Ayton-409301","49700","278.81"
"Lonzo-Ball-37885","De'Anthony-Melton-409081","TJ-Warren-18634","Jonathan-Isaac-37841","Nikola-Vucevic-13296","Wesley-Matthews-1339","LaMarcus-Aldridge-1349","Clint-Capela-18610","49700","278.81"
"Lonzo-Ball-37885","Eric-Gordon-1077","Tobias-Harris-13332","TJ-Warren-18634","Nikola-Vucevic-13296","De'Anthony-Melton-409081","Jonathan-Isaac-37841","Clint-Capela-18610","49700","278.8"
"Lonzo-Ball-37885","Eric-Gordon-1077","TJ-Warren-18634","Josh-Jackson-37890","DeAndre-Jordan-1486","De'Anthony-Melton-409081","LaMarcus-Aldridge-1349","Nikola-Vucevic-13296","49700","278.8"
"De'Anthony-Melton-409081","Eric-Gordon-1077","Tobias-Harris-13332","TJ-Warren-18634","Nikola-Vucevic-13296","Patrick-Beverley-14108","LaMarcus-Aldridge-1349","Deandre-Ayton-409301","50000","278.73"
"Josh-Hart-37889","Eric-Gordon-1077","Jonathan-Isaac-37841","LaMarcus-Aldridge-1349","DeAndre-Jordan-1486","De'Anthony-Melton-409081","DeMar-DeRozan-1053","Nikola-Vucevic-13296","50000","278.71"
"Josh-Hart-37889","Eric-Gordon-1077","Jonathan-Isaac-37841","LeBron-James-1227","JaVale-McGee-1485","De'Anthony-Melton-409081","LaMarcus-Aldridge-1349","Nikola-Vucevic-13296","50000","278.66"
"Shai-Gilgeous-Alexander-408990","Eric-Gordon-1077","Tobias-Harris-13332","TJ-Warren-18634","Nikola-Vucevic-13296","Lonzo-Ball-37885","LaMarcus-Aldridge-1349","De'Anthony-Melton-409081","49500","278.66"
"Lonzo-Ball-37885","DeMar-DeRozan-1053","Jonathan-Isaac-37841","Josh-Jackson-37890","Nikola-Vucevic-13296","De'Anthony-Melton-409081","Eric-Gordon-1077","LaMarcus-Aldridge-1349","49600","278.63"
"Shai-Gilgeous-Alexander-408990","De'Anthony-Melton-409081","Eric-Gordon-1077","Josh-Jackson-37890","Clint-Capela-18610","Lonzo-Ball-37885","LaMarcus-Aldridge-1349","Nikola-Vucevic-13296","49800","278.62"
"Lonzo-Ball-37885","Eric-Gordon-1077","Tobias-Harris-13332","TJ-Warren-18634","Nikola-Vucevic-13296","De'Anthony-Melton-409081","LaMarcus-Aldridge-1349","Trevor-Ariza-1323","49800","278.61"
"Shai-Gilgeous-Alexander-408990","De'Anthony-Melton-409081","TJ-Warren-18634","Josh-Jackson-37890","Nikola-Vucevic-13296","Lonzo-Ball-37885","LaMarcus-Aldridge-1349","Deandre-Ayton-409301","49800","278.6"
"Lonzo-Ball-37885","Eric-Gordon-1077","TJ-Warren-18634","Wendell-Carter-408878","DeAndre-Jordan-1486","De'Anthony-Melton-409081","LaMarcus-Aldridge-1349","Nikola-Vucevic-13296","49700","278.6"
"D.J.-Augustin-1064","De'Anthony-Melton-409081","Tobias-Harris-13332","Jonathan-Isaac-37841","Nikola-Vucevic-13296","Lonzo-Ball-37885","LaMarcus-Aldridge-1349","Deandre-Ayton-409301","49600","278.56"
"Josh-Hart-37889","Eric-Gordon-1077","Danilo-Gallinari-1329","TJ-Warren-18634","Deandre-Ayton-409301","De'Anthony-Melton-409081","LaMarcus-Aldridge-1349","Nikola-Vucevic-13296","49900","278.53"
"Shai-Gilgeous-Alexander-408990","Eric-Gordon-1077","Tobias-Harris-13332","Jonathan-Isaac-37841","Nikola-Vucevic-13296","De'Anthony-Melton-409081","LaMarcus-Aldridge-1349","Deandre-Ayton-409301","49500","278.52"
"Lonzo-Ball-37885","Eric-Gordon-1077","TJ-Warren-18634","Jonathan-Isaac-37841","Deandre-Ayton-409301","De'Anthony-Melton-409081","LaMarcus-Aldridge-1349","Nikola-Vucevic-13296","48900","278.52"
"Josh-Hart-37889","De'Anthony-Melton-409081","Eric-Gordon-1077","LaMarcus-Aldridge-1349","Nikola-Vucevic-13296","D.J.-Augustin-1064","DeMar-DeRozan-1053","Deandre-Ayton-409301","50000","278.5"
"De'Anthony-Melton-409081","Eric-Gordon-1077","TJ-Warren-18634","Josh-Jackson-37890","Clint-Capela-18610","Wesley-Matthews-1339","LaMarcus-Aldridge-1349","Nikola-Vucevic-13296","49900","278.5"
"De'Anthony-Melton-409081","Avery-Bradley-941","Tobias-Harris-13332","TJ-Warren-18634","Nikola-Vucevic-13296","Eric-Gordon-1077","LaMarcus-Aldridge-1349","Deandre-Ayton-409301","49900","278.48"
"Shai-Gilgeous-Alexander-408990","De'Anthony-Melton-409081","Jonathan-Isaac-37841","LeBron-James-1227","Nikola-Vucevic-13296","D.J.-Augustin-1064","Eric-Gordon-1077","LaMarcus-Aldridge-1349","50000","278.48"
"Lonzo-Ball-37885","Eric-Gordon-1077","Tobias-Harris-13332","P.J.-Tucker-13947","Nikola-Vucevic-13296","De'Anthony-Melton-409081","LaMarcus-Aldridge-1349","Deandre-Ayton-409301","50000","278.47"
"James-Harden-1037","Shai-Gilgeous-Alexander-408990","Jonathan-Isaac-37841","LaMarcus-Aldridge-1349","Deandre-Ayton-409301","Lonzo-Ball-37885","Eric-Gordon-1077","De'Anthony-Melton-409081","49800","278.47"
"Lonzo-Ball-37885","Eric-Gordon-1077","Jonathan-Isaac-37841","Wendell-Carter-408878","Nikola-Vucevic-13296","De'Anthony-Melton-409081","DeMar-DeRozan-1053","LaMarcus-Aldridge-1349","49600","278.43"
"Shai-Gilgeous-Alexander-408990","De'Anthony-Melton-409081","Eric-Gordon-1077","Wendell-Carter-408878","Nikola-Vucevic-13296","Lonzo-Ball-37885","LaMarcus-Aldridge-1349","Clint-Capela-18610","49800","278.42"
"De'Anthony-Melton-409081","Eric-Gordon-1077","TJ-Warren-18634","Jonathan-Isaac-37841","Nikola-Vucevic-13296","Evan-Fournier-13913","LaMarcus-Aldridge-1349","Clint-Capela-18610","50000","278.42"
"Shai-Gilgeous-Alexander-408990","De'Anthony-Melton-409081","TJ-Warren-18634","Wendell-Carter-408878","Deandre-Ayton-409301","Lonzo-Ball-37885","LaMarcus-Aldridge-1349","Nikola-Vucevic-13296","49800","278.4"
"Shai-Gilgeous-Alexander-408990","De'Anthony-Melton-409081","Tobias-Harris-13332","TJ-Warren-18634","Nikola-Vucevic-13296","Lonzo-Ball-37885","LaMarcus-Aldridge-1349","Josh-Jackson-37890","49900","278.4"
"James-Harden-1037","Eric-Gordon-1077","TJ-Warren-18634","Jonathan-Isaac-37841","Deandre-Ayton-409301","De'Anthony-Melton-409081","LaMarcus-Aldridge-1349","Wesley-Matthews-1339","49900","278.35"
"Josh-Hart-37889","Eric-Gordon-1077","Tobias-Harris-13332","TJ-Warren-18634","Nikola-Vucevic-13296","De'Anthony-Melton-409081","LaMarcus-Aldridge-1349","Danilo-Gallinari-1329","50000","278.33"
"James-Harden-1037","Shai-Gilgeous-Alexander-408990","TJ-Warren-18634","Jonathan-Isaac-37841","Nikola-Vucevic-13296","Lonzo-Ball-37885","Eric-Gordon-1077","De'Anthony-Melton-409081","49800","278.32"
"Josh-Hart-37889","Eric-Gordon-1077","Tobias-Harris-13332","TJ-Warren-18634","Deandre-Ayton-409301","De'Anthony-Melton-409081","LaMarcus-Aldridge-1349","Clint-Capela-18610","49900","278.32"
"Lonzo-Ball-37885","Eric-Gordon-1077","Tobias-Harris-13332","TJ-Warren-18634","Nikola-Vucevic-13296","De'Anthony-Melton-409081","LaMarcus-Aldridge-1349","Jonathan-Isaac-37841","49000","278.32"
"Josh-Hart-37889","De'Anthony-Melton-409081","TJ-Warren-18634","Jonathan-Isaac-37841","LaMarcus-Aldridge-1349","Lonzo-Ball-37885","DeMar-DeRozan-1053","Nikola-Vucevic-13296","49600","278.31"
"De'Anthony-Melton-409081","Eric-Gordon-1077","TJ-Warren-18634","Wendell-Carter-408878","Clint-Capela-18610","Wesley-Matthews-1339","LaMarcus-Aldridge-1349","Nikola-Vucevic-13296","49900","278.3"
"Lonzo-Ball-37885","Eric-Gordon-1077","Jonathan-Isaac-37841","Josh-Jackson-37890","Nikola-Vucevic-13296","De'Anthony-Melton-409081","LaMarcus-Aldridge-1349","Clint-Capela-18610","49300","278.28"
"James-Harden-1037","Shai-Gilgeous-Alexander-408990","Tobias-Harris-13332","Jonathan-Isaac-37841","LaMarcus-Aldridge-1349","Lonzo-Ball-37885","Eric-Gordon-1077","De'Anthony-Melton-409081","49900","278.27"
"D.J.-Augustin-1064","Eric-Gordon-1077","Tobias-Harris-13332","Josh-Jackson-37890","Nikola-Vucevic-13296","De'Anthony-Melton-409081","LaMarcus-Aldridge-1349","Deandre-Ayton-409301","49800","278.25"
"Lonzo-Ball-37885","De'Anthony-Melton-409081","Tobias-Harris-13332","Jonathan-Isaac-37841","Nikola-Vucevic-13296","Wesley-Matthews-1339","LaMarcus-Aldridge-1349","DeAndre-Jordan-1486","50000","278.25"
"Lonzo-Ball-37885","Eric-Gordon-1077","TJ-Warren-18634","Bobby-Portis-18909","Nikola-Vucevic-13296","De'Anthony-Melton-409081","LaMarcus-Aldridge-1349","Deandre-Ayton-409301","50000","278.23"
"Shai-Gilgeous-Alexander-408990","De'Anthony-Melton-409081","Tobias-Harris-13332","TJ-Warren-18634","Nikola-Vucevic-13296","Lonzo-Ball-37885","LaMarcus-Aldridge-1349","Wendell-Carter-408878","49900","278.2"
"Lonzo-Ball-37885","Eric-Gordon-1077","Harrison-Barnes-13901","Josh-Jackson-37890","Nikola-Vucevic-13296","De'Anthony-Melton-409081","LaMarcus-Aldridge-1349","Deandre-Ayton-409301","50000","278.18"
"Lonzo-Ball-37885","DeMar-DeRozan-1053","Jonathan-Isaac-37841","Josh-Jackson-37890","Nikola-Vucevic-13296","De'Anthony-Melton-409081","LaMarcus-Aldridge-1349","Wendell-Carter-408878","50000","278.17"
"James-Harden-1037","Eric-Gordon-1077","Tobias-Harris-13332","Jonathan-Isaac-37841","LaMarcus-Aldridge-1349","De'Anthony-Melton-409081","Wesley-Matthews-1339","TJ-Warren-18634","50000","278.15"
"Derrick-White-37858","De'Anthony-Melton-409081","Tobias-Harris-13332","LaMarcus-Aldridge-1349","Nikola-Vucevic-13296","Lonzo-Ball-37885","Eric-Gordon-1077","Deandre-Ayton-409301","50000","278.14"
"Lonzo-Ball-37885","Eric-Gordon-1077","DeMar-DeRozan-1053","Josh-Jackson-37890","Nikola-Vucevic-13296","De'Anthony-Melton-409081","Wesley-Matthews-1339","LaMarcus-Aldridge-1349","50000","278.11"
"Shai-Gilgeous-Alexander-408990","De'Anthony-Melton-409081","Jonathan-Isaac-37841","LeBron-James-1227","Deandre-Ayton-409301","Lonzo-Ball-37885","Eric-Gordon-1077","LaMarcus-Aldridge-1349","49900","278.11"
"Lonzo-Ball-37885","Eric-Gordon-1077","Jonathan-Isaac-37841","Wendell-Carter-408878","Nikola-Vucevic-13296","De'Anthony-Melton-409081","LaMarcus-Aldridge-1349","Clint-Capela-18610","49300","278.08"
"James-Harden-1037","Eric-Gordon-1077","TJ-Warren-18634","Jonathan-Isaac-37841","Deandre-Ayton-409301","De'Anthony-Melton-409081","LaMarcus-Aldridge-1349","JaVale-McGee-1485","49800","278.08"
"D.J.-Augustin-1064","Eric-Gordon-1077","Tobias-Harris-13332","Wendell-Carter-408878","Nikola-Vucevic-13296","De'Anthony-Melton-409081","LaMarcus-Aldridge-1349","Deandre-Ayton-409301","49800","278.05"
"D.J.-Augustin-1064","De'Anthony-Melton-409081","Tobias-Harris-13332","LaMarcus-Aldridge-1349","Deandre-Ayton-409301","Lonzo-Ball-37885","Wesley-Matthews-1339","Nikola-Vucevic-13296","50000","278.04"
"Josh-Hart-37889","Eric-Gordon-1077","TJ-Warren-18634","Josh-Jackson-37890","LaMarcus-Aldridge-1349","De'Anthony-Melton-409081","DeMar-DeRozan-1053","Nikola-Vucevic-13296","49800","278.0"
"Shai-Gilgeous-Alexander-408990","De'Anthony-Melton-409081","Tobias-Harris-13332","LaMarcus-Aldridge-1349","Nikola-Vucevic-13296","Wesley-Matthews-1339","Eric-Gordon-1077","Deandre-Ayton-409301","49900","278.0"
"Lonzo-Ball-37885","Eric-Gordon-1077","TJ-Warren-18634","LaMarcus-Aldridge-1349","Nikola-Vucevic-13296","De'Anthony-Melton-409081","Wesley-Matthews-1339","Deandre-Ayton-409301","49300","278.0"
"De'Anthony-Melton-409081","Eric-Gordon-1077","TJ-Warren-18634","Jonathan-Isaac-37841","Deandre-Ayton-409301","Wesley-Matthews-1339","LaMarcus-Aldridge-1349","LeBron-James-1227","50000","277.99"
"Lonzo-Ball-37885","De'Anthony-Melton-409081","Tobias-Harris-13332","LaMarcus-Aldridge-1349","Nikola-Vucevic-13296","Patrick-Beverley-14108","Eric-Gordon-1077","Deandre-Ayton-409301","49800","277.99"
"Lonzo-Ball-37885","Eric-Gordon-1077","Harrison-Barnes-13901","Wendell-Carter-408878","Nikola-Vucevic-13296","De'Anthony-Melton-409081","LaMarcus-Aldridge-1349","Deandre-Ayton-409301","50000","277.98"
"Josh-Hart-37889","De'Anthony-Melton-409081","Eric-Gordon-1077","TJ-Warren-18634","Deandre-Ayton-409301","Lonzo-Ball-37885","DeMar-DeRozan-1053","Nikola-Vucevic-13296","49900","277.98"
"James-Harden-1037","Eric-Gordon-1077","Jonathan-Isaac-37841","LaMarcus-Aldridge-1349","Nikola-Vucevic-13296","D.J.-Augustin-1064","Wesley-Matthews-1339","De'Anthony-Melton-409081","49800","277.98"
"Shai-Gilgeous-Alexander-408990","Eric-Gordon-1077","TJ-Warren-18634","Jonathan-Isaac-37841","Nikola-Vucevic-13296","Lonzo-Ball-37885","LeBron-James-1227","De'Anthony-Melton-409081","49900","277.96"
"Shai-Gilgeous-Alexander-408990","Josh-Hart-37889","Tobias-Harris-13332","Jonathan-Isaac-37841","Nikola-Vucevic-13296","De'Anthony-Melton-409081","LaMarcus-Aldridge-1349","Clint-Capela-18610","49900","277.96"
"Josh-Hart-37889","De'Anthony-Melton-409081","TJ-Warren-18634","Jonathan-Isaac-37841","Nikola-Vucevic-13296","Lonzo-Ball-37885","LaMarcus-Aldridge-1349","Clint-Capela-18610","49300","277.96"
"Josh-Hart-37889","De'Anthony-Melton-409081","Tobias-Harris-13332","LaMarcus-Aldridge-1349","Nikola-Vucevic-13296","D.J.-Augustin-1064","Eric-Gordon-1077","Clint-Capela-18610","49800","277.95"
