"Lonzo-Ball-37885","Jamal-Murray-35211","Brandon-Ingram-35227","LeBron-James-1227","Tyson-Chandler-1482","Gary-Harris-18617","Wesley-Matthews-1339","Nikola-Jokic-31812","50000","271.61"

"Lonzo-Ball-37885","Jamal-Murray-35211","Brandon-Ingram-35227","LeBron-James-1227","Tyson-Chandler-1482","Gary-Harris-18617","Wesley-Matthews-1339","Nikola-Jokic-31812","50000","271.61"
"Lonzo-Ball-37885","Jamal-Murray-35211","Kyle-Kuzma-37886","LeBron-James-1227","Tyson-Chandler-1482","Gary-Harris-18617","Wesley-Matthews-1339","Nikola-Jokic-31812","49900","270.77"
"Lonzo-Ball-37885","Wesley-Matthews-1339","LeBron-James-1227","Juan-Hernangomez-35212","DeAndre-Jordan-1486","Gary-Harris-18617","Brandon-Ingram-35227","Jusuf-Nurkic-18619","49800","270.6"
"Lonzo-Ball-37885","Gary-Harris-18617","LeBron-James-1227","Juan-Hernangomez-35212","Tyson-Chandler-1482","Damian-Lillard-13900","Wesley-Matthews-1339","Jusuf-Nurkic-18619","49800","270.47"
"Lonzo-Ball-37885","Jamal-Murray-35211","Al-Farouq-Aminu-1279","LeBron-James-1227","Nikola-Jokic-31812","Gary-Harris-18617","Brandon-Ingram-35227","Tyson-Chandler-1482","50000","270.43"
"Lonzo-Ball-37885","Gary-Harris-18617","Kyle-Kuzma-37886","Al-Farouq-Aminu-1279","Jusuf-Nurkic-18619","Damian-Lillard-13900","Wesley-Matthews-1339","Nikola-Jokic-31812","50000","270.43"
"Lonzo-Ball-37885","Gary-Harris-18617","Kyle-Kuzma-37886","Trey-Lyles-18942","DeAndre-Jordan-1486","Brandon-Ingram-35227","LeBron-James-1227","Jusuf-Nurkic-18619","50000","270.32"
"Lonzo-Ball-37885","Gary-Harris-18617","Kyle-Kuzma-37886","Trey-Lyles-18942","Tyson-Chandler-1482","Damian-Lillard-13900","LeBron-James-1227","Jusuf-Nurkic-18619","50000","270.19"
"Lonzo-Ball-37885","Jamal-Murray-35211","Brandon-Ingram-35227","LeBron-James-1227","Jusuf-Nurkic-18619","Gary-Harris-18617","Wesley-Matthews-1339","JaVale-McGee-1485","50000","269.98"
"Lonzo-Ball-37885","Jamal-Murray-35211","LeBron-James-1227","Paul-Millsap-1335","Tyson-Chandler-1482","Gary-Harris-18617","Brandon-Ingram-35227","Jusuf-Nurkic-18619","49800","269.9"
"Lonzo-Ball-37885","C.J.-McCollum-17121","Brandon-Ingram-35227","LeBron-James-1227","Tyson-Chandler-1482","Gary-Harris-18617","Wesley-Matthews-1339","Nikola-Jokic-31812","49800","269.81"
"Lonzo-Ball-37885","Wesley-Matthews-1339","Kyle-Kuzma-37886","LeBron-James-1227","Jusuf-Nurkic-18619","Gary-Harris-18617","Juan-Hernangomez-35212","DeAndre-Jordan-1486","49700","269.76"
"Lonzo-Ball-37885","Jamal-Murray-35211","Trey-Lyles-18942","LeBron-James-1227","Jusuf-Nurkic-18619","Gary-Harris-18617","Wesley-Matthews-1339","DeAndre-Jordan-1486","49900","269.74"
"Lonzo-Ball-37885","Gary-Harris-18617","Trey-Lyles-18942","LeBron-James-1227","Nikola-Jokic-31812","Monte-Morris-37860","Brandon-Ingram-35227","Jusuf-Nurkic-18619","50000","269.68"
"Lonzo-Ball-37885","Jamal-Murray-35211","Kyle-Kuzma-37886","Al-Farouq-Aminu-1279","Nikola-Jokic-31812","Gary-Harris-18617","LeBron-James-1227","Tyson-Chandler-1482","49900","269.59"
"Lonzo-Ball-37885","Wesley-Matthews-1339","Kyle-Kuzma-37886","LeBron-James-1227","Jusuf-Nurkic-18619","Brandon-Ingram-35227","Juan-Hernangomez-35212","DeAndre-Jordan-1486","50000","269.51"
"Lonzo-Ball-37885","Jamal-Murray-35211","Kyle-Kuzma-37886","LeBron-James-1227","Jusuf-Nurkic-18619","Gary-Harris-18617","Brandon-Ingram-35227","Tyson-Chandler-1482","49300","269.49"
"Lonzo-Ball-37885","Wesley-Matthews-1339","Al-Farouq-Aminu-1279","LeBron-James-1227","DeAndre-Jordan-1486","Gary-Harris-18617","Brandon-Ingram-35227","Jusuf-Nurkic-18619","49500","269.45"
"Lonzo-Ball-37885","Gary-Harris-18617","Al-Farouq-Aminu-1279","LeBron-James-1227","Jusuf-Nurkic-18619","Brandon-Ingram-35227","Juan-Hernangomez-35212","DeAndre-Jordan-1486","49800","269.42"
"Lonzo-Ball-37885","Wesley-Matthews-1339","Kyle-Kuzma-37886","LeBron-James-1227","Tyson-Chandler-1482","Damian-Lillard-13900","Juan-Hernangomez-35212","Jusuf-Nurkic-18619","50000","269.38"
"Lonzo-Ball-37885","Gary-Harris-18617","Al-Farouq-Aminu-1279","LeBron-James-1227","Jusuf-Nurkic-18619","Damian-Lillard-13900","Wesley-Matthews-1339","Tyson-Chandler-1482","49500","269.32"
"Lonzo-Ball-37885","Gary-Harris-18617","Al-Farouq-Aminu-1279","LeBron-James-1227","Tyson-Chandler-1482","Damian-Lillard-13900","Juan-Hernangomez-35212","Jusuf-Nurkic-18619","49800","269.29"
"Lonzo-Ball-37885","Gary-Harris-18617","LeBron-James-1227","Zach-Collins-37866","Tyson-Chandler-1482","Damian-Lillard-13900","Brandon-Ingram-35227","Jusuf-Nurkic-18619","50000","269.26"
"Lonzo-Ball-37885","Jamal-Murray-35211","Kyle-Kuzma-37886","LeBron-James-1227","Jusuf-Nurkic-18619","Gary-Harris-18617","Wesley-Matthews-1339","JaVale-McGee-1485","49900","269.14"
"Lonzo-Ball-37885","Gary-Harris-18617","LeBron-James-1227","Juan-Hernangomez-35212","Nikola-Jokic-31812","Monte-Morris-37860","Wesley-Matthews-1339","Jusuf-Nurkic-18619","49700","269.12"
"Lonzo-Ball-37885","Wesley-Matthews-1339","Al-Farouq-Aminu-1279","LeBron-James-1227","Jusuf-Nurkic-18619","Damian-Lillard-13900","Brandon-Ingram-35227","Tyson-Chandler-1482","49800","269.07"
"Damian-Lillard-13900","Wesley-Matthews-1339","Kyle-Kuzma-37886","LeBron-James-1227","Tyson-Chandler-1482","Gary-Harris-18617","Juan-Hernangomez-35212","Jusuf-Nurkic-18619","50000","269.06"
"Lonzo-Ball-37885","Jamal-Murray-35211","Kyle-Kuzma-37886","Paul-Millsap-1335","Jusuf-Nurkic-18619","Gary-Harris-18617","LeBron-James-1227","Tyson-Chandler-1482","49700","269.06"
"Lonzo-Ball-37885","Wesley-Matthews-1339","Al-Farouq-Aminu-1279","Paul-Millsap-1335","DeAndre-Jordan-1486","Gary-Harris-18617","LeBron-James-1227","Jusuf-Nurkic-18619","49900","269.02"
"Lonzo-Ball-37885","C.J.-McCollum-17121","Kyle-Kuzma-37886","LeBron-James-1227","Tyson-Chandler-1482","Gary-Harris-18617","Wesley-Matthews-1339","Nikola-Jokic-31812","49700","268.97"
"Lonzo-Ball-37885","C.J.-McCollum-17121","Kyle-Kuzma-37886","LeBron-James-1227","Tyson-Chandler-1482","Gary-Harris-18617","Juan-Hernangomez-35212","Nikola-Jokic-31812","50000","268.94"
"Lonzo-Ball-37885","Wesley-Matthews-1339","LeBron-James-1227","Juan-Hernangomez-35212","Nikola-Jokic-31812","Monte-Morris-37860","Brandon-Ingram-35227","Jusuf-Nurkic-18619","50000","268.87"
"Lonzo-Ball-37885","Gary-Harris-18617","Kyle-Kuzma-37886","Trey-Lyles-18942","Nikola-Jokic-31812","Monte-Morris-37860","LeBron-James-1227","Jusuf-Nurkic-18619","49900","268.84"
"Lonzo-Ball-37885","Jamal-Murray-35211","Kyle-Kuzma-37886","Paul-Millsap-1335","Jusuf-Nurkic-18619","Brandon-Ingram-35227","LeBron-James-1227","Tyson-Chandler-1482","50000","268.81"
"Lonzo-Ball-37885","Gary-Harris-18617","Kyle-Kuzma-37886","LeBron-James-1227","Tyson-Chandler-1482","Dennis-Smith-Jr.-37847","Brandon-Ingram-35227","Nikola-Jokic-31812","49900","268.8"
"Lonzo-Ball-37885","Jamal-Murray-35211","Al-Farouq-Aminu-1279","LeBron-James-1227","Jusuf-Nurkic-18619","Gary-Harris-18617","Brandon-Ingram-35227","JaVale-McGee-1485","50000","268.8"
"Lonzo-Ball-37885","Wesley-Matthews-1339","Harrison-Barnes-13901","LeBron-James-1227","Jusuf-Nurkic-18619","Gary-Harris-18617","Juan-Hernangomez-35212","DeAndre-Jordan-1486","50000","268.8"
"Lonzo-Ball-37885","Gary-Harris-18617","LeBron-James-1227","Juan-Hernangomez-35212","Tyson-Chandler-1482","Damian-Lillard-13900","Wesley-Matthews-1339","DeAndre-Jordan-1486","50000","268.75"
"Damian-Lillard-13900","Wesley-Matthews-1339","Al-Farouq-Aminu-1279","LeBron-James-1227","Jusuf-Nurkic-18619","Gary-Harris-18617","Brandon-Ingram-35227","Tyson-Chandler-1482","49800","268.75"
"Lonzo-Ball-37885","Wesley-Matthews-1339","Kyle-Kuzma-37886","LeBron-James-1227","Tyson-Chandler-1482","C.J.-McCollum-17121","Brandon-Ingram-35227","Nikola-Jokic-31812","50000","268.72"
"Lonzo-Ball-37885","C.J.-McCollum-17121","Al-Farouq-Aminu-1279","LeBron-James-1227","Nikola-Jokic-31812","Gary-Harris-18617","Brandon-Ingram-35227","Tyson-Chandler-1482","49800","268.63"
"Lonzo-Ball-37885","Wesley-Matthews-1339","Kyle-Kuzma-37886","Al-Farouq-Aminu-1279","DeAndre-Jordan-1486","Gary-Harris-18617","LeBron-James-1227","Jusuf-Nurkic-18619","49400","268.61"
"Lonzo-Ball-37885","Gary-Harris-18617","Brandon-Ingram-35227","Kyle-Kuzma-37886","Jusuf-Nurkic-18619","Damian-Lillard-13900","Wesley-Matthews-1339","DeAndre-Jordan-1486","49600","268.61"
"Lonzo-Ball-37885","Gary-Harris-18617","Kyle-Kuzma-37886","Juan-Hernangomez-35212","DeAndre-Jordan-1486","Damian-Lillard-13900","Brandon-Ingram-35227","Jusuf-Nurkic-18619","49900","268.58"
"Lonzo-Ball-37885","Jamal-Murray-35211","Trey-Lyles-18942","Al-Farouq-Aminu-1279","Jusuf-Nurkic-18619","Gary-Harris-18617","LeBron-James-1227","DeAndre-Jordan-1486","49900","268.56"
"Monte-Morris-37860","Wesley-Matthews-1339","LeBron-James-1227","Juan-Hernangomez-35212","Nikola-Jokic-31812","Gary-Harris-18617","Brandon-Ingram-35227","Jusuf-Nurkic-18619","50000","268.55"
"Lonzo-Ball-37885","Gary-Harris-18617","Kyle-Kuzma-37886","Zach-Collins-37866","Jusuf-Nurkic-18619","Brandon-Ingram-35227","LeBron-James-1227","DeAndre-Jordan-1486","49900","268.55"
"Lonzo-Ball-37885","Jamal-Murray-35211","Harrison-Barnes-13901","LeBron-James-1227","Jusuf-Nurkic-18619","Gary-Harris-18617","Brandon-Ingram-35227","Tyson-Chandler-1482","49600","268.53"
"Lonzo-Ball-37885","Wesley-Matthews-1339","LeBron-James-1227","Juan-Hernangomez-35212","Nikola-Jokic-31812","Gary-Harris-18617","Evan-Turner-1291","Jusuf-Nurkic-18619","50000","268.51"
"Jamal-Murray-35211","Gary-Harris-18617","Kyle-Kuzma-37886","Paul-Millsap-1335","Jusuf-Nurkic-18619","Brandon-Ingram-35227","LeBron-James-1227","Tyson-Chandler-1482","50000","268.49"
"Lonzo-Ball-37885","Gary-Harris-18617","Kyle-Kuzma-37886","Zach-Collins-37866","Jusuf-Nurkic-18619","Damian-Lillard-13900","LeBron-James-1227","Tyson-Chandler-1482","49900","268.42"
"C.J.-McCollum-17121","Wesley-Matthews-1339","Kyle-Kuzma-37886","LeBron-James-1227","Tyson-Chandler-1482","Gary-Harris-18617","Brandon-Ingram-35227","Nikola-Jokic-31812","50000","268.4"
"Lonzo-Ball-37885","Wesley-Matthews-1339","Kyle-Kuzma-37886","Al-Farouq-Aminu-1279","DeAndre-Jordan-1486","Brandon-Ingram-35227","LeBron-James-1227","Jusuf-Nurkic-18619","49700","268.36"
"Lonzo-Ball-37885","Wesley-Matthews-1339","Trey-Lyles-18942","LeBron-James-1227","Jusuf-Nurkic-18619","Gary-Harris-18617","Juan-Hernangomez-35212","Nikola-Jokic-31812","49500","268.3"
"Lonzo-Ball-37885","Wesley-Matthews-1339","Kyle-Kuzma-37886","Al-Farouq-Aminu-1279","Tyson-Chandler-1482","Damian-Lillard-13900","LeBron-James-1227","Jusuf-Nurkic-18619","49700","268.23"
"Lonzo-Ball-37885","Gary-Harris-18617","Kyle-Kuzma-37886","LeBron-James-1227","Jusuf-Nurkic-18619","Luka-Doncic-408971","Brandon-Ingram-35227","Tyson-Chandler-1482","49600","268.18"
"Lonzo-Ball-37885","Gary-Harris-18617","Kyle-Kuzma-37886","Paul-Millsap-1335","Jusuf-Nurkic-18619","Damian-Lillard-13900","Wesley-Matthews-1339","DeAndre-Jordan-1486","50000","268.18"
"Lonzo-Ball-37885","C.J.-McCollum-17121","Brandon-Ingram-35227","LeBron-James-1227","Jusuf-Nurkic-18619","Gary-Harris-18617","Wesley-Matthews-1339","JaVale-McGee-1485","49800","268.18"
"Lonzo-Ball-37885","Jamal-Murray-35211","LeBron-James-1227","Paul-Millsap-1335","Tyson-Chandler-1482","Gary-Harris-18617","Brandon-Ingram-35227","DeAndre-Jordan-1486","50000","268.18"
"Lonzo-Ball-37885","Jamal-Murray-35211","Harrison-Barnes-13901","Paul-Millsap-1335","Jusuf-Nurkic-18619","Gary-Harris-18617","LeBron-James-1227","Tyson-Chandler-1482","50000","268.1"
"Lonzo-Ball-37885","C.J.-McCollum-17121","LeBron-James-1227","Paul-Millsap-1335","Tyson-Chandler-1482","Gary-Harris-18617","Brandon-Ingram-35227","Jusuf-Nurkic-18619","49600","268.1"
"Lonzo-Ball-37885","Wesley-Matthews-1339","Trey-Lyles-18942","LeBron-James-1227","Jusuf-Nurkic-18619","Brandon-Ingram-35227","Juan-Hernangomez-35212","Nikola-Jokic-31812","49800","268.05"
"Lonzo-Ball-37885","Wesley-Matthews-1339","Kyle-Kuzma-37886","LeBron-James-1227","Nikola-Jokic-31812","Monte-Morris-37860","Juan-Hernangomez-35212","Jusuf-Nurkic-18619","49900","268.03"
"Lonzo-Ball-37885","C.J.-McCollum-17121","Harrison-Barnes-13901","LeBron-James-1227","Nikola-Jokic-31812","Gary-Harris-18617","Wesley-Matthews-1339","Tyson-Chandler-1482","50000","268.01"
"Lonzo-Ball-37885","Gary-Harris-18617","Kyle-Kuzma-37886","LeBron-James-1227","Paul-Millsap-1335","Brandon-Ingram-35227","Wesley-Matthews-1339","Jusuf-Nurkic-18619","49900","267.98"
"Lonzo-Ball-37885","Jamal-Murray-35211","Brandon-Ingram-35227","Kyle-Kuzma-37886","Jusuf-Nurkic-18619","C.J.-McCollum-17121","Wesley-Matthews-1339","Nikola-Jokic-31812","49800","267.97"
"Lonzo-Ball-37885","Jamal-Murray-35211","LeBron-James-1227","Zach-Collins-37866","Jusuf-Nurkic-18619","Gary-Harris-18617","Wesley-Matthews-1339","DeAndre-Jordan-1486","49800","267.97"
"Lonzo-Ball-37885","Gary-Harris-18617","Al-Farouq-Aminu-1279","LeBron-James-1227","Jusuf-Nurkic-18619","Monte-Morris-37860","Wesley-Matthews-1339","Nikola-Jokic-31812","49400","267.97"
"Lonzo-Ball-37885","Jamal-Murray-35211","Kyle-Kuzma-37886","Al-Farouq-Aminu-1279","JaVale-McGee-1485","Gary-Harris-18617","LeBron-James-1227","Jusuf-Nurkic-18619","49900","267.96"
"Lonzo-Ball-37885","Gary-Harris-18617","Al-Farouq-Aminu-1279","LeBron-James-1227","Nikola-Jokic-31812","Monte-Morris-37860","Juan-Hernangomez-35212","Jusuf-Nurkic-18619","49700","267.94"
"Lonzo-Ball-37885","C.J.-McCollum-17121","Trey-Lyles-18942","LeBron-James-1227","Jusuf-Nurkic-18619","Gary-Harris-18617","Wesley-Matthews-1339","DeAndre-Jordan-1486","49700","267.94"
"Lonzo-Ball-37885","Gary-Harris-18617","LeBron-James-1227","Zach-Collins-37866","Nikola-Jokic-31812","Monte-Morris-37860","Brandon-Ingram-35227","Jusuf-Nurkic-18619","49900","267.91"
"Lonzo-Ball-37885","C.J.-McCollum-17121","Trey-Lyles-18942","LeBron-James-1227","DeAndre-Jordan-1486","Gary-Harris-18617","Juan-Hernangomez-35212","Jusuf-Nurkic-18619","50000","267.91"
"Damian-Lillard-13900","Wesley-Matthews-1339","Kyle-Kuzma-37886","Al-Farouq-Aminu-1279","Tyson-Chandler-1482","Gary-Harris-18617","LeBron-James-1227","Jusuf-Nurkic-18619","49700","267.91"
"Lonzo-Ball-37885","C.J.-McCollum-17121","Harrison-Barnes-13901","Kyle-Kuzma-37886","Jusuf-Nurkic-18619","Gary-Harris-18617","Brandon-Ingram-35227","Nikola-Jokic-31812","49900","267.84"
"Lonzo-Ball-37885","Jamal-Murray-35211","Brandon-Ingram-35227","LeBron-James-1227","Jusuf-Nurkic-18619","Gary-Harris-18617","Wesley-Matthews-1339","Juan-Hernangomez-35212","49700","267.8"
"Lonzo-Ball-37885","C.J.-McCollum-17121","Kyle-Kuzma-37886","Al-Farouq-Aminu-1279","Nikola-Jokic-31812","Gary-Harris-18617","LeBron-James-1227","Tyson-Chandler-1482","49700","267.79"
"Lonzo-Ball-37885","Jamal-Murray-35211","Kyle-Kuzma-37886","LeBron-James-1227","Tyson-Chandler-1482","Gary-Harris-18617","Brandon-Ingram-35227","DeAndre-Jordan-1486","49500","267.77"
"Lonzo-Ball-37885","Gary-Harris-18617","Trey-Lyles-18942","LeBron-James-1227","DeAndre-Jordan-1486","Dennis-Smith-Jr.-37847","Brandon-Ingram-35227","Jusuf-Nurkic-18619","49900","267.77"
"Lonzo-Ball-37885","Wesley-Matthews-1339","Al-Farouq-Aminu-1279","LeBron-James-1227","Jusuf-Nurkic-18619","Jamal-Murray-35211","Juan-Hernangomez-35212","DeAndre-Jordan-1486","49900","267.75"
"Lonzo-Ball-37885","Gary-Harris-18617","Kyle-Kuzma-37886","Paul-Millsap-1335","Jusuf-Nurkic-18619","Luka-Doncic-408971","LeBron-James-1227","Tyson-Chandler-1482","50000","267.75"
"Lonzo-Ball-37885","Wesley-Matthews-1339","Kyle-Kuzma-37886","LeBron-James-1227","Nikola-Jokic-31812","Gary-Harris-18617","Maurice-Harkless-16971","Jusuf-Nurkic-18619","50000","267.75"
"Lonzo-Ball-37885","Wesley-Matthews-1339","Al-Farouq-Aminu-1279","LeBron-James-1227","Jusuf-Nurkic-18619","Monte-Morris-37860","Brandon-Ingram-35227","Nikola-Jokic-31812","49700","267.72"
"Monte-Morris-37860","Wesley-Matthews-1339","Kyle-Kuzma-37886","LeBron-James-1227","Nikola-Jokic-31812","Gary-Harris-18617","Juan-Hernangomez-35212","Jusuf-Nurkic-18619","49900","267.71"
"Lonzo-Ball-37885","Brandon-Ingram-35227","Al-Farouq-Aminu-1279","LeBron-James-1227","Nikola-Jokic-31812","Monte-Morris-37860","Juan-Hernangomez-35212","Jusuf-Nurkic-18619","50000","267.69"
"Lonzo-Ball-37885","Jamal-Murray-35211","Harrison-Barnes-13901","Kyle-Kuzma-37886","Jusuf-Nurkic-18619","Gary-Harris-18617","LeBron-James-1227","Tyson-Chandler-1482","49500","267.69"
"Lonzo-Ball-37885","C.J.-McCollum-17121","Kyle-Kuzma-37886","LeBron-James-1227","Jusuf-Nurkic-18619","Gary-Harris-18617","Brandon-Ingram-35227","Tyson-Chandler-1482","49100","267.69"
"Lonzo-Ball-37885","Wesley-Matthews-1339","Trey-Lyles-18942","LeBron-James-1227","DeAndre-Jordan-1486","C.J.-McCollum-17121","Brandon-Ingram-35227","Jusuf-Nurkic-18619","50000","267.69"
"Lonzo-Ball-37885","Gary-Harris-18617","Kentavious-Caldwell-Pope-16869","LeBron-James-1227","Tyson-Chandler-1482","Damian-Lillard-13900","Brandon-Ingram-35227","Jusuf-Nurkic-18619","49900","267.68"
"Damian-Lillard-13900","Wesley-Matthews-1339","Kyle-Kuzma-37886","Al-Farouq-Aminu-1279","Tyson-Chandler-1482","Brandon-Ingram-35227","LeBron-James-1227","Jusuf-Nurkic-18619","50000","267.66"
"Jamal-Murray-35211","C.J.-McCollum-17121","Brandon-Ingram-35227","Kyle-Kuzma-37886","Jusuf-Nurkic-18619","Gary-Harris-18617","Wesley-Matthews-1339","Nikola-Jokic-31812","49800","267.65"
"Lonzo-Ball-37885","Gary-Harris-18617","Brandon-Ingram-35227","Harrison-Barnes-13901","DeAndre-Jordan-1486","Damian-Lillard-13900","Wesley-Matthews-1339","Jusuf-Nurkic-18619","49900","267.65"
"Lonzo-Ball-37885","Wesley-Matthews-1339","Harrison-Barnes-13901","Al-Farouq-Aminu-1279","Jusuf-Nurkic-18619","Gary-Harris-18617","LeBron-James-1227","DeAndre-Jordan-1486","49700","267.65"
"Lonzo-Ball-37885","Gary-Harris-18617","Al-Farouq-Aminu-1279","LeBron-James-1227","DeAndre-Jordan-1486","Damian-Lillard-13900","Wesley-Matthews-1339","Tyson-Chandler-1482","49700","267.6"
"Lonzo-Ball-37885","Gary-Harris-18617","Al-Farouq-Aminu-1279","LeBron-James-1227","Tyson-Chandler-1482","Damian-Lillard-13900","Juan-Hernangomez-35212","DeAndre-Jordan-1486","50000","267.57"
"Lonzo-Ball-37885","C.J.-McCollum-17121","Trey-Lyles-18942","LeBron-James-1227","Tyson-Chandler-1482","Damian-Lillard-13900","Wesley-Matthews-1339","Jusuf-Nurkic-18619","50000","267.56"
"Lonzo-Ball-37885","C.J.-McCollum-17121","Kyle-Kuzma-37886","Al-Farouq-Aminu-1279","Nikola-Jokic-31812","Brandon-Ingram-35227","LeBron-James-1227","Tyson-Chandler-1482","50000","267.54"
"Lonzo-Ball-37885","Jamal-Murray-35211","Kyle-Kuzma-37886","LeBron-James-1227","Jusuf-Nurkic-18619","Gary-Harris-18617","Brandon-Ingram-35227","Trey-Lyles-18942","49900","267.52"
"Lonzo-Ball-37885","Jamal-Murray-35211","Harrison-Barnes-13901","Kyle-Kuzma-37886","Jusuf-Nurkic-18619","Brandon-Ingram-35227","LeBron-James-1227","Tyson-Chandler-1482","49800","267.44"
"Lonzo-Ball-37885","Gary-Harris-18617","Kyle-Kuzma-37886","Al-Farouq-Aminu-1279","DeAndre-Jordan-1486","Damian-Lillard-13900","Brandon-Ingram-35227","Jusuf-Nurkic-18619","49600","267.43"
