"De'Anthony-Melton-409081","Seth-Curry-16825","Tim-Hardaway-Jr.-16879","Al-Horford-1499","Jusuf-Nurkic-18619","James-Harden-1037","Evan-Turner-1291","Chris-Paul-1087","50000","266.28"
"De'Anthony-Melton-409081","Seth-Curry-16825","Mikal-Bridges-408842","Al-Horford-1499","Jusuf-Nurkic-18619","James-Harden-1037","Evan-Turner-1291","Damian-Lillard-13900","49900","265.87"
"De'Anthony-Melton-409081","James-Harden-1037","Nik-Stauskas-18636","Al-Horford-1499","Jusuf-Nurkic-18619","Damian-Lillard-13900","Evan-Turner-1291","Elie-Okobo-409300","49900","265.6"
"De'Anthony-Melton-409081","Seth-Curry-16825","Nik-Stauskas-18636","Al-Horford-1499","Jusuf-Nurkic-18619","James-Harden-1037","Marcus-Morris-13316","Damian-Lillard-13900","50000","265.57"

"De'Anthony-Melton-409081","Seth-Curry-16825","Tim-Hardaway-Jr.-16879","Al-Horford-1499","Jusuf-Nurkic-18619","James-Harden-1037","Evan-Turner-1291","Chris-Paul-1087","50000","266.28"
"De'Anthony-Melton-409081","Seth-Curry-16825","Mikal-Bridges-408842","Al-Horford-1499","Jusuf-Nurkic-18619","James-Harden-1037","Evan-Turner-1291","Damian-Lillard-13900","49900","265.87"
"De'Anthony-Melton-409081","James-Harden-1037","Nik-Stauskas-18636","Al-Horford-1499","Jusuf-Nurkic-18619","Damian-Lillard-13900","Evan-Turner-1291","Elie-Okobo-409300","49900","265.6"
"De'Anthony-Melton-409081","Seth-Curry-16825","Nik-Stauskas-18636","Al-Horford-1499","Jusuf-Nurkic-18619","James-Harden-1037","Marcus-Morris-13316","Damian-Lillard-13900","50000","265.57"
"Seth-Curry-16825","James-Harden-1037","Nik-Stauskas-18636","Al-Horford-1499","Jusuf-Nurkic-18619","Evan-Turner-1291","Marcus-Morris-13316","Damian-Lillard-13900","50000","265.52"
"De'Anthony-Melton-409081","James-Harden-1037","Mikal-Bridges-408842","Al-Horford-1499","Jusuf-Nurkic-18619","Nik-Stauskas-18636","Evan-Turner-1291","Damian-Lillard-13900","50000","265.29"
"De'Anthony-Melton-409081","Seth-Curry-16825","Tim-Hardaway-Jr.-16879","Al-Horford-1499","Jusuf-Nurkic-18619","James-Harden-1037","Evan-Turner-1291","Donovan-Mitchell-37875","49900","265.27"
"Seth-Curry-16825","James-Harden-1037","Josh-Jackson-37890","Al-Horford-1499","Jusuf-Nurkic-18619","Damian-Lillard-13900","Nik-Stauskas-18636","Elie-Okobo-409300","49900","265.11"
