"Derrick-Rose-1086","Andrew-Wiggins-18620","James-Johnson-1195","Dorian-Finney-Smith-36032","Anthony-Davis-13895","Kevin-Huerter-408969","Dewayne-Dedmon-16894","Julius-Randle-18632","49900","284.33"
"Derrick-Rose-1086","Andrew-Wiggins-18620","Dorian-Finney-Smith-36032","Julius-Randle-18632","Hassan-Whiteside-18664","DeAndre-Bembry-35198","Dewayne-Dedmon-16894","Karl-Anthony-Towns-18937","50000","283.34"
"Derrick-Rose-1086","Kevin-Huerter-408969","James-Johnson-1195","Julius-Randle-18632","Hassan-Whiteside-18664","E'Twaun-Moore-18582","Dewayne-Dedmon-16894","Karl-Anthony-Towns-18937","49800","283.31"
"Derrick-Rose-1086","Andrew-Wiggins-18620","James-Johnson-1195","Julius-Randle-18632","Karl-Anthony-Towns-18937","E'Twaun-Moore-18582","Harrison-Barnes-13901","Dewayne-Dedmon-16894","49900","283.2"
"Justise-Winslow-18921","Andrew-Wiggins-18620","Kevin-Huerter-408969","Julius-Randle-18632","Hassan-Whiteside-18664","E'Twaun-Moore-18582","Dewayne-Dedmon-16894","Karl-Anthony-Towns-18937","49900","283.04"

"Derrick-Rose-1086","Andrew-Wiggins-18620","James-Johnson-1195","Dorian-Finney-Smith-36032","Anthony-Davis-13895","Kevin-Huerter-408969","Dewayne-Dedmon-16894","Julius-Randle-18632","49900","284.33"
"Derrick-Rose-1086","Andrew-Wiggins-18620","Dorian-Finney-Smith-36032","Julius-Randle-18632","Hassan-Whiteside-18664","DeAndre-Bembry-35198","Dewayne-Dedmon-16894","Karl-Anthony-Towns-18937","50000","283.34"
"Derrick-Rose-1086","Kevin-Huerter-408969","James-Johnson-1195","Julius-Randle-18632","Hassan-Whiteside-18664","E'Twaun-Moore-18582","Dewayne-Dedmon-16894","Karl-Anthony-Towns-18937","49800","283.31"
"Derrick-Rose-1086","Andrew-Wiggins-18620","James-Johnson-1195","Julius-Randle-18632","Karl-Anthony-Towns-18937","E'Twaun-Moore-18582","Harrison-Barnes-13901","Dewayne-Dedmon-16894","49900","283.2"
"Justise-Winslow-18921","Andrew-Wiggins-18620","Kevin-Huerter-408969","Julius-Randle-18632","Hassan-Whiteside-18664","E'Twaun-Moore-18582","Dewayne-Dedmon-16894","Karl-Anthony-Towns-18937","49900","283.04"
"Justise-Winslow-18921","Andrew-Wiggins-18620","James-Johnson-1195","Julius-Randle-18632","Hassan-Whiteside-18664","Jeremy-Lin-916","Dewayne-Dedmon-16894","Karl-Anthony-Towns-18937","49900","282.68"
"Derrick-Rose-1086","Andrew-Wiggins-18620","Dorian-Finney-Smith-36032","Julius-Randle-18632","Karl-Anthony-Towns-18937","Kent-Bazemore-13987","Dewayne-Dedmon-16894","James-Johnson-1195","49800","282.66"
"Derrick-Rose-1086","Andrew-Wiggins-18620","Dorian-Finney-Smith-36032","Robert-Covington-16874","Karl-Anthony-Towns-18937","Kevin-Huerter-408969","Dewayne-Dedmon-16894","Julius-Randle-18632","49700","282.64"
"Jeremy-Lin-916","Andrew-Wiggins-18620","Kevin-Huerter-408969","Julius-Randle-18632","Hassan-Whiteside-18664","Kent-Bazemore-13987","Dewayne-Dedmon-16894","Karl-Anthony-Towns-18937","50000","282.62"
"Derrick-Rose-1086","Andrew-Wiggins-18620","James-Johnson-1195","Julius-Randle-18632","Dewayne-Dedmon-16894","Kevin-Huerter-408969","John-Collins-37823","Hassan-Whiteside-18664","49700","282.45"
"Derrick-Rose-1086","Andrew-Wiggins-18620","James-Johnson-1195","Dorian-Finney-Smith-36032","Anthony-Davis-13895","E'Twaun-Moore-18582","Dewayne-Dedmon-16894","Julius-Randle-18632","49700","282.44"
"Jeremy-Lin-916","Andrew-Wiggins-18620","Kevin-Huerter-408969","Dewayne-Dedmon-16894","Hassan-Whiteside-18664","E'Twaun-Moore-18582","Anthony-Davis-13895","Julius-Randle-18632","49900","282.4"
"Derrick-Rose-1086","Andrew-Wiggins-18620","James-Johnson-1195","Robert-Covington-16874","Hassan-Whiteside-18664","Jordan-Clarkson-18631","Dewayne-Dedmon-16894","Julius-Randle-18632","50000","282.15"
"Dwyane-Wade-967","Andrew-Wiggins-18620","James-Johnson-1195","Julius-Randle-18632","Hassan-Whiteside-18664","Kevin-Huerter-408969","Dewayne-Dedmon-16894","Karl-Anthony-Towns-18937","49500","282.14"
"Jeremy-Lin-916","Andrew-Wiggins-18620","Robert-Covington-16874","Julius-Randle-18632","Karl-Anthony-Towns-18937","E'Twaun-Moore-18582","Dewayne-Dedmon-16894","Hassan-Whiteside-18664","49900","282.07"
"Dwyane-Wade-967","Andrew-Wiggins-18620","Harrison-Barnes-13901","Julius-Randle-18632","Anthony-Davis-13895","Kevin-Huerter-408969","Dewayne-Dedmon-16894","James-Johnson-1195","50000","281.95"
"Trae-Young-409063","Andrew-Wiggins-18620","Dorian-Finney-Smith-36032","Julius-Randle-18632","Hassan-Whiteside-18664","Kevin-Huerter-408969","Dewayne-Dedmon-16894","Karl-Anthony-Towns-18937","49900","281.9"
"Derrick-Rose-1086","E'Twaun-Moore-18582","Andrew-Wiggins-18620","Dewayne-Dedmon-16894","Karl-Anthony-Towns-18937","Justise-Winslow-18921","Kevin-Huerter-408969","Julius-Randle-18632","49900","281.86"
"Derrick-Rose-1086","Kevin-Huerter-408969","Andrew-Wiggins-18620","Harrison-Barnes-13901","Karl-Anthony-Towns-18937","E'Twaun-Moore-18582","Dewayne-Dedmon-16894","Julius-Randle-18632","49700","281.84"
"Derrick-Rose-1086","Andrew-Wiggins-18620","James-Johnson-1195","Robert-Covington-16874","Hassan-Whiteside-18664","Justise-Winslow-18921","Dewayne-Dedmon-16894","Julius-Randle-18632","49800","281.81"
"Derrick-Rose-1086","Andrew-Wiggins-18620","Kevin-Huerter-408969","Julius-Randle-18632","Hassan-Whiteside-18664","Kent-Bazemore-13987","Dewayne-Dedmon-16894","Robert-Covington-16874","49900","281.75"
"Dennis-Smith-Jr.-37847","Andrew-Wiggins-18620","James-Johnson-1195","Julius-Randle-18632","Hassan-Whiteside-18664","Kevin-Huerter-408969","Dewayne-Dedmon-16894","Karl-Anthony-Towns-18937","49500","281.74"
"Alec-Burks-13353","Andrew-Wiggins-18620","Dorian-Finney-Smith-36032","Julius-Randle-18632","Hassan-Whiteside-18664","Kent-Bazemore-13987","Dewayne-Dedmon-16894","Karl-Anthony-Towns-18937","50000","281.73"
"Derrick-Rose-1086","Andrew-Wiggins-18620","Dorian-Finney-Smith-36032","Julius-Randle-18632","Karl-Anthony-Towns-18937","Jordan-Clarkson-18631","Dewayne-Dedmon-16894","James-Johnson-1195","49700","281.7"
"Jordan-Clarkson-18631","Andrew-Wiggins-18620","Kevin-Huerter-408969","Julius-Randle-18632","Hassan-Whiteside-18664","Jeremy-Lin-916","Dewayne-Dedmon-16894","Karl-Anthony-Towns-18937","49900","281.66"
"Derrick-Rose-1086","Kevin-Huerter-408969","James-Johnson-1195","Julius-Randle-18632","Hassan-Whiteside-18664","Jeremy-Lin-916","Dewayne-Dedmon-16894","Karl-Anthony-Towns-18937","49600","281.59"
"Dennis-Smith-Jr.-37847","Andrew-Wiggins-18620","Harrison-Barnes-13901","Julius-Randle-18632","Anthony-Davis-13895","Kevin-Huerter-408969","Dewayne-Dedmon-16894","James-Johnson-1195","50000","281.55"
"Derrick-Rose-1086","Andrew-Wiggins-18620","James-Johnson-1195","Robert-Covington-16874","Hassan-Whiteside-18664","Kevin-Huerter-408969","Dewayne-Dedmon-16894","Karl-Anthony-Towns-18937","49900","281.55"
"Jeremy-Lin-916","Kevin-Huerter-408969","Dorian-Finney-Smith-36032","Julius-Randle-18632","Anthony-Davis-13895","E'Twaun-Moore-18582","Dewayne-Dedmon-16894","Karl-Anthony-Towns-18937","50000","281.54"
"Jordan-Clarkson-18631","Andrew-Wiggins-18620","Dorian-Finney-Smith-36032","Julius-Randle-18632","Hassan-Whiteside-18664","Kevin-Huerter-408969","Dewayne-Dedmon-16894","Karl-Anthony-Towns-18937","49500","281.52"
"Alec-Burks-13353","Andrew-Wiggins-18620","Dorian-Finney-Smith-36032","Julius-Randle-18632","Anthony-Davis-13895","E'Twaun-Moore-18582","Dewayne-Dedmon-16894","Hassan-Whiteside-18664","49900","281.51"
"Derrick-Rose-1086","Andrew-Wiggins-18620","James-Johnson-1195","Julius-Randle-18632","Karl-Anthony-Towns-18937","Jeremy-Lin-916","Justise-Winslow-18921","Dewayne-Dedmon-16894","49900","281.5"
"Derrick-Rose-1086","Andrew-Wiggins-18620","James-Johnson-1195","Julius-Randle-18632","Karl-Anthony-Towns-18937","Jeremy-Lin-916","Harrison-Barnes-13901","Dewayne-Dedmon-16894","49700","281.48"
"Derrick-Rose-1086","Jeremy-Lin-916","Andrew-Wiggins-18620","Dewayne-Dedmon-16894","Karl-Anthony-Towns-18937","Kent-Bazemore-13987","Kevin-Huerter-408969","Julius-Randle-18632","50000","281.44"
"Derrick-Rose-1086","Dwyane-Wade-967","Dorian-Finney-Smith-36032","Julius-Randle-18632","Hassan-Whiteside-18664","Kevin-Huerter-408969","Dewayne-Dedmon-16894","Karl-Anthony-Towns-18937","49800","281.43"
"Dwyane-Wade-967","Andrew-Wiggins-18620","James-Johnson-1195","Julius-Randle-18632","Hassan-Whiteside-18664","Alec-Burks-13353","Dewayne-Dedmon-16894","Karl-Anthony-Towns-18937","49900","281.39"
"Derrick-Rose-1086","Andrew-Wiggins-18620","Cedi-Osman-18912","Julius-Randle-18632","Karl-Anthony-Towns-18937","Kevin-Huerter-408969","Harrison-Barnes-13901","Dewayne-Dedmon-16894","49900","281.37"
"Derrick-Rose-1086","Andrew-Wiggins-18620","Dorian-Finney-Smith-36032","Julius-Randle-18632","Karl-Anthony-Towns-18937","Justise-Winslow-18921","Dewayne-Dedmon-16894","James-Johnson-1195","49500","281.36"
"Jordan-Clarkson-18631","Andrew-Wiggins-18620","James-Johnson-1195","Julius-Randle-18632","Hassan-Whiteside-18664","DeAndre-Bembry-35198","Dewayne-Dedmon-16894","Karl-Anthony-Towns-18937","49900","281.34"
"Jordan-Clarkson-18631","Andrew-Wiggins-18620","Harrison-Barnes-13901","Julius-Randle-18632","Anthony-Davis-13895","Kevin-Huerter-408969","Dewayne-Dedmon-16894","Dorian-Finney-Smith-36032","50000","281.33"
"Jeremy-Lin-916","Andrew-Wiggins-18620","Justise-Winslow-18921","Julius-Randle-18632","Karl-Anthony-Towns-18937","Kevin-Huerter-408969","Dewayne-Dedmon-16894","Hassan-Whiteside-18664","49700","281.32"
"Derrick-Rose-1086","Andrew-Wiggins-18620","Dorian-Finney-Smith-36032","Julius-Randle-18632","Dewayne-Dedmon-16894","Dwyane-Wade-967","Harrison-Barnes-13901","Karl-Anthony-Towns-18937","49900","281.32"
"Justise-Winslow-18921","Andrew-Wiggins-18620","Dorian-Finney-Smith-36032","Julius-Randle-18632","Dewayne-Dedmon-16894","Kevin-Huerter-408969","John-Collins-37823","Karl-Anthony-Towns-18937","49900","281.32"
"Jeremy-Lin-916","Andrew-Wiggins-18620","Harrison-Barnes-13901","Julius-Randle-18632","Hassan-Whiteside-18664","Kevin-Huerter-408969","Dewayne-Dedmon-16894","Karl-Anthony-Towns-18937","49500","281.3"
"Derrick-Rose-1086","Andrew-Wiggins-18620","Dorian-Finney-Smith-36032","Dewayne-Dedmon-16894","Karl-Anthony-Towns-18937","Kevin-Huerter-408969","Kent-Bazemore-13987","Julius-Randle-18632","49600","281.3"
"Derrick-Rose-1086","Kevin-Huerter-408969","James-Johnson-1195","Dorian-Finney-Smith-36032","Anthony-Davis-13895","Justise-Winslow-18921","Dewayne-Dedmon-16894","Julius-Randle-18632","49900","281.28"
"Derrick-Rose-1086","Jeremy-Lin-916","Andrew-Wiggins-18620","Dewayne-Dedmon-16894","Anthony-Davis-13895","E'Twaun-Moore-18582","Kevin-Huerter-408969","Julius-Randle-18632","49900","281.22"
"Derrick-Rose-1086","Alec-Burks-13353","Kevin-Huerter-408969","Julius-Randle-18632","Hassan-Whiteside-18664","E'Twaun-Moore-18582","Dewayne-Dedmon-16894","Karl-Anthony-Towns-18937","50000","281.2"
"Justise-Winslow-18921","Andrew-Wiggins-18620","Dorian-Finney-Smith-36032","Julius-Randle-18632","Hassan-Whiteside-18664","Kevin-Huerter-408969","Dewayne-Dedmon-16894","Karl-Anthony-Towns-18937","49300","281.18"
"Derrick-Rose-1086","Andrew-Wiggins-18620","James-Johnson-1195","Julius-Randle-18632","Dewayne-Dedmon-16894","Kevin-Huerter-408969","Maxi-Kleber-37845","Anthony-Davis-13895","49900","281.16"
"Derrick-Rose-1086","Andrew-Wiggins-18620","James-Johnson-1195","Dewayne-Dedmon-16894","Karl-Anthony-Towns-18937","DeAndre-Bembry-35198","Kent-Bazemore-13987","Julius-Randle-18632","50000","281.12"
"Derrick-Rose-1086","Andrew-Wiggins-18620","Kevin-Huerter-408969","Julius-Randle-18632","Karl-Anthony-Towns-18937","DeAndre-Bembry-35198","Robert-Covington-16874","Dewayne-Dedmon-16894","49900","281.1"
"Derrick-Rose-1086","Andrew-Wiggins-18620","Dorian-Finney-Smith-36032","Julius-Randle-18632","Dewayne-Dedmon-16894","Kevin-Huerter-408969","E'Twaun-Moore-18582","Anthony-Davis-13895","49500","281.08"
"Derrick-Rose-1086","Kevin-Huerter-408969","Dorian-Finney-Smith-36032","Julius-Randle-18632","Hassan-Whiteside-18664","Dennis-Smith-Jr.-37847","Dewayne-Dedmon-16894","Karl-Anthony-Towns-18937","49800","281.03"
"Trae-Young-409063","Andrew-Wiggins-18620","Robert-Covington-16874","Julius-Randle-18632","Karl-Anthony-Towns-18937","Kevin-Huerter-408969","Dewayne-Dedmon-16894","James-Johnson-1195","50000","281.02"
"Justise-Winslow-18921","Andrew-Wiggins-18620","James-Johnson-1195","Julius-Randle-18632","Hassan-Whiteside-18664","DeAndre-Bembry-35198","Dewayne-Dedmon-16894","Karl-Anthony-Towns-18937","49700","281.0"
"Dennis-Smith-Jr.-37847","Andrew-Wiggins-18620","James-Johnson-1195","Julius-Randle-18632","Hassan-Whiteside-18664","Alec-Burks-13353","Dewayne-Dedmon-16894","Karl-Anthony-Towns-18937","49900","280.99"
"Justise-Winslow-18921","Andrew-Wiggins-18620","Harrison-Barnes-13901","Julius-Randle-18632","Anthony-Davis-13895","Kevin-Huerter-408969","Dewayne-Dedmon-16894","Dorian-Finney-Smith-36032","49800","280.99"
"Derrick-Rose-1086","Kevin-Huerter-408969","James-Johnson-1195","Julius-Randle-18632","Hassan-Whiteside-18664","Tim-Frazier-18743","Dewayne-Dedmon-16894","Karl-Anthony-Towns-18937","50000","280.98"
"Derrick-Rose-1086","Andrew-Wiggins-18620","James-Johnson-1195","Dewayne-Dedmon-16894","Karl-Anthony-Towns-18937","Dwyane-Wade-967","Kevin-Huerter-408969","Julius-Randle-18632","49500","280.96"
"Derrick-Rose-1086","Andrew-Wiggins-18620","Dorian-Finney-Smith-36032","Julius-Randle-18632","Dewayne-Dedmon-16894","Dennis-Smith-Jr.-37847","Harrison-Barnes-13901","Karl-Anthony-Towns-18937","49900","280.92"
"Derrick-Rose-1086","Andrew-Wiggins-18620","DeAndre-Bembry-35198","Julius-Randle-18632","Anthony-Davis-13895","E'Twaun-Moore-18582","Dewayne-Dedmon-16894","James-Johnson-1195","49900","280.9"
"Derrick-Rose-1086","Andrew-Wiggins-18620","Robert-Covington-16874","Julius-Randle-18632","Dewayne-Dedmon-16894","Jeremy-Lin-916","E'Twaun-Moore-18582","Karl-Anthony-Towns-18937","49900","280.89"
"Derrick-Rose-1086","Kevin-Huerter-408969","Dorian-Finney-Smith-36032","Robert-Covington-16874","Karl-Anthony-Towns-18937","Kent-Bazemore-13987","Dewayne-Dedmon-16894","Julius-Randle-18632","50000","280.89"
"Derrick-Rose-1086","Jeremy-Lin-916","James-Johnson-1195","Julius-Randle-18632","Hassan-Whiteside-18664","Alec-Burks-13353","Dewayne-Dedmon-16894","Karl-Anthony-Towns-18937","50000","280.84"
"Derrick-Rose-1086","Jordan-Clarkson-18631","James-Johnson-1195","Dewayne-Dedmon-16894","Hassan-Whiteside-18664","Kent-Bazemore-13987","Andrew-Wiggins-18620","Julius-Randle-18632","49900","280.81"
"Derrick-Rose-1086","Andrew-Wiggins-18620","Kevin-Huerter-408969","Julius-Randle-18632","Hassan-Whiteside-18664","Jordan-Clarkson-18631","Dewayne-Dedmon-16894","Robert-Covington-16874","49800","280.79"
"Jordan-Clarkson-18631","Andrew-Wiggins-18620","Dorian-Finney-Smith-36032","Julius-Randle-18632","Hassan-Whiteside-18664","Alec-Burks-13353","Dewayne-Dedmon-16894","Karl-Anthony-Towns-18937","49900","280.77"
"Derrick-Rose-1086","Andrew-Wiggins-18620","Dorian-Finney-Smith-36032","Robert-Covington-16874","Karl-Anthony-Towns-18937","E'Twaun-Moore-18582","Dewayne-Dedmon-16894","Julius-Randle-18632","49500","280.75"
"Jeremy-Lin-916","Andrew-Wiggins-18620","E'Twaun-Moore-18582","Julius-Randle-18632","Hassan-Whiteside-18664","Kent-Bazemore-13987","Dewayne-Dedmon-16894","Karl-Anthony-Towns-18937","49800","280.73"
"Derrick-Rose-1086","Andrew-Wiggins-18620","James-Johnson-1195","Dorian-Finney-Smith-36032","Anthony-Davis-13895","Jeremy-Lin-916","Dewayne-Dedmon-16894","Julius-Randle-18632","49500","280.72"
"Trae-Young-409063","Derrick-Rose-1086","Dorian-Finney-Smith-36032","Julius-Randle-18632","Dewayne-Dedmon-16894","Kevin-Huerter-408969","Andrew-Wiggins-18620","Karl-Anthony-Towns-18937","49900","280.72"
"Derrick-Rose-1086","Kevin-Huerter-408969","James-Johnson-1195","Julius-Randle-18632","Dewayne-Dedmon-16894","Kent-Bazemore-13987","John-Collins-37823","Hassan-Whiteside-18664","50000","280.7"
"Tim-Frazier-18743","Andrew-Wiggins-18620","Harrison-Barnes-13901","Julius-Randle-18632","Hassan-Whiteside-18664","Kevin-Huerter-408969","Dewayne-Dedmon-16894","Karl-Anthony-Towns-18937","49900","280.69"
"Derrick-Rose-1086","Kent-Bazemore-13987","James-Johnson-1195","Dorian-Finney-Smith-36032","Anthony-Davis-13895","E'Twaun-Moore-18582","Dewayne-Dedmon-16894","Julius-Randle-18632","50000","280.69"
"Justise-Winslow-18921","Andrew-Wiggins-18620","Cedi-Osman-18912","Julius-Randle-18632","Hassan-Whiteside-18664","E'Twaun-Moore-18582","Dewayne-Dedmon-16894","Karl-Anthony-Towns-18937","49900","280.68"
"Jeremy-Lin-916","Andrew-Wiggins-18620","Dorian-Finney-Smith-36032","Julius-Randle-18632","Dewayne-Dedmon-16894","Kevin-Huerter-408969","John-Collins-37823","Anthony-Davis-13895","49900","280.68"
"Derrick-Rose-1086","Kevin-Huerter-408969","Dorian-Finney-Smith-36032","Robert-Covington-16874","Anthony-Davis-13895","E'Twaun-Moore-18582","Dewayne-Dedmon-16894","Julius-Randle-18632","49900","280.67"
"Jordan-Clarkson-18631","Andrew-Wiggins-18620","Robert-Covington-16874","Julius-Randle-18632","Karl-Anthony-Towns-18937","Kevin-Huerter-408969","Dewayne-Dedmon-16894","James-Johnson-1195","49600","280.64"
"Alec-Burks-13353","Andrew-Wiggins-18620","James-Johnson-1195","Julius-Randle-18632","Anthony-Davis-13895","E'Twaun-Moore-18582","Robert-Covington-16874","Dewayne-Dedmon-16894","50000","280.63"
"Derrick-Rose-1086","Andrew-Wiggins-18620","Dorian-Finney-Smith-36032","Julius-Randle-18632","Anthony-Davis-13895","Kevin-Huerter-408969","Taj-Gibson-1277","Dewayne-Dedmon-16894","49900","280.61"
"Derrick-Rose-1086","Andrew-Wiggins-18620","Dorian-Finney-Smith-36032","Julius-Randle-18632","Anthony-Davis-13895","Kevin-Huerter-408969","Cedi-Osman-18912","Dewayne-Dedmon-16894","49700","280.61"
"Jrue-Holiday-1073","Andrew-Wiggins-18620","James-Johnson-1195","Robert-Covington-16874","Hassan-Whiteside-18664","Kevin-Huerter-408969","Dewayne-Dedmon-16894","Julius-Randle-18632","50000","280.6"
"Derrick-Rose-1086","Andrew-Wiggins-18620","Harrison-Barnes-13901","Julius-Randle-18632","Dewayne-Dedmon-16894","Kevin-Huerter-408969","Robert-Covington-16874","John-Collins-37823","50000","280.57"
"Derrick-Rose-1086","Andrew-Wiggins-18620","James-Johnson-1195","Dewayne-Dedmon-16894","Karl-Anthony-Towns-18937","Dennis-Smith-Jr.-37847","Kevin-Huerter-408969","Julius-Randle-18632","49500","280.56"
"Derrick-Rose-1086","Andrew-Wiggins-18620","James-Johnson-1195","Julius-Randle-18632","Dewayne-Dedmon-16894","E'Twaun-Moore-18582","John-Collins-37823","Hassan-Whiteside-18664","49500","280.56"
"Jeremy-Lin-916","Andrew-Wiggins-18620","Harrison-Barnes-13901","Julius-Randle-18632","Hassan-Whiteside-18664","Alec-Burks-13353","Dewayne-Dedmon-16894","Karl-Anthony-Towns-18937","49900","280.55"
"Derrick-Rose-1086","Dwyane-Wade-967","Robert-Covington-16874","Julius-Randle-18632","Karl-Anthony-Towns-18937","Kevin-Huerter-408969","Dewayne-Dedmon-16894","James-Johnson-1195","49900","280.55"
"Derrick-Rose-1086","Andrew-Wiggins-18620","Dorian-Finney-Smith-36032","Dewayne-Dedmon-16894","Karl-Anthony-Towns-18937","Alec-Burks-13353","Kent-Bazemore-13987","Julius-Randle-18632","50000","280.55"
"Jeremy-Lin-916","Andrew-Wiggins-18620","Dorian-Finney-Smith-36032","Julius-Randle-18632","Anthony-Davis-13895","Kevin-Huerter-408969","Dewayne-Dedmon-16894","Hassan-Whiteside-18664","49300","280.54"
"Derrick-Rose-1086","Rodney-McGruder-16850","Dorian-Finney-Smith-36032","Julius-Randle-18632","Hassan-Whiteside-18664","Andrew-Wiggins-18620","Dewayne-Dedmon-16894","Karl-Anthony-Towns-18937","49900","280.48"
"Derrick-Rose-1086","Jordan-Clarkson-18631","Andrew-Wiggins-18620","Dewayne-Dedmon-16894","Karl-Anthony-Towns-18937","Jeremy-Lin-916","Kevin-Huerter-408969","Julius-Randle-18632","49900","280.48"
"Derrick-Rose-1086","Kent-Bazemore-13987","James-Johnson-1195","Dewayne-Dedmon-16894","Hassan-Whiteside-18664","Justise-Winslow-18921","Andrew-Wiggins-18620","Julius-Randle-18632","49700","280.47"
"Matthew-Dellavedova-16839","Andrew-Wiggins-18620","Robert-Covington-16874","Julius-Randle-18632","Karl-Anthony-Towns-18937","Kevin-Huerter-408969","Dewayne-Dedmon-16894","Hassan-Whiteside-18664","50000","280.45"
"Derrick-Rose-1086","Andrew-Wiggins-18620","Harrison-Barnes-13901","Julius-Randle-18632","Hassan-Whiteside-18664","Kent-Bazemore-13987","Dewayne-Dedmon-16894","James-Johnson-1195","49500","280.45"
"Derrick-Rose-1086","Andrew-Wiggins-18620","Kevin-Huerter-408969","Julius-Randle-18632","Hassan-Whiteside-18664","Justise-Winslow-18921","Dewayne-Dedmon-16894","Robert-Covington-16874","49600","280.45"
"Derrick-Rose-1086","Andrew-Wiggins-18620","Harrison-Barnes-13901","Julius-Randle-18632","Hassan-Whiteside-18664","Kevin-Huerter-408969","Dewayne-Dedmon-16894","Robert-Covington-16874","49400","280.43"
"Justise-Winslow-18921","Andrew-Wiggins-18620","Dorian-Finney-Smith-36032","Julius-Randle-18632","Hassan-Whiteside-18664","Alec-Burks-13353","Dewayne-Dedmon-16894","Karl-Anthony-Towns-18937","49700","280.43"
"Derrick-Rose-1086","Andrew-Wiggins-18620","James-Johnson-1195","Julius-Randle-18632","Karl-Anthony-Towns-18937","Jeremy-Lin-916","Kevin-Huerter-408969","Hassan-Whiteside-18664","49900","280.42"
"Dwyane-Wade-967","Kevin-Huerter-408969","James-Johnson-1195","Julius-Randle-18632","Hassan-Whiteside-18664","Kent-Bazemore-13987","Dewayne-Dedmon-16894","Karl-Anthony-Towns-18937","49800","280.39"
