"Patrick-Beverley-14108","Jeremy-Lamb-13955","DeMar-DeRozan-1053","Josh-Jackson-37890","LaMarcus-Aldridge-1349","Dennis-Schroder-18595","Eric-Gordon-1077","Andre-Drummond-13904","50000","295.82"
"Patrick-Beverley-14108","Eric-Gordon-1077","Jeremy-Lamb-13955","Dario-Saric-36004","LaMarcus-Aldridge-1349","DeMar-DeRozan-1053","Tobias-Harris-13332","Andre-Drummond-13904","49900","295.74"
"Reggie-Jackson-13352","Patrick-Beverley-14108","Jeremy-Lamb-13955","Jerami-Grant-18576","Andre-Drummond-13904","DeMar-DeRozan-1053","Tobias-Harris-13332","LaMarcus-Aldridge-1349","49900","295.69"
"Patrick-Beverley-14108","Jeremy-Lamb-13955","Tobias-Harris-13332","LaMarcus-Aldridge-1349","Andre-Drummond-13904","Dennis-Schroder-18595","Dario-Saric-36004","Marc-Gasol-1493","49800","294.89"

"Patrick-Beverley-14108","Jeremy-Lamb-13955","DeMar-DeRozan-1053","Josh-Jackson-37890","LaMarcus-Aldridge-1349","Dennis-Schroder-18595","Eric-Gordon-1077","Andre-Drummond-13904","50000","295.82"
"Patrick-Beverley-14108","Eric-Gordon-1077","Jeremy-Lamb-13955","Dario-Saric-36004","LaMarcus-Aldridge-1349","DeMar-DeRozan-1053","Tobias-Harris-13332","Andre-Drummond-13904","49900","295.74"
"Reggie-Jackson-13352","Patrick-Beverley-14108","Jeremy-Lamb-13955","Jerami-Grant-18576","Andre-Drummond-13904","DeMar-DeRozan-1053","Tobias-Harris-13332","LaMarcus-Aldridge-1349","49900","295.69"
"Patrick-Beverley-14108","Jeremy-Lamb-13955","Tobias-Harris-13332","LaMarcus-Aldridge-1349","Andre-Drummond-13904","Dennis-Schroder-18595","Dario-Saric-36004","Marc-Gasol-1493","49800","294.89"
"Patrick-Beverley-14108","Dennis-Schroder-18595","Josh-Jackson-37890","LaMarcus-Aldridge-1349","JaVale-McGee-1485","DeMar-DeRozan-1053","Jeremy-Lamb-13955","Andre-Drummond-13904","49900","294.87"
"Patrick-Beverley-14108","Jeremy-Lamb-13955","DeMar-DeRozan-1053","Josh-Jackson-37890","LaMarcus-Aldridge-1349","Lonzo-Ball-37885","Eric-Gordon-1077","Andre-Drummond-13904","49800","294.87"
"Patrick-Beverley-14108","Jeremy-Lamb-13955","Josh-Jackson-37890","Danilo-Gallinari-1329","LaMarcus-Aldridge-1349","DeMar-DeRozan-1053","Dario-Saric-36004","Andre-Drummond-13904","49900","294.83"
"Patrick-Beverley-14108","Jeremy-Lamb-13955","Tobias-Harris-13332","LaMarcus-Aldridge-1349","Andre-Drummond-13904","DeMar-DeRozan-1053","Dario-Saric-36004","JaVale-McGee-1485","49800","294.79"
"Patrick-Beverley-14108","Eric-Gordon-1077","Jeremy-Lamb-13955","Jerami-Grant-18576","Andre-Drummond-13904","DeMar-DeRozan-1053","Tobias-Harris-13332","LaMarcus-Aldridge-1349","49600","294.65"
"Patrick-Beverley-14108","Dennis-Schroder-18595","DeMar-DeRozan-1053","LaMarcus-Aldridge-1349","JaVale-McGee-1485","Lonzo-Ball-37885","Jeremy-Lamb-13955","Andre-Drummond-13904","50000","294.56"
"Patrick-Beverley-14108","DeMar-DeRozan-1053","Danilo-Gallinari-1329","Dario-Saric-36004","Andre-Drummond-13904","Lonzo-Ball-37885","Jeremy-Lamb-13955","LaMarcus-Aldridge-1349","50000","294.52"
"Patrick-Beverley-14108","Dennis-Schroder-18595","Danilo-Gallinari-1329","Jerami-Grant-18576","LaMarcus-Aldridge-1349","DeMar-DeRozan-1053","Jeremy-Lamb-13955","Andre-Drummond-13904","49900","294.38"
"Reggie-Jackson-13352","Patrick-Beverley-14108","Tobias-Harris-13332","LaMarcus-Aldridge-1349","Marc-Gasol-1493","Jeremy-Lamb-13955","Eric-Gordon-1077","Andre-Drummond-13904","49700","294.18"
"Patrick-Beverley-14108","Jeremy-Lamb-13955","Josh-Jackson-37890","Danilo-Gallinari-1329","Andre-Drummond-13904","Dennis-Schroder-18595","LaMarcus-Aldridge-1349","Tobias-Harris-13332","49900","294.17"
"Patrick-Beverley-14108","Jeremy-Lamb-13955","Josh-Jackson-37890","LaMarcus-Aldridge-1349","Andre-Drummond-13904","Jeff-Teague-1005","DeMar-DeRozan-1053","Dario-Saric-36004","49800","294.02"
"Patrick-Beverley-14108","Dennis-Schroder-18595","Josh-Jackson-37890","LaMarcus-Aldridge-1349","Andre-Drummond-13904","Lonzo-Ball-37885","Jeremy-Lamb-13955","Marc-Gasol-1493","49700","294.02"
"Reggie-Jackson-13352","Patrick-Beverley-14108","DeMar-DeRozan-1053","LaMarcus-Aldridge-1349","Andre-Drummond-13904","Jeff-Teague-1005","Eric-Gordon-1077","Jeremy-Lamb-13955","50000","293.95"
"Patrick-Beverley-14108","Jeremy-Lamb-13955","Tobias-Harris-13332","LaMarcus-Aldridge-1349","Marc-Gasol-1493","Jeff-Teague-1005","Jerami-Grant-18576","Andre-Drummond-13904","49900","293.95"
"Patrick-Beverley-14108","Jeremy-Lamb-13955","Tobias-Harris-13332","LaMarcus-Aldridge-1349","Andre-Drummond-13904","Lonzo-Ball-37885","Dario-Saric-36004","Marc-Gasol-1493","49600","293.94"
"Patrick-Beverley-14108","DeMar-DeRozan-1053","Josh-Jackson-37890","LaMarcus-Aldridge-1349","JaVale-McGee-1485","Lonzo-Ball-37885","Jeremy-Lamb-13955","Andre-Drummond-13904","49700","293.92"
"Reggie-Jackson-13352","Patrick-Beverley-14108","Danilo-Gallinari-1329","LaMarcus-Aldridge-1349","Andre-Drummond-13904","Dennis-Schroder-18595","Jeremy-Lamb-13955","Marc-Gasol-1493","50000","293.91"
"Patrick-Beverley-14108","Jeremy-Lamb-13955","Josh-Jackson-37890","LaMarcus-Aldridge-1349","Andre-Drummond-13904","Dennis-Schroder-18595","DeMar-DeRozan-1053","Dario-Saric-36004","49400","293.87"
"Patrick-Beverley-14108","Dennis-Schroder-18595","Danilo-Gallinari-1329","Tobias-Harris-13332","Andre-Drummond-13904","Lonzo-Ball-37885","Jeremy-Lamb-13955","LaMarcus-Aldridge-1349","50000","293.86"
"Reggie-Jackson-13352","Patrick-Beverley-14108","DeMar-DeRozan-1053","Danilo-Gallinari-1329","JaVale-McGee-1485","Jeremy-Lamb-13955","LaMarcus-Aldridge-1349","Andre-Drummond-13904","50000","293.81"
"Reggie-Jackson-13352","Patrick-Beverley-14108","DeMar-DeRozan-1053","LaMarcus-Aldridge-1349","Andre-Drummond-13904","Dennis-Schroder-18595","Eric-Gordon-1077","Jeremy-Lamb-13955","49600","293.8"
"Patrick-Beverley-14108","Jeremy-Lamb-13955","Tobias-Harris-13332","LaMarcus-Aldridge-1349","Marc-Gasol-1493","Dennis-Schroder-18595","Jerami-Grant-18576","Andre-Drummond-13904","49500","293.8"
"Patrick-Beverley-14108","Jeremy-Lamb-13955","Josh-Jackson-37890","Danilo-Gallinari-1329","Andre-Drummond-13904","DeMar-DeRozan-1053","LaMarcus-Aldridge-1349","Jerami-Grant-18576","49600","293.74"
"Patrick-Beverley-14108","Andrew-Wiggins-18620","Josh-Jackson-37890","LaMarcus-Aldridge-1349","Andre-Drummond-13904","Jeremy-Lamb-13955","DeMar-DeRozan-1053","Dario-Saric-36004","50000","293.73"
"Reggie-Jackson-13352","Jeremy-Lamb-13955","Josh-Jackson-37890","LaMarcus-Aldridge-1349","Andre-Drummond-13904","Eric-Gordon-1077","DeMar-DeRozan-1053","Dario-Saric-36004","49900","293.72"
"Patrick-Beverley-14108","Jeremy-Lamb-13955","DeMar-DeRozan-1053","LaMarcus-Aldridge-1349","Andre-Drummond-13904","Lonzo-Ball-37885","Dario-Saric-36004","Jeff-Teague-1005","49900","293.71"
"Patrick-Beverley-14108","Jeremy-Lamb-13955","Tobias-Harris-13332","LaMarcus-Aldridge-1349","JaVale-McGee-1485","DeMar-DeRozan-1053","Jerami-Grant-18576","Andre-Drummond-13904","49500","293.7"
"Reggie-Jackson-13352","Jeremy-Lamb-13955","Tobias-Harris-13332","LaMarcus-Aldridge-1349","Marc-Gasol-1493","Eric-Gordon-1077","Jerami-Grant-18576","Andre-Drummond-13904","50000","293.65"
"Patrick-Beverley-14108","Dennis-Schroder-18595","DeMar-DeRozan-1053","Jerami-Grant-18576","Andre-Drummond-13904","Jeff-Teague-1005","Jeremy-Lamb-13955","LaMarcus-Aldridge-1349","49800","293.57"
"Patrick-Beverley-14108","Jeremy-Lamb-13955","DeMar-DeRozan-1053","LaMarcus-Aldridge-1349","Andre-Drummond-13904","Lonzo-Ball-37885","Dario-Saric-36004","Dennis-Schroder-18595","49500","293.56"
"Patrick-Beverley-14108","Dennis-Schroder-18595","Jayson-Tatum-37782","Dario-Saric-36004","Andre-Drummond-13904","DeMar-DeRozan-1053","Jeremy-Lamb-13955","LaMarcus-Aldridge-1349","50000","293.5"
"Lonzo-Ball-37885","Jeremy-Lamb-13955","Josh-Jackson-37890","LaMarcus-Aldridge-1349","Andre-Drummond-13904","Dennis-Schroder-18595","Jerami-Grant-18576","Marc-Gasol-1493","50000","293.49"
"Patrick-Beverley-14108","Jeremy-Lamb-13955","Tobias-Harris-13332","LaMarcus-Aldridge-1349","Andre-Drummond-13904","DeMar-DeRozan-1053","Dario-Saric-36004","Cody-Zeller-16836","50000","293.45"
"Patrick-Beverley-14108","DeMar-DeRozan-1053","Danilo-Gallinari-1329","Jerami-Grant-18576","LaMarcus-Aldridge-1349","Lonzo-Ball-37885","Jeremy-Lamb-13955","Andre-Drummond-13904","49700","293.43"
"Reggie-Jackson-13352","Jeremy-Lamb-13955","DeMar-DeRozan-1053","LaMarcus-Aldridge-1349","Andre-Drummond-13904","Lonzo-Ball-37885","Eric-Gordon-1077","Dario-Saric-36004","50000","293.41"
"Lonzo-Ball-37885","Jeremy-Lamb-13955","Josh-Jackson-37890","LaMarcus-Aldridge-1349","JaVale-McGee-1485","DeMar-DeRozan-1053","Jerami-Grant-18576","Andre-Drummond-13904","50000","293.39"
"Patrick-Beverley-14108","Dennis-Schroder-18595","Josh-Jackson-37890","LaMarcus-Aldridge-1349","Andre-Drummond-13904","Jeff-Teague-1005","Jeremy-Lamb-13955","Tobias-Harris-13332","49800","293.36"
"Dennis-Schroder-18595","Jeremy-Lamb-13955","Josh-Jackson-37890","Jerami-Grant-18576","Andre-Drummond-13904","DeMar-DeRozan-1053","Dario-Saric-36004","LaMarcus-Aldridge-1349","49700","293.34"
"Patrick-Beverley-14108","Garrett-Temple-14077","Josh-Jackson-37890","LaMarcus-Aldridge-1349","Andre-Drummond-13904","Jeremy-Lamb-13955","DeMar-DeRozan-1053","Tobias-Harris-13332","49800","293.29"
"Patrick-Beverley-14108","Dennis-Schroder-18595","Andrew-Wiggins-18620","Jerami-Grant-18576","Andre-Drummond-13904","DeMar-DeRozan-1053","Jeremy-Lamb-13955","LaMarcus-Aldridge-1349","50000","293.28"
"Reggie-Jackson-13352","Dennis-Schroder-18595","Jeremy-Lamb-13955","Jerami-Grant-18576","Andre-Drummond-13904","DeMar-DeRozan-1053","Eric-Gordon-1077","LaMarcus-Aldridge-1349","49900","293.27"
"Reggie-Jackson-13352","Patrick-Beverley-14108","Josh-Jackson-37890","Danilo-Gallinari-1329","Andre-Drummond-13904","Jeremy-Lamb-13955","LaMarcus-Aldridge-1349","Marc-Gasol-1493","49700","293.27"
"Patrick-Beverley-14108","Jeremy-Lamb-13955","Josh-Jackson-37890","Danilo-Gallinari-1329","Andre-Drummond-13904","Lonzo-Ball-37885","LaMarcus-Aldridge-1349","Tobias-Harris-13332","49700","293.22"
"Reggie-Jackson-13352","Patrick-Beverley-14108","DeMar-DeRozan-1053","Josh-Jackson-37890","LaMarcus-Aldridge-1349","Jeremy-Lamb-13955","Eric-Gordon-1077","Andre-Drummond-13904","49300","293.16"
"Patrick-Beverley-14108","Andrew-Wiggins-18620","Josh-Jackson-37890","LaMarcus-Aldridge-1349","Andre-Drummond-13904","Dennis-Schroder-18595","Jeremy-Lamb-13955","Tobias-Harris-13332","50000","293.07"
"Reggie-Jackson-13352","Patrick-Beverley-14108","Jeremy-Lamb-13955","LaMarcus-Aldridge-1349","Andre-Drummond-13904","DeMar-DeRozan-1053","Robert-Covington-16874","Josh-Jackson-37890","50000","293.07"
"Reggie-Jackson-13352","Jeremy-Lamb-13955","Tobias-Harris-13332","LaMarcus-Aldridge-1349","Andre-Drummond-13904","Dennis-Schroder-18595","Eric-Gordon-1077","Josh-Jackson-37890","49900","293.06"
"Patrick-Beverley-14108","Dennis-Schroder-18595","Jeremy-Lamb-13955","LaMarcus-Aldridge-1349","Andre-Drummond-13904","Lonzo-Ball-37885","Tobias-Harris-13332","Jeff-Teague-1005","49900","293.05"
"Lonzo-Ball-37885","Dennis-Schroder-18595","Jeremy-Lamb-13955","Jerami-Grant-18576","Andre-Drummond-13904","DeMar-DeRozan-1053","Dario-Saric-36004","LaMarcus-Aldridge-1349","49800","293.03"
"Reggie-Jackson-13352","Patrick-Beverley-14108","Garrett-Temple-14077","LaMarcus-Aldridge-1349","Marc-Gasol-1493","DeMar-DeRozan-1053","Jeremy-Lamb-13955","Andre-Drummond-13904","49900","293.03"
"Patrick-Beverley-14108","Jeremy-Lamb-13955","Josh-Jackson-37890","Jayson-Tatum-37782","Andre-Drummond-13904","Lonzo-Ball-37885","LaMarcus-Aldridge-1349","Marc-Gasol-1493","50000","293.01"
"Reggie-Jackson-13352","Patrick-Beverley-14108","DeMar-DeRozan-1053","LaMarcus-Aldridge-1349","JaVale-McGee-1485","Jeff-Teague-1005","Jeremy-Lamb-13955","Andre-Drummond-13904","49900","293.0"
"Patrick-Beverley-14108","Garrett-Temple-14077","DeMar-DeRozan-1053","LaMarcus-Aldridge-1349","Andre-Drummond-13904","Lonzo-Ball-37885","Tobias-Harris-13332","Jeremy-Lamb-13955","49900","292.98"
"Reggie-Jackson-13352","Patrick-Beverley-14108","Danilo-Gallinari-1329","LaMarcus-Aldridge-1349","Andre-Drummond-13904","Lonzo-Ball-37885","Jeremy-Lamb-13955","Marc-Gasol-1493","49800","292.96"
"Patrick-Beverley-14108","Jeremy-Lamb-13955","Josh-Jackson-37890","LaMarcus-Aldridge-1349","Andre-Drummond-13904","Jeff-Teague-1005","DeMar-DeRozan-1053","Jerami-Grant-18576","49500","292.93"
"Patrick-Beverley-14108","Jeremy-Lamb-13955","Josh-Jackson-37890","LaMarcus-Aldridge-1349","Andre-Drummond-13904","Lonzo-Ball-37885","DeMar-DeRozan-1053","Dario-Saric-36004","49200","292.92"
"Reggie-Jackson-13352","Jeremy-Lamb-13955","Josh-Jackson-37890","LaMarcus-Aldridge-1349","Marc-Gasol-1493","Dennis-Schroder-18595","Dario-Saric-36004","Andre-Drummond-13904","49800","292.87"
"Patrick-Beverley-14108","Jeremy-Lamb-13955","Danilo-Gallinari-1329","LaMarcus-Aldridge-1349","Marc-Gasol-1493","Dennis-Schroder-18595","Eric-Gordon-1077","Andre-Drummond-13904","49700","292.87"
"Patrick-Beverley-14108","Jeremy-Lamb-13955","Josh-Jackson-37890","Jayson-Tatum-37782","LaMarcus-Aldridge-1349","DeMar-DeRozan-1053","Dario-Saric-36004","Andre-Drummond-13904","49700","292.86"
"Patrick-Beverley-14108","Jeremy-Lamb-13955","Tobias-Harris-13332","LaMarcus-Aldridge-1349","Marc-Gasol-1493","Lonzo-Ball-37885","Jerami-Grant-18576","Andre-Drummond-13904","49300","292.85"
"Reggie-Jackson-13352","Patrick-Beverley-14108","DeMar-DeRozan-1053","LaMarcus-Aldridge-1349","JaVale-McGee-1485","Dennis-Schroder-18595","Jeremy-Lamb-13955","Andre-Drummond-13904","49500","292.85"
"Reggie-Jackson-13352","Patrick-Beverley-14108","DeMar-DeRozan-1053","LaMarcus-Aldridge-1349","Andre-Drummond-13904","Lonzo-Ball-37885","Eric-Gordon-1077","Jeremy-Lamb-13955","49400","292.85"
"Lonzo-Ball-37885","Jeremy-Lamb-13955","Josh-Jackson-37890","LaMarcus-Aldridge-1349","Andre-Drummond-13904","Dennis-Schroder-18595","Dario-Saric-36004","Tobias-Harris-13332","49800","292.82"
"Reggie-Jackson-13352","Patrick-Beverley-14108","Danilo-Gallinari-1329","Dario-Saric-36004","Andre-Drummond-13904","DeMar-DeRozan-1053","Jeremy-Lamb-13955","LaMarcus-Aldridge-1349","49500","292.81"
"Reggie-Jackson-13352","Patrick-Beverley-14108","DeMar-DeRozan-1053","LaMarcus-Aldridge-1349","Andre-Drummond-13904","Jeremy-Lamb-13955","Eric-Gordon-1077","Jayson-Tatum-37782","49900","292.79"
"Patrick-Beverley-14108","Jeremy-Lamb-13955","Josh-Jackson-37890","LaMarcus-Aldridge-1349","Andre-Drummond-13904","Dennis-Schroder-18595","DeMar-DeRozan-1053","Jerami-Grant-18576","49100","292.78"
"Reggie-Jackson-13352","Jeremy-Lamb-13955","Josh-Jackson-37890","LaMarcus-Aldridge-1349","Andre-Drummond-13904","DeMar-DeRozan-1053","Dario-Saric-36004","JaVale-McGee-1485","49800","292.77"
"Patrick-Beverley-14108","Jeremy-Lamb-13955","DeMar-DeRozan-1053","Danilo-Gallinari-1329","JaVale-McGee-1485","Eric-Gordon-1077","LaMarcus-Aldridge-1349","Andre-Drummond-13904","49700","292.77"
"Reggie-Jackson-13352","Dennis-Schroder-18595","Jeremy-Lamb-13955","Tobias-Harris-13332","Andre-Drummond-13904","Lonzo-Ball-37885","Eric-Gordon-1077","LaMarcus-Aldridge-1349","50000","292.75"
"Patrick-Beverley-14108","Jeremy-Lamb-13955","Tobias-Harris-13332","Jerami-Grant-18576","LaMarcus-Aldridge-1349","DeMar-DeRozan-1053","Dario-Saric-36004","Andre-Drummond-13904","49000","292.7"
"Patrick-Beverley-14108","Jeremy-Lamb-13955","DeMar-DeRozan-1053","LaMarcus-Aldridge-1349","Andre-Drummond-13904","Dennis-Schroder-18595","Eric-Gordon-1077","Robert-Covington-16874","50000","292.67"
"Patrick-Beverley-14108","Andrew-Wiggins-18620","Josh-Jackson-37890","LaMarcus-Aldridge-1349","Andre-Drummond-13904","Jeremy-Lamb-13955","DeMar-DeRozan-1053","Jerami-Grant-18576","49700","292.64"
"Reggie-Jackson-13352","Jeremy-Lamb-13955","Josh-Jackson-37890","Jerami-Grant-18576","Andre-Drummond-13904","DeMar-DeRozan-1053","Eric-Gordon-1077","LaMarcus-Aldridge-1349","49600","292.63"
"Jeff-Teague-1005","Patrick-Beverley-14108","DeMar-DeRozan-1053","Jerami-Grant-18576","Andre-Drummond-13904","Lonzo-Ball-37885","Jeremy-Lamb-13955","LaMarcus-Aldridge-1349","49600","292.62"
"Patrick-Beverley-14108","Jeremy-Lamb-13955","Josh-Jackson-37890","LaMarcus-Aldridge-1349","Andre-Drummond-13904","Lonzo-Ball-37885","DeMar-DeRozan-1053","Cody-Zeller-16836","49900","292.58"
"Reggie-Jackson-13352","Dennis-Schroder-18595","Jeremy-Lamb-13955","LaMarcus-Aldridge-1349","Marc-Gasol-1493","Lonzo-Ball-37885","Dario-Saric-36004","Andre-Drummond-13904","49900","292.56"
"Patrick-Beverley-14108","DeMar-DeRozan-1053","Jayson-Tatum-37782","Dario-Saric-36004","Andre-Drummond-13904","Lonzo-Ball-37885","Jeremy-Lamb-13955","LaMarcus-Aldridge-1349","49800","292.55"
"Reggie-Jackson-13352","Patrick-Beverley-14108","Josh-Jackson-37890","LaMarcus-Aldridge-1349","Andre-Drummond-13904","De'Anthony-Melton-409081","DeMar-DeRozan-1053","Jeremy-Lamb-13955","49800","292.5"
"Patrick-Beverley-14108","Jeremy-Lamb-13955","Tobias-Harris-13332","LaMarcus-Aldridge-1349","Marc-Gasol-1493","De'Anthony-Melton-409081","Eric-Gordon-1077","Andre-Drummond-13904","49900","292.48"
"Patrick-Beverley-14108","Dennis-Schroder-18595","DeMar-DeRozan-1053","Jerami-Grant-18576","Andre-Drummond-13904","Lonzo-Ball-37885","Jeremy-Lamb-13955","LaMarcus-Aldridge-1349","49200","292.47"
"Reggie-Jackson-13352","Patrick-Beverley-14108","Josh-Jackson-37890","LaMarcus-Aldridge-1349","Andre-Drummond-13904","Jeff-Teague-1005","Jeremy-Lamb-13955","Marc-Gasol-1493","49600","292.46"
"Reggie-Jackson-13352","Jeremy-Lamb-13955","DeMar-DeRozan-1053","LaMarcus-Aldridge-1349","Andre-Drummond-13904","Lonzo-Ball-37885","Dario-Saric-36004","JaVale-McGee-1485","49900","292.46"
"Patrick-Beverley-14108","Jeremy-Lamb-13955","Josh-Jackson-37890","Lauri-Markkanen-37809","Andre-Drummond-13904","Dennis-Schroder-18595","LaMarcus-Aldridge-1349","Marc-Gasol-1493","50000","292.42"
"Patrick-Beverley-14108","Dennis-Schroder-18595","Jayson-Tatum-37782","Jerami-Grant-18576","Andre-Drummond-13904","DeMar-DeRozan-1053","Jeremy-Lamb-13955","LaMarcus-Aldridge-1349","49700","292.41"
"Jeff-Teague-1005","Patrick-Beverley-14108","Josh-Jackson-37890","LaMarcus-Aldridge-1349","Andre-Drummond-13904","Lonzo-Ball-37885","Jeremy-Lamb-13955","Tobias-Harris-13332","49600","292.41"
"Lonzo-Ball-37885","Jeremy-Lamb-13955","Josh-Jackson-37890","Jerami-Grant-18576","Andre-Drummond-13904","DeMar-DeRozan-1053","Dario-Saric-36004","LaMarcus-Aldridge-1349","49500","292.39"
"Dennis-Schroder-18595","Jeremy-Lamb-13955","Eric-Gordon-1077","LaMarcus-Aldridge-1349","JaVale-McGee-1485","DeMar-DeRozan-1053","Dario-Saric-36004","Andre-Drummond-13904","49800","292.37"
"Patrick-Beverley-14108","Jeremy-Lamb-13955","Tobias-Harris-13332","LaMarcus-Aldridge-1349","Cody-Zeller-16836","DeMar-DeRozan-1053","Jerami-Grant-18576","Andre-Drummond-13904","49700","292.36"
"Dennis-Schroder-18595","Jeremy-Lamb-13955","Danilo-Gallinari-1329","LaMarcus-Aldridge-1349","Andre-Drummond-13904","Eric-Gordon-1077","Jerami-Grant-18576","Marc-Gasol-1493","50000","292.34"
"Patrick-Beverley-14108","DeMar-DeRozan-1053","Andrew-Wiggins-18620","Jerami-Grant-18576","Andre-Drummond-13904","Lonzo-Ball-37885","Jeremy-Lamb-13955","LaMarcus-Aldridge-1349","49800","292.33"
"Reggie-Jackson-13352","DeMar-DeRozan-1053","Jeremy-Lamb-13955","Jerami-Grant-18576","Andre-Drummond-13904","Lonzo-Ball-37885","Eric-Gordon-1077","LaMarcus-Aldridge-1349","49700","292.32"
"Patrick-Beverley-14108","Jeremy-Lamb-13955","Josh-Jackson-37890","Lauri-Markkanen-37809","JaVale-McGee-1485","DeMar-DeRozan-1053","LaMarcus-Aldridge-1349","Andre-Drummond-13904","50000","292.32"
"Reggie-Jackson-13352","Jeremy-Lamb-13955","DeMar-DeRozan-1053","LaMarcus-Aldridge-1349","JaVale-McGee-1485","Dennis-Schroder-18595","Jerami-Grant-18576","Andre-Drummond-13904","49800","292.32"
"Reggie-Jackson-13352","Patrick-Beverley-14108","Josh-Jackson-37890","LaMarcus-Aldridge-1349","Andre-Drummond-13904","Dennis-Schroder-18595","Jeremy-Lamb-13955","Marc-Gasol-1493","49200","292.31"
"Reggie-Jackson-13352","Patrick-Beverley-14108","Danilo-Gallinari-1329","Tobias-Harris-13332","Andre-Drummond-13904","Jeff-Teague-1005","Jeremy-Lamb-13955","LaMarcus-Aldridge-1349","49900","292.3"
"Reggie-Jackson-13352","Jeremy-Lamb-13955","Danilo-Gallinari-1329","Jerami-Grant-18576","Andre-Drummond-13904","DeMar-DeRozan-1053","Dario-Saric-36004","LaMarcus-Aldridge-1349","49800","292.28"
