"Jamal-Murray-35211","J.J.-Redick-1030","Jabari-Parker-18593","Serge-Ibaka-1294","Steven-Adams-16848","Lonzo-Ball-37885","Evan-Fournier-13913","Clint-Capela-18610","49000","283.88"

"Jamal-Murray-35211","J.J.-Redick-1030","Jabari-Parker-18593","Serge-Ibaka-1294","Steven-Adams-16848","Lonzo-Ball-37885","Evan-Fournier-13913","Clint-Capela-18610","49000","283.88"
"Jamal-Murray-35211","J.J.-Redick-1030","Jabari-Parker-18593","Serge-Ibaka-1294","DeAndre-Jordan-1486","Lonzo-Ball-37885","Evan-Fournier-13913","Clint-Capela-18610","48400","282.51"
"Jamal-Murray-35211","Gordon-Hayward-1239","Jabari-Parker-18593","Serge-Ibaka-1294","Steven-Adams-16848","J.J.-Redick-1030","Evan-Fournier-13913","Clint-Capela-18610","48900","282.18"
"Jamal-Murray-35211","J.J.-Redick-1030","Jabari-Parker-18593","Serge-Ibaka-1294","Steven-Adams-16848","Lonzo-Ball-37885","Evan-Fournier-13913","DeAndre-Jordan-1486","48400","281.86"
"Jamal-Murray-35211","Gordon-Hayward-1239","Jabari-Parker-18593","Serge-Ibaka-1294","Steven-Adams-16848","Lonzo-Ball-37885","Evan-Fournier-13913","Clint-Capela-18610","48800","281.58"
"Jamal-Murray-35211","Evan-Fournier-13913","Jabari-Parker-18593","Serge-Ibaka-1294","Clint-Capela-18610","J.J.-Redick-1030","Eric-Gordon-1077","Steven-Adams-16848","48500","281.42"
"Jamal-Murray-35211","J.J.-Redick-1030","Jabari-Parker-18593","Serge-Ibaka-1294","Steven-Adams-16848","Fred-VanVleet-36011","Evan-Fournier-13913","Clint-Capela-18610","47500","281.02"
"Jamal-Murray-35211","Evan-Fournier-13913","Jabari-Parker-18593","Serge-Ibaka-1294","Clint-Capela-18610","Lonzo-Ball-37885","Eric-Gordon-1077","Steven-Adams-16848","48400","280.82"
"Jamal-Murray-35211","Gordon-Hayward-1239","Jabari-Parker-18593","Serge-Ibaka-1294","DeAndre-Jordan-1486","J.J.-Redick-1030","Evan-Fournier-13913","Clint-Capela-18610","48300","280.81"
"Jamal-Murray-35211","J.J.-Redick-1030","Jabari-Parker-18593","Serge-Ibaka-1294","Steven-Adams-16848","Lonzo-Ball-37885","Gordon-Hayward-1239","Clint-Capela-18610","48700","280.64"
"Jamal-Murray-35211","Evan-Fournier-13913","Jabari-Parker-18593","Serge-Ibaka-1294","Steven-Adams-16848","J.J.-Redick-1030","Jeremy-Lamb-13955","Clint-Capela-18610","48700","280.55"
"Jamal-Murray-35211","Fred-VanVleet-36011","Jabari-Parker-18593","Serge-Ibaka-1294","Steven-Adams-16848","Lonzo-Ball-37885","Evan-Fournier-13913","Clint-Capela-18610","47400","280.42"
"Jamal-Murray-35211","Gordon-Hayward-1239","Jabari-Parker-18593","Serge-Ibaka-1294","DeAndre-Jordan-1486","Lonzo-Ball-37885","Evan-Fournier-13913","Clint-Capela-18610","48200","280.21"
"Jamal-Murray-35211","Gordon-Hayward-1239","Jabari-Parker-18593","Serge-Ibaka-1294","Steven-Adams-16848","J.J.-Redick-1030","Evan-Fournier-13913","DeAndre-Jordan-1486","48300","280.16"
"Jamal-Murray-35211","Evan-Fournier-13913","Jabari-Parker-18593","Jerami-Grant-18576","Steven-Adams-16848","J.J.-Redick-1030","Serge-Ibaka-1294","Clint-Capela-18610","48200","280.15"
"Jamal-Murray-35211","Evan-Fournier-13913","Jabari-Parker-18593","Serge-Ibaka-1294","Clint-Capela-18610","J.J.-Redick-1030","Eric-Gordon-1077","DeAndre-Jordan-1486","47900","280.05"
"Jamal-Murray-35211","Evan-Fournier-13913","Jabari-Parker-18593","Serge-Ibaka-1294","Steven-Adams-16848","Lonzo-Ball-37885","Jeremy-Lamb-13955","Clint-Capela-18610","48600","279.95"
"Jamal-Murray-35211","J.J.-Redick-1030","Jabari-Parker-18593","Serge-Ibaka-1294","Clint-Capela-18610","Lonzo-Ball-37885","Eric-Gordon-1077","Steven-Adams-16848","48300","279.88"
"Jamal-Murray-35211","J.J.-Redick-1030","Jabari-Parker-18593","Serge-Ibaka-1294","DeAndre-Jordan-1486","Fred-VanVleet-36011","Evan-Fournier-13913","Clint-Capela-18610","46900","279.65"
"Jamal-Murray-35211","Evan-Fournier-13913","Jabari-Parker-18593","Serge-Ibaka-1294","Steven-Adams-16848","J.J.-Redick-1030","Justin-Holiday-14559","Clint-Capela-18610","48000","279.64"
"Jamal-Murray-35211","Gordon-Hayward-1239","Jabari-Parker-18593","Serge-Ibaka-1294","Steven-Adams-16848","Lonzo-Ball-37885","Evan-Fournier-13913","DeAndre-Jordan-1486","48200","279.56"
"Jamal-Murray-35211","Evan-Fournier-13913","Jabari-Parker-18593","Jerami-Grant-18576","Steven-Adams-16848","Lonzo-Ball-37885","Serge-Ibaka-1294","Clint-Capela-18610","48100","279.55"
"Jamal-Murray-35211","Fred-VanVleet-36011","Jabari-Parker-18593","Serge-Ibaka-1294","Steven-Adams-16848","Lonzo-Ball-37885","J.J.-Redick-1030","Clint-Capela-18610","47300","279.48"
"Jamal-Murray-35211","Evan-Fournier-13913","Jabari-Parker-18593","Serge-Ibaka-1294","Clint-Capela-18610","Lonzo-Ball-37885","Eric-Gordon-1077","DeAndre-Jordan-1486","47800","279.45"
"Jamal-Murray-35211","Evan-Fournier-13913","Jabari-Parker-18593","Serge-Ibaka-1294","Steven-Adams-16848","J.J.-Redick-1030","Eric-Gordon-1077","DeAndre-Jordan-1486","47900","279.4"
"Jamal-Murray-35211","Gordon-Hayward-1239","Jabari-Parker-18593","Serge-Ibaka-1294","DeAndre-Jordan-1486","Lonzo-Ball-37885","J.J.-Redick-1030","Clint-Capela-18610","48100","279.27"
"Lonzo-Ball-37885","Gordon-Hayward-1239","Jabari-Parker-18593","Serge-Ibaka-1294","Steven-Adams-16848","J.J.-Redick-1030","Evan-Fournier-13913","Clint-Capela-18610","48000","279.22"
"Jamal-Murray-35211","Evan-Fournier-13913","Jabari-Parker-18593","Serge-Ibaka-1294","Clint-Capela-18610","J.J.-Redick-1030","Jeremy-Lamb-13955","DeAndre-Jordan-1486","48100","279.18"
"Jamal-Murray-35211","Gordon-Hayward-1239","Jabari-Parker-18593","Serge-Ibaka-1294","Clint-Capela-18610","Evan-Fournier-13913","Eric-Gordon-1077","Steven-Adams-16848","48300","279.12"
"Jamal-Murray-35211","J.J.-Redick-1030","Jabari-Parker-18593","Serge-Ibaka-1294","Wendell-Carter-408878","Lonzo-Ball-37885","Evan-Fournier-13913","Clint-Capela-18610","47000","279.07"
"Jamal-Murray-35211","Fred-VanVleet-36011","Jabari-Parker-18593","Serge-Ibaka-1294","DeAndre-Jordan-1486","Lonzo-Ball-37885","Evan-Fournier-13913","Clint-Capela-18610","46800","279.05"
"Jamal-Murray-35211","Evan-Fournier-13913","Jabari-Parker-18593","Serge-Ibaka-1294","Steven-Adams-16848","Lonzo-Ball-37885","Justin-Holiday-14559","Clint-Capela-18610","47900","279.04"
"Jamal-Murray-35211","J.J.-Redick-1030","Jabari-Parker-18593","Serge-Ibaka-1294","Steven-Adams-16848","Lonzo-Ball-37885","Jeremy-Lamb-13955","Clint-Capela-18610","48500","279.01"
"Jamal-Murray-35211","J.J.-Redick-1030","Jabari-Parker-18593","Serge-Ibaka-1294","Steven-Adams-16848","Fred-VanVleet-36011","Evan-Fournier-13913","DeAndre-Jordan-1486","46900","279.0"
"Jamal-Murray-35211","J.J.-Redick-1030","Jabari-Parker-18593","Serge-Ibaka-1294","Steven-Adams-16848","Darren-Collison-1060","Evan-Fournier-13913","Clint-Capela-18610","48100","278.99"
"Jamal-Murray-35211","Evan-Fournier-13913","Jabari-Parker-18593","Serge-Ibaka-1294","Steven-Adams-16848","Lonzo-Ball-37885","Eric-Gordon-1077","DeAndre-Jordan-1486","47800","278.8"
"Jamal-Murray-35211","Evan-Fournier-13913","Jabari-Parker-18593","Jerami-Grant-18576","Clint-Capela-18610","J.J.-Redick-1030","Serge-Ibaka-1294","DeAndre-Jordan-1486","47600","278.78"
"Jamal-Murray-35211","Danny-Green-940","Jabari-Parker-18593","Serge-Ibaka-1294","Steven-Adams-16848","J.J.-Redick-1030","Evan-Fournier-13913","Clint-Capela-18610","47500","278.76"
"Jamal-Murray-35211","Gordon-Hayward-1239","Jabari-Parker-18593","Serge-Ibaka-1294","Steven-Adams-16848","Fred-VanVleet-36011","Evan-Fournier-13913","Clint-Capela-18610","47300","278.72"
"Jamal-Murray-35211","J.J.-Redick-1030","Jabari-Parker-18593","Serge-Ibaka-1294","Steven-Adams-16848","Lonzo-Ball-37885","Gordon-Hayward-1239","DeAndre-Jordan-1486","48100","278.62"
"Jamal-Murray-35211","J.J.-Redick-1030","Jabari-Parker-18593","Jerami-Grant-18576","Steven-Adams-16848","Lonzo-Ball-37885","Serge-Ibaka-1294","Clint-Capela-18610","48000","278.61"
"Jamal-Murray-35211","Evan-Fournier-13913","Gordon-Hayward-1239","Serge-Ibaka-1294","Clint-Capela-18610","Lonzo-Ball-37885","J.J.-Redick-1030","Steven-Adams-16848","48600","278.59"
"Jamal-Murray-35211","Evan-Fournier-13913","Jabari-Parker-18593","Serge-Ibaka-1294","Clint-Capela-18610","Lonzo-Ball-37885","Jeremy-Lamb-13955","DeAndre-Jordan-1486","48000","278.58"
"Jamal-Murray-35211","Evan-Fournier-13913","Jabari-Parker-18593","Serge-Ibaka-1294","Steven-Adams-16848","J.J.-Redick-1030","Jeremy-Lamb-13955","DeAndre-Jordan-1486","48100","278.53"
"Jamal-Murray-35211","J.J.-Redick-1030","Jabari-Parker-18593","Serge-Ibaka-1294","Clint-Capela-18610","Lonzo-Ball-37885","Eric-Gordon-1077","DeAndre-Jordan-1486","47700","278.51"
"Lonzo-Ball-37885","Evan-Fournier-13913","Jabari-Parker-18593","Serge-Ibaka-1294","Clint-Capela-18610","J.J.-Redick-1030","Eric-Gordon-1077","Steven-Adams-16848","47600","278.46"
"Jamal-Murray-35211","Evan-Fournier-13913","Jabari-Parker-18593","Derrick-Favors-1266","Steven-Adams-16848","J.J.-Redick-1030","Serge-Ibaka-1294","Clint-Capela-18610","48300","278.44"
"Jamal-Murray-35211","J.J.-Redick-1030","Jabari-Parker-18593","Serge-Ibaka-1294","Wendell-Carter-408878","Lonzo-Ball-37885","Evan-Fournier-13913","Steven-Adams-16848","47000","278.42"
"Jamal-Murray-35211","Fred-VanVleet-36011","Jabari-Parker-18593","Serge-Ibaka-1294","Steven-Adams-16848","Lonzo-Ball-37885","Evan-Fournier-13913","DeAndre-Jordan-1486","46800","278.4"
"Lonzo-Ball-37885","Jamal-Murray-35211","Jabari-Parker-18593","Serge-Ibaka-1294","Steven-Adams-16848","Darren-Collison-1060","Evan-Fournier-13913","Clint-Capela-18610","48000","278.39"
"Jamal-Murray-35211","Evan-Fournier-13913","Jabari-Parker-18593","Serge-Ibaka-1294","DeAndre-Jordan-1486","J.J.-Redick-1030","Justin-Holiday-14559","Clint-Capela-18610","47400","278.27"
"Jamal-Murray-35211","Gordon-Hayward-1239","Jabari-Parker-18593","Serge-Ibaka-1294","Steven-Adams-16848","Evan-Fournier-13913","Jeremy-Lamb-13955","Clint-Capela-18610","48500","278.25"
"Jamal-Murray-35211","Evan-Fournier-13913","Gordon-Hayward-1239","Jabari-Parker-18593","Clint-Capela-18610","Lonzo-Ball-37885","J.J.-Redick-1030","Steven-Adams-16848","48200","278.24"
"Jamal-Murray-35211","Evan-Fournier-13913","Jabari-Parker-18593","Jerami-Grant-18576","Clint-Capela-18610","Lonzo-Ball-37885","Serge-Ibaka-1294","DeAndre-Jordan-1486","47500","278.18"
"Jamal-Murray-35211","Gordon-Hayward-1239","Jabari-Parker-18593","Serge-Ibaka-1294","Clint-Capela-18610","J.J.-Redick-1030","Eric-Gordon-1077","Steven-Adams-16848","48200","278.18"
"Jamal-Murray-35211","Danny-Green-940","Jabari-Parker-18593","Serge-Ibaka-1294","Steven-Adams-16848","Lonzo-Ball-37885","Evan-Fournier-13913","Clint-Capela-18610","47400","278.16"
"Jamal-Murray-35211","Evan-Fournier-13913","Jabari-Parker-18593","Jerami-Grant-18576","Steven-Adams-16848","J.J.-Redick-1030","Serge-Ibaka-1294","DeAndre-Jordan-1486","47600","278.13"
"Jamal-Murray-35211","Fred-VanVleet-36011","Jabari-Parker-18593","Serge-Ibaka-1294","DeAndre-Jordan-1486","Lonzo-Ball-37885","J.J.-Redick-1030","Clint-Capela-18610","46700","278.11"
"Jamal-Murray-35211","J.J.-Redick-1030","Jabari-Parker-18593","Serge-Ibaka-1294","Steven-Adams-16848","Lonzo-Ball-37885","Justin-Holiday-14559","Clint-Capela-18610","47800","278.1"
"Fred-VanVleet-36011","J.J.-Redick-1030","Jabari-Parker-18593","Serge-Ibaka-1294","Steven-Adams-16848","Lonzo-Ball-37885","Evan-Fournier-13913","Clint-Capela-18610","46600","278.06"
"Jamal-Murray-35211","Evan-Fournier-13913","Jabari-Parker-18593","Trey-Lyles-18942","Clint-Capela-18610","J.J.-Redick-1030","Serge-Ibaka-1294","Steven-Adams-16848","48000","278.03"
"Jamal-Murray-35211","Evan-Fournier-13913","Jabari-Parker-18593","Serge-Ibaka-1294","Clint-Capela-18610","Fred-VanVleet-36011","Eric-Gordon-1077","Steven-Adams-16848","46900","277.96"
"Jamal-Murray-35211","Evan-Fournier-13913","Jabari-Parker-18593","Serge-Ibaka-1294","Steven-Adams-16848","Lonzo-Ball-37885","Jeremy-Lamb-13955","DeAndre-Jordan-1486","48000","277.93"
"Jamal-Murray-35211","J.J.-Redick-1030","Jabari-Parker-18593","Serge-Ibaka-1294","Steven-Adams-16848","Lonzo-Ball-37885","Eric-Gordon-1077","DeAndre-Jordan-1486","47700","277.86"
"Jamal-Murray-35211","Gordon-Hayward-1239","Jabari-Parker-18593","Jerami-Grant-18576","Steven-Adams-16848","Evan-Fournier-13913","Serge-Ibaka-1294","Clint-Capela-18610","48000","277.85"
"Lonzo-Ball-37885","Gordon-Hayward-1239","Jabari-Parker-18593","Serge-Ibaka-1294","DeAndre-Jordan-1486","J.J.-Redick-1030","Evan-Fournier-13913","Clint-Capela-18610","47400","277.85"
"Jamal-Murray-35211","Evan-Fournier-13913","Jabari-Parker-18593","Derrick-Favors-1266","Steven-Adams-16848","Lonzo-Ball-37885","Serge-Ibaka-1294","Clint-Capela-18610","48200","277.84"
"Jamal-Murray-35211","J.J.-Redick-1030","Evan-Fournier-13913","Serge-Ibaka-1294","Clint-Capela-18610","Lonzo-Ball-37885","Eric-Gordon-1077","Steven-Adams-16848","48200","277.83"
"Jamal-Murray-35211","J.J.-Redick-1030","Jabari-Parker-18593","Serge-Ibaka-1294","Steven-Adams-16848","Fred-VanVleet-36011","Gordon-Hayward-1239","Clint-Capela-18610","47200","277.78"
"Jamal-Murray-35211","Gordon-Hayward-1239","Jabari-Parker-18593","Serge-Ibaka-1294","Clint-Capela-18610","Evan-Fournier-13913","Eric-Gordon-1077","DeAndre-Jordan-1486","47700","277.75"
"Jamal-Murray-35211","Evan-Fournier-13913","Jabari-Parker-18593","Serge-Ibaka-1294","DeAndre-Jordan-1486","Lonzo-Ball-37885","Justin-Holiday-14559","Clint-Capela-18610","47300","277.67"
"Jamal-Murray-35211","J.J.-Redick-1030","Jabari-Parker-18593","Serge-Ibaka-1294","Clint-Capela-18610","Lonzo-Ball-37885","Jeremy-Lamb-13955","DeAndre-Jordan-1486","47900","277.64"
"Jamal-Murray-35211","Evan-Fournier-13913","Jabari-Parker-18593","Serge-Ibaka-1294","DeAndre-Jordan-1486","J.J.-Redick-1030","Justin-Holiday-14559","Steven-Adams-16848","47400","277.62"
"Jamal-Murray-35211","J.J.-Redick-1030","Jabari-Parker-18593","Serge-Ibaka-1294","DeAndre-Jordan-1486","Darren-Collison-1060","Evan-Fournier-13913","Clint-Capela-18610","47500","277.62"
"Lonzo-Ball-37885","Evan-Fournier-13913","Jabari-Parker-18593","Serge-Ibaka-1294","Steven-Adams-16848","J.J.-Redick-1030","Jeremy-Lamb-13955","Clint-Capela-18610","47800","277.59"
"Jamal-Murray-35211","Gordon-Hayward-1239","Jabari-Parker-18593","Serge-Ibaka-1294","Clint-Capela-18610","Lonzo-Ball-37885","Eric-Gordon-1077","Steven-Adams-16848","48100","277.58"
"Jamal-Murray-35211","Evan-Fournier-13913","Jabari-Parker-18593","Jerami-Grant-18576","Steven-Adams-16848","Lonzo-Ball-37885","Serge-Ibaka-1294","DeAndre-Jordan-1486","47500","277.53"
"Jamal-Murray-35211","Evan-Fournier-13913","Jabari-Parker-18593","Serge-Ibaka-1294","Steven-Adams-16848","Eric-Gordon-1077","Jeremy-Lamb-13955","Clint-Capela-18610","48100","277.49"
"Jamal-Murray-35211","J.J.-Redick-1030","Evan-Fournier-13913","Jabari-Parker-18593","Steven-Adams-16848","Lonzo-Ball-37885","Eric-Gordon-1077","Clint-Capela-18610","47800","277.48"
"Jamal-Murray-35211","Fred-VanVleet-36011","Jabari-Parker-18593","Serge-Ibaka-1294","Steven-Adams-16848","Lonzo-Ball-37885","J.J.-Redick-1030","DeAndre-Jordan-1486","46700","277.46"
"Lonzo-Ball-37885","Jamal-Murray-35211","Jabari-Parker-18593","Serge-Ibaka-1294","Steven-Adams-16848","Darren-Collison-1060","J.J.-Redick-1030","Clint-Capela-18610","47900","277.45"
"Jamal-Murray-35211","Fred-VanVleet-36011","Evan-Fournier-13913","Serge-Ibaka-1294","Steven-Adams-16848","Lonzo-Ball-37885","J.J.-Redick-1030","Clint-Capela-18610","47200","277.43"
"Jamal-Murray-35211","Evan-Fournier-13913","Jabari-Parker-18593","Trey-Lyles-18942","Clint-Capela-18610","Lonzo-Ball-37885","Serge-Ibaka-1294","Steven-Adams-16848","47900","277.43"
"Jamal-Murray-35211","Evan-Fournier-13913","Jabari-Parker-18593","Serge-Ibaka-1294","DeAndre-Jordan-1486","J.J.-Redick-1030","Danny-Green-940","Clint-Capela-18610","46900","277.39"
"Jamal-Murray-35211","Gordon-Hayward-1239","Jabari-Parker-18593","Serge-Ibaka-1294","Wendell-Carter-408878","J.J.-Redick-1030","Evan-Fournier-13913","Clint-Capela-18610","46900","277.37"
"Jamal-Murray-35211","Gordon-Hayward-1239","Jabari-Parker-18593","Serge-Ibaka-1294","DeAndre-Jordan-1486","Fred-VanVleet-36011","Evan-Fournier-13913","Clint-Capela-18610","46700","277.35"
"Jamal-Murray-35211","Gordon-Hayward-1239","Jabari-Parker-18593","Serge-Ibaka-1294","Steven-Adams-16848","Evan-Fournier-13913","Justin-Holiday-14559","Clint-Capela-18610","47800","277.34"
"Jamal-Murray-35211","Gordon-Hayward-1239","Jabari-Parker-18593","Serge-Ibaka-1294","Steven-Adams-16848","J.J.-Redick-1030","Jeremy-Lamb-13955","Clint-Capela-18610","48400","277.31"
"Jamal-Murray-35211","J.J.-Redick-1030","Jabari-Parker-18593","Jerami-Grant-18576","Clint-Capela-18610","Lonzo-Ball-37885","Serge-Ibaka-1294","DeAndre-Jordan-1486","47400","277.24"
"Jamal-Murray-35211","Evan-Fournier-13913","Gordon-Hayward-1239","Serge-Ibaka-1294","Clint-Capela-18610","Lonzo-Ball-37885","J.J.-Redick-1030","DeAndre-Jordan-1486","48000","277.22"
"Jamal-Murray-35211","Danny-Green-940","Jabari-Parker-18593","Serge-Ibaka-1294","Steven-Adams-16848","Lonzo-Ball-37885","J.J.-Redick-1030","Clint-Capela-18610","47300","277.22"
"Lonzo-Ball-37885","Gordon-Hayward-1239","Jabari-Parker-18593","Serge-Ibaka-1294","Steven-Adams-16848","J.J.-Redick-1030","Evan-Fournier-13913","DeAndre-Jordan-1486","47400","277.2"
"Lonzo-Ball-37885","Evan-Fournier-13913","Jabari-Parker-18593","Jerami-Grant-18576","Steven-Adams-16848","J.J.-Redick-1030","Serge-Ibaka-1294","Clint-Capela-18610","47300","277.19"
"Jamal-Murray-35211","Fred-VanVleet-36011","Jabari-Parker-18593","Serge-Ibaka-1294","Steven-Adams-16848","Lonzo-Ball-37885","Gordon-Hayward-1239","Clint-Capela-18610","47100","277.18"
"Jamal-Murray-35211","Gordon-Hayward-1239","Jabari-Parker-18593","Serge-Ibaka-1294","Steven-Adams-16848","Evan-Fournier-13913","Eric-Gordon-1077","DeAndre-Jordan-1486","47700","277.1"
"Jamal-Murray-35211","Evan-Fournier-13913","Jabari-Parker-18593","Serge-Ibaka-1294","Steven-Adams-16848","Fred-VanVleet-36011","Jeremy-Lamb-13955","Clint-Capela-18610","47100","277.09"
"Lonzo-Ball-37885","Evan-Fournier-13913","Jabari-Parker-18593","Serge-Ibaka-1294","Clint-Capela-18610","J.J.-Redick-1030","Eric-Gordon-1077","DeAndre-Jordan-1486","47000","277.09"
"Jamal-Murray-35211","Evan-Fournier-13913","Jabari-Parker-18593","Jerami-Grant-18576","Steven-Adams-16848","Eric-Gordon-1077","Serge-Ibaka-1294","Clint-Capela-18610","47600","277.09"
"Antonio-Blakeney-37811","J.J.-Redick-1030","Jabari-Parker-18593","Serge-Ibaka-1294","Steven-Adams-16848","Jamal-Murray-35211","Evan-Fournier-13913","Clint-Capela-18610","46800","277.09"
"Jamal-Murray-35211","Fred-VanVleet-36011","Evan-Fournier-13913","Jabari-Parker-18593","Steven-Adams-16848","Lonzo-Ball-37885","J.J.-Redick-1030","Clint-Capela-18610","46800","277.08"
