"Luka-Doncic-408971","Klay-Thompson-13315","Kevin-Durant-1348","Jerami-Grant-18576","Steven-Adams-16848","Alex-Abrines-36054","Josh-Jackson-37890","DeAndre-Jordan-1486","49700","278.72"
"Luka-Doncic-408971","Dennis-Schroder-18595","Kevin-Durant-1348","Jerami-Grant-18576","Steven-Adams-16848","Shaun-Livingston-14007","Josh-Jackson-37890","DeAndre-Jordan-1486","50000","278.56"

"Luka-Doncic-408971","Klay-Thompson-13315","Kevin-Durant-1348","Jerami-Grant-18576","Steven-Adams-16848","Alex-Abrines-36054","Josh-Jackson-37890","DeAndre-Jordan-1486","49700","278.72"
"Luka-Doncic-408971","Dennis-Schroder-18595","Kevin-Durant-1348","Jerami-Grant-18576","Steven-Adams-16848","Shaun-Livingston-14007","Josh-Jackson-37890","DeAndre-Jordan-1486","50000","278.56"
"Luka-Doncic-408971","Klay-Thompson-13315","Kevin-Durant-1348","Jerami-Grant-18576","DeAndre-Jordan-1486","Alex-Abrines-36054","Mikal-Bridges-408842","Steven-Adams-16848","50000","278.43"
"Dennis-Schroder-18595","Klay-Thompson-13315","Mikal-Bridges-408842","Kevin-Durant-1348","Steven-Adams-16848","Alex-Abrines-36054","Josh-Jackson-37890","DeAndre-Jordan-1486","50000","278.35"
"Luka-Doncic-408971","Alex-Abrines-36054","Kevin-Durant-1348","Harrison-Barnes-13901","Steven-Adams-16848","Dennis-Smith-Jr.-37847","Jerami-Grant-18576","DeAndre-Jordan-1486","50000","277.79"
"Luka-Doncic-408971","Klay-Thompson-13315","Kevin-Durant-1348","Jonas-Jerebko-1106","DeAndre-Jordan-1486","Alex-Abrines-36054","Jerami-Grant-18576","Steven-Adams-16848","50000","277.79"
"Luka-Doncic-408971","Raymond-Felton-1078","Kevin-Durant-1348","Jerami-Grant-18576","Steven-Adams-16848","Klay-Thompson-13315","Josh-Jackson-37890","DeAndre-Jordan-1486","49800","277.73"
"Dennis-Schroder-18595","Alex-Abrines-36054","Kevin-Durant-1348","Harrison-Barnes-13901","DeAndre-Jordan-1486","Dennis-Smith-Jr.-37847","Josh-Jackson-37890","Steven-Adams-16848","50000","277.71"
"Dennis-Schroder-18595","Klay-Thompson-13315","Kevin-Durant-1348","Jonas-Jerebko-1106","DeAndre-Jordan-1486","Alex-Abrines-36054","Josh-Jackson-37890","Steven-Adams-16848","50000","277.71"
"Luka-Doncic-408971","Dennis-Schroder-18595","Kevin-Durant-1348","Jerami-Grant-18576","Steven-Adams-16848","Shaun-Livingston-14007","Alex-Abrines-36054","DeAndre-Jordan-1486","49900","277.69"
"Luka-Doncic-408971","Klay-Thompson-13315","Kevin-Durant-1348","Jerami-Grant-18576","Steven-Adams-16848","Alex-Abrines-36054","Kevon-Looney-18945","DeAndre-Jordan-1486","50000","276.89"
"Luka-Doncic-408971","Raymond-Felton-1078","Kevin-Durant-1348","Jerami-Grant-18576","Steven-Adams-16848","Klay-Thompson-13315","Alex-Abrines-36054","DeAndre-Jordan-1486","49700","276.86"
"Dennis-Schroder-18595","Klay-Thompson-13315","Kevin-Durant-1348","Kevon-Looney-18945","Steven-Adams-16848","Alex-Abrines-36054","Josh-Jackson-37890","DeAndre-Jordan-1486","50000","276.81"
"Dennis-Schroder-18595","Raymond-Felton-1078","Josh-Jackson-37890","Kevin-Durant-1348","Steven-Adams-16848","Klay-Thompson-13315","Alex-Abrines-36054","DeAndre-Jordan-1486","49700","276.78"
"Dennis-Schroder-18595","Raymond-Felton-1078","Mikal-Bridges-408842","Kevin-Durant-1348","DeAndre-Jordan-1486","Klay-Thompson-13315","Alex-Abrines-36054","Steven-Adams-16848","50000","276.49"
"Luka-Doncic-408971","Dennis-Schroder-18595","Mikal-Bridges-408842","Kevin-Durant-1348","Steven-Adams-16848","Alex-Abrines-36054","Josh-Jackson-37890","DeAndre-Jordan-1486","49400","276.48"
"Luka-Doncic-408971","Klay-Thompson-13315","Kevin-Durant-1348","Richaun-Holmes-18905","DeAndre-Jordan-1486","Alex-Abrines-36054","Jerami-Grant-18576","Steven-Adams-16848","49600","276.36"
"Dennis-Schroder-18595","Alex-Abrines-36054","Kevin-Durant-1348","Harrison-Barnes-13901","Steven-Adams-16848","Isaiah-Canaan-16875","Jerami-Grant-18576","DeAndre-Jordan-1486","50000","276.34"
"Luka-Doncic-408971","Dennis-Schroder-18595","Mikal-Bridges-408842","Kevin-Durant-1348","Steven-Adams-16848","Andre-Iguodala-1334","Josh-Jackson-37890","DeAndre-Jordan-1486","49900","276.34"
"Dennis-Schroder-18595","Alex-Abrines-36054","Kevin-Durant-1348","Harrison-Barnes-13901","Steven-Adams-16848","Andre-Iguodala-1334","Jerami-Grant-18576","DeAndre-Jordan-1486","49700","276.32"
"Dennis-Schroder-18595","Klay-Thompson-13315","Kevin-Durant-1348","Richaun-Holmes-18905","DeAndre-Jordan-1486","Alex-Abrines-36054","Josh-Jackson-37890","Steven-Adams-16848","49600","276.28"
"Dennis-Schroder-18595","Klay-Thompson-13315","Kevin-Durant-1348","Jerami-Grant-18576","Steven-Adams-16848","Alex-Abrines-36054","Josh-Jackson-37890","Harrison-Barnes-13901","50000","276.24"
"Luka-Doncic-408971","Dennis-Schroder-18595","Kevin-Durant-1348","Richaun-Holmes-18905","DeAndre-Jordan-1486","Shaun-Livingston-14007","Jerami-Grant-18576","Steven-Adams-16848","49900","276.2"
"Dennis-Schroder-18595","Klay-Thompson-13315","Kevin-Durant-1348","Richaun-Holmes-18905","DeAndre-Jordan-1486","Alex-Abrines-36054","Mikal-Bridges-408842","Steven-Adams-16848","49900","275.99"
"Dennis-Schroder-18595","Raymond-Felton-1078","Kevin-Durant-1348","Jonas-Jerebko-1106","Steven-Adams-16848","Klay-Thompson-13315","Alex-Abrines-36054","DeAndre-Jordan-1486","50000","275.85"
"Dennis-Schroder-18595","Raymond-Felton-1078","Kevin-Durant-1348","Harrison-Barnes-13901","DeAndre-Jordan-1486","Dennis-Smith-Jr.-37847","Alex-Abrines-36054","Steven-Adams-16848","50000","275.85"
"Luka-Doncic-408971","Dennis-Schroder-18595","Kevin-Durant-1348","Jonas-Jerebko-1106","DeAndre-Jordan-1486","Alex-Abrines-36054","Josh-Jackson-37890","Steven-Adams-16848","49400","275.84"
"Luka-Doncic-408971","Dennis-Schroder-18595","Kevin-Durant-1348","Jerami-Grant-18576","Deandre-Ayton-409301","Alex-Abrines-36054","Josh-Jackson-37890","DeAndre-Jordan-1486","49900","275.8"
"Luka-Doncic-408971","Dennis-Schroder-18595","Josh-Jackson-37890","Kevin-Durant-1348","Steven-Adams-16848","Isaiah-Canaan-16875","Alex-Abrines-36054","DeAndre-Jordan-1486","49800","275.78"
"Luka-Doncic-408971","Dennis-Schroder-18595","Josh-Jackson-37890","Kevin-Durant-1348","DeAndre-Jordan-1486","Alex-Abrines-36054","Andre-Iguodala-1334","Steven-Adams-16848","49500","275.76"
"Luka-Doncic-408971","Dennis-Schroder-18595","Kevin-Durant-1348","Jonas-Jerebko-1106","DeAndre-Jordan-1486","Andre-Iguodala-1334","Josh-Jackson-37890","Steven-Adams-16848","49900","275.7"
"Luka-Doncic-408971","Dennis-Schroder-18595","Kevin-Durant-1348","Jonas-Jerebko-1106","DeAndre-Jordan-1486","Alex-Abrines-36054","Mikal-Bridges-408842","Steven-Adams-16848","49700","275.55"
"Luka-Doncic-408971","Dennis-Schroder-18595","Mikal-Bridges-408842","Kevin-Durant-1348","Steven-Adams-16848","Raymond-Felton-1078","Josh-Jackson-37890","DeAndre-Jordan-1486","49500","275.49"
"Dennis-Schroder-18595","Raymond-Felton-1078","Kevin-Durant-1348","Harrison-Barnes-13901","Steven-Adams-16848","Alex-Abrines-36054","Jerami-Grant-18576","DeAndre-Jordan-1486","49300","275.47"
"Luka-Doncic-408971","Dennis-Schroder-18595","Mikal-Bridges-408842","Kevin-Durant-1348","Steven-Adams-16848","Alex-Abrines-36054","Andre-Iguodala-1334","DeAndre-Jordan-1486","49800","275.47"
"Dennis-Schroder-18595","Alex-Abrines-36054","Kevin-Durant-1348","Jerami-Grant-18576","Steven-Adams-16848","Dennis-Smith-Jr.-37847","Josh-Jackson-37890","DeAndre-Jordan-1486","48900","275.42"
"Luka-Doncic-408971","Raymond-Felton-1078","Kevin-Durant-1348","Richaun-Holmes-18905","DeAndre-Jordan-1486","Klay-Thompson-13315","Jerami-Grant-18576","Steven-Adams-16848","49700","275.37"
"Dennis-Schroder-18595","Klay-Thompson-13315","Kevin-Durant-1348","Jonas-Jerebko-1106","Steven-Adams-16848","Alex-Abrines-36054","Richaun-Holmes-18905","DeAndre-Jordan-1486","49900","275.35"
"Dennis-Schroder-18595","Alex-Abrines-36054","Kevin-Durant-1348","Harrison-Barnes-13901","Steven-Adams-16848","Dennis-Smith-Jr.-37847","Richaun-Holmes-18905","DeAndre-Jordan-1486","49900","275.35"
"Dennis-Schroder-18595","Raymond-Felton-1078","Kevin-Durant-1348","Harrison-Barnes-13901","Steven-Adams-16848","Andre-Iguodala-1334","Jerami-Grant-18576","DeAndre-Jordan-1486","49800","275.33"
"Isaiah-Canaan-16875","Dennis-Schroder-18595","Kevin-Durant-1348","Jerami-Grant-18576","Steven-Adams-16848","Dennis-Smith-Jr.-37847","Josh-Jackson-37890","DeAndre-Jordan-1486","49700","275.3"
"Dennis-Schroder-18595","Raymond-Felton-1078","Kevin-Durant-1348","Richaun-Holmes-18905","DeAndre-Jordan-1486","Klay-Thompson-13315","Josh-Jackson-37890","Steven-Adams-16848","49700","275.29"
"Dennis-Schroder-18595","Andre-Iguodala-1334","Kevin-Durant-1348","Jerami-Grant-18576","Steven-Adams-16848","Dennis-Smith-Jr.-37847","Josh-Jackson-37890","DeAndre-Jordan-1486","49400","275.28"
"Dennis-Schroder-18595","Klay-Thompson-13315","Kevin-Durant-1348","Richaun-Holmes-18905","DeAndre-Jordan-1486","Andre-Iguodala-1334","Alex-Abrines-36054","Steven-Adams-16848","50000","275.27"
"Luka-Doncic-408971","Dennis-Schroder-18595","Kevin-Durant-1348","Jerami-Grant-18576","DeAndre-Jordan-1486","Klay-Thompson-13315","Alex-Abrines-36054","Shaun-Livingston-14007","50000","275.23"
"Dennis-Schroder-18595","Alex-Abrines-36054","Kevin-Durant-1348","Jerami-Grant-18576","DeAndre-Jordan-1486","Dennis-Smith-Jr.-37847","Mikal-Bridges-408842","Steven-Adams-16848","49200","275.13"
"Dennis-Schroder-18595","Alex-Abrines-36054","Kevin-Durant-1348","TJ-Warren-18634","DeAndre-Jordan-1486","Andre-Iguodala-1334","Jerami-Grant-18576","Steven-Adams-16848","50000","275.09"
"Isaiah-Canaan-16875","Dennis-Schroder-18595","Kevin-Durant-1348","Jerami-Grant-18576","DeAndre-Jordan-1486","Dennis-Smith-Jr.-37847","Mikal-Bridges-408842","Steven-Adams-16848","50000","275.01"
"Luka-Doncic-408971","J.J.-Barea-18605","Josh-Jackson-37890","Kevin-Durant-1348","Steven-Adams-16848","Klay-Thompson-13315","Alex-Abrines-36054","DeAndre-Jordan-1486","49900","275.0"
"Dennis-Schroder-18595","Raymond-Felton-1078","Kevin-Durant-1348","Richaun-Holmes-18905","DeAndre-Jordan-1486","Klay-Thompson-13315","Mikal-Bridges-408842","Steven-Adams-16848","50000","275.0"
"Dennis-Schroder-18595","Andre-Iguodala-1334","Kevin-Durant-1348","Jerami-Grant-18576","DeAndre-Jordan-1486","Dennis-Smith-Jr.-37847","Mikal-Bridges-408842","Steven-Adams-16848","49700","274.99"
"Dennis-Schroder-18595","Raymond-Felton-1078","Kevin-Durant-1348","Kevon-Looney-18945","DeAndre-Jordan-1486","Klay-Thompson-13315","Alex-Abrines-36054","Steven-Adams-16848","50000","274.95"
"Luka-Doncic-408971","Dennis-Schroder-18595","Kevin-Durant-1348","Kevon-Looney-18945","Steven-Adams-16848","Alex-Abrines-36054","Josh-Jackson-37890","DeAndre-Jordan-1486","49400","274.94"
"Dennis-Schroder-18595","Klay-Thompson-13315","Mikal-Bridges-408842","Jerami-Grant-18576","Steven-Adams-16848","Dennis-Smith-Jr.-37847","Josh-Jackson-37890","Kevin-Durant-1348","50000","274.91"
"Luka-Doncic-408971","Dennis-Schroder-18595","Josh-Jackson-37890","Kevin-Durant-1348","Steven-Adams-16848","Raymond-Felton-1078","Alex-Abrines-36054","DeAndre-Jordan-1486","49100","274.91"
"Luka-Doncic-408971","Devin-Booker-18949","Kevin-Durant-1348","Jerami-Grant-18576","Steven-Adams-16848","Shaun-Livingston-14007","Alex-Abrines-36054","DeAndre-Jordan-1486","50000","274.88"
"Dennis-Schroder-18595","Klay-Thompson-13315","Harrison-Barnes-13901","Jerami-Grant-18576","DeAndre-Jordan-1486","Alex-Abrines-36054","Josh-Jackson-37890","Kevin-Durant-1348","49400","274.87"
"Luka-Doncic-408971","Dennis-Schroder-18595","Kevin-Durant-1348","Jonas-Jerebko-1106","DeAndre-Jordan-1486","Raymond-Felton-1078","Josh-Jackson-37890","Steven-Adams-16848","49500","274.85"
"Luka-Doncic-408971","Dennis-Schroder-18595","Kevin-Durant-1348","Jonas-Jerebko-1106","Steven-Adams-16848","Alex-Abrines-36054","Andre-Iguodala-1334","DeAndre-Jordan-1486","49800","274.83"
"Luka-Doncic-408971","Dennis-Schroder-18595","Kevin-Durant-1348","Jerami-Grant-18576","Deandre-Ayton-409301","Raymond-Felton-1078","Josh-Jackson-37890","DeAndre-Jordan-1486","50000","274.81"
"Luka-Doncic-408971","Dennis-Schroder-18595","Kevin-Durant-1348","Kevon-Looney-18945","Steven-Adams-16848","Andre-Iguodala-1334","Josh-Jackson-37890","DeAndre-Jordan-1486","49900","274.8"
"Devin-Booker-18949","Dennis-Schroder-18595","Josh-Jackson-37890","Kevin-Durant-1348","Steven-Adams-16848","Shaun-Livingston-14007","Alex-Abrines-36054","DeAndre-Jordan-1486","50000","274.8"
"Luka-Doncic-408971","Dennis-Schroder-18595","Josh-Jackson-37890","Kevin-Durant-1348","DeAndre-Jordan-1486","Raymond-Felton-1078","Andre-Iguodala-1334","Steven-Adams-16848","49600","274.77"
"Dennis-Schroder-18595","Klay-Thompson-13315","Harrison-Barnes-13901","Jerami-Grant-18576","DeAndre-Jordan-1486","Andre-Iguodala-1334","Josh-Jackson-37890","Kevin-Durant-1348","49900","274.73"
"Luka-Doncic-408971","Klay-Thompson-13315","Kevin-Durant-1348","Jerami-Grant-18576","Steven-Adams-16848","Shaun-Livingston-14007","Josh-Jackson-37890","DeAndre-Jordan-1486","49400","274.66"
"Luka-Doncic-408971","Dennis-Schroder-18595","Kevin-Durant-1348","Kevon-Looney-18945","DeAndre-Jordan-1486","Alex-Abrines-36054","Mikal-Bridges-408842","Steven-Adams-16848","49700","274.65"
"Luka-Doncic-408971","Dennis-Schroder-18595","Mikal-Bridges-408842","Kevin-Durant-1348","DeAndre-Jordan-1486","Raymond-Felton-1078","Alex-Abrines-36054","Steven-Adams-16848","49400","274.62"
"Dennis-Schroder-18595","Klay-Thompson-13315","Harrison-Barnes-13901","Jerami-Grant-18576","DeAndre-Jordan-1486","Alex-Abrines-36054","Mikal-Bridges-408842","Kevin-Durant-1348","49700","274.58"
"Luka-Doncic-408971","Dennis-Schroder-18595","Kevin-Durant-1348","Jonas-Jerebko-1106","DeAndre-Jordan-1486","Raymond-Felton-1078","Mikal-Bridges-408842","Steven-Adams-16848","49800","274.56"
"J.J.-Barea-18605","Klay-Thompson-13315","Kevin-Durant-1348","Jerami-Grant-18576","Steven-Adams-16848","Dennis-Smith-Jr.-37847","Josh-Jackson-37890","DeAndre-Jordan-1486","49800","274.52"
"Dennis-Schroder-18595","Alex-Abrines-36054","Kevin-Durant-1348","Jonas-Jerebko-1106","DeAndre-Jordan-1486","Dennis-Smith-Jr.-37847","Jerami-Grant-18576","Steven-Adams-16848","49200","274.49"
"Luka-Doncic-408971","Dennis-Schroder-18595","Mikal-Bridges-408842","Kevin-Durant-1348","Steven-Adams-16848","Raymond-Felton-1078","Andre-Iguodala-1334","DeAndre-Jordan-1486","49900","274.48"
"Dennis-Schroder-18595","Klay-Thompson-13315","Kevin-Durant-1348","Richaun-Holmes-18905","DeAndre-Jordan-1486","Alex-Abrines-36054","Kevon-Looney-18945","Steven-Adams-16848","49900","274.45"
"Isaiah-Canaan-16875","Dennis-Schroder-18595","Kevin-Durant-1348","Jerami-Grant-18576","Steven-Adams-16848","Dennis-Smith-Jr.-37847","Alex-Abrines-36054","DeAndre-Jordan-1486","49600","274.43"
"Dennis-Schroder-18595","Raymond-Felton-1078","Kevin-Durant-1348","Jerami-Grant-18576","Steven-Adams-16848","Dennis-Smith-Jr.-37847","Josh-Jackson-37890","DeAndre-Jordan-1486","49000","274.43"
"Dennis-Schroder-18595","Raymond-Felton-1078","Kevin-Durant-1348","Richaun-Holmes-18905","DeAndre-Jordan-1486","Klay-Thompson-13315","Alex-Abrines-36054","Steven-Adams-16848","49600","274.42"
"Dennis-Schroder-18595","Andre-Iguodala-1334","Kevin-Durant-1348","Jerami-Grant-18576","Steven-Adams-16848","Dennis-Smith-Jr.-37847","Alex-Abrines-36054","DeAndre-Jordan-1486","49300","274.41"
"Luka-Doncic-408971","Dennis-Schroder-18595","Kevin-Durant-1348","Richaun-Holmes-18905","DeAndre-Jordan-1486","Alex-Abrines-36054","Josh-Jackson-37890","Steven-Adams-16848","49000","274.41"
"Dennis-Schroder-18595","Raymond-Felton-1078","Harrison-Barnes-13901","Jerami-Grant-18576","Steven-Adams-16848","Klay-Thompson-13315","Alex-Abrines-36054","Kevin-Durant-1348","50000","274.38"
"Luka-Doncic-408971","Klay-Thompson-13315","Kevin-Durant-1348","Jerami-Grant-18576","DeAndre-Jordan-1486","Shaun-Livingston-14007","Mikal-Bridges-408842","Steven-Adams-16848","49700","274.37"
"Luka-Doncic-408971","Dennis-Schroder-18595","Kevin-Durant-1348","Jerami-Grant-18576","Steven-Adams-16848","Alex-Abrines-36054","Josh-Jackson-37890","Harrison-Barnes-13901","49400","274.37"
"Isaiah-Canaan-16875","Dennis-Schroder-18595","Kevin-Durant-1348","Jonas-Jerebko-1106","DeAndre-Jordan-1486","Dennis-Smith-Jr.-37847","Jerami-Grant-18576","Steven-Adams-16848","50000","274.37"
"Dennis-Schroder-18595","Raymond-Felton-1078","Kevin-Durant-1348","Harrison-Barnes-13901","Steven-Adams-16848","Dennis-Smith-Jr.-37847","Richaun-Holmes-18905","DeAndre-Jordan-1486","50000","274.36"
"Dennis-Schroder-18595","Raymond-Felton-1078","Kevin-Durant-1348","Jonas-Jerebko-1106","Steven-Adams-16848","Klay-Thompson-13315","Richaun-Holmes-18905","DeAndre-Jordan-1486","50000","274.36"
"Dennis-Schroder-18595","Andre-Iguodala-1334","Kevin-Durant-1348","Jonas-Jerebko-1106","DeAndre-Jordan-1486","Dennis-Smith-Jr.-37847","Jerami-Grant-18576","Steven-Adams-16848","49700","274.35"
"Dennis-Schroder-18595","Klay-Thompson-13315","Kevin-Durant-1348","Jerami-Grant-18576","Steven-Adams-16848","Dennis-Smith-Jr.-37847","Josh-Jackson-37890","Alex-Abrines-36054","49600","274.33"
"Luka-Doncic-408971","Dennis-Schroder-18595","Kevin-Durant-1348","Richaun-Holmes-18905","DeAndre-Jordan-1486","Isaiah-Canaan-16875","Josh-Jackson-37890","Steven-Adams-16848","49800","274.29"
"Dennis-Schroder-18595","Klay-Thompson-13315","Mikal-Bridges-408842","Kevin-Durant-1348","Steven-Adams-16848","Shaun-Livingston-14007","Josh-Jackson-37890","DeAndre-Jordan-1486","49700","274.29"
"Luka-Doncic-408971","Dennis-Schroder-18595","Kevin-Durant-1348","Richaun-Holmes-18905","DeAndre-Jordan-1486","Andre-Iguodala-1334","Josh-Jackson-37890","Steven-Adams-16848","49500","274.27"
"Dennis-Schroder-18595","Klay-Thompson-13315","Kevin-Durant-1348","Jerami-Grant-18576","Steven-Adams-16848","Dennis-Smith-Jr.-37847","Josh-Jackson-37890","Jonas-Jerebko-1106","50000","274.27"
"Dennis-Schroder-18595","Raymond-Felton-1078","Kevin-Durant-1348","TJ-Warren-18634","DeAndre-Jordan-1486","Alex-Abrines-36054","Jerami-Grant-18576","Steven-Adams-16848","49600","274.24"
"Luka-Doncic-408971","Dennis-Schroder-18595","Kevin-Durant-1348","Jerami-Grant-18576","Steven-Adams-16848","Andre-Iguodala-1334","Josh-Jackson-37890","Harrison-Barnes-13901","49900","274.23"
"Dennis-Schroder-18595","Raymond-Felton-1078","Kevin-Durant-1348","Jerami-Grant-18576","DeAndre-Jordan-1486","Dennis-Smith-Jr.-37847","Mikal-Bridges-408842","Steven-Adams-16848","49300","274.14"
"Luka-Doncic-408971","Dennis-Schroder-18595","Kevin-Durant-1348","Richaun-Holmes-18905","DeAndre-Jordan-1486","Alex-Abrines-36054","Mikal-Bridges-408842","Steven-Adams-16848","49300","274.12"
"Luka-Doncic-408971","Dennis-Schroder-18595","Kevin-Durant-1348","Jerami-Grant-18576","DeAndre-Jordan-1486","J.J.-Barea-18605","Josh-Jackson-37890","Dennis-Smith-Jr.-37847","49900","274.09"
"Luka-Doncic-408971","Dennis-Schroder-18595","Kevin-Durant-1348","Harrison-Barnes-13901","Steven-Adams-16848","Alex-Abrines-36054","Mikal-Bridges-408842","Jerami-Grant-18576","49700","274.08"
"Devin-Booker-18949","Dennis-Schroder-18595","Josh-Jackson-37890","Jerami-Grant-18576","DeAndre-Jordan-1486","Dennis-Smith-Jr.-37847","Alex-Abrines-36054","Kevin-Durant-1348","49700","274.05"
"Dennis-Schroder-18595","Klay-Thompson-13315","Mikal-Bridges-408842","Jerami-Grant-18576","Steven-Adams-16848","Dennis-Smith-Jr.-37847","Alex-Abrines-36054","Kevin-Durant-1348","49900","274.04"
"Luka-Doncic-408971","Dennis-Schroder-18595","Mikal-Bridges-408842","Kevin-Durant-1348","DeAndre-Jordan-1486","Klay-Thompson-13315","Alex-Abrines-36054","Josh-Jackson-37890","49500","274.02"
"Luka-Doncic-408971","Dennis-Schroder-18595","Kevin-Durant-1348","Jonas-Jerebko-1106","Steven-Adams-16848","Alex-Abrines-36054","Kevon-Looney-18945","DeAndre-Jordan-1486","49700","274.01"
