"Jordan-Clarkson-18631","Kent-Bazemore-13987","Tobias-Harris-13332","Otto-Porter-17069","Nikola-Jokic-31812","Trae-Young-409063","Tim-Hardaway-Jr.-16879","Alec-Burks-13353","49700","305.8"
"Jordan-Clarkson-18631","Kent-Bazemore-13987","Otto-Porter-17069","Larry-Nance-18946","Nikola-Jokic-31812","Tim-Hardaway-Jr.-16879","Noah-Vonleh-18597","Tobias-Harris-13332","49800","305.62"

"Jordan-Clarkson-18631","Kent-Bazemore-13987","Tobias-Harris-13332","Otto-Porter-17069","Nikola-Jokic-31812","Trae-Young-409063","Tim-Hardaway-Jr.-16879","Alec-Burks-13353","49700","305.8"
"Jordan-Clarkson-18631","Kent-Bazemore-13987","Otto-Porter-17069","Larry-Nance-18946","Nikola-Jokic-31812","Tim-Hardaway-Jr.-16879","Noah-Vonleh-18597","Tobias-Harris-13332","49800","305.62"
"Jordan-Clarkson-18631","Kent-Bazemore-13987","Tim-Hardaway-Jr.-16879","Otto-Porter-17069","Nikola-Jokic-31812","Kyle-Anderson-18615","Noah-Vonleh-18597","Tobias-Harris-13332","49600","305.03"
"Jordan-Clarkson-18631","Kent-Bazemore-13987","Otto-Porter-17069","Marvin-Bagley-III-409321","Nikola-Jokic-31812","Tim-Hardaway-Jr.-16879","Larry-Nance-18946","Tobias-Harris-13332","49800","304.93"
"Jordan-Clarkson-18631","Kent-Bazemore-13987","Tim-Hardaway-Jr.-16879","Otto-Porter-17069","Nikola-Jokic-31812","Alec-Burks-13353","Noah-Vonleh-18597","Tobias-Harris-13332","49000","304.53"
"Jordan-Clarkson-18631","Kent-Bazemore-13987","Tobias-Harris-13332","Marvin-Bagley-III-409321","Nikola-Jokic-31812","Trae-Young-409063","Tim-Hardaway-Jr.-16879","Noah-Vonleh-18597","50000","304.45"
"Jordan-Clarkson-18631","Kent-Bazemore-13987","Tobias-Harris-13332","Marvin-Bagley-III-409321","Nikola-Jokic-31812","Kyle-Anderson-18615","Tim-Hardaway-Jr.-16879","Otto-Porter-17069","49600","304.34"
"Jordan-Clarkson-18631","Kent-Bazemore-13987","Tobias-Harris-13332","Larry-Nance-18946","Bam-Adebayo-37835","Tim-Hardaway-Jr.-16879","Otto-Porter-17069","Nikola-Jokic-31812","49900","304.11"
"Jordan-Clarkson-18631","Kent-Bazemore-13987","Tobias-Harris-13332","Marvin-Bagley-III-409321","Nikola-Jokic-31812","Alec-Burks-13353","Tim-Hardaway-Jr.-16879","Otto-Porter-17069","49000","303.84"
"Jordan-Clarkson-18631","Alec-Burks-13353","Tobias-Harris-13332","Otto-Porter-17069","Nikola-Jokic-31812","Trae-Young-409063","Tim-Hardaway-Jr.-16879","Larry-Nance-18946","49600","303.83"
"Jordan-Clarkson-18631","Alec-Burks-13353","Tobias-Harris-13332","Marvin-Bagley-III-409321","Nikola-Jokic-31812","Tim-Hardaway-Jr.-16879","Noah-Vonleh-18597","Otto-Porter-17069","49500","303.83"
"Jordan-Clarkson-18631","Kent-Bazemore-13987","Tobias-Harris-13332","Otto-Porter-17069","Nikola-Jokic-31812","Kyle-Anderson-18615","Tim-Hardaway-Jr.-16879","Bam-Adebayo-37835","49700","303.52"
"Jordan-Clarkson-18631","Alec-Burks-13353","Kyle-Anderson-18615","Tobias-Harris-13332","Nikola-Jokic-31812","Trae-Young-409063","Tim-Hardaway-Jr.-16879","Otto-Porter-17069","49400","303.24"
"Jordan-Clarkson-18631","Tim-Hardaway-Jr.-16879","Kent-Bazemore-13987","Larry-Nance-18946","Nikola-Jokic-31812","Trae-Young-409063","Noah-Vonleh-18597","Tobias-Harris-13332","49400","303.18"
"Jordan-Clarkson-18631","Kent-Bazemore-13987","Tobias-Harris-13332","Otto-Porter-17069","Nikola-Jokic-31812","Alec-Burks-13353","Tim-Hardaway-Jr.-16879","Gordon-Hayward-1239","49600","303.14"
"Jordan-Clarkson-18631","Kent-Bazemore-13987","Justise-Winslow-18921","Otto-Porter-17069","Nikola-Jokic-31812","Tim-Hardaway-Jr.-16879","Noah-Vonleh-18597","Tobias-Harris-13332","49400","303.12"
"Jordan-Clarkson-18631","Kent-Bazemore-13987","Tobias-Harris-13332","Otto-Porter-17069","Nikola-Jokic-31812","Kyle-Anderson-18615","Tim-Hardaway-Jr.-16879","Larry-Nance-18946","49000","303.07"
"Jordan-Clarkson-18631","Tim-Hardaway-Jr.-16879","Otto-Porter-17069","Larry-Nance-18946","Nikola-Jokic-31812","Kyle-Anderson-18615","Noah-Vonleh-18597","Tobias-Harris-13332","49500","303.06"
"Jordan-Clarkson-18631","Kent-Bazemore-13987","Tobias-Harris-13332","Otto-Porter-17069","Nikola-Jokic-31812","Alec-Burks-13353","Tim-Hardaway-Jr.-16879","Bam-Adebayo-37835","49100","303.02"
"Jordan-Clarkson-18631","Alec-Burks-13353","Tobias-Harris-13332","Otto-Porter-17069","Nikola-Jokic-31812","Tim-Hardaway-Jr.-16879","Bam-Adebayo-37835","Noah-Vonleh-18597","49600","303.01"
"Jordan-Clarkson-18631","Kent-Bazemore-13987","Tobias-Harris-13332","Marvin-Bagley-III-409321","Nikola-Jokic-31812","Trae-Young-409063","Noah-Vonleh-18597","Otto-Porter-17069","49500","302.95"
"Trae-Young-409063","Kent-Bazemore-13987","Tim-Hardaway-Jr.-16879","Otto-Porter-17069","Nikola-Jokic-31812","Alec-Burks-13353","Noah-Vonleh-18597","Tobias-Harris-13332","49900","302.93"
"Jordan-Clarkson-18631","Kent-Bazemore-13987","Kyle-Anderson-18615","Tobias-Harris-13332","Nikola-Jokic-31812","Trae-Young-409063","Tim-Hardaway-Jr.-16879","Noah-Vonleh-18597","49200","302.59"
"Jordan-Clarkson-18631","Kent-Bazemore-13987","Tobias-Harris-13332","Otto-Porter-17069","Nikola-Jokic-31812","Alec-Burks-13353","Tim-Hardaway-Jr.-16879","Larry-Nance-18946","48400","302.57"
"Jordan-Clarkson-18631","Alec-Burks-13353","Otto-Porter-17069","Larry-Nance-18946","Nikola-Jokic-31812","Tim-Hardaway-Jr.-16879","Noah-Vonleh-18597","Tobias-Harris-13332","48900","302.56"
"Jordan-Clarkson-18631","Kent-Bazemore-13987","Tobias-Harris-13332","Marvin-Bagley-III-409321","Nikola-Jokic-31812","Trae-Young-409063","Tim-Hardaway-Jr.-16879","Larry-Nance-18946","49400","302.49"
"Jordan-Clarkson-18631","Tim-Hardaway-Jr.-16879","Tobias-Harris-13332","Marvin-Bagley-III-409321","Nikola-Jokic-31812","Trae-Young-409063","Noah-Vonleh-18597","Larry-Nance-18946","49900","302.48"
"Jordan-Clarkson-18631","Kent-Bazemore-13987","Tobias-Harris-13332","Justise-Winslow-18921","Marvin-Bagley-III-409321","Tim-Hardaway-Jr.-16879","Otto-Porter-17069","Nikola-Jokic-31812","49400","302.43"
"Jordan-Clarkson-18631","Tim-Hardaway-Jr.-16879","Tobias-Harris-13332","Justise-Winslow-18921","Larry-Nance-18946","Trae-Young-409063","Otto-Porter-17069","Nikola-Jokic-31812","50000","302.42"
"Jordan-Clarkson-18631","Kent-Bazemore-13987","Tim-Hardaway-Jr.-16879","Otto-Porter-17069","Nikola-Jokic-31812","Tyreke-Evans-1070","Noah-Vonleh-18597","Tobias-Harris-13332","50000","302.39"
"Jordan-Clarkson-18631","Tim-Hardaway-Jr.-16879","Otto-Porter-17069","Marvin-Bagley-III-409321","Nikola-Jokic-31812","Kyle-Anderson-18615","Larry-Nance-18946","Tobias-Harris-13332","49500","302.37"
"Jordan-Clarkson-18631","Alec-Burks-13353","Tobias-Harris-13332","Otto-Porter-17069","Nikola-Jokic-31812","Tim-Hardaway-Jr.-16879","Bam-Adebayo-37835","Marvin-Bagley-III-409321","49600","302.32"
"Trae-Young-409063","Kent-Bazemore-13987","Tobias-Harris-13332","Marvin-Bagley-III-409321","Nikola-Jokic-31812","Alec-Burks-13353","Tim-Hardaway-Jr.-16879","Otto-Porter-17069","49900","302.24"
"Jordan-Clarkson-18631","Kent-Bazemore-13987","Tobias-Harris-13332","Cedi-Osman-18912","Nikola-Jokic-31812","Tim-Hardaway-Jr.-16879","Otto-Porter-17069","Noah-Vonleh-18597","49700","302.22"
"Jordan-Clarkson-18631","Kent-Bazemore-13987","Marcus-Morris-13316","Larry-Nance-18946","Nikola-Jokic-31812","Tim-Hardaway-Jr.-16879","Otto-Porter-17069","Tobias-Harris-13332","49700","302.19"
"Jordan-Clarkson-18631","Kent-Bazemore-13987","Tim-Hardaway-Jr.-16879","Otto-Porter-17069","Nikola-Jokic-31812","Trae-Young-409063","Noah-Vonleh-18597","Marvin-Bagley-III-409321","49000","302.13"
"Jordan-Clarkson-18631","Kent-Bazemore-13987","Tobias-Harris-13332","Otto-Porter-17069","Nikola-Jokic-31812","Trae-Young-409063","Bam-Adebayo-37835","Noah-Vonleh-18597","49600","302.13"
"Jordan-Clarkson-18631","Alec-Burks-13353","Kent-Bazemore-13987","Tobias-Harris-13332","Noah-Vonleh-18597","Trae-Young-409063","Tim-Hardaway-Jr.-16879","Nikola-Jokic-31812","48600","302.09"
"Jordan-Clarkson-18631","Kent-Bazemore-13987","Kyle-Anderson-18615","Tobias-Harris-13332","Nikola-Jokic-31812","Alec-Burks-13353","Tim-Hardaway-Jr.-16879","Otto-Porter-17069","48200","301.98"
"Jordan-Clarkson-18631","Alec-Burks-13353","Tim-Hardaway-Jr.-16879","Otto-Porter-17069","Nikola-Jokic-31812","Kyle-Anderson-18615","Noah-Vonleh-18597","Tobias-Harris-13332","48700","301.97"
"Jordan-Clarkson-18631","Kent-Bazemore-13987","Tobias-Harris-13332","Otto-Porter-17069","Nikola-Jokic-31812","Trae-Young-409063","Tim-Hardaway-Jr.-16879","Trey-Lyles-18942","49300","301.95"
"Jordan-Clarkson-18631","Tim-Hardaway-Jr.-16879","Tobias-Harris-13332","Otto-Porter-17069","Nikola-Jokic-31812","Trae-Young-409063","Trey-Lyles-18942","Noah-Vonleh-18597","49800","301.94"
"Jordan-Clarkson-18631","Kent-Bazemore-13987","Kyle-Anderson-18615","Tobias-Harris-13332","Nikola-Jokic-31812","Trae-Young-409063","Tim-Hardaway-Jr.-16879","Marvin-Bagley-III-409321","49200","301.9"
"Trae-Young-409063","Jordan-Clarkson-18631","Tobias-Harris-13332","Marvin-Bagley-III-409321","Nikola-Jokic-31812","Kyle-Anderson-18615","Tim-Hardaway-Jr.-16879","Noah-Vonleh-18597","49700","301.89"
"Jordan-Clarkson-18631","Alec-Burks-13353","Otto-Porter-17069","Marvin-Bagley-III-409321","Nikola-Jokic-31812","Tim-Hardaway-Jr.-16879","Larry-Nance-18946","Tobias-Harris-13332","48900","301.87"
"Trae-Young-409063","Jordan-Clarkson-18631","Tobias-Harris-13332","Otto-Porter-17069","Nikola-Jokic-31812","Kyle-Anderson-18615","Tim-Hardaway-Jr.-16879","Justise-Winslow-18921","49800","301.83"
"Jordan-Clarkson-18631","Kent-Bazemore-13987","Tobias-Harris-13332","Marvin-Bagley-III-409321","Nikola-Jokic-31812","Tim-Hardaway-Jr.-16879","Noah-Vonleh-18597","Gordon-Hayward-1239","49900","301.79"
"Jordan-Clarkson-18631","Tim-Hardaway-Jr.-16879","Kent-Bazemore-13987","Larry-Nance-18946","Nikola-Jokic-31812","Trae-Young-409063","Tobias-Harris-13332","Gordon-Hayward-1239","50000","301.79"
"Jordan-Clarkson-18631","Kent-Bazemore-13987","Tobias-Harris-13332","Gordon-Hayward-1239","Nikola-Jokic-31812","Tim-Hardaway-Jr.-16879","Otto-Porter-17069","Justise-Winslow-18921","50000","301.73"
"Jordan-Clarkson-18631","Kent-Bazemore-13987","Marcus-Morris-13316","Tobias-Harris-13332","Nikola-Jokic-31812","Trae-Young-409063","Tim-Hardaway-Jr.-16879","Noah-Vonleh-18597","49900","301.71"
"Jordan-Clarkson-18631","Kent-Bazemore-13987","Tobias-Harris-13332","Marvin-Bagley-III-409321","Nikola-Jokic-31812","Tyreke-Evans-1070","Tim-Hardaway-Jr.-16879","Otto-Porter-17069","50000","301.7"
"Jordan-Clarkson-18631","Kent-Bazemore-13987","Otto-Porter-17069","Larry-Nance-18946","Nikola-Jokic-31812","Trae-Young-409063","Noah-Vonleh-18597","Tobias-Harris-13332","48900","301.68"
"Jordan-Clarkson-18631","Tim-Hardaway-Jr.-16879","Kent-Bazemore-13987","Larry-Nance-18946","Nikola-Jokic-31812","Trae-Young-409063","Tobias-Harris-13332","Bam-Adebayo-37835","49500","301.67"
"Jordan-Clarkson-18631","Kent-Bazemore-13987","Tobias-Harris-13332","Marvin-Bagley-III-409321","Nikola-Jokic-31812","Tim-Hardaway-Jr.-16879","Noah-Vonleh-18597","Bam-Adebayo-37835","49400","301.67"
"Jordan-Clarkson-18631","Tim-Hardaway-Jr.-16879","Tobias-Harris-13332","Larry-Nance-18946","Bam-Adebayo-37835","Trae-Young-409063","Noah-Vonleh-18597","Nikola-Jokic-31812","50000","301.66"
"Jordan-Clarkson-18631","Kent-Bazemore-13987","Tobias-Harris-13332","Justise-Winslow-18921","Bam-Adebayo-37835","Tim-Hardaway-Jr.-16879","Otto-Porter-17069","Nikola-Jokic-31812","49500","301.61"
"Jordan-Clarkson-18631","Kent-Bazemore-13987","Marcus-Morris-13316","Tobias-Harris-13332","Nikola-Jokic-31812","Kyle-Anderson-18615","Tim-Hardaway-Jr.-16879","Otto-Porter-17069","49500","301.6"
"Jordan-Clarkson-18631","Tim-Hardaway-Jr.-16879","Marcus-Morris-13316","Tobias-Harris-13332","Noah-Vonleh-18597","Kyle-Anderson-18615","Otto-Porter-17069","Nikola-Jokic-31812","50000","301.59"
"Jordan-Clarkson-18631","Tim-Hardaway-Jr.-16879","Tobias-Harris-13332","Larry-Nance-18946","Bam-Adebayo-37835","Kyle-Anderson-18615","Otto-Porter-17069","Nikola-Jokic-31812","49600","301.55"
"Jordan-Clarkson-18631","Kent-Bazemore-13987","Cedi-Osman-18912","Marvin-Bagley-III-409321","Nikola-Jokic-31812","Tim-Hardaway-Jr.-16879","Otto-Porter-17069","Tobias-Harris-13332","49700","301.53"
"Jordan-Clarkson-18631","Kent-Bazemore-13987","Tim-Hardaway-Jr.-16879","Otto-Porter-17069","Nikola-Jokic-31812","Collin-Sexton-408896","Noah-Vonleh-18597","Tobias-Harris-13332","50000","301.52"
"Trae-Young-409063","Kent-Bazemore-13987","Tobias-Harris-13332","Otto-Porter-17069","Nikola-Jokic-31812","Kyle-Anderson-18615","Tim-Hardaway-Jr.-16879","Larry-Nance-18946","49900","301.47"
"Kyle-Anderson-18615","Kent-Bazemore-13987","Tobias-Harris-13332","Marvin-Bagley-III-409321","Nikola-Jokic-31812","Tim-Hardaway-Jr.-16879","Noah-Vonleh-18597","Otto-Porter-17069","49800","301.47"
"Jordan-Clarkson-18631","Kent-Bazemore-13987","Tobias-Harris-13332","Otto-Porter-17069","Nikola-Jokic-31812","Trae-Young-409063","Bam-Adebayo-37835","Marvin-Bagley-III-409321","49600","301.44"
"Jordan-Clarkson-18631","Kent-Bazemore-13987","Tim-Hardaway-Jr.-16879","Otto-Porter-17069","Nikola-Jokic-31812","Trae-Young-409063","Noah-Vonleh-18597","Gordon-Hayward-1239","49600","301.43"
"Trae-Young-409063","Kent-Bazemore-13987","Tobias-Harris-13332","Otto-Porter-17069","Nikola-Jokic-31812","Alec-Burks-13353","Tim-Hardaway-Jr.-16879","Bam-Adebayo-37835","50000","301.42"
"Jordan-Clarkson-18631","Kent-Bazemore-13987","Tobias-Harris-13332","Marvin-Bagley-III-409321","Nikola-Jokic-31812","Trae-Young-409063","Tim-Hardaway-Jr.-16879","Alec-Burks-13353","48600","301.4"
"Jordan-Clarkson-18631","Alec-Burks-13353","Tobias-Harris-13332","Marvin-Bagley-III-409321","Nikola-Jokic-31812","Trae-Young-409063","Tim-Hardaway-Jr.-16879","Noah-Vonleh-18597","49100","301.39"
"Jordan-Clarkson-18631","Kent-Bazemore-13987","Juan-Hernangomez-35212","Tobias-Harris-13332","Nikola-Jokic-31812","Tim-Hardaway-Jr.-16879","Otto-Porter-17069","Noah-Vonleh-18597","49400","301.38"
"Jordan-Clarkson-18631","Kent-Bazemore-13987","Tobias-Harris-13332","Noah-Vonleh-18597","Nikola-Jokic-31812","Tim-Hardaway-Jr.-16879","Thaddeus-Young-1289","Otto-Porter-17069","49700","301.38"
"Jordan-Clarkson-18631","Alec-Burks-13353","Tobias-Harris-13332","Otto-Porter-17069","Nikola-Jokic-31812","Trae-Young-409063","Tim-Hardaway-Jr.-16879","Justise-Winslow-18921","49200","301.33"
"Jordan-Clarkson-18631","Kent-Bazemore-13987","Tim-Hardaway-Jr.-16879","Otto-Porter-17069","Nikola-Jokic-31812","Trae-Young-409063","Noah-Vonleh-18597","Bam-Adebayo-37835","49100","301.31"
"Jordan-Clarkson-18631","Alec-Burks-13353","Tobias-Harris-13332","Marvin-Bagley-III-409321","Nikola-Jokic-31812","Kyle-Anderson-18615","Tim-Hardaway-Jr.-16879","Otto-Porter-17069","48700","301.28"
"Jordan-Clarkson-18631","Tim-Hardaway-Jr.-16879","Tobias-Harris-13332","Marvin-Bagley-III-409321","Nikola-Jokic-31812","Trae-Young-409063","Trey-Lyles-18942","Otto-Porter-17069","49800","301.25"
"Jordan-Clarkson-18631","Kent-Bazemore-13987","Tobias-Harris-13332","Marvin-Bagley-III-409321","Nikola-Jokic-31812","Tim-Hardaway-Jr.-16879","Noah-Vonleh-18597","Larry-Nance-18946","48700","301.22"
"Jordan-Clarkson-18631","Kent-Bazemore-13987","Kyle-Anderson-18615","Tobias-Harris-13332","Nikola-Jokic-31812","Trae-Young-409063","Tim-Hardaway-Jr.-16879","Gordon-Hayward-1239","49800","301.2"
"Jordan-Clarkson-18631","Alec-Burks-13353","Gordon-Hayward-1239","Larry-Nance-18946","Nikola-Jokic-31812","Tim-Hardaway-Jr.-16879","Otto-Porter-17069","Tobias-Harris-13332","49500","301.17"
"Jordan-Clarkson-18631","Kent-Bazemore-13987","Tobias-Harris-13332","Justise-Winslow-18921","Larry-Nance-18946","Tim-Hardaway-Jr.-16879","Otto-Porter-17069","Nikola-Jokic-31812","48800","301.16"
"Jordan-Clarkson-18631","Kent-Bazemore-13987","Marcus-Morris-13316","Tobias-Harris-13332","Nikola-Jokic-31812","Alec-Burks-13353","Tim-Hardaway-Jr.-16879","Otto-Porter-17069","48900","301.1"
"Jordan-Clarkson-18631","Alec-Burks-13353","Marcus-Morris-13316","Tobias-Harris-13332","Noah-Vonleh-18597","Tim-Hardaway-Jr.-16879","Otto-Porter-17069","Nikola-Jokic-31812","49400","301.09"
"Trae-Young-409063","Jordan-Clarkson-18631","Kent-Bazemore-13987","Tobias-Harris-13332","Noah-Vonleh-18597","Kyle-Anderson-18615","Otto-Porter-17069","Nikola-Jokic-31812","48700","301.09"
"Jordan-Clarkson-18631","Kent-Bazemore-13987","Kyle-Anderson-18615","Tobias-Harris-13332","Nikola-Jokic-31812","Trae-Young-409063","Tim-Hardaway-Jr.-16879","Bam-Adebayo-37835","49300","301.08"
"Trae-Young-409063","Jordan-Clarkson-18631","Tim-Hardaway-Jr.-16879","Bam-Adebayo-37835","Nikola-Jokic-31812","Kyle-Anderson-18615","Noah-Vonleh-18597","Tobias-Harris-13332","49800","301.07"
"Jordan-Clarkson-18631","Alec-Burks-13353","Tobias-Harris-13332","Larry-Nance-18946","Bam-Adebayo-37835","Tim-Hardaway-Jr.-16879","Otto-Porter-17069","Nikola-Jokic-31812","49000","301.05"
"Jordan-Clarkson-18631","Kent-Bazemore-13987","Marcus-Morris-13316","Tobias-Harris-13332","Nikola-Jokic-31812","Trae-Young-409063","Tim-Hardaway-Jr.-16879","Marvin-Bagley-III-409321","49900","301.02"
"Jordan-Clarkson-18631","Kent-Bazemore-13987","Tobias-Harris-13332","Otto-Porter-17069","Nikola-Jokic-31812","Trae-Young-409063","Tim-Hardaway-Jr.-16879","Mason-Plumlee-16798","49900","301.01"
"Jordan-Clarkson-18631","Kent-Bazemore-13987","Otto-Porter-17069","Marvin-Bagley-III-409321","Nikola-Jokic-31812","Trae-Young-409063","Larry-Nance-18946","Tobias-Harris-13332","48900","300.99"
"Trae-Young-409063","Kent-Bazemore-13987","Tobias-Harris-13332","Otto-Porter-17069","Nikola-Jokic-31812","Alec-Burks-13353","Tim-Hardaway-Jr.-16879","Larry-Nance-18946","49300","300.97"
"Jordan-Clarkson-18631","Tim-Hardaway-Jr.-16879","Tobias-Harris-13332","Marvin-Bagley-III-409321","Bam-Adebayo-37835","Trae-Young-409063","Larry-Nance-18946","Nikola-Jokic-31812","50000","300.97"
"Alec-Burks-13353","Kent-Bazemore-13987","Tobias-Harris-13332","Marvin-Bagley-III-409321","Nikola-Jokic-31812","Tim-Hardaway-Jr.-16879","Noah-Vonleh-18597","Otto-Porter-17069","49200","300.97"
"Jordan-Clarkson-18631","Kent-Bazemore-13987","Gordon-Hayward-1239","Bam-Adebayo-37835","Nikola-Jokic-31812","Tim-Hardaway-Jr.-16879","Noah-Vonleh-18597","Tobias-Harris-13332","50000","300.97"
"Trae-Young-409063","Alec-Burks-13353","Otto-Porter-17069","Larry-Nance-18946","Nikola-Jokic-31812","Tim-Hardaway-Jr.-16879","Noah-Vonleh-18597","Tobias-Harris-13332","49800","300.96"
"Jordan-Clarkson-18631","Tim-Hardaway-Jr.-16879","Marcus-Morris-13316","Tobias-Harris-13332","Nikola-Jokic-31812","Kyle-Anderson-18615","Otto-Porter-17069","Marvin-Bagley-III-409321","50000","300.9"
"Jordan-Clarkson-18631","Kent-Bazemore-13987","Tim-Hardaway-Jr.-16879","Otto-Porter-17069","Nikola-Jokic-31812","Trae-Young-409063","Noah-Vonleh-18597","Larry-Nance-18946","48400","300.86"
"Jordan-Clarkson-18631","Kent-Bazemore-13987","Tobias-Harris-13332","Marvin-Bagley-III-409321","Nikola-Jokic-31812","Collin-Sexton-408896","Tim-Hardaway-Jr.-16879","Otto-Porter-17069","50000","300.83"
"Jordan-Clarkson-18631","Kent-Bazemore-13987","Gordon-Hayward-1239","Marvin-Bagley-III-409321","Nikola-Jokic-31812","Trae-Young-409063","Tim-Hardaway-Jr.-16879","Otto-Porter-17069","49600","300.74"
"Jordan-Clarkson-18631","Kent-Bazemore-13987","Tobias-Harris-13332","Otto-Porter-17069","Nikola-Jokic-31812","Tim-Hardaway-Jr.-16879","Bam-Adebayo-37835","Cedi-Osman-18912","49800","300.71"
"Jordan-Clarkson-18631","Alec-Burks-13353","Kent-Bazemore-13987","Tobias-Harris-13332","Nikola-Jokic-31812","Trae-Young-409063","Tim-Hardaway-Jr.-16879","Gordon-Hayward-1239","49200","300.7"
"Jordan-Clarkson-18631","Kent-Bazemore-13987","Juan-Hernangomez-35212","Tobias-Harris-13332","Nikola-Jokic-31812","Tim-Hardaway-Jr.-16879","Otto-Porter-17069","Marvin-Bagley-III-409321","49400","300.69"
"Jordan-Clarkson-18631","Alec-Burks-13353","Gordon-Hayward-1239","Noah-Vonleh-18597","Nikola-Jokic-31812","Trae-Young-409063","Tim-Hardaway-Jr.-16879","Tobias-Harris-13332","49700","300.69"
