"Spencer-Dinwiddie-18588","D'Angelo-Russell-18947","Josh-Richardson-18922","Al-Farouq-Aminu-1279","Jusuf-Nurkic-18619","Justise-Winslow-18921","Tim-Hardaway-Jr.-16879","Enes-Kanter-13299","50000","272.68"

"Spencer-Dinwiddie-18588","D'Angelo-Russell-18947","Josh-Richardson-18922","Al-Farouq-Aminu-1279","Jusuf-Nurkic-18619","Justise-Winslow-18921","Tim-Hardaway-Jr.-16879","Enes-Kanter-13299","50000","272.68"
"Spencer-Dinwiddie-18588","D'Angelo-Russell-18947","Josh-Richardson-18922","Al-Farouq-Aminu-1279","Jusuf-Nurkic-18619","C.J.-McCollum-17121","Justise-Winslow-18921","Enes-Kanter-13299","49600","271.81"
"Spencer-Dinwiddie-18588","D'Angelo-Russell-18947","Rodney-McGruder-16850","Al-Farouq-Aminu-1279","Jusuf-Nurkic-18619","C.J.-McCollum-17121","Josh-Richardson-18922","Enes-Kanter-13299","49900","271.65"
"D'Angelo-Russell-18947","C.J.-McCollum-17121","Josh-Richardson-18922","Mario-Hezonja-18923","Jusuf-Nurkic-18619","Justise-Winslow-18921","Tim-Hardaway-Jr.-16879","Enes-Kanter-13299","50000","270.42"
"D'Angelo-Russell-18947","Josh-Richardson-18922","Derrick-Jones-36064","Al-Farouq-Aminu-1279","Enes-Kanter-13299","Damian-Lillard-13900","Justise-Winslow-18921","Jusuf-Nurkic-18619","50000","270.3"
"D'Angelo-Russell-18947","Allen-Crabbe-16978","Al-Farouq-Aminu-1279","Mario-Hezonja-18923","Jusuf-Nurkic-18619","Damian-Lillard-13900","Josh-Richardson-18922","Enes-Kanter-13299","49700","269.38"
"Damian-Lillard-13900","Spencer-Dinwiddie-18588","Rodney-McGruder-16850","Al-Farouq-Aminu-1279","Jusuf-Nurkic-18619","Justise-Winslow-18921","Josh-Richardson-18922","Enes-Kanter-13299","50000","269.37"
"Spencer-Dinwiddie-18588","D'Angelo-Russell-18947","Justise-Winslow-18921","Al-Farouq-Aminu-1279","Jusuf-Nurkic-18619","C.J.-McCollum-17121","Tim-Hardaway-Jr.-16879","Enes-Kanter-13299","49700","269.32"
"Wayne-Ellington-1009","Spencer-Dinwiddie-18588","Josh-Richardson-18922","Al-Farouq-Aminu-1279","Jusuf-Nurkic-18619","D'Angelo-Russell-18947","Tim-Hardaway-Jr.-16879","Enes-Kanter-13299","49900","269.32"
"Spencer-Dinwiddie-18588","D'Angelo-Russell-18947","Rodney-McGruder-16850","Al-Farouq-Aminu-1279","Enes-Kanter-13299","C.J.-McCollum-17121","Tim-Hardaway-Jr.-16879","Jusuf-Nurkic-18619","50000","269.16"
"D'Angelo-Russell-18947","C.J.-McCollum-17121","Derrick-Jones-36064","Al-Farouq-Aminu-1279","Enes-Kanter-13299","Tim-Hardaway-Jr.-16879","Josh-Richardson-18922","Jusuf-Nurkic-18619","49800","268.96"
"Spencer-Dinwiddie-18588","D'Angelo-Russell-18947","Allen-Crabbe-16978","Al-Farouq-Aminu-1279","Enes-Kanter-13299","Tim-Hardaway-Jr.-16879","Josh-Richardson-18922","Hassan-Whiteside-18664","49900","268.95"
"Spencer-Dinwiddie-18588","D'Angelo-Russell-18947","Josh-Richardson-18922","Al-Farouq-Aminu-1279","Jusuf-Nurkic-18619","Allen-Crabbe-16978","Tim-Hardaway-Jr.-16879","Enes-Kanter-13299","49300","268.85"
"D'Angelo-Russell-18947","Josh-Richardson-18922","Allen-Crabbe-16978","Al-Farouq-Aminu-1279","Jusuf-Nurkic-18619","Tim-Hardaway-Jr.-16879","Justise-Winslow-18921","Hassan-Whiteside-18664","50000","268.79"
"Damian-Lillard-13900","Josh-Richardson-18922","Al-Farouq-Aminu-1279","Mario-Hezonja-18923","Enes-Kanter-13299","C.J.-McCollum-17121","Justise-Winslow-18921","Jusuf-Nurkic-18619","49900","268.72"
"Spencer-Dinwiddie-18588","D'Angelo-Russell-18947","Josh-Richardson-18922","Mario-Hezonja-18923","Hassan-Whiteside-18664","C.J.-McCollum-17121","Justise-Winslow-18921","Jusuf-Nurkic-18619","50000","268.72"
"D'Angelo-Russell-18947","Josh-Richardson-18922","Rodney-McGruder-16850","Al-Farouq-Aminu-1279","Hassan-Whiteside-18664","Tim-Hardaway-Jr.-16879","Justise-Winslow-18921","Enes-Kanter-13299","49900","268.52"
"D'Angelo-Russell-18947","Rodney-McGruder-16850","Josh-Richardson-18922","Al-Farouq-Aminu-1279","Jusuf-Nurkic-18619","Justise-Winslow-18921","Tim-Hardaway-Jr.-16879","Enes-Kanter-13299","49300","268.42"
"Spencer-Dinwiddie-18588","D'Angelo-Russell-18947","Josh-Richardson-18922","Al-Farouq-Aminu-1279","Jusuf-Nurkic-18619","Evan-Turner-1291","Tim-Hardaway-Jr.-16879","Enes-Kanter-13299","49800","268.36"
"Spencer-Dinwiddie-18588","D'Angelo-Russell-18947","Allen-Crabbe-16978","Al-Farouq-Aminu-1279","Jusuf-Nurkic-18619","Damian-Lillard-13900","Justise-Winslow-18921","Josh-Richardson-18922","50000","268.26"
"Spencer-Dinwiddie-18588","C.J.-McCollum-17121","Josh-Richardson-18922","Al-Farouq-Aminu-1279","Jusuf-Nurkic-18619","Justise-Winslow-18921","Tim-Hardaway-Jr.-16879","Enes-Kanter-13299","49500","268.19"
"Spencer-Dinwiddie-18588","D'Angelo-Russell-18947","Allen-Crabbe-16978","Al-Farouq-Aminu-1279","Enes-Kanter-13299","C.J.-McCollum-17121","Josh-Richardson-18922","Hassan-Whiteside-18664","49500","268.08"
"Spencer-Dinwiddie-18588","Rodney-McGruder-16850","Josh-Richardson-18922","Al-Farouq-Aminu-1279","Jusuf-Nurkic-18619","C.J.-McCollum-17121","Tim-Hardaway-Jr.-16879","Enes-Kanter-13299","49800","268.03"
"Spencer-Dinwiddie-18588","D'Angelo-Russell-18947","Rodney-McGruder-16850","Al-Farouq-Aminu-1279","Enes-Kanter-13299","Damian-Lillard-13900","Josh-Richardson-18922","Justise-Winslow-18921","49900","267.99"
"Spencer-Dinwiddie-18588","D'Angelo-Russell-18947","Allen-Crabbe-16978","Al-Farouq-Aminu-1279","Enes-Kanter-13299","C.J.-McCollum-17121","Josh-Richardson-18922","Jusuf-Nurkic-18619","48900","267.98"
"Damian-Lillard-13900","D'Angelo-Russell-18947","Allen-Crabbe-16978","Noah-Vonleh-18597","Jusuf-Nurkic-18619","Justise-Winslow-18921","Josh-Richardson-18922","Enes-Kanter-13299","50000","267.98"
"Damian-Lillard-13900","D'Angelo-Russell-18947","Allen-Crabbe-16978","Mario-Hezonja-18923","Jusuf-Nurkic-18619","Justise-Winslow-18921","Josh-Richardson-18922","Enes-Kanter-13299","49500","267.93"
"D'Angelo-Russell-18947","Josh-Richardson-18922","Allen-Crabbe-16978","Al-Farouq-Aminu-1279","Jusuf-Nurkic-18619","C.J.-McCollum-17121","Justise-Winslow-18921","Hassan-Whiteside-18664","49600","267.92"
"D'Angelo-Russell-18947","Rodney-McGruder-16850","Allen-Crabbe-16978","Mario-Hezonja-18923","Jusuf-Nurkic-18619","Damian-Lillard-13900","Josh-Richardson-18922","Enes-Kanter-13299","49800","267.77"
"D'Angelo-Russell-18947","Allen-Crabbe-16978","Rodney-McGruder-16850","Al-Farouq-Aminu-1279","Jusuf-Nurkic-18619","C.J.-McCollum-17121","Josh-Richardson-18922","Hassan-Whiteside-18664","49900","267.76"
"D'Angelo-Russell-18947","C.J.-McCollum-17121","Josh-Richardson-18922","Zach-Collins-37866","Enes-Kanter-13299","Tim-Hardaway-Jr.-16879","Justise-Winslow-18921","Jusuf-Nurkic-18619","50000","267.71"
"Spencer-Dinwiddie-18588","D'Angelo-Russell-18947","Joe-Harris-18587","Al-Farouq-Aminu-1279","Enes-Kanter-13299","C.J.-McCollum-17121","Josh-Richardson-18922","Jusuf-Nurkic-18619","49700","267.66"
"D'Angelo-Russell-18947","Josh-Richardson-18922","Rodney-McGruder-16850","Al-Farouq-Aminu-1279","Hassan-Whiteside-18664","C.J.-McCollum-17121","Justise-Winslow-18921","Enes-Kanter-13299","49500","267.65"
"Spencer-Dinwiddie-18588","D'Angelo-Russell-18947","Evan-Turner-1291","Al-Farouq-Aminu-1279","Hassan-Whiteside-18664","C.J.-McCollum-17121","Josh-Richardson-18922","Enes-Kanter-13299","50000","267.59"
"D'Angelo-Russell-18947","Josh-Richardson-18922","Al-Farouq-Aminu-1279","Noah-Vonleh-18597","Jusuf-Nurkic-18619","Damian-Lillard-13900","Mario-Hezonja-18923","Enes-Kanter-13299","49800","267.58"
"D'Angelo-Russell-18947","C.J.-McCollum-17121","Rodney-McGruder-16850","Al-Farouq-Aminu-1279","Jusuf-Nurkic-18619","Justise-Winslow-18921","Josh-Richardson-18922","Enes-Kanter-13299","48900","267.55"
"Spencer-Dinwiddie-18588","C.J.-McCollum-17121","Allen-Crabbe-16978","Mario-Hezonja-18923","Jusuf-Nurkic-18619","Damian-Lillard-13900","Josh-Richardson-18922","Enes-Kanter-13299","50000","267.54"
"Spencer-Dinwiddie-18588","D'Angelo-Russell-18947","Evan-Turner-1291","Al-Farouq-Aminu-1279","Jusuf-Nurkic-18619","C.J.-McCollum-17121","Josh-Richardson-18922","Enes-Kanter-13299","49400","267.49"
"D'Angelo-Russell-18947","Josh-Richardson-18922","Evan-Turner-1291","Mario-Hezonja-18923","Jusuf-Nurkic-18619","Damian-Lillard-13900","Justise-Winslow-18921","Enes-Kanter-13299","50000","267.44"
"D'Angelo-Russell-18947","Josh-Richardson-18922","Al-Farouq-Aminu-1279","Mario-Hezonja-18923","Enes-Kanter-13299","Damian-Lillard-13900","Justise-Winslow-18921","C.J.-McCollum-17121","49800","267.34"
"Spencer-Dinwiddie-18588","D'Angelo-Russell-18947","Derrick-Jones-36064","Mario-Hezonja-18923","Enes-Kanter-13299","Damian-Lillard-13900","Josh-Richardson-18922","Jusuf-Nurkic-18619","49700","267.27"
"Spencer-Dinwiddie-18588","D'Angelo-Russell-18947","Derrick-Jones-36064","Al-Farouq-Aminu-1279","Jusuf-Nurkic-18619","C.J.-McCollum-17121","Josh-Richardson-18922","Hassan-Whiteside-18664","49800","267.26"
"Spencer-Dinwiddie-18588","D'Angelo-Russell-18947","Al-Farouq-Aminu-1279","Noah-Vonleh-18597","Hassan-Whiteside-18664","Josh-Richardson-18922","Tim-Hardaway-Jr.-16879","Enes-Kanter-13299","50000","267.15"
"Damian-Lillard-13900","Josh-Richardson-18922","Rodney-McGruder-16850","Mario-Hezonja-18923","Enes-Kanter-13299","C.J.-McCollum-17121","Justise-Winslow-18921","Jusuf-Nurkic-18619","50000","267.11"
"Spencer-Dinwiddie-18588","D'Angelo-Russell-18947","Al-Farouq-Aminu-1279","Mario-Hezonja-18923","Hassan-Whiteside-18664","Josh-Richardson-18922","Tim-Hardaway-Jr.-16879","Enes-Kanter-13299","49500","267.1"
"Trey-Burke-17029","Spencer-Dinwiddie-18588","Josh-Richardson-18922","Al-Farouq-Aminu-1279","Jusuf-Nurkic-18619","D'Angelo-Russell-18947","Tim-Hardaway-Jr.-16879","Enes-Kanter-13299","49700","267.07"
"Wayne-Ellington-1009","D'Angelo-Russell-18947","Josh-Richardson-18922","Mario-Hezonja-18923","Jusuf-Nurkic-18619","C.J.-McCollum-17121","Tim-Hardaway-Jr.-16879","Enes-Kanter-13299","49900","267.06"
"Spencer-Dinwiddie-18588","D'Angelo-Russell-18947","Al-Farouq-Aminu-1279","Noah-Vonleh-18597","Jusuf-Nurkic-18619","Josh-Richardson-18922","Tim-Hardaway-Jr.-16879","Enes-Kanter-13299","49400","267.05"
"Spencer-Dinwiddie-18588","D'Angelo-Russell-18947","Al-Farouq-Aminu-1279","Mario-Hezonja-18923","Jusuf-Nurkic-18619","Tim-Hardaway-Jr.-16879","Josh-Richardson-18922","Enes-Kanter-13299","48900","267.0"
"D'Angelo-Russell-18947","Josh-Richardson-18922","Al-Farouq-Aminu-1279","Mario-Hezonja-18923","Hassan-Whiteside-18664","Justise-Winslow-18921","Tim-Hardaway-Jr.-16879","Jusuf-Nurkic-18619","49600","266.94"
"Wayne-Ellington-1009","D'Angelo-Russell-18947","Derrick-Jones-36064","Al-Farouq-Aminu-1279","Enes-Kanter-13299","Damian-Lillard-13900","Josh-Richardson-18922","Jusuf-Nurkic-18619","49900","266.94"
"D'Angelo-Russell-18947","C.J.-McCollum-17121","Derrick-Jones-36064","Al-Farouq-Aminu-1279","Enes-Kanter-13299","Damian-Lillard-13900","Justise-Winslow-18921","Jusuf-Nurkic-18619","49700","266.94"
"Spencer-Dinwiddie-18588","D'Angelo-Russell-18947","Allen-Crabbe-16978","Al-Farouq-Aminu-1279","Enes-Kanter-13299","Damian-Lillard-13900","Justise-Winslow-18921","Hassan-Whiteside-18664","49800","266.93"
"Spencer-Dinwiddie-18588","D'Angelo-Russell-18947","Josh-Richardson-18922","Al-Farouq-Aminu-1279","Jusuf-Nurkic-18619","Allen-Crabbe-16978","Tim-Hardaway-Jr.-16879","C.J.-McCollum-17121","49800","266.92"
"D'Angelo-Russell-18947","Allen-Crabbe-16978","Al-Farouq-Aminu-1279","Mario-Hezonja-18923","Jusuf-Nurkic-18619","Damian-Lillard-13900","Tim-Hardaway-Jr.-16879","Enes-Kanter-13299","49800","266.89"
"Spencer-Dinwiddie-18588","D'Angelo-Russell-18947","Allen-Crabbe-16978","Al-Farouq-Aminu-1279","Jusuf-Nurkic-18619","Damian-Lillard-13900","Justise-Winslow-18921","Enes-Kanter-13299","49200","266.83"
"Spencer-Dinwiddie-18588","D'Angelo-Russell-18947","Josh-Richardson-18922","Al-Farouq-Aminu-1279","Enes-Kanter-13299","Justise-Winslow-18921","Tim-Hardaway-Jr.-16879","C.J.-McCollum-17121","49400","266.81"
"D'Angelo-Russell-18947","C.J.-McCollum-17121","Derrick-Jones-36064","Al-Farouq-Aminu-1279","Enes-Kanter-13299","Damian-Lillard-13900","Rodney-McGruder-16850","Jusuf-Nurkic-18619","50000","266.78"
"D'Angelo-Russell-18947","Rodney-McGruder-16850","Al-Farouq-Aminu-1279","Mario-Hezonja-18923","Hassan-Whiteside-18664","Josh-Richardson-18922","Tim-Hardaway-Jr.-16879","Jusuf-Nurkic-18619","49900","266.78"
"Spencer-Dinwiddie-18588","D'Angelo-Russell-18947","Rodney-McGruder-16850","Al-Farouq-Aminu-1279","Hassan-Whiteside-18664","Josh-Richardson-18922","Justise-Winslow-18921","Jusuf-Nurkic-18619","49300","266.72"
"D'Angelo-Russell-18947","Allen-Crabbe-16978","Josh-Richardson-18922","Mario-Hezonja-18923","Enes-Kanter-13299","C.J.-McCollum-17121","Tim-Hardaway-Jr.-16879","Hassan-Whiteside-18664","49900","266.69"
"Damian-Lillard-13900","Josh-Richardson-18922","Derrick-Jones-36064","Al-Farouq-Aminu-1279","Enes-Kanter-13299","Tim-Hardaway-Jr.-16879","Justise-Winslow-18921","Jusuf-Nurkic-18619","49900","266.68"
"D'Angelo-Russell-18947","Allen-Crabbe-16978","Al-Farouq-Aminu-1279","Zach-Collins-37866","Jusuf-Nurkic-18619","Damian-Lillard-13900","Josh-Richardson-18922","Enes-Kanter-13299","49700","266.67"
"Spencer-Dinwiddie-18588","D'Angelo-Russell-18947","Rodney-McGruder-16850","Al-Farouq-Aminu-1279","Jusuf-Nurkic-18619","Damian-Lillard-13900","Allen-Crabbe-16978","Enes-Kanter-13299","49500","266.67"
"Spencer-Dinwiddie-18588","D'Angelo-Russell-18947","Rodney-McGruder-16850","Al-Farouq-Aminu-1279","Enes-Kanter-13299","Josh-Richardson-18922","Tim-Hardaway-Jr.-16879","C.J.-McCollum-17121","49700","266.65"
"D'Angelo-Russell-18947","C.J.-McCollum-17121","Allen-Crabbe-16978","Noah-Vonleh-18597","Jusuf-Nurkic-18619","Tim-Hardaway-Jr.-16879","Josh-Richardson-18922","Enes-Kanter-13299","49800","266.64"
"D'Angelo-Russell-18947","C.J.-McCollum-17121","Allen-Crabbe-16978","Mario-Hezonja-18923","Jusuf-Nurkic-18619","Tim-Hardaway-Jr.-16879","Josh-Richardson-18922","Enes-Kanter-13299","49300","266.59"
"D'Angelo-Russell-18947","Josh-Richardson-18922","Derrick-Jones-36064","Al-Farouq-Aminu-1279","Enes-Kanter-13299","Damian-Lillard-13900","Allen-Crabbe-16978","Hassan-Whiteside-18664","49900","266.57"
"Spencer-Dinwiddie-18588","D'Angelo-Russell-18947","Joe-Harris-18587","Al-Farouq-Aminu-1279","Enes-Kanter-13299","Damian-Lillard-13900","Justise-Winslow-18921","Jusuf-Nurkic-18619","50000","266.51"
"Spencer-Dinwiddie-18588","D'Angelo-Russell-18947","Josh-Richardson-18922","Al-Farouq-Aminu-1279","Jusuf-Nurkic-18619","Emmanuel-Mudiay-18936","Tim-Hardaway-Jr.-16879","Enes-Kanter-13299","49900","266.5"
"D'Angelo-Russell-18947","Rodney-McGruder-16850","Josh-Richardson-18922","Al-Farouq-Aminu-1279","Jusuf-Nurkic-18619","Justise-Winslow-18921","Tim-Hardaway-Jr.-16879","C.J.-McCollum-17121","49800","266.49"
"D'Angelo-Russell-18947","Josh-Richardson-18922","Derrick-Jones-36064","Al-Farouq-Aminu-1279","Enes-Kanter-13299","Damian-Lillard-13900","Allen-Crabbe-16978","Jusuf-Nurkic-18619","49300","266.47"
"Spencer-Dinwiddie-18588","D'Angelo-Russell-18947","Josh-Richardson-18922","Al-Farouq-Aminu-1279","Jusuf-Nurkic-18619","Damian-Lillard-13900","Justise-Winslow-18921","Mario-Hezonja-18923","49600","266.41"
"Spencer-Dinwiddie-18588","D'Angelo-Russell-18947","Evan-Turner-1291","Al-Farouq-Aminu-1279","Jusuf-Nurkic-18619","Damian-Lillard-13900","Justise-Winslow-18921","Enes-Kanter-13299","49700","266.34"
"D'Angelo-Russell-18947","Josh-Richardson-18922","Al-Farouq-Aminu-1279","James-Johnson-1195","Jusuf-Nurkic-18619","Damian-Lillard-13900","Mario-Hezonja-18923","Enes-Kanter-13299","50000","266.32"
"Spencer-Dinwiddie-18588","D'Angelo-Russell-18947","Al-Farouq-Aminu-1279","Noah-Vonleh-18597","Hassan-Whiteside-18664","C.J.-McCollum-17121","Josh-Richardson-18922","Enes-Kanter-13299","49600","266.28"
"Spencer-Dinwiddie-18588","D'Angelo-Russell-18947","Rodney-McGruder-16850","Al-Farouq-Aminu-1279","Jusuf-Nurkic-18619","Damian-Lillard-13900","Josh-Richardson-18922","Mario-Hezonja-18923","49900","266.25"
"Spencer-Dinwiddie-18588","D'Angelo-Russell-18947","Al-Farouq-Aminu-1279","Mario-Hezonja-18923","Enes-Kanter-13299","C.J.-McCollum-17121","Josh-Richardson-18922","Hassan-Whiteside-18664","49100","266.23"
"Damian-Lillard-13900","C.J.-McCollum-17121","Al-Farouq-Aminu-1279","Mario-Hezonja-18923","Enes-Kanter-13299","Tim-Hardaway-Jr.-16879","Justise-Winslow-18921","Jusuf-Nurkic-18619","50000","266.23"
"Spencer-Dinwiddie-18588","D'Angelo-Russell-18947","Al-Farouq-Aminu-1279","Noah-Vonleh-18597","Jusuf-Nurkic-18619","C.J.-McCollum-17121","Josh-Richardson-18922","Enes-Kanter-13299","49000","266.18"
"Spencer-Dinwiddie-18588","D'Angelo-Russell-18947","Evan-Turner-1291","Al-Farouq-Aminu-1279","Enes-Kanter-13299","Damian-Lillard-13900","Rodney-McGruder-16850","Jusuf-Nurkic-18619","50000","266.18"
"Wayne-Ellington-1009","Spencer-Dinwiddie-18588","Josh-Richardson-18922","Al-Farouq-Aminu-1279","Jusuf-Nurkic-18619","Damian-Lillard-13900","Justise-Winslow-18921","Enes-Kanter-13299","49600","266.17"
"Spencer-Dinwiddie-18588","D'Angelo-Russell-18947","Allen-Crabbe-16978","Mario-Hezonja-18923","Enes-Kanter-13299","Damian-Lillard-13900","Josh-Richardson-18922","C.J.-McCollum-17121","49900","266.16"
"Trey-Burke-17029","D'Angelo-Russell-18947","Josh-Richardson-18922","Mario-Hezonja-18923","Enes-Kanter-13299","Damian-Lillard-13900","Justise-Winslow-18921","Jusuf-Nurkic-18619","49900","266.15"
"Trey-Burke-17029","D'Angelo-Russell-18947","Josh-Richardson-18922","Al-Farouq-Aminu-1279","Jusuf-Nurkic-18619","C.J.-McCollum-17121","Justise-Winslow-18921","Hassan-Whiteside-18664","50000","266.14"
"Spencer-Dinwiddie-18588","D'Angelo-Russell-18947","Al-Farouq-Aminu-1279","Mario-Hezonja-18923","Jusuf-Nurkic-18619","C.J.-McCollum-17121","Josh-Richardson-18922","Enes-Kanter-13299","48500","266.13"
"Damian-Lillard-13900","D'Angelo-Russell-18947","Mario-Hezonja-18923","Noah-Vonleh-18597","Enes-Kanter-13299","Justise-Winslow-18921","Josh-Richardson-18922","Jusuf-Nurkic-18619","49600","266.13"
"D'Angelo-Russell-18947","C.J.-McCollum-17121","Al-Farouq-Aminu-1279","Mario-Hezonja-18923","Hassan-Whiteside-18664","Damian-Lillard-13900","Allen-Crabbe-16978","Enes-Kanter-13299","50000","266.12"
"D'Angelo-Russell-18947","C.J.-McCollum-17121","Al-Farouq-Aminu-1279","Noah-Vonleh-18597","Hassan-Whiteside-18664","Justise-Winslow-18921","Josh-Richardson-18922","Jusuf-Nurkic-18619","49700","266.12"
"D'Angelo-Russell-18947","Josh-Richardson-18922","Evan-Turner-1291","Mario-Hezonja-18923","Jusuf-Nurkic-18619","C.J.-McCollum-17121","Tim-Hardaway-Jr.-16879","Enes-Kanter-13299","49800","266.1"
"D'Angelo-Russell-18947","C.J.-McCollum-17121","Al-Farouq-Aminu-1279","Noah-Vonleh-18597","Enes-Kanter-13299","Damian-Lillard-13900","Allen-Crabbe-16978","Jusuf-Nurkic-18619","49900","266.07"
"D'Angelo-Russell-18947","C.J.-McCollum-17121","Al-Farouq-Aminu-1279","Mario-Hezonja-18923","Jusuf-Nurkic-18619","Justise-Winslow-18921","Josh-Richardson-18922","Hassan-Whiteside-18664","49200","266.07"
"D'Angelo-Russell-18947","C.J.-McCollum-17121","Al-Farouq-Aminu-1279","Mario-Hezonja-18923","Enes-Kanter-13299","Damian-Lillard-13900","Allen-Crabbe-16978","Jusuf-Nurkic-18619","49400","266.02"
"Wayne-Ellington-1009","Spencer-Dinwiddie-18588","Rodney-McGruder-16850","Al-Farouq-Aminu-1279","Jusuf-Nurkic-18619","Damian-Lillard-13900","Josh-Richardson-18922","Enes-Kanter-13299","49900","266.01"
"Spencer-Dinwiddie-18588","C.J.-McCollum-17121","Rodney-McGruder-16850","Al-Farouq-Aminu-1279","Jusuf-Nurkic-18619","Damian-Lillard-13900","Justise-Winslow-18921","Enes-Kanter-13299","49700","266.01"
"Spencer-Dinwiddie-18588","D'Angelo-Russell-18947","Josh-Richardson-18922","Zach-Collins-37866","Jusuf-Nurkic-18619","C.J.-McCollum-17121","Justise-Winslow-18921","Hassan-Whiteside-18664","50000","266.01"
"Damian-Lillard-13900","C.J.-McCollum-17121","Al-Farouq-Aminu-1279","Zach-Collins-37866","Jusuf-Nurkic-18619","Justise-Winslow-18921","Josh-Richardson-18922","Enes-Kanter-13299","49900","266.01"
"D'Angelo-Russell-18947","C.J.-McCollum-17121","Allen-Crabbe-16978","Mario-Hezonja-18923","Jusuf-Nurkic-18619","Damian-Lillard-13900","Josh-Richardson-18922","Justise-Winslow-18921","50000","266.0"
"D'Angelo-Russell-18947","Josh-Richardson-18922","Derrick-Jones-36064","Al-Farouq-Aminu-1279","Jusuf-Nurkic-18619","Damian-Lillard-13900","Evan-Turner-1291","Enes-Kanter-13299","49800","265.98"
"D'Angelo-Russell-18947","Rodney-McGruder-16850","Mario-Hezonja-18923","Noah-Vonleh-18597","Enes-Kanter-13299","Damian-Lillard-13900","Josh-Richardson-18922","Jusuf-Nurkic-18619","49900","265.97"
