"Patty-Mills-13977","Eric-Gordon-1077","Garrett-Temple-14077","Lauri-Markkanen-37809","LaMarcus-Aldridge-1349","Chris-Paul-1087","DeMar-DeRozan-1053","Marc-Gasol-1493","49800","273.43"

"Patty-Mills-13977","Eric-Gordon-1077","Garrett-Temple-14077","Lauri-Markkanen-37809","LaMarcus-Aldridge-1349","Chris-Paul-1087","DeMar-DeRozan-1053","Marc-Gasol-1493","49800","273.43"
"Derrick-White-37858","Eric-Gordon-1077","Garrett-Temple-14077","Lauri-Markkanen-37809","LaMarcus-Aldridge-1349","Chris-Paul-1087","DeMar-DeRozan-1053","Marc-Gasol-1493","49900","273.22"
"Shelvin-Mack-13354","Garrett-Temple-14077","Eric-Gordon-1077","Rudy-Gay-1341","LaMarcus-Aldridge-1349","Chris-Paul-1087","DeMar-DeRozan-1053","Marc-Gasol-1493","50000","272.98"
"Shelvin-Mack-13354","Eric-Gordon-1077","Garrett-Temple-14077","Lauri-Markkanen-37809","LaMarcus-Aldridge-1349","Chris-Paul-1087","DeMar-DeRozan-1053","Marc-Gasol-1493","49500","272.13"
"Shelvin-Mack-13354","Patty-Mills-13977","Eric-Gordon-1077","Lauri-Markkanen-37809","LaMarcus-Aldridge-1349","Chris-Paul-1087","DeMar-DeRozan-1053","Marc-Gasol-1493","49800","271.65"
"Chris-Paul-1087","Garrett-Temple-14077","Eric-Gordon-1077","Lauri-Markkanen-37809","LaMarcus-Aldridge-1349","DeMar-DeRozan-1053","P.J.-Tucker-13947","Marc-Gasol-1493","49800","271.57"
"Patty-Mills-13977","Garrett-Temple-14077","DeMar-DeRozan-1053","Lauri-Markkanen-37809","Marc-Gasol-1493","Eric-Gordon-1077","LaMarcus-Aldridge-1349","Clint-Capela-18610","49900","271.51"
"Shelvin-Mack-13354","Derrick-White-37858","Eric-Gordon-1077","Lauri-Markkanen-37809","LaMarcus-Aldridge-1349","Chris-Paul-1087","DeMar-DeRozan-1053","Marc-Gasol-1493","49900","271.44"
"Derrick-White-37858","Garrett-Temple-14077","DeMar-DeRozan-1053","Lauri-Markkanen-37809","Marc-Gasol-1493","Eric-Gordon-1077","LaMarcus-Aldridge-1349","Clint-Capela-18610","50000","271.3"
"Mike-Conley-1062","Garrett-Temple-14077","Eric-Gordon-1077","Rudy-Gay-1341","LaMarcus-Aldridge-1349","Patty-Mills-13977","DeMar-DeRozan-1053","Marc-Gasol-1493","50000","271.01"
"Chris-Paul-1087","Garrett-Temple-14077","Marco-Belinelli-1033","Lauri-Markkanen-37809","LaMarcus-Aldridge-1349","Eric-Gordon-1077","DeMar-DeRozan-1053","Marc-Gasol-1493","49600","270.97"
"Chris-Paul-1087","Garrett-Temple-14077","Gerald-Green-13374","Lauri-Markkanen-37809","Marc-Gasol-1493","DeMar-DeRozan-1053","LaMarcus-Aldridge-1349","Eric-Gordon-1077","49600","270.52"
"Patty-Mills-13977","Eric-Gordon-1077","Marco-Belinelli-1033","Lauri-Markkanen-37809","LaMarcus-Aldridge-1349","Chris-Paul-1087","DeMar-DeRozan-1053","Marc-Gasol-1493","49900","270.49"
"Chris-Paul-1087","Garrett-Temple-14077","DeMar-DeRozan-1053","Lauri-Markkanen-37809","Marc-Gasol-1493","Eric-Gordon-1077","Davis-Bertans-36051","LaMarcus-Aldridge-1349","49600","270.48"
"Antonio-Blakeney-37811","Garrett-Temple-14077","Eric-Gordon-1077","LaMarcus-Aldridge-1349","Marc-Gasol-1493","James-Harden-1037","DeMar-DeRozan-1053","Patty-Mills-13977","50000","270.45"
"Derrick-White-37858","Eric-Gordon-1077","Marco-Belinelli-1033","Lauri-Markkanen-37809","LaMarcus-Aldridge-1349","Chris-Paul-1087","DeMar-DeRozan-1053","Marc-Gasol-1493","50000","270.28"
"Shelvin-Mack-13354","Garrett-Temple-14077","DeMar-DeRozan-1053","Lauri-Markkanen-37809","Marc-Gasol-1493","Eric-Gordon-1077","LaMarcus-Aldridge-1349","Clint-Capela-18610","49600","270.21"
"Mike-Conley-1062","Eric-Gordon-1077","Garrett-Temple-14077","Lauri-Markkanen-37809","LaMarcus-Aldridge-1349","Patty-Mills-13977","DeMar-DeRozan-1053","Marc-Gasol-1493","49500","270.16"
"Chris-Paul-1087","Garrett-Temple-14077","JaMychal-Green-18729","LaMarcus-Aldridge-1349","Wendell-Carter-408878","Eric-Gordon-1077","DeMar-DeRozan-1053","Marc-Gasol-1493","50000","270.14"
"Patty-Mills-13977","Eric-Gordon-1077","Gerald-Green-13374","Lauri-Markkanen-37809","Marc-Gasol-1493","DeMar-DeRozan-1053","LaMarcus-Aldridge-1349","Chris-Paul-1087","49900","270.04"
"Patty-Mills-13977","Eric-Gordon-1077","DeMar-DeRozan-1053","Lauri-Markkanen-37809","Marc-Gasol-1493","Chris-Paul-1087","Davis-Bertans-36051","LaMarcus-Aldridge-1349","49900","270.0"
"Derrick-White-37858","Eric-Gordon-1077","Garrett-Temple-14077","Lauri-Markkanen-37809","LaMarcus-Aldridge-1349","Mike-Conley-1062","DeMar-DeRozan-1053","Marc-Gasol-1493","49600","269.95"
"Derrick-White-37858","Eric-Gordon-1077","Gerald-Green-13374","Lauri-Markkanen-37809","Marc-Gasol-1493","DeMar-DeRozan-1053","LaMarcus-Aldridge-1349","Chris-Paul-1087","50000","269.83"
"James-Harden-1037","Patty-Mills-13977","Eric-Gordon-1077","LaMarcus-Aldridge-1349","Marc-Gasol-1493","Chris-Paul-1087","Garrett-Temple-14077","Shelvin-Mack-13354","49800","269.82"
"Derrick-White-37858","Eric-Gordon-1077","DeMar-DeRozan-1053","Lauri-Markkanen-37809","Marc-Gasol-1493","Chris-Paul-1087","Davis-Bertans-36051","LaMarcus-Aldridge-1349","50000","269.79"
"Shelvin-Mack-13354","DeMar-DeRozan-1053","Eric-Gordon-1077","Lauri-Markkanen-37809","LaMarcus-Aldridge-1349","Chris-Paul-1087","P.J.-Tucker-13947","Marc-Gasol-1493","49800","269.79"
"Patty-Mills-13977","Eric-Gordon-1077","DeMar-DeRozan-1053","Lauri-Markkanen-37809","Marc-Gasol-1493","Shelvin-Mack-13354","LaMarcus-Aldridge-1349","Clint-Capela-18610","49900","269.73"
"Mike-Conley-1062","Garrett-Temple-14077","Eric-Gordon-1077","Rudy-Gay-1341","LaMarcus-Aldridge-1349","Shelvin-Mack-13354","DeMar-DeRozan-1053","Marc-Gasol-1493","49700","269.71"
"Derrick-White-37858","James-Harden-1037","Eric-Gordon-1077","LaMarcus-Aldridge-1349","Marc-Gasol-1493","Chris-Paul-1087","Garrett-Temple-14077","Shelvin-Mack-13354","49900","269.61"
"Patty-Mills-13977","Garrett-Temple-14077","Eric-Gordon-1077","LaMarcus-Aldridge-1349","Bobby-Portis-18909","Chris-Paul-1087","DeMar-DeRozan-1053","Marc-Gasol-1493","49300","269.55"
"Derrick-White-37858","Eric-Gordon-1077","DeMar-DeRozan-1053","Lauri-Markkanen-37809","Marc-Gasol-1493","Shelvin-Mack-13354","LaMarcus-Aldridge-1349","Clint-Capela-18610","50000","269.52"
"Derrick-White-37858","Patty-Mills-13977","Eric-Gordon-1077","Lauri-Markkanen-37809","LaMarcus-Aldridge-1349","Mike-Conley-1062","DeMar-DeRozan-1053","Marc-Gasol-1493","49900","269.47"
"Mike-Conley-1062","Eric-Gordon-1077","Garrett-Temple-14077","Lauri-Markkanen-37809","LaMarcus-Aldridge-1349","Chris-Paul-1087","DeMar-DeRozan-1053","Patty-Mills-13977","50000","269.42"
"Patty-Mills-13977","Eric-Gordon-1077","Rudy-Gay-1341","Lauri-Markkanen-37809","Wendell-Carter-408878","DeMar-DeRozan-1053","LaMarcus-Aldridge-1349","Marc-Gasol-1493","50000","269.34"
"Derrick-White-37858","Garrett-Temple-14077","Eric-Gordon-1077","LaMarcus-Aldridge-1349","Bobby-Portis-18909","Chris-Paul-1087","DeMar-DeRozan-1053","Marc-Gasol-1493","49400","269.34"
"Mike-Conley-1062","Patty-Mills-13977","Eric-Gordon-1077","Rudy-Gay-1341","LaMarcus-Aldridge-1349","Shelvin-Mack-13354","DeMar-DeRozan-1053","Marc-Gasol-1493","50000","269.23"
"Kris-Dunn-35215","DeMar-DeRozan-1053","Eric-Gordon-1077","JaMychal-Green-18729","Marc-Gasol-1493","Chris-Paul-1087","Garrett-Temple-14077","LaMarcus-Aldridge-1349","50000","269.23"
"Shelvin-Mack-13354","Eric-Gordon-1077","Rudy-Gay-1341","Lauri-Markkanen-37809","Bobby-Portis-18909","DeMar-DeRozan-1053","LaMarcus-Aldridge-1349","Marc-Gasol-1493","49900","269.21"
"Shelvin-Mack-13354","Eric-Gordon-1077","Marco-Belinelli-1033","Lauri-Markkanen-37809","LaMarcus-Aldridge-1349","Chris-Paul-1087","DeMar-DeRozan-1053","Marc-Gasol-1493","49600","269.19"
"Mike-Conley-1062","Garrett-Temple-14077","P.J.-Tucker-13947","LaMarcus-Aldridge-1349","Marc-Gasol-1493","Eric-Gordon-1077","DeMar-DeRozan-1053","Rudy-Gay-1341","50000","269.15"
"Antonio-Blakeney-37811","Garrett-Temple-14077","Eric-Gordon-1077","LaMarcus-Aldridge-1349","Marc-Gasol-1493","James-Harden-1037","DeMar-DeRozan-1053","Shelvin-Mack-13354","49700","269.15"
"James-Harden-1037","Eric-Gordon-1077","Garrett-Temple-14077","Lauri-Markkanen-37809","LaMarcus-Aldridge-1349","DeMar-DeRozan-1053","JaMychal-Green-18729","Patty-Mills-13977","50000","268.93"
"Kris-Dunn-35215","Garrett-Temple-14077","DeMar-DeRozan-1053","Lauri-Markkanen-37809","Marc-Gasol-1493","Eric-Gordon-1077","LaMarcus-Aldridge-1349","Rudy-Gay-1341","49700","268.91"
"Derrick-White-37858","Patty-Mills-13977","Eric-Gordon-1077","LaMarcus-Aldridge-1349","Bobby-Portis-18909","Chris-Paul-1087","DeMar-DeRozan-1053","Marc-Gasol-1493","49700","268.86"
"Mike-Conley-1062","Eric-Gordon-1077","Garrett-Temple-14077","Lauri-Markkanen-37809","LaMarcus-Aldridge-1349","Shelvin-Mack-13354","DeMar-DeRozan-1053","Marc-Gasol-1493","49200","268.86"
"Shelvin-Mack-13354","Eric-Gordon-1077","Gerald-Green-13374","Lauri-Markkanen-37809","Marc-Gasol-1493","DeMar-DeRozan-1053","LaMarcus-Aldridge-1349","Chris-Paul-1087","49600","268.74"
"Shelvin-Mack-13354","Eric-Gordon-1077","DeMar-DeRozan-1053","Lauri-Markkanen-37809","Marc-Gasol-1493","Chris-Paul-1087","Davis-Bertans-36051","LaMarcus-Aldridge-1349","49600","268.7"
"Patty-Mills-13977","Garrett-Temple-14077","DeMar-DeRozan-1053","LaMarcus-Aldridge-1349","Marc-Gasol-1493","Chris-Paul-1087","Jaren-Jackson-409099","Eric-Gordon-1077","49700","268.68"
"Antonio-Blakeney-37811","James-Harden-1037","Eric-Gordon-1077","LaMarcus-Aldridge-1349","Marc-Gasol-1493","Patty-Mills-13977","DeMar-DeRozan-1053","Shelvin-Mack-13354","50000","268.67"
"James-Harden-1037","Eric-Gordon-1077","Marco-Belinelli-1033","LaMarcus-Aldridge-1349","Marc-Gasol-1493","Chris-Paul-1087","Garrett-Temple-14077","Patty-Mills-13977","49900","268.66"
"Chris-Paul-1087","Marco-Belinelli-1033","Eric-Gordon-1077","Lauri-Markkanen-37809","LaMarcus-Aldridge-1349","DeMar-DeRozan-1053","P.J.-Tucker-13947","Marc-Gasol-1493","49900","268.63"
"Antonio-Blakeney-37811","Garrett-Temple-14077","Eric-Gordon-1077","P.J.-Tucker-13947","Marc-Gasol-1493","James-Harden-1037","DeMar-DeRozan-1053","LaMarcus-Aldridge-1349","50000","268.59"
"James-Harden-1037","Garrett-Temple-14077","Eric-Gordon-1077","LaMarcus-Aldridge-1349","Marc-Gasol-1493","MarShon-Brooks-188837","DeMar-DeRozan-1053","Shelvin-Mack-13354","49900","268.58"
"Patty-Mills-13977","Marco-Belinelli-1033","DeMar-DeRozan-1053","Lauri-Markkanen-37809","Marc-Gasol-1493","Eric-Gordon-1077","LaMarcus-Aldridge-1349","Clint-Capela-18610","50000","268.57"
"Mike-Conley-1062","Marco-Belinelli-1033","Eric-Gordon-1077","Rudy-Gay-1341","LaMarcus-Aldridge-1349","Garrett-Temple-14077","DeMar-DeRozan-1053","Marc-Gasol-1493","49800","268.55"
"Derrick-White-37858","Garrett-Temple-14077","DeMar-DeRozan-1053","LaMarcus-Aldridge-1349","Marc-Gasol-1493","Chris-Paul-1087","Jaren-Jackson-409099","Eric-Gordon-1077","49800","268.47"
"Derrick-White-37858","Eric-Gordon-1077","Marco-Belinelli-1033","LaMarcus-Aldridge-1349","Marc-Gasol-1493","Chris-Paul-1087","Garrett-Temple-14077","James-Harden-1037","50000","268.45"
"Patty-Mills-13977","Eric-Gordon-1077","DeMar-DeRozan-1053","Lauri-Markkanen-37809","Marc-Gasol-1493","Kris-Dunn-35215","LaMarcus-Aldridge-1349","Rudy-Gay-1341","50000","268.43"
"Mike-Conley-1062","Patty-Mills-13977","Eric-Gordon-1077","Lauri-Markkanen-37809","LaMarcus-Aldridge-1349","Shelvin-Mack-13354","DeMar-DeRozan-1053","Marc-Gasol-1493","49500","268.38"
"Patty-Mills-13977","Garrett-Temple-14077","Eric-Gordon-1077","LaMarcus-Aldridge-1349","Wendell-Carter-408878","Chris-Paul-1087","DeMar-DeRozan-1053","Marc-Gasol-1493","49100","268.38"
"Shelvin-Mack-13354","Eric-Gordon-1077","JaMychal-Green-18729","LaMarcus-Aldridge-1349","Wendell-Carter-408878","Chris-Paul-1087","DeMar-DeRozan-1053","Marc-Gasol-1493","50000","268.36"
"Antonio-Blakeney-37811","Garrett-Temple-14077","Eric-Gordon-1077","Rudy-Gay-1341","LaMarcus-Aldridge-1349","Chris-Paul-1087","DeMar-DeRozan-1053","Marc-Gasol-1493","49600","268.32"
"Mike-Conley-1062","Garrett-Temple-14077","Eric-Gordon-1077","Lauri-Markkanen-37809","LaMarcus-Aldridge-1349","DeMar-DeRozan-1053","P.J.-Tucker-13947","Marc-Gasol-1493","49500","268.3"
"Shelvin-Mack-13354","Garrett-Temple-14077","Eric-Gordon-1077","LaMarcus-Aldridge-1349","Bobby-Portis-18909","Chris-Paul-1087","DeMar-DeRozan-1053","Marc-Gasol-1493","49000","268.25"
"Shelvin-Mack-13354","DeMar-DeRozan-1053","Garrett-Temple-14077","Lauri-Markkanen-37809","Marc-Gasol-1493","Chris-Paul-1087","Wendell-Carter-408878","LaMarcus-Aldridge-1349","49900","268.23"
"James-Harden-1037","Eric-Gordon-1077","Garrett-Temple-14077","LaMarcus-Aldridge-1349","Marc-Gasol-1493","Chris-Paul-1087","Gerald-Green-13374","Patty-Mills-13977","49900","268.21"
"Chris-Paul-1087","DeMar-DeRozan-1053","Eric-Gordon-1077","Lauri-Markkanen-37809","LaMarcus-Aldridge-1349","Gerald-Green-13374","P.J.-Tucker-13947","Marc-Gasol-1493","49900","268.18"
"Derrick-White-37858","Garrett-Temple-14077","Eric-Gordon-1077","LaMarcus-Aldridge-1349","Wendell-Carter-408878","Chris-Paul-1087","DeMar-DeRozan-1053","Marc-Gasol-1493","49200","268.17"
"James-Harden-1037","Patty-Mills-13977","Eric-Gordon-1077","LaMarcus-Aldridge-1349","Davis-Bertans-36051","Chris-Paul-1087","Garrett-Temple-14077","Marc-Gasol-1493","49900","268.17"
"Mike-Conley-1062","Derrick-White-37858","Eric-Gordon-1077","Lauri-Markkanen-37809","LaMarcus-Aldridge-1349","Shelvin-Mack-13354","DeMar-DeRozan-1053","Marc-Gasol-1493","49600","268.17"
"Chris-Paul-1087","Eric-Gordon-1077","P.J.-Tucker-13947","LaMarcus-Aldridge-1349","Marc-Gasol-1493","DeMar-DeRozan-1053","Davis-Bertans-36051","Lauri-Markkanen-37809","49900","268.14"
"Mike-Conley-1062","Eric-Gordon-1077","Garrett-Temple-14077","Lauri-Markkanen-37809","LaMarcus-Aldridge-1349","Chris-Paul-1087","DeMar-DeRozan-1053","Shelvin-Mack-13354","49700","268.12"
"Patty-Mills-13977","Eric-Gordon-1077","Gerald-Green-13374","Lauri-Markkanen-37809","Marc-Gasol-1493","DeMar-DeRozan-1053","LaMarcus-Aldridge-1349","Clint-Capela-18610","50000","268.12"
"Mike-Conley-1062","Garrett-Temple-14077","Eric-Gordon-1077","Rudy-Gay-1341","LaMarcus-Aldridge-1349","Gerald-Green-13374","DeMar-DeRozan-1053","Marc-Gasol-1493","49800","268.1"
"Mike-Conley-1062","Garrett-Temple-14077","Eric-Gordon-1077","Rudy-Gay-1341","Davis-Bertans-36051","DeMar-DeRozan-1053","LaMarcus-Aldridge-1349","Marc-Gasol-1493","49800","268.06"
"Mike-Conley-1062","Garrett-Temple-14077","JaMychal-Green-18729","Bobby-Portis-18909","Marc-Gasol-1493","Eric-Gordon-1077","DeMar-DeRozan-1053","LaMarcus-Aldridge-1349","49900","268.04"
"Shelvin-Mack-13354","Eric-Gordon-1077","Rudy-Gay-1341","Lauri-Markkanen-37809","Wendell-Carter-408878","DeMar-DeRozan-1053","LaMarcus-Aldridge-1349","Marc-Gasol-1493","49700","268.04"
"Derrick-White-37858","Eric-Gordon-1077","Garrett-Temple-14077","LaMarcus-Aldridge-1349","Marc-Gasol-1493","Chris-Paul-1087","Gerald-Green-13374","James-Harden-1037","50000","268.0"
"Antonio-Blakeney-37811","Eric-Gordon-1077","Marco-Belinelli-1033","LaMarcus-Aldridge-1349","Marc-Gasol-1493","DeMar-DeRozan-1053","Garrett-Temple-14077","James-Harden-1037","49800","267.99"
"Chris-Paul-1087","Eric-Gordon-1077","Garrett-Temple-14077","Lauri-Markkanen-37809","LaMarcus-Aldridge-1349","Ryan-Arcidiacono-36050","DeMar-DeRozan-1053","Marc-Gasol-1493","49600","267.97"
"James-Harden-1037","Eric-Gordon-1077","Garrett-Temple-14077","LaMarcus-Aldridge-1349","Marc-Gasol-1493","Chris-Paul-1087","P.J.-Tucker-13947","Shelvin-Mack-13354","49800","267.96"
"Derrick-White-37858","James-Harden-1037","Eric-Gordon-1077","LaMarcus-Aldridge-1349","Davis-Bertans-36051","Chris-Paul-1087","Garrett-Temple-14077","Marc-Gasol-1493","50000","267.96"
"James-Harden-1037","Patty-Mills-13977","Eric-Gordon-1077","LaMarcus-Aldridge-1349","Marc-Gasol-1493","Shelvin-Mack-13354","Garrett-Temple-14077","Clint-Capela-18610","49900","267.9"
"Shelvin-Mack-13354","Eric-Gordon-1077","P.J.-Tucker-13947","Lauri-Markkanen-37809","Marc-Gasol-1493","DeMar-DeRozan-1053","LaMarcus-Aldridge-1349","Clint-Capela-18610","49900","267.87"
"Antonio-Blakeney-37811","Patty-Mills-13977","Eric-Gordon-1077","Rudy-Gay-1341","LaMarcus-Aldridge-1349","Chris-Paul-1087","DeMar-DeRozan-1053","Marc-Gasol-1493","49900","267.84"
"James-Harden-1037","Eric-Gordon-1077","Garrett-Temple-14077","Lauri-Markkanen-37809","Marc-Gasol-1493","Patty-Mills-13977","Bobby-Portis-18909","LaMarcus-Aldridge-1349","49700","267.83"
"Mike-Conley-1062","Patty-Mills-13977","Eric-Gordon-1077","Lauri-Markkanen-37809","LaMarcus-Aldridge-1349","DeMar-DeRozan-1053","P.J.-Tucker-13947","Marc-Gasol-1493","49800","267.82"
"Derrick-White-37858","Garrett-Temple-14077","Eric-Gordon-1077","Rudy-Gay-1341","LaMarcus-Aldridge-1349","James-Harden-1037","DeMar-DeRozan-1053","Patty-Mills-13977","49700","267.81"
"Shelvin-Mack-13354","Patty-Mills-13977","Eric-Gordon-1077","LaMarcus-Aldridge-1349","Bobby-Portis-18909","Chris-Paul-1087","DeMar-DeRozan-1053","Marc-Gasol-1493","49300","267.77"
"Chris-Paul-1087","Garrett-Temple-14077","Eric-Gordon-1077","Rudy-Gay-1341","LaMarcus-Aldridge-1349","MarShon-Brooks-188837","DeMar-DeRozan-1053","Marc-Gasol-1493","49800","267.75"
"Mike-Conley-1062","Garrett-Temple-14077","Marco-Belinelli-1033","Lauri-Markkanen-37809","LaMarcus-Aldridge-1349","Eric-Gordon-1077","DeMar-DeRozan-1053","Marc-Gasol-1493","49300","267.7"
"Derrick-White-37858","James-Harden-1037","Eric-Gordon-1077","LaMarcus-Aldridge-1349","Marc-Gasol-1493","Shelvin-Mack-13354","Garrett-Temple-14077","Clint-Capela-18610","50000","267.69"
"Chris-Paul-1087","Garrett-Temple-14077","Eric-Gordon-1077","P.J.-Tucker-13947","Marc-Gasol-1493","DeMar-DeRozan-1053","Bobby-Portis-18909","LaMarcus-Aldridge-1349","49300","267.69"
"Derrick-White-37858","Patty-Mills-13977","Eric-Gordon-1077","LaMarcus-Aldridge-1349","Wendell-Carter-408878","Chris-Paul-1087","DeMar-DeRozan-1053","Marc-Gasol-1493","49500","267.69"
"Patty-Mills-13977","Garrett-Temple-14077","Justin-Holiday-14559","LaMarcus-Aldridge-1349","Marc-Gasol-1493","Chris-Paul-1087","DeMar-DeRozan-1053","Eric-Gordon-1077","49200","267.68"
"Mike-Conley-1062","Patty-Mills-13977","Eric-Gordon-1077","Lauri-Markkanen-37809","LaMarcus-Aldridge-1349","Chris-Paul-1087","DeMar-DeRozan-1053","Shelvin-Mack-13354","50000","267.64"
"Derrick-White-37858","James-Harden-1037","Eric-Gordon-1077","LaMarcus-Aldridge-1349","Marc-Gasol-1493","Mike-Conley-1062","Garrett-Temple-14077","Patty-Mills-13977","49900","267.64"
"Derrick-White-37858","Antonio-Blakeney-37811","Eric-Gordon-1077","Rudy-Gay-1341","LaMarcus-Aldridge-1349","Chris-Paul-1087","DeMar-DeRozan-1053","Marc-Gasol-1493","50000","267.63"
"James-Harden-1037","Eric-Gordon-1077","Garrett-Temple-14077","Lauri-Markkanen-37809","LaMarcus-Aldridge-1349","DeMar-DeRozan-1053","JaMychal-Green-18729","Shelvin-Mack-13354","49700","267.63"
"Patty-Mills-13977","Eric-Gordon-1077","Garrett-Temple-14077","LaMarcus-Aldridge-1349","Marc-Gasol-1493","DeMar-DeRozan-1053","Bobby-Portis-18909","Clint-Capela-18610","49400","267.63"
