"Seth-Curry-16825","De'Anthony-Melton-409081","Evan-Turner-1291","Al-Horford-1499","Jusuf-Nurkic-18619","Chris-Paul-1087","Tim-Hardaway-Jr.-16879","James-Harden-1037","50000","266.28"
"Damian-Lillard-13900","Seth-Curry-16825","Mikal-Bridges-408842","Al-Horford-1499","Jusuf-Nurkic-18619","De'Anthony-Melton-409081","Evan-Turner-1291","James-Harden-1037","49900","265.87"
"Damian-Lillard-13900","De'Anthony-Melton-409081","Nik-Stauskas-18636","Al-Horford-1499","Jusuf-Nurkic-18619","Elie-Okobo-409300","Evan-Turner-1291","James-Harden-1037","49900","265.6"
"Damian-Lillard-13900","Seth-Curry-16825","Nik-Stauskas-18636","Marcus-Morris-13316","Jusuf-Nurkic-18619","De'Anthony-Melton-409081","Al-Horford-1499","James-Harden-1037","50000","265.57"

"Seth-Curry-16825","De'Anthony-Melton-409081","Evan-Turner-1291","Al-Horford-1499","Jusuf-Nurkic-18619","Chris-Paul-1087","Tim-Hardaway-Jr.-16879","James-Harden-1037","50000","266.28"
"Damian-Lillard-13900","Seth-Curry-16825","Mikal-Bridges-408842","Al-Horford-1499","Jusuf-Nurkic-18619","De'Anthony-Melton-409081","Evan-Turner-1291","James-Harden-1037","49900","265.87"
"Damian-Lillard-13900","De'Anthony-Melton-409081","Nik-Stauskas-18636","Al-Horford-1499","Jusuf-Nurkic-18619","Elie-Okobo-409300","Evan-Turner-1291","James-Harden-1037","49900","265.6"
"Damian-Lillard-13900","Seth-Curry-16825","Nik-Stauskas-18636","Marcus-Morris-13316","Jusuf-Nurkic-18619","De'Anthony-Melton-409081","Al-Horford-1499","James-Harden-1037","50000","265.57"
"Damian-Lillard-13900","Seth-Curry-16825","Nik-Stauskas-18636","Marcus-Morris-13316","Jusuf-Nurkic-18619","Evan-Turner-1291","Al-Horford-1499","James-Harden-1037","50000","265.52"
"Damian-Lillard-13900","Mikal-Bridges-408842","Nik-Stauskas-18636","Al-Horford-1499","Jusuf-Nurkic-18619","De'Anthony-Melton-409081","Evan-Turner-1291","James-Harden-1037","50000","265.29"
"Seth-Curry-16825","Donovan-Mitchell-37875","Evan-Turner-1291","Al-Horford-1499","Jusuf-Nurkic-18619","De'Anthony-Melton-409081","Tim-Hardaway-Jr.-16879","James-Harden-1037","49900","265.27"
"Damian-Lillard-13900","Seth-Curry-16825","Nik-Stauskas-18636","Al-Horford-1499","Jusuf-Nurkic-18619","Elie-Okobo-409300","Josh-Jackson-37890","James-Harden-1037","49900","265.11"
