"Dennis-Smith-Jr.-37847","Devin-Booker-18949","Josh-Jackson-37890","Julius-Randle-18632","DeAndre-Jordan-1486","Tyus-Jones-18938","E'Twaun-Moore-18582","Karl-Anthony-Towns-18937","50000","281.64"
"Devin-Booker-18949","Andrew-Wiggins-18620","Mikal-Bridges-408842","Josh-Jackson-37890","DeAndre-Jordan-1486","E'Twaun-Moore-18582","Julius-Randle-18632","Karl-Anthony-Towns-18937","50000","281.5"
"Tyus-Jones-18938","Devin-Booker-18949","E'Twaun-Moore-18582","Kevon-Looney-18945","Karl-Anthony-Towns-18937","Dennis-Schroder-18595","Julius-Randle-18632","DeAndre-Jordan-1486","49900","281.24"
"Devin-Booker-18949","E'Twaun-Moore-18582","Josh-Jackson-37890","Julius-Randle-18632","Karl-Anthony-Towns-18937","Dennis-Schroder-18595","Taj-Gibson-1277","DeAndre-Jordan-1486","49700","280.94"
"Tyus-Jones-18938","Devin-Booker-18949","Solomon-Hill-16863","Julius-Randle-18632","Karl-Anthony-Towns-18937","Andrew-Wiggins-18620","E'Twaun-Moore-18582","DeAndre-Jordan-1486","49900","280.77"

"Dennis-Smith-Jr.-37847","Devin-Booker-18949","Josh-Jackson-37890","Julius-Randle-18632","DeAndre-Jordan-1486","Tyus-Jones-18938","E'Twaun-Moore-18582","Karl-Anthony-Towns-18937","50000","281.64"
"Devin-Booker-18949","Andrew-Wiggins-18620","Mikal-Bridges-408842","Josh-Jackson-37890","DeAndre-Jordan-1486","E'Twaun-Moore-18582","Julius-Randle-18632","Karl-Anthony-Towns-18937","50000","281.5"
"Tyus-Jones-18938","Devin-Booker-18949","E'Twaun-Moore-18582","Kevon-Looney-18945","Karl-Anthony-Towns-18937","Dennis-Schroder-18595","Julius-Randle-18632","DeAndre-Jordan-1486","49900","281.24"
"Devin-Booker-18949","E'Twaun-Moore-18582","Josh-Jackson-37890","Julius-Randle-18632","Karl-Anthony-Towns-18937","Dennis-Schroder-18595","Taj-Gibson-1277","DeAndre-Jordan-1486","49700","280.94"
"Tyus-Jones-18938","Devin-Booker-18949","Solomon-Hill-16863","Julius-Randle-18632","Karl-Anthony-Towns-18937","Andrew-Wiggins-18620","E'Twaun-Moore-18582","DeAndre-Jordan-1486","49900","280.77"
"Devin-Booker-18949","Stephen-Curry-1079","Josh-Jackson-37890","Taj-Gibson-1277","DeAndre-Jordan-1486","Dennis-Schroder-18595","E'Twaun-Moore-18582","Julius-Randle-18632","50000","280.64"
"Tyus-Jones-18938","Devin-Booker-18949","Josh-Jackson-37890","Julius-Randle-18632","DeAndre-Jordan-1486","Dennis-Schroder-18595","Andrew-Wiggins-18620","Deandre-Ayton-409301","50000","280.5"
"Tyus-Jones-18938","Devin-Booker-18949","Josh-Jackson-37890","Kevin-Durant-1348","Taj-Gibson-1277","E'Twaun-Moore-18582","Julius-Randle-18632","DeAndre-Jordan-1486","49700","280.37"
"Tyus-Jones-18938","Devin-Booker-18949","Josh-Jackson-37890","Julius-Randle-18632","DeAndre-Jordan-1486","Russell-Westbrook-1083","E'Twaun-Moore-18582","Jahlil-Okafor-18902","49700","280.36"
"Tyus-Jones-18938","Devin-Booker-18949","Josh-Jackson-37890","Julius-Randle-18632","Karl-Anthony-Towns-18937","E'Twaun-Moore-18582","Taj-Gibson-1277","DeAndre-Jordan-1486","49300","280.35"
"Devin-Booker-18949","E'Twaun-Moore-18582","Josh-Jackson-37890","Julius-Randle-18632","Karl-Anthony-Towns-18937","De'Anthony-Melton-409081","Draymond-Green-13976","DeAndre-Jordan-1486","49800","280.29"
"Tyus-Jones-18938","Devin-Booker-18949","Josh-Jackson-37890","Kevon-Looney-18945","Karl-Anthony-Towns-18937","Dennis-Schroder-18595","Julius-Randle-18632","DeAndre-Jordan-1486","49800","280.24"
"Tyus-Jones-18938","Devin-Booker-18949","Josh-Jackson-37890","Julius-Randle-18632","DeAndre-Jordan-1486","Stephen-Curry-1079","Andrew-Wiggins-18620","Jahlil-Okafor-18902","50000","280.15"
"Tyus-Jones-18938","Devin-Booker-18949","E'Twaun-Moore-18582","Kevon-Looney-18945","Karl-Anthony-Towns-18937","Elfrid-Payton-18602","Julius-Randle-18632","DeAndre-Jordan-1486","49900","280.11"
"Tyus-Jones-18938","Devin-Booker-18949","Josh-Jackson-37890","Taj-Gibson-1277","DeAndre-Jordan-1486","Stephen-Curry-1079","E'Twaun-Moore-18582","Julius-Randle-18632","49600","280.05"
"Tyus-Jones-18938","Devin-Booker-18949","Harrison-Barnes-13901","Julius-Randle-18632","DeAndre-Jordan-1486","De'Anthony-Melton-409081","E'Twaun-Moore-18582","Karl-Anthony-Towns-18937","49900","280.04"
"Devin-Booker-18949","E'Twaun-Moore-18582","Josh-Jackson-37890","TJ-Warren-18634","DeAndre-Jordan-1486","De'Anthony-Melton-409081","Julius-Randle-18632","Karl-Anthony-Towns-18937","50000","279.93"
"Tyus-Jones-18938","Devin-Booker-18949","E'Twaun-Moore-18582","Julius-Randle-18632","DeAndre-Jordan-1486","Russell-Westbrook-1083","Taj-Gibson-1277","Jahlil-Okafor-18902","50000","279.92"
"Tyus-Jones-18938","Devin-Booker-18949","Andrew-Wiggins-18620","Josh-Jackson-37890","Julius-Randle-18632","Jrue-Holiday-1073","E'Twaun-Moore-18582","DeAndre-Jordan-1486","50000","279.85"
"Devin-Booker-18949","E'Twaun-Moore-18582","Josh-Jackson-37890","Dario-Saric-36004","Karl-Anthony-Towns-18937","Dennis-Schroder-18595","Julius-Randle-18632","DeAndre-Jordan-1486","49800","279.85"
"Devin-Booker-18949","E'Twaun-Moore-18582","Josh-Jackson-37890","Julius-Randle-18632","Karl-Anthony-Towns-18937","Elfrid-Payton-18602","Taj-Gibson-1277","DeAndre-Jordan-1486","49700","279.81"
"Tyus-Jones-18938","Devin-Booker-18949","Josh-Jackson-37890","Solomon-Hill-16863","Karl-Anthony-Towns-18937","Andrew-Wiggins-18620","Julius-Randle-18632","DeAndre-Jordan-1486","49800","279.77"
"Devin-Booker-18949","Klay-Thompson-13315","Josh-Jackson-37890","Julius-Randle-18632","Deandre-Ayton-409301","Andrew-Wiggins-18620","E'Twaun-Moore-18582","DeAndre-Jordan-1486","50000","279.74"
"Devin-Booker-18949","Andrew-Wiggins-18620","Josh-Jackson-37890","Kevon-Looney-18945","DeAndre-Jordan-1486","E'Twaun-Moore-18582","Kevin-Durant-1348","Julius-Randle-18632","49900","279.74"
"Devin-Booker-18949","Andrew-Wiggins-18620","Josh-Jackson-37890","Kevon-Looney-18945","Karl-Anthony-Towns-18937","E'Twaun-Moore-18582","Julius-Randle-18632","DeAndre-Jordan-1486","49500","279.72"
"Tyus-Jones-18938","Devin-Booker-18949","Josh-Jackson-37890","Solomon-Hill-16863","DeAndre-Jordan-1486","Russell-Westbrook-1083","E'Twaun-Moore-18582","Julius-Randle-18632","49800","279.68"
"Tyus-Jones-18938","Devin-Booker-18949","Josh-Jackson-37890","Harrison-Barnes-13901","Karl-Anthony-Towns-18937","Dennis-Schroder-18595","E'Twaun-Moore-18582","Julius-Randle-18632","49800","279.65"
"Tyus-Jones-18938","Klay-Thompson-13315","Andrew-Wiggins-18620","Julius-Randle-18632","Draymond-Green-13976","Devin-Booker-18949","E'Twaun-Moore-18582","DeAndre-Jordan-1486","50000","279.52"
"Devin-Booker-18949","Stephen-Curry-1079","Josh-Jackson-37890","Taj-Gibson-1277","DeAndre-Jordan-1486","Elfrid-Payton-18602","E'Twaun-Moore-18582","Julius-Randle-18632","50000","279.51"
"Devin-Booker-18949","Klay-Thompson-13315","Josh-Jackson-37890","Kevon-Looney-18945","Karl-Anthony-Towns-18937","E'Twaun-Moore-18582","Julius-Randle-18632","DeAndre-Jordan-1486","49800","279.48"
"Devin-Booker-18949","E'Twaun-Moore-18582","Josh-Jackson-37890","Julius-Randle-18632","Karl-Anthony-Towns-18937","Dennis-Schroder-18595","Taj-Gibson-1277","Draymond-Green-13976","50000","279.46"
"Devin-Booker-18949","E'Twaun-Moore-18582","Josh-Jackson-37890","Julius-Randle-18632","Deandre-Ayton-409301","Dennis-Schroder-18595","Draymond-Green-13976","DeAndre-Jordan-1486","49700","279.44"
"Devin-Booker-18949","Stephen-Curry-1079","Josh-Jackson-37890","Kevon-Looney-18945","Julius-Randle-18632","Andrew-Wiggins-18620","E'Twaun-Moore-18582","DeAndre-Jordan-1486","49800","279.42"
"Tyus-Jones-18938","Devin-Booker-18949","Josh-Jackson-37890","Kevon-Looney-18945","Deandre-Ayton-409301","E'Twaun-Moore-18582","Julius-Randle-18632","Karl-Anthony-Towns-18937","49800","279.39"
"Tyus-Jones-18938","Devin-Booker-18949","Josh-Jackson-37890","Julius-Randle-18632","DeAndre-Jordan-1486","Elfrid-Payton-18602","Andrew-Wiggins-18620","Deandre-Ayton-409301","50000","279.37"
"Devin-Booker-18949","E'Twaun-Moore-18582","Mikal-Bridges-408842","Josh-Jackson-37890","DeAndre-Jordan-1486","Dennis-Schroder-18595","Kevin-Durant-1348","Julius-Randle-18632","49900","279.31"
"Devin-Booker-18949","E'Twaun-Moore-18582","Mikal-Bridges-408842","Josh-Jackson-37890","DeAndre-Jordan-1486","Dennis-Schroder-18595","Julius-Randle-18632","Karl-Anthony-Towns-18937","49500","279.29"
"Tyus-Jones-18938","Devin-Booker-18949","Josh-Jackson-37890","Dario-Saric-36004","Julius-Randle-18632","E'Twaun-Moore-18582","Kevin-Durant-1348","DeAndre-Jordan-1486","49800","279.28"
"Tyus-Jones-18938","Devin-Booker-18949","Josh-Jackson-37890","Dario-Saric-36004","Karl-Anthony-Towns-18937","E'Twaun-Moore-18582","Julius-Randle-18632","DeAndre-Jordan-1486","49400","279.26"
"Tyus-Jones-18938","Devin-Booker-18949","Kevin-Durant-1348","Julius-Randle-18632","Jahlil-Okafor-18902","Dennis-Schroder-18595","E'Twaun-Moore-18582","DeAndre-Jordan-1486","49700","279.26"
"Devin-Booker-18949","Mikal-Bridges-408842","Josh-Jackson-37890","Harrison-Barnes-13901","Karl-Anthony-Towns-18937","E'Twaun-Moore-18582","Julius-Randle-18632","DeAndre-Jordan-1486","49700","279.19"
"Tyus-Jones-18938","Devin-Booker-18949","Harrison-Barnes-13901","Julius-Randle-18632","DeAndre-Jordan-1486","Dennis-Schroder-18595","E'Twaun-Moore-18582","Deandre-Ayton-409301","49800","279.19"
"Tyus-Jones-18938","Stephen-Curry-1079","Josh-Jackson-37890","Kevon-Looney-18945","Karl-Anthony-Towns-18937","E'Twaun-Moore-18582","Julius-Randle-18632","DeAndre-Jordan-1486","49900","279.18"
"Tyus-Jones-18938","Devin-Booker-18949","Harrison-Barnes-13901","Kevin-Durant-1348","DeAndre-Jordan-1486","E'Twaun-Moore-18582","Julius-Randle-18632","Jahlil-Okafor-18902","49900","279.16"
"Tyus-Jones-18938","Devin-Booker-18949","Josh-Jackson-37890","Kevin-Durant-1348","DeAndre-Jordan-1486","De'Anthony-Melton-409081","Julius-Randle-18632","Dennis-Schroder-18595","50000","279.16"
"Tyus-Jones-18938","Devin-Booker-18949","Josh-Jackson-37890","Kevon-Looney-18945","Karl-Anthony-Towns-18937","Elfrid-Payton-18602","Julius-Randle-18632","DeAndre-Jordan-1486","49800","279.11"
"Devin-Booker-18949","E'Twaun-Moore-18582","Kevin-Durant-1348","Julius-Randle-18632","DeAndre-Jordan-1486","Dennis-Schroder-18595","Wesley-Matthews-1339","Josh-Jackson-37890","50000","279.1"
"Devin-Booker-18949","Stephen-Curry-1079","Josh-Jackson-37890","Julius-Randle-18632","DeAndre-Jordan-1486","E'Twaun-Moore-18582","Draymond-Green-13976","Jahlil-Okafor-18902","49700","279.09"
"Devin-Booker-18949","Dennis-Schroder-18595","Josh-Jackson-37890","Julius-Randle-18632","DeAndre-Jordan-1486","Wesley-Matthews-1339","E'Twaun-Moore-18582","Karl-Anthony-Towns-18937","49600","279.08"
"Devin-Booker-18949","E'Twaun-Moore-18582","Josh-Jackson-37890","TJ-Warren-18634","Deandre-Ayton-409301","Dennis-Schroder-18595","Julius-Randle-18632","DeAndre-Jordan-1486","49900","279.08"
"Devin-Booker-18949","E'Twaun-Moore-18582","Harrison-Barnes-13901","Solomon-Hill-16863","Karl-Anthony-Towns-18937","Dennis-Schroder-18595","Julius-Randle-18632","DeAndre-Jordan-1486","50000","279.05"
"Tyus-Jones-18938","Devin-Booker-18949","Josh-Jackson-37890","Harrison-Barnes-13901","Karl-Anthony-Towns-18937","De'Anthony-Melton-409081","Julius-Randle-18632","DeAndre-Jordan-1486","49800","279.04"
"Devin-Booker-18949","Stephen-Curry-1079","Mikal-Bridges-408842","Josh-Jackson-37890","DeAndre-Jordan-1486","E'Twaun-Moore-18582","Julius-Randle-18632","Dennis-Schroder-18595","49800","278.99"
"Devin-Booker-18949","E'Twaun-Moore-18582","Josh-Jackson-37890","Harrison-Barnes-13901","Karl-Anthony-Towns-18937","Wesley-Matthews-1339","Julius-Randle-18632","DeAndre-Jordan-1486","49800","278.98"
"Tyus-Jones-18938","Devin-Booker-18949","Josh-Jackson-37890","Julius-Randle-18632","Karl-Anthony-Towns-18937","Andrew-Wiggins-18620","Draymond-Green-13976","Jahlil-Okafor-18902","50000","278.97"
"Tyus-Jones-18938","Devin-Booker-18949","Josh-Jackson-37890","Dario-Saric-36004","DeAndre-Jordan-1486","Stephen-Curry-1079","E'Twaun-Moore-18582","Julius-Randle-18632","49700","278.96"
"Tyus-Jones-18938","Devin-Booker-18949","Josh-Jackson-37890","Julius-Randle-18632","Jahlil-Okafor-18902","Russell-Westbrook-1083","Taj-Gibson-1277","DeAndre-Jordan-1486","49900","278.92"
"Tyus-Jones-18938","Devin-Booker-18949","Kevin-Durant-1348","Julius-Randle-18632","Draymond-Green-13976","E'Twaun-Moore-18582","Taj-Gibson-1277","Josh-Jackson-37890","50000","278.89"
"Devin-Booker-18949","Stephen-Curry-1079","Mikal-Bridges-408842","Josh-Jackson-37890","DeAndre-Jordan-1486","E'Twaun-Moore-18582","Julius-Randle-18632","Harrison-Barnes-13901","50000","278.89"
"Tyus-Jones-18938","Devin-Booker-18949","Josh-Jackson-37890","Julius-Randle-18632","Draymond-Green-13976","Russell-Westbrook-1083","E'Twaun-Moore-18582","Jahlil-Okafor-18902","50000","278.88"
"Devin-Booker-18949","Dennis-Schroder-18595","Josh-Jackson-37890","Julius-Randle-18632","Deandre-Ayton-409301","De'Anthony-Melton-409081","E'Twaun-Moore-18582","Karl-Anthony-Towns-18937","50000","278.88"
"Tyus-Jones-18938","Devin-Booker-18949","Josh-Jackson-37890","Julius-Randle-18632","Karl-Anthony-Towns-18937","E'Twaun-Moore-18582","Taj-Gibson-1277","Draymond-Green-13976","49600","278.87"
"Tyus-Jones-18938","Devin-Booker-18949","TJ-Warren-18634","Julius-Randle-18632","DeAndre-Jordan-1486","Dennis-Schroder-18595","E'Twaun-Moore-18582","Draymond-Green-13976","49900","278.86"
"Devin-Booker-18949","J.J.-Barea-18605","Josh-Jackson-37890","Julius-Randle-18632","DeAndre-Jordan-1486","Dennis-Schroder-18595","E'Twaun-Moore-18582","Karl-Anthony-Towns-18937","49900","278.85"
"Tyus-Jones-18938","Devin-Booker-18949","Josh-Jackson-37890","Julius-Randle-18632","Deandre-Ayton-409301","E'Twaun-Moore-18582","Draymond-Green-13976","DeAndre-Jordan-1486","49300","278.85"
"Devin-Booker-18949","E'Twaun-Moore-18582","Mikal-Bridges-408842","Julius-Randle-18632","DeAndre-Jordan-1486","Dennis-Schroder-18595","Taj-Gibson-1277","Karl-Anthony-Towns-18937","49800","278.85"
"Tyus-Jones-18938","Devin-Booker-18949","Harrison-Barnes-13901","Julius-Randle-18632","DeAndre-Jordan-1486","Stephen-Curry-1079","E'Twaun-Moore-18582","Jahlil-Okafor-18902","49800","278.84"
"Devin-Booker-18949","Stephen-Curry-1079","E'Twaun-Moore-18582","Josh-Jackson-37890","Julius-Randle-18632","Dennis-Schroder-18595","Wesley-Matthews-1339","DeAndre-Jordan-1486","49900","278.78"
"Devin-Booker-18949","Mikal-Bridges-408842","Harrison-Barnes-13901","Julius-Randle-18632","DeAndre-Jordan-1486","E'Twaun-Moore-18582","Taj-Gibson-1277","Karl-Anthony-Towns-18937","50000","278.75"
"Devin-Booker-18949","Stephen-Curry-1079","Josh-Jackson-37890","TJ-Warren-18634","Jahlil-Okafor-18902","E'Twaun-Moore-18582","Julius-Randle-18632","DeAndre-Jordan-1486","49900","278.73"
"Tyus-Jones-18938","Devin-Booker-18949","Mikal-Bridges-408842","Josh-Jackson-37890","DeAndre-Jordan-1486","E'Twaun-Moore-18582","Kevin-Durant-1348","Julius-Randle-18632","49500","278.72"
"Devin-Booker-18949","E'Twaun-Moore-18582","Josh-Jackson-37890","Dario-Saric-36004","Karl-Anthony-Towns-18937","Elfrid-Payton-18602","Julius-Randle-18632","DeAndre-Jordan-1486","49800","278.72"
"Tyus-Jones-18938","Devin-Booker-18949","Mikal-Bridges-408842","Josh-Jackson-37890","DeAndre-Jordan-1486","E'Twaun-Moore-18582","Julius-Randle-18632","Karl-Anthony-Towns-18937","49100","278.7"
"Tyus-Jones-18938","Devin-Booker-18949","E'Twaun-Moore-18582","Julius-Randle-18632","Karl-Anthony-Towns-18937","De'Anthony-Melton-409081","Draymond-Green-13976","Dennis-Schroder-18595","50000","278.66"
"Tyus-Jones-18938","Devin-Booker-18949","Josh-Jackson-37890","Kevin-Durant-1348","Julius-Randle-18632","Elfrid-Payton-18602","E'Twaun-Moore-18582","Dennis-Schroder-18595","50000","278.64"
"Devin-Booker-18949","E'Twaun-Moore-18582","Wesley-Matthews-1339","Julius-Randle-18632","Karl-Anthony-Towns-18937","Dennis-Schroder-18595","Taj-Gibson-1277","DeAndre-Jordan-1486","49900","278.64"
"Devin-Booker-18949","Andrew-Wiggins-18620","Josh-Jackson-37890","Kevin-Durant-1348","Julius-Randle-18632","De'Anthony-Melton-409081","E'Twaun-Moore-18582","DeAndre-Jordan-1486","49700","278.64"
"Tyus-Jones-18938","Devin-Booker-18949","Josh-Jackson-37890","Julius-Randle-18632","Karl-Anthony-Towns-18937","Elfrid-Payton-18602","E'Twaun-Moore-18582","Dennis-Schroder-18595","49600","278.62"
"Devin-Booker-18949","E'Twaun-Moore-18582","Josh-Jackson-37890","Julius-Randle-18632","Karl-Anthony-Towns-18937","De'Anthony-Melton-409081","Andrew-Wiggins-18620","DeAndre-Jordan-1486","49300","278.62"
"Tyus-Jones-18938","Devin-Booker-18949","Solomon-Hill-16863","Kevin-Durant-1348","DeAndre-Jordan-1486","E'Twaun-Moore-18582","Julius-Randle-18632","Dennis-Schroder-18595","49800","278.58"
"Tyus-Jones-18938","Devin-Booker-18949","E'Twaun-Moore-18582","Julius-Randle-18632","Draymond-Green-13976","Stephen-Curry-1079","Taj-Gibson-1277","Josh-Jackson-37890","49900","278.57"
"Tyus-Jones-18938","Devin-Booker-18949","Solomon-Hill-16863","Julius-Randle-18632","Karl-Anthony-Towns-18937","Dennis-Schroder-18595","E'Twaun-Moore-18582","DeAndre-Jordan-1486","49400","278.56"
"Dennis-Smith-Jr.-37847","Devin-Booker-18949","Mikal-Bridges-408842","Josh-Jackson-37890","DeAndre-Jordan-1486","Tyus-Jones-18938","Julius-Randle-18632","Karl-Anthony-Towns-18937","50000","278.55"
"Devin-Booker-18949","Stephen-Curry-1079","Josh-Jackson-37890","Julius-Randle-18632","Karl-Anthony-Towns-18937","De'Anthony-Melton-409081","E'Twaun-Moore-18582","Jahlil-Okafor-18902","50000","278.53"
"Tyus-Jones-18938","Devin-Booker-18949","E'Twaun-Moore-18582","Dario-Saric-36004","Taj-Gibson-1277","Stephen-Curry-1079","Julius-Randle-18632","DeAndre-Jordan-1486","50000","278.52"
"Tyus-Jones-18938","Klay-Thompson-13315","Josh-Jackson-37890","Julius-Randle-18632","DeAndre-Jordan-1486","Andrew-Wiggins-18620","Draymond-Green-13976","Devin-Booker-18949","49900","278.52"
"Tyus-Jones-18938","Devin-Booker-18949","Josh-Jackson-37890","Harrison-Barnes-13901","Karl-Anthony-Towns-18937","Elfrid-Payton-18602","E'Twaun-Moore-18582","Julius-Randle-18632","49800","278.52"
"Tyus-Jones-18938","Devin-Booker-18949","Josh-Jackson-37890","Julius-Randle-18632","Karl-Anthony-Towns-18937","E'Twaun-Moore-18582","Taj-Gibson-1277","TJ-Warren-18634","49800","278.51"
"Tyus-Jones-18938","Devin-Booker-18949","Kevin-Durant-1348","Julius-Randle-18632","DeAndre-Jordan-1486","E'Twaun-Moore-18582","Wesley-Matthews-1339","Josh-Jackson-37890","49600","278.51"
"Dennis-Smith-Jr.-37847","Devin-Booker-18949","Andrew-Wiggins-18620","Josh-Jackson-37890","Julius-Randle-18632","Tyus-Jones-18938","E'Twaun-Moore-18582","Karl-Anthony-Towns-18937","49800","278.49"
"Tyus-Jones-18938","Devin-Booker-18949","Josh-Jackson-37890","TJ-Warren-18634","Deandre-Ayton-409301","E'Twaun-Moore-18582","Julius-Randle-18632","DeAndre-Jordan-1486","49500","278.49"
"Tyus-Jones-18938","Devin-Booker-18949","Josh-Jackson-37890","Julius-Randle-18632","DeAndre-Jordan-1486","Wesley-Matthews-1339","E'Twaun-Moore-18582","Karl-Anthony-Towns-18937","49200","278.49"
"Tyus-Jones-18938","Devin-Booker-18949","Harrison-Barnes-13901","Solomon-Hill-16863","Julius-Randle-18632","E'Twaun-Moore-18582","Kevin-Durant-1348","DeAndre-Jordan-1486","50000","278.48"
"Tyus-Jones-18938","Devin-Booker-18949","Harrison-Barnes-13901","Solomon-Hill-16863","Karl-Anthony-Towns-18937","E'Twaun-Moore-18582","Julius-Randle-18632","DeAndre-Jordan-1486","49600","278.46"
"Devin-Booker-18949","Stephen-Curry-1079","Josh-Jackson-37890","Julius-Randle-18632","DeAndre-Jordan-1486","E'Twaun-Moore-18582","Draymond-Green-13976","Solomon-Hill-16863","49800","278.41"
"Devin-Booker-18949","Klay-Thompson-13315","Josh-Jackson-37890","Kevin-Durant-1348","Julius-Randle-18632","De'Anthony-Melton-409081","E'Twaun-Moore-18582","DeAndre-Jordan-1486","50000","278.4"
"Tyus-Jones-18938","Devin-Booker-18949","Andrew-Wiggins-18620","Gorgui-Dieng-16939","Karl-Anthony-Towns-18937","E'Twaun-Moore-18582","Julius-Randle-18632","DeAndre-Jordan-1486","50000","278.4"
"Tyus-Jones-18938","E'Twaun-Moore-18582","Josh-Jackson-37890","Kevin-Durant-1348","DeAndre-Jordan-1486","De'Anthony-Melton-409081","Julius-Randle-18632","Karl-Anthony-Towns-18937","49800","278.4"
"Tyus-Jones-18938","Devin-Booker-18949","Mikal-Bridges-408842","Josh-Jackson-37890","DeAndre-Jordan-1486","Stephen-Curry-1079","Julius-Randle-18632","E'Twaun-Moore-18582","49400","278.4"
"Devin-Booker-18949","Klay-Thompson-13315","Josh-Jackson-37890","Julius-Randle-18632","DeAndre-Jordan-1486","De'Anthony-Melton-409081","E'Twaun-Moore-18582","Karl-Anthony-Towns-18937","49600","278.38"
