"Chris-Paul-1087","Derrick-Rose-1086","Buddy-Hield-35206","Dario-Saric-36004","Wendell-Carter-408878","Eric-Gordon-1077","Nemanja-Bjelica-31814","Russell-Westbrook-1083","50000","292.13"

"Chris-Paul-1087","Derrick-Rose-1086","Buddy-Hield-35206","Dario-Saric-36004","Wendell-Carter-408878","Eric-Gordon-1077","Nemanja-Bjelica-31814","Russell-Westbrook-1083","50000","292.13"
"Chris-Paul-1087","Derrick-Rose-1086","Nemanja-Bjelica-31814","Dario-Saric-36004","Wendell-Carter-408878","Buddy-Hield-35206","Jerami-Grant-18576","Russell-Westbrook-1083","50000","291.19"
"Derrick-Rose-1086","Buddy-Hield-35206","Bogdan-Bogdanovic-37899","Dario-Saric-36004","Willie-Cauley-Stein-18951","Russell-Westbrook-1083","Nemanja-Bjelica-31814","Wendell-Carter-408878","50000","290.36"
"Dennis-Schroder-18595","Derrick-Rose-1086","Buddy-Hield-35206","Lauri-Markkanen-37809","Wendell-Carter-408878","Russell-Westbrook-1083","Nemanja-Bjelica-31814","Dario-Saric-36004","49900","290.21"
"Derrick-Rose-1086","Buddy-Hield-35206","Josh-Okogie-409174","Dario-Saric-36004","Rudy-Gobert-16935","Russell-Westbrook-1083","Lauri-Markkanen-37809","Nemanja-Bjelica-31814","50000","290.13"
"Chris-Paul-1087","Derrick-Rose-1086","Josh-Okogie-409174","Nemanja-Bjelica-31814","Wendell-Carter-408878","Buddy-Hield-35206","Andrew-Wiggins-18620","Russell-Westbrook-1083","49900","290.12"
"Ricky-Rubio-1001","Derrick-Rose-1086","Andrew-Wiggins-18620","Dario-Saric-36004","Wendell-Carter-408878","Russell-Westbrook-1083","Buddy-Hield-35206","Nemanja-Bjelica-31814","50000","289.54"
"Chris-Paul-1087","Derrick-Rose-1086","Josh-Okogie-409174","Nemanja-Bjelica-31814","Willie-Cauley-Stein-18951","Eric-Gordon-1077","Buddy-Hield-35206","Russell-Westbrook-1083","49800","289.5"
"Derrick-Rose-1086","Bogdan-Bogdanovic-37899","Andrew-Wiggins-18620","Dario-Saric-36004","Wendell-Carter-408878","Russell-Westbrook-1083","Buddy-Hield-35206","Nemanja-Bjelica-31814","49800","289.26"
"Chris-Paul-1087","Derrick-Rose-1086","Andrew-Wiggins-18620","Nemanja-Bjelica-31814","Wendell-Carter-408878","Russell-Westbrook-1083","Eric-Gordon-1077","Dario-Saric-36004","50000","289.24"
"Dennis-Schroder-18595","Derrick-Rose-1086","Buddy-Hield-35206","Wendell-Carter-408878","Willie-Cauley-Stein-18951","Russell-Westbrook-1083","Nemanja-Bjelica-31814","Dario-Saric-36004","49800","289.09"
"Derrick-Rose-1086","Eric-Gordon-1077","Andrew-Wiggins-18620","Wendell-Carter-408878","Willie-Cauley-Stein-18951","Buddy-Hield-35206","Nemanja-Bjelica-31814","Russell-Westbrook-1083","50000","289.08"
"Derrick-Rose-1086","Josh-Okogie-409174","Buddy-Hield-35206","Dario-Saric-36004","Rudy-Gobert-16935","Russell-Westbrook-1083","Nemanja-Bjelica-31814","Willie-Cauley-Stein-18951","49900","289.01"
"Derrick-Rose-1086","Buddy-Hield-35206","Josh-Okogie-409174","Lauri-Markkanen-37809","Rudy-Gobert-16935","Russell-Westbrook-1083","Nemanja-Bjelica-31814","Wendell-Carter-408878","49900","288.96"
"Ricky-Rubio-1001","Derrick-Rose-1086","Eric-Gordon-1077","Dario-Saric-36004","Willie-Cauley-Stein-18951","Buddy-Hield-35206","Nemanja-Bjelica-31814","Russell-Westbrook-1083","49900","288.92"
"Ricky-Rubio-1001","Derrick-Rose-1086","Eric-Gordon-1077","Lauri-Markkanen-37809","Wendell-Carter-408878","Buddy-Hield-35206","Nemanja-Bjelica-31814","Russell-Westbrook-1083","49900","288.87"
"Chris-Paul-1087","Derrick-Rose-1086","Nemanja-Bjelica-31814","Dario-Saric-36004","Willie-Cauley-Stein-18951","Buddy-Hield-35206","Lauri-Markkanen-37809","Rudy-Gobert-16935","49800","288.85"
"Derrick-Rose-1086","Josh-Okogie-409174","Bogdan-Bogdanovic-37899","Lauri-Markkanen-37809","Willie-Cauley-Stein-18951","Buddy-Hield-35206","Nemanja-Bjelica-31814","Russell-Westbrook-1083","49900","288.85"
"Chris-Paul-1087","Kris-Dunn-35215","Josh-Okogie-409174","Nemanja-Bjelica-31814","Wendell-Carter-408878","Derrick-Rose-1086","Buddy-Hield-35206","Russell-Westbrook-1083","49900","288.84"
"Chris-Paul-1087","Derrick-Rose-1086","Eric-Gordon-1077","Nemanja-Bjelica-31814","Kosta-Koufos-1386","Russell-Westbrook-1083","Buddy-Hield-35206","Lauri-Markkanen-37809","50000","288.79"
"Chris-Paul-1087","Derrick-Rose-1086","Josh-Okogie-409174","Nemanja-Bjelica-31814","Wendell-Carter-408878","Ricky-Rubio-1001","Buddy-Hield-35206","Russell-Westbrook-1083","49700","288.79"
"Derrick-Rose-1086","Buddy-Hield-35206","Eric-Gordon-1077","Wendell-Carter-408878","Rudy-Gobert-16935","Russell-Westbrook-1083","Nemanja-Bjelica-31814","Dario-Saric-36004","49700","288.75"
"Derrick-Rose-1086","Bogdan-Bogdanovic-37899","Buddy-Hield-35206","Dario-Saric-36004","Bobby-Portis-18909","Andrew-Wiggins-18620","Nemanja-Bjelica-31814","Russell-Westbrook-1083","50000","288.69"
"Derrick-Rose-1086","Eric-Gordon-1077","Bogdan-Bogdanovic-37899","Dario-Saric-36004","Willie-Cauley-Stein-18951","Buddy-Hield-35206","Nemanja-Bjelica-31814","Russell-Westbrook-1083","49700","288.64"
"Derrick-Rose-1086","Eric-Gordon-1077","Buddy-Hield-35206","Jerami-Grant-18576","Willie-Cauley-Stein-18951","Russell-Westbrook-1083","Nemanja-Bjelica-31814","Lauri-Markkanen-37809","50000","288.64"
"Derrick-Rose-1086","Bogdan-Bogdanovic-37899","Eric-Gordon-1077","Lauri-Markkanen-37809","Wendell-Carter-408878","Buddy-Hield-35206","Nemanja-Bjelica-31814","Russell-Westbrook-1083","49700","288.59"
"Chris-Paul-1087","Derrick-Rose-1086","Josh-Okogie-409174","Jerami-Grant-18576","Willie-Cauley-Stein-18951","Buddy-Hield-35206","Nemanja-Bjelica-31814","Russell-Westbrook-1083","49800","288.56"
"Dennis-Schroder-18595","Derrick-Rose-1086","Buddy-Hield-35206","Dario-Saric-36004","Bobby-Portis-18909","Russell-Westbrook-1083","Nemanja-Bjelica-31814","Willie-Cauley-Stein-18951","50000","288.52"
"Chris-Paul-1087","Josh-Okogie-409174","Bogdan-Bogdanovic-37899","Nemanja-Bjelica-31814","Wendell-Carter-408878","Derrick-Rose-1086","Buddy-Hield-35206","Russell-Westbrook-1083","49500","288.51"
"Dennis-Schroder-18595","Derrick-Rose-1086","Nemanja-Bjelica-31814","Wendell-Carter-408878","Bobby-Portis-18909","Buddy-Hield-35206","Lauri-Markkanen-37809","Russell-Westbrook-1083","50000","288.47"
"Chris-Paul-1087","Derrick-Rose-1086","Andrew-Wiggins-18620","Dario-Saric-36004","Clint-Capela-18610","Buddy-Hield-35206","Nemanja-Bjelica-31814","Lauri-Markkanen-37809","50000","288.31"
"Chris-Paul-1087","Derrick-Rose-1086","Nemanja-Bjelica-31814","Dario-Saric-36004","Wendell-Carter-408878","Andrew-Wiggins-18620","Jerami-Grant-18576","Russell-Westbrook-1083","50000","288.3"
"Chris-Paul-1087","Derrick-Rose-1086","Eric-Gordon-1077","Jerami-Grant-18576","Wendell-Carter-408878","Buddy-Hield-35206","Nemanja-Bjelica-31814","Russell-Westbrook-1083","49600","288.3"
"Chris-Paul-1087","Derrick-Rose-1086","Buddy-Hield-35206","Wendell-Carter-408878","Kosta-Koufos-1386","Andrew-Wiggins-18620","Nemanja-Bjelica-31814","Russell-Westbrook-1083","50000","288.29"
"Kris-Dunn-35215","Derrick-Rose-1086","Buddy-Hield-35206","Dario-Saric-36004","Wendell-Carter-408878","Ricky-Rubio-1001","Nemanja-Bjelica-31814","Russell-Westbrook-1083","50000","288.26"
"Derrick-Rose-1086","Buddy-Hield-35206","Eric-Gordon-1077","Wendell-Carter-408878","Rudy-Gobert-16935","Russell-Westbrook-1083","Nemanja-Bjelica-31814","Robert-Covington-16874","50000","288.25"
"Dennis-Schroder-18595","Derrick-Rose-1086","Eric-Gordon-1077","Nemanja-Bjelica-31814","Steven-Adams-16848","Russell-Westbrook-1083","Buddy-Hield-35206","Dario-Saric-36004","50000","288.25"
"Chris-Paul-1087","Derrick-Rose-1086","Josh-Okogie-409174","Nemanja-Bjelica-31814","Bobby-Portis-18909","Ricky-Rubio-1001","Buddy-Hield-35206","Russell-Westbrook-1083","49900","288.22"
"Derrick-Rose-1086","Buddy-Hield-35206","Robert-Covington-16874","Dario-Saric-36004","Wendell-Carter-408878","Russell-Westbrook-1083","Lauri-Markkanen-37809","Nemanja-Bjelica-31814","49500","288.19"
"Derrick-Rose-1086","Eric-Gordon-1077","Buddy-Hield-35206","Dario-Saric-36004","Bobby-Portis-18909","Russell-Westbrook-1083","Nemanja-Bjelica-31814","Rudy-Gobert-16935","49900","288.18"
"Chris-Paul-1087","Derrick-Rose-1086","Josh-Okogie-409174","Dario-Saric-36004","Willie-Cauley-Stein-18951","Ricky-Rubio-1001","Nemanja-Bjelica-31814","Russell-Westbrook-1083","50000","288.17"
"Derrick-Rose-1086","Buddy-Hield-35206","Andrew-Wiggins-18620","Wendell-Carter-408878","Willie-Cauley-Stein-18951","Russell-Westbrook-1083","Nemanja-Bjelica-31814","Jerami-Grant-18576","50000","288.14"
"Derrick-Rose-1086","Buddy-Hield-35206","Bogdan-Bogdanovic-37899","Nemanja-Bjelica-31814","Willie-Cauley-Stein-18951","Russell-Westbrook-1083","Eric-Gordon-1077","Robert-Covington-16874","50000","288.14"
"Chris-Paul-1087","Derrick-Rose-1086","Buddy-Hield-35206","Dario-Saric-36004","Kosta-Koufos-1386","Ricky-Rubio-1001","Nemanja-Bjelica-31814","Russell-Westbrook-1083","49900","288.13"
"Chris-Paul-1087","Derrick-Rose-1086","Josh-Okogie-409174","Lauri-Markkanen-37809","Wendell-Carter-408878","Ricky-Rubio-1001","Nemanja-Bjelica-31814","Russell-Westbrook-1083","50000","288.12"
"Chris-Paul-1087","Eric-Gordon-1077","Andrew-Wiggins-18620","Dario-Saric-36004","Wendell-Carter-408878","Russell-Westbrook-1083","Buddy-Hield-35206","Nemanja-Bjelica-31814","49900","288.12"
"Derrick-Rose-1086","Donovan-Mitchell-37875","Bogdan-Bogdanovic-37899","Nemanja-Bjelica-31814","Wendell-Carter-408878","Buddy-Hield-35206","Eric-Gordon-1077","Russell-Westbrook-1083","50000","288.11"
"Derrick-Rose-1086","Eric-Gordon-1077","Nemanja-Bjelica-31814","Wendell-Carter-408878","Rudy-Gobert-16935","Russell-Westbrook-1083","Lauri-Markkanen-37809","Dario-Saric-36004","50000","288.08"
"Derrick-Rose-1086","Eric-Gordon-1077","Bogdan-Bogdanovic-37899","Nemanja-Bjelica-31814","Bobby-Portis-18909","Russell-Westbrook-1083","Buddy-Hield-35206","Lauri-Markkanen-37809","49900","288.02"
"Chris-Paul-1087","Derrick-Rose-1086","Josh-Okogie-409174","Dario-Saric-36004","Rudy-Gobert-16935","Russell-Westbrook-1083","Nemanja-Bjelica-31814","Wendell-Carter-408878","49800","288.0"
"Dennis-Schroder-18595","Derrick-Rose-1086","Andrew-Wiggins-18620","Dario-Saric-36004","Wendell-Carter-408878","Russell-Westbrook-1083","Buddy-Hield-35206","Nemanja-Bjelica-31814","49600","287.99"
"Kris-Dunn-35215","Derrick-Rose-1086","Bogdan-Bogdanovic-37899","Nemanja-Bjelica-31814","Wendell-Carter-408878","Russell-Westbrook-1083","Buddy-Hield-35206","Dario-Saric-36004","49800","287.98"
"Ricky-Rubio-1001","Derrick-Rose-1086","Buddy-Hield-35206","Jerami-Grant-18576","Willie-Cauley-Stein-18951","Russell-Westbrook-1083","Nemanja-Bjelica-31814","Dario-Saric-36004","49900","287.98"
"Derrick-Rose-1086","Eric-Gordon-1077","Bogdan-Bogdanovic-37899","Dario-Saric-36004","Willie-Cauley-Stein-18951","Russell-Westbrook-1083","Nemanja-Bjelica-31814","Lauri-Markkanen-37809","50000","287.97"
"Chris-Paul-1087","Kris-Dunn-35215","Eric-Gordon-1077","Dario-Saric-36004","Wendell-Carter-408878","Derrick-Rose-1086","Nemanja-Bjelica-31814","Russell-Westbrook-1083","50000","287.96"
"Derrick-Rose-1086","Buddy-Hield-35206","Robert-Covington-16874","Dario-Saric-36004","Steven-Adams-16848","Russell-Westbrook-1083","Wendell-Carter-408878","Nemanja-Bjelica-31814","49900","287.95"
"Chris-Paul-1087","Josh-Okogie-409174","Bogdan-Bogdanovic-37899","Nemanja-Bjelica-31814","Bobby-Portis-18909","Derrick-Rose-1086","Buddy-Hield-35206","Russell-Westbrook-1083","49700","287.94"
"Ricky-Rubio-1001","Derrick-Rose-1086","Nemanja-Bjelica-31814","Jerami-Grant-18576","Wendell-Carter-408878","Buddy-Hield-35206","Lauri-Markkanen-37809","Russell-Westbrook-1083","49900","287.93"
"Ricky-Rubio-1001","Derrick-Rose-1086","Bogdan-Bogdanovic-37899","Nemanja-Bjelica-31814","Wendell-Carter-408878","Russell-Westbrook-1083","Buddy-Hield-35206","Dario-Saric-36004","49600","287.93"
"Derrick-Rose-1086","Buddy-Hield-35206","Josh-Okogie-409174","Dario-Saric-36004","Rudy-Gobert-16935","Russell-Westbrook-1083","Andrew-Wiggins-18620","Nemanja-Bjelica-31814","49700","287.91"
"Chris-Paul-1087","Derrick-Rose-1086","Eric-Gordon-1077","Dario-Saric-36004","Wendell-Carter-408878","Ricky-Rubio-1001","Nemanja-Bjelica-31814","Russell-Westbrook-1083","49800","287.91"
"Chris-Paul-1087","Josh-Okogie-409174","Bogdan-Bogdanovic-37899","Dario-Saric-36004","Willie-Cauley-Stein-18951","Derrick-Rose-1086","Nemanja-Bjelica-31814","Russell-Westbrook-1083","49800","287.89"
"Chris-Paul-1087","Derrick-Rose-1086","Buddy-Hield-35206","Jerami-Grant-18576","Kosta-Koufos-1386","Russell-Westbrook-1083","Nemanja-Bjelica-31814","Lauri-Markkanen-37809","50000","287.85"
"Chris-Paul-1087","Derrick-Rose-1086","Bogdan-Bogdanovic-37899","Dario-Saric-36004","Kosta-Koufos-1386","Russell-Westbrook-1083","Buddy-Hield-35206","Nemanja-Bjelica-31814","49700","287.85"
"Derrick-Rose-1086","Josh-Okogie-409174","Buddy-Hield-35206","Wendell-Carter-408878","Willie-Cauley-Stein-18951","Russell-Westbrook-1083","Nemanja-Bjelica-31814","Rudy-Gobert-16935","49800","287.84"
"Chris-Paul-1087","Josh-Okogie-409174","Bogdan-Bogdanovic-37899","Lauri-Markkanen-37809","Wendell-Carter-408878","Derrick-Rose-1086","Nemanja-Bjelica-31814","Russell-Westbrook-1083","49800","287.84"
"Dennis-Schroder-18595","Josh-Okogie-409174","Bogdan-Bogdanovic-37899","Nemanja-Bjelica-31814","Rudy-Gobert-16935","Derrick-Rose-1086","Buddy-Hield-35206","Russell-Westbrook-1083","50000","287.82"
"Derrick-Rose-1086","Buddy-Hield-35206","Nemanja-Bjelica-31814","Dario-Saric-36004","Wendell-Carter-408878","Russell-Westbrook-1083","Jerami-Grant-18576","Rudy-Gobert-16935","49700","287.81"
"Derrick-Rose-1086","Josh-Okogie-409174","Eric-Gordon-1077","Lauri-Markkanen-37809","Clint-Capela-18610","Buddy-Hield-35206","Nemanja-Bjelica-31814","Russell-Westbrook-1083","50000","287.8"
"Kris-Dunn-35215","Derrick-Rose-1086","Buddy-Hield-35206","Wendell-Carter-408878","Willie-Cauley-Stein-18951","Eric-Gordon-1077","Nemanja-Bjelica-31814","Russell-Westbrook-1083","50000","287.8"
"Chris-Paul-1087","Derrick-Rose-1086","Buddy-Hield-35206","Dario-Saric-36004","Rudy-Gobert-16935","Andrew-Wiggins-18620","Nemanja-Bjelica-31814","Lauri-Markkanen-37809","49600","287.75"
"Ricky-Rubio-1001","Derrick-Rose-1086","Buddy-Hield-35206","Wendell-Carter-408878","Willie-Cauley-Stein-18951","Eric-Gordon-1077","Nemanja-Bjelica-31814","Russell-Westbrook-1083","49800","287.75"
"Chris-Paul-1087","Derrick-Rose-1086","Eric-Gordon-1077","Jerami-Grant-18576","Bobby-Portis-18909","Buddy-Hield-35206","Nemanja-Bjelica-31814","Russell-Westbrook-1083","49800","287.73"
"Chris-Paul-1087","Josh-Okogie-409174","Eric-Gordon-1077","Lauri-Markkanen-37809","Willie-Cauley-Stein-18951","Russell-Westbrook-1083","Buddy-Hield-35206","Nemanja-Bjelica-31814","50000","287.71"
"Derrick-Rose-1086","Donovan-Mitchell-37875","Robert-Covington-16874","Dario-Saric-36004","Wendell-Carter-408878","Russell-Westbrook-1083","Buddy-Hield-35206","Nemanja-Bjelica-31814","49800","287.71"
"Derrick-Rose-1086","Buddy-Hield-35206","Bogdan-Bogdanovic-37899","Dario-Saric-36004","Willie-Cauley-Stein-18951","Russell-Westbrook-1083","Nemanja-Bjelica-31814","Jerami-Grant-18576","49700","287.7"
"Chris-Paul-1087","Derrick-Rose-1086","Nemanja-Bjelica-31814","Wendell-Carter-408878","Rudy-Gobert-16935","Buddy-Hield-35206","Lauri-Markkanen-37809","Willie-Cauley-Stein-18951","49700","287.68"
"Chris-Paul-1087","Derrick-Rose-1086","Eric-Gordon-1077","Dario-Saric-36004","Willie-Cauley-Stein-18951","Russell-Westbrook-1083","Nemanja-Bjelica-31814","Jerami-Grant-18576","49900","287.68"
"Chris-Paul-1087","Derrick-Rose-1086","Eric-Gordon-1077","Nemanja-Bjelica-31814","Willie-Cauley-Stein-18951","Russell-Westbrook-1083","Buddy-Hield-35206","Kosta-Koufos-1386","49900","287.67"
"Chris-Paul-1087","Bogdan-Bogdanovic-37899","Buddy-Hield-35206","Dario-Saric-36004","Bobby-Portis-18909","Russell-Westbrook-1083","Nemanja-Bjelica-31814","Wendell-Carter-408878","50000","287.66"
"Dennis-Schroder-18595","Derrick-Rose-1086","Bogdan-Bogdanovic-37899","Nemanja-Bjelica-31814","Rudy-Gobert-16935","Chris-Paul-1087","Buddy-Hield-35206","Lauri-Markkanen-37809","49900","287.66"
"Derrick-Rose-1086","Bogdan-Bogdanovic-37899","Nemanja-Bjelica-31814","Jerami-Grant-18576","Wendell-Carter-408878","Buddy-Hield-35206","Lauri-Markkanen-37809","Russell-Westbrook-1083","49700","287.65"
"Chris-Paul-1087","Derrick-Rose-1086","Bogdan-Bogdanovic-37899","Nemanja-Bjelica-31814","Wendell-Carter-408878","Russell-Westbrook-1083","Eric-Gordon-1077","Dario-Saric-36004","49600","287.63"
"Chris-Paul-1087","Dennis-Schroder-18595","Robert-Covington-16874","Dario-Saric-36004","Wendell-Carter-408878","Russell-Westbrook-1083","Buddy-Hield-35206","Nemanja-Bjelica-31814","50000","287.63"
"Chris-Paul-1087","Derrick-Rose-1086","Eric-Gordon-1077","Lauri-Markkanen-37809","Wendell-Carter-408878","Russell-Westbrook-1083","Nemanja-Bjelica-31814","Jerami-Grant-18576","49900","287.63"
"Derrick-Rose-1086","Buddy-Hield-35206","Nemanja-Bjelica-31814","Dario-Saric-36004","Bobby-Portis-18909","Russell-Westbrook-1083","Lauri-Markkanen-37809","Robert-Covington-16874","49700","287.62"
"Dennis-Schroder-18595","Derrick-Rose-1086","P.J.-Tucker-13947","Nemanja-Bjelica-31814","Wendell-Carter-408878","Chris-Paul-1087","Buddy-Hield-35206","Russell-Westbrook-1083","49900","287.61"
"Dennis-Schroder-18595","Derrick-Rose-1086","Josh-Okogie-409174","Nemanja-Bjelica-31814","Willie-Cauley-Stein-18951","Russell-Westbrook-1083","Buddy-Hield-35206","Lauri-Markkanen-37809","49700","287.58"
"Chris-Paul-1087","Derrick-Rose-1086","Josh-Okogie-409174","P.J.-Tucker-13947","Rudy-Gobert-16935","Buddy-Hield-35206","Nemanja-Bjelica-31814","Russell-Westbrook-1083","50000","287.53"
"Derrick-Rose-1086","Andrew-Wiggins-18620","Bogdan-Bogdanovic-37899","Nemanja-Bjelica-31814","Bobby-Portis-18909","Russell-Westbrook-1083","Buddy-Hield-35206","Wendell-Carter-408878","49900","287.52"
"Dennis-Schroder-18595","Derrick-Rose-1086","Nemanja-Bjelica-31814","Dario-Saric-36004","Wendell-Carter-408878","Chris-Paul-1087","Bobby-Portis-18909","Russell-Westbrook-1083","49900","287.51"
"Chris-Paul-1087","Derrick-Rose-1086","Buddy-Hield-35206","Dario-Saric-36004","Rudy-Gobert-16935","Andrew-Wiggins-18620","Nemanja-Bjelica-31814","Steven-Adams-16848","50000","287.51"
"Dennis-Schroder-18595","Derrick-Rose-1086","Andrew-Wiggins-18620","Robert-Covington-16874","Wendell-Carter-408878","Russell-Westbrook-1083","Buddy-Hield-35206","Nemanja-Bjelica-31814","49900","287.49"
"Derrick-Rose-1086","Bogdan-Bogdanovic-37899","Buddy-Hield-35206","Wendell-Carter-408878","Willie-Cauley-Stein-18951","Eric-Gordon-1077","Nemanja-Bjelica-31814","Russell-Westbrook-1083","49600","287.47"
"Derrick-Rose-1086","Bogdan-Bogdanovic-37899","Andrew-Wiggins-18620","Wendell-Carter-408878","Willie-Cauley-Stein-18951","Russell-Westbrook-1083","Nemanja-Bjelica-31814","Dario-Saric-36004","50000","287.47"
"Russell-Westbrook-1083","Bogdan-Bogdanovic-37899","Andrew-Wiggins-18620","Lauri-Markkanen-37809","Wendell-Carter-408878","Buddy-Hield-35206","Nemanja-Bjelica-31814","Dario-Saric-36004","50000","287.47"
"Ricky-Rubio-1001","Bogdan-Bogdanovic-37899","Robert-Covington-16874","Nemanja-Bjelica-31814","Wendell-Carter-408878","Derrick-Rose-1086","Buddy-Hield-35206","Russell-Westbrook-1083","49900","287.43"
"Chris-Paul-1087","Derrick-Rose-1086","Josh-Okogie-409174","Dario-Saric-36004","Rudy-Gobert-16935","Russell-Westbrook-1083","Nemanja-Bjelica-31814","Bobby-Portis-18909","50000","287.43"
"Dennis-Schroder-18595","Derrick-Rose-1086","Buddy-Hield-35206","Dario-Saric-36004","Bobby-Portis-18909","Andrew-Wiggins-18620","Nemanja-Bjelica-31814","Russell-Westbrook-1083","49800","287.42"
"Kris-Dunn-35215","Bogdan-Bogdanovic-37899","Buddy-Hield-35206","Dario-Saric-36004","Bobby-Portis-18909","Derrick-Rose-1086","Nemanja-Bjelica-31814","Russell-Westbrook-1083","50000","287.41"
