"Jamal-Murray-35211","Spencer-Dinwiddie-18588","Tim-Hardaway-Jr.-16879","Rondae-Hollis-Jefferson-18897","Nikola-Jokic-31812","Trae-Young-409063","Taurean-Prince-35218","John-Collins-37823","49700","283.61"
"Jamal-Murray-35211","Gary-Harris-18617","Tim-Hardaway-Jr.-16879","Rondae-Hollis-Jefferson-18897","Nikola-Jokic-31812","Trae-Young-409063","Taurean-Prince-35218","Enes-Kanter-13299","49600","283.19"

"Jamal-Murray-35211","Spencer-Dinwiddie-18588","Tim-Hardaway-Jr.-16879","Rondae-Hollis-Jefferson-18897","Nikola-Jokic-31812","Trae-Young-409063","Taurean-Prince-35218","John-Collins-37823","49700","283.61"
"Jamal-Murray-35211","Gary-Harris-18617","Tim-Hardaway-Jr.-16879","Rondae-Hollis-Jefferson-18897","Nikola-Jokic-31812","Trae-Young-409063","Taurean-Prince-35218","Enes-Kanter-13299","49600","283.19"
"Jamal-Murray-35211","Gary-Harris-18617","Tim-Hardaway-Jr.-16879","Rondae-Hollis-Jefferson-18897","Nikola-Jokic-31812","Trae-Young-409063","Taurean-Prince-35218","Tristan-Thompson-13308","49500","283.18"
"Jamal-Murray-35211","Tim-Hardaway-Jr.-16879","Taurean-Prince-35218","Rondae-Hollis-Jefferson-18897","Enes-Kanter-13299","Trae-Young-409063","Noah-Vonleh-18597","Nikola-Jokic-31812","49800","282.53"
"Jamal-Murray-35211","Tim-Hardaway-Jr.-16879","Taurean-Prince-35218","Rondae-Hollis-Jefferson-18897","Tristan-Thompson-13308","Trae-Young-409063","Noah-Vonleh-18597","Nikola-Jokic-31812","49700","282.52"
"Jamal-Murray-35211","Spencer-Dinwiddie-18588","Tim-Hardaway-Jr.-16879","Noah-Vonleh-18597","Nikola-Jokic-31812","Trae-Young-409063","Taurean-Prince-35218","John-Collins-37823","49400","282.17"
"Jamal-Murray-35211","Gary-Harris-18617","Tim-Hardaway-Jr.-16879","Noah-Vonleh-18597","Nikola-Jokic-31812","Trae-Young-409063","Taurean-Prince-35218","Enes-Kanter-13299","49300","281.75"
"Jamal-Murray-35211","Gary-Harris-18617","Tim-Hardaway-Jr.-16879","Noah-Vonleh-18597","Nikola-Jokic-31812","Trae-Young-409063","Taurean-Prince-35218","Tristan-Thompson-13308","49200","281.74"
"Jamal-Murray-35211","Gary-Harris-18617","Tim-Hardaway-Jr.-16879","Rondae-Hollis-Jefferson-18897","Nikola-Jokic-31812","Spencer-Dinwiddie-18588","Taurean-Prince-35218","Tristan-Thompson-13308","50000","281.5"
"Jamal-Murray-35211","Gary-Harris-18617","Tim-Hardaway-Jr.-16879","Rondae-Hollis-Jefferson-18897","Nikola-Jokic-31812","Trae-Young-409063","Taurean-Prince-35218","John-Collins-37823","48300","281.04"
"Trae-Young-409063","Gary-Harris-18617","Tim-Hardaway-Jr.-16879","Rondae-Hollis-Jefferson-18897","Nikola-Jokic-31812","Spencer-Dinwiddie-18588","Taurean-Prince-35218","Enes-Kanter-13299","49700","280.99"
"Trae-Young-409063","Gary-Harris-18617","Tim-Hardaway-Jr.-16879","Rondae-Hollis-Jefferson-18897","Nikola-Jokic-31812","Spencer-Dinwiddie-18588","Taurean-Prince-35218","Tristan-Thompson-13308","49600","280.98"
"Jamal-Murray-35211","Tim-Hardaway-Jr.-16879","Taurean-Prince-35218","Rondae-Hollis-Jefferson-18897","Nikola-Jokic-31812","Trae-Young-409063","Serge-Ibaka-1294","Enes-Kanter-13299","50000","280.85"
"Jamal-Murray-35211","Tim-Hardaway-Jr.-16879","Taurean-Prince-35218","Rondae-Hollis-Jefferson-18897","Nikola-Jokic-31812","Trae-Young-409063","Serge-Ibaka-1294","Tristan-Thompson-13308","49900","280.84"
"Jamal-Murray-35211","Tim-Hardaway-Jr.-16879","Taurean-Prince-35218","Rondae-Hollis-Jefferson-18897","Enes-Kanter-13299","Trae-Young-409063","Larry-Nance-18946","Nikola-Jokic-31812","49600","280.68"
"Jamal-Murray-35211","Tim-Hardaway-Jr.-16879","Taurean-Prince-35218","Rondae-Hollis-Jefferson-18897","Tristan-Thompson-13308","Trae-Young-409063","Larry-Nance-18946","Nikola-Jokic-31812","49500","280.67"
"Jamal-Murray-35211","Spencer-Dinwiddie-18588","Tim-Hardaway-Jr.-16879","Rondae-Hollis-Jefferson-18897","Nikola-Jokic-31812","Trae-Young-409063","Taurean-Prince-35218","Jarrett-Allen-37794","49900","280.5"
"Jamal-Murray-35211","Spencer-Dinwiddie-18588","Tim-Hardaway-Jr.-16879","Serge-Ibaka-1294","John-Collins-37823","Trae-Young-409063","Taurean-Prince-35218","Nikola-Jokic-31812","49600","280.49"
"Jamal-Murray-35211","Tim-Hardaway-Jr.-16879","Taurean-Prince-35218","Rondae-Hollis-Jefferson-18897","John-Collins-37823","Trae-Young-409063","Noah-Vonleh-18597","Nikola-Jokic-31812","48500","280.38"
"Jamal-Murray-35211","Gary-Harris-18617","Tim-Hardaway-Jr.-16879","Rondae-Hollis-Jefferson-18897","Nikola-Jokic-31812","Trae-Young-409063","Noah-Vonleh-18597","Tristan-Thompson-13308","50000","280.38"
"Trae-Young-409063","Tim-Hardaway-Jr.-16879","Taurean-Prince-35218","Rondae-Hollis-Jefferson-18897","Enes-Kanter-13299","Spencer-Dinwiddie-18588","Noah-Vonleh-18597","Nikola-Jokic-31812","49900","280.33"
"Jamal-Murray-35211","Spencer-Dinwiddie-18588","Tim-Hardaway-Jr.-16879","Larry-Nance-18946","John-Collins-37823","Trae-Young-409063","Taurean-Prince-35218","Nikola-Jokic-31812","49200","280.32"
"Trae-Young-409063","Tim-Hardaway-Jr.-16879","Taurean-Prince-35218","Rondae-Hollis-Jefferson-18897","Tristan-Thompson-13308","Spencer-Dinwiddie-18588","Noah-Vonleh-18597","Nikola-Jokic-31812","49800","280.32"
"Jamal-Murray-35211","Gary-Harris-18617","Tim-Hardaway-Jr.-16879","Rondae-Hollis-Jefferson-18897","Nikola-Jokic-31812","Spencer-Dinwiddie-18588","Taurean-Prince-35218","Trae-Young-409063","49500","280.24"
"Jamal-Murray-35211","Gary-Harris-18617","Tim-Hardaway-Jr.-16879","Noah-Vonleh-18597","Nikola-Jokic-31812","Spencer-Dinwiddie-18588","Taurean-Prince-35218","Enes-Kanter-13299","49800","280.07"
"Jamal-Murray-35211","Gary-Harris-18617","Tim-Hardaway-Jr.-16879","Serge-Ibaka-1294","Nikola-Jokic-31812","Trae-Young-409063","Taurean-Prince-35218","Enes-Kanter-13299","49500","280.07"
"Jamal-Murray-35211","Gary-Harris-18617","Tim-Hardaway-Jr.-16879","Noah-Vonleh-18597","Nikola-Jokic-31812","Spencer-Dinwiddie-18588","Taurean-Prince-35218","Tristan-Thompson-13308","49700","280.06"
"Jamal-Murray-35211","Gary-Harris-18617","Tim-Hardaway-Jr.-16879","Serge-Ibaka-1294","Nikola-Jokic-31812","Trae-Young-409063","Taurean-Prince-35218","Tristan-Thompson-13308","49400","280.06"
"Jamal-Murray-35211","Gary-Harris-18617","Tim-Hardaway-Jr.-16879","Larry-Nance-18946","Enes-Kanter-13299","Trae-Young-409063","Taurean-Prince-35218","Nikola-Jokic-31812","49100","279.9"
"Jamal-Murray-35211","Gary-Harris-18617","Tim-Hardaway-Jr.-16879","Larry-Nance-18946","Tristan-Thompson-13308","Trae-Young-409063","Taurean-Prince-35218","Nikola-Jokic-31812","49000","279.89"
"Jamal-Murray-35211","Gary-Harris-18617","Tim-Hardaway-Jr.-16879","Noah-Vonleh-18597","Nikola-Jokic-31812","Trae-Young-409063","Taurean-Prince-35218","John-Collins-37823","48000","279.6"
"Jamal-Murray-35211","Jordan-Clarkson-18631","Tim-Hardaway-Jr.-16879","Rondae-Hollis-Jefferson-18897","Nikola-Jokic-31812","Trae-Young-409063","Taurean-Prince-35218","Enes-Kanter-13299","49500","279.6"
"Jamal-Murray-35211","Jordan-Clarkson-18631","Tim-Hardaway-Jr.-16879","Rondae-Hollis-Jefferson-18897","Nikola-Jokic-31812","Trae-Young-409063","Taurean-Prince-35218","Tristan-Thompson-13308","49400","279.59"
"Jamal-Murray-35211","Spencer-Dinwiddie-18588","Tim-Hardaway-Jr.-16879","Rondae-Hollis-Jefferson-18897","Nikola-Jokic-31812","Trae-Young-409063","Noah-Vonleh-18597","Taurean-Prince-35218","49700","279.58"
"Trae-Young-409063","Gary-Harris-18617","Tim-Hardaway-Jr.-16879","Noah-Vonleh-18597","Nikola-Jokic-31812","Spencer-Dinwiddie-18588","Taurean-Prince-35218","Enes-Kanter-13299","49400","279.55"
"Trae-Young-409063","Gary-Harris-18617","Tim-Hardaway-Jr.-16879","Noah-Vonleh-18597","Nikola-Jokic-31812","Spencer-Dinwiddie-18588","Taurean-Prince-35218","Tristan-Thompson-13308","49300","279.54"
"Jamal-Murray-35211","Tim-Hardaway-Jr.-16879","Taurean-Prince-35218","Noah-Vonleh-18597","Enes-Kanter-13299","Trae-Young-409063","Serge-Ibaka-1294","Nikola-Jokic-31812","49700","279.41"
"Jamal-Murray-35211","Tim-Hardaway-Jr.-16879","Taurean-Prince-35218","Noah-Vonleh-18597","Tristan-Thompson-13308","Trae-Young-409063","Serge-Ibaka-1294","Nikola-Jokic-31812","49600","279.4"
"Jamal-Murray-35211","Gary-Harris-18617","Tim-Hardaway-Jr.-16879","Rondae-Hollis-Jefferson-18897","Nikola-Jokic-31812","Spencer-Dinwiddie-18588","Taurean-Prince-35218","John-Collins-37823","48800","279.36"
"Jamal-Murray-35211","Tim-Hardaway-Jr.-16879","Taurean-Prince-35218","Noah-Vonleh-18597","Enes-Kanter-13299","Trae-Young-409063","Larry-Nance-18946","Nikola-Jokic-31812","49300","279.24"
"Jamal-Murray-35211","Tim-Hardaway-Jr.-16879","Taurean-Prince-35218","Noah-Vonleh-18597","Tristan-Thompson-13308","Trae-Young-409063","Larry-Nance-18946","Nikola-Jokic-31812","49200","279.23"
"Jamal-Murray-35211","Spencer-Dinwiddie-18588","Tim-Hardaway-Jr.-16879","Noah-Vonleh-18597","Nikola-Jokic-31812","Trae-Young-409063","Taurean-Prince-35218","Jarrett-Allen-37794","49600","279.06"
"Jamal-Murray-35211","Tim-Hardaway-Jr.-16879","Taurean-Prince-35218","Rondae-Hollis-Jefferson-18897","Tristan-Thompson-13308","Spencer-Dinwiddie-18588","Larry-Nance-18946","Nikola-Jokic-31812","50000","278.99"
"Jamal-Murray-35211","Spencer-Dinwiddie-18588","Tim-Hardaway-Jr.-16879","Rondae-Hollis-Jefferson-18897","Nikola-Jokic-31812","Trae-Young-409063","Larry-Nance-18946","John-Collins-37823","50000","278.96"
"Trae-Young-409063","Gary-Harris-18617","Tim-Hardaway-Jr.-16879","Rondae-Hollis-Jefferson-18897","Nikola-Jokic-31812","Spencer-Dinwiddie-18588","Taurean-Prince-35218","John-Collins-37823","48400","278.84"
"Jamal-Murray-35211","Gary-Harris-18617","Tim-Hardaway-Jr.-16879","Noah-Vonleh-18597","Nikola-Jokic-31812","Spencer-Dinwiddie-18588","Taurean-Prince-35218","Trae-Young-409063","49200","278.8"
"Jamal-Murray-35211","Spencer-Dinwiddie-18588","Tim-Hardaway-Jr.-16879","Jonas-Jerebko-1106","Enes-Kanter-13299","Trae-Young-409063","Taurean-Prince-35218","Nikola-Jokic-31812","49600","278.74"
"Jamal-Murray-35211","Spencer-Dinwiddie-18588","Tim-Hardaway-Jr.-16879","Jonas-Jerebko-1106","Nikola-Jokic-31812","Trae-Young-409063","Taurean-Prince-35218","Tristan-Thompson-13308","49500","278.73"
"Jamal-Murray-35211","Tim-Hardaway-Jr.-16879","Taurean-Prince-35218","Rondae-Hollis-Jefferson-18897","Nikola-Jokic-31812","Trae-Young-409063","Serge-Ibaka-1294","John-Collins-37823","48700","278.7"
"Jamal-Murray-35211","Tim-Hardaway-Jr.-16879","Taurean-Prince-35218","Rondae-Hollis-Jefferson-18897","John-Collins-37823","Spencer-Dinwiddie-18588","Noah-Vonleh-18597","Nikola-Jokic-31812","49000","278.7"
"Trae-Young-409063","Tim-Hardaway-Jr.-16879","Taurean-Prince-35218","Rondae-Hollis-Jefferson-18897","Nikola-Jokic-31812","Spencer-Dinwiddie-18588","Serge-Ibaka-1294","Tristan-Thompson-13308","50000","278.64"
"Jamal-Murray-35211","Spencer-Dinwiddie-18588","Tim-Hardaway-Jr.-16879","Dewayne-Dedmon-16894","Nikola-Jokic-31812","Trae-Young-409063","Taurean-Prince-35218","Enes-Kanter-13299","49200","278.56"
"Jamal-Murray-35211","Spencer-Dinwiddie-18588","Tim-Hardaway-Jr.-16879","Dewayne-Dedmon-16894","Tristan-Thompson-13308","Trae-Young-409063","Taurean-Prince-35218","Nikola-Jokic-31812","49100","278.55"
"Jamal-Murray-35211","Gary-Harris-18617","Tim-Hardaway-Jr.-16879","Rondae-Hollis-Jefferson-18897","Nikola-Jokic-31812","Trae-Young-409063","Larry-Nance-18946","Enes-Kanter-13299","49900","278.54"
"Jamal-Murray-35211","Gary-Harris-18617","Tim-Hardaway-Jr.-16879","Rondae-Hollis-Jefferson-18897","Nikola-Jokic-31812","Trae-Young-409063","Larry-Nance-18946","Tristan-Thompson-13308","49800","278.53"
"Jamal-Murray-35211","Tim-Hardaway-Jr.-16879","Taurean-Prince-35218","Rondae-Hollis-Jefferson-18897","John-Collins-37823","Trae-Young-409063","Larry-Nance-18946","Nikola-Jokic-31812","48300","278.53"
"Trae-Young-409063","Tim-Hardaway-Jr.-16879","Taurean-Prince-35218","Rondae-Hollis-Jefferson-18897","Enes-Kanter-13299","Spencer-Dinwiddie-18588","Larry-Nance-18946","Nikola-Jokic-31812","49700","278.48"
"Trae-Young-409063","Tim-Hardaway-Jr.-16879","Taurean-Prince-35218","Rondae-Hollis-Jefferson-18897","Tristan-Thompson-13308","Spencer-Dinwiddie-18588","Larry-Nance-18946","Nikola-Jokic-31812","49600","278.47"
"Jamal-Murray-35211","Tim-Hardaway-Jr.-16879","Taurean-Prince-35218","Rondae-Hollis-Jefferson-18897","Enes-Kanter-13299","Trae-Young-409063","Cedi-Osman-18912","Nikola-Jokic-31812","49200","278.39"
"Jamal-Murray-35211","Gary-Harris-18617","Tim-Hardaway-Jr.-16879","Serge-Ibaka-1294","Nikola-Jokic-31812","Spencer-Dinwiddie-18588","Taurean-Prince-35218","Enes-Kanter-13299","50000","278.39"
"Jamal-Murray-35211","Tim-Hardaway-Jr.-16879","Taurean-Prince-35218","Rondae-Hollis-Jefferson-18897","Nikola-Jokic-31812","Trae-Young-409063","Cedi-Osman-18912","Tristan-Thompson-13308","49100","278.38"
"Jamal-Murray-35211","Gary-Harris-18617","Tim-Hardaway-Jr.-16879","Serge-Ibaka-1294","Nikola-Jokic-31812","Spencer-Dinwiddie-18588","Taurean-Prince-35218","Tristan-Thompson-13308","49900","278.38"
"Trae-Young-409063","Jamal-Murray-35211","Tim-Hardaway-Jr.-16879","Rondae-Hollis-Jefferson-18897","Nikola-Jokic-31812","Emmanuel-Mudiay-18936","Taurean-Prince-35218","Enes-Kanter-13299","49500","278.34"
"Trae-Young-409063","Jamal-Murray-35211","Tim-Hardaway-Jr.-16879","Rondae-Hollis-Jefferson-18897","Nikola-Jokic-31812","Emmanuel-Mudiay-18936","Taurean-Prince-35218","Tristan-Thompson-13308","49400","278.33"
"Jamal-Murray-35211","Tim-Hardaway-Jr.-16879","Taurean-Prince-35218","Rondae-Hollis-Jefferson-18897","Enes-Kanter-13299","Gary-Harris-18617","Noah-Vonleh-18597","Nikola-Jokic-31812","48900","278.28"
"Jamal-Murray-35211","Tim-Hardaway-Jr.-16879","Taurean-Prince-35218","Rondae-Hollis-Jefferson-18897","Tristan-Thompson-13308","Gary-Harris-18617","Noah-Vonleh-18597","Nikola-Jokic-31812","48800","278.27"
"Jamal-Murray-35211","Gary-Harris-18617","Tim-Hardaway-Jr.-16879","Rondae-Hollis-Jefferson-18897","Nikola-Jokic-31812","Trae-Young-409063","Noah-Vonleh-18597","John-Collins-37823","48800","278.24"
"Jamal-Murray-35211","Gary-Harris-18617","Tim-Hardaway-Jr.-16879","Larry-Nance-18946","Enes-Kanter-13299","Spencer-Dinwiddie-18588","Taurean-Prince-35218","Nikola-Jokic-31812","49600","278.22"
"Jamal-Murray-35211","Gary-Harris-18617","Tim-Hardaway-Jr.-16879","Larry-Nance-18946","Tristan-Thompson-13308","Spencer-Dinwiddie-18588","Taurean-Prince-35218","Nikola-Jokic-31812","49500","278.21"
"Trae-Young-409063","Tim-Hardaway-Jr.-16879","Taurean-Prince-35218","Rondae-Hollis-Jefferson-18897","John-Collins-37823","Spencer-Dinwiddie-18588","Noah-Vonleh-18597","Nikola-Jokic-31812","48600","278.18"
"Jamal-Murray-35211","Jordan-Clarkson-18631","Tim-Hardaway-Jr.-16879","Noah-Vonleh-18597","Nikola-Jokic-31812","Trae-Young-409063","Taurean-Prince-35218","Enes-Kanter-13299","49200","278.16"
"Jamal-Murray-35211","Jordan-Clarkson-18631","Tim-Hardaway-Jr.-16879","Noah-Vonleh-18597","Nikola-Jokic-31812","Trae-Young-409063","Taurean-Prince-35218","Tristan-Thompson-13308","49100","278.15"
"Jamal-Murray-35211","Spencer-Dinwiddie-18588","Tim-Hardaway-Jr.-16879","Rondae-Hollis-Jefferson-18897","Enes-Kanter-13299","Trae-Young-409063","Allen-Crabbe-16978","Nikola-Jokic-31812","49900","278.11"
"Jamal-Murray-35211","Spencer-Dinwiddie-18588","Tim-Hardaway-Jr.-16879","Rondae-Hollis-Jefferson-18897","Nikola-Jokic-31812","Trae-Young-409063","Allen-Crabbe-16978","Tristan-Thompson-13308","49800","278.1"
"Jamal-Murray-35211","Gary-Harris-18617","Tim-Hardaway-Jr.-16879","Rondae-Hollis-Jefferson-18897","Nikola-Jokic-31812","Trae-Young-409063","Taurean-Prince-35218","Jarrett-Allen-37794","48500","277.93"
"Jamal-Murray-35211","Jordan-Clarkson-18631","Tim-Hardaway-Jr.-16879","Rondae-Hollis-Jefferson-18897","Nikola-Jokic-31812","Spencer-Dinwiddie-18588","Taurean-Prince-35218","Enes-Kanter-13299","50000","277.92"
"Jamal-Murray-35211","Gary-Harris-18617","Tim-Hardaway-Jr.-16879","Serge-Ibaka-1294","John-Collins-37823","Trae-Young-409063","Taurean-Prince-35218","Nikola-Jokic-31812","48200","277.92"
"Jamal-Murray-35211","Gary-Harris-18617","Tim-Hardaway-Jr.-16879","Noah-Vonleh-18597","Nikola-Jokic-31812","Spencer-Dinwiddie-18588","Taurean-Prince-35218","John-Collins-37823","48500","277.92"
"Jamal-Murray-35211","Jordan-Clarkson-18631","Tim-Hardaway-Jr.-16879","Rondae-Hollis-Jefferson-18897","Nikola-Jokic-31812","Spencer-Dinwiddie-18588","Taurean-Prince-35218","Tristan-Thompson-13308","49900","277.91"
"Jamal-Murray-35211","Spencer-Dinwiddie-18588","Tim-Hardaway-Jr.-16879","Rondae-Hollis-Jefferson-18897","Serge-Ibaka-1294","Trae-Young-409063","Taurean-Prince-35218","Nikola-Jokic-31812","49900","277.9"
"Trae-Young-409063","Gary-Harris-18617","Tim-Hardaway-Jr.-16879","Serge-Ibaka-1294","Nikola-Jokic-31812","Spencer-Dinwiddie-18588","Taurean-Prince-35218","Enes-Kanter-13299","49600","277.87"
"Trae-Young-409063","Gary-Harris-18617","Tim-Hardaway-Jr.-16879","Serge-Ibaka-1294","Nikola-Jokic-31812","Spencer-Dinwiddie-18588","Taurean-Prince-35218","Tristan-Thompson-13308","49500","277.86"
"Jamal-Murray-35211","Kent-Bazemore-13987","Tim-Hardaway-Jr.-16879","Rondae-Hollis-Jefferson-18897","Nikola-Jokic-31812","Trae-Young-409063","Taurean-Prince-35218","Enes-Kanter-13299","49100","277.82"
"Jamal-Murray-35211","Tim-Hardaway-Jr.-16879","Kent-Bazemore-13987","Rondae-Hollis-Jefferson-18897","Tristan-Thompson-13308","Trae-Young-409063","Taurean-Prince-35218","Nikola-Jokic-31812","49000","277.81"
"Trae-Young-409063","Tim-Hardaway-Jr.-16879","Taurean-Prince-35218","Rondae-Hollis-Jefferson-18897","Enes-Kanter-13299","Gary-Harris-18617","Noah-Vonleh-18597","Nikola-Jokic-31812","48500","277.76"
"Jamal-Murray-35211","Gary-Harris-18617","Tim-Hardaway-Jr.-16879","Larry-Nance-18946","John-Collins-37823","Trae-Young-409063","Taurean-Prince-35218","Nikola-Jokic-31812","47800","277.75"
"Trae-Young-409063","Tim-Hardaway-Jr.-16879","Taurean-Prince-35218","Rondae-Hollis-Jefferson-18897","Tristan-Thompson-13308","Gary-Harris-18617","Noah-Vonleh-18597","Nikola-Jokic-31812","48400","277.75"
"Jamal-Murray-35211","Spencer-Dinwiddie-18588","Tim-Hardaway-Jr.-16879","Rondae-Hollis-Jefferson-18897","Nikola-Jokic-31812","Trae-Young-409063","Larry-Nance-18946","Taurean-Prince-35218","49500","277.73"
"Trae-Young-409063","Gary-Harris-18617","Tim-Hardaway-Jr.-16879","Larry-Nance-18946","Enes-Kanter-13299","Spencer-Dinwiddie-18588","Taurean-Prince-35218","Nikola-Jokic-31812","49200","277.7"
"Trae-Young-409063","Gary-Harris-18617","Tim-Hardaway-Jr.-16879","Larry-Nance-18946","Tristan-Thompson-13308","Spencer-Dinwiddie-18588","Taurean-Prince-35218","Nikola-Jokic-31812","49100","277.69"
"Jamal-Murray-35211","Allen-Crabbe-16978","Tim-Hardaway-Jr.-16879","Rondae-Hollis-Jefferson-18897","Nikola-Jokic-31812","Trae-Young-409063","Taurean-Prince-35218","Enes-Kanter-13299","48200","277.68"
"Jamal-Murray-35211","Tim-Hardaway-Jr.-16879","Taurean-Prince-35218","Rondae-Hollis-Jefferson-18897","Tristan-Thompson-13308","Trae-Young-409063","Allen-Crabbe-16978","Nikola-Jokic-31812","48100","277.67"
"Jamal-Murray-35211","Tim-Hardaway-Jr.-16879","Taurean-Prince-35218","Noah-Vonleh-18597","Enes-Kanter-13299","Spencer-Dinwiddie-18588","Larry-Nance-18946","Nikola-Jokic-31812","49800","277.56"
"Jamal-Murray-35211","Tim-Hardaway-Jr.-16879","Taurean-Prince-35218","Serge-Ibaka-1294","Nikola-Jokic-31812","Trae-Young-409063","Larry-Nance-18946","Enes-Kanter-13299","49500","277.56"
"Jamal-Murray-35211","Tim-Hardaway-Jr.-16879","Taurean-Prince-35218","Serge-Ibaka-1294","Tristan-Thompson-13308","Trae-Young-409063","Larry-Nance-18946","Nikola-Jokic-31812","49400","277.55"
"Jamal-Murray-35211","Tim-Hardaway-Jr.-16879","Taurean-Prince-35218","Noah-Vonleh-18597","Tristan-Thompson-13308","Spencer-Dinwiddie-18588","Larry-Nance-18946","Nikola-Jokic-31812","49700","277.55"
"Jamal-Murray-35211","Spencer-Dinwiddie-18588","Tim-Hardaway-Jr.-16879","Noah-Vonleh-18597","John-Collins-37823","Trae-Young-409063","Larry-Nance-18946","Nikola-Jokic-31812","49700","277.52"
"Jamal-Murray-35211","Tim-Hardaway-Jr.-16879","Taurean-Prince-35218","Rondae-Hollis-Jefferson-18897","Enes-Kanter-13299","Trae-Young-409063","Rodney-Hood-18629","Nikola-Jokic-31812","48800","277.51"
"Jamal-Murray-35211","Rodney-Hood-18629","Tim-Hardaway-Jr.-16879","Rondae-Hollis-Jefferson-18897","Nikola-Jokic-31812","Trae-Young-409063","Taurean-Prince-35218","Tristan-Thompson-13308","48700","277.5"
"Jamal-Murray-35211","Jordan-Clarkson-18631","Tim-Hardaway-Jr.-16879","Rondae-Hollis-Jefferson-18897","Nikola-Jokic-31812","Trae-Young-409063","Taurean-Prince-35218","John-Collins-37823","48200","277.45"
