"Luka-Doncic-408971","Donovan-Mitchell-37875","Rudy-Gay-1341","Harrison-Barnes-13901","Marc-Gasol-1493","De'Aaron-Fox-37900","Tyreke-Evans-1070","Mike-Conley-1062","49700","296.86"

"Luka-Doncic-408971","Donovan-Mitchell-37875","Rudy-Gay-1341","Harrison-Barnes-13901","Marc-Gasol-1493","De'Aaron-Fox-37900","Tyreke-Evans-1070","Mike-Conley-1062","49700","296.86"
"Luka-Doncic-408971","Donovan-Mitchell-37875","Tyreke-Evans-1070","Harrison-Barnes-13901","Marc-Gasol-1493","De'Aaron-Fox-37900","Buddy-Hield-35206","Mike-Conley-1062","50000","296.02"
"Luka-Doncic-408971","Donovan-Mitchell-37875","Tyreke-Evans-1070","Harrison-Barnes-13901","Marc-Gasol-1493","De'Aaron-Fox-37900","Nicolas-Batum-1315","Mike-Conley-1062","49300","295.95"
"Luka-Doncic-408971","Donovan-Mitchell-37875","Tyreke-Evans-1070","Rudy-Gay-1341","Marc-Gasol-1493","De'Aaron-Fox-37900","Buddy-Hield-35206","Mike-Conley-1062","49800","295.75"
"Luka-Doncic-408971","Donovan-Mitchell-37875","Tyreke-Evans-1070","Rudy-Gay-1341","Marc-Gasol-1493","De'Aaron-Fox-37900","Nicolas-Batum-1315","Mike-Conley-1062","49100","295.68"
"Luka-Doncic-408971","Donovan-Mitchell-37875","Joe-Ingles-18627","Harrison-Barnes-13901","Marc-Gasol-1493","De'Aaron-Fox-37900","Tyreke-Evans-1070","Mike-Conley-1062","49800","295.51"
"De'Aaron-Fox-37900","Donovan-Mitchell-37875","Tyreke-Evans-1070","Harrison-Barnes-13901","Marc-Gasol-1493","Mike-Conley-1062","Nicolas-Batum-1315","Rudy-Gobert-16935","49700","295.31"
"Luka-Doncic-408971","Donovan-Mitchell-37875","Joe-Ingles-18627","Rudy-Gay-1341","Marc-Gasol-1493","De'Aaron-Fox-37900","Tyreke-Evans-1070","Mike-Conley-1062","49600","295.24"
"De'Aaron-Fox-37900","Donovan-Mitchell-37875","Tyreke-Evans-1070","Rudy-Gay-1341","Marc-Gasol-1493","Mike-Conley-1062","Nicolas-Batum-1315","Rudy-Gobert-16935","49500","295.04"
"Luka-Doncic-408971","Donovan-Mitchell-37875","Tyreke-Evans-1070","Rudy-Gay-1341","Marc-Gasol-1493","Mike-Conley-1062","Nicolas-Batum-1315","Rudy-Gobert-16935","50000","295.04"
"De'Aaron-Fox-37900","Donovan-Mitchell-37875","Joe-Ingles-18627","Rudy-Gay-1341","Marc-Gasol-1493","Mike-Conley-1062","Tyreke-Evans-1070","Rudy-Gobert-16935","50000","294.6"
"Luka-Doncic-408971","Donovan-Mitchell-37875","Rudy-Gay-1341","Harrison-Barnes-13901","Rudy-Gobert-16935","De'Aaron-Fox-37900","Tyreke-Evans-1070","Marc-Gasol-1493","49500","294.03"
"Luka-Doncic-408971","Donovan-Mitchell-37875","Tyreke-Evans-1070","Harrison-Barnes-13901","Rudy-Gobert-16935","De'Aaron-Fox-37900","Buddy-Hield-35206","Marc-Gasol-1493","49800","293.19"
"Luka-Doncic-408971","Donovan-Mitchell-37875","Tyreke-Evans-1070","Harrison-Barnes-13901","Marc-Gasol-1493","De'Aaron-Fox-37900","Nicolas-Batum-1315","Rudy-Gobert-16935","49100","293.12"
"Luka-Doncic-408971","Donovan-Mitchell-37875","Tyreke-Evans-1070","Rudy-Gay-1341","Marc-Gasol-1493","De'Aaron-Fox-37900","Buddy-Hield-35206","Rudy-Gobert-16935","49600","292.92"
"Luka-Doncic-408971","Donovan-Mitchell-37875","Tyreke-Evans-1070","Rudy-Gay-1341","Marc-Gasol-1493","De'Aaron-Fox-37900","Nicolas-Batum-1315","Rudy-Gobert-16935","48900","292.85"
"Luka-Doncic-408971","Donovan-Mitchell-37875","Rudy-Gay-1341","Harrison-Barnes-13901","Rudy-Gobert-16935","De'Aaron-Fox-37900","Tyreke-Evans-1070","Mike-Conley-1062","49100","292.81"
"Luka-Doncic-408971","Donovan-Mitchell-37875","Joe-Ingles-18627","Harrison-Barnes-13901","Rudy-Gobert-16935","De'Aaron-Fox-37900","Tyreke-Evans-1070","Marc-Gasol-1493","49600","292.68"
"Luka-Doncic-408971","Donovan-Mitchell-37875","Joe-Ingles-18627","Rudy-Gay-1341","Marc-Gasol-1493","De'Aaron-Fox-37900","Tyreke-Evans-1070","Rudy-Gobert-16935","49400","292.41"
"Luka-Doncic-408971","Donovan-Mitchell-37875","Tyreke-Evans-1070","Harrison-Barnes-13901","Rudy-Gobert-16935","De'Aaron-Fox-37900","Buddy-Hield-35206","Mike-Conley-1062","49400","291.97"
"Luka-Doncic-408971","Donovan-Mitchell-37875","Tyreke-Evans-1070","Harrison-Barnes-13901","Rudy-Gobert-16935","De'Aaron-Fox-37900","Nicolas-Batum-1315","Mike-Conley-1062","48700","291.9"
"Luka-Doncic-408971","Donovan-Mitchell-37875","Rudy-Gay-1341","Harrison-Barnes-13901","Rudy-Gobert-16935","De'Aaron-Fox-37900","Nicolas-Batum-1315","Mike-Conley-1062","49900","291.85"
"Luka-Doncic-408971","Donovan-Mitchell-37875","Tyreke-Evans-1070","Rudy-Gay-1341","Rudy-Gobert-16935","De'Aaron-Fox-37900","Buddy-Hield-35206","Mike-Conley-1062","49200","291.7"
"Luka-Doncic-408971","Donovan-Mitchell-37875","Rudy-Gay-1341","Harrison-Barnes-13901","Willie-Cauley-Stein-18951","Mike-Conley-1062","Tyreke-Evans-1070","Marc-Gasol-1493","49400","291.68"
"De'Aaron-Fox-37900","Donovan-Mitchell-37875","Rudy-Gay-1341","Harrison-Barnes-13901","Willie-Cauley-Stein-18951","Mike-Conley-1062","Tyreke-Evans-1070","Marc-Gasol-1493","48900","291.68"
"Luka-Doncic-408971","Donovan-Mitchell-37875","Tyreke-Evans-1070","Rudy-Gay-1341","Rudy-Gobert-16935","De'Aaron-Fox-37900","Nicolas-Batum-1315","Mike-Conley-1062","48500","291.63"
"Luka-Doncic-408971","Donovan-Mitchell-37875","Harrison-Barnes-13901","Jerami-Grant-18576","Marc-Gasol-1493","De'Aaron-Fox-37900","Tyreke-Evans-1070","Mike-Conley-1062","49300","291.51"
"Luka-Doncic-408971","Donovan-Mitchell-37875","Joe-Ingles-18627","Harrison-Barnes-13901","Rudy-Gobert-16935","De'Aaron-Fox-37900","Tyreke-Evans-1070","Mike-Conley-1062","49200","291.46"
"Luka-Doncic-408971","Donovan-Mitchell-37875","Rudy-Gay-1341","Jerami-Grant-18576","Marc-Gasol-1493","De'Aaron-Fox-37900","Tyreke-Evans-1070","Mike-Conley-1062","49100","291.24"
"Luka-Doncic-408971","Donovan-Mitchell-37875","Joe-Ingles-18627","Rudy-Gay-1341","Rudy-Gobert-16935","De'Aaron-Fox-37900","Tyreke-Evans-1070","Mike-Conley-1062","49000","291.19"
"De'Aaron-Fox-37900","Donovan-Mitchell-37875","Harrison-Barnes-13901","Jerami-Grant-18576","Rudy-Gobert-16935","Mike-Conley-1062","Tyreke-Evans-1070","Marc-Gasol-1493","49700","290.87"
"Luka-Doncic-408971","Donovan-Mitchell-37875","Harrison-Barnes-13901","Derrick-Favors-1266","Marc-Gasol-1493","De'Aaron-Fox-37900","Tyreke-Evans-1070","Mike-Conley-1062","49000","290.86"
"Luka-Doncic-408971","Donovan-Mitchell-37875","Tyreke-Evans-1070","Harrison-Barnes-13901","Willie-Cauley-Stein-18951","Mike-Conley-1062","Buddy-Hield-35206","Marc-Gasol-1493","49700","290.84"
"De'Aaron-Fox-37900","Donovan-Mitchell-37875","Tyreke-Evans-1070","Harrison-Barnes-13901","Willie-Cauley-Stein-18951","Mike-Conley-1062","Buddy-Hield-35206","Marc-Gasol-1493","49200","290.84"
"De'Aaron-Fox-37900","Donovan-Mitchell-37875","Tyreke-Evans-1070","Harrison-Barnes-13901","Willie-Cauley-Stein-18951","Mike-Conley-1062","Nicolas-Batum-1315","Marc-Gasol-1493","48500","290.77"
"Luka-Doncic-408971","Donovan-Mitchell-37875","Tyreke-Evans-1070","Harrison-Barnes-13901","Willie-Cauley-Stein-18951","Mike-Conley-1062","Nicolas-Batum-1315","Marc-Gasol-1493","49000","290.77"
"Luka-Doncic-408971","Donovan-Mitchell-37875","Buddy-Hield-35206","Rudy-Gay-1341","Rudy-Gobert-16935","De'Aaron-Fox-37900","Nicolas-Batum-1315","Mike-Conley-1062","50000","290.74"
"De'Aaron-Fox-37900","Donovan-Mitchell-37875","Rudy-Gay-1341","Harrison-Barnes-13901","Marc-Gasol-1493","Mike-Conley-1062","Nicolas-Batum-1315","Willie-Cauley-Stein-18951","49700","290.72"
"Luka-Doncic-408971","Donovan-Mitchell-37875","Harrison-Barnes-13901","Trey-Lyles-18942","Marc-Gasol-1493","De'Aaron-Fox-37900","Tyreke-Evans-1070","Mike-Conley-1062","48400","290.61"
"De'Aaron-Fox-37900","Donovan-Mitchell-37875","Rudy-Gay-1341","Jerami-Grant-18576","Rudy-Gobert-16935","Mike-Conley-1062","Tyreke-Evans-1070","Marc-Gasol-1493","49500","290.6"
"Luka-Doncic-408971","Donovan-Mitchell-37875","Rudy-Gay-1341","Jerami-Grant-18576","Rudy-Gobert-16935","Mike-Conley-1062","Tyreke-Evans-1070","Marc-Gasol-1493","50000","290.6"
"Luka-Doncic-408971","Donovan-Mitchell-37875","Rudy-Gay-1341","Derrick-Favors-1266","Marc-Gasol-1493","De'Aaron-Fox-37900","Tyreke-Evans-1070","Mike-Conley-1062","48800","290.59"
"Luka-Doncic-408971","Donovan-Mitchell-37875","Tyreke-Evans-1070","Rudy-Gay-1341","Marc-Gasol-1493","Mike-Conley-1062","Buddy-Hield-35206","Willie-Cauley-Stein-18951","49500","290.57"
"De'Aaron-Fox-37900","Donovan-Mitchell-37875","Tyreke-Evans-1070","Rudy-Gay-1341","Marc-Gasol-1493","Mike-Conley-1062","Buddy-Hield-35206","Willie-Cauley-Stein-18951","49000","290.57"
"Luka-Doncic-408971","Donovan-Mitchell-37875","Rudy-Gay-1341","Harrison-Barnes-13901","Marc-Gasol-1493","De'Aaron-Fox-37900","Trey-Lyles-18942","Mike-Conley-1062","49600","290.56"
"Luka-Doncic-408971","Donovan-Mitchell-37875","Tyreke-Evans-1070","Rudy-Gay-1341","Marc-Gasol-1493","Mike-Conley-1062","Nicolas-Batum-1315","Willie-Cauley-Stein-18951","48800","290.5"
"Luka-Doncic-408971","Donovan-Mitchell-37875","Joe-Ingles-18627","Harrison-Barnes-13901","Rudy-Gobert-16935","De'Aaron-Fox-37900","Nicolas-Batum-1315","Mike-Conley-1062","50000","290.5"
"De'Aaron-Fox-37900","Donovan-Mitchell-37875","Tyreke-Evans-1070","Rudy-Gay-1341","Marc-Gasol-1493","Mike-Conley-1062","Nicolas-Batum-1315","Willie-Cauley-Stein-18951","48300","290.5"
"Luka-Doncic-408971","Donovan-Mitchell-37875","Tyreke-Evans-1070","Jerami-Grant-18576","Marc-Gasol-1493","De'Aaron-Fox-37900","Buddy-Hield-35206","Mike-Conley-1062","49400","290.4"
"Luka-Doncic-408971","Donovan-Mitchell-37875","Rudy-Gay-1341","Trey-Lyles-18942","Marc-Gasol-1493","De'Aaron-Fox-37900","Tyreke-Evans-1070","Mike-Conley-1062","48200","290.34"
"Luka-Doncic-408971","Donovan-Mitchell-37875","Joe-Ingles-18627","Harrison-Barnes-13901","Willie-Cauley-Stein-18951","Mike-Conley-1062","Tyreke-Evans-1070","Marc-Gasol-1493","49500","290.33"
"Luka-Doncic-408971","Donovan-Mitchell-37875","Tyreke-Evans-1070","Jerami-Grant-18576","Marc-Gasol-1493","De'Aaron-Fox-37900","Nicolas-Batum-1315","Mike-Conley-1062","48700","290.33"
"De'Aaron-Fox-37900","Donovan-Mitchell-37875","Joe-Ingles-18627","Harrison-Barnes-13901","Willie-Cauley-Stein-18951","Mike-Conley-1062","Tyreke-Evans-1070","Marc-Gasol-1493","49000","290.33"
"Luka-Doncic-408971","Donovan-Mitchell-37875","Rudy-Gay-1341","Jerami-Grant-18576","Marc-Gasol-1493","De'Aaron-Fox-37900","Nicolas-Batum-1315","Mike-Conley-1062","49900","290.28"
"Luka-Doncic-408971","Donovan-Mitchell-37875","Joe-Ingles-18627","Rudy-Gay-1341","Rudy-Gobert-16935","De'Aaron-Fox-37900","Nicolas-Batum-1315","Mike-Conley-1062","49800","290.23"
"De'Aaron-Fox-37900","Donovan-Mitchell-37875","Harrison-Barnes-13901","Derrick-Favors-1266","Marc-Gasol-1493","Mike-Conley-1062","Tyreke-Evans-1070","Rudy-Gobert-16935","49400","290.22"
"Luka-Doncic-408971","Donovan-Mitchell-37875","Harrison-Barnes-13901","Derrick-Favors-1266","Marc-Gasol-1493","Mike-Conley-1062","Tyreke-Evans-1070","Rudy-Gobert-16935","49900","290.22"
"Luka-Doncic-408971","Donovan-Mitchell-37875","Tyreke-Evans-1070","Harrison-Barnes-13901","Marc-Gasol-1493","De'Aaron-Fox-37900","Kyle-Anderson-18615","Mike-Conley-1062","49000","290.2"
"De'Aaron-Fox-37900","Donovan-Mitchell-37875","Joe-Ingles-18627","Rudy-Gay-1341","Marc-Gasol-1493","Mike-Conley-1062","Tyreke-Evans-1070","Willie-Cauley-Stein-18951","48800","290.06"
"Luka-Doncic-408971","Donovan-Mitchell-37875","Joe-Ingles-18627","Rudy-Gay-1341","Marc-Gasol-1493","Mike-Conley-1062","Tyreke-Evans-1070","Willie-Cauley-Stein-18951","49300","290.06"
"Luka-Doncic-408971","Donovan-Mitchell-37875","Tyreke-Evans-1070","Harrison-Barnes-13901","Marc-Gasol-1493","De'Aaron-Fox-37900","Bogdan-Bogdanovic-37899","Mike-Conley-1062","48400","289.99"
"De'Aaron-Fox-37900","Donovan-Mitchell-37875","Harrison-Barnes-13901","Trey-Lyles-18942","Rudy-Gobert-16935","Mike-Conley-1062","Tyreke-Evans-1070","Marc-Gasol-1493","48800","289.97"
"Luka-Doncic-408971","Donovan-Mitchell-37875","Harrison-Barnes-13901","Trey-Lyles-18942","Rudy-Gobert-16935","Mike-Conley-1062","Tyreke-Evans-1070","Marc-Gasol-1493","49300","289.97"
"De'Aaron-Fox-37900","Donovan-Mitchell-37875","Rudy-Gay-1341","Derrick-Favors-1266","Marc-Gasol-1493","Mike-Conley-1062","Tyreke-Evans-1070","Rudy-Gobert-16935","49200","289.95"
"Luka-Doncic-408971","Donovan-Mitchell-37875","Rudy-Gay-1341","Derrick-Favors-1266","Marc-Gasol-1493","Mike-Conley-1062","Tyreke-Evans-1070","Rudy-Gobert-16935","49700","289.95"
"Luka-Doncic-408971","Donovan-Mitchell-37875","Rudy-Gay-1341","Harrison-Barnes-13901","Marc-Gasol-1493","De'Aaron-Fox-37900","Bogdan-Bogdanovic-37899","Mike-Conley-1062","49600","289.94"
"Luka-Doncic-408971","Donovan-Mitchell-37875","Tyreke-Evans-1070","Rudy-Gay-1341","Marc-Gasol-1493","De'Aaron-Fox-37900","Kyle-Anderson-18615","Mike-Conley-1062","48800","289.93"
"De'Aaron-Fox-37900","Donovan-Mitchell-37875","Rudy-Gay-1341","Harrison-Barnes-13901","Rudy-Gobert-16935","Mike-Conley-1062","Trey-Lyles-18942","Marc-Gasol-1493","50000","289.92"
"Luka-Doncic-408971","Donovan-Mitchell-37875","Harrison-Barnes-13901","Derrick-Favors-1266","Marc-Gasol-1493","De'Aaron-Fox-37900","Nicolas-Batum-1315","Mike-Conley-1062","49800","289.9"
"Luka-Doncic-408971","Donovan-Mitchell-37875","Joe-Ingles-18627","Jerami-Grant-18576","Marc-Gasol-1493","De'Aaron-Fox-37900","Tyreke-Evans-1070","Mike-Conley-1062","49200","289.89"
"De'Aaron-Fox-37900","Donovan-Mitchell-37875","Buddy-Hield-35206","Harrison-Barnes-13901","Marc-Gasol-1493","Mike-Conley-1062","Nicolas-Batum-1315","Willie-Cauley-Stein-18951","50000","289.88"
"De'Aaron-Fox-37900","Donovan-Mitchell-37875","Tyreke-Evans-1070","Jerami-Grant-18576","Rudy-Gobert-16935","Mike-Conley-1062","Buddy-Hield-35206","Marc-Gasol-1493","49800","289.76"
"Luka-Doncic-408971","Donovan-Mitchell-37875","Tyreke-Evans-1070","Derrick-Favors-1266","Marc-Gasol-1493","De'Aaron-Fox-37900","Buddy-Hield-35206","Mike-Conley-1062","49100","289.75"
"Luka-Doncic-408971","Donovan-Mitchell-37875","Harrison-Barnes-13901","Trey-Lyles-18942","Marc-Gasol-1493","De'Aaron-Fox-37900","Buddy-Hield-35206","Mike-Conley-1062","49900","289.72"
"Luka-Doncic-408971","Donovan-Mitchell-37875","Tyreke-Evans-1070","Rudy-Gay-1341","Marc-Gasol-1493","De'Aaron-Fox-37900","Bogdan-Bogdanovic-37899","Mike-Conley-1062","48200","289.72"
"Luka-Doncic-408971","Donovan-Mitchell-37875","Rudy-Gay-1341","Trey-Lyles-18942","Marc-Gasol-1493","Mike-Conley-1062","Tyreke-Evans-1070","Rudy-Gobert-16935","49100","289.7"
"De'Aaron-Fox-37900","Donovan-Mitchell-37875","Rudy-Gay-1341","Trey-Lyles-18942","Marc-Gasol-1493","Mike-Conley-1062","Tyreke-Evans-1070","Rudy-Gobert-16935","48600","289.7"
"Luka-Doncic-408971","Donovan-Mitchell-37875","Tyreke-Evans-1070","Jerami-Grant-18576","Marc-Gasol-1493","Mike-Conley-1062","Nicolas-Batum-1315","Rudy-Gobert-16935","49600","289.69"
"De'Aaron-Fox-37900","Donovan-Mitchell-37875","Tyreke-Evans-1070","Jerami-Grant-18576","Marc-Gasol-1493","Mike-Conley-1062","Nicolas-Batum-1315","Rudy-Gobert-16935","49100","289.69"
"Luka-Doncic-408971","Donovan-Mitchell-37875","Tyreke-Evans-1070","Derrick-Favors-1266","Marc-Gasol-1493","De'Aaron-Fox-37900","Nicolas-Batum-1315","Mike-Conley-1062","48400","289.68"
"Luka-Doncic-408971","Donovan-Mitchell-37875","Harrison-Barnes-13901","Trey-Lyles-18942","Marc-Gasol-1493","De'Aaron-Fox-37900","Nicolas-Batum-1315","Mike-Conley-1062","49200","289.65"
"Luka-Doncic-408971","Donovan-Mitchell-37875","Rudy-Gay-1341","Derrick-Favors-1266","Marc-Gasol-1493","De'Aaron-Fox-37900","Nicolas-Batum-1315","Mike-Conley-1062","49600","289.63"
"De'Aaron-Fox-37900","Donovan-Mitchell-37875","Buddy-Hield-35206","Rudy-Gay-1341","Willie-Cauley-Stein-18951","Mike-Conley-1062","Nicolas-Batum-1315","Marc-Gasol-1493","49800","289.61"
"De'Aaron-Fox-37900","Donovan-Mitchell-37875","Tyreke-Evans-1070","Harrison-Barnes-13901","Rudy-Gobert-16935","Mike-Conley-1062","Kyle-Anderson-18615","Marc-Gasol-1493","49400","289.56"
"Luka-Doncic-408971","Donovan-Mitchell-37875","Tyreke-Evans-1070","Harrison-Barnes-13901","Rudy-Gobert-16935","Mike-Conley-1062","Kyle-Anderson-18615","Marc-Gasol-1493","49900","289.56"
"Luka-Doncic-408971","Donovan-Mitchell-37875","Tyreke-Evans-1070","Trey-Lyles-18942","Marc-Gasol-1493","De'Aaron-Fox-37900","Buddy-Hield-35206","Mike-Conley-1062","48500","289.5"
"Luka-Doncic-408971","Donovan-Mitchell-37875","Rudy-Gay-1341","Harrison-Barnes-13901","Willie-Cauley-Stein-18951","De'Aaron-Fox-37900","Tyreke-Evans-1070","Marc-Gasol-1493","48300","289.49"
"Luka-Doncic-408971","Donovan-Mitchell-37875","Rudy-Gay-1341","Trey-Lyles-18942","Marc-Gasol-1493","De'Aaron-Fox-37900","Buddy-Hield-35206","Mike-Conley-1062","49700","289.45"
"Luka-Doncic-408971","Donovan-Mitchell-37875","Tyreke-Evans-1070","Trey-Lyles-18942","Marc-Gasol-1493","De'Aaron-Fox-37900","Nicolas-Batum-1315","Mike-Conley-1062","47800","289.43"
"Luka-Doncic-408971","Donovan-Mitchell-37875","Rudy-Gay-1341","Trey-Lyles-18942","Marc-Gasol-1493","De'Aaron-Fox-37900","Nicolas-Batum-1315","Mike-Conley-1062","49000","289.38"
"De'Aaron-Fox-37900","Donovan-Mitchell-37875","Joe-Ingles-18627","Harrison-Barnes-13901","Marc-Gasol-1493","Mike-Conley-1062","Nicolas-Batum-1315","Willie-Cauley-Stein-18951","49800","289.37"
"De'Aaron-Fox-37900","Donovan-Mitchell-37875","Tyreke-Evans-1070","Harrison-Barnes-13901","Rudy-Gobert-16935","Mike-Conley-1062","Bogdan-Bogdanovic-37899","Marc-Gasol-1493","48800","289.35"
"Luka-Doncic-408971","Donovan-Mitchell-37875","Tyreke-Evans-1070","Harrison-Barnes-13901","Rudy-Gobert-16935","Mike-Conley-1062","Bogdan-Bogdanovic-37899","Marc-Gasol-1493","49300","289.35"
"Luka-Doncic-408971","Donovan-Mitchell-37875","Tyreke-Evans-1070","Harrison-Barnes-13901","Marc-Gasol-1493","De'Aaron-Fox-37900","Rodney-Hood-18629","Mike-Conley-1062","48900","289.33"
"De'Aaron-Fox-37900","Donovan-Mitchell-37875","Rudy-Gay-1341","Harrison-Barnes-13901","Rudy-Gobert-16935","Mike-Conley-1062","Bogdan-Bogdanovic-37899","Marc-Gasol-1493","50000","289.3"
"De'Aaron-Fox-37900","Donovan-Mitchell-37875","Tyreke-Evans-1070","Rudy-Gay-1341","Marc-Gasol-1493","Mike-Conley-1062","Kyle-Anderson-18615","Rudy-Gobert-16935","49200","289.29"
"Luka-Doncic-408971","Donovan-Mitchell-37875","Tyreke-Evans-1070","Rudy-Gay-1341","Marc-Gasol-1493","Mike-Conley-1062","Kyle-Anderson-18615","Rudy-Gobert-16935","49700","289.29"
"Donovan-Mitchell-37875","Tyreke-Evans-1070","Rudy-Gay-1341","Harrison-Barnes-13901","Marc-Gasol-1493","De'Aaron-Fox-37900","Buddy-Hield-35206","Mike-Conley-1062","48700","289.26"
"Donovan-Mitchell-37875","Tyreke-Evans-1070","Rudy-Gay-1341","Harrison-Barnes-13901","Marc-Gasol-1493","Luka-Doncic-408971","Buddy-Hield-35206","Mike-Conley-1062","49200","289.26"
"De'Aaron-Fox-37900","Donovan-Mitchell-37875","Joe-Ingles-18627","Jerami-Grant-18576","Marc-Gasol-1493","Mike-Conley-1062","Tyreke-Evans-1070","Rudy-Gobert-16935","49600","289.25"
