"Kyle-Anderson-18615","Tim-Hardaway-Jr.-16879","Joe-Ingles-18627","Derrick-Favors-1266","Marc-Gasol-1493","Mike-Conley-1062","Al-Horford-1499","Rudy-Gobert-16935","50000","270.19"

"Kyle-Anderson-18615","Tim-Hardaway-Jr.-16879","Joe-Ingles-18627","Derrick-Favors-1266","Marc-Gasol-1493","Mike-Conley-1062","Al-Horford-1499","Rudy-Gobert-16935","50000","270.19"
"Kyle-Anderson-18615","Donovan-Mitchell-37875","Joe-Ingles-18627","Derrick-Favors-1266","Marc-Gasol-1493","Mike-Conley-1062","Al-Horford-1499","Tim-Hardaway-Jr.-16879","49300","268.86"
"Mike-Conley-1062","Donovan-Mitchell-37875","Joe-Ingles-18627","Derrick-Favors-1266","Rudy-Gobert-16935","Tim-Hardaway-Jr.-16879","Kyle-Anderson-18615","Al-Horford-1499","49900","268.74"
"Mike-Conley-1062","Donovan-Mitchell-37875","JaMychal-Green-18729","Al-Horford-1499","Marc-Gasol-1493","Joe-Ingles-18627","Kyle-Anderson-18615","Rudy-Gobert-16935","49900","268.64"
"Mike-Conley-1062","Donovan-Mitchell-37875","Joe-Ingles-18627","JaMychal-Green-18729","Derrick-Favors-1266","Kyrie-Irving-13334","Kyle-Anderson-18615","Marc-Gasol-1493","49900","268.63"
"Mike-Conley-1062","Donovan-Mitchell-37875","Kyle-Anderson-18615","Derrick-Favors-1266","Rudy-Gobert-16935","Marcus-Smart-18567","Al-Horford-1499","Marc-Gasol-1493","49900","268.47"
"Mike-Conley-1062","Donovan-Mitchell-37875","Joe-Ingles-18627","Derrick-Favors-1266","Rudy-Gobert-16935","Marcus-Smart-18567","Kyle-Anderson-18615","Marc-Gasol-1493","49700","268.46"
"Mike-Conley-1062","Donovan-Mitchell-37875","Joe-Ingles-18627","Derrick-Favors-1266","Marc-Gasol-1493","Dante-Exum-18626","Al-Horford-1499","Rudy-Gobert-16935","49800","268.43"
"Kyle-Anderson-18615","Donovan-Mitchell-37875","Tim-Hardaway-Jr.-16879","Derrick-Favors-1266","Marc-Gasol-1493","Mike-Conley-1062","Al-Horford-1499","Jayson-Tatum-37782","49800","268.39"
"Mike-Conley-1062","Donovan-Mitchell-37875","Joe-Ingles-18627","Jayson-Tatum-37782","Derrick-Favors-1266","Tim-Hardaway-Jr.-16879","Kyle-Anderson-18615","Marc-Gasol-1493","49600","268.38"
"Kyle-Anderson-18615","Donovan-Mitchell-37875","Joe-Ingles-18627","Derrick-Favors-1266","Marc-Gasol-1493","Mike-Conley-1062","Luke-Kornet-37800","Rudy-Gobert-16935","49600","268.34"
"Mike-Conley-1062","Donovan-Mitchell-37875","Joe-Ingles-18627","Derrick-Favors-1266","Marc-Gasol-1493","Terry-Rozier-18894","Al-Horford-1499","Rudy-Gobert-16935","50000","268.3"
"Kyle-Anderson-18615","Donovan-Mitchell-37875","JaMychal-Green-18729","Derrick-Favors-1266","Rudy-Gobert-16935","Mike-Conley-1062","Al-Horford-1499","Marc-Gasol-1493","49500","268.27"
"Mike-Conley-1062","Donovan-Mitchell-37875","JaMychal-Green-18729","Derrick-Favors-1266","Rudy-Gobert-16935","Joe-Ingles-18627","Kyle-Anderson-18615","Marc-Gasol-1493","49300","268.26"
"Kyle-Anderson-18615","Donovan-Mitchell-37875","Tim-Hardaway-Jr.-16879","Derrick-Favors-1266","Marc-Gasol-1493","Mike-Conley-1062","Al-Horford-1499","Emmanuel-Mudiay-18936","49700","267.96"
"Mike-Conley-1062","Donovan-Mitchell-37875","Joe-Ingles-18627","Derrick-Favors-1266","Marc-Gasol-1493","Emmanuel-Mudiay-18936","Kyle-Anderson-18615","Tim-Hardaway-Jr.-16879","49500","267.95"
"Donovan-Mitchell-37875","Tim-Hardaway-Jr.-16879","Gordon-Hayward-1239","Al-Horford-1499","Rudy-Gobert-16935","Joe-Ingles-18627","Kyle-Anderson-18615","Marc-Gasol-1493","50000","267.85"
"Donovan-Mitchell-37875","Tim-Hardaway-Jr.-16879","Gordon-Hayward-1239","Derrick-Favors-1266","Marc-Gasol-1493","Kyrie-Irving-13334","Kyle-Anderson-18615","Joe-Ingles-18627","50000","267.84"
"Mike-Conley-1062","Donovan-Mitchell-37875","Tim-Hardaway-Jr.-16879","Derrick-Favors-1266","Rudy-Gobert-16935","Kyle-Korver-1269","Kyle-Anderson-18615","Marc-Gasol-1493","50000","267.83"
"Mike-Conley-1062","Donovan-Mitchell-37875","Joe-Ingles-18627","Derrick-Favors-1266","Marc-Gasol-1493","Tim-Hardaway-Jr.-16879","Al-Horford-1499","Gordon-Hayward-1239","49400","267.79"
"Kyle-Anderson-18615","Donovan-Mitchell-37875","JaMychal-Green-18729","Derrick-Favors-1266","Marc-Gasol-1493","Mike-Conley-1062","Jayson-Tatum-37782","Rudy-Gobert-16935","49800","267.79"
"Shelvin-Mack-13354","Donovan-Mitchell-37875","Tim-Hardaway-Jr.-16879","Derrick-Favors-1266","Rudy-Gobert-16935","Mike-Conley-1062","Kyle-Anderson-18615","Marc-Gasol-1493","50000","267.75"
"Mike-Conley-1062","Donovan-Mitchell-37875","Joe-Ingles-18627","Derrick-Favors-1266","Rudy-Gobert-16935","Tim-Hardaway-Jr.-16879","Al-Horford-1499","Gordon-Hayward-1239","50000","267.67"
"Kyle-Anderson-18615","Donovan-Mitchell-37875","Tim-Hardaway-Jr.-16879","Derrick-Favors-1266","Marc-Gasol-1493","Mike-Conley-1062","Royce-O'Neale-37872","Rudy-Gobert-16935","49800","267.63"
"Kyle-Anderson-18615","Donovan-Mitchell-37875","Tim-Hardaway-Jr.-16879","Derrick-Favors-1266","Noah-Vonleh-18597","Mike-Conley-1062","Joe-Ingles-18627","Marc-Gasol-1493","50000","267.61"
"Mike-Conley-1062","Donovan-Mitchell-37875","Tim-Hardaway-Jr.-16879","Gordon-Hayward-1239","Rudy-Gobert-16935","Dante-Exum-18626","Kyle-Anderson-18615","Marc-Gasol-1493","50000","267.59"
"Mike-Conley-1062","Donovan-Mitchell-37875","JaMychal-Green-18729","Al-Horford-1499","Marc-Gasol-1493","Joe-Ingles-18627","Gordon-Hayward-1239","Rudy-Gobert-16935","50000","267.57"
"Mike-Conley-1062","Donovan-Mitchell-37875","JaMychal-Green-18729","Gordon-Hayward-1239","Derrick-Favors-1266","Kyrie-Irving-13334","Joe-Ingles-18627","Marc-Gasol-1493","50000","267.56"
"Mike-Conley-1062","Donovan-Mitchell-37875","Tim-Hardaway-Jr.-16879","Jayson-Tatum-37782","Marc-Gasol-1493","Emmanuel-Mudiay-18936","Kyle-Anderson-18615","Derrick-Favors-1266","50000","267.48"
"Kyle-Anderson-18615","Donovan-Mitchell-37875","Gordon-Hayward-1239","Derrick-Favors-1266","Rudy-Gobert-16935","Tim-Hardaway-Jr.-16879","Al-Horford-1499","Marc-Gasol-1493","49600","267.48"
"Donovan-Mitchell-37875","Tim-Hardaway-Jr.-16879","Gordon-Hayward-1239","Derrick-Favors-1266","Marc-Gasol-1493","Joe-Ingles-18627","Kyle-Anderson-18615","Rudy-Gobert-16935","49400","267.47"
"Mike-Conley-1062","Donovan-Mitchell-37875","Kyle-Anderson-18615","Derrick-Favors-1266","Marc-Gasol-1493","Emmanuel-Mudiay-18936","Luke-Kornet-37800","Rudy-Gobert-16935","50000","267.44"
"Mike-Conley-1062","Donovan-Mitchell-37875","Gordon-Hayward-1239","Derrick-Favors-1266","Rudy-Gobert-16935","Marcus-Smart-18567","Al-Horford-1499","Marc-Gasol-1493","50000","267.4"
"Mike-Conley-1062","Donovan-Mitchell-37875","Gordon-Hayward-1239","Derrick-Favors-1266","Marc-Gasol-1493","Marcus-Smart-18567","Joe-Ingles-18627","Rudy-Gobert-16935","49800","267.39"
"Mike-Conley-1062","Donovan-Mitchell-37875","JaMychal-Green-18729","Derrick-Favors-1266","Rudy-Gobert-16935","Emmanuel-Mudiay-18936","Kyle-Anderson-18615","Marc-Gasol-1493","49700","267.36"
"Mike-Conley-1062","Donovan-Mitchell-37875","Jayson-Tatum-37782","Derrick-Favors-1266","Marc-Gasol-1493","Tim-Hardaway-Jr.-16879","Al-Horford-1499","Gordon-Hayward-1239","49900","267.32"
"Mike-Conley-1062","Donovan-Mitchell-37875","Jayson-Tatum-37782","Gordon-Hayward-1239","Marc-Gasol-1493","Tim-Hardaway-Jr.-16879","Joe-Ingles-18627","Derrick-Favors-1266","49700","267.31"
"Mike-Conley-1062","Donovan-Mitchell-37875","Gordon-Hayward-1239","Derrick-Favors-1266","Rudy-Gobert-16935","Joe-Ingles-18627","Luke-Kornet-37800","Marc-Gasol-1493","49700","267.27"
"Mike-Conley-1062","Donovan-Mitchell-37875","Kyle-Anderson-18615","Derrick-Favors-1266","Rudy-Gobert-16935","Garrett-Temple-14077","Al-Horford-1499","Marc-Gasol-1493","50000","267.22"
"Mike-Conley-1062","Donovan-Mitchell-37875","Joe-Ingles-18627","Derrick-Favors-1266","Rudy-Gobert-16935","Garrett-Temple-14077","Kyle-Anderson-18615","Marc-Gasol-1493","49800","267.21"
"Mike-Conley-1062","Donovan-Mitchell-37875","JaMychal-Green-18729","Derrick-Favors-1266","Marc-Gasol-1493","Joe-Ingles-18627","Gordon-Hayward-1239","Rudy-Gobert-16935","49400","267.19"
"Mike-Conley-1062","Tim-Hardaway-Jr.-16879","Gordon-Hayward-1239","Al-Horford-1499","Rudy-Gobert-16935","Joe-Ingles-18627","Kyle-Anderson-18615","Marc-Gasol-1493","49800","267.11"
"Mike-Conley-1062","Tim-Hardaway-Jr.-16879","Gordon-Hayward-1239","Derrick-Favors-1266","Marc-Gasol-1493","Kyrie-Irving-13334","Kyle-Anderson-18615","Al-Horford-1499","50000","267.11"
"Mike-Conley-1062","Tim-Hardaway-Jr.-16879","Gordon-Hayward-1239","Derrick-Favors-1266","Marc-Gasol-1493","Kyrie-Irving-13334","Kyle-Anderson-18615","Joe-Ingles-18627","49800","267.1"
"Kyle-Anderson-18615","Donovan-Mitchell-37875","Jayson-Tatum-37782","Derrick-Favors-1266","Rudy-Gobert-16935","Tim-Hardaway-Jr.-16879","Gordon-Hayward-1239","Marc-Gasol-1493","49900","267.0"
"Kyle-Anderson-18615","Donovan-Mitchell-37875","Thabo-Sefolosha-1271","Derrick-Favors-1266","Rudy-Gobert-16935","Mike-Conley-1062","Tim-Hardaway-Jr.-16879","Marc-Gasol-1493","49800","266.97"
"Mike-Conley-1062","Donovan-Mitchell-37875","Tim-Hardaway-Jr.-16879","Derrick-Favors-1266","Marc-Gasol-1493","Emmanuel-Mudiay-18936","Al-Horford-1499","Gordon-Hayward-1239","49800","266.89"
"Mike-Conley-1062","Donovan-Mitchell-37875","Gordon-Hayward-1239","Derrick-Favors-1266","Marc-Gasol-1493","Emmanuel-Mudiay-18936","Joe-Ingles-18627","Tim-Hardaway-Jr.-16879","49600","266.88"
"Mike-Conley-1062","Donovan-Mitchell-37875","Joe-Ingles-18627","Marcus-Morris-13316","Marc-Gasol-1493","Tim-Hardaway-Jr.-16879","Kyle-Anderson-18615","Derrick-Favors-1266","50000","266.87"
"Kyle-Anderson-18615","Tim-Hardaway-Jr.-16879","Gordon-Hayward-1239","Derrick-Favors-1266","Rudy-Gobert-16935","Mike-Conley-1062","Al-Horford-1499","Marc-Gasol-1493","49400","266.74"
"Mike-Conley-1062","Tim-Hardaway-Jr.-16879","Gordon-Hayward-1239","Derrick-Favors-1266","Marc-Gasol-1493","Joe-Ingles-18627","Kyle-Anderson-18615","Rudy-Gobert-16935","49200","266.73"
"Donovan-Mitchell-37875","Tim-Hardaway-Jr.-16879","Joe-Ingles-18627","Derrick-Favors-1266","Marc-Gasol-1493","Marcus-Smart-18567","Al-Horford-1499","Rudy-Gobert-16935","49900","266.72"
"Mike-Conley-1062","Donovan-Mitchell-37875","Tim-Hardaway-Jr.-16879","JaMychal-Green-18729","Rudy-Gobert-16935","Marcus-Smart-18567","Kyle-Anderson-18615","Marc-Gasol-1493","50000","266.67"
"Mike-Conley-1062","Donovan-Mitchell-37875","Tim-Hardaway-Jr.-16879","JaMychal-Green-18729","Marc-Gasol-1493","Dante-Exum-18626","Joe-Ingles-18627","Rudy-Gobert-16935","49900","266.63"
"Emmanuel-Mudiay-18936","Donovan-Mitchell-37875","Gordon-Hayward-1239","Derrick-Favors-1266","Marc-Gasol-1493","Tim-Hardaway-Jr.-16879","Kyle-Anderson-18615","Rudy-Gobert-16935","49800","266.57"
"Mike-Conley-1062","Donovan-Mitchell-37875","Gordon-Hayward-1239","Derrick-Favors-1266","Marc-Gasol-1493","Tim-Hardaway-Jr.-16879","Royce-O'Neale-37872","Rudy-Gobert-16935","49900","266.56"
"Kyle-Anderson-18615","Donovan-Mitchell-37875","JaMychal-Green-18729","Luke-Kornet-37800","Rudy-Gobert-16935","Mike-Conley-1062","Tim-Hardaway-Jr.-16879","Marc-Gasol-1493","49900","266.55"
"Donovan-Mitchell-37875","Tim-Hardaway-Jr.-16879","JaMychal-Green-18729","Derrick-Favors-1266","Rudy-Gobert-16935","Joe-Ingles-18627","Al-Horford-1499","Marc-Gasol-1493","49500","266.52"
"Mike-Conley-1062","Donovan-Mitchell-37875","Joe-Ingles-18627","Al-Horford-1499","Marc-Gasol-1493","Dante-Exum-18626","Kyle-Anderson-18615","Rudy-Gobert-16935","49500","266.42"
"Mike-Conley-1062","Donovan-Mitchell-37875","Kyle-Anderson-18615","Derrick-Favors-1266","Marc-Gasol-1493","Dante-Exum-18626","Al-Horford-1499","Kyrie-Irving-13334","49700","266.42"
"Mike-Conley-1062","Donovan-Mitchell-37875","Joe-Ingles-18627","Derrick-Favors-1266","Marc-Gasol-1493","Dante-Exum-18626","Kyle-Anderson-18615","Kyrie-Irving-13334","49500","266.41"
"Mike-Conley-1062","Donovan-Mitchell-37875","Tim-Hardaway-Jr.-16879","Derrick-Favors-1266","Rudy-Gobert-16935","Dante-Exum-18626","Luke-Kornet-37800","Marc-Gasol-1493","49800","266.34"
"Mike-Conley-1062","Donovan-Mitchell-37875","JaMychal-Green-18729","Derrick-Favors-1266","Marc-Gasol-1493","Emmanuel-Mudiay-18936","Gordon-Hayward-1239","Rudy-Gobert-16935","49800","266.29"
"Mike-Conley-1062","Donovan-Mitchell-37875","Joe-Ingles-18627","Al-Horford-1499","Marc-Gasol-1493","Terry-Rozier-18894","Kyle-Anderson-18615","Rudy-Gobert-16935","49700","266.29"
"Mike-Conley-1062","Donovan-Mitchell-37875","Kyle-Anderson-18615","Derrick-Favors-1266","Marc-Gasol-1493","Terry-Rozier-18894","Al-Horford-1499","Kyrie-Irving-13334","49900","266.29"
"Mike-Conley-1062","Donovan-Mitchell-37875","Joe-Ingles-18627","Derrick-Favors-1266","Marc-Gasol-1493","Terry-Rozier-18894","Kyle-Anderson-18615","Kyrie-Irving-13334","49700","266.28"
"Kyle-Anderson-18615","Tim-Hardaway-Jr.-16879","Jayson-Tatum-37782","Derrick-Favors-1266","Rudy-Gobert-16935","Mike-Conley-1062","Gordon-Hayward-1239","Marc-Gasol-1493","49700","266.26"
"Mike-Conley-1062","Donovan-Mitchell-37875","JaMychal-Green-18729","Derrick-Favors-1266","Marc-Gasol-1493","Dante-Exum-18626","Tim-Hardaway-Jr.-16879","Rudy-Gobert-16935","49500","266.26"
"Mike-Conley-1062","Donovan-Mitchell-37875","Tim-Hardaway-Jr.-16879","Derrick-Favors-1266","Rudy-Gobert-16935","Terry-Rozier-18894","Luke-Kornet-37800","Marc-Gasol-1493","50000","266.21"
"Mike-Conley-1062","Tim-Hardaway-Jr.-16879","Joe-Ingles-18627","Gordon-Hayward-1239","Rudy-Gobert-16935","Emmanuel-Mudiay-18936","Kyle-Anderson-18615","Marc-Gasol-1493","50000","266.2"
"Kyle-Anderson-18615","Donovan-Mitchell-37875","Joe-Ingles-18627","Derrick-Favors-1266","Marc-Gasol-1493","Kyrie-Irving-13334","Al-Horford-1499","Jayson-Tatum-37782","50000","266.2"
"Mike-Conley-1062","Tim-Hardaway-Jr.-16879","Joe-Ingles-18627","Derrick-Favors-1266","Marc-Gasol-1493","Kyrie-Irving-13334","Al-Horford-1499","JaMychal-Green-18729","49900","266.15"
"Mike-Conley-1062","Donovan-Mitchell-37875","Gordon-Hayward-1239","Derrick-Favors-1266","Marc-Gasol-1493","Garrett-Temple-14077","Joe-Ingles-18627","Rudy-Gobert-16935","49900","266.14"
"Mike-Conley-1062","Donovan-Mitchell-37875","JaMychal-Green-18729","Derrick-Favors-1266","Marc-Gasol-1493","Terry-Rozier-18894","Tim-Hardaway-Jr.-16879","Rudy-Gobert-16935","49700","266.13"
"Mike-Conley-1062","Donovan-Mitchell-37875","Kyle-Anderson-18615","Derrick-Favors-1266","Rudy-Gobert-16935","Dante-Exum-18626","Al-Horford-1499","Marc-Gasol-1493","49100","266.05"
"Donovan-Mitchell-37875","Tim-Hardaway-Jr.-16879","JaMychal-Green-18729","Derrick-Favors-1266","Marc-Gasol-1493","Joe-Ingles-18627","Jayson-Tatum-37782","Rudy-Gobert-16935","49800","266.04"
"Mike-Conley-1062","Donovan-Mitchell-37875","Joe-Ingles-18627","Derrick-Favors-1266","Rudy-Gobert-16935","Dante-Exum-18626","Kyle-Anderson-18615","Marc-Gasol-1493","48900","266.04"
"Mike-Conley-1062","Donovan-Mitchell-37875","Joe-Ingles-18627","Derrick-Favors-1266","Marc-Gasol-1493","Damyean-Dotson-37795","Al-Horford-1499","Rudy-Gobert-16935","49900","266.03"
"Mike-Conley-1062","Tim-Hardaway-Jr.-16879","Joe-Ingles-18627","Derrick-Favors-1266","Marc-Gasol-1493","Marcus-Smart-18567","Al-Horford-1499","Rudy-Gobert-16935","49700","265.98"
"Mike-Conley-1062","Donovan-Mitchell-37875","Jayson-Tatum-37782","Al-Horford-1499","Marc-Gasol-1493","Dante-Exum-18626","Kyle-Anderson-18615","Rudy-Gobert-16935","50000","265.95"
"Mike-Conley-1062","Donovan-Mitchell-37875","Jayson-Tatum-37782","Derrick-Favors-1266","Marc-Gasol-1493","Dante-Exum-18626","Kyle-Anderson-18615","Kyrie-Irving-13334","50000","265.94"
"Mike-Conley-1062","Donovan-Mitchell-37875","Joe-Ingles-18627","Jayson-Tatum-37782","Rudy-Gobert-16935","Dante-Exum-18626","Kyle-Anderson-18615","Marc-Gasol-1493","49800","265.94"
"Mike-Conley-1062","Donovan-Mitchell-37875","Kyle-Anderson-18615","Derrick-Favors-1266","Rudy-Gobert-16935","Terry-Rozier-18894","Al-Horford-1499","Marc-Gasol-1493","49300","265.92"
"Mike-Conley-1062","Donovan-Mitchell-37875","Joe-Ingles-18627","Derrick-Favors-1266","Rudy-Gobert-16935","Terry-Rozier-18894","Kyle-Anderson-18615","Marc-Gasol-1493","49100","265.91"
"Mike-Conley-1062","Donovan-Mitchell-37875","Thabo-Sefolosha-1271","Derrick-Favors-1266","Rudy-Gobert-16935","Tim-Hardaway-Jr.-16879","Gordon-Hayward-1239","Marc-Gasol-1493","49900","265.9"
"Mike-Conley-1062","Tim-Hardaway-Jr.-16879","Gordon-Hayward-1239","Derrick-Favors-1266","Marc-Gasol-1493","Emmanuel-Mudiay-18936","Kyle-Anderson-18615","Rudy-Gobert-16935","49600","265.83"
"Kyrie-Irving-13334","Tim-Hardaway-Jr.-16879","JaMychal-Green-18729","Derrick-Favors-1266","Rudy-Gobert-16935","Joe-Ingles-18627","Kyle-Anderson-18615","Marc-Gasol-1493","49900","265.83"
"Kyle-Anderson-18615","Donovan-Mitchell-37875","Jayson-Tatum-37782","Derrick-Favors-1266","Marc-Gasol-1493","Joe-Ingles-18627","Al-Horford-1499","Rudy-Gobert-16935","49400","265.83"
"Mike-Conley-1062","Donovan-Mitchell-37875","Joe-Ingles-18627","Jayson-Tatum-37782","Rudy-Gobert-16935","Terry-Rozier-18894","Kyle-Anderson-18615","Marc-Gasol-1493","50000","265.81"
"Mike-Conley-1062","Donovan-Mitchell-37875","Joe-Ingles-18627","Gordon-Hayward-1239","Al-Horford-1499","Tim-Hardaway-Jr.-16879","Kyle-Anderson-18615","Marc-Gasol-1493","49100","265.78"
"Mike-Conley-1062","Tim-Hardaway-Jr.-16879","JaMychal-Green-18729","Derrick-Favors-1266","Rudy-Gobert-16935","Joe-Ingles-18627","Al-Horford-1499","Marc-Gasol-1493","49300","265.78"
"Kyle-Anderson-18615","Donovan-Mitchell-37875","Joe-Ingles-18627","Derrick-Favors-1266","Marc-Gasol-1493","Emmanuel-Mudiay-18936","Al-Horford-1499","Kyrie-Irving-13334","49900","265.77"
"Mike-Conley-1062","Donovan-Mitchell-37875","Joe-Ingles-18627","Derrick-Favors-1266","Marc-Gasol-1493","Kyrie-Irving-13334","Al-Horford-1499","Royce-O'Neale-37872","50000","265.76"
"Emmanuel-Mudiay-18936","Donovan-Mitchell-37875","Joe-Ingles-18627","Derrick-Favors-1266","Marc-Gasol-1493","Tim-Hardaway-Jr.-16879","Luke-Kornet-37800","Rudy-Gobert-16935","50000","265.69"
"Mike-Conley-1062","Donovan-Mitchell-37875","Joe-Ingles-18627","Gordon-Hayward-1239","Rudy-Gobert-16935","Tim-Hardaway-Jr.-16879","Kyle-Anderson-18615","Al-Horford-1499","49700","265.66"
"Mike-Conley-1062","Donovan-Mitchell-37875","Gordon-Hayward-1239","Derrick-Favors-1266","Al-Horford-1499","Kyrie-Irving-13334","Kyle-Anderson-18615","Tim-Hardaway-Jr.-16879","49900","265.66"
"Mike-Conley-1062","Donovan-Mitchell-37875","Tim-Hardaway-Jr.-16879","Gordon-Hayward-1239","Derrick-Favors-1266","Kyrie-Irving-13334","Kyle-Anderson-18615","Joe-Ingles-18627","49700","265.65"
"Kyle-Anderson-18615","Joe-Ingles-18627","Tim-Hardaway-Jr.-16879","Derrick-Favors-1266","Marc-Gasol-1493","Mike-Conley-1062","Jaren-Jackson-409099","Rudy-Gobert-16935","50000","265.63"
"Mike-Conley-1062","Donovan-Mitchell-37875","Joe-Ingles-18627","Luke-Kornet-37800","Marc-Gasol-1493","Kyrie-Irving-13334","Kyle-Anderson-18615","Gordon-Hayward-1239","50000","265.63"
"Emmanuel-Mudiay-18936","Donovan-Mitchell-37875","JaMychal-Green-18729","Derrick-Favors-1266","Rudy-Gobert-16935","Tim-Hardaway-Jr.-16879","Al-Horford-1499","Marc-Gasol-1493","49900","265.62"
