"Damian-Lillard-13900","Avery-Bradley-941","Tobias-Harris-13332","Montrezl-Harrell-18930","Jusuf-Nurkic-18619","Patrick-Beverley-14108","Kevin-Durant-1348","Maurice-Harkless-16971","49900","266.48"
"Damian-Lillard-13900","Avery-Bradley-941","Tobias-Harris-13332","Draymond-Green-13976","Marc-Gasol-1493","Patrick-Beverley-14108","Al-Farouq-Aminu-1279","Jusuf-Nurkic-18619","50000","265.95"

"Damian-Lillard-13900","Avery-Bradley-941","Tobias-Harris-13332","Montrezl-Harrell-18930","Jusuf-Nurkic-18619","Patrick-Beverley-14108","Kevin-Durant-1348","Maurice-Harkless-16971","49900","266.48"
"Damian-Lillard-13900","Avery-Bradley-941","Tobias-Harris-13332","Draymond-Green-13976","Marc-Gasol-1493","Patrick-Beverley-14108","Al-Farouq-Aminu-1279","Jusuf-Nurkic-18619","50000","265.95"
"Damian-Lillard-13900","Avery-Bradley-941","Tobias-Harris-13332","Maurice-Harkless-16971","Montrezl-Harrell-18930","Patrick-Beverley-14108","Kevin-Durant-1348","Marc-Gasol-1493","50000","265.82"
"Damian-Lillard-13900","Avery-Bradley-941","Tobias-Harris-13332","Danilo-Gallinari-1329","Marc-Gasol-1493","Patrick-Beverley-14108","Al-Farouq-Aminu-1279","Jusuf-Nurkic-18619","49900","265.68"
"Damian-Lillard-13900","Patrick-Beverley-14108","Maurice-Harkless-16971","Al-Farouq-Aminu-1279","Marc-Gasol-1493","Evan-Turner-1291","Kevin-Durant-1348","Jusuf-Nurkic-18619","49900","265.22"
