"Jamal-Murray-35211","Kevin-Huerter-408969","Rodions-Kurucs-408801","Trevor-Ariza-1323","Nikola-Jokic-31812","John-Wall-1084","Mason-Plumlee-16798","Dewayne-Dedmon-16894","50000","284.27"
"Jamal-Murray-35211","Kevin-Huerter-408969","Rodions-Kurucs-408801","LeBron-James-1227","Nikola-Jokic-31812","Trae-Young-409063","DeMarre-Carroll-1174","Trevor-Ariza-1323","50000","283.79"

"Jamal-Murray-35211","Kevin-Huerter-408969","Rodions-Kurucs-408801","Trevor-Ariza-1323","Nikola-Jokic-31812","John-Wall-1084","Mason-Plumlee-16798","Dewayne-Dedmon-16894","50000","284.27"
"Jamal-Murray-35211","Kevin-Huerter-408969","Rodions-Kurucs-408801","LeBron-James-1227","Nikola-Jokic-31812","Trae-Young-409063","DeMarre-Carroll-1174","Trevor-Ariza-1323","50000","283.79"
"Jamal-Murray-35211","Tomas-Satoransky--36031","Rodions-Kurucs-408801","Trevor-Ariza-1323","Nikola-Jokic-31812","John-Wall-1084","Mason-Plumlee-16798","Dewayne-Dedmon-16894","50000","283.68"
"Jamal-Murray-35211","Alec-Burks-13353","Rodions-Kurucs-408801","Trevor-Ariza-1323","Nikola-Jokic-31812","John-Wall-1084","Mason-Plumlee-16798","Dewayne-Dedmon-16894","49900","283.28"
"Jamal-Murray-35211","Tomas-Satoransky--36031","Rodions-Kurucs-408801","LeBron-James-1227","Nikola-Jokic-31812","Trae-Young-409063","DeMarre-Carroll-1174","Trevor-Ariza-1323","50000","283.2"
"Jamal-Murray-35211","Kevin-Huerter-408969","Trevor-Ariza-1323","Dewayne-Dedmon-16894","Mason-Plumlee-16798","John-Wall-1084","DeMarre-Carroll-1174","Nikola-Jokic-31812","49800","282.94"
"Jamal-Murray-35211","Alec-Burks-13353","Rodions-Kurucs-408801","LeBron-James-1227","Nikola-Jokic-31812","Trae-Young-409063","DeMarre-Carroll-1174","Trevor-Ariza-1323","49900","282.8"
"Jamal-Murray-35211","Kevin-Huerter-408969","Trevor-Ariza-1323","Dewayne-Dedmon-16894","Nikola-Jokic-31812","Tomas-Satoransky--36031","LeBron-James-1227","Alec-Burks-13353","49900","282.76"
"Jamal-Murray-35211","Kevin-Huerter-408969","Rodions-Kurucs-408801","John-Collins-37823","Nikola-Jokic-31812","Trae-Young-409063","Mason-Plumlee-16798","Dewayne-Dedmon-16894","49900","282.69"
"Jamal-Murray-35211","Kevin-Huerter-408969","Trevor-Ariza-1323","Dewayne-Dedmon-16894","Nikola-Jokic-31812","Tomas-Satoransky--36031","LeBron-James-1227","Rodions-Kurucs-408801","49700","282.67"
"Jamal-Murray-35211","Kevin-Huerter-408969","Trevor-Ariza-1323","John-Collins-37823","Nikola-Jokic-31812","Trae-Young-409063","Mason-Plumlee-16798","Markieff-Morris-13314","50000","282.62"
"Jamal-Murray-35211","Torrey-Craig-37861","Rodions-Kurucs-408801","Trevor-Ariza-1323","Nikola-Jokic-31812","John-Wall-1084","DeMarre-Carroll-1174","John-Collins-37823","50000","282.59"
"Trae-Young-409063","Jamal-Murray-35211","Rodions-Kurucs-408801","Trevor-Ariza-1323","Nikola-Jokic-31812","John-Wall-1084","DeMarre-Carroll-1174","Markieff-Morris-13314","50000","282.57"
"Trae-Young-409063","Jamal-Murray-35211","Kevin-Huerter-408969","Mason-Plumlee-16798","Nikola-Jokic-31812","John-Wall-1084","DeMarre-Carroll-1174","Rodions-Kurucs-408801","50000","282.56"
"Jamal-Murray-35211","Tomas-Satoransky--36031","Kevin-Huerter-408969","Dewayne-Dedmon-16894","Nikola-Jokic-31812","John-Wall-1084","Markieff-Morris-13314","Trevor-Ariza-1323","50000","282.53"
"Jamal-Murray-35211","Tomas-Satoransky--36031","Trevor-Ariza-1323","Dewayne-Dedmon-16894","Mason-Plumlee-16798","John-Wall-1084","DeMarre-Carroll-1174","Nikola-Jokic-31812","49800","282.35"
"Jamal-Murray-35211","Kevin-Huerter-408969","Trevor-Ariza-1323","Dewayne-Dedmon-16894","Nikola-Jokic-31812","Alec-Burks-13353","LeBron-James-1227","Rodions-Kurucs-408801","49600","282.27"
"Jamal-Murray-35211","Alec-Burks-13353","Kevin-Huerter-408969","Dewayne-Dedmon-16894","Nikola-Jokic-31812","John-Wall-1084","Markieff-Morris-13314","Trevor-Ariza-1323","49900","282.13"
"Jamal-Murray-35211","Kevin-Huerter-408969","Rodions-Kurucs-408801","Trevor-Ariza-1323","Nikola-Jokic-31812","Alec-Burks-13353","Larry-Nance-18946","LeBron-James-1227","50000","282.1"
"Jamal-Murray-35211","Tomas-Satoransky--36031","Rodions-Kurucs-408801","Trevor-Ariza-1323","Nikola-Jokic-31812","John-Wall-1084","Kevin-Huerter-408969","Trae-Young-409063","49700","282.1"
"Jamal-Murray-35211","Tomas-Satoransky--36031","Rodions-Kurucs-408801","John-Collins-37823","Nikola-Jokic-31812","Trae-Young-409063","Mason-Plumlee-16798","Dewayne-Dedmon-16894","49900","282.1"
"Jamal-Murray-35211","Kevin-Huerter-408969","Rodions-Kurucs-408801","Dewayne-Dedmon-16894","Nikola-Jokic-31812","John-Wall-1084","Trevor-Ariza-1323","Markieff-Morris-13314","49700","282.04"
"Jamal-Murray-35211","Tomas-Satoransky--36031","Trevor-Ariza-1323","John-Collins-37823","Nikola-Jokic-31812","Trae-Young-409063","Mason-Plumlee-16798","Markieff-Morris-13314","50000","282.03"
"Jamal-Murray-35211","Tomas-Satoransky--36031","Rodions-Kurucs-408801","Mason-Plumlee-16798","Nikola-Jokic-31812","John-Wall-1084","DeMarre-Carroll-1174","Trae-Young-409063","50000","281.97"
"Jamal-Murray-35211","Alec-Burks-13353","Trevor-Ariza-1323","Dewayne-Dedmon-16894","Mason-Plumlee-16798","John-Wall-1084","DeMarre-Carroll-1174","Nikola-Jokic-31812","49700","281.95"
"Jamal-Murray-35211","Wesley-Matthews-1339","Trevor-Ariza-1323","Dewayne-Dedmon-16894","Nikola-Jokic-31812","Kevin-Huerter-408969","LeBron-James-1227","Rodions-Kurucs-408801","49900","281.78"
"John-Wall-1084","Kevin-Huerter-408969","Trevor-Ariza-1323","John-Collins-37823","Nikola-Jokic-31812","Tomas-Satoransky--36031","Mason-Plumlee-16798","Rodions-Kurucs-408801","50000","281.73"
"Jamal-Murray-35211","Alec-Burks-13353","Rodions-Kurucs-408801","Trevor-Ariza-1323","Nikola-Jokic-31812","John-Wall-1084","Kevin-Huerter-408969","Trae-Young-409063","49600","281.7"
"Jamal-Murray-35211","Alec-Burks-13353","Rodions-Kurucs-408801","John-Collins-37823","Nikola-Jokic-31812","Trae-Young-409063","Mason-Plumlee-16798","Dewayne-Dedmon-16894","49800","281.7"
"Jamal-Murray-35211","Alec-Burks-13353","Torrey-Craig-37861","Trevor-Ariza-1323","Nikola-Jokic-31812","Trae-Young-409063","Kevin-Huerter-408969","LeBron-James-1227","50000","281.7"
"Jamal-Murray-35211","Tomas-Satoransky--36031","Trevor-Ariza-1323","Dewayne-Dedmon-16894","Nikola-Jokic-31812","Alec-Burks-13353","LeBron-James-1227","Rodions-Kurucs-408801","49600","281.68"
"Jamal-Murray-35211","Alec-Burks-13353","Trevor-Ariza-1323","John-Collins-37823","Nikola-Jokic-31812","Trae-Young-409063","Mason-Plumlee-16798","Markieff-Morris-13314","49900","281.63"
"Jamal-Murray-35211","Torrey-Craig-37861","Trevor-Ariza-1323","LeBron-James-1227","Nikola-Jokic-31812","Trae-Young-409063","Kevin-Huerter-408969","Rodions-Kurucs-408801","49800","281.61"
"Jamal-Murray-35211","Bradley-Beal-13898","Rodions-Kurucs-408801","Trevor-Ariza-1323","Nikola-Jokic-31812","Tomas-Satoransky--36031","Kevin-Huerter-408969","John-Collins-37823","49900","281.61"
"Jamal-Murray-35211","Kevin-Huerter-408969","Trevor-Ariza-1323","LeBron-James-1227","Nikola-Jokic-31812","Tomas-Satoransky--36031","Mason-Plumlee-16798","Alec-Burks-13353","49700","281.6"
"Jamal-Murray-35211","Kevin-Huerter-408969","Trevor-Ariza-1323","Dewayne-Dedmon-16894","Nikola-Jokic-31812","Tomas-Satoransky--36031","LeBron-James-1227","Trey-Lyles-18942","49900","281.6"
"Jamal-Murray-35211","Alec-Burks-13353","Rodions-Kurucs-408801","Mason-Plumlee-16798","Nikola-Jokic-31812","John-Wall-1084","DeMarre-Carroll-1174","Trae-Young-409063","49900","281.57"
"John-Wall-1084","Kevin-Huerter-408969","DeMarre-Carroll-1174","Dewayne-Dedmon-16894","Nikola-Jokic-31812","Tomas-Satoransky--36031","John-Collins-37823","Trevor-Ariza-1323","50000","281.56"
"Jamal-Murray-35211","Kevin-Huerter-408969","LeBron-James-1227","Markieff-Morris-13314","Nikola-Jokic-31812","Tomas-Satoransky--36031","Mason-Plumlee-16798","Rodions-Kurucs-408801","50000","281.56"
"Trae-Young-409063","Jamal-Murray-35211","Torrey-Craig-37861","Rodions-Kurucs-408801","Nikola-Jokic-31812","John-Wall-1084","Kevin-Huerter-408969","Dewayne-Dedmon-16894","50000","281.54"
"Jamal-Murray-35211","Tomas-Satoransky--36031","Trevor-Ariza-1323","Dewayne-Dedmon-16894","Nikola-Jokic-31812","John-Wall-1084","Markieff-Morris-13314","Alec-Burks-13353","49900","281.54"
"Jamal-Murray-35211","Tomas-Satoransky--36031","Kevin-Huerter-408969","Dewayne-Dedmon-16894","Nikola-Jokic-31812","John-Wall-1084","Mason-Plumlee-16798","Alec-Burks-13353","49900","281.53"
"Jamal-Murray-35211","Kevin-Huerter-408969","Trevor-Ariza-1323","LeBron-James-1227","Nikola-Jokic-31812","Tomas-Satoransky--36031","Mason-Plumlee-16798","Rodions-Kurucs-408801","49500","281.51"
"Jamal-Murray-35211","Tomas-Satoransky--36031","Rodions-Kurucs-408801","Trevor-Ariza-1323","Nikola-Jokic-31812","Alec-Burks-13353","Larry-Nance-18946","LeBron-James-1227","50000","281.51"
"Jamal-Murray-35211","Bradley-Beal-13898","Trevor-Ariza-1323","Dewayne-Dedmon-16894","Nikola-Jokic-31812","Tomas-Satoransky--36031","Kevin-Huerter-408969","Trae-Young-409063","50000","281.47"
"Jamal-Murray-35211","Wesley-Matthews-1339","Trevor-Ariza-1323","Dewayne-Dedmon-16894","Mason-Plumlee-16798","John-Wall-1084","DeMarre-Carroll-1174","Nikola-Jokic-31812","50000","281.46"
"Jamal-Murray-35211","Tomas-Satoransky--36031","Rodions-Kurucs-408801","Dewayne-Dedmon-16894","Nikola-Jokic-31812","John-Wall-1084","Trevor-Ariza-1323","Markieff-Morris-13314","49700","281.45"
"Jamal-Murray-35211","Tomas-Satoransky--36031","Rodions-Kurucs-408801","Dewayne-Dedmon-16894","Nikola-Jokic-31812","John-Wall-1084","Kevin-Huerter-408969","Mason-Plumlee-16798","49700","281.44"
"Jamal-Murray-35211","Torrey-Craig-37861","Trevor-Ariza-1323","John-Collins-37823","Nikola-Jokic-31812","Trae-Young-409063","Mason-Plumlee-16798","Dewayne-Dedmon-16894","49800","281.42"
"Jamal-Murray-35211","Kevin-Huerter-408969","LeBron-James-1227","Markieff-Morris-13314","Nikola-Jokic-31812","Tomas-Satoransky--36031","DeMarre-Carroll-1174","Dewayne-Dedmon-16894","50000","281.39"
"Jamal-Murray-35211","Tomas-Satoransky--36031","Kevin-Huerter-408969","Markieff-Morris-13314","Nikola-Jokic-31812","John-Wall-1084","Mason-Plumlee-16798","Trevor-Ariza-1323","49800","281.37"
"Jamal-Murray-35211","Kevin-Huerter-408969","DeMarre-Carroll-1174","Dewayne-Dedmon-16894","Nikola-Jokic-31812","Trae-Young-409063","John-Collins-37823","Mason-Plumlee-16798","49700","281.36"
"Jamal-Murray-35211","Kevin-Huerter-408969","Trevor-Ariza-1323","LeBron-James-1227","Dewayne-Dedmon-16894","Tomas-Satoransky--36031","DeMarre-Carroll-1174","Nikola-Jokic-31812","49500","281.34"
"John-Wall-1084","Kevin-Huerter-408969","Trevor-Ariza-1323","John-Collins-37823","Nikola-Jokic-31812","Alec-Burks-13353","Mason-Plumlee-16798","Rodions-Kurucs-408801","49900","281.33"
"Jamal-Murray-35211","Torrey-Craig-37861","Trevor-Ariza-1323","Mason-Plumlee-16798","Nikola-Jokic-31812","John-Wall-1084","DeMarre-Carroll-1174","Trae-Young-409063","49900","281.29"
"Jamal-Murray-35211","Kevin-Huerter-408969","Rodions-Kurucs-408801","Trevor-Ariza-1323","Nikola-Jokic-31812","John-Wall-1084","Wesley-Matthews-1339","Trae-Young-409063","49900","281.21"
"Jamal-Murray-35211","Bradley-Beal-13898","Rodions-Kurucs-408801","Trevor-Ariza-1323","Nikola-Jokic-31812","Alec-Burks-13353","Kevin-Huerter-408969","John-Collins-37823","49800","281.21"
"Jamal-Murray-35211","Kevin-Huerter-408969","Trevor-Ariza-1323","Dewayne-Dedmon-16894","Nikola-Jokic-31812","Alec-Burks-13353","LeBron-James-1227","Trey-Lyles-18942","49800","281.2"
"Trae-Young-409063","Alec-Burks-13353","Trevor-Ariza-1323","Dewayne-Dedmon-16894","Nikola-Jokic-31812","John-Wall-1084","Kevin-Huerter-408969","Mason-Plumlee-16798","50000","281.19"
"Jamal-Murray-35211","Wesley-Matthews-1339","Trevor-Ariza-1323","Dewayne-Dedmon-16894","Nikola-Jokic-31812","Tomas-Satoransky--36031","LeBron-James-1227","Rodions-Kurucs-408801","49900","281.19"
"Jamal-Murray-35211","Kevin-Huerter-408969","LeBron-James-1227","Larry-Nance-18946","Nikola-Jokic-31812","Tomas-Satoransky--36031","DeMarre-Carroll-1174","Trevor-Ariza-1323","49900","281.17"
"Jamal-Murray-35211","Kevin-Huerter-408969","LeBron-James-1227","Markieff-Morris-13314","Nikola-Jokic-31812","Alec-Burks-13353","Mason-Plumlee-16798","Rodions-Kurucs-408801","49900","281.16"
"John-Wall-1084","Kevin-Huerter-408969","DeMarre-Carroll-1174","Dewayne-Dedmon-16894","Nikola-Jokic-31812","Alec-Burks-13353","John-Collins-37823","Trevor-Ariza-1323","49900","281.16"
"Jamal-Murray-35211","Kevin-Huerter-408969","Wesley-Matthews-1339","Trevor-Ariza-1323","Nikola-Jokic-31812","Tomas-Satoransky--36031","LeBron-James-1227","Mason-Plumlee-16798","50000","281.11"
"Jamal-Murray-35211","Kevin-Huerter-408969","Trevor-Ariza-1323","LeBron-James-1227","Nikola-Jokic-31812","Alec-Burks-13353","Mason-Plumlee-16798","Rodions-Kurucs-408801","49400","281.11"
"Jamal-Murray-35211","Tomas-Satoransky--36031","Trevor-Ariza-1323","LeBron-James-1227","Nikola-Jokic-31812","Alec-Burks-13353","Torrey-Craig-37861","Trae-Young-409063","50000","281.11"
"Trae-Young-409063","Kevin-Huerter-408969","Rodions-Kurucs-408801","Trevor-Ariza-1323","Nikola-Jokic-31812","John-Wall-1084","Mason-Plumlee-16798","Dewayne-Dedmon-16894","49800","281.1"
"Jamal-Murray-35211","Bradley-Beal-13898","Trevor-Ariza-1323","Dewayne-Dedmon-16894","Nikola-Jokic-31812","Alec-Burks-13353","Kevin-Huerter-408969","Trae-Young-409063","49900","281.07"
"Jamal-Murray-35211","Torrey-Craig-37861","Trevor-Ariza-1323","Dewayne-Dedmon-16894","Nikola-Jokic-31812","Alec-Burks-13353","LeBron-James-1227","Markieff-Morris-13314","50000","281.05"
"Jamal-Murray-35211","Alec-Burks-13353","Rodions-Kurucs-408801","Dewayne-Dedmon-16894","Nikola-Jokic-31812","John-Wall-1084","Trevor-Ariza-1323","Markieff-Morris-13314","49600","281.05"
"Jamal-Murray-35211","Tomas-Satoransky--36031","LeBron-James-1227","DeMarre-Carroll-1174","Nikola-Jokic-31812","Alec-Burks-13353","Kevin-Huerter-408969","Trae-Young-409063","49900","281.05"
"Jamal-Murray-35211","Torrey-Craig-37861","LeBron-James-1227","Dewayne-Dedmon-16894","Mason-Plumlee-16798","Alec-Burks-13353","Kevin-Huerter-408969","Nikola-Jokic-31812","50000","281.04"
"Jamal-Murray-35211","Alec-Burks-13353","Rodions-Kurucs-408801","Dewayne-Dedmon-16894","Nikola-Jokic-31812","John-Wall-1084","Kevin-Huerter-408969","Mason-Plumlee-16798","49600","281.04"
"Jamal-Murray-35211","Tomas-Satoransky--36031","Trey-Lyles-18942","Trevor-Ariza-1323","Nikola-Jokic-31812","John-Wall-1084","Kevin-Huerter-408969","Trae-Young-409063","49900","281.03"
"Jamal-Murray-35211","Tomas-Satoransky--36031","Rodions-Kurucs-408801","LeBron-James-1227","Nikola-Jokic-31812","Trae-Young-409063","Torrey-Craig-37861","Trevor-Ariza-1323","49800","281.02"
"Jamal-Murray-35211","Kevin-Huerter-408969","LeBron-James-1227","Markieff-Morris-13314","Nikola-Jokic-31812","Alec-Burks-13353","DeMarre-Carroll-1174","Dewayne-Dedmon-16894","49900","280.99"
"Jamal-Murray-35211","Bradley-Beal-13898","Rodions-Kurucs-408801","Dewayne-Dedmon-16894","Nikola-Jokic-31812","Trae-Young-409063","Kevin-Huerter-408969","Trevor-Ariza-1323","49700","280.98"
"Jamal-Murray-35211","Alec-Burks-13353","Kevin-Huerter-408969","Markieff-Morris-13314","Nikola-Jokic-31812","John-Wall-1084","Mason-Plumlee-16798","Trevor-Ariza-1323","49700","280.97"
"Jamal-Murray-35211","Kevin-Huerter-408969","Trey-Lyles-18942","Markieff-Morris-13314","Nikola-Jokic-31812","John-Wall-1084","Trevor-Ariza-1323","Dewayne-Dedmon-16894","49900","280.97"
"Jamal-Murray-35211","Kevin-Huerter-408969","Rodions-Kurucs-408801","LeBron-James-1227","Nikola-Jokic-31812","Tomas-Satoransky--36031","DeMarre-Carroll-1174","Trae-Young-409063","49700","280.96"
"Jamal-Murray-35211","Kevin-Huerter-408969","Rodions-Kurucs-408801","Harrison-Barnes-13901","Dewayne-Dedmon-16894","John-Wall-1084","Trevor-Ariza-1323","Nikola-Jokic-31812","50000","280.95"
"Jamal-Murray-35211","Tomas-Satoransky--36031","Rodions-Kurucs-408801","Dewayne-Dedmon-16894","Nikola-Jokic-31812","John-Wall-1084","Torrey-Craig-37861","Trae-Young-409063","50000","280.95"
"Jamal-Murray-35211","Tomas-Satoransky--36031","Kevin-Huerter-408969","Dewayne-Dedmon-16894","Nikola-Jokic-31812","Trae-Young-409063","Markieff-Morris-13314","John-Collins-37823","49900","280.95"
"Jamal-Murray-35211","Kevin-Huerter-408969","Rodions-Kurucs-408801","Dewayne-Dedmon-16894","Nikola-Jokic-31812","Torrey-Craig-37861","LeBron-James-1227","Mason-Plumlee-16798","49800","280.95"
"Jamal-Murray-35211","Kevin-Huerter-408969","Trevor-Ariza-1323","LeBron-James-1227","Dewayne-Dedmon-16894","Alec-Burks-13353","DeMarre-Carroll-1174","Nikola-Jokic-31812","49400","280.94"
"Jamal-Murray-35211","Matthew-Dellavedova-16839","Trevor-Ariza-1323","Dewayne-Dedmon-16894","Nikola-Jokic-31812","John-Wall-1084","Mason-Plumlee-16798","Alec-Burks-13353","50000","280.92"
"Jamal-Murray-35211","Tomas-Satoransky--36031","Trevor-Ariza-1323","Dewayne-Dedmon-16894","John-Collins-37823","Trae-Young-409063","Kevin-Huerter-408969","Nikola-Jokic-31812","49400","280.9"
"Jamal-Murray-35211","Alec-Burks-13353","Trevor-Ariza-1323","Markieff-Morris-13314","Nikola-Jokic-31812","John-Wall-1084","Larry-Nance-18946","Rodions-Kurucs-408801","50000","280.88"
"Jamal-Murray-35211","Kevin-Huerter-408969","Trevor-Ariza-1323","LeBron-James-1227","Nikola-Jokic-31812","Torrey-Craig-37861","Mason-Plumlee-16798","Markieff-Morris-13314","49900","280.88"
"Jamal-Murray-35211","Kevin-Huerter-408969","Rodions-Kurucs-408801","Dewayne-Dedmon-16894","John-Collins-37823","Trae-Young-409063","Trevor-Ariza-1323","LeBron-James-1227","50000","280.88"
"Jamal-Murray-35211","Kevin-Huerter-408969","Rodions-Kurucs-408801","Trevor-Ariza-1323","Nikola-Jokic-31812","John-Wall-1084","Mason-Plumlee-16798","Markieff-Morris-13314","49500","280.88"
"Jamal-Murray-35211","Kevin-Huerter-408969","Rodions-Kurucs-408801","Larry-Nance-18946","Nikola-Jokic-31812","John-Wall-1084","Mason-Plumlee-16798","Alec-Burks-13353","50000","280.87"
"Jamal-Murray-35211","Alec-Burks-13353","Rodions-Kurucs-408801","Dewayne-Dedmon-16894","Nikola-Jokic-31812","John-Wall-1084","Trevor-Ariza-1323","Jarrett-Allen-37794","50000","280.87"
"Jamal-Murray-35211","Bradley-Beal-13898","Rodions-Kurucs-408801","Dewayne-Dedmon-16894","Mason-Plumlee-16798","Trae-Young-409063","DeMarre-Carroll-1174","Nikola-Jokic-31812","50000","280.85"
"Jamal-Murray-35211","Torrey-Craig-37861","Kevin-Huerter-408969","John-Collins-37823","Nikola-Jokic-31812","John-Wall-1084","DeMarre-Carroll-1174","Tomas-Satoransky--36031","50000","280.84"
"Jamal-Murray-35211","Kent-Bazemore-13987","Rodions-Kurucs-408801","LeBron-James-1227","Nikola-Jokic-31812","Kevin-Huerter-408969","DeMarre-Carroll-1174","Trevor-Ariza-1323","49900","280.83"
"Jamal-Murray-35211","Matthew-Dellavedova-16839","Rodions-Kurucs-408801","Trevor-Ariza-1323","Nikola-Jokic-31812","John-Wall-1084","Mason-Plumlee-16798","Dewayne-Dedmon-16894","49800","280.83"
"Jamal-Murray-35211","Tomas-Satoransky--36031","Kevin-Huerter-408969","Markieff-Morris-13314","Nikola-Jokic-31812","John-Wall-1084","DeMarre-Carroll-1174","Trae-Young-409063","50000","280.82"
"Jamal-Murray-35211","Alec-Burks-13353","Rodions-Kurucs-408801","LeBron-James-1227","Nikola-Jokic-31812","Trae-Young-409063","Kevin-Huerter-408969","Trey-Lyles-18942","50000","280.82"
"Jamal-Murray-35211","Wesley-Matthews-1339","Trevor-Ariza-1323","Dewayne-Dedmon-16894","Nikola-Jokic-31812","Alec-Burks-13353","LeBron-James-1227","Rodions-Kurucs-408801","49800","280.79"
