"Zach-LaVine-18622","Marcus-Smart-18567","Andrew-Wiggins-18620","Otto-Porter-17069","Clint-Capela-18610","John-Wall-1084","Tyreke-Evans-1070","Jonas-Valanciunas-13301","49900","286.26"

"Zach-LaVine-18622","Marcus-Smart-18567","Andrew-Wiggins-18620","Otto-Porter-17069","Clint-Capela-18610","John-Wall-1084","Tyreke-Evans-1070","Jonas-Valanciunas-13301","49900","286.26"
"Zach-LaVine-18622","Marcus-Smart-18567","Gordon-Hayward-1239","Otto-Porter-17069","Jonas-Valanciunas-13301","John-Wall-1084","Tyreke-Evans-1070","Clint-Capela-18610","49800","285.08"
"Zach-LaVine-18622","Marcus-Smart-18567","Tyreke-Evans-1070","Rondae-Hollis-Jefferson-18897","Jonas-Valanciunas-13301","John-Wall-1084","Otto-Porter-17069","Clint-Capela-18610","50000","285.07"
"Zach-LaVine-18622","Jordan-Clarkson-18631","Tyreke-Evans-1070","Otto-Porter-17069","Clint-Capela-18610","John-Wall-1084","Rodney-Hood-18629","Jonas-Valanciunas-13301","50000","284.63"
"Chris-Paul-1087","Marcus-Smart-18567","Andrew-Wiggins-18620","Otto-Porter-17069","Clint-Capela-18610","John-Wall-1084","Tyreke-Evans-1070","Jordan-Clarkson-18631","49900","284.6"
"Chris-Paul-1087","Andrew-Wiggins-18620","Tyreke-Evans-1070","Otto-Porter-17069","Clint-Capela-18610","John-Wall-1084","Rodney-Hood-18629","Jonas-Valanciunas-13301","50000","284.56"
"Chris-Paul-1087","Marcus-Smart-18567","Andrew-Wiggins-18620","Otto-Porter-17069","Clint-Capela-18610","John-Wall-1084","Tyreke-Evans-1070","Jonas-Valanciunas-13301","49600","284.41"
"Zach-LaVine-18622","Tyreke-Evans-1070","Gordon-Hayward-1239","Otto-Porter-17069","Clint-Capela-18610","Chris-Paul-1087","Andrew-Wiggins-18620","Jonas-Valanciunas-13301","50000","284.3"
"Tomas-Satoransky--36031","Marcus-Smart-18567","Andrew-Wiggins-18620","Otto-Porter-17069","Clint-Capela-18610","John-Wall-1084","Tyreke-Evans-1070","Andre-Drummond-13904","49700","284.28"
"Zach-LaVine-18622","Marcus-Smart-18567","Andrew-Wiggins-18620","Rondae-Hollis-Jefferson-18897","Jonas-Valanciunas-13301","John-Wall-1084","Tyreke-Evans-1070","Clint-Capela-18610","49800","284.26"
"Zach-LaVine-18622","Marcus-Smart-18567","Tyreke-Evans-1070","Otto-Porter-17069","Jonas-Valanciunas-13301","John-Wall-1084","Bogdan-Bogdanovic-37899","Clint-Capela-18610","50000","284.26"
"Zach-LaVine-18622","Marcus-Smart-18567","Andrew-Wiggins-18620","Marvin-Bagley-III-409321","Jonas-Valanciunas-13301","John-Wall-1084","Tyreke-Evans-1070","Clint-Capela-18610","49900","284.16"
"Marcus-Smart-18567","Alec-Burks-13353","Andrew-Wiggins-18620","Otto-Porter-17069","Clint-Capela-18610","John-Wall-1084","Tyreke-Evans-1070","Andre-Drummond-13904","49800","284.14"
"Chris-Paul-1087","Marcus-Smart-18567","Gordon-Hayward-1239","Otto-Porter-17069","Clint-Capela-18610","John-Wall-1084","Andrew-Wiggins-18620","Jonas-Valanciunas-13301","49900","284.13"
"Tomas-Satoransky--36031","Marcus-Smart-18567","Gordon-Hayward-1239","Otto-Porter-17069","Andre-Drummond-13904","John-Wall-1084","Andrew-Wiggins-18620","Clint-Capela-18610","50000","284.0"
"Zach-LaVine-18622","Marcus-Smart-18567","Tyreke-Evans-1070","Otto-Porter-17069","Clint-Capela-18610","Jordan-Clarkson-18631","Rodney-Hood-18629","Andre-Drummond-13904","49900","283.95"
"Chris-Paul-1087","Andrew-Wiggins-18620","Tyreke-Evans-1070","Otto-Porter-17069","Clint-Capela-18610","Marcus-Smart-18567","Rodney-Hood-18629","Andre-Drummond-13904","49900","283.88"
"Zach-LaVine-18622","Andrew-Wiggins-18620","Tyreke-Evans-1070","Otto-Porter-17069","Clint-Capela-18610","John-Wall-1084","Rodney-Hood-18629","Marcus-Smart-18567","49700","283.75"
"Zach-LaVine-18622","Jordan-Clarkson-18631","Andrew-Wiggins-18620","Otto-Porter-17069","Clint-Capela-18610","Chris-Paul-1087","Tyreke-Evans-1070","Jonas-Valanciunas-13301","49800","283.7"
"Marcus-Smart-18567","Tyreke-Evans-1070","Allen-Crabbe-16978","Otto-Porter-17069","Clint-Capela-18610","John-Wall-1084","Andrew-Wiggins-18620","Andre-Drummond-13904","50000","283.58"
"Zach-LaVine-18622","Tomas-Satoransky--36031","Andrew-Wiggins-18620","Otto-Porter-17069","Clint-Capela-18610","Jordan-Clarkson-18631","Tyreke-Evans-1070","Andre-Drummond-13904","49900","283.57"
"Zach-LaVine-18622","Marcus-Smart-18567","Gordon-Hayward-1239","Otto-Porter-17069","Clint-Capela-18610","John-Wall-1084","Andrew-Wiggins-18620","Rodney-Hood-18629","50000","283.47"
"Jordan-Clarkson-18631","Tyreke-Evans-1070","Gordon-Hayward-1239","Otto-Porter-17069","Clint-Capela-18610","De'Aaron-Fox-37900","Andrew-Wiggins-18620","John-Wall-1084","50000","283.47"
"Zach-LaVine-18622","Alec-Burks-13353","Andrew-Wiggins-18620","Otto-Porter-17069","Clint-Capela-18610","Jordan-Clarkson-18631","Tyreke-Evans-1070","Andre-Drummond-13904","50000","283.43"
"Marcus-Smart-18567","Gordon-Hayward-1239","Tyreke-Evans-1070","Otto-Porter-17069","Clint-Capela-18610","John-Wall-1084","Reggie-Bullock-16943","Andre-Drummond-13904","50000","283.42"
"Chris-Paul-1087","Marcus-Smart-18567","Gordon-Hayward-1239","Otto-Porter-17069","Clint-Capela-18610","John-Wall-1084","Tyreke-Evans-1070","Jordan-Clarkson-18631","49800","283.42"
"Chris-Paul-1087","Marcus-Smart-18567","Tyreke-Evans-1070","Rondae-Hollis-Jefferson-18897","Clint-Capela-18610","John-Wall-1084","Otto-Porter-17069","Jordan-Clarkson-18631","50000","283.41"
"Chris-Paul-1087","Gordon-Hayward-1239","Tyreke-Evans-1070","Otto-Porter-17069","Clint-Capela-18610","John-Wall-1084","Rodney-Hood-18629","Jonas-Valanciunas-13301","49900","283.38"
"Zach-LaVine-18622","Marcus-Smart-18567","Andrew-Wiggins-18620","Otto-Porter-17069","Jonas-Valanciunas-13301","John-Wall-1084","Tyreke-Evans-1070","Chris-Paul-1087","50000","283.3"
"John-Wall-1084","Tyreke-Evans-1070","Gordon-Hayward-1239","Otto-Porter-17069","Clint-Capela-18610","De'Aaron-Fox-37900","Andrew-Wiggins-18620","Jonas-Valanciunas-13301","49700","283.28"
"John-Wall-1084","Tyreke-Evans-1070","Andrew-Wiggins-18620","Rondae-Hollis-Jefferson-18897","Clint-Capela-18610","De'Aaron-Fox-37900","Otto-Porter-17069","Jonas-Valanciunas-13301","49900","283.27"
"Zach-LaVine-18622","Marcus-Smart-18567","Gordon-Hayward-1239","Rondae-Hollis-Jefferson-18897","Clint-Capela-18610","John-Wall-1084","Tyreke-Evans-1070","Jordan-Clarkson-18631","50000","283.27"
"Marcus-Smart-18567","Jordan-Clarkson-18631","Alec-Burks-13353","Otto-Porter-17069","Andre-Drummond-13904","John-Wall-1084","Andrew-Wiggins-18620","Clint-Capela-18610","49900","283.26"
"Tomas-Satoransky--36031","Gordon-Hayward-1239","Tyreke-Evans-1070","Otto-Porter-17069","Clint-Capela-18610","John-Wall-1084","Rodney-Hood-18629","Andre-Drummond-13904","50000","283.25"
"Chris-Paul-1087","Marcus-Smart-18567","Gordon-Hayward-1239","Otto-Porter-17069","Jonas-Valanciunas-13301","John-Wall-1084","Tyreke-Evans-1070","Clint-Capela-18610","49500","283.23"
"Chris-Paul-1087","Marcus-Smart-18567","Tyreke-Evans-1070","Rondae-Hollis-Jefferson-18897","Jonas-Valanciunas-13301","John-Wall-1084","Otto-Porter-17069","Clint-Capela-18610","49700","283.22"
"Chris-Paul-1087","Marcus-Smart-18567","Tyreke-Evans-1070","Otto-Porter-17069","Clint-Capela-18610","John-Wall-1084","Buddy-Hield-35206","Jonas-Valanciunas-13301","49900","283.21"
"Chris-Paul-1087","Andrew-Wiggins-18620","Gordon-Hayward-1239","Rondae-Hollis-Jefferson-18897","Clint-Capela-18610","John-Wall-1084","Tyreke-Evans-1070","Marcus-Smart-18567","50000","283.2"
"John-Wall-1084","Tyreke-Evans-1070","Andrew-Wiggins-18620","Marvin-Bagley-III-409321","Jonas-Valanciunas-13301","De'Aaron-Fox-37900","Otto-Porter-17069","Clint-Capela-18610","50000","283.17"
"Chris-Paul-1087","Marcus-Smart-18567","Tyreke-Evans-1070","Otto-Porter-17069","Clint-Capela-18610","John-Wall-1084","Rodney-Hood-18629","Willie-Cauley-Stein-18951","50000","283.14"
"Chris-Paul-1087","Marcus-Smart-18567","Tyreke-Evans-1070","Marvin-Bagley-III-409321","Jonas-Valanciunas-13301","John-Wall-1084","Otto-Porter-17069","Clint-Capela-18610","49800","283.12"
"Tomas-Satoransky--36031","Marcus-Smart-18567","Gordon-Hayward-1239","Otto-Porter-17069","Clint-Capela-18610","John-Wall-1084","Tyreke-Evans-1070","Andre-Drummond-13904","49600","283.1"
"Tomas-Satoransky--36031","Marcus-Smart-18567","Tyreke-Evans-1070","Rondae-Hollis-Jefferson-18897","Andre-Drummond-13904","John-Wall-1084","Otto-Porter-17069","Clint-Capela-18610","49800","283.09"
"Zach-LaVine-18622","Marcus-Smart-18567","Gordon-Hayward-1239","Rondae-Hollis-Jefferson-18897","Clint-Capela-18610","John-Wall-1084","Tyreke-Evans-1070","Jonas-Valanciunas-13301","49700","283.08"
"Tomas-Satoransky--36031","Marcus-Smart-18567","Tyreke-Evans-1070","Otto-Porter-17069","Clint-Capela-18610","John-Wall-1084","Buddy-Hield-35206","Andre-Drummond-13904","50000","283.08"
"John-Wall-1084","Marcus-Smart-18567","Andrew-Wiggins-18620","Otto-Porter-17069","Clint-Capela-18610","De'Aaron-Fox-37900","Tyreke-Evans-1070","Willie-Cauley-Stein-18951","49800","283.04"
"Zach-LaVine-18622","Marcus-Smart-18567","Andrew-Wiggins-18620","Otto-Porter-17069","Wendell-Carter-408878","John-Wall-1084","Tyreke-Evans-1070","Clint-Capela-18610","49700","283.0"
"Chris-Paul-1087","Marcus-Smart-18567","Andrew-Wiggins-18620","Otto-Porter-17069","Andre-Drummond-13904","Jordan-Clarkson-18631","Rodney-Hood-18629","Clint-Capela-18610","50000","283.0"
"Tomas-Satoransky--36031","Marcus-Smart-18567","Tyreke-Evans-1070","Marvin-Bagley-III-409321","Andre-Drummond-13904","John-Wall-1084","Otto-Porter-17069","Clint-Capela-18610","49900","282.99"
"Zach-LaVine-18622","Marcus-Smart-18567","Gordon-Hayward-1239","Marvin-Bagley-III-409321","Jonas-Valanciunas-13301","John-Wall-1084","Tyreke-Evans-1070","Clint-Capela-18610","49800","282.98"
"Zach-LaVine-18622","Marcus-Smart-18567","Tyreke-Evans-1070","Marvin-Bagley-III-409321","Clint-Capela-18610","John-Wall-1084","Rondae-Hollis-Jefferson-18897","Jonas-Valanciunas-13301","50000","282.97"
"Marcus-Smart-18567","Gordon-Hayward-1239","Alec-Burks-13353","Otto-Porter-17069","Clint-Capela-18610","John-Wall-1084","Tyreke-Evans-1070","Andre-Drummond-13904","49700","282.96"
"Marcus-Smart-18567","Tyreke-Evans-1070","Alec-Burks-13353","Rondae-Hollis-Jefferson-18897","Andre-Drummond-13904","John-Wall-1084","Otto-Porter-17069","Clint-Capela-18610","49900","282.95"
"Chris-Paul-1087","Marcus-Smart-18567","Gordon-Hayward-1239","Rondae-Hollis-Jefferson-18897","Jonas-Valanciunas-13301","John-Wall-1084","Otto-Porter-17069","Clint-Capela-18610","50000","282.94"
"Zach-LaVine-18622","Marcus-Smart-18567","Gordon-Hayward-1239","Otto-Porter-17069","Clint-Capela-18610","Chris-Paul-1087","Tyreke-Evans-1070","Willie-Cauley-Stein-18951","50000","282.88"
"Zach-LaVine-18622","Marcus-Smart-18567","Andrew-Wiggins-18620","Otto-Porter-17069","Clint-Capela-18610","John-Wall-1084","Rodney-Hood-18629","Jordan-Clarkson-18631","49800","282.87"
"Marcus-Smart-18567","Tyreke-Evans-1070","Alec-Burks-13353","Marvin-Bagley-III-409321","Andre-Drummond-13904","John-Wall-1084","Otto-Porter-17069","Clint-Capela-18610","50000","282.85"
"Jeff-Teague-1005","Marcus-Smart-18567","Tyreke-Evans-1070","Otto-Porter-17069","Clint-Capela-18610","John-Wall-1084","Rodney-Hood-18629","Chris-Paul-1087","50000","282.84"
"Marcus-Smart-18567","Jordan-Clarkson-18631","Tyreke-Evans-1070","Otto-Porter-17069","Clint-Capela-18610","John-Wall-1084","Reggie-Bullock-16943","Andre-Drummond-13904","49800","282.82"
"Marcus-Smart-18567","Jordan-Clarkson-18631","Tyreke-Evans-1070","Otto-Porter-17069","Clint-Capela-18610","John-Wall-1084","Joe-Harris-18587","Andre-Drummond-13904","50000","282.81"
"Chris-Paul-1087","Jordan-Clarkson-18631","Tyreke-Evans-1070","Otto-Porter-17069","Clint-Capela-18610","John-Wall-1084","Rodney-Hood-18629","Jonas-Valanciunas-13301","49700","282.78"
"Chris-Paul-1087","Tomas-Satoransky--36031","Andrew-Wiggins-18620","Otto-Porter-17069","Clint-Capela-18610","John-Wall-1084","Tyreke-Evans-1070","Willie-Cauley-Stein-18951","50000","282.76"
"De'Aaron-Fox-37900","Gordon-Hayward-1239","Tyreke-Evans-1070","Otto-Porter-17069","Clint-Capela-18610","Andrew-Wiggins-18620","Rodney-Hood-18629","Andre-Drummond-13904","50000","282.75"
"Jeff-Teague-1005","Marcus-Smart-18567","Andrew-Wiggins-18620","Otto-Porter-17069","Clint-Capela-18610","De'Aaron-Fox-37900","Tyreke-Evans-1070","John-Wall-1084","49800","282.74"
"Zach-LaVine-18622","Marcus-Smart-18567","Gordon-Hayward-1239","Otto-Porter-17069","Wendell-Carter-408878","John-Wall-1084","Andrew-Wiggins-18620","Clint-Capela-18610","50000","282.72"
"Chris-Paul-1087","Gordon-Hayward-1239","Tyreke-Evans-1070","Otto-Porter-17069","Clint-Capela-18610","Marcus-Smart-18567","Rodney-Hood-18629","Andre-Drummond-13904","49800","282.7"
"Chris-Paul-1087","Marcus-Smart-18567","Tyreke-Evans-1070","Rondae-Hollis-Jefferson-18897","Andre-Drummond-13904","Rodney-Hood-18629","Otto-Porter-17069","Clint-Capela-18610","50000","282.69"
"Zach-LaVine-18622","Marcus-Smart-18567","Andrew-Wiggins-18620","Otto-Porter-17069","Jonas-Valanciunas-13301","John-Wall-1084","Rodney-Hood-18629","Clint-Capela-18610","49500","282.68"
"John-Wall-1084","Jordan-Clarkson-18631","Andrew-Wiggins-18620","Otto-Porter-17069","Clint-Capela-18610","De'Aaron-Fox-37900","Tyreke-Evans-1070","Jonas-Valanciunas-13301","49500","282.68"
"Tomas-Satoransky--36031","Jordan-Clarkson-18631","Tyreke-Evans-1070","Otto-Porter-17069","Clint-Capela-18610","John-Wall-1084","Rodney-Hood-18629","Andre-Drummond-13904","49800","282.65"
"Zach-LaVine-18622","Jordan-Clarkson-18631","Tyreke-Evans-1070","Rondae-Hollis-Jefferson-18897","Clint-Capela-18610","John-Wall-1084","Rodney-Hood-18629","Jonas-Valanciunas-13301","49900","282.63"
"Marcus-Smart-18567","Reggie-Bullock-16943","Andrew-Wiggins-18620","Rondae-Hollis-Jefferson-18897","Andre-Drummond-13904","John-Wall-1084","Tyreke-Evans-1070","Clint-Capela-18610","50000","282.6"
"Marcus-Smart-18567","Tyreke-Evans-1070","Gordon-Hayward-1239","Otto-Porter-17069","Andre-Drummond-13904","De'Aaron-Fox-37900","Andrew-Wiggins-18620","Clint-Capela-18610","49600","282.6"
"Chris-Paul-1087","Marcus-Smart-18567","Tyreke-Evans-1070","Otto-Porter-17069","Clint-Capela-18610","John-Wall-1084","Bogdan-Bogdanovic-37899","Jordan-Clarkson-18631","50000","282.6"
"Chris-Paul-1087","Marcus-Smart-18567","Andrew-Wiggins-18620","Rondae-Hollis-Jefferson-18897","Clint-Capela-18610","John-Wall-1084","Tyreke-Evans-1070","Jordan-Clarkson-18631","49800","282.6"
"Marcus-Smart-18567","Tyreke-Evans-1070","Andrew-Wiggins-18620","Rondae-Hollis-Jefferson-18897","Clint-Capela-18610","De'Aaron-Fox-37900","Otto-Porter-17069","Andre-Drummond-13904","49800","282.59"
"Zach-LaVine-18622","Marcus-Smart-18567","Gordon-Hayward-1239","Otto-Porter-17069","Clint-Capela-18610","Jeff-Teague-1005","Tyreke-Evans-1070","Chris-Paul-1087","50000","282.58"
"Marcus-Smart-18567","Tyreke-Evans-1070","Andrew-Wiggins-18620","Otto-Porter-17069","Andre-Drummond-13904","De'Aaron-Fox-37900","Buddy-Hield-35206","Clint-Capela-18610","50000","282.58"
"Zach-LaVine-18622","Gordon-Hayward-1239","Tyreke-Evans-1070","Otto-Porter-17069","Clint-Capela-18610","John-Wall-1084","Rodney-Hood-18629","Marcus-Smart-18567","49600","282.57"
"Zach-LaVine-18622","Marcus-Smart-18567","Tyreke-Evans-1070","Otto-Porter-17069","Clint-Capela-18610","John-Wall-1084","Rodney-Hood-18629","Rondae-Hollis-Jefferson-18897","49800","282.56"
"Chris-Paul-1087","Rodney-Hood-18629","Andrew-Wiggins-18620","Rondae-Hollis-Jefferson-18897","Jonas-Valanciunas-13301","John-Wall-1084","Tyreke-Evans-1070","Clint-Capela-18610","49900","282.56"
"Zach-LaVine-18622","Gordon-Hayward-1239","Tyreke-Evans-1070","Rondae-Hollis-Jefferson-18897","Andre-Drummond-13904","Marcus-Smart-18567","Rodney-Hood-18629","Clint-Capela-18610","50000","282.55"
"Zach-LaVine-18622","Buddy-Hield-35206","Tyreke-Evans-1070","Otto-Porter-17069","Clint-Capela-18610","John-Wall-1084","Rodney-Hood-18629","Marcus-Smart-18567","50000","282.55"
"Zach-LaVine-18622","Jordan-Clarkson-18631","Tyreke-Evans-1070","Marvin-Bagley-III-409321","Jonas-Valanciunas-13301","John-Wall-1084","Rodney-Hood-18629","Clint-Capela-18610","50000","282.53"
"Zach-LaVine-18622","Jordan-Clarkson-18631","Gordon-Hayward-1239","Otto-Porter-17069","Jonas-Valanciunas-13301","Chris-Paul-1087","Tyreke-Evans-1070","Clint-Capela-18610","49700","282.52"
"Zach-LaVine-18622","Terry-Rozier-18894","Andrew-Wiggins-18620","Otto-Porter-17069","Clint-Capela-18610","John-Wall-1084","Tyreke-Evans-1070","Jonas-Valanciunas-13301","49800","282.52"
"Jordan-Clarkson-18631","Alec-Burks-13353","Tyreke-Evans-1070","Otto-Porter-17069","Clint-Capela-18610","John-Wall-1084","Rodney-Hood-18629","Andre-Drummond-13904","49900","282.51"
"Zach-LaVine-18622","Gordon-Hayward-1239","Tyreke-Evans-1070","Otto-Porter-17069","Clint-Capela-18610","Andrew-Wiggins-18620","Reggie-Bullock-16943","John-Wall-1084","50000","282.51"
"Zach-LaVine-18622","Jordan-Clarkson-18631","Tyreke-Evans-1070","Rondae-Hollis-Jefferson-18897","Jonas-Valanciunas-13301","Chris-Paul-1087","Otto-Porter-17069","Clint-Capela-18610","49900","282.51"
"Chris-Paul-1087","Marcus-Smart-18567","Andrew-Wiggins-18620","Marvin-Bagley-III-409321","Clint-Capela-18610","John-Wall-1084","Tyreke-Evans-1070","Jordan-Clarkson-18631","49900","282.5"
"Chris-Paul-1087","Jordan-Clarkson-18631","Gordon-Hayward-1239","Otto-Porter-17069","Jonas-Valanciunas-13301","John-Wall-1084","Rodney-Hood-18629","Clint-Capela-18610","50000","282.5"
"John-Wall-1084","Reggie-Jackson-13352","Andrew-Wiggins-18620","Otto-Porter-17069","Clint-Capela-18610","De'Aaron-Fox-37900","Tyreke-Evans-1070","Jonas-Valanciunas-13301","50000","282.49"
"Marcus-Smart-18567","Andrew-Wiggins-18620","Tyreke-Evans-1070","Marvin-Bagley-III-409321","Andre-Drummond-13904","De'Aaron-Fox-37900","Otto-Porter-17069","Clint-Capela-18610","49900","282.49"
"Jeff-Teague-1005","Tomas-Satoransky--36031","Andrew-Wiggins-18620","Otto-Porter-17069","Clint-Capela-18610","John-Wall-1084","Tyreke-Evans-1070","Chris-Paul-1087","50000","282.46"
"Chris-Paul-1087","Tyreke-Evans-1070","Andrew-Wiggins-18620","Marvin-Bagley-III-409321","Jonas-Valanciunas-13301","John-Wall-1084","Rodney-Hood-18629","Clint-Capela-18610","50000","282.46"
"John-Wall-1084","Andrew-Wiggins-18620","Tyreke-Evans-1070","Otto-Porter-17069","Jonas-Valanciunas-13301","De'Aaron-Fox-37900","Bogdan-Bogdanovic-37899","Clint-Capela-18610","49900","282.46"
"Zach-LaVine-18622","Marcus-Smart-18567","Tyreke-Evans-1070","Otto-Porter-17069","Clint-Capela-18610","John-Wall-1084","Rodney-Hood-18629","Marvin-Bagley-III-409321","49900","282.46"
"Tomas-Satoransky--36031","Andrew-Wiggins-18620","Tyreke-Evans-1070","Rondae-Hollis-Jefferson-18897","Andre-Drummond-13904","John-Wall-1084","Rodney-Hood-18629","Clint-Capela-18610","50000","282.43"
"Chris-Paul-1087","Marcus-Smart-18567","Andrew-Wiggins-18620","Rondae-Hollis-Jefferson-18897","Jonas-Valanciunas-13301","John-Wall-1084","Tyreke-Evans-1070","Clint-Capela-18610","49500","282.41"
"Zach-LaVine-18622","Jordan-Clarkson-18631","Tyreke-Evans-1070","Marvin-Bagley-III-409321","Jonas-Valanciunas-13301","Chris-Paul-1087","Otto-Porter-17069","Clint-Capela-18610","50000","282.41"
