"Jordan-Clarkson-18631","Alec-Burks-13353","Tim-Hardaway-Jr.-16879","Otto-Porter-17069","Nikola-Jokic-31812","Trae-Young-409063","Kent-Bazemore-13987","Tobias-Harris-13332","49700","305.8"
"Jordan-Clarkson-18631","Kent-Bazemore-13987","Tobias-Harris-13332","Noah-Vonleh-18597","Nikola-Jokic-31812","Tim-Hardaway-Jr.-16879","Larry-Nance-18946","Otto-Porter-17069","49800","305.62"

"Jordan-Clarkson-18631","Alec-Burks-13353","Tim-Hardaway-Jr.-16879","Otto-Porter-17069","Nikola-Jokic-31812","Trae-Young-409063","Kent-Bazemore-13987","Tobias-Harris-13332","49700","305.8"
"Jordan-Clarkson-18631","Kent-Bazemore-13987","Tobias-Harris-13332","Noah-Vonleh-18597","Nikola-Jokic-31812","Tim-Hardaway-Jr.-16879","Larry-Nance-18946","Otto-Porter-17069","49800","305.62"
"Kyle-Anderson-18615","Jordan-Clarkson-18631","Tobias-Harris-13332","Noah-Vonleh-18597","Nikola-Jokic-31812","Tim-Hardaway-Jr.-16879","Kent-Bazemore-13987","Otto-Porter-17069","49600","305.03"
"Jordan-Clarkson-18631","Kent-Bazemore-13987","Tobias-Harris-13332","Marvin-Bagley-III-409321","Larry-Nance-18946","Tim-Hardaway-Jr.-16879","Otto-Porter-17069","Nikola-Jokic-31812","49800","304.93"
"Jordan-Clarkson-18631","Alec-Burks-13353","Tobias-Harris-13332","Noah-Vonleh-18597","Nikola-Jokic-31812","Tim-Hardaway-Jr.-16879","Kent-Bazemore-13987","Otto-Porter-17069","49000","304.53"
"Jordan-Clarkson-18631","Kent-Bazemore-13987","Tobias-Harris-13332","Noah-Vonleh-18597","Nikola-Jokic-31812","Trae-Young-409063","Marvin-Bagley-III-409321","Tim-Hardaway-Jr.-16879","50000","304.45"
"Kyle-Anderson-18615","Jordan-Clarkson-18631","Tim-Hardaway-Jr.-16879","Tobias-Harris-13332","Marvin-Bagley-III-409321","Kent-Bazemore-13987","Otto-Porter-17069","Nikola-Jokic-31812","49600","304.34"
"Jordan-Clarkson-18631","Kent-Bazemore-13987","Tobias-Harris-13332","Bam-Adebayo-37835","Larry-Nance-18946","Tim-Hardaway-Jr.-16879","Otto-Porter-17069","Nikola-Jokic-31812","49900","304.11"
"Jordan-Clarkson-18631","Alec-Burks-13353","Tim-Hardaway-Jr.-16879","Tobias-Harris-13332","Marvin-Bagley-III-409321","Kent-Bazemore-13987","Otto-Porter-17069","Nikola-Jokic-31812","49000","303.84"
"Jordan-Clarkson-18631","Alec-Burks-13353","Tim-Hardaway-Jr.-16879","Tobias-Harris-13332","Nikola-Jokic-31812","Trae-Young-409063","Larry-Nance-18946","Otto-Porter-17069","49600","303.83"
"Jordan-Clarkson-18631","Alec-Burks-13353","Tobias-Harris-13332","Noah-Vonleh-18597","Nikola-Jokic-31812","Tim-Hardaway-Jr.-16879","Marvin-Bagley-III-409321","Otto-Porter-17069","49500","303.83"
"Kyle-Anderson-18615","Jordan-Clarkson-18631","Tobias-Harris-13332","Bam-Adebayo-37835","Nikola-Jokic-31812","Kent-Bazemore-13987","Otto-Porter-17069","Tim-Hardaway-Jr.-16879","49700","303.52"
"Jordan-Clarkson-18631","Alec-Burks-13353","Kyle-Anderson-18615","Tobias-Harris-13332","Nikola-Jokic-31812","Trae-Young-409063","Tim-Hardaway-Jr.-16879","Otto-Porter-17069","49400","303.24"
"Jordan-Clarkson-18631","Tim-Hardaway-Jr.-16879","Kent-Bazemore-13987","Noah-Vonleh-18597","Nikola-Jokic-31812","Trae-Young-409063","Larry-Nance-18946","Tobias-Harris-13332","49400","303.18"
"Jordan-Clarkson-18631","Alec-Burks-13353","Tim-Hardaway-Jr.-16879","Gordon-Hayward-1239","Nikola-Jokic-31812","Kent-Bazemore-13987","Otto-Porter-17069","Tobias-Harris-13332","49600","303.14"
"Jordan-Clarkson-18631","Kent-Bazemore-13987","Tobias-Harris-13332","Noah-Vonleh-18597","Nikola-Jokic-31812","Tim-Hardaway-Jr.-16879","Otto-Porter-17069","Justise-Winslow-18921","49400","303.12"
"Kyle-Anderson-18615","Jordan-Clarkson-18631","Kent-Bazemore-13987","Larry-Nance-18946","Nikola-Jokic-31812","Tim-Hardaway-Jr.-16879","Otto-Porter-17069","Tobias-Harris-13332","49000","303.07"
"Kyle-Anderson-18615","Jordan-Clarkson-18631","Tobias-Harris-13332","Noah-Vonleh-18597","Nikola-Jokic-31812","Tim-Hardaway-Jr.-16879","Larry-Nance-18946","Otto-Porter-17069","49500","303.06"
"Jordan-Clarkson-18631","Alec-Burks-13353","Tobias-Harris-13332","Bam-Adebayo-37835","Nikola-Jokic-31812","Kent-Bazemore-13987","Otto-Porter-17069","Tim-Hardaway-Jr.-16879","49100","303.02"
"Jordan-Clarkson-18631","Alec-Burks-13353","Tobias-Harris-13332","Noah-Vonleh-18597","Bam-Adebayo-37835","Tim-Hardaway-Jr.-16879","Otto-Porter-17069","Nikola-Jokic-31812","49600","303.01"
"Jordan-Clarkson-18631","Kent-Bazemore-13987","Tobias-Harris-13332","Noah-Vonleh-18597","Nikola-Jokic-31812","Trae-Young-409063","Marvin-Bagley-III-409321","Otto-Porter-17069","49500","302.95"
"Alec-Burks-13353","Tim-Hardaway-Jr.-16879","Tobias-Harris-13332","Noah-Vonleh-18597","Nikola-Jokic-31812","Trae-Young-409063","Kent-Bazemore-13987","Otto-Porter-17069","49900","302.93"
"Jordan-Clarkson-18631","Kent-Bazemore-13987","Kyle-Anderson-18615","Tobias-Harris-13332","Nikola-Jokic-31812","Trae-Young-409063","Tim-Hardaway-Jr.-16879","Noah-Vonleh-18597","49200","302.59"
"Jordan-Clarkson-18631","Alec-Burks-13353","Kent-Bazemore-13987","Larry-Nance-18946","Nikola-Jokic-31812","Tim-Hardaway-Jr.-16879","Otto-Porter-17069","Tobias-Harris-13332","48400","302.57"
"Jordan-Clarkson-18631","Alec-Burks-13353","Tobias-Harris-13332","Noah-Vonleh-18597","Nikola-Jokic-31812","Tim-Hardaway-Jr.-16879","Larry-Nance-18946","Otto-Porter-17069","48900","302.56"
"Jordan-Clarkson-18631","Tim-Hardaway-Jr.-16879","Tobias-Harris-13332","Larry-Nance-18946","Nikola-Jokic-31812","Trae-Young-409063","Kent-Bazemore-13987","Marvin-Bagley-III-409321","49400","302.49"
"Jordan-Clarkson-18631","Tim-Hardaway-Jr.-16879","Tobias-Harris-13332","Noah-Vonleh-18597","Nikola-Jokic-31812","Trae-Young-409063","Marvin-Bagley-III-409321","Larry-Nance-18946","49900","302.48"
"Jordan-Clarkson-18631","Kent-Bazemore-13987","Tobias-Harris-13332","Justise-Winslow-18921","Marvin-Bagley-III-409321","Tim-Hardaway-Jr.-16879","Otto-Porter-17069","Nikola-Jokic-31812","49400","302.43"
"Jordan-Clarkson-18631","Tim-Hardaway-Jr.-16879","Tobias-Harris-13332","Larry-Nance-18946","Nikola-Jokic-31812","Trae-Young-409063","Otto-Porter-17069","Justise-Winslow-18921","50000","302.42"
"Jordan-Clarkson-18631","Kent-Bazemore-13987","Tyreke-Evans-1070","Tobias-Harris-13332","Noah-Vonleh-18597","Tim-Hardaway-Jr.-16879","Otto-Porter-17069","Nikola-Jokic-31812","50000","302.39"
"Kyle-Anderson-18615","Jordan-Clarkson-18631","Tobias-Harris-13332","Marvin-Bagley-III-409321","Larry-Nance-18946","Tim-Hardaway-Jr.-16879","Otto-Porter-17069","Nikola-Jokic-31812","49500","302.37"
"Jordan-Clarkson-18631","Alec-Burks-13353","Tobias-Harris-13332","Bam-Adebayo-37835","Nikola-Jokic-31812","Tim-Hardaway-Jr.-16879","Otto-Porter-17069","Marvin-Bagley-III-409321","49600","302.32"
"Alec-Burks-13353","Kent-Bazemore-13987","Tim-Hardaway-Jr.-16879","Tobias-Harris-13332","Marvin-Bagley-III-409321","Trae-Young-409063","Otto-Porter-17069","Nikola-Jokic-31812","49900","302.24"
"Jordan-Clarkson-18631","Kent-Bazemore-13987","Cedi-Osman-18912","Noah-Vonleh-18597","Nikola-Jokic-31812","Tim-Hardaway-Jr.-16879","Otto-Porter-17069","Tobias-Harris-13332","49700","302.22"
"Jordan-Clarkson-18631","Kent-Bazemore-13987","Tobias-Harris-13332","Larry-Nance-18946","Nikola-Jokic-31812","Tim-Hardaway-Jr.-16879","Otto-Porter-17069","Marcus-Morris-13316","49700","302.19"
"Jordan-Clarkson-18631","Kent-Bazemore-13987","Tobias-Harris-13332","Noah-Vonleh-18597","Bam-Adebayo-37835","Trae-Young-409063","Otto-Porter-17069","Nikola-Jokic-31812","49600","302.13"
"Jordan-Clarkson-18631","Kent-Bazemore-13987","Tim-Hardaway-Jr.-16879","Marvin-Bagley-III-409321","Nikola-Jokic-31812","Trae-Young-409063","Otto-Porter-17069","Noah-Vonleh-18597","49000","302.13"
"Jordan-Clarkson-18631","Alec-Burks-13353","Tobias-Harris-13332","Noah-Vonleh-18597","Nikola-Jokic-31812","Trae-Young-409063","Kent-Bazemore-13987","Tim-Hardaway-Jr.-16879","48600","302.09"
"Jordan-Clarkson-18631","Alec-Burks-13353","Kyle-Anderson-18615","Tobias-Harris-13332","Nikola-Jokic-31812","Kent-Bazemore-13987","Tim-Hardaway-Jr.-16879","Otto-Porter-17069","48200","301.98"
"Kyle-Anderson-18615","Jordan-Clarkson-18631","Tobias-Harris-13332","Noah-Vonleh-18597","Nikola-Jokic-31812","Alec-Burks-13353","Otto-Porter-17069","Tim-Hardaway-Jr.-16879","48700","301.97"
"Jordan-Clarkson-18631","Tim-Hardaway-Jr.-16879","Trey-Lyles-18942","Otto-Porter-17069","Nikola-Jokic-31812","Trae-Young-409063","Kent-Bazemore-13987","Tobias-Harris-13332","49300","301.95"
"Jordan-Clarkson-18631","Tim-Hardaway-Jr.-16879","Tobias-Harris-13332","Noah-Vonleh-18597","Nikola-Jokic-31812","Trae-Young-409063","Otto-Porter-17069","Trey-Lyles-18942","49800","301.94"
"Jordan-Clarkson-18631","Kent-Bazemore-13987","Kyle-Anderson-18615","Marvin-Bagley-III-409321","Nikola-Jokic-31812","Trae-Young-409063","Tobias-Harris-13332","Tim-Hardaway-Jr.-16879","49200","301.9"
"Kyle-Anderson-18615","Jordan-Clarkson-18631","Tobias-Harris-13332","Noah-Vonleh-18597","Nikola-Jokic-31812","Trae-Young-409063","Marvin-Bagley-III-409321","Tim-Hardaway-Jr.-16879","49700","301.89"
"Jordan-Clarkson-18631","Alec-Burks-13353","Tobias-Harris-13332","Marvin-Bagley-III-409321","Larry-Nance-18946","Tim-Hardaway-Jr.-16879","Otto-Porter-17069","Nikola-Jokic-31812","48900","301.87"
"Jordan-Clarkson-18631","Tim-Hardaway-Jr.-16879","Kyle-Anderson-18615","Justise-Winslow-18921","Nikola-Jokic-31812","Trae-Young-409063","Tobias-Harris-13332","Otto-Porter-17069","49800","301.83"
"Jordan-Clarkson-18631","Kent-Bazemore-13987","Tobias-Harris-13332","Noah-Vonleh-18597","Nikola-Jokic-31812","Tim-Hardaway-Jr.-16879","Marvin-Bagley-III-409321","Gordon-Hayward-1239","49900","301.79"
"Jordan-Clarkson-18631","Tim-Hardaway-Jr.-16879","Kent-Bazemore-13987","Gordon-Hayward-1239","Nikola-Jokic-31812","Trae-Young-409063","Larry-Nance-18946","Tobias-Harris-13332","50000","301.79"
"Jordan-Clarkson-18631","Kent-Bazemore-13987","Justise-Winslow-18921","Gordon-Hayward-1239","Nikola-Jokic-31812","Tim-Hardaway-Jr.-16879","Otto-Porter-17069","Tobias-Harris-13332","50000","301.73"
"Jordan-Clarkson-18631","Tim-Hardaway-Jr.-16879","Tobias-Harris-13332","Noah-Vonleh-18597","Nikola-Jokic-31812","Trae-Young-409063","Kent-Bazemore-13987","Marcus-Morris-13316","49900","301.71"
"Jordan-Clarkson-18631","Tyreke-Evans-1070","Tim-Hardaway-Jr.-16879","Tobias-Harris-13332","Marvin-Bagley-III-409321","Kent-Bazemore-13987","Otto-Porter-17069","Nikola-Jokic-31812","50000","301.7"
"Jordan-Clarkson-18631","Kent-Bazemore-13987","Tobias-Harris-13332","Noah-Vonleh-18597","Nikola-Jokic-31812","Trae-Young-409063","Larry-Nance-18946","Otto-Porter-17069","48900","301.68"
"Jordan-Clarkson-18631","Tim-Hardaway-Jr.-16879","Tobias-Harris-13332","Larry-Nance-18946","Nikola-Jokic-31812","Trae-Young-409063","Kent-Bazemore-13987","Bam-Adebayo-37835","49500","301.67"
"Jordan-Clarkson-18631","Kent-Bazemore-13987","Tobias-Harris-13332","Noah-Vonleh-18597","Nikola-Jokic-31812","Tim-Hardaway-Jr.-16879","Marvin-Bagley-III-409321","Bam-Adebayo-37835","49400","301.67"
"Jordan-Clarkson-18631","Tim-Hardaway-Jr.-16879","Tobias-Harris-13332","Noah-Vonleh-18597","Nikola-Jokic-31812","Trae-Young-409063","Larry-Nance-18946","Bam-Adebayo-37835","50000","301.66"
"Jordan-Clarkson-18631","Kent-Bazemore-13987","Tobias-Harris-13332","Bam-Adebayo-37835","Nikola-Jokic-31812","Tim-Hardaway-Jr.-16879","Otto-Porter-17069","Justise-Winslow-18921","49500","301.61"
"Jordan-Clarkson-18631","Kent-Bazemore-13987","Kyle-Anderson-18615","Tobias-Harris-13332","Nikola-Jokic-31812","Tim-Hardaway-Jr.-16879","Marcus-Morris-13316","Otto-Porter-17069","49500","301.6"
"Kyle-Anderson-18615","Jordan-Clarkson-18631","Tobias-Harris-13332","Noah-Vonleh-18597","Nikola-Jokic-31812","Tim-Hardaway-Jr.-16879","Otto-Porter-17069","Marcus-Morris-13316","50000","301.59"
"Kyle-Anderson-18615","Jordan-Clarkson-18631","Tobias-Harris-13332","Bam-Adebayo-37835","Larry-Nance-18946","Tim-Hardaway-Jr.-16879","Otto-Porter-17069","Nikola-Jokic-31812","49600","301.55"
"Jordan-Clarkson-18631","Kent-Bazemore-13987","Tobias-Harris-13332","Marvin-Bagley-III-409321","Nikola-Jokic-31812","Tim-Hardaway-Jr.-16879","Cedi-Osman-18912","Otto-Porter-17069","49700","301.53"
"Jordan-Clarkson-18631","Tim-Hardaway-Jr.-16879","Tobias-Harris-13332","Noah-Vonleh-18597","Nikola-Jokic-31812","Collin-Sexton-408896","Kent-Bazemore-13987","Otto-Porter-17069","50000","301.52"
"Kyle-Anderson-18615","Kent-Bazemore-13987","Tobias-Harris-13332","Noah-Vonleh-18597","Nikola-Jokic-31812","Tim-Hardaway-Jr.-16879","Marvin-Bagley-III-409321","Otto-Porter-17069","49800","301.47"
"Kyle-Anderson-18615","Tim-Hardaway-Jr.-16879","Kent-Bazemore-13987","Larry-Nance-18946","Nikola-Jokic-31812","Trae-Young-409063","Otto-Porter-17069","Tobias-Harris-13332","49900","301.47"
"Jordan-Clarkson-18631","Kent-Bazemore-13987","Tobias-Harris-13332","Bam-Adebayo-37835","Nikola-Jokic-31812","Trae-Young-409063","Otto-Porter-17069","Marvin-Bagley-III-409321","49600","301.44"
"Jordan-Clarkson-18631","Kent-Bazemore-13987","Otto-Porter-17069","Noah-Vonleh-18597","Nikola-Jokic-31812","Trae-Young-409063","Gordon-Hayward-1239","Tim-Hardaway-Jr.-16879","49600","301.43"
"Alec-Burks-13353","Kent-Bazemore-13987","Tobias-Harris-13332","Bam-Adebayo-37835","Nikola-Jokic-31812","Trae-Young-409063","Otto-Porter-17069","Tim-Hardaway-Jr.-16879","50000","301.42"
"Jordan-Clarkson-18631","Alec-Burks-13353","Tobias-Harris-13332","Marvin-Bagley-III-409321","Nikola-Jokic-31812","Trae-Young-409063","Kent-Bazemore-13987","Tim-Hardaway-Jr.-16879","48600","301.4"
"Jordan-Clarkson-18631","Alec-Burks-13353","Tobias-Harris-13332","Noah-Vonleh-18597","Nikola-Jokic-31812","Trae-Young-409063","Marvin-Bagley-III-409321","Tim-Hardaway-Jr.-16879","49100","301.39"
"Jordan-Clarkson-18631","Kent-Bazemore-13987","Juan-Hernangomez-35212","Tobias-Harris-13332","Nikola-Jokic-31812","Tim-Hardaway-Jr.-16879","Otto-Porter-17069","Noah-Vonleh-18597","49400","301.38"
"Jordan-Clarkson-18631","Kent-Bazemore-13987","Thaddeus-Young-1289","Noah-Vonleh-18597","Nikola-Jokic-31812","Tim-Hardaway-Jr.-16879","Otto-Porter-17069","Tobias-Harris-13332","49700","301.38"
"Jordan-Clarkson-18631","Alec-Burks-13353","Tim-Hardaway-Jr.-16879","Justise-Winslow-18921","Nikola-Jokic-31812","Trae-Young-409063","Otto-Porter-17069","Tobias-Harris-13332","49200","301.33"
"Jordan-Clarkson-18631","Kent-Bazemore-13987","Tim-Hardaway-Jr.-16879","Noah-Vonleh-18597","Bam-Adebayo-37835","Trae-Young-409063","Otto-Porter-17069","Nikola-Jokic-31812","49100","301.31"
"Kyle-Anderson-18615","Jordan-Clarkson-18631","Tim-Hardaway-Jr.-16879","Tobias-Harris-13332","Marvin-Bagley-III-409321","Alec-Burks-13353","Otto-Porter-17069","Nikola-Jokic-31812","48700","301.28"
"Jordan-Clarkson-18631","Tim-Hardaway-Jr.-16879","Trey-Lyles-18942","Marvin-Bagley-III-409321","Nikola-Jokic-31812","Trae-Young-409063","Otto-Porter-17069","Tobias-Harris-13332","49800","301.25"
"Jordan-Clarkson-18631","Kent-Bazemore-13987","Tobias-Harris-13332","Noah-Vonleh-18597","Nikola-Jokic-31812","Tim-Hardaway-Jr.-16879","Marvin-Bagley-III-409321","Larry-Nance-18946","48700","301.22"
"Jordan-Clarkson-18631","Kent-Bazemore-13987","Kyle-Anderson-18615","Tobias-Harris-13332","Nikola-Jokic-31812","Trae-Young-409063","Tim-Hardaway-Jr.-16879","Gordon-Hayward-1239","49800","301.2"
"Jordan-Clarkson-18631","Alec-Burks-13353","Tobias-Harris-13332","Gordon-Hayward-1239","Nikola-Jokic-31812","Tim-Hardaway-Jr.-16879","Larry-Nance-18946","Otto-Porter-17069","49500","301.17"
"Jordan-Clarkson-18631","Kent-Bazemore-13987","Tobias-Harris-13332","Larry-Nance-18946","Nikola-Jokic-31812","Tim-Hardaway-Jr.-16879","Otto-Porter-17069","Justise-Winslow-18921","48800","301.16"
"Jordan-Clarkson-18631","Alec-Burks-13353","Tobias-Harris-13332","Otto-Porter-17069","Nikola-Jokic-31812","Tim-Hardaway-Jr.-16879","Kent-Bazemore-13987","Marcus-Morris-13316","48900","301.1"
"Jordan-Clarkson-18631","Alec-Burks-13353","Tobias-Harris-13332","Noah-Vonleh-18597","Nikola-Jokic-31812","Tim-Hardaway-Jr.-16879","Otto-Porter-17069","Marcus-Morris-13316","49400","301.09"
"Kyle-Anderson-18615","Jordan-Clarkson-18631","Tobias-Harris-13332","Noah-Vonleh-18597","Nikola-Jokic-31812","Trae-Young-409063","Kent-Bazemore-13987","Otto-Porter-17069","48700","301.09"
"Jordan-Clarkson-18631","Kent-Bazemore-13987","Kyle-Anderson-18615","Tobias-Harris-13332","Nikola-Jokic-31812","Trae-Young-409063","Tim-Hardaway-Jr.-16879","Bam-Adebayo-37835","49300","301.08"
"Jordan-Clarkson-18631","Tim-Hardaway-Jr.-16879","Kyle-Anderson-18615","Noah-Vonleh-18597","Nikola-Jokic-31812","Trae-Young-409063","Bam-Adebayo-37835","Tobias-Harris-13332","49800","301.07"
"Jordan-Clarkson-18631","Alec-Burks-13353","Tobias-Harris-13332","Bam-Adebayo-37835","Larry-Nance-18946","Tim-Hardaway-Jr.-16879","Otto-Porter-17069","Nikola-Jokic-31812","49000","301.05"
"Jordan-Clarkson-18631","Kent-Bazemore-13987","Tim-Hardaway-Jr.-16879","Marvin-Bagley-III-409321","Nikola-Jokic-31812","Trae-Young-409063","Marcus-Morris-13316","Tobias-Harris-13332","49900","301.02"
"Jordan-Clarkson-18631","Tim-Hardaway-Jr.-16879","Tobias-Harris-13332","Mason-Plumlee-16798","Nikola-Jokic-31812","Trae-Young-409063","Kent-Bazemore-13987","Otto-Porter-17069","49900","301.01"
"Jordan-Clarkson-18631","Kent-Bazemore-13987","Tobias-Harris-13332","Marvin-Bagley-III-409321","Larry-Nance-18946","Trae-Young-409063","Otto-Porter-17069","Nikola-Jokic-31812","48900","300.99"
"Alec-Burks-13353","Kent-Bazemore-13987","Tobias-Harris-13332","Noah-Vonleh-18597","Nikola-Jokic-31812","Tim-Hardaway-Jr.-16879","Marvin-Bagley-III-409321","Otto-Porter-17069","49200","300.97"
"Jordan-Clarkson-18631","Tim-Hardaway-Jr.-16879","Tobias-Harris-13332","Marvin-Bagley-III-409321","Nikola-Jokic-31812","Trae-Young-409063","Bam-Adebayo-37835","Larry-Nance-18946","50000","300.97"
"Jordan-Clarkson-18631","Kent-Bazemore-13987","Tobias-Harris-13332","Bam-Adebayo-37835","Nikola-Jokic-31812","Tim-Hardaway-Jr.-16879","Gordon-Hayward-1239","Noah-Vonleh-18597","50000","300.97"
"Alec-Burks-13353","Tim-Hardaway-Jr.-16879","Kent-Bazemore-13987","Larry-Nance-18946","Nikola-Jokic-31812","Trae-Young-409063","Otto-Porter-17069","Tobias-Harris-13332","49300","300.97"
"Alec-Burks-13353","Tim-Hardaway-Jr.-16879","Tobias-Harris-13332","Noah-Vonleh-18597","Nikola-Jokic-31812","Trae-Young-409063","Larry-Nance-18946","Otto-Porter-17069","49800","300.96"
"Kyle-Anderson-18615","Jordan-Clarkson-18631","Tobias-Harris-13332","Otto-Porter-17069","Marvin-Bagley-III-409321","Tim-Hardaway-Jr.-16879","Marcus-Morris-13316","Nikola-Jokic-31812","50000","300.9"
"Jordan-Clarkson-18631","Tim-Hardaway-Jr.-16879","Kent-Bazemore-13987","Noah-Vonleh-18597","Nikola-Jokic-31812","Trae-Young-409063","Larry-Nance-18946","Otto-Porter-17069","48400","300.86"
"Jordan-Clarkson-18631","Kent-Bazemore-13987","Tim-Hardaway-Jr.-16879","Tobias-Harris-13332","Marvin-Bagley-III-409321","Collin-Sexton-408896","Otto-Porter-17069","Nikola-Jokic-31812","50000","300.83"
"Jordan-Clarkson-18631","Kent-Bazemore-13987","Tim-Hardaway-Jr.-16879","Gordon-Hayward-1239","Nikola-Jokic-31812","Trae-Young-409063","Otto-Porter-17069","Marvin-Bagley-III-409321","49600","300.74"
"Jordan-Clarkson-18631","Kent-Bazemore-13987","Cedi-Osman-18912","Bam-Adebayo-37835","Nikola-Jokic-31812","Tim-Hardaway-Jr.-16879","Otto-Porter-17069","Tobias-Harris-13332","49800","300.71"
"Jordan-Clarkson-18631","Alec-Burks-13353","Tobias-Harris-13332","Gordon-Hayward-1239","Nikola-Jokic-31812","Trae-Young-409063","Kent-Bazemore-13987","Tim-Hardaway-Jr.-16879","49200","300.7"
"Jordan-Clarkson-18631","Kent-Bazemore-13987","Juan-Hernangomez-35212","Tobias-Harris-13332","Nikola-Jokic-31812","Tim-Hardaway-Jr.-16879","Otto-Porter-17069","Marvin-Bagley-III-409321","49400","300.69"
"Jordan-Clarkson-18631","Kent-Bazemore-13987","Tobias-Harris-13332","Otto-Porter-17069","Marvin-Bagley-III-409321","Tim-Hardaway-Jr.-16879","Thaddeus-Young-1289","Nikola-Jokic-31812","49700","300.69"
