"Trae-Young-409063","DeMar-DeRozan-1053","Jerami-Grant-18576","Nikola-Mirotic-18584","Dewayne-Dedmon-16894","Russell-Westbrook-1083","Rodney-McGruder-16850","Derrick-White-37858","50000","279.24"
"Wayne-Ellington-1009","DeMar-DeRozan-1053","Jerami-Grant-18576","Nikola-Mirotic-18584","Steven-Adams-16848","Russell-Westbrook-1083","Dewayne-Dedmon-16894","Derrick-White-37858","50000","279.15"
"Russell-Westbrook-1083","Kevin-Huerter-408969","DeMar-DeRozan-1053","Nikola-Mirotic-18584","Steven-Adams-16848","Derrick-White-37858","Taurean-Prince-35218","Jerami-Grant-18576","50000","278.9"
"Trae-Young-409063","Wayne-Ellington-1009","DeMar-DeRozan-1053","Nikola-Mirotic-18584","Dewayne-Dedmon-16894","Russell-Westbrook-1083","Taurean-Prince-35218","Derrick-White-37858","50000","278.84"

"Trae-Young-409063","DeMar-DeRozan-1053","Jerami-Grant-18576","Nikola-Mirotic-18584","Dewayne-Dedmon-16894","Russell-Westbrook-1083","Rodney-McGruder-16850","Derrick-White-37858","50000","279.24"
"Wayne-Ellington-1009","DeMar-DeRozan-1053","Jerami-Grant-18576","Nikola-Mirotic-18584","Steven-Adams-16848","Russell-Westbrook-1083","Dewayne-Dedmon-16894","Derrick-White-37858","50000","279.15"
"Russell-Westbrook-1083","Kevin-Huerter-408969","DeMar-DeRozan-1053","Nikola-Mirotic-18584","Steven-Adams-16848","Derrick-White-37858","Taurean-Prince-35218","Jerami-Grant-18576","50000","278.9"
"Trae-Young-409063","Wayne-Ellington-1009","DeMar-DeRozan-1053","Nikola-Mirotic-18584","Dewayne-Dedmon-16894","Russell-Westbrook-1083","Taurean-Prince-35218","Derrick-White-37858","50000","278.84"
"Trae-Young-409063","Kent-Bazemore-13987","DeMar-DeRozan-1053","Jerami-Grant-18576","Dewayne-Dedmon-16894","Russell-Westbrook-1083","Nikola-Mirotic-18584","Derrick-White-37858","50000","278.61"
"Russell-Westbrook-1083","DeMar-DeRozan-1053","Jerami-Grant-18576","Nikola-Mirotic-18584","Steven-Adams-16848","Justise-Winslow-18921","Dewayne-Dedmon-16894","Derrick-White-37858","50000","278.58"
"Trae-Young-409063","Tim-Frazier-18743","Jerami-Grant-18576","Nikola-Mirotic-18584","Clint-Capela-18610","Russell-Westbrook-1083","Taurean-Prince-35218","Derrick-White-37858","50000","278.58"
"Tim-Frazier-18743","Kevin-Huerter-408969","DeMar-DeRozan-1053","Jerami-Grant-18576","Hassan-Whiteside-18664","Russell-Westbrook-1083","Nikola-Mirotic-18584","Derrick-White-37858","50000","278.57"
"Tim-Frazier-18743","DeMar-DeRozan-1053","Jerami-Grant-18576","Nikola-Mirotic-18584","John-Collins-37823","Russell-Westbrook-1083","Dewayne-Dedmon-16894","Rodney-McGruder-16850","50000","278.39"
"Wayne-Ellington-1009","Kevin-Huerter-408969","DeMar-DeRozan-1053","Nikola-Mirotic-18584","Clint-Capela-18610","Russell-Westbrook-1083","Dewayne-Dedmon-16894","Derrick-White-37858","50000","278.32"
"Trae-Young-409063","DeMar-DeRozan-1053","Justise-Winslow-18921","Nikola-Mirotic-18584","Dewayne-Dedmon-16894","Russell-Westbrook-1083","Taurean-Prince-35218","Derrick-White-37858","50000","278.27"
"Dennis-Schroder-18595","Tim-Frazier-18743","Jerami-Grant-18576","Nikola-Mirotic-18584","Clint-Capela-18610","Russell-Westbrook-1083","Dewayne-Dedmon-16894","Taurean-Prince-35218","49900","278.27"
"Tim-Frazier-18743","DeMar-DeRozan-1053","Jerami-Grant-18576","Nikola-Mirotic-18584","Steven-Adams-16848","Russell-Westbrook-1083","Dewayne-Dedmon-16894","Derrick-White-37858","49800","278.26"
"Russell-Westbrook-1083","Alex-Abrines-36054","DeMar-DeRozan-1053","Nikola-Mirotic-18584","Dewayne-Dedmon-16894","Derrick-White-37858","Taurean-Prince-35218","Clint-Capela-18610","50000","278.23"
"Dennis-Schroder-18595","Dwyane-Wade-967","DeMar-DeRozan-1053","Nikola-Mirotic-18584","Dewayne-Dedmon-16894","Russell-Westbrook-1083","Taurean-Prince-35218","Derrick-White-37858","50000","278.21"
"Russell-Westbrook-1083","Dennis-Schroder-18595","Jerami-Grant-18576","Nikola-Mirotic-18584","Clint-Capela-18610","Derrick-White-37858","Rodney-McGruder-16850","Taurean-Prince-35218","49900","278.2"
"Dennis-Schroder-18595","Wayne-Ellington-1009","DeMar-DeRozan-1053","Nikola-Mirotic-18584","John-Collins-37823","Russell-Westbrook-1083","Dewayne-Dedmon-16894","Derrick-White-37858","50000","278.17"
"Russell-Westbrook-1083","Kevin-Huerter-408969","DeMar-DeRozan-1053","Jerami-Grant-18576","Hassan-Whiteside-18664","Derrick-White-37858","Nikola-Mirotic-18584","Dewayne-Dedmon-16894","49800","278.17"
"Russell-Westbrook-1083","Wayne-Ellington-1009","DeMar-DeRozan-1053","Nikola-Mirotic-18584","Clint-Capela-18610","Derrick-White-37858","Alex-Abrines-36054","Jerami-Grant-18576","50000","278.1"
"Dennis-Schroder-18595","Wayne-Ellington-1009","Jerami-Grant-18576","Nikola-Mirotic-18584","Clint-Capela-18610","Russell-Westbrook-1083","Dewayne-Dedmon-16894","Rodney-McGruder-16850","50000","278.07"
"Russell-Westbrook-1083","Kent-Bazemore-13987","DeMar-DeRozan-1053","Nikola-Mirotic-18584","Dewayne-Dedmon-16894","Rodney-McGruder-16850","Taurean-Prince-35218","Jerami-Grant-18576","49900","278.05"
"Tim-Frazier-18743","DeMar-DeRozan-1053","Nikola-Mirotic-18584","Dewayne-Dedmon-16894","John-Collins-37823","Wayne-Ellington-1009","Taurean-Prince-35218","Russell-Westbrook-1083","50000","277.99"
"Trae-Young-409063","Tim-Frazier-18743","DeMar-DeRozan-1053","Nikola-Mirotic-18584","Dewayne-Dedmon-16894","Russell-Westbrook-1083","Taurean-Prince-35218","Derrick-White-37858","49800","277.95"
"Wayne-Ellington-1009","DeMar-DeRozan-1053","Rodney-McGruder-16850","Nikola-Mirotic-18584","John-Collins-37823","Russell-Westbrook-1083","Taurean-Prince-35218","Derrick-White-37858","50000","277.92"
"Dennis-Schroder-18595","Tim-Frazier-18743","Jerami-Grant-18576","Nikola-Mirotic-18584","Hassan-Whiteside-18664","Wayne-Ellington-1009","Taurean-Prince-35218","Russell-Westbrook-1083","50000","277.92"
"Dennis-Schroder-18595","Kevin-Huerter-408969","DeMar-DeRozan-1053","Nikola-Mirotic-18584","John-Collins-37823","Russell-Westbrook-1083","Taurean-Prince-35218","Derrick-White-37858","50000","277.92"
"Tim-Frazier-18743","DeMar-DeRozan-1053","Jerami-Grant-18576","Nikola-Mirotic-18584","Steven-Adams-16848","Kevin-Huerter-408969","Dewayne-Dedmon-16894","Russell-Westbrook-1083","49900","277.88"
"Trae-Young-409063","Dennis-Schroder-18595","Nikola-Mirotic-18584","Dewayne-Dedmon-16894","Steven-Adams-16848","Russell-Westbrook-1083","Taurean-Prince-35218","Derrick-White-37858","50000","277.85"
"Dennis-Schroder-18595","Tim-Frazier-18743","DeMar-DeRozan-1053","Nikola-Mirotic-18584","Dewayne-Dedmon-16894","Wayne-Ellington-1009","Rodney-McGruder-16850","Russell-Westbrook-1083","50000","277.84"
"Trae-Young-409063","Wayne-Ellington-1009","Jerami-Grant-18576","Nikola-Mirotic-18584","Hassan-Whiteside-18664","Russell-Westbrook-1083","Taurean-Prince-35218","Derrick-White-37858","49900","277.83"
"Dennis-Schroder-18595","Wayne-Ellington-1009","DeMar-DeRozan-1053","Jerami-Grant-18576","Dewayne-Dedmon-16894","Russell-Westbrook-1083","Justise-Winslow-18921","Nikola-Mirotic-18584","49900","277.83"
"Dennis-Schroder-18595","Kevin-Huerter-408969","Jerami-Grant-18576","Nikola-Mirotic-18584","Clint-Capela-18610","Russell-Westbrook-1083","Rodney-McGruder-16850","Taurean-Prince-35218","50000","277.82"
"Russell-Westbrook-1083","DeMar-DeRozan-1053","Jerami-Grant-18576","Nikola-Mirotic-18584","Steven-Adams-16848","Kevin-Huerter-408969","Rodney-McGruder-16850","Derrick-White-37858","49900","277.81"
"Trae-Young-409063","Kevin-Huerter-408969","Jerami-Grant-18576","Nikola-Mirotic-18584","Clint-Capela-18610","Russell-Westbrook-1083","Dewayne-Dedmon-16894","Taurean-Prince-35218","49900","277.8"
"Tim-Frazier-18743","DeMar-DeRozan-1053","Jerami-Grant-18576","Nikola-Mirotic-18584","John-Collins-37823","Kent-Bazemore-13987","Dewayne-Dedmon-16894","Russell-Westbrook-1083","50000","277.76"
"Russell-Westbrook-1083","Kevin-Huerter-408969","DeMar-DeRozan-1053","Dewayne-Dedmon-16894","Clint-Capela-18610","Derrick-White-37858","Justise-Winslow-18921","Nikola-Mirotic-18584","50000","277.75"
"Trae-Young-409063","Wayne-Ellington-1009","DeMar-DeRozan-1053","Nikola-Mirotic-18584","Dewayne-Dedmon-16894","Russell-Westbrook-1083","Rodney-McGruder-16850","Derrick-White-37858","49900","277.75"
"Trae-Young-409063","Dwyane-Wade-967","Jerami-Grant-18576","Nikola-Mirotic-18584","Clint-Capela-18610","Russell-Westbrook-1083","Dewayne-Dedmon-16894","Derrick-White-37858","50000","277.73"
"Russell-Westbrook-1083","Kent-Bazemore-13987","DeMar-DeRozan-1053","Jerami-Grant-18576","John-Collins-37823","Derrick-White-37858","Nikola-Mirotic-18584","Rodney-McGruder-16850","50000","277.69"
"Trae-Young-409063","Dennis-Schroder-18595","Jerami-Grant-18576","Dewayne-Dedmon-16894","John-Collins-37823","Russell-Westbrook-1083","Taurean-Prince-35218","Nikola-Mirotic-18584","49900","277.65"
"Russell-Westbrook-1083","Dennis-Schroder-18595","DeMar-DeRozan-1053","Nikola-Mirotic-18584","Dewayne-Dedmon-16894","Derrick-White-37858","Justise-Winslow-18921","John-Collins-37823","50000","277.6"
"Russell-Westbrook-1083","Wayne-Ellington-1009","DeMar-DeRozan-1053","Jerami-Grant-18576","John-Collins-37823","Derrick-White-37858","Nikola-Mirotic-18584","Taurean-Prince-35218","49700","277.59"
"Russell-Westbrook-1083","DeMar-DeRozan-1053","Jerami-Grant-18576","Nikola-Mirotic-18584","Steven-Adams-16848","Alex-Abrines-36054","Dewayne-Dedmon-16894","Rodney-McGruder-16850","50000","277.59"
"Russell-Westbrook-1083","Tim-Frazier-18743","Jerami-Grant-18576","Nikola-Mirotic-18584","Steven-Adams-16848","Derrick-White-37858","Rodney-McGruder-16850","Hassan-Whiteside-18664","50000","277.58"
"Russell-Westbrook-1083","Dennis-Schroder-18595","Kent-Bazemore-13987","Jerami-Grant-18576","Clint-Capela-18610","Derrick-White-37858","Nikola-Mirotic-18584","Taurean-Prince-35218","49900","277.57"
"Tim-Frazier-18743","Kevin-Huerter-408969","DeMar-DeRozan-1053","Nikola-Mirotic-18584","Dewayne-Dedmon-16894","Trae-Young-409063","Taurean-Prince-35218","Russell-Westbrook-1083","49900","277.57"
"Dennis-Schroder-18595","Rodney-McGruder-16850","DeMar-DeRozan-1053","Nikola-Mirotic-18584","Dewayne-Dedmon-16894","Russell-Westbrook-1083","Taurean-Prince-35218","Derrick-White-37858","49700","277.57"
"Tim-Frazier-18743","Wayne-Ellington-1009","Jerami-Grant-18576","Nikola-Mirotic-18584","Steven-Adams-16848","Trae-Young-409063","Taurean-Prince-35218","Russell-Westbrook-1083","50000","277.54"
"Russell-Westbrook-1083","DeMar-DeRozan-1053","Alex-Abrines-36054","Jerami-Grant-18576","Clint-Capela-18610","Derrick-White-37858","Justise-Winslow-18921","Nikola-Mirotic-18584","50000","277.53"
"Russell-Westbrook-1083","Tim-Frazier-18743","Nikola-Mirotic-18584","Dewayne-Dedmon-16894","Clint-Capela-18610","Derrick-White-37858","Taurean-Prince-35218","Steven-Adams-16848","49900","277.53"
"Dennis-Schroder-18595","Wayne-Ellington-1009","Jerami-Grant-18576","Dewayne-Dedmon-16894","Hassan-Whiteside-18664","Russell-Westbrook-1083","Taurean-Prince-35218","Nikola-Mirotic-18584","49800","277.52"
"Dennis-Schroder-18595","Tim-Frazier-18743","DeMar-DeRozan-1053","Jerami-Grant-18576","Dewayne-Dedmon-16894","Wayne-Ellington-1009","Nikola-Mirotic-18584","Russell-Westbrook-1083","49700","277.51"
"Russell-Westbrook-1083","Dennis-Schroder-18595","Jerami-Grant-18576","Nikola-Mirotic-18584","John-Collins-37823","Derrick-White-37858","Dewayne-Dedmon-16894","Clint-Capela-18610","49800","277.51"
"Dennis-Schroder-18595","Rodney-McGruder-16850","Jerami-Grant-18576","Nikola-Mirotic-18584","Clint-Capela-18610","Justise-Winslow-18921","Dewayne-Dedmon-16894","Russell-Westbrook-1083","50000","277.5"
"Wayne-Ellington-1009","Dwyane-Wade-967","DeMar-DeRozan-1053","Nikola-Mirotic-18584","Dewayne-Dedmon-16894","Russell-Westbrook-1083","Taurean-Prince-35218","Jerami-Grant-18576","49800","277.5"
"Trae-Young-409063","Tim-Frazier-18743","Jerami-Grant-18576","Nikola-Mirotic-18584","Clint-Capela-18610","Russell-Westbrook-1083","Rodney-McGruder-16850","Derrick-White-37858","49900","277.49"
"Trae-Young-409063","Wayne-Ellington-1009","Jerami-Grant-18576","Nikola-Mirotic-18584","Hassan-Whiteside-18664","Kevin-Huerter-408969","Taurean-Prince-35218","Russell-Westbrook-1083","50000","277.45"
"Dennis-Schroder-18595","Kent-Bazemore-13987","Jerami-Grant-18576","Nikola-Mirotic-18584","Clint-Capela-18610","Wayne-Ellington-1009","Dewayne-Dedmon-16894","Russell-Westbrook-1083","50000","277.44"
"Russell-Westbrook-1083","Kevin-Huerter-408969","Nikola-Mirotic-18584","Dewayne-Dedmon-16894","Clint-Capela-18610","Derrick-White-37858","Taurean-Prince-35218","Hassan-Whiteside-18664","49900","277.44"
"Tim-Frazier-18743","Kevin-Huerter-408969","DeMar-DeRozan-1053","Nikola-Mirotic-18584","Clint-Capela-18610","Russell-Westbrook-1083","Dewayne-Dedmon-16894","Derrick-White-37858","49800","277.43"
"Trae-Young-409063","Wayne-Ellington-1009","DeMar-DeRozan-1053","Jerami-Grant-18576","Dewayne-Dedmon-16894","Russell-Westbrook-1083","Nikola-Mirotic-18584","Derrick-White-37858","49600","277.42"
"Tim-Frazier-18743","DeMar-DeRozan-1053","Nikola-Mirotic-18584","Dewayne-Dedmon-16894","John-Collins-37823","Justise-Winslow-18921","Taurean-Prince-35218","Russell-Westbrook-1083","50000","277.42"
"Wayne-Ellington-1009","Kevin-Huerter-408969","DeMar-DeRozan-1053","Nikola-Mirotic-18584","Steven-Adams-16848","Russell-Westbrook-1083","Taurean-Prince-35218","Derrick-White-37858","49900","277.41"
"Trae-Young-409063","Wayne-Ellington-1009","DeMar-DeRozan-1053","Nikola-Mirotic-18584","Dewayne-Dedmon-16894","Kevin-Huerter-408969","Rodney-McGruder-16850","Russell-Westbrook-1083","50000","277.37"
"Russell-Westbrook-1083","Tim-Frazier-18743","DeMar-DeRozan-1053","Jerami-Grant-18576","Dewayne-Dedmon-16894","Derrick-White-37858","Nikola-Mirotic-18584","Julius-Randle-18632","49900","277.35"
"Dennis-Schroder-18595","Tim-Frazier-18743","Justise-Winslow-18921","Nikola-Mirotic-18584","Hassan-Whiteside-18664","Russell-Westbrook-1083","Taurean-Prince-35218","Jerami-Grant-18576","50000","277.35"
"Russell-Westbrook-1083","DeMar-DeRozan-1053","Rodney-McGruder-16850","Nikola-Mirotic-18584","John-Collins-37823","Justise-Winslow-18921","Taurean-Prince-35218","Derrick-White-37858","50000","277.35"
"Russell-Westbrook-1083","Wayne-Ellington-1009","Nikola-Mirotic-18584","Dewayne-Dedmon-16894","Steven-Adams-16848","Derrick-White-37858","Rodney-McGruder-16850","Clint-Capela-18610","50000","277.33"
"Tim-Frazier-18743","Wayne-Ellington-1009","DeMar-DeRozan-1053","Jerami-Grant-18576","John-Collins-37823","Justise-Winslow-18921","Nikola-Mirotic-18584","Russell-Westbrook-1083","50000","277.29"
"Wayne-Ellington-1009","DeMar-DeRozan-1053","Kent-Bazemore-13987","Nikola-Mirotic-18584","John-Collins-37823","Russell-Westbrook-1083","Taurean-Prince-35218","Derrick-White-37858","50000","277.29"
"Russell-Westbrook-1083","Dennis-Schroder-18595","Nikola-Mirotic-18584","Dewayne-Dedmon-16894","John-Collins-37823","Derrick-White-37858","Taurean-Prince-35218","Hassan-Whiteside-18664","49900","277.29"
"Dennis-Schroder-18595","Tim-Frazier-18743","DeMar-DeRozan-1053","Nikola-Mirotic-18584","John-Collins-37823","Russell-Westbrook-1083","Dewayne-Dedmon-16894","Derrick-White-37858","49800","277.28"
"Trae-Young-409063","Alex-Abrines-36054","DeMar-DeRozan-1053","Nikola-Mirotic-18584","Dewayne-Dedmon-16894","Russell-Westbrook-1083","Taurean-Prince-35218","Rodney-McGruder-16850","50000","277.28"
"Trae-Young-409063","Tim-Frazier-18743","Rodney-McGruder-16850","Nikola-Mirotic-18584","Hassan-Whiteside-18664","Russell-Westbrook-1083","Taurean-Prince-35218","Derrick-White-37858","50000","277.27"
"Dwyane-Wade-967","DeMar-DeRozan-1053","Nikola-Mirotic-18584","Dewayne-Dedmon-16894","John-Collins-37823","Russell-Westbrook-1083","Taurean-Prince-35218","Derrick-White-37858","49900","277.27"
"Dennis-Schroder-18595","Tim-Frazier-18743","DeMar-DeRozan-1053","Nikola-Mirotic-18584","Dewayne-Dedmon-16894","Russell-Westbrook-1083","Justise-Winslow-18921","Rodney-McGruder-16850","50000","277.27"
"Russell-Westbrook-1083","Rodney-McGruder-16850","Jerami-Grant-18576","Nikola-Mirotic-18584","John-Collins-37823","Derrick-White-37858","Taurean-Prince-35218","Clint-Capela-18610","49800","277.26"
"Russell-Westbrook-1083","Dennis-Schroder-18595","DeMar-DeRozan-1053","Nikola-Mirotic-18584","Dewayne-Dedmon-16894","Derrick-White-37858","Taurean-Prince-35218","Jerami-Grant-18576","49400","277.24"
"Russell-Westbrook-1083","Alex-Abrines-36054","Jerami-Grant-18576","Nikola-Mirotic-18584","Clint-Capela-18610","Derrick-White-37858","Taurean-Prince-35218","Hassan-Whiteside-18664","49900","277.22"
"Dennis-Schroder-18595","Tim-Frazier-18743","DeMar-DeRozan-1053","Nikola-Mirotic-18584","Dewayne-Dedmon-16894","Wayne-Ellington-1009","Kent-Bazemore-13987","Russell-Westbrook-1083","50000","277.21"
"Russell-Westbrook-1083","Tim-Frazier-18743","DeMar-DeRozan-1053","Nikola-Mirotic-18584","Clint-Capela-18610","Derrick-White-37858","Alex-Abrines-36054","Jerami-Grant-18576","49800","277.21"
"Wayne-Ellington-1009","Kevin-Huerter-408969","DeMar-DeRozan-1053","Jerami-Grant-18576","John-Collins-37823","Russell-Westbrook-1083","Nikola-Mirotic-18584","Taurean-Prince-35218","49800","277.21"
"Dennis-Schroder-18595","Dwyane-Wade-967","Jerami-Grant-18576","Nikola-Mirotic-18584","Hassan-Whiteside-18664","Russell-Westbrook-1083","Taurean-Prince-35218","Derrick-White-37858","49900","277.2"
"Wayne-Ellington-1009","Alex-Abrines-36054","DeMar-DeRozan-1053","Nikola-Mirotic-18584","Steven-Adams-16848","Russell-Westbrook-1083","Taurean-Prince-35218","Dewayne-Dedmon-16894","50000","277.19"
"Wayne-Ellington-1009","Kent-Bazemore-13987","Jerami-Grant-18576","Nikola-Mirotic-18584","Clint-Capela-18610","Russell-Westbrook-1083","Rodney-McGruder-16850","Taurean-Prince-35218","50000","277.19"
"Dennis-Schroder-18595","Kevin-Huerter-408969","Kent-Bazemore-13987","Jerami-Grant-18576","Clint-Capela-18610","Russell-Westbrook-1083","Nikola-Mirotic-18584","Taurean-Prince-35218","50000","277.19"
"Dennis-Schroder-18595","Kevin-Huerter-408969","DeMar-DeRozan-1053","Nikola-Mirotic-18584","Dewayne-Dedmon-16894","Russell-Westbrook-1083","Taurean-Prince-35218","Rodney-McGruder-16850","49800","277.19"
"Trae-Young-409063","Rodney-McGruder-16850","DeMar-DeRozan-1053","Nikola-Mirotic-18584","Dewayne-Dedmon-16894","Russell-Westbrook-1083","Justise-Winslow-18921","Derrick-White-37858","49900","277.18"
"Dennis-Schroder-18595","Tim-Frazier-18743","Jerami-Grant-18576","Nikola-Mirotic-18584","Clint-Capela-18610","Russell-Westbrook-1083","Dewayne-Dedmon-16894","Rodney-McGruder-16850","49800","277.18"
"Russell-Westbrook-1083","DeMar-DeRozan-1053","Kent-Bazemore-13987","Jerami-Grant-18576","Steven-Adams-16848","Kevin-Huerter-408969","Nikola-Mirotic-18584","Derrick-White-37858","49900","277.18"
"Russell-Westbrook-1083","Rodney-McGruder-16850","Jerami-Grant-18576","Nikola-Mirotic-18584","Steven-Adams-16848","Derrick-White-37858","Dewayne-Dedmon-16894","Hassan-Whiteside-18664","49800","277.18"
"Dwyane-Wade-967","Rodney-McGruder-16850","Jerami-Grant-18576","Nikola-Mirotic-18584","Clint-Capela-18610","Russell-Westbrook-1083","Dewayne-Dedmon-16894","Taurean-Prince-35218","49900","277.17"
"Dennis-Schroder-18595","Wayne-Ellington-1009","Rodney-McGruder-16850","Nikola-Mirotic-18584","Steven-Adams-16848","Russell-Westbrook-1083","Taurean-Prince-35218","Jerami-Grant-18576","49900","277.16"
"Tim-Frazier-18743","Kevin-Huerter-408969","Nikola-Mirotic-18584","Dewayne-Dedmon-16894","Clint-Capela-18610","Russell-Westbrook-1083","Taurean-Prince-35218","Steven-Adams-16848","50000","277.15"
"Trae-Young-409063","Dennis-Schroder-18595","Jerami-Grant-18576","Nikola-Mirotic-18584","Steven-Adams-16848","Russell-Westbrook-1083","Justise-Winslow-18921","Derrick-White-37858","50000","277.15"
"Wayne-Ellington-1009","Kevin-Huerter-408969","Jerami-Grant-18576","Anthony-Davis-13895","Dewayne-Dedmon-16894","Russell-Westbrook-1083","Nikola-Mirotic-18584","Derrick-White-37858","50000","277.15"
"Russell-Westbrook-1083","Rodney-McGruder-16850","DeMar-DeRozan-1053","Dewayne-Dedmon-16894","Clint-Capela-18610","Derrick-White-37858","Alex-Abrines-36054","Nikola-Mirotic-18584","49900","277.14"
"Trae-Young-409063","Wayne-Ellington-1009","Jerami-Grant-18576","Nikola-Mirotic-18584","Steven-Adams-16848","Russell-Westbrook-1083","Dewayne-Dedmon-16894","Taurean-Prince-35218","49800","277.14"
"Wayne-Ellington-1009","Dwyane-Wade-967","DeMar-DeRozan-1053","Jerami-Grant-18576","John-Collins-37823","Russell-Westbrook-1083","Nikola-Mirotic-18584","Derrick-White-37858","49900","277.14"
"Wayne-Ellington-1009","Rodney-McGruder-16850","Jerami-Grant-18576","Nikola-Mirotic-18584","John-Collins-37823","Russell-Westbrook-1083","Dewayne-Dedmon-16894","Clint-Capela-18610","49900","277.13"
