"Kyle-Lowry-1057","Buddy-Hield-35206","Kevin-Durant-1348","Serge-Ibaka-1294","Boban-Marjanovic-31807","Tyreke-Evans-1070","Marvin-Bagley-III-409321","Willie-Cauley-Stein-18951","49900","281.51"

"Kyle-Lowry-1057","Buddy-Hield-35206","Kevin-Durant-1348","Serge-Ibaka-1294","Boban-Marjanovic-31807","Tyreke-Evans-1070","Marvin-Bagley-III-409321","Willie-Cauley-Stein-18951","49900","281.51"
"Quinn-Cook-31771","Buddy-Hield-35206","Kevin-Durant-1348","Serge-Ibaka-1294","Boban-Marjanovic-31807","Kyle-Lowry-1057","Marvin-Bagley-III-409321","Willie-Cauley-Stein-18951","49700","279.55"
"Kyle-Lowry-1057","Buddy-Hield-35206","Kevin-Durant-1348","Serge-Ibaka-1294","Boban-Marjanovic-31807","Darren-Collison-1060","Marvin-Bagley-III-409321","Willie-Cauley-Stein-18951","49600","279.11"
"Kyle-Lowry-1057","Tyreke-Evans-1070","Kevin-Durant-1348","Serge-Ibaka-1294","Boban-Marjanovic-31807","Brandon-Ingram-35227","Marvin-Bagley-III-409321","Willie-Cauley-Stein-18951","50000","279.06"
"Kyle-Lowry-1057","Buddy-Hield-35206","Kevin-Durant-1348","Kyle-Kuzma-37886","Willie-Cauley-Stein-18951","Tyreke-Evans-1070","Marvin-Bagley-III-409321","Boban-Marjanovic-31807","50000","278.94"
"Darren-Collison-1060","Buddy-Hield-35206","Kevin-Durant-1348","Serge-Ibaka-1294","Boban-Marjanovic-31807","Tyreke-Evans-1070","Marvin-Bagley-III-409321","Kawhi-Leonard-13310","50000","278.43"
"De'Aaron-Fox-37900","Buddy-Hield-35206","Kevin-Durant-1348","Serge-Ibaka-1294","Boban-Marjanovic-31807","Brandon-Ingram-35227","Marvin-Bagley-III-409321","Willie-Cauley-Stein-18951","49900","278.33"
"Shai-Gilgeous-Alexander-408990","Buddy-Hield-35206","Kevin-Durant-1348","Serge-Ibaka-1294","Boban-Marjanovic-31807","Kyle-Lowry-1057","Marvin-Bagley-III-409321","Willie-Cauley-Stein-18951","49800","278.1"
"Quinn-Cook-31771","Buddy-Hield-35206","Kevin-Durant-1348","Marvin-Bagley-III-409321","Willie-Cauley-Stein-18951","Kyle-Lowry-1057","Brandon-Ingram-35227","Boban-Marjanovic-31807","50000","278.02"
"Kyle-Lowry-1057","Buddy-Hield-35206","Kevin-Durant-1348","Marvin-Bagley-III-409321","Willie-Cauley-Stein-18951","Lou-Williams-1044","Tyreke-Evans-1070","Boban-Marjanovic-31807","50000","277.9"
"Kyle-Lowry-1057","Iman-Shumpert-13350","Kevin-Durant-1348","Serge-Ibaka-1294","Boban-Marjanovic-31807","De'Aaron-Fox-37900","Marvin-Bagley-III-409321","Willie-Cauley-Stein-18951","50000","277.86"
"Quinn-Cook-31771","Buddy-Hield-35206","Kevin-Durant-1348","Serge-Ibaka-1294","Boban-Marjanovic-31807","Kyle-Lowry-1057","Kyle-Kuzma-37886","Willie-Cauley-Stein-18951","50000","277.65"
"Kyle-Lowry-1057","Iman-Shumpert-13350","Kevin-Durant-1348","Montrezl-Harrell-18930","Willie-Cauley-Stein-18951","Tyreke-Evans-1070","Marvin-Bagley-III-409321","Boban-Marjanovic-31807","49900","277.6"
"Kyle-Lowry-1057","Buddy-Hield-35206","Kevin-Durant-1348","Serge-Ibaka-1294","Boban-Marjanovic-31807","Brandon-Ingram-35227","Tyreke-Evans-1070","Marvin-Bagley-III-409321","49800","277.6"
"Kyle-Lowry-1057","Buddy-Hield-35206","Kevin-Durant-1348","Marvin-Bagley-III-409321","Willie-Cauley-Stein-18951","Darren-Collison-1060","Brandon-Ingram-35227","Boban-Marjanovic-31807","49900","277.58"
"De'Aaron-Fox-37900","Buddy-Hield-35206","Kevin-Durant-1348","Montrezl-Harrell-18930","Willie-Cauley-Stein-18951","Iman-Shumpert-13350","Serge-Ibaka-1294","Boban-Marjanovic-31807","50000","277.54"
"Lonzo-Ball-37885","Buddy-Hield-35206","Kevin-Durant-1348","Serge-Ibaka-1294","Boban-Marjanovic-31807","Klay-Thompson-13315","Marvin-Bagley-III-409321","Willie-Cauley-Stein-18951","50000","277.54"
"Kyle-Lowry-1057","Buddy-Hield-35206","Kevin-Durant-1348","Serge-Ibaka-1294","Boban-Marjanovic-31807","Bogdan-Bogdanovic-37899","Tyreke-Evans-1070","Willie-Cauley-Stein-18951","49800","277.41"
"Kyle-Lowry-1057","Tyreke-Evans-1070","Kevin-Durant-1348","Serge-Ibaka-1294","Boban-Marjanovic-31807","Lonzo-Ball-37885","Marvin-Bagley-III-409321","Willie-Cauley-Stein-18951","49900","277.37"
"Kyle-Lowry-1057","Buddy-Hield-35206","Kevin-Durant-1348","Serge-Ibaka-1294","Boban-Marjanovic-31807","Klay-Thompson-13315","Marvin-Bagley-III-409321","Iman-Shumpert-13350","50000","277.3"
"Kyle-Lowry-1057","Buddy-Hield-35206","Kevin-Durant-1348","Serge-Ibaka-1294","Boban-Marjanovic-31807","Darren-Collison-1060","Kyle-Kuzma-37886","Willie-Cauley-Stein-18951","49900","277.21"
"Lou-Williams-1044","Buddy-Hield-35206","Kevin-Durant-1348","Serge-Ibaka-1294","Boban-Marjanovic-31807","Klay-Thompson-13315","Marvin-Bagley-III-409321","Willie-Cauley-Stein-18951","49900","277.15"
"Quinn-Cook-31771","Brandon-Ingram-35227","Kevin-Durant-1348","Serge-Ibaka-1294","Boban-Marjanovic-31807","Kyle-Lowry-1057","Marvin-Bagley-III-409321","Willie-Cauley-Stein-18951","49800","277.1"
"Quinn-Cook-31771","Buddy-Hield-35206","Kevin-Durant-1348","Serge-Ibaka-1294","Boban-Marjanovic-31807","Kyle-Lowry-1057","Tyreke-Evans-1070","Willie-Cauley-Stein-18951","49400","277.1"
"Lonzo-Ball-37885","Buddy-Hield-35206","Kevin-Durant-1348","Montrezl-Harrell-18930","Willie-Cauley-Stein-18951","Tyreke-Evans-1070","Serge-Ibaka-1294","Boban-Marjanovic-31807","49900","277.05"
"Kyle-Lowry-1057","Lou-Williams-1044","Kevin-Durant-1348","Serge-Ibaka-1294","Boban-Marjanovic-31807","Tyreke-Evans-1070","Marvin-Bagley-III-409321","Willie-Cauley-Stein-18951","49800","276.98"
"Quinn-Cook-31771","Buddy-Hield-35206","Kevin-Durant-1348","Kyle-Kuzma-37886","Willie-Cauley-Stein-18951","Kyle-Lowry-1057","Marvin-Bagley-III-409321","Boban-Marjanovic-31807","49800","276.98"
"Kyle-Lowry-1057","Buddy-Hield-35206","Kawhi-Leonard-13310","Montrezl-Harrell-18930","Boban-Marjanovic-31807","Tyreke-Evans-1070","Marvin-Bagley-III-409321","Serge-Ibaka-1294","49900","276.9"
"Darren-Collison-1060","Tyreke-Evans-1070","Buddy-Hield-35206","Kevin-Durant-1348","Boban-Marjanovic-31807","De'Aaron-Fox-37900","Montrezl-Harrell-18930","Marvin-Bagley-III-409321","50000","276.9"
"Darren-Collison-1060","Tyreke-Evans-1070","Kevin-Durant-1348","Serge-Ibaka-1294","Boban-Marjanovic-31807","Klay-Thompson-13315","Marvin-Bagley-III-409321","Montrezl-Harrell-18930","50000","276.88"
"Kyle-Lowry-1057","Buddy-Hield-35206","Kawhi-Leonard-13310","Montrezl-Harrell-18930","Boban-Marjanovic-31807","Darren-Collison-1060","Marvin-Bagley-III-409321","Willie-Cauley-Stein-18951","50000","276.88"
"De'Aaron-Fox-37900","Buddy-Hield-35206","Kevin-Durant-1348","Montrezl-Harrell-18930","Willie-Cauley-Stein-18951","Iman-Shumpert-13350","Marvin-Bagley-III-409321","Boban-Marjanovic-31807","49800","276.87"
"Kyle-Lowry-1057","Iman-Shumpert-13350","Buddy-Hield-35206","Kevin-Durant-1348","Boban-Marjanovic-31807","Tyreke-Evans-1070","Montrezl-Harrell-18930","Serge-Ibaka-1294","49900","276.81"
"Kyle-Lowry-1057","Buddy-Hield-35206","Kevin-Durant-1348","Marvin-Bagley-III-409321","Willie-Cauley-Stein-18951","Iman-Shumpert-13350","Tyreke-Evans-1070","Serge-Ibaka-1294","50000","276.79"
"Kyle-Lowry-1057","Iman-Shumpert-13350","Buddy-Hield-35206","Kevin-Durant-1348","Boban-Marjanovic-31807","Darren-Collison-1060","Montrezl-Harrell-18930","Willie-Cauley-Stein-18951","50000","276.79"
"Quinn-Cook-31771","Buddy-Hield-35206","Kevin-Durant-1348","Montrezl-Harrell-18930","Willie-Cauley-Stein-18951","Brandon-Ingram-35227","Serge-Ibaka-1294","Boban-Marjanovic-31807","49800","276.78"
"De'Aaron-Fox-37900","Buddy-Hield-35206","Kevin-Durant-1348","Serge-Ibaka-1294","Boban-Marjanovic-31807","Tyreke-Evans-1070","Marvin-Bagley-III-409321","Willie-Cauley-Stein-18951","49100","276.74"
"Kyle-Lowry-1057","Buddy-Hield-35206","Kevin-Durant-1348","Marvin-Bagley-III-409321","Willie-Cauley-Stein-18951","Bogdan-Bogdanovic-37899","Tyreke-Evans-1070","Boban-Marjanovic-31807","49600","276.74"
"De'Aaron-Fox-37900","Buddy-Hield-35206","Kevin-Durant-1348","Montrezl-Harrell-18930","Willie-Cauley-Stein-18951","Andre-Iguodala-1334","Marvin-Bagley-III-409321","Boban-Marjanovic-31807","50000","276.72"
"Kyle-Lowry-1057","Buddy-Hield-35206","Kevin-Durant-1348","Serge-Ibaka-1294","Boban-Marjanovic-31807","Darren-Collison-1060","Tyreke-Evans-1070","Willie-Cauley-Stein-18951","49300","276.66"
"Lou-Williams-1044","Buddy-Hield-35206","Kevin-Durant-1348","Montrezl-Harrell-18930","Willie-Cauley-Stein-18951","Tyreke-Evans-1070","Serge-Ibaka-1294","Boban-Marjanovic-31807","49800","276.66"
"Kyle-Lowry-1057","Brandon-Ingram-35227","Kevin-Durant-1348","Serge-Ibaka-1294","Boban-Marjanovic-31807","Darren-Collison-1060","Marvin-Bagley-III-409321","Willie-Cauley-Stein-18951","49700","276.66"
"Lonzo-Ball-37885","Buddy-Hield-35206","Kevin-Durant-1348","Serge-Ibaka-1294","Boban-Marjanovic-31807","De'Aaron-Fox-37900","Marvin-Bagley-III-409321","Willie-Cauley-Stein-18951","49800","276.64"
"Quinn-Cook-31771","Lou-Williams-1044","Buddy-Hield-35206","Kevin-Durant-1348","Boban-Marjanovic-31807","Kyle-Lowry-1057","Serge-Ibaka-1294","Willie-Cauley-Stein-18951","50000","276.61"
"Kyle-Lowry-1057","Buddy-Hield-35206","Kevin-Durant-1348","Serge-Ibaka-1294","Boban-Marjanovic-31807","Tyreke-Evans-1070","Marvin-Bagley-III-409321","Kyle-Kuzma-37886","49600","276.56"
"Kyle-Lowry-1057","Buddy-Hield-35206","Kevin-Durant-1348","Kyle-Kuzma-37886","Willie-Cauley-Stein-18951","Darren-Collison-1060","Marvin-Bagley-III-409321","Boban-Marjanovic-31807","49700","276.54"
"Quinn-Cook-31771","Buddy-Hield-35206","Kevin-Durant-1348","Serge-Ibaka-1294","Boban-Marjanovic-31807","Darren-Collison-1060","Marvin-Bagley-III-409321","Kawhi-Leonard-13310","49800","276.47"
"Quinn-Cook-31771","Buddy-Hield-35206","Kevin-Durant-1348","Marvin-Bagley-III-409321","Willie-Cauley-Stein-18951","Kyle-Lowry-1057","Tyreke-Evans-1070","Boban-Marjanovic-31807","49200","276.43"
"Kyle-Lowry-1057","Tyreke-Evans-1070","Buddy-Hield-35206","Marvin-Bagley-III-409321","Boban-Marjanovic-31807","De'Aaron-Fox-37900","Kawhi-Leonard-13310","Willie-Cauley-Stein-18951","49900","276.42"
"Quinn-Cook-31771","Tyreke-Evans-1070","Kevin-Durant-1348","Serge-Ibaka-1294","Boban-Marjanovic-31807","De'Aaron-Fox-37900","Marvin-Bagley-III-409321","Montrezl-Harrell-18930","49900","276.42"
"Quinn-Cook-31771","Buddy-Hield-35206","Kevin-Durant-1348","Kawhi-Leonard-13310","Willie-Cauley-Stein-18951","Darren-Collison-1060","Tyreke-Evans-1070","Boban-Marjanovic-31807","49900","276.4"
"Kyle-Lowry-1057","Tyreke-Evans-1070","Kawhi-Leonard-13310","Serge-Ibaka-1294","Willie-Cauley-Stein-18951","Klay-Thompson-13315","Marvin-Bagley-III-409321","Boban-Marjanovic-31807","49900","276.4"
"Kyle-Lowry-1057","Buddy-Hield-35206","Kevin-Durant-1348","Serge-Ibaka-1294","Boban-Marjanovic-31807","Iman-Shumpert-13350","Marvin-Bagley-III-409321","De'Aaron-Fox-37900","49800","276.4"
"Darren-Collison-1060","Klay-Thompson-13315","Kevin-Durant-1348","Marvin-Bagley-III-409321","Willie-Cauley-Stein-18951","De'Aaron-Fox-37900","Tyreke-Evans-1070","Boban-Marjanovic-31807","50000","276.4"
"Kyle-Lowry-1057","Kentavious-Caldwell-Pope-16869","Kevin-Durant-1348","Serge-Ibaka-1294","Boban-Marjanovic-31807","De'Aaron-Fox-37900","Marvin-Bagley-III-409321","Willie-Cauley-Stein-18951","50000","276.4"
"Lonzo-Ball-37885","Buddy-Hield-35206","Kevin-Durant-1348","Montrezl-Harrell-18930","Willie-Cauley-Stein-18951","Tyreke-Evans-1070","Marvin-Bagley-III-409321","Boban-Marjanovic-31807","49700","276.38"
"Darren-Collison-1060","Buddy-Hield-35206","Kevin-Durant-1348","Montrezl-Harrell-18930","Willie-Cauley-Stein-18951","Brandon-Ingram-35227","Serge-Ibaka-1294","Boban-Marjanovic-31807","49700","276.34"
"Kyle-Lowry-1057","Iman-Shumpert-13350","Buddy-Hield-35206","Kevin-Durant-1348","Boban-Marjanovic-31807","De'Aaron-Fox-37900","Tyreke-Evans-1070","Willie-Cauley-Stein-18951","49900","276.33"
"Quinn-Cook-31771","Iman-Shumpert-13350","Kevin-Durant-1348","Montrezl-Harrell-18930","Willie-Cauley-Stein-18951","Kyle-Lowry-1057","Serge-Ibaka-1294","Boban-Marjanovic-31807","49900","276.31"
"Kyle-Lowry-1057","Iman-Shumpert-13350","Kevin-Durant-1348","Serge-Ibaka-1294","Boban-Marjanovic-31807","Klay-Thompson-13315","Tyreke-Evans-1070","Willie-Cauley-Stein-18951","49900","276.31"
"Lou-Williams-1044","Buddy-Hield-35206","Kevin-Durant-1348","Serge-Ibaka-1294","Boban-Marjanovic-31807","De'Aaron-Fox-37900","Marvin-Bagley-III-409321","Willie-Cauley-Stein-18951","49700","276.25"
"Kyle-Lowry-1057","Buddy-Hield-35206","Kevin-Durant-1348","Marvin-Bagley-III-409321","Serge-Ibaka-1294","De'Aaron-Fox-37900","Andre-Iguodala-1334","Boban-Marjanovic-31807","50000","276.25"
"Kyle-Lowry-1057","Lou-Williams-1044","Buddy-Hield-35206","Kevin-Durant-1348","Boban-Marjanovic-31807","Darren-Collison-1060","Serge-Ibaka-1294","Willie-Cauley-Stein-18951","49900","276.17"
"Kyle-Lowry-1057","Iman-Shumpert-13350","Buddy-Hield-35206","Kevin-Durant-1348","Boban-Marjanovic-31807","Tyreke-Evans-1070","Montrezl-Harrell-18930","Marvin-Bagley-III-409321","49700","276.14"
"Kyle-Lowry-1057","Kentavious-Caldwell-Pope-16869","Kevin-Durant-1348","Montrezl-Harrell-18930","Willie-Cauley-Stein-18951","Tyreke-Evans-1070","Marvin-Bagley-III-409321","Boban-Marjanovic-31807","49900","276.14"
"Quinn-Cook-31771","Buddy-Hield-35206","Kevin-Durant-1348","Montrezl-Harrell-18930","Willie-Cauley-Stein-18951","Brandon-Ingram-35227","Marvin-Bagley-III-409321","Boban-Marjanovic-31807","49600","276.11"
"De'Aaron-Fox-37900","Buddy-Hield-35206","Kevin-Durant-1348","Montrezl-Harrell-18930","Willie-Cauley-Stein-18951","Kentavious-Caldwell-Pope-16869","Serge-Ibaka-1294","Boban-Marjanovic-31807","50000","276.08"
"Kyle-Lowry-1057","Buddy-Hield-35206","Kevin-Durant-1348","Marvin-Bagley-III-409321","Willie-Cauley-Stein-18951","Darren-Collison-1060","Tyreke-Evans-1070","Boban-Marjanovic-31807","49100","275.99"
"Kyle-Lowry-1057","Andre-Iguodala-1334","Buddy-Hield-35206","Kevin-Durant-1348","Boban-Marjanovic-31807","Tyreke-Evans-1070","Montrezl-Harrell-18930","Marvin-Bagley-III-409321","49900","275.99"
"Quinn-Cook-31771","Tyreke-Evans-1070","Kevin-Durant-1348","Danilo-Gallinari-1329","Boban-Marjanovic-31807","Kyle-Lowry-1057","Marvin-Bagley-III-409321","Willie-Cauley-Stein-18951","50000","275.99"
"Lou-Williams-1044","Buddy-Hield-35206","Kevin-Durant-1348","Montrezl-Harrell-18930","Willie-Cauley-Stein-18951","Tyreke-Evans-1070","Marvin-Bagley-III-409321","Boban-Marjanovic-31807","49600","275.99"
"Darren-Collison-1060","Tyreke-Evans-1070","Kevin-Durant-1348","Serge-Ibaka-1294","Boban-Marjanovic-31807","De'Aaron-Fox-37900","Marvin-Bagley-III-409321","Montrezl-Harrell-18930","49800","275.98"
"Kyle-Lowry-1057","Buddy-Hield-35206","Bogdan-Bogdanovic-37899","Kevin-Durant-1348","Serge-Ibaka-1294","Brandon-Ingram-35227","Marvin-Bagley-III-409321","Boban-Marjanovic-31807","50000","275.95"
"Kyle-Lowry-1057","Buddy-Hield-35206","Kevin-Durant-1348","Serge-Ibaka-1294","Boban-Marjanovic-31807","Bojan-Bogdanovic-18571","Tyreke-Evans-1070","Willie-Cauley-Stein-18951","49900","275.95"
"Quinn-Cook-31771","Lou-Williams-1044","Buddy-Hield-35206","Kevin-Durant-1348","Willie-Cauley-Stein-18951","Kyle-Lowry-1057","Marvin-Bagley-III-409321","Boban-Marjanovic-31807","49800","275.94"
"Kyle-Lowry-1057","Buddy-Hield-35206","Kevin-Durant-1348","Serge-Ibaka-1294","Boban-Marjanovic-31807","Lonzo-Ball-37885","Tyreke-Evans-1070","Marvin-Bagley-III-409321","49700","275.91"
"De'Aaron-Fox-37900","Buddy-Hield-35206","Kevin-Durant-1348","Serge-Ibaka-1294","Boban-Marjanovic-31807","Brandon-Ingram-35227","Tyreke-Evans-1070","Willie-Cauley-Stein-18951","49600","275.88"
"Kyle-Lowry-1057","Iman-Shumpert-13350","Kevin-Durant-1348","Montrezl-Harrell-18930","Willie-Cauley-Stein-18951","Darren-Collison-1060","Serge-Ibaka-1294","Boban-Marjanovic-31807","49800","275.87"
"Kyle-Lowry-1057","Buddy-Hield-35206","Kevin-Durant-1348","Serge-Ibaka-1294","Boban-Marjanovic-31807","Klay-Thompson-13315","Marvin-Bagley-III-409321","Kentavious-Caldwell-Pope-16869","50000","275.84"
"Kyle-Lowry-1057","Buddy-Hield-35206","LeBron-James-1227","Serge-Ibaka-1294","Boban-Marjanovic-31807","Tyreke-Evans-1070","Marvin-Bagley-III-409321","Willie-Cauley-Stein-18951","49600","275.84"
"Quinn-Cook-31771","Klay-Thompson-13315","Buddy-Hield-35206","Kevin-Durant-1348","Boban-Marjanovic-31807","Darren-Collison-1060","Montrezl-Harrell-18930","Marvin-Bagley-III-409321","50000","275.84"
"Kyle-Lowry-1057","Bogdan-Bogdanovic-37899","Kevin-Durant-1348","Serge-Ibaka-1294","Boban-Marjanovic-31807","Tyreke-Evans-1070","Marvin-Bagley-III-409321","Willie-Cauley-Stein-18951","49400","275.82"
"De'Aaron-Fox-37900","Buddy-Hield-35206","Kevin-Durant-1348","Kyle-Kuzma-37886","Willie-Cauley-Stein-18951","Brandon-Ingram-35227","Marvin-Bagley-III-409321","Boban-Marjanovic-31807","50000","275.76"
"Kyle-Lowry-1057","Andre-Iguodala-1334","Kevin-Durant-1348","Montrezl-Harrell-18930","Willie-Cauley-Stein-18951","Darren-Collison-1060","Serge-Ibaka-1294","Boban-Marjanovic-31807","50000","275.72"
"Darren-Collison-1060","Buddy-Hield-35206","Kevin-Durant-1348","Danilo-Gallinari-1329","Boban-Marjanovic-31807","Klay-Thompson-13315","Marvin-Bagley-III-409321","Willie-Cauley-Stein-18951","50000","275.72"
"Quinn-Cook-31771","Buddy-Hield-35206","Kevin-Durant-1348","Serge-Ibaka-1294","Boban-Marjanovic-31807","Klay-Thompson-13315","Marvin-Bagley-III-409321","Willie-Cauley-Stein-18951","49100","275.68"
"Quinn-Cook-31771","Buddy-Hield-35206","Kevin-Durant-1348","Montrezl-Harrell-18930","Willie-Cauley-Stein-18951","Tyreke-Evans-1070","Danilo-Gallinari-1329","Boban-Marjanovic-31807","50000","275.67"
"De'Aaron-Fox-37900","Buddy-Hield-35206","Kawhi-Leonard-13310","Serge-Ibaka-1294","Willie-Cauley-Stein-18951","Klay-Thompson-13315","Marvin-Bagley-III-409321","Boban-Marjanovic-31807","49800","275.67"
"Quinn-Cook-31771","Tyreke-Evans-1070","Kevin-Durant-1348","Montrezl-Harrell-18930","Boban-Marjanovic-31807","Darren-Collison-1060","Marvin-Bagley-III-409321","Kyle-Lowry-1057","49900","275.67"
"Darren-Collison-1060","Buddy-Hield-35206","Kevin-Durant-1348","Montrezl-Harrell-18930","Willie-Cauley-Stein-18951","Brandon-Ingram-35227","Marvin-Bagley-III-409321","Boban-Marjanovic-31807","49500","275.67"
"Shai-Gilgeous-Alexander-408990","Buddy-Hield-35206","Kevin-Durant-1348","Serge-Ibaka-1294","Boban-Marjanovic-31807","Kyle-Lowry-1057","Tyreke-Evans-1070","Willie-Cauley-Stein-18951","49500","275.65"
"Shai-Gilgeous-Alexander-408990","Brandon-Ingram-35227","Kevin-Durant-1348","Serge-Ibaka-1294","Boban-Marjanovic-31807","Kyle-Lowry-1057","Marvin-Bagley-III-409321","Willie-Cauley-Stein-18951","49900","275.65"
"Quinn-Cook-31771","Iman-Shumpert-13350","Kevin-Durant-1348","Montrezl-Harrell-18930","Willie-Cauley-Stein-18951","Kyle-Lowry-1057","Marvin-Bagley-III-409321","Boban-Marjanovic-31807","49700","275.64"
"Kyle-Lowry-1057","Iman-Shumpert-13350","Kevin-Durant-1348","Marvin-Bagley-III-409321","Willie-Cauley-Stein-18951","Klay-Thompson-13315","Tyreke-Evans-1070","Boban-Marjanovic-31807","49700","275.64"
"Quinn-Cook-31771","Buddy-Hield-35206","Kevin-Durant-1348","Serge-Ibaka-1294","Boban-Marjanovic-31807","Brandon-Ingram-35227","Marvin-Bagley-III-409321","Kyle-Lowry-1057","49600","275.64"
"Quinn-Cook-31771","Buddy-Hield-35206","Kevin-Durant-1348","Montrezl-Harrell-18930","Boban-Marjanovic-31807","Darren-Collison-1060","Serge-Ibaka-1294","De'Aaron-Fox-37900","50000","275.61"
"Darren-Collison-1060","Buddy-Hield-35206","Kevin-Durant-1348","Serge-Ibaka-1294","Boban-Marjanovic-31807","Klay-Thompson-13315","Tyreke-Evans-1070","De'Aaron-Fox-37900","50000","275.61"
"Kyle-Lowry-1057","Klay-Thompson-13315","Buddy-Hield-35206","Serge-Ibaka-1294","Boban-Marjanovic-31807","Darren-Collison-1060","Kawhi-Leonard-13310","Willie-Cauley-Stein-18951","50000","275.59"
"De'Aaron-Fox-37900","Buddy-Hield-35206","Iman-Shumpert-13350","Kevin-Durant-1348","Boban-Marjanovic-31807","Klay-Thompson-13315","Serge-Ibaka-1294","Willie-Cauley-Stein-18951","49800","275.58"
"Quinn-Cook-31771","Buddy-Hield-35206","Tyreke-Evans-1070","Kevin-Durant-1348","Willie-Cauley-Stein-18951","Kyle-Lowry-1057","Brandon-Ingram-35227","Boban-Marjanovic-31807","49700","275.57"
