"Damian-Lillard-13900","James-Harden-1037","Josh-Jackson-37890","Derrick-Favors-1266","Jusuf-Nurkic-18619","Seth-Curry-16825","Evan-Turner-1291","De'Anthony-Melton-409081","49600","263.99"
"Damian-Lillard-13900","James-Harden-1037","Nik-Stauskas-18636","Derrick-Favors-1266","Deandre-Ayton-409301","Seth-Curry-16825","Evan-Turner-1291","Jusuf-Nurkic-18619","49800","263.85"

"Damian-Lillard-13900","James-Harden-1037","Josh-Jackson-37890","Derrick-Favors-1266","Jusuf-Nurkic-18619","Seth-Curry-16825","Evan-Turner-1291","De'Anthony-Melton-409081","49600","263.99"
"Damian-Lillard-13900","James-Harden-1037","Nik-Stauskas-18636","Derrick-Favors-1266","Deandre-Ayton-409301","Seth-Curry-16825","Evan-Turner-1291","Jusuf-Nurkic-18619","49800","263.85"
"Damian-Lillard-13900","James-Harden-1037","Joe-Ingles-18627","Derrick-Favors-1266","Jusuf-Nurkic-18619","Seth-Curry-16825","Evan-Turner-1291","De'Anthony-Melton-409081","49700","263.7"
"Damian-Lillard-13900","James-Harden-1037","Nik-Stauskas-18636","Josh-Jackson-37890","Derrick-Favors-1266","De'Anthony-Melton-409081","Evan-Turner-1291","Jusuf-Nurkic-18619","49700","263.41"
"Damian-Lillard-13900","De'Anthony-Melton-409081","Nik-Stauskas-18636","Josh-Jackson-37890","Jusuf-Nurkic-18619","Chris-Paul-1087","Evan-Turner-1291","Clint-Capela-18610","50000","263.32"
"Damian-Lillard-13900","Nik-Stauskas-18636","Joe-Ingles-18627","Derrick-Favors-1266","Jusuf-Nurkic-18619","James-Harden-1037","Evan-Turner-1291","De'Anthony-Melton-409081","49800","263.12"
"Damian-Lillard-13900","Donovan-Mitchell-37875","Josh-Jackson-37890","Derrick-Favors-1266","Jusuf-Nurkic-18619","Seth-Curry-16825","Evan-Turner-1291","Chris-Paul-1087","49900","263.11"
"Damian-Lillard-13900","James-Harden-1037","Eric-Gordon-1077","Josh-Jackson-37890","Jusuf-Nurkic-18619","Seth-Curry-16825","Evan-Turner-1291","De'Anthony-Melton-409081","50000","262.97"
"Damian-Lillard-13900","Donovan-Mitchell-37875","Joe-Ingles-18627","Derrick-Favors-1266","Jusuf-Nurkic-18619","Seth-Curry-16825","Evan-Turner-1291","Chris-Paul-1087","50000","262.82"
"Damian-Lillard-13900","Seth-Curry-16825","Joe-Ingles-18627","Josh-Jackson-37890","Jusuf-Nurkic-18619","Chris-Paul-1087","Evan-Turner-1291","Deandre-Ayton-409301","49900","262.77"
"Damian-Lillard-13900","James-Harden-1037","Josh-Jackson-37890","Jae-Crowder-13942","Jusuf-Nurkic-18619","Seth-Curry-16825","Evan-Turner-1291","De'Anthony-Melton-409081","49900","262.72"
"Damian-Lillard-13900","James-Harden-1037","Nik-Stauskas-18636","Derrick-Favors-1266","Jusuf-Nurkic-18619","Ricky-Rubio-1001","Evan-Turner-1291","Seth-Curry-16825","49500","262.72"
"Damian-Lillard-13900","De'Anthony-Melton-409081","Josh-Jackson-37890","Derrick-Favors-1266","Jusuf-Nurkic-18619","Ricky-Rubio-1001","Evan-Turner-1291","Chris-Paul-1087","49900","262.66"
"Damian-Lillard-13900","Nik-Stauskas-18636","Josh-Jackson-37890","Derrick-Favors-1266","Jusuf-Nurkic-18619","James-Harden-1037","Joe-Ingles-18627","Seth-Curry-16825","49800","262.63"
"Damian-Lillard-13900","Donovan-Mitchell-37875","Josh-Jackson-37890","Derrick-Favors-1266","Jusuf-Nurkic-18619","De'Anthony-Melton-409081","Nik-Stauskas-18636","Chris-Paul-1087","50000","262.58"
"Damian-Lillard-13900","Donovan-Mitchell-37875","Nik-Stauskas-18636","Josh-Jackson-37890","Derrick-Favors-1266","Chris-Paul-1087","Evan-Turner-1291","Jusuf-Nurkic-18619","50000","262.53"
"Damian-Lillard-13900","James-Harden-1037","Joe-Ingles-18627","Josh-Jackson-37890","Jusuf-Nurkic-18619","Seth-Curry-16825","Nik-Stauskas-18636","De'Anthony-Melton-409081","49400","262.44"
"Damian-Lillard-13900","James-Harden-1037","Joe-Ingles-18627","Jae-Crowder-13942","Jusuf-Nurkic-18619","Seth-Curry-16825","Evan-Turner-1291","De'Anthony-Melton-409081","50000","262.43"
"Damian-Lillard-13900","James-Harden-1037","Josh-Jackson-37890","Derrick-Favors-1266","Jusuf-Nurkic-18619","Elie-Okobo-409300","Evan-Turner-1291","Seth-Curry-16825","49400","262.42"
"Damian-Lillard-13900","Nik-Stauskas-18636","Joe-Ingles-18627","Josh-Jackson-37890","Jusuf-Nurkic-18619","James-Harden-1037","Evan-Turner-1291","Seth-Curry-16825","49400","262.39"
"Damian-Lillard-13900","De'Anthony-Melton-409081","Joe-Ingles-18627","Derrick-Favors-1266","Jusuf-Nurkic-18619","Ricky-Rubio-1001","Evan-Turner-1291","Chris-Paul-1087","50000","262.37"
"Damian-Lillard-13900","Donovan-Mitchell-37875","Nik-Stauskas-18636","Josh-Jackson-37890","Jusuf-Nurkic-18619","De'Anthony-Melton-409081","Evan-Turner-1291","Chris-Paul-1087","49600","262.34"
"Damian-Lillard-13900","Donovan-Mitchell-37875","Nik-Stauskas-18636","Josh-Jackson-37890","Jusuf-Nurkic-18619","De'Anthony-Melton-409081","Evan-Turner-1291","Clint-Capela-18610","49900","262.31"
"James-Harden-1037","Donovan-Mitchell-37875","Mikal-Bridges-408842","Josh-Jackson-37890","Jusuf-Nurkic-18619","Ricky-Rubio-1001","Evan-Turner-1291","De'Anthony-Melton-409081","50000","262.26"
"Damian-Lillard-13900","De'Anthony-Melton-409081","Joe-Ingles-18627","Josh-Jackson-37890","Deandre-Ayton-409301","Chris-Paul-1087","Nik-Stauskas-18636","Jusuf-Nurkic-18619","50000","262.24"
"James-Harden-1037","De'Anthony-Melton-409081","Nik-Stauskas-18636","Derrick-Favors-1266","Jusuf-Nurkic-18619","Chris-Paul-1087","Evan-Turner-1291","Clint-Capela-18610","49900","262.2"
"Damian-Lillard-13900","Evan-Turner-1291","Joe-Ingles-18627","Josh-Jackson-37890","Deandre-Ayton-409301","Chris-Paul-1087","Nik-Stauskas-18636","Jusuf-Nurkic-18619","50000","262.19"
"Damian-Lillard-13900","James-Harden-1037","Josh-Jackson-37890","Al-Farouq-Aminu-1279","Jusuf-Nurkic-18619","Elie-Okobo-409300","Evan-Turner-1291","Seth-Curry-16825","50000","262.17"
"Damian-Lillard-13900","James-Harden-1037","Josh-Jackson-37890","Derrick-Favors-1266","Jusuf-Nurkic-18619","Seth-Curry-16825","Mikal-Bridges-408842","De'Anthony-Melton-409081","49500","262.16"
"Damian-Lillard-13900","James-Harden-1037","Nik-Stauskas-18636","Jae-Crowder-13942","Jusuf-Nurkic-18619","De'Anthony-Melton-409081","Evan-Turner-1291","Josh-Jackson-37890","50000","262.14"
"Damian-Lillard-13900","James-Harden-1037","Joe-Ingles-18627","Derrick-Favors-1266","Jusuf-Nurkic-18619","Elie-Okobo-409300","Evan-Turner-1291","Seth-Curry-16825","49500","262.13"
"James-Harden-1037","Seth-Curry-16825","Nik-Stauskas-18636","Josh-Jackson-37890","Rudy-Gobert-16935","Chris-Paul-1087","Evan-Turner-1291","Jusuf-Nurkic-18619","49800","262.12"
"Damian-Lillard-13900","James-Harden-1037","Mikal-Bridges-408842","Josh-Jackson-37890","Jusuf-Nurkic-18619","Seth-Curry-16825","Evan-Turner-1291","Derrick-Favors-1266","49500","262.11"
"Damian-Lillard-13900","Seth-Curry-16825","Mikal-Bridges-408842","Josh-Jackson-37890","Jusuf-Nurkic-18619","Chris-Paul-1087","Evan-Turner-1291","Clint-Capela-18610","49800","262.02"
"Damian-Lillard-13900","James-Harden-1037","Mikal-Bridges-408842","Derrick-Favors-1266","Deandre-Ayton-409301","Seth-Curry-16825","Nik-Stauskas-18636","Jusuf-Nurkic-18619","49700","262.02"
"James-Harden-1037","Seth-Curry-16825","Josh-Jackson-37890","Derrick-Favors-1266","Jusuf-Nurkic-18619","Chris-Paul-1087","Evan-Turner-1291","Deandre-Ayton-409301","49700","261.94"
"Damian-Lillard-13900","James-Harden-1037","Mikal-Bridges-408842","Josh-Jackson-37890","Jusuf-Nurkic-18619","Seth-Curry-16825","Evan-Turner-1291","De'Anthony-Melton-409081","49100","261.92"
"Damian-Lillard-13900","James-Harden-1037","Josh-Jackson-37890","Derrick-Favors-1266","Jusuf-Nurkic-18619","Elie-Okobo-409300","Nik-Stauskas-18636","De'Anthony-Melton-409081","49500","261.89"
"Damian-Lillard-13900","Seth-Curry-16825","Josh-Jackson-37890","Derrick-Favors-1266","Jusuf-Nurkic-18619","Ricky-Rubio-1001","Joe-Ingles-18627","Chris-Paul-1087","50000","261.88"
"Damian-Lillard-13900","James-Harden-1037","Joe-Ingles-18627","Derrick-Favors-1266","Jusuf-Nurkic-18619","Seth-Curry-16825","Mikal-Bridges-408842","De'Anthony-Melton-409081","49600","261.87"
"Damian-Lillard-13900","James-Harden-1037","Nik-Stauskas-18636","Josh-Jackson-37890","Derrick-Favors-1266","Elie-Okobo-409300","Evan-Turner-1291","Jusuf-Nurkic-18619","49500","261.84"
"Damian-Lillard-13900","James-Harden-1037","Joe-Ingles-18627","Derrick-Favors-1266","Jusuf-Nurkic-18619","Mikal-Bridges-408842","Evan-Turner-1291","Seth-Curry-16825","49600","261.82"
"Damian-Lillard-13900","Donovan-Mitchell-37875","Mikal-Bridges-408842","Derrick-Favors-1266","Jusuf-Nurkic-18619","De'Anthony-Melton-409081","Evan-Turner-1291","Chris-Paul-1087","49800","261.77"
"Damian-Lillard-13900","Donovan-Mitchell-37875","Joe-Ingles-18627","Josh-Jackson-37890","Jusuf-Nurkic-18619","Seth-Curry-16825","Evan-Turner-1291","Deandre-Ayton-409301","49800","261.76"
"Damian-Lillard-13900","De'Anthony-Melton-409081","Mikal-Bridges-408842","Josh-Jackson-37890","Jusuf-Nurkic-18619","Chris-Paul-1087","Evan-Turner-1291","Deandre-Ayton-409301","49700","261.72"
"James-Harden-1037","Seth-Curry-16825","Josh-Jackson-37890","Derrick-Favors-1266","Jusuf-Nurkic-18619","Chris-Paul-1087","Nik-Stauskas-18636","Clint-Capela-18610","49900","261.71"
"Elie-Okobo-409300","James-Harden-1037","Mikal-Bridges-408842","Josh-Jackson-37890","Jusuf-Nurkic-18619","Ricky-Rubio-1001","Evan-Turner-1291","Chris-Paul-1087","49900","261.7"
"Damian-Lillard-13900","James-Harden-1037","Nik-Stauskas-18636","Maurice-Harkless-16971","Jusuf-Nurkic-18619","Seth-Curry-16825","Evan-Turner-1291","Chris-Paul-1087","49800","261.69"
"Damian-Lillard-13900","Donovan-Mitchell-37875","Mikal-Bridges-408842","Josh-Jackson-37890","Jusuf-Nurkic-18619","Seth-Curry-16825","Evan-Turner-1291","Rudy-Gobert-16935","50000","261.66"
"Damian-Lillard-13900","Donovan-Mitchell-37875","Josh-Jackson-37890","Derrick-Favors-1266","Jusuf-Nurkic-18619","Ricky-Rubio-1001","Evan-Turner-1291","De'Anthony-Melton-409081","49800","261.65"
"Damian-Lillard-13900","James-Harden-1037","Nik-Stauskas-18636","Josh-Jackson-37890","Jusuf-Nurkic-18619","Elie-Okobo-409300","Evan-Turner-1291","De'Anthony-Melton-409081","49100","261.65"
"James-Harden-1037","Seth-Curry-16825","Joe-Ingles-18627","Derrick-Favors-1266","Jusuf-Nurkic-18619","Chris-Paul-1087","Evan-Turner-1291","Deandre-Ayton-409301","49800","261.65"
"Damian-Lillard-13900","Seth-Curry-16825","Joe-Ingles-18627","Josh-Jackson-37890","Jusuf-Nurkic-18619","Ricky-Rubio-1001","Evan-Turner-1291","Chris-Paul-1087","49600","261.64"
"James-Harden-1037","Donovan-Mitchell-37875","Mikal-Bridges-408842","Josh-Jackson-37890","Jusuf-Nurkic-18619","Elie-Okobo-409300","Nik-Stauskas-18636","Chris-Paul-1087","50000","261.62"
"Damian-Lillard-13900","Seth-Curry-16825","Joe-Ingles-18627","Josh-Jackson-37890","Clint-Capela-18610","Ricky-Rubio-1001","Evan-Turner-1291","Jusuf-Nurkic-18619","49900","261.61"
"Damian-Lillard-13900","James-Harden-1037","Joe-Ingles-18627","Derrick-Favors-1266","Jusuf-Nurkic-18619","Elie-Okobo-409300","Nik-Stauskas-18636","De'Anthony-Melton-409081","49600","261.6"
"Damian-Lillard-13900","Nik-Stauskas-18636","Josh-Jackson-37890","Derrick-Favors-1266","Jusuf-Nurkic-18619","James-Harden-1037","Mikal-Bridges-408842","De'Anthony-Melton-409081","49600","261.58"
"Damian-Lillard-13900","Donovan-Mitchell-37875","Joe-Ingles-18627","Josh-Jackson-37890","Jusuf-Nurkic-18619","Seth-Curry-16825","Nik-Stauskas-18636","Chris-Paul-1087","49700","261.56"
"Damian-Lillard-13900","Nik-Stauskas-18636","Joe-Ingles-18627","Derrick-Favors-1266","Jusuf-Nurkic-18619","James-Harden-1037","Evan-Turner-1291","Elie-Okobo-409300","49600","261.55"
"James-Harden-1037","Seth-Curry-16825","Mikal-Bridges-408842","Derrick-Favors-1266","Jusuf-Nurkic-18619","Chris-Paul-1087","Evan-Turner-1291","Rudy-Gobert-16935","50000","261.55"
"Damian-Lillard-13900","Nik-Stauskas-18636","Mikal-Bridges-408842","Josh-Jackson-37890","Jusuf-Nurkic-18619","James-Harden-1037","Evan-Turner-1291","Derrick-Favors-1266","49600","261.53"
"Damian-Lillard-13900","Donovan-Mitchell-37875","Joe-Ingles-18627","Josh-Jackson-37890","Clint-Capela-18610","Seth-Curry-16825","Nik-Stauskas-18636","Jusuf-Nurkic-18619","50000","261.53"
"Damian-Lillard-13900","Donovan-Mitchell-37875","Nik-Stauskas-18636","Derrick-Favors-1266","Deandre-Ayton-409301","Ricky-Rubio-1001","Evan-Turner-1291","Jusuf-Nurkic-18619","50000","261.51"
"Damian-Lillard-13900","De'Anthony-Melton-409081","Mikal-Bridges-408842","Josh-Jackson-37890","Clint-Capela-18610","Chris-Paul-1087","Nik-Stauskas-18636","Jusuf-Nurkic-18619","49900","261.49"
"James-Harden-1037","Seth-Curry-16825","Nik-Stauskas-18636","Josh-Jackson-37890","Jusuf-Nurkic-18619","Chris-Paul-1087","Evan-Turner-1291","Clint-Capela-18610","49500","261.47"
"Damian-Lillard-13900","James-Harden-1037","Nik-Stauskas-18636","Jae-Crowder-13942","Jusuf-Nurkic-18619","Ricky-Rubio-1001","Evan-Turner-1291","Seth-Curry-16825","49800","261.45"
"Damian-Lillard-13900","Nik-Stauskas-18636","Mikal-Bridges-408842","Josh-Jackson-37890","Jusuf-Nurkic-18619","Chris-Paul-1087","Evan-Turner-1291","Clint-Capela-18610","49900","261.44"
"Damian-Lillard-13900","James-Harden-1037","Trevor-Ariza-1323","Derrick-Favors-1266","Jusuf-Nurkic-18619","Seth-Curry-16825","Evan-Turner-1291","De'Anthony-Melton-409081","49800","261.44"
"James-Harden-1037","Seth-Curry-16825","Josh-Jackson-37890","Derrick-Favors-1266","Jusuf-Nurkic-18619","Ricky-Rubio-1001","Evan-Turner-1291","Rudy-Gobert-16935","50000","261.43"
"James-Harden-1037","Seth-Curry-16825","Joe-Ingles-18627","Derrick-Favors-1266","Jusuf-Nurkic-18619","Chris-Paul-1087","Nik-Stauskas-18636","Clint-Capela-18610","50000","261.42"
"James-Harden-1037","De'Anthony-Melton-409081","Josh-Jackson-37890","Derrick-Favors-1266","Deandre-Ayton-409301","Chris-Paul-1087","Nik-Stauskas-18636","Jusuf-Nurkic-18619","49800","261.41"
"Damian-Lillard-13900","James-Harden-1037","Eric-Gordon-1077","Josh-Jackson-37890","Jusuf-Nurkic-18619","Elie-Okobo-409300","Evan-Turner-1291","Seth-Curry-16825","49800","261.4"
"Damian-Lillard-13900","Donovan-Mitchell-37875","Nik-Stauskas-18636","Josh-Jackson-37890","Rudy-Gobert-16935","Elie-Okobo-409300","Evan-Turner-1291","Jusuf-Nurkic-18619","50000","261.39"
"James-Harden-1037","Evan-Turner-1291","Josh-Jackson-37890","Derrick-Favors-1266","Deandre-Ayton-409301","Chris-Paul-1087","Nik-Stauskas-18636","Jusuf-Nurkic-18619","49800","261.36"
"Damian-Lillard-13900","James-Harden-1037","Nik-Stauskas-18636","Maurice-Harkless-16971","Deandre-Ayton-409301","De'Anthony-Melton-409081","Evan-Turner-1291","Jusuf-Nurkic-18619","50000","261.36"
"Damian-Lillard-13900","Donovan-Mitchell-37875","Joe-Ingles-18627","Derrick-Favors-1266","Jusuf-Nurkic-18619","Ricky-Rubio-1001","Evan-Turner-1291","De'Anthony-Melton-409081","49900","261.36"
"Damian-Lillard-13900","Nik-Stauskas-18636","Mikal-Bridges-408842","Josh-Jackson-37890","Jusuf-Nurkic-18619","James-Harden-1037","Evan-Turner-1291","De'Anthony-Melton-409081","49200","261.34"
"Damian-Lillard-13900","De'Anthony-Melton-409081","Joe-Ingles-18627","Josh-Jackson-37890","Jusuf-Nurkic-18619","Ricky-Rubio-1001","Evan-Turner-1291","Deandre-Ayton-409301","49800","261.31"
"Damian-Lillard-13900","Nik-Stauskas-18636","Joe-Ingles-18627","Derrick-Favors-1266","Jusuf-Nurkic-18619","James-Harden-1037","Mikal-Bridges-408842","De'Anthony-Melton-409081","49700","261.29"
"Damian-Lillard-13900","Donovan-Mitchell-37875","Josh-Jackson-37890","Derrick-Favors-1266","Jusuf-Nurkic-18619","Seth-Curry-16825","Mikal-Bridges-408842","Chris-Paul-1087","49800","261.28"
"Elie-Okobo-409300","James-Harden-1037","Nik-Stauskas-18636","Derrick-Favors-1266","Rudy-Gobert-16935","Chris-Paul-1087","Evan-Turner-1291","Jusuf-Nurkic-18619","50000","261.28"
"Damian-Lillard-13900","Nik-Stauskas-18636","Joe-Ingles-18627","Derrick-Favors-1266","Jusuf-Nurkic-18619","James-Harden-1037","Evan-Turner-1291","Mikal-Bridges-408842","49700","261.24"
"Damian-Lillard-13900","Donovan-Mitchell-37875","Joe-Ingles-18627","Josh-Jackson-37890","Deandre-Ayton-409301","De'Anthony-Melton-409081","Nik-Stauskas-18636","Jusuf-Nurkic-18619","49900","261.23"
"James-Harden-1037","Donovan-Mitchell-37875","Nik-Stauskas-18636","Derrick-Favors-1266","Jusuf-Nurkic-18619","De'Anthony-Melton-409081","Evan-Turner-1291","Chris-Paul-1087","49500","261.22"
"Damian-Lillard-13900","Donovan-Mitchell-37875","Josh-Jackson-37890","Derrick-Favors-1266","Jusuf-Nurkic-18619","Elie-Okobo-409300","Evan-Turner-1291","Deandre-Ayton-409301","49900","261.21"
"Damian-Lillard-13900","De'Anthony-Melton-409081","Mikal-Bridges-408842","Josh-Jackson-37890","Jusuf-Nurkic-18619","Ricky-Rubio-1001","Evan-Turner-1291","Rudy-Gobert-16935","50000","261.21"
"James-Harden-1037","De'Anthony-Melton-409081","Joe-Ingles-18627","Derrick-Favors-1266","Jusuf-Nurkic-18619","Chris-Paul-1087","Evan-Turner-1291","Josh-Jackson-37890","49700","261.21"
"Damian-Lillard-13900","James-Harden-1037","Joe-Ingles-18627","Josh-Jackson-37890","Deandre-Ayton-409301","Seth-Curry-16825","Evan-Turner-1291","De'Anthony-Melton-409081","49900","261.21"
"James-Harden-1037","Donovan-Mitchell-37875","Nik-Stauskas-18636","Derrick-Favors-1266","Jusuf-Nurkic-18619","De'Anthony-Melton-409081","Evan-Turner-1291","Clint-Capela-18610","49800","261.19"
"Damian-Lillard-13900","Donovan-Mitchell-37875","Joe-Ingles-18627","Josh-Jackson-37890","Deandre-Ayton-409301","Evan-Turner-1291","Nik-Stauskas-18636","Jusuf-Nurkic-18619","49900","261.18"
"James-Harden-1037","Evan-Turner-1291","Josh-Jackson-37890","Derrick-Favors-1266","Jusuf-Nurkic-18619","De'Anthony-Melton-409081","Joe-Ingles-18627","Clint-Capela-18610","50000","261.18"
"James-Harden-1037","De'Anthony-Melton-409081","Nik-Stauskas-18636","Josh-Jackson-37890","Jusuf-Nurkic-18619","Chris-Paul-1087","Evan-Turner-1291","Deandre-Ayton-409301","49400","261.17"
"Damian-Lillard-13900","James-Harden-1037","Josh-Jackson-37890","Jae-Crowder-13942","Jusuf-Nurkic-18619","Elie-Okobo-409300","Evan-Turner-1291","Seth-Curry-16825","49700","261.15"
"Damian-Lillard-13900","James-Harden-1037","Eric-Gordon-1077","Josh-Jackson-37890","Jusuf-Nurkic-18619","Seth-Curry-16825","Mikal-Bridges-408842","De'Anthony-Melton-409081","49900","261.14"
"James-Harden-1037","De'Anthony-Melton-409081","Joe-Ingles-18627","Derrick-Favors-1266","Deandre-Ayton-409301","Chris-Paul-1087","Nik-Stauskas-18636","Jusuf-Nurkic-18619","49900","261.12"
"James-Harden-1037","Donovan-Mitchell-37875","Nik-Stauskas-18636","Josh-Jackson-37890","Rudy-Gobert-16935","Seth-Curry-16825","Evan-Turner-1291","Jusuf-Nurkic-18619","49700","261.11"
"Damian-Lillard-13900","De'Anthony-Melton-409081","Joe-Ingles-18627","Josh-Jackson-37890","Jusuf-Nurkic-18619","Ricky-Rubio-1001","Nik-Stauskas-18636","Chris-Paul-1087","49700","261.11"
"Damian-Lillard-13900","James-Harden-1037","Mikal-Bridges-408842","Josh-Jackson-37890","Jusuf-Nurkic-18619","Eric-Gordon-1077","Evan-Turner-1291","Seth-Curry-16825","49900","261.09"
"Damian-Lillard-13900","James-Harden-1037","Mikal-Bridges-408842","Derrick-Favors-1266","Jusuf-Nurkic-18619","Elie-Okobo-409300","Evan-Turner-1291","De'Anthony-Melton-409081","49300","261.08"
"Damian-Lillard-13900","De'Anthony-Melton-409081","Joe-Ingles-18627","Josh-Jackson-37890","Clint-Capela-18610","Ricky-Rubio-1001","Nik-Stauskas-18636","Jusuf-Nurkic-18619","50000","261.08"
