"Trae-Young-409063","Jordan-Clarkson-18631","Kent-Bazemore-13987","Tobias-Harris-13332","Nikola-Jokic-31812","Alec-Burks-13353","Tim-Hardaway-Jr.-16879","Otto-Porter-17069","49700","305.8"
"Jordan-Clarkson-18631","Kent-Bazemore-13987","Tobias-Harris-13332","Otto-Porter-17069","Nikola-Jokic-31812","Tim-Hardaway-Jr.-16879","Larry-Nance-18946","Noah-Vonleh-18597","49800","305.62"

"Trae-Young-409063","Jordan-Clarkson-18631","Kent-Bazemore-13987","Tobias-Harris-13332","Nikola-Jokic-31812","Alec-Burks-13353","Tim-Hardaway-Jr.-16879","Otto-Porter-17069","49700","305.8"
"Jordan-Clarkson-18631","Kent-Bazemore-13987","Tobias-Harris-13332","Otto-Porter-17069","Nikola-Jokic-31812","Tim-Hardaway-Jr.-16879","Larry-Nance-18946","Noah-Vonleh-18597","49800","305.62"
"Jordan-Clarkson-18631","Kent-Bazemore-13987","Kyle-Anderson-18615","Noah-Vonleh-18597","Nikola-Jokic-31812","Tim-Hardaway-Jr.-16879","Otto-Porter-17069","Tobias-Harris-13332","49600","305.03"
"Jordan-Clarkson-18631","Kent-Bazemore-13987","Tobias-Harris-13332","Otto-Porter-17069","Nikola-Jokic-31812","Tim-Hardaway-Jr.-16879","Larry-Nance-18946","Marvin-Bagley-III-409321","49800","304.93"
"Jordan-Clarkson-18631","Kent-Bazemore-13987","Tobias-Harris-13332","Noah-Vonleh-18597","Nikola-Jokic-31812","Alec-Burks-13353","Otto-Porter-17069","Tim-Hardaway-Jr.-16879","49000","304.53"
"Trae-Young-409063","Jordan-Clarkson-18631","Kent-Bazemore-13987","Noah-Vonleh-18597","Nikola-Jokic-31812","Tim-Hardaway-Jr.-16879","Marvin-Bagley-III-409321","Tobias-Harris-13332","50000","304.45"
"Jordan-Clarkson-18631","Kent-Bazemore-13987","Tobias-Harris-13332","Otto-Porter-17069","Nikola-Jokic-31812","Tim-Hardaway-Jr.-16879","Kyle-Anderson-18615","Marvin-Bagley-III-409321","49600","304.34"
"Jordan-Clarkson-18631","Alec-Burks-13353","Tobias-Harris-13332","Otto-Porter-17069","Marvin-Bagley-III-409321","Tim-Hardaway-Jr.-16879","Kent-Bazemore-13987","Nikola-Jokic-31812","49000","303.84"
"Trae-Young-409063","Jordan-Clarkson-18631","Tobias-Harris-13332","Otto-Porter-17069","Nikola-Jokic-31812","Alec-Burks-13353","Larry-Nance-18946","Tim-Hardaway-Jr.-16879","49600","303.83"
"Jordan-Clarkson-18631","Alec-Burks-13353","Tobias-Harris-13332","Noah-Vonleh-18597","Nikola-Jokic-31812","Tim-Hardaway-Jr.-16879","Otto-Porter-17069","Marvin-Bagley-III-409321","49500","303.83"
"Trae-Young-409063","Jordan-Clarkson-18631","Tobias-Harris-13332","Otto-Porter-17069","Nikola-Jokic-31812","Alec-Burks-13353","Kyle-Anderson-18615","Tim-Hardaway-Jr.-16879","49400","303.24"
"Trae-Young-409063","Jordan-Clarkson-18631","Tobias-Harris-13332","Larry-Nance-18946","Nikola-Jokic-31812","Tim-Hardaway-Jr.-16879","Kent-Bazemore-13987","Noah-Vonleh-18597","49400","303.18"
"Jordan-Clarkson-18631","Kent-Bazemore-13987","Tobias-Harris-13332","Gordon-Hayward-1239","Nikola-Jokic-31812","Alec-Burks-13353","Tim-Hardaway-Jr.-16879","Otto-Porter-17069","49600","303.14"
"Jordan-Clarkson-18631","Kent-Bazemore-13987","Tobias-Harris-13332","Noah-Vonleh-18597","Nikola-Jokic-31812","Tim-Hardaway-Jr.-16879","Otto-Porter-17069","Justise-Winslow-18921","49400","303.12"
"Kyle-Anderson-18615","Jordan-Clarkson-18631","Tobias-Harris-13332","Larry-Nance-18946","Nikola-Jokic-31812","Tim-Hardaway-Jr.-16879","Kent-Bazemore-13987","Otto-Porter-17069","49000","303.07"
"Kyle-Anderson-18615","Jordan-Clarkson-18631","Tobias-Harris-13332","Otto-Porter-17069","Nikola-Jokic-31812","Tim-Hardaway-Jr.-16879","Larry-Nance-18946","Noah-Vonleh-18597","49500","303.06"
"Trae-Young-409063","Kent-Bazemore-13987","Tobias-Harris-13332","Noah-Vonleh-18597","Nikola-Jokic-31812","Jordan-Clarkson-18631","Otto-Porter-17069","Marvin-Bagley-III-409321","49500","302.95"
"Trae-Young-409063","Kent-Bazemore-13987","Tobias-Harris-13332","Noah-Vonleh-18597","Nikola-Jokic-31812","Alec-Burks-13353","Otto-Porter-17069","Tim-Hardaway-Jr.-16879","49900","302.93"
"Trae-Young-409063","Jordan-Clarkson-18631","Kyle-Anderson-18615","Noah-Vonleh-18597","Nikola-Jokic-31812","Tim-Hardaway-Jr.-16879","Kent-Bazemore-13987","Tobias-Harris-13332","49200","302.59"
"Jordan-Clarkson-18631","Alec-Burks-13353","Tobias-Harris-13332","Larry-Nance-18946","Nikola-Jokic-31812","Tim-Hardaway-Jr.-16879","Kent-Bazemore-13987","Otto-Porter-17069","48400","302.57"
"Jordan-Clarkson-18631","Alec-Burks-13353","Tobias-Harris-13332","Otto-Porter-17069","Nikola-Jokic-31812","Tim-Hardaway-Jr.-16879","Larry-Nance-18946","Noah-Vonleh-18597","48900","302.56"
"Trae-Young-409063","Jordan-Clarkson-18631","Tobias-Harris-13332","Larry-Nance-18946","Nikola-Jokic-31812","Tim-Hardaway-Jr.-16879","Kent-Bazemore-13987","Marvin-Bagley-III-409321","49400","302.49"
"Trae-Young-409063","Jordan-Clarkson-18631","Tobias-Harris-13332","Larry-Nance-18946","Nikola-Jokic-31812","Tim-Hardaway-Jr.-16879","Marvin-Bagley-III-409321","Noah-Vonleh-18597","49900","302.48"
"Jordan-Clarkson-18631","Kent-Bazemore-13987","Tobias-Harris-13332","Otto-Porter-17069","Marvin-Bagley-III-409321","Tim-Hardaway-Jr.-16879","Justise-Winslow-18921","Nikola-Jokic-31812","49400","302.43"
"Trae-Young-409063","Jordan-Clarkson-18631","Tobias-Harris-13332","Otto-Porter-17069","Nikola-Jokic-31812","Tim-Hardaway-Jr.-16879","Larry-Nance-18946","Justise-Winslow-18921","50000","302.42"
"Jordan-Clarkson-18631","Kent-Bazemore-13987","Otto-Porter-17069","Noah-Vonleh-18597","Nikola-Jokic-31812","Tim-Hardaway-Jr.-16879","Tyreke-Evans-1070","Tobias-Harris-13332","50000","302.39"
"Kyle-Anderson-18615","Jordan-Clarkson-18631","Tobias-Harris-13332","Otto-Porter-17069","Nikola-Jokic-31812","Tim-Hardaway-Jr.-16879","Larry-Nance-18946","Marvin-Bagley-III-409321","49500","302.37"
"Trae-Young-409063","Alec-Burks-13353","Tobias-Harris-13332","Otto-Porter-17069","Marvin-Bagley-III-409321","Tim-Hardaway-Jr.-16879","Kent-Bazemore-13987","Nikola-Jokic-31812","49900","302.24"
"Jordan-Clarkson-18631","Kent-Bazemore-13987","Tobias-Harris-13332","Noah-Vonleh-18597","Nikola-Jokic-31812","Tim-Hardaway-Jr.-16879","Otto-Porter-17069","Cedi-Osman-18912","49700","302.22"
"Trae-Young-409063","Jordan-Clarkson-18631","Kent-Bazemore-13987","Noah-Vonleh-18597","Nikola-Jokic-31812","Tim-Hardaway-Jr.-16879","Marvin-Bagley-III-409321","Otto-Porter-17069","49000","302.13"
"Trae-Young-409063","Kent-Bazemore-13987","Tobias-Harris-13332","Noah-Vonleh-18597","Nikola-Jokic-31812","Jordan-Clarkson-18631","Tim-Hardaway-Jr.-16879","Alec-Burks-13353","48600","302.09"
"Jordan-Clarkson-18631","Kent-Bazemore-13987","Tobias-Harris-13332","Otto-Porter-17069","Nikola-Jokic-31812","Alec-Burks-13353","Kyle-Anderson-18615","Tim-Hardaway-Jr.-16879","48200","301.98"
"Jordan-Clarkson-18631","Alec-Burks-13353","Kyle-Anderson-18615","Noah-Vonleh-18597","Nikola-Jokic-31812","Tim-Hardaway-Jr.-16879","Otto-Porter-17069","Tobias-Harris-13332","48700","301.97"
"Trae-Young-409063","Kent-Bazemore-13987","Tobias-Harris-13332","Trey-Lyles-18942","Nikola-Jokic-31812","Jordan-Clarkson-18631","Otto-Porter-17069","Tim-Hardaway-Jr.-16879","49300","301.95"
"Trae-Young-409063","Jordan-Clarkson-18631","Tobias-Harris-13332","Trey-Lyles-18942","Nikola-Jokic-31812","Tim-Hardaway-Jr.-16879","Otto-Porter-17069","Noah-Vonleh-18597","49800","301.94"
"Trae-Young-409063","Kent-Bazemore-13987","Kyle-Anderson-18615","Tobias-Harris-13332","Marvin-Bagley-III-409321","Jordan-Clarkson-18631","Tim-Hardaway-Jr.-16879","Nikola-Jokic-31812","49200","301.9"
"Trae-Young-409063","Jordan-Clarkson-18631","Kyle-Anderson-18615","Noah-Vonleh-18597","Nikola-Jokic-31812","Tim-Hardaway-Jr.-16879","Marvin-Bagley-III-409321","Tobias-Harris-13332","49700","301.89"
"Jordan-Clarkson-18631","Alec-Burks-13353","Tobias-Harris-13332","Otto-Porter-17069","Nikola-Jokic-31812","Tim-Hardaway-Jr.-16879","Larry-Nance-18946","Marvin-Bagley-III-409321","48900","301.87"
"Trae-Young-409063","Jordan-Clarkson-18631","Tobias-Harris-13332","Otto-Porter-17069","Nikola-Jokic-31812","Tim-Hardaway-Jr.-16879","Kyle-Anderson-18615","Justise-Winslow-18921","49800","301.83"
"Jordan-Clarkson-18631","Kent-Bazemore-13987","Tobias-Harris-13332","Marvin-Bagley-III-409321","Nikola-Jokic-31812","Tim-Hardaway-Jr.-16879","Gordon-Hayward-1239","Noah-Vonleh-18597","49900","301.79"
"Trae-Young-409063","Jordan-Clarkson-18631","Tobias-Harris-13332","Larry-Nance-18946","Nikola-Jokic-31812","Tim-Hardaway-Jr.-16879","Kent-Bazemore-13987","Gordon-Hayward-1239","50000","301.79"
"Jordan-Clarkson-18631","Kent-Bazemore-13987","Tobias-Harris-13332","Gordon-Hayward-1239","Nikola-Jokic-31812","Tim-Hardaway-Jr.-16879","Justise-Winslow-18921","Otto-Porter-17069","50000","301.73"
"Jordan-Clarkson-18631","Tyreke-Evans-1070","Tobias-Harris-13332","Otto-Porter-17069","Marvin-Bagley-III-409321","Tim-Hardaway-Jr.-16879","Kent-Bazemore-13987","Nikola-Jokic-31812","50000","301.7"
"Trae-Young-409063","Kent-Bazemore-13987","Tobias-Harris-13332","Otto-Porter-17069","Nikola-Jokic-31812","Jordan-Clarkson-18631","Larry-Nance-18946","Noah-Vonleh-18597","48900","301.68"
"Jordan-Clarkson-18631","Kent-Bazemore-13987","Cedi-Osman-18912","Otto-Porter-17069","Nikola-Jokic-31812","Tim-Hardaway-Jr.-16879","Marvin-Bagley-III-409321","Tobias-Harris-13332","49700","301.53"
"Collin-Sexton-408896","Kent-Bazemore-13987","Tobias-Harris-13332","Noah-Vonleh-18597","Nikola-Jokic-31812","Jordan-Clarkson-18631","Otto-Porter-17069","Tim-Hardaway-Jr.-16879","50000","301.52"
"Kyle-Anderson-18615","Tim-Hardaway-Jr.-16879","Tobias-Harris-13332","Larry-Nance-18946","Nikola-Jokic-31812","Trae-Young-409063","Kent-Bazemore-13987","Otto-Porter-17069","49900","301.47"
"Kyle-Anderson-18615","Kent-Bazemore-13987","Tobias-Harris-13332","Noah-Vonleh-18597","Nikola-Jokic-31812","Tim-Hardaway-Jr.-16879","Otto-Porter-17069","Marvin-Bagley-III-409321","49800","301.47"
"Lonzo-Ball-37885","Kent-Bazemore-13987","Tobias-Harris-13332","Otto-Porter-17069","Nikola-Jokic-31812","Jordan-Clarkson-18631","Kyle-Anderson-18615","Tim-Hardaway-Jr.-16879","49900","301.44"
"Trae-Young-409063","Kent-Bazemore-13987","Otto-Porter-17069","Gordon-Hayward-1239","Noah-Vonleh-18597","Jordan-Clarkson-18631","Tim-Hardaway-Jr.-16879","Nikola-Jokic-31812","49600","301.43"
"Trae-Young-409063","Jordan-Clarkson-18631","Tobias-Harris-13332","Marvin-Bagley-III-409321","Nikola-Jokic-31812","Alec-Burks-13353","Kent-Bazemore-13987","Tim-Hardaway-Jr.-16879","48600","301.4"
"Trae-Young-409063","Jordan-Clarkson-18631","Tobias-Harris-13332","Noah-Vonleh-18597","Nikola-Jokic-31812","Alec-Burks-13353","Tim-Hardaway-Jr.-16879","Marvin-Bagley-III-409321","49100","301.39"
"Jordan-Clarkson-18631","Kent-Bazemore-13987","Tobias-Harris-13332","Noah-Vonleh-18597","Nikola-Jokic-31812","Tim-Hardaway-Jr.-16879","Otto-Porter-17069","Thaddeus-Young-1289","49700","301.38"
"Jordan-Clarkson-18631","Kent-Bazemore-13987","Tobias-Harris-13332","Noah-Vonleh-18597","Nikola-Jokic-31812","Tim-Hardaway-Jr.-16879","Otto-Porter-17069","Juan-Hernangomez-35212","49400","301.38"
"Trae-Young-409063","Jordan-Clarkson-18631","Otto-Porter-17069","Justise-Winslow-18921","Nikola-Jokic-31812","Alec-Burks-13353","Tim-Hardaway-Jr.-16879","Tobias-Harris-13332","49200","301.33"
"Jordan-Clarkson-18631","Alec-Burks-13353","Tobias-Harris-13332","Otto-Porter-17069","Nikola-Jokic-31812","Tim-Hardaway-Jr.-16879","Kyle-Anderson-18615","Marvin-Bagley-III-409321","48700","301.28"
"Trae-Young-409063","Jordan-Clarkson-18631","Trey-Lyles-18942","Otto-Porter-17069","Nikola-Jokic-31812","Tim-Hardaway-Jr.-16879","Marvin-Bagley-III-409321","Tobias-Harris-13332","49800","301.25"
"Jordan-Clarkson-18631","Kent-Bazemore-13987","Tobias-Harris-13332","Larry-Nance-18946","Nikola-Jokic-31812","Tim-Hardaway-Jr.-16879","Marvin-Bagley-III-409321","Noah-Vonleh-18597","48700","301.22"
"Trae-Young-409063","Kent-Bazemore-13987","Tobias-Harris-13332","Gordon-Hayward-1239","Nikola-Jokic-31812","Jordan-Clarkson-18631","Kyle-Anderson-18615","Tim-Hardaway-Jr.-16879","49800","301.2"
"Jordan-Clarkson-18631","Alec-Burks-13353","Tobias-Harris-13332","Otto-Porter-17069","Nikola-Jokic-31812","Tim-Hardaway-Jr.-16879","Larry-Nance-18946","Gordon-Hayward-1239","49500","301.17"
"Jordan-Clarkson-18631","Kent-Bazemore-13987","Tobias-Harris-13332","Otto-Porter-17069","Nikola-Jokic-31812","Tim-Hardaway-Jr.-16879","Larry-Nance-18946","Justise-Winslow-18921","48800","301.16"
"Trae-Young-409063","Kent-Bazemore-13987","Kyle-Anderson-18615","Noah-Vonleh-18597","Nikola-Jokic-31812","Jordan-Clarkson-18631","Otto-Porter-17069","Tobias-Harris-13332","48700","301.09"
"Trae-Young-409063","Jordan-Clarkson-18631","Tobias-Harris-13332","Mason-Plumlee-16798","Nikola-Jokic-31812","Tim-Hardaway-Jr.-16879","Kent-Bazemore-13987","Otto-Porter-17069","49900","301.01"
"Trae-Young-409063","Kent-Bazemore-13987","Tobias-Harris-13332","Otto-Porter-17069","Nikola-Jokic-31812","Jordan-Clarkson-18631","Larry-Nance-18946","Marvin-Bagley-III-409321","48900","300.99"
"Trae-Young-409063","Alec-Burks-13353","Tobias-Harris-13332","Larry-Nance-18946","Nikola-Jokic-31812","Tim-Hardaway-Jr.-16879","Kent-Bazemore-13987","Otto-Porter-17069","49300","300.97"
"Alec-Burks-13353","Kent-Bazemore-13987","Tobias-Harris-13332","Noah-Vonleh-18597","Nikola-Jokic-31812","Tim-Hardaway-Jr.-16879","Otto-Porter-17069","Marvin-Bagley-III-409321","49200","300.97"
"Trae-Young-409063","Alec-Burks-13353","Tobias-Harris-13332","Otto-Porter-17069","Nikola-Jokic-31812","Tim-Hardaway-Jr.-16879","Larry-Nance-18946","Noah-Vonleh-18597","49800","300.96"
"Lonzo-Ball-37885","Jordan-Clarkson-18631","Kent-Bazemore-13987","Tobias-Harris-13332","Nikola-Jokic-31812","Alec-Burks-13353","Tim-Hardaway-Jr.-16879","Otto-Porter-17069","49300","300.94"
"Lonzo-Ball-37885","Jordan-Clarkson-18631","Tobias-Harris-13332","Noah-Vonleh-18597","Nikola-Jokic-31812","Alec-Burks-13353","Otto-Porter-17069","Tim-Hardaway-Jr.-16879","49800","300.93"
"Trae-Young-409063","Kent-Bazemore-13987","Tim-Hardaway-Jr.-16879","Noah-Vonleh-18597","Nikola-Jokic-31812","Jordan-Clarkson-18631","Larry-Nance-18946","Otto-Porter-17069","48400","300.86"
"Collin-Sexton-408896","Jordan-Clarkson-18631","Tobias-Harris-13332","Otto-Porter-17069","Marvin-Bagley-III-409321","Tim-Hardaway-Jr.-16879","Kent-Bazemore-13987","Nikola-Jokic-31812","50000","300.83"
"Trae-Young-409063","Kent-Bazemore-13987","Otto-Porter-17069","Gordon-Hayward-1239","Nikola-Jokic-31812","Jordan-Clarkson-18631","Tim-Hardaway-Jr.-16879","Marvin-Bagley-III-409321","49600","300.74"
"Trae-Young-409063","Kent-Bazemore-13987","Tobias-Harris-13332","Gordon-Hayward-1239","Nikola-Jokic-31812","Jordan-Clarkson-18631","Tim-Hardaway-Jr.-16879","Alec-Burks-13353","49200","300.7"
"Trae-Young-409063","Jordan-Clarkson-18631","Tobias-Harris-13332","Gordon-Hayward-1239","Nikola-Jokic-31812","Alec-Burks-13353","Tim-Hardaway-Jr.-16879","Noah-Vonleh-18597","49700","300.69"
"Jordan-Clarkson-18631","Kent-Bazemore-13987","Tobias-Harris-13332","Otto-Porter-17069","Nikola-Jokic-31812","Tim-Hardaway-Jr.-16879","Thaddeus-Young-1289","Marvin-Bagley-III-409321","49700","300.69"
"Jordan-Clarkson-18631","Kent-Bazemore-13987","Tobias-Harris-13332","Otto-Porter-17069","Nikola-Jokic-31812","Tim-Hardaway-Jr.-16879","Juan-Hernangomez-35212","Marvin-Bagley-III-409321","49400","300.69"
"Trae-Young-409063","Jordan-Clarkson-18631","Tobias-Harris-13332","Otto-Porter-17069","Nikola-Jokic-31812","Tim-Hardaway-Jr.-16879","Larry-Nance-18946","Juan-Hernangomez-35212","50000","300.68"
"Trae-Young-409063","Kent-Bazemore-13987","Tobias-Harris-13332","Justise-Winslow-18921","Noah-Vonleh-18597","Jordan-Clarkson-18631","Tim-Hardaway-Jr.-16879","Nikola-Jokic-31812","49000","300.68"
"Jordan-Clarkson-18631","Kent-Bazemore-13987","Tobias-Harris-13332","Trey-Lyles-18942","Nikola-Jokic-31812","Tim-Hardaway-Jr.-16879","Otto-Porter-17069","Noah-Vonleh-18597","48600","300.68"
"Kyle-Anderson-18615","Jordan-Clarkson-18631","Kent-Bazemore-13987","Noah-Vonleh-18597","Nikola-Jokic-31812","Tim-Hardaway-Jr.-16879","Marvin-Bagley-III-409321","Tobias-Harris-13332","48500","300.63"
"Kyle-Anderson-18615","Jordan-Clarkson-18631","Tobias-Harris-13332","Larry-Nance-18946","Nikola-Jokic-31812","Trae-Young-409063","Kent-Bazemore-13987","Tim-Hardaway-Jr.-16879","48600","300.63"
"Kyle-Anderson-18615","Jordan-Clarkson-18631","Tobias-Harris-13332","Larry-Nance-18946","Nikola-Jokic-31812","Trae-Young-409063","Tim-Hardaway-Jr.-16879","Noah-Vonleh-18597","49100","300.62"
"Trae-Young-409063","Jordan-Clarkson-18631","Tyreke-Evans-1070","Otto-Porter-17069","Nikola-Jokic-31812","Alec-Burks-13353","Tim-Hardaway-Jr.-16879","Tobias-Harris-13332","49800","300.6"
"Trae-Young-409063","Kent-Bazemore-13987","Tobias-Harris-13332","Noah-Vonleh-18597","Nikola-Jokic-31812","Jordan-Clarkson-18631","Otto-Porter-17069","Alec-Burks-13353","48100","300.59"
"Jordan-Clarkson-18631","Alec-Burks-13353","Tobias-Harris-13332","Gordon-Hayward-1239","Nikola-Jokic-31812","Tim-Hardaway-Jr.-16879","Kyle-Anderson-18615","Otto-Porter-17069","49300","300.58"
"Jordan-Clarkson-18631","Kent-Bazemore-13987","Tobias-Harris-13332","Otto-Porter-17069","Nikola-Jokic-31812","Tim-Hardaway-Jr.-16879","Kyle-Anderson-18615","Justise-Winslow-18921","48600","300.57"
"Kyle-Anderson-18615","Jordan-Clarkson-18631","Tobias-Harris-13332","Noah-Vonleh-18597","Nikola-Jokic-31812","Tim-Hardaway-Jr.-16879","Otto-Porter-17069","Justise-Winslow-18921","49100","300.56"
"Jordan-Clarkson-18631","Kent-Bazemore-13987","Tobias-Harris-13332","Noah-Vonleh-18597","Larry-Nance-18946","Tim-Hardaway-Jr.-16879","Gordon-Hayward-1239","Nikola-Jokic-31812","49300","300.52"
"Jordan-Clarkson-18631","Tyreke-Evans-1070","Tobias-Harris-13332","Larry-Nance-18946","Nikola-Jokic-31812","Tim-Hardaway-Jr.-16879","Kent-Bazemore-13987","Otto-Porter-17069","49400","300.43"
"Trae-Young-409063","Jordan-Clarkson-18631","Cedi-Osman-18912","Otto-Porter-17069","Nikola-Jokic-31812","Alec-Burks-13353","Tim-Hardaway-Jr.-16879","Tobias-Harris-13332","49500","300.43"
"Jordan-Clarkson-18631","Tyreke-Evans-1070","Tobias-Harris-13332","Otto-Porter-17069","Nikola-Jokic-31812","Tim-Hardaway-Jr.-16879","Larry-Nance-18946","Noah-Vonleh-18597","49900","300.42"
"Trae-Young-409063","Kent-Bazemore-13987","Tobias-Harris-13332","Otto-Porter-17069","Nikola-Jokic-31812","Jordan-Clarkson-18631","Kyle-Anderson-18615","Marvin-Bagley-III-409321","48700","300.4"
"Kyle-Anderson-18615","Jordan-Clarkson-18631","Tobias-Harris-13332","Noah-Vonleh-18597","Nikola-Jokic-31812","Trae-Young-409063","Otto-Porter-17069","Marvin-Bagley-III-409321","49200","300.39"
"Trae-Young-409063","Kent-Bazemore-13987","Tobias-Harris-13332","Otto-Porter-17069","Nikola-Jokic-31812","Alec-Burks-13353","Kyle-Anderson-18615","Tim-Hardaway-Jr.-16879","49100","300.38"
"Trae-Young-409063","Alec-Burks-13353","Kyle-Anderson-18615","Noah-Vonleh-18597","Nikola-Jokic-31812","Tim-Hardaway-Jr.-16879","Otto-Porter-17069","Tobias-Harris-13332","49600","300.37"
"Jordan-Clarkson-18631","Kent-Bazemore-13987","Tobias-Harris-13332","Otto-Porter-17069","Nikola-Jokic-31812","Tim-Hardaway-Jr.-16879","Larry-Nance-18946","Marcus-Morris-13316","49700","300.32"
"Trae-Young-409063","Kent-Bazemore-13987","Tobias-Harris-13332","Otto-Porter-17069","Nikola-Jokic-31812","Jordan-Clarkson-18631","Larry-Nance-18946","Gordon-Hayward-1239","49500","300.29"
"Trae-Young-409063","Alec-Burks-13353","Tobias-Harris-13332","Otto-Porter-17069","Nikola-Jokic-31812","Tim-Hardaway-Jr.-16879","Larry-Nance-18946","Marvin-Bagley-III-409321","49800","300.27"
"Trae-Young-409063","Jordan-Clarkson-18631","Kyle-Anderson-18615","Noah-Vonleh-18597","Nikola-Jokic-31812","Tim-Hardaway-Jr.-16879","Kent-Bazemore-13987","Otto-Porter-17069","48200","300.27"
"Alec-Burks-13353","Kent-Bazemore-13987","Tobias-Harris-13332","Otto-Porter-17069","Noah-Vonleh-18597","Tim-Hardaway-Jr.-16879","Gordon-Hayward-1239","Nikola-Jokic-31812","49800","300.27"
