"Patrick-Beverley-14108","De'Anthony-Melton-409081","Marco-Belinelli-1033","Tobias-Harris-13332","Clint-Capela-18610","James-Harden-1037","Eric-Gordon-1077","LaMarcus-Aldridge-1349","49800","276.92"

"Patrick-Beverley-14108","De'Anthony-Melton-409081","Marco-Belinelli-1033","Tobias-Harris-13332","Clint-Capela-18610","James-Harden-1037","Eric-Gordon-1077","LaMarcus-Aldridge-1349","49800","276.92"
"Patrick-Beverley-14108","Avery-Bradley-941","Tobias-Harris-13332","LaMarcus-Aldridge-1349","Clint-Capela-18610","De'Anthony-Melton-409081","Eric-Gordon-1077","James-Harden-1037","50000","276.84"
"Patrick-Beverley-14108","De'Anthony-Melton-409081","Tobias-Harris-13332","LaMarcus-Aldridge-1349","Clint-Capela-18610","Eric-Gordon-1077","Dante-Cunningham-1259","James-Harden-1037","50000","276.76"
"Patrick-Beverley-14108","De'Anthony-Melton-409081","Marco-Belinelli-1033","LaMarcus-Aldridge-1349","Clint-Capela-18610","James-Harden-1037","Eric-Gordon-1077","Jusuf-Nurkic-18619","49900","275.86"
"Patrick-Beverley-14108","De'Anthony-Melton-409081","Marco-Belinelli-1033","LaMarcus-Aldridge-1349","Clint-Capela-18610","James-Harden-1037","Eric-Gordon-1077","Kyle-Lowry-1057","49600","275.62"
"Patrick-Beverley-14108","De'Anthony-Melton-409081","Dante-Cunningham-1259","LaMarcus-Aldridge-1349","Clint-Capela-18610","James-Harden-1037","Eric-Gordon-1077","Kyle-Lowry-1057","49800","275.46"
"Patrick-Beverley-14108","De'Anthony-Melton-409081","Danny-Green-940","Danilo-Gallinari-1329","Clint-Capela-18610","James-Harden-1037","Eric-Gordon-1077","LaMarcus-Aldridge-1349","50000","275.32"
"Chris-Paul-1087","Patrick-Beverley-14108","Tobias-Harris-13332","LaMarcus-Aldridge-1349","Clint-Capela-18610","De'Anthony-Melton-409081","Eric-Gordon-1077","Danilo-Gallinari-1329","49900","275.26"
"Patrick-Beverley-14108","De'Anthony-Melton-409081","Evan-Turner-1291","Tobias-Harris-13332","LaMarcus-Aldridge-1349","James-Harden-1037","Eric-Gordon-1077","Kyle-Lowry-1057","50000","275.07"
"Chris-Paul-1087","Patrick-Beverley-14108","Marco-Belinelli-1033","Tobias-Harris-13332","LaMarcus-Aldridge-1349","De'Anthony-Melton-409081","Eric-Gordon-1077","James-Harden-1037","49900","275.07"
"Shai-Gilgeous-Alexander-408990","Patrick-Beverley-14108","Tobias-Harris-13332","Danilo-Gallinari-1329","LaMarcus-Aldridge-1349","De'Anthony-Melton-409081","Eric-Gordon-1077","James-Harden-1037","50000","274.83"
"Patrick-Beverley-14108","De'Anthony-Melton-409081","Evan-Turner-1291","LaMarcus-Aldridge-1349","Clint-Capela-18610","James-Harden-1037","Eric-Gordon-1077","Danilo-Gallinari-1329","49600","274.52"
"Fred-VanVleet-36011","Patrick-Beverley-14108","Eric-Gordon-1077","LaMarcus-Aldridge-1349","Clint-Capela-18610","De'Anthony-Melton-409081","Danilo-Gallinari-1329","James-Harden-1037","49800","274.45"
"De'Anthony-Melton-409081","Avery-Bradley-941","Marco-Belinelli-1033","Tobias-Harris-13332","Clint-Capela-18610","James-Harden-1037","Eric-Gordon-1077","LaMarcus-Aldridge-1349","49900","274.41"
"Patty-Mills-13977","Patrick-Beverley-14108","Tobias-Harris-13332","LaMarcus-Aldridge-1349","Jusuf-Nurkic-18619","De'Anthony-Melton-409081","Eric-Gordon-1077","James-Harden-1037","50000","274.35"
"De'Anthony-Melton-409081","Marco-Belinelli-1033","Tobias-Harris-13332","LaMarcus-Aldridge-1349","Clint-Capela-18610","Eric-Gordon-1077","Dante-Cunningham-1259","James-Harden-1037","49900","274.33"
"Chris-Paul-1087","Patrick-Beverley-14108","Eric-Gordon-1077","LaMarcus-Aldridge-1349","Clint-Capela-18610","De'Anthony-Melton-409081","Danilo-Gallinari-1329","Jusuf-Nurkic-18619","50000","274.2"
"Shai-Gilgeous-Alexander-408990","Patrick-Beverley-14108","DeMar-DeRozan-1053","LaMarcus-Aldridge-1349","Clint-Capela-18610","De'Anthony-Melton-409081","Tobias-Harris-13332","Eric-Gordon-1077","49700","274.15"
"Patty-Mills-13977","De'Anthony-Melton-409081","Marco-Belinelli-1033","LaMarcus-Aldridge-1349","Clint-Capela-18610","James-Harden-1037","Eric-Gordon-1077","Kyle-Lowry-1057","49900","274.1"
"Chris-Paul-1087","Patrick-Beverley-14108","Marco-Belinelli-1033","LaMarcus-Aldridge-1349","Jusuf-Nurkic-18619","De'Anthony-Melton-409081","Eric-Gordon-1077","James-Harden-1037","50000","274.01"
"Chris-Paul-1087","Patrick-Beverley-14108","Eric-Gordon-1077","LaMarcus-Aldridge-1349","Clint-Capela-18610","De'Anthony-Melton-409081","Danilo-Gallinari-1329","Kyle-Lowry-1057","49700","273.96"
"Patrick-Beverley-14108","Marco-Belinelli-1033","DeMar-DeRozan-1053","Danilo-Gallinari-1329","Clint-Capela-18610","De'Anthony-Melton-409081","Eric-Gordon-1077","James-Harden-1037","50000","273.86"
"Patrick-Beverley-14108","De'Anthony-Melton-409081","Tobias-Harris-13332","LaMarcus-Aldridge-1349","Jusuf-Nurkic-18619","Eric-Gordon-1077","Danilo-Gallinari-1329","Clint-Capela-18610","49600","273.63"
"Patty-Mills-13977","Patrick-Beverley-14108","Eric-Gordon-1077","LaMarcus-Aldridge-1349","Clint-Capela-18610","De'Anthony-Melton-409081","Danilo-Gallinari-1329","James-Harden-1037","49300","273.56"
"Patrick-Beverley-14108","De'Anthony-Melton-409081","Tobias-Harris-13332","Danilo-Gallinari-1329","Jonas-Valanciunas-13301","James-Harden-1037","Eric-Gordon-1077","LaMarcus-Aldridge-1349","49900","273.54"
"Patrick-Beverley-14108","De'Anthony-Melton-409081","Marco-Belinelli-1033","Tobias-Harris-13332","Jusuf-Nurkic-18619","James-Harden-1037","Eric-Gordon-1077","LaMarcus-Aldridge-1349","49600","273.44"
"Chris-Paul-1087","Patrick-Beverley-14108","DeMar-DeRozan-1053","LaMarcus-Aldridge-1349","Clint-Capela-18610","De'Anthony-Melton-409081","Eric-Gordon-1077","Jonas-Valanciunas-13301","50000","273.43"
"Patrick-Beverley-14108","De'Anthony-Melton-409081","Tobias-Harris-13332","LaMarcus-Aldridge-1349","Clint-Capela-18610","Kyle-Lowry-1057","Eric-Gordon-1077","Danilo-Gallinari-1329","49300","273.39"
"Patrick-Beverley-14108","Avery-Bradley-941","Tobias-Harris-13332","LaMarcus-Aldridge-1349","Jusuf-Nurkic-18619","De'Anthony-Melton-409081","Eric-Gordon-1077","James-Harden-1037","49800","273.36"
"De'Anthony-Melton-409081","Avery-Bradley-941","Marco-Belinelli-1033","LaMarcus-Aldridge-1349","Clint-Capela-18610","James-Harden-1037","Eric-Gordon-1077","Jusuf-Nurkic-18619","50000","273.35"
"Patrick-Beverley-14108","De'Anthony-Melton-409081","Tobias-Harris-13332","Al-Farouq-Aminu-1279","Clint-Capela-18610","Damian-Lillard-13900","Eric-Gordon-1077","LaMarcus-Aldridge-1349","50000","273.29"
"Patrick-Beverley-14108","De'Anthony-Melton-409081","Tobias-Harris-13332","Danilo-Gallinari-1329","LaMarcus-Aldridge-1349","James-Harden-1037","Eric-Gordon-1077","Al-Farouq-Aminu-1279","49800","273.28"
"Patrick-Beverley-14108","De'Anthony-Melton-409081","Dante-Cunningham-1259","LaMarcus-Aldridge-1349","Jusuf-Nurkic-18619","James-Harden-1037","Eric-Gordon-1077","Tobias-Harris-13332","49800","273.28"
"De'Anthony-Melton-409081","James-Harden-1037","Marco-Belinelli-1033","LaMarcus-Aldridge-1349","Jusuf-Nurkic-18619","Eric-Gordon-1077","Dante-Cunningham-1259","Clint-Capela-18610","50000","273.27"
"De'Anthony-Melton-409081","Marco-Belinelli-1033","Danilo-Gallinari-1329","LaMarcus-Aldridge-1349","Clint-Capela-18610","Eric-Gordon-1077","Al-Farouq-Aminu-1279","James-Harden-1037","50000","273.27"
"Patrick-Beverley-14108","De'Anthony-Melton-409081","Marco-Belinelli-1033","Tobias-Harris-13332","LaMarcus-Aldridge-1349","James-Harden-1037","Eric-Gordon-1077","Kyle-Lowry-1057","49300","273.2"
"Chris-Paul-1087","Patrick-Beverley-14108","DeMar-DeRozan-1053","Al-Farouq-Aminu-1279","Clint-Capela-18610","De'Anthony-Melton-409081","Eric-Gordon-1077","LaMarcus-Aldridge-1349","49900","273.17"
"C.J.-McCollum-17121","Patrick-Beverley-14108","Evan-Turner-1291","LaMarcus-Aldridge-1349","Clint-Capela-18610","De'Anthony-Melton-409081","Eric-Gordon-1077","James-Harden-1037","49900","273.14"
"De'Anthony-Melton-409081","Avery-Bradley-941","Marco-Belinelli-1033","LaMarcus-Aldridge-1349","Clint-Capela-18610","James-Harden-1037","Eric-Gordon-1077","Kyle-Lowry-1057","49700","273.11"
"Shai-Gilgeous-Alexander-408990","Patrick-Beverley-14108","DeMar-DeRozan-1053","LaMarcus-Aldridge-1349","Clint-Capela-18610","De'Anthony-Melton-409081","Eric-Gordon-1077","Jusuf-Nurkic-18619","49800","273.09"
"Patrick-Beverley-14108","De'Anthony-Melton-409081","Tobias-Harris-13332","Dante-Cunningham-1259","LaMarcus-Aldridge-1349","James-Harden-1037","Eric-Gordon-1077","Kyle-Lowry-1057","49500","273.04"
"De'Anthony-Melton-409081","James-Harden-1037","Marco-Belinelli-1033","Dante-Cunningham-1259","LaMarcus-Aldridge-1349","Kyle-Lowry-1057","Eric-Gordon-1077","Clint-Capela-18610","49700","273.03"
"Patty-Mills-13977","De'Anthony-Melton-409081","Evan-Turner-1291","LaMarcus-Aldridge-1349","Clint-Capela-18610","James-Harden-1037","Eric-Gordon-1077","Danilo-Gallinari-1329","49900","273.0"
"De'Anthony-Melton-409081","Avery-Bradley-941","Dante-Cunningham-1259","LaMarcus-Aldridge-1349","Clint-Capela-18610","James-Harden-1037","Eric-Gordon-1077","Kyle-Lowry-1057","49900","272.95"
"Patrick-Beverley-14108","De'Anthony-Melton-409081","Trevor-Ariza-1323","Tobias-Harris-13332","LaMarcus-Aldridge-1349","Eric-Gordon-1077","DeMar-DeRozan-1053","Clint-Capela-18610","49800","272.92"
"Patrick-Beverley-14108","Danny-Green-940","Tobias-Harris-13332","LaMarcus-Aldridge-1349","Clint-Capela-18610","De'Anthony-Melton-409081","Eric-Gordon-1077","Damian-Lillard-13900","49900","272.91"
"Patrick-Beverley-14108","De'Anthony-Melton-409081","Danny-Green-940","Danilo-Gallinari-1329","LaMarcus-Aldridge-1349","James-Harden-1037","Eric-Gordon-1077","Tobias-Harris-13332","49700","272.9"
"De'Anthony-Melton-409081","James-Harden-1037","Marco-Belinelli-1033","LaMarcus-Aldridge-1349","Clint-Capela-18610","Eric-Gordon-1077","Danny-Green-940","Danilo-Gallinari-1329","49900","272.89"
"Patrick-Beverley-14108","De'Anthony-Melton-409081","Marco-Belinelli-1033","LaMarcus-Aldridge-1349","Clint-Capela-18610","James-Harden-1037","Tobias-Harris-13332","Al-Farouq-Aminu-1279","50000","272.87"
"Patrick-Beverley-14108","De'Anthony-Melton-409081","DeMar-DeRozan-1053","LaMarcus-Aldridge-1349","Clint-Capela-18610","Eric-Gordon-1077","Tobias-Harris-13332","Jonas-Valanciunas-13301","49600","272.86"
"Shai-Gilgeous-Alexander-408990","Patrick-Beverley-14108","DeMar-DeRozan-1053","LaMarcus-Aldridge-1349","Clint-Capela-18610","De'Anthony-Melton-409081","Eric-Gordon-1077","Kyle-Lowry-1057","49500","272.85"
"Chris-Paul-1087","De'Anthony-Melton-409081","Marco-Belinelli-1033","Tobias-Harris-13332","Clint-Capela-18610","Eric-Gordon-1077","Danilo-Gallinari-1329","LaMarcus-Aldridge-1349","49800","272.83"
"De'Anthony-Melton-409081","Eric-Gordon-1077","Tobias-Harris-13332","Danilo-Gallinari-1329","LaMarcus-Aldridge-1349","Kyle-Lowry-1057","Evan-Turner-1291","Clint-Capela-18610","49900","272.83"
"Chris-Paul-1087","Danny-Green-940","DeMar-DeRozan-1053","LaMarcus-Aldridge-1349","Clint-Capela-18610","De'Anthony-Melton-409081","Eric-Gordon-1077","Patrick-Beverley-14108","49800","272.79"
"Shai-Gilgeous-Alexander-408990","Patrick-Beverley-14108","Eric-Gordon-1077","Serge-Ibaka-1294","Clint-Capela-18610","De'Anthony-Melton-409081","LaMarcus-Aldridge-1349","James-Harden-1037","50000","272.76"
"Chris-Paul-1087","Avery-Bradley-941","Tobias-Harris-13332","LaMarcus-Aldridge-1349","Clint-Capela-18610","De'Anthony-Melton-409081","Eric-Gordon-1077","Danilo-Gallinari-1329","50000","272.75"
"Shai-Gilgeous-Alexander-408990","Patrick-Beverley-14108","DeMar-DeRozan-1053","Al-Farouq-Aminu-1279","LaMarcus-Aldridge-1349","De'Anthony-Melton-409081","Eric-Gordon-1077","James-Harden-1037","50000","272.74"
"Patrick-Beverley-14108","De'Anthony-Melton-409081","Mikal-Bridges-408842","Tobias-Harris-13332","LaMarcus-Aldridge-1349","James-Harden-1037","Eric-Gordon-1077","Kyle-Lowry-1057","49800","272.73"
"De'Anthony-Melton-409081","James-Harden-1037","Marco-Belinelli-1033","LaMarcus-Aldridge-1349","Clint-Capela-18610","Eric-Gordon-1077","Mikal-Bridges-408842","Kyle-Lowry-1057","50000","272.72"
"Chris-Paul-1087","Patrick-Beverley-14108","Evan-Turner-1291","LaMarcus-Aldridge-1349","Clint-Capela-18610","De'Anthony-Melton-409081","Eric-Gordon-1077","Damian-Lillard-13900","49900","272.68"
"Chris-Paul-1087","De'Anthony-Melton-409081","Dante-Cunningham-1259","LaMarcus-Aldridge-1349","Clint-Capela-18610","Eric-Gordon-1077","Danilo-Gallinari-1329","Tobias-Harris-13332","50000","272.67"
"Chris-Paul-1087","Patrick-Beverley-14108","Evan-Turner-1291","Danilo-Gallinari-1329","LaMarcus-Aldridge-1349","De'Anthony-Melton-409081","Eric-Gordon-1077","James-Harden-1037","49700","272.67"
"Patrick-Beverley-14108","De'Anthony-Melton-409081","Tobias-Harris-13332","LaMarcus-Aldridge-1349","Jakob-Poeltl-35187","James-Harden-1037","Eric-Gordon-1077","Kyle-Lowry-1057","49900","272.67"
"Patrick-Beverley-14108","De'Anthony-Melton-409081","Marco-Belinelli-1033","Danilo-Gallinari-1329","LaMarcus-Aldridge-1349","James-Harden-1037","Eric-Gordon-1077","Clint-Capela-18610","48900","272.65"
"De'Anthony-Melton-409081","Marco-Belinelli-1033","Evan-Turner-1291","Tobias-Harris-13332","LaMarcus-Aldridge-1349","James-Harden-1037","Eric-Gordon-1077","Kyle-Lowry-1057","49900","272.64"
"Patty-Mills-13977","Shai-Gilgeous-Alexander-408990","DeMar-DeRozan-1053","LaMarcus-Aldridge-1349","Clint-Capela-18610","De'Anthony-Melton-409081","Tobias-Harris-13332","Eric-Gordon-1077","50000","272.63"
"Patty-Mills-13977","Patrick-Beverley-14108","Tobias-Harris-13332","LaMarcus-Aldridge-1349","Clint-Capela-18610","De'Anthony-Melton-409081","Evan-Turner-1291","James-Harden-1037","49900","272.6"
"Patrick-Beverley-14108","De'Anthony-Melton-409081","DeMar-DeRozan-1053","LaMarcus-Aldridge-1349","Clint-Capela-18610","Eric-Gordon-1077","Tobias-Harris-13332","Al-Farouq-Aminu-1279","49500","272.6"
"Patrick-Beverley-14108","Avery-Bradley-941","Eric-Gordon-1077","LaMarcus-Aldridge-1349","Clint-Capela-18610","De'Anthony-Melton-409081","Danilo-Gallinari-1329","James-Harden-1037","49100","272.57"
"Chris-Paul-1087","Avery-Bradley-941","Marco-Belinelli-1033","Tobias-Harris-13332","LaMarcus-Aldridge-1349","De'Anthony-Melton-409081","Eric-Gordon-1077","James-Harden-1037","50000","272.56"
"Patrick-Beverley-14108","De'Anthony-Melton-409081","Dante-Cunningham-1259","LaMarcus-Aldridge-1349","Clint-Capela-18610","Eric-Gordon-1077","Danilo-Gallinari-1329","James-Harden-1037","49100","272.49"
"Patrick-Beverley-14108","De'Anthony-Melton-409081","Marco-Belinelli-1033","LaMarcus-Aldridge-1349","Clint-Capela-18610","James-Harden-1037","Danny-Green-940","Tobias-Harris-13332","49900","272.49"
"Chris-Paul-1087","De'Anthony-Melton-409081","Marco-Belinelli-1033","Dante-Cunningham-1259","LaMarcus-Aldridge-1349","James-Harden-1037","Eric-Gordon-1077","Tobias-Harris-13332","50000","272.48"
"Patrick-Beverley-14108","De'Anthony-Melton-409081","Eric-Gordon-1077","LaMarcus-Aldridge-1349","Jonas-Valanciunas-13301","James-Harden-1037","Danilo-Gallinari-1329","Jusuf-Nurkic-18619","50000","272.48"
"Patty-Mills-13977","De'Anthony-Melton-409081","Eric-Gordon-1077","LaMarcus-Aldridge-1349","Clint-Capela-18610","Chris-Paul-1087","Danilo-Gallinari-1329","Kyle-Lowry-1057","50000","272.44"
"Shai-Gilgeous-Alexander-408990","De'Anthony-Melton-409081","Marco-Belinelli-1033","Tobias-Harris-13332","LaMarcus-Aldridge-1349","Eric-Gordon-1077","Danilo-Gallinari-1329","James-Harden-1037","49900","272.4"
"Patrick-Beverley-14108","De'Anthony-Melton-409081","Eric-Gordon-1077","LaMarcus-Aldridge-1349","Clint-Capela-18610","Kyle-Lowry-1057","Danilo-Gallinari-1329","Jusuf-Nurkic-18619","49400","272.33"
"Patrick-Beverley-14108","De'Anthony-Melton-409081","Eric-Gordon-1077","LaMarcus-Aldridge-1349","Clint-Capela-18610","James-Harden-1037","Maurice-Harkless-16971","Kyle-Lowry-1057","49900","272.31"
"Patrick-Beverley-14108","De'Anthony-Melton-409081","Trevor-Ariza-1323","Danilo-Gallinari-1329","LaMarcus-Aldridge-1349","James-Harden-1037","Eric-Gordon-1077","Kyle-Lowry-1057","49900","272.3"
"Shai-Gilgeous-Alexander-408990","Patrick-Beverley-14108","DeMar-DeRozan-1053","Tobias-Harris-13332","LaMarcus-Aldridge-1349","De'Anthony-Melton-409081","Eric-Gordon-1077","Chris-Paul-1087","49800","272.3"
"Shai-Gilgeous-Alexander-408990","Marco-Belinelli-1033","DeMar-DeRozan-1053","LaMarcus-Aldridge-1349","Clint-Capela-18610","De'Anthony-Melton-409081","Eric-Gordon-1077","Chris-Paul-1087","50000","272.29"
"Patty-Mills-13977","Patrick-Beverley-14108","DeMar-DeRozan-1053","Josh-Jackson-37890","LaMarcus-Aldridge-1349","De'Anthony-Melton-409081","Eric-Gordon-1077","James-Harden-1037","49800","272.28"
"Chris-Paul-1087","Patrick-Beverley-14108","Marco-Belinelli-1033","LaMarcus-Aldridge-1349","Clint-Capela-18610","De'Anthony-Melton-409081","Evan-Turner-1291","James-Harden-1037","49900","272.26"
"C.J.-McCollum-17121","Patrick-Beverley-14108","Tobias-Harris-13332","LaMarcus-Aldridge-1349","Clint-Capela-18610","De'Anthony-Melton-409081","Eric-Gordon-1077","Jusuf-Nurkic-18619","49900","272.25"
"Patrick-Beverley-14108","De'Anthony-Melton-409081","Josh-Jackson-37890","Danilo-Gallinari-1329","Clint-Capela-18610","Damian-Lillard-13900","Eric-Gordon-1077","LaMarcus-Aldridge-1349","49900","272.25"
"Patrick-Beverley-14108","De'Anthony-Melton-409081","Eric-Gordon-1077","LaMarcus-Aldridge-1349","Jonas-Valanciunas-13301","James-Harden-1037","Danilo-Gallinari-1329","Kyle-Lowry-1057","49700","272.24"
"Patrick-Beverley-14108","Danny-Green-940","DeMar-DeRozan-1053","LaMarcus-Aldridge-1349","Clint-Capela-18610","De'Anthony-Melton-409081","Tobias-Harris-13332","Eric-Gordon-1077","49400","272.22"
"Patrick-Beverley-14108","De'Anthony-Melton-409081","Eric-Gordon-1077","Danilo-Gallinari-1329","Jusuf-Nurkic-18619","James-Harden-1037","Al-Farouq-Aminu-1279","LaMarcus-Aldridge-1349","49900","272.22"
"Derrick-White-37858","De'Anthony-Melton-409081","Marco-Belinelli-1033","Tobias-Harris-13332","Clint-Capela-18610","James-Harden-1037","Eric-Gordon-1077","LaMarcus-Aldridge-1349","50000","272.18"
"Patrick-Beverley-14108","De'Anthony-Melton-409081","Mikal-Bridges-408842","Danilo-Gallinari-1329","LaMarcus-Aldridge-1349","James-Harden-1037","Eric-Gordon-1077","Clint-Capela-18610","49400","272.18"
"Patrick-Beverley-14108","De'Anthony-Melton-409081","Marco-Belinelli-1033","LaMarcus-Aldridge-1349","Jusuf-Nurkic-18619","James-Harden-1037","Eric-Gordon-1077","Kyle-Lowry-1057","49400","272.14"
"Patrick-Beverley-14108","De'Anthony-Melton-409081","Eric-Gordon-1077","LaMarcus-Aldridge-1349","Jakob-Poeltl-35187","James-Harden-1037","Danilo-Gallinari-1329","Clint-Capela-18610","49500","272.12"
"Patty-Mills-13977","De'Anthony-Melton-409081","Tobias-Harris-13332","LaMarcus-Aldridge-1349","Jusuf-Nurkic-18619","Eric-Gordon-1077","Danilo-Gallinari-1329","Clint-Capela-18610","49900","272.11"
"Patrick-Beverley-14108","De'Anthony-Melton-409081","DeMar-DeRozan-1053","Tobias-Harris-13332","LaMarcus-Aldridge-1349","Eric-Gordon-1077","Josh-Jackson-37890","Kyle-Lowry-1057","49800","272.11"
"Patrick-Beverley-14108","De'Anthony-Melton-409081","Evan-Turner-1291","Tobias-Harris-13332","LaMarcus-Aldridge-1349","Damian-Lillard-13900","Eric-Gordon-1077","Clint-Capela-18610","49500","272.11"
"De'Anthony-Melton-409081","DeMar-DeRozan-1053","Marco-Belinelli-1033","LaMarcus-Aldridge-1349","Clint-Capela-18610","Eric-Gordon-1077","Josh-Jackson-37890","Kyle-Lowry-1057","50000","272.1"
"Patrick-Beverley-14108","De'Anthony-Melton-409081","Evan-Turner-1291","Tobias-Harris-13332","LaMarcus-Aldridge-1349","James-Harden-1037","Eric-Gordon-1077","Danilo-Gallinari-1329","49300","272.1"
"De'Anthony-Melton-409081","Marco-Belinelli-1033","Evan-Turner-1291","LaMarcus-Aldridge-1349","Clint-Capela-18610","James-Harden-1037","Eric-Gordon-1077","Danilo-Gallinari-1329","49500","272.09"
"Patrick-Beverley-14108","De'Anthony-Melton-409081","Marco-Belinelli-1033","Josh-Jackson-37890","LaMarcus-Aldridge-1349","James-Harden-1037","Eric-Gordon-1077","Damian-Lillard-13900","49900","272.06"
"Fred-VanVleet-36011","Patrick-Beverley-14108","Tobias-Harris-13332","LaMarcus-Aldridge-1349","Clint-Capela-18610","De'Anthony-Melton-409081","Eric-Gordon-1077","Damian-Lillard-13900","49700","272.04"
