"Jamal-Murray-35211","Andrew-Wiggins-18620","Jeff-Green-1314","Mason-Plumlee-16798","Willie-Cauley-Stein-18951","John-Wall-1084","Dewayne-Dedmon-16894","Julius-Randle-18632","50000","295.86"
"Jamal-Murray-35211","Andrew-Wiggins-18620","Jeff-Green-1314","Serge-Ibaka-1294","Willie-Cauley-Stein-18951","John-Wall-1084","Julius-Randle-18632","Rodions-Kurucs-408801","50000","295.77"
"Darren-Collison-1060","Mikal-Bridges-408842","Jeff-Green-1314","Kawhi-Leonard-13310","Julius-Randle-18632","John-Wall-1084","Nemanja-Bjelica-31814","Willie-Cauley-Stein-18951","50000","295.74"
"Jamal-Murray-35211","Victor-Oladipo-16807","Jeff-Green-1314","Serge-Ibaka-1294","Willie-Cauley-Stein-18951","John-Wall-1084","Nemanja-Bjelica-31814","Dewayne-Dedmon-16894","50000","295.68"
"John-Wall-1084","Mikal-Bridges-408842","Jeff-Green-1314","Mason-Plumlee-16798","Willie-Cauley-Stein-18951","Victor-Oladipo-16807","Nemanja-Bjelica-31814","Julius-Randle-18632","50000","295.5"

"Jamal-Murray-35211","Andrew-Wiggins-18620","Jeff-Green-1314","Mason-Plumlee-16798","Willie-Cauley-Stein-18951","John-Wall-1084","Dewayne-Dedmon-16894","Julius-Randle-18632","50000","295.86"
"Jamal-Murray-35211","Andrew-Wiggins-18620","Jeff-Green-1314","Serge-Ibaka-1294","Willie-Cauley-Stein-18951","John-Wall-1084","Julius-Randle-18632","Rodions-Kurucs-408801","50000","295.77"
"Darren-Collison-1060","Mikal-Bridges-408842","Jeff-Green-1314","Kawhi-Leonard-13310","Julius-Randle-18632","John-Wall-1084","Nemanja-Bjelica-31814","Willie-Cauley-Stein-18951","50000","295.74"
"Jamal-Murray-35211","Victor-Oladipo-16807","Jeff-Green-1314","Serge-Ibaka-1294","Willie-Cauley-Stein-18951","John-Wall-1084","Nemanja-Bjelica-31814","Dewayne-Dedmon-16894","50000","295.68"
"John-Wall-1084","Mikal-Bridges-408842","Jeff-Green-1314","Mason-Plumlee-16798","Willie-Cauley-Stein-18951","Victor-Oladipo-16807","Nemanja-Bjelica-31814","Julius-Randle-18632","50000","295.5"
"Jamal-Murray-35211","Andrew-Wiggins-18620","Rodions-Kurucs-408801","Julius-Randle-18632","Willie-Cauley-Stein-18951","John-Wall-1084","Jeff-Green-1314","Montrezl-Harrell-18930","50000","295.44"
"Jamal-Murray-35211","Victor-Oladipo-16807","Jeff-Green-1314","Montrezl-Harrell-18930","Willie-Cauley-Stein-18951","John-Wall-1084","Nemanja-Bjelica-31814","Dewayne-Dedmon-16894","50000","295.35"
"John-Wall-1084","Mikal-Bridges-408842","Rodions-Kurucs-408801","Julius-Randle-18632","Willie-Cauley-Stein-18951","Victor-Oladipo-16807","Jeff-Green-1314","Dewayne-Dedmon-16894","49900","295.09"
"Jamal-Murray-35211","Mikal-Bridges-408842","Jeff-Green-1314","Serge-Ibaka-1294","Willie-Cauley-Stein-18951","John-Wall-1084","Nemanja-Bjelica-31814","Kawhi-Leonard-13310","49800","295.0"
"Darren-Collison-1060","Victor-Oladipo-16807","Rodions-Kurucs-408801","Julius-Randle-18632","Willie-Cauley-Stein-18951","John-Wall-1084","Jeff-Green-1314","Dewayne-Dedmon-16894","50000","294.99"
"Jamal-Murray-35211","Andrew-Wiggins-18620","Nemanja-Bjelica-31814","Julius-Randle-18632","Willie-Cauley-Stein-18951","John-Wall-1084","Dewayne-Dedmon-16894","Jeff-Green-1314","49700","294.95"
"Jamal-Murray-35211","Andrew-Wiggins-18620","Rodions-Kurucs-408801","Mason-Plumlee-16798","Willie-Cauley-Stein-18951","John-Wall-1084","Julius-Randle-18632","Nemanja-Bjelica-31814","50000","294.92"
"Darren-Collison-1060","Jamal-Murray-35211","Jeff-Green-1314","Serge-Ibaka-1294","Willie-Cauley-Stein-18951","John-Wall-1084","Nemanja-Bjelica-31814","Kawhi-Leonard-13310","49900","294.9"
"Jamal-Murray-35211","Jeremy-Lamb-13955","Jeff-Green-1314","Serge-Ibaka-1294","Willie-Cauley-Stein-18951","John-Wall-1084","Julius-Randle-18632","Dewayne-Dedmon-16894","49900","294.88"
"Jamal-Murray-35211","Wesley-Matthews-1339","Jeff-Green-1314","Serge-Ibaka-1294","Willie-Cauley-Stein-18951","John-Wall-1084","Nemanja-Bjelica-31814","Kawhi-Leonard-13310","50000","294.78"
"Jamal-Murray-35211","Kent-Bazemore-13987","Jeff-Green-1314","Serge-Ibaka-1294","Willie-Cauley-Stein-18951","John-Wall-1084","Julius-Randle-18632","Mason-Plumlee-16798","50000","294.69"
"Jamal-Murray-35211","Mikal-Bridges-408842","Jeff-Green-1314","Kawhi-Leonard-13310","Willie-Cauley-Stein-18951","John-Wall-1084","Nemanja-Bjelica-31814","Montrezl-Harrell-18930","49800","294.67"
"Jamal-Murray-35211","Victor-Oladipo-16807","Jeff-Green-1314","Serge-Ibaka-1294","Willie-Cauley-Stein-18951","John-Wall-1084","Nemanja-Bjelica-31814","Mason-Plumlee-16798","49900","294.66"
"Jamal-Murray-35211","Mikal-Bridges-408842","Kawhi-Leonard-13310","Mason-Plumlee-16798","Willie-Cauley-Stein-18951","John-Wall-1084","Dewayne-Dedmon-16894","Rodions-Kurucs-408801","50000","294.65"
"Darren-Collison-1060","Jamal-Murray-35211","Jeff-Green-1314","Kawhi-Leonard-13310","Willie-Cauley-Stein-18951","John-Wall-1084","Nemanja-Bjelica-31814","Montrezl-Harrell-18930","49900","294.57"
"Jamal-Murray-35211","Jeremy-Lamb-13955","Jeff-Green-1314","Julius-Randle-18632","Willie-Cauley-Stein-18951","John-Wall-1084","Montrezl-Harrell-18930","Dewayne-Dedmon-16894","49900","294.55"
"Jamal-Murray-35211","Andrew-Wiggins-18620","Trevor-Ariza-1323","Jeff-Green-1314","Willie-Cauley-Stein-18951","John-Wall-1084","Nemanja-Bjelica-31814","Julius-Randle-18632","49900","294.52"
"Jamal-Murray-35211","Andrew-Wiggins-18620","James-Johnson-1195","Serge-Ibaka-1294","Mason-Plumlee-16798","John-Wall-1084","Julius-Randle-18632","Willie-Cauley-Stein-18951","50000","294.51"
"Jamal-Murray-35211","Wesley-Matthews-1339","Jeff-Green-1314","Kawhi-Leonard-13310","Willie-Cauley-Stein-18951","John-Wall-1084","Nemanja-Bjelica-31814","Montrezl-Harrell-18930","50000","294.45"
"John-Wall-1084","Mikal-Bridges-408842","Jeff-Green-1314","Serge-Ibaka-1294","Willie-Cauley-Stein-18951","Andrew-Wiggins-18620","Kawhi-Leonard-13310","Mason-Plumlee-16798","50000","294.44"
"Jamal-Murray-35211","Kent-Bazemore-13987","Jeff-Green-1314","Mason-Plumlee-16798","Willie-Cauley-Stein-18951","John-Wall-1084","Montrezl-Harrell-18930","Julius-Randle-18632","50000","294.36"
"Jamal-Murray-35211","Jeremy-Lamb-13955","Jeff-Green-1314","Kawhi-Leonard-13310","Willie-Cauley-Stein-18951","John-Wall-1084","Nemanja-Bjelica-31814","Rodions-Kurucs-408801","50000","294.33"
"Jamal-Murray-35211","Victor-Oladipo-16807","Jeff-Green-1314","Mason-Plumlee-16798","Willie-Cauley-Stein-18951","John-Wall-1084","Montrezl-Harrell-18930","Nemanja-Bjelica-31814","49900","294.33"
"Darren-Collison-1060","Mikal-Bridges-408842","Rodions-Kurucs-408801","Julius-Randle-18632","Willie-Cauley-Stein-18951","John-Wall-1084","Jeff-Green-1314","Kawhi-Leonard-13310","49800","294.31"
"Jamal-Murray-35211","Mikal-Bridges-408842","Nemanja-Bjelica-31814","Serge-Ibaka-1294","Montrezl-Harrell-18930","John-Wall-1084","Julius-Randle-18632","Willie-Cauley-Stein-18951","49700","294.28"
"Jamal-Murray-35211","Mikal-Bridges-408842","Nemanja-Bjelica-31814","Julius-Randle-18632","Willie-Cauley-Stein-18951","John-Wall-1084","Dewayne-Dedmon-16894","DeAndre-Jordan-1486","49900","294.27"
"Jamal-Murray-35211","Victor-Oladipo-16807","Jeff-Green-1314","Serge-Ibaka-1294","Willie-Cauley-Stein-18951","John-Wall-1084","Dewayne-Dedmon-16894","Rodions-Kurucs-408801","49800","294.25"
"John-Wall-1084","Mikal-Bridges-408842","Jeff-Green-1314","Julius-Randle-18632","Wendell-Carter-408878","Victor-Oladipo-16807","Dewayne-Dedmon-16894","Willie-Cauley-Stein-18951","50000","294.25"
"Jamal-Murray-35211","Mikal-Bridges-408842","Trevor-Ariza-1323","Dewayne-Dedmon-16894","Willie-Cauley-Stein-18951","John-Wall-1084","Jeff-Green-1314","Kawhi-Leonard-13310","49900","294.25"
"Jamal-Murray-35211","Mikal-Bridges-408842","Rodions-Kurucs-408801","Serge-Ibaka-1294","Willie-Cauley-Stein-18951","John-Wall-1084","Dewayne-Dedmon-16894","Nikola-Vucevic-13296","50000","294.25"
"John-Wall-1084","Andrew-Wiggins-18620","Jeff-Green-1314","Serge-Ibaka-1294","Willie-Cauley-Stein-18951","Kent-Bazemore-13987","Julius-Randle-18632","Dewayne-Dedmon-16894","50000","294.24"
"Jamal-Murray-35211","Mikal-Bridges-408842","Rodions-Kurucs-408801","Jeff-Green-1314","Willie-Cauley-Stein-18951","John-Wall-1084","Kawhi-Leonard-13310","TJ-Warren-18634","50000","294.23"
"John-Wall-1084","Andrew-Wiggins-18620","Jeff-Green-1314","Serge-Ibaka-1294","Willie-Cauley-Stein-18951","Victor-Oladipo-16807","Nemanja-Bjelica-31814","Dewayne-Dedmon-16894","49900","294.21"
"Jamal-Murray-35211","Andrew-Wiggins-18620","Mikal-Bridges-408842","Julius-Randle-18632","Willie-Cauley-Stein-18951","John-Wall-1084","Dewayne-Dedmon-16894","Mason-Plumlee-16798","50000","294.2"
"John-Wall-1084","Mikal-Bridges-408842","Rodions-Kurucs-408801","Julius-Randle-18632","Willie-Cauley-Stein-18951","Wesley-Matthews-1339","Jeff-Green-1314","Kawhi-Leonard-13310","49900","294.19"
"Jamal-Murray-35211","Mikal-Bridges-408842","Kawhi-Leonard-13310","Serge-Ibaka-1294","Willie-Cauley-Stein-18951","John-Wall-1084","Nemanja-Bjelica-31814","Josh-Jackson-37890","50000","294.18"
"Jamal-Murray-35211","Andrew-Wiggins-18620","James-Johnson-1195","Mason-Plumlee-16798","Montrezl-Harrell-18930","John-Wall-1084","Julius-Randle-18632","Willie-Cauley-Stein-18951","50000","294.18"
"Darren-Collison-1060","Jamal-Murray-35211","Nemanja-Bjelica-31814","Serge-Ibaka-1294","Montrezl-Harrell-18930","John-Wall-1084","Julius-Randle-18632","Willie-Cauley-Stein-18951","49800","294.18"
"Darren-Collison-1060","Jamal-Murray-35211","Nemanja-Bjelica-31814","Julius-Randle-18632","Willie-Cauley-Stein-18951","John-Wall-1084","Dewayne-Dedmon-16894","DeAndre-Jordan-1486","50000","294.17"
"Jamal-Murray-35211","Mikal-Bridges-408842","Jeff-Green-1314","Mason-Plumlee-16798","Nikola-Vucevic-13296","John-Wall-1084","Julius-Randle-18632","Nemanja-Bjelica-31814","50000","294.16"
"Darren-Collison-1060","Jamal-Murray-35211","Trevor-Ariza-1323","Dewayne-Dedmon-16894","Willie-Cauley-Stein-18951","John-Wall-1084","Jeff-Green-1314","Kawhi-Leonard-13310","50000","294.15"
"John-Wall-1084","Mikal-Bridges-408842","Rodions-Kurucs-408801","Jeff-Green-1314","Willie-Cauley-Stein-18951","Victor-Oladipo-16807","Kawhi-Leonard-13310","James-Johnson-1195","50000","294.13"
"Jamal-Murray-35211","Andrew-Wiggins-18620","Josh-Jackson-37890","Julius-Randle-18632","Willie-Cauley-Stein-18951","John-Wall-1084","Dewayne-Dedmon-16894","Nemanja-Bjelica-31814","49900","294.13"
"Jamal-Murray-35211","Andrew-Wiggins-18620","Mikal-Bridges-408842","Serge-Ibaka-1294","Julius-Randle-18632","John-Wall-1084","Rodions-Kurucs-408801","Willie-Cauley-Stein-18951","50000","294.11"
"John-Wall-1084","Mikal-Bridges-408842","Jeff-Green-1314","Mason-Plumlee-16798","Willie-Cauley-Stein-18951","Andrew-Wiggins-18620","Montrezl-Harrell-18930","Kawhi-Leonard-13310","50000","294.11"
"Jamal-Murray-35211","Mikal-Bridges-408842","Jeff-Green-1314","Serge-Ibaka-1294","Willie-Cauley-Stein-18951","John-Wall-1084","Julius-Randle-18632","DeAndre-Jordan-1486","49800","294.1"
"Darren-Collison-1060","Wesley-Matthews-1339","Rodions-Kurucs-408801","Julius-Randle-18632","Willie-Cauley-Stein-18951","John-Wall-1084","Jeff-Green-1314","Kawhi-Leonard-13310","50000","294.09"
"Darren-Collison-1060","Mikal-Bridges-408842","James-Johnson-1195","Dewayne-Dedmon-16894","Willie-Cauley-Stein-18951","John-Wall-1084","Kawhi-Leonard-13310","Julius-Randle-18632","49900","294.07"
"John-Wall-1084","Mikal-Bridges-408842","Rodions-Kurucs-408801","Mason-Plumlee-16798","Willie-Cauley-Stein-18951","Victor-Oladipo-16807","Julius-Randle-18632","Jeff-Green-1314","49800","294.07"
"Jamal-Murray-35211","Wesley-Matthews-1339","Nemanja-Bjelica-31814","Serge-Ibaka-1294","Montrezl-Harrell-18930","John-Wall-1084","Julius-Randle-18632","Willie-Cauley-Stein-18951","49900","294.06"
"Jamal-Murray-35211","Jeremy-Lamb-13955","Nemanja-Bjelica-31814","Julius-Randle-18632","Willie-Cauley-Stein-18951","John-Wall-1084","Dewayne-Dedmon-16894","Mason-Plumlee-16798","49900","294.03"
"Jamal-Murray-35211","Mikal-Bridges-408842","Nemanja-Bjelica-31814","Serge-Ibaka-1294","Willie-Cauley-Stein-18951","John-Wall-1084","Dewayne-Dedmon-16894","Victor-Oladipo-16807","50000","294.02"
"John-Wall-1084","Mikal-Bridges-408842","Jeff-Green-1314","Kawhi-Leonard-13310","Julius-Randle-18632","Andrew-Wiggins-18620","Nemanja-Bjelica-31814","Rodions-Kurucs-408801","50000","294.02"
"Jamal-Murray-35211","Jeremy-Lamb-13955","Jeff-Green-1314","Dewayne-Dedmon-16894","Nikola-Vucevic-13296","John-Wall-1084","Nemanja-Bjelica-31814","Willie-Cauley-Stein-18951","50000","294.02"
"Jamal-Murray-35211","Victor-Oladipo-16807","Nemanja-Bjelica-31814","Serge-Ibaka-1294","Willie-Cauley-Stein-18951","John-Wall-1084","Montrezl-Harrell-18930","James-Johnson-1195","50000","294.0"
"Darren-Collison-1060","Jamal-Murray-35211","Jeff-Green-1314","Serge-Ibaka-1294","Willie-Cauley-Stein-18951","John-Wall-1084","Julius-Randle-18632","DeAndre-Jordan-1486","49900","294.0"
"Darren-Collison-1060","Mikal-Bridges-408842","Jeff-Green-1314","Julius-Randle-18632","Nikola-Vucevic-13296","John-Wall-1084","Dewayne-Dedmon-16894","Willie-Cauley-Stein-18951","49800","294.0"
"Jamal-Murray-35211","Andrew-Wiggins-18620","Jeff-Green-1314","Kawhi-Leonard-13310","Willie-Cauley-Stein-18951","John-Wall-1084","Nemanja-Bjelica-31814","James-Johnson-1195","49800","293.99"
"Darren-Collison-1060","Victor-Oladipo-16807","Rodions-Kurucs-408801","Mason-Plumlee-16798","Willie-Cauley-Stein-18951","John-Wall-1084","Julius-Randle-18632","Jeff-Green-1314","49900","293.97"
"Jamal-Murray-35211","Andrew-Wiggins-18620","Jeff-Green-1314","Serge-Ibaka-1294","Julius-Randle-18632","John-Wall-1084","Josh-Jackson-37890","Willie-Cauley-Stein-18951","49800","293.96"
"John-Wall-1084","Mikal-Bridges-408842","James-Johnson-1195","Dewayne-Dedmon-16894","Willie-Cauley-Stein-18951","Wesley-Matthews-1339","Kawhi-Leonard-13310","Julius-Randle-18632","50000","293.95"
"Jamal-Murray-35211","Jeremy-Lamb-13955","Rodions-Kurucs-408801","Julius-Randle-18632","Willie-Cauley-Stein-18951","John-Wall-1084","Nemanja-Bjelica-31814","Serge-Ibaka-1294","49900","293.94"
"Jamal-Murray-35211","Andrew-Wiggins-18620","Jeff-Green-1314","Mason-Plumlee-16798","Willie-Cauley-Stein-18951","John-Wall-1084","Nemanja-Bjelica-31814","Julius-Randle-18632","49600","293.93"
"Jamal-Murray-35211","Mikal-Bridges-408842","TJ-Warren-18634","Mason-Plumlee-16798","Willie-Cauley-Stein-18951","John-Wall-1084","Julius-Randle-18632","Dewayne-Dedmon-16894","49900","293.93"
"Jamal-Murray-35211","Mikal-Bridges-408842","TJ-Warren-18634","Dewayne-Dedmon-16894","Willie-Cauley-Stein-18951","John-Wall-1084","Jeff-Green-1314","Nikola-Vucevic-13296","50000","293.92"
"Jamal-Murray-35211","Jeremy-Lamb-13955","James-Johnson-1195","Serge-Ibaka-1294","Willie-Cauley-Stein-18951","John-Wall-1084","Kawhi-Leonard-13310","Jeff-Green-1314","50000","293.92"
"Jamal-Murray-35211","Mikal-Bridges-408842","Rodions-Kurucs-408801","Montrezl-Harrell-18930","Nikola-Vucevic-13296","John-Wall-1084","Dewayne-Dedmon-16894","Willie-Cauley-Stein-18951","50000","293.92"
"Jamal-Murray-35211","Victor-Oladipo-16807","Rodions-Kurucs-408801","Dewayne-Dedmon-16894","Willie-Cauley-Stein-18951","John-Wall-1084","Jeff-Green-1314","Montrezl-Harrell-18930","49800","293.92"
"John-Wall-1084","Andrew-Wiggins-18620","Jeff-Green-1314","Julius-Randle-18632","Willie-Cauley-Stein-18951","Kent-Bazemore-13987","Montrezl-Harrell-18930","Dewayne-Dedmon-16894","50000","293.91"
"Jamal-Murray-35211","Victor-Oladipo-16807","Jeff-Green-1314","Mason-Plumlee-16798","Willie-Cauley-Stein-18951","John-Wall-1084","Dewayne-Dedmon-16894","Trevor-Ariza-1323","50000","293.91"
"John-Wall-1084","Mikal-Bridges-408842","Jeff-Green-1314","Julius-Randle-18632","Nikola-Vucevic-13296","Wesley-Matthews-1339","Dewayne-Dedmon-16894","Willie-Cauley-Stein-18951","49900","293.88"
"Jamal-Murray-35211","Jeremy-Lamb-13955","Jeff-Green-1314","Nemanja-Bjelica-31814","Willie-Cauley-Stein-18951","John-Wall-1084","Andrew-Wiggins-18620","Julius-Randle-18632","50000","293.88"
"John-Wall-1084","Andrew-Wiggins-18620","Jeff-Green-1314","Montrezl-Harrell-18930","Willie-Cauley-Stein-18951","Victor-Oladipo-16807","Nemanja-Bjelica-31814","Dewayne-Dedmon-16894","49900","293.88"
"Jamal-Murray-35211","Wesley-Matthews-1339","Jeff-Green-1314","Serge-Ibaka-1294","Willie-Cauley-Stein-18951","John-Wall-1084","Julius-Randle-18632","DeAndre-Jordan-1486","50000","293.88"
"Jamal-Murray-35211","Jeremy-Lamb-13955","Jeff-Green-1314","Serge-Ibaka-1294","Willie-Cauley-Stein-18951","John-Wall-1084","Julius-Randle-18632","Mason-Plumlee-16798","49800","293.86"
"Jamal-Murray-35211","Mikal-Bridges-408842","Trevor-Ariza-1323","Serge-Ibaka-1294","Dewayne-Dedmon-16894","John-Wall-1084","Julius-Randle-18632","Willie-Cauley-Stein-18951","49800","293.86"
"Jamal-Murray-35211","Mikal-Bridges-408842","Kawhi-Leonard-13310","Montrezl-Harrell-18930","Willie-Cauley-Stein-18951","John-Wall-1084","Nemanja-Bjelica-31814","Josh-Jackson-37890","50000","293.85"
"John-Wall-1084","Wesley-Matthews-1339","Rodions-Kurucs-408801","Mason-Plumlee-16798","Willie-Cauley-Stein-18951","Victor-Oladipo-16807","Julius-Randle-18632","Jeff-Green-1314","50000","293.85"
"Jamal-Murray-35211","Mikal-Bridges-408842","TJ-Warren-18634","Serge-Ibaka-1294","Willie-Cauley-Stein-18951","John-Wall-1084","Rodions-Kurucs-408801","Julius-Randle-18632","49900","293.84"
"Darren-Collison-1060","Mikal-Bridges-408842","DeMarre-Carroll-1174","Julius-Randle-18632","Willie-Cauley-Stein-18951","John-Wall-1084","Kawhi-Leonard-13310","Dewayne-Dedmon-16894","50000","293.84"
"Jamal-Murray-35211","Victor-Oladipo-16807","Jeff-Green-1314","Serge-Ibaka-1294","Julius-Randle-18632","John-Wall-1084","Nemanja-Bjelica-31814","James-Johnson-1195","49900","293.83"
"Darren-Collison-1060","Jamal-Murray-35211","TJ-Warren-18634","Mason-Plumlee-16798","Willie-Cauley-Stein-18951","John-Wall-1084","Julius-Randle-18632","Dewayne-Dedmon-16894","50000","293.83"
"John-Wall-1084","Mikal-Bridges-408842","James-Johnson-1195","Mason-Plumlee-16798","Dewayne-Dedmon-16894","Victor-Oladipo-16807","Julius-Randle-18632","Willie-Cauley-Stein-18951","49900","293.83"
"Jamal-Murray-35211","Mikal-Bridges-408842","James-Johnson-1195","Rodions-Kurucs-408801","Julius-Randle-18632","John-Wall-1084","Kawhi-Leonard-13310","Dewayne-Dedmon-16894","50000","293.82"
"John-Wall-1084","Mikal-Bridges-408842","James-Johnson-1195","Dewayne-Dedmon-16894","Willie-Cauley-Stein-18951","Victor-Oladipo-16807","Jeff-Green-1314","Nikola-Vucevic-13296","50000","293.82"
"Jamal-Murray-35211","Victor-Oladipo-16807","Trevor-Ariza-1323","Serge-Ibaka-1294","Willie-Cauley-Stein-18951","John-Wall-1084","Jeff-Green-1314","Rodions-Kurucs-408801","50000","293.82"
"John-Wall-1084","Mikal-Bridges-408842","TJ-Warren-18634","Serge-Ibaka-1294","Willie-Cauley-Stein-18951","Andrew-Wiggins-18620","Nemanja-Bjelica-31814","Julius-Randle-18632","50000","293.8"
"Shai-Gilgeous-Alexander-408990","Mikal-Bridges-408842","Rodions-Kurucs-408801","Julius-Randle-18632","Willie-Cauley-Stein-18951","John-Wall-1084","Jeff-Green-1314","Kawhi-Leonard-13310","50000","293.79"
"Darren-Collison-1060","Wesley-Matthews-1339","Jeff-Green-1314","Julius-Randle-18632","Nikola-Vucevic-13296","John-Wall-1084","Dewayne-Dedmon-16894","Willie-Cauley-Stein-18951","50000","293.78"
"Jamal-Murray-35211","Mikal-Bridges-408842","Andrew-Wiggins-18620","Julius-Randle-18632","Willie-Cauley-Stein-18951","John-Wall-1084","Montrezl-Harrell-18930","Rodions-Kurucs-408801","50000","293.78"
"Jamal-Murray-35211","Andrew-Wiggins-18620","Mikal-Bridges-408842","TJ-Warren-18634","Willie-Cauley-Stein-18951","John-Wall-1084","Jeff-Green-1314","Julius-Randle-18632","50000","293.78"
"Jamal-Murray-35211","Kent-Bazemore-13987","Jeff-Green-1314","Serge-Ibaka-1294","Willie-Cauley-Stein-18951","John-Wall-1084","Nemanja-Bjelica-31814","Julius-Randle-18632","49700","293.78"
"Jamal-Murray-35211","Mikal-Bridges-408842","Jeff-Green-1314","Julius-Randle-18632","Willie-Cauley-Stein-18951","John-Wall-1084","Montrezl-Harrell-18930","DeAndre-Jordan-1486","49800","293.77"
"Jamal-Murray-35211","Andrew-Wiggins-18620","DeMarre-Carroll-1174","Jeff-Green-1314","Willie-Cauley-Stein-18951","John-Wall-1084","Kawhi-Leonard-13310","Nemanja-Bjelica-31814","49900","293.76"
"Darren-Collison-1060","Jamal-Murray-35211","Trevor-Ariza-1323","Serge-Ibaka-1294","Dewayne-Dedmon-16894","John-Wall-1084","Julius-Randle-18632","Willie-Cauley-Stein-18951","49900","293.76"
