"Chris-Paul-1087","Derrick-Rose-1086","Buddy-Hield-35206","Nemanja-Bjelica-31814","Wendell-Carter-408878","Russell-Westbrook-1083","Eric-Gordon-1077","Dario-Saric-36004","50000","292.13"

"Chris-Paul-1087","Derrick-Rose-1086","Buddy-Hield-35206","Nemanja-Bjelica-31814","Wendell-Carter-408878","Russell-Westbrook-1083","Eric-Gordon-1077","Dario-Saric-36004","50000","292.13"
"Chris-Paul-1087","Derrick-Rose-1086","Buddy-Hield-35206","Dario-Saric-36004","Wendell-Carter-408878","Russell-Westbrook-1083","Nemanja-Bjelica-31814","Jerami-Grant-18576","50000","291.19"
"Derrick-Rose-1086","Buddy-Hield-35206","Bogdan-Bogdanovic-37899","Dario-Saric-36004","Wendell-Carter-408878","Russell-Westbrook-1083","Nemanja-Bjelica-31814","Willie-Cauley-Stein-18951","50000","290.36"
"Derrick-Rose-1086","Buddy-Hield-35206","Nemanja-Bjelica-31814","Dario-Saric-36004","Wendell-Carter-408878","Russell-Westbrook-1083","Lauri-Markkanen-37809","Dennis-Schroder-18595","49900","290.21"
"Derrick-Rose-1086","Buddy-Hield-35206","Josh-Okogie-409174","Dario-Saric-36004","Rudy-Gobert-16935","Russell-Westbrook-1083","Lauri-Markkanen-37809","Nemanja-Bjelica-31814","50000","290.13"
"Derrick-Rose-1086","Andrew-Wiggins-18620","Josh-Okogie-409174","Nemanja-Bjelica-31814","Wendell-Carter-408878","Chris-Paul-1087","Buddy-Hield-35206","Russell-Westbrook-1083","49900","290.12"
"Derrick-Rose-1086","Andrew-Wiggins-18620","Buddy-Hield-35206","Dario-Saric-36004","Wendell-Carter-408878","Russell-Westbrook-1083","Nemanja-Bjelica-31814","Ricky-Rubio-1001","50000","289.54"
"Derrick-Rose-1086","Josh-Okogie-409174","Buddy-Hield-35206","Nemanja-Bjelica-31814","Willie-Cauley-Stein-18951","Chris-Paul-1087","Eric-Gordon-1077","Russell-Westbrook-1083","49800","289.5"
"Derrick-Rose-1086","Buddy-Hield-35206","Bogdan-Bogdanovic-37899","Dario-Saric-36004","Wendell-Carter-408878","Russell-Westbrook-1083","Nemanja-Bjelica-31814","Andrew-Wiggins-18620","49800","289.26"
"Chris-Paul-1087","Derrick-Rose-1086","Eric-Gordon-1077","Nemanja-Bjelica-31814","Wendell-Carter-408878","Russell-Westbrook-1083","Andrew-Wiggins-18620","Dario-Saric-36004","50000","289.24"
"Derrick-Rose-1086","Dennis-Schroder-18595","Buddy-Hield-35206","Dario-Saric-36004","Willie-Cauley-Stein-18951","Russell-Westbrook-1083","Wendell-Carter-408878","Nemanja-Bjelica-31814","49800","289.09"
"Derrick-Rose-1086","Andrew-Wiggins-18620","Buddy-Hield-35206","Nemanja-Bjelica-31814","Wendell-Carter-408878","Russell-Westbrook-1083","Eric-Gordon-1077","Willie-Cauley-Stein-18951","50000","289.08"
"Derrick-Rose-1086","Buddy-Hield-35206","Josh-Okogie-409174","Dario-Saric-36004","Rudy-Gobert-16935","Russell-Westbrook-1083","Nemanja-Bjelica-31814","Willie-Cauley-Stein-18951","49900","289.01"
"Derrick-Rose-1086","Josh-Okogie-409174","Buddy-Hield-35206","Wendell-Carter-408878","Rudy-Gobert-16935","Russell-Westbrook-1083","Nemanja-Bjelica-31814","Lauri-Markkanen-37809","49900","288.96"
"Russell-Westbrook-1083","Derrick-Rose-1086","Buddy-Hield-35206","Nemanja-Bjelica-31814","Willie-Cauley-Stein-18951","Ricky-Rubio-1001","Eric-Gordon-1077","Dario-Saric-36004","49900","288.92"
"Russell-Westbrook-1083","Derrick-Rose-1086","Buddy-Hield-35206","Nemanja-Bjelica-31814","Wendell-Carter-408878","Ricky-Rubio-1001","Eric-Gordon-1077","Lauri-Markkanen-37809","49900","288.87"
"Derrick-Rose-1086","Buddy-Hield-35206","Nemanja-Bjelica-31814","Dario-Saric-36004","Willie-Cauley-Stein-18951","Chris-Paul-1087","Lauri-Markkanen-37809","Rudy-Gobert-16935","49800","288.85"
"Derrick-Rose-1086","Bogdan-Bogdanovic-37899","Josh-Okogie-409174","Lauri-Markkanen-37809","Willie-Cauley-Stein-18951","Russell-Westbrook-1083","Nemanja-Bjelica-31814","Buddy-Hield-35206","49900","288.85"
"Kris-Dunn-35215","Derrick-Rose-1086","Josh-Okogie-409174","Nemanja-Bjelica-31814","Wendell-Carter-408878","Chris-Paul-1087","Buddy-Hield-35206","Russell-Westbrook-1083","49900","288.84"
"Chris-Paul-1087","Derrick-Rose-1086","Buddy-Hield-35206","Lauri-Markkanen-37809","Kosta-Koufos-1386","Russell-Westbrook-1083","Eric-Gordon-1077","Nemanja-Bjelica-31814","50000","288.79"
"Chris-Paul-1087","Derrick-Rose-1086","Josh-Okogie-409174","Nemanja-Bjelica-31814","Wendell-Carter-408878","Russell-Westbrook-1083","Buddy-Hield-35206","Ricky-Rubio-1001","49700","288.79"
"Derrick-Rose-1086","Buddy-Hield-35206","Nemanja-Bjelica-31814","Dario-Saric-36004","Rudy-Gobert-16935","Russell-Westbrook-1083","Wendell-Carter-408878","Eric-Gordon-1077","49700","288.75"
"Derrick-Rose-1086","Bogdan-Bogdanovic-37899","Andrew-Wiggins-18620","Dario-Saric-36004","Bobby-Portis-18909","Russell-Westbrook-1083","Nemanja-Bjelica-31814","Buddy-Hield-35206","50000","288.69"
"Derrick-Rose-1086","Buddy-Hield-35206","Nemanja-Bjelica-31814","Jerami-Grant-18576","Willie-Cauley-Stein-18951","Russell-Westbrook-1083","Lauri-Markkanen-37809","Eric-Gordon-1077","50000","288.64"
"Derrick-Rose-1086","Buddy-Hield-35206","Bogdan-Bogdanovic-37899","Dario-Saric-36004","Willie-Cauley-Stein-18951","Russell-Westbrook-1083","Nemanja-Bjelica-31814","Eric-Gordon-1077","49700","288.64"
"Derrick-Rose-1086","Bogdan-Bogdanovic-37899","Buddy-Hield-35206","Nemanja-Bjelica-31814","Wendell-Carter-408878","Russell-Westbrook-1083","Eric-Gordon-1077","Lauri-Markkanen-37809","49700","288.59"
"Chris-Paul-1087","Derrick-Rose-1086","Josh-Okogie-409174","Jerami-Grant-18576","Willie-Cauley-Stein-18951","Russell-Westbrook-1083","Buddy-Hield-35206","Nemanja-Bjelica-31814","49800","288.56"
"Derrick-Rose-1086","Dennis-Schroder-18595","Buddy-Hield-35206","Dario-Saric-36004","Bobby-Portis-18909","Russell-Westbrook-1083","Nemanja-Bjelica-31814","Willie-Cauley-Stein-18951","50000","288.52"
"Derrick-Rose-1086","Bogdan-Bogdanovic-37899","Josh-Okogie-409174","Nemanja-Bjelica-31814","Wendell-Carter-408878","Chris-Paul-1087","Buddy-Hield-35206","Russell-Westbrook-1083","49500","288.51"
"Derrick-Rose-1086","Buddy-Hield-35206","Nemanja-Bjelica-31814","Bobby-Portis-18909","Wendell-Carter-408878","Russell-Westbrook-1083","Lauri-Markkanen-37809","Dennis-Schroder-18595","50000","288.47"
"Derrick-Rose-1086","Andrew-Wiggins-18620","Buddy-Hield-35206","Lauri-Markkanen-37809","Clint-Capela-18610","Chris-Paul-1087","Nemanja-Bjelica-31814","Dario-Saric-36004","50000","288.31"
"Chris-Paul-1087","Derrick-Rose-1086","Buddy-Hield-35206","Nemanja-Bjelica-31814","Wendell-Carter-408878","Russell-Westbrook-1083","Eric-Gordon-1077","Jerami-Grant-18576","49600","288.3"
"Chris-Paul-1087","Derrick-Rose-1086","Andrew-Wiggins-18620","Dario-Saric-36004","Wendell-Carter-408878","Russell-Westbrook-1083","Nemanja-Bjelica-31814","Jerami-Grant-18576","50000","288.3"
"Derrick-Rose-1086","Buddy-Hield-35206","Andrew-Wiggins-18620","Wendell-Carter-408878","Kosta-Koufos-1386","Chris-Paul-1087","Nemanja-Bjelica-31814","Russell-Westbrook-1083","50000","288.29"
"Kris-Dunn-35215","Derrick-Rose-1086","Buddy-Hield-35206","Dario-Saric-36004","Wendell-Carter-408878","Russell-Westbrook-1083","Nemanja-Bjelica-31814","Ricky-Rubio-1001","50000","288.26"
"Derrick-Rose-1086","Dennis-Schroder-18595","Buddy-Hield-35206","Nemanja-Bjelica-31814","Steven-Adams-16848","Russell-Westbrook-1083","Eric-Gordon-1077","Dario-Saric-36004","50000","288.25"
"Derrick-Rose-1086","Eric-Gordon-1077","Buddy-Hield-35206","Wendell-Carter-408878","Rudy-Gobert-16935","Russell-Westbrook-1083","Nemanja-Bjelica-31814","Robert-Covington-16874","50000","288.25"
"Chris-Paul-1087","Derrick-Rose-1086","Josh-Okogie-409174","Nemanja-Bjelica-31814","Bobby-Portis-18909","Russell-Westbrook-1083","Buddy-Hield-35206","Ricky-Rubio-1001","49900","288.22"
"Derrick-Rose-1086","Buddy-Hield-35206","Nemanja-Bjelica-31814","Dario-Saric-36004","Wendell-Carter-408878","Russell-Westbrook-1083","Lauri-Markkanen-37809","Robert-Covington-16874","49500","288.19"
"Derrick-Rose-1086","Buddy-Hield-35206","Eric-Gordon-1077","Dario-Saric-36004","Bobby-Portis-18909","Russell-Westbrook-1083","Nemanja-Bjelica-31814","Rudy-Gobert-16935","49900","288.18"
"Chris-Paul-1087","Derrick-Rose-1086","Josh-Okogie-409174","Dario-Saric-36004","Willie-Cauley-Stein-18951","Russell-Westbrook-1083","Nemanja-Bjelica-31814","Ricky-Rubio-1001","50000","288.17"
"Derrick-Rose-1086","Buddy-Hield-35206","Andrew-Wiggins-18620","Jerami-Grant-18576","Willie-Cauley-Stein-18951","Russell-Westbrook-1083","Nemanja-Bjelica-31814","Wendell-Carter-408878","50000","288.14"
"Derrick-Rose-1086","Buddy-Hield-35206","Bogdan-Bogdanovic-37899","Robert-Covington-16874","Willie-Cauley-Stein-18951","Russell-Westbrook-1083","Eric-Gordon-1077","Nemanja-Bjelica-31814","50000","288.14"
"Chris-Paul-1087","Derrick-Rose-1086","Buddy-Hield-35206","Dario-Saric-36004","Kosta-Koufos-1386","Russell-Westbrook-1083","Nemanja-Bjelica-31814","Ricky-Rubio-1001","49900","288.13"
"Chris-Paul-1087","Andrew-Wiggins-18620","Buddy-Hield-35206","Nemanja-Bjelica-31814","Wendell-Carter-408878","Russell-Westbrook-1083","Eric-Gordon-1077","Dario-Saric-36004","49900","288.12"
"Chris-Paul-1087","Derrick-Rose-1086","Josh-Okogie-409174","Lauri-Markkanen-37809","Wendell-Carter-408878","Russell-Westbrook-1083","Nemanja-Bjelica-31814","Ricky-Rubio-1001","50000","288.12"
"Derrick-Rose-1086","Bogdan-Bogdanovic-37899","Buddy-Hield-35206","Nemanja-Bjelica-31814","Wendell-Carter-408878","Russell-Westbrook-1083","Eric-Gordon-1077","Donovan-Mitchell-37875","50000","288.11"
"Derrick-Rose-1086","Eric-Gordon-1077","Nemanja-Bjelica-31814","Dario-Saric-36004","Rudy-Gobert-16935","Russell-Westbrook-1083","Wendell-Carter-408878","Lauri-Markkanen-37809","50000","288.08"
"Derrick-Rose-1086","Buddy-Hield-35206","Bogdan-Bogdanovic-37899","Lauri-Markkanen-37809","Bobby-Portis-18909","Russell-Westbrook-1083","Eric-Gordon-1077","Nemanja-Bjelica-31814","49900","288.02"
"Derrick-Rose-1086","Josh-Okogie-409174","Nemanja-Bjelica-31814","Dario-Saric-36004","Rudy-Gobert-16935","Chris-Paul-1087","Wendell-Carter-408878","Russell-Westbrook-1083","49800","288.0"
"Derrick-Rose-1086","Dennis-Schroder-18595","Buddy-Hield-35206","Dario-Saric-36004","Wendell-Carter-408878","Russell-Westbrook-1083","Nemanja-Bjelica-31814","Andrew-Wiggins-18620","49600","287.99"
"Kris-Dunn-35215","Derrick-Rose-1086","Bogdan-Bogdanovic-37899","Dario-Saric-36004","Wendell-Carter-408878","Russell-Westbrook-1083","Nemanja-Bjelica-31814","Buddy-Hield-35206","49800","287.98"
"Derrick-Rose-1086","Buddy-Hield-35206","Nemanja-Bjelica-31814","Dario-Saric-36004","Willie-Cauley-Stein-18951","Russell-Westbrook-1083","Jerami-Grant-18576","Ricky-Rubio-1001","49900","287.98"
"Derrick-Rose-1086","Eric-Gordon-1077","Bogdan-Bogdanovic-37899","Dario-Saric-36004","Willie-Cauley-Stein-18951","Russell-Westbrook-1083","Nemanja-Bjelica-31814","Lauri-Markkanen-37809","50000","287.97"
"Kris-Dunn-35215","Derrick-Rose-1086","Eric-Gordon-1077","Dario-Saric-36004","Wendell-Carter-408878","Chris-Paul-1087","Nemanja-Bjelica-31814","Russell-Westbrook-1083","50000","287.96"
"Derrick-Rose-1086","Buddy-Hield-35206","Nemanja-Bjelica-31814","Dario-Saric-36004","Steven-Adams-16848","Russell-Westbrook-1083","Wendell-Carter-408878","Robert-Covington-16874","49900","287.95"
"Derrick-Rose-1086","Buddy-Hield-35206","Josh-Okogie-409174","Nemanja-Bjelica-31814","Bobby-Portis-18909","Chris-Paul-1087","Bogdan-Bogdanovic-37899","Russell-Westbrook-1083","49700","287.94"
"Russell-Westbrook-1083","Derrick-Rose-1086","Buddy-Hield-35206","Lauri-Markkanen-37809","Wendell-Carter-408878","Ricky-Rubio-1001","Nemanja-Bjelica-31814","Jerami-Grant-18576","49900","287.93"
"Derrick-Rose-1086","Buddy-Hield-35206","Bogdan-Bogdanovic-37899","Dario-Saric-36004","Wendell-Carter-408878","Russell-Westbrook-1083","Nemanja-Bjelica-31814","Ricky-Rubio-1001","49600","287.93"
"Derrick-Rose-1086","Josh-Okogie-409174","Buddy-Hield-35206","Dario-Saric-36004","Rudy-Gobert-16935","Russell-Westbrook-1083","Andrew-Wiggins-18620","Nemanja-Bjelica-31814","49700","287.91"
"Chris-Paul-1087","Derrick-Rose-1086","Eric-Gordon-1077","Dario-Saric-36004","Wendell-Carter-408878","Russell-Westbrook-1083","Nemanja-Bjelica-31814","Ricky-Rubio-1001","49800","287.91"
"Derrick-Rose-1086","Josh-Okogie-409174","Bogdan-Bogdanovic-37899","Dario-Saric-36004","Willie-Cauley-Stein-18951","Chris-Paul-1087","Nemanja-Bjelica-31814","Russell-Westbrook-1083","49800","287.89"
"Derrick-Rose-1086","Buddy-Hield-35206","Bogdan-Bogdanovic-37899","Dario-Saric-36004","Kosta-Koufos-1386","Chris-Paul-1087","Nemanja-Bjelica-31814","Russell-Westbrook-1083","49700","287.85"
"Chris-Paul-1087","Derrick-Rose-1086","Buddy-Hield-35206","Jerami-Grant-18576","Kosta-Koufos-1386","Russell-Westbrook-1083","Nemanja-Bjelica-31814","Lauri-Markkanen-37809","50000","287.85"
"Chris-Paul-1087","Derrick-Rose-1086","Josh-Okogie-409174","Lauri-Markkanen-37809","Wendell-Carter-408878","Russell-Westbrook-1083","Bogdan-Bogdanovic-37899","Nemanja-Bjelica-31814","49800","287.84"
"Derrick-Rose-1086","Buddy-Hield-35206","Josh-Okogie-409174","Wendell-Carter-408878","Willie-Cauley-Stein-18951","Russell-Westbrook-1083","Nemanja-Bjelica-31814","Rudy-Gobert-16935","49800","287.84"
"Derrick-Rose-1086","Buddy-Hield-35206","Josh-Okogie-409174","Nemanja-Bjelica-31814","Rudy-Gobert-16935","Russell-Westbrook-1083","Bogdan-Bogdanovic-37899","Dennis-Schroder-18595","50000","287.82"
"Derrick-Rose-1086","Buddy-Hield-35206","Nemanja-Bjelica-31814","Dario-Saric-36004","Rudy-Gobert-16935","Russell-Westbrook-1083","Wendell-Carter-408878","Jerami-Grant-18576","49700","287.81"
"Derrick-Rose-1086","Eric-Gordon-1077","Josh-Okogie-409174","Nemanja-Bjelica-31814","Clint-Capela-18610","Russell-Westbrook-1083","Buddy-Hield-35206","Lauri-Markkanen-37809","50000","287.8"
"Kris-Dunn-35215","Derrick-Rose-1086","Buddy-Hield-35206","Nemanja-Bjelica-31814","Wendell-Carter-408878","Russell-Westbrook-1083","Eric-Gordon-1077","Willie-Cauley-Stein-18951","50000","287.8"
"Derrick-Rose-1086","Buddy-Hield-35206","Andrew-Wiggins-18620","Dario-Saric-36004","Rudy-Gobert-16935","Chris-Paul-1087","Nemanja-Bjelica-31814","Lauri-Markkanen-37809","49600","287.75"
"Russell-Westbrook-1083","Derrick-Rose-1086","Buddy-Hield-35206","Nemanja-Bjelica-31814","Wendell-Carter-408878","Ricky-Rubio-1001","Eric-Gordon-1077","Willie-Cauley-Stein-18951","49800","287.75"
"Derrick-Rose-1086","Eric-Gordon-1077","Buddy-Hield-35206","Jerami-Grant-18576","Bobby-Portis-18909","Chris-Paul-1087","Nemanja-Bjelica-31814","Russell-Westbrook-1083","49800","287.73"
"Chris-Paul-1087","Buddy-Hield-35206","Josh-Okogie-409174","Lauri-Markkanen-37809","Willie-Cauley-Stein-18951","Russell-Westbrook-1083","Eric-Gordon-1077","Nemanja-Bjelica-31814","50000","287.71"
"Derrick-Rose-1086","Donovan-Mitchell-37875","Buddy-Hield-35206","Dario-Saric-36004","Wendell-Carter-408878","Russell-Westbrook-1083","Nemanja-Bjelica-31814","Robert-Covington-16874","49800","287.71"
"Derrick-Rose-1086","Buddy-Hield-35206","Bogdan-Bogdanovic-37899","Dario-Saric-36004","Willie-Cauley-Stein-18951","Russell-Westbrook-1083","Nemanja-Bjelica-31814","Jerami-Grant-18576","49700","287.7"
"Derrick-Rose-1086","Eric-Gordon-1077","Nemanja-Bjelica-31814","Dario-Saric-36004","Willie-Cauley-Stein-18951","Chris-Paul-1087","Jerami-Grant-18576","Russell-Westbrook-1083","49900","287.68"
"Derrick-Rose-1086","Buddy-Hield-35206","Nemanja-Bjelica-31814","Wendell-Carter-408878","Rudy-Gobert-16935","Chris-Paul-1087","Lauri-Markkanen-37809","Willie-Cauley-Stein-18951","49700","287.68"
"Chris-Paul-1087","Derrick-Rose-1086","Buddy-Hield-35206","Nemanja-Bjelica-31814","Willie-Cauley-Stein-18951","Russell-Westbrook-1083","Eric-Gordon-1077","Kosta-Koufos-1386","49900","287.67"
"Chris-Paul-1087","Buddy-Hield-35206","Bogdan-Bogdanovic-37899","Dario-Saric-36004","Wendell-Carter-408878","Russell-Westbrook-1083","Nemanja-Bjelica-31814","Bobby-Portis-18909","50000","287.66"
"Derrick-Rose-1086","Bogdan-Bogdanovic-37899","Buddy-Hield-35206","Lauri-Markkanen-37809","Rudy-Gobert-16935","Chris-Paul-1087","Nemanja-Bjelica-31814","Dennis-Schroder-18595","49900","287.66"
"Derrick-Rose-1086","Buddy-Hield-35206","Bogdan-Bogdanovic-37899","Jerami-Grant-18576","Wendell-Carter-408878","Russell-Westbrook-1083","Lauri-Markkanen-37809","Nemanja-Bjelica-31814","49700","287.65"
"Chris-Paul-1087","Dennis-Schroder-18595","Buddy-Hield-35206","Dario-Saric-36004","Wendell-Carter-408878","Russell-Westbrook-1083","Nemanja-Bjelica-31814","Robert-Covington-16874","50000","287.63"
"Derrick-Rose-1086","Eric-Gordon-1077","Bogdan-Bogdanovic-37899","Dario-Saric-36004","Wendell-Carter-408878","Chris-Paul-1087","Nemanja-Bjelica-31814","Russell-Westbrook-1083","49600","287.63"
"Chris-Paul-1087","Derrick-Rose-1086","Eric-Gordon-1077","Jerami-Grant-18576","Wendell-Carter-408878","Russell-Westbrook-1083","Nemanja-Bjelica-31814","Lauri-Markkanen-37809","49900","287.63"
"Derrick-Rose-1086","Buddy-Hield-35206","Robert-Covington-16874","Lauri-Markkanen-37809","Bobby-Portis-18909","Russell-Westbrook-1083","Nemanja-Bjelica-31814","Dario-Saric-36004","49700","287.62"
"Derrick-Rose-1086","Dennis-Schroder-18595","Buddy-Hield-35206","P.J.-Tucker-13947","Wendell-Carter-408878","Chris-Paul-1087","Nemanja-Bjelica-31814","Russell-Westbrook-1083","49900","287.61"
"Derrick-Rose-1086","Buddy-Hield-35206","Josh-Okogie-409174","Lauri-Markkanen-37809","Willie-Cauley-Stein-18951","Russell-Westbrook-1083","Nemanja-Bjelica-31814","Dennis-Schroder-18595","49700","287.58"
"Derrick-Rose-1086","Buddy-Hield-35206","Josh-Okogie-409174","P.J.-Tucker-13947","Rudy-Gobert-16935","Chris-Paul-1087","Nemanja-Bjelica-31814","Russell-Westbrook-1083","50000","287.53"
"Derrick-Rose-1086","Andrew-Wiggins-18620","Bogdan-Bogdanovic-37899","Bobby-Portis-18909","Wendell-Carter-408878","Russell-Westbrook-1083","Buddy-Hield-35206","Nemanja-Bjelica-31814","49900","287.52"
"Derrick-Rose-1086","Dennis-Schroder-18595","Nemanja-Bjelica-31814","Dario-Saric-36004","Bobby-Portis-18909","Chris-Paul-1087","Wendell-Carter-408878","Russell-Westbrook-1083","49900","287.51"
"Derrick-Rose-1086","Buddy-Hield-35206","Andrew-Wiggins-18620","Dario-Saric-36004","Rudy-Gobert-16935","Chris-Paul-1087","Nemanja-Bjelica-31814","Steven-Adams-16848","50000","287.51"
"Derrick-Rose-1086","Dennis-Schroder-18595","Buddy-Hield-35206","Robert-Covington-16874","Wendell-Carter-408878","Russell-Westbrook-1083","Andrew-Wiggins-18620","Nemanja-Bjelica-31814","49900","287.49"
"Derrick-Rose-1086","Andrew-Wiggins-18620","Bogdan-Bogdanovic-37899","Dario-Saric-36004","Wendell-Carter-408878","Russell-Westbrook-1083","Nemanja-Bjelica-31814","Willie-Cauley-Stein-18951","50000","287.47"
"Derrick-Rose-1086","Bogdan-Bogdanovic-37899","Buddy-Hield-35206","Nemanja-Bjelica-31814","Wendell-Carter-408878","Russell-Westbrook-1083","Eric-Gordon-1077","Willie-Cauley-Stein-18951","49600","287.47"
"Russell-Westbrook-1083","Buddy-Hield-35206","Bogdan-Bogdanovic-37899","Dario-Saric-36004","Wendell-Carter-408878","Andrew-Wiggins-18620","Nemanja-Bjelica-31814","Lauri-Markkanen-37809","50000","287.47"
"Derrick-Rose-1086","Buddy-Hield-35206","Bogdan-Bogdanovic-37899","Robert-Covington-16874","Wendell-Carter-408878","Russell-Westbrook-1083","Nemanja-Bjelica-31814","Ricky-Rubio-1001","49900","287.43"
"Chris-Paul-1087","Derrick-Rose-1086","Josh-Okogie-409174","Dario-Saric-36004","Rudy-Gobert-16935","Russell-Westbrook-1083","Nemanja-Bjelica-31814","Bobby-Portis-18909","50000","287.43"
"Derrick-Rose-1086","Buddy-Hield-35206","Andrew-Wiggins-18620","Dario-Saric-36004","Bobby-Portis-18909","Russell-Westbrook-1083","Nemanja-Bjelica-31814","Dennis-Schroder-18595","49800","287.42"
"Derrick-Rose-1086","Josh-Okogie-409174","Robert-Covington-16874","Nemanja-Bjelica-31814","Rudy-Gobert-16935","Russell-Westbrook-1083","Andrew-Wiggins-18620","Buddy-Hield-35206","50000","287.41"
