"John-Wall-1084","D'Angelo-Russell-18947","David-Nwaba-36526","Jabari-Parker-18593","Jusuf-Nurkic-18619","Mike-Conley-1062","Andrew-Wiggins-18620","Deandre-Ayton-409301","50000","293.63"

"John-Wall-1084","D'Angelo-Russell-18947","David-Nwaba-36526","Jabari-Parker-18593","Jusuf-Nurkic-18619","Mike-Conley-1062","Andrew-Wiggins-18620","Deandre-Ayton-409301","50000","293.63"
"John-Wall-1084","D'Angelo-Russell-18947","David-Nwaba-36526","Larry-Nance-18946","Deandre-Ayton-409301","Mike-Conley-1062","Andrew-Wiggins-18620","Jusuf-Nurkic-18619","49900","293.13"
"D'Angelo-Russell-18947","Spencer-Dinwiddie-18588","J.R.-Smith-915","Jabari-Parker-18593","Deandre-Ayton-409301","Devin-Booker-18949","Andrew-Wiggins-18620","John-Wall-1084","50000","293.05"
"D'Angelo-Russell-18947","Spencer-Dinwiddie-18588","Markieff-Morris-13314","Larry-Nance-18946","Deandre-Ayton-409301","John-Wall-1084","Andrew-Wiggins-18620","Marc-Gasol-1493","50000","293.02"
"D'Angelo-Russell-18947","Spencer-Dinwiddie-18588","Andrew-Wiggins-18620","Derrick-Favors-1266","Deandre-Ayton-409301","John-Wall-1084","Larry-Nance-18946","Marc-Gasol-1493","50000","292.92"
"D'Angelo-Russell-18947","Devin-Booker-18949","David-Nwaba-36526","Jabari-Parker-18593","Deandre-Ayton-409301","John-Wall-1084","Andrew-Wiggins-18620","Jeff-Teague-1005","49900","292.79"
"D'Angelo-Russell-18947","Spencer-Dinwiddie-18588","Garrett-Temple-14077","Jabari-Parker-18593","Deandre-Ayton-409301","Devin-Booker-18949","Andrew-Wiggins-18620","John-Wall-1084","50000","292.78"
"D'Angelo-Russell-18947","Devin-Booker-18949","David-Nwaba-36526","Jabari-Parker-18593","Jusuf-Nurkic-18619","John-Wall-1084","Andrew-Wiggins-18620","Jeff-Teague-1005","50000","292.68"
"D'Angelo-Russell-18947","Bradley-Beal-13898","Andrew-Wiggins-18620","Larry-Nance-18946","Deandre-Ayton-409301","Spencer-Dinwiddie-18588","Jabari-Parker-18593","Devin-Booker-18949","49900","292.61"
"D'Angelo-Russell-18947","Spencer-Dinwiddie-18588","J.R.-Smith-915","Larry-Nance-18946","Deandre-Ayton-409301","Devin-Booker-18949","Andrew-Wiggins-18620","John-Wall-1084","49900","292.55"
"Shelvin-Mack-13354","D'Angelo-Russell-18947","Andrew-Wiggins-18620","Larry-Nance-18946","Deandre-Ayton-409301","John-Wall-1084","Jabari-Parker-18593","Marc-Gasol-1493","49900","292.54"
"D'Angelo-Russell-18947","Spencer-Dinwiddie-18588","David-Nwaba-36526","Jabari-Parker-18593","Marc-Gasol-1493","Devin-Booker-18949","Andrew-Wiggins-18620","John-Wall-1084","49900","292.52"
"D'Angelo-Russell-18947","Devin-Booker-18949","Andrew-Wiggins-18620","Larry-Nance-18946","Deandre-Ayton-409301","Mike-Conley-1062","Jabari-Parker-18593","Jeff-Teague-1005","49900","292.51"
"D'Angelo-Russell-18947","Bradley-Beal-13898","Andrew-Wiggins-18620","Larry-Nance-18946","Jusuf-Nurkic-18619","Spencer-Dinwiddie-18588","Jabari-Parker-18593","Devin-Booker-18949","50000","292.5"
"John-Wall-1084","D'Angelo-Russell-18947","Allen-Crabbe-16978","Jabari-Parker-18593","Deandre-Ayton-409301","Jeff-Teague-1005","Andrew-Wiggins-18620","Marc-Gasol-1493","50000","292.49"
"Elfrid-Payton-18602","D'Angelo-Russell-18947","Andrew-Wiggins-18620","Larry-Nance-18946","Deandre-Ayton-409301","John-Wall-1084","Jabari-Parker-18593","Jeff-Teague-1005","49800","292.48"
"D'Angelo-Russell-18947","Spencer-Dinwiddie-18588","J.R.-Smith-915","Larry-Nance-18946","Jusuf-Nurkic-18619","Devin-Booker-18949","Andrew-Wiggins-18620","John-Wall-1084","50000","292.44"
"Shelvin-Mack-13354","D'Angelo-Russell-18947","Andrew-Wiggins-18620","Larry-Nance-18946","Jusuf-Nurkic-18619","John-Wall-1084","Jabari-Parker-18593","Marc-Gasol-1493","50000","292.43"
"D'Angelo-Russell-18947","Devin-Booker-18949","Andrew-Wiggins-18620","Larry-Nance-18946","Jusuf-Nurkic-18619","Mike-Conley-1062","Jabari-Parker-18593","Jeff-Teague-1005","50000","292.4"
"Elfrid-Payton-18602","D'Angelo-Russell-18947","Andrew-Wiggins-18620","Larry-Nance-18946","Deandre-Ayton-409301","John-Wall-1084","Jabari-Parker-18593","Dwight-Howard-1501","50000","292.39"
"Elfrid-Payton-18602","D'Angelo-Russell-18947","Andrew-Wiggins-18620","Larry-Nance-18946","Jusuf-Nurkic-18619","John-Wall-1084","Jabari-Parker-18593","Jeff-Teague-1005","49900","292.37"
"D'Angelo-Russell-18947","Zach-LaVine-18622","Andrew-Wiggins-18620","Larry-Nance-18946","Deandre-Ayton-409301","Jeff-Teague-1005","Jabari-Parker-18593","Jusuf-Nurkic-18619","49900","292.31"
"D'Angelo-Russell-18947","Bradley-Beal-13898","J.R.-Smith-915","Jabari-Parker-18593","Deandre-Ayton-409301","Spencer-Dinwiddie-18588","Andrew-Wiggins-18620","John-Wall-1084","49900","292.29"
"D'Angelo-Russell-18947","Devin-Booker-18949","David-Nwaba-36526","Larry-Nance-18946","Deandre-Ayton-409301","John-Wall-1084","Andrew-Wiggins-18620","Jeff-Teague-1005","49800","292.29"
"D'Angelo-Russell-18947","Spencer-Dinwiddie-18588","Garrett-Temple-14077","Larry-Nance-18946","Deandre-Ayton-409301","Devin-Booker-18949","Andrew-Wiggins-18620","John-Wall-1084","49900","292.28"
"D'Angelo-Russell-18947","Devin-Booker-18949","Andrew-Wiggins-18620","Larry-Nance-18946","Deandre-Ayton-409301","John-Wall-1084","Jabari-Parker-18593","Tyson-Chandler-1482","50000","292.27"
"D'Angelo-Russell-18947","Spencer-Dinwiddie-18588","David-Nwaba-36526","LeBron-James-1227","Deandre-Ayton-409301","Jeff-Teague-1005","Andrew-Wiggins-18620","Marc-Gasol-1493","49900","292.27"
"D'Angelo-Russell-18947","Spencer-Dinwiddie-18588","Andrew-Wiggins-18620","Larry-Nance-18946","Marc-Gasol-1493","Mike-Conley-1062","Jabari-Parker-18593","Devin-Booker-18949","49900","292.24"
"D'Angelo-Russell-18947","Spencer-Dinwiddie-18588","Andrew-Wiggins-18620","Larry-Nance-18946","Marc-Gasol-1493","Elfrid-Payton-18602","Jabari-Parker-18593","John-Wall-1084","49800","292.21"
"John-Wall-1084","Spencer-Dinwiddie-18588","Andrew-Wiggins-18620","Larry-Nance-18946","Deandre-Ayton-409301","Jeff-Teague-1005","Jabari-Parker-18593","Marc-Gasol-1493","49900","292.2"
"D'Angelo-Russell-18947","Devin-Booker-18949","David-Nwaba-36526","Larry-Nance-18946","Dwight-Howard-1501","John-Wall-1084","Andrew-Wiggins-18620","Deandre-Ayton-409301","50000","292.2"
"John-Wall-1084","D'Angelo-Russell-18947","J.R.-Smith-915","Jabari-Parker-18593","Deandre-Ayton-409301","Mike-Conley-1062","Andrew-Wiggins-18620","Jeff-Teague-1005","49900","292.19"
"D'Angelo-Russell-18947","Bradley-Beal-13898","J.R.-Smith-915","Jabari-Parker-18593","Jusuf-Nurkic-18619","Spencer-Dinwiddie-18588","Andrew-Wiggins-18620","John-Wall-1084","50000","292.18"
"D'Angelo-Russell-18947","Devin-Booker-18949","David-Nwaba-36526","Larry-Nance-18946","Jusuf-Nurkic-18619","John-Wall-1084","Andrew-Wiggins-18620","Jeff-Teague-1005","49900","292.18"
"D'Angelo-Russell-18947","Spencer-Dinwiddie-18588","Garrett-Temple-14077","Larry-Nance-18946","Jusuf-Nurkic-18619","Devin-Booker-18949","Andrew-Wiggins-18620","John-Wall-1084","50000","292.17"
"D'Angelo-Russell-18947","Spencer-Dinwiddie-18588","David-Nwaba-36526","LeBron-James-1227","Jusuf-Nurkic-18619","Jeff-Teague-1005","Andrew-Wiggins-18620","Marc-Gasol-1493","50000","292.16"
"D'Angelo-Russell-18947","Zach-LaVine-18622","Andrew-Wiggins-18620","Larry-Nance-18946","Deandre-Ayton-409301","Spencer-Dinwiddie-18588","Jabari-Parker-18593","Marc-Gasol-1493","49800","292.15"
"John-Wall-1084","D'Angelo-Russell-18947","J.R.-Smith-915","Larry-Nance-18946","Deandre-Ayton-409301","Jeff-Teague-1005","Jabari-Parker-18593","Marc-Gasol-1493","50000","292.14"
"John-Wall-1084","D'Angelo-Russell-18947","Andrew-Wiggins-18620","Larry-Nance-18946","Marc-Gasol-1493","Derrick-White-37858","Jabari-Parker-18593","Jeff-Teague-1005","50000","292.1"
"John-Wall-1084","Spencer-Dinwiddie-18588","Andrew-Wiggins-18620","Larry-Nance-18946","Jusuf-Nurkic-18619","Jeff-Teague-1005","Jabari-Parker-18593","Marc-Gasol-1493","50000","292.09"
"John-Wall-1084","D'Angelo-Russell-18947","J.R.-Smith-915","Jabari-Parker-18593","Jusuf-Nurkic-18619","Mike-Conley-1062","Andrew-Wiggins-18620","Jeff-Teague-1005","50000","292.08"
"D'Angelo-Russell-18947","Bradley-Beal-13898","David-Nwaba-36526","Larry-Nance-18946","Marc-Gasol-1493","Elfrid-Payton-18602","Andrew-Wiggins-18620","John-Wall-1084","50000","292.05"
"D'Angelo-Russell-18947","Zach-LaVine-18622","Andrew-Wiggins-18620","Larry-Nance-18946","Jusuf-Nurkic-18619","Spencer-Dinwiddie-18588","Jabari-Parker-18593","Marc-Gasol-1493","49900","292.04"
"D'Angelo-Russell-18947","Bradley-Beal-13898","David-Nwaba-36526","Jabari-Parker-18593","Deandre-Ayton-409301","John-Wall-1084","Andrew-Wiggins-18620","Jeff-Teague-1005","49800","292.03"
"D'Angelo-Russell-18947","Devin-Booker-18949","Andrew-Wiggins-18620","Larry-Nance-18946","Deandre-Ayton-409301","Elfrid-Payton-18602","Jabari-Parker-18593","Marc-Gasol-1493","49800","292.03"
"D'Angelo-Russell-18947","Spencer-Dinwiddie-18588","David-Nwaba-36526","Larry-Nance-18946","Marc-Gasol-1493","Devin-Booker-18949","Andrew-Wiggins-18620","John-Wall-1084","49800","292.02"
"D'Angelo-Russell-18947","Bradley-Beal-13898","Garrett-Temple-14077","Jabari-Parker-18593","Deandre-Ayton-409301","Spencer-Dinwiddie-18588","Andrew-Wiggins-18620","John-Wall-1084","49900","292.02"
"D'Angelo-Russell-18947","Spencer-Dinwiddie-18588","David-Nwaba-36526","LeBron-James-1227","Deandre-Ayton-409301","Elfrid-Payton-18602","Andrew-Wiggins-18620","Devin-Booker-18949","50000","292.01"
"D'Angelo-Russell-18947","Bradley-Beal-13898","J.R.-Smith-915","Jabari-Parker-18593","Jusuf-Nurkic-18619","Devin-Booker-18949","Andrew-Wiggins-18620","Deandre-Ayton-409301","50000","292.0"
"John-Wall-1084","D'Angelo-Russell-18947","Allen-Crabbe-16978","Larry-Nance-18946","Deandre-Ayton-409301","Jeff-Teague-1005","Andrew-Wiggins-18620","Marc-Gasol-1493","49900","291.99"
"D'Angelo-Russell-18947","Zach-LaVine-18622","David-Nwaba-36526","Larry-Nance-18946","Marc-Gasol-1493","Bradley-Beal-13898","Andrew-Wiggins-18620","Deandre-Ayton-409301","50000","291.99"
"D'Angelo-Russell-18947","Spencer-Dinwiddie-18588","Khris-Middleton-13990","Larry-Nance-18946","Deandre-Ayton-409301","Devin-Booker-18949","Andrew-Wiggins-18620","Jusuf-Nurkic-18619","50000","291.97"
"D'Angelo-Russell-18947","David-Nwaba-36526","LeBron-James-1227","Jabari-Parker-18593","Deandre-Ayton-409301","Jeff-Teague-1005","Andrew-Wiggins-18620","Jusuf-Nurkic-18619","50000","291.96"
"John-Wall-1084","D'Angelo-Russell-18947","Jaylen-Brown-35181","Jabari-Parker-18593","Deandre-Ayton-409301","Jeff-Teague-1005","Andrew-Wiggins-18620","Jusuf-Nurkic-18619","50000","291.96"
"D'Angelo-Russell-18947","Bradley-Beal-13898","David-Nwaba-36526","Jabari-Parker-18593","Dwight-Howard-1501","John-Wall-1084","Andrew-Wiggins-18620","Deandre-Ayton-409301","50000","291.94"
"Elfrid-Payton-18602","Spencer-Dinwiddie-18588","Andrew-Wiggins-18620","Larry-Nance-18946","Deandre-Ayton-409301","Devin-Booker-18949","Jabari-Parker-18593","John-Wall-1084","50000","291.94"
"D'Angelo-Russell-18947","Bradley-Beal-13898","David-Nwaba-36526","Jabari-Parker-18593","Jusuf-Nurkic-18619","John-Wall-1084","Andrew-Wiggins-18620","Jeff-Teague-1005","49900","291.92"
"D'Angelo-Russell-18947","Devin-Booker-18949","Andrew-Wiggins-18620","Larry-Nance-18946","Jusuf-Nurkic-18619","Elfrid-Payton-18602","Jabari-Parker-18593","Marc-Gasol-1493","49900","291.92"
"John-Wall-1084","D'Angelo-Russell-18947","Garrett-Temple-14077","Jabari-Parker-18593","Deandre-Ayton-409301","Mike-Conley-1062","Andrew-Wiggins-18620","Jeff-Teague-1005","49900","291.92"
"D'Angelo-Russell-18947","Spencer-Dinwiddie-18588","J.R.-Smith-915","Jabari-Parker-18593","Marc-Gasol-1493","Mike-Conley-1062","Andrew-Wiggins-18620","John-Wall-1084","49900","291.92"
"D'Angelo-Russell-18947","Bradley-Beal-13898","Garrett-Temple-14077","Jabari-Parker-18593","Jusuf-Nurkic-18619","Spencer-Dinwiddie-18588","Andrew-Wiggins-18620","John-Wall-1084","50000","291.91"
"Elfrid-Payton-18602","D'Angelo-Russell-18947","Markieff-Morris-13314","Larry-Nance-18946","Deandre-Ayton-409301","Mike-Conley-1062","Andrew-Wiggins-18620","John-Wall-1084","50000","291.9"
"John-Wall-1084","D'Angelo-Russell-18947","Allen-Crabbe-16978","Larry-Nance-18946","Jusuf-Nurkic-18619","Jeff-Teague-1005","Andrew-Wiggins-18620","Marc-Gasol-1493","50000","291.88"
"John-Wall-1084","D'Angelo-Russell-18947","Garrett-Temple-14077","Larry-Nance-18946","Deandre-Ayton-409301","Jeff-Teague-1005","Jabari-Parker-18593","Marc-Gasol-1493","50000","291.87"
"D'Angelo-Russell-18947","Zach-LaVine-18622","Allen-Crabbe-16978","Larry-Nance-18946","Deandre-Ayton-409301","Spencer-Dinwiddie-18588","Andrew-Wiggins-18620","John-Wall-1084","50000","291.85"
"Elfrid-Payton-18602","D'Angelo-Russell-18947","TJ-Warren-18634","Larry-Nance-18946","Deandre-Ayton-409301","John-Wall-1084","Andrew-Wiggins-18620","Jeff-Teague-1005","50000","291.83"
"D'Angelo-Russell-18947","David-Nwaba-36526","Andrew-Wiggins-18620","Larry-Nance-18946","Deandre-Ayton-409301","Devin-Booker-18949","Jabari-Parker-18593","John-Wall-1084","49800","291.82"
"John-Wall-1084","D'Angelo-Russell-18947","Garrett-Temple-14077","Jabari-Parker-18593","Jusuf-Nurkic-18619","Mike-Conley-1062","Andrew-Wiggins-18620","Jeff-Teague-1005","50000","291.81"
"D'Angelo-Russell-18947","Spencer-Dinwiddie-18588","Justin-Holiday-14559","Jabari-Parker-18593","Deandre-Ayton-409301","Mike-Conley-1062","Andrew-Wiggins-18620","John-Wall-1084","49900","291.81"
"Elfrid-Payton-18602","D'Angelo-Russell-18947","Andrew-Wiggins-18620","Derrick-Favors-1266","Deandre-Ayton-409301","Mike-Conley-1062","Larry-Nance-18946","John-Wall-1084","50000","291.8"
"D'Angelo-Russell-18947","David-Nwaba-36526","LeBron-James-1227","Jabari-Parker-18593","Deandre-Ayton-409301","Spencer-Dinwiddie-18588","Andrew-Wiggins-18620","Marc-Gasol-1493","49900","291.8"
"D'Angelo-Russell-18947","Spencer-Dinwiddie-18588","Jaylen-Brown-35181","Jabari-Parker-18593","Deandre-Ayton-409301","John-Wall-1084","Andrew-Wiggins-18620","Marc-Gasol-1493","49900","291.8"
"D'Angelo-Russell-18947","Bradley-Beal-13898","J.R.-Smith-915","Larry-Nance-18946","Deandre-Ayton-409301","Spencer-Dinwiddie-18588","Andrew-Wiggins-18620","John-Wall-1084","49800","291.79"
"D'Angelo-Russell-18947","Bradley-Beal-13898","David-Nwaba-36526","Jabari-Parker-18593","Marc-Gasol-1493","Spencer-Dinwiddie-18588","Andrew-Wiggins-18620","John-Wall-1084","49800","291.76"
"D'Angelo-Russell-18947","Spencer-Dinwiddie-18588","Justin-Holiday-14559","Larry-Nance-18946","Marc-Gasol-1493","John-Wall-1084","Jabari-Parker-18593","Deandre-Ayton-409301","50000","291.76"
"D'Angelo-Russell-18947","Bradley-Beal-13898","Andrew-Wiggins-18620","Larry-Nance-18946","Deandre-Ayton-409301","Mike-Conley-1062","Jabari-Parker-18593","Jeff-Teague-1005","49800","291.75"
"D'Angelo-Russell-18947","Devin-Booker-18949","J.R.-Smith-915","Jabari-Parker-18593","Marc-Gasol-1493","Mike-Conley-1062","Andrew-Wiggins-18620","Deandre-Ayton-409301","49900","291.74"
"D'Angelo-Russell-18947","Spencer-Dinwiddie-18588","Al-Farouq-Aminu-1279","Larry-Nance-18946","Deandre-Ayton-409301","Mike-Conley-1062","Andrew-Wiggins-18620","John-Wall-1084","50000","291.74"
"D'Angelo-Russell-18947","Zach-LaVine-18622","David-Nwaba-36526","Larry-Nance-18946","Deandre-Ayton-409301","John-Wall-1084","Jabari-Parker-18593","Jeff-Teague-1005","50000","291.74"
"D'Angelo-Russell-18947","Bradley-Beal-13898","Garrett-Temple-14077","Jabari-Parker-18593","Jusuf-Nurkic-18619","Devin-Booker-18949","Andrew-Wiggins-18620","Deandre-Ayton-409301","50000","291.73"
"D'Angelo-Russell-18947","Devin-Booker-18949","Allen-Crabbe-16978","Larry-Nance-18946","Deandre-Ayton-409301","Elfrid-Payton-18602","Andrew-Wiggins-18620","John-Wall-1084","50000","291.73"
"John-Wall-1084","D'Angelo-Russell-18947","Markieff-Morris-13314","Larry-Nance-18946","Deandre-Ayton-409301","Jeff-Teague-1005","Jabari-Parker-18593","Jusuf-Nurkic-18619","50000","291.72"
"D'Angelo-Russell-18947","Spencer-Dinwiddie-18588","J.R.-Smith-915","LeBron-James-1227","Jusuf-Nurkic-18619","Andrew-Wiggins-18620","Larry-Nance-18946","Deandre-Ayton-409301","50000","291.72"
"D'Angelo-Russell-18947","Devin-Booker-18949","David-Nwaba-36526","Jabari-Parker-18593","Larry-Nance-18946","John-Wall-1084","Andrew-Wiggins-18620","Jusuf-Nurkic-18619","49900","291.71"
"D'Angelo-Russell-18947","Bradley-Beal-13898","Khris-Middleton-13990","Jabari-Parker-18593","Deandre-Ayton-409301","Spencer-Dinwiddie-18588","Andrew-Wiggins-18620","Jusuf-Nurkic-18619","50000","291.71"
"Elfrid-Payton-18602","D'Angelo-Russell-18947","J.R.-Smith-915","Jabari-Parker-18593","Marc-Gasol-1493","John-Wall-1084","Andrew-Wiggins-18620","Deandre-Ayton-409301","49800","291.71"
"D'Angelo-Russell-18947","Spencer-Dinwiddie-18588","Justin-Holiday-14559","Jabari-Parker-18593","Jusuf-Nurkic-18619","Mike-Conley-1062","Andrew-Wiggins-18620","John-Wall-1084","50000","291.7"
"D'Angelo-Russell-18947","Spencer-Dinwiddie-18588","Jaylen-Brown-35181","Jabari-Parker-18593","Jusuf-Nurkic-18619","John-Wall-1084","Andrew-Wiggins-18620","Marc-Gasol-1493","50000","291.69"
"D'Angelo-Russell-18947","Spencer-Dinwiddie-18588","LeBron-James-1227","Jabari-Parker-18593","Marc-Gasol-1493","Andrew-Wiggins-18620","David-Nwaba-36526","Jusuf-Nurkic-18619","50000","291.69"
"D'Angelo-Russell-18947","Spencer-Dinwiddie-18588","Andrew-Wiggins-18620","Larry-Nance-18946","Deandre-Ayton-409301","John-Wall-1084","Jabari-Parker-18593","Jeff-Teague-1005","49500","291.69"
"John-Wall-1084","D'Angelo-Russell-18947","J.R.-Smith-915","Larry-Nance-18946","Deandre-Ayton-409301","Mike-Conley-1062","Andrew-Wiggins-18620","Jeff-Teague-1005","49800","291.69"
"D'Angelo-Russell-18947","Bradley-Beal-13898","J.R.-Smith-915","Larry-Nance-18946","Jusuf-Nurkic-18619","Spencer-Dinwiddie-18588","Andrew-Wiggins-18620","John-Wall-1084","49900","291.68"
"John-Wall-1084","D'Angelo-Russell-18947","David-Nwaba-36526","Larry-Nance-18946","Jusuf-Nurkic-18619","Mike-Conley-1062","Jabari-Parker-18593","Deandre-Ayton-409301","49800","291.67"
"D'Angelo-Russell-18947","Bradley-Beal-13898","Andrew-Wiggins-18620","Larry-Nance-18946","Deandre-Ayton-409301","Mike-Conley-1062","Jabari-Parker-18593","Dwight-Howard-1501","50000","291.66"
"John-Wall-1084","D'Angelo-Russell-18947","David-Nwaba-36526","Jabari-Parker-18593","Marc-Gasol-1493","Mike-Conley-1062","Andrew-Wiggins-18620","Jeff-Teague-1005","49800","291.66"
"D'Angelo-Russell-18947","Spencer-Dinwiddie-18588","Garrett-Temple-14077","Jabari-Parker-18593","Marc-Gasol-1493","Mike-Conley-1062","Andrew-Wiggins-18620","John-Wall-1084","49900","291.65"
"D'Angelo-Russell-18947","Spencer-Dinwiddie-18588","Robert-Covington-16874","Jabari-Parker-18593","Deandre-Ayton-409301","Mike-Conley-1062","Andrew-Wiggins-18620","John-Wall-1084","49900","291.64"
"D'Angelo-Russell-18947","Bradley-Beal-13898","Andrew-Wiggins-18620","Larry-Nance-18946","Jusuf-Nurkic-18619","Mike-Conley-1062","Jabari-Parker-18593","Jeff-Teague-1005","49900","291.64"
"D'Angelo-Russell-18947","Spencer-Dinwiddie-18588","LeBron-James-1227","Jabari-Parker-18593","Deandre-Ayton-409301","Shelvin-Mack-13354","Andrew-Wiggins-18620","Jusuf-Nurkic-18619","49900","291.63"
"D'Angelo-Russell-18947","Devin-Booker-18949","J.R.-Smith-915","Jabari-Parker-18593","Marc-Gasol-1493","Mike-Conley-1062","Andrew-Wiggins-18620","Jusuf-Nurkic-18619","50000","291.63"
