"Patrick-Beverley-14108","Fred-VanVleet-36011","Tobias-Harris-13332","Josh-Jackson-37890","LaMarcus-Aldridge-1349","De'Anthony-Melton-409081","DeMar-DeRozan-1053","Kyle-Lowry-1057","49700","281.65"

"Patrick-Beverley-14108","Fred-VanVleet-36011","Tobias-Harris-13332","Josh-Jackson-37890","LaMarcus-Aldridge-1349","De'Anthony-Melton-409081","DeMar-DeRozan-1053","Kyle-Lowry-1057","49700","281.65"
"Patrick-Beverley-14108","De'Anthony-Melton-409081","DeMar-DeRozan-1053","Tobias-Harris-13332","LaMarcus-Aldridge-1349","Kyle-Lowry-1057","Danny-Green-940","Josh-Jackson-37890","49900","278.43"
"Fred-VanVleet-36011","De'Anthony-Melton-409081","Tobias-Harris-13332","Josh-Jackson-37890","LaMarcus-Aldridge-1349","Kyle-Lowry-1057","DeMar-DeRozan-1053","Patty-Mills-13977","50000","278.35"
"Fred-VanVleet-36011","Derrick-White-37858","Tobias-Harris-13332","Josh-Jackson-37890","LaMarcus-Aldridge-1349","De'Anthony-Melton-409081","DeMar-DeRozan-1053","Kyle-Lowry-1057","49900","278.24"
"Fred-VanVleet-36011","De'Anthony-Melton-409081","DeMar-DeRozan-1053","Josh-Jackson-37890","LaMarcus-Aldridge-1349","Kyle-Lowry-1057","Marco-Belinelli-1033","Tobias-Harris-13332","49600","277.44"
"Fred-VanVleet-36011","De'Anthony-Melton-409081","DeMar-DeRozan-1053","Josh-Jackson-37890","LaMarcus-Aldridge-1349","Kyle-Lowry-1057","Danilo-Gallinari-1329","Danny-Green-940","49800","277.43"
"Patrick-Beverley-14108","Fred-VanVleet-36011","DeMar-DeRozan-1053","Josh-Jackson-37890","LaMarcus-Aldridge-1349","De'Anthony-Melton-409081","Danilo-Gallinari-1329","Kyle-Lowry-1057","48800","277.38"
"Fred-VanVleet-36011","Avery-Bradley-941","Tobias-Harris-13332","Josh-Jackson-37890","LaMarcus-Aldridge-1349","De'Anthony-Melton-409081","DeMar-DeRozan-1053","Kyle-Lowry-1057","49800","277.36"
"Patrick-Beverley-14108","Fred-VanVleet-36011","DeMar-DeRozan-1053","Tobias-Harris-13332","LaMarcus-Aldridge-1349","Kyle-Lowry-1057","Danny-Green-940","Josh-Jackson-37890","50000","277.2"
"Fred-VanVleet-36011","De'Anthony-Melton-409081","DeMar-DeRozan-1053","Josh-Jackson-37890","LaMarcus-Aldridge-1349","Danny-Green-940","Danilo-Gallinari-1329","Tobias-Harris-13332","50000","276.59"
"Patrick-Beverley-14108","Fred-VanVleet-36011","DeMar-DeRozan-1053","Josh-Jackson-37890","LaMarcus-Aldridge-1349","De'Anthony-Melton-409081","Danilo-Gallinari-1329","Tobias-Harris-13332","49000","276.54"
"Fred-VanVleet-36011","De'Anthony-Melton-409081","DeMar-DeRozan-1053","Josh-Jackson-37890","Jonas-Valanciunas-13301","Kyle-Lowry-1057","LaMarcus-Aldridge-1349","Danilo-Gallinari-1329","50000","276.48"
"Patrick-Beverley-14108","Fred-VanVleet-36011","DeMar-DeRozan-1053","LaMarcus-Aldridge-1349","Deandre-Ayton-409301","De'Anthony-Melton-409081","Danilo-Gallinari-1329","Kyle-Lowry-1057","50000","275.38"
"Patrick-Beverley-14108","De'Anthony-Melton-409081","DeMar-DeRozan-1053","Josh-Jackson-37890","LaMarcus-Aldridge-1349","Kyle-Lowry-1057","Danilo-Gallinari-1329","Shai-Gilgeous-Alexander-408990","49300","275.34"
"Patrick-Beverley-14108","De'Anthony-Melton-409081","DeMar-DeRozan-1053","Tobias-Harris-13332","LaMarcus-Aldridge-1349","Kyle-Lowry-1057","Marco-Belinelli-1033","Danilo-Gallinari-1329","49800","275.32"
"Patrick-Beverley-14108","Avery-Bradley-941","Tobias-Harris-13332","Danilo-Gallinari-1329","LaMarcus-Aldridge-1349","De'Anthony-Melton-409081","DeMar-DeRozan-1053","Kyle-Lowry-1057","50000","275.24"
"Patrick-Beverley-14108","De'Anthony-Melton-409081","Tobias-Harris-13332","Josh-Jackson-37890","LaMarcus-Aldridge-1349","Kyle-Lowry-1057","DeMar-DeRozan-1053","Patty-Mills-13977","49200","275.08"
"Patrick-Beverley-14108","Derrick-White-37858","Tobias-Harris-13332","Josh-Jackson-37890","LaMarcus-Aldridge-1349","De'Anthony-Melton-409081","DeMar-DeRozan-1053","Kyle-Lowry-1057","49100","274.97"
"Patrick-Beverley-14108","Fred-VanVleet-36011","DeMar-DeRozan-1053","Montrezl-Harrell-18930","LaMarcus-Aldridge-1349","De'Anthony-Melton-409081","Danilo-Gallinari-1329","Kyle-Lowry-1057","49900","274.84"
"Fred-VanVleet-36011","De'Anthony-Melton-409081","Tobias-Harris-13332","Josh-Jackson-37890","LaMarcus-Aldridge-1349","Kyle-Lowry-1057","Danilo-Gallinari-1329","Montrezl-Harrell-18930","50000","274.62"
"Patrick-Beverley-14108","De'Anthony-Melton-409081","DeMar-DeRozan-1053","Josh-Jackson-37890","LaMarcus-Aldridge-1349","Shai-Gilgeous-Alexander-408990","Danilo-Gallinari-1329","Tobias-Harris-13332","49500","274.5"
"Fred-VanVleet-36011","De'Anthony-Melton-409081","DeMar-DeRozan-1053","Pascal-Siakam-35186","LaMarcus-Aldridge-1349","Kyle-Lowry-1057","Josh-Jackson-37890","Shai-Gilgeous-Alexander-408990","49900","274.44"
"Fred-VanVleet-36011","De'Anthony-Melton-409081","Tobias-Harris-13332","Josh-Jackson-37890","LaMarcus-Aldridge-1349","Bryn-Forbes-36052","DeMar-DeRozan-1053","Kyle-Lowry-1057","49900","274.43"
"Patrick-Beverley-14108","Fred-VanVleet-36011","DeMar-DeRozan-1053","Tobias-Harris-13332","LaMarcus-Aldridge-1349","De'Anthony-Melton-409081","Danny-Green-940","Kyle-Lowry-1057","48800","274.39"
"Patrick-Beverley-14108","Fred-VanVleet-36011","DeMar-DeRozan-1053","Pascal-Siakam-35186","LaMarcus-Aldridge-1349","De'Anthony-Melton-409081","Danilo-Gallinari-1329","Kyle-Lowry-1057","49600","274.36"
"Fred-VanVleet-36011","De'Anthony-Melton-409081","DeMar-DeRozan-1053","Josh-Jackson-37890","Deandre-Ayton-409301","Kyle-Lowry-1057","Danny-Green-940","LaMarcus-Aldridge-1349","50000","274.28"
"Patrick-Beverley-14108","Fred-VanVleet-36011","DeMar-DeRozan-1053","Josh-Jackson-37890","Deandre-Ayton-409301","De'Anthony-Melton-409081","LaMarcus-Aldridge-1349","Kyle-Lowry-1057","49000","274.23"
"De'Anthony-Melton-409081","Danny-Green-940","DeMar-DeRozan-1053","Josh-Jackson-37890","LaMarcus-Aldridge-1349","Kyle-Lowry-1057","Marco-Belinelli-1033","Tobias-Harris-13332","49800","274.22"
"Patrick-Beverley-14108","De'Anthony-Melton-409081","DeMar-DeRozan-1053","Josh-Jackson-37890","LaMarcus-Aldridge-1349","Kyle-Lowry-1057","Marco-Belinelli-1033","Tobias-Harris-13332","48800","274.17"
"Patrick-Beverley-14108","De'Anthony-Melton-409081","DeMar-DeRozan-1053","Josh-Jackson-37890","LaMarcus-Aldridge-1349","Kyle-Lowry-1057","Danilo-Gallinari-1329","Danny-Green-940","49000","274.16"
"De'Anthony-Melton-409081","Avery-Bradley-941","DeMar-DeRozan-1053","Tobias-Harris-13332","LaMarcus-Aldridge-1349","Kyle-Lowry-1057","Danny-Green-940","Josh-Jackson-37890","50000","274.14"
"Fred-VanVleet-36011","De'Anthony-Melton-409081","Tobias-Harris-13332","Pascal-Siakam-35186","LaMarcus-Aldridge-1349","Kyle-Lowry-1057","Danilo-Gallinari-1329","Josh-Jackson-37890","49700","274.14"
"Fred-VanVleet-36011","De'Anthony-Melton-409081","DeMar-DeRozan-1053","Serge-Ibaka-1294","LaMarcus-Aldridge-1349","Kyle-Lowry-1057","Josh-Jackson-37890","Shai-Gilgeous-Alexander-408990","49800","274.12"
"Patrick-Beverley-14108","Fred-VanVleet-36011","DeMar-DeRozan-1053","Josh-Jackson-37890","LaMarcus-Aldridge-1349","Kyle-Lowry-1057","Danilo-Gallinari-1329","Shai-Gilgeous-Alexander-408990","49400","274.11"
"Patrick-Beverley-14108","Avery-Bradley-941","Tobias-Harris-13332","Josh-Jackson-37890","LaMarcus-Aldridge-1349","De'Anthony-Melton-409081","DeMar-DeRozan-1053","Kyle-Lowry-1057","49000","274.09"
"Patrick-Beverley-14108","Fred-VanVleet-36011","DeMar-DeRozan-1053","Tobias-Harris-13332","LaMarcus-Aldridge-1349","Kyle-Lowry-1057","Marco-Belinelli-1033","Danilo-Gallinari-1329","49900","274.09"
"Fred-VanVleet-36011","De'Anthony-Melton-409081","Tobias-Harris-13332","Dante-Cunningham-1259","LaMarcus-Aldridge-1349","Kyle-Lowry-1057","Josh-Jackson-37890","DeMar-DeRozan-1053","49800","274.08"
"Fred-VanVleet-36011","De'Anthony-Melton-409081","DeMar-DeRozan-1053","Josh-Jackson-37890","LaMarcus-Aldridge-1349","Kyle-Lowry-1057","Danilo-Gallinari-1329","Patty-Mills-13977","49100","274.08"
"Patrick-Beverley-14108","Fred-VanVleet-36011","DeMar-DeRozan-1053","Serge-Ibaka-1294","LaMarcus-Aldridge-1349","De'Anthony-Melton-409081","Danilo-Gallinari-1329","Kyle-Lowry-1057","49500","274.04"
"Fred-VanVleet-36011","Derrick-White-37858","DeMar-DeRozan-1053","Josh-Jackson-37890","LaMarcus-Aldridge-1349","De'Anthony-Melton-409081","Danilo-Gallinari-1329","Kyle-Lowry-1057","49000","273.97"
"Patrick-Beverley-14108","Fred-VanVleet-36011","Tobias-Harris-13332","Josh-Jackson-37890","LaMarcus-Aldridge-1349","Kyle-Lowry-1057","DeMar-DeRozan-1053","Patty-Mills-13977","49300","273.85"
"Fred-VanVleet-36011","De'Anthony-Melton-409081","Tobias-Harris-13332","Serge-Ibaka-1294","LaMarcus-Aldridge-1349","Kyle-Lowry-1057","Danilo-Gallinari-1329","Josh-Jackson-37890","49600","273.82"
"Patrick-Beverley-14108","Derrick-White-37858","Tobias-Harris-13332","Josh-Jackson-37890","LaMarcus-Aldridge-1349","Fred-VanVleet-36011","DeMar-DeRozan-1053","Kyle-Lowry-1057","49200","273.74"
"Fred-VanVleet-36011","De'Anthony-Melton-409081","DeMar-DeRozan-1053","Josh-Jackson-37890","Montrezl-Harrell-18930","Kyle-Lowry-1057","Danny-Green-940","LaMarcus-Aldridge-1349","49900","273.74"
"Patrick-Beverley-14108","De'Anthony-Melton-409081","Tobias-Harris-13332","Josh-Jackson-37890","LaMarcus-Aldridge-1349","Kyle-Lowry-1057","DeMar-DeRozan-1053","Mikal-Bridges-408842","49300","273.7"
"Patrick-Beverley-14108","Fred-VanVleet-36011","DeMar-DeRozan-1053","Montrezl-Harrell-18930","LaMarcus-Aldridge-1349","De'Anthony-Melton-409081","Josh-Jackson-37890","Kyle-Lowry-1057","48900","273.69"
"Patrick-Beverley-14108","De'Anthony-Melton-409081","Tobias-Harris-13332","Josh-Jackson-37890","LaMarcus-Aldridge-1349","Kyle-Lowry-1057","DeMar-DeRozan-1053","Jakob-Poeltl-35187","49400","273.64"
"Patrick-Beverley-14108","Fred-VanVleet-36011","Tobias-Harris-13332","Pascal-Siakam-35186","LaMarcus-Aldridge-1349","De'Anthony-Melton-409081","Danilo-Gallinari-1329","DeMar-DeRozan-1053","49800","273.52"
"Fred-VanVleet-36011","De'Anthony-Melton-409081","DeMar-DeRozan-1053","LaMarcus-Aldridge-1349","Jonas-Valanciunas-13301","Kyle-Lowry-1057","Danny-Green-940","Tobias-Harris-13332","50000","273.49"
"Patrick-Beverley-14108","Fred-VanVleet-36011","Tobias-Harris-13332","LaMarcus-Aldridge-1349","Jonas-Valanciunas-13301","De'Anthony-Melton-409081","DeMar-DeRozan-1053","Kyle-Lowry-1057","49000","273.44"
"Patrick-Beverley-14108","Fred-VanVleet-36011","Tobias-Harris-13332","Josh-Jackson-37890","Deandre-Ayton-409301","De'Anthony-Melton-409081","LaMarcus-Aldridge-1349","DeMar-DeRozan-1053","49200","273.39"
"Patrick-Beverley-14108","De'Anthony-Melton-409081","DeMar-DeRozan-1053","Josh-Jackson-37890","LaMarcus-Aldridge-1349","Danny-Green-940","Danilo-Gallinari-1329","Tobias-Harris-13332","49200","273.32"
"Fred-VanVleet-36011","De'Anthony-Melton-409081","Tobias-Harris-13332","Josh-Jackson-37890","LaMarcus-Aldridge-1349","Shai-Gilgeous-Alexander-408990","DeMar-DeRozan-1053","Serge-Ibaka-1294","50000","273.28"
"Patrick-Beverley-14108","Fred-VanVleet-36011","DeMar-DeRozan-1053","Josh-Jackson-37890","LaMarcus-Aldridge-1349","Shai-Gilgeous-Alexander-408990","Danilo-Gallinari-1329","Tobias-Harris-13332","49600","273.27"
"De'Anthony-Melton-409081","Marco-Belinelli-1033","DeMar-DeRozan-1053","Josh-Jackson-37890","Jonas-Valanciunas-13301","Kyle-Lowry-1057","LaMarcus-Aldridge-1349","Tobias-Harris-13332","50000","273.27"
"Fred-VanVleet-36011","De'Anthony-Melton-409081","DeMar-DeRozan-1053","Josh-Jackson-37890","LaMarcus-Aldridge-1349","Kyle-Lowry-1057","Danny-Green-940","Pascal-Siakam-35186","49600","273.26"
"Fred-VanVleet-36011","De'Anthony-Melton-409081","DeMar-DeRozan-1053","Josh-Jackson-37890","LaMarcus-Aldridge-1349","Patty-Mills-13977","Danilo-Gallinari-1329","Tobias-Harris-13332","49300","273.24"
"Patrick-Beverley-14108","Fred-VanVleet-36011","DeMar-DeRozan-1053","Pascal-Siakam-35186","LaMarcus-Aldridge-1349","De'Anthony-Melton-409081","Josh-Jackson-37890","Kyle-Lowry-1057","48600","273.21"
"Patrick-Beverley-14108","De'Anthony-Melton-409081","DeMar-DeRozan-1053","Josh-Jackson-37890","Jonas-Valanciunas-13301","Kyle-Lowry-1057","LaMarcus-Aldridge-1349","Danilo-Gallinari-1329","49200","273.21"
"Patrick-Beverley-14108","Fred-VanVleet-36011","Tobias-Harris-13332","Serge-Ibaka-1294","LaMarcus-Aldridge-1349","De'Anthony-Melton-409081","Danilo-Gallinari-1329","DeMar-DeRozan-1053","49700","273.2"
"Fred-VanVleet-36011","De'Anthony-Melton-409081","DeMar-DeRozan-1053","Josh-Jackson-37890","LaMarcus-Aldridge-1349","Kyle-Lowry-1057","Marco-Belinelli-1033","Danilo-Gallinari-1329","48700","273.17"
"Fred-VanVleet-36011","Derrick-White-37858","DeMar-DeRozan-1053","Josh-Jackson-37890","LaMarcus-Aldridge-1349","De'Anthony-Melton-409081","Danilo-Gallinari-1329","Tobias-Harris-13332","49200","273.13"
"Fred-VanVleet-36011","Avery-Bradley-941","DeMar-DeRozan-1053","Josh-Jackson-37890","LaMarcus-Aldridge-1349","De'Anthony-Melton-409081","Danilo-Gallinari-1329","Kyle-Lowry-1057","48900","273.09"
"Fred-VanVleet-36011","Danny-Green-940","DeMar-DeRozan-1053","Josh-Jackson-37890","LaMarcus-Aldridge-1349","Kyle-Lowry-1057","Marco-Belinelli-1033","Tobias-Harris-13332","49900","272.99"
"Patrick-Beverley-14108","Fred-VanVleet-36011","DeMar-DeRozan-1053","Josh-Jackson-37890","LaMarcus-Aldridge-1349","Kyle-Lowry-1057","Marco-Belinelli-1033","Tobias-Harris-13332","48900","272.94"
"Fred-VanVleet-36011","De'Anthony-Melton-409081","DeMar-DeRozan-1053","Josh-Jackson-37890","Serge-Ibaka-1294","Kyle-Lowry-1057","Danny-Green-940","LaMarcus-Aldridge-1349","49500","272.94"
"Patrick-Beverley-14108","Fred-VanVleet-36011","DeMar-DeRozan-1053","Josh-Jackson-37890","LaMarcus-Aldridge-1349","Kyle-Lowry-1057","Danilo-Gallinari-1329","Danny-Green-940","49100","272.93"
"Fred-VanVleet-36011","De'Anthony-Melton-409081","Rudy-Gay-1341","Josh-Jackson-37890","LaMarcus-Aldridge-1349","Kyle-Lowry-1057","DeMar-DeRozan-1053","Shai-Gilgeous-Alexander-408990","50000","272.92"
"Patrick-Beverley-14108","Fred-VanVleet-36011","DeMar-DeRozan-1053","Serge-Ibaka-1294","LaMarcus-Aldridge-1349","De'Anthony-Melton-409081","Josh-Jackson-37890","Kyle-Lowry-1057","48500","272.89"
"Patrick-Beverley-14108","Avery-Bradley-941","Tobias-Harris-13332","Josh-Jackson-37890","LaMarcus-Aldridge-1349","Fred-VanVleet-36011","DeMar-DeRozan-1053","Kyle-Lowry-1057","49100","272.86"
"Patrick-Beverley-14108","Fred-VanVleet-36011","Tobias-Harris-13332","Josh-Jackson-37890","Montrezl-Harrell-18930","De'Anthony-Melton-409081","DeMar-DeRozan-1053","LaMarcus-Aldridge-1349","49100","272.85"
"Patrick-Beverley-14108","Fred-VanVleet-36011","Rudy-Gay-1341","Danilo-Gallinari-1329","LaMarcus-Aldridge-1349","De'Anthony-Melton-409081","DeMar-DeRozan-1053","Kyle-Lowry-1057","49700","272.84"
"Patrick-Beverley-14108","De'Anthony-Melton-409081","Tobias-Harris-13332","Josh-Jackson-37890","LaMarcus-Aldridge-1349","Kyle-Lowry-1057","DeMar-DeRozan-1053","Richaun-Holmes-18905","49400","272.75"
"Fred-VanVleet-36011","De'Anthony-Melton-409081","DeMar-DeRozan-1053","Josh-Jackson-37890","LaMarcus-Aldridge-1349","Kyle-Lowry-1057","Danilo-Gallinari-1329","Mikal-Bridges-408842","49200","272.7"
"Fred-VanVleet-36011","De'Anthony-Melton-409081","TJ-Warren-18634","Josh-Jackson-37890","LaMarcus-Aldridge-1349","Kyle-Lowry-1057","DeMar-DeRozan-1053","Shai-Gilgeous-Alexander-408990","49600","272.65"
"Fred-VanVleet-36011","De'Anthony-Melton-409081","DeMar-DeRozan-1053","Josh-Jackson-37890","LaMarcus-Aldridge-1349","Kyle-Lowry-1057","Danilo-Gallinari-1329","Jakob-Poeltl-35187","49300","272.64"
"Fred-VanVleet-36011","De'Anthony-Melton-409081","Rudy-Gay-1341","Tobias-Harris-13332","LaMarcus-Aldridge-1349","Kyle-Lowry-1057","Josh-Jackson-37890","Danilo-Gallinari-1329","49800","272.62"
"Patrick-Beverley-14108","Fred-VanVleet-36011","TJ-Warren-18634","Danilo-Gallinari-1329","LaMarcus-Aldridge-1349","De'Anthony-Melton-409081","DeMar-DeRozan-1053","Kyle-Lowry-1057","49300","272.57"
"Patrick-Beverley-14108","Fred-VanVleet-36011","Tobias-Harris-13332","Josh-Jackson-37890","LaMarcus-Aldridge-1349","Kyle-Lowry-1057","DeMar-DeRozan-1053","Mikal-Bridges-408842","49400","272.47"
"Fred-VanVleet-36011","De'Anthony-Melton-409081","Tobias-Harris-13332","Josh-Jackson-37890","LaMarcus-Aldridge-1349","Kyle-Lowry-1057","C.J.-Miles-1299","DeMar-DeRozan-1053","49200","272.43"
"Fred-VanVleet-36011","De'Anthony-Melton-409081","Tobias-Harris-13332","Pascal-Siakam-35186","LaMarcus-Aldridge-1349","Danny-Green-940","DeMar-DeRozan-1053","Josh-Jackson-37890","49800","272.42"
"Patrick-Beverley-14108","Fred-VanVleet-36011","Tobias-Harris-13332","Josh-Jackson-37890","LaMarcus-Aldridge-1349","Kyle-Lowry-1057","DeMar-DeRozan-1053","Jakob-Poeltl-35187","49500","272.41"
"Patrick-Beverley-14108","Fred-VanVleet-36011","Tobias-Harris-13332","Pascal-Siakam-35186","LaMarcus-Aldridge-1349","De'Anthony-Melton-409081","DeMar-DeRozan-1053","Josh-Jackson-37890","48800","272.37"
"Patrick-Beverley-14108","De'Anthony-Melton-409081","Tobias-Harris-13332","Josh-Jackson-37890","LaMarcus-Aldridge-1349","DeMar-DeRozan-1053","Danilo-Gallinari-1329","Jonas-Valanciunas-13301","49400","272.37"
"Patrick-Beverley-14108","De'Anthony-Melton-409081","DeMar-DeRozan-1053","Tobias-Harris-13332","LaMarcus-Aldridge-1349","Kyle-Lowry-1057","Danny-Green-940","Shai-Gilgeous-Alexander-408990","49300","272.35"
"Fred-VanVleet-36011","De'Anthony-Melton-409081","Tobias-Harris-13332","Josh-Jackson-37890","LaMarcus-Aldridge-1349","Kyle-Lowry-1057","Danilo-Gallinari-1329","TJ-Warren-18634","49400","272.35"
"Fred-VanVleet-36011","De'Anthony-Melton-409081","DeMar-DeRozan-1053","Josh-Jackson-37890","LaMarcus-Aldridge-1349","Marco-Belinelli-1033","Danilo-Gallinari-1329","Tobias-Harris-13332","48900","272.33"
"Fred-VanVleet-36011","De'Anthony-Melton-409081","DeMar-DeRozan-1053","Josh-Jackson-37890","Jonas-Valanciunas-13301","Kyle-Lowry-1057","LaMarcus-Aldridge-1349","Pascal-Siakam-35186","49800","272.31"
"Fred-VanVleet-36011","Avery-Bradley-941","DeMar-DeRozan-1053","Josh-Jackson-37890","LaMarcus-Aldridge-1349","De'Anthony-Melton-409081","Danilo-Gallinari-1329","Tobias-Harris-13332","49100","272.25"
"Patrick-Beverley-14108","De'Anthony-Melton-409081","DeMar-DeRozan-1053","Josh-Jackson-37890","Deandre-Ayton-409301","Kyle-Lowry-1057","LaMarcus-Aldridge-1349","Shai-Gilgeous-Alexander-408990","49500","272.19"
"Patrick-Beverley-14108","De'Anthony-Melton-409081","DeMar-DeRozan-1053","Tobias-Harris-13332","LaMarcus-Aldridge-1349","Kyle-Lowry-1057","Marco-Belinelli-1033","Deandre-Ayton-409301","50000","272.17"
"Fred-VanVleet-36011","De'Anthony-Melton-409081","Tobias-Harris-13332","Josh-Jackson-37890","LaMarcus-Aldridge-1349","Danny-Green-940","DeMar-DeRozan-1053","Serge-Ibaka-1294","49700","272.1"
"Patrick-Beverley-14108","Fred-VanVleet-36011","DeMar-DeRozan-1053","Josh-Jackson-37890","LaMarcus-Aldridge-1349","Danny-Green-940","Danilo-Gallinari-1329","Tobias-Harris-13332","49300","272.09"
"Patrick-Beverley-14108","De'Anthony-Melton-409081","Tobias-Harris-13332","Pascal-Siakam-35186","LaMarcus-Aldridge-1349","Kyle-Lowry-1057","DeMar-DeRozan-1053","Patty-Mills-13977","50000","272.06"
"Patrick-Beverley-14108","Fred-VanVleet-36011","Tobias-Harris-13332","Josh-Jackson-37890","LaMarcus-Aldridge-1349","De'Anthony-Melton-409081","DeMar-DeRozan-1053","Serge-Ibaka-1294","48700","272.05"
"De'Anthony-Melton-409081","Shai-Gilgeous-Alexander-408990","DeMar-DeRozan-1053","Josh-Jackson-37890","LaMarcus-Aldridge-1349","Kyle-Lowry-1057","Danilo-Gallinari-1329","Patty-Mills-13977","49600","272.04"
"Patrick-Beverley-14108","De'Anthony-Melton-409081","DeMar-DeRozan-1053","Serge-Ibaka-1294","LaMarcus-Aldridge-1349","Kyle-Lowry-1057","Danilo-Gallinari-1329","Shai-Gilgeous-Alexander-408990","50000","272.0"
"Patrick-Beverley-14108","Fred-VanVleet-36011","Rudy-Gay-1341","Danilo-Gallinari-1329","LaMarcus-Aldridge-1349","De'Anthony-Melton-409081","DeMar-DeRozan-1053","Tobias-Harris-13332","49900","272.0"
"Fred-VanVleet-36011","De'Anthony-Melton-409081","DeMar-DeRozan-1053","Josh-Jackson-37890","Jonas-Valanciunas-13301","Kyle-Lowry-1057","LaMarcus-Aldridge-1349","Serge-Ibaka-1294","49700","271.99"
"Patrick-Beverley-14108","Fred-VanVleet-36011","DeMar-DeRozan-1053","Josh-Jackson-37890","Jonas-Valanciunas-13301","Kyle-Lowry-1057","LaMarcus-Aldridge-1349","Danilo-Gallinari-1329","49300","271.98"
