"Damian-Lillard-13900","Evan-Turner-1291","Al-Farouq-Aminu-1279","Maurice-Harkless-16971","Davis-Bertans-36051","Stephen-Curry-1079","Kevin-Durant-1348","LaMarcus-Aldridge-1349","49900","277.29"
"Damian-Lillard-13900","Evan-Turner-1291","Al-Farouq-Aminu-1279","Maurice-Harkless-16971","Draymond-Green-13976","Klay-Thompson-13315","Kevin-Durant-1348","LaMarcus-Aldridge-1349","49800","276.9"

"Damian-Lillard-13900","Evan-Turner-1291","Al-Farouq-Aminu-1279","Maurice-Harkless-16971","Davis-Bertans-36051","Stephen-Curry-1079","Kevin-Durant-1348","LaMarcus-Aldridge-1349","49900","277.29"
"Damian-Lillard-13900","Evan-Turner-1291","Al-Farouq-Aminu-1279","Maurice-Harkless-16971","Draymond-Green-13976","Klay-Thompson-13315","Kevin-Durant-1348","LaMarcus-Aldridge-1349","49800","276.9"
"Damian-Lillard-13900","Evan-Turner-1291","Al-Farouq-Aminu-1279","LaMarcus-Aldridge-1349","Davis-Bertans-36051","Klay-Thompson-13315","Draymond-Green-13976","Kevin-Durant-1348","49700","276.69"
"Damian-Lillard-13900","Avery-Bradley-941","Al-Farouq-Aminu-1279","Maurice-Harkless-16971","Davis-Bertans-36051","Stephen-Curry-1079","Kevin-Durant-1348","LaMarcus-Aldridge-1349","49900","276.52"
"Damian-Lillard-13900","Andre-Iguodala-1334","Al-Farouq-Aminu-1279","LaMarcus-Aldridge-1349","Davis-Bertans-36051","Klay-Thompson-13315","Draymond-Green-13976","Kevin-Durant-1348","50000","276.51"
"Damian-Lillard-13900","Avery-Bradley-941","Al-Farouq-Aminu-1279","Maurice-Harkless-16971","Draymond-Green-13976","Klay-Thompson-13315","Kevin-Durant-1348","LaMarcus-Aldridge-1349","49800","276.13"
"Damian-Lillard-13900","Stephen-Curry-1079","Maurice-Harkless-16971","LaMarcus-Aldridge-1349","Davis-Bertans-36051","Klay-Thompson-13315","Draymond-Green-13976","Al-Farouq-Aminu-1279","49100","276.05"
"Patrick-Beverley-14108","Stephen-Curry-1079","Al-Farouq-Aminu-1279","Maurice-Harkless-16971","Davis-Bertans-36051","Damian-Lillard-13900","Kevin-Durant-1348","LaMarcus-Aldridge-1349","49800","275.94"
"Damian-Lillard-13900","Avery-Bradley-941","Al-Farouq-Aminu-1279","LaMarcus-Aldridge-1349","Davis-Bertans-36051","Klay-Thompson-13315","Draymond-Green-13976","Kevin-Durant-1348","49700","275.92"
"Damian-Lillard-13900","Derrick-White-37858","Al-Farouq-Aminu-1279","Maurice-Harkless-16971","Davis-Bertans-36051","Stephen-Curry-1079","Kevin-Durant-1348","LaMarcus-Aldridge-1349","49800","275.7"
"Damian-Lillard-13900","Evan-Turner-1291","Al-Farouq-Aminu-1279","LaMarcus-Aldridge-1349","Draymond-Green-13976","Stephen-Curry-1079","Danilo-Gallinari-1329","Maurice-Harkless-16971","49800","275.59"
"Patrick-Beverley-14108","Klay-Thompson-13315","Al-Farouq-Aminu-1279","Maurice-Harkless-16971","Draymond-Green-13976","Damian-Lillard-13900","Kevin-Durant-1348","LaMarcus-Aldridge-1349","49700","275.55"
"Damian-Lillard-13900","Stephen-Curry-1079","Tobias-Harris-13332","LaMarcus-Aldridge-1349","Davis-Bertans-36051","Klay-Thompson-13315","Maurice-Harkless-16971","Al-Farouq-Aminu-1279","49800","275.45"
"Damian-Lillard-13900","Evan-Turner-1291","Maurice-Harkless-16971","LaMarcus-Aldridge-1349","Kevon-Looney-18945","Stephen-Curry-1079","Kevin-Durant-1348","Al-Farouq-Aminu-1279","50000","275.42"
"Damian-Lillard-13900","Evan-Turner-1291","Al-Farouq-Aminu-1279","Danilo-Gallinari-1329","Davis-Bertans-36051","Stephen-Curry-1079","Draymond-Green-13976","LaMarcus-Aldridge-1349","49700","275.38"
"Patrick-Beverley-14108","Klay-Thompson-13315","Al-Farouq-Aminu-1279","LaMarcus-Aldridge-1349","Davis-Bertans-36051","Damian-Lillard-13900","Draymond-Green-13976","Kevin-Durant-1348","49600","275.34"
"Damian-Lillard-13900","Derrick-White-37858","Al-Farouq-Aminu-1279","Maurice-Harkless-16971","Draymond-Green-13976","Klay-Thompson-13315","Kevin-Durant-1348","LaMarcus-Aldridge-1349","49700","275.31"
"Damian-Lillard-13900","Evan-Turner-1291","Al-Farouq-Aminu-1279","LaMarcus-Aldridge-1349","Kevon-Looney-18945","Stephen-Curry-1079","Kevin-Durant-1348","Davis-Bertans-36051","49900","275.21"
"Damian-Lillard-13900","Andre-Iguodala-1334","Al-Farouq-Aminu-1279","Danilo-Gallinari-1329","Davis-Bertans-36051","Stephen-Curry-1079","Draymond-Green-13976","LaMarcus-Aldridge-1349","50000","275.2"
"Damian-Lillard-13900","Stephen-Curry-1079","Al-Farouq-Aminu-1279","Maurice-Harkless-16971","Davis-Bertans-36051","Marco-Belinelli-1033","Kevin-Durant-1348","LaMarcus-Aldridge-1349","49700","275.2"
"Damian-Lillard-13900","Derrick-White-37858","Al-Farouq-Aminu-1279","LaMarcus-Aldridge-1349","Davis-Bertans-36051","Klay-Thompson-13315","Draymond-Green-13976","Kevin-Durant-1348","49600","275.1"
"Bryn-Forbes-36052","Stephen-Curry-1079","Al-Farouq-Aminu-1279","LaMarcus-Aldridge-1349","Davis-Bertans-36051","Damian-Lillard-13900","Draymond-Green-13976","Klay-Thompson-13315","50000","275.02"
"Damian-Lillard-13900","Avery-Bradley-941","Al-Farouq-Aminu-1279","LaMarcus-Aldridge-1349","Draymond-Green-13976","Stephen-Curry-1079","Danilo-Gallinari-1329","Maurice-Harkless-16971","49800","274.82"
"Damian-Lillard-13900","Evan-Turner-1291","Al-Farouq-Aminu-1279","LaMarcus-Aldridge-1349","Kevon-Looney-18945","Klay-Thompson-13315","Kevin-Durant-1348","Draymond-Green-13976","49800","274.82"
"Damian-Lillard-13900","Klay-Thompson-13315","Al-Farouq-Aminu-1279","Maurice-Harkless-16971","Draymond-Green-13976","Marco-Belinelli-1033","Kevin-Durant-1348","LaMarcus-Aldridge-1349","49600","274.81"
"Damian-Lillard-13900","Stephen-Curry-1079","Maurice-Harkless-16971","LaMarcus-Aldridge-1349","Jusuf-Nurkic-18619","Klay-Thompson-13315","Davis-Bertans-36051","Al-Farouq-Aminu-1279","49600","274.69"
"Damian-Lillard-13900","Avery-Bradley-941","Maurice-Harkless-16971","LaMarcus-Aldridge-1349","Kevon-Looney-18945","Stephen-Curry-1079","Kevin-Durant-1348","Al-Farouq-Aminu-1279","50000","274.65"
"Damian-Lillard-13900","Avery-Bradley-941","Al-Farouq-Aminu-1279","Danilo-Gallinari-1329","Davis-Bertans-36051","Stephen-Curry-1079","Draymond-Green-13976","LaMarcus-Aldridge-1349","49700","274.61"
"Damian-Lillard-13900","Klay-Thompson-13315","Al-Farouq-Aminu-1279","LaMarcus-Aldridge-1349","Davis-Bertans-36051","Marco-Belinelli-1033","Draymond-Green-13976","Kevin-Durant-1348","49500","274.6"
"Damian-Lillard-13900","Stephen-Curry-1079","Al-Farouq-Aminu-1279","LaMarcus-Aldridge-1349","Draymond-Green-13976","Klay-Thompson-13315","Evan-Turner-1291","Maurice-Harkless-16971","49400","274.5"
"Damian-Lillard-13900","Avery-Bradley-941","Al-Farouq-Aminu-1279","LaMarcus-Aldridge-1349","Kevon-Looney-18945","Stephen-Curry-1079","Kevin-Durant-1348","Davis-Bertans-36051","49900","274.44"
"Damian-Lillard-13900","Avery-Bradley-941","Al-Farouq-Aminu-1279","LaMarcus-Aldridge-1349","Draymond-Green-13976","Klay-Thompson-13315","Evan-Turner-1291","Kevin-Durant-1348","50000","274.37"
"Damian-Lillard-13900","Stephen-Curry-1079","Maurice-Harkless-16971","LaMarcus-Aldridge-1349","Draymond-Green-13976","Klay-Thompson-13315","Andre-Iguodala-1334","Al-Farouq-Aminu-1279","49700","274.32"
"Damian-Lillard-13900","Shai-Gilgeous-Alexander-408990","Al-Farouq-Aminu-1279","LaMarcus-Aldridge-1349","Draymond-Green-13976","Klay-Thompson-13315","Maurice-Harkless-16971","Stephen-Curry-1079","49900","274.31"
"Damian-Lillard-13900","Stephen-Curry-1079","Al-Farouq-Aminu-1279","LaMarcus-Aldridge-1349","Draymond-Green-13976","Klay-Thompson-13315","Evan-Turner-1291","Davis-Bertans-36051","49300","274.29"
"Damian-Lillard-13900","Evan-Turner-1291","Al-Farouq-Aminu-1279","Maurice-Harkless-16971","Davis-Bertans-36051","Stephen-Curry-1079","Kevin-Durant-1348","Draymond-Green-13976","49500","274.26"
"Damian-Lillard-13900","Evan-Turner-1291","Al-Farouq-Aminu-1279","LaMarcus-Aldridge-1349","Davis-Bertans-36051","C.J.-McCollum-17121","Draymond-Green-13976","Kevin-Durant-1348","50000","274.26"
"Patrick-Beverley-14108","Stephen-Curry-1079","Al-Farouq-Aminu-1279","LaMarcus-Aldridge-1349","Draymond-Green-13976","Damian-Lillard-13900","Danilo-Gallinari-1329","Maurice-Harkless-16971","49700","274.24"
"Patrick-Beverley-14108","Stephen-Curry-1079","Al-Farouq-Aminu-1279","Kevin-Durant-1348","Davis-Bertans-36051","Damian-Lillard-13900","Evan-Turner-1291","LaMarcus-Aldridge-1349","50000","274.18"
"Damian-Lillard-13900","Stephen-Curry-1079","Al-Farouq-Aminu-1279","Maurice-Harkless-16971","Draymond-Green-13976","Klay-Thompson-13315","Kevon-Looney-18945","LaMarcus-Aldridge-1349","49200","274.18"
"Damian-Lillard-13900","Stephen-Curry-1079","Al-Farouq-Aminu-1279","Draymond-Green-13976","Davis-Bertans-36051","Klay-Thompson-13315","Andre-Iguodala-1334","LaMarcus-Aldridge-1349","49600","274.11"
"Damian-Lillard-13900","Shai-Gilgeous-Alexander-408990","Al-Farouq-Aminu-1279","LaMarcus-Aldridge-1349","Davis-Bertans-36051","Klay-Thompson-13315","Draymond-Green-13976","Stephen-Curry-1079","49800","274.1"
"Damian-Lillard-13900","Andre-Iguodala-1334","Al-Farouq-Aminu-1279","Maurice-Harkless-16971","Davis-Bertans-36051","Stephen-Curry-1079","Kevin-Durant-1348","Draymond-Green-13976","49800","274.08"
"Damian-Lillard-13900","Shai-Gilgeous-Alexander-408990","Al-Farouq-Aminu-1279","Maurice-Harkless-16971","Davis-Bertans-36051","Stephen-Curry-1079","Kevin-Durant-1348","Draymond-Green-13976","50000","274.07"
"Patrick-Beverley-14108","Stephen-Curry-1079","Maurice-Harkless-16971","LaMarcus-Aldridge-1349","Kevon-Looney-18945","Damian-Lillard-13900","Kevin-Durant-1348","Al-Farouq-Aminu-1279","49900","274.07"
"Damian-Lillard-13900","Stephen-Curry-1079","Al-Farouq-Aminu-1279","Maurice-Harkless-16971","Davis-Bertans-36051","Patty-Mills-13977","Kevin-Durant-1348","LaMarcus-Aldridge-1349","49400","274.06"
"Damian-Lillard-13900","Avery-Bradley-941","Al-Farouq-Aminu-1279","LaMarcus-Aldridge-1349","Kevon-Looney-18945","Klay-Thompson-13315","Kevin-Durant-1348","Draymond-Green-13976","49800","274.05"
"Patrick-Beverley-14108","Stephen-Curry-1079","Al-Farouq-Aminu-1279","Danilo-Gallinari-1329","Davis-Bertans-36051","Damian-Lillard-13900","Draymond-Green-13976","LaMarcus-Aldridge-1349","49600","274.03"
"Damian-Lillard-13900","Derrick-White-37858","Al-Farouq-Aminu-1279","LaMarcus-Aldridge-1349","Draymond-Green-13976","Stephen-Curry-1079","Danilo-Gallinari-1329","Maurice-Harkless-16971","49700","274.0"
"Damian-Lillard-13900","Stephen-Curry-1079","Al-Farouq-Aminu-1279","LaMarcus-Aldridge-1349","Davis-Bertans-36051","Klay-Thompson-13315","Draymond-Green-13976","Kevon-Looney-18945","49100","273.97"
"Damian-Lillard-13900","Evan-Turner-1291","Al-Farouq-Aminu-1279","LaMarcus-Aldridge-1349","Jonas-Jerebko-1106","Stephen-Curry-1079","Kevin-Durant-1348","Davis-Bertans-36051","50000","273.96"
"Damian-Lillard-13900","Derrick-White-37858","Al-Farouq-Aminu-1279","Kevin-Durant-1348","Davis-Bertans-36051","Stephen-Curry-1079","Evan-Turner-1291","LaMarcus-Aldridge-1349","50000","273.94"
"Patrick-Beverley-14108","Stephen-Curry-1079","Al-Farouq-Aminu-1279","LaMarcus-Aldridge-1349","Kevon-Looney-18945","Damian-Lillard-13900","Kevin-Durant-1348","Davis-Bertans-36051","49800","273.86"
"Damian-Lillard-13900","Stephen-Curry-1079","Al-Farouq-Aminu-1279","LaMarcus-Aldridge-1349","Davis-Bertans-36051","Patty-Mills-13977","Draymond-Green-13976","Jusuf-Nurkic-18619","50000","273.85"
"Damian-Lillard-13900","Evan-Turner-1291","Maurice-Harkless-16971","Kevin-Durant-1348","LaMarcus-Aldridge-1349","Klay-Thompson-13315","Danilo-Gallinari-1329","Al-Farouq-Aminu-1279","49500","273.84"
"Damian-Lillard-13900","Derrick-White-37858","Maurice-Harkless-16971","LaMarcus-Aldridge-1349","Kevon-Looney-18945","Stephen-Curry-1079","Kevin-Durant-1348","Al-Farouq-Aminu-1279","49900","273.83"
"Patrick-Beverley-14108","Klay-Thompson-13315","Al-Farouq-Aminu-1279","LaMarcus-Aldridge-1349","Draymond-Green-13976","Damian-Lillard-13900","Evan-Turner-1291","Kevin-Durant-1348","49900","273.79"
"Damian-Lillard-13900","Derrick-White-37858","Al-Farouq-Aminu-1279","Danilo-Gallinari-1329","Davis-Bertans-36051","Stephen-Curry-1079","Draymond-Green-13976","LaMarcus-Aldridge-1349","49600","273.79"
"Damian-Lillard-13900","Avery-Bradley-941","Al-Farouq-Aminu-1279","LaMarcus-Aldridge-1349","Draymond-Green-13976","Klay-Thompson-13315","Maurice-Harkless-16971","Stephen-Curry-1079","49400","273.73"
"Damian-Lillard-13900","Stephen-Curry-1079","Tobias-Harris-13332","LaMarcus-Aldridge-1349","Davis-Bertans-36051","Klay-Thompson-13315","Evan-Turner-1291","Al-Farouq-Aminu-1279","50000","273.69"
"Damian-Lillard-13900","Patty-Mills-13977","Al-Farouq-Aminu-1279","Maurice-Harkless-16971","Draymond-Green-13976","Klay-Thompson-13315","Kevin-Durant-1348","LaMarcus-Aldridge-1349","49300","273.67"
"Damian-Lillard-13900","Andre-Iguodala-1334","Maurice-Harkless-16971","Kevin-Durant-1348","LaMarcus-Aldridge-1349","Klay-Thompson-13315","Danilo-Gallinari-1329","Al-Farouq-Aminu-1279","49800","273.66"
"Damian-Lillard-13900","Shai-Gilgeous-Alexander-408990","Maurice-Harkless-16971","Kevin-Durant-1348","LaMarcus-Aldridge-1349","Klay-Thompson-13315","Danilo-Gallinari-1329","Al-Farouq-Aminu-1279","50000","273.65"
"Damian-Lillard-13900","Stephen-Curry-1079","Al-Farouq-Aminu-1279","Kevin-Durant-1348","LaMarcus-Aldridge-1349","Marco-Belinelli-1033","Evan-Turner-1291","Maurice-Harkless-16971","50000","273.65"
"Damian-Lillard-13900","Evan-Turner-1291","Kevin-Durant-1348","LaMarcus-Aldridge-1349","Davis-Bertans-36051","Klay-Thompson-13315","Danilo-Gallinari-1329","Al-Farouq-Aminu-1279","49400","273.63"
"Damian-Lillard-13900","Derrick-White-37858","Al-Farouq-Aminu-1279","LaMarcus-Aldridge-1349","Kevon-Looney-18945","Stephen-Curry-1079","Kevin-Durant-1348","Davis-Bertans-36051","49800","273.62"
"Damian-Lillard-13900","C.J.-McCollum-17121","Maurice-Harkless-16971","LaMarcus-Aldridge-1349","Davis-Bertans-36051","Stephen-Curry-1079","Draymond-Green-13976","Al-Farouq-Aminu-1279","49400","273.62"
"Damian-Lillard-13900","Stephen-Curry-1079","Tobias-Harris-13332","LaMarcus-Aldridge-1349","Kevon-Looney-18945","Klay-Thompson-13315","Maurice-Harkless-16971","Al-Farouq-Aminu-1279","49900","273.58"
"Damian-Lillard-13900","Evan-Turner-1291","Kevin-Durant-1348","LaMarcus-Aldridge-1349","Draymond-Green-13976","Klay-Thompson-13315","Jonas-Jerebko-1106","Al-Farouq-Aminu-1279","49900","273.57"
"Damian-Lillard-13900","Derrick-White-37858","Al-Farouq-Aminu-1279","LaMarcus-Aldridge-1349","Draymond-Green-13976","Klay-Thompson-13315","Evan-Turner-1291","Kevin-Durant-1348","49900","273.55"
"Damian-Lillard-13900","Avery-Bradley-941","Al-Farouq-Aminu-1279","LaMarcus-Aldridge-1349","Davis-Bertans-36051","Klay-Thompson-13315","Draymond-Green-13976","Stephen-Curry-1079","49300","273.52"
"Damian-Lillard-13900","Evan-Turner-1291","Al-Farouq-Aminu-1279","LaMarcus-Aldridge-1349","Draymond-Green-13976","Stephen-Curry-1079","Danilo-Gallinari-1329","Kevon-Looney-18945","49800","273.51"
"Damian-Lillard-13900","Stephen-Curry-1079","Al-Farouq-Aminu-1279","LaMarcus-Aldridge-1349","Draymond-Green-13976","Marco-Belinelli-1033","Danilo-Gallinari-1329","Maurice-Harkless-16971","49600","273.5"
"Damian-Lillard-13900","Avery-Bradley-941","Al-Farouq-Aminu-1279","Maurice-Harkless-16971","Davis-Bertans-36051","Stephen-Curry-1079","Kevin-Durant-1348","Draymond-Green-13976","49500","273.49"
"Damian-Lillard-13900","C.J.-McCollum-17121","Al-Farouq-Aminu-1279","LaMarcus-Aldridge-1349","Davis-Bertans-36051","Avery-Bradley-941","Draymond-Green-13976","Kevin-Durant-1348","50000","273.49"
"Patrick-Beverley-14108","Klay-Thompson-13315","Al-Farouq-Aminu-1279","LaMarcus-Aldridge-1349","Kevon-Looney-18945","Damian-Lillard-13900","Kevin-Durant-1348","Draymond-Green-13976","49700","273.47"
"Damian-Lillard-13900","Patty-Mills-13977","Al-Farouq-Aminu-1279","LaMarcus-Aldridge-1349","Davis-Bertans-36051","Klay-Thompson-13315","Draymond-Green-13976","Kevin-Durant-1348","49200","273.46"
"Damian-Lillard-13900","Andre-Iguodala-1334","Kevin-Durant-1348","LaMarcus-Aldridge-1349","Davis-Bertans-36051","Klay-Thompson-13315","Danilo-Gallinari-1329","Al-Farouq-Aminu-1279","49700","273.45"
"Damian-Lillard-13900","Stephen-Curry-1079","Al-Farouq-Aminu-1279","Kevin-Durant-1348","Davis-Bertans-36051","Marco-Belinelli-1033","Evan-Turner-1291","LaMarcus-Aldridge-1349","49900","273.44"
"Damian-Lillard-13900","Shai-Gilgeous-Alexander-408990","Kevin-Durant-1348","LaMarcus-Aldridge-1349","Davis-Bertans-36051","Klay-Thompson-13315","Danilo-Gallinari-1329","Al-Farouq-Aminu-1279","49900","273.44"
"Patrick-Beverley-14108","Avery-Bradley-941","Al-Farouq-Aminu-1279","LaMarcus-Aldridge-1349","Davis-Bertans-36051","Damian-Lillard-13900","Kevin-Durant-1348","Stephen-Curry-1079","50000","273.41"
"Damian-Lillard-13900","Stephen-Curry-1079","Tobias-Harris-13332","LaMarcus-Aldridge-1349","Kevon-Looney-18945","Klay-Thompson-13315","Al-Farouq-Aminu-1279","Davis-Bertans-36051","49800","273.37"
"Damian-Lillard-13900","Stephen-Curry-1079","Maurice-Harkless-16971","LaMarcus-Aldridge-1349","Kevon-Looney-18945","Marco-Belinelli-1033","Kevin-Durant-1348","Al-Farouq-Aminu-1279","49800","273.33"
"Damian-Lillard-13900","Stephen-Curry-1079","Al-Farouq-Aminu-1279","Danilo-Gallinari-1329","Davis-Bertans-36051","Marco-Belinelli-1033","Draymond-Green-13976","LaMarcus-Aldridge-1349","49500","273.29"
"Damian-Lillard-13900","Klay-Thompson-13315","Al-Farouq-Aminu-1279","LaMarcus-Aldridge-1349","Jusuf-Nurkic-18619","Marco-Belinelli-1033","Kevin-Durant-1348","Davis-Bertans-36051","50000","273.24"
"Damian-Lillard-13900","Derrick-White-37858","Al-Farouq-Aminu-1279","LaMarcus-Aldridge-1349","Kevon-Looney-18945","Klay-Thompson-13315","Kevin-Durant-1348","Draymond-Green-13976","49700","273.23"
"Damian-Lillard-13900","Avery-Bradley-941","Al-Farouq-Aminu-1279","LaMarcus-Aldridge-1349","Jonas-Jerebko-1106","Stephen-Curry-1079","Kevin-Durant-1348","Davis-Bertans-36051","50000","273.19"
"Stephen-Curry-1079","Evan-Turner-1291","Maurice-Harkless-16971","LaMarcus-Aldridge-1349","Davis-Bertans-36051","Klay-Thompson-13315","Draymond-Green-13976","Kevin-Durant-1348","49700","273.18"
"Damian-Lillard-13900","Derrick-White-37858","Al-Farouq-Aminu-1279","LaMarcus-Aldridge-1349","Davis-Bertans-36051","Stephen-Curry-1079","Kevin-Durant-1348","Avery-Bradley-941","50000","273.17"
"Patrick-Beverley-14108","Stephen-Curry-1079","Al-Farouq-Aminu-1279","LaMarcus-Aldridge-1349","Draymond-Green-13976","Damian-Lillard-13900","Maurice-Harkless-16971","Klay-Thompson-13315","49300","273.15"
"Damian-Lillard-13900","Stephen-Curry-1079","Al-Farouq-Aminu-1279","Maurice-Harkless-16971","LaMarcus-Aldridge-1349","Klay-Thompson-13315","Evan-Turner-1291","Jusuf-Nurkic-18619","49900","273.14"
"Patrick-Beverley-14108","C.J.-McCollum-17121","Al-Farouq-Aminu-1279","Maurice-Harkless-16971","Draymond-Green-13976","Damian-Lillard-13900","Kevin-Durant-1348","LaMarcus-Aldridge-1349","50000","273.12"
"Damian-Lillard-13900","Stephen-Curry-1079","Al-Farouq-Aminu-1279","LaMarcus-Aldridge-1349","Kevon-Looney-18945","Marco-Belinelli-1033","Kevin-Durant-1348","Davis-Bertans-36051","49700","273.12"
"Damian-Lillard-13900","Avery-Bradley-941","Maurice-Harkless-16971","Kevin-Durant-1348","LaMarcus-Aldridge-1349","Klay-Thompson-13315","Danilo-Gallinari-1329","Al-Farouq-Aminu-1279","49500","273.07"
"Damian-Lillard-13900","Patty-Mills-13977","Tobias-Harris-13332","Al-Farouq-Aminu-1279","LaMarcus-Aldridge-1349","Klay-Thompson-13315","Maurice-Harkless-16971","Kevin-Durant-1348","50000","273.07"
"Damian-Lillard-13900","Avery-Bradley-941","Al-Farouq-Aminu-1279","LaMarcus-Aldridge-1349","Draymond-Green-13976","Stephen-Curry-1079","Evan-Turner-1291","Danilo-Gallinari-1329","50000","273.06"
"Damian-Lillard-13900","Evan-Turner-1291","Tobias-Harris-13332","Kevin-Durant-1348","Davis-Bertans-36051","Klay-Thompson-13315","Draymond-Green-13976","Al-Farouq-Aminu-1279","50000","273.06"
"Damian-Lillard-13900","Klay-Thompson-13315","Al-Farouq-Aminu-1279","LaMarcus-Aldridge-1349","Draymond-Green-13976","Marco-Belinelli-1033","Evan-Turner-1291","Kevin-Durant-1348","49800","273.05"
"Patrick-Beverley-14108","Avery-Bradley-941","Al-Farouq-Aminu-1279","LaMarcus-Aldridge-1349","Draymond-Green-13976","Damian-Lillard-13900","Kevin-Durant-1348","Klay-Thompson-13315","49900","273.02"
"Stephen-Curry-1079","Andre-Iguodala-1334","Maurice-Harkless-16971","LaMarcus-Aldridge-1349","Davis-Bertans-36051","Klay-Thompson-13315","Draymond-Green-13976","Kevin-Durant-1348","50000","273.0"
