"Jamal-Murray-35211","Gary-Harris-18617","Danilo-Gallinari-1329","Juan-Hernangomez-35212","Alex-Len-16886","James-Harden-1037","Kent-Bazemore-13987","Clint-Capela-18610","50000","274.68"
"Monte-Morris-37860","Jamal-Murray-35211","Danilo-Gallinari-1329","Paul-Millsap-1335","Alex-Len-16886","James-Harden-1037","Kent-Bazemore-13987","Clint-Capela-18610","50000","274.0"
"Jamal-Murray-35211","Gary-Harris-18617","Danilo-Gallinari-1329","Tobias-Harris-13332","Alex-Len-16886","Chris-Paul-1087","P.J.-Tucker-13947","Clint-Capela-18610","49700","273.96"
"Monte-Morris-37860","Jamal-Murray-35211","Danilo-Gallinari-1329","Juan-Hernangomez-35212","Clint-Capela-18610","James-Harden-1037","Tobias-Harris-13332","Alex-Len-16886","49700","273.79"
"Jamal-Murray-35211","Gary-Harris-18617","DeMar-DeRozan-1053","Danilo-Gallinari-1329","Alex-Len-16886","Jeremy-Lin-916","Tobias-Harris-13332","Clint-Capela-18610","49900","273.74"

"Jamal-Murray-35211","Gary-Harris-18617","Danilo-Gallinari-1329","Juan-Hernangomez-35212","Alex-Len-16886","James-Harden-1037","Kent-Bazemore-13987","Clint-Capela-18610","50000","274.68"
"Monte-Morris-37860","Jamal-Murray-35211","Danilo-Gallinari-1329","Paul-Millsap-1335","Alex-Len-16886","James-Harden-1037","Kent-Bazemore-13987","Clint-Capela-18610","50000","274.0"
"Jamal-Murray-35211","Gary-Harris-18617","Danilo-Gallinari-1329","Tobias-Harris-13332","Alex-Len-16886","Chris-Paul-1087","P.J.-Tucker-13947","Clint-Capela-18610","49700","273.96"
"Monte-Morris-37860","Jamal-Murray-35211","Danilo-Gallinari-1329","Juan-Hernangomez-35212","Clint-Capela-18610","James-Harden-1037","Tobias-Harris-13332","Alex-Len-16886","49700","273.79"
"Jamal-Murray-35211","Gary-Harris-18617","DeMar-DeRozan-1053","Danilo-Gallinari-1329","Alex-Len-16886","Jeremy-Lin-916","Tobias-Harris-13332","Clint-Capela-18610","49900","273.74"
"Jamal-Murray-35211","Gary-Harris-18617","Danilo-Gallinari-1329","Montrezl-Harrell-18930","Alex-Len-16886","Chris-Paul-1087","Paul-Millsap-1335","Clint-Capela-18610","50000","273.65"
"Jamal-Murray-35211","Gary-Harris-18617","Danilo-Gallinari-1329","Juan-Hernangomez-35212","Alex-Len-16886","Chris-Paul-1087","LaMarcus-Aldridge-1349","Clint-Capela-18610","50000","273.46"
"Monte-Morris-37860","Gary-Harris-18617","Danilo-Gallinari-1329","Tobias-Harris-13332","Alex-Len-16886","James-Harden-1037","P.J.-Tucker-13947","Clint-Capela-18610","50000","273.44"
"Jamal-Murray-35211","Jeremy-Lin-916","Danilo-Gallinari-1329","Paul-Millsap-1335","Alex-Len-16886","James-Harden-1037","Kent-Bazemore-13987","Clint-Capela-18610","49800","273.31"
"Jamal-Murray-35211","Jeremy-Lin-916","Danilo-Gallinari-1329","Juan-Hernangomez-35212","Clint-Capela-18610","James-Harden-1037","Tobias-Harris-13332","Alex-Len-16886","49500","273.1"
"Jamal-Murray-35211","DeMar-DeRozan-1053","Danilo-Gallinari-1329","Tobias-Harris-13332","Alex-Len-16886","Jeremy-Lin-916","Montrezl-Harrell-18930","Clint-Capela-18610","50000","273.04"
"Jamal-Murray-35211","Jeremy-Lin-916","Tobias-Harris-13332","P.J.-Tucker-13947","Alex-Len-16886","James-Harden-1037","Kent-Bazemore-13987","Clint-Capela-18610","49900","273.0"
"Chris-Paul-1087","Gary-Harris-18617","Danilo-Gallinari-1329","Tobias-Harris-13332","Clint-Capela-18610","Kent-Bazemore-13987","Paul-Millsap-1335","Alex-Len-16886","50000","272.99"
"Jamal-Murray-35211","Gary-Harris-18617","Danilo-Gallinari-1329","Montrezl-Harrell-18930","Clint-Capela-18610","Chris-Paul-1087","Kent-Bazemore-13987","Alex-Len-16886","49700","272.84"
"Monte-Morris-37860","Jamal-Murray-35211","Danilo-Gallinari-1329","Paul-Millsap-1335","Alex-Len-16886","Chris-Paul-1087","LaMarcus-Aldridge-1349","Clint-Capela-18610","50000","272.78"
"Jamal-Murray-35211","Jeremy-Lin-916","Danilo-Gallinari-1329","Tobias-Harris-13332","Paul-Millsap-1335","James-Harden-1037","Kent-Bazemore-13987","Alex-Len-16886","50000","272.77"
"Jeremy-Lin-916","Gary-Harris-18617","Danilo-Gallinari-1329","Tobias-Harris-13332","Alex-Len-16886","James-Harden-1037","P.J.-Tucker-13947","Clint-Capela-18610","49800","272.75"
"Jamal-Murray-35211","DeMar-DeRozan-1053","Danilo-Gallinari-1329","Juan-Hernangomez-35212","Clint-Capela-18610","Gary-Harris-18617","Tobias-Harris-13332","Alex-Len-16886","49800","272.56"
"Jamal-Murray-35211","Gary-Harris-18617","Danilo-Gallinari-1329","Montrezl-Harrell-18930","Clint-Capela-18610","Kent-Bazemore-13987","LaMarcus-Aldridge-1349","Alex-Len-16886","49900","272.54"
"Jamal-Murray-35211","Jeremy-Lin-916","Juan-Hernangomez-35212","Tobias-Harris-13332","Alex-Len-16886","James-Harden-1037","Montrezl-Harrell-18930","Clint-Capela-18610","49900","272.48"
"Jamal-Murray-35211","Jeremy-Lin-916","Danilo-Gallinari-1329","Tobias-Harris-13332","Clint-Capela-18610","James-Harden-1037","Omari-Spellman-408970","Alex-Len-16886","49900","272.45"
"Monte-Morris-37860","Jamal-Murray-35211","Danilo-Gallinari-1329","Tobias-Harris-13332","Alex-Len-16886","James-Harden-1037","DeAndre-Bembry-35198","Clint-Capela-18610","49900","272.39"
"Jamal-Murray-35211","DeMar-DeRozan-1053","Danilo-Gallinari-1329","Tobias-Harris-13332","Alex-Len-16886","Kent-Bazemore-13987","P.J.-Tucker-13947","Clint-Capela-18610","49900","272.38"
"Jeremy-Lin-916","James-Harden-1037","Danilo-Gallinari-1329","P.J.-Tucker-13947","Clint-Capela-18610","Chris-Paul-1087","Kent-Bazemore-13987","Alex-Len-16886","50000","272.37"
"Monte-Morris-37860","Jamal-Murray-35211","Danilo-Gallinari-1329","Tobias-Harris-13332","Clint-Capela-18610","Gary-Harris-18617","LaMarcus-Aldridge-1349","Alex-Len-16886","49500","272.35"
"Monte-Morris-37860","Gary-Harris-18617","Danilo-Gallinari-1329","Montrezl-Harrell-18930","Clint-Capela-18610","James-Harden-1037","Kent-Bazemore-13987","Alex-Len-16886","50000","272.32"
"Jamal-Murray-35211","Gary-Harris-18617","Danilo-Gallinari-1329","Montrezl-Harrell-18930","Alex-Len-16886","Chris-Paul-1087","Kent-Bazemore-13987","Tobias-Harris-13332","49900","272.3"
"Derrick-White-37858","Gary-Harris-18617","Danilo-Gallinari-1329","Juan-Hernangomez-35212","Clint-Capela-18610","James-Harden-1037","Tobias-Harris-13332","Alex-Len-16886","50000","272.23"
"Jamal-Murray-35211","Gary-Harris-18617","Juan-Hernangomez-35212","Paul-Millsap-1335","Alex-Len-16886","James-Harden-1037","Kent-Bazemore-13987","Clint-Capela-18610","50000","272.21"
"Jamal-Murray-35211","Gary-Harris-18617","Danilo-Gallinari-1329","Juan-Hernangomez-35212","Clint-Capela-18610","Chris-Paul-1087","Draymond-Green-13976","Alex-Len-16886","49900","272.21"
"Jamal-Murray-35211","DeMar-DeRozan-1053","Danilo-Gallinari-1329","Juan-Hernangomez-35212","Alex-Len-16886","Chris-Paul-1087","Kent-Bazemore-13987","Clint-Capela-18610","50000","272.18"
"Jamal-Murray-35211","Kent-Bazemore-13987","Danilo-Gallinari-1329","Juan-Hernangomez-35212","Clint-Capela-18610","James-Harden-1037","Paul-Millsap-1335","Alex-Len-16886","49700","272.13"
"Jamal-Murray-35211","Eric-Gordon-1077","Danilo-Gallinari-1329","Tobias-Harris-13332","Clint-Capela-18610","Chris-Paul-1087","Paul-Millsap-1335","Alex-Len-16886","49900","272.09"
"Jamal-Murray-35211","Jeremy-Lin-916","Danilo-Gallinari-1329","Paul-Millsap-1335","Alex-Len-16886","Chris-Paul-1087","LaMarcus-Aldridge-1349","Clint-Capela-18610","49800","272.09"
"Derrick-White-37858","Jamal-Murray-35211","Danilo-Gallinari-1329","Tobias-Harris-13332","Clint-Capela-18610","Chris-Paul-1087","Paul-Millsap-1335","Alex-Len-16886","49700","272.07"
"Jamal-Murray-35211","Kent-Bazemore-13987","Danilo-Gallinari-1329","P.J.-Tucker-13947","Alex-Len-16886","Chris-Paul-1087","Draymond-Green-13976","Clint-Capela-18610","50000","272.03"
"Jamal-Murray-35211","Gary-Harris-18617","Danilo-Gallinari-1329","Juan-Hernangomez-35212","Alex-Len-16886","Chris-Paul-1087","P.J.-Tucker-13947","James-Harden-1037","50000","272.01"
"Jamal-Murray-35211","Gary-Harris-18617","Danilo-Gallinari-1329","Tobias-Harris-13332","Alex-Len-16886","Jeremy-Lin-916","Montrezl-Harrell-18930","Nikola-Jokic-31812","49900","271.99"
"Monte-Morris-37860","Jamal-Murray-35211","Danilo-Gallinari-1329","LaMarcus-Aldridge-1349","Alex-Len-16886","Chris-Paul-1087","Kent-Bazemore-13987","Clint-Capela-18610","49700","271.97"
"Monte-Morris-37860","Jamal-Murray-35211","Danilo-Gallinari-1329","Tobias-Harris-13332","Alex-Len-16886","Chris-Paul-1087","Montrezl-Harrell-18930","Clint-Capela-18610","49400","271.95"
"Monte-Morris-37860","DeMar-DeRozan-1053","Danilo-Gallinari-1329","Tobias-Harris-13332","Clint-Capela-18610","Jamal-Murray-35211","Paul-Millsap-1335","Alex-Len-16886","49800","271.88"
"Trae-Young-409063","Jamal-Murray-35211","Danilo-Gallinari-1329","Tobias-Harris-13332","Alex-Len-16886","Gary-Harris-18617","Kent-Bazemore-13987","Clint-Capela-18610","50000","271.86"
"Jeremy-Lin-916","James-Harden-1037","Danilo-Gallinari-1329","Juan-Hernangomez-35212","Clint-Capela-18610","Chris-Paul-1087","Montrezl-Harrell-18930","Alex-Len-16886","50000","271.85"
"Jamal-Murray-35211","Kent-Bazemore-13987","Juan-Hernangomez-35212","Tobias-Harris-13332","Clint-Capela-18610","James-Harden-1037","P.J.-Tucker-13947","Alex-Len-16886","49800","271.82"
"James-Harden-1037","Gary-Harris-18617","Danilo-Gallinari-1329","P.J.-Tucker-13947","Clint-Capela-18610","Kent-Bazemore-13987","Paul-Millsap-1335","Alex-Len-16886","50000","271.78"
"Jamal-Murray-35211","Jeremy-Lin-916","Tobias-Harris-13332","P.J.-Tucker-13947","Clint-Capela-18610","Chris-Paul-1087","LaMarcus-Aldridge-1349","Alex-Len-16886","49900","271.78"
"Monte-Morris-37860","Jamal-Murray-35211","Tobias-Harris-13332","Montrezl-Harrell-18930","Clint-Capela-18610","Gary-Harris-18617","LaMarcus-Aldridge-1349","Alex-Len-16886","49900","271.73"
"Monte-Morris-37860","Jamal-Murray-35211","Tobias-Harris-13332","Kevin-Durant-1348","Alex-Len-16886","Jeremy-Lin-916","Kent-Bazemore-13987","Clint-Capela-18610","49900","271.7"
"Jamal-Murray-35211","Jeremy-Lin-916","Danilo-Gallinari-1329","Tobias-Harris-13332","Alex-Len-16886","James-Harden-1037","DeAndre-Bembry-35198","Clint-Capela-18610","49700","271.7"
"Jamal-Murray-35211","Gary-Harris-18617","Danilo-Gallinari-1329","Tobias-Harris-13332","Clint-Capela-18610","Jeremy-Lin-916","LaMarcus-Aldridge-1349","Alex-Len-16886","49300","271.66"
"Jamal-Murray-35211","Gary-Harris-18617","Danilo-Gallinari-1329","Tobias-Harris-13332","Clint-Capela-18610","Jeremy-Lin-916","Kent-Bazemore-13987","Chris-Paul-1087","50000","271.65"
"Jeremy-Lin-916","Gary-Harris-18617","Danilo-Gallinari-1329","Montrezl-Harrell-18930","Clint-Capela-18610","James-Harden-1037","Kent-Bazemore-13987","Alex-Len-16886","49800","271.63"
"Jamal-Murray-35211","Kent-Bazemore-13987","Danilo-Gallinari-1329","Juan-Hernangomez-35212","Paul-Millsap-1335","James-Harden-1037","Tobias-Harris-13332","Alex-Len-16886","49900","271.59"
"Monte-Morris-37860","James-Harden-1037","Danilo-Gallinari-1329","Tobias-Harris-13332","Clint-Capela-18610","Derrick-White-37858","Paul-Millsap-1335","Alex-Len-16886","50000","271.55"
"Jamal-Murray-35211","Jeremy-Lin-916","Danilo-Gallinari-1329","Paul-Millsap-1335","Alex-Len-16886","Chris-Paul-1087","LaMarcus-Aldridge-1349","Tobias-Harris-13332","50000","271.55"
"Monte-Morris-37860","Jamal-Murray-35211","Danilo-Gallinari-1329","Draymond-Green-13976","Clint-Capela-18610","Chris-Paul-1087","Paul-Millsap-1335","Alex-Len-16886","49900","271.53"
"Jamal-Murray-35211","Gary-Harris-18617","Tobias-Harris-13332","P.J.-Tucker-13947","Alex-Len-16886","Chris-Paul-1087","Paul-Millsap-1335","Clint-Capela-18610","49700","271.49"
"Monte-Morris-37860","Gary-Harris-18617","Danilo-Gallinari-1329","Tobias-Harris-13332","Clint-Capela-18610","Jeremy-Lin-916","Kevin-Durant-1348","Alex-Len-16886","49800","271.45"
"Monte-Morris-37860","Jamal-Murray-35211","Danilo-Gallinari-1329","P.J.-Tucker-13947","Alex-Len-16886","Gary-Harris-18617","Kevin-Durant-1348","Clint-Capela-18610","49700","271.45"
"Monte-Morris-37860","Jamal-Murray-35211","Danilo-Gallinari-1329","LaMarcus-Aldridge-1349","Alex-Len-16886","Chris-Paul-1087","Kent-Bazemore-13987","Tobias-Harris-13332","49900","271.43"
"Shai-Gilgeous-Alexander-408990","Jamal-Murray-35211","Danilo-Gallinari-1329","Tobias-Harris-13332","Alex-Len-16886","Chris-Paul-1087","Kent-Bazemore-13987","Clint-Capela-18610","49900","271.42"
"Monte-Morris-37860","Jamal-Murray-35211","DeMar-DeRozan-1053","Juan-Hernangomez-35212","Clint-Capela-18610","Chris-Paul-1087","Tobias-Harris-13332","Alex-Len-16886","50000","271.37"
"Monte-Morris-37860","Jamal-Murray-35211","Danilo-Gallinari-1329","P.J.-Tucker-13947","Alex-Len-16886","Chris-Paul-1087","Paul-Millsap-1335","James-Harden-1037","50000","271.33"
"Jamal-Murray-35211","Gary-Harris-18617","Danilo-Gallinari-1329","Tobias-Harris-13332","Nikola-Jokic-31812","Kent-Bazemore-13987","P.J.-Tucker-13947","Alex-Len-16886","49800","271.33"
"Monte-Morris-37860","Jamal-Murray-35211","Juan-Hernangomez-35212","Tobias-Harris-13332","Clint-Capela-18610","James-Harden-1037","Paul-Millsap-1335","Alex-Len-16886","49700","271.32"
"Jamal-Murray-35211","Gary-Harris-18617","Danilo-Gallinari-1329","Montrezl-Harrell-18930","Alex-Len-16886","Kent-Bazemore-13987","Draymond-Green-13976","Clint-Capela-18610","49800","271.29"
"Jamal-Murray-35211","Jeremy-Lin-916","Danilo-Gallinari-1329","LaMarcus-Aldridge-1349","Alex-Len-16886","Chris-Paul-1087","Kent-Bazemore-13987","Clint-Capela-18610","49500","271.28"
"Jamal-Murray-35211","Eric-Gordon-1077","Danilo-Gallinari-1329","Tobias-Harris-13332","Alex-Len-16886","Chris-Paul-1087","Kent-Bazemore-13987","Clint-Capela-18610","49600","271.28"
"Jamal-Murray-35211","Gary-Harris-18617","DeMar-DeRozan-1053","Tobias-Harris-13332","Clint-Capela-18610","Jeremy-Lin-916","Paul-Millsap-1335","Alex-Len-16886","49900","271.27"
"Jamal-Murray-35211","Jeremy-Lin-916","Danilo-Gallinari-1329","Tobias-Harris-13332","Alex-Len-16886","Chris-Paul-1087","Montrezl-Harrell-18930","Clint-Capela-18610","49200","271.26"
"Derrick-White-37858","Jamal-Murray-35211","Danilo-Gallinari-1329","Tobias-Harris-13332","Alex-Len-16886","Chris-Paul-1087","Kent-Bazemore-13987","Clint-Capela-18610","49400","271.26"
"Monte-Morris-37860","Jamal-Murray-35211","Tobias-Harris-13332","P.J.-Tucker-13947","Alex-Len-16886","Chris-Paul-1087","Draymond-Green-13976","Clint-Capela-18610","50000","271.22"
"Jamal-Murray-35211","DeMar-DeRozan-1053","Danilo-Gallinari-1329","Tobias-Harris-13332","Clint-Capela-18610","Jeremy-Lin-916","Paul-Millsap-1335","Alex-Len-16886","49600","271.19"
"James-Harden-1037","Kent-Bazemore-13987","Danilo-Gallinari-1329","Juan-Hernangomez-35212","Alex-Len-16886","Chris-Paul-1087","P.J.-Tucker-13947","Clint-Capela-18610","49900","271.19"
"Monte-Morris-37860","Jamal-Murray-35211","Danilo-Gallinari-1329","Tobias-Harris-13332","Alex-Len-16886","James-Harden-1037","Andre-Iguodala-1334","Clint-Capela-18610","49800","271.17"
"Jamal-Murray-35211","DeMar-DeRozan-1053","Danilo-Gallinari-1329","Tobias-Harris-13332","Alex-Len-16886","Gary-Harris-18617","DeAndre-Bembry-35198","Clint-Capela-18610","50000","271.16"
"Monte-Morris-37860","Jamal-Murray-35211","DeMar-DeRozan-1053","Tobias-Harris-13332","Alex-Len-16886","Gary-Harris-18617","Kent-Bazemore-13987","Clint-Capela-18610","49800","271.15"
"Jamal-Murray-35211","Gary-Harris-18617","Danilo-Gallinari-1329","Juan-Hernangomez-35212","Alex-Len-16886","Chris-Paul-1087","Kent-Bazemore-13987","Nikola-Jokic-31812","49900","271.13"
"Monte-Morris-37860","Jamal-Murray-35211","Danilo-Gallinari-1329","Tobias-Harris-13332","Nikola-Jokic-31812","Jeremy-Lin-916","LaMarcus-Aldridge-1349","Alex-Len-16886","49900","271.12"
"Monte-Morris-37860","Gary-Harris-18617","Danilo-Gallinari-1329","Montrezl-Harrell-18930","Clint-Capela-18610","Chris-Paul-1087","LaMarcus-Aldridge-1349","Alex-Len-16886","50000","271.1"
"Monte-Morris-37860","Jamal-Murray-35211","Danilo-Gallinari-1329","Tobias-Harris-13332","Clint-Capela-18610","Gary-Harris-18617","Draymond-Green-13976","Alex-Len-16886","49400","271.1"
"Jamal-Murray-35211","Gary-Harris-18617","Kent-Bazemore-13987","Montrezl-Harrell-18930","Alex-Len-16886","James-Harden-1037","P.J.-Tucker-13947","Danilo-Gallinari-1329","49900","271.09"
"Jeremy-Lin-916","Gary-Harris-18617","Danilo-Gallinari-1329","Montrezl-Harrell-18930","Alex-Len-16886","James-Harden-1037","Kent-Bazemore-13987","Tobias-Harris-13332","50000","271.09"
"Monte-Morris-37860","Jamal-Murray-35211","DeMar-DeRozan-1053","Danilo-Gallinari-1329","Alex-Len-16886","Kent-Bazemore-13987","Tobias-Harris-13332","Clint-Capela-18610","49500","271.07"
"Monte-Morris-37860","Jeremy-Lin-916","Danilo-Gallinari-1329","Kevin-Durant-1348","Clint-Capela-18610","Chris-Paul-1087","Kent-Bazemore-13987","Alex-Len-16886","50000","271.07"
"Jamal-Murray-35211","Patrick-Beverley-14108","Danilo-Gallinari-1329","Tobias-Harris-13332","Alex-Len-16886","Chris-Paul-1087","Montrezl-Harrell-18930","Clint-Capela-18610","50000","271.05"
"Jamal-Murray-35211","Gary-Harris-18617","Tobias-Harris-13332","Montrezl-Harrell-18930","Clint-Capela-18610","Jeremy-Lin-916","LaMarcus-Aldridge-1349","Alex-Len-16886","49700","271.04"
"Jamal-Murray-35211","Gary-Harris-18617","Tobias-Harris-13332","LaMarcus-Aldridge-1349","Alex-Len-16886","Derrick-White-37858","Kent-Bazemore-13987","Clint-Capela-18610","49900","271.04"
"Jeremy-Lin-916","Gary-Harris-18617","Danilo-Gallinari-1329","Juan-Hernangomez-35212","Clint-Capela-18610","James-Harden-1037","Draymond-Green-13976","Alex-Len-16886","50000","271.0"
"Jamal-Murray-35211","Gary-Harris-18617","Juan-Hernangomez-35212","Paul-Millsap-1335","Clint-Capela-18610","Chris-Paul-1087","LaMarcus-Aldridge-1349","Alex-Len-16886","50000","270.99"
"Jamal-Murray-35211","Gary-Harris-18617","Danilo-Gallinari-1329","Paul-Millsap-1335","Alex-Len-16886","Chris-Paul-1087","Kent-Bazemore-13987","Clint-Capela-18610","49300","270.99"
"Jamal-Murray-35211","Kent-Bazemore-13987","Danilo-Gallinari-1329","Tobias-Harris-13332","Clint-Capela-18610","Eric-Gordon-1077","LaMarcus-Aldridge-1349","Alex-Len-16886","49800","270.98"
"Monte-Morris-37860","Gary-Harris-18617","Tobias-Harris-13332","P.J.-Tucker-13947","Alex-Len-16886","James-Harden-1037","Paul-Millsap-1335","Clint-Capela-18610","50000","270.97"
"Jamal-Murray-35211","Kent-Bazemore-13987","Danilo-Gallinari-1329","Tobias-Harris-13332","Clint-Capela-18610","Derrick-White-37858","LaMarcus-Aldridge-1349","Alex-Len-16886","49600","270.96"
"Monte-Morris-37860","DeMar-DeRozan-1053","Danilo-Gallinari-1329","Tobias-Harris-13332","Alex-Len-16886","Chris-Paul-1087","P.J.-Tucker-13947","Clint-Capela-18610","50000","270.94"
"Jamal-Murray-35211","Gary-Harris-18617","Danilo-Gallinari-1329","Kevon-Looney-18945","Alex-Len-16886","James-Harden-1037","Kent-Bazemore-13987","Clint-Capela-18610","49900","270.93"
"Monte-Morris-37860","Jamal-Murray-35211","Danilo-Gallinari-1329","Tobias-Harris-13332","Alex-Len-16886","Gary-Harris-18617","P.J.-Tucker-13947","Kevin-Durant-1348","49900","270.91"
"Derrick-White-37858","Jamal-Murray-35211","DeMar-DeRozan-1053","Danilo-Gallinari-1329","Clint-Capela-18610","Chris-Paul-1087","P.J.-Tucker-13947","Alex-Len-16886","50000","270.91"
"Monte-Morris-37860","Jamal-Murray-35211","Danilo-Gallinari-1329","Tobias-Harris-13332","Alex-Len-16886","Gary-Harris-18617","P.J.-Tucker-13947","James-Harden-1037","49500","270.9"
"Jeremy-Lin-916","James-Harden-1037","Danilo-Gallinari-1329","Tobias-Harris-13332","Clint-Capela-18610","Eric-Gordon-1077","Paul-Millsap-1335","Alex-Len-16886","50000","270.88"
