"Kyle-Lowry-1057","Derrick-Rose-1086","Iman-Shumpert-13350","Kevin-Durant-1348","Marvin-Bagley-III-409321","De'Aaron-Fox-37900","Buddy-Hield-35206","Willie-Cauley-Stein-18951","50000","266.37"
"Kyle-Lowry-1057","Derrick-Rose-1086","Buddy-Hield-35206","Marvin-Bagley-III-409321","Willie-Cauley-Stein-18951","Jeff-Teague-1005","Kevin-Durant-1348","Jonas-Valanciunas-13301","49800","266.29"
"Kyle-Lowry-1057","Derrick-Rose-1086","Iman-Shumpert-13350","Kawhi-Leonard-13310","Marvin-Bagley-III-409321","De'Aaron-Fox-37900","Buddy-Hield-35206","Jeff-Teague-1005","50000","265.74"
"Kyle-Lowry-1057","Derrick-Rose-1086","Buddy-Hield-35206","Marvin-Bagley-III-409321","Karl-Anthony-Towns-18937","Jeff-Teague-1005","Taj-Gibson-1277","Willie-Cauley-Stein-18951","49900","265.38"

"Kyle-Lowry-1057","Derrick-Rose-1086","Iman-Shumpert-13350","Kevin-Durant-1348","Marvin-Bagley-III-409321","De'Aaron-Fox-37900","Buddy-Hield-35206","Willie-Cauley-Stein-18951","50000","266.37"
"Kyle-Lowry-1057","Derrick-Rose-1086","Buddy-Hield-35206","Marvin-Bagley-III-409321","Willie-Cauley-Stein-18951","Jeff-Teague-1005","Kevin-Durant-1348","Jonas-Valanciunas-13301","49800","266.29"
"Kyle-Lowry-1057","Derrick-Rose-1086","Iman-Shumpert-13350","Kawhi-Leonard-13310","Marvin-Bagley-III-409321","De'Aaron-Fox-37900","Buddy-Hield-35206","Jeff-Teague-1005","50000","265.74"
"Kyle-Lowry-1057","Derrick-Rose-1086","Buddy-Hield-35206","Marvin-Bagley-III-409321","Karl-Anthony-Towns-18937","Jeff-Teague-1005","Taj-Gibson-1277","Willie-Cauley-Stein-18951","49900","265.38"
"Kyle-Lowry-1057","Derrick-Rose-1086","Kevin-Durant-1348","Marvin-Bagley-III-409321","Willie-Cauley-Stein-18951","Jeff-Teague-1005","Serge-Ibaka-1294","Jonas-Valanciunas-13301","50000","265.23"
"Kyle-Lowry-1057","Derrick-Rose-1086","Andrew-Wiggins-18620","Marvin-Bagley-III-409321","Jonas-Valanciunas-13301","Buddy-Hield-35206","Kevin-Durant-1348","Willie-Cauley-Stein-18951","50000","265.1"
"Kyle-Lowry-1057","Derrick-Rose-1086","Andrew-Wiggins-18620","Draymond-Green-13976","Willie-Cauley-Stein-18951","De'Aaron-Fox-37900","Marvin-Bagley-III-409321","Jeff-Teague-1005","50000","265.03"
"De'Aaron-Fox-37900","Derrick-Rose-1086","Buddy-Hield-35206","Marvin-Bagley-III-409321","Willie-Cauley-Stein-18951","Jeff-Teague-1005","Kevin-Durant-1348","Jonas-Valanciunas-13301","49900","265.01"
"Kyle-Lowry-1057","Derrick-Rose-1086","Buddy-Hield-35206","Marvin-Bagley-III-409321","Serge-Ibaka-1294","Jeff-Teague-1005","Kevin-Durant-1348","Jonas-Valanciunas-13301","49900","265.0"
