"Dennis-Schroder-18595","Garrett-Temple-14077","Kyle-Anderson-18615","Anthony-Davis-13895","Marc-Gasol-1493","Tim-Frazier-18743","Wendell-Carter-408878","Steven-Adams-16848","49700","265.44"
"Shelvin-Mack-13354","Dennis-Schroder-18595","Kyle-Anderson-18615","Anthony-Davis-13895","Wendell-Carter-408878","Mike-Conley-1062","Garrett-Temple-14077","Marc-Gasol-1493","50000","265.34"
"Dennis-Schroder-18595","Tim-Frazier-18743","Kyle-Anderson-18615","Paul-George-1245","Anthony-Davis-13895","Shelvin-Mack-13354","Garrett-Temple-14077","Marc-Gasol-1493","50000","265.02"
"Dennis-Schroder-18595","Jrue-Holiday-1073","Garrett-Temple-14077","Anthony-Davis-13895","Marc-Gasol-1493","Shelvin-Mack-13354","Wendell-Carter-408878","Tim-Frazier-18743","50000","265.01"

"Dennis-Schroder-18595","Garrett-Temple-14077","Kyle-Anderson-18615","Anthony-Davis-13895","Marc-Gasol-1493","Tim-Frazier-18743","Wendell-Carter-408878","Steven-Adams-16848","49700","265.44"
"Shelvin-Mack-13354","Dennis-Schroder-18595","Kyle-Anderson-18615","Anthony-Davis-13895","Wendell-Carter-408878","Mike-Conley-1062","Garrett-Temple-14077","Marc-Gasol-1493","50000","265.34"
"Dennis-Schroder-18595","Tim-Frazier-18743","Kyle-Anderson-18615","Paul-George-1245","Anthony-Davis-13895","Shelvin-Mack-13354","Garrett-Temple-14077","Marc-Gasol-1493","50000","265.02"
"Dennis-Schroder-18595","Jrue-Holiday-1073","Garrett-Temple-14077","Anthony-Davis-13895","Marc-Gasol-1493","Shelvin-Mack-13354","Wendell-Carter-408878","Tim-Frazier-18743","50000","265.01"
"Dennis-Schroder-18595","Tim-Frazier-18743","Kyle-Anderson-18615","Anthony-Davis-13895","Wendell-Carter-408878","Mike-Conley-1062","Garrett-Temple-14077","Steven-Adams-16848","50000","264.88"
"Russell-Westbrook-1083","Garrett-Temple-14077","Kyle-Anderson-18615","Anthony-Davis-13895","Wendell-Carter-408878","Shelvin-Mack-13354","Jaren-Jackson-409099","Tim-Frazier-18743","50000","264.77"
"Dennis-Schroder-18595","Garrett-Temple-14077","Kyle-Anderson-18615","Anthony-Davis-13895","Jaren-Jackson-409099","Tim-Frazier-18743","Lauri-Markkanen-37809","Marc-Gasol-1493","49900","264.64"
"Kyle-Anderson-18615","Garrett-Temple-14077","Paul-George-1245","Anthony-Davis-13895","Wendell-Carter-408878","Dennis-Schroder-18595","Lauri-Markkanen-37809","Tim-Frazier-18743","50000","264.5"
"Dennis-Schroder-18595","Tim-Frazier-18743","Garrett-Temple-14077","Anthony-Davis-13895","Marc-Gasol-1493","Mike-Conley-1062","Wendell-Carter-408878","Shelvin-Mack-13354","49900","264.46"
"Dennis-Schroder-18595","Garrett-Temple-14077","Nikola-Mirotic-18584","Anthony-Davis-13895","Wendell-Carter-408878","Tim-Frazier-18743","Kyle-Anderson-18615","Marc-Gasol-1493","49900","264.33"
"Dennis-Schroder-18595","Tim-Frazier-18743","Kyle-Anderson-18615","Anthony-Davis-13895","Marc-Gasol-1493","Shelvin-Mack-13354","Julius-Randle-18632","Wendell-Carter-408878","49700","264.33"
"Dennis-Schroder-18595","Tim-Frazier-18743","Garrett-Temple-14077","Anthony-Davis-13895","Marc-Gasol-1493","Shelvin-Mack-13354","Julius-Randle-18632","Lauri-Markkanen-37809","50000","264.25"
"Kyle-Anderson-18615","Tim-Frazier-18743","Garrett-Temple-14077","Anthony-Davis-13895","Marc-Gasol-1493","Shelvin-Mack-13354","Julius-Randle-18632","Steven-Adams-16848","49800","264.14"
"Shelvin-Mack-13354","Jrue-Holiday-1073","Kyle-Anderson-18615","Jaren-Jackson-409099","Marc-Gasol-1493","Tim-Frazier-18743","Garrett-Temple-14077","Anthony-Davis-13895","50000","264.1"
"Kyle-Anderson-18615","Garrett-Temple-14077","Justin-Holiday-14559","Anthony-Davis-13895","Steven-Adams-16848","Tim-Frazier-18743","Wendell-Carter-408878","Marc-Gasol-1493","49900","264.09"
"Shelvin-Mack-13354","Garrett-Temple-14077","Kyle-Anderson-18615","Anthony-Davis-13895","Marc-Gasol-1493","Tim-Frazier-18743","Wendell-Carter-408878","Paul-George-1245","49700","263.97"
"Kyle-Anderson-18615","Dennis-Schroder-18595","Garrett-Temple-14077","Anthony-Davis-13895","Marc-Gasol-1493","Shelvin-Mack-13354","Julius-Randle-18632","Jaren-Jackson-409099","49900","263.79"
"Dennis-Schroder-18595","Tim-Frazier-18743","Kyle-Anderson-18615","Anthony-Davis-13895","Wendell-Carter-408878","Mike-Conley-1062","Julius-Randle-18632","Shelvin-Mack-13354","50000","263.77"
"Dennis-Schroder-18595","Justin-Holiday-14559","Kyle-Anderson-18615","Anthony-Davis-13895","Wendell-Carter-408878","Garrett-Temple-14077","Jaren-Jackson-409099","Marc-Gasol-1493","50000","263.74"
"Kyle-Anderson-18615","Dennis-Schroder-18595","Garrett-Temple-14077","Julius-Randle-18632","Wendell-Carter-408878","Shelvin-Mack-13354","Paul-George-1245","Anthony-Davis-13895","50000","263.65"
"Dennis-Schroder-18595","Garrett-Temple-14077","Kyle-Anderson-18615","Anthony-Davis-13895","Steven-Adams-16848","Shelvin-Mack-13354","Lauri-Markkanen-37809","Marc-Gasol-1493","49700","263.6"
"Jrue-Holiday-1073","Garrett-Temple-14077","Kyle-Anderson-18615","Anthony-Davis-13895","Wendell-Carter-408878","Tim-Frazier-18743","Jaren-Jackson-409099","Lauri-Markkanen-37809","50000","263.58"
"Shelvin-Mack-13354","Tim-Frazier-18743","Kyle-Anderson-18615","Jaren-Jackson-409099","Marc-Gasol-1493","Mike-Conley-1062","Garrett-Temple-14077","Anthony-Davis-13895","49900","263.55"
"Dennis-Schroder-18595","Tim-Frazier-18743","Kyle-Anderson-18615","Anthony-Davis-13895","Marc-Gasol-1493","Mike-Conley-1062","Jerami-Grant-18576","Shelvin-Mack-13354","50000","263.46"
"Shelvin-Mack-13354","Tim-Frazier-18743","Kyle-Anderson-18615","Paul-George-1245","Anthony-Davis-13895","Mike-Conley-1062","Garrett-Temple-14077","Wendell-Carter-408878","50000","263.41"
"Dennis-Schroder-18595","Garrett-Temple-14077","Kyle-Anderson-18615","Anthony-Davis-13895","Marc-Gasol-1493","Shelvin-Mack-13354","Paul-George-1245","Jerami-Grant-18576","50000","263.34"
"Dennis-Schroder-18595","Jrue-Holiday-1073","Garrett-Temple-14077","Jerami-Grant-18576","Marc-Gasol-1493","Shelvin-Mack-13354","Wendell-Carter-408878","Anthony-Davis-13895","50000","263.33"
"Kyle-Anderson-18615","Dennis-Schroder-18595","Garrett-Temple-14077","Jaren-Jackson-409099","Steven-Adams-16848","Tim-Frazier-18743","Julius-Randle-18632","Anthony-Davis-13895","49900","263.33"
"Russell-Westbrook-1083","Dennis-Schroder-18595","Kyle-Anderson-18615","Anthony-Davis-13895","Wendell-Carter-408878","Shelvin-Mack-13354","Garrett-Temple-14077","Tim-Frazier-18743","49400","263.24"
"Dennis-Schroder-18595","Garrett-Temple-14077","Kyle-Anderson-18615","Jerami-Grant-18576","Steven-Adams-16848","Mike-Conley-1062","Wendell-Carter-408878","Anthony-Davis-13895","50000","263.2"
"Zach-LaVine-18622","Dennis-Schroder-18595","Kyle-Anderson-18615","Anthony-Davis-13895","Wendell-Carter-408878","Shelvin-Mack-13354","Garrett-Temple-14077","Marc-Gasol-1493","49800","263.16"
"Dennis-Schroder-18595","Garrett-Temple-14077","Kyle-Anderson-18615","Anthony-Davis-13895","Wendell-Carter-408878","Tim-Frazier-18743","Jaren-Jackson-409099","Paul-George-1245","49800","263.16"
"Russell-Westbrook-1083","Garrett-Temple-14077","Kyle-Anderson-18615","Anthony-Davis-13895","Wendell-Carter-408878","Shelvin-Mack-13354","Jaren-Jackson-409099","Jerami-Grant-18576","50000","263.09"
"Dennis-Schroder-18595","Garrett-Temple-14077","Kyle-Anderson-18615","Anthony-Davis-13895","Steven-Adams-16848","Mike-Conley-1062","Lauri-Markkanen-37809","Shelvin-Mack-13354","50000","263.04"
"Kyle-Anderson-18615","Tim-Frazier-18743","Garrett-Temple-14077","Anthony-Davis-13895","Marc-Gasol-1493","Shelvin-Mack-13354","Julius-Randle-18632","Nikola-Mirotic-18584","50000","263.03"
"Mike-Conley-1062","Garrett-Temple-14077","Kyle-Anderson-18615","Anthony-Davis-13895","Wendell-Carter-408878","Tim-Frazier-18743","Jaren-Jackson-409099","Lauri-Markkanen-37809","49900","263.03"
"Kyle-Anderson-18615","Tim-Frazier-18743","Justin-Holiday-14559","Anthony-Davis-13895","Wendell-Carter-408878","Shelvin-Mack-13354","Julius-Randle-18632","Marc-Gasol-1493","49900","262.98"
"Shelvin-Mack-13354","Jrue-Holiday-1073","Kyle-Anderson-18615","Anthony-Davis-13895","Marc-Gasol-1493","Tim-Frazier-18743","Wendell-Carter-408878","Jerami-Grant-18576","49800","262.96"
"Dennis-Schroder-18595","Tim-Frazier-18743","Kyle-Anderson-18615","Jerami-Grant-18576","Anthony-Davis-13895","Mike-Conley-1062","Lauri-Markkanen-37809","Wendell-Carter-408878","50000","262.94"
"Dennis-Schroder-18595","Tim-Frazier-18743","Garrett-Temple-14077","Anthony-Davis-13895","Marc-Gasol-1493","Shelvin-Mack-13354","Julius-Randle-18632","Jaren-Jackson-409099","49800","262.91"
"Dennis-Schroder-18595","Garrett-Temple-14077","Kyle-Anderson-18615","Anthony-Davis-13895","Steven-Adams-16848","Tim-Frazier-18743","Paul-George-1245","Jerami-Grant-18576","50000","262.88"
"Dennis-Schroder-18595","Jrue-Holiday-1073","Garrett-Temple-14077","Anthony-Davis-13895","Steven-Adams-16848","Tim-Frazier-18743","Jerami-Grant-18576","Wendell-Carter-408878","50000","262.87"
"Kyle-Anderson-18615","Zach-LaVine-18622","Garrett-Temple-14077","Jerami-Grant-18576","Marc-Gasol-1493","Tim-Frazier-18743","Wendell-Carter-408878","Anthony-Davis-13895","49900","262.87"
"Kyle-Anderson-18615","Garrett-Temple-14077","E'Twaun-Moore-18582","Anthony-Davis-13895","Marc-Gasol-1493","Jrue-Holiday-1073","Wendell-Carter-408878","Tim-Frazier-18743","49900","262.87"
"Dennis-Schroder-18595","Garrett-Temple-14077","Justin-Holiday-14559","Anthony-Davis-13895","Marc-Gasol-1493","Tim-Frazier-18743","Jaren-Jackson-409099","Wendell-Carter-408878","49900","262.86"
"Kyle-Anderson-18615","Garrett-Temple-14077","Paul-George-1245","Anthony-Davis-13895","Wendell-Carter-408878","Dennis-Schroder-18595","Jerami-Grant-18576","Lauri-Markkanen-37809","50000","262.82"
"Dennis-Schroder-18595","Tim-Frazier-18743","Kyle-Anderson-18615","Anthony-Davis-13895","Marc-Gasol-1493","Shelvin-Mack-13354","Wendell-Carter-408878","Steven-Adams-16848","49300","262.8"
"Dennis-Schroder-18595","Jrue-Holiday-1073","Kyle-Anderson-18615","Anthony-Davis-13895","Steven-Adams-16848","Shelvin-Mack-13354","Wendell-Carter-408878","Tim-Frazier-18743","49700","262.79"
"Shelvin-Mack-13354","Dennis-Schroder-18595","Garrett-Temple-14077","Jerami-Grant-18576","Marc-Gasol-1493","Mike-Conley-1062","Wendell-Carter-408878","Anthony-Davis-13895","49900","262.78"
"Dennis-Schroder-18595","Tim-Frazier-18743","Garrett-Temple-14077","Julius-Randle-18632","Wendell-Carter-408878","Shelvin-Mack-13354","Paul-George-1245","Anthony-Davis-13895","49900","262.77"
"Shelvin-Mack-13354","Garrett-Temple-14077","Kyle-Anderson-18615","Anthony-Davis-13895","Wendell-Carter-408878","Jrue-Holiday-1073","Jaren-Jackson-409099","Julius-Randle-18632","50000","262.73"
"Dennis-Schroder-18595","Tim-Frazier-18743","Garrett-Temple-14077","Anthony-Davis-13895","Steven-Adams-16848","Shelvin-Mack-13354","Lauri-Markkanen-37809","Marc-Gasol-1493","49600","262.72"
"Zach-LaVine-18622","Tim-Frazier-18743","Kyle-Anderson-18615","Lauri-Markkanen-37809","Marc-Gasol-1493","Shelvin-Mack-13354","Garrett-Temple-14077","Anthony-Davis-13895","49900","262.71"
"Dennis-Schroder-18595","Jrue-Holiday-1073","Garrett-Temple-14077","Anthony-Davis-13895","Steven-Adams-16848","Shelvin-Mack-13354","Lauri-Markkanen-37809","Tim-Frazier-18743","50000","262.71"
"Zach-LaVine-18622","Dennis-Schroder-18595","Kyle-Anderson-18615","Anthony-Davis-13895","Wendell-Carter-408878","Tim-Frazier-18743","Garrett-Temple-14077","Steven-Adams-16848","49800","262.7"
"Russell-Westbrook-1083","Tim-Frazier-18743","Kyle-Anderson-18615","Jabari-Parker-18593","Wendell-Carter-408878","Shelvin-Mack-13354","Garrett-Temple-14077","Anthony-Davis-13895","49900","262.67"
"Russell-Westbrook-1083","Dennis-Schroder-18595","Kyle-Anderson-18615","Anthony-Davis-13895","Wendell-Carter-408878","Ryan-Arcidiacono-36050","Garrett-Temple-14077","Tim-Frazier-18743","49800","262.66"
"Kyle-Anderson-18615","Garrett-Temple-14077","Nikola-Mirotic-18584","Anthony-Davis-13895","Marc-Gasol-1493","Dennis-Schroder-18595","Wendell-Carter-408878","Jerami-Grant-18576","49900","262.65"
"Shelvin-Mack-13354","Tim-Frazier-18743","Garrett-Temple-14077","Anthony-Davis-13895","Wendell-Carter-408878","Mike-Conley-1062","Lauri-Markkanen-37809","Julius-Randle-18632","50000","262.64"
"Dennis-Schroder-18595","Garrett-Temple-14077","Jabari-Parker-18593","Anthony-Davis-13895","Steven-Adams-16848","Shelvin-Mack-13354","Wendell-Carter-408878","Marc-Gasol-1493","50000","262.6"
"Dennis-Schroder-18595","Jrue-Holiday-1073","Kyle-Anderson-18615","Anthony-Davis-13895","Marc-Gasol-1493","Shelvin-Mack-13354","Garrett-Temple-14077","Tim-Frazier-18743","49400","262.57"
"Kyle-Anderson-18615","Garrett-Temple-14077","E'Twaun-Moore-18582","Anthony-Davis-13895","Marc-Gasol-1493","Dennis-Schroder-18595","Wendell-Carter-408878","Julius-Randle-18632","49800","262.56"
"Russell-Westbrook-1083","Tim-Frazier-18743","Kyle-Anderson-18615","Solomon-Hill-16863","Anthony-Davis-13895","Shelvin-Mack-13354","Garrett-Temple-14077","Marc-Gasol-1493","50000","262.56"
"Dennis-Schroder-18595","Garrett-Temple-14077","Jabari-Parker-18593","Anthony-Davis-13895","Marc-Gasol-1493","Tim-Frazier-18743","Kyle-Anderson-18615","Lauri-Markkanen-37809","49800","262.54"
"Shelvin-Mack-13354","Garrett-Temple-14077","Kyle-Anderson-18615","Anthony-Davis-13895","Steven-Adams-16848","Jrue-Holiday-1073","Lauri-Markkanen-37809","Wendell-Carter-408878","49800","262.54"
"Kyle-Anderson-18615","Garrett-Temple-14077","Nikola-Mirotic-18584","Anthony-Davis-13895","Wendell-Carter-408878","Tim-Frazier-18743","Julius-Randle-18632","Lauri-Markkanen-37809","50000","262.51"
"Dennis-Schroder-18595","Tim-Frazier-18743","Justin-Holiday-14559","Anthony-Davis-13895","Marc-Gasol-1493","Shelvin-Mack-13354","Kyle-Anderson-18615","Steven-Adams-16848","49800","262.5"
"Kyle-Anderson-18615","Garrett-Temple-14077","Nikola-Mirotic-18584","Anthony-Davis-13895","Marc-Gasol-1493","Dennis-Schroder-18595","Lauri-Markkanen-37809","Shelvin-Mack-13354","49900","262.49"
"Dennis-Schroder-18595","Garrett-Temple-14077","Paul-George-1245","Anthony-Davis-13895","Marc-Gasol-1493","Shelvin-Mack-13354","Jerami-Grant-18576","Tim-Frazier-18743","49900","262.46"
"Kyle-Anderson-18615","Dennis-Schroder-18595","Justin-Holiday-14559","Wendell-Carter-408878","Marc-Gasol-1493","Shelvin-Mack-13354","Lauri-Markkanen-37809","Anthony-Davis-13895","49800","262.44"
"Kyle-Anderson-18615","Jrue-Holiday-1073","Garrett-Temple-14077","Jerami-Grant-18576","Marc-Gasol-1493","Shelvin-Mack-13354","Jaren-Jackson-409099","Anthony-Davis-13895","50000","262.42"
"Shelvin-Mack-13354","Tim-Frazier-18743","Kyle-Anderson-18615","Anthony-Davis-13895","Marc-Gasol-1493","Mike-Conley-1062","Wendell-Carter-408878","Jerami-Grant-18576","49700","262.41"
"Dennis-Schroder-18595","Tim-Frazier-18743","Jabari-Parker-18593","Wendell-Carter-408878","Marc-Gasol-1493","Shelvin-Mack-13354","Lauri-Markkanen-37809","Anthony-Davis-13895","50000","262.34"
"Shelvin-Mack-13354","Tim-Frazier-18743","Garrett-Temple-14077","Jerami-Grant-18576","Anthony-Davis-13895","Mike-Conley-1062","Lauri-Markkanen-37809","Marc-Gasol-1493","50000","262.33"
"Dennis-Schroder-18595","Tim-Frazier-18743","Garrett-Temple-14077","Anthony-Davis-13895","Steven-Adams-16848","Mike-Conley-1062","Jerami-Grant-18576","Wendell-Carter-408878","49900","262.32"
"Kyle-Anderson-18615","Garrett-Temple-14077","E'Twaun-Moore-18582","Anthony-Davis-13895","Marc-Gasol-1493","Mike-Conley-1062","Wendell-Carter-408878","Tim-Frazier-18743","49800","262.32"
"Kyle-Anderson-18615","Garrett-Temple-14077","Paul-George-1245","Anthony-Davis-13895","Wendell-Carter-408878","Shelvin-Mack-13354","Jerami-Grant-18576","Marc-Gasol-1493","49700","262.29"
"Zach-LaVine-18622","Dennis-Schroder-18595","Garrett-Temple-14077","Anthony-Davis-13895","Marc-Gasol-1493","Shelvin-Mack-13354","Wendell-Carter-408878","Tim-Frazier-18743","49700","262.28"
"Kyle-Anderson-18615","Dennis-Schroder-18595","Garrett-Temple-14077","Anthony-Davis-13895","Marc-Gasol-1493","Shelvin-Mack-13354","Jaren-Jackson-409099","Steven-Adams-16848","49500","262.26"
"Shelvin-Mack-13354","Justin-Holiday-14559","Kyle-Anderson-18615","Anthony-Davis-13895","Steven-Adams-16848","Garrett-Temple-14077","Lauri-Markkanen-37809","Marc-Gasol-1493","49900","262.25"
"Dennis-Schroder-18595","Jrue-Holiday-1073","Kyle-Anderson-18615","Jaren-Jackson-409099","Steven-Adams-16848","Shelvin-Mack-13354","Garrett-Temple-14077","Anthony-Davis-13895","49900","262.25"
"Dennis-Schroder-18595","Tim-Frazier-18743","Kyle-Anderson-18615","Anthony-Davis-13895","Steven-Adams-16848","Mike-Conley-1062","Wendell-Carter-408878","Shelvin-Mack-13354","49600","262.24"
"Kyle-Anderson-18615","Tim-Frazier-18743","Jabari-Parker-18593","Anthony-Davis-13895","Steven-Adams-16848","Shelvin-Mack-13354","Wendell-Carter-408878","Marc-Gasol-1493","49800","262.23"
"Ryan-Arcidiacono-36050","Dennis-Schroder-18595","Kyle-Anderson-18615","Anthony-Davis-13895","Marc-Gasol-1493","Tim-Frazier-18743","Wendell-Carter-408878","Steven-Adams-16848","49700","262.22"
"Russell-Westbrook-1083","Tim-Frazier-18743","Garrett-Temple-14077","Anthony-Davis-13895","Wendell-Carter-408878","Shelvin-Mack-13354","Jaren-Jackson-409099","Jerami-Grant-18576","49900","262.21"
"Kyle-Anderson-18615","Garrett-Temple-14077","Nikola-Mirotic-18584","Anthony-Davis-13895","Marc-Gasol-1493","Tim-Frazier-18743","Lauri-Markkanen-37809","Jerami-Grant-18576","50000","262.2"
"Shelvin-Mack-13354","Garrett-Temple-14077","Kyle-Anderson-18615","Anthony-Davis-13895","Wendell-Carter-408878","Mike-Conley-1062","Jaren-Jackson-409099","Julius-Randle-18632","49900","262.18"
"Kyle-Anderson-18615","Dennis-Schroder-18595","Justin-Holiday-14559","Anthony-Davis-13895","Wendell-Carter-408878","Tim-Frazier-18743","Julius-Randle-18632","Jaren-Jackson-409099","50000","262.17"
"Dennis-Schroder-18595","Tim-Frazier-18743","Garrett-Temple-14077","Anthony-Davis-13895","Steven-Adams-16848","Mike-Conley-1062","Lauri-Markkanen-37809","Shelvin-Mack-13354","49900","262.16"
"Dennis-Schroder-18595","Jrue-Holiday-1073","Kyle-Anderson-18615","Anthony-Davis-13895","Wendell-Carter-408878","Tim-Frazier-18743","Jaren-Jackson-409099","Jerami-Grant-18576","49900","262.15"
"Ryan-Arcidiacono-36050","Dennis-Schroder-18595","Garrett-Temple-14077","Anthony-Davis-13895","Steven-Adams-16848","Tim-Frazier-18743","Lauri-Markkanen-37809","Marc-Gasol-1493","50000","262.14"
"Ryan-Arcidiacono-36050","Dennis-Schroder-18595","Kyle-Anderson-18615","Anthony-Davis-13895","Marc-Gasol-1493","Mike-Conley-1062","Wendell-Carter-408878","Shelvin-Mack-13354","50000","262.12"
"Dennis-Schroder-18595","Garrett-Temple-14077","Kyle-Anderson-18615","Anthony-Davis-13895","Steven-Adams-16848","Shelvin-Mack-13354","Paul-George-1245","Wendell-Carter-408878","49600","262.12"
"Kyle-Anderson-18615","E'Twaun-Moore-18582","Garrett-Temple-14077","Anthony-Davis-13895","Marc-Gasol-1493","Tim-Frazier-18743","Julius-Randle-18632","Lauri-Markkanen-37809","49900","262.11"
"Shelvin-Mack-13354","Dennis-Schroder-18595","Kyle-Anderson-18615","Jerami-Grant-18576","Wendell-Carter-408878","Mike-Conley-1062","Julius-Randle-18632","Anthony-Davis-13895","50000","262.09"
"Dennis-Schroder-18595","Garrett-Temple-14077","Kyle-Anderson-18615","Wendell-Carter-408878","Marc-Gasol-1493","Tim-Frazier-18743","Lauri-Markkanen-37809","Anthony-Davis-13895","49000","262.06"
"Dennis-Schroder-18595","Jrue-Holiday-1073","Kyle-Anderson-18615","Anthony-Davis-13895","Wendell-Carter-408878","Tim-Frazier-18743","Garrett-Temple-14077","Lauri-Markkanen-37809","49400","262.05"
"Russell-Westbrook-1083","Tim-Frazier-18743","Garrett-Temple-14077","Anthony-Davis-13895","Wendell-Carter-408878","Kyle-Anderson-18615","Solomon-Hill-16863","Lauri-Markkanen-37809","50000","262.04"
"Dennis-Schroder-18595","Tim-Frazier-18743","Kyle-Anderson-18615","Anthony-Davis-13895","Steven-Adams-16848","Shelvin-Mack-13354","Lauri-Markkanen-37809","Julius-Randle-18632","49700","262.03"
"Dennis-Schroder-18595","Garrett-Temple-14077","Kyle-Anderson-18615","Anthony-Davis-13895","Steven-Adams-16848","Tim-Frazier-18743","Lauri-Markkanen-37809","Nikola-Mirotic-18584","49900","262.03"
