"Lonzo-Ball-37885","Devin-Booker-18949","Nicolas-Batum-1315","Julius-Randle-18632","JaVale-McGee-1485","Kemba-Walker-13335","Josh-Jackson-37890","Nikola-Mirotic-18584","49600","291.2"
"Kemba-Walker-13335","Nicolas-Batum-1315","Nikola-Mirotic-18584","Kyle-Kuzma-37886","JaVale-McGee-1485","Devin-Booker-18949","Jeremy-Lamb-13955","Josh-Jackson-37890","50000","290.48"

"Lonzo-Ball-37885","Devin-Booker-18949","Nicolas-Batum-1315","Julius-Randle-18632","JaVale-McGee-1485","Kemba-Walker-13335","Josh-Jackson-37890","Nikola-Mirotic-18584","49600","291.2"
"Kemba-Walker-13335","Nicolas-Batum-1315","Nikola-Mirotic-18584","Kyle-Kuzma-37886","JaVale-McGee-1485","Devin-Booker-18949","Jeremy-Lamb-13955","Josh-Jackson-37890","50000","290.48"
"Kemba-Walker-13335","Brandon-Ingram-35227","Nicolas-Batum-1315","Julius-Randle-18632","JaVale-McGee-1485","Devin-Booker-18949","Josh-Jackson-37890","Nikola-Mirotic-18584","50000","289.96"
"Lonzo-Ball-37885","Jeremy-Lamb-13955","Nikola-Mirotic-18584","Josh-Jackson-37890","JaVale-McGee-1485","Kemba-Walker-13335","Nicolas-Batum-1315","Devin-Booker-18949","49200","289.32"
"Lonzo-Ball-37885","Devin-Booker-18949","Nikola-Mirotic-18584","Josh-Jackson-37890","JaVale-McGee-1485","Kemba-Walker-13335","Nicolas-Batum-1315","Deandre-Ayton-409301","49800","289.2"
"Lonzo-Ball-37885","Nicolas-Batum-1315","Nikola-Mirotic-18584","Anthony-Davis-13895","Willy-Hernangomez-18901","Kemba-Walker-13335","Josh-Jackson-37890","JaVale-McGee-1485","49700","289.16"
"Lonzo-Ball-37885","Devin-Booker-18949","Jeremy-Lamb-13955","Nikola-Mirotic-18584","JaVale-McGee-1485","Kemba-Walker-13335","Brandon-Ingram-35227","Josh-Jackson-37890","50000","288.83"
"Lonzo-Ball-37885","Jeremy-Lamb-13955","LeBron-James-1227","Nikola-Mirotic-18584","Willy-Hernangomez-18901","Kemba-Walker-13335","Nicolas-Batum-1315","Josh-Jackson-37890","49900","288.69"
"Lonzo-Ball-37885","Nicolas-Batum-1315","Nikola-Mirotic-18584","Julius-Randle-18632","Willy-Hernangomez-18901","Devin-Booker-18949","Josh-Jackson-37890","LeBron-James-1227","50000","288.3"
"Kemba-Walker-13335","Nicolas-Batum-1315","Jeremy-Lamb-13955","Nikola-Mirotic-18584","JaVale-McGee-1485","Devin-Booker-18949","Brandon-Ingram-35227","Josh-Jackson-37890","49600","288.08"
"Elie-Okobo-409300","Devin-Booker-18949","Nikola-Mirotic-18584","Josh-Jackson-37890","Julius-Randle-18632","Lonzo-Ball-37885","Jeremy-Lamb-13955","Kemba-Walker-13335","50000","287.9"
"Lonzo-Ball-37885","Jeremy-Lamb-13955","LeBron-James-1227","Nikola-Mirotic-18584","Willy-Hernangomez-18901","Kemba-Walker-13335","Josh-Jackson-37890","JaVale-McGee-1485","50000","287.65"
"Kemba-Walker-13335","Tim-Frazier-18743","Nikola-Mirotic-18584","Kyle-Kuzma-37886","Julius-Randle-18632","Devin-Booker-18949","Nicolas-Batum-1315","Josh-Jackson-37890","50000","287.39"
"Kemba-Walker-13335","Jeremy-Lamb-13955","Kyle-Kuzma-37886","Julius-Randle-18632","Willy-Hernangomez-18901","Devin-Booker-18949","Josh-Jackson-37890","Nikola-Mirotic-18584","49900","287.36"
"Lonzo-Ball-37885","Nicolas-Batum-1315","Nikola-Mirotic-18584","Kyle-Kuzma-37886","JaVale-McGee-1485","Kemba-Walker-13335","Josh-Jackson-37890","Devin-Booker-18949","49000","287.29"
"Lonzo-Ball-37885","Devin-Booker-18949","Trevor-Ariza-1323","Josh-Jackson-37890","Julius-Randle-18632","Kemba-Walker-13335","Nicolas-Batum-1315","Nikola-Mirotic-18584","49800","287.25"
"Lonzo-Ball-37885","Devin-Booker-18949","Nikola-Mirotic-18584","Marvin-Williams-1318","Julius-Randle-18632","Kemba-Walker-13335","Nicolas-Batum-1315","Josh-Jackson-37890","49400","287.15"
"Elie-Okobo-409300","Jeremy-Lamb-13955","Nikola-Mirotic-18584","Josh-Jackson-37890","Julius-Randle-18632","Kemba-Walker-13335","Nicolas-Batum-1315","Devin-Booker-18949","49600","287.15"
"Lonzo-Ball-37885","Jeremy-Lamb-13955","LeBron-James-1227","Julius-Randle-18632","JaVale-McGee-1485","Nicolas-Batum-1315","Josh-Jackson-37890","Nikola-Mirotic-18584","50000","286.98"
"Kemba-Walker-13335","Jeremy-Lamb-13955","LeBron-James-1227","Nikola-Mirotic-18584","Willy-Hernangomez-18901","Nicolas-Batum-1315","Josh-Jackson-37890","JaVale-McGee-1485","49600","286.9"
"Lonzo-Ball-37885","Nicolas-Batum-1315","Nikola-Mirotic-18584","Anthony-Davis-13895","Willy-Hernangomez-18901","Devin-Booker-18949","Josh-Jackson-37890","JaVale-McGee-1485","49400","286.89"
"Lonzo-Ball-37885","Jeremy-Lamb-13955","Kyle-Kuzma-37886","Josh-Jackson-37890","Julius-Randle-18632","Kemba-Walker-13335","Nicolas-Batum-1315","Devin-Booker-18949","49900","286.87"
"Lonzo-Ball-37885","Devin-Booker-18949","Nikola-Mirotic-18584","Josh-Jackson-37890","JaVale-McGee-1485","Kemba-Walker-13335","Brandon-Ingram-35227","Kyle-Kuzma-37886","49800","286.8"
"Lonzo-Ball-37885","Devin-Booker-18949","LeBron-James-1227","Josh-Jackson-37890","JaVale-McGee-1485","Kemba-Walker-13335","Nicolas-Batum-1315","Willy-Hernangomez-18901","49700","286.69"
"Lonzo-Ball-37885","Nicolas-Batum-1315","LeBron-James-1227","Kyle-Kuzma-37886","Willy-Hernangomez-18901","Kemba-Walker-13335","Josh-Jackson-37890","Nikola-Mirotic-18584","49700","286.66"
"Lonzo-Ball-37885","Jrue-Holiday-1073","Nikola-Mirotic-18584","Josh-Jackson-37890","Willy-Hernangomez-18901","Kemba-Walker-13335","Nicolas-Batum-1315","Devin-Booker-18949","49700","286.61"
"Lonzo-Ball-37885","Jeremy-Lamb-13955","LeBron-James-1227","Nikola-Mirotic-18584","Willy-Hernangomez-18901","Devin-Booker-18949","Nicolas-Batum-1315","Josh-Jackson-37890","49600","286.42"
"Lonzo-Ball-37885","Nicolas-Batum-1315","LeBron-James-1227","Nikola-Mirotic-18584","JaVale-McGee-1485","Devin-Booker-18949","Josh-Jackson-37890","Marvin-Williams-1318","50000","286.33"
"Lonzo-Ball-37885","Tim-Frazier-18743","Nikola-Mirotic-18584","Josh-Jackson-37890","Julius-Randle-18632","Kemba-Walker-13335","Nicolas-Batum-1315","Devin-Booker-18949","49200","286.23"
"Lonzo-Ball-37885","Devin-Booker-18949","Trevor-Ariza-1323","Julius-Randle-18632","JaVale-McGee-1485","Kemba-Walker-13335","Nikola-Mirotic-18584","Josh-Jackson-37890","49900","286.21"
"Lonzo-Ball-37885","Jeremy-Lamb-13955","Nikola-Mirotic-18584","Julius-Randle-18632","Willy-Hernangomez-18901","Kemba-Walker-13335","Josh-Jackson-37890","Devin-Booker-18949","49100","286.2"
"Lonzo-Ball-37885","Nicolas-Batum-1315","Nikola-Mirotic-18584","Anthony-Davis-13895","JaVale-McGee-1485","Kemba-Walker-13335","Josh-Jackson-37890","Tyson-Chandler-1482","50000","286.16"
"Lonzo-Ball-37885","Nicolas-Batum-1315","Nikola-Mirotic-18584","Kyle-Kuzma-37886","JaVale-McGee-1485","Kemba-Walker-13335","Brandon-Ingram-35227","Devin-Booker-18949","50000","286.14"
"Elie-Okobo-409300","Jeremy-Lamb-13955","Nikola-Mirotic-18584","Julius-Randle-18632","JaVale-McGee-1485","Kemba-Walker-13335","Josh-Jackson-37890","Devin-Booker-18949","49700","286.11"
"Lonzo-Ball-37885","Devin-Booker-18949","Marvin-Williams-1318","Julius-Randle-18632","JaVale-McGee-1485","Kemba-Walker-13335","Josh-Jackson-37890","Nikola-Mirotic-18584","49500","286.11"
"Lonzo-Ball-37885","Malik-Monk-37827","Nicolas-Batum-1315","Anthony-Davis-13895","JaVale-McGee-1485","Kemba-Walker-13335","Josh-Jackson-37890","Nikola-Mirotic-18584","49900","286.08"
"Lonzo-Ball-37885","Devin-Booker-18949","Nikola-Mirotic-18584","Julius-Randle-18632","Willy-Hernangomez-18901","Kemba-Walker-13335","Josh-Jackson-37890","Deandre-Ayton-409301","49700","286.08"
"Kemba-Walker-13335","Nicolas-Batum-1315","Nikola-Mirotic-18584","Josh-Jackson-37890","JaVale-McGee-1485","Devin-Booker-18949","Brandon-Ingram-35227","Kyle-Kuzma-37886","49400","286.05"
"Kemba-Walker-13335","Brandon-Ingram-35227","Nikola-Mirotic-18584","Marvin-Williams-1318","Julius-Randle-18632","Devin-Booker-18949","Nicolas-Batum-1315","Josh-Jackson-37890","49800","285.91"
"Elie-Okobo-409300","Devin-Booker-18949","Nikola-Mirotic-18584","Kyle-Kuzma-37886","Julius-Randle-18632","Lonzo-Ball-37885","Josh-Jackson-37890","Kemba-Walker-13335","49800","285.87"
"Lonzo-Ball-37885","Jeremy-Lamb-13955","Kyle-Kuzma-37886","Julius-Randle-18632","JaVale-McGee-1485","Kemba-Walker-13335","Josh-Jackson-37890","Devin-Booker-18949","50000","285.83"
"Lonzo-Ball-37885","Jeremy-Lamb-13955","Nikola-Mirotic-18584","Julius-Randle-18632","Deandre-Ayton-409301","Kemba-Walker-13335","Nicolas-Batum-1315","Josh-Jackson-37890","49600","285.8"
"Lonzo-Ball-37885","Tim-Frazier-18743","Nikola-Mirotic-18584","Josh-Jackson-37890","Julius-Randle-18632","Kemba-Walker-13335","Brandon-Ingram-35227","Devin-Booker-18949","50000","285.74"
"Devin-Booker-18949","Brandon-Ingram-35227","Nikola-Mirotic-18584","Anthony-Davis-13895","Willy-Hernangomez-18901","Nicolas-Batum-1315","Josh-Jackson-37890","JaVale-McGee-1485","49800","285.65"
"Lonzo-Ball-37885","Nicolas-Batum-1315","Nikola-Mirotic-18584","Richaun-Holmes-18905","JaVale-McGee-1485","Devin-Booker-18949","Anthony-Davis-13895","Josh-Jackson-37890","49900","285.64"
"Lonzo-Ball-37885","Devin-Booker-18949","Jeremy-Lamb-13955","Nikola-Mirotic-18584","Willy-Hernangomez-18901","Kemba-Walker-13335","Nicolas-Batum-1315","Julius-Randle-18632","49300","285.54"
"Kemba-Walker-13335","Nicolas-Batum-1315","Trevor-Ariza-1323","Julius-Randle-18632","JaVale-McGee-1485","Devin-Booker-18949","Nikola-Mirotic-18584","Josh-Jackson-37890","49500","285.46"
"Elie-Okobo-409300","Devin-Booker-18949","Jeremy-Lamb-13955","Julius-Randle-18632","JaVale-McGee-1485","Kemba-Walker-13335","Nicolas-Batum-1315","Nikola-Mirotic-18584","49900","285.45"
"Lonzo-Ball-37885","Devin-Booker-18949","Nikola-Mirotic-18584","Marvin-Williams-1318","Julius-Randle-18632","Kemba-Walker-13335","Nicolas-Batum-1315","JaVale-McGee-1485","49700","285.45"
"Kemba-Walker-13335","Jeremy-Lamb-13955","Nikola-Mirotic-18584","Julius-Randle-18632","Willy-Hernangomez-18901","Nicolas-Batum-1315","Josh-Jackson-37890","Devin-Booker-18949","48700","285.45"
"Lonzo-Ball-37885","Devin-Booker-18949","Nikola-Mirotic-18584","Julius-Randle-18632","Deandre-Ayton-409301","Kemba-Walker-13335","Nicolas-Batum-1315","Willy-Hernangomez-18901","49900","285.42"
"Elie-Okobo-409300","Nicolas-Batum-1315","LeBron-James-1227","Nikola-Mirotic-18584","JaVale-McGee-1485","Lonzo-Ball-37885","Josh-Jackson-37890","Kemba-Walker-13335","49500","285.41"
"Lonzo-Ball-37885","Tim-Frazier-18743","LeBron-James-1227","Nikola-Mirotic-18584","JaVale-McGee-1485","Devin-Booker-18949","Nicolas-Batum-1315","Josh-Jackson-37890","49800","285.41"
"Kemba-Walker-13335","Jeremy-Lamb-13955","Nikola-Mirotic-18584","Kyle-Kuzma-37886","JaVale-McGee-1485","Devin-Booker-18949","Josh-Jackson-37890","Marvin-Williams-1318","49900","285.39"
"Lonzo-Ball-37885","Jeremy-Lamb-13955","LeBron-James-1227","Nikola-Mirotic-18584","Willy-Hernangomez-18901","Devin-Booker-18949","Josh-Jackson-37890","JaVale-McGee-1485","49700","285.38"
"Kemba-Walker-13335","Nicolas-Batum-1315","Marvin-Williams-1318","Julius-Randle-18632","JaVale-McGee-1485","Devin-Booker-18949","Josh-Jackson-37890","Nikola-Mirotic-18584","49100","285.36"
"Kemba-Walker-13335","Nicolas-Batum-1315","Nikola-Mirotic-18584","Julius-Randle-18632","Willy-Hernangomez-18901","Devin-Booker-18949","Josh-Jackson-37890","Deandre-Ayton-409301","49300","285.33"
"Lonzo-Ball-37885","Jrue-Holiday-1073","Nikola-Mirotic-18584","Josh-Jackson-37890","JaVale-McGee-1485","Kemba-Walker-13335","Nicolas-Batum-1315","Jeremy-Lamb-13955","49700","285.29"
"Lonzo-Ball-37885","Devin-Booker-18949","Trevor-Ariza-1323","Josh-Jackson-37890","Deandre-Ayton-409301","Kemba-Walker-13335","Nicolas-Batum-1315","Nikola-Mirotic-18584","50000","285.25"
"Kemba-Walker-13335","Nicolas-Batum-1315","LeBron-James-1227","Nikola-Mirotic-18584","Willy-Hernangomez-18901","Devin-Booker-18949","Josh-Jackson-37890","Tyson-Chandler-1482","49900","285.22"
"Elie-Okobo-409300","Devin-Booker-18949","Nikola-Mirotic-18584","Kyle-Kuzma-37886","Julius-Randle-18632","Lonzo-Ball-37885","Nicolas-Batum-1315","Kemba-Walker-13335","50000","285.21"
"Lonzo-Ball-37885","Nicolas-Batum-1315","Trevor-Ariza-1323","Anthony-Davis-13895","Willy-Hernangomez-18901","Kemba-Walker-13335","Josh-Jackson-37890","Nikola-Mirotic-18584","49900","285.21"
"Lonzo-Ball-37885","Tim-Frazier-18743","Nikola-Mirotic-18584","Julius-Randle-18632","JaVale-McGee-1485","Kemba-Walker-13335","Josh-Jackson-37890","Devin-Booker-18949","49300","285.19"
"Devin-Booker-18949","Jeremy-Lamb-13955","LeBron-James-1227","Nikola-Mirotic-18584","Willy-Hernangomez-18901","Brandon-Ingram-35227","Nicolas-Batum-1315","Josh-Jackson-37890","50000","285.18"
"Elie-Okobo-409300","Devin-Booker-18949","Jeremy-Lamb-13955","Josh-Jackson-37890","Deandre-Ayton-409301","Kemba-Walker-13335","Nicolas-Batum-1315","Nikola-Mirotic-18584","49800","285.15"
"Lonzo-Ball-37885","Devin-Booker-18949","Nicolas-Batum-1315","Marvin-Williams-1318","Deandre-Ayton-409301","Kemba-Walker-13335","Josh-Jackson-37890","Nikola-Mirotic-18584","49600","285.15"
"Kemba-Walker-13335","Malik-Monk-37827","LeBron-James-1227","Nikola-Mirotic-18584","Willy-Hernangomez-18901","Devin-Booker-18949","Nicolas-Batum-1315","Josh-Jackson-37890","49800","285.14"
"Elie-Okobo-409300","Devin-Booker-18949","Nikola-Mirotic-18584","Kyle-Kuzma-37886","Julius-Randle-18632","Kemba-Walker-13335","Nicolas-Batum-1315","Josh-Jackson-37890","49400","285.12"
"Tim-Frazier-18743","Nicolas-Batum-1315","Nikola-Mirotic-18584","Josh-Jackson-37890","Anthony-Davis-13895","Devin-Booker-18949","Jeremy-Lamb-13955","Willy-Hernangomez-18901","50000","285.11"
"Elie-Okobo-409300","Nicolas-Batum-1315","Nikola-Mirotic-18584","Josh-Jackson-37890","Anthony-Davis-13895","Kemba-Walker-13335","Jeremy-Lamb-13955","Willy-Hernangomez-18901","49700","285.11"
"Lonzo-Ball-37885","Nicolas-Batum-1315","Nikola-Mirotic-18584","Anthony-Davis-13895","Willy-Hernangomez-18901","Kemba-Walker-13335","Josh-Jackson-37890","Marvin-Williams-1318","49500","285.11"
"Kemba-Walker-13335","Jeremy-Lamb-13955","Nicolas-Batum-1315","Julius-Randle-18632","JaVale-McGee-1485","Devin-Booker-18949","Josh-Jackson-37890","Kyle-Kuzma-37886","49600","285.08"
"Kemba-Walker-13335","Brandon-Ingram-35227","Nikola-Mirotic-18584","Josh-Jackson-37890","Julius-Randle-18632","Tim-Frazier-18743","Nicolas-Batum-1315","Devin-Booker-18949","49600","284.99"
"Lonzo-Ball-37885","Nicolas-Batum-1315","LeBron-James-1227","Nikola-Mirotic-18584","Willy-Hernangomez-18901","Kemba-Walker-13335","Kyle-Kuzma-37886","JaVale-McGee-1485","50000","284.96"
"Kemba-Walker-13335","Jeremy-Lamb-13955","Nikola-Mirotic-18584","Julius-Randle-18632","Willy-Hernangomez-18901","Brandon-Ingram-35227","Josh-Jackson-37890","Devin-Booker-18949","49500","284.96"
"Lonzo-Ball-37885","Devin-Booker-18949","Nikola-Mirotic-18584","Josh-Jackson-37890","Richaun-Holmes-18905","Kemba-Walker-13335","Jeremy-Lamb-13955","Julius-Randle-18632","49600","284.95"
"Lonzo-Ball-37885","Jrue-Holiday-1073","Nicolas-Batum-1315","Julius-Randle-18632","JaVale-McGee-1485","Devin-Booker-18949","Josh-Jackson-37890","Nikola-Mirotic-18584","49800","284.9"
"Elie-Okobo-409300","Devin-Booker-18949","Nicolas-Batum-1315","Anthony-Davis-13895","Willy-Hernangomez-18901","Lonzo-Ball-37885","Josh-Jackson-37890","Kemba-Walker-13335","49800","284.9"
"Lonzo-Ball-37885","Nicolas-Batum-1315","Nikola-Mirotic-18584","Josh-Jackson-37890","JaVale-McGee-1485","Kemba-Walker-13335","Brandon-Ingram-35227","Devin-Booker-18949","48600","284.89"
"Kemba-Walker-13335","Brandon-Ingram-35227","Marvin-Williams-1318","Julius-Randle-18632","JaVale-McGee-1485","Devin-Booker-18949","Josh-Jackson-37890","Nikola-Mirotic-18584","49900","284.87"
"Lonzo-Ball-37885","Jeremy-Lamb-13955","Nicolas-Batum-1315","Anthony-Davis-13895","Willy-Hernangomez-18901","Kemba-Walker-13335","Josh-Jackson-37890","Kyle-Kuzma-37886","50000","284.83"
"Kemba-Walker-13335","Jrue-Holiday-1073","Nikola-Mirotic-18584","Josh-Jackson-37890","JaVale-McGee-1485","Devin-Booker-18949","Nicolas-Batum-1315","Willy-Hernangomez-18901","49400","284.82"
"Lonzo-Ball-37885","Josh-Hart-37889","Nicolas-Batum-1315","Anthony-Davis-13895","JaVale-McGee-1485","Devin-Booker-18949","Josh-Jackson-37890","Nikola-Mirotic-18584","50000","284.76"
"Lonzo-Ball-37885","Jeremy-Lamb-13955","Nikola-Mirotic-18584","Julius-Randle-18632","JaVale-McGee-1485","Kemba-Walker-13335","Josh-Jackson-37890","Deandre-Ayton-409301","49700","284.76"
"Kemba-Walker-13335","Nicolas-Batum-1315","LeBron-James-1227","Miles-Bridges-409262","Willy-Hernangomez-18901","Devin-Booker-18949","Josh-Jackson-37890","Nikola-Mirotic-18584","50000","284.76"
"Elie-Okobo-409300","Nicolas-Batum-1315","Nikola-Mirotic-18584","Julius-Randle-18632","Willy-Hernangomez-18901","Devin-Booker-18949","Josh-Jackson-37890","Anthony-Davis-13895","49800","284.72"
"Lonzo-Ball-37885","Jeremy-Lamb-13955","LeBron-James-1227","Nikola-Mirotic-18584","JaVale-McGee-1485","Devin-Booker-18949","Nicolas-Batum-1315","Willy-Hernangomez-18901","49900","284.72"
"Lonzo-Ball-37885","Jeremy-Lamb-13955","Michael-Kidd-Gilchrist-13896","Nikola-Mirotic-18584","Julius-Randle-18632","Kemba-Walker-13335","Josh-Jackson-37890","Devin-Booker-18949","49800","284.68"
"Devin-Booker-18949","Jeremy-Lamb-13955","Josh-Jackson-37890","Julius-Randle-18632","JaVale-McGee-1485","Nicolas-Batum-1315","Anthony-Davis-13895","Willy-Hernangomez-18901","50000","284.68"
"Lonzo-Ball-37885","Nicolas-Batum-1315","Nikola-Mirotic-18584","Frank-Kaminsky-18920","JaVale-McGee-1485","Devin-Booker-18949","Anthony-Davis-13895","Josh-Jackson-37890","49900","284.68"
"Devin-Booker-18949","Jeremy-Lamb-13955","LeBron-James-1227","Nikola-Mirotic-18584","Willy-Hernangomez-18901","Nicolas-Batum-1315","Josh-Jackson-37890","JaVale-McGee-1485","49300","284.63"
"Kemba-Walker-13335","Jeremy-Lamb-13955","Nikola-Mirotic-18584","Julius-Randle-18632","Deandre-Ayton-409301","Nicolas-Batum-1315","Brandon-Ingram-35227","Josh-Jackson-37890","50000","284.56"
"Lonzo-Ball-37885","Tim-Frazier-18743","Nikola-Mirotic-18584","Julius-Randle-18632","Willy-Hernangomez-18901","Kemba-Walker-13335","Josh-Jackson-37890","LeBron-James-1227","50000","284.56"
"Lonzo-Ball-37885","Tim-Frazier-18743","Nikola-Mirotic-18584","Julius-Randle-18632","JaVale-McGee-1485","Kemba-Walker-13335","Nicolas-Batum-1315","Devin-Booker-18949","49500","284.53"
"Lonzo-Ball-37885","Devin-Booker-18949","Nikola-Mirotic-18584","Julius-Randle-18632","Willy-Hernangomez-18901","Kemba-Walker-13335","Jeremy-Lamb-13955","JaVale-McGee-1485","49400","284.5"
"Lonzo-Ball-37885","Nicolas-Batum-1315","Jeremy-Lamb-13955","Josh-Jackson-37890","Julius-Randle-18632","Kemba-Walker-13335","Brandon-Ingram-35227","Devin-Booker-18949","49500","284.47"
"Kemba-Walker-13335","Tim-Frazier-18743","Nikola-Mirotic-18584","Kyle-Kuzma-37886","JaVale-McGee-1485","Devin-Booker-18949","Jeremy-Lamb-13955","Josh-Jackson-37890","49700","284.47"
"Kemba-Walker-13335","Tim-Frazier-18743","Nicolas-Batum-1315","Julius-Randle-18632","JaVale-McGee-1485","Devin-Booker-18949","Josh-Jackson-37890","Nikola-Mirotic-18584","48900","284.44"
"Kemba-Walker-13335","Jeremy-Lamb-13955","Nikola-Mirotic-18584","Julius-Randle-18632","Willy-Hernangomez-18901","Devin-Booker-18949","Josh-Jackson-37890","JaVale-McGee-1485","48800","284.41"
"Lonzo-Ball-37885","Nicolas-Batum-1315","LeBron-James-1227","Kyle-Kuzma-37886","Willy-Hernangomez-18901","Devin-Booker-18949","Josh-Jackson-37890","Nikola-Mirotic-18584","49400","284.39"
