"Tomas-Satoransky--36031","DeMar-DeRozan-1053","Otto-Porter-17069","Kenneth-Faried-13313","Jahlil-Okafor-18902","D'Angelo-Russell-18947","Mason-Plumlee-16798","Taurean-Prince-35218","49800","291.57"
"Frank-Jackson-37855","D'Angelo-Russell-18947","DeMar-DeRozan-1053","Otto-Porter-17069","Jahlil-Okafor-18902","Tomas-Satoransky--36031","Mason-Plumlee-16798","Andre-Drummond-13904","50000","291.5"

"Tomas-Satoransky--36031","DeMar-DeRozan-1053","Otto-Porter-17069","Kenneth-Faried-13313","Jahlil-Okafor-18902","D'Angelo-Russell-18947","Mason-Plumlee-16798","Taurean-Prince-35218","49800","291.57"
"Frank-Jackson-37855","D'Angelo-Russell-18947","DeMar-DeRozan-1053","Otto-Porter-17069","Jahlil-Okafor-18902","Tomas-Satoransky--36031","Mason-Plumlee-16798","Andre-Drummond-13904","50000","291.5"
"Frank-Jackson-37855","D'Angelo-Russell-18947","DeMar-DeRozan-1053","Kenneth-Faried-13313","Andre-Drummond-13904","Tomas-Satoransky--36031","Mason-Plumlee-16798","Otto-Porter-17069","49900","291.31"
"Frank-Jackson-37855","DeMar-DeRozan-1053","Otto-Porter-17069","Kenneth-Faried-13313","Jahlil-Okafor-18902","Chris-Paul-1087","Mason-Plumlee-16798","D'Angelo-Russell-18947","49800","290.97"
"Chris-Paul-1087","DeMar-DeRozan-1053","Otto-Porter-17069","Kenneth-Faried-13313","Jahlil-Okafor-18902","D'Angelo-Russell-18947","Mason-Plumlee-16798","Marco-Belinelli-1033","50000","290.79"
"D'Angelo-Russell-18947","DeMar-DeRozan-1053","Tomas-Satoransky--36031","Otto-Porter-17069","Kenneth-Faried-13313","De'Aaron-Fox-37900","Taurean-Prince-35218","Mason-Plumlee-16798","50000","290.62"
"Tomas-Satoransky--36031","DeMar-DeRozan-1053","Otto-Porter-17069","Kenneth-Faried-13313","Jahlil-Okafor-18902","Tyreke-Evans-1070","Mason-Plumlee-16798","D'Angelo-Russell-18947","49700","290.57"
"Tomas-Satoransky--36031","Kenrich-Williams-570179","Otto-Porter-17069","Kenneth-Faried-13313","Jahlil-Okafor-18902","D'Angelo-Russell-18947","Mason-Plumlee-16798","DeMar-DeRozan-1053","49400","290.56"
"Monte-Morris-37860","Kenrich-Williams-570179","Otto-Porter-17069","Kenneth-Faried-13313","Jahlil-Okafor-18902","D'Angelo-Russell-18947","Mason-Plumlee-16798","DeMar-DeRozan-1053","49800","290.2"
"Frank-Jackson-37855","Kenrich-Williams-570179","DeMar-DeRozan-1053","Kenneth-Faried-13313","Andre-Drummond-13904","D'Angelo-Russell-18947","Mason-Plumlee-16798","Jahlil-Okafor-18902","49800","290.09"
"Frank-Jackson-37855","D'Angelo-Russell-18947","DeMar-DeRozan-1053","Kenneth-Faried-13313","Mason-Plumlee-16798","Chris-Paul-1087","Otto-Porter-17069","De'Aaron-Fox-37900","50000","290.02"
"D'Angelo-Russell-18947","Kenrich-Williams-570179","DeMar-DeRozan-1053","Kenneth-Faried-13313","Andre-Drummond-13904","Marco-Belinelli-1033","Mason-Plumlee-16798","Jahlil-Okafor-18902","50000","289.91"
"Tomas-Satoransky--36031","DeMar-DeRozan-1053","Otto-Porter-17069","Kenneth-Faried-13313","Jahlil-Okafor-18902","Tyreke-Evans-1070","Mason-Plumlee-16798","Andre-Drummond-13904","50000","289.82"
"Tomas-Satoransky--36031","Kenrich-Williams-570179","Otto-Porter-17069","Kenneth-Faried-13313","Jahlil-Okafor-18902","DeMar-DeRozan-1053","Mason-Plumlee-16798","Andre-Drummond-13904","49700","289.81"
"D'Angelo-Russell-18947","Tyreke-Evans-1070","DeMar-DeRozan-1053","Otto-Porter-17069","Mason-Plumlee-16798","De'Aaron-Fox-37900","Tomas-Satoransky--36031","Jahlil-Okafor-18902","50000","289.81"
"D'Angelo-Russell-18947","DeMar-DeRozan-1053","Kenrich-Williams-570179","Otto-Porter-17069","Jahlil-Okafor-18902","De'Aaron-Fox-37900","Tomas-Satoransky--36031","Mason-Plumlee-16798","49700","289.8"
"D'Angelo-Russell-18947","DeMar-DeRozan-1053","Otto-Porter-17069","Kenneth-Faried-13313","Jahlil-Okafor-18902","Khris-Middleton-13990","Mason-Plumlee-16798","Rondae-Hollis-Jefferson-18897","50000","289.65"
"Tomas-Satoransky--36031","DeMar-DeRozan-1053","Tyreke-Evans-1070","Kenneth-Faried-13313","Mason-Plumlee-16798","D'Angelo-Russell-18947","Otto-Porter-17069","De'Aaron-Fox-37900","49900","289.62"
"Tomas-Satoransky--36031","D'Angelo-Russell-18947","Kenrich-Williams-570179","Otto-Porter-17069","Kenneth-Faried-13313","De'Aaron-Fox-37900","DeMar-DeRozan-1053","Mason-Plumlee-16798","49600","289.61"
"D'Angelo-Russell-18947","Kenrich-Williams-570179","Otto-Porter-17069","Kenneth-Faried-13313","Jarrett-Allen-37794","DeMar-DeRozan-1053","Mason-Plumlee-16798","Andre-Drummond-13904","50000","289.47"
"D'Angelo-Russell-18947","Kenrich-Williams-570179","Tomas-Satoransky--36031","Otto-Porter-17069","Kenneth-Faried-13313","DeMar-DeRozan-1053","Taurean-Prince-35218","Jahlil-Okafor-18902","50000","289.47"
"D'Angelo-Russell-18947","Kenrich-Williams-570179","DeMar-DeRozan-1053","Kenneth-Faried-13313","Mason-Plumlee-16798","De'Aaron-Fox-37900","Taurean-Prince-35218","Jahlil-Okafor-18902","49900","289.4"
"Tomas-Satoransky--36031","DeMar-DeRozan-1053","Kenrich-Williams-570179","Kenneth-Faried-13313","Jahlil-Okafor-18902","D'Angelo-Russell-18947","Khris-Middleton-13990","Mason-Plumlee-16798","49900","289.37"
"Monte-Morris-37860","D'Angelo-Russell-18947","Kenrich-Williams-570179","Otto-Porter-17069","Kenneth-Faried-13313","De'Aaron-Fox-37900","DeMar-DeRozan-1053","Mason-Plumlee-16798","50000","289.25"
"D'Angelo-Russell-18947","Kelly-Oubre-18925","Otto-Porter-17069","Kenneth-Faried-13313","Jahlil-Okafor-18902","DeMar-DeRozan-1053","Mason-Plumlee-16798","Taurean-Prince-35218","50000","289.16"
"Frank-Jackson-37855","Kenrich-Williams-570179","DeMar-DeRozan-1053","Kenneth-Faried-13313","Andre-Drummond-13904","D'Angelo-Russell-18947","Mason-Plumlee-16798","De'Aaron-Fox-37900","50000","289.14"
"Frank-Jackson-37855","DeMar-DeRozan-1053","Otto-Porter-17069","Kenneth-Faried-13313","Jahlil-Okafor-18902","D'Angelo-Russell-18947","Mason-Plumlee-16798","Khris-Middleton-13990","49600","289.12"
"Tomas-Satoransky--36031","DeMar-DeRozan-1053","Otto-Porter-17069","Kenneth-Faried-13313","Jahlil-Okafor-18902","De'Aaron-Fox-37900","Mason-Plumlee-16798","Domantas-Sabonis-35217","50000","289.12"
"Tomas-Satoransky--36031","DeMar-DeRozan-1053","Otto-Porter-17069","Kenneth-Faried-13313","Jahlil-Okafor-18902","D'Angelo-Russell-18947","Mason-Plumlee-16798","DeMarre-Carroll-1174","49600","289.11"
"Chris-Paul-1087","DeMar-DeRozan-1053","Tomas-Satoransky--36031","Rondae-Hollis-Jefferson-18897","Jahlil-Okafor-18902","D'Angelo-Russell-18947","Mason-Plumlee-16798","Kenneth-Faried-13313","49900","289.1"
"Tomas-Satoransky--36031","DeMar-DeRozan-1053","Kenrich-Williams-570179","Otto-Porter-17069","Jahlil-Okafor-18902","De'Aaron-Fox-37900","Mason-Plumlee-16798","Andre-Drummond-13904","50000","289.05"
"Tomas-Satoransky--36031","D'Angelo-Russell-18947","Otto-Porter-17069","Kenneth-Faried-13313","Jahlil-Okafor-18902","De'Aaron-Fox-37900","Mason-Plumlee-16798","Jarrett-Allen-37794","50000","289.0"
"Elie-Okobo-409300","D'Angelo-Russell-18947","DeMar-DeRozan-1053","Kenneth-Faried-13313","Jahlil-Okafor-18902","De'Aaron-Fox-37900","Tomas-Satoransky--36031","Mason-Plumlee-16798","50000","288.97"
"D'Angelo-Russell-18947","DeMar-DeRozan-1053","Otto-Porter-17069","Kenneth-Faried-13313","Jahlil-Okafor-18902","Marco-Belinelli-1033","Mason-Plumlee-16798","Khris-Middleton-13990","49800","288.94"
"Frank-Jackson-37855","D'Angelo-Russell-18947","Kenrich-Williams-570179","Otto-Porter-17069","Jahlil-Okafor-18902","Chris-Paul-1087","DeMar-DeRozan-1053","Kenneth-Faried-13313","50000","288.87"
"Tomas-Satoransky--36031","Kenrich-Williams-570179","DeMar-DeRozan-1053","Kenneth-Faried-13313","Andre-Drummond-13904","De'Aaron-Fox-37900","Mason-Plumlee-16798","Otto-Porter-17069","49900","288.86"
"Frank-Jackson-37855","D'Angelo-Russell-18947","Otto-Porter-17069","Kenneth-Faried-13313","Jahlil-Okafor-18902","Tomas-Satoransky--36031","Mason-Plumlee-16798","Andre-Drummond-13904","49500","288.85"
"D'Angelo-Russell-18947","DeMar-DeRozan-1053","Otto-Porter-17069","Mason-Plumlee-16798","Andre-Drummond-13904","Tyreke-Evans-1070","Taurean-Prince-35218","Jahlil-Okafor-18902","50000","288.83"
"D'Angelo-Russell-18947","Kenrich-Williams-570179","Otto-Porter-17069","Mason-Plumlee-16798","Andre-Drummond-13904","DeMar-DeRozan-1053","Taurean-Prince-35218","Jahlil-Okafor-18902","49700","288.82"
"Frank-Jackson-37855","DeMar-DeRozan-1053","Otto-Porter-17069","Mason-Plumlee-16798","Andre-Drummond-13904","D'Angelo-Russell-18947","Domantas-Sabonis-35217","Jahlil-Okafor-18902","49900","288.82"
"Tomas-Satoransky--36031","D'Angelo-Russell-18947","DeMar-DeRozan-1053","Kenneth-Faried-13313","Mason-Plumlee-16798","Monte-Morris-37860","Taurean-Prince-35218","Jahlil-Okafor-18902","49900","288.81"
"D'Angelo-Russell-18947","DeMar-DeRozan-1053","Otto-Porter-17069","Kenneth-Faried-13313","Jahlil-Okafor-18902","De'Aaron-Fox-37900","Mason-Plumlee-16798","Cheick-Diallo-35225","50000","288.79"
"D'Angelo-Russell-18947","DeMar-DeRozan-1053","Otto-Porter-17069","Kenneth-Faried-13313","Jahlil-Okafor-18902","Tyreke-Evans-1070","Mason-Plumlee-16798","Rudy-Gay-1341","50000","288.77"
"D'Angelo-Russell-18947","Kenrich-Williams-570179","Otto-Porter-17069","Kenneth-Faried-13313","Jahlil-Okafor-18902","DeMar-DeRozan-1053","Mason-Plumlee-16798","Rudy-Gay-1341","49700","288.76"
"Monte-Morris-37860","DeMar-DeRozan-1053","Otto-Porter-17069","Kenneth-Faried-13313","Jahlil-Okafor-18902","D'Angelo-Russell-18947","Mason-Plumlee-16798","DeMarre-Carroll-1174","50000","288.75"
"Tomas-Satoransky--36031","Marco-Belinelli-1033","Otto-Porter-17069","Kenneth-Faried-13313","Jahlil-Okafor-18902","D'Angelo-Russell-18947","Mason-Plumlee-16798","Andre-Drummond-13904","49700","288.67"
"D'Angelo-Russell-18947","DeMar-DeRozan-1053","Otto-Porter-17069","Kenneth-Faried-13313","Mason-Plumlee-16798","Khris-Middleton-13990","Torrey-Craig-37861","Jahlil-Okafor-18902","49900","288.66"
"D'Angelo-Russell-18947","DeMar-DeRozan-1053","Otto-Porter-17069","Kenneth-Faried-13313","Andre-Drummond-13904","Tyreke-Evans-1070","Taurean-Prince-35218","Mason-Plumlee-16798","49900","288.64"
"Frank-Jackson-37855","DeMar-DeRozan-1053","DeMarre-Carroll-1174","Kenneth-Faried-13313","Jahlil-Okafor-18902","D'Angelo-Russell-18947","Mason-Plumlee-16798","Andre-Drummond-13904","50000","288.64"
"Frank-Jackson-37855","DeMar-DeRozan-1053","Otto-Porter-17069","Mason-Plumlee-16798","Andre-Drummond-13904","D'Angelo-Russell-18947","Domantas-Sabonis-35217","Kenneth-Faried-13313","49800","288.63"
"D'Angelo-Russell-18947","Kenrich-Williams-570179","Otto-Porter-17069","Kenneth-Faried-13313","Andre-Drummond-13904","DeMar-DeRozan-1053","Taurean-Prince-35218","Mason-Plumlee-16798","49600","288.63"
"D'Angelo-Russell-18947","Bogdan-Bogdanovic-37899","Otto-Porter-17069","Kenneth-Faried-13313","Jahlil-Okafor-18902","DeMar-DeRozan-1053","Mason-Plumlee-16798","Taurean-Prince-35218","49800","288.58"
"Chris-Paul-1087","DeMar-DeRozan-1053","Otto-Porter-17069","Kenneth-Faried-13313","Brook-Lopez-1498","Tomas-Satoransky--36031","Mason-Plumlee-16798","D'Angelo-Russell-18947","50000","288.58"
"Frank-Jackson-37855","D'Angelo-Russell-18947","DeMar-DeRozan-1053","Kenneth-Faried-13313","Jahlil-Okafor-18902","Chris-Paul-1087","Tomas-Satoransky--36031","Mason-Plumlee-16798","49500","288.57"
"Frank-Jackson-37855","D'Angelo-Russell-18947","DeMar-DeRozan-1053","Kenneth-Faried-13313","Andre-Drummond-13904","Monte-Morris-37860","Tomas-Satoransky--36031","Mason-Plumlee-16798","50000","288.55"
"Chris-Paul-1087","Kenrich-Williams-570179","DeMar-DeRozan-1053","Kenneth-Faried-13313","Jahlil-Okafor-18902","D'Angelo-Russell-18947","Domantas-Sabonis-35217","Mason-Plumlee-16798","50000","288.54"
"Chris-Paul-1087","Kenrich-Williams-570179","Otto-Porter-17069","Kenneth-Faried-13313","Jahlil-Okafor-18902","DeMar-DeRozan-1053","Mason-Plumlee-16798","De'Aaron-Fox-37900","49800","288.52"
"Frank-Jackson-37855","DeMar-DeRozan-1053","Bogdan-Bogdanovic-37899","Otto-Porter-17069","Jahlil-Okafor-18902","D'Angelo-Russell-18947","Mason-Plumlee-16798","Andre-Drummond-13904","50000","288.51"
"Frank-Jackson-37855","D'Angelo-Russell-18947","Otto-Porter-17069","Kenneth-Faried-13313","Jahlil-Okafor-18902","Monte-Morris-37860","Mason-Plumlee-16798","Andre-Drummond-13904","49900","288.49"
"D'Angelo-Russell-18947","DeMar-DeRozan-1053","Kenrich-Williams-570179","Otto-Porter-17069","Jahlil-Okafor-18902","Tyreke-Evans-1070","Tomas-Satoransky--36031","Kenneth-Faried-13313","49900","288.47"
"D'Angelo-Russell-18947","DeMar-DeRozan-1053","Otto-Porter-17069","Mason-Plumlee-16798","Andre-Drummond-13904","Marco-Belinelli-1033","Domantas-Sabonis-35217","Kenneth-Faried-13313","50000","288.45"
"Tomas-Satoransky--36031","DeMar-DeRozan-1053","Otto-Porter-17069","Kenneth-Faried-13313","Jahlil-Okafor-18902","D'Angelo-Russell-18947","Mason-Plumlee-16798","Rondae-Hollis-Jefferson-18897","49200","288.44"
"D'Angelo-Russell-18947","DeMar-DeRozan-1053","Otto-Porter-17069","Kenneth-Faried-13313","Jahlil-Okafor-18902","Bryn-Forbes-36052","Mason-Plumlee-16798","Khris-Middleton-13990","49900","288.42"
"D'Angelo-Russell-18947","Tyreke-Evans-1070","Kenrich-Williams-570179","Mason-Plumlee-16798","Jahlil-Okafor-18902","De'Aaron-Fox-37900","DeMar-DeRozan-1053","Kenneth-Faried-13313","49800","288.4"
"Tomas-Satoransky--36031","Torrey-Craig-37861","Otto-Porter-17069","Kenneth-Faried-13313","Jahlil-Okafor-18902","D'Angelo-Russell-18947","Mason-Plumlee-16798","Andre-Drummond-13904","49800","288.39"
"Tomas-Satoransky--36031","D'Angelo-Russell-18947","DeMar-DeRozan-1053","Otto-Porter-17069","Jahlil-Okafor-18902","Elie-Okobo-409300","Mason-Plumlee-16798","Andre-Drummond-13904","49800","288.39"
"Chris-Paul-1087","D'Angelo-Russell-18947","DeMar-DeRozan-1053","Mason-Plumlee-16798","Jahlil-Okafor-18902","Tomas-Satoransky--36031","Marco-Belinelli-1033","Kenneth-Faried-13313","49700","288.39"
"Frank-Jackson-37855","DeMar-DeRozan-1053","Otto-Porter-17069","Kenneth-Faried-13313","Jahlil-Okafor-18902","Khris-Middleton-13990","Mason-Plumlee-16798","Andre-Drummond-13904","49900","288.37"
"Tomas-Satoransky--36031","DeMar-DeRozan-1053","Otto-Porter-17069","Kenneth-Faried-13313","Jahlil-Okafor-18902","D'Angelo-Russell-18947","Mason-Plumlee-16798","P.J.-Tucker-13947","49500","288.37"
"D'Angelo-Russell-18947","Kenrich-Williams-570179","Otto-Porter-17069","Kenneth-Faried-13313","Jahlil-Okafor-18902","Khris-Middleton-13990","Mason-Plumlee-16798","De'Aaron-Fox-37900","50000","288.36"
"Frank-Jackson-37855","D'Angelo-Russell-18947","DeMar-DeRozan-1053","Mason-Plumlee-16798","Jahlil-Okafor-18902","De'Aaron-Fox-37900","Khris-Middleton-13990","Otto-Porter-17069","49900","288.36"
"Tomas-Satoransky--36031","D'Angelo-Russell-18947","DeMar-DeRozan-1053","Otto-Porter-17069","Jahlil-Okafor-18902","De'Aaron-Fox-37900","Mason-Plumlee-16798","DeMarre-Carroll-1174","49900","288.35"
"Frank-Jackson-37855","Bogdan-Bogdanovic-37899","DeMar-DeRozan-1053","Kenneth-Faried-13313","Andre-Drummond-13904","D'Angelo-Russell-18947","Mason-Plumlee-16798","Otto-Porter-17069","49900","288.32"
"Tomas-Satoransky--36031","DeMar-DeRozan-1053","Kevin-Huerter-408969","Kenneth-Faried-13313","Mason-Plumlee-16798","D'Angelo-Russell-18947","Otto-Porter-17069","Jahlil-Okafor-18902","49500","288.23"
"Frank-Jackson-37855","D'Angelo-Russell-18947","DeMar-DeRozan-1053","Kenneth-Faried-13313","Jahlil-Okafor-18902","De'Aaron-Fox-37900","Mason-Plumlee-16798","Brook-Lopez-1498","50000","288.22"
"Tomas-Satoransky--36031","Mikal-Bridges-408842","Otto-Porter-17069","Kenneth-Faried-13313","Jahlil-Okafor-18902","D'Angelo-Russell-18947","Mason-Plumlee-16798","DeMar-DeRozan-1053","49500","288.21"
"Frank-Jackson-37855","D'Angelo-Russell-18947","DeMar-DeRozan-1053","Kenneth-Faried-13313","Jahlil-Okafor-18902","Chris-Paul-1087","Mason-Plumlee-16798","Monte-Morris-37860","49900","288.21"
"Tomas-Satoransky--36031","D'Angelo-Russell-18947","DeMar-DeRozan-1053","Kenneth-Faried-13313","Andre-Drummond-13904","Elie-Okobo-409300","Mason-Plumlee-16798","Otto-Porter-17069","49700","288.2"
"Frank-Jackson-37855","D'Angelo-Russell-18947","DeMar-DeRozan-1053","Otto-Porter-17069","Kenneth-Faried-13313","De'Aaron-Fox-37900","Khris-Middleton-13990","Mason-Plumlee-16798","49800","288.17"
"D'Angelo-Russell-18947","DeMar-DeRozan-1053","DeMarre-Carroll-1174","Kenneth-Faried-13313","Mason-Plumlee-16798","De'Aaron-Fox-37900","Tomas-Satoransky--36031","Otto-Porter-17069","49800","288.16"
"D'Angelo-Russell-18947","DeMar-DeRozan-1053","Kelly-Oubre-18925","Kenneth-Faried-13313","Mason-Plumlee-16798","Tyreke-Evans-1070","Otto-Porter-17069","Jahlil-Okafor-18902","49900","288.16"
"Tomas-Satoransky--36031","D'Angelo-Russell-18947","Otto-Porter-17069","Kenneth-Faried-13313","Jahlil-Okafor-18902","De'Aaron-Fox-37900","Mason-Plumlee-16798","Taurean-Prince-35218","49600","288.16"
"D'Angelo-Russell-18947","DeMar-DeRozan-1053","Otto-Porter-17069","Kenneth-Faried-13313","Jahlil-Okafor-18902","Tyreke-Evans-1070","Mason-Plumlee-16798","Willie-Cauley-Stein-18951","49900","288.15"
"Tomas-Satoransky--36031","D'Angelo-Russell-18947","Otto-Porter-17069","Kenneth-Faried-13313","Jahlil-Okafor-18902","Bryn-Forbes-36052","Mason-Plumlee-16798","Andre-Drummond-13904","49800","288.15"
"D'Angelo-Russell-18947","Kenrich-Williams-570179","Kelly-Oubre-18925","Kenneth-Faried-13313","Mason-Plumlee-16798","DeMar-DeRozan-1053","Otto-Porter-17069","Jahlil-Okafor-18902","49600","288.15"
"D'Angelo-Russell-18947","Kenrich-Williams-570179","Otto-Porter-17069","Kenneth-Faried-13313","Jahlil-Okafor-18902","DeMar-DeRozan-1053","Mason-Plumlee-16798","Willie-Cauley-Stein-18951","49600","288.14"
"Chris-Paul-1087","D'Angelo-Russell-18947","DeMar-DeRozan-1053","Otto-Porter-17069","Jarrett-Allen-37794","Tomas-Satoransky--36031","Mason-Plumlee-16798","Jahlil-Okafor-18902","49800","288.14"
"D'Angelo-Russell-18947","DeMar-DeRozan-1053","Otto-Porter-17069","Domantas-Sabonis-35217","Jahlil-Okafor-18902","De'Aaron-Fox-37900","Taurean-Prince-35218","Mason-Plumlee-16798","50000","288.13"
"Chris-Paul-1087","DeMar-DeRozan-1053","Torrey-Craig-37861","Kenneth-Faried-13313","Jahlil-Okafor-18902","Tomas-Satoransky--36031","Mason-Plumlee-16798","D'Angelo-Russell-18947","49800","288.11"
"D'Angelo-Russell-18947","DeMar-DeRozan-1053","Otto-Porter-17069","Domantas-Sabonis-35217","Jahlil-Okafor-18902","Khris-Middleton-13990","Tomas-Satoransky--36031","Mason-Plumlee-16798","50000","288.1"
"Chris-Paul-1087","D'Angelo-Russell-18947","Otto-Porter-17069","Kenneth-Faried-13313","Jahlil-Okafor-18902","De'Aaron-Fox-37900","Mason-Plumlee-16798","Rondae-Hollis-Jefferson-18897","50000","288.09"
"Frank-Jackson-37855","D'Angelo-Russell-18947","Otto-Porter-17069","Mason-Plumlee-16798","Jahlil-Okafor-18902","De'Aaron-Fox-37900","Tomas-Satoransky--36031","Andre-Drummond-13904","49800","288.09"
"Monte-Morris-37860","DeMar-DeRozan-1053","Otto-Porter-17069","Kenneth-Faried-13313","Jahlil-Okafor-18902","D'Angelo-Russell-18947","Mason-Plumlee-16798","Rondae-Hollis-Jefferson-18897","49600","288.08"
"Tomas-Satoransky--36031","DeMar-DeRozan-1053","Otto-Porter-17069","Kenneth-Faried-13313","Jahlil-Okafor-18902","De'Aaron-Fox-37900","Mason-Plumlee-16798","Marvin-Bagley-III-409321","50000","288.06"
"Chris-Paul-1087","D'Angelo-Russell-18947","Otto-Porter-17069","Kenneth-Faried-13313","Andre-Drummond-13904","Tomas-Satoransky--36031","Taurean-Prince-35218","Mason-Plumlee-16798","50000","288.05"
"Monte-Morris-37860","DeMar-DeRozan-1053","Otto-Porter-17069","Kenneth-Faried-13313","Jahlil-Okafor-18902","D'Angelo-Russell-18947","Mason-Plumlee-16798","P.J.-Tucker-13947","49900","288.01"
"D'Angelo-Russell-18947","DeMar-DeRozan-1053","Kenrich-Williams-570179","Otto-Porter-17069","Jahlil-Okafor-18902","De'Aaron-Fox-37900","Mason-Plumlee-16798","Rudy-Gay-1341","50000","288.0"
"D'Angelo-Russell-18947","Marco-Belinelli-1033","DeMar-DeRozan-1053","Otto-Porter-17069","Kenneth-Faried-13313","De'Aaron-Fox-37900","Khris-Middleton-13990","Mason-Plumlee-16798","50000","287.99"
"D'Angelo-Russell-18947","DeMar-DeRozan-1053","Taurean-Prince-35218","Kenneth-Faried-13313","Andre-Drummond-13904","Elie-Okobo-409300","Mason-Plumlee-16798","Jahlil-Okafor-18902","50000","287.99"
"Tomas-Satoransky--36031","DeMar-DeRozan-1053","Otto-Porter-17069","Mason-Plumlee-16798","Andre-Drummond-13904","D'Angelo-Russell-18947","James-Ennis-18599","Jahlil-Okafor-18902","50000","287.97"
