"De'Aaron-Fox-37900","Klay-Thompson-13315","Buddy-Hield-35206","Draymond-Green-13976","Clint-Capela-18610","James-Ennis-18599","Justin-Jackson-37895","James-Harden-1037","50000","279.08"
"Austin-Rivers-13903","Jamal-Murray-35211","James-Ennis-18599","Jonas-Jerebko-1106","Clint-Capela-18610","James-Harden-1037","Draymond-Green-13976","De'Aaron-Fox-37900","49800","278.91"
"Austin-Rivers-13903","James-Harden-1037","Buddy-Hield-35206","Jonas-Jerebko-1106","Draymond-Green-13976","De'Aaron-Fox-37900","P.J.-Tucker-13947","Clint-Capela-18610","50000","278.79"

"De'Aaron-Fox-37900","Klay-Thompson-13315","Buddy-Hield-35206","Draymond-Green-13976","Clint-Capela-18610","James-Ennis-18599","Justin-Jackson-37895","James-Harden-1037","50000","279.08"
"Austin-Rivers-13903","Jamal-Murray-35211","James-Ennis-18599","Jonas-Jerebko-1106","Clint-Capela-18610","James-Harden-1037","Draymond-Green-13976","De'Aaron-Fox-37900","49800","278.91"
"Austin-Rivers-13903","James-Harden-1037","Buddy-Hield-35206","Jonas-Jerebko-1106","Draymond-Green-13976","De'Aaron-Fox-37900","P.J.-Tucker-13947","Clint-Capela-18610","50000","278.79"
"Austin-Rivers-13903","Klay-Thompson-13315","P.J.-Tucker-13947","Jonas-Jerebko-1106","Clint-Capela-18610","James-Harden-1037","Draymond-Green-13976","De'Aaron-Fox-37900","49800","278.78"
"Austin-Rivers-13903","James-Harden-1037","Buddy-Hield-35206","Jonas-Jerebko-1106","Clint-Capela-18610","De'Aaron-Fox-37900","Iman-Shumpert-13350","Draymond-Green-13976","49900","278.18"
"Austin-Rivers-13903","Klay-Thompson-13315","Iman-Shumpert-13350","Jonas-Jerebko-1106","Clint-Capela-18610","James-Harden-1037","Draymond-Green-13976","De'Aaron-Fox-37900","49700","278.17"
"Austin-Rivers-13903","James-Harden-1037","P.J.-Tucker-13947","Draymond-Green-13976","Willie-Cauley-Stein-18951","De'Aaron-Fox-37900","Justin-Jackson-37895","Clint-Capela-18610","49900","278.1"
"Jamal-Murray-35211","James-Harden-1037","P.J.-Tucker-13947","Jonas-Jerebko-1106","Draymond-Green-13976","De'Aaron-Fox-37900","Justin-Jackson-37895","Clint-Capela-18610","49700","278.09"
"Austin-Rivers-13903","Klay-Thompson-13315","Iman-Shumpert-13350","Draymond-Green-13976","Clint-Capela-18610","James-Harden-1037","Kevon-Looney-18945","De'Aaron-Fox-37900","50000","278.04"
"Jamal-Murray-35211","Klay-Thompson-13315","Justin-Jackson-37895","Jonas-Jerebko-1106","Clint-Capela-18610","James-Harden-1037","Draymond-Green-13976","Bogdan-Bogdanovic-37899","49900","277.98"
"Jamal-Murray-35211","James-Harden-1037","Justin-Jackson-37895","Draymond-Green-13976","Clint-Capela-18610","De'Aaron-Fox-37900","Kevon-Looney-18945","P.J.-Tucker-13947","50000","277.96"
"Austin-Rivers-13903","James-Harden-1037","Andre-Iguodala-1334","Jonas-Jerebko-1106","Clint-Capela-18610","De'Aaron-Fox-37900","Draymond-Green-13976","Willie-Cauley-Stein-18951","50000","277.88"
"Jamal-Murray-35211","Klay-Thompson-13315","James-Ennis-18599","Draymond-Green-13976","Willie-Cauley-Stein-18951","James-Harden-1037","Justin-Jackson-37895","Clint-Capela-18610","50000","277.8"
"Jamal-Murray-35211","James-Harden-1037","Justin-Jackson-37895","Jonas-Jerebko-1106","Clint-Capela-18610","Monte-Morris-37860","Draymond-Green-13976","De'Aaron-Fox-37900","50000","277.74"
"Austin-Rivers-13903","Klay-Thompson-13315","Danuel-House-36029","Jonas-Jerebko-1106","Clint-Capela-18610","James-Harden-1037","Draymond-Green-13976","De'Aaron-Fox-37900","49900","277.67"
"De'Aaron-Fox-37900","Buddy-Hield-35206","Nemanja-Bjelica-31814","Jonas-Jerebko-1106","Clint-Capela-18610","James-Harden-1037","Justin-Jackson-37895","Draymond-Green-13976","49800","277.67"
"De'Aaron-Fox-37900","Klay-Thompson-13315","Nemanja-Bjelica-31814","Jonas-Jerebko-1106","Clint-Capela-18610","James-Harden-1037","Justin-Jackson-37895","Draymond-Green-13976","49600","277.66"
"De'Aaron-Fox-37900","Klay-Thompson-13315","Nemanja-Bjelica-31814","Draymond-Green-13976","Clint-Capela-18610","James-Harden-1037","Kevon-Looney-18945","Justin-Jackson-37895","49900","277.53"
"Jamal-Murray-35211","Klay-Thompson-13315","Nemanja-Bjelica-31814","Jonas-Jerebko-1106","Draymond-Green-13976","James-Harden-1037","Justin-Jackson-37895","De'Aaron-Fox-37900","50000","277.53"
"Austin-Rivers-13903","Jamal-Murray-35211","P.J.-Tucker-13947","Jonas-Jerebko-1106","Clint-Capela-18610","James-Harden-1037","Draymond-Green-13976","Willie-Cauley-Stein-18951","50000","277.51"
"Austin-Rivers-13903","Klay-Thompson-13315","James-Ennis-18599","Kevin-Durant-1348","Clint-Capela-18610","James-Harden-1037","Justin-Jackson-37895","Draymond-Green-13976","50000","277.5"
"Austin-Rivers-13903","James-Harden-1037","Iman-Shumpert-13350","Draymond-Green-13976","Willie-Cauley-Stein-18951","De'Aaron-Fox-37900","Justin-Jackson-37895","Clint-Capela-18610","49800","277.49"
"Jamal-Murray-35211","Iman-Shumpert-13350","Justin-Jackson-37895","Jonas-Jerebko-1106","Clint-Capela-18610","James-Harden-1037","Draymond-Green-13976","De'Aaron-Fox-37900","49600","277.48"
"Austin-Rivers-13903","James-Harden-1037","Buddy-Hield-35206","Draymond-Green-13976","Clint-Capela-18610","De'Aaron-Fox-37900","Kevon-Looney-18945","Jonas-Jerebko-1106","49700","277.35"
"Jamal-Murray-35211","Iman-Shumpert-13350","Justin-Jackson-37895","Draymond-Green-13976","Clint-Capela-18610","James-Harden-1037","Kevon-Looney-18945","De'Aaron-Fox-37900","49900","277.35"
"Austin-Rivers-13903","Jamal-Murray-35211","James-Ennis-18599","Draymond-Green-13976","Clint-Capela-18610","James-Harden-1037","Justin-Jackson-37895","De'Aaron-Fox-37900","49500","277.32"
"Austin-Rivers-13903","Buddy-Hield-35206","P.J.-Tucker-13947","Draymond-Green-13976","Clint-Capela-18610","James-Harden-1037","Justin-Jackson-37895","De'Aaron-Fox-37900","49700","277.2"
"Austin-Rivers-13903","Klay-Thompson-13315","P.J.-Tucker-13947","Draymond-Green-13976","Clint-Capela-18610","James-Harden-1037","Justin-Jackson-37895","De'Aaron-Fox-37900","49500","277.19"
"De'Aaron-Fox-37900","Klay-Thompson-13315","Andre-Iguodala-1334","Nemanja-Bjelica-31814","Clint-Capela-18610","James-Harden-1037","Justin-Jackson-37895","Draymond-Green-13976","50000","277.16"
"Austin-Rivers-13903","Buddy-Hield-35206","Bogdan-Bogdanovic-37899","Draymond-Green-13976","Clint-Capela-18610","Klay-Thompson-13315","Justin-Jackson-37895","James-Harden-1037","49900","277.09"
"Austin-Rivers-13903","Klay-Thompson-13315","Nemanja-Bjelica-31814","Jonas-Jerebko-1106","Clint-Capela-18610","James-Harden-1037","Draymond-Green-13976","Willie-Cauley-Stein-18951","49900","277.08"
"Austin-Rivers-13903","James-Harden-1037","Danuel-House-36029","Draymond-Green-13976","Willie-Cauley-Stein-18951","De'Aaron-Fox-37900","Justin-Jackson-37895","Clint-Capela-18610","50000","276.99"
"Jamal-Murray-35211","James-Harden-1037","Justin-Jackson-37895","Jonas-Jerebko-1106","Clint-Capela-18610","De'Aaron-Fox-37900","Draymond-Green-13976","Danuel-House-36029","49800","276.98"
"Austin-Rivers-13903","James-Harden-1037","Buddy-Hield-35206","Jonas-Jerebko-1106","Draymond-Green-13976","De'Aaron-Fox-37900","Andre-Iguodala-1334","Clint-Capela-18610","49800","276.98"
"Jamal-Murray-35211","James-Harden-1037","Andre-Iguodala-1334","Justin-Jackson-37895","Clint-Capela-18610","De'Aaron-Fox-37900","Iman-Shumpert-13350","Draymond-Green-13976","50000","276.98"
"Austin-Rivers-13903","Klay-Thompson-13315","Andre-Iguodala-1334","Jonas-Jerebko-1106","Clint-Capela-18610","James-Harden-1037","Draymond-Green-13976","De'Aaron-Fox-37900","49600","276.97"
"Jamal-Murray-35211","Klay-Thompson-13315","Nemanja-Bjelica-31814","Draymond-Green-13976","Clint-Capela-18610","James-Harden-1037","Kevon-Looney-18945","Jonas-Jerebko-1106","50000","276.94"
"Jamal-Murray-35211","Klay-Thompson-13315","Buddy-Hield-35206","Draymond-Green-13976","Clint-Capela-18610","James-Ennis-18599","Justin-Jackson-37895","James-Harden-1037","49800","276.9"
"Austin-Rivers-13903","Jamal-Murray-35211","Iman-Shumpert-13350","Jonas-Jerebko-1106","Willie-Cauley-Stein-18951","James-Harden-1037","Draymond-Green-13976","Clint-Capela-18610","49900","276.9"
"Austin-Rivers-13903","James-Harden-1037","Buddy-Hield-35206","Draymond-Green-13976","Clint-Capela-18610","Monte-Morris-37860","Justin-Jackson-37895","De'Aaron-Fox-37900","50000","276.85"
"Austin-Rivers-13903","Klay-Thompson-13315","Andre-Iguodala-1334","Draymond-Green-13976","Clint-Capela-18610","James-Harden-1037","Kevon-Looney-18945","De'Aaron-Fox-37900","49900","276.84"
"Jamal-Murray-35211","Klay-Thompson-13315","P.J.-Tucker-13947","Nemanja-Bjelica-31814","Draymond-Green-13976","James-Harden-1037","Justin-Jackson-37895","Clint-Capela-18610","50000","276.79"
"Austin-Rivers-13903","James-Harden-1037","Justin-Jackson-37895","Jonas-Jerebko-1106","Clint-Capela-18610","De'Aaron-Fox-37900","Draymond-Green-13976","Willie-Cauley-Stein-18951","49300","276.79"
"De'Aaron-Fox-37900","Buddy-Hield-35206","James-Ennis-18599","Jonas-Jerebko-1106","Clint-Capela-18610","James-Harden-1037","Bogdan-Bogdanovic-37899","Draymond-Green-13976","50000","276.78"
"De'Aaron-Fox-37900","Klay-Thompson-13315","James-Ennis-18599","Jonas-Jerebko-1106","Clint-Capela-18610","James-Harden-1037","Bogdan-Bogdanovic-37899","Draymond-Green-13976","49800","276.77"
"Austin-Rivers-13903","James-Harden-1037","Justin-Jackson-37895","Draymond-Green-13976","Clint-Capela-18610","De'Aaron-Fox-37900","Kevon-Looney-18945","Willie-Cauley-Stein-18951","49600","276.66"
"Austin-Rivers-13903","Jamal-Murray-35211","Justin-Jackson-37895","Jonas-Jerebko-1106","Willie-Cauley-Stein-18951","James-Harden-1037","Draymond-Green-13976","De'Aaron-Fox-37900","49700","276.66"
"Jamal-Murray-35211","James-Harden-1037","Justin-Jackson-37895","Jonas-Jerebko-1106","Clint-Capela-18610","De'Aaron-Fox-37900","Draymond-Green-13976","Kevon-Looney-18945","49400","276.65"
"Austin-Rivers-13903","Klay-Thompson-13315","Buddy-Hield-35206","Nemanja-Bjelica-31814","Draymond-Green-13976","James-Harden-1037","Justin-Jackson-37895","De'Aaron-Fox-37900","50000","276.64"
"Austin-Rivers-13903","Buddy-Hield-35206","Gerald-Green-13374","Jonas-Jerebko-1106","Clint-Capela-18610","James-Harden-1037","Draymond-Green-13976","De'Aaron-Fox-37900","49900","276.62"
"Austin-Rivers-13903","Jamal-Murray-35211","Buddy-Hield-35206","Jonas-Jerebko-1106","Draymond-Green-13976","James-Harden-1037","P.J.-Tucker-13947","Clint-Capela-18610","49800","276.61"
"Austin-Rivers-13903","Klay-Thompson-13315","Gerald-Green-13374","Jonas-Jerebko-1106","Clint-Capela-18610","James-Harden-1037","Draymond-Green-13976","De'Aaron-Fox-37900","49700","276.61"
"Austin-Rivers-13903","Klay-Thompson-13315","P.J.-Tucker-13947","Jonas-Jerebko-1106","Clint-Capela-18610","James-Harden-1037","Draymond-Green-13976","Jamal-Murray-35211","49600","276.6"
"Austin-Rivers-13903","James-Harden-1037","Nemanja-Bjelica-31814","Jonas-Jerebko-1106","Clint-Capela-18610","De'Aaron-Fox-37900","Draymond-Green-13976","Paul-Millsap-1335","50000","276.6"
"Austin-Rivers-13903","James-Harden-1037","Buddy-Hield-35206","Justin-Jackson-37895","Draymond-Green-13976","De'Aaron-Fox-37900","Iman-Shumpert-13350","Clint-Capela-18610","49600","276.59"
"Austin-Rivers-13903","Jamal-Murray-35211","Bogdan-Bogdanovic-37899","Jonas-Jerebko-1106","Clint-Capela-18610","James-Harden-1037","Justin-Jackson-37895","De'Aaron-Fox-37900","50000","276.59"
"De'Aaron-Fox-37900","Klay-Thompson-13315","Iman-Shumpert-13350","Draymond-Green-13976","Paul-Millsap-1335","James-Harden-1037","Justin-Jackson-37895","Clint-Capela-18610","50000","276.58"
"Austin-Rivers-13903","Klay-Thompson-13315","Iman-Shumpert-13350","Draymond-Green-13976","Clint-Capela-18610","James-Harden-1037","Justin-Jackson-37895","De'Aaron-Fox-37900","49400","276.58"
"Austin-Rivers-13903","Jamal-Murray-35211","Justin-Jackson-37895","Draymond-Green-13976","Willie-Cauley-Stein-18951","James-Harden-1037","Kevon-Looney-18945","De'Aaron-Fox-37900","50000","276.53"
"Austin-Rivers-13903","Klay-Thompson-13315","Gerald-Green-13374","Draymond-Green-13976","Clint-Capela-18610","James-Harden-1037","Kevon-Looney-18945","De'Aaron-Fox-37900","50000","276.48"
"Austin-Rivers-13903","Klay-Thompson-13315","P.J.-Tucker-13947","Draymond-Green-13976","Clint-Capela-18610","James-Harden-1037","Kevon-Looney-18945","Jamal-Murray-35211","49900","276.47"
"Austin-Rivers-13903","Jamal-Murray-35211","Buddy-Hield-35206","Justin-Jackson-37895","Draymond-Green-13976","James-Harden-1037","Iman-Shumpert-13350","De'Aaron-Fox-37900","50000","276.46"
"James-Harden-1037","Klay-Thompson-13315","Justin-Jackson-37895","Jonas-Jerebko-1106","Clint-Capela-18610","Andre-Iguodala-1334","Draymond-Green-13976","Kevin-Durant-1348","50000","276.46"
"James-Harden-1037","Buddy-Hield-35206","Justin-Jackson-37895","Jonas-Jerebko-1106","Clint-Capela-18610","Klay-Thompson-13315","Draymond-Green-13976","Willie-Cauley-Stein-18951","49600","276.37"
"Austin-Rivers-13903","James-Harden-1037","Andre-Iguodala-1334","Draymond-Green-13976","Willie-Cauley-Stein-18951","De'Aaron-Fox-37900","Justin-Jackson-37895","Clint-Capela-18610","49700","276.29"
"Jamal-Murray-35211","James-Harden-1037","Andre-Iguodala-1334","Jonas-Jerebko-1106","Clint-Capela-18610","De'Aaron-Fox-37900","Justin-Jackson-37895","Draymond-Green-13976","49500","276.28"
"Jamal-Murray-35211","Klay-Thompson-13315","P.J.-Tucker-13947","Jonas-Jerebko-1106","Clint-Capela-18610","James-Harden-1037","Justin-Jackson-37895","De'Aaron-Fox-37900","49900","276.27"
"James-Harden-1037","Buddy-Hield-35206","Justin-Jackson-37895","Draymond-Green-13976","Clint-Capela-18610","Klay-Thompson-13315","Kevon-Looney-18945","Willie-Cauley-Stein-18951","49900","276.24"
"Jamal-Murray-35211","Buddy-Hield-35206","Justin-Jackson-37895","Jonas-Jerebko-1106","Willie-Cauley-Stein-18951","Klay-Thompson-13315","Draymond-Green-13976","James-Harden-1037","50000","276.24"
"Austin-Rivers-13903","Klay-Thompson-13315","Buddy-Hield-35206","Jonas-Jerebko-1106","Draymond-Green-13976","James-Harden-1037","Nemanja-Bjelica-31814","Clint-Capela-18610","49700","276.18"
"Jamal-Murray-35211","Klay-Thompson-13315","Iman-Shumpert-13350","Draymond-Green-13976","Clint-Capela-18610","James-Harden-1037","Nemanja-Bjelica-31814","Justin-Jackson-37895","49900","276.18"
"Jamal-Murray-35211","James-Harden-1037","Andre-Iguodala-1334","Draymond-Green-13976","Clint-Capela-18610","De'Aaron-Fox-37900","Justin-Jackson-37895","Kevon-Looney-18945","49800","276.15"
"Austin-Rivers-13903","Klay-Thompson-13315","James-Ennis-18599","Draymond-Green-13976","Clint-Capela-18610","James-Harden-1037","Juan-Hernangomez-35212","De'Aaron-Fox-37900","50000","276.12"
"Austin-Rivers-13903","James-Harden-1037","P.J.-Tucker-13947","Draymond-Green-13976","Nikola-Jokic-31812","De'Aaron-Fox-37900","Justin-Jackson-37895","Jonas-Jerebko-1106","49900","276.1"
"Austin-Rivers-13903","Klay-Thompson-13315","Andre-Iguodala-1334","Draymond-Green-13976","Clint-Capela-18610","James-Harden-1037","P.J.-Tucker-13947","Jamal-Murray-35211","50000","276.1"
"De'Aaron-Fox-37900","James-Ennis-18599","Bogdan-Bogdanovic-37899","Draymond-Green-13976","Clint-Capela-18610","James-Harden-1037","Justin-Jackson-37895","Willie-Cauley-Stein-18951","49900","276.09"
"Austin-Rivers-13903","James-Harden-1037","Buddy-Hield-35206","Draymond-Green-13976","Clint-Capela-18610","De'Aaron-Fox-37900","Danuel-House-36029","Justin-Jackson-37895","49800","276.09"
"Austin-Rivers-13903","Klay-Thompson-13315","Danuel-House-36029","Draymond-Green-13976","Clint-Capela-18610","James-Harden-1037","Justin-Jackson-37895","De'Aaron-Fox-37900","49600","276.08"
"Austin-Rivers-13903","Buddy-Hield-35206","Nemanja-Bjelica-31814","Draymond-Green-13976","Clint-Capela-18610","Klay-Thompson-13315","Kevon-Looney-18945","James-Harden-1037","50000","276.05"
"Austin-Rivers-13903","Jamal-Murray-35211","Buddy-Hield-35206","Jonas-Jerebko-1106","Clint-Capela-18610","James-Harden-1037","Iman-Shumpert-13350","Draymond-Green-13976","49700","276.0"
"Austin-Rivers-13903","Klay-Thompson-13315","Iman-Shumpert-13350","Jonas-Jerebko-1106","Clint-Capela-18610","James-Harden-1037","Draymond-Green-13976","Jamal-Murray-35211","49500","275.99"
"James-Harden-1037","Buddy-Hield-35206","Justin-Jackson-37895","Jonas-Jerebko-1106","Clint-Capela-18610","James-Ennis-18599","Draymond-Green-13976","Nikola-Jokic-31812","49800","275.94"
"Austin-Rivers-13903","Klay-Thompson-13315","Buddy-Hield-35206","Kevin-Durant-1348","Jonas-Jerebko-1106","James-Harden-1037","Justin-Jackson-37895","Draymond-Green-13976","50000","275.94"
"Austin-Rivers-13903","James-Harden-1037","Gerald-Green-13374","Draymond-Green-13976","Willie-Cauley-Stein-18951","De'Aaron-Fox-37900","Justin-Jackson-37895","Clint-Capela-18610","49800","275.93"
"James-Harden-1037","Klay-Thompson-13315","Justin-Jackson-37895","Jonas-Jerebko-1106","Clint-Capela-18610","James-Ennis-18599","Draymond-Green-13976","Nikola-Jokic-31812","49600","275.93"
"Austin-Rivers-13903","Jamal-Murray-35211","P.J.-Tucker-13947","Draymond-Green-13976","Willie-Cauley-Stein-18951","James-Harden-1037","Justin-Jackson-37895","Clint-Capela-18610","49700","275.92"
"Jamal-Murray-35211","James-Harden-1037","Gerald-Green-13374","Jonas-Jerebko-1106","Clint-Capela-18610","De'Aaron-Fox-37900","Draymond-Green-13976","Justin-Jackson-37895","49600","275.92"
"Austin-Rivers-13903","James-Ennis-18599","Bogdan-Bogdanovic-37899","Draymond-Green-13976","Clint-Capela-18610","James-Harden-1037","Nemanja-Bjelica-31814","De'Aaron-Fox-37900","50000","275.9"
"Austin-Rivers-13903","Buddy-Hield-35206","Justin-Jackson-37895","Jonas-Jerebko-1106","Clint-Capela-18610","James-Harden-1037","Draymond-Green-13976","De'Aaron-Fox-37900","49100","275.89"
"De'Aaron-Fox-37900","Buddy-Hield-35206","Justin-Jackson-37895","Jonas-Jerebko-1106","Clint-Capela-18610","James-Harden-1037","Draymond-Green-13976","Paul-Millsap-1335","49700","275.89"
"De'Aaron-Fox-37900","Klay-Thompson-13315","Justin-Jackson-37895","Jonas-Jerebko-1106","Clint-Capela-18610","James-Harden-1037","Draymond-Green-13976","Paul-Millsap-1335","49500","275.88"
"Austin-Rivers-13903","Klay-Thompson-13315","Justin-Jackson-37895","Jonas-Jerebko-1106","Clint-Capela-18610","James-Harden-1037","Draymond-Green-13976","De'Aaron-Fox-37900","48900","275.88"
"Austin-Rivers-13903","Jamal-Murray-35211","Buddy-Hield-35206","Draymond-Green-13976","Clint-Capela-18610","Iman-Shumpert-13350","Kevon-Looney-18945","James-Harden-1037","50000","275.87"
"James-Harden-1037","Buddy-Hield-35206","Andre-Iguodala-1334","Draymond-Green-13976","Willie-Cauley-Stein-18951","Klay-Thompson-13315","Justin-Jackson-37895","Clint-Capela-18610","50000","275.87"
"Austin-Rivers-13903","Klay-Thompson-13315","Iman-Shumpert-13350","Draymond-Green-13976","Clint-Capela-18610","James-Harden-1037","Kevon-Looney-18945","Jamal-Murray-35211","49800","275.86"
"De'Aaron-Fox-37900","Buddy-Hield-35206","Nemanja-Bjelica-31814","Jonas-Jerebko-1106","Clint-Capela-18610","Klay-Thompson-13315","Justin-Jackson-37895","James-Harden-1037","50000","275.85"
"Austin-Rivers-13903","Klay-Thompson-13315","James-Ennis-18599","Draymond-Green-13976","Clint-Capela-18610","James-Harden-1037","Paul-Millsap-1335","Jamal-Murray-35211","50000","275.83"
"Jamal-Murray-35211","Klay-Thompson-13315","James-Ennis-18599","Jonas-Jerebko-1106","Nikola-Jokic-31812","James-Harden-1037","Justin-Jackson-37895","Draymond-Green-13976","50000","275.8"
"James-Harden-1037","Klay-Thompson-13315","Justin-Jackson-37895","Draymond-Green-13976","Clint-Capela-18610","James-Ennis-18599","Kevon-Looney-18945","Nikola-Jokic-31812","49900","275.8"
"Jamal-Murray-35211","Gerald-Green-13374","Justin-Jackson-37895","Draymond-Green-13976","Clint-Capela-18610","James-Harden-1037","Kevon-Looney-18945","De'Aaron-Fox-37900","49900","275.79"
