"C.J.-McCollum-17121","Klay-Thompson-13315","Tobias-Harris-13332","Danilo-Gallinari-1329","Montrezl-Harrell-18930","Damian-Lillard-13900","E'Twaun-Moore-18582","Darius-Miller-13951","49900","266.67"
"C.J.-McCollum-17121","Avery-Bradley-941","Darius-Miller-13951","Montrezl-Harrell-18930","Nikola-Mirotic-18584","Damian-Lillard-13900","Danilo-Gallinari-1329","Jusuf-Nurkic-18619","49900","266.44"
"C.J.-McCollum-17121","Klay-Thompson-13315","Al-Farouq-Aminu-1279","Montrezl-Harrell-18930","Nikola-Mirotic-18584","Damian-Lillard-13900","Danilo-Gallinari-1329","Darius-Miller-13951","50000","266.2"

"C.J.-McCollum-17121","Klay-Thompson-13315","Tobias-Harris-13332","Danilo-Gallinari-1329","Montrezl-Harrell-18930","Damian-Lillard-13900","E'Twaun-Moore-18582","Darius-Miller-13951","49900","266.67"
"C.J.-McCollum-17121","Avery-Bradley-941","Darius-Miller-13951","Montrezl-Harrell-18930","Nikola-Mirotic-18584","Damian-Lillard-13900","Danilo-Gallinari-1329","Jusuf-Nurkic-18619","49900","266.44"
"C.J.-McCollum-17121","Klay-Thompson-13315","Al-Farouq-Aminu-1279","Montrezl-Harrell-18930","Nikola-Mirotic-18584","Damian-Lillard-13900","Danilo-Gallinari-1329","Darius-Miller-13951","50000","266.2"
"C.J.-McCollum-17121","Shai-Gilgeous-Alexander-408990","Darius-Miller-13951","Montrezl-Harrell-18930","Nikola-Mirotic-18584","Damian-Lillard-13900","Danilo-Gallinari-1329","Jusuf-Nurkic-18619","49900","266.07"
"C.J.-McCollum-17121","E'Twaun-Moore-18582","Darius-Miller-13951","Nikola-Mirotic-18584","Jusuf-Nurkic-18619","Damian-Lillard-13900","Danilo-Gallinari-1329","Draymond-Green-13976","50000","265.97"
"C.J.-McCollum-17121","Avery-Bradley-941","Darius-Miller-13951","Nikola-Mirotic-18584","Jusuf-Nurkic-18619","Damian-Lillard-13900","Danilo-Gallinari-1329","Tobias-Harris-13332","49800","265.92"
"C.J.-McCollum-17121","Klay-Thompson-13315","Tobias-Harris-13332","Danilo-Gallinari-1329","Montrezl-Harrell-18930","Damian-Lillard-13900","E'Twaun-Moore-18582","Meyers-Leonard-13905","49900","265.83"
"C.J.-McCollum-17121","Klay-Thompson-13315","Tobias-Harris-13332","Al-Farouq-Aminu-1279","Nikola-Mirotic-18584","Damian-Lillard-13900","Darius-Miller-13951","Danilo-Gallinari-1329","49900","265.68"
"C.J.-McCollum-17121","Klay-Thompson-13315","Darius-Miller-13951","Danilo-Gallinari-1329","Jusuf-Nurkic-18619","Damian-Lillard-13900","E'Twaun-Moore-18582","Nikola-Mirotic-18584","49700","265.66"
"C.J.-McCollum-17121","Avery-Bradley-941","Danilo-Gallinari-1329","Montrezl-Harrell-18930","Jusuf-Nurkic-18619","Damian-Lillard-13900","Nikola-Mirotic-18584","Meyers-Leonard-13905","49900","265.6"
"C.J.-McCollum-17121","E'Twaun-Moore-18582","Danilo-Gallinari-1329","Nikola-Mirotic-18584","Anthony-Davis-13895","Damian-Lillard-13900","Meyers-Leonard-13905","Darius-Miller-13951","50000","265.55"
"C.J.-McCollum-17121","Shai-Gilgeous-Alexander-408990","Darius-Miller-13951","Nikola-Mirotic-18584","Jusuf-Nurkic-18619","Damian-Lillard-13900","Danilo-Gallinari-1329","Tobias-Harris-13332","49800","265.55"
"C.J.-McCollum-17121","E'Twaun-Moore-18582","Darius-Miller-13951","DeMarcus-Cousins-1490","Jusuf-Nurkic-18619","Damian-Lillard-13900","Danilo-Gallinari-1329","Montrezl-Harrell-18930","49900","265.46"
"C.J.-McCollum-17121","Klay-Thompson-13315","Danilo-Gallinari-1329","Nikola-Mirotic-18584","Jusuf-Nurkic-18619","Damian-Lillard-13900","E'Twaun-Moore-18582","Avery-Bradley-941","49900","265.44"
"C.J.-McCollum-17121","E'Twaun-Moore-18582","Al-Farouq-Aminu-1279","Montrezl-Harrell-18930","Jusuf-Nurkic-18619","Damian-Lillard-13900","Darius-Miller-13951","Danilo-Gallinari-1329","49700","265.39"
"C.J.-McCollum-17121","Klay-Thompson-13315","Al-Farouq-Aminu-1279","Montrezl-Harrell-18930","Nikola-Mirotic-18584","Damian-Lillard-13900","Danilo-Gallinari-1329","Meyers-Leonard-13905","50000","265.36"
"C.J.-McCollum-17121","E'Twaun-Moore-18582","Tobias-Harris-13332","Darius-Miller-13951","Nikola-Mirotic-18584","Damian-Lillard-13900","Danilo-Gallinari-1329","Jrue-Holiday-1073","50000","265.34"
"C.J.-McCollum-17121","Shai-Gilgeous-Alexander-408990","Tobias-Harris-13332","Nikola-Mirotic-18584","Jusuf-Nurkic-18619","Damian-Lillard-13900","Danilo-Gallinari-1329","Avery-Bradley-941","50000","265.33"
"C.J.-McCollum-17121","Shai-Gilgeous-Alexander-408990","Danilo-Gallinari-1329","Montrezl-Harrell-18930","Jusuf-Nurkic-18619","Damian-Lillard-13900","Nikola-Mirotic-18584","Meyers-Leonard-13905","49900","265.23"
"C.J.-McCollum-17121","Avery-Bradley-941","Danilo-Gallinari-1329","Montrezl-Harrell-18930","Jusuf-Nurkic-18619","Damian-Lillard-13900","E'Twaun-Moore-18582","Al-Farouq-Aminu-1279","49900","265.17"
"C.J.-McCollum-17121","E'Twaun-Moore-18582","Danilo-Gallinari-1329","Draymond-Green-13976","Jusuf-Nurkic-18619","Damian-Lillard-13900","Nikola-Mirotic-18584","Meyers-Leonard-13905","50000","265.13"
"C.J.-McCollum-17121","Avery-Bradley-941","Tobias-Harris-13332","Nikola-Mirotic-18584","Jusuf-Nurkic-18619","Damian-Lillard-13900","Meyers-Leonard-13905","Danilo-Gallinari-1329","49800","265.08"
"C.J.-McCollum-17121","Shai-Gilgeous-Alexander-408990","Danilo-Gallinari-1329","Nikola-Mirotic-18584","Jusuf-Nurkic-18619","Damian-Lillard-13900","E'Twaun-Moore-18582","Klay-Thompson-13315","49900","265.07"
