"Trey-Burke-17029","Bradley-Beal-13898","Bogdan-Bogdanovic-37899","Jayson-Tatum-37782","Nikola-Jokic-31812","Kyle-Anderson-18615","Justin-Holiday-14559","Marvin-Bagley-III-409321","49900","277.55"

"Trey-Burke-17029","Bradley-Beal-13898","Bogdan-Bogdanovic-37899","Jayson-Tatum-37782","Nikola-Jokic-31812","Kyle-Anderson-18615","Justin-Holiday-14559","Marvin-Bagley-III-409321","49900","277.55"
"Trey-Burke-17029","Bradley-Beal-13898","Bogdan-Bogdanovic-37899","Marvin-Bagley-III-409321","Nikola-Jokic-31812","Kyle-Anderson-18615","Justin-Holiday-14559","Noah-Vonleh-18597","50000","277.5"
"Trey-Burke-17029","Bogdan-Bogdanovic-37899","Jayson-Tatum-37782","Lauri-Markkanen-37809","Nikola-Jokic-31812","Justin-Holiday-14559","Marvin-Bagley-III-409321","Jahlil-Okafor-18902","50000","277.46"
"Trey-Burke-17029","Bogdan-Bogdanovic-37899","Darius-Miller-13951","Marvin-Bagley-III-409321","Jahlil-Okafor-18902","Bradley-Beal-13898","Justin-Holiday-14559","Nikola-Jokic-31812","50000","277.11"
"Trey-Burke-17029","Bogdan-Bogdanovic-37899","Jayson-Tatum-37782","Domantas-Sabonis-35217","Nikola-Jokic-31812","Kyle-Anderson-18615","Lauri-Markkanen-37809","Marvin-Bagley-III-409321","49900","277.03"
"Trey-Burke-17029","Bogdan-Bogdanovic-37899","Darius-Miller-13951","Domantas-Sabonis-35217","Nikola-Jokic-31812","Bradley-Beal-13898","Kyle-Anderson-18615","Marvin-Bagley-III-409321","49900","276.68"
"Trey-Burke-17029","Bogdan-Bogdanovic-37899","Jayson-Tatum-37782","Domantas-Sabonis-35217","Jahlil-Okafor-18902","Kyle-Anderson-18615","Marvin-Bagley-III-409321","Nikola-Jokic-31812","49800","276.61"
"Darren-Collison-1060","Justin-Holiday-14559","Bogdan-Bogdanovic-37899","Domantas-Sabonis-35217","Jahlil-Okafor-18902","Trey-Burke-17029","Marvin-Bagley-III-409321","Nikola-Jokic-31812","50000","276.59"
"Trey-Burke-17029","Bogdan-Bogdanovic-37899","Justin-Holiday-14559","Otto-Porter-17069","Nikola-Jokic-31812","Bradley-Beal-13898","Kyle-Anderson-18615","Marvin-Bagley-III-409321","49800","276.45"
"Trey-Burke-17029","Josh-Richardson-18922","Kyle-Anderson-18615","Jayson-Tatum-37782","Nikola-Jokic-31812","Bogdan-Bogdanovic-37899","Marvin-Bagley-III-409321","Lauri-Markkanen-37809","49900","276.42"
"Trey-Burke-17029","Bogdan-Bogdanovic-37899","Josh-Richardson-18922","Noah-Vonleh-18597","Marvin-Bagley-III-409321","Kyle-Anderson-18615","Lauri-Markkanen-37809","Nikola-Jokic-31812","50000","276.37"
"Trey-Burke-17029","Bogdan-Bogdanovic-37899","Otto-Porter-17069","Lauri-Markkanen-37809","Nikola-Jokic-31812","Justin-Holiday-14559","Marvin-Bagley-III-409321","Jahlil-Okafor-18902","49900","276.36"
"Terry-Rozier-18894","Bogdan-Bogdanovic-37899","Justin-Holiday-14559","Domantas-Sabonis-35217","Nikola-Jokic-31812","Trey-Burke-17029","Marvin-Bagley-III-409321","Lauri-Markkanen-37809","50000","276.21"
"Tyler-Johnson-18720","Trey-Burke-17029","Bogdan-Bogdanovic-37899","Jayson-Tatum-37782","Nikola-Jokic-31812","Bradley-Beal-13898","Justin-Holiday-14559","Marvin-Bagley-III-409321","49900","276.2"
"Tyler-Johnson-18720","Trey-Burke-17029","Bogdan-Bogdanovic-37899","Marvin-Bagley-III-409321","Nikola-Jokic-31812","Bradley-Beal-13898","Justin-Holiday-14559","Noah-Vonleh-18597","50000","276.15"
"Terry-Rozier-18894","Bogdan-Bogdanovic-37899","Justin-Holiday-14559","Lauri-Markkanen-37809","Jahlil-Okafor-18902","Kyle-Anderson-18615","Marvin-Bagley-III-409321","Nikola-Jokic-31812","50000","276.12"
"Tyler-Johnson-18720","Trey-Burke-17029","Bogdan-Bogdanovic-37899","Otto-Porter-17069","Nikola-Jokic-31812","Bradley-Beal-13898","Marvin-Bagley-III-409321","Kyle-Anderson-18615","50000","276.08"
"Trey-Burke-17029","Bradley-Beal-13898","Josh-Richardson-18922","Darius-Miller-13951","Nikola-Jokic-31812","Kyle-Anderson-18615","Bogdan-Bogdanovic-37899","Marvin-Bagley-III-409321","49900","276.07"
"Kyle-Anderson-18615","Bogdan-Bogdanovic-37899","Josh-Richardson-18922","Domantas-Sabonis-35217","Nikola-Jokic-31812","Justin-Holiday-14559","Marvin-Bagley-III-409321","Lauri-Markkanen-37809","49900","276.06"
"Trey-Burke-17029","Bogdan-Bogdanovic-37899","Jayson-Tatum-37782","Domantas-Sabonis-35217","Nikola-Jokic-31812","Justin-Holiday-14559","Lauri-Markkanen-37809","Marvin-Bagley-III-409321","49700","276.05"
"Kyle-Anderson-18615","Bogdan-Bogdanovic-37899","Darius-Miller-13951","Lauri-Markkanen-37809","Nikola-Jokic-31812","Justin-Holiday-14559","Marvin-Bagley-III-409321","Bradley-Beal-13898","49800","276.03"
"Trey-Burke-17029","Tim-Hardaway-Jr.-16879","Bogdan-Bogdanovic-37899","Domantas-Sabonis-35217","Jahlil-Okafor-18902","Kyle-Anderson-18615","Marvin-Bagley-III-409321","Nikola-Jokic-31812","50000","276.01"
"Trey-Burke-17029","Josh-Richardson-18922","Kyle-Anderson-18615","Jayson-Tatum-37782","Nikola-Jokic-31812","Bogdan-Bogdanovic-37899","Marvin-Bagley-III-409321","Jahlil-Okafor-18902","49800","276.0"
"Darren-Collison-1060","Josh-Richardson-18922","Bogdan-Bogdanovic-37899","Marvin-Bagley-III-409321","Nikola-Jokic-31812","Trey-Burke-17029","Justin-Holiday-14559","Jahlil-Okafor-18902","50000","275.98"
"Trey-Burke-17029","Josh-Richardson-18922","Darius-Miller-13951","Lauri-Markkanen-37809","Nikola-Jokic-31812","Bogdan-Bogdanovic-37899","Marvin-Bagley-III-409321","Jahlil-Okafor-18902","50000","275.98"
"Kyle-Anderson-18615","Bogdan-Bogdanovic-37899","Jayson-Tatum-37782","Lauri-Markkanen-37809","Nikola-Jokic-31812","Justin-Holiday-14559","Marvin-Bagley-III-409321","Jahlil-Okafor-18902","49700","275.96"
"Trey-Burke-17029","Bogdan-Bogdanovic-37899","Josh-Richardson-18922","Noah-Vonleh-18597","Nikola-Jokic-31812","Kyle-Anderson-18615","Marvin-Bagley-III-409321","Jahlil-Okafor-18902","49900","275.95"
"Trey-Burke-17029","Bogdan-Bogdanovic-37899","Otto-Porter-17069","Domantas-Sabonis-35217","Nikola-Jokic-31812","Kyle-Anderson-18615","Lauri-Markkanen-37809","Marvin-Bagley-III-409321","49800","275.93"
"Trey-Burke-17029","Justin-Holiday-14559","Darius-Miller-13951","Jayson-Tatum-37782","Nikola-Jokic-31812","Bradley-Beal-13898","Marvin-Bagley-III-409321","Domantas-Sabonis-35217","50000","275.89"
"Darren-Collison-1060","Bogdan-Bogdanovic-37899","Kyle-Anderson-18615","Jayson-Tatum-37782","Nikola-Jokic-31812","Trey-Burke-17029","Marvin-Bagley-III-409321","Lauri-Markkanen-37809","49800","275.87"
"Trey-Burke-17029","Bogdan-Bogdanovic-37899","Jabari-Parker-18593","Marvin-Bagley-III-409321","Nikola-Jokic-31812","Bradley-Beal-13898","Justin-Holiday-14559","Domantas-Sabonis-35217","50000","275.83"
"Darren-Collison-1060","Bogdan-Bogdanovic-37899","Kyle-Anderson-18615","Noah-Vonleh-18597","Nikola-Jokic-31812","Trey-Burke-17029","Marvin-Bagley-III-409321","Lauri-Markkanen-37809","49900","275.82"
"Kyle-Anderson-18615","Justin-Holiday-14559","Darius-Miller-13951","Jayson-Tatum-37782","Nikola-Jokic-31812","Bradley-Beal-13898","Marvin-Bagley-III-409321","Jahlil-Okafor-18902","50000","275.8"
"Terry-Rozier-18894","Justin-Holiday-14559","Bogdan-Bogdanovic-37899","Domantas-Sabonis-35217","Jahlil-Okafor-18902","Trey-Burke-17029","Marvin-Bagley-III-409321","Nikola-Jokic-31812","49900","275.79"
"Kyle-Anderson-18615","Bogdan-Bogdanovic-37899","Jabari-Parker-18593","Marvin-Bagley-III-409321","Nikola-Jokic-31812","Bradley-Beal-13898","Justin-Holiday-14559","Jahlil-Okafor-18902","50000","275.74"
"Trey-Burke-17029","Bogdan-Bogdanovic-37899","Darius-Miller-13951","Domantas-Sabonis-35217","Nikola-Jokic-31812","Justin-Holiday-14559","Marvin-Bagley-III-409321","Bradley-Beal-13898","49700","275.7"
"Tyler-Johnson-18720","Bogdan-Bogdanovic-37899","Jayson-Tatum-37782","Domantas-Sabonis-35217","Nikola-Jokic-31812","Trey-Burke-17029","Lauri-Markkanen-37809","Marvin-Bagley-III-409321","49900","275.68"
"Tyler-Johnson-18720","Bradley-Beal-13898","Bogdan-Bogdanovic-37899","Marvin-Bagley-III-409321","Nikola-Jokic-31812","Darren-Collison-1060","Justin-Holiday-14559","Kyle-Anderson-18615","50000","275.66"
"Trey-Burke-17029","Bogdan-Bogdanovic-37899","Jayson-Tatum-37782","Domantas-Sabonis-35217","Jahlil-Okafor-18902","Jaylen-Brown-35181","Marvin-Bagley-III-409321","Nikola-Jokic-31812","50000","275.66"
"Tyler-Johnson-18720","Bogdan-Bogdanovic-37899","Darius-Miller-13951","Lauri-Markkanen-37809","Nikola-Jokic-31812","Bradley-Beal-13898","Marvin-Bagley-III-409321","Kyle-Anderson-18615","50000","275.66"
"Kyle-Anderson-18615","Bogdan-Bogdanovic-37899","Josh-Richardson-18922","Domantas-Sabonis-35217","Jahlil-Okafor-18902","Justin-Holiday-14559","Marvin-Bagley-III-409321","Nikola-Jokic-31812","49800","275.64"
"Trey-Burke-17029","Bradley-Beal-13898","Bogdan-Bogdanovic-37899","Otto-Porter-17069","Nikola-Jokic-31812","Tim-Frazier-18743","Marvin-Bagley-III-409321","Jayson-Tatum-37782","50000","275.64"
"Trey-Burke-17029","Bogdan-Bogdanovic-37899","Jayson-Tatum-37782","Domantas-Sabonis-35217","Jahlil-Okafor-18902","Justin-Holiday-14559","Marvin-Bagley-III-409321","Nikola-Jokic-31812","49600","275.63"
"Kyle-Anderson-18615","Bogdan-Bogdanovic-37899","Darius-Miller-13951","Marvin-Bagley-III-409321","Jahlil-Okafor-18902","Bradley-Beal-13898","Justin-Holiday-14559","Nikola-Jokic-31812","49700","275.61"
"Terry-Rozier-18894","Trey-Burke-17029","Bogdan-Bogdanovic-37899","Marvin-Bagley-III-409321","Nikola-Jokic-31812","Darren-Collison-1060","Kyle-Anderson-18615","Jahlil-Okafor-18902","50000","275.61"
"Terry-Rozier-18894","Josh-Richardson-18922","Bogdan-Bogdanovic-37899","Marvin-Bagley-III-409321","Nikola-Jokic-31812","Trey-Burke-17029","Justin-Holiday-14559","Lauri-Markkanen-37809","50000","275.6"
"Tyler-Johnson-18720","Bogdan-Bogdanovic-37899","Jayson-Tatum-37782","Lauri-Markkanen-37809","Nikola-Jokic-31812","Kyle-Anderson-18615","Marvin-Bagley-III-409321","Jahlil-Okafor-18902","49900","275.59"
"Darren-Collison-1060","Bogdan-Bogdanovic-37899","Josh-Richardson-18922","Domantas-Sabonis-35217","Nikola-Jokic-31812","Trey-Burke-17029","Marvin-Bagley-III-409321","Kyle-Anderson-18615","49900","275.55"
"Darren-Collison-1060","Trey-Burke-17029","Bogdan-Bogdanovic-37899","Darius-Miller-13951","Nikola-Jokic-31812","Bradley-Beal-13898","Kyle-Anderson-18615","Marvin-Bagley-III-409321","49800","275.52"
"Darren-Collison-1060","Bogdan-Bogdanovic-37899","Justin-Holiday-14559","Domantas-Sabonis-35217","Nikola-Jokic-31812","Kyle-Anderson-18615","Marvin-Bagley-III-409321","Lauri-Markkanen-37809","49800","275.51"
"Trey-Burke-17029","Bogdan-Bogdanovic-37899","Otto-Porter-17069","Domantas-Sabonis-35217","Jahlil-Okafor-18902","Kyle-Anderson-18615","Marvin-Bagley-III-409321","Nikola-Jokic-31812","49700","275.51"
"Trey-Burke-17029","Bogdan-Bogdanovic-37899","Jayson-Tatum-37782","Lauri-Markkanen-37809","Nikola-Jokic-31812","Kyle-Anderson-18615","Marvin-Bagley-III-409321","Willie-Cauley-Stein-18951","49800","275.5"
"Trey-Burke-17029","Bogdan-Bogdanovic-37899","Justin-Holiday-14559","Otto-Porter-17069","Nikola-Jokic-31812","Jaylen-Brown-35181","Marvin-Bagley-III-409321","Bradley-Beal-13898","50000","275.5"
"Trey-Burke-17029","Bogdan-Bogdanovic-37899","Jayson-Tatum-37782","Domantas-Sabonis-35217","Nikola-Jokic-31812","Justin-Holiday-14559","Lauri-Markkanen-37809","Otto-Porter-17069","50000","275.48"
"Darren-Collison-1060","Bogdan-Bogdanovic-37899","Justin-Holiday-14559","Lauri-Markkanen-37809","Nikola-Jokic-31812","Trey-Burke-17029","Marvin-Bagley-III-409321","Willie-Cauley-Stein-18951","50000","275.48"
"Trey-Burke-17029","Josh-Okogie-409174","Bogdan-Bogdanovic-37899","Marvin-Bagley-III-409321","Nikola-Jokic-31812","Bradley-Beal-13898","Justin-Holiday-14559","Domantas-Sabonis-35217","50000","275.48"
"Trey-Burke-17029","Bogdan-Bogdanovic-37899","Tim-Hardaway-Jr.-16879","Lauri-Markkanen-37809","Nikola-Jokic-31812","Justin-Holiday-14559","Marvin-Bagley-III-409321","Domantas-Sabonis-35217","49900","275.45"
"Darren-Collison-1060","Bogdan-Bogdanovic-37899","Kyle-Anderson-18615","Jayson-Tatum-37782","Nikola-Jokic-31812","Trey-Burke-17029","Marvin-Bagley-III-409321","Jahlil-Okafor-18902","49700","275.45"
"Trey-Burke-17029","Josh-Richardson-18922","Justin-Holiday-14559","Lauri-Markkanen-37809","Nikola-Jokic-31812","Bogdan-Bogdanovic-37899","Jayson-Tatum-37782","Marvin-Bagley-III-409321","49700","275.44"
"Darren-Collison-1060","Bogdan-Bogdanovic-37899","Darius-Miller-13951","Lauri-Markkanen-37809","Nikola-Jokic-31812","Trey-Burke-17029","Marvin-Bagley-III-409321","Jahlil-Okafor-18902","49900","275.43"
"Darren-Collison-1060","Bogdan-Bogdanovic-37899","Kyle-Anderson-18615","Noah-Vonleh-18597","Nikola-Jokic-31812","Trey-Burke-17029","Marvin-Bagley-III-409321","Jahlil-Okafor-18902","49800","275.4"
"Trey-Burke-17029","Tim-Hardaway-Jr.-16879","Josh-Richardson-18922","Marvin-Bagley-III-409321","Jahlil-Okafor-18902","Bogdan-Bogdanovic-37899","Kyle-Anderson-18615","Nikola-Jokic-31812","50000","275.4"
"Kyle-Anderson-18615","Bogdan-Bogdanovic-37899","Otto-Porter-17069","Lauri-Markkanen-37809","Nikola-Jokic-31812","Justin-Holiday-14559","Jayson-Tatum-37782","Jahlil-Okafor-18902","50000","275.39"
"Kyle-Anderson-18615","Josh-Okogie-409174","Bogdan-Bogdanovic-37899","Marvin-Bagley-III-409321","Nikola-Jokic-31812","Bradley-Beal-13898","Justin-Holiday-14559","Jahlil-Okafor-18902","50000","275.39"
"Trey-Burke-17029","Bogdan-Bogdanovic-37899","Josh-Richardson-18922","Noah-Vonleh-18597","Marvin-Bagley-III-409321","Justin-Holiday-14559","Lauri-Markkanen-37809","Nikola-Jokic-31812","49800","275.39"
"Trey-Burke-17029","Bradley-Beal-13898","Kyle-Anderson-18615","Jayson-Tatum-37782","Nikola-Jokic-31812","Tim-Frazier-18743","Marvin-Bagley-III-409321","Lauri-Markkanen-37809","50000","275.38"
"Kyle-Anderson-18615","Bogdan-Bogdanovic-37899","Tim-Hardaway-Jr.-16879","Lauri-Markkanen-37809","Nikola-Jokic-31812","Justin-Holiday-14559","Marvin-Bagley-III-409321","Jahlil-Okafor-18902","49900","275.36"
"Trey-Burke-17029","Dion-Waiters-13897","Bogdan-Bogdanovic-37899","Jayson-Tatum-37782","Marvin-Bagley-III-409321","Bradley-Beal-13898","Kyle-Anderson-18615","Nikola-Jokic-31812","49800","275.33"
"Tyler-Johnson-18720","Bogdan-Bogdanovic-37899","Darius-Miller-13951","Domantas-Sabonis-35217","Nikola-Jokic-31812","Trey-Burke-17029","Marvin-Bagley-III-409321","Bradley-Beal-13898","49900","275.33"
"Kyle-Anderson-18615","Josh-Richardson-18922","Jayson-Tatum-37782","Noah-Vonleh-18597","Nikola-Jokic-31812","Bogdan-Bogdanovic-37899","Marvin-Bagley-III-409321","Otto-Porter-17069","50000","275.32"
"Trey-Burke-17029","Bogdan-Bogdanovic-37899","Josh-Richardson-18922","Lauri-Markkanen-37809","Marvin-Bagley-III-409321","Kyle-Anderson-18615","Otto-Porter-17069","Nikola-Jokic-31812","49800","275.32"
"Trey-Burke-17029","Dion-Waiters-13897","Darius-Miller-13951","Lauri-Markkanen-37809","Nikola-Jokic-31812","Bogdan-Bogdanovic-37899","Marvin-Bagley-III-409321","Bradley-Beal-13898","50000","275.31"
"Darren-Collison-1060","Bogdan-Bogdanovic-37899","Dion-Waiters-13897","Marvin-Bagley-III-409321","Nikola-Jokic-31812","Trey-Burke-17029","Justin-Holiday-14559","Bradley-Beal-13898","50000","275.31"
"Trey-Burke-17029","Bradley-Beal-13898","Bogdan-Bogdanovic-37899","Jayson-Tatum-37782","Jahlil-Okafor-18902","Tim-Frazier-18743","Kyle-Anderson-18615","Nikola-Jokic-31812","50000","275.3"
"Tyler-Johnson-18720","Bradley-Beal-13898","Bogdan-Bogdanovic-37899","Marvin-Bagley-III-409321","Nikola-Jokic-31812","Kyle-Anderson-18615","Justin-Holiday-14559","Willie-Cauley-Stein-18951","50000","275.29"
"Darren-Collison-1060","Justin-Holiday-14559","Jayson-Tatum-37782","Domantas-Sabonis-35217","Jahlil-Okafor-18902","Kyle-Anderson-18615","Marvin-Bagley-III-409321","Nikola-Jokic-31812","50000","275.28"
"Trey-Burke-17029","Josh-Richardson-18922","Darius-Miller-13951","Jayson-Tatum-37782","Nikola-Jokic-31812","Bradley-Beal-13898","Justin-Holiday-14559","Marvin-Bagley-III-409321","50000","275.28"
"Trey-Burke-17029","Dion-Waiters-13897","Kyle-Anderson-18615","Noah-Vonleh-18597","Nikola-Jokic-31812","Bogdan-Bogdanovic-37899","Marvin-Bagley-III-409321","Bradley-Beal-13898","49900","275.28"
"Tim-Frazier-18743","Bogdan-Bogdanovic-37899","Justin-Holiday-14559","Otto-Porter-17069","Nikola-Jokic-31812","Bradley-Beal-13898","Marvin-Bagley-III-409321","Domantas-Sabonis-35217","50000","275.28"
"Tyler-Johnson-18720","Bogdan-Bogdanovic-37899","Josh-Richardson-18922","Domantas-Sabonis-35217","Jahlil-Okafor-18902","Kyle-Anderson-18615","Marvin-Bagley-III-409321","Nikola-Jokic-31812","50000","275.27"
"Darren-Collison-1060","Bogdan-Bogdanovic-37899","Tim-Hardaway-Jr.-16879","Lauri-Markkanen-37809","Nikola-Jokic-31812","Trey-Burke-17029","Marvin-Bagley-III-409321","Kyle-Anderson-18615","50000","275.27"
"Tyler-Johnson-18720","Bogdan-Bogdanovic-37899","Jayson-Tatum-37782","Domantas-Sabonis-35217","Jahlil-Okafor-18902","Trey-Burke-17029","Marvin-Bagley-III-409321","Nikola-Jokic-31812","49800","275.26"
"Trey-Burke-17029","Justin-Holiday-14559","Kyle-Anderson-18615","Lauri-Markkanen-37809","Nikola-Jokic-31812","Bradley-Beal-13898","Jaylen-Brown-35181","Marvin-Bagley-III-409321","50000","275.24"
"Tyler-Johnson-18720","Bogdan-Bogdanovic-37899","Darius-Miller-13951","Marvin-Bagley-III-409321","Nikola-Jokic-31812","Bradley-Beal-13898","Kyle-Anderson-18615","Jahlil-Okafor-18902","49900","275.24"
"Trey-Burke-17029","Dion-Waiters-13897","Jayson-Tatum-37782","Lauri-Markkanen-37809","Nikola-Jokic-31812","Bogdan-Bogdanovic-37899","Marvin-Bagley-III-409321","Jahlil-Okafor-18902","49900","275.24"
"Tim-Frazier-18743","Bogdan-Bogdanovic-37899","Darius-Miller-13951","Lauri-Markkanen-37809","Nikola-Jokic-31812","Bradley-Beal-13898","Marvin-Bagley-III-409321","Jayson-Tatum-37782","50000","275.22"
"Trey-Burke-17029","Josh-Richardson-18922","Bogdan-Bogdanovic-37899","Marvin-Bagley-III-409321","Nikola-Jokic-31812","Bradley-Beal-13898","Justin-Holiday-14559","Jabari-Parker-18593","50000","275.22"
"Darren-Collison-1060","Bradley-Beal-13898","Bogdan-Bogdanovic-37899","Jayson-Tatum-37782","Nikola-Jokic-31812","Tim-Frazier-18743","Justin-Holiday-14559","Marvin-Bagley-III-409321","50000","275.22"
"Kyle-Anderson-18615","Bradley-Beal-13898","Bogdan-Bogdanovic-37899","Noah-Vonleh-18597","Marvin-Bagley-III-409321","Tim-Frazier-18743","Jayson-Tatum-37782","Nikola-Jokic-31812","49900","275.19"
"Trey-Burke-17029","Bradley-Beal-13898","Bogdan-Bogdanovic-37899","Lauri-Markkanen-37809","Nikola-Jokic-31812","Tim-Frazier-18743","Kyle-Anderson-18615","Marvin-Bagley-III-409321","49700","275.19"
"Terry-Rozier-18894","Josh-Richardson-18922","Bogdan-Bogdanovic-37899","Marvin-Bagley-III-409321","Nikola-Jokic-31812","Trey-Burke-17029","Justin-Holiday-14559","Jahlil-Okafor-18902","49900","275.18"
"Trey-Burke-17029","Bogdan-Bogdanovic-37899","Josh-Richardson-18922","Domantas-Sabonis-35217","Nikola-Jokic-31812","Kyle-Anderson-18615","Marvin-Bagley-III-409321","Willie-Cauley-Stein-18951","49900","275.18"
"Tyler-Johnson-18720","Justin-Holiday-14559","Bogdan-Bogdanovic-37899","Lauri-Markkanen-37809","Nikola-Jokic-31812","Trey-Burke-17029","Kyle-Anderson-18615","Bradley-Beal-13898","49900","275.18"
"Terry-Rozier-18894","Bogdan-Bogdanovic-37899","Otto-Porter-17069","Domantas-Sabonis-35217","Nikola-Jokic-31812","Justin-Holiday-14559","Jayson-Tatum-37782","Marvin-Bagley-III-409321","50000","275.16"
"Trey-Burke-17029","Josh-Richardson-18922","Jayson-Tatum-37782","Noah-Vonleh-18597","Jahlil-Okafor-18902","Justin-Holiday-14559","Marvin-Bagley-III-409321","Nikola-Jokic-31812","50000","275.16"
"Trey-Burke-17029","Bogdan-Bogdanovic-37899","Darius-Miller-13951","Marvin-Bagley-III-409321","Nikola-Jokic-31812","Bradley-Beal-13898","Kyle-Anderson-18615","Willie-Cauley-Stein-18951","49800","275.15"
"Tyler-Johnson-18720","Bogdan-Bogdanovic-37899","Kyle-Anderson-18615","Lauri-Markkanen-37809","Nikola-Jokic-31812","Darren-Collison-1060","Marvin-Bagley-III-409321","Domantas-Sabonis-35217","50000","275.14"
"Trey-Burke-17029","Bogdan-Bogdanovic-37899","Darius-Miller-13951","Otto-Porter-17069","Nikola-Jokic-31812","Bradley-Beal-13898","Justin-Holiday-14559","Domantas-Sabonis-35217","50000","275.13"
"Kyle-Anderson-18615","Justin-Holiday-14559","Darius-Miller-13951","Lauri-Markkanen-37809","Nikola-Jokic-31812","Bradley-Beal-13898","Marvin-Bagley-III-409321","Otto-Porter-17069","50000","275.12"
"Kyle-Anderson-18615","Bradley-Beal-13898","Bogdan-Bogdanovic-37899","Jayson-Tatum-37782","Nikola-Jokic-31812","Jaylen-Brown-35181","Justin-Holiday-14559","Marvin-Bagley-III-409321","49800","275.1"
