"Lance-Stephenson-947","Klay-Thompson-13315","Joe-Ingles-18627","Kevin-Durant-1348","Draymond-Green-13976","Damian-Lillard-13900","Kentavious-Caldwell-Pope-16869","Josh-Hart-37889","50000","268.58"
"Lance-Stephenson-947","Joe-Ingles-18627","Kevin-Durant-1348","DeMarcus-Cousins-1490","Draymond-Green-13976","Klay-Thompson-13315","Maurice-Harkless-16971","Damian-Lillard-13900","49900","267.59"
"Lance-Stephenson-947","Klay-Thompson-13315","Kentavious-Caldwell-Pope-16869","Kevin-Durant-1348","Jusuf-Nurkic-18619","Damian-Lillard-13900","Maurice-Harkless-16971","Josh-Hart-37889","49900","267.5"
"Lance-Stephenson-947","Klay-Thompson-13315","Kentavious-Caldwell-Pope-16869","DeMarcus-Cousins-1490","Draymond-Green-13976","Josh-Hart-37889","Kevin-Durant-1348","Jusuf-Nurkic-18619","49800","267.48"

"Lance-Stephenson-947","Klay-Thompson-13315","Joe-Ingles-18627","Kevin-Durant-1348","Draymond-Green-13976","Damian-Lillard-13900","Kentavious-Caldwell-Pope-16869","Josh-Hart-37889","50000","268.58"
"Lance-Stephenson-947","Joe-Ingles-18627","Kevin-Durant-1348","DeMarcus-Cousins-1490","Draymond-Green-13976","Klay-Thompson-13315","Maurice-Harkless-16971","Damian-Lillard-13900","49900","267.59"
"Lance-Stephenson-947","Klay-Thompson-13315","Kentavious-Caldwell-Pope-16869","Kevin-Durant-1348","Jusuf-Nurkic-18619","Damian-Lillard-13900","Maurice-Harkless-16971","Josh-Hart-37889","49900","267.5"
"Lance-Stephenson-947","Klay-Thompson-13315","Kentavious-Caldwell-Pope-16869","DeMarcus-Cousins-1490","Draymond-Green-13976","Josh-Hart-37889","Kevin-Durant-1348","Jusuf-Nurkic-18619","49800","267.48"
"Lance-Stephenson-947","Klay-Thompson-13315","Joe-Ingles-18627","Kevin-Durant-1348","DeMarcus-Cousins-1490","Damian-Lillard-13900","Kyle-Korver-1269","Draymond-Green-13976","50000","266.78"
"Lance-Stephenson-947","Klay-Thompson-13315","Joe-Ingles-18627","Kevin-Durant-1348","Draymond-Green-13976","Josh-Hart-37889","Kentavious-Caldwell-Pope-16869","Jusuf-Nurkic-18619","49600","266.77"
"Lance-Stephenson-947","Klay-Thompson-13315","Kyle-Korver-1269","Kevin-Durant-1348","Jusuf-Nurkic-18619","Damian-Lillard-13900","Kentavious-Caldwell-Pope-16869","Josh-Hart-37889","50000","266.69"
"Lance-Stephenson-947","Joe-Ingles-18627","Brandon-Ingram-35227","Kevin-Durant-1348","Jusuf-Nurkic-18619","Klay-Thompson-13315","Kentavious-Caldwell-Pope-16869","Josh-Hart-37889","50000","266.55"
"Lance-Stephenson-947","Klay-Thompson-13315","Jae-Crowder-13942","Kevin-Durant-1348","Jusuf-Nurkic-18619","Damian-Lillard-13900","Maurice-Harkless-16971","Josh-Hart-37889","50000","266.41"
"Lance-Stephenson-947","Klay-Thompson-13315","Joe-Ingles-18627","Kevin-Durant-1348","Draymond-Green-13976","Damian-Lillard-13900","Kentavious-Caldwell-Pope-16869","Derrick-Favors-1266","49900","266.41"
"Lance-Stephenson-947","Klay-Thompson-13315","Jae-Crowder-13942","Kevin-Durant-1348","Jusuf-Nurkic-18619","Josh-Hart-37889","Draymond-Green-13976","DeMarcus-Cousins-1490","49900","266.39"
"Damian-Lillard-13900","Klay-Thompson-13315","Joe-Ingles-18627","Kevin-Durant-1348","Draymond-Green-13976","Josh-Hart-37889","Kentavious-Caldwell-Pope-16869","Maurice-Harkless-16971","50000","266.39"
"Lance-Stephenson-947","Klay-Thompson-13315","Joe-Ingles-18627","DeMarcus-Cousins-1490","Jusuf-Nurkic-18619","C.J.-McCollum-17121","Kentavious-Caldwell-Pope-16869","Kevin-Durant-1348","49700","266.34"
"Lance-Stephenson-947","Joe-Ingles-18627","Kevin-Durant-1348","Meyers-Leonard-13905","Jusuf-Nurkic-18619","Klay-Thompson-13315","Derrick-Favors-1266","Damian-Lillard-13900","50000","266.32"
"Josh-Hart-37889","Joe-Ingles-18627","Kevin-Durant-1348","DeMarcus-Cousins-1490","Jusuf-Nurkic-18619","Klay-Thompson-13315","Draymond-Green-13976","Meyers-Leonard-13905","50000","266.28"
"Lance-Stephenson-947","Klay-Thompson-13315","Kentavious-Caldwell-Pope-16869","Meyers-Leonard-13905","Jusuf-Nurkic-18619","Damian-Lillard-13900","DeMarcus-Cousins-1490","Kevin-Durant-1348","49700","266.26"
"Lance-Stephenson-947","Klay-Thompson-13315","Joe-Ingles-18627","Kevin-Durant-1348","Jusuf-Nurkic-18619","C.J.-McCollum-17121","Maurice-Harkless-16971","Draymond-Green-13976","49900","266.23"
"Lance-Stephenson-947","Klay-Thompson-13315","Joe-Ingles-18627","Kevin-Durant-1348","Draymond-Green-13976","Damian-Lillard-13900","Royce-O'Neale-37872","Josh-Hart-37889","50000","266.15"
"Lance-Stephenson-947","Klay-Thompson-13315","Kevin-Durant-1348","Meyers-Leonard-13905","Jusuf-Nurkic-18619","Damian-Lillard-13900","Draymond-Green-13976","Maurice-Harkless-16971","49900","266.15"
"Lance-Stephenson-947","Joe-Ingles-18627","Kevin-Durant-1348","DeMarcus-Cousins-1490","Draymond-Green-13976","Klay-Thompson-13315","Kevon-Looney-18945","Damian-Lillard-13900","49800","266.14"
"Lance-Stephenson-947","Klay-Thompson-13315","Kentavious-Caldwell-Pope-16869","Kevin-Durant-1348","Jusuf-Nurkic-18619","Damian-Lillard-13900","Kevon-Looney-18945","Josh-Hart-37889","49800","266.05"
"Lance-Stephenson-947","Josh-Hart-37889","Kentavious-Caldwell-Pope-16869","Kevin-Durant-1348","Jusuf-Nurkic-18619","Damian-Lillard-13900","Maurice-Harkless-16971","Draymond-Green-13976","50000","265.9"
"Lance-Stephenson-947","Josh-Hart-37889","Joe-Ingles-18627","Kevin-Durant-1348","Jusuf-Nurkic-18619","Damian-Lillard-13900","Kevon-Looney-18945","DeMarcus-Cousins-1490","50000","265.8"
"Lance-Stephenson-947","Joe-Ingles-18627","Kevin-Durant-1348","DeMarcus-Cousins-1490","Draymond-Green-13976","Klay-Thompson-13315","Maurice-Harkless-16971","Jusuf-Nurkic-18619","49500","265.78"
"Lance-Stephenson-947","Klay-Thompson-13315","Kyle-Korver-1269","Kevin-Durant-1348","DeMarcus-Cousins-1490","Damian-Lillard-13900","Maurice-Harkless-16971","Jusuf-Nurkic-18619","49900","265.7"
"Lance-Stephenson-947","Joe-Ingles-18627","Jae-Crowder-13942","Kevin-Durant-1348","Jusuf-Nurkic-18619","Klay-Thompson-13315","Draymond-Green-13976","Josh-Hart-37889","49700","265.68"
"Lance-Stephenson-947","Klay-Thompson-13315","Kevin-Durant-1348","Derrick-Favors-1266","Jusuf-Nurkic-18619","Damian-Lillard-13900","DeMarcus-Cousins-1490","Alex-Caruso-37888","49900","265.62"
"Lance-Stephenson-947","Kentavious-Caldwell-Pope-16869","Joe-Ingles-18627","Kevin-Durant-1348","Jusuf-Nurkic-18619","Klay-Thompson-13315","Draymond-Green-13976","Al-Farouq-Aminu-1279","49900","265.61"
"Damian-Lillard-13900","Klay-Thompson-13315","Kevin-Durant-1348","DeMarcus-Cousins-1490","Jusuf-Nurkic-18619","Alex-Caruso-37888","Maurice-Harkless-16971","Josh-Hart-37889","50000","265.6"
"Lance-Stephenson-947","Klay-Thompson-13315","Joe-Ingles-18627","Derrick-Favors-1266","DeMarcus-Cousins-1490","Damian-Lillard-13900","Kevin-Durant-1348","Josh-Hart-37889","49700","265.57"
"Lance-Stephenson-947","Brandon-Ingram-35227","Joe-Ingles-18627","Kevin-Durant-1348","Jusuf-Nurkic-18619","Klay-Thompson-13315","Maurice-Harkless-16971","DeMarcus-Cousins-1490","49900","265.56"
"Lance-Stephenson-947","Joe-Ingles-18627","Kentavious-Caldwell-Pope-16869","Meyers-Leonard-13905","Jusuf-Nurkic-18619","Klay-Thompson-13315","Kevin-Durant-1348","Damian-Lillard-13900","49500","265.55"
"Lance-Stephenson-947","Klay-Thompson-13315","Kevin-Durant-1348","DeMarcus-Cousins-1490","Draymond-Green-13976","C.J.-McCollum-17121","Kevon-Looney-18945","Jusuf-Nurkic-18619","50000","265.49"
"Lance-Stephenson-947","Alex-Caruso-37888","Joe-Ingles-18627","Kevin-Durant-1348","Jusuf-Nurkic-18619","Damian-Lillard-13900","Draymond-Green-13976","Josh-Hart-37889","49900","265.48"
"Lance-Stephenson-947","Klay-Thompson-13315","Joe-Ingles-18627","Kevin-Durant-1348","Jusuf-Nurkic-18619","Damian-Lillard-13900","Zach-Collins-37866","Josh-Hart-37889","50000","265.46"
"Josh-Hart-37889","Joe-Ingles-18627","Kentavious-Caldwell-Pope-16869","Derrick-Favors-1266","Jusuf-Nurkic-18619","Klay-Thompson-13315","Kevin-Durant-1348","DeMarcus-Cousins-1490","49900","265.46"
"Lance-Stephenson-947","Klay-Thompson-13315","Joe-Ingles-18627","Kevin-Durant-1348","Jusuf-Nurkic-18619","C.J.-McCollum-17121","Kyle-Korver-1269","Draymond-Green-13976","50000","265.42"
"Damian-Lillard-13900","Klay-Thompson-13315","Joe-Ingles-18627","Jae-Crowder-13942","DeMarcus-Cousins-1490","Josh-Hart-37889","Kentavious-Caldwell-Pope-16869","Kevin-Durant-1348","49900","265.41"
"Lance-Stephenson-947","Klay-Thompson-13315","Kevin-Durant-1348","DeMarcus-Cousins-1490","Draymond-Green-13976","Damian-Lillard-13900","Maurice-Harkless-16971","Josh-Hart-37889","49600","265.4"
"Lance-Stephenson-947","Klay-Thompson-13315","Kyle-Korver-1269","Meyers-Leonard-13905","Jusuf-Nurkic-18619","Damian-Lillard-13900","Kevin-Durant-1348","Draymond-Green-13976","50000","265.34"
"Lance-Stephenson-947","Klay-Thompson-13315","Kentavious-Caldwell-Pope-16869","Kevin-Durant-1348","Jusuf-Nurkic-18619","Damian-Lillard-13900","Maurice-Harkless-16971","Derrick-Favors-1266","49800","265.33"
"Lance-Stephenson-947","Klay-Thompson-13315","Joe-Ingles-18627","Jae-Crowder-13942","Derrick-Favors-1266","Damian-Lillard-13900","Kevin-Durant-1348","Draymond-Green-13976","50000","265.32"
"Lance-Stephenson-947","Kentavious-Caldwell-Pope-16869","Kevin-Durant-1348","Derrick-Favors-1266","Draymond-Green-13976","Klay-Thompson-13315","DeMarcus-Cousins-1490","Jusuf-Nurkic-18619","49700","265.31"
"Josh-Hart-37889","Kentavious-Caldwell-Pope-16869","Kevin-Durant-1348","DeMarcus-Cousins-1490","Draymond-Green-13976","Klay-Thompson-13315","Maurice-Harkless-16971","Jusuf-Nurkic-18619","49800","265.29"
"Lance-Stephenson-947","Klay-Thompson-13315","Kentavious-Caldwell-Pope-16869","DeMarcus-Cousins-1490","Draymond-Green-13976","Damian-Lillard-13900","Kevin-Durant-1348","Jae-Crowder-13942","49700","265.26"
"Lance-Stephenson-947","Klay-Thompson-13315","Joe-Ingles-18627","Jae-Crowder-13942","DeMarcus-Cousins-1490","C.J.-McCollum-17121","Kevin-Durant-1348","Jusuf-Nurkic-18619","49800","265.25"
"Lance-Stephenson-947","Klay-Thompson-13315","Kentavious-Caldwell-Pope-16869","Kevin-Durant-1348","Draymond-Green-13976","Damian-Lillard-13900","Al-Farouq-Aminu-1279","Josh-Hart-37889","50000","265.23"
"Lance-Stephenson-947","Joe-Ingles-18627","Brandon-Ingram-35227","Meyers-Leonard-13905","Jusuf-Nurkic-18619","Klay-Thompson-13315","Kevin-Durant-1348","Draymond-Green-13976","50000","265.2"
"Lance-Stephenson-947","Klay-Thompson-13315","Brandon-Ingram-35227","Kevin-Durant-1348","DeMarcus-Cousins-1490","Damian-Lillard-13900","Maurice-Harkless-16971","Josh-Hart-37889","50000","265.18"
"Lance-Stephenson-947","Klay-Thompson-13315","Jae-Crowder-13942","Meyers-Leonard-13905","Jusuf-Nurkic-18619","Damian-Lillard-13900","DeMarcus-Cousins-1490","Kevin-Durant-1348","49800","265.17"
"Damian-Lillard-13900","Kentavious-Caldwell-Pope-16869","Joe-Ingles-18627","Meyers-Leonard-13905","Draymond-Green-13976","Klay-Thompson-13315","Kevin-Durant-1348","DeMarcus-Cousins-1490","49800","265.15"
"Lance-Stephenson-947","Joe-Ingles-18627","Maurice-Harkless-16971","Derrick-Favors-1266","Jusuf-Nurkic-18619","Damian-Lillard-13900","DeMarcus-Cousins-1490","Kevin-Durant-1348","50000","265.08"
"Lance-Stephenson-947","Klay-Thompson-13315","Kevin-Durant-1348","Maurice-Harkless-16971","Jusuf-Nurkic-18619","Damian-Lillard-13900","Royce-O'Neale-37872","Josh-Hart-37889","49900","265.07"
"Lance-Stephenson-947","Klay-Thompson-13315","Kevin-Durant-1348","DeMarcus-Cousins-1490","Kevon-Looney-18945","Damian-Lillard-13900","Maurice-Harkless-16971","Jusuf-Nurkic-18619","49700","265.06"
"Lance-Stephenson-947","Klay-Thompson-13315","Kevin-Durant-1348","DeMarcus-Cousins-1490","Draymond-Green-13976","Josh-Hart-37889","Royce-O'Neale-37872","Jusuf-Nurkic-18619","49800","265.05"
"Lance-Stephenson-947","Alex-Caruso-37888","Joe-Ingles-18627","DeMarcus-Cousins-1490","Jusuf-Nurkic-18619","Damian-Lillard-13900","Kevin-Durant-1348","C.J.-McCollum-17121","50000","265.05"
