"Fred-VanVleet-36011","Shai-Gilgeous-Alexander-408990","Kawhi-Leonard-13310","Jayson-Tatum-37782","Steven-Adams-16848","Kyrie-Irving-13334","Pascal-Siakam-35186","Marcus-Smart-18567","50000","288.76"
"Russell-Westbrook-1083","Fred-VanVleet-36011","Jayson-Tatum-37782","Serge-Ibaka-1294","Steven-Adams-16848","Dennis-Smith-Jr.-37847","Pascal-Siakam-35186","DeAndre-Jordan-1486","49900","288.59"
"Fred-VanVleet-36011","Lou-Williams-1044","Kawhi-Leonard-13310","Jayson-Tatum-37782","Steven-Adams-16848","Dennis-Smith-Jr.-37847","Pascal-Siakam-35186","Serge-Ibaka-1294","50000","288.59"
"Russell-Westbrook-1083","Fred-VanVleet-36011","Jayson-Tatum-37782","Pascal-Siakam-35186","Steven-Adams-16848","Lou-Williams-1044","Justin-Holiday-14559","Dennis-Smith-Jr.-37847","49900","288.54"
"Fred-VanVleet-36011","Delon-Wright-18907","Kawhi-Leonard-13310","Jayson-Tatum-37782","Steven-Adams-16848","Kyrie-Irving-13334","Pascal-Siakam-35186","Dennis-Smith-Jr.-37847","50000","288.35"

"Fred-VanVleet-36011","Shai-Gilgeous-Alexander-408990","Kawhi-Leonard-13310","Jayson-Tatum-37782","Steven-Adams-16848","Kyrie-Irving-13334","Pascal-Siakam-35186","Marcus-Smart-18567","50000","288.76"
"Russell-Westbrook-1083","Fred-VanVleet-36011","Jayson-Tatum-37782","Serge-Ibaka-1294","Steven-Adams-16848","Dennis-Smith-Jr.-37847","Pascal-Siakam-35186","DeAndre-Jordan-1486","49900","288.59"
"Fred-VanVleet-36011","Lou-Williams-1044","Kawhi-Leonard-13310","Jayson-Tatum-37782","Steven-Adams-16848","Dennis-Smith-Jr.-37847","Pascal-Siakam-35186","Serge-Ibaka-1294","50000","288.59"
"Russell-Westbrook-1083","Fred-VanVleet-36011","Jayson-Tatum-37782","Pascal-Siakam-35186","Steven-Adams-16848","Lou-Williams-1044","Justin-Holiday-14559","Dennis-Smith-Jr.-37847","49900","288.54"
"Fred-VanVleet-36011","Delon-Wright-18907","Kawhi-Leonard-13310","Jayson-Tatum-37782","Steven-Adams-16848","Kyrie-Irving-13334","Pascal-Siakam-35186","Dennis-Smith-Jr.-37847","50000","288.35"
"Russell-Westbrook-1083","Fred-VanVleet-36011","Kawhi-Leonard-13310","Pascal-Siakam-35186","Steven-Adams-16848","Danny-Green-940","Justin-Holiday-14559","Shai-Gilgeous-Alexander-408990","49900","288.31"
"Russell-Westbrook-1083","Fred-VanVleet-36011","Justin-Holiday-14559","Kawhi-Leonard-13310","Pascal-Siakam-35186","Shai-Gilgeous-Alexander-408990","Damyean-Dotson-37795","Steven-Adams-16848","49700","287.91"
"Russell-Westbrook-1083","Fred-VanVleet-36011","Jayson-Tatum-37782","Pascal-Siakam-35186","Steven-Adams-16848","Dennis-Smith-Jr.-37847","Al-Horford-1499","Marcus-Smart-18567","50000","287.89"
"Fred-VanVleet-36011","Marcus-Smart-18567","Kawhi-Leonard-13310","Pascal-Siakam-35186","Steven-Adams-16848","Kyrie-Irving-13334","Justin-Holiday-14559","DeAndre-Jordan-1486","50000","287.81"
"Russell-Westbrook-1083","Fred-VanVleet-36011","Kawhi-Leonard-13310","Jayson-Tatum-37782","Pascal-Siakam-35186","Dennis-Smith-Jr.-37847","Damyean-Dotson-37795","Shai-Gilgeous-Alexander-408990","50000","287.76"
"Russell-Westbrook-1083","Fred-VanVleet-36011","Kawhi-Leonard-13310","Jayson-Tatum-37782","Steven-Adams-16848","Dennis-Smith-Jr.-37847","Damyean-Dotson-37795","Justin-Holiday-14559","50000","287.73"
"Russell-Westbrook-1083","Fred-VanVleet-36011","Kawhi-Leonard-13310","Pascal-Siakam-35186","Steven-Adams-16848","Dennis-Schroder-18595","Damyean-Dotson-37795","Shai-Gilgeous-Alexander-408990","50000","287.63"
"Russell-Westbrook-1083","Fred-VanVleet-36011","Jayson-Tatum-37782","Pascal-Siakam-35186","Steven-Adams-16848","Dennis-Smith-Jr.-37847","Noah-Vonleh-18597","DeAndre-Jordan-1486","49600","287.56"
"Fred-VanVleet-36011","Lou-Williams-1044","Kawhi-Leonard-13310","Pascal-Siakam-35186","Steven-Adams-16848","Dennis-Smith-Jr.-37847","Noah-Vonleh-18597","Jayson-Tatum-37782","49700","287.56"
"Fred-VanVleet-36011","Justin-Holiday-14559","Kawhi-Leonard-13310","Jayson-Tatum-37782","Steven-Adams-16848","Kyrie-Irving-13334","Pascal-Siakam-35186","Shai-Gilgeous-Alexander-408990","49600","287.53"
"Fred-VanVleet-36011","Marcus-Smart-18567","Kawhi-Leonard-13310","Pascal-Siakam-35186","Steven-Adams-16848","Kyrie-Irving-13334","Justin-Holiday-14559","Dennis-Smith-Jr.-37847","49700","287.35"
"Fred-VanVleet-36011","Dennis-Schroder-18595","Kawhi-Leonard-13310","Jayson-Tatum-37782","Steven-Adams-16848","Kyrie-Irving-13334","Pascal-Siakam-35186","Shai-Gilgeous-Alexander-408990","49900","287.25"
"Russell-Westbrook-1083","Fred-VanVleet-36011","Kawhi-Leonard-13310","Jayson-Tatum-37782","Steven-Adams-16848","Shai-Gilgeous-Alexander-408990","Justin-Holiday-14559","Marcus-Smart-18567","49800","287.18"
"Fred-VanVleet-36011","Shai-Gilgeous-Alexander-408990","Kawhi-Leonard-13310","Pascal-Siakam-35186","Steven-Adams-16848","Kyrie-Irving-13334","Noah-Vonleh-18597","Marcus-Smart-18567","50000","287.13"
"Fred-VanVleet-36011","Lou-Williams-1044","Kawhi-Leonard-13310","Jayson-Tatum-37782","Steven-Adams-16848","Justin-Holiday-14559","Pascal-Siakam-35186","Al-Horford-1499","50000","287.12"
"Russell-Westbrook-1083","Fred-VanVleet-36011","Kawhi-Leonard-13310","Jayson-Tatum-37782","Pascal-Siakam-35186","Dennis-Schroder-18595","Justin-Holiday-14559","Shai-Gilgeous-Alexander-408990","50000","287.12"
"Russell-Westbrook-1083","Fred-VanVleet-36011","Jayson-Tatum-37782","Pascal-Siakam-35186","DeAndre-Jordan-1486","Justin-Holiday-14559","Al-Horford-1499","Steven-Adams-16848","49900","287.12"
"Russell-Westbrook-1083","Fred-VanVleet-36011","Jayson-Tatum-37782","Serge-Ibaka-1294","Steven-Adams-16848","Marcus-Smart-18567","Pascal-Siakam-35186","Noah-Vonleh-18597","49900","287.07"
"Fred-VanVleet-36011","Marcus-Smart-18567","Kawhi-Leonard-13310","Jayson-Tatum-37782","Steven-Adams-16848","Kyrie-Irving-13334","Damyean-Dotson-37795","Pascal-Siakam-35186","49900","287.05"
"Fred-VanVleet-36011","Shai-Gilgeous-Alexander-408990","Kawhi-Leonard-13310","Pascal-Siakam-35186","Steven-Adams-16848","Dennis-Smith-Jr.-37847","Justin-Holiday-14559","Paul-George-1245","49800","286.98"
"Fred-VanVleet-36011","Lou-Williams-1044","Kawhi-Leonard-13310","Pascal-Siakam-35186","Steven-Adams-16848","Dennis-Smith-Jr.-37847","Noah-Vonleh-18597","Serge-Ibaka-1294","50000","286.96"
"Russell-Westbrook-1083","Fred-VanVleet-36011","Kawhi-Leonard-13310","Pascal-Siakam-35186","Steven-Adams-16848","Delon-Wright-18907","Justin-Holiday-14559","Shai-Gilgeous-Alexander-408990","49500","286.95"
"Kyrie-Irving-13334","Fred-VanVleet-36011","Kawhi-Leonard-13310","Pascal-Siakam-35186","DeAndre-Jordan-1486","Dennis-Smith-Jr.-37847","Damyean-Dotson-37795","Steven-Adams-16848","49900","286.94"
"Fred-VanVleet-36011","Justin-Holiday-14559","Kawhi-Leonard-13310","Serge-Ibaka-1294","Steven-Adams-16848","Kyrie-Irving-13334","Pascal-Siakam-35186","Shai-Gilgeous-Alexander-408990","49900","286.93"
"Russell-Westbrook-1083","Fred-VanVleet-36011","Kawhi-Leonard-13310","Jayson-Tatum-37782","Pascal-Siakam-35186","Justin-Holiday-14559","Damyean-Dotson-37795","Marcus-Smart-18567","50000","286.92"
"Russell-Westbrook-1083","Fred-VanVleet-36011","Justin-Holiday-14559","Pascal-Siakam-35186","Steven-Adams-16848","Lou-Williams-1044","Noah-Vonleh-18597","Dennis-Smith-Jr.-37847","49900","286.91"
"Russell-Westbrook-1083","Fred-VanVleet-36011","Kawhi-Leonard-13310","Pascal-Siakam-35186","Steven-Adams-16848","Delon-Wright-18907","Danny-Green-940","Marcus-Smart-18567","50000","286.87"
"Fred-VanVleet-36011","Lou-Williams-1044","Kawhi-Leonard-13310","Jayson-Tatum-37782","Steven-Adams-16848","Dennis-Smith-Jr.-37847","Pascal-Siakam-35186","DeAndre-Jordan-1486","49400","286.82"
"Russell-Westbrook-1083","Fred-VanVleet-36011","Justin-Holiday-14559","Kawhi-Leonard-13310","Pascal-Siakam-35186","Dennis-Smith-Jr.-37847","Damyean-Dotson-37795","DeAndre-Jordan-1486","50000","286.81"
"Russell-Westbrook-1083","Fred-VanVleet-36011","Kawhi-Leonard-13310","Jayson-Tatum-37782","Steven-Adams-16848","Shai-Gilgeous-Alexander-408990","Damyean-Dotson-37795","DeAndre-Jordan-1486","50000","286.77"
"Russell-Westbrook-1083","Fred-VanVleet-36011","Kawhi-Leonard-13310","Jayson-Tatum-37782","Steven-Adams-16848","Dennis-Smith-Jr.-37847","Justin-Holiday-14559","Delon-Wright-18907","49800","286.77"
"Fred-VanVleet-36011","Delon-Wright-18907","Kawhi-Leonard-13310","Pascal-Siakam-35186","Steven-Adams-16848","Kyrie-Irving-13334","Noah-Vonleh-18597","Dennis-Smith-Jr.-37847","50000","286.72"
"Russell-Westbrook-1083","Fred-VanVleet-36011","Jayson-Tatum-37782","Jaren-Jackson-409099","Steven-Adams-16848","Lou-Williams-1044","Pascal-Siakam-35186","Justin-Holiday-14559","50000","286.72"
"Russell-Westbrook-1083","Fred-VanVleet-36011","Kawhi-Leonard-13310","Jayson-Tatum-37782","Steven-Adams-16848","Dennis-Smith-Jr.-37847","Danny-Green-940","Shai-Gilgeous-Alexander-408990","49900","286.71"
"Fred-VanVleet-36011","Norman-Powell-18908","Kawhi-Leonard-13310","Jayson-Tatum-37782","Steven-Adams-16848","Kyrie-Irving-13334","Pascal-Siakam-35186","Dennis-Smith-Jr.-37847","50000","286.69"
"Fred-VanVleet-36011","Shai-Gilgeous-Alexander-408990","Kawhi-Leonard-13310","Jayson-Tatum-37782","Steven-Adams-16848","Damyean-Dotson-37795","Pascal-Siakam-35186","Paul-George-1245","50000","286.68"
"Russell-Westbrook-1083","Fred-VanVleet-36011","Justin-Holiday-14559","Pascal-Siakam-35186","Steven-Adams-16848","Dennis-Smith-Jr.-37847","Al-Horford-1499","Jayson-Tatum-37782","49600","286.66"
"Russell-Westbrook-1083","Fred-VanVleet-36011","Jayson-Tatum-37782","Pascal-Siakam-35186","Steven-Adams-16848","Dennis-Smith-Jr.-37847","Montrezl-Harrell-18930","Justin-Holiday-14559","49800","286.66"
"Russell-Westbrook-1083","Fred-VanVleet-36011","Justin-Holiday-14559","Kawhi-Leonard-13310","Pascal-Siakam-35186","Danny-Green-940","Damyean-Dotson-37795","Steven-Adams-16848","49800","286.6"
"Russell-Westbrook-1083","Fred-VanVleet-36011","Gordon-Hayward-1239","Kawhi-Leonard-13310","Steven-Adams-16848","Delon-Wright-18907","Pascal-Siakam-35186","Shai-Gilgeous-Alexander-408990","50000","286.56"
"Kyrie-Irving-13334","Fred-VanVleet-36011","Justin-Holiday-14559","Pascal-Siakam-35186","Steven-Adams-16848","Dennis-Smith-Jr.-37847","Marcus-Morris-13316","Kawhi-Leonard-13310","50000","286.53"
"Russell-Westbrook-1083","Fred-VanVleet-36011","Kawhi-Leonard-13310","Pascal-Siakam-35186","Steven-Adams-16848","Shai-Gilgeous-Alexander-408990","Norman-Powell-18908","Marcus-Smart-18567","49900","286.52"
"Russell-Westbrook-1083","Fred-VanVleet-36011","Kawhi-Leonard-13310","Pascal-Siakam-35186","Steven-Adams-16848","Delon-Wright-18907","Damyean-Dotson-37795","Marcus-Smart-18567","49800","286.47"
"Russell-Westbrook-1083","Fred-VanVleet-36011","Jayson-Tatum-37782","Pascal-Siakam-35186","Steven-Adams-16848","Shai-Gilgeous-Alexander-408990","Al-Horford-1499","Noah-Vonleh-18597","49900","286.44"
"Kyrie-Irving-13334","Fred-VanVleet-36011","Kawhi-Leonard-13310","Jayson-Tatum-37782","Pascal-Siakam-35186","Dennis-Smith-Jr.-37847","Justin-Holiday-14559","DeAndre-Jordan-1486","49900","286.43"
"Russell-Westbrook-1083","Fred-VanVleet-36011","Jayson-Tatum-37782","Pascal-Siakam-35186","Steven-Adams-16848","Dennis-Schroder-18595","Al-Horford-1499","Dennis-Smith-Jr.-37847","49900","286.38"
"Fred-VanVleet-36011","Shai-Gilgeous-Alexander-408990","Kawhi-Leonard-13310","Jaren-Jackson-409099","Steven-Adams-16848","Kyrie-Irving-13334","Pascal-Siakam-35186","Dennis-Smith-Jr.-37847","49800","286.37"
"Russell-Westbrook-1083","Fred-VanVleet-36011","Jayson-Tatum-37782","Serge-Ibaka-1294","Steven-Adams-16848","Marcus-Smart-18567","Pascal-Siakam-35186","DeAndre-Jordan-1486","49600","286.33"
"Fred-VanVleet-36011","Lou-Williams-1044","Kawhi-Leonard-13310","Jayson-Tatum-37782","Steven-Adams-16848","Marcus-Smart-18567","Pascal-Siakam-35186","Serge-Ibaka-1294","49700","286.33"
"Russell-Westbrook-1083","Fred-VanVleet-36011","Jayson-Tatum-37782","Serge-Ibaka-1294","Steven-Adams-16848","Dennis-Smith-Jr.-37847","Pascal-Siakam-35186","Jaren-Jackson-409099","49700","286.31"
"Russell-Westbrook-1083","Fred-VanVleet-36011","Kawhi-Leonard-13310","Jayson-Tatum-37782","Steven-Adams-16848","Dennis-Smith-Jr.-37847","Damyean-Dotson-37795","Shai-Gilgeous-Alexander-408990","49700","286.31"
"Fred-VanVleet-36011","Dennis-Schroder-18595","Kawhi-Leonard-13310","Pascal-Siakam-35186","Steven-Adams-16848","Kyrie-Irving-13334","Justin-Holiday-14559","DeAndre-Jordan-1486","49900","286.3"
"Russell-Westbrook-1083","Fred-VanVleet-36011","Jayson-Tatum-37782","Pascal-Siakam-35186","Steven-Adams-16848","Lou-Williams-1044","Justin-Holiday-14559","Marcus-Smart-18567","49600","286.28"
"Russell-Westbrook-1083","Fred-VanVleet-36011","Jayson-Tatum-37782","Pascal-Siakam-35186","Steven-Adams-16848","Lou-Williams-1044","Danny-Green-940","DeAndre-Jordan-1486","50000","286.27"
"Russell-Westbrook-1083","Fred-VanVleet-36011","Kawhi-Leonard-13310","Pascal-Siakam-35186","DeAndre-Jordan-1486","Shai-Gilgeous-Alexander-408990","Justin-Holiday-14559","Marcus-Smart-18567","49800","286.26"
"Russell-Westbrook-1083","Fred-VanVleet-36011","Kawhi-Leonard-13310","Jaren-Jackson-409099","Pascal-Siakam-35186","Dennis-Smith-Jr.-37847","Justin-Holiday-14559","Shai-Gilgeous-Alexander-408990","49900","286.24"
"Fred-VanVleet-36011","Lou-Williams-1044","Kawhi-Leonard-13310","Serge-Ibaka-1294","Steven-Adams-16848","Dennis-Smith-Jr.-37847","Pascal-Siakam-35186","DeAndre-Jordan-1486","49700","286.22"
"Fred-VanVleet-36011","Danny-Green-940","Kawhi-Leonard-13310","Jayson-Tatum-37782","Steven-Adams-16848","Kyrie-Irving-13334","Pascal-Siakam-35186","Justin-Holiday-14559","49700","286.22"
"Russell-Westbrook-1083","Fred-VanVleet-36011","Kawhi-Leonard-13310","Pascal-Siakam-35186","Steven-Adams-16848","Dennis-Smith-Jr.-37847","Justin-Holiday-14559","Daniel-Theis-37784","50000","286.13"
"Russell-Westbrook-1083","Fred-VanVleet-36011","Kawhi-Leonard-13310","Pascal-Siakam-35186","Noah-Vonleh-18597","Dennis-Smith-Jr.-37847","Damyean-Dotson-37795","Shai-Gilgeous-Alexander-408990","50000","286.13"
"Russell-Westbrook-1083","Fred-VanVleet-36011","Kawhi-Leonard-13310","Pascal-Siakam-35186","Steven-Adams-16848","Dennis-Smith-Jr.-37847","Norman-Powell-18908","Delon-Wright-18907","49900","286.11"
"Russell-Westbrook-1083","Fred-VanVleet-36011","Kawhi-Leonard-13310","Noah-Vonleh-18597","Steven-Adams-16848","Dennis-Smith-Jr.-37847","Damyean-Dotson-37795","Justin-Holiday-14559","50000","286.1"
"Fred-VanVleet-36011","Delon-Wright-18907","Kawhi-Leonard-13310","Jayson-Tatum-37782","Steven-Adams-16848","Kyrie-Irving-13334","Pascal-Siakam-35186","Marcus-Smart-18567","49700","286.09"
"Russell-Westbrook-1083","Fred-VanVleet-36011","Justin-Holiday-14559","Serge-Ibaka-1294","Al-Horford-1499","Dennis-Smith-Jr.-37847","Pascal-Siakam-35186","Steven-Adams-16848","49900","286.06"
"Russell-Westbrook-1083","Fred-VanVleet-36011","Kawhi-Leonard-13310","Jayson-Tatum-37782","Pascal-Siakam-35186","Delon-Wright-18907","Justin-Holiday-14559","Marcus-Smart-18567","49800","285.96"
"Fred-VanVleet-36011","Danny-Green-940","Kawhi-Leonard-13310","Jayson-Tatum-37782","Steven-Adams-16848","Dennis-Schroder-18595","Pascal-Siakam-35186","Kyrie-Irving-13334","50000","285.94"
"Fred-VanVleet-36011","Justin-Holiday-14559","Kawhi-Leonard-13310","Pascal-Siakam-35186","Steven-Adams-16848","Kyrie-Irving-13334","Noah-Vonleh-18597","Shai-Gilgeous-Alexander-408990","49600","285.9"
"Russell-Westbrook-1083","Fred-VanVleet-36011","Kawhi-Leonard-13310","Jayson-Tatum-37782","Pascal-Siakam-35186","Shai-Gilgeous-Alexander-408990","Danny-Green-940","Marcus-Smart-18567","49900","285.9"
"Russell-Westbrook-1083","Fred-VanVleet-36011","Danny-Green-940","Jayson-Tatum-37782","Steven-Adams-16848","Marcus-Smart-18567","Justin-Holiday-14559","Kawhi-Leonard-13310","49900","285.87"
"Russell-Westbrook-1083","Fred-VanVleet-36011","Jayson-Tatum-37782","Serge-Ibaka-1294","Steven-Adams-16848","Dennis-Smith-Jr.-37847","Pascal-Siakam-35186","Marcus-Smart-18567","49300","285.87"
"Russell-Westbrook-1083","Fred-VanVleet-36011","Jayson-Tatum-37782","Pascal-Siakam-35186","DeAndre-Jordan-1486","Lou-Williams-1044","Damyean-Dotson-37795","Steven-Adams-16848","49800","285.87"
"Russell-Westbrook-1083","Fred-VanVleet-36011","Kawhi-Leonard-13310","Pascal-Siakam-35186","DeAndre-Jordan-1486","Dennis-Smith-Jr.-37847","Justin-Holiday-14559","Delon-Wright-18907","49800","285.85"
"Fred-VanVleet-36011","Dennis-Schroder-18595","Kawhi-Leonard-13310","Pascal-Siakam-35186","Steven-Adams-16848","Kyrie-Irving-13334","Justin-Holiday-14559","Dennis-Smith-Jr.-37847","49600","285.84"
"Russell-Westbrook-1083","Fred-VanVleet-36011","Jayson-Tatum-37782","Serge-Ibaka-1294","Steven-Adams-16848","Justin-Holiday-14559","Pascal-Siakam-35186","Noah-Vonleh-18597","49500","285.84"
"Fred-VanVleet-36011","Justin-Holiday-14559","Kawhi-Leonard-13310","Jayson-Tatum-37782","Steven-Adams-16848","Kyrie-Irving-13334","Damyean-Dotson-37795","Pascal-Siakam-35186","49500","285.82"
"Russell-Westbrook-1083","Fred-VanVleet-36011","Jayson-Tatum-37782","Pascal-Siakam-35186","Steven-Adams-16848","Lou-Williams-1044","Danny-Green-940","Dennis-Smith-Jr.-37847","49700","285.81"
"Russell-Westbrook-1083","Fred-VanVleet-36011","Kawhi-Leonard-13310","Pascal-Siakam-35186","DeAndre-Jordan-1486","Dennis-Smith-Jr.-37847","Danny-Green-940","Shai-Gilgeous-Alexander-408990","49900","285.79"
"Russell-Westbrook-1083","Fred-VanVleet-36011","Danny-Green-940","Kawhi-Leonard-13310","DeAndre-Jordan-1486","Dennis-Smith-Jr.-37847","Justin-Holiday-14559","Steven-Adams-16848","49900","285.76"
"Fred-VanVleet-36011","Shai-Gilgeous-Alexander-408990","Kawhi-Leonard-13310","Jayson-Tatum-37782","Noah-Vonleh-18597","Kyrie-Irving-13334","Pascal-Siakam-35186","Dennis-Smith-Jr.-37847","49900","285.75"
"Fred-VanVleet-36011","Justin-Holiday-14559","Paul-George-1245","Kawhi-Leonard-13310","DeAndre-Jordan-1486","Damyean-Dotson-37795","Pascal-Siakam-35186","Steven-Adams-16848","50000","285.73"
"Kyrie-Irving-13334","Fred-VanVleet-36011","Gordon-Hayward-1239","Pascal-Siakam-35186","Steven-Adams-16848","Dennis-Smith-Jr.-37847","Justin-Holiday-14559","Kawhi-Leonard-13310","49800","285.73"
"Fred-VanVleet-36011","Delon-Wright-18907","Kawhi-Leonard-13310","Jayson-Tatum-37782","Steven-Adams-16848","Shai-Gilgeous-Alexander-408990","Pascal-Siakam-35186","Paul-George-1245","49800","285.72"
"Kyrie-Irving-13334","Fred-VanVleet-36011","Jayson-Tatum-37782","Noah-Vonleh-18597","Steven-Adams-16848","Dennis-Smith-Jr.-37847","Justin-Holiday-14559","Kawhi-Leonard-13310","49900","285.72"
"Russell-Westbrook-1083","Fred-VanVleet-36011","Kawhi-Leonard-13310","Serge-Ibaka-1294","Steven-Adams-16848","Dennis-Smith-Jr.-37847","Damyean-Dotson-37795","Shai-Gilgeous-Alexander-408990","50000","285.71"
"Fred-VanVleet-36011","Lou-Williams-1044","Kawhi-Leonard-13310","Jayson-Tatum-37782","Steven-Adams-16848","Shai-Gilgeous-Alexander-408990","Pascal-Siakam-35186","Montrezl-Harrell-18930","49900","285.7"
"Fred-VanVleet-36011","Lou-Williams-1044","Kawhi-Leonard-13310","Jayson-Tatum-37782","Steven-Adams-16848","Shai-Gilgeous-Alexander-408990","Pascal-Siakam-35186","Al-Horford-1499","49700","285.7"
"Russell-Westbrook-1083","Fred-VanVleet-36011","Jayson-Tatum-37782","Pascal-Siakam-35186","DeAndre-Jordan-1486","Shai-Gilgeous-Alexander-408990","Montrezl-Harrell-18930","Steven-Adams-16848","49800","285.7"
"Russell-Westbrook-1083","Fred-VanVleet-36011","Jayson-Tatum-37782","Pascal-Siakam-35186","DeAndre-Jordan-1486","Shai-Gilgeous-Alexander-408990","Al-Horford-1499","Steven-Adams-16848","49600","285.7"
"Russell-Westbrook-1083","Fred-VanVleet-36011","Justin-Holiday-14559","Serge-Ibaka-1294","Steven-Adams-16848","Lou-Williams-1044","Pascal-Siakam-35186","Marcus-Smart-18567","49900","285.68"
"Russell-Westbrook-1083","Fred-VanVleet-36011","Kawhi-Leonard-13310","Jayson-Tatum-37782","Steven-Adams-16848","Dennis-Schroder-18595","Justin-Holiday-14559","Shai-Gilgeous-Alexander-408990","49700","285.67"
"Fred-VanVleet-36011","Danny-Green-940","Kawhi-Leonard-13310","Pascal-Siakam-35186","Steven-Adams-16848","Dennis-Smith-Jr.-37847","Justin-Holiday-14559","Paul-George-1245","49900","285.67"
"Russell-Westbrook-1083","Fred-VanVleet-36011","Jayson-Tatum-37782","Pascal-Siakam-35186","Steven-Adams-16848","Lou-Williams-1044","Noah-Vonleh-18597","Delon-Wright-18907","49900","285.65"
"Russell-Westbrook-1083","Fred-VanVleet-36011","Kawhi-Leonard-13310","Pascal-Siakam-35186","Steven-Adams-16848","Delon-Wright-18907","Justin-Holiday-14559","Danny-Green-940","49600","285.64"
"Fred-VanVleet-36011","Justin-Holiday-14559","Kawhi-Leonard-13310","Serge-Ibaka-1294","Steven-Adams-16848","Kyrie-Irving-13334","Danny-Green-940","Pascal-Siakam-35186","50000","285.62"
"Fred-VanVleet-36011","Dennis-Schroder-18595","Kawhi-Leonard-13310","Pascal-Siakam-35186","Steven-Adams-16848","Kyrie-Irving-13334","Noah-Vonleh-18597","Shai-Gilgeous-Alexander-408990","49900","285.62"
