"Devin-Booker-18949","Malik-Beasley-35213","Mikal-Bridges-408842","Josh-Jackson-37890","Deandre-Ayton-409301","Monte-Morris-37860","Taurean-Prince-35218","Karl-Anthony-Towns-18937","49800","284.11"

"Devin-Booker-18949","Malik-Beasley-35213","Mikal-Bridges-408842","Josh-Jackson-37890","Deandre-Ayton-409301","Monte-Morris-37860","Taurean-Prince-35218","Karl-Anthony-Towns-18937","49800","284.11"
"Devin-Booker-18949","Malik-Beasley-35213","Mikal-Bridges-408842","Paul-Millsap-1335","Karl-Anthony-Towns-18937","Monte-Morris-37860","Taurean-Prince-35218","Deandre-Ayton-409301","49400","282.63"
"Devin-Booker-18949","Malik-Beasley-35213","Taurean-Prince-35218","Josh-Jackson-37890","Deandre-Ayton-409301","Mikal-Bridges-408842","Paul-Millsap-1335","Karl-Anthony-Towns-18937","49500","282.47"
"Devin-Booker-18949","Malik-Beasley-35213","Torrey-Craig-37861","Josh-Jackson-37890","Karl-Anthony-Towns-18937","Monte-Morris-37860","Paul-Millsap-1335","Deandre-Ayton-409301","49900","282.26"
"Devin-Booker-18949","Malik-Beasley-35213","Mikal-Bridges-408842","Paul-Millsap-1335","Karl-Anthony-Towns-18937","Ricky-Rubio-1001","Taurean-Prince-35218","Deandre-Ayton-409301","50000","282.25"
"Devin-Booker-18949","Malik-Beasley-35213","Joe-Ingles-18627","Paul-Millsap-1335","Karl-Anthony-Towns-18937","Monte-Morris-37860","Mikal-Bridges-408842","Deandre-Ayton-409301","50000","282.16"
"Devin-Booker-18949","Malik-Beasley-35213","Kelly-Oubre-18925","Paul-Millsap-1335","Karl-Anthony-Towns-18937","Monte-Morris-37860","Taurean-Prince-35218","Josh-Jackson-37890","50000","282.08"
"Devin-Booker-18949","Malik-Beasley-35213","Josh-Okogie-409174","Josh-Jackson-37890","Deandre-Ayton-409301","Monte-Morris-37860","Paul-Millsap-1335","Karl-Anthony-Towns-18937","49900","282.07"
"Devin-Booker-18949","Kelly-Oubre-18925","Mikal-Bridges-408842","Paul-Millsap-1335","Karl-Anthony-Towns-18937","Malik-Beasley-35213","Taurean-Prince-35218","Deandre-Ayton-409301","49800","282.02"
"Devin-Booker-18949","Malik-Beasley-35213","Torrey-Craig-37861","Josh-Jackson-37890","Karl-Anthony-Towns-18937","Monte-Morris-37860","Taurean-Prince-35218","Deandre-Ayton-409301","49600","282.01"
"Devin-Booker-18949","Eric-Gordon-1077","Mikal-Bridges-408842","Paul-Millsap-1335","Karl-Anthony-Towns-18937","Monte-Morris-37860","Taurean-Prince-35218","Deandre-Ayton-409301","50000","281.9"
"Malik-Beasley-35213","Andrew-Wiggins-18620","Taurean-Prince-35218","Josh-Jackson-37890","Rudy-Gobert-16935","Monte-Morris-37860","Paul-Millsap-1335","Karl-Anthony-Towns-18937","50000","281.82"
"Devin-Booker-18949","Malik-Beasley-35213","Josh-Okogie-409174","Josh-Jackson-37890","Karl-Anthony-Towns-18937","Monte-Morris-37860","Taurean-Prince-35218","Deandre-Ayton-409301","49600","281.82"
"Devin-Booker-18949","Malik-Beasley-35213","Joe-Ingles-18627","Josh-Jackson-37890","Karl-Anthony-Towns-18937","Mikal-Bridges-408842","Taurean-Prince-35218","Deandre-Ayton-409301","49800","281.75"
"Devin-Booker-18949","Malik-Beasley-35213","Andrew-Wiggins-18620","Paul-Millsap-1335","Deandre-Ayton-409301","Torrey-Craig-37861","Taurean-Prince-35218","Karl-Anthony-Towns-18937","50000","281.72"
"Devin-Booker-18949","Andrew-Wiggins-18620","Josh-Okogie-409174","Paul-Millsap-1335","Karl-Anthony-Towns-18937","Malik-Beasley-35213","Taurean-Prince-35218","Deandre-Ayton-409301","50000","281.53"
"Devin-Booker-18949","Malik-Beasley-35213","Kelly-Oubre-18925","Josh-Jackson-37890","Deandre-Ayton-409301","Torrey-Craig-37861","Taurean-Prince-35218","Karl-Anthony-Towns-18937","50000","281.4"
"Devin-Booker-18949","Malik-Beasley-35213","Kelly-Oubre-18925","Josh-Jackson-37890","Deandre-Ayton-409301","Josh-Okogie-409174","Taurean-Prince-35218","Karl-Anthony-Towns-18937","50000","281.21"
"Devin-Booker-18949","Malik-Beasley-35213","Mikal-Bridges-408842","Josh-Jackson-37890","Deandre-Ayton-409301","Monte-Morris-37860","Eric-Gordon-1077","Karl-Anthony-Towns-18937","49900","281.17"
"Devin-Booker-18949","Malik-Beasley-35213","Mikal-Bridges-408842","Dewayne-Dedmon-16894","Karl-Anthony-Towns-18937","Monte-Morris-37860","Taurean-Prince-35218","Deandre-Ayton-409301","50000","281.11"
"Malik-Beasley-35213","Andrew-Wiggins-18620","Taurean-Prince-35218","Josh-Jackson-37890","Karl-Anthony-Towns-18937","Monte-Morris-37860","Kenneth-Faried-13313","Deandre-Ayton-409301","49900","281.09"
"Devin-Booker-18949","Malik-Beasley-35213","Taurean-Prince-35218","P.J.-Tucker-13947","Karl-Anthony-Towns-18937","Monte-Morris-37860","Paul-Millsap-1335","Deandre-Ayton-409301","49700","280.87"
"Devin-Booker-18949","Malik-Beasley-35213","Kyle-Korver-1269","Josh-Jackson-37890","Karl-Anthony-Towns-18937","Monte-Morris-37860","Paul-Millsap-1335","Deandre-Ayton-409301","49700","280.81"
"Devin-Booker-18949","Malik-Beasley-35213","Will-Barton-13982","Paul-Millsap-1335","Deandre-Ayton-409301","Jamal-Crawford-1075","Taurean-Prince-35218","Karl-Anthony-Towns-18937","50000","280.65"
"Devin-Booker-18949","Malik-Beasley-35213","Kyle-Korver-1269","Josh-Jackson-37890","Deandre-Ayton-409301","Monte-Morris-37860","Taurean-Prince-35218","Karl-Anthony-Towns-18937","49400","280.56"
"Devin-Booker-18949","Malik-Beasley-35213","Torrey-Craig-37861","Paul-Millsap-1335","Deandre-Ayton-409301","Monte-Morris-37860","Taurean-Prince-35218","Karl-Anthony-Towns-18937","49200","280.53"
"Devin-Booker-18949","Malik-Beasley-35213","Mikal-Bridges-408842","Paul-Millsap-1335","Rudy-Gobert-16935","Monte-Morris-37860","Torrey-Craig-37861","Karl-Anthony-Towns-18937","50000","280.48"
"Devin-Booker-18949","Malik-Beasley-35213","Taurean-Prince-35218","Paul-Millsap-1335","Deandre-Ayton-409301","Monte-Morris-37860","Kevin-Huerter-408969","Karl-Anthony-Towns-18937","49700","280.47"
"Malik-Beasley-35213","Will-Barton-13982","Taurean-Prince-35218","Kenneth-Faried-13313","Deandre-Ayton-409301","Monte-Morris-37860","Paul-Millsap-1335","Karl-Anthony-Towns-18937","49800","280.46"
"Devin-Booker-18949","Malik-Beasley-35213","Taurean-Prince-35218","Josh-Jackson-37890","Deandre-Ayton-409301","Torrey-Craig-37861","Paul-Millsap-1335","Karl-Anthony-Towns-18937","49300","280.37"
"Malik-Beasley-35213","Andrew-Wiggins-18620","Will-Barton-13982","Josh-Jackson-37890","Deandre-Ayton-409301","Monte-Morris-37860","Taurean-Prince-35218","Karl-Anthony-Towns-18937","49800","280.37"
"Devin-Booker-18949","Malik-Beasley-35213","Kelly-Oubre-18925","Paul-Millsap-1335","Deandre-Ayton-409301","Monte-Morris-37860","Kyle-Korver-1269","Karl-Anthony-Towns-18937","50000","280.36"
"Devin-Booker-18949","Jamal-Crawford-1075","Joe-Ingles-18627","Paul-Millsap-1335","Karl-Anthony-Towns-18937","Monte-Morris-37860","Taurean-Prince-35218","Deandre-Ayton-409301","50000","280.35"
"Devin-Booker-18949","Malik-Beasley-35213","Josh-Okogie-409174","Paul-Millsap-1335","Karl-Anthony-Towns-18937","Monte-Morris-37860","Taurean-Prince-35218","Deandre-Ayton-409301","49200","280.34"
"Devin-Booker-18949","Malik-Beasley-35213","Joe-Ingles-18627","Paul-Millsap-1335","Karl-Anthony-Towns-18937","Monte-Morris-37860","Taurean-Prince-35218","Josh-Jackson-37890","49600","280.33"
"Devin-Booker-18949","Malik-Beasley-35213","DeAndre-Bembry-35198","Josh-Jackson-37890","Karl-Anthony-Towns-18937","Monte-Morris-37860","Taurean-Prince-35218","Deandre-Ayton-409301","50000","280.33"
"Devin-Booker-18949","Malik-Beasley-35213","Taurean-Prince-35218","Josh-Jackson-37890","Deandre-Ayton-409301","Kevin-Huerter-408969","Paul-Millsap-1335","Karl-Anthony-Towns-18937","49800","280.31"
"Devin-Booker-18949","Malik-Beasley-35213","Mikal-Bridges-408842","Paul-Millsap-1335","Rudy-Gobert-16935","Monte-Morris-37860","Josh-Okogie-409174","Karl-Anthony-Towns-18937","50000","280.29"
"Devin-Booker-18949","Malik-Beasley-35213","Joe-Ingles-18627","Paul-Millsap-1335","Karl-Anthony-Towns-18937","Mikal-Bridges-408842","Taurean-Prince-35218","Deandre-Ayton-409301","49400","280.27"
"Devin-Booker-18949","Malik-Beasley-35213","Andrew-Wiggins-18620","Paul-Millsap-1335","Deandre-Ayton-409301","Kyle-Korver-1269","Taurean-Prince-35218","Karl-Anthony-Towns-18937","49800","280.27"
"Devin-Booker-18949","Malik-Beasley-35213","Mikal-Bridges-408842","Josh-Jackson-37890","Paul-Millsap-1335","Monte-Morris-37860","Kenneth-Faried-13313","Karl-Anthony-Towns-18937","50000","280.27"
"Devin-Booker-18949","Malik-Beasley-35213","Taurean-Prince-35218","Paul-Millsap-1335","Karl-Anthony-Towns-18937","Monte-Morris-37860","Jae-Crowder-13942","Deandre-Ayton-409301","49900","280.25"
"Ricky-Rubio-1001","Malik-Beasley-35213","Taurean-Prince-35218","Josh-Jackson-37890","Rudy-Gobert-16935","Monte-Morris-37860","Paul-Millsap-1335","Karl-Anthony-Towns-18937","49800","280.25"
"Devin-Booker-18949","Malik-Beasley-35213","Kyle-Korver-1269","Josh-Jackson-37890","Deandre-Ayton-409301","Ricky-Rubio-1001","Taurean-Prince-35218","Karl-Anthony-Towns-18937","50000","280.18"
"Monte-Morris-37860","Kelly-Oubre-18925","Taurean-Prince-35218","Josh-Jackson-37890","Deandre-Ayton-409301","Andrew-Wiggins-18620","Paul-Millsap-1335","Karl-Anthony-Towns-18937","49900","280.18"
"Devin-Booker-18949","Malik-Beasley-35213","Taurean-Prince-35218","Josh-Jackson-37890","Deandre-Ayton-409301","Josh-Okogie-409174","Paul-Millsap-1335","Karl-Anthony-Towns-18937","49300","280.18"
"Devin-Booker-18949","Malik-Beasley-35213","Joe-Ingles-18627","P.J.-Tucker-13947","Deandre-Ayton-409301","Monte-Morris-37860","Taurean-Prince-35218","Karl-Anthony-Towns-18937","50000","280.15"
"Devin-Booker-18949","Malik-Beasley-35213","Torrey-Craig-37861","Paul-Millsap-1335","Deandre-Ayton-409301","Ricky-Rubio-1001","Taurean-Prince-35218","Karl-Anthony-Towns-18937","49800","280.15"
"Devin-Booker-18949","Malik-Beasley-35213","Taurean-Prince-35218","Josh-Jackson-37890","Rudy-Gobert-16935","Monte-Morris-37860","Paul-Millsap-1335","Deandre-Ayton-409301","49600","280.12"
"Devin-Booker-18949","Malik-Beasley-35213","Josh-Jackson-37890","Dario-Saric-36004","Karl-Anthony-Towns-18937","Monte-Morris-37860","Paul-Millsap-1335","Deandre-Ayton-409301","49900","280.12"
"Malik-Beasley-35213","Mikal-Bridges-408842","Taurean-Prince-35218","Josh-Jackson-37890","Nikola-Jokic-31812","Monte-Morris-37860","Paul-Millsap-1335","Karl-Anthony-Towns-18937","50000","280.11"
"Devin-Booker-18949","Malik-Beasley-35213","Joe-Ingles-18627","Josh-Jackson-37890","Deandre-Ayton-409301","Monte-Morris-37860","Kyle-Korver-1269","Karl-Anthony-Towns-18937","50000","280.09"
"Devin-Booker-18949","Malik-Beasley-35213","Torrey-Craig-37861","Josh-Jackson-37890","Rudy-Gobert-16935","Mikal-Bridges-408842","Taurean-Prince-35218","Karl-Anthony-Towns-18937","49800","280.07"
"Devin-Booker-18949","Malik-Beasley-35213","Joe-Ingles-18627","Paul-Millsap-1335","Deandre-Ayton-409301","Monte-Morris-37860","Torrey-Craig-37861","Karl-Anthony-Towns-18937","49800","280.06"
"Devin-Booker-18949","Malik-Beasley-35213","Josh-Jackson-37890","Mason-Plumlee-16798","Deandre-Ayton-409301","Monte-Morris-37860","Paul-Millsap-1335","Karl-Anthony-Towns-18937","50000","280.03"
"Malik-Beasley-35213","Kelly-Oubre-18925","Taurean-Prince-35218","Josh-Jackson-37890","Rudy-Gobert-16935","Monte-Morris-37860","Paul-Millsap-1335","Karl-Anthony-Towns-18937","49600","280.02"
"Devin-Booker-18949","Malik-Beasley-35213","Taurean-Prince-35218","Josh-Jackson-37890","Karl-Anthony-Towns-18937","Mikal-Bridges-408842","Kenneth-Faried-13313","Monte-Morris-37860","49700","280.02"
"Devin-Booker-18949","Malik-Beasley-35213","Josh-Okogie-409174","Paul-Millsap-1335","Karl-Anthony-Towns-18937","Ricky-Rubio-1001","Taurean-Prince-35218","Deandre-Ayton-409301","49800","279.96"
"Devin-Booker-18949","Malik-Beasley-35213","Kelly-Oubre-18925","Josh-Jackson-37890","Deandre-Ayton-409301","Kyle-Korver-1269","Taurean-Prince-35218","Karl-Anthony-Towns-18937","49800","279.95"
"Devin-Booker-18949","Malik-Beasley-35213","Kelly-Oubre-18925","Paul-Millsap-1335","Karl-Anthony-Towns-18937","Torrey-Craig-37861","Taurean-Prince-35218","Deandre-Ayton-409301","49600","279.92"
"Elie-Okobo-409300","Devin-Booker-18949","Taurean-Prince-35218","Josh-Jackson-37890","Deandre-Ayton-409301","Monte-Morris-37860","Paul-Millsap-1335","Karl-Anthony-Towns-18937","50000","279.92"
"Devin-Booker-18949","Malik-Beasley-35213","Torrey-Craig-37861","Josh-Jackson-37890","Karl-Anthony-Towns-18937","Joe-Ingles-18627","Paul-Millsap-1335","Deandre-Ayton-409301","49900","279.9"
"Devin-Booker-18949","Kelly-Oubre-18925","Joe-Ingles-18627","Paul-Millsap-1335","Karl-Anthony-Towns-18937","Malik-Beasley-35213","Taurean-Prince-35218","Monte-Morris-37860","49900","279.88"
"Devin-Booker-18949","Malik-Beasley-35213","Josh-Okogie-409174","Josh-Jackson-37890","Karl-Anthony-Towns-18937","Mikal-Bridges-408842","Taurean-Prince-35218","Rudy-Gobert-16935","49800","279.88"
"Devin-Booker-18949","Malik-Beasley-35213","Joe-Ingles-18627","Paul-Millsap-1335","Deandre-Ayton-409301","Monte-Morris-37860","Josh-Okogie-409174","Karl-Anthony-Towns-18937","49800","279.87"
"Devin-Booker-18949","Malik-Beasley-35213","Taurean-Prince-35218","Dario-Saric-36004","Karl-Anthony-Towns-18937","Monte-Morris-37860","Josh-Jackson-37890","Deandre-Ayton-409301","49600","279.87"
"Devin-Booker-18949","Kyle-Korver-1269","Eric-Gordon-1077","Josh-Jackson-37890","Deandre-Ayton-409301","Monte-Morris-37860","Taurean-Prince-35218","Karl-Anthony-Towns-18937","50000","279.83"
"Devin-Booker-18949","Malik-Beasley-35213","Andrew-Wiggins-18620","Paul-Millsap-1335","Deandre-Ayton-409301","Jamal-Crawford-1075","Taurean-Prince-35218","Karl-Anthony-Towns-18937","49700","279.8"
"Devin-Booker-18949","Eric-Gordon-1077","Torrey-Craig-37861","Paul-Millsap-1335","Deandre-Ayton-409301","Monte-Morris-37860","Taurean-Prince-35218","Karl-Anthony-Towns-18937","49800","279.8"
"Devin-Booker-18949","Malik-Beasley-35213","Taurean-Prince-35218","Mason-Plumlee-16798","Deandre-Ayton-409301","Monte-Morris-37860","Josh-Jackson-37890","Karl-Anthony-Towns-18937","49700","279.78"
"Ricky-Rubio-1001","Malik-Beasley-35213","Josh-Jackson-37890","Kenneth-Faried-13313","Karl-Anthony-Towns-18937","Monte-Morris-37860","Paul-Millsap-1335","Deandre-Ayton-409301","50000","279.77"
"Devin-Booker-18949","Malik-Beasley-35213","Mikal-Bridges-408842","Kenneth-Faried-13313","Karl-Anthony-Towns-18937","Monte-Morris-37860","Torrey-Craig-37861","Deandre-Ayton-409301","49900","279.75"
"Devin-Booker-18949","Kelly-Oubre-18925","Josh-Okogie-409174","Paul-Millsap-1335","Karl-Anthony-Towns-18937","Malik-Beasley-35213","Taurean-Prince-35218","Deandre-Ayton-409301","49600","279.73"
"Devin-Booker-18949","Malik-Beasley-35213","Kelly-Oubre-18925","Josh-Jackson-37890","Deandre-Ayton-409301","Jamal-Crawford-1075","Paul-Millsap-1335","Karl-Anthony-Towns-18937","50000","279.73"
"Devin-Booker-18949","Kelly-Oubre-18925","Joe-Ingles-18627","Paul-Millsap-1335","Karl-Anthony-Towns-18937","Malik-Beasley-35213","Taurean-Prince-35218","Josh-Jackson-37890","50000","279.72"
"Devin-Booker-18949","Malik-Beasley-35213","Joe-Ingles-18627","Josh-Jackson-37890","Karl-Anthony-Towns-18937","Josh-Okogie-409174","Paul-Millsap-1335","Deandre-Ayton-409301","49900","279.71"
"Monte-Morris-37860","Will-Barton-13982","Taurean-Prince-35218","Josh-Jackson-37890","Rudy-Gobert-16935","Mikal-Bridges-408842","Paul-Millsap-1335","Karl-Anthony-Towns-18937","50000","279.7"
"Devin-Booker-18949","Malik-Beasley-35213","Mikal-Bridges-408842","Paul-Millsap-1335","Karl-Anthony-Towns-18937","Monte-Morris-37860","Eric-Gordon-1077","Deandre-Ayton-409301","49500","279.69"
"Devin-Booker-18949","Malik-Beasley-35213","Kelly-Oubre-18925","Paul-Millsap-1335","Rudy-Gobert-16935","Monte-Morris-37860","Taurean-Prince-35218","Deandre-Ayton-409301","49900","279.67"
"Devin-Booker-18949","Malik-Beasley-35213","Joe-Ingles-18627","Josh-Jackson-37890","Karl-Anthony-Towns-18937","Torrey-Craig-37861","Taurean-Prince-35218","Deandre-Ayton-409301","49600","279.65"
"Devin-Booker-18949","Torrey-Craig-37861","Taurean-Prince-35218","Josh-Jackson-37890","Deandre-Ayton-409301","Eric-Gordon-1077","Paul-Millsap-1335","Karl-Anthony-Towns-18937","49900","279.64"
"Malik-Beasley-35213","Andrew-Wiggins-18620","Joe-Ingles-18627","Paul-Millsap-1335","Karl-Anthony-Towns-18937","Monte-Morris-37860","Taurean-Prince-35218","Rudy-Gobert-16935","49900","279.62"
"Devin-Booker-18949","Eric-Gordon-1077","Josh-Okogie-409174","Paul-Millsap-1335","Karl-Anthony-Towns-18937","Monte-Morris-37860","Taurean-Prince-35218","Deandre-Ayton-409301","49800","279.61"
"Malik-Beasley-35213","Andrew-Wiggins-18620","Taurean-Prince-35218","Kenneth-Faried-13313","Deandre-Ayton-409301","Monte-Morris-37860","Paul-Millsap-1335","Karl-Anthony-Towns-18937","49500","279.61"
"Devin-Booker-18949","Torrey-Craig-37861","Will-Barton-13982","Paul-Millsap-1335","Deandre-Ayton-409301","Mikal-Bridges-408842","Taurean-Prince-35218","Karl-Anthony-Towns-18937","50000","279.6"
"Devin-Booker-18949","Malik-Beasley-35213","Taurean-Prince-35218","Taj-Gibson-1277","Deandre-Ayton-409301","Monte-Morris-37860","Josh-Jackson-37890","Karl-Anthony-Towns-18937","50000","279.6"
"Devin-Booker-18949","Malik-Beasley-35213","Mikal-Bridges-408842","Josh-Jackson-37890","Karl-Anthony-Towns-18937","Torrey-Craig-37861","Kenneth-Faried-13313","Deandre-Ayton-409301","50000","279.59"
"Devin-Booker-18949","Andrew-Wiggins-18620","Taurean-Prince-35218","Dario-Saric-36004","Karl-Anthony-Towns-18937","Malik-Beasley-35213","Paul-Millsap-1335","Deandre-Ayton-409301","50000","279.58"
"Austin-Rivers-13903","Devin-Booker-18949","Joe-Ingles-18627","Paul-Millsap-1335","Karl-Anthony-Towns-18937","Malik-Beasley-35213","Taurean-Prince-35218","Deandre-Ayton-409301","50000","279.57"
"Devin-Booker-18949","Malik-Beasley-35213","Kelly-Oubre-18925","Kenneth-Faried-13313","Karl-Anthony-Towns-18937","Monte-Morris-37860","Mikal-Bridges-408842","Taurean-Prince-35218","50000","279.57"
"Devin-Booker-18949","Malik-Beasley-35213","Mikal-Bridges-408842","Kenneth-Faried-13313","Deandre-Ayton-409301","Monte-Morris-37860","Josh-Okogie-409174","Karl-Anthony-Towns-18937","49900","279.56"
"Devin-Booker-18949","Malik-Beasley-35213","Will-Barton-13982","Paul-Millsap-1335","Karl-Anthony-Towns-18937","Monte-Morris-37860","Mikal-Bridges-408842","Josh-Jackson-37890","49900","279.55"
"Malik-Beasley-35213","Kelly-Oubre-18925","Josh-Jackson-37890","Kenneth-Faried-13313","Karl-Anthony-Towns-18937","Monte-Morris-37860","Paul-Millsap-1335","Deandre-Ayton-409301","49800","279.54"
"Devin-Booker-18949","Mikal-Bridges-408842","Joe-Ingles-18627","Paul-Millsap-1335","Karl-Anthony-Towns-18937","Eric-Gordon-1077","Taurean-Prince-35218","Deandre-Ayton-409301","50000","279.54"
"Devin-Booker-18949","Malik-Beasley-35213","Mikal-Bridges-408842","Josh-Jackson-37890","Deandre-Ayton-409301","Eric-Gordon-1077","Paul-Millsap-1335","Karl-Anthony-Towns-18937","49600","279.53"
"Devin-Booker-18949","Malik-Beasley-35213","Taurean-Prince-35218","Dewayne-Dedmon-16894","Karl-Anthony-Towns-18937","Monte-Morris-37860","Josh-Jackson-37890","Paul-Millsap-1335","49900","279.53"
"Ricky-Rubio-1001","Malik-Beasley-35213","Taurean-Prince-35218","Josh-Jackson-37890","Karl-Anthony-Towns-18937","Monte-Morris-37860","Kenneth-Faried-13313","Deandre-Ayton-409301","49700","279.52"
"Devin-Booker-18949","Kelly-Oubre-18925","Taurean-Prince-35218","Josh-Jackson-37890","Rudy-Gobert-16935","Malik-Beasley-35213","Paul-Millsap-1335","Deandre-Ayton-409301","50000","279.51"
"Devin-Booker-18949","Malik-Beasley-35213","Kelly-Oubre-18925","Josh-Jackson-37890","Deandre-Ayton-409301","Jamal-Crawford-1075","Taurean-Prince-35218","Karl-Anthony-Towns-18937","49700","279.48"
"Devin-Booker-18949","Malik-Beasley-35213","Taurean-Prince-35218","Dewayne-Dedmon-16894","Deandre-Ayton-409301","Mikal-Bridges-408842","Paul-Millsap-1335","Karl-Anthony-Towns-18937","49700","279.47"
