"Jeff-Teague-1005","Joe-Ingles-18627","Andrew-Wiggins-18620","LaMarcus-Aldridge-1349","Karl-Anthony-Towns-18937","Derrick-White-37858","Derrick-Favors-1266","Ante-Zizic-35180","49600","266.94"

"Jeff-Teague-1005","Joe-Ingles-18627","Andrew-Wiggins-18620","LaMarcus-Aldridge-1349","Karl-Anthony-Towns-18937","Derrick-White-37858","Derrick-Favors-1266","Ante-Zizic-35180","49600","266.94"
"Jeff-Teague-1005","Jordan-Clarkson-18631","Joe-Ingles-18627","LaMarcus-Aldridge-1349","Karl-Anthony-Towns-18937","Derrick-White-37858","Andrew-Wiggins-18620","Ante-Zizic-35180","49600","266.85"
"Jeff-Teague-1005","Derrick-White-37858","Joe-Ingles-18627","LaMarcus-Aldridge-1349","Karl-Anthony-Towns-18937","Andrew-Wiggins-18620","Rudy-Gay-1341","Ante-Zizic-35180","49500","265.51"
"Jeff-Teague-1005","Derrick-Rose-1086","Andrew-Wiggins-18620","LaMarcus-Aldridge-1349","Karl-Anthony-Towns-18937","Joe-Ingles-18627","Derrick-Favors-1266","Ante-Zizic-35180","49900","264.75"
"Jeff-Teague-1005","Derrick-Rose-1086","Joe-Ingles-18627","LaMarcus-Aldridge-1349","Karl-Anthony-Towns-18937","Jordan-Clarkson-18631","Andrew-Wiggins-18620","Ante-Zizic-35180","49900","264.66"
"Donovan-Mitchell-37875","Joe-Ingles-18627","Royce-O'Neale-37872","LaMarcus-Aldridge-1349","Ante-Zizic-35180","Andrew-Wiggins-18620","Marco-Belinelli-1033","Karl-Anthony-Towns-18937","49800","264.65"
"Donovan-Mitchell-37875","Joe-Ingles-18627","Royce-O'Neale-37872","LaMarcus-Aldridge-1349","Pau-Gasol-1502","Andrew-Wiggins-18620","Cedi-Osman-18912","Karl-Anthony-Towns-18937","49800","264.51"
"Jeff-Teague-1005","Joe-Ingles-18627","Royce-O'Neale-37872","LaMarcus-Aldridge-1349","Ante-Zizic-35180","Derrick-White-37858","Andrew-Wiggins-18620","Karl-Anthony-Towns-18937","48600","264.48"
"Jeff-Teague-1005","Derrick-Rose-1086","Joe-Ingles-18627","LaMarcus-Aldridge-1349","Pau-Gasol-1502","Derrick-White-37858","Andrew-Wiggins-18620","Karl-Anthony-Towns-18937","49600","264.47"
"Jeff-Teague-1005","Joe-Ingles-18627","Andrew-Wiggins-18620","LaMarcus-Aldridge-1349","Karl-Anthony-Towns-18937","Jordan-Clarkson-18631","Derrick-Favors-1266","Ante-Zizic-35180","49300","264.3"
"Donovan-Mitchell-37875","Joe-Ingles-18627","Royce-O'Neale-37872","LaMarcus-Aldridge-1349","Karl-Anthony-Towns-18937","Derrick-White-37858","Cedi-Osman-18912","Ante-Zizic-35180","50000","264.24"
"Jeff-Teague-1005","Jordan-Clarkson-18631","Royce-O'Neale-37872","Derrick-Favors-1266","Karl-Anthony-Towns-18937","Andrew-Wiggins-18620","Joe-Ingles-18627","LaMarcus-Aldridge-1349","49900","264.2"
"Donovan-Mitchell-37875","Joe-Ingles-18627","Royce-O'Neale-37872","LaMarcus-Aldridge-1349","Karl-Anthony-Towns-18937","Collin-Sexton-408896","Andrew-Wiggins-18620","Pau-Gasol-1502","49900","264.2"
"Jeff-Teague-1005","Joe-Ingles-18627","Andrew-Wiggins-18620","LaMarcus-Aldridge-1349","Karl-Anthony-Towns-18937","Derrick-White-37858","Derrick-Favors-1266","Pau-Gasol-1502","49000","264.11"
"Jeff-Teague-1005","Donovan-Mitchell-37875","Joe-Ingles-18627","Cedi-Osman-18912","Karl-Anthony-Towns-18937","Derrick-White-37858","Andrew-Wiggins-18620","Ante-Zizic-35180","50000","264.11"
"Donovan-Mitchell-37875","Joe-Ingles-18627","Royce-O'Neale-37872","LaMarcus-Aldridge-1349","Karl-Anthony-Towns-18937","Bryn-Forbes-36052","Andrew-Wiggins-18620","Pau-Gasol-1502","49800","264.02"
"Jeff-Teague-1005","Jordan-Clarkson-18631","Joe-Ingles-18627","LaMarcus-Aldridge-1349","Pau-Gasol-1502","Derrick-White-37858","Andrew-Wiggins-18620","Karl-Anthony-Towns-18937","49000","264.02"
"Alec-Burks-13353","Derrick-White-37858","Joe-Ingles-18627","LaMarcus-Aldridge-1349","Karl-Anthony-Towns-18937","Jeff-Teague-1005","Andrew-Wiggins-18620","Ante-Zizic-35180","49100","263.87"
"Jeff-Teague-1005","Joe-Ingles-18627","Royce-O'Neale-37872","Jae-Crowder-13942","Karl-Anthony-Towns-18937","Donovan-Mitchell-37875","LaMarcus-Aldridge-1349","Pau-Gasol-1502","50000","263.81"
"Alec-Burks-13353","Joe-Ingles-18627","Royce-O'Neale-37872","LaMarcus-Aldridge-1349","Karl-Anthony-Towns-18937","Derrick-White-37858","Andrew-Wiggins-18620","Jeff-Teague-1005","49700","263.77"
"Donovan-Mitchell-37875","Derrick-White-37858","Royce-O'Neale-37872","LaMarcus-Aldridge-1349","Karl-Anthony-Towns-18937","Bryn-Forbes-36052","Joe-Ingles-18627","Ante-Zizic-35180","50000","263.75"
"Jeff-Teague-1005","Donovan-Mitchell-37875","Royce-O'Neale-37872","Derrick-Favors-1266","Karl-Anthony-Towns-18937","Andrew-Wiggins-18620","Joe-Ingles-18627","Ante-Zizic-35180","49600","263.56"
"Jeff-Teague-1005","Derrick-Rose-1086","Joe-Ingles-18627","LaMarcus-Aldridge-1349","Karl-Anthony-Towns-18937","Andrew-Wiggins-18620","Rudy-Gay-1341","Ante-Zizic-35180","49800","263.32"
"Derrick-White-37858","Joe-Ingles-18627","Royce-O'Neale-37872","Derrick-Favors-1266","Karl-Anthony-Towns-18937","Andrew-Wiggins-18620","Cedi-Osman-18912","Rudy-Gobert-16935","49900","263.3"
"Jeff-Teague-1005","Joe-Ingles-18627","Royce-O'Neale-37872","LaMarcus-Aldridge-1349","Ante-Zizic-35180","Donovan-Mitchell-37875","Marco-Belinelli-1033","Karl-Anthony-Towns-18937","49700","263.29"
"Jordan-Clarkson-18631","Joe-Ingles-18627","Royce-O'Neale-37872","LaMarcus-Aldridge-1349","Karl-Anthony-Towns-18937","Donovan-Mitchell-37875","Derrick-Favors-1266","Pau-Gasol-1502","50000","263.23"
"Jordan-Clarkson-18631","Joe-Ingles-18627","Royce-O'Neale-37872","Cedi-Osman-18912","Rudy-Gobert-16935","Derrick-White-37858","Andrew-Wiggins-18620","Karl-Anthony-Towns-18937","49900","263.21"
"Jeff-Teague-1005","Joe-Ingles-18627","Royce-O'Neale-37872","LaMarcus-Aldridge-1349","Pau-Gasol-1502","Donovan-Mitchell-37875","Cedi-Osman-18912","Karl-Anthony-Towns-18937","49700","263.15"
"Jeff-Teague-1005","Derrick-White-37858","Jae-Crowder-13942","LaMarcus-Aldridge-1349","Karl-Anthony-Towns-18937","Andrew-Wiggins-18620","Joe-Ingles-18627","Ante-Zizic-35180","49000","263.14"
"Jeff-Teague-1005","Donovan-Mitchell-37875","Royce-O'Neale-37872","LaMarcus-Aldridge-1349","Pau-Gasol-1502","Derrick-White-37858","Joe-Ingles-18627","Rudy-Gobert-16935","50000","263.14"
"Jeff-Teague-1005","Jordan-Clarkson-18631","Joe-Ingles-18627","Derrick-Favors-1266","Karl-Anthony-Towns-18937","Donovan-Mitchell-37875","Andrew-Wiggins-18620","Pau-Gasol-1502","50000","263.1"
"Jeff-Teague-1005","Joe-Ingles-18627","Royce-O'Neale-37872","Jae-Crowder-13942","Karl-Anthony-Towns-18937","Derrick-White-37858","LaMarcus-Aldridge-1349","Andrew-Wiggins-18620","49600","263.04"
"Derrick-White-37858","Marco-Belinelli-1033","Royce-O'Neale-37872","LaMarcus-Aldridge-1349","Karl-Anthony-Towns-18937","Joe-Ingles-18627","Cedi-Osman-18912","Rudy-Gobert-16935","50000","263.03"
"Derrick-Rose-1086","Joe-Ingles-18627","Andrew-Wiggins-18620","LaMarcus-Aldridge-1349","Karl-Anthony-Towns-18937","Derrick-White-37858","Derrick-Favors-1266","Ante-Zizic-35180","49600","263.01"
"Collin-Sexton-408896","Derrick-White-37858","Royce-O'Neale-37872","Derrick-Favors-1266","Karl-Anthony-Towns-18937","Andrew-Wiggins-18620","Joe-Ingles-18627","Rudy-Gobert-16935","50000","262.99"
"Jeff-Teague-1005","Joe-Ingles-18627","Rudy-Gay-1341","LaMarcus-Aldridge-1349","Ante-Zizic-35180","Andrew-Wiggins-18620","Derrick-Favors-1266","Karl-Anthony-Towns-18937","49200","262.96"
"Derrick-Rose-1086","Jordan-Clarkson-18631","Joe-Ingles-18627","LaMarcus-Aldridge-1349","Karl-Anthony-Towns-18937","Derrick-White-37858","Andrew-Wiggins-18620","Ante-Zizic-35180","49600","262.92"
"Jeff-Teague-1005","Derrick-White-37858","Marco-Belinelli-1033","Cedi-Osman-18912","Rudy-Gobert-16935","Andrew-Wiggins-18620","Joe-Ingles-18627","Karl-Anthony-Towns-18937","50000","262.9"
"Jeff-Teague-1005","Jordan-Clarkson-18631","Joe-Ingles-18627","LaMarcus-Aldridge-1349","Karl-Anthony-Towns-18937","Andrew-Wiggins-18620","Rudy-Gay-1341","Ante-Zizic-35180","49200","262.87"
"Jeff-Teague-1005","Joe-Ingles-18627","Royce-O'Neale-37872","Derrick-Favors-1266","Karl-Anthony-Towns-18937","Andrew-Wiggins-18620","Rudy-Gay-1341","LaMarcus-Aldridge-1349","49800","262.86"
"Jeff-Teague-1005","Donovan-Mitchell-37875","Royce-O'Neale-37872","LaMarcus-Aldridge-1349","Karl-Anthony-Towns-18937","Collin-Sexton-408896","Joe-Ingles-18627","Pau-Gasol-1502","49800","262.84"
"Derrick-White-37858","Andrew-Wiggins-18620","Royce-O'Neale-37872","Derrick-Favors-1266","Karl-Anthony-Towns-18937","Bryn-Forbes-36052","Joe-Ingles-18627","Rudy-Gobert-16935","49900","262.81"
"Alec-Burks-13353","Donovan-Mitchell-37875","Royce-O'Neale-37872","LaMarcus-Aldridge-1349","Karl-Anthony-Towns-18937","Derrick-White-37858","Joe-Ingles-18627","Pau-Gasol-1502","49800","262.8"
"Jeff-Teague-1005","Jordan-Clarkson-18631","Royce-O'Neale-37872","Rudy-Gay-1341","LaMarcus-Aldridge-1349","Andrew-Wiggins-18620","Joe-Ingles-18627","Karl-Anthony-Towns-18937","49800","262.77"
"Jeff-Teague-1005","Derrick-White-37858","Joe-Ingles-18627","LaMarcus-Aldridge-1349","Karl-Anthony-Towns-18937","Andrew-Wiggins-18620","Rudy-Gay-1341","Pau-Gasol-1502","48900","262.68"
"Jeff-Teague-1005","Donovan-Mitchell-37875","Royce-O'Neale-37872","LaMarcus-Aldridge-1349","Karl-Anthony-Towns-18937","Bryn-Forbes-36052","Joe-Ingles-18627","Pau-Gasol-1502","49700","262.66"
"Donovan-Mitchell-37875","Marco-Belinelli-1033","Joe-Ingles-18627","LaMarcus-Aldridge-1349","Karl-Anthony-Towns-18937","Andrew-Wiggins-18620","Cedi-Osman-18912","Ante-Zizic-35180","49900","262.65"
"Alec-Burks-13353","Joe-Ingles-18627","Royce-O'Neale-37872","Jae-Crowder-13942","Rudy-Gobert-16935","Jeff-Teague-1005","Andrew-Wiggins-18620","Karl-Anthony-Towns-18937","50000","262.63"
"Jordan-Clarkson-18631","Joe-Ingles-18627","Andrew-Wiggins-18620","LaMarcus-Aldridge-1349","Karl-Anthony-Towns-18937","Derrick-White-37858","Derrick-Favors-1266","Ante-Zizic-35180","49000","262.56"
"Derrick-White-37858","Joe-Ingles-18627","Royce-O'Neale-37872","LaMarcus-Aldridge-1349","Rudy-Gobert-16935","Bryn-Forbes-36052","Marco-Belinelli-1033","Karl-Anthony-Towns-18937","50000","262.54"
"Jeff-Teague-1005","Derrick-White-37858","Joe-Ingles-18627","LaMarcus-Aldridge-1349","Karl-Anthony-Towns-18937","Andrew-Wiggins-18620","Cedi-Osman-18912","Ante-Zizic-35180","48700","262.48"
"Donovan-Mitchell-37875","Joe-Ingles-18627","Royce-O'Neale-37872","LaMarcus-Aldridge-1349","Karl-Anthony-Towns-18937","Rodney-Hood-18629","Andrew-Wiggins-18620","Pau-Gasol-1502","49700","262.46"
"Jordan-Clarkson-18631","Derrick-White-37858","Royce-O'Neale-37872","Derrick-Favors-1266","Karl-Anthony-Towns-18937","Andrew-Wiggins-18620","Joe-Ingles-18627","LaMarcus-Aldridge-1349","49600","262.46"
"Jeff-Teague-1005","Derrick-White-37858","Joe-Ingles-18627","LaMarcus-Aldridge-1349","Karl-Anthony-Towns-18937","Andrew-Wiggins-18620","Cedi-Osman-18912","Royce-O'Neale-37872","49300","262.38"
"Donovan-Mitchell-37875","Joe-Ingles-18627","Royce-O'Neale-37872","LaMarcus-Aldridge-1349","Pau-Gasol-1502","Andrew-Wiggins-18620","Josh-Okogie-409174","Karl-Anthony-Towns-18937","49900","262.38"
"Jeff-Teague-1005","Joe-Ingles-18627","Royce-O'Neale-37872","LaMarcus-Aldridge-1349","Ante-Zizic-35180","Donovan-Mitchell-37875","Davis-Bertans-36051","Karl-Anthony-Towns-18937","50000","262.36"
"Jeff-Teague-1005","Marco-Belinelli-1033","Royce-O'Neale-37872","Derrick-Favors-1266","Karl-Anthony-Towns-18937","Andrew-Wiggins-18620","Joe-Ingles-18627","Rudy-Gobert-16935","49600","262.35"
"Donovan-Mitchell-37875","Joe-Ingles-18627","Marco-Belinelli-1033","LaMarcus-Aldridge-1349","Ante-Zizic-35180","Collin-Sexton-408896","Andrew-Wiggins-18620","Karl-Anthony-Towns-18937","50000","262.34"
"Donovan-Mitchell-37875","Joe-Ingles-18627","Andrew-Wiggins-18620","LaMarcus-Aldridge-1349","Karl-Anthony-Towns-18937","Derrick-White-37858","Gorgui-Dieng-16939","Pau-Gasol-1502","49900","262.31"
"Jeff-Teague-1005","Derrick-Rose-1086","Royce-O'Neale-37872","LaMarcus-Aldridge-1349","Ante-Zizic-35180","Joe-Ingles-18627","Andrew-Wiggins-18620","Karl-Anthony-Towns-18937","48900","262.29"
"Jordan-Clarkson-18631","Joe-Ingles-18627","Royce-O'Neale-37872","Jae-Crowder-13942","Karl-Anthony-Towns-18937","Donovan-Mitchell-37875","LaMarcus-Aldridge-1349","Ante-Zizic-35180","50000","262.26"
"Jeff-Teague-1005","Donovan-Mitchell-37875","Jae-Crowder-13942","Derrick-Favors-1266","Ante-Zizic-35180","Andrew-Wiggins-18620","Joe-Ingles-18627","Karl-Anthony-Towns-18937","50000","262.22"
"Jeff-Teague-1005","Jordan-Clarkson-18631","Joe-Ingles-18627","LaMarcus-Aldridge-1349","Karl-Anthony-Towns-18937","Andrew-Wiggins-18620","Cedi-Osman-18912","Derrick-Favors-1266","50000","262.2"
"Donovan-Mitchell-37875","Joe-Ingles-18627","Cedi-Osman-18912","LaMarcus-Aldridge-1349","Pau-Gasol-1502","Collin-Sexton-408896","Andrew-Wiggins-18620","Karl-Anthony-Towns-18937","50000","262.2"
"Donovan-Mitchell-37875","Derrick-White-37858","Royce-O'Neale-37872","LaMarcus-Aldridge-1349","Karl-Anthony-Towns-18937","Rodney-Hood-18629","Joe-Ingles-18627","Ante-Zizic-35180","49900","262.19"
"Jeff-Teague-1005","Derrick-White-37858","Joe-Ingles-18627","LaMarcus-Aldridge-1349","Karl-Anthony-Towns-18937","Collin-Sexton-408896","Andrew-Wiggins-18620","Ante-Zizic-35180","48800","262.17"
"Donovan-Mitchell-37875","Joe-Ingles-18627","Marco-Belinelli-1033","LaMarcus-Aldridge-1349","Ante-Zizic-35180","Bryn-Forbes-36052","Andrew-Wiggins-18620","Karl-Anthony-Towns-18937","49900","262.16"
"Jeff-Teague-1005","Joe-Ingles-18627","Marco-Belinelli-1033","LaMarcus-Aldridge-1349","Karl-Anthony-Towns-18937","Derrick-White-37858","Andrew-Wiggins-18620","Derrick-Favors-1266","49700","262.15"
"Jeff-Teague-1005","Joe-Ingles-18627","Royce-O'Neale-37872","Rudy-Gay-1341","Ante-Zizic-35180","Donovan-Mitchell-37875","Andrew-Wiggins-18620","Karl-Anthony-Towns-18937","49500","262.13"
"Jeff-Teague-1005","Jordan-Clarkson-18631","Joe-Ingles-18627","Jae-Crowder-13942","Ante-Zizic-35180","Donovan-Mitchell-37875","Andrew-Wiggins-18620","Karl-Anthony-Towns-18937","50000","262.13"
"Jeff-Teague-1005","Joe-Ingles-18627","Royce-O'Neale-37872","LaMarcus-Aldridge-1349","Karl-Anthony-Towns-18937","Collin-Sexton-408896","Andrew-Wiggins-18620","Derrick-White-37858","49400","262.07"
"Donovan-Mitchell-37875","Joe-Ingles-18627","Royce-O'Neale-37872","Jae-Crowder-13942","Karl-Anthony-Towns-18937","Derrick-White-37858","LaMarcus-Aldridge-1349","Pau-Gasol-1502","49700","262.07"
"Jeff-Teague-1005","Joe-Ingles-18627","Marco-Belinelli-1033","LaMarcus-Aldridge-1349","Karl-Anthony-Towns-18937","Derrick-White-37858","Andrew-Wiggins-18620","Jordan-Clarkson-18631","49700","262.06"
"Alec-Burks-13353","Jordan-Clarkson-18631","Royce-O'Neale-37872","Derrick-Favors-1266","Karl-Anthony-Towns-18937","Andrew-Wiggins-18620","Joe-Ingles-18627","Rudy-Gobert-16935","50000","262.05"
"Donovan-Mitchell-37875","Joe-Ingles-18627","Cedi-Osman-18912","LaMarcus-Aldridge-1349","Pau-Gasol-1502","Bryn-Forbes-36052","Andrew-Wiggins-18620","Karl-Anthony-Towns-18937","49900","262.02"
"Jeff-Teague-1005","Derrick-White-37858","Joe-Ingles-18627","LaMarcus-Aldridge-1349","Karl-Anthony-Towns-18937","Bryn-Forbes-36052","Andrew-Wiggins-18620","Ante-Zizic-35180","48700","261.99"
"Alec-Burks-13353","Joe-Ingles-18627","Royce-O'Neale-37872","Cedi-Osman-18912","Rudy-Gobert-16935","Jeff-Teague-1005","Andrew-Wiggins-18620","Karl-Anthony-Towns-18937","49700","261.97"
"Donovan-Mitchell-37875","Joe-Ingles-18627","Royce-O'Neale-37872","LaMarcus-Aldridge-1349","Rudy-Gobert-16935","Andrew-Wiggins-18620","Derrick-Favors-1266","Pau-Gasol-1502","49800","261.95"
"Jeff-Teague-1005","Joe-Ingles-18627","Royce-O'Neale-37872","Derrick-Favors-1266","Karl-Anthony-Towns-18937","Derrick-White-37858","Cedi-Osman-18912","Rudy-Gobert-16935","49800","261.94"
"Jeff-Teague-1005","Donovan-Mitchell-37875","Joe-Ingles-18627","Jae-Crowder-13942","Karl-Anthony-Towns-18937","Derrick-White-37858","Andrew-Wiggins-18620","Pau-Gasol-1502","49700","261.94"
"Jeff-Teague-1005","Joe-Ingles-18627","Royce-O'Neale-37872","LaMarcus-Aldridge-1349","Ante-Zizic-35180","Andrew-Wiggins-18620","Derrick-Favors-1266","Karl-Anthony-Towns-18937","48300","261.93"
"Jeff-Teague-1005","Derrick-Rose-1086","Andrew-Wiggins-18620","LaMarcus-Aldridge-1349","Karl-Anthony-Towns-18937","Joe-Ingles-18627","Derrick-Favors-1266","Pau-Gasol-1502","49300","261.92"
"Jeff-Teague-1005","Joe-Ingles-18627","Royce-O'Neale-37872","LaMarcus-Aldridge-1349","Karl-Anthony-Towns-18937","Derrick-White-37858","Andrew-Wiggins-18620","Bryn-Forbes-36052","49300","261.89"
"Derrick-White-37858","Joe-Ingles-18627","Royce-O'Neale-37872","Rudy-Gay-1341","Karl-Anthony-Towns-18937","Andrew-Wiggins-18620","Cedi-Osman-18912","Rudy-Gobert-16935","49800","261.87"
"Jordan-Clarkson-18631","Joe-Ingles-18627","Royce-O'Neale-37872","LaMarcus-Aldridge-1349","Rudy-Gobert-16935","Donovan-Mitchell-37875","Andrew-Wiggins-18620","Pau-Gasol-1502","49800","261.86"
"Jeff-Teague-1005","Jordan-Clarkson-18631","Royce-O'Neale-37872","Cedi-Osman-18912","Karl-Anthony-Towns-18937","Derrick-White-37858","Joe-Ingles-18627","Rudy-Gobert-16935","49800","261.85"
"Jeff-Teague-1005","Joe-Ingles-18627","Royce-O'Neale-37872","LaMarcus-Aldridge-1349","Ante-Zizic-35180","Jordan-Clarkson-18631","Andrew-Wiggins-18620","Karl-Anthony-Towns-18937","48300","261.84"
"Jeff-Teague-1005","Derrick-Rose-1086","Joe-Ingles-18627","LaMarcus-Aldridge-1349","Pau-Gasol-1502","Jordan-Clarkson-18631","Andrew-Wiggins-18620","Karl-Anthony-Towns-18937","49300","261.83"
"Donovan-Mitchell-37875","Marco-Belinelli-1033","Royce-O'Neale-37872","LaMarcus-Aldridge-1349","Karl-Anthony-Towns-18937","Joe-Ingles-18627","Andrew-Wiggins-18620","Pau-Gasol-1502","49200","261.82"
"Donovan-Mitchell-37875","Derrick-White-37858","Royce-O'Neale-37872","Derrick-Favors-1266","Karl-Anthony-Towns-18937","Andrew-Wiggins-18620","Joe-Ingles-18627","Ante-Zizic-35180","49300","261.82"
"Jordan-Clarkson-18631","Joe-Ingles-18627","Royce-O'Neale-37872","LaMarcus-Aldridge-1349","Pau-Gasol-1502","Donovan-Mitchell-37875","Rudy-Gay-1341","Karl-Anthony-Towns-18937","49900","261.8"
"Alec-Burks-13353","Derrick-White-37858","Joe-Ingles-18627","LaMarcus-Aldridge-1349","Karl-Anthony-Towns-18937","Andrew-Wiggins-18620","Cedi-Osman-18912","Jeff-Teague-1005","49800","261.77"
"Jeff-Teague-1005","Donovan-Mitchell-37875","Joe-Ingles-18627","Derrick-Favors-1266","Karl-Anthony-Towns-18937","Andrew-Wiggins-18620","Rudy-Gay-1341","Pau-Gasol-1502","49900","261.76"
"Alec-Burks-13353","Joe-Ingles-18627","Royce-O'Neale-37872","LaMarcus-Aldridge-1349","Ante-Zizic-35180","Donovan-Mitchell-37875","Andrew-Wiggins-18620","Rudy-Gobert-16935","49900","261.71"
"Jeff-Teague-1005","Jordan-Clarkson-18631","Joe-Ingles-18627","LaMarcus-Aldridge-1349","Derrick-Favors-1266","Bryn-Forbes-36052","Andrew-Wiggins-18620","Karl-Anthony-Towns-18937","50000","261.71"
"Donovan-Mitchell-37875","Bryn-Forbes-36052","Joe-Ingles-18627","LaMarcus-Aldridge-1349","Pau-Gasol-1502","Collin-Sexton-408896","Andrew-Wiggins-18620","Karl-Anthony-Towns-18937","50000","261.71"
"Jeff-Teague-1005","Joe-Ingles-18627","Royce-O'Neale-37872","Derrick-Favors-1266","Rudy-Gobert-16935","Andrew-Wiggins-18620","Dario-Saric-36004","Karl-Anthony-Towns-18937","50000","261.69"
"Donovan-Mitchell-37875","Joe-Ingles-18627","Royce-O'Neale-37872","LaMarcus-Aldridge-1349","Ante-Zizic-35180","Derrick-White-37858","Derrick-Favors-1266","Rudy-Gobert-16935","50000","261.68"
"Alec-Burks-13353","Derrick-Rose-1086","Joe-Ingles-18627","LaMarcus-Aldridge-1349","Karl-Anthony-Towns-18937","Jeff-Teague-1005","Andrew-Wiggins-18620","Ante-Zizic-35180","49400","261.68"
"Jeff-Teague-1005","Jordan-Clarkson-18631","Joe-Ingles-18627","Rudy-Gay-1341","Pau-Gasol-1502","Donovan-Mitchell-37875","Andrew-Wiggins-18620","Karl-Anthony-Towns-18937","49900","261.67"
