"Terry-Rozier-18894","Kris-Dunn-35215","Josh-Okogie-409174","Thomas-Bryant--37884","Karl-Anthony-Towns-18937","Zach-LaVine-18622","Daniel-Theis-37784","Marc-Gasol-1493","49900","289.66"

"Terry-Rozier-18894","Kris-Dunn-35215","Josh-Okogie-409174","Thomas-Bryant--37884","Karl-Anthony-Towns-18937","Zach-LaVine-18622","Daniel-Theis-37784","Marc-Gasol-1493","49900","289.66"
"Ricky-Rubio-1001","Kris-Dunn-35215","Josh-Okogie-409174","Thomas-Bryant--37884","Karl-Anthony-Towns-18937","Zach-LaVine-18622","Daniel-Theis-37784","Marc-Gasol-1493","49900","289.27"
"Ricky-Rubio-1001","Terry-Rozier-18894","Josh-Okogie-409174","Thomas-Bryant--37884","Karl-Anthony-Towns-18937","Zach-LaVine-18622","Daniel-Theis-37784","Marc-Gasol-1493","49900","289.16"
"Kris-Dunn-35215","Josh-Okogie-409174","TJ-Warren-18634","Thomas-Bryant--37884","Marc-Gasol-1493","Zach-LaVine-18622","Daniel-Theis-37784","Karl-Anthony-Towns-18937","50000","288.37"
"Donovan-Mitchell-37875","Kris-Dunn-35215","Josh-Okogie-409174","Thomas-Bryant--37884","Karl-Anthony-Towns-18937","Zach-LaVine-18622","Daniel-Theis-37784","Hassan-Whiteside-18664","49700","288.36"
"Terry-Rozier-18894","Josh-Okogie-409174","TJ-Warren-18634","Thomas-Bryant--37884","Marc-Gasol-1493","Zach-LaVine-18622","Daniel-Theis-37784","Karl-Anthony-Towns-18937","50000","288.26"
"Terry-Rozier-18894","Donovan-Mitchell-37875","Josh-Okogie-409174","Thomas-Bryant--37884","Karl-Anthony-Towns-18937","Zach-LaVine-18622","Daniel-Theis-37784","Hassan-Whiteside-18664","49700","288.25"
"Kris-Dunn-35215","Josh-Okogie-409174","Kyle-Kuzma-37886","Thomas-Bryant--37884","Karl-Anthony-Towns-18937","Zach-LaVine-18622","Daniel-Theis-37784","Hassan-Whiteside-18664","49800","288.25"
"Terry-Rozier-18894","Josh-Okogie-409174","Kyle-Kuzma-37886","Thomas-Bryant--37884","Karl-Anthony-Towns-18937","Zach-LaVine-18622","Daniel-Theis-37784","Hassan-Whiteside-18664","49800","288.14"
"Kris-Dunn-35215","Josh-Okogie-409174","Chandler-Hutchison-408877","Thomas-Bryant--37884","Karl-Anthony-Towns-18937","Zach-LaVine-18622","Lauri-Markkanen-37809","Marc-Gasol-1493","49800","287.99"
"Terry-Rozier-18894","Josh-Okogie-409174","Chandler-Hutchison-408877","Thomas-Bryant--37884","Karl-Anthony-Towns-18937","Zach-LaVine-18622","Lauri-Markkanen-37809","Marc-Gasol-1493","49800","287.88"
"Ricky-Rubio-1001","Josh-Okogie-409174","TJ-Warren-18634","Thomas-Bryant--37884","Marc-Gasol-1493","Zach-LaVine-18622","Daniel-Theis-37784","Karl-Anthony-Towns-18937","50000","287.87"
"Ricky-Rubio-1001","Donovan-Mitchell-37875","Josh-Okogie-409174","Thomas-Bryant--37884","Karl-Anthony-Towns-18937","Zach-LaVine-18622","Daniel-Theis-37784","Hassan-Whiteside-18664","49700","287.86"
"Ricky-Rubio-1001","Josh-Okogie-409174","Kyle-Kuzma-37886","Thomas-Bryant--37884","Karl-Anthony-Towns-18937","Zach-LaVine-18622","Daniel-Theis-37784","Hassan-Whiteside-18664","49800","287.75"
"Terry-Rozier-18894","Kris-Dunn-35215","Kyle-Kuzma-37886","Daniel-Theis-37784","Hassan-Whiteside-18664","Zach-LaVine-18622","Josh-Okogie-409174","Karl-Anthony-Towns-18937","49900","287.73"
"Kris-Dunn-35215","Zach-LaVine-18622","Josh-Okogie-409174","Thomas-Bryant--37884","Karl-Anthony-Towns-18937","Alec-Burks-13353","Lauri-Markkanen-37809","Hassan-Whiteside-18664","49900","287.59"
"Donovan-Mitchell-37875","Josh-Okogie-409174","Jayson-Tatum-37782","Thomas-Bryant--37884","Hassan-Whiteside-18664","Zach-LaVine-18622","Daniel-Theis-37784","Karl-Anthony-Towns-18937","49900","287.54"
"Ricky-Rubio-1001","Josh-Okogie-409174","Chandler-Hutchison-408877","Thomas-Bryant--37884","Karl-Anthony-Towns-18937","Zach-LaVine-18622","Lauri-Markkanen-37809","Marc-Gasol-1493","49800","287.49"
"Terry-Rozier-18894","Zach-LaVine-18622","Josh-Okogie-409174","Thomas-Bryant--37884","Karl-Anthony-Towns-18937","Alec-Burks-13353","Lauri-Markkanen-37809","Hassan-Whiteside-18664","49900","287.48"
"Terry-Rozier-18894","Kris-Dunn-35215","Josh-Okogie-409174","Lauri-Markkanen-37809","Karl-Anthony-Towns-18937","Zach-LaVine-18622","Chandler-Hutchison-408877","Marc-Gasol-1493","49900","287.47"
"Ricky-Rubio-1001","Kris-Dunn-35215","Kyle-Kuzma-37886","Daniel-Theis-37784","Hassan-Whiteside-18664","Zach-LaVine-18622","Josh-Okogie-409174","Karl-Anthony-Towns-18937","49900","287.34"
"Trae-Young-409063","Kris-Dunn-35215","Josh-Okogie-409174","Thomas-Bryant--37884","Karl-Anthony-Towns-18937","Zach-LaVine-18622","Daniel-Theis-37784","Marc-Gasol-1493","49700","287.32"
"Terry-Rozier-18894","Donovan-Mitchell-37875","Josh-Okogie-409174","Lauri-Markkanen-37809","Hassan-Whiteside-18664","Kris-Dunn-35215","Daniel-Theis-37784","Karl-Anthony-Towns-18937","50000","287.3"
"Trae-Young-409063","Donovan-Mitchell-37875","Josh-Okogie-409174","Lauri-Markkanen-37809","Hassan-Whiteside-18664","Zach-LaVine-18622","Daniel-Theis-37784","Karl-Anthony-Towns-18937","50000","287.24"
"Ricky-Rubio-1001","Terry-Rozier-18894","Kyle-Kuzma-37886","Daniel-Theis-37784","Hassan-Whiteside-18664","Zach-LaVine-18622","Josh-Okogie-409174","Karl-Anthony-Towns-18937","49900","287.23"
"Trae-Young-409063","Terry-Rozier-18894","Josh-Okogie-409174","Thomas-Bryant--37884","Karl-Anthony-Towns-18937","Zach-LaVine-18622","Daniel-Theis-37784","Marc-Gasol-1493","49700","287.21"
"Donovan-Mitchell-37875","Kris-Dunn-35215","Josh-Okogie-409174","Jayson-Tatum-37782","Hassan-Whiteside-18664","Zach-LaVine-18622","Daniel-Theis-37784","Karl-Anthony-Towns-18937","50000","287.13"
"Ricky-Rubio-1001","Zach-LaVine-18622","Josh-Okogie-409174","Thomas-Bryant--37884","Karl-Anthony-Towns-18937","Alec-Burks-13353","Lauri-Markkanen-37809","Hassan-Whiteside-18664","49900","287.09"
"Ricky-Rubio-1001","Kris-Dunn-35215","Josh-Okogie-409174","Lauri-Markkanen-37809","Karl-Anthony-Towns-18937","Zach-LaVine-18622","Chandler-Hutchison-408877","Marc-Gasol-1493","49900","287.08"
"Terry-Rozier-18894","Donovan-Mitchell-37875","Josh-Okogie-409174","Jayson-Tatum-37782","Hassan-Whiteside-18664","Zach-LaVine-18622","Daniel-Theis-37784","Karl-Anthony-Towns-18937","50000","287.02"
"Ricky-Rubio-1001","Terry-Rozier-18894","Josh-Okogie-409174","Lauri-Markkanen-37809","Karl-Anthony-Towns-18937","Zach-LaVine-18622","Chandler-Hutchison-408877","Marc-Gasol-1493","49900","286.97"
"Donovan-Mitchell-37875","Josh-Okogie-409174","TJ-Warren-18634","Thomas-Bryant--37884","Karl-Anthony-Towns-18937","Zach-LaVine-18622","Daniel-Theis-37784","Hassan-Whiteside-18664","49800","286.96"
"Ricky-Rubio-1001","Donovan-Mitchell-37875","Josh-Okogie-409174","Lauri-Markkanen-37809","Hassan-Whiteside-18664","Kris-Dunn-35215","Daniel-Theis-37784","Karl-Anthony-Towns-18937","50000","286.91"
"Dennis-Schroder-18595","Donovan-Mitchell-37875","Josh-Okogie-409174","Thomas-Bryant--37884","Karl-Anthony-Towns-18937","Kris-Dunn-35215","Daniel-Theis-37784","Marc-Gasol-1493","50000","286.91"
"Ricky-Rubio-1001","Terry-Rozier-18894","Josh-Okogie-409174","Thomas-Bryant--37884","Karl-Anthony-Towns-18937","Kris-Dunn-35215","Daniel-Theis-37784","Marc-Gasol-1493","49700","286.88"
"Marcus-Smart-18567","Kris-Dunn-35215","Josh-Okogie-409174","Thomas-Bryant--37884","Karl-Anthony-Towns-18937","Zach-LaVine-18622","Lauri-Markkanen-37809","Hassan-Whiteside-18664","49800","286.86"
"Donovan-Mitchell-37875","Kevin-Huerter-408969","Josh-Okogie-409174","Lauri-Markkanen-37809","Marc-Gasol-1493","Zach-LaVine-18622","Daniel-Theis-37784","Karl-Anthony-Towns-18937","50000","286.85"
"Trae-Young-409063","Zach-LaVine-18622","Josh-Okogie-409174","Thomas-Bryant--37884","Karl-Anthony-Towns-18937","Ricky-Rubio-1001","Daniel-Theis-37784","Marc-Gasol-1493","49700","286.82"
"Dennis-Schroder-18595","Terry-Rozier-18894","Josh-Okogie-409174","Thomas-Bryant--37884","Karl-Anthony-Towns-18937","Donovan-Mitchell-37875","Daniel-Theis-37784","Marc-Gasol-1493","50000","286.8"
"Ricky-Rubio-1001","Terry-Rozier-18894","Josh-Okogie-409174","Lauri-Markkanen-37809","Hassan-Whiteside-18664","Donovan-Mitchell-37875","Daniel-Theis-37784","Karl-Anthony-Towns-18937","50000","286.8"
"Terry-Rozier-18894","Marcus-Smart-18567","Josh-Okogie-409174","Thomas-Bryant--37884","Karl-Anthony-Towns-18937","Zach-LaVine-18622","Lauri-Markkanen-37809","Hassan-Whiteside-18664","49800","286.75"
"Ricky-Rubio-1001","Donovan-Mitchell-37875","Josh-Okogie-409174","Jayson-Tatum-37782","Hassan-Whiteside-18664","Zach-LaVine-18622","Daniel-Theis-37784","Karl-Anthony-Towns-18937","50000","286.63"
"Donovan-Mitchell-37875","Zach-LaVine-18622","Josh-Okogie-409174","Lauri-Markkanen-37809","Marc-Gasol-1493","Alec-Burks-13353","Daniel-Theis-37784","Karl-Anthony-Towns-18937","49800","286.6"
"Donovan-Mitchell-37875","Josh-Okogie-409174","Chandler-Hutchison-408877","Thomas-Bryant--37884","Hassan-Whiteside-18664","Zach-LaVine-18622","Lauri-Markkanen-37809","Karl-Anthony-Towns-18937","49600","286.58"
"Terry-Rozier-18894","Josh-Okogie-409174","Jayson-Tatum-37782","Thomas-Bryant--37884","Karl-Anthony-Towns-18937","Kris-Dunn-35215","Daniel-Theis-37784","Marc-Gasol-1493","49900","286.56"
"Donovan-Mitchell-37875","Kris-Dunn-35215","Josh-Okogie-409174","TJ-Warren-18634","Karl-Anthony-Towns-18937","Zach-LaVine-18622","Daniel-Theis-37784","Hassan-Whiteside-18664","49900","286.55"
"Kris-Dunn-35215","DeAndre-Bembry-35198","Josh-Okogie-409174","Thomas-Bryant--37884","Karl-Anthony-Towns-18937","Zach-LaVine-18622","Lauri-Markkanen-37809","Hassan-Whiteside-18664","49700","286.51"
"Trae-Young-409063","Josh-Okogie-409174","Jayson-Tatum-37782","Thomas-Bryant--37884","Karl-Anthony-Towns-18937","Zach-LaVine-18622","Daniel-Theis-37784","Marc-Gasol-1493","49900","286.5"
"Zach-LaVine-18622","Josh-Okogie-409174","Kyle-Kuzma-37886","Lauri-Markkanen-37809","Karl-Anthony-Towns-18937","Alec-Burks-13353","Daniel-Theis-37784","Marc-Gasol-1493","49900","286.49"
"Terry-Rozier-18894","Donovan-Mitchell-37875","Josh-Okogie-409174","TJ-Warren-18634","Karl-Anthony-Towns-18937","Zach-LaVine-18622","Daniel-Theis-37784","Hassan-Whiteside-18664","49900","286.44"
"Kris-Dunn-35215","Josh-Okogie-409174","Kyle-Kuzma-37886","TJ-Warren-18634","Karl-Anthony-Towns-18937","Zach-LaVine-18622","Daniel-Theis-37784","Hassan-Whiteside-18664","50000","286.44"
"Kris-Dunn-35215","Josh-Okogie-409174","Wesley-Matthews-1339","Thomas-Bryant--37884","Hassan-Whiteside-18664","Zach-LaVine-18622","Lauri-Markkanen-37809","Karl-Anthony-Towns-18937","49700","286.43"
"Dennis-Schroder-18595","Donovan-Mitchell-37875","Josh-Okogie-409174","Thomas-Bryant--37884","Karl-Anthony-Towns-18937","Ricky-Rubio-1001","Daniel-Theis-37784","Marc-Gasol-1493","50000","286.41"
"Terry-Rozier-18894","DeAndre-Bembry-35198","Josh-Okogie-409174","Thomas-Bryant--37884","Karl-Anthony-Towns-18937","Zach-LaVine-18622","Lauri-Markkanen-37809","Hassan-Whiteside-18664","49700","286.4"
"Ricky-Rubio-1001","Marcus-Smart-18567","Josh-Okogie-409174","Thomas-Bryant--37884","Karl-Anthony-Towns-18937","Zach-LaVine-18622","Lauri-Markkanen-37809","Hassan-Whiteside-18664","49800","286.36"
"Dwyane-Wade-967","Donovan-Mitchell-37875","Josh-Okogie-409174","Lauri-Markkanen-37809","Marc-Gasol-1493","Zach-LaVine-18622","Daniel-Theis-37784","Karl-Anthony-Towns-18937","50000","286.35"
"Terry-Rozier-18894","Josh-Okogie-409174","Kyle-Kuzma-37886","TJ-Warren-18634","Karl-Anthony-Towns-18937","Zach-LaVine-18622","Daniel-Theis-37784","Hassan-Whiteside-18664","50000","286.33"
"Terry-Rozier-18894","Josh-Okogie-409174","Wesley-Matthews-1339","Thomas-Bryant--37884","Hassan-Whiteside-18664","Zach-LaVine-18622","Lauri-Markkanen-37809","Karl-Anthony-Towns-18937","49700","286.32"
"Terry-Rozier-18894","Kris-Dunn-35215","Josh-Okogie-409174","Wendell-Carter-408878","Karl-Anthony-Towns-18937","Zach-LaVine-18622","Thomas-Bryant--37884","Hassan-Whiteside-18664","50000","286.27"
"Trae-Young-409063","Terry-Rozier-18894","Josh-Okogie-409174","Lauri-Markkanen-37809","Marc-Gasol-1493","Kris-Dunn-35215","Daniel-Theis-37784","Karl-Anthony-Towns-18937","50000","286.26"
"Terry-Rozier-18894","Kris-Dunn-35215","Josh-Okogie-409174","Thomas-Bryant--37884","Hassan-Whiteside-18664","Zach-LaVine-18622","Jaylen-Brown-35181","Karl-Anthony-Towns-18937","49900","286.24"
"Zach-LaVine-18622","Josh-Okogie-409174","TJ-Warren-18634","Thomas-Bryant--37884","Karl-Anthony-Towns-18937","Alec-Burks-13353","Lauri-Markkanen-37809","Hassan-Whiteside-18664","50000","286.19"
"Kris-Dunn-35215","Josh-Okogie-409174","TJ-Warren-18634","Lauri-Markkanen-37809","Karl-Anthony-Towns-18937","Zach-LaVine-18622","Chandler-Hutchison-408877","Marc-Gasol-1493","50000","286.18"
"Ricky-Rubio-1001","Josh-Okogie-409174","Jayson-Tatum-37782","Thomas-Bryant--37884","Karl-Anthony-Towns-18937","Kris-Dunn-35215","Daniel-Theis-37784","Marc-Gasol-1493","49900","286.17"
"Donovan-Mitchell-37875","Kris-Dunn-35215","Josh-Okogie-409174","Lauri-Markkanen-37809","Karl-Anthony-Towns-18937","Zach-LaVine-18622","Chandler-Hutchison-408877","Hassan-Whiteside-18664","49700","286.17"
"Kris-Dunn-35215","Zach-LaVine-18622","Kyle-Kuzma-37886","Thomas-Bryant--37884","Karl-Anthony-Towns-18937","De'Anthony-Melton-409081","Josh-Okogie-409174","Hassan-Whiteside-18664","50000","286.16"
"Terry-Rozier-18894","Kris-Dunn-35215","Josh-Okogie-409174","Thomas-Bryant--37884","Marc-Gasol-1493","Zach-LaVine-18622","Chandler-Hutchison-408877","Karl-Anthony-Towns-18937","49400","286.14"
"Dennis-Schroder-18595","Kris-Dunn-35215","Josh-Okogie-409174","Lauri-Markkanen-37809","Marc-Gasol-1493","Zach-LaVine-18622","Daniel-Theis-37784","Karl-Anthony-Towns-18937","49600","286.14"
"Terry-Rozier-18894","Kris-Dunn-35215","Josh-Okogie-409174","Thomas-Bryant--37884","Karl-Anthony-Towns-18937","Zach-LaVine-18622","Lauri-Markkanen-37809","JaVale-McGee-1485","50000","286.13"
"Terry-Rozier-18894","Kris-Dunn-35215","Josh-Okogie-409174","Thomas-Bryant--37884","Marc-Gasol-1493","Zach-LaVine-18622","Lauri-Markkanen-37809","Hassan-Whiteside-18664","49800","286.1"
"Trae-Young-409063","Kris-Dunn-35215","Josh-Okogie-409174","Jayson-Tatum-37782","Marc-Gasol-1493","Zach-LaVine-18622","Daniel-Theis-37784","Karl-Anthony-Towns-18937","50000","286.09"
"Terry-Rozier-18894","Josh-Okogie-409174","TJ-Warren-18634","Lauri-Markkanen-37809","Karl-Anthony-Towns-18937","Zach-LaVine-18622","Chandler-Hutchison-408877","Marc-Gasol-1493","50000","286.07"
"Ricky-Rubio-1001","Josh-Okogie-409174","Jayson-Tatum-37782","Thomas-Bryant--37884","Karl-Anthony-Towns-18937","Terry-Rozier-18894","Daniel-Theis-37784","Marc-Gasol-1493","49900","286.06"
"Donovan-Mitchell-37875","Zach-LaVine-18622","DeAndre-Bembry-35198","Thomas-Bryant--37884","Marc-Gasol-1493","Alec-Burks-13353","Josh-Okogie-409174","Karl-Anthony-Towns-18937","50000","286.06"
"Kris-Dunn-35215","Josh-Okogie-409174","Kyle-Kuzma-37886","Lauri-Markkanen-37809","Hassan-Whiteside-18664","Zach-LaVine-18622","Chandler-Hutchison-408877","Karl-Anthony-Towns-18937","49800","286.06"
"Terry-Rozier-18894","Donovan-Mitchell-37875","Josh-Okogie-409174","Lauri-Markkanen-37809","Karl-Anthony-Towns-18937","Zach-LaVine-18622","Chandler-Hutchison-408877","Hassan-Whiteside-18664","49700","286.06"
"Ricky-Rubio-1001","Donovan-Mitchell-37875","Josh-Okogie-409174","TJ-Warren-18634","Karl-Anthony-Towns-18937","Zach-LaVine-18622","Daniel-Theis-37784","Hassan-Whiteside-18664","49900","286.05"
"Terry-Rozier-18894","Zach-LaVine-18622","Kyle-Kuzma-37886","Thomas-Bryant--37884","Karl-Anthony-Towns-18937","De'Anthony-Melton-409081","Josh-Okogie-409174","Hassan-Whiteside-18664","50000","286.05"
"Marcus-Smart-18567","Josh-Okogie-409174","Jayson-Tatum-37782","Thomas-Bryant--37884","Karl-Anthony-Towns-18937","Zach-LaVine-18622","Lauri-Markkanen-37809","Hassan-Whiteside-18664","50000","286.04"
"Dennis-Schroder-18595","Terry-Rozier-18894","Josh-Okogie-409174","Lauri-Markkanen-37809","Marc-Gasol-1493","Zach-LaVine-18622","Daniel-Theis-37784","Karl-Anthony-Towns-18937","49600","286.03"
"Ricky-Rubio-1001","DeAndre-Bembry-35198","Josh-Okogie-409174","Thomas-Bryant--37884","Karl-Anthony-Towns-18937","Zach-LaVine-18622","Lauri-Markkanen-37809","Hassan-Whiteside-18664","49700","286.01"
"Terry-Rozier-18894","Kris-Dunn-35215","Kevin-Huerter-408969","Thomas-Bryant--37884","Karl-Anthony-Towns-18937","Zach-LaVine-18622","Josh-Okogie-409174","Hassan-Whiteside-18664","49700","285.99"
"Kris-Dunn-35215","Josh-Okogie-409174","Gordon-Hayward-1239","Lauri-Markkanen-37809","Karl-Anthony-Towns-18937","Zach-LaVine-18622","Daniel-Theis-37784","Marc-Gasol-1493","49700","285.99"
"Terry-Rozier-18894","Kris-Dunn-35215","DeAndre-Bembry-35198","Lauri-Markkanen-37809","Hassan-Whiteside-18664","Zach-LaVine-18622","Josh-Okogie-409174","Karl-Anthony-Towns-18937","49800","285.99"
"Trae-Young-409063","Terry-Rozier-18894","Josh-Okogie-409174","Jayson-Tatum-37782","Marc-Gasol-1493","Zach-LaVine-18622","Daniel-Theis-37784","Karl-Anthony-Towns-18937","50000","285.98"
"Donovan-Mitchell-37875","Zach-LaVine-18622","Josh-Okogie-409174","Thomas-Bryant--37884","Marc-Gasol-1493","Alec-Burks-13353","Wesley-Matthews-1339","Karl-Anthony-Towns-18937","50000","285.98"
"Terry-Rozier-18894","Josh-Okogie-409174","TJ-Warren-18634","Thomas-Bryant--37884","Marc-Gasol-1493","Kris-Dunn-35215","Daniel-Theis-37784","Karl-Anthony-Towns-18937","49800","285.98"
"Terry-Rozier-18894","Donovan-Mitchell-37875","Josh-Okogie-409174","Thomas-Bryant--37884","Karl-Anthony-Towns-18937","Kris-Dunn-35215","Daniel-Theis-37784","Hassan-Whiteside-18664","49500","285.97"
"Terry-Rozier-18894","Josh-Okogie-409174","Kyle-Kuzma-37886","Lauri-Markkanen-37809","Hassan-Whiteside-18664","Zach-LaVine-18622","Chandler-Hutchison-408877","Karl-Anthony-Towns-18937","49800","285.95"
"Ricky-Rubio-1001","Josh-Okogie-409174","Kyle-Kuzma-37886","TJ-Warren-18634","Karl-Anthony-Towns-18937","Zach-LaVine-18622","Daniel-Theis-37784","Hassan-Whiteside-18664","50000","285.94"
"Ricky-Rubio-1001","Josh-Okogie-409174","Wesley-Matthews-1339","Thomas-Bryant--37884","Hassan-Whiteside-18664","Zach-LaVine-18622","Lauri-Markkanen-37809","Karl-Anthony-Towns-18937","49700","285.93"
"D.J.-Augustin-1064","Kris-Dunn-35215","Josh-Okogie-409174","Thomas-Bryant--37884","Karl-Anthony-Towns-18937","Zach-LaVine-18622","Lauri-Markkanen-37809","Hassan-Whiteside-18664","49800","285.93"
"Trae-Young-409063","Josh-Okogie-409174","TJ-Warren-18634","Thomas-Bryant--37884","Marc-Gasol-1493","Zach-LaVine-18622","Daniel-Theis-37784","Karl-Anthony-Towns-18937","49800","285.92"
"Trae-Young-409063","Donovan-Mitchell-37875","Josh-Okogie-409174","Thomas-Bryant--37884","Karl-Anthony-Towns-18937","Zach-LaVine-18622","Daniel-Theis-37784","Hassan-Whiteside-18664","49500","285.91"
"Terry-Rozier-18894","Kris-Dunn-35215","Josh-Okogie-409174","Lauri-Markkanen-37809","Karl-Anthony-Towns-18937","Zach-LaVine-18622","Wesley-Matthews-1339","Hassan-Whiteside-18664","49800","285.91"
"Ricky-Rubio-1001","Kris-Dunn-35215","Josh-Okogie-409174","Wendell-Carter-408878","Karl-Anthony-Towns-18937","Zach-LaVine-18622","Thomas-Bryant--37884","Hassan-Whiteside-18664","50000","285.88"
"Terry-Rozier-18894","Josh-Okogie-409174","Gordon-Hayward-1239","Lauri-Markkanen-37809","Karl-Anthony-Towns-18937","Zach-LaVine-18622","Daniel-Theis-37784","Marc-Gasol-1493","49700","285.88"
"Trae-Young-409063","Kris-Dunn-35215","Josh-Okogie-409174","Lauri-Markkanen-37809","Marc-Gasol-1493","Ricky-Rubio-1001","Daniel-Theis-37784","Karl-Anthony-Towns-18937","50000","285.87"
"Marcus-Smart-18567","Donovan-Mitchell-37875","Josh-Okogie-409174","Lauri-Markkanen-37809","Marc-Gasol-1493","Zach-LaVine-18622","Daniel-Theis-37784","Karl-Anthony-Towns-18937","49700","285.87"
"Terry-Rozier-18894","Josh-Okogie-409174","Kyle-Kuzma-37886","Thomas-Bryant--37884","Karl-Anthony-Towns-18937","Kris-Dunn-35215","Daniel-Theis-37784","Hassan-Whiteside-18664","49600","285.86"
