"De'Aaron-Fox-37900","Dennis-Schroder-18595","Josh-Okogie-409174","Dario-Saric-36004","Willie-Cauley-Stein-18951","Russell-Westbrook-1083","Kelly-Oubre-18925","Deandre-Ayton-409301","50000","276.17"
"De'Aaron-Fox-37900","Andrew-Wiggins-18620","Bogdan-Bogdanovic-37899","Dario-Saric-36004","Willie-Cauley-Stein-18951","Russell-Westbrook-1083","Josh-Okogie-409174","Dennis-Schroder-18595","49900","274.1"
"De'Aaron-Fox-37900","Josh-Okogie-409174","Andrew-Wiggins-18620","Kosta-Koufos-1386","Willie-Cauley-Stein-18951","Russell-Westbrook-1083","Dario-Saric-36004","Deandre-Ayton-409301","50000","273.49"
"De'Aaron-Fox-37900","Dennis-Schroder-18595","Josh-Okogie-409174","Kosta-Koufos-1386","Deandre-Ayton-409301","Russell-Westbrook-1083","Jerami-Grant-18576","Willie-Cauley-Stein-18951","50000","273.29"
"De'Aaron-Fox-37900","Dennis-Schroder-18595","Josh-Okogie-409174","Dario-Saric-36004","Willie-Cauley-Stein-18951","Russell-Westbrook-1083","Jerami-Grant-18576","TJ-Warren-18634","49900","273.1"

"De'Aaron-Fox-37900","Dennis-Schroder-18595","Josh-Okogie-409174","Dario-Saric-36004","Willie-Cauley-Stein-18951","Russell-Westbrook-1083","Kelly-Oubre-18925","Deandre-Ayton-409301","50000","276.17"
"De'Aaron-Fox-37900","Andrew-Wiggins-18620","Bogdan-Bogdanovic-37899","Dario-Saric-36004","Willie-Cauley-Stein-18951","Russell-Westbrook-1083","Josh-Okogie-409174","Dennis-Schroder-18595","49900","274.1"
"De'Aaron-Fox-37900","Josh-Okogie-409174","Andrew-Wiggins-18620","Kosta-Koufos-1386","Willie-Cauley-Stein-18951","Russell-Westbrook-1083","Dario-Saric-36004","Deandre-Ayton-409301","50000","273.49"
"De'Aaron-Fox-37900","Dennis-Schroder-18595","Josh-Okogie-409174","Kosta-Koufos-1386","Deandre-Ayton-409301","Russell-Westbrook-1083","Jerami-Grant-18576","Willie-Cauley-Stein-18951","50000","273.29"
"De'Aaron-Fox-37900","Dennis-Schroder-18595","Josh-Okogie-409174","Dario-Saric-36004","Willie-Cauley-Stein-18951","Russell-Westbrook-1083","Jerami-Grant-18576","TJ-Warren-18634","49900","273.1"
"De'Aaron-Fox-37900","Andrew-Wiggins-18620","Josh-Okogie-409174","Kosta-Koufos-1386","Willie-Cauley-Stein-18951","Russell-Westbrook-1083","Kelly-Oubre-18925","Deandre-Ayton-409301","50000","272.88"
"Russell-Westbrook-1083","Dennis-Schroder-18595","Kelly-Oubre-18925","Dario-Saric-36004","Willie-Cauley-Stein-18951","Josh-Okogie-409174","TJ-Warren-18634","Deandre-Ayton-409301","49900","272.7"
"De'Aaron-Fox-37900","Andrew-Wiggins-18620","Kelly-Oubre-18925","Dario-Saric-36004","Willie-Cauley-Stein-18951","Russell-Westbrook-1083","TJ-Warren-18634","Josh-Okogie-409174","49900","272.69"
"De'Aaron-Fox-37900","Dennis-Schroder-18595","Josh-Okogie-409174","Dario-Saric-36004","Willie-Cauley-Stein-18951","Russell-Westbrook-1083","Josh-Jackson-37890","TJ-Warren-18634","50000","272.55"
"De'Aaron-Fox-37900","Josh-Okogie-409174","Mikal-Bridges-408842","Dario-Saric-36004","Deandre-Ayton-409301","Russell-Westbrook-1083","Jerami-Grant-18576","Willie-Cauley-Stein-18951","50000","272.55"
"De'Aaron-Fox-37900","Dennis-Schroder-18595","Josh-Okogie-409174","Jerami-Grant-18576","Willie-Cauley-Stein-18951","Russell-Westbrook-1083","TJ-Warren-18634","Kelly-Oubre-18925","49900","272.49"
"De'Aaron-Fox-37900","Dennis-Schroder-18595","Mikal-Bridges-408842","Richaun-Holmes-18905","Willie-Cauley-Stein-18951","Russell-Westbrook-1083","Josh-Okogie-409174","Deandre-Ayton-409301","49900","272.25"
"De'Aaron-Fox-37900","Dennis-Schroder-18595","Andrew-Wiggins-18620","Dario-Saric-36004","Deandre-Ayton-409301","Russell-Westbrook-1083","Josh-Okogie-409174","Mikal-Bridges-408842","50000","272.24"
"De'Aaron-Fox-37900","Dennis-Schroder-18595","Mikal-Bridges-408842","Dario-Saric-36004","Deandre-Ayton-409301","Russell-Westbrook-1083","Kelly-Oubre-18925","Willie-Cauley-Stein-18951","49900","272.08"
"De'Aaron-Fox-37900","Dennis-Schroder-18595","Josh-Okogie-409174","Richaun-Holmes-18905","Willie-Cauley-Stein-18951","Russell-Westbrook-1083","Dario-Saric-36004","Deandre-Ayton-409301","49600","272.02"
"De'Aaron-Fox-37900","Josh-Okogie-409174","Mikal-Bridges-408842","Jerami-Grant-18576","Deandre-Ayton-409301","Russell-Westbrook-1083","Kelly-Oubre-18925","Willie-Cauley-Stein-18951","50000","271.94"
"De'Aaron-Fox-37900","Dennis-Schroder-18595","Josh-Jackson-37890","TJ-Warren-18634","Willie-Cauley-Stein-18951","Russell-Westbrook-1083","Kelly-Oubre-18925","Josh-Okogie-409174","50000","271.94"
"Russell-Westbrook-1083","Dennis-Schroder-18595","Andrew-Wiggins-18620","Jerami-Grant-18576","Willie-Cauley-Stein-18951","Josh-Okogie-409174","Mikal-Bridges-408842","Deandre-Ayton-409301","50000","271.75"
"De'Aaron-Fox-37900","Dennis-Schroder-18595","Andrew-Wiggins-18620","Jerami-Grant-18576","Deandre-Ayton-409301","Russell-Westbrook-1083","Josh-Okogie-409174","Elie-Okobo-409300","50000","271.75"
"De'Aaron-Fox-37900","Kelly-Oubre-18925","Josh-Okogie-409174","Dario-Saric-36004","Deandre-Ayton-409301","Russell-Westbrook-1083","Jerami-Grant-18576","Willie-Cauley-Stein-18951","49700","271.71"
"De'Aaron-Fox-37900","Bogdan-Bogdanovic-37899","Josh-Okogie-409174","Kosta-Koufos-1386","Deandre-Ayton-409301","Russell-Westbrook-1083","Dario-Saric-36004","Willie-Cauley-Stein-18951","49900","271.62"
"Russell-Westbrook-1083","Dennis-Schroder-18595","Andrew-Wiggins-18620","Dario-Saric-36004","Deandre-Ayton-409301","Josh-Okogie-409174","Jerami-Grant-18576","Willie-Cauley-Stein-18951","49700","271.52"
"De'Aaron-Fox-37900","Dennis-Schroder-18595","Josh-Okogie-409174","Richaun-Holmes-18905","Willie-Cauley-Stein-18951","Russell-Westbrook-1083","Kelly-Oubre-18925","Deandre-Ayton-409301","49600","271.41"
"De'Aaron-Fox-37900","Dennis-Schroder-18595","Andrew-Wiggins-18620","Dario-Saric-36004","Deandre-Ayton-409301","Russell-Westbrook-1083","Kelly-Oubre-18925","Josh-Okogie-409174","49700","271.4"
"De'Aaron-Fox-37900","Dennis-Schroder-18595","Bogdan-Bogdanovic-37899","Dario-Saric-36004","Willie-Cauley-Stein-18951","Russell-Westbrook-1083","TJ-Warren-18634","Elie-Okobo-409300","50000","271.31"
"De'Aaron-Fox-37900","Dennis-Schroder-18595","Mikal-Bridges-408842","Anthony-Tolliver-1263","Deandre-Ayton-409301","Russell-Westbrook-1083","Josh-Okogie-409174","Willie-Cauley-Stein-18951","49800","271.23"
"De'Aaron-Fox-37900","Dennis-Schroder-18595","Andrew-Wiggins-18620","Dario-Saric-36004","Deandre-Ayton-409301","Russell-Westbrook-1083","Josh-Okogie-409174","De'Anthony-Melton-409081","49900","271.17"
"De'Aaron-Fox-37900","Kelly-Oubre-18925","Josh-Okogie-409174","Dario-Saric-36004","Willie-Cauley-Stein-18951","Russell-Westbrook-1083","Josh-Jackson-37890","Deandre-Ayton-409301","49800","271.16"
"De'Aaron-Fox-37900","Bogdan-Bogdanovic-37899","Josh-Okogie-409174","Kosta-Koufos-1386","Willie-Cauley-Stein-18951","Russell-Westbrook-1083","Kelly-Oubre-18925","Deandre-Ayton-409301","49900","271.01"
"De'Aaron-Fox-37900","Dennis-Schroder-18595","Josh-Okogie-409174","Dario-Saric-36004","Deandre-Ayton-409301","Russell-Westbrook-1083","Anthony-Tolliver-1263","Willie-Cauley-Stein-18951","49500","271.0"
"De'Aaron-Fox-37900","Dennis-Schroder-18595","Andrew-Wiggins-18620","Anthony-Tolliver-1263","Willie-Cauley-Stein-18951","Russell-Westbrook-1083","Josh-Okogie-409174","Jeff-Teague-1005","50000","270.97"
"Russell-Westbrook-1083","Andrew-Wiggins-18620","Josh-Okogie-409174","Dario-Saric-36004","Willie-Cauley-Stein-18951","Dennis-Schroder-18595","Josh-Jackson-37890","Deandre-Ayton-409301","49800","270.97"
"De'Aaron-Fox-37900","Dennis-Schroder-18595","Mikal-Bridges-408842","Kosta-Koufos-1386","Deandre-Ayton-409301","Russell-Westbrook-1083","Josh-Okogie-409174","Willie-Cauley-Stein-18951","49400","270.94"
"Russell-Westbrook-1083","Dennis-Schroder-18595","Andrew-Wiggins-18620","Jerami-Grant-18576","Willie-Cauley-Stein-18951","Josh-Okogie-409174","Kelly-Oubre-18925","Deandre-Ayton-409301","49700","270.91"
"De'Aaron-Fox-37900","Dennis-Schroder-18595","Josh-Okogie-409174","Dario-Saric-36004","Willie-Cauley-Stein-18951","Russell-Westbrook-1083","Jerami-Grant-18576","Steven-Adams-16848","49800","270.88"
"Russell-Westbrook-1083","Andrew-Wiggins-18620","Bogdan-Bogdanovic-37899","Kosta-Koufos-1386","Deandre-Ayton-409301","Dennis-Schroder-18595","Josh-Okogie-409174","Willie-Cauley-Stein-18951","49900","270.82"
"De'Aaron-Fox-37900","Bogdan-Bogdanovic-37899","Kelly-Oubre-18925","Dario-Saric-36004","Willie-Cauley-Stein-18951","Russell-Westbrook-1083","TJ-Warren-18634","Josh-Okogie-409174","49800","270.82"
"De'Aaron-Fox-37900","Dennis-Schroder-18595","Andrew-Wiggins-18620","Jerami-Grant-18576","Willie-Cauley-Stein-18951","Russell-Westbrook-1083","Josh-Okogie-409174","Josh-Jackson-37890","49800","270.76"
"De'Aaron-Fox-37900","Dennis-Schroder-18595","Mikal-Bridges-408842","TJ-Warren-18634","Willie-Cauley-Stein-18951","Russell-Westbrook-1083","Josh-Okogie-409174","Dario-Saric-36004","49300","270.75"
"De'Aaron-Fox-37900","Dennis-Schroder-18595","Josh-Okogie-409174","Kosta-Koufos-1386","Deandre-Ayton-409301","Russell-Westbrook-1083","Dario-Saric-36004","Willie-Cauley-Stein-18951","49100","270.71"
"Russell-Westbrook-1083","Dennis-Schroder-18595","Mikal-Bridges-408842","TJ-Warren-18634","Willie-Cauley-Stein-18951","Elie-Okobo-409300","Josh-Okogie-409174","Deandre-Ayton-409301","49600","270.7"
"De'Aaron-Fox-37900","Dennis-Schroder-18595","Bogdan-Bogdanovic-37899","TJ-Warren-18634","Willie-Cauley-Stein-18951","Russell-Westbrook-1083","Kelly-Oubre-18925","Elie-Okobo-409300","50000","270.7"
"De'Aaron-Fox-37900","Andrew-Wiggins-18620","Mikal-Bridges-408842","TJ-Warren-18634","Willie-Cauley-Stein-18951","Russell-Westbrook-1083","Josh-Okogie-409174","Elie-Okobo-409300","49600","270.69"
"Russell-Westbrook-1083","Dennis-Schroder-18595","Andrew-Wiggins-18620","Jerami-Grant-18576","Willie-Cauley-Stein-18951","De'Anthony-Melton-409081","Josh-Okogie-409174","Deandre-Ayton-409301","49900","270.68"
"De'Aaron-Fox-37900","Dennis-Schroder-18595","Andrew-Wiggins-18620","Kosta-Koufos-1386","Willie-Cauley-Stein-18951","Russell-Westbrook-1083","Josh-Okogie-409174","Jeff-Teague-1005","49600","270.68"
"Russell-Westbrook-1083","Andrew-Wiggins-18620","Bogdan-Bogdanovic-37899","Dario-Saric-36004","Willie-Cauley-Stein-18951","Dennis-Schroder-18595","Josh-Okogie-409174","TJ-Warren-18634","49800","270.63"
"De'Aaron-Fox-37900","Josh-Okogie-409174","Bogdan-Bogdanovic-37899","Dario-Saric-36004","Willie-Cauley-Stein-18951","Russell-Westbrook-1083","TJ-Warren-18634","De'Anthony-Melton-409081","50000","270.59"
"De'Aaron-Fox-37900","Josh-Okogie-409174","Andrew-Wiggins-18620","Dario-Saric-36004","Willie-Cauley-Stein-18951","Russell-Westbrook-1083","Kelly-Oubre-18925","Steven-Adams-16848","49800","270.47"
"Russell-Westbrook-1083","Dennis-Schroder-18595","Josh-Okogie-409174","Dario-Saric-36004","Deandre-Ayton-409301","Elie-Okobo-409300","TJ-Warren-18634","Willie-Cauley-Stein-18951","49300","270.47"
"De'Aaron-Fox-37900","Josh-Okogie-409174","Andrew-Wiggins-18620","Dario-Saric-36004","Willie-Cauley-Stein-18951","Russell-Westbrook-1083","TJ-Warren-18634","Elie-Okobo-409300","49300","270.46"
"Russell-Westbrook-1083","Dennis-Schroder-18595","Andrew-Wiggins-18620","TJ-Warren-18634","Willie-Cauley-Stein-18951","Jeff-Teague-1005","Josh-Okogie-409174","Elie-Okobo-409300","49800","270.44"
"De'Aaron-Fox-37900","Dennis-Schroder-18595","Josh-Okogie-409174","Anthony-Tolliver-1263","Deandre-Ayton-409301","Russell-Westbrook-1083","Kelly-Oubre-18925","Willie-Cauley-Stein-18951","49500","270.39"
"De'Aaron-Fox-37900","Dennis-Schroder-18595","Mikal-Bridges-408842","Dario-Saric-36004","Deandre-Ayton-409301","Russell-Westbrook-1083","Josh-Okogie-409174","Bogdan-Bogdanovic-37899","49900","270.37"
"Russell-Westbrook-1083","Andrew-Wiggins-18620","Josh-Okogie-409174","Josh-Jackson-37890","Deandre-Ayton-409301","Dennis-Schroder-18595","Kelly-Oubre-18925","Willie-Cauley-Stein-18951","49800","270.36"
"De'Aaron-Fox-37900","Dennis-Schroder-18595","Josh-Okogie-409174","Dario-Saric-36004","Willie-Cauley-Stein-18951","Russell-Westbrook-1083","Josh-Jackson-37890","Steven-Adams-16848","49900","270.33"
"De'Aaron-Fox-37900","Dennis-Schroder-18595","Josh-Okogie-409174","Kosta-Koufos-1386","Deandre-Ayton-409301","Russell-Westbrook-1083","TJ-Warren-18634","Dario-Saric-36004","49900","270.31"
"De'Aaron-Fox-37900","Dennis-Schroder-18595","Josh-Okogie-409174","Jerami-Grant-18576","Steven-Adams-16848","Russell-Westbrook-1083","Kelly-Oubre-18925","Willie-Cauley-Stein-18951","49800","270.27"
"De'Aaron-Fox-37900","Dennis-Schroder-18595","Josh-Okogie-409174","Jerami-Grant-18576","Willie-Cauley-Stein-18951","Russell-Westbrook-1083","TJ-Warren-18634","Elie-Okobo-409300","49300","270.26"
"Russell-Westbrook-1083","Dennis-Schroder-18595","Kelly-Oubre-18925","Dario-Saric-36004","Karl-Anthony-Towns-18937","Josh-Okogie-409174","Jerami-Grant-18576","Willie-Cauley-Stein-18951","50000","270.19"
"De'Aaron-Fox-37900","Dennis-Schroder-18595","Bogdan-Bogdanovic-37899","Kosta-Koufos-1386","Steven-Adams-16848","Russell-Westbrook-1083","Josh-Okogie-409174","Willie-Cauley-Stein-18951","50000","270.18"
"De'Aaron-Fox-37900","Dennis-Schroder-18595","Mikal-Bridges-408842","TJ-Warren-18634","Willie-Cauley-Stein-18951","Russell-Westbrook-1083","Josh-Okogie-409174","Kelly-Oubre-18925","49300","270.14"
"Russell-Westbrook-1083","Dennis-Schroder-18595","Andrew-Wiggins-18620","Josh-Jackson-37890","Willie-Cauley-Stein-18951","De'Anthony-Melton-409081","Josh-Okogie-409174","Deandre-Ayton-409301","50000","270.13"
"De'Aaron-Fox-37900","Dennis-Schroder-18595","Bogdan-Bogdanovic-37899","Richaun-Holmes-18905","Willie-Cauley-Stein-18951","Russell-Westbrook-1083","Josh-Okogie-409174","Jeff-Teague-1005","50000","270.12"
"De'Aaron-Fox-37900","Dennis-Schroder-18595","Josh-Okogie-409174","Kosta-Koufos-1386","Willie-Cauley-Stein-18951","Russell-Westbrook-1083","Kelly-Oubre-18925","Deandre-Ayton-409301","49100","270.1"
"Russell-Westbrook-1083","Andrew-Wiggins-18620","Bogdan-Bogdanovic-37899","Dario-Saric-36004","Willie-Cauley-Stein-18951","Mikal-Bridges-408842","Josh-Okogie-409174","Deandre-Ayton-409301","49900","270.08"
"De'Aaron-Fox-37900","Bogdan-Bogdanovic-37899","Andrew-Wiggins-18620","Dario-Saric-36004","Deandre-Ayton-409301","Russell-Westbrook-1083","Josh-Okogie-409174","Elie-Okobo-409300","49900","270.08"
"Russell-Westbrook-1083","Andrew-Wiggins-18620","TJ-Warren-18634","Kosta-Koufos-1386","Willie-Cauley-Stein-18951","Josh-Okogie-409174","Dario-Saric-36004","Deandre-Ayton-409301","49900","270.02"
"Russell-Westbrook-1083","Dennis-Schroder-18595","Andrew-Wiggins-18620","TJ-Warren-18634","Willie-Cauley-Stein-18951","Bogdan-Bogdanovic-37899","Josh-Okogie-409174","Kelly-Oubre-18925","49800","270.02"
"De'Aaron-Fox-37900","Dennis-Schroder-18595","Andrew-Wiggins-18620","Dario-Saric-36004","Willie-Cauley-Stein-18951","Russell-Westbrook-1083","Bogdan-Bogdanovic-37899","Mikal-Bridges-408842","49800","270.01"
"De'Aaron-Fox-37900","Josh-Okogie-409174","Bogdan-Bogdanovic-37899","TJ-Warren-18634","Willie-Cauley-Stein-18951","Russell-Westbrook-1083","Kelly-Oubre-18925","De'Anthony-Melton-409081","50000","269.98"
"De'Aaron-Fox-37900","Dennis-Schroder-18595","Bogdan-Bogdanovic-37899","Dario-Saric-36004","Willie-Cauley-Stein-18951","Russell-Westbrook-1083","Kelly-Oubre-18925","Jeff-Teague-1005","50000","269.95"
"De'Aaron-Fox-37900","Dennis-Schroder-18595","Andrew-Wiggins-18620","Dario-Saric-36004","Willie-Cauley-Stein-18951","Russell-Westbrook-1083","TJ-Warren-18634","Kosta-Koufos-1386","49800","269.95"
"Russell-Westbrook-1083","Dennis-Schroder-18595","Mikal-Bridges-408842","Dario-Saric-36004","Willie-Cauley-Stein-18951","Jeff-Teague-1005","Josh-Okogie-409174","Deandre-Ayton-409301","49600","269.95"
"De'Aaron-Fox-37900","Mikal-Bridges-408842","Andrew-Wiggins-18620","Dario-Saric-36004","Willie-Cauley-Stein-18951","Russell-Westbrook-1083","Josh-Okogie-409174","Jeff-Teague-1005","49600","269.94"
"De'Aaron-Fox-37900","Dennis-Schroder-18595","Mikal-Bridges-408842","TJ-Warren-18634","Willie-Cauley-Stein-18951","Russell-Westbrook-1083","Josh-Okogie-409174","De'Anthony-Melton-409081","49500","269.91"
"De'Aaron-Fox-37900","Dennis-Schroder-18595","Kelly-Oubre-18925","Dario-Saric-36004","Willie-Cauley-Stein-18951","Russell-Westbrook-1083","TJ-Warren-18634","Josh-Okogie-409174","49000","269.91"
"De'Aaron-Fox-37900","Dennis-Schroder-18595","Bogdan-Bogdanovic-37899","Jerami-Grant-18576","Deandre-Ayton-409301","Russell-Westbrook-1083","Josh-Okogie-409174","Elie-Okobo-409300","49900","269.88"
"Russell-Westbrook-1083","Dennis-Schroder-18595","Bogdan-Bogdanovic-37899","Jerami-Grant-18576","Deandre-Ayton-409301","Josh-Okogie-409174","Mikal-Bridges-408842","Willie-Cauley-Stein-18951","49900","269.88"
"De'Aaron-Fox-37900","Mikal-Bridges-408842","Andrew-Wiggins-18620","Jerami-Grant-18576","Willie-Cauley-Stein-18951","Russell-Westbrook-1083","Bogdan-Bogdanovic-37899","Josh-Okogie-409174","49900","269.87"
"Russell-Westbrook-1083","Dennis-Schroder-18595","Josh-Okogie-409174","TJ-Warren-18634","Deandre-Ayton-409301","Elie-Okobo-409300","Kelly-Oubre-18925","Willie-Cauley-Stein-18951","49300","269.86"
"De'Aaron-Fox-37900","Kelly-Oubre-18925","Andrew-Wiggins-18620","TJ-Warren-18634","Willie-Cauley-Stein-18951","Russell-Westbrook-1083","Josh-Okogie-409174","Elie-Okobo-409300","49300","269.85"
"Russell-Westbrook-1083","Dennis-Schroder-18595","TJ-Warren-18634","Kosta-Koufos-1386","Deandre-Ayton-409301","Josh-Okogie-409174","Jerami-Grant-18576","Willie-Cauley-Stein-18951","49900","269.82"
"De'Aaron-Fox-37900","Josh-Okogie-409174","Andrew-Wiggins-18620","Jerami-Grant-18576","Willie-Cauley-Stein-18951","Russell-Westbrook-1083","TJ-Warren-18634","Kosta-Koufos-1386","49900","269.81"
"Russell-Westbrook-1083","Dennis-Schroder-18595","Andrew-Wiggins-18620","TJ-Warren-18634","Willie-Cauley-Stein-18951","Bogdan-Bogdanovic-37899","Josh-Okogie-409174","De'Anthony-Melton-409081","50000","269.79"
"De'Aaron-Fox-37900","Dennis-Schroder-18595","Mikal-Bridges-408842","Jerami-Grant-18576","Willie-Cauley-Stein-18951","Russell-Westbrook-1083","Josh-Okogie-409174","Jeff-Teague-1005","49600","269.74"
"Russell-Westbrook-1083","Dennis-Schroder-18595","Andrew-Wiggins-18620","Dario-Saric-36004","Willie-Cauley-Stein-18951","Elie-Okobo-409300","Bogdan-Bogdanovic-37899","Deandre-Ayton-409301","49800","269.73"
"De'Aaron-Fox-37900","Dennis-Schroder-18595","Josh-Okogie-409174","Josh-Jackson-37890","Willie-Cauley-Stein-18951","Russell-Westbrook-1083","Kelly-Oubre-18925","Steven-Adams-16848","49900","269.72"
"De'Aaron-Fox-37900","Dennis-Schroder-18595","Josh-Okogie-409174","Josh-Jackson-37890","Willie-Cauley-Stein-18951","Russell-Westbrook-1083","TJ-Warren-18634","Elie-Okobo-409300","49400","269.71"
"De'Aaron-Fox-37900","Dennis-Schroder-18595","Josh-Okogie-409174","Kosta-Koufos-1386","Deandre-Ayton-409301","Russell-Westbrook-1083","TJ-Warren-18634","Kelly-Oubre-18925","49900","269.7"
"De'Aaron-Fox-37900","Dennis-Schroder-18595","Josh-Okogie-409174","Dario-Saric-36004","Willie-Cauley-Stein-18951","Russell-Westbrook-1083","TJ-Warren-18634","De'Anthony-Melton-409081","49200","269.68"
"Russell-Westbrook-1083","Dennis-Schroder-18595","Josh-Okogie-409174","Dario-Saric-36004","Deandre-Ayton-409301","Bogdan-Bogdanovic-37899","Jerami-Grant-18576","Willie-Cauley-Stein-18951","49600","269.65"
"De'Aaron-Fox-37900","Andrew-Wiggins-18620","Bogdan-Bogdanovic-37899","Dario-Saric-36004","Willie-Cauley-Stein-18951","Russell-Westbrook-1083","Josh-Okogie-409174","Jerami-Grant-18576","49600","269.64"
"Russell-Westbrook-1083","Josh-Okogie-409174","Andrew-Wiggins-18620","Jerami-Grant-18576","Willie-Cauley-Stein-18951","Elie-Okobo-409300","Bogdan-Bogdanovic-37899","Deandre-Ayton-409301","49900","269.59"
"De'Aaron-Fox-37900","Dennis-Schroder-18595","Bogdan-Bogdanovic-37899","Dario-Saric-36004","Deandre-Ayton-409301","Russell-Westbrook-1083","Kelly-Oubre-18925","Josh-Okogie-409174","49600","269.53"
"De'Aaron-Fox-37900","Dennis-Schroder-18595","Mikal-Bridges-408842","TJ-Warren-18634","Willie-Cauley-Stein-18951","Russell-Westbrook-1083","Josh-Okogie-409174","Taj-Gibson-1277","50000","269.53"
"De'Aaron-Fox-37900","Dennis-Schroder-18595","Andrew-Wiggins-18620","Jerami-Grant-18576","Willie-Cauley-Stein-18951","Russell-Westbrook-1083","Bogdan-Bogdanovic-37899","Elie-Okobo-409300","49800","269.52"
"De'Aaron-Fox-37900","Dennis-Schroder-18595","Josh-Okogie-409174","Dario-Saric-36004","Willie-Cauley-Stein-18951","Russell-Westbrook-1083","Jerami-Grant-18576","Jeff-Teague-1005","49300","269.51"
"De'Aaron-Fox-37900","Dennis-Schroder-18595","Josh-Okogie-409174","Kosta-Koufos-1386","Deandre-Ayton-409301","Russell-Westbrook-1083","Taj-Gibson-1277","Willie-Cauley-Stein-18951","49800","269.49"
"De'Aaron-Fox-37900","Mikal-Bridges-408842","Bogdan-Bogdanovic-37899","Dario-Saric-36004","Willie-Cauley-Stein-18951","Russell-Westbrook-1083","Josh-Okogie-409174","Steven-Adams-16848","50000","269.44"
"Russell-Westbrook-1083","Andrew-Wiggins-18620","Josh-Okogie-409174","Kosta-Koufos-1386","Deandre-Ayton-409301","Kelly-Oubre-18925","TJ-Warren-18634","Willie-Cauley-Stein-18951","49900","269.41"
