"Eric-Bledsoe-1031","Gary-Harris-18617","Joe-Ingles-18627","Jaren-Jackson-409099","Clint-Capela-18610","James-Harden-1037","Garrett-Temple-14077","Kyle-Anderson-18615","49900","284.16"
"Eric-Bledsoe-1031","James-Harden-1037","Joe-Ingles-18627","P.J.-Tucker-13947","Marc-Gasol-1493","Kyle-Anderson-18615","Garrett-Temple-14077","Clint-Capela-18610","49900","284.02"

"Eric-Bledsoe-1031","Gary-Harris-18617","Joe-Ingles-18627","Jaren-Jackson-409099","Clint-Capela-18610","James-Harden-1037","Garrett-Temple-14077","Kyle-Anderson-18615","49900","284.16"
"Eric-Bledsoe-1031","James-Harden-1037","Joe-Ingles-18627","P.J.-Tucker-13947","Marc-Gasol-1493","Kyle-Anderson-18615","Garrett-Temple-14077","Clint-Capela-18610","49900","284.02"
"James-Harden-1037","Joe-Ingles-18627","Kyle-Anderson-18615","P.J.-Tucker-13947","Clint-Capela-18610","Garrett-Temple-14077","Jaren-Jackson-409099","Marc-Gasol-1493","49800","283.8"
"Eric-Bledsoe-1031","James-Harden-1037","Joe-Ingles-18627","P.J.-Tucker-13947","Jaren-Jackson-409099","Khris-Middleton-13990","Garrett-Temple-14077","Clint-Capela-18610","50000","283.62"
"Eric-Bledsoe-1031","Gary-Harris-18617","Kyle-Anderson-18615","P.J.-Tucker-13947","Marc-Gasol-1493","James-Harden-1037","Garrett-Temple-14077","Clint-Capela-18610","50000","283.48"
"Eric-Bledsoe-1031","James-Harden-1037","Kyle-Anderson-18615","JaMychal-Green-18729","Marc-Gasol-1493","Joe-Ingles-18627","Garrett-Temple-14077","Clint-Capela-18610","50000","283.41"
"Kyle-Anderson-18615","James-Harden-1037","Joe-Ingles-18627","Jaren-Jackson-409099","Clint-Capela-18610","Ricky-Rubio-1001","Garrett-Temple-14077","Paul-Millsap-1335","50000","283.31"
"James-Harden-1037","Gary-Harris-18617","Kyle-Anderson-18615","P.J.-Tucker-13947","Clint-Capela-18610","Garrett-Temple-14077","Jaren-Jackson-409099","Marc-Gasol-1493","49900","283.26"
"James-Harden-1037","Joe-Ingles-18627","Kyle-Anderson-18615","Jaren-Jackson-409099","Clint-Capela-18610","Garrett-Temple-14077","JaMychal-Green-18729","Marc-Gasol-1493","49900","283.19"
"James-Harden-1037","Joe-Ingles-18627","P.J.-Tucker-13947","Jaren-Jackson-409099","Marc-Gasol-1493","Garrett-Temple-14077","Paul-Millsap-1335","Clint-Capela-18610","50000","283.09"
"James-Harden-1037","Garrett-Temple-14077","Kyle-Anderson-18615","P.J.-Tucker-13947","Clint-Capela-18610","Ricky-Rubio-1001","Jaren-Jackson-409099","Khris-Middleton-13990","50000","282.94"
"James-Harden-1037","Gary-Harris-18617","Joe-Ingles-18627","Jaren-Jackson-409099","Marc-Gasol-1493","Kyle-Anderson-18615","Garrett-Temple-14077","Khris-Middleton-13990","50000","282.75"
"Mike-Conley-1062","James-Harden-1037","Kyle-Anderson-18615","P.J.-Tucker-13947","Clint-Capela-18610","Joe-Ingles-18627","Paul-Millsap-1335","Garrett-Temple-14077","49900","282.67"
"Eric-Bledsoe-1031","Gary-Harris-18617","Kyle-Anderson-18615","P.J.-Tucker-13947","Clint-Capela-18610","James-Harden-1037","Joe-Ingles-18627","Ricky-Rubio-1001","49900","282.66"
"James-Harden-1037","Gary-Harris-18617","Kyle-Anderson-18615","Jaren-Jackson-409099","Clint-Capela-18610","Garrett-Temple-14077","JaMychal-Green-18729","Marc-Gasol-1493","50000","282.65"
"James-Harden-1037","Gary-Harris-18617","Kyle-Anderson-18615","P.J.-Tucker-13947","Clint-Capela-18610","Jrue-Holiday-1073","Joe-Ingles-18627","Garrett-Temple-14077","49900","282.49"
"Eric-Bledsoe-1031","James-Harden-1037","Joe-Ingles-18627","Danuel-House-36029","Clint-Capela-18610","Kyle-Anderson-18615","Khris-Middleton-13990","P.J.-Tucker-13947","50000","282.49"
"Kyle-Anderson-18615","James-Harden-1037","Joe-Ingles-18627","Danuel-House-36029","Clint-Capela-18610","Ricky-Rubio-1001","Garrett-Temple-14077","Marc-Gasol-1493","50000","282.45"
"James-Harden-1037","Gary-Harris-18617","Kyle-Anderson-18615","P.J.-Tucker-13947","Clint-Capela-18610","Joe-Ingles-18627","Jaren-Jackson-409099","Ricky-Rubio-1001","49800","282.44"
"James-Harden-1037","Gary-Harris-18617","Danuel-House-36029","Jaren-Jackson-409099","Clint-Capela-18610","Joe-Ingles-18627","Garrett-Temple-14077","Marc-Gasol-1493","50000","282.37"
"James-Harden-1037","Joe-Ingles-18627","Kyle-Anderson-18615","P.J.-Tucker-13947","Clint-Capela-18610","Khris-Middleton-13990","Jaren-Jackson-409099","Danuel-House-36029","49900","282.27"
"Eric-Bledsoe-1031","James-Harden-1037","Garrett-Temple-14077","Paul-Millsap-1335","Clint-Capela-18610","Kyle-Anderson-18615","Khris-Middleton-13990","P.J.-Tucker-13947","49900","282.27"
"Eric-Bledsoe-1031","James-Harden-1037","Joe-Ingles-18627","Jaren-Jackson-409099","Marc-Gasol-1493","Ricky-Rubio-1001","Garrett-Temple-14077","Kyle-Anderson-18615","50000","282.18"
"Mike-Conley-1062","Gary-Harris-18617","Kyle-Anderson-18615","P.J.-Tucker-13947","Clint-Capela-18610","James-Harden-1037","Paul-Millsap-1335","Garrett-Temple-14077","50000","282.13"
"James-Harden-1037","Gary-Harris-18617","Danuel-House-36029","Jaren-Jackson-409099","Clint-Capela-18610","Joe-Ingles-18627","Paul-Millsap-1335","Kyle-Anderson-18615","50000","282.1"
"Eric-Bledsoe-1031","James-Harden-1037","Joe-Ingles-18627","Danuel-House-36029","Clint-Capela-18610","Kyle-Anderson-18615","Garrett-Temple-14077","Khris-Middleton-13990","49800","282.09"
"Mike-Conley-1062","James-Harden-1037","Kyle-Anderson-18615","JaMychal-Green-18729","Paul-Millsap-1335","Garrett-Temple-14077","Joe-Ingles-18627","Clint-Capela-18610","50000","282.06"
"James-Harden-1037","Garrett-Temple-14077","Kyle-Anderson-18615","P.J.-Tucker-13947","Clint-Capela-18610","Khris-Middleton-13990","Jaren-Jackson-409099","Paul-Millsap-1335","49800","282.05"
"Eric-Bledsoe-1031","Gary-Harris-18617","Kyle-Anderson-18615","JaMychal-Green-18729","Clint-Capela-18610","James-Harden-1037","Joe-Ingles-18627","Ricky-Rubio-1001","50000","282.05"
"James-Harden-1037","Gary-Harris-18617","Joe-Ingles-18627","Jaren-Jackson-409099","Clint-Capela-18610","Ricky-Rubio-1001","Garrett-Temple-14077","Kyle-Anderson-18615","49600","282.04"
"Eric-Bledsoe-1031","Gary-Harris-18617","Joe-Ingles-18627","P.J.-Tucker-13947","Marc-Gasol-1493","James-Harden-1037","Garrett-Temple-14077","Clint-Capela-18610","49700","282.04"
"James-Harden-1037","Joe-Ingles-18627","P.J.-Tucker-13947","Danuel-House-36029","Clint-Capela-18610","Kyle-Anderson-18615","Paul-Millsap-1335","Marc-Gasol-1493","50000","281.96"
"Mike-Conley-1062","Gary-Harris-18617","Joe-Ingles-18627","Danuel-House-36029","Clint-Capela-18610","James-Harden-1037","Garrett-Temple-14077","Kyle-Anderson-18615","49900","281.95"
"Kyle-Anderson-18615","James-Harden-1037","Joe-Ingles-18627","P.J.-Tucker-13947","Marc-Gasol-1493","Ricky-Rubio-1001","Garrett-Temple-14077","Clint-Capela-18610","49600","281.9"
"James-Harden-1037","Gary-Harris-18617","Kyle-Anderson-18615","JaMychal-Green-18729","Clint-Capela-18610","Jrue-Holiday-1073","Garrett-Temple-14077","Joe-Ingles-18627","50000","281.88"
"James-Harden-1037","Khris-Middleton-13990","Joe-Ingles-18627","Danuel-House-36029","Clint-Capela-18610","Kyle-Anderson-18615","Garrett-Temple-14077","Jaren-Jackson-409099","49700","281.87"
"Eric-Bledsoe-1031","Gary-Harris-18617","P.J.-Tucker-13947","JaMychal-Green-18729","Marc-Gasol-1493","James-Harden-1037","Joe-Ingles-18627","Clint-Capela-18610","50000","281.83"
"James-Harden-1037","Gary-Harris-18617","Kyle-Anderson-18615","Jaren-Jackson-409099","Clint-Capela-18610","Joe-Ingles-18627","JaMychal-Green-18729","Ricky-Rubio-1001","49900","281.83"
"James-Harden-1037","Gary-Harris-18617","P.J.-Tucker-13947","Jaren-Jackson-409099","Marc-Gasol-1493","Joe-Ingles-18627","Garrett-Temple-14077","Clint-Capela-18610","49600","281.82"
"Eric-Bledsoe-1031","Gary-Harris-18617","Kyle-Anderson-18615","P.J.-Tucker-13947","Clint-Capela-18610","James-Harden-1037","Paul-Millsap-1335","Joe-Ingles-18627","49700","281.77"
"James-Harden-1037","Gary-Harris-18617","P.J.-Tucker-13947","Jaren-Jackson-409099","Clint-Capela-18610","Joe-Ingles-18627","Paul-Millsap-1335","Ricky-Rubio-1001","50000","281.73"
"James-Harden-1037","Gary-Harris-18617","Kyle-Anderson-18615","P.J.-Tucker-13947","Clint-Capela-18610","Khris-Middleton-13990","Jaren-Jackson-409099","Danuel-House-36029","50000","281.73"
"Eric-Bledsoe-1031","James-Harden-1037","Joe-Ingles-18627","P.J.-Tucker-13947","Clint-Capela-18610","Ricky-Rubio-1001","Khris-Middleton-13990","Garrett-Temple-14077","49800","281.72"
"Mike-Conley-1062","James-Harden-1037","P.J.-Tucker-13947","JaMychal-Green-18729","Clint-Capela-18610","Kyle-Anderson-18615","Khris-Middleton-13990","Garrett-Temple-14077","50000","281.69"
"Kyle-Anderson-18615","James-Harden-1037","P.J.-Tucker-13947","JaMychal-Green-18729","Marc-Gasol-1493","Ricky-Rubio-1001","Joe-Ingles-18627","Clint-Capela-18610","49900","281.69"
"Eric-Bledsoe-1031","James-Harden-1037","Kyle-Anderson-18615","P.J.-Tucker-13947","Paul-Millsap-1335","Joe-Ingles-18627","Jaren-Jackson-409099","Marc-Gasol-1493","50000","281.69"
"Eric-Bledsoe-1031","James-Harden-1037","Garrett-Temple-14077","Paul-Millsap-1335","Clint-Capela-18610","Kyle-Anderson-18615","Khris-Middleton-13990","JaMychal-Green-18729","50000","281.66"
"James-Harden-1037","Joe-Ingles-18627","Kyle-Anderson-18615","Jaren-Jackson-409099","Clint-Capela-18610","Khris-Middleton-13990","JaMychal-Green-18729","Danuel-House-36029","50000","281.66"
"James-Harden-1037","Gary-Harris-18617","P.J.-Tucker-13947","Jaren-Jackson-409099","Clint-Capela-18610","Joe-Ingles-18627","JaMychal-Green-18729","Marc-Gasol-1493","49900","281.61"
"Jamal-Murray-35211","James-Harden-1037","Joe-Ingles-18627","Danuel-House-36029","Clint-Capela-18610","Kyle-Anderson-18615","Garrett-Temple-14077","Jaren-Jackson-409099","50000","281.61"
"Mike-Conley-1062","Gary-Harris-18617","Joe-Ingles-18627","P.J.-Tucker-13947","Clint-Capela-18610","James-Harden-1037","Garrett-Temple-14077","Ricky-Rubio-1001","49900","281.58"
"James-Harden-1037","Joe-Ingles-18627","Danuel-House-36029","Paul-Millsap-1335","Clint-Capela-18610","Kyle-Anderson-18615","Garrett-Temple-14077","Marc-Gasol-1493","49800","281.56"
"Eric-Bledsoe-1031","Gary-Harris-18617","Garrett-Temple-14077","Danuel-House-36029","Clint-Capela-18610","James-Harden-1037","Khris-Middleton-13990","Kyle-Anderson-18615","49900","281.55"
"James-Harden-1037","Gary-Harris-18617","Kyle-Anderson-18615","P.J.-Tucker-13947","Clint-Capela-18610","Joe-Ingles-18627","Jaren-Jackson-409099","Paul-Millsap-1335","49600","281.55"
"Eric-Bledsoe-1031","Gary-Harris-18617","Joe-Ingles-18627","Paul-Millsap-1335","Clint-Capela-18610","James-Harden-1037","Garrett-Temple-14077","Ricky-Rubio-1001","49900","281.55"
"Eric-Bledsoe-1031","James-Harden-1037","Joe-Ingles-18627","P.J.-Tucker-13947","Clint-Capela-18610","Kyle-Anderson-18615","Khris-Middleton-13990","Garrett-Temple-14077","49400","281.54"
"Mike-Conley-1062","Eric-Bledsoe-1031","Joe-Ingles-18627","P.J.-Tucker-13947","Marc-Gasol-1493","James-Harden-1037","Garrett-Temple-14077","Kyle-Anderson-18615","49900","281.54"
"James-Harden-1037","Khris-Middleton-13990","Joe-Ingles-18627","P.J.-Tucker-13947","Jaren-Jackson-409099","Ricky-Rubio-1001","Garrett-Temple-14077","Clint-Capela-18610","49700","281.5"
"James-Harden-1037","Garrett-Temple-14077","Kyle-Anderson-18615","Jaren-Jackson-409099","Clint-Capela-18610","Khris-Middleton-13990","JaMychal-Green-18729","Paul-Millsap-1335","49900","281.44"
"Eric-Bledsoe-1031","Gary-Harris-18617","Joe-Ingles-18627","JaMychal-Green-18729","Marc-Gasol-1493","James-Harden-1037","Garrett-Temple-14077","Clint-Capela-18610","49800","281.43"
"Mike-Conley-1062","James-Harden-1037","Joe-Ingles-18627","Danuel-House-36029","Clint-Capela-18610","Khris-Middleton-13990","Garrett-Temple-14077","P.J.-Tucker-13947","50000","281.41"
"Mike-Conley-1062","Gary-Harris-18617","Kyle-Anderson-18615","P.J.-Tucker-13947","Clint-Capela-18610","James-Harden-1037","Joe-Ingles-18627","Garrett-Temple-14077","49500","281.4"
"Eric-Bledsoe-1031","James-Harden-1037","Garrett-Temple-14077","Danuel-House-36029","Paul-Millsap-1335","Joe-Ingles-18627","Khris-Middleton-13990","Clint-Capela-18610","50000","281.38"
"Eric-Bledsoe-1031","Gary-Harris-18617","Kyle-Anderson-18615","Paul-Millsap-1335","Clint-Capela-18610","James-Harden-1037","Joe-Ingles-18627","Garrett-Temple-14077","49500","281.37"
"James-Harden-1037","Gary-Harris-18617","Kyle-Anderson-18615","P.J.-Tucker-13947","Marc-Gasol-1493","Ricky-Rubio-1001","Garrett-Temple-14077","Clint-Capela-18610","49700","281.36"
"James-Harden-1037","Gary-Harris-18617","Joe-Ingles-18627","Jaren-Jackson-409099","Clint-Capela-18610","Ricky-Rubio-1001","Garrett-Temple-14077","Paul-Millsap-1335","49800","281.33"
"James-Harden-1037","Gary-Harris-18617","Kyle-Anderson-18615","Danuel-House-36029","Jaren-Jackson-409099","Khris-Middleton-13990","Garrett-Temple-14077","Clint-Capela-18610","49800","281.33"
"Eric-Bledsoe-1031","James-Harden-1037","P.J.-Tucker-13947","JaMychal-Green-18729","Clint-Capela-18610","Joe-Ingles-18627","Khris-Middleton-13990","Kyle-Anderson-18615","49700","281.33"
"Mike-Conley-1062","James-Harden-1037","Kyle-Anderson-18615","P.J.-Tucker-13947","Jaren-Jackson-409099","Garrett-Temple-14077","Joe-Ingles-18627","Marc-Gasol-1493","49800","281.32"
"James-Harden-1037","Joe-Ingles-18627","Kyle-Anderson-18615","P.J.-Tucker-13947","Clint-Capela-18610","Garrett-Temple-14077","Jaren-Jackson-409099","Khris-Middleton-13990","49300","281.32"
"James-Harden-1037","Joe-Ingles-18627","Kyle-Anderson-18615","JaMychal-Green-18729","Marc-Gasol-1493","Ricky-Rubio-1001","Garrett-Temple-14077","Clint-Capela-18610","49700","281.29"
"Eric-Bledsoe-1031","James-Harden-1037","Joe-Ingles-18627","Paul-Millsap-1335","Marc-Gasol-1493","Kyle-Anderson-18615","Garrett-Temple-14077","Jaren-Jackson-409099","49800","281.29"
"James-Harden-1037","Joe-Ingles-18627","P.J.-Tucker-13947","JaMychal-Green-18729","Clint-Capela-18610","Ricky-Rubio-1001","Khris-Middleton-13990","Jaren-Jackson-409099","50000","281.29"
"Eric-Bledsoe-1031","Jamal-Murray-35211","Kyle-Anderson-18615","P.J.-Tucker-13947","Clint-Capela-18610","James-Harden-1037","Joe-Ingles-18627","Garrett-Temple-14077","49700","281.28"
"James-Harden-1037","Gary-Harris-18617","Joe-Ingles-18627","P.J.-Tucker-13947","Marc-Gasol-1493","Ricky-Rubio-1001","Khris-Middleton-13990","Kyle-Anderson-18615","50000","281.25"
"Jamal-Murray-35211","James-Harden-1037","Joe-Ingles-18627","P.J.-Tucker-13947","Jaren-Jackson-409099","Ricky-Rubio-1001","Garrett-Temple-14077","Clint-Capela-18610","50000","281.24"
"James-Harden-1037","Gary-Harris-18617","Joe-Ingles-18627","Jaren-Jackson-409099","Clint-Capela-18610","Garrett-Temple-14077","JaMychal-Green-18729","Marc-Gasol-1493","49700","281.21"
"James-Harden-1037","Gerald-Green-13374","Joe-Ingles-18627","Jaren-Jackson-409099","Marc-Gasol-1493","Kyle-Anderson-18615","Garrett-Temple-14077","Clint-Capela-18610","49900","281.21"
"James-Harden-1037","Garrett-Temple-14077","Kyle-Anderson-18615","Danuel-House-36029","Marc-Gasol-1493","Khris-Middleton-13990","P.J.-Tucker-13947","Clint-Capela-18610","49800","281.19"
"James-Harden-1037","Joe-Ingles-18627","P.J.-Tucker-13947","Paul-Millsap-1335","Marc-Gasol-1493","Ricky-Rubio-1001","Garrett-Temple-14077","Clint-Capela-18610","49800","281.19"
"Mike-Conley-1062","Gary-Harris-18617","Kyle-Anderson-18615","P.J.-Tucker-13947","Clint-Capela-18610","James-Harden-1037","JaMychal-Green-18729","Joe-Ingles-18627","49800","281.19"
"Eric-Bledsoe-1031","Gary-Harris-18617","Garrett-Temple-14077","P.J.-Tucker-13947","Clint-Capela-18610","James-Harden-1037","Khris-Middleton-13990","Ricky-Rubio-1001","49900","281.18"
"Eric-Bledsoe-1031","Gary-Harris-18617","Kyle-Anderson-18615","JaMychal-Green-18729","Paul-Millsap-1335","James-Harden-1037","Joe-Ingles-18627","Clint-Capela-18610","49800","281.16"
"Eric-Bledsoe-1031","James-Harden-1037","Kyle-Anderson-18615","P.J.-Tucker-13947","Clint-Capela-18610","Ricky-Rubio-1001","Jaren-Jackson-409099","Danuel-House-36029","50000","281.16"
"James-Harden-1037","Joe-Ingles-18627","Danuel-House-36029","Jaren-Jackson-409099","Clint-Capela-18610","Khris-Middleton-13990","Garrett-Temple-14077","Paul-Millsap-1335","49900","281.16"
"James-Harden-1037","Gary-Harris-18617","Kyle-Anderson-18615","P.J.-Tucker-13947","Clint-Capela-18610","Ricky-Rubio-1001","JaMychal-Green-18729","Marc-Gasol-1493","50000","281.15"
"James-Harden-1037","Gary-Harris-18617","Joe-Ingles-18627","Jaren-Jackson-409099","Clint-Capela-18610","Kyle-Anderson-18615","Garrett-Temple-14077","Paul-Millsap-1335","49400","281.15"
"Mike-Conley-1062","Eric-Bledsoe-1031","Joe-Ingles-18627","P.J.-Tucker-13947","Jaren-Jackson-409099","James-Harden-1037","Garrett-Temple-14077","Khris-Middleton-13990","50000","281.14"
"James-Harden-1037","Joe-Ingles-18627","Kyle-Anderson-18615","P.J.-Tucker-13947","Clint-Capela-18610","Khris-Middleton-13990","Jaren-Jackson-409099","JaMychal-Green-18729","49600","281.11"
"Eric-Bledsoe-1031","James-Harden-1037","Joe-Ingles-18627","JaMychal-Green-18729","Clint-Capela-18610","Ricky-Rubio-1001","Khris-Middleton-13990","Garrett-Temple-14077","49900","281.11"
"Eric-Bledsoe-1031","Jamal-Murray-35211","Kyle-Anderson-18615","P.J.-Tucker-13947","Clint-Capela-18610","James-Harden-1037","JaMychal-Green-18729","Joe-Ingles-18627","50000","281.07"
"Jamal-Murray-35211","James-Harden-1037","Kyle-Anderson-18615","P.J.-Tucker-13947","Clint-Capela-18610","Joe-Ingles-18627","Jaren-Jackson-409099","Garrett-Temple-14077","49600","281.06"
"Mike-Conley-1062","Eric-Bledsoe-1031","P.J.-Tucker-13947","JaMychal-Green-18729","Clint-Capela-18610","James-Harden-1037","Garrett-Temple-14077","Jaren-Jackson-409099","50000","281.04"
"James-Harden-1037","Gary-Harris-18617","Danuel-House-36029","Paul-Millsap-1335","Clint-Capela-18610","Kyle-Anderson-18615","Garrett-Temple-14077","Marc-Gasol-1493","49900","281.02"
"James-Harden-1037","Joe-Ingles-18627","Kyle-Anderson-18615","P.J.-Tucker-13947","Clint-Capela-18610","Garrett-Temple-14077","Paul-Millsap-1335","Marc-Gasol-1493","49400","281.01"
"Mike-Conley-1062","Eric-Bledsoe-1031","Kyle-Anderson-18615","P.J.-Tucker-13947","Marc-Gasol-1493","James-Harden-1037","Garrett-Temple-14077","Gary-Harris-18617","50000","281.0"
"Eric-Bledsoe-1031","Gary-Harris-18617","Garrett-Temple-14077","P.J.-Tucker-13947","Clint-Capela-18610","James-Harden-1037","Khris-Middleton-13990","Kyle-Anderson-18615","49500","281.0"
"James-Harden-1037","Jrue-Holiday-1073","Kyle-Anderson-18615","P.J.-Tucker-13947","Clint-Capela-18610","Garrett-Temple-14077","Jaren-Jackson-409099","Danuel-House-36029","50000","280.99"
"Mike-Conley-1062","Gary-Harris-18617","Joe-Ingles-18627","JaMychal-Green-18729","Clint-Capela-18610","James-Harden-1037","Garrett-Temple-14077","Ricky-Rubio-1001","50000","280.97"
"Eric-Bledsoe-1031","Gary-Harris-18617","Kyle-Anderson-18615","Danuel-House-36029","Marc-Gasol-1493","James-Harden-1037","Jaren-Jackson-409099","Joe-Ingles-18627","50000","280.97"
