"Spencer-Dinwiddie-18588","Luka-Doncic-408971","Gary-Clark-570141","Serge-Ibaka-1294","DeAndre-Jordan-1486","James-Harden-1037","Justin-Holiday-14559","Ed-Davis-1265","50000","265.98"
"James-Harden-1037","Justin-Holiday-14559","Gary-Clark-570141","P.J.-Tucker-13947","Marc-Gasol-1493","D'Angelo-Russell-18947","Gerald-Green-13374","DeAndre-Jordan-1486","50000","265.82"
"Spencer-Dinwiddie-18588","James-Harden-1037","Gary-Clark-570141","Jaren-Jackson-409099","Ed-Davis-1265","Justin-Holiday-14559","Luka-Doncic-408971","Marc-Gasol-1493","49900","265.68"
"James-Harden-1037","Luka-Doncic-408971","Gary-Clark-570141","Serge-Ibaka-1294","DeAndre-Jordan-1486","Gerald-Green-13374","Justin-Holiday-14559","P.J.-Tucker-13947","50000","265.58"
"Spencer-Dinwiddie-18588","James-Harden-1037","Gary-Clark-570141","Serge-Ibaka-1294","Marc-Gasol-1493","DeMar-DeRozan-1053","Justin-Holiday-14559","Ed-Davis-1265","50000","265.38"

"Spencer-Dinwiddie-18588","Luka-Doncic-408971","Gary-Clark-570141","Serge-Ibaka-1294","DeAndre-Jordan-1486","James-Harden-1037","Justin-Holiday-14559","Ed-Davis-1265","50000","265.98"
"James-Harden-1037","Justin-Holiday-14559","Gary-Clark-570141","P.J.-Tucker-13947","Marc-Gasol-1493","D'Angelo-Russell-18947","Gerald-Green-13374","DeAndre-Jordan-1486","50000","265.82"
"Spencer-Dinwiddie-18588","James-Harden-1037","Gary-Clark-570141","Jaren-Jackson-409099","Ed-Davis-1265","Justin-Holiday-14559","Luka-Doncic-408971","Marc-Gasol-1493","49900","265.68"
"James-Harden-1037","Luka-Doncic-408971","Gary-Clark-570141","Serge-Ibaka-1294","DeAndre-Jordan-1486","Gerald-Green-13374","Justin-Holiday-14559","P.J.-Tucker-13947","50000","265.58"
"Spencer-Dinwiddie-18588","James-Harden-1037","Gary-Clark-570141","Serge-Ibaka-1294","Marc-Gasol-1493","DeMar-DeRozan-1053","Justin-Holiday-14559","Ed-Davis-1265","50000","265.38"
"James-Harden-1037","D'Angelo-Russell-18947","Gary-Clark-570141","Serge-Ibaka-1294","Jaren-Jackson-409099","Mike-Conley-1062","Justin-Holiday-14559","Ed-Davis-1265","49900","265.37"
"James-Harden-1037","DeMar-DeRozan-1053","Gary-Clark-570141","Serge-Ibaka-1294","DeAndre-Jordan-1486","Justin-Holiday-14559","Jaren-Jackson-409099","Ed-Davis-1265","49900","265.29"
"James-Harden-1037","Luka-Doncic-408971","Gary-Clark-570141","Jaren-Jackson-409099","Marc-Gasol-1493","Justin-Holiday-14559","P.J.-Tucker-13947","Gerald-Green-13374","49900","265.28"
"Spencer-Dinwiddie-18588","James-Harden-1037","Gary-Clark-570141","Serge-Ibaka-1294","DeAndre-Jordan-1486","D'Angelo-Russell-18947","Justin-Holiday-14559","P.J.-Tucker-13947","50000","265.26"
"James-Harden-1037","Luka-Doncic-408971","Gary-Clark-570141","Serge-Ibaka-1294","DeAndre-Jordan-1486","Austin-Rivers-13903","Justin-Holiday-14559","Ed-Davis-1265","50000","265.26"
"James-Harden-1037","D'Angelo-Russell-18947","Gary-Clark-570141","Maxi-Kleber-37845","Marc-Gasol-1493","Mike-Conley-1062","Justin-Holiday-14559","Ed-Davis-1265","50000","265.23"
"James-Harden-1037","Joe-Harris-18587","Gary-Clark-570141","Serge-Ibaka-1294","DeAndre-Jordan-1486","Justin-Holiday-14559","Jaren-Jackson-409099","Marc-Gasol-1493","49900","265.23"
"James-Harden-1037","Luka-Doncic-408971","Marco-Belinelli-1033","Gary-Clark-570141","Ed-Davis-1265","D'Angelo-Russell-18947","Justin-Holiday-14559","Marc-Gasol-1493","50000","265.14"
"Spencer-Dinwiddie-18588","James-Harden-1037","Gerald-Green-13374","Serge-Ibaka-1294","Marc-Gasol-1493","D'Angelo-Russell-18947","Justin-Holiday-14559","Gary-Clark-570141","49900","265.14"
"James-Harden-1037","Bryn-Forbes-36052","Gary-Clark-570141","Serge-Ibaka-1294","DeAndre-Jordan-1486","D'Angelo-Russell-18947","Justin-Holiday-14559","Jaren-Jackson-409099","50000","265.13"
"James-Harden-1037","D'Angelo-Russell-18947","Joe-Harris-18587","Gary-Clark-570141","Marc-Gasol-1493","Mike-Conley-1062","Justin-Holiday-14559","Ed-Davis-1265","50000","265.08"
"James-Harden-1037","Gerald-Green-13374","Gary-Clark-570141","Serge-Ibaka-1294","DeAndre-Jordan-1486","D'Angelo-Russell-18947","Justin-Holiday-14559","Jaren-Jackson-409099","49800","265.05"
