"Eric-Bledsoe-1031","Shabazz-Napier-18598","Luke-Kennard-37814","Blake-Griffin-1503","Deandre-Ayton-409301","Dennis-Smith-Jr.-37847","Dion-Waiters-13897","Karl-Anthony-Towns-18937","50000","293.39"

"Eric-Bledsoe-1031","Shabazz-Napier-18598","Luke-Kennard-37814","Blake-Griffin-1503","Deandre-Ayton-409301","Dennis-Smith-Jr.-37847","Dion-Waiters-13897","Karl-Anthony-Towns-18937","50000","293.39"
"Eric-Bledsoe-1031","Shabazz-Napier-18598","Luke-Kennard-37814","Blake-Griffin-1503","Karl-Anthony-Towns-18937","Dennis-Smith-Jr.-37847","Dorian-Finney-Smith-36032","Deandre-Ayton-409301","50000","293.33"
"Eric-Bledsoe-1031","D'Angelo-Russell-18947","Dorian-Finney-Smith-36032","Lauri-Markkanen-37809","Karl-Anthony-Towns-18937","Collin-Sexton-408896","Dion-Waiters-13897","Dennis-Smith-Jr.-37847","50000","292.66"
"Collin-Sexton-408896","Shabazz-Napier-18598","Luke-Kennard-37814","Blake-Griffin-1503","Andre-Drummond-13904","Dennis-Smith-Jr.-37847","Dion-Waiters-13897","Karl-Anthony-Towns-18937","49900","292.49"
"Collin-Sexton-408896","Shabazz-Napier-18598","Luke-Kennard-37814","Blake-Griffin-1503","Andre-Drummond-13904","Dennis-Smith-Jr.-37847","Dorian-Finney-Smith-36032","Karl-Anthony-Towns-18937","49900","292.43"
"Eric-Bledsoe-1031","D'Angelo-Russell-18947","Dion-Waiters-13897","Dorian-Finney-Smith-36032","Deandre-Ayton-409301","Dennis-Smith-Jr.-37847","Tim-Hardaway-Jr.-16879","Karl-Anthony-Towns-18937","49900","292.36"
"D'Angelo-Russell-18947","Dion-Waiters-13897","Luke-Kennard-37814","Lauri-Markkanen-37809","Karl-Anthony-Towns-18937","Eric-Bledsoe-1031","Tim-Hardaway-Jr.-16879","Dennis-Smith-Jr.-37847","50000","292.25"
"Eric-Bledsoe-1031","Luke-Kennard-37814","Dorian-Finney-Smith-36032","Blake-Griffin-1503","Andre-Drummond-13904","Collin-Sexton-408896","Dion-Waiters-13897","Karl-Anthony-Towns-18937","50000","292.24"
"Collin-Sexton-408896","Shabazz-Napier-18598","Luke-Kennard-37814","Lauri-Markkanen-37809","Joel-Embiid-18578","Dennis-Smith-Jr.-37847","Dion-Waiters-13897","Karl-Anthony-Towns-18937","50000","292.23"
"Eric-Bledsoe-1031","D'Angelo-Russell-18947","Luke-Kennard-37814","Lauri-Markkanen-37809","Karl-Anthony-Towns-18937","Dennis-Smith-Jr.-37847","Tim-Hardaway-Jr.-16879","Dorian-Finney-Smith-36032","50000","292.19"
"Collin-Sexton-408896","Shabazz-Napier-18598","Luke-Kennard-37814","Lauri-Markkanen-37809","Joel-Embiid-18578","Dennis-Smith-Jr.-37847","Dorian-Finney-Smith-36032","Karl-Anthony-Towns-18937","50000","292.17"
"Collin-Sexton-408896","D'Angelo-Russell-18947","Luke-Kennard-37814","Dorian-Finney-Smith-36032","Andre-Drummond-13904","Dennis-Smith-Jr.-37847","Justise-Winslow-18921","Karl-Anthony-Towns-18937","50000","291.9"
"Eric-Bledsoe-1031","D'Angelo-Russell-18947","Luke-Kennard-37814","Dwight-Powell-18566","Karl-Anthony-Towns-18937","Dennis-Smith-Jr.-37847","Tim-Hardaway-Jr.-16879","Deandre-Ayton-409301","50000","291.89"
"D'Angelo-Russell-18947","Jordan-Clarkson-18631","Luke-Kennard-37814","Blake-Griffin-1503","Karl-Anthony-Towns-18937","Collin-Sexton-408896","Dion-Waiters-13897","Dennis-Smith-Jr.-37847","50000","291.85"
"D'Angelo-Russell-18947","Jordan-Clarkson-18631","Luke-Kennard-37814","Blake-Griffin-1503","Karl-Anthony-Towns-18937","Collin-Sexton-408896","Dorian-Finney-Smith-36032","Dennis-Smith-Jr.-37847","50000","291.79"
"Eric-Bledsoe-1031","Dion-Waiters-13897","Luke-Kennard-37814","Lauri-Markkanen-37809","Andre-Drummond-13904","Dennis-Smith-Jr.-37847","Dorian-Finney-Smith-36032","Joel-Embiid-18578","50000","291.78"
"Collin-Sexton-408896","D'Angelo-Russell-18947","Luke-Kennard-37814","Blake-Griffin-1503","Andre-Drummond-13904","Dennis-Smith-Jr.-37847","Dion-Waiters-13897","Deandre-Ayton-409301","49900","291.74"
"Collin-Sexton-408896","D'Angelo-Russell-18947","Luke-Kennard-37814","Blake-Griffin-1503","Andre-Drummond-13904","Dennis-Smith-Jr.-37847","Dorian-Finney-Smith-36032","Deandre-Ayton-409301","49900","291.68"
"Eric-Bledsoe-1031","Shabazz-Napier-18598","Luke-Kennard-37814","Paul-Millsap-1335","Joel-Embiid-18578","Dennis-Smith-Jr.-37847","Dion-Waiters-13897","Karl-Anthony-Towns-18937","50000","291.67"
"Eric-Bledsoe-1031","D'Angelo-Russell-18947","Luke-Kennard-37814","Dorian-Finney-Smith-36032","Karl-Anthony-Towns-18937","Dennis-Smith-Jr.-37847","Sterling-Brown-37821","Andre-Drummond-13904","49900","291.65"
"Eric-Bledsoe-1031","D'Angelo-Russell-18947","Luke-Kennard-37814","Lauri-Markkanen-37809","Karl-Anthony-Towns-18937","Collin-Sexton-408896","Dion-Waiters-13897","Dennis-Smith-Jr.-37847","49600","291.65"
"D'Angelo-Russell-18947","Shabazz-Napier-18598","Luke-Kennard-37814","Lauri-Markkanen-37809","Karl-Anthony-Towns-18937","Eric-Bledsoe-1031","Dion-Waiters-13897","Dennis-Smith-Jr.-37847","49800","291.63"
"Eric-Bledsoe-1031","Shabazz-Napier-18598","Luke-Kennard-37814","Dorian-Finney-Smith-36032","Joel-Embiid-18578","Dennis-Smith-Jr.-37847","Paul-Millsap-1335","Karl-Anthony-Towns-18937","50000","291.61"
"Eric-Bledsoe-1031","Luke-Kennard-37814","Dion-Waiters-13897","Dorian-Finney-Smith-36032","Karl-Anthony-Towns-18937","Dennis-Smith-Jr.-37847","Justise-Winslow-18921","Joel-Embiid-18578","49900","291.6"
"Eric-Bledsoe-1031","D'Angelo-Russell-18947","Luke-Kennard-37814","Lauri-Markkanen-37809","Karl-Anthony-Towns-18937","Collin-Sexton-408896","Dorian-Finney-Smith-36032","Dennis-Smith-Jr.-37847","49600","291.59"
"D'Angelo-Russell-18947","Shabazz-Napier-18598","Luke-Kennard-37814","Lauri-Markkanen-37809","Karl-Anthony-Towns-18937","Eric-Bledsoe-1031","Dorian-Finney-Smith-36032","Dennis-Smith-Jr.-37847","49800","291.57"
"Collin-Sexton-408896","D'Angelo-Russell-18947","Luke-Kennard-37814","Dorian-Finney-Smith-36032","Joel-Embiid-18578","Dennis-Smith-Jr.-37847","Tim-Hardaway-Jr.-16879","Andre-Drummond-13904","50000","291.54"
"Collin-Sexton-408896","Luke-Kennard-37814","Dion-Waiters-13897","Blake-Griffin-1503","Karl-Anthony-Towns-18937","Dennis-Smith-Jr.-37847","Paul-Millsap-1335","Andre-Drummond-13904","50000","291.53"
"Collin-Sexton-408896","D'Angelo-Russell-18947","Luke-Kennard-37814","Lauri-Markkanen-37809","Joel-Embiid-18578","Dennis-Smith-Jr.-37847","Dion-Waiters-13897","Deandre-Ayton-409301","50000","291.48"
"Collin-Sexton-408896","Luke-Kennard-37814","Dorian-Finney-Smith-36032","Blake-Griffin-1503","Karl-Anthony-Towns-18937","Dennis-Smith-Jr.-37847","Paul-Millsap-1335","Andre-Drummond-13904","50000","291.47"
"D'Angelo-Russell-18947","Josh-Richardson-18922","Luke-Kennard-37814","Dorian-Finney-Smith-36032","Andre-Drummond-13904","Dennis-Smith-Jr.-37847","Dion-Waiters-13897","Karl-Anthony-Towns-18937","50000","291.47"
"Collin-Sexton-408896","D'Angelo-Russell-18947","Dion-Waiters-13897","Dorian-Finney-Smith-36032","Karl-Anthony-Towns-18937","Dennis-Smith-Jr.-37847","Tim-Hardaway-Jr.-16879","Andre-Drummond-13904","49800","291.46"
"Eric-Bledsoe-1031","Malcolm-Brogdon-35195","Luke-Kennard-37814","Dorian-Finney-Smith-36032","Joel-Embiid-18578","Dennis-Smith-Jr.-37847","Dion-Waiters-13897","Karl-Anthony-Towns-18937","50000","291.44"
"D'Angelo-Russell-18947","Shabazz-Napier-18598","Dion-Waiters-13897","Dorian-Finney-Smith-36032","Karl-Anthony-Towns-18937","Dennis-Smith-Jr.-37847","Tim-Hardaway-Jr.-16879","Andre-Drummond-13904","50000","291.44"
"Collin-Sexton-408896","D'Angelo-Russell-18947","Luke-Kennard-37814","Lauri-Markkanen-37809","Deandre-Ayton-409301","Dennis-Smith-Jr.-37847","Dorian-Finney-Smith-36032","Joel-Embiid-18578","50000","291.42"
"Eric-Bledsoe-1031","Shabazz-Napier-18598","Luke-Kennard-37814","Blake-Griffin-1503","Karl-Anthony-Towns-18937","Collin-Sexton-408896","Josh-Jackson-37890","Dennis-Smith-Jr.-37847","50000","291.4"
"Eric-Bledsoe-1031","Dion-Waiters-13897","Luke-Kennard-37814","Blake-Griffin-1503","Joel-Embiid-18578","Dennis-Smith-Jr.-37847","Dorian-Finney-Smith-36032","Deandre-Ayton-409301","49800","291.38"
"Eric-Bledsoe-1031","Luke-Kennard-37814","Joe-Harris-18587","Blake-Griffin-1503","Karl-Anthony-Towns-18937","Dennis-Smith-Jr.-37847","Dion-Waiters-13897","Deandre-Ayton-409301","49900","291.37"
"Eric-Bledsoe-1031","D'Angelo-Russell-18947","Luke-Kennard-37814","Dorian-Finney-Smith-36032","Andre-Drummond-13904","Dennis-Smith-Jr.-37847","Tony-Snell-16872","Karl-Anthony-Towns-18937","50000","291.34"
"D'Angelo-Russell-18947","Shabazz-Napier-18598","Dorian-Finney-Smith-36032","Blake-Griffin-1503","Karl-Anthony-Towns-18937","Collin-Sexton-408896","Dion-Waiters-13897","Dennis-Smith-Jr.-37847","49900","291.34"
"Collin-Sexton-408896","D'Angelo-Russell-18947","Dorian-Finney-Smith-36032","Lauri-Markkanen-37809","Deandre-Ayton-409301","Dennis-Smith-Jr.-37847","Dion-Waiters-13897","Karl-Anthony-Towns-18937","49800","291.34"
"D'Angelo-Russell-18947","Shabazz-Napier-18598","Dorian-Finney-Smith-36032","Lauri-Markkanen-37809","Deandre-Ayton-409301","Dennis-Smith-Jr.-37847","Dion-Waiters-13897","Karl-Anthony-Towns-18937","50000","291.32"
"Eric-Bledsoe-1031","Joe-Harris-18587","Luke-Kennard-37814","Blake-Griffin-1503","Karl-Anthony-Towns-18937","Dennis-Smith-Jr.-37847","Dorian-Finney-Smith-36032","Deandre-Ayton-409301","49900","291.31"
"Eric-Bledsoe-1031","D'Angelo-Russell-18947","Luke-Kennard-37814","Dorian-Finney-Smith-36032","Deandre-Ayton-409301","Dennis-Smith-Jr.-37847","Tim-Hardaway-Jr.-16879","Karl-Anthony-Towns-18937","49500","291.29"
"Eric-Bledsoe-1031","Luke-Kennard-37814","Dion-Waiters-13897","Lauri-Markkanen-37809","Karl-Anthony-Towns-18937","Dennis-Smith-Jr.-37847","Dwight-Powell-18566","Andre-Drummond-13904","49900","291.23"
"Eric-Bledsoe-1031","D'Angelo-Russell-18947","Luke-Kennard-37814","Jeff-Green-1314","Karl-Anthony-Towns-18937","Dennis-Smith-Jr.-37847","Dion-Waiters-13897","Deandre-Ayton-409301","49900","291.21"
"Eric-Bledsoe-1031","Luke-Kennard-37814","Dorian-Finney-Smith-36032","Lauri-Markkanen-37809","Karl-Anthony-Towns-18937","Dennis-Smith-Jr.-37847","Dwight-Powell-18566","Andre-Drummond-13904","49900","291.17"
"Eric-Bledsoe-1031","Luke-Kennard-37814","Joe-Harris-18587","Dorian-Finney-Smith-36032","Joel-Embiid-18578","Dennis-Smith-Jr.-37847","Tim-Hardaway-Jr.-16879","Karl-Anthony-Towns-18937","50000","291.17"
"Eric-Bledsoe-1031","D'Angelo-Russell-18947","Luke-Kennard-37814","Dorian-Finney-Smith-36032","Karl-Anthony-Towns-18937","Dennis-Smith-Jr.-37847","Jeff-Green-1314","Deandre-Ayton-409301","49900","291.15"
"D'Angelo-Russell-18947","Andrew-Wiggins-18620","Luke-Kennard-37814","Dorian-Finney-Smith-36032","Andre-Drummond-13904","Dennis-Smith-Jr.-37847","Dion-Waiters-13897","Karl-Anthony-Towns-18937","49900","291.13"
"Eric-Bledsoe-1031","Luke-Kennard-37814","Dorian-Finney-Smith-36032","Blake-Griffin-1503","Lauri-Markkanen-37809","Dennis-Smith-Jr.-37847","Dion-Waiters-13897","Karl-Anthony-Towns-18937","49700","291.13"
"Eric-Bledsoe-1031","Shabazz-Napier-18598","Dorian-Finney-Smith-36032","Dwight-Powell-18566","Karl-Anthony-Towns-18937","Dennis-Smith-Jr.-37847","Dion-Waiters-13897","Joel-Embiid-18578","50000","291.08"
"D'Angelo-Russell-18947","Jordan-Clarkson-18631","Luke-Kennard-37814","Dorian-Finney-Smith-36032","Andre-Drummond-13904","Eric-Bledsoe-1031","Dion-Waiters-13897","Karl-Anthony-Towns-18937","50000","291.08"
"D'Angelo-Russell-18947","Dion-Waiters-13897","Luke-Kennard-37814","Josh-Jackson-37890","Karl-Anthony-Towns-18937","Dennis-Smith-Jr.-37847","Dorian-Finney-Smith-36032","Andre-Drummond-13904","49800","291.05"
"Eric-Bledsoe-1031","Jordan-Clarkson-18631","Luke-Kennard-37814","Dorian-Finney-Smith-36032","Joel-Embiid-18578","Dennis-Smith-Jr.-37847","Dion-Waiters-13897","Karl-Anthony-Towns-18937","49600","290.99"
"Collin-Sexton-408896","D'Angelo-Russell-18947","Luke-Kennard-37814","Dwight-Powell-18566","Andre-Drummond-13904","Dennis-Smith-Jr.-37847","Tim-Hardaway-Jr.-16879","Karl-Anthony-Towns-18937","49900","290.99"
"D'Angelo-Russell-18947","Dion-Waiters-13897","Luke-Kennard-37814","Blake-Griffin-1503","Karl-Anthony-Towns-18937","Collin-Sexton-408896","Tim-Hardaway-Jr.-16879","Dennis-Smith-Jr.-37847","49700","290.95"
"D'Angelo-Russell-18947","Luke-Kennard-37814","Dorian-Finney-Smith-36032","Otto-Porter-17069","Blake-Griffin-1503","Dennis-Smith-Jr.-37847","Dion-Waiters-13897","Karl-Anthony-Towns-18937","50000","290.94"
"Collin-Sexton-408896","Dion-Waiters-13897","Dorian-Finney-Smith-36032","Blake-Griffin-1503","Andre-Drummond-13904","Dennis-Smith-Jr.-37847","Dwight-Powell-18566","Karl-Anthony-Towns-18937","50000","290.94"
"D'Angelo-Russell-18947","Shabazz-Napier-18598","Luke-Kennard-37814","Blake-Griffin-1503","Karl-Anthony-Towns-18937","Dion-Waiters-13897","Tim-Hardaway-Jr.-16879","Dennis-Smith-Jr.-37847","49900","290.93"
"D'Angelo-Russell-18947","Dion-Waiters-13897","Luke-Kennard-37814","Lauri-Markkanen-37809","Karl-Anthony-Towns-18937","Dennis-Smith-Jr.-37847","Tim-Hardaway-Jr.-16879","Deandre-Ayton-409301","49800","290.93"
"Eric-Bledsoe-1031","D'Angelo-Russell-18947","Luke-Kennard-37814","Paul-Millsap-1335","Deandre-Ayton-409301","Dennis-Smith-Jr.-37847","Dion-Waiters-13897","Joel-Embiid-18578","50000","290.92"
"D'Angelo-Russell-18947","Dion-Waiters-13897","Luke-Kennard-37814","Blake-Griffin-1503","Deandre-Ayton-409301","Dennis-Smith-Jr.-37847","Sterling-Brown-37821","Karl-Anthony-Towns-18937","50000","290.89"
"Eric-Bledsoe-1031","Shabazz-Napier-18598","Luke-Kennard-37814","Otto-Porter-17069","Andre-Drummond-13904","Dennis-Smith-Jr.-37847","Tim-Hardaway-Jr.-16879","Karl-Anthony-Towns-18937","50000","290.89"
"D'Angelo-Russell-18947","Luke-Kennard-37814","Dorian-Finney-Smith-36032","Blake-Griffin-1503","Karl-Anthony-Towns-18937","Collin-Sexton-408896","Tim-Hardaway-Jr.-16879","Dennis-Smith-Jr.-37847","49700","290.89"
"D'Angelo-Russell-18947","Shabazz-Napier-18598","Luke-Kennard-37814","Blake-Griffin-1503","Karl-Anthony-Towns-18937","Collin-Sexton-408896","Dwight-Powell-18566","Dennis-Smith-Jr.-37847","50000","290.87"
"D'Angelo-Russell-18947","Luke-Kennard-37814","Dorian-Finney-Smith-36032","Blake-Griffin-1503","Karl-Anthony-Towns-18937","Shabazz-Napier-18598","Tim-Hardaway-Jr.-16879","Dennis-Smith-Jr.-37847","49900","290.87"
"Collin-Sexton-408896","D'Angelo-Russell-18947","Luke-Kennard-37814","Lauri-Markkanen-37809","Karl-Anthony-Towns-18937","Dennis-Smith-Jr.-37847","Dwight-Powell-18566","Deandre-Ayton-409301","49900","290.87"
"D'Angelo-Russell-18947","Luke-Kennard-37814","Dorian-Finney-Smith-36032","Lauri-Markkanen-37809","Deandre-Ayton-409301","Dennis-Smith-Jr.-37847","Tim-Hardaway-Jr.-16879","Karl-Anthony-Towns-18937","49800","290.87"
"Eric-Bledsoe-1031","D'Angelo-Russell-18947","Luke-Kennard-37814","Dorian-Finney-Smith-36032","Deandre-Ayton-409301","Dennis-Smith-Jr.-37847","Paul-Millsap-1335","Joel-Embiid-18578","50000","290.86"
"Jordan-Clarkson-18631","Luke-Kennard-37814","Dorian-Finney-Smith-36032","Blake-Griffin-1503","Andre-Drummond-13904","Dennis-Smith-Jr.-37847","Dion-Waiters-13897","Karl-Anthony-Towns-18937","49800","290.83"
"D'Angelo-Russell-18947","Luke-Kennard-37814","Dorian-Finney-Smith-36032","Blake-Griffin-1503","Deandre-Ayton-409301","Dennis-Smith-Jr.-37847","Sterling-Brown-37821","Karl-Anthony-Towns-18937","50000","290.83"
"Eric-Bledsoe-1031","Dion-Waiters-13897","Luke-Kennard-37814","Blake-Griffin-1503","Deandre-Ayton-409301","Dennis-Smith-Jr.-37847","Dwight-Powell-18566","Karl-Anthony-Towns-18937","49700","290.83"
"Eric-Bledsoe-1031","Shabazz-Napier-18598","Luke-Kennard-37814","Blake-Griffin-1503","Karl-Anthony-Towns-18937","Collin-Sexton-408896","Otto-Porter-17069","Dennis-Smith-Jr.-37847","49900","290.79"
"Eric-Bledsoe-1031","D'Angelo-Russell-18947","Dorian-Finney-Smith-36032","Paul-Millsap-1335","Karl-Anthony-Towns-18937","Dennis-Smith-Jr.-37847","Dion-Waiters-13897","Deandre-Ayton-409301","49800","290.78"
"Eric-Bledsoe-1031","Shabazz-Napier-18598","Luke-Kennard-37814","Lauri-Markkanen-37809","Deandre-Ayton-409301","Dennis-Smith-Jr.-37847","Otto-Porter-17069","Karl-Anthony-Towns-18937","50000","290.77"
"Eric-Bledsoe-1031","Luke-Kennard-37814","Dorian-Finney-Smith-36032","Blake-Griffin-1503","Deandre-Ayton-409301","Dennis-Smith-Jr.-37847","Dwight-Powell-18566","Karl-Anthony-Towns-18937","49700","290.77"
"Eric-Bledsoe-1031","D'Angelo-Russell-18947","Luke-Kennard-37814","Dorian-Finney-Smith-36032","Andre-Drummond-13904","Collin-Sexton-408896","Dion-Waiters-13897","Joel-Embiid-18578","49900","290.73"
"Collin-Sexton-408896","Luke-Kennard-37814","Josh-Jackson-37890","Blake-Griffin-1503","Karl-Anthony-Towns-18937","Dennis-Smith-Jr.-37847","Tim-Hardaway-Jr.-16879","Deandre-Ayton-409301","50000","290.7"
"Eric-Bledsoe-1031","Dion-Waiters-13897","Luke-Kennard-37814","Dwight-Powell-18566","Joel-Embiid-18578","Dennis-Smith-Jr.-37847","Tim-Hardaway-Jr.-16879","Karl-Anthony-Towns-18937","49800","290.69"
"D'Angelo-Russell-18947","Luke-Kennard-37814","Dorian-Finney-Smith-36032","Blake-Griffin-1503","Karl-Anthony-Towns-18937","Eric-Bledsoe-1031","Tim-Hardaway-Jr.-16879","Dion-Waiters-13897","50000","290.68"
"D'Angelo-Russell-18947","Dion-Waiters-13897","Luke-Kennard-37814","Lauri-Markkanen-37809","Karl-Anthony-Towns-18937","Eric-Bledsoe-1031","Paul-Millsap-1335","Dennis-Smith-Jr.-37847","49900","290.67"
"Shabazz-Napier-18598","Dion-Waiters-13897","Luke-Kennard-37814","Blake-Griffin-1503","Karl-Anthony-Towns-18937","Collin-Sexton-408896","Dorian-Finney-Smith-36032","Joel-Embiid-18578","50000","290.66"
"Eric-Bledsoe-1031","D'Angelo-Russell-18947","Luke-Kennard-37814","Dorian-Finney-Smith-36032","Andre-Drummond-13904","Collin-Sexton-408896","Joe-Harris-18587","Karl-Anthony-Towns-18937","50000","290.66"
"Eric-Bledsoe-1031","D'Angelo-Russell-18947","Luke-Kennard-37814","Blake-Griffin-1503","Deandre-Ayton-409301","Collin-Sexton-408896","Josh-Jackson-37890","Dennis-Smith-Jr.-37847","50000","290.65"
"Eric-Bledsoe-1031","D'Angelo-Russell-18947","Luke-Kennard-37814","Maxi-Kleber-37845","Karl-Anthony-Towns-18937","Collin-Sexton-408896","Lauri-Markkanen-37809","Dennis-Smith-Jr.-37847","49900","290.64"
"Eric-Bledsoe-1031","Luke-Kennard-37814","Dorian-Finney-Smith-36032","Dwight-Powell-18566","Joel-Embiid-18578","Dennis-Smith-Jr.-37847","Tim-Hardaway-Jr.-16879","Karl-Anthony-Towns-18937","49800","290.63"
"Eric-Bledsoe-1031","Dion-Waiters-13897","Luke-Kennard-37814","Lauri-Markkanen-37809","Andre-Drummond-13904","Dennis-Smith-Jr.-37847","Dorian-Finney-Smith-36032","Karl-Anthony-Towns-18937","49400","290.63"
"Eric-Bledsoe-1031","Jamal-Murray-35211","Dorian-Finney-Smith-36032","Blake-Griffin-1503","Karl-Anthony-Towns-18937","Collin-Sexton-408896","Dion-Waiters-13897","Dennis-Smith-Jr.-37847","50000","290.62"
"Eric-Bledsoe-1031","D'Angelo-Russell-18947","Luke-Kennard-37814","Lauri-Markkanen-37809","Karl-Anthony-Towns-18937","Dennis-Smith-Jr.-37847","Paul-Millsap-1335","Dorian-Finney-Smith-36032","49900","290.61"
"Jordan-Clarkson-18631","Luke-Kennard-37814","Dorian-Finney-Smith-36032","Lauri-Markkanen-37809","Joel-Embiid-18578","Dennis-Smith-Jr.-37847","Dion-Waiters-13897","Karl-Anthony-Towns-18937","49900","290.57"
"Eric-Bledsoe-1031","Shabazz-Napier-18598","Luke-Kennard-37814","Dorian-Finney-Smith-36032","Joel-Embiid-18578","Dennis-Smith-Jr.-37847","Joe-Harris-18587","Karl-Anthony-Towns-18937","49800","290.55"
"Dennis-Smith-Jr.-37847","Dion-Waiters-13897","Luke-Kennard-37814","Blake-Griffin-1503","Andre-Drummond-13904","Tim-Hardaway-Jr.-16879","Dwight-Powell-18566","Karl-Anthony-Towns-18937","50000","290.53"
"Collin-Sexton-408896","Shabazz-Napier-18598","Luke-Kennard-37814","Blake-Griffin-1503","Deandre-Ayton-409301","Dennis-Smith-Jr.-37847","Josh-Richardson-18922","Karl-Anthony-Towns-18937","50000","290.5"
"Collin-Sexton-408896","Luke-Kennard-37814","Dorian-Finney-Smith-36032","Blake-Griffin-1503","Andre-Drummond-13904","Dennis-Smith-Jr.-37847","Dion-Waiters-13897","Joel-Embiid-18578","49700","290.48"
"Eric-Bledsoe-1031","D'Angelo-Russell-18947","Luke-Kennard-37814","Blake-Griffin-1503","Andre-Drummond-13904","Dennis-Smith-Jr.-37847","Dion-Waiters-13897","Dwight-Powell-18566","50000","290.48"
"Collin-Sexton-408896","Shabazz-Napier-18598","Luke-Kennard-37814","Josh-Jackson-37890","Karl-Anthony-Towns-18937","Dennis-Smith-Jr.-37847","Lauri-Markkanen-37809","Andre-Drummond-13904","50000","290.48"
"Dennis-Smith-Jr.-37847","Luke-Kennard-37814","Dorian-Finney-Smith-36032","Blake-Griffin-1503","Andre-Drummond-13904","Tim-Hardaway-Jr.-16879","Dwight-Powell-18566","Karl-Anthony-Towns-18937","50000","290.47"
"Collin-Sexton-408896","Joe-Harris-18587","Luke-Kennard-37814","Blake-Griffin-1503","Andre-Drummond-13904","Dennis-Smith-Jr.-37847","Dion-Waiters-13897","Karl-Anthony-Towns-18937","49800","290.47"
"Shabazz-Napier-18598","Luke-Kennard-37814","Dorian-Finney-Smith-36032","Blake-Griffin-1503","Andre-Drummond-13904","Dennis-Smith-Jr.-37847","Dion-Waiters-13897","Joel-Embiid-18578","49900","290.46"
