"De'Aaron-Fox-37900","Jeremy-Lin-916","DeAndre-Bembry-35198","Marvin-Bagley-III-409321","Rudy-Gobert-16935","Damian-Lillard-13900","Bogdan-Bogdanovic-37899","Willie-Cauley-Stein-18951","49900","262.25"
"De'Aaron-Fox-37900","Jeremy-Lin-916","Bogdan-Bogdanovic-37899","Marvin-Bagley-III-409321","Rudy-Gobert-16935","Ricky-Rubio-1001","Kevin-Huerter-408969","Damian-Lillard-13900","49900","261.84"
"De'Aaron-Fox-37900","Bogdan-Bogdanovic-37899","Kyle-Korver-1269","Marvin-Bagley-III-409321","Rudy-Gobert-16935","Damian-Lillard-13900","Kevin-Huerter-408969","Willie-Cauley-Stein-18951","49700","261.7"
"De'Aaron-Fox-37900","Bogdan-Bogdanovic-37899","Kyle-Korver-1269","Marvin-Bagley-III-409321","Rudy-Gobert-16935","Ricky-Rubio-1001","Al-Farouq-Aminu-1279","Damian-Lillard-13900","50000","261.37"
"De'Aaron-Fox-37900","Jeremy-Lin-916","Bogdan-Bogdanovic-37899","John-Collins-37823","Willie-Cauley-Stein-18951","Damian-Lillard-13900","Kevin-Huerter-408969","Marvin-Bagley-III-409321","49900","261.37"

"De'Aaron-Fox-37900","Jeremy-Lin-916","DeAndre-Bembry-35198","Marvin-Bagley-III-409321","Rudy-Gobert-16935","Damian-Lillard-13900","Bogdan-Bogdanovic-37899","Willie-Cauley-Stein-18951","49900","262.25"
"De'Aaron-Fox-37900","Jeremy-Lin-916","Bogdan-Bogdanovic-37899","Marvin-Bagley-III-409321","Rudy-Gobert-16935","Ricky-Rubio-1001","Kevin-Huerter-408969","Damian-Lillard-13900","49900","261.84"
"De'Aaron-Fox-37900","Bogdan-Bogdanovic-37899","Kyle-Korver-1269","Marvin-Bagley-III-409321","Rudy-Gobert-16935","Damian-Lillard-13900","Kevin-Huerter-408969","Willie-Cauley-Stein-18951","49700","261.7"
"De'Aaron-Fox-37900","Bogdan-Bogdanovic-37899","Kyle-Korver-1269","Marvin-Bagley-III-409321","Rudy-Gobert-16935","Ricky-Rubio-1001","Al-Farouq-Aminu-1279","Damian-Lillard-13900","50000","261.37"
"De'Aaron-Fox-37900","Jeremy-Lin-916","Bogdan-Bogdanovic-37899","John-Collins-37823","Willie-Cauley-Stein-18951","Damian-Lillard-13900","Kevin-Huerter-408969","Marvin-Bagley-III-409321","49900","261.37"
"De'Aaron-Fox-37900","Bogdan-Bogdanovic-37899","Kyle-Korver-1269","Marvin-Bagley-III-409321","Jusuf-Nurkic-18619","Damian-Lillard-13900","Kevin-Huerter-408969","Willie-Cauley-Stein-18951","49900","261.08"
"De'Aaron-Fox-37900","Jeremy-Lin-916","Jae-Crowder-13942","Marvin-Bagley-III-409321","Rudy-Gobert-16935","Ricky-Rubio-1001","Bogdan-Bogdanovic-37899","Damian-Lillard-13900","50000","260.94"
"De'Aaron-Fox-37900","Kyle-Korver-1269","Al-Farouq-Aminu-1279","John-Collins-37823","Marvin-Bagley-III-409321","Damian-Lillard-13900","Bogdan-Bogdanovic-37899","Willie-Cauley-Stein-18951","50000","260.9"
"De'Aaron-Fox-37900","Bogdan-Bogdanovic-37899","Al-Farouq-Aminu-1279","Marvin-Bagley-III-409321","Willie-Cauley-Stein-18951","Ricky-Rubio-1001","Joe-Ingles-18627","Damian-Lillard-13900","50000","260.82"
"De'Aaron-Fox-37900","Bogdan-Bogdanovic-37899","Kyle-Korver-1269","Marvin-Bagley-III-409321","Rudy-Gobert-16935","Damian-Lillard-13900","Jae-Crowder-13942","Willie-Cauley-Stein-18951","49800","260.8"
"De'Aaron-Fox-37900","Bogdan-Bogdanovic-37899","Al-Farouq-Aminu-1279","Dewayne-Dedmon-16894","Willie-Cauley-Stein-18951","Ricky-Rubio-1001","Marvin-Bagley-III-409321","Damian-Lillard-13900","50000","260.74"
"Jeremy-Lin-916","Bogdan-Bogdanovic-37899","Jae-Crowder-13942","John-Collins-37823","Willie-Cauley-Stein-18951","De'Aaron-Fox-37900","Marvin-Bagley-III-409321","Damian-Lillard-13900","50000","260.47"
"De'Aaron-Fox-37900","Jeremy-Lin-916","Bogdan-Bogdanovic-37899","Al-Farouq-Aminu-1279","Rudy-Gobert-16935","Damian-Lillard-13900","Joe-Ingles-18627","Marvin-Bagley-III-409321","50000","260.38"
"Jeremy-Lin-916","Bogdan-Bogdanovic-37899","Al-Farouq-Aminu-1279","John-Collins-37823","Rudy-Gobert-16935","De'Aaron-Fox-37900","Marvin-Bagley-III-409321","Willie-Cauley-Stein-18951","50000","260.32"
"De'Aaron-Fox-37900","Jeremy-Lin-916","Al-Farouq-Aminu-1279","Dewayne-Dedmon-16894","Rudy-Gobert-16935","Damian-Lillard-13900","Bogdan-Bogdanovic-37899","Marvin-Bagley-III-409321","50000","260.3"
"De'Aaron-Fox-37900","Kevin-Huerter-408969","Bogdan-Bogdanovic-37899","Marvin-Bagley-III-409321","Rudy-Gobert-16935","Damian-Lillard-13900","Iman-Shumpert-13350","Willie-Cauley-Stein-18951","49900","260.23"
"De'Aaron-Fox-37900","Bogdan-Bogdanovic-37899","Kyle-Korver-1269","Marvin-Bagley-III-409321","Willie-Cauley-Stein-18951","Damian-Lillard-13900","Jae-Crowder-13942","Jusuf-Nurkic-18619","50000","260.18"
"Trae-Young-409063","Jeremy-Lin-916","Taurean-Prince-35218","Marvin-Bagley-III-409321","Willie-Cauley-Stein-18951","De'Aaron-Fox-37900","Bogdan-Bogdanovic-37899","Damian-Lillard-13900","50000","260.13"
"De'Aaron-Fox-37900","Jeremy-Lin-916","DeAndre-Bembry-35198","Marvin-Bagley-III-409321","Rudy-Gobert-16935","Ricky-Rubio-1001","Bogdan-Bogdanovic-37899","Damian-Lillard-13900","49700","260.1"
"De'Aaron-Fox-37900","Bogdan-Bogdanovic-37899","Al-Farouq-Aminu-1279","Marvin-Bagley-III-409321","Willie-Cauley-Stein-18951","Damian-Lillard-13900","Jake-Layman-35216","Rudy-Gobert-16935","50000","260.05"
"De'Aaron-Fox-37900","DeAndre-Bembry-35198","Taurean-Prince-35218","Marvin-Bagley-III-409321","Rudy-Gobert-16935","Damian-Lillard-13900","Bogdan-Bogdanovic-37899","Al-Farouq-Aminu-1279","49900","260.01"
"De'Aaron-Fox-37900","Bogdan-Bogdanovic-37899","Royce-O'Neale-37872","Marvin-Bagley-III-409321","Willie-Cauley-Stein-18951","Damian-Lillard-13900","Kevin-Huerter-408969","Rudy-Gobert-16935","49800","259.96"
"De'Aaron-Fox-37900","DeAndre-Bembry-35198","Kyle-Korver-1269","Marvin-Bagley-III-409321","Willie-Cauley-Stein-18951","Damian-Lillard-13900","Bogdan-Bogdanovic-37899","Rudy-Gobert-16935","49500","259.96"
"De'Aaron-Fox-37900","DeAndre-Bembry-35198","Bogdan-Bogdanovic-37899","John-Collins-37823","Marvin-Bagley-III-409321","Ricky-Rubio-1001","Kevin-Huerter-408969","Damian-Lillard-13900","50000","259.91"
"De'Aaron-Fox-37900","Bogdan-Bogdanovic-37899","Taurean-Prince-35218","Marvin-Bagley-III-409321","Willie-Cauley-Stein-18951","Ricky-Rubio-1001","Al-Farouq-Aminu-1279","Damian-Lillard-13900","49600","259.76"
"Trae-Young-409063","Jeremy-Lin-916","Al-Farouq-Aminu-1279","Marvin-Bagley-III-409321","Willie-Cauley-Stein-18951","De'Aaron-Fox-37900","Bogdan-Bogdanovic-37899","Damian-Lillard-13900","49900","259.71"
"Jeremy-Lin-916","Bogdan-Bogdanovic-37899","DeAndre-Bembry-35198","John-Collins-37823","Willie-Cauley-Stein-18951","De'Aaron-Fox-37900","Marvin-Bagley-III-409321","Damian-Lillard-13900","49700","259.63"
"De'Aaron-Fox-37900","Donovan-Mitchell-37875","Kyle-Korver-1269","Marvin-Bagley-III-409321","Willie-Cauley-Stein-18951","Kevin-Huerter-408969","Bogdan-Bogdanovic-37899","Damian-Lillard-13900","50000","259.58"
"De'Aaron-Fox-37900","Bogdan-Bogdanovic-37899","Kyle-Korver-1269","Marvin-Bagley-III-409321","Rudy-Gobert-16935","Ricky-Rubio-1001","Kevin-Huerter-408969","Damian-Lillard-13900","49500","259.55"
"De'Aaron-Fox-37900","Bogdan-Bogdanovic-37899","Taurean-Prince-35218","Marvin-Bagley-III-409321","Willie-Cauley-Stein-18951","Damian-Lillard-13900","Zach-Collins-37866","Rudy-Gobert-16935","50000","259.52"
"De'Aaron-Fox-37900","Jeremy-Lin-916","DeAndre-Bembry-35198","Marvin-Bagley-III-409321","Jusuf-Nurkic-18619","Ricky-Rubio-1001","Bogdan-Bogdanovic-37899","Damian-Lillard-13900","49900","259.48"
"De'Aaron-Fox-37900","DeAndre-Bembry-35198","Evan-Turner-1291","Marvin-Bagley-III-409321","Rudy-Gobert-16935","Damian-Lillard-13900","Bogdan-Bogdanovic-37899","Willie-Cauley-Stein-18951","49900","259.43"
"Trae-Young-409063","Bogdan-Bogdanovic-37899","Jae-Crowder-13942","Marvin-Bagley-III-409321","Willie-Cauley-Stein-18951","De'Aaron-Fox-37900","Kevin-Huerter-408969","Damian-Lillard-13900","50000","259.42"
"De'Aaron-Fox-37900","Bogdan-Bogdanovic-37899","Royce-O'Neale-37872","Marvin-Bagley-III-409321","Willie-Cauley-Stein-18951","Damian-Lillard-13900","Kevin-Huerter-408969","Jusuf-Nurkic-18619","50000","259.34"
"De'Aaron-Fox-37900","DeAndre-Bembry-35198","Kyle-Korver-1269","Marvin-Bagley-III-409321","Willie-Cauley-Stein-18951","Damian-Lillard-13900","Bogdan-Bogdanovic-37899","Jusuf-Nurkic-18619","49700","259.34"
"De'Aaron-Fox-37900","Iman-Shumpert-13350","Jae-Crowder-13942","Marvin-Bagley-III-409321","Rudy-Gobert-16935","Damian-Lillard-13900","Bogdan-Bogdanovic-37899","Willie-Cauley-Stein-18951","50000","259.33"
"De'Aaron-Fox-37900","Bogdan-Bogdanovic-37899","Taurean-Prince-35218","Harry-Giles-37897","Rudy-Gobert-16935","Damian-Lillard-13900","Marvin-Bagley-III-409321","Willie-Cauley-Stein-18951","50000","259.33"
"De'Aaron-Fox-37900","Jeremy-Lin-916","Taurean-Prince-35218","Marvin-Bagley-III-409321","Rudy-Gobert-16935","Damian-Lillard-13900","Bogdan-Bogdanovic-37899","Al-Farouq-Aminu-1279","49600","259.32"
"De'Aaron-Fox-37900","Jeremy-Lin-916","Kyle-Korver-1269","Marvin-Bagley-III-409321","Willie-Cauley-Stein-18951","Damian-Lillard-13900","Bogdan-Bogdanovic-37899","Rudy-Gobert-16935","49200","259.27"
"Trae-Young-409063","Bogdan-Bogdanovic-37899","Al-Farouq-Aminu-1279","Marvin-Bagley-III-409321","Willie-Cauley-Stein-18951","De'Aaron-Fox-37900","Kevin-Huerter-408969","Rudy-Gobert-16935","50000","259.27"
"De'Aaron-Fox-37900","Bogdan-Bogdanovic-37899","DeAndre-Bembry-35198","Marvin-Bagley-III-409321","Rudy-Gobert-16935","Damian-Lillard-13900","Kevin-Huerter-408969","Joe-Ingles-18627","49800","259.25"
"De'Aaron-Fox-37900","Kevin-Huerter-408969","Maurice-Harkless-16971","Marvin-Bagley-III-409321","Willie-Cauley-Stein-18951","Damian-Lillard-13900","Bogdan-Bogdanovic-37899","Rudy-Gobert-16935","49900","259.23"
"De'Aaron-Fox-37900","Jeremy-Lin-916","Bogdan-Bogdanovic-37899","John-Collins-37823","Marvin-Bagley-III-409321","Ricky-Rubio-1001","Kevin-Huerter-408969","Damian-Lillard-13900","49700","259.22"
"De'Aaron-Fox-37900","Bogdan-Bogdanovic-37899","DeAndre-Bembry-35198","John-Collins-37823","Willie-Cauley-Stein-18951","Kevin-Huerter-408969","Marvin-Bagley-III-409321","Rudy-Gobert-16935","49800","259.19"
"De'Aaron-Fox-37900","Kyle-Korver-1269","Taurean-Prince-35218","John-Collins-37823","Marvin-Bagley-III-409321","Ricky-Rubio-1001","Bogdan-Bogdanovic-37899","Damian-Lillard-13900","49900","259.17"
"De'Aaron-Fox-37900","Bogdan-Bogdanovic-37899","DeAndre-Bembry-35198","Dewayne-Dedmon-16894","Marvin-Bagley-III-409321","Damian-Lillard-13900","Kevin-Huerter-408969","Rudy-Gobert-16935","49800","259.17"
"De'Aaron-Fox-37900","Bogdan-Bogdanovic-37899","Al-Farouq-Aminu-1279","John-Collins-37823","Marvin-Bagley-III-409321","Damian-Lillard-13900","Kevin-Huerter-408969","Taurean-Prince-35218","49900","259.13"
"De'Aaron-Fox-37900","Bogdan-Bogdanovic-37899","Taurean-Prince-35218","Marvin-Bagley-III-409321","Willie-Cauley-Stein-18951","Ricky-Rubio-1001","Derrick-Favors-1266","Damian-Lillard-13900","49800","259.11"
"De'Aaron-Fox-37900","Bogdan-Bogdanovic-37899","Al-Farouq-Aminu-1279","Marvin-Bagley-III-409321","Rudy-Gobert-16935","Damian-Lillard-13900","Zach-Collins-37866","Willie-Cauley-Stein-18951","49900","259.1"
"De'Aaron-Fox-37900","Bogdan-Bogdanovic-37899","Kyle-Korver-1269","John-Collins-37823","Marvin-Bagley-III-409321","Damian-Lillard-13900","Kevin-Huerter-408969","Willie-Cauley-Stein-18951","49500","259.08"
"De'Aaron-Fox-37900","Bogdan-Bogdanovic-37899","Jae-Crowder-13942","Marvin-Bagley-III-409321","Rudy-Gobert-16935","Damian-Lillard-13900","Royce-O'Neale-37872","Willie-Cauley-Stein-18951","49900","259.06"
"De'Aaron-Fox-37900","Bogdan-Bogdanovic-37899","DeAndre-Bembry-35198","Marvin-Bagley-III-409321","Rudy-Gobert-16935","Ricky-Rubio-1001","Kevin-Huerter-408969","Jusuf-Nurkic-18619","50000","259.04"
"De'Aaron-Fox-37900","Bogdan-Bogdanovic-37899","Taurean-Prince-35218","Marvin-Bagley-III-409321","Rudy-Gobert-16935","Damian-Lillard-13900","Kevin-Huerter-408969","Jae-Crowder-13942","49700","259.03"
"De'Aaron-Fox-37900","Kevin-Huerter-408969","Evan-Turner-1291","Marvin-Bagley-III-409321","Rudy-Gobert-16935","Ricky-Rubio-1001","Bogdan-Bogdanovic-37899","Damian-Lillard-13900","49900","259.02"
"Jeremy-Lin-916","Donovan-Mitchell-37875","Bogdan-Bogdanovic-37899","Marvin-Bagley-III-409321","Rudy-Gobert-16935","De'Aaron-Fox-37900","Kevin-Huerter-408969","Willie-Cauley-Stein-18951","50000","259.0"
"De'Aaron-Fox-37900","Bogdan-Bogdanovic-37899","Kevin-Huerter-408969","Marvin-Bagley-III-409321","Willie-Cauley-Stein-18951","Ricky-Rubio-1001","Joe-Ingles-18627","Damian-Lillard-13900","49500","259.0"
"De'Aaron-Fox-37900","DeAndre-Bembry-35198","Al-Farouq-Aminu-1279","Marvin-Bagley-III-409321","Rudy-Gobert-16935","Damian-Lillard-13900","Derrick-Favors-1266","Bogdan-Bogdanovic-37899","50000","258.94"
"De'Aaron-Fox-37900","Bogdan-Bogdanovic-37899","Kyle-Korver-1269","Marvin-Bagley-III-409321","Jusuf-Nurkic-18619","Ricky-Rubio-1001","Kevin-Huerter-408969","Damian-Lillard-13900","49700","258.93"
"De'Aaron-Fox-37900","Kevin-Huerter-408969","Bogdan-Bogdanovic-37899","Dewayne-Dedmon-16894","Willie-Cauley-Stein-18951","Ricky-Rubio-1001","Marvin-Bagley-III-409321","Damian-Lillard-13900","49500","258.92"
"De'Aaron-Fox-37900","Bogdan-Bogdanovic-37899","Al-Farouq-Aminu-1279","Harry-Giles-37897","Willie-Cauley-Stein-18951","Damian-Lillard-13900","Marvin-Bagley-III-409321","Rudy-Gobert-16935","49900","258.91"
"Trae-Young-409063","Bogdan-Bogdanovic-37899","Kyle-Korver-1269","Marvin-Bagley-III-409321","Willie-Cauley-Stein-18951","De'Aaron-Fox-37900","Joe-Ingles-18627","Damian-Lillard-13900","50000","258.9"
"Trae-Young-409063","Bogdan-Bogdanovic-37899","Kyle-Korver-1269","Dewayne-Dedmon-16894","Willie-Cauley-Stein-18951","De'Aaron-Fox-37900","Marvin-Bagley-III-409321","Damian-Lillard-13900","50000","258.82"
"De'Aaron-Fox-37900","Kyle-Korver-1269","Al-Farouq-Aminu-1279","John-Collins-37823","Marvin-Bagley-III-409321","Ricky-Rubio-1001","Bogdan-Bogdanovic-37899","Damian-Lillard-13900","49800","258.75"
"De'Aaron-Fox-37900","Jeremy-Lin-916","Evan-Turner-1291","Marvin-Bagley-III-409321","Rudy-Gobert-16935","Damian-Lillard-13900","Bogdan-Bogdanovic-37899","Willie-Cauley-Stein-18951","49600","258.74"
"Jeremy-Lin-916","Bogdan-Bogdanovic-37899","Taurean-Prince-35218","Marvin-Bagley-III-409321","Jusuf-Nurkic-18619","De'Aaron-Fox-37900","Al-Farouq-Aminu-1279","Damian-Lillard-13900","49800","258.7"
"De'Aaron-Fox-37900","Bogdan-Bogdanovic-37899","Al-Farouq-Aminu-1279","Marvin-Bagley-III-409321","Willie-Cauley-Stein-18951","Ricky-Rubio-1001","Derrick-Favors-1266","Damian-Lillard-13900","49700","258.69"
"De'Aaron-Fox-37900","Jeremy-Lin-916","Taurean-Prince-35218","Marvin-Bagley-III-409321","Rudy-Gobert-16935","Damian-Lillard-13900","Bogdan-Bogdanovic-37899","Derrick-Favors-1266","49800","258.67"
"De'Aaron-Fox-37900","Bogdan-Bogdanovic-37899","Kyle-Korver-1269","Marvin-Bagley-III-409321","Rudy-Gobert-16935","Ricky-Rubio-1001","Jae-Crowder-13942","Damian-Lillard-13900","49600","258.65"
"De'Aaron-Fox-37900","Jeremy-Lin-916","Kyle-Korver-1269","Marvin-Bagley-III-409321","Willie-Cauley-Stein-18951","Damian-Lillard-13900","Bogdan-Bogdanovic-37899","Jusuf-Nurkic-18619","49400","258.65"
"De'Aaron-Fox-37900","DeAndre-Bembry-35198","Bogdan-Bogdanovic-37899","Marvin-Bagley-III-409321","Jusuf-Nurkic-18619","Kevin-Huerter-408969","Joe-Ingles-18627","Damian-Lillard-13900","50000","258.63"
"De'Aaron-Fox-37900","Bogdan-Bogdanovic-37899","Jae-Crowder-13942","Marvin-Bagley-III-409321","Rudy-Gobert-16935","Damian-Lillard-13900","Kevin-Huerter-408969","Al-Farouq-Aminu-1279","49600","258.61"
"De'Aaron-Fox-37900","Jeremy-Lin-916","Taurean-Prince-35218","John-Collins-37823","Marvin-Bagley-III-409321","Ricky-Rubio-1001","Bogdan-Bogdanovic-37899","Rudy-Gobert-16935","49900","258.59"
"Trae-Young-409063","Kevin-Huerter-408969","DeAndre-Bembry-35198","Marvin-Bagley-III-409321","Willie-Cauley-Stein-18951","De'Aaron-Fox-37900","Bogdan-Bogdanovic-37899","Damian-Lillard-13900","49700","258.58"
"De'Aaron-Fox-37900","DeAndre-Bembry-35198","Bogdan-Bogdanovic-37899","John-Collins-37823","Jusuf-Nurkic-18619","Kevin-Huerter-408969","Marvin-Bagley-III-409321","Willie-Cauley-Stein-18951","50000","258.57"
"Jeremy-Lin-916","Kevin-Huerter-408969","Bogdan-Bogdanovic-37899","Marvin-Bagley-III-409321","Rudy-Gobert-16935","De'Aaron-Fox-37900","Joe-Ingles-18627","Damian-Lillard-13900","49500","258.56"
"De'Aaron-Fox-37900","Bogdan-Bogdanovic-37899","DeAndre-Bembry-35198","Dewayne-Dedmon-16894","Marvin-Bagley-III-409321","Damian-Lillard-13900","Kevin-Huerter-408969","Jusuf-Nurkic-18619","50000","258.55"
"De'Aaron-Fox-37900","Evan-Turner-1291","Bogdan-Bogdanovic-37899","John-Collins-37823","Willie-Cauley-Stein-18951","Damian-Lillard-13900","Kevin-Huerter-408969","Marvin-Bagley-III-409321","49900","258.55"
"De'Aaron-Fox-37900","Kyle-Korver-1269","Taurean-Prince-35218","Marvin-Bagley-III-409321","Rudy-Gobert-16935","Damian-Lillard-13900","Joe-Ingles-18627","Bogdan-Bogdanovic-37899","49700","258.51"
"Jeremy-Lin-916","Kevin-Huerter-408969","Bogdan-Bogdanovic-37899","John-Collins-37823","Willie-Cauley-Stein-18951","De'Aaron-Fox-37900","Marvin-Bagley-III-409321","Rudy-Gobert-16935","49500","258.5"
"De'Aaron-Fox-37900","Bogdan-Bogdanovic-37899","DeAndre-Bembry-35198","Marvin-Bagley-III-409321","Willie-Cauley-Stein-18951","Damian-Lillard-13900","Iman-Shumpert-13350","Rudy-Gobert-16935","49700","258.49"
"De'Aaron-Fox-37900","Jeremy-Lin-916","Bogdan-Bogdanovic-37899","Dewayne-Dedmon-16894","Rudy-Gobert-16935","Damian-Lillard-13900","Kevin-Huerter-408969","Marvin-Bagley-III-409321","49500","258.48"
"De'Aaron-Fox-37900","Kyle-Korver-1269","Taurean-Prince-35218","John-Collins-37823","Willie-Cauley-Stein-18951","Bogdan-Bogdanovic-37899","Marvin-Bagley-III-409321","Rudy-Gobert-16935","49700","258.45"
"De'Aaron-Fox-37900","Kyle-Korver-1269","Taurean-Prince-35218","Dewayne-Dedmon-16894","Marvin-Bagley-III-409321","Damian-Lillard-13900","Bogdan-Bogdanovic-37899","Rudy-Gobert-16935","49700","258.43"
"De'Aaron-Fox-37900","Bogdan-Bogdanovic-37899","Taurean-Prince-35218","Jae-Crowder-13942","Marvin-Bagley-III-409321","Damian-Lillard-13900","Kevin-Huerter-408969","Jusuf-Nurkic-18619","49900","258.41"
"Damian-Lillard-13900","Bogdan-Bogdanovic-37899","Taurean-Prince-35218","Marvin-Bagley-III-409321","Willie-Cauley-Stein-18951","Ricky-Rubio-1001","Al-Farouq-Aminu-1279","Rudy-Gobert-16935","50000","258.38"
"De'Aaron-Fox-37900","Bogdan-Bogdanovic-37899","Taurean-Prince-35218","Marvin-Bagley-III-409321","Rudy-Gobert-16935","Ricky-Rubio-1001","Joe-Ingles-18627","Willie-Cauley-Stein-18951","49700","258.37"
"De'Aaron-Fox-37900","Jeremy-Lin-916","Bogdan-Bogdanovic-37899","Marvin-Bagley-III-409321","Jusuf-Nurkic-18619","Ricky-Rubio-1001","Kevin-Huerter-408969","Rudy-Gobert-16935","49700","258.35"
"De'Aaron-Fox-37900","DeAndre-Bembry-35198","Bogdan-Bogdanovic-37899","Jae-Crowder-13942","Rudy-Gobert-16935","Damian-Lillard-13900","Joe-Ingles-18627","Marvin-Bagley-III-409321","49900","258.35"
"De'Aaron-Fox-37900","Bogdan-Bogdanovic-37899","Jae-Crowder-13942","Marvin-Bagley-III-409321","Willie-Cauley-Stein-18951","Damian-Lillard-13900","Maurice-Harkless-16971","Rudy-Gobert-16935","50000","258.33"
"De'Aaron-Fox-37900","Jeremy-Lin-916","Jae-Crowder-13942","John-Collins-37823","Marvin-Bagley-III-409321","Ricky-Rubio-1001","Bogdan-Bogdanovic-37899","Damian-Lillard-13900","49800","258.32"
"Trae-Young-409063","Jeremy-Lin-916","Bogdan-Bogdanovic-37899","Marvin-Bagley-III-409321","Willie-Cauley-Stein-18951","De'Aaron-Fox-37900","Joe-Ingles-18627","Rudy-Gobert-16935","50000","258.32"
"De'Aaron-Fox-37900","Bogdan-Bogdanovic-37899","Taurean-Prince-35218","Marvin-Bagley-III-409321","Rudy-Gobert-16935","Ricky-Rubio-1001","Jake-Layman-35216","Damian-Lillard-13900","49900","258.32"
"De'Aaron-Fox-37900","Kyle-Korver-1269","Taurean-Prince-35218","Marvin-Bagley-III-409321","Rudy-Gobert-16935","Ricky-Rubio-1001","Bogdan-Bogdanovic-37899","Jusuf-Nurkic-18619","49900","258.3"
"De'Aaron-Fox-37900","DeAndre-Bembry-35198","Jae-Crowder-13942","John-Collins-37823","Rudy-Gobert-16935","Bogdan-Bogdanovic-37899","Marvin-Bagley-III-409321","Willie-Cauley-Stein-18951","49900","258.29"
"De'Aaron-Fox-37900","Bogdan-Bogdanovic-37899","Taurean-Prince-35218","Dewayne-Dedmon-16894","Rudy-Gobert-16935","Ricky-Rubio-1001","Marvin-Bagley-III-409321","Willie-Cauley-Stein-18951","49700","258.29"
"De'Aaron-Fox-37900","Bogdan-Bogdanovic-37899","Jae-Crowder-13942","Dewayne-Dedmon-16894","Rudy-Gobert-16935","Damian-Lillard-13900","DeAndre-Bembry-35198","Marvin-Bagley-III-409321","49900","258.27"
"De'Aaron-Fox-37900","Bogdan-Bogdanovic-37899","Taurean-Prince-35218","Marvin-Bagley-III-409321","Jusuf-Nurkic-18619","Kevin-Huerter-408969","Al-Farouq-Aminu-1279","Rudy-Gobert-16935","49900","258.26"
"Jeremy-Lin-916","Bogdan-Bogdanovic-37899","Al-Farouq-Aminu-1279","Marvin-Bagley-III-409321","Rudy-Gobert-16935","De'Aaron-Fox-37900","Derrick-Favors-1266","Damian-Lillard-13900","49700","258.25"
"Trae-Young-409063","Jeremy-Lin-916","Bogdan-Bogdanovic-37899","Dewayne-Dedmon-16894","Rudy-Gobert-16935","De'Aaron-Fox-37900","Marvin-Bagley-III-409321","Willie-Cauley-Stein-18951","50000","258.24"
"De'Aaron-Fox-37900","Bogdan-Bogdanovic-37899","Taurean-Prince-35218","Jae-Crowder-13942","Marvin-Bagley-III-409321","Damian-Lillard-13900","Al-Farouq-Aminu-1279","John-Collins-37823","50000","258.23"
