"Shai-Gilgeous-Alexander-408990","Patrick-Beverley-14108","Tobias-Harris-13332","Jaren-Jackson-409099","Marc-Gasol-1493","Mike-Conley-1062","Taurean-Prince-35218","Montrezl-Harrell-18930","50000","265.24"
"Shai-Gilgeous-Alexander-408990","Patrick-Beverley-14108","Justin-Holiday-14559","Jaren-Jackson-409099","Marc-Gasol-1493","Lou-Williams-1044","Taurean-Prince-35218","Nikola-Jokic-31812","49900","264.34"
"Shai-Gilgeous-Alexander-408990","Patrick-Beverley-14108","Tobias-Harris-13332","Montrezl-Harrell-18930","Marc-Gasol-1493","Lou-Williams-1044","Taurean-Prince-35218","Gary-Harris-18617","49800","264.25"
"Shai-Gilgeous-Alexander-408990","Patrick-Beverley-14108","Will-Barton-13982","Tobias-Harris-13332","Marc-Gasol-1493","Mike-Conley-1062","Taurean-Prince-35218","Gary-Harris-18617","49900","264.22"
"Shai-Gilgeous-Alexander-408990","Avery-Bradley-941","Tobias-Harris-13332","Jaren-Jackson-409099","Marc-Gasol-1493","Patrick-Beverley-14108","Taurean-Prince-35218","Nikola-Jokic-31812","49700","264.17"

"Shai-Gilgeous-Alexander-408990","Patrick-Beverley-14108","Tobias-Harris-13332","Jaren-Jackson-409099","Marc-Gasol-1493","Mike-Conley-1062","Taurean-Prince-35218","Montrezl-Harrell-18930","50000","265.24"
"Shai-Gilgeous-Alexander-408990","Patrick-Beverley-14108","Justin-Holiday-14559","Jaren-Jackson-409099","Marc-Gasol-1493","Lou-Williams-1044","Taurean-Prince-35218","Nikola-Jokic-31812","49900","264.34"
"Shai-Gilgeous-Alexander-408990","Patrick-Beverley-14108","Tobias-Harris-13332","Montrezl-Harrell-18930","Marc-Gasol-1493","Lou-Williams-1044","Taurean-Prince-35218","Gary-Harris-18617","49800","264.25"
"Shai-Gilgeous-Alexander-408990","Patrick-Beverley-14108","Will-Barton-13982","Tobias-Harris-13332","Marc-Gasol-1493","Mike-Conley-1062","Taurean-Prince-35218","Gary-Harris-18617","49900","264.22"
"Shai-Gilgeous-Alexander-408990","Avery-Bradley-941","Tobias-Harris-13332","Jaren-Jackson-409099","Marc-Gasol-1493","Patrick-Beverley-14108","Taurean-Prince-35218","Nikola-Jokic-31812","49700","264.17"
"Shai-Gilgeous-Alexander-408990","Patrick-Beverley-14108","Tobias-Harris-13332","Jaren-Jackson-409099","Marc-Gasol-1493","Lou-Williams-1044","Taurean-Prince-35218","Montrezl-Harrell-18930","49700","263.99"
"Shai-Gilgeous-Alexander-408990","Patrick-Beverley-14108","Tobias-Harris-13332","Jaren-Jackson-409099","Marc-Gasol-1493","Mike-Conley-1062","Will-Barton-13982","Taurean-Prince-35218","49800","263.96"
"Shai-Gilgeous-Alexander-408990","Patrick-Beverley-14108","Tobias-Harris-13332","Jaren-Jackson-409099","Marc-Gasol-1493","Mike-Conley-1062","Taurean-Prince-35218","Trae-Young-409063","49600","263.32"
"Shai-Gilgeous-Alexander-408990","Patrick-Beverley-14108","Tobias-Harris-13332","Jaren-Jackson-409099","Marc-Gasol-1493","Lou-Williams-1044","Will-Barton-13982","Gary-Harris-18617","49900","263.23"
"Patrick-Beverley-14108","Lou-Williams-1044","Tobias-Harris-13332","Jaren-Jackson-409099","Marc-Gasol-1493","Justin-Holiday-14559","Taurean-Prince-35218","Trae-Young-409063","50000","263.1"
"Shai-Gilgeous-Alexander-408990","Patrick-Beverley-14108","Justin-Holiday-14559","Jaren-Jackson-409099","Nikola-Jokic-31812","Mike-Conley-1062","Taurean-Prince-35218","Lou-Williams-1044","49800","263.09"
"Shai-Gilgeous-Alexander-408990","Patrick-Beverley-14108","Will-Barton-13982","Tobias-Harris-13332","Marc-Gasol-1493","Lou-Williams-1044","Taurean-Prince-35218","Gary-Harris-18617","49600","262.97"
"Shai-Gilgeous-Alexander-408990","Patrick-Beverley-14108","Justin-Holiday-14559","Tobias-Harris-13332","Nikola-Jokic-31812","Gary-Harris-18617","Taurean-Prince-35218","Montrezl-Harrell-18930","49900","262.97"
"Shai-Gilgeous-Alexander-408990","Patrick-Beverley-14108","Tobias-Harris-13332","John-Collins-37823","Marc-Gasol-1493","Mike-Conley-1062","Taurean-Prince-35218","Justin-Holiday-14559","49900","262.96"
"Shai-Gilgeous-Alexander-408990","Avery-Bradley-941","Tobias-Harris-13332","Jaren-Jackson-409099","Nikola-Jokic-31812","Mike-Conley-1062","Taurean-Prince-35218","Patrick-Beverley-14108","49600","262.92"
"Shai-Gilgeous-Alexander-408990","Patrick-Beverley-14108","Tobias-Harris-13332","Jaren-Jackson-409099","Marc-Gasol-1493","Mike-Conley-1062","Justin-Holiday-14559","Lou-Williams-1044","49400","262.77"
"Shai-Gilgeous-Alexander-408990","Patrick-Beverley-14108","Tobias-Harris-13332","Jaren-Jackson-409099","Montrezl-Harrell-18930","Mike-Conley-1062","Taurean-Prince-35218","Lou-Williams-1044","49600","262.74"
"Shai-Gilgeous-Alexander-408990","Patrick-Beverley-14108","Tobias-Harris-13332","Jaren-Jackson-409099","Marc-Gasol-1493","Lou-Williams-1044","Will-Barton-13982","Taurean-Prince-35218","49500","262.71"
"Shai-Gilgeous-Alexander-408990","Patrick-Beverley-14108","Tobias-Harris-13332","Montrezl-Harrell-18930","Nikola-Jokic-31812","Justin-Holiday-14559","Taurean-Prince-35218","Jaren-Jackson-409099","49800","262.71"
"Patrick-Beverley-14108","Avery-Bradley-941","Tobias-Harris-13332","Jaren-Jackson-409099","Nikola-Jokic-31812","Lou-Williams-1044","Justin-Holiday-14559","Taurean-Prince-35218","50000","262.7"
"Mike-Conley-1062","Avery-Bradley-941","Tobias-Harris-13332","Montrezl-Harrell-18930","Marc-Gasol-1493","Patrick-Beverley-14108","Taurean-Prince-35218","Gary-Harris-18617","50000","262.67"
"Shai-Gilgeous-Alexander-408990","Patrick-Beverley-14108","Justin-Holiday-14559","Tobias-Harris-13332","Marc-Gasol-1493","Mike-Conley-1062","Taurean-Prince-35218","Lou-Williams-1044","49100","262.51"
"Mike-Conley-1062","Avery-Bradley-941","Tobias-Harris-13332","Jaren-Jackson-409099","Marc-Gasol-1493","Patrick-Beverley-14108","Taurean-Prince-35218","Montrezl-Harrell-18930","49900","262.41"
"Mike-Conley-1062","Patrick-Beverley-14108","Tobias-Harris-13332","Jaren-Jackson-409099","Marc-Gasol-1493","Justin-Holiday-14559","Taurean-Prince-35218","Gary-Harris-18617","49400","262.38"
"Shai-Gilgeous-Alexander-408990","Patrick-Beverley-14108","Tobias-Harris-13332","Mason-Plumlee-16798","Nikola-Jokic-31812","Gary-Harris-18617","Taurean-Prince-35218","Marc-Gasol-1493","50000","262.33"
"Shai-Gilgeous-Alexander-408990","Patrick-Beverley-14108","Tobias-Harris-13332","John-Collins-37823","Marc-Gasol-1493","Lou-Williams-1044","Justin-Holiday-14559","Gary-Harris-18617","50000","262.23"
"Shai-Gilgeous-Alexander-408990","Patrick-Beverley-14108","Justin-Holiday-14559","Dewayne-Dedmon-16894","Nikola-Jokic-31812","Mike-Conley-1062","Taurean-Prince-35218","Marc-Gasol-1493","50000","262.23"
"Shai-Gilgeous-Alexander-408990","Patrick-Beverley-14108","Tobias-Harris-13332","Jaren-Jackson-409099","Marc-Gasol-1493","Mike-Conley-1062","Paul-Millsap-1335","Lou-Williams-1044","50000","262.21"
"Shai-Gilgeous-Alexander-408990","Patrick-Beverley-14108","Justin-Holiday-14559","Tobias-Harris-13332","Dewayne-Dedmon-16894","Lou-Williams-1044","Taurean-Prince-35218","Nikola-Jokic-31812","49900","262.17"
"Mike-Conley-1062","Patrick-Beverley-14108","Tobias-Harris-13332","Jaren-Jackson-409099","Dewayne-Dedmon-16894","Lou-Williams-1044","Taurean-Prince-35218","Gary-Harris-18617","50000","262.07"
"Shai-Gilgeous-Alexander-408990","Patrick-Beverley-14108","Tobias-Harris-13332","Jaren-Jackson-409099","Marc-Gasol-1493","Lou-Williams-1044","Taurean-Prince-35218","Trae-Young-409063","49300","262.07"
"Shai-Gilgeous-Alexander-408990","Patrick-Beverley-14108","Justin-Holiday-14559","Jaren-Jackson-409099","Nikola-Jokic-31812","Gary-Harris-18617","Montrezl-Harrell-18930","Marc-Gasol-1493","50000","262.04"
"Shai-Gilgeous-Alexander-408990","Patrick-Beverley-14108","Tobias-Harris-13332","John-Collins-37823","Jaren-Jackson-409099","Lou-Williams-1044","Justin-Holiday-14559","Marc-Gasol-1493","49900","261.97"
"Shai-Gilgeous-Alexander-408990","Will-Barton-13982","Tobias-Harris-13332","Jaren-Jackson-409099","Nikola-Jokic-31812","Patrick-Beverley-14108","Justin-Holiday-14559","Gary-Harris-18617","50000","261.95"
"Shai-Gilgeous-Alexander-408990","Patrick-Beverley-14108","Tobias-Harris-13332","Paul-Millsap-1335","Marc-Gasol-1493","Mike-Conley-1062","Taurean-Prince-35218","Lou-Williams-1044","49700","261.95"
"Shai-Gilgeous-Alexander-408990","Patrick-Beverley-14108","Tobias-Harris-13332","Paul-Millsap-1335","Nikola-Jokic-31812","Justin-Holiday-14559","Taurean-Prince-35218","Marc-Gasol-1493","49900","261.92"
"Shai-Gilgeous-Alexander-408990","Patrick-Beverley-14108","Tobias-Harris-13332","Dewayne-Dedmon-16894","Marc-Gasol-1493","Mike-Conley-1062","Taurean-Prince-35218","Montrezl-Harrell-18930","49800","261.88"
"Mike-Conley-1062","Avery-Bradley-941","Tobias-Harris-13332","Dewayne-Dedmon-16894","Marc-Gasol-1493","Patrick-Beverley-14108","Taurean-Prince-35218","Lou-Williams-1044","50000","261.87"
"Mike-Conley-1062","Patrick-Beverley-14108","Justin-Holiday-14559","Tobias-Harris-13332","Jaren-Jackson-409099","Lou-Williams-1044","Taurean-Prince-35218","Trae-Young-409063","49900","261.85"
"Mike-Conley-1062","Patrick-Beverley-14108","Tobias-Harris-13332","Jaren-Jackson-409099","Marc-Gasol-1493","Gary-Harris-18617","Taurean-Prince-35218","Paul-Millsap-1335","50000","261.82"
"Shai-Gilgeous-Alexander-408990","Patrick-Beverley-14108","Tobias-Harris-13332","Jaren-Jackson-409099","Nikola-Jokic-31812","Lou-Williams-1044","Taurean-Prince-35218","Jeremy-Lin-916","49800","261.81"
"Shai-Gilgeous-Alexander-408990","Justin-Holiday-14559","Tobias-Harris-13332","Jaren-Jackson-409099","Marc-Gasol-1493","Mike-Conley-1062","Taurean-Prince-35218","Montrezl-Harrell-18930","50000","261.79"
"Shai-Gilgeous-Alexander-408990","Patrick-Beverley-14108","Justin-Holiday-14559","Montrezl-Harrell-18930","Nikola-Jokic-31812","Gary-Harris-18617","Taurean-Prince-35218","Marc-Gasol-1493","49700","261.78"
"Shai-Gilgeous-Alexander-408990","Avery-Bradley-941","Will-Barton-13982","Tobias-Harris-13332","Marc-Gasol-1493","Patrick-Beverley-14108","Justin-Holiday-14559","Nikola-Jokic-31812","50000","261.75"
"Shai-Gilgeous-Alexander-408990","Patrick-Beverley-14108","Tobias-Harris-13332","John-Collins-37823","Marc-Gasol-1493","Lou-Williams-1044","Taurean-Prince-35218","Justin-Holiday-14559","49600","261.71"
"Shai-Gilgeous-Alexander-408990","Will-Barton-13982","Justin-Holiday-14559","Tobias-Harris-13332","Nikola-Jokic-31812","Patrick-Beverley-14108","Taurean-Prince-35218","Gary-Harris-18617","49700","261.69"
"Patrick-Beverley-14108","Avery-Bradley-941","Tobias-Harris-13332","Jaren-Jackson-409099","Marc-Gasol-1493","Lou-Williams-1044","Montrezl-Harrell-18930","Gary-Harris-18617","50000","261.68"
"Shai-Gilgeous-Alexander-408990","Avery-Bradley-941","Tobias-Harris-13332","Jaren-Jackson-409099","Nikola-Jokic-31812","Patrick-Beverley-14108","Taurean-Prince-35218","Lou-Williams-1044","49300","261.67"
"Patrick-Beverley-14108","Justin-Holiday-14559","Tobias-Harris-13332","Jaren-Jackson-409099","Marc-Gasol-1493","Gary-Harris-18617","Taurean-Prince-35218","John-Collins-37823","49900","261.58"
"Shai-Gilgeous-Alexander-408990","Patrick-Beverley-14108","Will-Barton-13982","Tobias-Harris-13332","Montrezl-Harrell-18930","Lou-Williams-1044","Justin-Holiday-14559","Marc-Gasol-1493","50000","261.57"
"Shai-Gilgeous-Alexander-408990","Patrick-Beverley-14108","Taurean-Prince-35218","Jaren-Jackson-409099","Marc-Gasol-1493","Mike-Conley-1062","Montrezl-Harrell-18930","Lou-Williams-1044","49400","261.55"
"Shai-Gilgeous-Alexander-408990","Patrick-Beverley-14108","Taurean-Prince-35218","Jaren-Jackson-409099","Marc-Gasol-1493","Justin-Holiday-14559","Montrezl-Harrell-18930","Nikola-Jokic-31812","49600","261.52"
"Patrick-Beverley-14108","Avery-Bradley-941","Justin-Holiday-14559","Jaren-Jackson-409099","Marc-Gasol-1493","Lou-Williams-1044","Taurean-Prince-35218","Nikola-Jokic-31812","49800","261.51"
"Shai-Gilgeous-Alexander-408990","Patrick-Beverley-14108","Will-Barton-13982","Tobias-Harris-13332","Jaren-Jackson-409099","Mike-Conley-1062","Taurean-Prince-35218","Lou-Williams-1044","49400","261.46"
"Shai-Gilgeous-Alexander-408990","Will-Barton-13982","Tobias-Harris-13332","Jaren-Jackson-409099","Nikola-Jokic-31812","Patrick-Beverley-14108","Justin-Holiday-14559","Taurean-Prince-35218","49600","261.43"
"Patrick-Beverley-14108","Avery-Bradley-941","Tobias-Harris-13332","Montrezl-Harrell-18930","Marc-Gasol-1493","Lou-Williams-1044","Taurean-Prince-35218","Gary-Harris-18617","49700","261.42"
"Mike-Conley-1062","Avery-Bradley-941","Will-Barton-13982","Tobias-Harris-13332","Marc-Gasol-1493","Patrick-Beverley-14108","Taurean-Prince-35218","Gary-Harris-18617","49800","261.39"
"Shai-Gilgeous-Alexander-408990","Patrick-Beverley-14108","Tobias-Harris-13332","Jaren-Jackson-409099","Marc-Gasol-1493","Mike-Conley-1062","Taurean-Prince-35218","Gary-Harris-18617","48700","261.35"
"Shai-Gilgeous-Alexander-408990","Patrick-Beverley-14108","Tobias-Harris-13332","Jaren-Jackson-409099","Nikola-Jokic-31812","Gary-Harris-18617","Justin-Holiday-14559","Trae-Young-409063","49800","261.31"
"Mike-Conley-1062","Will-Barton-13982","Justin-Holiday-14559","Jaren-Jackson-409099","Marc-Gasol-1493","Patrick-Beverley-14108","Taurean-Prince-35218","Lou-Williams-1044","49900","261.3"
"Shai-Gilgeous-Alexander-408990","Patrick-Beverley-14108","Kyle-Anderson-18615","Jaren-Jackson-409099","Nikola-Jokic-31812","Lou-Williams-1044","Taurean-Prince-35218","Marc-Gasol-1493","49900","261.28"
"Shai-Gilgeous-Alexander-408990","Patrick-Beverley-14108","Torrey-Craig-37861","Jaren-Jackson-409099","Marc-Gasol-1493","Lou-Williams-1044","Taurean-Prince-35218","Nikola-Jokic-31812","49900","261.28"
"Shai-Gilgeous-Alexander-408990","Patrick-Beverley-14108","Tobias-Harris-13332","John-Collins-37823","Jaren-Jackson-409099","Mike-Conley-1062","Taurean-Prince-35218","Trae-Young-409063","50000","261.27"
"Shai-Gilgeous-Alexander-408990","Patrick-Beverley-14108","Justin-Holiday-14559","Jaren-Jackson-409099","Nikola-Jokic-31812","Lou-Williams-1044","Dewayne-Dedmon-16894","Marc-Gasol-1493","50000","261.24"
"Patrick-Beverley-14108","Justin-Holiday-14559","Will-Barton-13982","Tobias-Harris-13332","Marc-Gasol-1493","Gary-Harris-18617","Taurean-Prince-35218","Montrezl-Harrell-18930","50000","261.18"
"Patrick-Beverley-14108","Avery-Bradley-941","Tobias-Harris-13332","Jaren-Jackson-409099","Marc-Gasol-1493","Lou-Williams-1044","Taurean-Prince-35218","Montrezl-Harrell-18930","49600","261.16"
"Shai-Gilgeous-Alexander-408990","Patrick-Beverley-14108","Tobias-Harris-13332","Montrezl-Harrell-18930","Marc-Gasol-1493","Lou-Williams-1044","Dewayne-Dedmon-16894","Gary-Harris-18617","49900","261.15"
"Mike-Conley-1062","Avery-Bradley-941","Tobias-Harris-13332","Jaren-Jackson-409099","Marc-Gasol-1493","Patrick-Beverley-14108","Will-Barton-13982","Taurean-Prince-35218","49700","261.13"
"Patrick-Beverley-14108","Lou-Williams-1044","Tobias-Harris-13332","Jaren-Jackson-409099","Marc-Gasol-1493","Justin-Holiday-14559","Taurean-Prince-35218","Gary-Harris-18617","49100","261.13"
"Shai-Gilgeous-Alexander-408990","Patrick-Beverley-14108","Tobias-Harris-13332","Dewayne-Dedmon-16894","Marc-Gasol-1493","Mike-Conley-1062","Will-Barton-13982","Gary-Harris-18617","50000","261.12"
"Shai-Gilgeous-Alexander-408990","Patrick-Beverley-14108","Tobias-Harris-13332","Mason-Plumlee-16798","Nikola-Jokic-31812","Mike-Conley-1062","Taurean-Prince-35218","Gary-Harris-18617","49900","261.08"
"Shai-Gilgeous-Alexander-408990","Avery-Bradley-941","Tobias-Harris-13332","Montrezl-Harrell-18930","Nikola-Jokic-31812","Patrick-Beverley-14108","Taurean-Prince-35218","Trae-Young-409063","50000","261.08"
"Shai-Gilgeous-Alexander-408990","Avery-Bradley-941","Tobias-Harris-13332","Jaren-Jackson-409099","Marc-Gasol-1493","Patrick-Beverley-14108","Dewayne-Dedmon-16894","Nikola-Jokic-31812","49800","261.07"
"Shai-Gilgeous-Alexander-408990","Patrick-Beverley-14108","Justin-Holiday-14559","Tobias-Harris-13332","Nikola-Jokic-31812","Gary-Harris-18617","Taurean-Prince-35218","Trae-Young-409063","49500","261.05"
"Shai-Gilgeous-Alexander-408990","Patrick-Beverley-14108","Taurean-Prince-35218","Jaren-Jackson-409099","Nikola-Jokic-31812","Gary-Harris-18617","Dewayne-Dedmon-16894","Tobias-Harris-13332","49500","261.01"
"Shai-Gilgeous-Alexander-408990","Patrick-Beverley-14108","Taurean-Prince-35218","John-Collins-37823","Marc-Gasol-1493","Lou-Williams-1044","Montrezl-Harrell-18930","Gary-Harris-18617","50000","261.01"
"Shai-Gilgeous-Alexander-408990","Avery-Bradley-941","Justin-Holiday-14559","Tobias-Harris-13332","Nikola-Jokic-31812","Gary-Harris-18617","Taurean-Prince-35218","Marc-Gasol-1493","49800","260.98"
"Shai-Gilgeous-Alexander-408990","Patrick-Beverley-14108","Justin-Holiday-14559","Dewayne-Dedmon-16894","Nikola-Jokic-31812","Lou-Williams-1044","Taurean-Prince-35218","Marc-Gasol-1493","49700","260.98"
"Shai-Gilgeous-Alexander-408990","Patrick-Beverley-14108","Tobias-Harris-13332","Dewayne-Dedmon-16894","Marc-Gasol-1493","Jeremy-Lin-916","Taurean-Prince-35218","Nikola-Jokic-31812","50000","260.95"
"Shai-Gilgeous-Alexander-408990","Avery-Bradley-941","Taurean-Prince-35218","John-Collins-37823","Nikola-Jokic-31812","Patrick-Beverley-14108","Jaren-Jackson-409099","Marc-Gasol-1493","49900","260.93"
"Shai-Gilgeous-Alexander-408990","Patrick-Beverley-14108","Tobias-Harris-13332","Montrezl-Harrell-18930","Marc-Gasol-1493","Lou-Williams-1044","Justin-Holiday-14559","Trae-Young-409063","49800","260.93"
"Patrick-Beverley-14108","Will-Barton-13982","Tobias-Harris-13332","Jaren-Jackson-409099","Marc-Gasol-1493","Justin-Holiday-14559","Taurean-Prince-35218","Montrezl-Harrell-18930","49900","260.92"
"Shai-Gilgeous-Alexander-408990","Patrick-Beverley-14108","Will-Barton-13982","Tobias-Harris-13332","John-Collins-37823","Lou-Williams-1044","Taurean-Prince-35218","Gary-Harris-18617","50000","260.92"
"Shai-Gilgeous-Alexander-408990","Patrick-Beverley-14108","Will-Barton-13982","Tobias-Harris-13332","Marc-Gasol-1493","Mike-Conley-1062","Justin-Holiday-14559","Trae-Young-409063","49900","260.9"
"Shai-Gilgeous-Alexander-408990","Lou-Williams-1044","Tobias-Harris-13332","Jaren-Jackson-409099","Marc-Gasol-1493","Mike-Conley-1062","Taurean-Prince-35218","Jeremy-Lin-916","50000","260.89"
"Shai-Gilgeous-Alexander-408990","Patrick-Beverley-14108","Tobias-Harris-13332","Jaren-Jackson-409099","Dewayne-Dedmon-16894","Lou-Williams-1044","Montrezl-Harrell-18930","Marc-Gasol-1493","49800","260.89"
"Mike-Conley-1062","Patrick-Beverley-14108","Taurean-Prince-35218","Jaren-Jackson-409099","Marc-Gasol-1493","Lou-Williams-1044","Dewayne-Dedmon-16894","Gary-Harris-18617","49800","260.88"
"Shai-Gilgeous-Alexander-408990","Patrick-Beverley-14108","Tobias-Harris-13332","Dewayne-Dedmon-16894","Marc-Gasol-1493","Mike-Conley-1062","Will-Barton-13982","Jaren-Jackson-409099","49900","260.86"
"Patrick-Beverley-14108","Justin-Holiday-14559","Taurean-Prince-35218","Jaren-Jackson-409099","Marc-Gasol-1493","Gary-Harris-18617","Dewayne-Dedmon-16894","Nikola-Jokic-31812","50000","260.85"
"Shai-Gilgeous-Alexander-408990","Patrick-Beverley-14108","Taurean-Prince-35218","Mason-Plumlee-16798","Nikola-Jokic-31812","Mike-Conley-1062","Jaren-Jackson-409099","Tobias-Harris-13332","49800","260.82"
"Shai-Gilgeous-Alexander-408990","Avery-Bradley-941","Tobias-Harris-13332","Dewayne-Dedmon-16894","Marc-Gasol-1493","Patrick-Beverley-14108","Taurean-Prince-35218","Nikola-Jokic-31812","49500","260.81"
"Shai-Gilgeous-Alexander-408990","Lou-Williams-1044","Justin-Holiday-14559","Tobias-Harris-13332","Montrezl-Harrell-18930","Gary-Harris-18617","Taurean-Prince-35218","Marc-Gasol-1493","49800","260.8"
"Shai-Gilgeous-Alexander-408990","Patrick-Beverley-14108","Justin-Holiday-14559","Jaren-Jackson-409099","Nikola-Jokic-31812","Mike-Conley-1062","Montrezl-Harrell-18930","Gary-Harris-18617","49900","260.79"
"Shai-Gilgeous-Alexander-408990","Patrick-Beverley-14108","Tobias-Harris-13332","Jaren-Jackson-409099","Nikola-Jokic-31812","Trae-Young-409063","Justin-Holiday-14559","Taurean-Prince-35218","49400","260.79"
"Shai-Gilgeous-Alexander-408990","Justin-Holiday-14559","Will-Barton-13982","Tobias-Harris-13332","Marc-Gasol-1493","Mike-Conley-1062","Taurean-Prince-35218","Gary-Harris-18617","49900","260.77"
"Shai-Gilgeous-Alexander-408990","Patrick-Beverley-14108","Will-Barton-13982","Jaren-Jackson-409099","Nikola-Jokic-31812","Gary-Harris-18617","Justin-Holiday-14559","Marc-Gasol-1493","49800","260.76"
"Shai-Gilgeous-Alexander-408990","Patrick-Beverley-14108","Taurean-Prince-35218","John-Collins-37823","Montrezl-Harrell-18930","Lou-Williams-1044","Jaren-Jackson-409099","Marc-Gasol-1493","49900","260.75"
"Shai-Gilgeous-Alexander-408990","Avery-Bradley-941","Tobias-Harris-13332","Jaren-Jackson-409099","Marc-Gasol-1493","Mike-Conley-1062","Taurean-Prince-35218","Lou-Williams-1044","49500","260.75"
"Shai-Gilgeous-Alexander-408990","Patrick-Beverley-14108","Will-Barton-13982","Jaren-Jackson-409099","Nikola-Jokic-31812","Gary-Harris-18617","Taurean-Prince-35218","Montrezl-Harrell-18930","50000","260.73"
"Shai-Gilgeous-Alexander-408990","Patrick-Beverley-14108","Tobias-Harris-13332","John-Collins-37823","Jaren-Jackson-409099","Mike-Conley-1062","Justin-Holiday-14559","Lou-Williams-1044","49800","260.72"
