"Monte-Morris-37860","Joe-Ingles-18627","Will-Barton-13982","Paul-Millsap-1335","Nikola-Jokic-31812","Eric-Gordon-1077","Kenneth-Faried-13313","Gary-Harris-18617","50000","269.56"
"Chris-Paul-1087","Gary-Harris-18617","Eric-Gordon-1077","Derrick-Favors-1266","Kenneth-Faried-13313","Monte-Morris-37860","Paul-Millsap-1335","Nikola-Jokic-31812","50000","267.99"

"Monte-Morris-37860","Joe-Ingles-18627","Will-Barton-13982","Paul-Millsap-1335","Nikola-Jokic-31812","Eric-Gordon-1077","Kenneth-Faried-13313","Gary-Harris-18617","50000","269.56"
"Chris-Paul-1087","Gary-Harris-18617","Eric-Gordon-1077","Derrick-Favors-1266","Kenneth-Faried-13313","Monte-Morris-37860","Paul-Millsap-1335","Nikola-Jokic-31812","50000","267.99"
"Ricky-Rubio-1001","Eric-Gordon-1077","Joe-Ingles-18627","Paul-Millsap-1335","Nikola-Jokic-31812","Monte-Morris-37860","Kenneth-Faried-13313","Gary-Harris-18617","49500","267.68"
"Monte-Morris-37860","Eric-Gordon-1077","Will-Barton-13982","Paul-Millsap-1335","Nikola-Jokic-31812","Gary-Harris-18617","Kenneth-Faried-13313","Derrick-Favors-1266","49800","267.37"
"Monte-Morris-37860","Joe-Ingles-18627","Taurean-Prince-35218","Paul-Millsap-1335","Rudy-Gobert-16935","Gary-Harris-18617","Eric-Gordon-1077","Nikola-Jokic-31812","49900","267.36"
"Monte-Morris-37860","Joe-Ingles-18627","Will-Barton-13982","Paul-Millsap-1335","Nikola-Jokic-31812","Gary-Harris-18617","Kenneth-Faried-13313","Taurean-Prince-35218","49900","267.31"
"Ricky-Rubio-1001","Gary-Harris-18617","Joe-Ingles-18627","Paul-Millsap-1335","Nikola-Jokic-31812","Monte-Morris-37860","Dewayne-Dedmon-16894","Kenneth-Faried-13313","49900","267.21"
"Chris-Paul-1087","Gary-Harris-18617","Taurean-Prince-35218","Paul-Millsap-1335","Kenneth-Faried-13313","Monte-Morris-37860","Eric-Gordon-1077","Nikola-Jokic-31812","49800","266.92"
"Chris-Paul-1087","Eric-Gordon-1077","Joe-Ingles-18627","Paul-Millsap-1335","Nikola-Jokic-31812","Monte-Morris-37860","Kenneth-Faried-13313","Derrick-Favors-1266","50000","266.84"
"Ricky-Rubio-1001","Gary-Harris-18617","Joe-Ingles-18627","Paul-Millsap-1335","Nikola-Jokic-31812","Monte-Morris-37860","Kenneth-Faried-13313","Derrick-Favors-1266","49600","266.5"
"Chris-Paul-1087","Will-Barton-13982","Joe-Ingles-18627","Paul-Millsap-1335","Nikola-Jokic-31812","Monte-Morris-37860","Eric-Gordon-1077","Gary-Harris-18617","49900","266.44"
"Monte-Morris-37860","Eric-Gordon-1077","Will-Barton-13982","Paul-Millsap-1335","Nikola-Jokic-31812","Gary-Harris-18617","Kenneth-Faried-13313","Taurean-Prince-35218","49600","266.3"
"Monte-Morris-37860","Joe-Ingles-18627","Will-Barton-13982","Paul-Millsap-1335","Nikola-Jokic-31812","Eric-Gordon-1077","Kenneth-Faried-13313","Derrick-Favors-1266","49800","266.22"
"Monte-Morris-37860","Eric-Gordon-1077","Kyle-Korver-1269","Paul-Millsap-1335","Rudy-Gobert-16935","Gary-Harris-18617","Will-Barton-13982","Nikola-Jokic-31812","50000","266.22"
"Ricky-Rubio-1001","Gary-Harris-18617","Eric-Gordon-1077","Paul-Millsap-1335","Nikola-Jokic-31812","Monte-Morris-37860","Dewayne-Dedmon-16894","Kenneth-Faried-13313","49600","266.2"
"Monte-Morris-37860","Joe-Ingles-18627","Taurean-Prince-35218","Derrick-Favors-1266","Rudy-Gobert-16935","Gary-Harris-18617","Paul-Millsap-1335","Nikola-Jokic-31812","50000","266.18"
"Monte-Morris-37860","Eric-Gordon-1077","Taurean-Prince-35218","Paul-Millsap-1335","Rudy-Gobert-16935","Gary-Harris-18617","Dewayne-Dedmon-16894","Nikola-Jokic-31812","50000","265.88"
"Monte-Morris-37860","Will-Barton-13982","Taurean-Prince-35218","Dewayne-Dedmon-16894","Nikola-Jokic-31812","Gary-Harris-18617","Kenneth-Faried-13313","Paul-Millsap-1335","50000","265.83"
"Chris-Paul-1087","Eric-Gordon-1077","Joe-Ingles-18627","Paul-Millsap-1335","Nikola-Jokic-31812","Monte-Morris-37860","Kenneth-Faried-13313","Taurean-Prince-35218","49800","265.77"
"Chris-Paul-1087","Gary-Harris-18617","Taurean-Prince-35218","Derrick-Favors-1266","Kenneth-Faried-13313","Monte-Morris-37860","Paul-Millsap-1335","Nikola-Jokic-31812","49900","265.74"
"Monte-Morris-37860","Kyle-Korver-1269","Taurean-Prince-35218","Paul-Millsap-1335","Nikola-Jokic-31812","Eric-Gordon-1077","Kenneth-Faried-13313","Rudy-Gobert-16935","49900","265.55"
"Ricky-Rubio-1001","Gary-Harris-18617","Eric-Gordon-1077","Derrick-Favors-1266","Kenneth-Faried-13313","Monte-Morris-37860","Paul-Millsap-1335","Nikola-Jokic-31812","49300","265.49"
"Ricky-Rubio-1001","Gary-Harris-18617","Joe-Ingles-18627","Paul-Millsap-1335","Nikola-Jokic-31812","Monte-Morris-37860","Eric-Gordon-1077","John-Collins-37823","50000","265.44"
"Ricky-Rubio-1001","Gary-Harris-18617","Joe-Ingles-18627","Paul-Millsap-1335","Nikola-Jokic-31812","Monte-Morris-37860","Kenneth-Faried-13313","Taurean-Prince-35218","49400","265.43"
"Chris-Paul-1087","Eric-Gordon-1077","Joe-Ingles-18627","Paul-Millsap-1335","Nikola-Jokic-31812","Gary-Harris-18617","Kenneth-Faried-13313","Taurean-Prince-35218","50000","265.42"
"Malik-Beasley-35213","Eric-Gordon-1077","Will-Barton-13982","Paul-Millsap-1335","Nikola-Jokic-31812","Ricky-Rubio-1001","Kenneth-Faried-13313","Monte-Morris-37860","49900","265.38"
"Ricky-Rubio-1001","Gary-Harris-18617","Kyle-Korver-1269","Paul-Millsap-1335","Rudy-Gobert-16935","Monte-Morris-37860","Joe-Ingles-18627","Nikola-Jokic-31812","49800","265.35"
"Chris-Paul-1087","Gary-Harris-18617","Joe-Ingles-18627","Paul-Millsap-1335","Nikola-Jokic-31812","Monte-Morris-37860","Will-Barton-13982","Derrick-Favors-1266","50000","265.26"
"Chris-Paul-1087","Gary-Harris-18617","Jae-Crowder-13942","Paul-Millsap-1335","Nikola-Jokic-31812","Monte-Morris-37860","Joe-Ingles-18627","Kenneth-Faried-13313","49900","265.26"
"Malik-Beasley-35213","Gary-Harris-18617","Joe-Ingles-18627","Paul-Millsap-1335","Nikola-Jokic-31812","Chris-Paul-1087","Kenneth-Faried-13313","Monte-Morris-37860","49600","265.2"
"Monte-Morris-37860","Eric-Gordon-1077","Taurean-Prince-35218","Derrick-Favors-1266","Rudy-Gobert-16935","Gary-Harris-18617","Paul-Millsap-1335","Nikola-Jokic-31812","49700","265.17"
"Monte-Morris-37860","Joe-Ingles-18627","Will-Barton-13982","Paul-Millsap-1335","Nikola-Jokic-31812","Eric-Gordon-1077","Kenneth-Faried-13313","Taurean-Prince-35218","49600","265.15"
"Monte-Morris-37860","Will-Barton-13982","Taurean-Prince-35218","Derrick-Favors-1266","Kenneth-Faried-13313","Gary-Harris-18617","Paul-Millsap-1335","Nikola-Jokic-31812","49700","265.12"
"Monte-Morris-37860","Joe-Ingles-18627","Kyle-Korver-1269","Paul-Millsap-1335","Rudy-Gobert-16935","Eric-Gordon-1077","Will-Barton-13982","Nikola-Jokic-31812","50000","265.07"
"Malik-Beasley-35213","Gary-Harris-18617","Eric-Gordon-1077","Paul-Millsap-1335","John-Collins-37823","Monte-Morris-37860","Kenneth-Faried-13313","Nikola-Jokic-31812","49900","265.07"
"Ricky-Rubio-1001","Eric-Gordon-1077","Joe-Ingles-18627","Paul-Millsap-1335","Nikola-Jokic-31812","Monte-Morris-37860","Dewayne-Dedmon-16894","Kenneth-Faried-13313","49600","265.05"
"Monte-Morris-37860","Kyle-Korver-1269","Jae-Crowder-13942","Paul-Millsap-1335","Rudy-Gobert-16935","Gary-Harris-18617","Kenneth-Faried-13313","Nikola-Jokic-31812","50000","265.04"
"Trae-Young-409063","Gary-Harris-18617","Taurean-Prince-35218","Paul-Millsap-1335","Kenneth-Faried-13313","Monte-Morris-37860","Eric-Gordon-1077","Nikola-Jokic-31812","50000","265.03"
