"Monte-Morris-37860","Eric-Gordon-1077","Will-Barton-13982","Paul-Millsap-1335","Nikola-Jokic-31812","Joe-Ingles-18627","Kenneth-Faried-13313","Gary-Harris-18617","50000","269.56"
"Monte-Morris-37860","Gary-Harris-18617","Eric-Gordon-1077","Paul-Millsap-1335","Kenneth-Faried-13313","Chris-Paul-1087","Derrick-Favors-1266","Nikola-Jokic-31812","50000","267.99"

"Monte-Morris-37860","Eric-Gordon-1077","Will-Barton-13982","Paul-Millsap-1335","Nikola-Jokic-31812","Joe-Ingles-18627","Kenneth-Faried-13313","Gary-Harris-18617","50000","269.56"
"Monte-Morris-37860","Gary-Harris-18617","Eric-Gordon-1077","Paul-Millsap-1335","Kenneth-Faried-13313","Chris-Paul-1087","Derrick-Favors-1266","Nikola-Jokic-31812","50000","267.99"
"Monte-Morris-37860","Gary-Harris-18617","Eric-Gordon-1077","Kenneth-Faried-13313","Nikola-Jokic-31812","Ricky-Rubio-1001","Joe-Ingles-18627","Paul-Millsap-1335","49500","267.68"
"Monte-Morris-37860","Eric-Gordon-1077","Will-Barton-13982","Paul-Millsap-1335","Nikola-Jokic-31812","Gary-Harris-18617","Kenneth-Faried-13313","Derrick-Favors-1266","49800","267.37"
"Monte-Morris-37860","Joe-Ingles-18627","Taurean-Prince-35218","Paul-Millsap-1335","Rudy-Gobert-16935","Gary-Harris-18617","Eric-Gordon-1077","Nikola-Jokic-31812","49900","267.36"
"Monte-Morris-37860","Joe-Ingles-18627","Will-Barton-13982","Paul-Millsap-1335","Nikola-Jokic-31812","Gary-Harris-18617","Kenneth-Faried-13313","Taurean-Prince-35218","49900","267.31"
"Monte-Morris-37860","Gary-Harris-18617","Joe-Ingles-18627","Paul-Millsap-1335","Dewayne-Dedmon-16894","Ricky-Rubio-1001","Kenneth-Faried-13313","Nikola-Jokic-31812","49900","267.21"
"Monte-Morris-37860","Gary-Harris-18617","Eric-Gordon-1077","Paul-Millsap-1335","Nikola-Jokic-31812","Chris-Paul-1087","Kenneth-Faried-13313","Taurean-Prince-35218","49800","266.92"
"Monte-Morris-37860","Joe-Ingles-18627","Eric-Gordon-1077","Paul-Millsap-1335","Kenneth-Faried-13313","Chris-Paul-1087","Derrick-Favors-1266","Nikola-Jokic-31812","50000","266.84"
"Monte-Morris-37860","Gary-Harris-18617","Joe-Ingles-18627","Paul-Millsap-1335","Nikola-Jokic-31812","Ricky-Rubio-1001","Derrick-Favors-1266","Kenneth-Faried-13313","49600","266.5"
"Monte-Morris-37860","Eric-Gordon-1077","Will-Barton-13982","Paul-Millsap-1335","Nikola-Jokic-31812","Chris-Paul-1087","Joe-Ingles-18627","Gary-Harris-18617","49900","266.44"
"Monte-Morris-37860","Eric-Gordon-1077","Will-Barton-13982","Paul-Millsap-1335","Nikola-Jokic-31812","Gary-Harris-18617","Kenneth-Faried-13313","Taurean-Prince-35218","49600","266.3"
"Monte-Morris-37860","Eric-Gordon-1077","Will-Barton-13982","Paul-Millsap-1335","Nikola-Jokic-31812","Joe-Ingles-18627","Kenneth-Faried-13313","Derrick-Favors-1266","49800","266.22"
"Monte-Morris-37860","Will-Barton-13982","Kyle-Korver-1269","Paul-Millsap-1335","Rudy-Gobert-16935","Gary-Harris-18617","Eric-Gordon-1077","Nikola-Jokic-31812","50000","266.22"
"Monte-Morris-37860","Gary-Harris-18617","Eric-Gordon-1077","Paul-Millsap-1335","Nikola-Jokic-31812","Ricky-Rubio-1001","Kenneth-Faried-13313","Dewayne-Dedmon-16894","49600","266.2"
"Monte-Morris-37860","Joe-Ingles-18627","Taurean-Prince-35218","Paul-Millsap-1335","Nikola-Jokic-31812","Gary-Harris-18617","Derrick-Favors-1266","Rudy-Gobert-16935","50000","266.18"
"Monte-Morris-37860","Eric-Gordon-1077","Taurean-Prince-35218","Paul-Millsap-1335","Nikola-Jokic-31812","Gary-Harris-18617","Dewayne-Dedmon-16894","Rudy-Gobert-16935","50000","265.88"
"Monte-Morris-37860","Will-Barton-13982","Taurean-Prince-35218","Paul-Millsap-1335","Dewayne-Dedmon-16894","Gary-Harris-18617","Kenneth-Faried-13313","Nikola-Jokic-31812","50000","265.83"
"Monte-Morris-37860","Eric-Gordon-1077","Taurean-Prince-35218","Kenneth-Faried-13313","Nikola-Jokic-31812","Chris-Paul-1087","Joe-Ingles-18627","Paul-Millsap-1335","49800","265.77"
"Monte-Morris-37860","Gary-Harris-18617","Taurean-Prince-35218","Paul-Millsap-1335","Nikola-Jokic-31812","Chris-Paul-1087","Derrick-Favors-1266","Kenneth-Faried-13313","49900","265.74"
"Monte-Morris-37860","Kyle-Korver-1269","Taurean-Prince-35218","Paul-Millsap-1335","Nikola-Jokic-31812","Eric-Gordon-1077","Kenneth-Faried-13313","Rudy-Gobert-16935","49900","265.55"
"Monte-Morris-37860","Gary-Harris-18617","Eric-Gordon-1077","Paul-Millsap-1335","Kenneth-Faried-13313","Ricky-Rubio-1001","Derrick-Favors-1266","Nikola-Jokic-31812","49300","265.49"
"Monte-Morris-37860","Joe-Ingles-18627","Eric-Gordon-1077","Paul-Millsap-1335","Nikola-Jokic-31812","Gary-Harris-18617","John-Collins-37823","Ricky-Rubio-1001","50000","265.44"
"Monte-Morris-37860","Gary-Harris-18617","Taurean-Prince-35218","Kenneth-Faried-13313","Nikola-Jokic-31812","Ricky-Rubio-1001","Joe-Ingles-18627","Paul-Millsap-1335","49400","265.43"
"Chris-Paul-1087","Eric-Gordon-1077","Taurean-Prince-35218","Kenneth-Faried-13313","Nikola-Jokic-31812","Gary-Harris-18617","Joe-Ingles-18627","Paul-Millsap-1335","50000","265.42"
"Monte-Morris-37860","Eric-Gordon-1077","Will-Barton-13982","Paul-Millsap-1335","Nikola-Jokic-31812","Ricky-Rubio-1001","Kenneth-Faried-13313","Malik-Beasley-35213","49900","265.38"
"Monte-Morris-37860","Gary-Harris-18617","Kyle-Korver-1269","Paul-Millsap-1335","Nikola-Jokic-31812","Ricky-Rubio-1001","Joe-Ingles-18627","Rudy-Gobert-16935","49800","265.35"
"Monte-Morris-37860","Gary-Harris-18617","Joe-Ingles-18627","Kenneth-Faried-13313","Nikola-Jokic-31812","Chris-Paul-1087","Jae-Crowder-13942","Paul-Millsap-1335","49900","265.26"
"Monte-Morris-37860","Will-Barton-13982","Joe-Ingles-18627","Paul-Millsap-1335","Nikola-Jokic-31812","Chris-Paul-1087","Derrick-Favors-1266","Gary-Harris-18617","50000","265.26"
"Monte-Morris-37860","Gary-Harris-18617","Joe-Ingles-18627","Paul-Millsap-1335","Nikola-Jokic-31812","Chris-Paul-1087","Kenneth-Faried-13313","Malik-Beasley-35213","49600","265.2"
"Monte-Morris-37860","Eric-Gordon-1077","Taurean-Prince-35218","Paul-Millsap-1335","Nikola-Jokic-31812","Gary-Harris-18617","Derrick-Favors-1266","Rudy-Gobert-16935","49700","265.17"
"Monte-Morris-37860","Eric-Gordon-1077","Will-Barton-13982","Paul-Millsap-1335","Nikola-Jokic-31812","Joe-Ingles-18627","Kenneth-Faried-13313","Taurean-Prince-35218","49600","265.15"
"Monte-Morris-37860","Will-Barton-13982","Taurean-Prince-35218","Paul-Millsap-1335","Nikola-Jokic-31812","Gary-Harris-18617","Derrick-Favors-1266","Kenneth-Faried-13313","49700","265.12"
"Monte-Morris-37860","Will-Barton-13982","Kyle-Korver-1269","Paul-Millsap-1335","Nikola-Jokic-31812","Eric-Gordon-1077","Joe-Ingles-18627","Rudy-Gobert-16935","50000","265.07"
"Monte-Morris-37860","Gary-Harris-18617","Eric-Gordon-1077","Paul-Millsap-1335","Nikola-Jokic-31812","Malik-Beasley-35213","Kenneth-Faried-13313","John-Collins-37823","49900","265.07"
"Monte-Morris-37860","Eric-Gordon-1077","Joe-Ingles-18627","Paul-Millsap-1335","Dewayne-Dedmon-16894","Ricky-Rubio-1001","Kenneth-Faried-13313","Nikola-Jokic-31812","49600","265.05"
"Monte-Morris-37860","Kyle-Korver-1269","Jae-Crowder-13942","Paul-Millsap-1335","Rudy-Gobert-16935","Gary-Harris-18617","Kenneth-Faried-13313","Nikola-Jokic-31812","50000","265.04"
"Monte-Morris-37860","Gary-Harris-18617","Eric-Gordon-1077","Paul-Millsap-1335","Nikola-Jokic-31812","Trae-Young-409063","Kenneth-Faried-13313","Taurean-Prince-35218","50000","265.03"
