"James-Harden-1037","Joe-Ingles-18627","Royce-O'Neale-37872","Domantas-Sabonis-35217","Ersan-Ilyasova-1301","Malcolm-Brogdon-35195","Khris-Middleton-13990","Austin-Rivers-13903","50000","295.1"
"James-Harden-1037","Malcolm-Brogdon-35195","Joe-Ingles-18627","Lauri-Markkanen-37809","Domantas-Sabonis-35217","Austin-Rivers-13903","Jae-Crowder-13942","Royce-O'Neale-37872","50000","293.81"
"James-Harden-1037","Malcolm-Brogdon-35195","Royce-O'Neale-37872","Domantas-Sabonis-35217","Noah-Vonleh-18597","Eric-Bledsoe-1031","Joe-Ingles-18627","Ersan-Ilyasova-1301","50000","293.75"

"James-Harden-1037","Joe-Ingles-18627","Royce-O'Neale-37872","Domantas-Sabonis-35217","Ersan-Ilyasova-1301","Malcolm-Brogdon-35195","Khris-Middleton-13990","Austin-Rivers-13903","50000","295.1"
"James-Harden-1037","Malcolm-Brogdon-35195","Joe-Ingles-18627","Lauri-Markkanen-37809","Domantas-Sabonis-35217","Austin-Rivers-13903","Jae-Crowder-13942","Royce-O'Neale-37872","50000","293.81"
"James-Harden-1037","Malcolm-Brogdon-35195","Royce-O'Neale-37872","Domantas-Sabonis-35217","Noah-Vonleh-18597","Eric-Bledsoe-1031","Joe-Ingles-18627","Ersan-Ilyasova-1301","50000","293.75"
"James-Harden-1037","Joe-Ingles-18627","Royce-O'Neale-37872","Domantas-Sabonis-35217","Ersan-Ilyasova-1301","Eric-Bledsoe-1031","Otto-Porter-17069","Malcolm-Brogdon-35195","50000","293.58"
"James-Harden-1037","Malcolm-Brogdon-35195","Royce-O'Neale-37872","Domantas-Sabonis-35217","Tristan-Thompson-13308","Eric-Bledsoe-1031","Joe-Ingles-18627","Ersan-Ilyasova-1301","50000","293.36"
"James-Harden-1037","Malcolm-Brogdon-35195","Royce-O'Neale-37872","Jae-Crowder-13942","Noah-Vonleh-18597","Austin-Rivers-13903","Joe-Ingles-18627","Clint-Capela-18610","50000","293.27"
"James-Harden-1037","Malcolm-Brogdon-35195","Royce-O'Neale-37872","Jae-Crowder-13942","Noah-Vonleh-18597","Austin-Rivers-13903","Joe-Ingles-18627","Domantas-Sabonis-35217","49900","293.24"
"James-Harden-1037","Malcolm-Brogdon-35195","Royce-O'Neale-37872","Otto-Porter-17069","Clint-Capela-18610","Austin-Rivers-13903","Joe-Ingles-18627","Jae-Crowder-13942","50000","293.1"
"James-Harden-1037","Malcolm-Brogdon-35195","Joe-Ingles-18627","Jae-Crowder-13942","Domantas-Sabonis-35217","Austin-Rivers-13903","Otto-Porter-17069","Royce-O'Neale-37872","49900","293.07"
"James-Harden-1037","Malcolm-Brogdon-35195","Royce-O'Neale-37872","Jae-Crowder-13942","Clint-Capela-18610","Austin-Rivers-13903","Joe-Ingles-18627","Tristan-Thompson-13308","50000","292.88"
"James-Harden-1037","Malcolm-Brogdon-35195","Royce-O'Neale-37872","Domantas-Sabonis-35217","Tristan-Thompson-13308","Austin-Rivers-13903","Joe-Ingles-18627","Jae-Crowder-13942","49900","292.85"
"Malcolm-Brogdon-35195","Joe-Ingles-18627","Royce-O'Neale-37872","Domantas-Sabonis-35217","Rudy-Gobert-16935","Donovan-Mitchell-37875","Khris-Middleton-13990","Austin-Rivers-13903","50000","292.71"
"James-Harden-1037","Joe-Ingles-18627","Royce-O'Neale-37872","Lauri-Markkanen-37809","Clint-Capela-18610","Malcolm-Brogdon-35195","Noah-Vonleh-18597","Ersan-Ilyasova-1301","49900","292.69"
"James-Harden-1037","Joe-Ingles-18627","Royce-O'Neale-37872","Domantas-Sabonis-35217","Ersan-Ilyasova-1301","Malcolm-Brogdon-35195","Noah-Vonleh-18597","Lauri-Markkanen-37809","49800","292.66"
"James-Harden-1037","Malcolm-Brogdon-35195","Joe-Ingles-18627","Jae-Crowder-13942","Ersan-Ilyasova-1301","Austin-Rivers-13903","Noah-Vonleh-18597","Domantas-Sabonis-35217","50000","292.57"
"James-Harden-1037","Joe-Ingles-18627","Otto-Porter-17069","Lauri-Markkanen-37809","Clint-Capela-18610","Malcolm-Brogdon-35195","Ersan-Ilyasova-1301","Royce-O'Neale-37872","49900","292.52"
"James-Harden-1037","Joe-Ingles-18627","Royce-O'Neale-37872","Lauri-Markkanen-37809","Domantas-Sabonis-35217","Malcolm-Brogdon-35195","Otto-Porter-17069","Ersan-Ilyasova-1301","49800","292.49"
"James-Harden-1037","Malcolm-Brogdon-35195","Joe-Ingles-18627","Domantas-Sabonis-35217","Ersan-Ilyasova-1301","Austin-Rivers-13903","Otto-Porter-17069","Jae-Crowder-13942","50000","292.4"
"James-Harden-1037","Joe-Ingles-18627","Royce-O'Neale-37872","Lauri-Markkanen-37809","Clint-Capela-18610","Malcolm-Brogdon-35195","Ersan-Ilyasova-1301","Tristan-Thompson-13308","49900","292.3"
"Malcolm-Brogdon-35195","Joe-Ingles-18627","Royce-O'Neale-37872","Domantas-Sabonis-35217","Rudy-Gobert-16935","Austin-Rivers-13903","Khris-Middleton-13990","Clint-Capela-18610","49700","292.3"
"James-Harden-1037","Joe-Ingles-18627","Royce-O'Neale-37872","Domantas-Sabonis-35217","Tristan-Thompson-13308","Malcolm-Brogdon-35195","Lauri-Markkanen-37809","Ersan-Ilyasova-1301","49800","292.27"
"James-Harden-1037","Joe-Ingles-18627","Kyle-Korver-1269","Ersan-Ilyasova-1301","Rudy-Gobert-16935","Donovan-Mitchell-37875","Royce-O'Neale-37872","Malcolm-Brogdon-35195","50000","292.25"
"James-Harden-1037","Joe-Ingles-18627","Cedi-Osman-18912","Ersan-Ilyasova-1301","Clint-Capela-18610","Malcolm-Brogdon-35195","Royce-O'Neale-37872","Domantas-Sabonis-35217","50000","292.19"
"James-Harden-1037","Malcolm-Brogdon-35195","Joe-Ingles-18627","Jae-Crowder-13942","Tristan-Thompson-13308","Austin-Rivers-13903","Ersan-Ilyasova-1301","Domantas-Sabonis-35217","50000","292.18"
"Malcolm-Brogdon-35195","Joe-Ingles-18627","Royce-O'Neale-37872","Domantas-Sabonis-35217","Clint-Capela-18610","Donovan-Mitchell-37875","Khris-Middleton-13990","Austin-Rivers-13903","49600","292.1"
"Malcolm-Brogdon-35195","Donovan-Mitchell-37875","Royce-O'Neale-37872","Serge-Ibaka-1294","Clint-Capela-18610","Eric-Bledsoe-1031","Joe-Ingles-18627","Domantas-Sabonis-35217","50000","292.09"
"James-Harden-1037","Joe-Ingles-18627","Royce-O'Neale-37872","Kyle-O'Quinn-13934","Clint-Capela-18610","Malcolm-Brogdon-35195","Ersan-Ilyasova-1301","Rudy-Gobert-16935","49900","292.01"
"James-Harden-1037","Joe-Ingles-18627","Royce-O'Neale-37872","Domantas-Sabonis-35217","Ersan-Ilyasova-1301","Malcolm-Brogdon-35195","Kyle-O'Quinn-13934","Rudy-Gobert-16935","49800","291.98"
"James-Harden-1037","Joe-Ingles-18627","Royce-O'Neale-37872","Jae-Crowder-13942","Clint-Capela-18610","Austin-Rivers-13903","Ersan-Ilyasova-1301","Rudy-Gobert-16935","49900","291.97"
"James-Harden-1037","Joe-Ingles-18627","Royce-O'Neale-37872","Noah-Vonleh-18597","Ersan-Ilyasova-1301","Malcolm-Brogdon-35195","Otto-Porter-17069","Clint-Capela-18610","49800","291.95"
"James-Harden-1037","Joe-Ingles-18627","Jae-Crowder-13942","Domantas-Sabonis-35217","Rudy-Gobert-16935","Austin-Rivers-13903","Ersan-Ilyasova-1301","Royce-O'Neale-37872","49800","291.94"
"James-Harden-1037","Joe-Ingles-18627","Royce-O'Neale-37872","Domantas-Sabonis-35217","Ersan-Ilyasova-1301","Malcolm-Brogdon-35195","Otto-Porter-17069","Noah-Vonleh-18597","49700","291.92"
"James-Harden-1037","Malcolm-Brogdon-35195","Royce-O'Neale-37872","Lauri-Markkanen-37809","Domantas-Sabonis-35217","Austin-Rivers-13903","Joe-Ingles-18627","DeAndre-Bembry-35198","50000","291.88"
"James-Harden-1037","Joe-Ingles-18627","Rodions-Kurucs-408801","Ersan-Ilyasova-1301","Clint-Capela-18610","Malcolm-Brogdon-35195","Royce-O'Neale-37872","Domantas-Sabonis-35217","49800","291.88"
"James-Harden-1037","Joe-Ingles-18627","Kyle-Korver-1269","Ersan-Ilyasova-1301","Rudy-Gobert-16935","Malcolm-Brogdon-35195","Royce-O'Neale-37872","Clint-Capela-18610","49700","291.84"
"James-Harden-1037","Joe-Ingles-18627","Royce-O'Neale-37872","Kyle-O'Quinn-13934","Clint-Capela-18610","Donovan-Mitchell-37875","Ersan-Ilyasova-1301","Malcolm-Brogdon-35195","49800","291.81"
"James-Harden-1037","Joe-Ingles-18627","Kyle-Korver-1269","Ersan-Ilyasova-1301","Rudy-Gobert-16935","Malcolm-Brogdon-35195","Royce-O'Neale-37872","Domantas-Sabonis-35217","49600","291.81"
"James-Harden-1037","Malcolm-Brogdon-35195","Royce-O'Neale-37872","Domantas-Sabonis-35217","Kyle-O'Quinn-13934","Donovan-Mitchell-37875","Joe-Ingles-18627","Ersan-Ilyasova-1301","49700","291.78"
"James-Harden-1037","Joe-Ingles-18627","Royce-O'Neale-37872","Jae-Crowder-13942","Clint-Capela-18610","Donovan-Mitchell-37875","Ersan-Ilyasova-1301","Austin-Rivers-13903","49800","291.77"
"James-Harden-1037","Joe-Ingles-18627","Royce-O'Neale-37872","Domantas-Sabonis-35217","Ersan-Ilyasova-1301","Donovan-Mitchell-37875","Jae-Crowder-13942","Austin-Rivers-13903","49700","291.74"
"Eric-Bledsoe-1031","Joe-Ingles-18627","Royce-O'Neale-37872","Domantas-Sabonis-35217","Clint-Capela-18610","Donovan-Mitchell-37875","Khris-Middleton-13990","Austin-Rivers-13903","50000","291.74"
"James-Harden-1037","Joe-Ingles-18627","Royce-O'Neale-37872","Noah-Vonleh-18597","Clint-Capela-18610","Malcolm-Brogdon-35195","Ersan-Ilyasova-1301","Tristan-Thompson-13308","49800","291.73"
"James-Harden-1037","Joe-Ingles-18627","Royce-O'Neale-37872","Domantas-Sabonis-35217","Tristan-Thompson-13308","Malcolm-Brogdon-35195","Noah-Vonleh-18597","Ersan-Ilyasova-1301","49700","291.7"
"James-Harden-1037","Kyle-Korver-1269","Royce-O'Neale-37872","Lauri-Markkanen-37809","Clint-Capela-18610","Joe-Ingles-18627","Noah-Vonleh-18597","Malcolm-Brogdon-35195","50000","291.69"
"James-Harden-1037","Malcolm-Brogdon-35195","Royce-O'Neale-37872","Ersan-Ilyasova-1301","Rudy-Gobert-16935","Eric-Bledsoe-1031","Joe-Ingles-18627","Austin-Rivers-13903","49700","291.69"
"James-Harden-1037","Joe-Ingles-18627","Royce-O'Neale-37872","Ersan-Ilyasova-1301","Rudy-Gobert-16935","Malcolm-Brogdon-35195","Khris-Middleton-13990","Jae-Crowder-13942","49900","291.68"
"James-Harden-1037","Joe-Ingles-18627","Kyle-Korver-1269","Lauri-Markkanen-37809","Noah-Vonleh-18597","Malcolm-Brogdon-35195","Royce-O'Neale-37872","Domantas-Sabonis-35217","49900","291.66"
"James-Harden-1037","Malcolm-Brogdon-35195","Kyle-Korver-1269","Ersan-Ilyasova-1301","Clint-Capela-18610","Donovan-Mitchell-37875","Joe-Ingles-18627","Royce-O'Neale-37872","49600","291.64"
"Malcolm-Brogdon-35195","Joe-Ingles-18627","Khris-Middleton-13990","Domantas-Sabonis-35217","Clint-Capela-18610","Austin-Rivers-13903","Ersan-Ilyasova-1301","Rudy-Gobert-16935","49800","291.63"
"James-Harden-1037","Malcolm-Brogdon-35195","Kyle-Korver-1269","Domantas-Sabonis-35217","Ersan-Ilyasova-1301","Donovan-Mitchell-37875","Joe-Ingles-18627","Royce-O'Neale-37872","49500","291.61"
"James-Harden-1037","Malcolm-Brogdon-35195","Royce-O'Neale-37872","Jae-Crowder-13942","Clint-Capela-18610","Austin-Rivers-13903","Ersan-Ilyasova-1301","Rudy-Gobert-16935","49900","291.6"
"James-Harden-1037","Malcolm-Brogdon-35195","Jae-Crowder-13942","Domantas-Sabonis-35217","Rudy-Gobert-16935","Austin-Rivers-13903","Ersan-Ilyasova-1301","Royce-O'Neale-37872","49800","291.57"
"James-Harden-1037","Joe-Ingles-18627","Royce-O'Neale-37872","Otto-Porter-17069","Tristan-Thompson-13308","Malcolm-Brogdon-35195","Ersan-Ilyasova-1301","Clint-Capela-18610","49800","291.56"
"James-Harden-1037","Malcolm-Brogdon-35195","Royce-O'Neale-37872","Lauri-Markkanen-37809","Noah-Vonleh-18597","Eric-Bledsoe-1031","Joe-Ingles-18627","Austin-Rivers-13903","50000","291.54"
"James-Harden-1037","Joe-Ingles-18627","Royce-O'Neale-37872","Domantas-Sabonis-35217","Ersan-Ilyasova-1301","Malcolm-Brogdon-35195","Otto-Porter-17069","Tristan-Thompson-13308","49700","291.53"
"James-Harden-1037","Kyle-Korver-1269","Royce-O'Neale-37872","Otto-Porter-17069","Clint-Capela-18610","Malcolm-Brogdon-35195","Joe-Ingles-18627","Lauri-Markkanen-37809","50000","291.52"
"Malcolm-Brogdon-35195","Joe-Ingles-18627","Royce-O'Neale-37872","Domantas-Sabonis-35217","Clint-Capela-18610","Eric-Bledsoe-1031","Lauri-Markkanen-37809","Rudy-Gobert-16935","49800","291.52"
"James-Harden-1037","Kyle-Korver-1269","Royce-O'Neale-37872","Lauri-Markkanen-37809","Domantas-Sabonis-35217","Joe-Ingles-18627","Otto-Porter-17069","Malcolm-Brogdon-35195","49900","291.49"
"James-Harden-1037","Malcolm-Brogdon-35195","Royce-O'Neale-37872","Jae-Crowder-13942","Ersan-Ilyasova-1301","Donovan-Mitchell-37875","Joe-Ingles-18627","Khris-Middleton-13990","49800","291.48"
"James-Harden-1037","Joe-Ingles-18627","Kyle-Korver-1269","Ersan-Ilyasova-1301","Rudy-Gobert-16935","Eric-Bledsoe-1031","Royce-O'Neale-37872","Domantas-Sabonis-35217","50000","291.45"
"Malcolm-Brogdon-35195","Joe-Ingles-18627","Khris-Middleton-13990","Domantas-Sabonis-35217","Clint-Capela-18610","Donovan-Mitchell-37875","Ersan-Ilyasova-1301","Austin-Rivers-13903","49700","291.43"
"Malcolm-Brogdon-35195","Eric-Bledsoe-1031","Joe-Ingles-18627","Domantas-Sabonis-35217","Rudy-Gobert-16935","Austin-Rivers-13903","Jae-Crowder-13942","Clint-Capela-18610","50000","291.43"
"James-Harden-1037","Malcolm-Brogdon-35195","Royce-O'Neale-37872","Jae-Crowder-13942","Clint-Capela-18610","Donovan-Mitchell-37875","Ersan-Ilyasova-1301","Austin-Rivers-13903","49800","291.4"
"James-Harden-1037","Malcolm-Brogdon-35195","Royce-O'Neale-37872","Domantas-Sabonis-35217","Ersan-Ilyasova-1301","Donovan-Mitchell-37875","Jae-Crowder-13942","Austin-Rivers-13903","49700","291.37"
"Malcolm-Brogdon-35195","Donovan-Mitchell-37875","Royce-O'Neale-37872","Domantas-Sabonis-35217","Clint-Capela-18610","Eric-Bledsoe-1031","Khris-Middleton-13990","Austin-Rivers-13903","50000","291.37"
"James-Harden-1037","Joe-Ingles-18627","Royce-O'Neale-37872","Kyle-O'Quinn-13934","Clint-Capela-18610","Malcolm-Brogdon-35195","Ersan-Ilyasova-1301","Domantas-Sabonis-35217","49400","291.37"
"James-Harden-1037","Malcolm-Brogdon-35195","Royce-O'Neale-37872","Ersan-Ilyasova-1301","Rudy-Gobert-16935","Austin-Rivers-13903","Joe-Ingles-18627","Serge-Ibaka-1294","49800","291.37"
"Malcolm-Brogdon-35195","Joe-Ingles-18627","Royce-O'Neale-37872","Domantas-Sabonis-35217","Rudy-Gobert-16935","Donovan-Mitchell-37875","Noah-Vonleh-18597","Eric-Bledsoe-1031","50000","291.36"
"James-Harden-1037","Malcolm-Brogdon-35195","Joe-Ingles-18627","Noah-Vonleh-18597","Clint-Capela-18610","Austin-Rivers-13903","DeAndre-Bembry-35198","Royce-O'Neale-37872","50000","291.34"
"James-Harden-1037","Joe-Ingles-18627","Royce-O'Neale-37872","Jae-Crowder-13942","Clint-Capela-18610","Austin-Rivers-13903","Ersan-Ilyasova-1301","Domantas-Sabonis-35217","49400","291.33"
"James-Harden-1037","Malcolm-Brogdon-35195","Royce-O'Neale-37872","Noah-Vonleh-18597","Ersan-Ilyasova-1301","Austin-Rivers-13903","Joe-Ingles-18627","Bradley-Beal-13898","50000","291.33"
"Malcolm-Brogdon-35195","Joe-Ingles-18627","Royce-O'Neale-37872","Domantas-Sabonis-35217","Clint-Capela-18610","Donovan-Mitchell-37875","Lauri-Markkanen-37809","Eric-Bledsoe-1031","49700","291.32"
"Malcolm-Brogdon-35195","Joe-Ingles-18627","Royce-O'Neale-37872","Domantas-Sabonis-35217","Clint-Capela-18610","Bradley-Beal-13898","Ersan-Ilyasova-1301","Rudy-Gobert-16935","49800","291.31"
"James-Harden-1037","Malcolm-Brogdon-35195","Joe-Ingles-18627","Domantas-Sabonis-35217","Noah-Vonleh-18597","Austin-Rivers-13903","DeAndre-Bembry-35198","Royce-O'Neale-37872","49900","291.31"
"James-Harden-1037","Kyle-Korver-1269","Royce-O'Neale-37872","Lauri-Markkanen-37809","Clint-Capela-18610","Malcolm-Brogdon-35195","Joe-Ingles-18627","Tristan-Thompson-13308","50000","291.3"
"James-Harden-1037","Donovan-Mitchell-37875","Kyle-Korver-1269","Ersan-Ilyasova-1301","Clint-Capela-18610","Eric-Bledsoe-1031","Joe-Ingles-18627","Royce-O'Neale-37872","50000","291.28"
"James-Harden-1037","Joe-Ingles-18627","Kyle-Korver-1269","Domantas-Sabonis-35217","Tristan-Thompson-13308","Malcolm-Brogdon-35195","Lauri-Markkanen-37809","Royce-O'Neale-37872","49900","291.27"
"James-Harden-1037","Donovan-Mitchell-37875","Kyle-Korver-1269","Domantas-Sabonis-35217","Ersan-Ilyasova-1301","Eric-Bledsoe-1031","Joe-Ingles-18627","Royce-O'Neale-37872","49900","291.25"
"Malcolm-Brogdon-35195","Donovan-Mitchell-37875","Joe-Ingles-18627","Domantas-Sabonis-35217","Clint-Capela-18610","Eric-Bledsoe-1031","Jae-Crowder-13942","Austin-Rivers-13903","49900","291.23"
"James-Harden-1037","Kyle-Korver-1269","Royce-O'Neale-37872","Domantas-Sabonis-35217","Clint-Capela-18610","Joe-Ingles-18627","Ersan-Ilyasova-1301","Malcolm-Brogdon-35195","49200","291.2"
"Malcolm-Brogdon-35195","Donovan-Mitchell-37875","Joe-Ingles-18627","Domantas-Sabonis-35217","Rudy-Gobert-16935","Eric-Bledsoe-1031","Otto-Porter-17069","Royce-O'Neale-37872","50000","291.19"
"James-Harden-1037","Malcolm-Brogdon-35195","Royce-O'Neale-37872","Serge-Ibaka-1294","Ersan-Ilyasova-1301","Donovan-Mitchell-37875","Joe-Ingles-18627","Austin-Rivers-13903","49700","291.17"
"James-Harden-1037","Malcolm-Brogdon-35195","Royce-O'Neale-37872","Otto-Porter-17069","Clint-Capela-18610","Austin-Rivers-13903","Joe-Ingles-18627","DeAndre-Bembry-35198","50000","291.17"
"James-Harden-1037","Malcolm-Brogdon-35195","Royce-O'Neale-37872","Otto-Porter-17069","Ersan-Ilyasova-1301","Austin-Rivers-13903","Joe-Ingles-18627","Bradley-Beal-13898","50000","291.16"
"James-Harden-1037","Joe-Ingles-18627","Royce-O'Neale-37872","Bobby-Portis-18909","Rudy-Gobert-16935","Austin-Rivers-13903","Ersan-Ilyasova-1301","Domantas-Sabonis-35217","50000","291.16"
"James-Harden-1037","Malcolm-Brogdon-35195","Royce-O'Neale-37872","Lauri-Markkanen-37809","Tristan-Thompson-13308","Eric-Bledsoe-1031","Joe-Ingles-18627","Austin-Rivers-13903","50000","291.15"
"James-Harden-1037","C.J.-McCollum-17121","Royce-O'Neale-37872","Ersan-Ilyasova-1301","Rudy-Gobert-16935","Malcolm-Brogdon-35195","Joe-Ingles-18627","Austin-Rivers-13903","49900","291.14"
"James-Harden-1037","Joe-Ingles-18627","Royce-O'Neale-37872","Otto-Porter-17069","Domantas-Sabonis-35217","Malcolm-Brogdon-35195","DeAndre-Bembry-35198","Austin-Rivers-13903","49900","291.14"
"Malcolm-Brogdon-35195","Joe-Ingles-18627","Royce-O'Neale-37872","Domantas-Sabonis-35217","Clint-Capela-18610","Donovan-Mitchell-37875","Ersan-Ilyasova-1301","Bradley-Beal-13898","49700","291.11"
"James-Harden-1037","Joe-Ingles-18627","Royce-O'Neale-37872","Noah-Vonleh-18597","Kyle-O'Quinn-13934","Malcolm-Brogdon-35195","Otto-Porter-17069","Domantas-Sabonis-35217","50000","291.09"
"James-Harden-1037","Malcolm-Brogdon-35195","Royce-O'Neale-37872","Ersan-Ilyasova-1301","Clint-Capela-18610","Eric-Bledsoe-1031","Joe-Ingles-18627","Austin-Rivers-13903","49300","291.08"
"James-Harden-1037","Malcolm-Brogdon-35195","Kyle-Korver-1269","Ersan-Ilyasova-1301","Rudy-Gobert-16935","Eric-Bledsoe-1031","Royce-O'Neale-37872","Domantas-Sabonis-35217","50000","291.08"
"James-Harden-1037","Joe-Ingles-18627","Royce-O'Neale-37872","Jae-Crowder-13942","Clint-Capela-18610","Malcolm-Brogdon-35195","Ersan-Ilyasova-1301","Khris-Middleton-13990","49500","291.07"
"James-Harden-1037","Malcolm-Brogdon-35195","Royce-O'Neale-37872","Domantas-Sabonis-35217","Ersan-Ilyasova-1301","Eric-Bledsoe-1031","Joe-Ingles-18627","Austin-Rivers-13903","49200","291.05"
"James-Harden-1037","Joe-Ingles-18627","Royce-O'Neale-37872","Domantas-Sabonis-35217","Noah-Vonleh-18597","Austin-Rivers-13903","Otto-Porter-17069","Jae-Crowder-13942","50000","291.05"
"James-Harden-1037","Joe-Ingles-18627","Royce-O'Neale-37872","Domantas-Sabonis-35217","Ersan-Ilyasova-1301","Malcolm-Brogdon-35195","Khris-Middleton-13990","Jae-Crowder-13942","49400","291.04"
"James-Harden-1037","Kyle-Korver-1269","Royce-O'Neale-37872","Kyle-O'Quinn-13934","Rudy-Gobert-16935","Malcolm-Brogdon-35195","Joe-Ingles-18627","Clint-Capela-18610","50000","291.01"
"James-Harden-1037","Joe-Ingles-18627","Royce-O'Neale-37872","Kyle-O'Quinn-13934","Clint-Capela-18610","Eric-Bledsoe-1031","Ersan-Ilyasova-1301","Domantas-Sabonis-35217","49800","291.01"
"Malcolm-Brogdon-35195","Joe-Ingles-18627","Royce-O'Neale-37872","Domantas-Sabonis-35217","Clint-Capela-18610","Donovan-Mitchell-37875","Lauri-Markkanen-37809","Serge-Ibaka-1294","49800","291.0"
"James-Harden-1037","Joe-Ingles-18627","Kyle-Korver-1269","Domantas-Sabonis-35217","Noah-Vonleh-18597","Malcolm-Brogdon-35195","Lauri-Markkanen-37809","Ersan-Ilyasova-1301","50000","290.99"
