"De'Aaron-Fox-37900","Bogdan-Bogdanovic-37899","Rodions-Kurucs-408801","LaMarcus-Aldridge-1349","Jusuf-Nurkic-18619","Reggie-Jackson-13352","Aaron-Gordon-18601","Clint-Capela-18610","50000","295.29"

"De'Aaron-Fox-37900","Bogdan-Bogdanovic-37899","Rodions-Kurucs-408801","LaMarcus-Aldridge-1349","Jusuf-Nurkic-18619","Reggie-Jackson-13352","Aaron-Gordon-18601","Clint-Capela-18610","50000","295.29"
"Kyle-Anderson-18615","Reggie-Jackson-13352","Rodions-Kurucs-408801","LaMarcus-Aldridge-1349","Jusuf-Nurkic-18619","De'Aaron-Fox-37900","Aaron-Gordon-18601","Clint-Capela-18610","49900","294.15"
"De'Aaron-Fox-37900","Khris-Middleton-13990","Rodions-Kurucs-408801","LaMarcus-Aldridge-1349","Jusuf-Nurkic-18619","Shabazz-Napier-18598","Aaron-Gordon-18601","Clint-Capela-18610","49900","293.95"
"Spencer-Dinwiddie-18588","Bogdan-Bogdanovic-37899","Rodions-Kurucs-408801","LaMarcus-Aldridge-1349","Clint-Capela-18610","De'Aaron-Fox-37900","Al-Horford-1499","Jusuf-Nurkic-18619","50000","293.85"
"De'Aaron-Fox-37900","Khris-Middleton-13990","Rodions-Kurucs-408801","Al-Horford-1499","Jusuf-Nurkic-18619","Bogdan-Bogdanovic-37899","Aaron-Gordon-18601","LaMarcus-Aldridge-1349","49900","293.79"
"Kyle-Anderson-18615","Eric-Bledsoe-1031","Rodions-Kurucs-408801","LaMarcus-Aldridge-1349","Clint-Capela-18610","De'Aaron-Fox-37900","Al-Horford-1499","Jusuf-Nurkic-18619","50000","293.74"
"De'Aaron-Fox-37900","Khris-Middleton-13990","Rodions-Kurucs-408801","LaMarcus-Aldridge-1349","Clint-Capela-18610","Bogdan-Bogdanovic-37899","Aaron-Gordon-18601","DeAndre-Jordan-1486","49900","293.67"
"De'Aaron-Fox-37900","Khris-Middleton-13990","Rodions-Kurucs-408801","LaMarcus-Aldridge-1349","Jusuf-Nurkic-18619","Joe-Ingles-18627","Aaron-Gordon-18601","DeAndre-Jordan-1486","50000","293.23"
"De'Aaron-Fox-37900","Bogdan-Bogdanovic-37899","Rodions-Kurucs-408801","LaMarcus-Aldridge-1349","Jusuf-Nurkic-18619","Dennis-Smith-Jr.-37847","Aaron-Gordon-18601","Clint-Capela-18610","49800","293.11"
"De'Aaron-Fox-37900","Eric-Bledsoe-1031","Rodions-Kurucs-408801","LaMarcus-Aldridge-1349","Jusuf-Nurkic-18619","Bogdan-Bogdanovic-37899","Aaron-Gordon-18601","DeAndre-Jordan-1486","49800","293.08"
"De'Aaron-Fox-37900","Khris-Middleton-13990","Rodions-Kurucs-408801","LaMarcus-Aldridge-1349","Clint-Capela-18610","Bogdan-Bogdanovic-37899","Joe-Ingles-18627","Jusuf-Nurkic-18619","50000","292.96"
"De'Aaron-Fox-37900","Khris-Middleton-13990","Rodions-Kurucs-408801","LaMarcus-Aldridge-1349","Willie-Cauley-Stein-18951","Bogdan-Bogdanovic-37899","Aaron-Gordon-18601","Jusuf-Nurkic-18619","50000","292.95"
"De'Aaron-Fox-37900","Eric-Bledsoe-1031","Rodions-Kurucs-408801","Al-Horford-1499","Clint-Capela-18610","Khris-Middleton-13990","Aaron-Gordon-18601","LaMarcus-Aldridge-1349","50000","292.81"
"De'Aaron-Fox-37900","Khris-Middleton-13990","Rodions-Kurucs-408801","LaMarcus-Aldridge-1349","Jusuf-Nurkic-18619","Reggie-Jackson-13352","Aaron-Gordon-18601","DeAndre-Jordan-1486","49800","292.76"
"De'Aaron-Fox-37900","Bogdan-Bogdanovic-37899","Rodions-Kurucs-408801","LaMarcus-Aldridge-1349","Clint-Capela-18610","Ricky-Rubio-1001","Al-Horford-1499","Jusuf-Nurkic-18619","49800","292.76"
"De'Aaron-Fox-37900","Reggie-Jackson-13352","Rodions-Kurucs-408801","LaMarcus-Aldridge-1349","Jusuf-Nurkic-18619","Joe-Ingles-18627","Aaron-Gordon-18601","Clint-Capela-18610","49600","292.71"
"Kyle-Anderson-18615","Spencer-Dinwiddie-18588","Rodions-Kurucs-408801","LaMarcus-Aldridge-1349","Clint-Capela-18610","De'Aaron-Fox-37900","Al-Horford-1499","Jusuf-Nurkic-18619","49900","292.71"
"Kyle-Anderson-18615","Khris-Middleton-13990","Rodions-Kurucs-408801","Al-Horford-1499","Jusuf-Nurkic-18619","De'Aaron-Fox-37900","Aaron-Gordon-18601","LaMarcus-Aldridge-1349","49800","292.65"
"De'Aaron-Fox-37900","Gary-Harris-18617","Rodions-Kurucs-408801","LaMarcus-Aldridge-1349","Jusuf-Nurkic-18619","Joe-Ingles-18627","Aaron-Gordon-18601","Clint-Capela-18610","49900","292.64"
"Kyle-Anderson-18615","Bogdan-Bogdanovic-37899","Rodions-Kurucs-408801","LaMarcus-Aldridge-1349","Clint-Capela-18610","De'Aaron-Fox-37900","Al-Horford-1499","Jusuf-Nurkic-18619","49400","292.58"
"Kyle-Anderson-18615","Khris-Middleton-13990","Rodions-Kurucs-408801","LaMarcus-Aldridge-1349","Clint-Capela-18610","De'Aaron-Fox-37900","Aaron-Gordon-18601","DeAndre-Jordan-1486","49800","292.53"
"De'Aaron-Fox-37900","Bogdan-Bogdanovic-37899","Khris-Middleton-13990","LaMarcus-Aldridge-1349","Jusuf-Nurkic-18619","Reggie-Jackson-13352","Rodions-Kurucs-408801","Clint-Capela-18610","49800","292.49"
"De'Aaron-Fox-37900","Shabazz-Napier-18598","Bogdan-Bogdanovic-37899","LaMarcus-Aldridge-1349","Clint-Capela-18610","Reggie-Jackson-13352","Aaron-Gordon-18601","Jusuf-Nurkic-18619","49900","292.45"
"De'Aaron-Fox-37900","Khris-Middleton-13990","Rodions-Kurucs-408801","LaMarcus-Aldridge-1349","Clint-Capela-18610","Dennis-Smith-Jr.-37847","Al-Horford-1499","Jusuf-Nurkic-18619","49900","292.38"
"De'Aaron-Fox-37900","Eric-Bledsoe-1031","Rodions-Kurucs-408801","LaMarcus-Aldridge-1349","DeAndre-Jordan-1486","Khris-Middleton-13990","Al-Horford-1499","Jusuf-Nurkic-18619","49900","292.35"
"De'Aaron-Fox-37900","Shabazz-Napier-18598","Aaron-Gordon-18601","LaMarcus-Aldridge-1349","Jusuf-Nurkic-18619","Dennis-Smith-Jr.-37847","Al-Horford-1499","Clint-Capela-18610","50000","292.34"
"De'Aaron-Fox-37900","Eric-Bledsoe-1031","Aaron-Gordon-18601","LaMarcus-Aldridge-1349","DeAndre-Jordan-1486","Shabazz-Napier-18598","Al-Horford-1499","Jusuf-Nurkic-18619","50000","292.31"
"De'Aaron-Fox-37900","Eric-Bledsoe-1031","Rodions-Kurucs-408801","LaMarcus-Aldridge-1349","Clint-Capela-18610","Joe-Ingles-18627","Al-Horford-1499","Jusuf-Nurkic-18619","49700","292.3"
"De'Aaron-Fox-37900","Bogdan-Bogdanovic-37899","Rodions-Kurucs-408801","LaMarcus-Aldridge-1349","Jusuf-Nurkic-18619","D.J.-Augustin-1064","Aaron-Gordon-18601","Clint-Capela-18610","49900","292.26"
"De'Aaron-Fox-37900","Gary-Harris-18617","Rodions-Kurucs-408801","LaMarcus-Aldridge-1349","Jusuf-Nurkic-18619","Reggie-Jackson-13352","Aaron-Gordon-18601","Clint-Capela-18610","49700","292.17"
"Reggie-Jackson-13352","Khris-Middleton-13990","Rodions-Kurucs-408801","LaMarcus-Aldridge-1349","Jusuf-Nurkic-18619","Bogdan-Bogdanovic-37899","Aaron-Gordon-18601","Clint-Capela-18610","49600","292.12"
"De'Aaron-Fox-37900","Bogdan-Bogdanovic-37899","Aaron-Gordon-18601","LaMarcus-Aldridge-1349","DeAndre-Jordan-1486","Dennis-Smith-Jr.-37847","Al-Horford-1499","Clint-Capela-18610","50000","292.06"
"Spencer-Dinwiddie-18588","Bogdan-Bogdanovic-37899","Rodions-Kurucs-408801","LaMarcus-Aldridge-1349","Jusuf-Nurkic-18619","De'Aaron-Fox-37900","Aaron-Gordon-18601","DeAndre-Jordan-1486","49700","292.05"
"De'Aaron-Fox-37900","Eric-Bledsoe-1031","Bogdan-Bogdanovic-37899","LaMarcus-Aldridge-1349","Clint-Capela-18610","Shabazz-Napier-18598","Al-Horford-1499","Jusuf-Nurkic-18619","50000","292.04"
"Kyle-Anderson-18615","Reggie-Jackson-13352","Aaron-Gordon-18601","LaMarcus-Aldridge-1349","Jusuf-Nurkic-18619","Joe-Ingles-18627","Al-Horford-1499","Clint-Capela-18610","50000","292.02"
"Kyle-Anderson-18615","Eric-Bledsoe-1031","Rodions-Kurucs-408801","LaMarcus-Aldridge-1349","Jusuf-Nurkic-18619","De'Aaron-Fox-37900","Aaron-Gordon-18601","DeAndre-Jordan-1486","49700","291.94"
"De'Aaron-Fox-37900","Khris-Middleton-13990","Rodions-Kurucs-408801","Al-Horford-1499","Clint-Capela-18610","Bogdan-Bogdanovic-37899","Aaron-Gordon-18601","Jusuf-Nurkic-18619","50000","291.91"
"De'Aaron-Fox-37900","Bogdan-Bogdanovic-37899","Aaron-Gordon-18601","LaMarcus-Aldridge-1349","Willie-Cauley-Stein-18951","Joe-Ingles-18627","Al-Horford-1499","Clint-Capela-18610","50000","291.85"
"De'Aaron-Fox-37900","Eric-Bledsoe-1031","Rodions-Kurucs-408801","LaMarcus-Aldridge-1349","Clint-Capela-18610","Reggie-Jackson-13352","Al-Horford-1499","Jusuf-Nurkic-18619","49500","291.83"
"De'Aaron-Fox-37900","Khris-Middleton-13990","Kyle-Anderson-18615","LaMarcus-Aldridge-1349","Jusuf-Nurkic-18619","Joe-Ingles-18627","Rodions-Kurucs-408801","Clint-Capela-18610","49900","291.82"
"Shabazz-Napier-18598","Khris-Middleton-13990","Aaron-Gordon-18601","LaMarcus-Aldridge-1349","Jusuf-Nurkic-18619","Joe-Ingles-18627","Al-Horford-1499","Clint-Capela-18610","50000","291.82"
"Kyle-Anderson-18615","Khris-Middleton-13990","Rodions-Kurucs-408801","LaMarcus-Aldridge-1349","Willie-Cauley-Stein-18951","De'Aaron-Fox-37900","Aaron-Gordon-18601","Jusuf-Nurkic-18619","49900","291.81"
"Spencer-Dinwiddie-18588","Khris-Middleton-13990","Rodions-Kurucs-408801","Al-Horford-1499","Clint-Capela-18610","De'Aaron-Fox-37900","Aaron-Gordon-18601","LaMarcus-Aldridge-1349","49900","291.78"
"Kyle-Anderson-18615","Shabazz-Napier-18598","Joe-Ingles-18627","LaMarcus-Aldridge-1349","Jusuf-Nurkic-18619","De'Aaron-Fox-37900","Aaron-Gordon-18601","Clint-Capela-18610","50000","291.78"
"De'Aaron-Fox-37900","Gary-Harris-18617","Rodions-Kurucs-408801","LaMarcus-Aldridge-1349","Clint-Capela-18610","Eric-Bledsoe-1031","Al-Horford-1499","Jusuf-Nurkic-18619","49800","291.76"
"De'Aaron-Fox-37900","Reggie-Jackson-13352","Bogdan-Bogdanovic-37899","LaMarcus-Aldridge-1349","DeAndre-Jordan-1486","Joe-Ingles-18627","Aaron-Gordon-18601","Jusuf-Nurkic-18619","50000","291.73"
"De'Aaron-Fox-37900","Shabazz-Napier-18598","Khris-Middleton-13990","LaMarcus-Aldridge-1349","Jusuf-Nurkic-18619","Reggie-Jackson-13352","Al-Horford-1499","Clint-Capela-18610","50000","291.72"
"Eric-Bledsoe-1031","Khris-Middleton-13990","Rodions-Kurucs-408801","LaMarcus-Aldridge-1349","Clint-Capela-18610","Bogdan-Bogdanovic-37899","Al-Horford-1499","Jusuf-Nurkic-18619","49700","291.71"
"Eric-Bledsoe-1031","Bogdan-Bogdanovic-37899","Aaron-Gordon-18601","LaMarcus-Aldridge-1349","Jusuf-Nurkic-18619","Shabazz-Napier-18598","Al-Horford-1499","Clint-Capela-18610","49800","291.67"
"De'Aaron-Fox-37900","Eric-Bledsoe-1031","Kyle-Anderson-18615","LaMarcus-Aldridge-1349","Jusuf-Nurkic-18619","Bogdan-Bogdanovic-37899","Rodions-Kurucs-408801","Clint-Capela-18610","49700","291.67"
"De'Aaron-Fox-37900","Reggie-Jackson-13352","Aaron-Gordon-18601","LaMarcus-Aldridge-1349","DeAndre-Jordan-1486","Joe-Ingles-18627","Al-Horford-1499","Clint-Capela-18610","49800","291.66"
"De'Aaron-Fox-37900","Khris-Middleton-13990","Rodions-Kurucs-408801","Al-Horford-1499","Clint-Capela-18610","Bogdan-Bogdanovic-37899","Aaron-Gordon-18601","LaMarcus-Aldridge-1349","49400","291.65"
"De'Aaron-Fox-37900","Bogdan-Bogdanovic-37899","Rodions-Kurucs-408801","LaMarcus-Aldridge-1349","Jusuf-Nurkic-18619","Ricky-Rubio-1001","Jaren-Jackson-409099","Clint-Capela-18610","50000","291.63"
"De'Aaron-Fox-37900","Bogdan-Bogdanovic-37899","Kyle-Anderson-18615","LaMarcus-Aldridge-1349","Al-Horford-1499","Joe-Ingles-18627","Aaron-Gordon-18601","Jusuf-Nurkic-18619","50000","291.62"
"De'Aaron-Fox-37900","Khris-Middleton-13990","Rodions-Kurucs-408801","LaMarcus-Aldridge-1349","Clint-Capela-18610","D.J.-Augustin-1064","Al-Horford-1499","Jusuf-Nurkic-18619","50000","291.53"
"Kyle-Anderson-18615","Khris-Middleton-13990","Rodions-Kurucs-408801","LaMarcus-Aldridge-1349","Jusuf-Nurkic-18619","De'Aaron-Fox-37900","Aaron-Gordon-18601","Jaren-Jackson-409099","50000","291.52"
"Kyle-Anderson-18615","Joe-Ingles-18627","Bogdan-Bogdanovic-37899","LaMarcus-Aldridge-1349","DeAndre-Jordan-1486","De'Aaron-Fox-37900","Aaron-Gordon-18601","Clint-Capela-18610","50000","291.5"
"Eric-Bledsoe-1031","Bogdan-Bogdanovic-37899","Rodions-Kurucs-408801","LaMarcus-Aldridge-1349","Jusuf-Nurkic-18619","Ricky-Rubio-1001","Aaron-Gordon-18601","Clint-Capela-18610","49900","291.48"
"Kyle-Anderson-18615","Bogdan-Bogdanovic-37899","Rodions-Kurucs-408801","LaMarcus-Aldridge-1349","Jusuf-Nurkic-18619","De'Aaron-Fox-37900","Jaren-Jackson-409099","Clint-Capela-18610","49600","291.45"
"Kyle-Anderson-18615","Khris-Middleton-13990","Rodions-Kurucs-408801","LaMarcus-Aldridge-1349","Jusuf-Nurkic-18619","Joe-Ingles-18627","Aaron-Gordon-18601","Clint-Capela-18610","49700","291.45"
"De'Aaron-Fox-37900","Bogdan-Bogdanovic-37899","Khris-Middleton-13990","LaMarcus-Aldridge-1349","DeAndre-Jordan-1486","Reggie-Jackson-13352","Al-Horford-1499","Clint-Capela-18610","50000","291.44"
"Spencer-Dinwiddie-18588","Eric-Bledsoe-1031","Rodions-Kurucs-408801","LaMarcus-Aldridge-1349","Jusuf-Nurkic-18619","Kyle-Anderson-18615","Aaron-Gordon-18601","Clint-Capela-18610","50000","291.43"
"De'Aaron-Fox-37900","Bogdan-Bogdanovic-37899","Aaron-Gordon-18601","LaMarcus-Aldridge-1349","Willie-Cauley-Stein-18951","Reggie-Jackson-13352","Al-Horford-1499","Clint-Capela-18610","49800","291.38"
"De'Aaron-Fox-37900","Khris-Middleton-13990","Kyle-Anderson-18615","LaMarcus-Aldridge-1349","Jusuf-Nurkic-18619","Reggie-Jackson-13352","Rodions-Kurucs-408801","Clint-Capela-18610","49700","291.35"
"Shabazz-Napier-18598","Khris-Middleton-13990","Aaron-Gordon-18601","LaMarcus-Aldridge-1349","Jusuf-Nurkic-18619","Reggie-Jackson-13352","Al-Horford-1499","Clint-Capela-18610","49800","291.35"
"Spencer-Dinwiddie-18588","Khris-Middleton-13990","Rodions-Kurucs-408801","LaMarcus-Aldridge-1349","DeAndre-Jordan-1486","De'Aaron-Fox-37900","Al-Horford-1499","Jusuf-Nurkic-18619","49800","291.32"
"De'Aaron-Fox-37900","Shabazz-Napier-18598","Kyle-Anderson-18615","LaMarcus-Aldridge-1349","Jusuf-Nurkic-18619","Reggie-Jackson-13352","Aaron-Gordon-18601","Clint-Capela-18610","49800","291.31"
"De'Aaron-Fox-37900","Eric-Bledsoe-1031","Bogdan-Bogdanovic-37899","LaMarcus-Aldridge-1349","Clint-Capela-18610","Reggie-Jackson-13352","Aaron-Gordon-18601","Al-Horford-1499","50000","291.31"
"Kyle-Anderson-18615","Eric-Bledsoe-1031","Rodions-Kurucs-408801","LaMarcus-Aldridge-1349","Jusuf-Nurkic-18619","Bogdan-Bogdanovic-37899","Aaron-Gordon-18601","Clint-Capela-18610","49500","291.3"
"De'Aaron-Fox-37900","Gary-Harris-18617","Kyle-Anderson-18615","LaMarcus-Aldridge-1349","Jusuf-Nurkic-18619","Khris-Middleton-13990","Rodions-Kurucs-408801","Clint-Capela-18610","50000","291.28"
"Spencer-Dinwiddie-18588","Shabazz-Napier-18598","Aaron-Gordon-18601","LaMarcus-Aldridge-1349","DeAndre-Jordan-1486","De'Aaron-Fox-37900","Al-Horford-1499","Jusuf-Nurkic-18619","49900","291.28"
"Spencer-Dinwiddie-18588","Joe-Ingles-18627","Rodions-Kurucs-408801","LaMarcus-Aldridge-1349","Clint-Capela-18610","De'Aaron-Fox-37900","Al-Horford-1499","Jusuf-Nurkic-18619","49600","291.27"
"De'Aaron-Fox-37900","Eric-Bledsoe-1031","Rodions-Kurucs-408801","LaMarcus-Aldridge-1349","Jusuf-Nurkic-18619","Shabazz-Napier-18598","Aaron-Gordon-18601","Clint-Capela-18610","49300","291.22"
"De'Aaron-Fox-37900","Khris-Middleton-13990","Rodions-Kurucs-408801","Al-Horford-1499","Jusuf-Nurkic-18619","Joe-Ingles-18627","Aaron-Gordon-18601","LaMarcus-Aldridge-1349","49500","291.21"
"Spencer-Dinwiddie-18588","Eric-Bledsoe-1031","Rodions-Kurucs-408801","Al-Horford-1499","Jusuf-Nurkic-18619","De'Aaron-Fox-37900","Aaron-Gordon-18601","LaMarcus-Aldridge-1349","49800","291.19"
"Shabazz-Napier-18598","Khris-Middleton-13990","Kyle-Anderson-18615","LaMarcus-Aldridge-1349","Jusuf-Nurkic-18619","Bogdan-Bogdanovic-37899","Aaron-Gordon-18601","Clint-Capela-18610","50000","291.19"
"De'Aaron-Fox-37900","Khris-Middleton-13990","Rodions-Kurucs-408801","LaMarcus-Aldridge-1349","DeAndre-Jordan-1486","Bogdan-Bogdanovic-37899","Al-Horford-1499","Jusuf-Nurkic-18619","49300","291.19"
"De'Aaron-Fox-37900","Eric-Bledsoe-1031","Rodions-Kurucs-408801","LaMarcus-Aldridge-1349","Jusuf-Nurkic-18619","Joe-Ingles-18627","Jaren-Jackson-409099","Clint-Capela-18610","49900","291.17"
"Ricky-Rubio-1001","Khris-Middleton-13990","Rodions-Kurucs-408801","LaMarcus-Aldridge-1349","Jusuf-Nurkic-18619","Reggie-Jackson-13352","Aaron-Gordon-18601","Clint-Capela-18610","49900","291.16"
"De'Aaron-Fox-37900","Bogdan-Bogdanovic-37899","Kyle-Anderson-18615","LaMarcus-Aldridge-1349","Al-Horford-1499","Reggie-Jackson-13352","Aaron-Gordon-18601","Jusuf-Nurkic-18619","49800","291.15"
"De'Aaron-Fox-37900","Reggie-Jackson-13352","Aaron-Gordon-18601","LaMarcus-Aldridge-1349","DeAndre-Jordan-1486","Dennis-Smith-Jr.-37847","Al-Horford-1499","Jusuf-Nurkic-18619","49900","291.15"
"De'Aaron-Fox-37900","Bogdan-Bogdanovic-37899","Aaron-Gordon-18601","LaMarcus-Aldridge-1349","DeAndre-Jordan-1486","Shabazz-Napier-18598","Al-Horford-1499","Jusuf-Nurkic-18619","49400","291.15"
"De'Aaron-Fox-37900","Marco-Belinelli-1033","Rodions-Kurucs-408801","LaMarcus-Aldridge-1349","Jusuf-Nurkic-18619","Khris-Middleton-13990","Aaron-Gordon-18601","Clint-Capela-18610","49800","291.14"
"De'Aaron-Fox-37900","Bogdan-Bogdanovic-37899","Rodions-Kurucs-408801","LaMarcus-Aldridge-1349","Clint-Capela-18610","Joe-Ingles-18627","Al-Horford-1499","Jusuf-Nurkic-18619","49100","291.14"
"De'Aaron-Fox-37900","Gary-Harris-18617","Aaron-Gordon-18601","LaMarcus-Aldridge-1349","DeAndre-Jordan-1486","Reggie-Jackson-13352","Al-Horford-1499","Clint-Capela-18610","49900","291.12"
"Eric-Bledsoe-1031","Khris-Middleton-13990","Rodions-Kurucs-408801","LaMarcus-Aldridge-1349","Jusuf-Nurkic-18619","Dennis-Smith-Jr.-37847","Aaron-Gordon-18601","Clint-Capela-18610","50000","291.1"
"De'Aaron-Fox-37900","Bogdan-Bogdanovic-37899","Aaron-Gordon-18601","Al-Horford-1499","Clint-Capela-18610","Reggie-Jackson-13352","Jaren-Jackson-409099","LaMarcus-Aldridge-1349","49900","291.09"
"De'Aaron-Fox-37900","Khris-Middleton-13990","Rodions-Kurucs-408801","LaMarcus-Aldridge-1349","Clint-Capela-18610","Joe-Ingles-18627","Aaron-Gordon-18601","DeAndre-Jordan-1486","49500","291.09"
"De'Aaron-Fox-37900","Spencer-Dinwiddie-18588","Rodions-Kurucs-408801","LaMarcus-Aldridge-1349","Jusuf-Nurkic-18619","Ricky-Rubio-1001","Aaron-Gordon-18601","DeAndre-Jordan-1486","50000","291.09"
"Reggie-Jackson-13352","Khris-Middleton-13990","Aaron-Gordon-18601","LaMarcus-Aldridge-1349","DeAndre-Jordan-1486","Bogdan-Bogdanovic-37899","Al-Horford-1499","Clint-Capela-18610","49800","291.07"
"Spencer-Dinwiddie-18588","Eric-Bledsoe-1031","Rodions-Kurucs-408801","LaMarcus-Aldridge-1349","Clint-Capela-18610","De'Aaron-Fox-37900","Aaron-Gordon-18601","DeAndre-Jordan-1486","49800","291.07"
"De'Aaron-Fox-37900","Eric-Bledsoe-1031","Rodions-Kurucs-408801","Al-Horford-1499","Jusuf-Nurkic-18619","Bogdan-Bogdanovic-37899","Aaron-Gordon-18601","LaMarcus-Aldridge-1349","49300","291.06"
"Kyle-Anderson-18615","Reggie-Jackson-13352","Bogdan-Bogdanovic-37899","LaMarcus-Aldridge-1349","DeAndre-Jordan-1486","De'Aaron-Fox-37900","Aaron-Gordon-18601","Clint-Capela-18610","49800","291.03"
"De'Aaron-Fox-37900","Wesley-Matthews-1339","Rodions-Kurucs-408801","LaMarcus-Aldridge-1349","Jusuf-Nurkic-18619","Bogdan-Bogdanovic-37899","Aaron-Gordon-18601","Clint-Capela-18610","49700","291.01"
"Spencer-Dinwiddie-18588","Shabazz-Napier-18598","Bogdan-Bogdanovic-37899","LaMarcus-Aldridge-1349","Clint-Capela-18610","De'Aaron-Fox-37900","Al-Horford-1499","Jusuf-Nurkic-18619","49900","291.01"
"Kyle-Anderson-18615","Khris-Middleton-13990","Rodions-Kurucs-408801","LaMarcus-Aldridge-1349","Jusuf-Nurkic-18619","Reggie-Jackson-13352","Aaron-Gordon-18601","Clint-Capela-18610","49500","290.98"
"Dennis-Smith-Jr.-37847","Bogdan-Bogdanovic-37899","Aaron-Gordon-18601","LaMarcus-Aldridge-1349","Jusuf-Nurkic-18619","Joe-Ingles-18627","Al-Horford-1499","Clint-Capela-18610","49900","290.98"
"De'Aaron-Fox-37900","Bogdan-Bogdanovic-37899","Rodions-Kurucs-408801","LaMarcus-Aldridge-1349","Jusuf-Nurkic-18619","Ricky-Rubio-1001","Aaron-Gordon-18601","DeAndre-Jordan-1486","49500","290.96"
"De'Aaron-Fox-37900","Eric-Bledsoe-1031","Rodions-Kurucs-408801","LaMarcus-Aldridge-1349","Clint-Capela-18610","Bogdan-Bogdanovic-37899","Paul-Millsap-1335","Jusuf-Nurkic-18619","49900","290.96"
"De'Aaron-Fox-37900","Khris-Middleton-13990","Bogdan-Bogdanovic-37899","LaMarcus-Aldridge-1349","Jusuf-Nurkic-18619","Shabazz-Napier-18598","Aaron-Gordon-18601","Al-Horford-1499","49800","290.95"
