"Kemba-Walker-13335","Dennis-Schroder-18595","Buddy-Hield-35206","Al-Horford-1499","Willy-Hernangomez-18901","Kelly-Oubre-18925","Aaron-Gordon-18601","Karl-Anthony-Towns-18937","50000","291.95"
"Russell-Westbrook-1083","Joe-Ingles-18627","Jonathon-Simmons-31808","Al-Horford-1499","Willy-Hernangomez-18901","Dennis-Schroder-18595","Kelly-Oubre-18925","Karl-Anthony-Towns-18937","49800","291.9"
"Russell-Westbrook-1083","Evan-Fournier-13913","Kelly-Oubre-18925","Al-Horford-1499","Karl-Anthony-Towns-18937","Dennis-Schroder-18595","Bobby-Portis-18909","Willy-Hernangomez-18901","49700","291.5"

"Kemba-Walker-13335","Dennis-Schroder-18595","Buddy-Hield-35206","Al-Horford-1499","Willy-Hernangomez-18901","Kelly-Oubre-18925","Aaron-Gordon-18601","Karl-Anthony-Towns-18937","50000","291.95"
"Russell-Westbrook-1083","Joe-Ingles-18627","Jonathon-Simmons-31808","Al-Horford-1499","Willy-Hernangomez-18901","Dennis-Schroder-18595","Kelly-Oubre-18925","Karl-Anthony-Towns-18937","49800","291.9"
"Russell-Westbrook-1083","Evan-Fournier-13913","Kelly-Oubre-18925","Al-Horford-1499","Karl-Anthony-Towns-18937","Dennis-Schroder-18595","Bobby-Portis-18909","Willy-Hernangomez-18901","49700","291.5"
"Russell-Westbrook-1083","Evan-Fournier-13913","Kelly-Oubre-18925","Al-Horford-1499","Willy-Hernangomez-18901","Dennis-Schroder-18595","Dario-Saric-36004","Karl-Anthony-Towns-18937","49800","291.36"
"Russell-Westbrook-1083","Evan-Fournier-13913","Buddy-Hield-35206","Jonathan-Isaac-37841","Karl-Anthony-Towns-18937","Dennis-Schroder-18595","Kelly-Oubre-18925","Willy-Hernangomez-18901","49700","291.25"
"Russell-Westbrook-1083","Dennis-Schroder-18595","Aaron-Gordon-18601","Al-Horford-1499","Karl-Anthony-Towns-18937","Kelly-Oubre-18925","Gorgui-Dieng-16939","Willy-Hernangomez-18901","50000","291.2"
"Russell-Westbrook-1083","Evan-Fournier-13913","Jae-Crowder-13942","Al-Horford-1499","Willy-Hernangomez-18901","Dennis-Schroder-18595","Kelly-Oubre-18925","Karl-Anthony-Towns-18937","49800","291.08"
"Russell-Westbrook-1083","Dennis-Schroder-18595","Joe-Ingles-18627","Bobby-Portis-18909","Willy-Hernangomez-18901","Kelly-Oubre-18925","Dario-Saric-36004","Karl-Anthony-Towns-18937","50000","291.02"
"Russell-Westbrook-1083","Evan-Fournier-13913","Jonathon-Simmons-31808","Al-Horford-1499","Karl-Anthony-Towns-18937","Kelly-Oubre-18925","Josh-Jackson-37890","Dennis-Schroder-18595","50000","290.98"
"Kemba-Walker-13335","Buddy-Hield-35206","Joe-Ingles-18627","Al-Horford-1499","Karl-Anthony-Towns-18937","Dennis-Schroder-18595","Evan-Fournier-13913","Willy-Hernangomez-18901","49900","290.93"
"Kemba-Walker-13335","Jonathon-Simmons-31808","Evan-Fournier-13913","Al-Horford-1499","Karl-Anthony-Towns-18937","Dennis-Schroder-18595","Kelly-Oubre-18925","Nikola-Vucevic-13296","49800","290.91"
"Dennis-Schroder-18595","Joe-Ingles-18627","Jonathon-Simmons-31808","Aaron-Gordon-18601","Karl-Anthony-Towns-18937","Kelly-Oubre-18925","Buddy-Hield-35206","Nikola-Vucevic-13296","50000","290.89"
"Russell-Westbrook-1083","Evan-Fournier-13913","Jonathan-Isaac-37841","Al-Horford-1499","Karl-Anthony-Towns-18937","Dennis-Schroder-18595","Josh-Jackson-37890","Willy-Hernangomez-18901","50000","290.83"
"Dennis-Schroder-18595","Buddy-Hield-35206","Aaron-Gordon-18601","Al-Horford-1499","Nikola-Vucevic-13296","Kelly-Oubre-18925","Jonathan-Isaac-37841","Karl-Anthony-Towns-18937","49900","290.77"
"Russell-Westbrook-1083","Dennis-Schroder-18595","Joe-Ingles-18627","Bobby-Portis-18909","Karl-Anthony-Towns-18937","Kelly-Oubre-18925","Jae-Crowder-13942","Willy-Hernangomez-18901","50000","290.74"
"Kemba-Walker-13335","Dennis-Schroder-18595","Jonathan-Isaac-37841","Gorgui-Dieng-16939","Willy-Hernangomez-18901","Russell-Westbrook-1083","Kelly-Oubre-18925","Karl-Anthony-Towns-18937","50000","290.63"
"Kemba-Walker-13335","Buddy-Hield-35206","Kelly-Oubre-18925","Al-Horford-1499","Karl-Anthony-Towns-18937","Joe-Ingles-18627","Bobby-Portis-18909","Dennis-Schroder-18595","50000","290.62"
"Kemba-Walker-13335","Dennis-Schroder-18595","Buddy-Hield-35206","Aaron-Gordon-18601","Karl-Anthony-Towns-18937","Kelly-Oubre-18925","Josh-Jackson-37890","Willy-Hernangomez-18901","50000","290.57"
"Dennis-Schroder-18595","Buddy-Hield-35206","Joe-Ingles-18627","Al-Horford-1499","Karl-Anthony-Towns-18937","Kelly-Oubre-18925","Evan-Fournier-13913","Rudy-Gobert-16935","50000","290.57"
"Kemba-Walker-13335","Joe-Ingles-18627","Jonathon-Simmons-31808","Bobby-Portis-18909","Karl-Anthony-Towns-18937","Dennis-Schroder-18595","Kelly-Oubre-18925","Nikola-Vucevic-13296","50000","290.57"
"Russell-Westbrook-1083","Evan-Fournier-13913","Aaron-Gordon-18601","Bobby-Portis-18909","Karl-Anthony-Towns-18937","Dennis-Schroder-18595","Kelly-Oubre-18925","Jonathan-Isaac-37841","50000","290.56"
"Russell-Westbrook-1083","Jonathon-Simmons-31808","Joe-Ingles-18627","Josh-Jackson-37890","Willy-Hernangomez-18901","Dennis-Schroder-18595","Kelly-Oubre-18925","Karl-Anthony-Towns-18937","49800","290.52"
"Kemba-Walker-13335","Buddy-Hield-35206","Joe-Ingles-18627","Al-Horford-1499","Willy-Hernangomez-18901","Dennis-Schroder-18595","Kelly-Oubre-18925","Karl-Anthony-Towns-18937","49600","290.5"
"Dennis-Schroder-18595","Evan-Fournier-13913","Buddy-Hield-35206","Bobby-Portis-18909","Karl-Anthony-Towns-18937","Kelly-Oubre-18925","Aaron-Gordon-18601","Nikola-Vucevic-13296","49900","290.49"
"Kemba-Walker-13335","Dennis-Schroder-18595","Jonathan-Isaac-37841","Al-Horford-1499","Nikola-Vucevic-13296","Kelly-Oubre-18925","Bobby-Portis-18909","Karl-Anthony-Towns-18937","49900","290.45"
"Dennis-Schroder-18595","Buddy-Hield-35206","Josh-Jackson-37890","Al-Horford-1499","Nikola-Vucevic-13296","Kelly-Oubre-18925","Bobby-Portis-18909","Karl-Anthony-Towns-18937","50000","290.45"
"Russell-Westbrook-1083","Evan-Fournier-13913","Aaron-Gordon-18601","Jonathan-Isaac-37841","Karl-Anthony-Towns-18937","Dennis-Schroder-18595","Kelly-Oubre-18925","Willy-Hernangomez-18901","49600","290.44"
"Russell-Westbrook-1083","Evan-Fournier-13913","Royce-O'Neale-37872","Aaron-Gordon-18601","Willy-Hernangomez-18901","Dennis-Schroder-18595","Kelly-Oubre-18925","Karl-Anthony-Towns-18937","49900","290.43"
"Russell-Westbrook-1083","Dennis-Schroder-18595","Jonathan-Isaac-37841","Al-Horford-1499","Karl-Anthony-Towns-18937","Kelly-Oubre-18925","Josh-Jackson-37890","Willy-Hernangomez-18901","49700","290.4"
"Russell-Westbrook-1083","Joe-Ingles-18627","Michael-Kidd-Gilchrist-13896","Al-Horford-1499","Karl-Anthony-Towns-18937","Dennis-Schroder-18595","Evan-Fournier-13913","Willy-Hernangomez-18901","50000","290.4"
"Russell-Westbrook-1083","Dennis-Schroder-18595","Royce-O'Neale-37872","Al-Horford-1499","Willy-Hernangomez-18901","Kelly-Oubre-18925","Josh-Jackson-37890","Karl-Anthony-Towns-18937","50000","290.39"
"Kemba-Walker-13335","Evan-Fournier-13913","Joe-Ingles-18627","Gorgui-Dieng-16939","Nikola-Vucevic-13296","Dennis-Schroder-18595","Kelly-Oubre-18925","Karl-Anthony-Towns-18937","50000","290.39"
"Russell-Westbrook-1083","Joe-Ingles-18627","Jonathon-Simmons-31808","Al-Horford-1499","Karl-Anthony-Towns-18937","Dennis-Schroder-18595","Bobby-Portis-18909","Willy-Hernangomez-18901","49900","290.36"
"Dennis-Schroder-18595","Buddy-Hield-35206","Evan-Fournier-13913","Aaron-Gordon-18601","Karl-Anthony-Towns-18937","Kelly-Oubre-18925","Dario-Saric-36004","Nikola-Vucevic-13296","50000","290.35"
"Kemba-Walker-13335","Dennis-Schroder-18595","Jonathan-Isaac-37841","Al-Horford-1499","Karl-Anthony-Towns-18937","Kelly-Oubre-18925","Dario-Saric-36004","Nikola-Vucevic-13296","50000","290.31"
"Russell-Westbrook-1083","Joe-Ingles-18627","Jonathon-Simmons-31808","Al-Horford-1499","Willy-Hernangomez-18901","Dennis-Schroder-18595","Dario-Saric-36004","Karl-Anthony-Towns-18937","50000","290.22"
"Russell-Westbrook-1083","Joe-Ingles-18627","Evan-Fournier-13913","Al-Horford-1499","Willy-Hernangomez-18901","Dennis-Schroder-18595","Gorgui-Dieng-16939","Karl-Anthony-Towns-18937","49900","290.18"
"Dennis-Schroder-18595","Joe-Ingles-18627","Kelly-Oubre-18925","Al-Horford-1499","Nikola-Vucevic-13296","Evan-Fournier-13913","Josh-Jackson-37890","Karl-Anthony-Towns-18937","49700","290.16"
"Russell-Westbrook-1083","Dennis-Schroder-18595","Joe-Ingles-18627","Al-Horford-1499","Nikola-Vucevic-13296","Kelly-Oubre-18925","Bobby-Portis-18909","Willy-Hernangomez-18901","49900","290.15"
"Russell-Westbrook-1083","Buddy-Hield-35206","Jonathon-Simmons-31808","Al-Horford-1499","Karl-Anthony-Towns-18937","Kelly-Oubre-18925","Jonathan-Isaac-37841","Dennis-Schroder-18595","49800","290.14"
"Kemba-Walker-13335","Joe-Ingles-18627","Evan-Fournier-13913","Al-Horford-1499","Willy-Hernangomez-18901","Dennis-Schroder-18595","Aaron-Gordon-18601","Karl-Anthony-Towns-18937","49800","290.12"
"Russell-Westbrook-1083","Dennis-Schroder-18595","Evan-Fournier-13913","Bobby-Portis-18909","Willy-Hernangomez-18901","Kelly-Oubre-18925","Josh-Jackson-37890","Karl-Anthony-Towns-18937","49700","290.12"
"Russell-Westbrook-1083","Joe-Ingles-18627","Jonathon-Simmons-31808","Jonathan-Isaac-37841","Karl-Anthony-Towns-18937","Dennis-Schroder-18595","Buddy-Hield-35206","Willy-Hernangomez-18901","49900","290.11"
"Dennis-Schroder-18595","Buddy-Hield-35206","Evan-Fournier-13913","Aaron-Gordon-18601","Karl-Anthony-Towns-18937","Kelly-Oubre-18925","Jae-Crowder-13942","Nikola-Vucevic-13296","50000","290.07"
"Kemba-Walker-13335","Dennis-Schroder-18595","Jonathan-Isaac-37841","Al-Horford-1499","Nikola-Vucevic-13296","Kelly-Oubre-18925","Jae-Crowder-13942","Karl-Anthony-Towns-18937","50000","290.03"
"Kemba-Walker-13335","Dennis-Schroder-18595","Evan-Fournier-13913","Bobby-Portis-18909","Karl-Anthony-Towns-18937","Kelly-Oubre-18925","Dario-Saric-36004","Nikola-Vucevic-13296","50000","290.03"
"Russell-Westbrook-1083","Dennis-Schroder-18595","Joe-Ingles-18627","Al-Horford-1499","Willy-Hernangomez-18901","Kelly-Oubre-18925","Dario-Saric-36004","Nikola-Vucevic-13296","50000","290.01"
"Russell-Westbrook-1083","Dennis-Schroder-18595","Evan-Fournier-13913","Dario-Saric-36004","Karl-Anthony-Towns-18937","Kelly-Oubre-18925","Josh-Jackson-37890","Willy-Hernangomez-18901","49800","289.98"
"Russell-Westbrook-1083","Joe-Ingles-18627","Michael-Kidd-Gilchrist-13896","Al-Horford-1499","Willy-Hernangomez-18901","Dennis-Schroder-18595","Kelly-Oubre-18925","Karl-Anthony-Towns-18937","49700","289.97"
"Dennis-Schroder-18595","E'Twaun-Moore-18582","Joe-Ingles-18627","Al-Horford-1499","Nikola-Vucevic-13296","Kelly-Oubre-18925","Aaron-Gordon-18601","Karl-Anthony-Towns-18937","50000","289.96"
"Russell-Westbrook-1083","Joe-Ingles-18627","Jonathon-Simmons-31808","Al-Horford-1499","Willy-Hernangomez-18901","Dennis-Schroder-18595","Jae-Crowder-13942","Karl-Anthony-Towns-18937","50000","289.94"
"Russell-Westbrook-1083","E'Twaun-Moore-18582","Aaron-Gordon-18601","Bobby-Portis-18909","Karl-Anthony-Towns-18937","Dennis-Schroder-18595","Kelly-Oubre-18925","Willy-Hernangomez-18901","50000","289.92"
"Russell-Westbrook-1083","Dennis-Schroder-18595","Buddy-Hield-35206","Jonathan-Isaac-37841","Nikola-Vucevic-13296","Kelly-Oubre-18925","Joe-Ingles-18627","Willy-Hernangomez-18901","49900","289.9"
"Russell-Westbrook-1083","Dennis-Schroder-18595","Joe-Ingles-18627","Al-Horford-1499","Bobby-Portis-18909","Kelly-Oubre-18925","Gorgui-Dieng-16939","Karl-Anthony-Towns-18937","50000","289.87"
"Russell-Westbrook-1083","Buddy-Hield-35206","Jonathon-Simmons-31808","Bobby-Portis-18909","Karl-Anthony-Towns-18937","Evan-Fournier-13913","Kelly-Oubre-18925","Dennis-Schroder-18595","49800","289.86"
"Russell-Westbrook-1083","Dennis-Schroder-18595","Jonathon-Simmons-31808","Al-Horford-1499","Willy-Hernangomez-18901","Zach-LaVine-18622","Kelly-Oubre-18925","Karl-Anthony-Towns-18937","49900","289.86"
"Russell-Westbrook-1083","Jonathon-Simmons-31808","Buddy-Hield-35206","Aaron-Gordon-18601","Nikola-Vucevic-13296","Dennis-Schroder-18595","Kelly-Oubre-18925","Willy-Hernangomez-18901","50000","289.84"
"Russell-Westbrook-1083","Dennis-Schroder-18595","Aaron-Gordon-18601","Gorgui-Dieng-16939","Karl-Anthony-Towns-18937","Kelly-Oubre-18925","Josh-Jackson-37890","Willy-Hernangomez-18901","50000","289.82"
"Kemba-Walker-13335","Dennis-Schroder-18595","Joe-Ingles-18627","Al-Horford-1499","Bobby-Portis-18909","Kelly-Oubre-18925","Aaron-Gordon-18601","Karl-Anthony-Towns-18937","49900","289.81"
"Dennis-Schroder-18595","Evan-Fournier-13913","Joe-Ingles-18627","Al-Horford-1499","Rudy-Gobert-16935","Kelly-Oubre-18925","Aaron-Gordon-18601","Karl-Anthony-Towns-18937","49900","289.76"
"Russell-Westbrook-1083","Evan-Fournier-13913","Jonathon-Simmons-31808","Al-Horford-1499","Karl-Anthony-Towns-18937","Dennis-Schroder-18595","Jonathan-Isaac-37841","Aaron-Gordon-18601","50000","289.76"
"Russell-Westbrook-1083","Dennis-Schroder-18595","Joe-Ingles-18627","Al-Horford-1499","Karl-Anthony-Towns-18937","Kelly-Oubre-18925","Gorgui-Dieng-16939","Willy-Hernangomez-18901","49600","289.75"
"Kemba-Walker-13335","Dennis-Schroder-18595","Evan-Fournier-13913","Bobby-Portis-18909","Nikola-Vucevic-13296","Kelly-Oubre-18925","Jae-Crowder-13942","Karl-Anthony-Towns-18937","50000","289.75"
"Dennis-Schroder-18595","Buddy-Hield-35206","Joe-Ingles-18627","Al-Horford-1499","Karl-Anthony-Towns-18937","Evan-Fournier-13913","Jonathan-Isaac-37841","Nikola-Vucevic-13296","49800","289.75"
"Russell-Westbrook-1083","Dennis-Schroder-18595","Evan-Fournier-13913","Al-Horford-1499","Karl-Anthony-Towns-18937","Marcus-Smart-18567","Kelly-Oubre-18925","Willy-Hernangomez-18901","49900","289.73"
"Russell-Westbrook-1083","Joe-Ingles-18627","Jae-Crowder-13942","Al-Horford-1499","Nikola-Vucevic-13296","Dennis-Schroder-18595","Kelly-Oubre-18925","Willy-Hernangomez-18901","50000","289.73"
"Russell-Westbrook-1083","Jonathon-Simmons-31808","Buddy-Hield-35206","Dario-Saric-36004","Karl-Anthony-Towns-18937","Evan-Fournier-13913","Kelly-Oubre-18925","Dennis-Schroder-18595","49900","289.72"
"Russell-Westbrook-1083","Evan-Fournier-13913","Buddy-Hield-35206","Bobby-Portis-18909","Karl-Anthony-Towns-18937","Dennis-Schroder-18595","Jonathan-Isaac-37841","Willy-Hernangomez-18901","49800","289.71"
"Russell-Westbrook-1083","Dennis-Schroder-18595","Evan-Fournier-13913","Aaron-Gordon-18601","Willy-Hernangomez-18901","Kelly-Oubre-18925","Kyle-Korver-1269","Karl-Anthony-Towns-18937","50000","289.71"
"Russell-Westbrook-1083","Dennis-Schroder-18595","Evan-Fournier-13913","Jae-Crowder-13942","Willy-Hernangomez-18901","Kelly-Oubre-18925","Josh-Jackson-37890","Karl-Anthony-Towns-18937","49800","289.7"
"Kemba-Walker-13335","Dennis-Schroder-18595","Joe-Ingles-18627","Al-Horford-1499","Willy-Hernangomez-18901","Kelly-Oubre-18925","Aaron-Gordon-18601","Karl-Anthony-Towns-18937","49500","289.69"
"Dennis-Schroder-18595","Jonathon-Simmons-31808","Evan-Fournier-13913","Al-Horford-1499","Nikola-Vucevic-13296","Buddy-Hield-35206","Aaron-Gordon-18601","Karl-Anthony-Towns-18937","49900","289.69"
"Kemba-Walker-13335","Dennis-Schroder-18595","Joe-Ingles-18627","Aaron-Gordon-18601","Al-Horford-1499","Kelly-Oubre-18925","Dario-Saric-36004","Karl-Anthony-Towns-18937","50000","289.67"
"Russell-Westbrook-1083","Joe-Ingles-18627","Buddy-Hield-35206","Jonathan-Isaac-37841","Gorgui-Dieng-16939","Dennis-Schroder-18595","Kelly-Oubre-18925","Karl-Anthony-Towns-18937","50000","289.62"
"Kemba-Walker-13335","Evan-Fournier-13913","Buddy-Hield-35206","Al-Horford-1499","Karl-Anthony-Towns-18937","Kelly-Oubre-18925","Josh-Jackson-37890","Dennis-Schroder-18595","49800","289.58"
"Russell-Westbrook-1083","Evan-Fournier-13913","Buddy-Hield-35206","Jonathan-Isaac-37841","Willy-Hernangomez-18901","Dennis-Schroder-18595","Dario-Saric-36004","Karl-Anthony-Towns-18937","49900","289.57"
"Kemba-Walker-13335","Dennis-Schroder-18595","Buddy-Hield-35206","Bobby-Portis-18909","Willy-Hernangomez-18901","Russell-Westbrook-1083","Kelly-Oubre-18925","Al-Horford-1499","50000","289.57"
"Kemba-Walker-13335","Joe-Ingles-18627","Buddy-Hield-35206","Jonathan-Isaac-37841","Karl-Anthony-Towns-18937","Dennis-Schroder-18595","Kelly-Oubre-18925","Aaron-Gordon-18601","49900","289.56"
"Kemba-Walker-13335","Dennis-Schroder-18595","Jonathon-Simmons-31808","Gorgui-Dieng-16939","Willy-Hernangomez-18901","Russell-Westbrook-1083","Evan-Fournier-13913","Karl-Anthony-Towns-18937","50000","289.55"
"Kemba-Walker-13335","Evan-Fournier-13913","Buddy-Hield-35206","Josh-Jackson-37890","Karl-Anthony-Towns-18937","Dennis-Schroder-18595","Joe-Ingles-18627","Willy-Hernangomez-18901","49900","289.55"
"Russell-Westbrook-1083","Dennis-Schroder-18595","Evan-Fournier-13913","Al-Horford-1499","Nikola-Vucevic-13296","Kelly-Oubre-18925","Aaron-Gordon-18601","Jonathan-Isaac-37841","50000","289.55"
"Russell-Westbrook-1083","Evan-Fournier-13913","Jae-Crowder-13942","Al-Horford-1499","Willy-Hernangomez-18901","Dennis-Schroder-18595","Bobby-Portis-18909","Karl-Anthony-Towns-18937","49900","289.54"
"Kemba-Walker-13335","Evan-Fournier-13913","Jonathon-Simmons-31808","Josh-Jackson-37890","Nikola-Vucevic-13296","Dennis-Schroder-18595","Kelly-Oubre-18925","Karl-Anthony-Towns-18937","49800","289.53"
"Kemba-Walker-13335","Dennis-Schroder-18595","Jonathon-Simmons-31808","Bobby-Portis-18909","Nikola-Vucevic-13296","Russell-Westbrook-1083","Kelly-Oubre-18925","Willy-Hernangomez-18901","50000","289.52"
"Russell-Westbrook-1083","Evan-Fournier-13913","Buddy-Hield-35206","Al-Horford-1499","Rudy-Gobert-16935","Dennis-Schroder-18595","Kelly-Oubre-18925","Willy-Hernangomez-18901","50000","289.52"
"Russell-Westbrook-1083","Dennis-Schroder-18595","Aaron-Gordon-18601","Derrick-Favors-1266","Karl-Anthony-Towns-18937","Kelly-Oubre-18925","Jonathan-Isaac-37841","Willy-Hernangomez-18901","50000","289.51"
"Elie-Okobo-409300","Dennis-Schroder-18595","Joe-Ingles-18627","Al-Horford-1499","Willy-Hernangomez-18901","Russell-Westbrook-1083","Kelly-Oubre-18925","Karl-Anthony-Towns-18937","49800","289.47"
"Russell-Westbrook-1083","Buddy-Hield-35206","Jonathon-Simmons-31808","Jae-Crowder-13942","Karl-Anthony-Towns-18937","Kelly-Oubre-18925","Evan-Fournier-13913","Dennis-Schroder-18595","49900","289.44"
"Russell-Westbrook-1083","Evan-Fournier-13913","Jae-Crowder-13942","Al-Horford-1499","Karl-Anthony-Towns-18937","Dennis-Schroder-18595","Dario-Saric-36004","Willy-Hernangomez-18901","50000","289.4"
"Dennis-Schroder-18595","Buddy-Hield-35206","Aaron-Gordon-18601","Jonathan-Isaac-37841","Karl-Anthony-Towns-18937","Kelly-Oubre-18925","Josh-Jackson-37890","Nikola-Vucevic-13296","49900","289.39"
"Kemba-Walker-13335","Joe-Ingles-18627","Aaron-Gordon-18601","Jae-Crowder-13942","Karl-Anthony-Towns-18937","Dennis-Schroder-18595","Kelly-Oubre-18925","Al-Horford-1499","50000","289.39"
"Kemba-Walker-13335","Dennis-Schroder-18595","E'Twaun-Moore-18582","Jonathan-Isaac-37841","Nikola-Vucevic-13296","Kelly-Oubre-18925","Joe-Ingles-18627","Karl-Anthony-Towns-18937","50000","289.39"
"Russell-Westbrook-1083","Dennis-Schroder-18595","Joe-Ingles-18627","Al-Horford-1499","Willy-Hernangomez-18901","Kelly-Oubre-18925","Marco-Belinelli-1033","Karl-Anthony-Towns-18937","49900","289.38"
"Russell-Westbrook-1083","Dennis-Schroder-18595","Joe-Ingles-18627","Al-Horford-1499","Karl-Anthony-Towns-18937","Kelly-Oubre-18925","Jonathan-Isaac-37841","Royce-O'Neale-37872","49900","289.38"
"Kemba-Walker-13335","Jonathon-Simmons-31808","Evan-Fournier-13913","Al-Horford-1499","Nikola-Vucevic-13296","Dennis-Schroder-18595","Bobby-Portis-18909","Karl-Anthony-Towns-18937","49900","289.37"
"Russell-Westbrook-1083","Dennis-Schroder-18595","Jonathon-Simmons-31808","Jayson-Tatum-37782","Karl-Anthony-Towns-18937","Kelly-Oubre-18925","Joe-Ingles-18627","Willy-Hernangomez-18901","50000","289.35"
"Kemba-Walker-13335","Dennis-Schroder-18595","Jonathon-Simmons-31808","Michael-Kidd-Gilchrist-13896","Willy-Hernangomez-18901","Russell-Westbrook-1083","Kelly-Oubre-18925","Karl-Anthony-Towns-18937","49800","289.34"
"Kemba-Walker-13335","Dennis-Schroder-18595","Evan-Fournier-13913","Gorgui-Dieng-16939","Nikola-Vucevic-13296","Russell-Westbrook-1083","Kelly-Oubre-18925","Willy-Hernangomez-18901","50000","289.34"
"Russell-Westbrook-1083","Jonathon-Simmons-31808","E'Twaun-Moore-18582","Al-Horford-1499","Karl-Anthony-Towns-18937","Joe-Ingles-18627","Kelly-Oubre-18925","Dennis-Schroder-18595","49900","289.33"
"Russell-Westbrook-1083","Dennis-Schroder-18595","Jonathon-Simmons-31808","Al-Horford-1499","Karl-Anthony-Towns-18937","Kelly-Oubre-18925","Jonathan-Isaac-37841","Aaron-Gordon-18601","49700","289.33"
