"Kris-Dunn-35215","Bradley-Beal-13898","Otto-Porter-17069","Lauri-Markkanen-37809","Maxi-Kleber-37845","Zach-LaVine-18622","Khris-Middleton-13990","Marvin-Williams-1318","49800","272.55"

"Kris-Dunn-35215","Bradley-Beal-13898","Otto-Porter-17069","Lauri-Markkanen-37809","Maxi-Kleber-37845","Zach-LaVine-18622","Khris-Middleton-13990","Marvin-Williams-1318","49800","272.55"
"Kris-Dunn-35215","Bradley-Beal-13898","Otto-Porter-17069","Lauri-Markkanen-37809","Dwight-Powell-18566","Zach-LaVine-18622","Khris-Middleton-13990","Marvin-Williams-1318","50000","272.31"
"Kris-Dunn-35215","Bradley-Beal-13898","Khris-Middleton-13990","Lauri-Markkanen-37809","Maxi-Kleber-37845","Zach-LaVine-18622","Tim-Hardaway-Jr.-16879","Otto-Porter-17069","49800","272.3"
"Kris-Dunn-35215","Bradley-Beal-13898","Otto-Porter-17069","Lauri-Markkanen-37809","Dwight-Powell-18566","Tim-Hardaway-Jr.-16879","Khris-Middleton-13990","Zach-LaVine-18622","50000","272.06"
"Jrue-Holiday-1073","Bradley-Beal-13898","Otto-Porter-17069","Dorian-Finney-Smith-36032","Maxi-Kleber-37845","Zach-LaVine-18622","Lauri-Markkanen-37809","Marvin-Williams-1318","50000","271.55"
"Jrue-Holiday-1073","Bradley-Beal-13898","Otto-Porter-17069","Dorian-Finney-Smith-36032","Maxi-Kleber-37845","Tim-Hardaway-Jr.-16879","Lauri-Markkanen-37809","Zach-LaVine-18622","50000","271.3"
"Kemba-Walker-13335","Kris-Dunn-35215","Otto-Porter-17069","Lauri-Markkanen-37809","Maxi-Kleber-37845","Zach-LaVine-18622","Khris-Middleton-13990","Marvin-Williams-1318","50000","271.28"
"Jrue-Holiday-1073","Kris-Dunn-35215","Otto-Porter-17069","Lauri-Markkanen-37809","Dwight-Powell-18566","Zach-LaVine-18622","Khris-Middleton-13990","Maxi-Kleber-37845","49800","271.27"
"Zach-LaVine-18622","Bradley-Beal-13898","Otto-Porter-17069","Lauri-Markkanen-37809","Bobby-Portis-18909","Khris-Middleton-13990","Tim-Hardaway-Jr.-16879","Marvin-Williams-1318","49900","271.18"
"Jrue-Holiday-1073","Bradley-Beal-13898","Otto-Porter-17069","Marvin-Williams-1318","Maxi-Kleber-37845","Malik-Monk-37827","Lauri-Markkanen-37809","Zach-LaVine-18622","49900","271.1"
"Kris-Dunn-35215","Bradley-Beal-13898","Otto-Porter-17069","Lauri-Markkanen-37809","Bobby-Portis-18909","Zach-LaVine-18622","Tim-Hardaway-Jr.-16879","Marvin-Williams-1318","50000","271.07"
"Kemba-Walker-13335","Kris-Dunn-35215","Khris-Middleton-13990","Lauri-Markkanen-37809","Maxi-Kleber-37845","Zach-LaVine-18622","Tim-Hardaway-Jr.-16879","Otto-Porter-17069","50000","271.03"
"Jrue-Holiday-1073","Bradley-Beal-13898","Marvin-Williams-1318","Maxi-Kleber-37845","D.J.-Wilson-37822","Zach-LaVine-18622","Khris-Middleton-13990","Lauri-Markkanen-37809","50000","270.96"
"Jrue-Holiday-1073","Bradley-Beal-13898","Otto-Porter-17069","Marvin-Williams-1318","Maxi-Kleber-37845","Zach-LaVine-18622","Khris-Middleton-13990","Dwight-Powell-18566","50000","270.88"
"Jrue-Holiday-1073","Bradley-Beal-13898","Otto-Porter-17069","Lauri-Markkanen-37809","Maxi-Kleber-37845","Malik-Monk-37827","Tim-Hardaway-Jr.-16879","Zach-LaVine-18622","49900","270.85"
"Jrue-Holiday-1073","Bradley-Beal-13898","Khris-Middleton-13990","Lauri-Markkanen-37809","Maxi-Kleber-37845","Zach-LaVine-18622","Tim-Hardaway-Jr.-16879","D.J.-Wilson-37822","50000","270.71"
"Jrue-Holiday-1073","Bradley-Beal-13898","Marvin-Williams-1318","Darius-Miller-13951","Maxi-Kleber-37845","Zach-LaVine-18622","Tim-Hardaway-Jr.-16879","Lauri-Markkanen-37809","50000","270.68"
"Jrue-Holiday-1073","Bradley-Beal-13898","Khris-Middleton-13990","Maxi-Kleber-37845","Dwight-Powell-18566","Zach-LaVine-18622","Tim-Hardaway-Jr.-16879","Otto-Porter-17069","50000","270.63"
"Jrue-Holiday-1073","Khris-Middleton-13990","Marvin-Williams-1318","Lauri-Markkanen-37809","Maxi-Kleber-37845","Kris-Dunn-35215","Tomas-Satoransky--36031","Zach-LaVine-18622","50000","270.55"
"Jrue-Holiday-1073","Khris-Middleton-13990","Otto-Porter-17069","Marvin-Williams-1318","Maxi-Kleber-37845","Zach-LaVine-18622","Lauri-Markkanen-37809","Bobby-Portis-18909","49700","270.39"
"Jrue-Holiday-1073","Khris-Middleton-13990","Tim-Hardaway-Jr.-16879","Lauri-Markkanen-37809","Maxi-Kleber-37845","Kris-Dunn-35215","Tomas-Satoransky--36031","Zach-LaVine-18622","50000","270.3"
"Jrue-Holiday-1073","Kris-Dunn-35215","Otto-Porter-17069","Marvin-Williams-1318","Maxi-Kleber-37845","Zach-LaVine-18622","Lauri-Markkanen-37809","Bobby-Portis-18909","49800","270.28"
"Jrue-Holiday-1073","Khris-Middleton-13990","Otto-Porter-17069","Marvin-Williams-1318","Maxi-Kleber-37845","Zach-LaVine-18622","Trevor-Ariza-1323","Lauri-Markkanen-37809","49500","270.26"
"Jrue-Holiday-1073","Kris-Dunn-35215","Otto-Porter-17069","Marvin-Williams-1318","Maxi-Kleber-37845","Zach-LaVine-18622","Trevor-Ariza-1323","Lauri-Markkanen-37809","49600","270.15"
"Jrue-Holiday-1073","Khris-Middleton-13990","Otto-Porter-17069","Marvin-Williams-1318","Dwight-Powell-18566","Zach-LaVine-18622","Lauri-Markkanen-37809","Bobby-Portis-18909","49900","270.15"
"Jrue-Holiday-1073","Tim-Hardaway-Jr.-16879","Otto-Porter-17069","Maxi-Kleber-37845","Bobby-Portis-18909","Zach-LaVine-18622","Khris-Middleton-13990","Lauri-Markkanen-37809","49700","270.14"
"Jrue-Holiday-1073","Kris-Dunn-35215","Otto-Porter-17069","Marvin-Williams-1318","Dwight-Powell-18566","Zach-LaVine-18622","Lauri-Markkanen-37809","Bobby-Portis-18909","50000","270.04"
"Jrue-Holiday-1073","Malcolm-Brogdon-35195","Otto-Porter-17069","Lauri-Markkanen-37809","Maxi-Kleber-37845","Zach-LaVine-18622","Khris-Middleton-13990","Marvin-Williams-1318","49500","270.04"
"Jrue-Holiday-1073","Kris-Dunn-35215","Otto-Porter-17069","Lauri-Markkanen-37809","Bobby-Portis-18909","Zach-LaVine-18622","Tim-Hardaway-Jr.-16879","Maxi-Kleber-37845","49800","270.03"
"Jrue-Holiday-1073","Khris-Middleton-13990","Marvin-Williams-1318","Trevor-Ariza-1323","Dwight-Powell-18566","Zach-LaVine-18622","Lauri-Markkanen-37809","Otto-Porter-17069","49700","270.02"
"Jrue-Holiday-1073","Tim-Hardaway-Jr.-16879","Otto-Porter-17069","Lauri-Markkanen-37809","Maxi-Kleber-37845","Zach-LaVine-18622","Khris-Middleton-13990","Trevor-Ariza-1323","49500","270.01"
"Jordan-McRae-18772","Bradley-Beal-13898","Marvin-Williams-1318","Lauri-Markkanen-37809","Maxi-Kleber-37845","Jrue-Holiday-1073","Khris-Middleton-13990","Zach-LaVine-18622","50000","270.0"
"Jrue-Holiday-1073","Kris-Dunn-35215","Otto-Porter-17069","Marvin-Williams-1318","Maxi-Kleber-37845","Malcolm-Brogdon-35195","Lauri-Markkanen-37809","Zach-LaVine-18622","49600","269.93"
"Zach-LaVine-18622","Bradley-Beal-13898","Otto-Porter-17069","Lauri-Markkanen-37809","Maxi-Kleber-37845","Malcolm-Brogdon-35195","Khris-Middleton-13990","Trevor-Ariza-1323","49900","269.91"
"Jrue-Holiday-1073","Kris-Dunn-35215","Marvin-Williams-1318","Trevor-Ariza-1323","Dwight-Powell-18566","Zach-LaVine-18622","Lauri-Markkanen-37809","Otto-Porter-17069","49800","269.91"
"Jrue-Holiday-1073","Kris-Dunn-35215","Otto-Porter-17069","Lauri-Markkanen-37809","Maxi-Kleber-37845","Zach-LaVine-18622","Tim-Hardaway-Jr.-16879","Trevor-Ariza-1323","49600","269.9"
"Jrue-Holiday-1073","Khris-Middleton-13990","Otto-Porter-17069","Lauri-Markkanen-37809","Bobby-Portis-18909","Zach-LaVine-18622","Tim-Hardaway-Jr.-16879","Dwight-Powell-18566","49900","269.9"
"Kris-Dunn-35215","Bradley-Beal-13898","Marvin-Williams-1318","Lauri-Markkanen-37809","Bobby-Portis-18909","Zach-LaVine-18622","Khris-Middleton-13990","Maxi-Kleber-37845","49900","269.86"
"Jrue-Holiday-1073","Bradley-Beal-13898","Otto-Porter-17069","Lauri-Markkanen-37809","Maxi-Kleber-37845","Frank-Jackson-37855","Khris-Middleton-13990","Marvin-Williams-1318","50000","269.85"
"Jrue-Holiday-1073","Bradley-Beal-13898","Marvin-Williams-1318","Lauri-Markkanen-37809","Dwight-Powell-18566","Zach-LaVine-18622","Tim-Hardaway-Jr.-16879","Maxi-Kleber-37845","49700","269.84"
"Jrue-Holiday-1073","Malcolm-Brogdon-35195","Otto-Porter-17069","Lauri-Markkanen-37809","Dwight-Powell-18566","Zach-LaVine-18622","Khris-Middleton-13990","Marvin-Williams-1318","49700","269.8"
"Kris-Dunn-35215","Bradley-Beal-13898","Otto-Porter-17069","Trevor-Ariza-1323","Maxi-Kleber-37845","Malcolm-Brogdon-35195","Lauri-Markkanen-37809","Zach-LaVine-18622","50000","269.8"
"Jrue-Holiday-1073","Kris-Dunn-35215","Otto-Porter-17069","Lauri-Markkanen-37809","Bobby-Portis-18909","Zach-LaVine-18622","Tim-Hardaway-Jr.-16879","Dwight-Powell-18566","50000","269.79"
"Jrue-Holiday-1073","Malcolm-Brogdon-35195","Khris-Middleton-13990","Lauri-Markkanen-37809","Maxi-Kleber-37845","Zach-LaVine-18622","Tim-Hardaway-Jr.-16879","Otto-Porter-17069","49500","269.79"
"Jrue-Holiday-1073","Tim-Hardaway-Jr.-16879","Otto-Porter-17069","Lauri-Markkanen-37809","Dwight-Powell-18566","Zach-LaVine-18622","Khris-Middleton-13990","Trevor-Ariza-1323","49700","269.77"
"Jrue-Holiday-1073","Zach-LaVine-18622","Otto-Porter-17069","Marvin-Williams-1318","Maxi-Kleber-37845","Eric-Bledsoe-1031","Trevor-Ariza-1323","Lauri-Markkanen-37809","50000","269.76"
"Jordan-McRae-18772","Bradley-Beal-13898","Khris-Middleton-13990","Lauri-Markkanen-37809","Maxi-Kleber-37845","Jrue-Holiday-1073","Tim-Hardaway-Jr.-16879","Zach-LaVine-18622","50000","269.75"
"Kris-Dunn-35215","Bradley-Beal-13898","Marvin-Williams-1318","Trevor-Ariza-1323","Maxi-Kleber-37845","Zach-LaVine-18622","Khris-Middleton-13990","Lauri-Markkanen-37809","49700","269.73"
"Kris-Dunn-35215","Bradley-Beal-13898","Otto-Porter-17069","Darius-Miller-13951","Maxi-Kleber-37845","Zach-LaVine-18622","Khris-Middleton-13990","Lauri-Markkanen-37809","49700","269.71"
"Jrue-Holiday-1073","Kris-Dunn-35215","Otto-Porter-17069","Marvin-Williams-1318","Dwight-Powell-18566","Malcolm-Brogdon-35195","Lauri-Markkanen-37809","Zach-LaVine-18622","49800","269.69"
"Jrue-Holiday-1073","Kris-Dunn-35215","Otto-Porter-17069","Lauri-Markkanen-37809","Maxi-Kleber-37845","Malcolm-Brogdon-35195","Tim-Hardaway-Jr.-16879","Zach-LaVine-18622","49600","269.68"
"Jrue-Holiday-1073","Kris-Dunn-35215","Trevor-Ariza-1323","Lauri-Markkanen-37809","Dwight-Powell-18566","Zach-LaVine-18622","Tim-Hardaway-Jr.-16879","Otto-Porter-17069","49800","269.66"
"Jrue-Holiday-1073","Bradley-Beal-13898","Otto-Porter-17069","Marvin-Williams-1318","Maxi-Kleber-37845","Zach-LaVine-18622","Tim-Hardaway-Jr.-16879","Bobby-Portis-18909","50000","269.64"
"Kris-Dunn-35215","Bradley-Beal-13898","Khris-Middleton-13990","Maxi-Kleber-37845","Bobby-Portis-18909","Tim-Hardaway-Jr.-16879","Lauri-Markkanen-37809","Zach-LaVine-18622","49900","269.61"
"Jrue-Holiday-1073","Kris-Dunn-35215","Khris-Middleton-13990","Lauri-Markkanen-37809","Maxi-Kleber-37845","Zach-LaVine-18622","Tim-Hardaway-Jr.-16879","Marvin-Williams-1318","49300","269.61"
"Jrue-Holiday-1073","Bradley-Beal-13898","Khris-Middleton-13990","Lauri-Markkanen-37809","Maxi-Kleber-37845","Frank-Jackson-37855","Tim-Hardaway-Jr.-16879","Otto-Porter-17069","50000","269.6"
"Jrue-Holiday-1073","Bradley-Beal-13898","Marvin-Williams-1318","Darius-Miller-13951","D.J.-Wilson-37822","Zach-LaVine-18622","Lauri-Markkanen-37809","Otto-Porter-17069","50000","269.58"
"Jrue-Holiday-1073","Tim-Hardaway-Jr.-16879","Otto-Porter-17069","Lauri-Markkanen-37809","Dwight-Powell-18566","Malcolm-Brogdon-35195","Khris-Middleton-13990","Zach-LaVine-18622","49700","269.55"
"Jrue-Holiday-1073","Malcolm-Brogdon-35195","Otto-Porter-17069","Marvin-Williams-1318","Maxi-Kleber-37845","Eric-Bledsoe-1031","Lauri-Markkanen-37809","Zach-LaVine-18622","50000","269.54"
"Jrue-Holiday-1073","Bradley-Beal-13898","Otto-Porter-17069","Marvin-Williams-1318","Maxi-Kleber-37845","Tim-Hardaway-Jr.-16879","Trevor-Ariza-1323","Zach-LaVine-18622","49800","269.51"
"Kris-Dunn-35215","Bradley-Beal-13898","Marvin-Williams-1318","Lauri-Markkanen-37809","Maxi-Kleber-37845","Malcolm-Brogdon-35195","Khris-Middleton-13990","Zach-LaVine-18622","49700","269.51"
"Jrue-Holiday-1073","Zach-LaVine-18622","Otto-Porter-17069","Lauri-Markkanen-37809","Maxi-Kleber-37845","Eric-Bledsoe-1031","Tim-Hardaway-Jr.-16879","Trevor-Ariza-1323","50000","269.51"
"Kris-Dunn-35215","Bradley-Beal-13898","Marvin-Williams-1318","Trevor-Ariza-1323","Dwight-Powell-18566","Khris-Middleton-13990","Lauri-Markkanen-37809","Zach-LaVine-18622","49900","269.49"
"Kris-Dunn-35215","Bradley-Beal-13898","Khris-Middleton-13990","Lauri-Markkanen-37809","Maxi-Kleber-37845","Zach-LaVine-18622","Tim-Hardaway-Jr.-16879","Trevor-Ariza-1323","49700","269.48"
"Kris-Dunn-35215","Bradley-Beal-13898","Otto-Porter-17069","Lauri-Markkanen-37809","Dwight-Powell-18566","Zach-LaVine-18622","Khris-Middleton-13990","Darius-Miller-13951","49900","269.47"
"Jrue-Holiday-1073","Khris-Middleton-13990","Otto-Porter-17069","Harrison-Barnes-13901","Maxi-Kleber-37845","Zach-LaVine-18622","Lauri-Markkanen-37809","Marvin-Williams-1318","49500","269.45"
"Jrue-Holiday-1073","Kris-Dunn-35215","Otto-Porter-17069","Lauri-Markkanen-37809","Dwight-Powell-18566","Malcolm-Brogdon-35195","Tim-Hardaway-Jr.-16879","Zach-LaVine-18622","49800","269.44"
"Jrue-Holiday-1073","Bradley-Beal-13898","Marvin-Williams-1318","Lauri-Markkanen-37809","Maxi-Kleber-37845","Tim-Hardaway-Jr.-16879","Tomas-Satoransky--36031","Otto-Porter-17069","50000","269.42"
"Malik-Monk-37827","Khris-Middleton-13990","Otto-Porter-17069","Giannis-Antetokounmpo-16852","Maxi-Kleber-37845","Zach-LaVine-18622","Lauri-Markkanen-37809","Marvin-Williams-1318","50000","269.41"
"Jrue-Holiday-1073","Bradley-Beal-13898","Khris-Middleton-13990","Maxi-Kleber-37845","Dwight-Powell-18566","Malik-Monk-37827","Lauri-Markkanen-37809","Zach-LaVine-18622","50000","269.4"
"Jrue-Holiday-1073","Bradley-Beal-13898","Marvin-Williams-1318","Lauri-Markkanen-37809","Maxi-Kleber-37845","Zach-LaVine-18622","Khris-Middleton-13990","Miles-Bridges-409262","50000","269.4"
"Jrue-Holiday-1073","Bradley-Beal-13898","Marvin-Williams-1318","Maxi-Kleber-37845","Cheick-Diallo-35225","Zach-LaVine-18622","Lauri-Markkanen-37809","Otto-Porter-17069","49800","269.38"
"Jrue-Holiday-1073","Khris-Middleton-13990","Marvin-Williams-1318","Lauri-Markkanen-37809","Dwight-Powell-18566","Kris-Dunn-35215","Tim-Hardaway-Jr.-16879","Zach-LaVine-18622","49500","269.37"
"Kris-Dunn-35215","Bradley-Beal-13898","Khris-Middleton-13990","Lauri-Markkanen-37809","Maxi-Kleber-37845","Zach-LaVine-18622","Kenrich-Williams-570179","Otto-Porter-17069","49900","269.36"
"Jrue-Holiday-1073","Bradley-Beal-13898","Otto-Porter-17069","Marvin-Williams-1318","D.J.-Wilson-37822","Tim-Hardaway-Jr.-16879","Khris-Middleton-13990","Lauri-Markkanen-37809","49800","269.36"
"Jrue-Holiday-1073","Bradley-Beal-13898","Marvin-Williams-1318","Trevor-Ariza-1323","D.J.-Wilson-37822","Zach-LaVine-18622","Tim-Hardaway-Jr.-16879","Lauri-Markkanen-37809","50000","269.35"
"Jrue-Holiday-1073","Kris-Dunn-35215","Otto-Porter-17069","Harrison-Barnes-13901","Maxi-Kleber-37845","Zach-LaVine-18622","Lauri-Markkanen-37809","Marvin-Williams-1318","49600","269.34"
"Jrue-Holiday-1073","Bradley-Beal-13898","Otto-Porter-17069","Lauri-Markkanen-37809","D.J.-Wilson-37822","Zach-LaVine-18622","Tim-Hardaway-Jr.-16879","Darius-Miller-13951","50000","269.33"
"Jrue-Holiday-1073","Kris-Dunn-35215","Khris-Middleton-13990","Otto-Porter-17069","Maxi-Kleber-37845","Zach-LaVine-18622","Wayne-Selden-36045","Lauri-Markkanen-37809","49800","269.33"
"Zach-LaVine-18622","Bradley-Beal-13898","Otto-Porter-17069","Harrison-Barnes-13901","Maxi-Kleber-37845","Khris-Middleton-13990","Lauri-Markkanen-37809","Trevor-Ariza-1323","49900","269.32"
"Jrue-Holiday-1073","Khris-Middleton-13990","Darius-Miller-13951","Trevor-Ariza-1323","Maxi-Kleber-37845","Kris-Dunn-35215","Lauri-Markkanen-37809","Zach-LaVine-18622","50000","269.29"
"Jrue-Holiday-1073","Bradley-Beal-13898","Otto-Porter-17069","Marvin-Williams-1318","Maxi-Kleber-37845","Malcolm-Brogdon-35195","Tim-Hardaway-Jr.-16879","Zach-LaVine-18622","49800","269.29"
"Jrue-Holiday-1073","Malcolm-Brogdon-35195","Otto-Porter-17069","Lauri-Markkanen-37809","Maxi-Kleber-37845","Eric-Bledsoe-1031","Tim-Hardaway-Jr.-16879","Zach-LaVine-18622","50000","269.29"
"Jrue-Holiday-1073","Bradley-Beal-13898","Otto-Porter-17069","Marvin-Williams-1318","Dwight-Powell-18566","Zach-LaVine-18622","Tim-Hardaway-Jr.-16879","Trevor-Ariza-1323","50000","269.27"
"Kris-Dunn-35215","Bradley-Beal-13898","Marvin-Williams-1318","Lauri-Markkanen-37809","Dwight-Powell-18566","Malcolm-Brogdon-35195","Khris-Middleton-13990","Zach-LaVine-18622","49900","269.27"
"Kris-Dunn-35215","Bradley-Beal-13898","Khris-Middleton-13990","Lauri-Markkanen-37809","Maxi-Kleber-37845","Malcolm-Brogdon-35195","Tim-Hardaway-Jr.-16879","Zach-LaVine-18622","49700","269.26"
"Jrue-Holiday-1073","Bradley-Beal-13898","Otto-Porter-17069","Lauri-Markkanen-37809","D.J.-Wilson-37822","Kris-Dunn-35215","Tim-Hardaway-Jr.-16879","Marvin-Williams-1318","49900","269.25"
"Kris-Dunn-35215","Bradley-Beal-13898","Otto-Porter-17069","Lauri-Markkanen-37809","Maxi-Kleber-37845","Eric-Bledsoe-1031","Khris-Middleton-13990","Marvin-Williams-1318","50000","269.24"
"Kris-Dunn-35215","Bradley-Beal-13898","Khris-Middleton-13990","Trevor-Ariza-1323","Dwight-Powell-18566","Tim-Hardaway-Jr.-16879","Lauri-Markkanen-37809","Zach-LaVine-18622","49900","269.24"
"Jrue-Holiday-1073","Zach-LaVine-18622","Khris-Middleton-13990","Lauri-Markkanen-37809","Maxi-Kleber-37845","Eric-Bledsoe-1031","Tim-Hardaway-Jr.-16879","Marvin-Williams-1318","49700","269.22"
"Jrue-Holiday-1073","Khris-Middleton-13990","Otto-Porter-17069","Marvin-Williams-1318","Dwight-Powell-18566","Zach-LaVine-18622","Harrison-Barnes-13901","Lauri-Markkanen-37809","49700","269.21"
"Kris-Dunn-35215","Bradley-Beal-13898","Otto-Porter-17069","Harrison-Barnes-13901","Maxi-Kleber-37845","Zach-LaVine-18622","Lauri-Markkanen-37809","Trevor-Ariza-1323","50000","269.21"
"Jrue-Holiday-1073","Tim-Hardaway-Jr.-16879","Harrison-Barnes-13901","Lauri-Markkanen-37809","Maxi-Kleber-37845","Zach-LaVine-18622","Khris-Middleton-13990","Otto-Porter-17069","49500","269.2"
"Jrue-Holiday-1073","Kris-Dunn-35215","Otto-Porter-17069","Lauri-Markkanen-37809","D.J.-Wilson-37822","Zach-LaVine-18622","Khris-Middleton-13990","Tomas-Satoransky--36031","50000","269.2"
"Jrue-Holiday-1073","Kris-Dunn-35215","Khris-Middleton-13990","Otto-Porter-17069","Bobby-Portis-18909","Zach-LaVine-18622","Tim-Hardaway-Jr.-16879","Marvin-Williams-1318","49800","269.17"
"Malik-Monk-37827","Khris-Middleton-13990","Otto-Porter-17069","Giannis-Antetokounmpo-16852","Maxi-Kleber-37845","Tim-Hardaway-Jr.-16879","Lauri-Markkanen-37809","Zach-LaVine-18622","50000","269.16"
"Kris-Dunn-35215","Bradley-Beal-13898","Otto-Porter-17069","Lauri-Markkanen-37809","Maxi-Kleber-37845","Nicolas-Batum-1315","Khris-Middleton-13990","Zach-LaVine-18622","49900","269.16"
"Jrue-Holiday-1073","Bradley-Beal-13898","Khris-Middleton-13990","Miles-Bridges-409262","Maxi-Kleber-37845","Zach-LaVine-18622","Tim-Hardaway-Jr.-16879","Lauri-Markkanen-37809","50000","269.15"
"Jrue-Holiday-1073","Bradley-Beal-13898","Otto-Porter-17069","Marvin-Williams-1318","Dwight-Powell-18566","Zach-LaVine-18622","Lauri-Markkanen-37809","Cheick-Diallo-35225","50000","269.14"
"Jrue-Holiday-1073","Bradley-Beal-13898","Otto-Porter-17069","Lauri-Markkanen-37809","Cheick-Diallo-35225","Zach-LaVine-18622","Tim-Hardaway-Jr.-16879","Maxi-Kleber-37845","49800","269.13"
