"Russell-Westbrook-1083","Kevin-Huerter-408969","DeAndre-Bembry-35198","Bobby-Portis-18909","Draymond-Green-13976","Trae-Young-409063","Lauri-Markkanen-37809","Paul-Millsap-1335","50000","278.63"
"Cory-Joseph-13339","Kevin-Huerter-408969","DeAndre-Bembry-35198","Paul-Millsap-1335","John-Collins-37823","Trae-Young-409063","Lauri-Markkanen-37809","Russell-Westbrook-1083","50000","277.94"
"Cory-Joseph-13339","Kevin-Huerter-408969","DeAndre-Bembry-35198","Draymond-Green-13976","Deandre-Ayton-409301","Trae-Young-409063","Lauri-Markkanen-37809","Russell-Westbrook-1083","49900","277.76"
"Russell-Westbrook-1083","Kevin-Huerter-408969","DeAndre-Bembry-35198","Bobby-Portis-18909","Brook-Lopez-1498","Trae-Young-409063","Lauri-Markkanen-37809","John-Collins-37823","49900","277.58"
"Dennis-Schroder-18595","Kevin-Huerter-408969","DeAndre-Bembry-35198","Lauri-Markkanen-37809","John-Collins-37823","Trae-Young-409063","Paul-George-1245","Draymond-Green-13976","50000","277.16"

"Russell-Westbrook-1083","Kevin-Huerter-408969","DeAndre-Bembry-35198","Bobby-Portis-18909","Draymond-Green-13976","Trae-Young-409063","Lauri-Markkanen-37809","Paul-Millsap-1335","50000","278.63"
"Cory-Joseph-13339","Kevin-Huerter-408969","DeAndre-Bembry-35198","Paul-Millsap-1335","John-Collins-37823","Trae-Young-409063","Lauri-Markkanen-37809","Russell-Westbrook-1083","50000","277.94"
"Cory-Joseph-13339","Kevin-Huerter-408969","DeAndre-Bembry-35198","Draymond-Green-13976","Deandre-Ayton-409301","Trae-Young-409063","Lauri-Markkanen-37809","Russell-Westbrook-1083","49900","277.76"
"Russell-Westbrook-1083","Kevin-Huerter-408969","DeAndre-Bembry-35198","Bobby-Portis-18909","Brook-Lopez-1498","Trae-Young-409063","Lauri-Markkanen-37809","John-Collins-37823","49900","277.58"
"Dennis-Schroder-18595","Kevin-Huerter-408969","DeAndre-Bembry-35198","Lauri-Markkanen-37809","John-Collins-37823","Trae-Young-409063","Paul-George-1245","Draymond-Green-13976","50000","277.16"
"Russell-Westbrook-1083","Kevin-Huerter-408969","DeAndre-Bembry-35198","Draymond-Green-13976","Deandre-Ayton-409301","Trae-Young-409063","Lauri-Markkanen-37809","Jonas-Jerebko-1106","50000","277.14"
"Trae-Young-409063","Kevin-Huerter-408969","Paul-George-1245","Bobby-Portis-18909","John-Collins-37823","DeAndre-Bembry-35198","Lauri-Markkanen-37809","Deandre-Ayton-409301","49900","276.89"
"Russell-Westbrook-1083","Kevin-Huerter-408969","DeAndre-Bembry-35198","Omari-Spellman-408970","Draymond-Green-13976","Trae-Young-409063","Lauri-Markkanen-37809","Lonzo-Ball-37885","50000","276.76"
"Cory-Joseph-13339","Kevin-Huerter-408969","DeAndre-Bembry-35198","John-Collins-37823","Nikola-Jokic-31812","Trae-Young-409063","Draymond-Green-13976","Deandre-Ayton-409301","50000","276.76"
"Cory-Joseph-13339","Kevin-Huerter-408969","Paul-George-1245","Omari-Spellman-408970","Nikola-Jokic-31812","Trae-Young-409063","Draymond-Green-13976","Lauri-Markkanen-37809","50000","276.72"
"Trae-Young-409063","Kevin-Huerter-408969","Paul-George-1245","John-Collins-37823","JaVale-McGee-1485","DeAndre-Bembry-35198","Draymond-Green-13976","Lauri-Markkanen-37809","49900","276.29"
"Trae-Young-409063","Kevin-Huerter-408969","Paul-George-1245","John-Collins-37823","Steven-Adams-16848","DeAndre-Bembry-35198","Lauri-Markkanen-37809","Brook-Lopez-1498","50000","276.26"
"Russell-Westbrook-1083","DeAndre-Bembry-35198","Kevin-Huerter-408969","Paul-Millsap-1335","Bobby-Portis-18909","Trae-Young-409063","TJ-Warren-18634","Lauri-Markkanen-37809","49900","276.24"
"Cory-Joseph-13339","Kevin-Huerter-408969","DeAndre-Bembry-35198","Draymond-Green-13976","Steven-Adams-16848","Trae-Young-409063","Lauri-Markkanen-37809","Russell-Westbrook-1083","49800","276.24"
"Trae-Young-409063","Khris-Middleton-13990","Kevin-Huerter-408969","Lauri-Markkanen-37809","Paul-Millsap-1335","DeAndre-Bembry-35198","Paul-George-1245","Draymond-Green-13976","49900","276.17"
"Cory-Joseph-13339","DeAndre-Bembry-35198","Kevin-Huerter-408969","John-Collins-37823","Deandre-Ayton-409301","Trae-Young-409063","Lauri-Markkanen-37809","Nikola-Jokic-31812","49800","276.15"
"Cory-Joseph-13339","DeAndre-Bembry-35198","TJ-Warren-18634","Draymond-Green-13976","Nikola-Jokic-31812","Trae-Young-409063","Lauri-Markkanen-37809","Deandre-Ayton-409301","50000","276.14"
"Russell-Westbrook-1083","Klay-Thompson-13315","Kevin-Huerter-408969","Lauri-Markkanen-37809","Draymond-Green-13976","Trae-Young-409063","DeAndre-Bembry-35198","Omari-Spellman-408970","49900","276.13"
"Russell-Westbrook-1083","Brandon-Ingram-35227","Kevin-Huerter-408969","Lauri-Markkanen-37809","Draymond-Green-13976","Trae-Young-409063","DeAndre-Bembry-35198","Omari-Spellman-408970","49900","276.07"
"Cory-Joseph-13339","Jamal-Murray-35211","Kevin-Huerter-408969","Lauri-Markkanen-37809","Draymond-Green-13976","Trae-Young-409063","DeAndre-Bembry-35198","Russell-Westbrook-1083","50000","276.06"
"Cory-Joseph-13339","DeAndre-Bembry-35198","Paul-George-1245","Paul-Millsap-1335","Brook-Lopez-1498","Trae-Young-409063","Bobby-Portis-18909","Russell-Westbrook-1083","50000","276.06"
"Russell-Westbrook-1083","Khris-Middleton-13990","DeAndre-Bembry-35198","Omari-Spellman-408970","Brook-Lopez-1498","Trae-Young-409063","Draymond-Green-13976","Lauri-Markkanen-37809","50000","276.04"
"Russell-Westbrook-1083","Kevin-Huerter-408969","DeAndre-Bembry-35198","Omari-Spellman-408970","Deandre-Ayton-409301","Trae-Young-409063","John-Collins-37823","Bobby-Portis-18909","50000","276.04"
"Trae-Young-409063","Kevin-Huerter-408969","Paul-George-1245","Wendell-Carter-408878","John-Collins-37823","DeAndre-Bembry-35198","Lauri-Markkanen-37809","Draymond-Green-13976","49900","276.04"
"Cory-Joseph-13339","DeAndre-Bembry-35198","TJ-Warren-18634","Bobby-Portis-18909","John-Collins-37823","Trae-Young-409063","Lauri-Markkanen-37809","Russell-Westbrook-1083","49900","275.99"
"Cory-Joseph-13339","Kevin-Huerter-408969","DeAndre-Bembry-35198","Draymond-Green-13976","Deandre-Ayton-409301","Trae-Young-409063","TJ-Warren-18634","Russell-Westbrook-1083","50000","275.98"
"Trae-Young-409063","Kevin-Huerter-408969","Paul-George-1245","Bobby-Portis-18909","Steven-Adams-16848","DeAndre-Bembry-35198","Draymond-Green-13976","John-Collins-37823","50000","275.98"
"Cory-Joseph-13339","DeAndre-Bembry-35198","Paul-George-1245","Paul-Millsap-1335","John-Collins-37823","Trae-Young-409063","Lauri-Markkanen-37809","Deandre-Ayton-409301","49900","275.94"
"Cory-Joseph-13339","Khris-Middleton-13990","DeAndre-Bembry-35198","Lauri-Markkanen-37809","John-Collins-37823","Trae-Young-409063","Paul-George-1245","Draymond-Green-13976","49900","275.92"
"Trae-Young-409063","Kevin-Huerter-408969","Kyle-Kuzma-37886","Bobby-Portis-18909","Nikola-Jokic-31812","DeAndre-Bembry-35198","Draymond-Green-13976","Lauri-Markkanen-37809","50000","275.87"
"Dennis-Schroder-18595","Kevin-Huerter-408969","Paul-George-1245","Bobby-Portis-18909","John-Collins-37823","Trae-Young-409063","Lauri-Markkanen-37809","Draymond-Green-13976","50000","275.86"
"Russell-Westbrook-1083","Kevin-Huerter-408969","DeAndre-Bembry-35198","Paul-Millsap-1335","Steven-Adams-16848","Trae-Young-409063","Lauri-Markkanen-37809","Omari-Spellman-408970","50000","275.85"
"Dennis-Schroder-18595","DeAndre-Bembry-35198","Paul-George-1245","Draymond-Green-13976","Brook-Lopez-1498","Trae-Young-409063","Lauri-Markkanen-37809","John-Collins-37823","49900","275.85"
"Cory-Joseph-13339","Dennis-Schroder-18595","DeAndre-Bembry-35198","Draymond-Green-13976","Nikola-Jokic-31812","Trae-Young-409063","Paul-George-1245","Kevin-Huerter-408969","50000","275.85"
"Trae-Young-409063","Kevin-Huerter-408969","DeAndre-Bembry-35198","Lauri-Markkanen-37809","Draymond-Green-13976","Lonzo-Ball-37885","TJ-Warren-18634","Paul-George-1245","50000","275.83"
"Cory-Joseph-13339","DeAndre-Bembry-35198","Paul-George-1245","Omari-Spellman-408970","Nikola-Jokic-31812","Trae-Young-409063","Draymond-Green-13976","Lauri-Markkanen-37809","49700","275.82"
"Russell-Westbrook-1083","Kevin-Huerter-408969","DeAndre-Bembry-35198","Bobby-Portis-18909","Brook-Lopez-1498","Trae-Young-409063","TJ-Warren-18634","John-Collins-37823","50000","275.8"
"Trae-Young-409063","Kevin-Huerter-408969","Paul-George-1245","Paul-Millsap-1335","Brook-Lopez-1498","DeAndre-Bembry-35198","John-Collins-37823","Deandre-Ayton-409301","50000","275.75"
"Cory-Joseph-13339","DeAndre-Bembry-35198","Kevin-Huerter-408969","John-Collins-37823","Joel-Embiid-18578","Trae-Young-409063","Lauri-Markkanen-37809","Deandre-Ayton-409301","50000","275.75"
"Trae-Young-409063","Khris-Middleton-13990","DeAndre-Bembry-35198","John-Collins-37823","Nikola-Jokic-31812","Kevin-Huerter-408969","Lauri-Markkanen-37809","Omari-Spellman-408970","50000","275.74"
"Trae-Young-409063","Khris-Middleton-13990","Kevin-Huerter-408969","John-Collins-37823","Brook-Lopez-1498","DeAndre-Bembry-35198","Draymond-Green-13976","Paul-George-1245","50000","275.73"
"Cory-Joseph-13339","Kevin-Huerter-408969","DeAndre-Bembry-35198","Paul-Millsap-1335","Deandre-Ayton-409301","Trae-Young-409063","Draymond-Green-13976","Russell-Westbrook-1083","49800","275.73"
"Dennis-Schroder-18595","DeAndre-Bembry-35198","Kevin-Huerter-408969","Omari-Spellman-408970","John-Collins-37823","Trae-Young-409063","Lauri-Markkanen-37809","Russell-Westbrook-1083","49900","275.7"
"Cory-Joseph-13339","Dwyane-Wade-967","DeAndre-Bembry-35198","Draymond-Green-13976","Deandre-Ayton-409301","Trae-Young-409063","Lauri-Markkanen-37809","Russell-Westbrook-1083","50000","275.7"
"Cory-Joseph-13339","DeAndre-Bembry-35198","Kevin-Huerter-408969","Omari-Spellman-408970","Draymond-Green-13976","Trae-Young-409063","Paul-George-1245","Russell-Westbrook-1083","49700","275.66"
"Russell-Westbrook-1083","DeAndre-Bembry-35198","Kevin-Huerter-408969","Jonas-Jerebko-1106","Nikola-Jokic-31812","Trae-Young-409063","Bobby-Portis-18909","Brook-Lopez-1498","50000","275.65"
"Trae-Young-409063","Kevin-Huerter-408969","Paul-George-1245","Omari-Spellman-408970","Nikola-Jokic-31812","DeAndre-Bembry-35198","Draymond-Green-13976","Brook-Lopez-1498","49800","275.63"
"Russell-Westbrook-1083","Kevin-Huerter-408969","DeAndre-Bembry-35198","Draymond-Green-13976","Steven-Adams-16848","Trae-Young-409063","Lauri-Markkanen-37809","Jonas-Jerebko-1106","49900","275.62"
"Jeff-Teague-1005","Kevin-Huerter-408969","DeAndre-Bembry-35198","John-Collins-37823","Nikola-Jokic-31812","Trae-Young-409063","Lauri-Markkanen-37809","Bobby-Portis-18909","50000","275.61"
"Cory-Joseph-13339","Klay-Thompson-13315","Kevin-Huerter-408969","John-Collins-37823","Draymond-Green-13976","Trae-Young-409063","Paul-George-1245","Lauri-Markkanen-37809","50000","275.6"
"Cory-Joseph-13339","DeAndre-Bembry-35198","Kevin-Huerter-408969","Bobby-Portis-18909","Deandre-Ayton-409301","Trae-Young-409063","Paul-George-1245","Nikola-Jokic-31812","49900","275.58"
"Trae-Young-409063","DeAndre-Bembry-35198","Kevin-Huerter-408969","Lauri-Markkanen-37809","Paul-Millsap-1335","Lonzo-Ball-37885","Paul-George-1245","Draymond-Green-13976","49800","275.58"
"Russell-Westbrook-1083","Kevin-Huerter-408969","DeAndre-Bembry-35198","Paul-Millsap-1335","Brook-Lopez-1498","Trae-Young-409063","Bobby-Portis-18909","John-Collins-37823","49800","275.55"
"Russell-Westbrook-1083","DeAndre-Bembry-35198","TJ-Warren-18634","Paul-Millsap-1335","Brook-Lopez-1498","Trae-Young-409063","Draymond-Green-13976","Bobby-Portis-18909","50000","275.54"
"Cory-Joseph-13339","Brandon-Ingram-35227","Kevin-Huerter-408969","John-Collins-37823","Draymond-Green-13976","Trae-Young-409063","Paul-George-1245","Lauri-Markkanen-37809","50000","275.54"
"Russell-Westbrook-1083","Dwyane-Wade-967","DeAndre-Bembry-35198","Bobby-Portis-18909","Brook-Lopez-1498","Trae-Young-409063","Lauri-Markkanen-37809","John-Collins-37823","50000","275.52"
"Trae-Young-409063","Zach-LaVine-18622","Kevin-Huerter-408969","Lauri-Markkanen-37809","Paul-Millsap-1335","DeAndre-Bembry-35198","Paul-George-1245","Draymond-Green-13976","49900","275.48"
"Cory-Joseph-13339","DeAndre-Bembry-35198","Kyle-Kuzma-37886","Draymond-Green-13976","Brook-Lopez-1498","Trae-Young-409063","Lauri-Markkanen-37809","Russell-Westbrook-1083","50000","275.48"
"Russell-Westbrook-1083","DeAndre-Bembry-35198","Kevin-Huerter-408969","Paul-Millsap-1335","Brook-Lopez-1498","Trae-Young-409063","Lauri-Markkanen-37809","Jeff-Teague-1005","50000","275.47"
"Russell-Westbrook-1083","DeAndre-Bembry-35198","Kevin-Huerter-408969","Omari-Spellman-408970","Draymond-Green-13976","Trae-Young-409063","John-Collins-37823","JaVale-McGee-1485","50000","275.44"
"Russell-Westbrook-1083","Dennis-Schroder-18595","DeAndre-Bembry-35198","Paul-Millsap-1335","Omari-Spellman-408970","Trae-Young-409063","Lauri-Markkanen-37809","Draymond-Green-13976","49900","275.44"
"Cory-Joseph-13339","DeAndre-Bembry-35198","Paul-George-1245","Omari-Spellman-408970","Joel-Embiid-18578","Trae-Young-409063","Lauri-Markkanen-37809","Draymond-Green-13976","49900","275.42"
"Russell-Westbrook-1083","DeAndre-Bembry-35198","TJ-Warren-18634","Bobby-Portis-18909","Omari-Spellman-408970","Trae-Young-409063","Lauri-Markkanen-37809","Deandre-Ayton-409301","50000","275.42"
"Russell-Westbrook-1083","DeAndre-Bembry-35198","TJ-Warren-18634","Jonas-Jerebko-1106","Bobby-Portis-18909","Trae-Young-409063","Lauri-Markkanen-37809","John-Collins-37823","50000","275.37"
"Cory-Joseph-13339","Kevin-Huerter-408969","DeAndre-Bembry-35198","Lauri-Markkanen-37809","Deandre-Ayton-409301","Trae-Young-409063","TJ-Warren-18634","Russell-Westbrook-1083","49800","275.37"
"Russell-Westbrook-1083","Kevin-Huerter-408969","DeAndre-Bembry-35198","Bobby-Portis-18909","Brook-Lopez-1498","Trae-Young-409063","Draymond-Green-13976","Deandre-Ayton-409301","49700","275.37"
"Trae-Young-409063","Kevin-Huerter-408969","Paul-George-1245","Bobby-Portis-18909","John-Collins-37823","DeAndre-Bembry-35198","Lauri-Markkanen-37809","Steven-Adams-16848","49800","275.37"
"Trae-Young-409063","Khris-Middleton-13990","Paul-George-1245","Omari-Spellman-408970","Draymond-Green-13976","DeAndre-Bembry-35198","Lauri-Markkanen-37809","Deandre-Ayton-409301","50000","275.35"
"Russell-Westbrook-1083","Zach-LaVine-18622","DeAndre-Bembry-35198","Omari-Spellman-408970","Brook-Lopez-1498","Trae-Young-409063","Draymond-Green-13976","Lauri-Markkanen-37809","50000","275.35"
"Cory-Joseph-13339","DeAndre-Bembry-35198","Kevin-Huerter-408969","Lauri-Markkanen-37809","Paul-Millsap-1335","Russell-Westbrook-1083","Paul-George-1245","Bobby-Portis-18909","50000","275.35"
"Cory-Joseph-13339","DeAndre-Bembry-35198","Paul-George-1245","Omari-Spellman-408970","JaVale-McGee-1485","Trae-Young-409063","Lauri-Markkanen-37809","Russell-Westbrook-1083","50000","275.34"
"Russell-Westbrook-1083","Josh-Hart-37889","Kevin-Huerter-408969","Bobby-Portis-18909","Deandre-Ayton-409301","Trae-Young-409063","DeAndre-Bembry-35198","Lauri-Markkanen-37809","50000","275.33"
"Cory-Joseph-13339","DeAndre-Bembry-35198","Paul-George-1245","John-Collins-37823","Draymond-Green-13976","Trae-Young-409063","Lauri-Markkanen-37809","Lonzo-Ball-37885","49800","275.33"
"Russell-Westbrook-1083","Kevin-Huerter-408969","Khris-Middleton-13990","Paul-Millsap-1335","Draymond-Green-13976","Trae-Young-409063","Omari-Spellman-408970","DeAndre-Bembry-35198","50000","275.32"
"Trae-Young-409063","Khris-Middleton-13990","Paul-George-1245","Jonas-Jerebko-1106","Draymond-Green-13976","DeAndre-Bembry-35198","Lauri-Markkanen-37809","John-Collins-37823","50000","275.3"
"Dennis-Schroder-18595","DeAndre-Bembry-35198","Paul-George-1245","Omari-Spellman-408970","Nikola-Jokic-31812","Trae-Young-409063","Lauri-Markkanen-37809","Bobby-Portis-18909","50000","275.29"
"Josh-Hart-37889","Kevin-Huerter-408969","DeAndre-Bembry-35198","Lauri-Markkanen-37809","John-Collins-37823","Trae-Young-409063","Paul-George-1245","Draymond-Green-13976","49800","275.26"
"Cory-Joseph-13339","Kevin-Huerter-408969","Paul-George-1245","Omari-Spellman-408970","Brook-Lopez-1498","Trae-Young-409063","Draymond-Green-13976","Russell-Westbrook-1083","49900","275.25"
"Cory-Joseph-13339","Dennis-Schroder-18595","Kevin-Huerter-408969","Lauri-Markkanen-37809","Nikola-Jokic-31812","Trae-Young-409063","DeAndre-Bembry-35198","Paul-George-1245","49800","275.24"
"Cory-Joseph-13339","Kevin-Huerter-408969","DeAndre-Bembry-35198","John-Collins-37823","Nikola-Jokic-31812","Trae-Young-409063","Draymond-Green-13976","Steven-Adams-16848","49900","275.24"
"Trae-Young-409063","Kevin-Huerter-408969","TJ-Warren-18634","Paul-Millsap-1335","Nikola-Jokic-31812","DeAndre-Bembry-35198","John-Collins-37823","Bobby-Portis-18909","50000","275.24"
"Cory-Joseph-13339","Zach-LaVine-18622","DeAndre-Bembry-35198","Lauri-Markkanen-37809","John-Collins-37823","Trae-Young-409063","Paul-George-1245","Draymond-Green-13976","49900","275.23"
"Trae-Young-409063","Kevin-Huerter-408969","Paul-George-1245","Omari-Spellman-408970","Brook-Lopez-1498","DeAndre-Bembry-35198","Draymond-Green-13976","Joel-Embiid-18578","50000","275.23"
"Jeff-Teague-1005","DeAndre-Bembry-35198","Paul-George-1245","Draymond-Green-13976","Deandre-Ayton-409301","Trae-Young-409063","Lauri-Markkanen-37809","Bobby-Portis-18909","50000","275.22"
"Trae-Young-409063","Klay-Thompson-13315","DeAndre-Bembry-35198","Lauri-Markkanen-37809","Draymond-Green-13976","Kevin-Huerter-408969","TJ-Warren-18634","Paul-George-1245","49900","275.2"
"Trae-Young-409063","Kevin-Huerter-408969","DeAndre-Bembry-35198","Lauri-Markkanen-37809","John-Collins-37823","Jamal-Murray-35211","Paul-George-1245","Bobby-Portis-18909","50000","275.19"
"Russell-Westbrook-1083","DeAndre-Bembry-35198","Kevin-Huerter-408969","Omari-Spellman-408970","Draymond-Green-13976","Trae-Young-409063","John-Collins-37823","Wendell-Carter-408878","50000","275.19"
"Russell-Westbrook-1083","DeAndre-Bembry-35198","Kevin-Huerter-408969","Paul-Millsap-1335","Draymond-Green-13976","Trae-Young-409063","Bobby-Portis-18909","Jeff-Teague-1005","50000","275.19"
"Cory-Joseph-13339","Kevin-Huerter-408969","Kyle-Kuzma-37886","Lauri-Markkanen-37809","John-Collins-37823","Trae-Young-409063","DeAndre-Bembry-35198","Nikola-Jokic-31812","50000","275.18"
"Trae-Young-409063","Kevin-Huerter-408969","Paul-George-1245","Paul-Millsap-1335","Brook-Lopez-1498","Lonzo-Ball-37885","Lauri-Markkanen-37809","Draymond-Green-13976","50000","275.17"
"Russell-Westbrook-1083","Khris-Middleton-13990","DeAndre-Bembry-35198","Bobby-Portis-18909","Draymond-Green-13976","Trae-Young-409063","Omari-Spellman-408970","Lauri-Markkanen-37809","49800","275.15"
"Trae-Young-409063","Kevin-Huerter-408969","DeAndre-Bembry-35198","John-Collins-37823","Nikola-Jokic-31812","Lonzo-Ball-37885","Lauri-Markkanen-37809","Omari-Spellman-408970","49900","275.15"
"Trae-Young-409063","DeAndre-Bembry-35198","Kevin-Huerter-408969","John-Collins-37823","Brook-Lopez-1498","Lonzo-Ball-37885","Draymond-Green-13976","Paul-George-1245","49900","275.14"
"Cory-Joseph-13339","Kevin-Huerter-408969","Paul-George-1245","Draymond-Green-13976","Steven-Adams-16848","Trae-Young-409063","Lauri-Markkanen-37809","Deandre-Ayton-409301","50000","275.14"
"Trae-Young-409063","Kevin-Huerter-408969","DeAndre-Bembry-35198","Bobby-Portis-18909","Nikola-Jokic-31812","Jamal-Murray-35211","Draymond-Green-13976","Lauri-Markkanen-37809","49900","275.14"
"Brandon-Ingram-35227","Kevin-Huerter-408969","DeAndre-Bembry-35198","Lauri-Markkanen-37809","Draymond-Green-13976","Trae-Young-409063","TJ-Warren-18634","Paul-George-1245","49900","275.14"
"Dennis-Schroder-18595","DeAndre-Bembry-35198","Kevin-Huerter-408969","Paul-Millsap-1335","Draymond-Green-13976","Trae-Young-409063","John-Collins-37823","Paul-George-1245","49900","275.13"
"Dennis-Schroder-18595","Kevin-Huerter-408969","DeAndre-Bembry-35198","Bobby-Portis-18909","Omari-Spellman-408970","Trae-Young-409063","Paul-George-1245","Russell-Westbrook-1083","50000","275.13"
"Trae-Young-409063","Klay-Thompson-13315","Kevin-Huerter-408969","Omari-Spellman-408970","Draymond-Green-13976","DeAndre-Bembry-35198","John-Collins-37823","Nikola-Jokic-31812","50000","275.13"
"Cory-Joseph-13339","Dennis-Schroder-18595","Kevin-Huerter-408969","John-Collins-37823","Nikola-Jokic-31812","Trae-Young-409063","Lauri-Markkanen-37809","Draymond-Green-13976","49900","275.12"
