"Eric-Bledsoe-1031","Shabazz-Napier-18598","Dion-Waiters-13897","Blake-Griffin-1503","Karl-Anthony-Towns-18937","Dennis-Smith-Jr.-37847","Luke-Kennard-37814","Deandre-Ayton-409301","50000","293.39"

"Eric-Bledsoe-1031","Shabazz-Napier-18598","Dion-Waiters-13897","Blake-Griffin-1503","Karl-Anthony-Towns-18937","Dennis-Smith-Jr.-37847","Luke-Kennard-37814","Deandre-Ayton-409301","50000","293.39"
"Eric-Bledsoe-1031","Shabazz-Napier-18598","Dorian-Finney-Smith-36032","Blake-Griffin-1503","Deandre-Ayton-409301","Dennis-Smith-Jr.-37847","Luke-Kennard-37814","Karl-Anthony-Towns-18937","50000","293.33"
"Eric-Bledsoe-1031","D'Angelo-Russell-18947","Dorian-Finney-Smith-36032","Lauri-Markkanen-37809","Karl-Anthony-Towns-18937","Dennis-Smith-Jr.-37847","Dion-Waiters-13897","Collin-Sexton-408896","50000","292.66"
"Dennis-Smith-Jr.-37847","Shabazz-Napier-18598","Dion-Waiters-13897","Blake-Griffin-1503","Karl-Anthony-Towns-18937","Collin-Sexton-408896","Luke-Kennard-37814","Andre-Drummond-13904","49900","292.49"
"Dennis-Smith-Jr.-37847","Shabazz-Napier-18598","Dorian-Finney-Smith-36032","Blake-Griffin-1503","Andre-Drummond-13904","Collin-Sexton-408896","Luke-Kennard-37814","Karl-Anthony-Towns-18937","49900","292.43"
"Eric-Bledsoe-1031","D'Angelo-Russell-18947","Tim-Hardaway-Jr.-16879","Dorian-Finney-Smith-36032","Deandre-Ayton-409301","Dennis-Smith-Jr.-37847","Dion-Waiters-13897","Karl-Anthony-Towns-18937","49900","292.36"
"D'Angelo-Russell-18947","Dion-Waiters-13897","Tim-Hardaway-Jr.-16879","Lauri-Markkanen-37809","Karl-Anthony-Towns-18937","Dennis-Smith-Jr.-37847","Luke-Kennard-37814","Eric-Bledsoe-1031","50000","292.25"
"Eric-Bledsoe-1031","Dion-Waiters-13897","Dorian-Finney-Smith-36032","Blake-Griffin-1503","Andre-Drummond-13904","Collin-Sexton-408896","Luke-Kennard-37814","Karl-Anthony-Towns-18937","50000","292.24"
"Dennis-Smith-Jr.-37847","Shabazz-Napier-18598","Dion-Waiters-13897","Lauri-Markkanen-37809","Joel-Embiid-18578","Collin-Sexton-408896","Luke-Kennard-37814","Karl-Anthony-Towns-18937","50000","292.23"
"Eric-Bledsoe-1031","D'Angelo-Russell-18947","Tim-Hardaway-Jr.-16879","Lauri-Markkanen-37809","Karl-Anthony-Towns-18937","Dennis-Smith-Jr.-37847","Luke-Kennard-37814","Dorian-Finney-Smith-36032","50000","292.19"
"Dennis-Smith-Jr.-37847","Shabazz-Napier-18598","Dorian-Finney-Smith-36032","Lauri-Markkanen-37809","Joel-Embiid-18578","Collin-Sexton-408896","Luke-Kennard-37814","Karl-Anthony-Towns-18937","50000","292.17"
"Dennis-Smith-Jr.-37847","D'Angelo-Russell-18947","Justise-Winslow-18921","Dorian-Finney-Smith-36032","Andre-Drummond-13904","Collin-Sexton-408896","Luke-Kennard-37814","Karl-Anthony-Towns-18937","50000","291.9"
"Eric-Bledsoe-1031","D'Angelo-Russell-18947","Tim-Hardaway-Jr.-16879","Dwight-Powell-18566","Karl-Anthony-Towns-18937","Dennis-Smith-Jr.-37847","Luke-Kennard-37814","Deandre-Ayton-409301","50000","291.89"
"D'Angelo-Russell-18947","Jordan-Clarkson-18631","Dion-Waiters-13897","Blake-Griffin-1503","Karl-Anthony-Towns-18937","Dennis-Smith-Jr.-37847","Luke-Kennard-37814","Collin-Sexton-408896","50000","291.85"
"D'Angelo-Russell-18947","Jordan-Clarkson-18631","Dorian-Finney-Smith-36032","Blake-Griffin-1503","Karl-Anthony-Towns-18937","Dennis-Smith-Jr.-37847","Luke-Kennard-37814","Collin-Sexton-408896","50000","291.79"
"Eric-Bledsoe-1031","Luke-Kennard-37814","Dorian-Finney-Smith-36032","Lauri-Markkanen-37809","Andre-Drummond-13904","Dennis-Smith-Jr.-37847","Dion-Waiters-13897","Joel-Embiid-18578","50000","291.78"
"Dennis-Smith-Jr.-37847","D'Angelo-Russell-18947","Dion-Waiters-13897","Blake-Griffin-1503","Andre-Drummond-13904","Collin-Sexton-408896","Luke-Kennard-37814","Deandre-Ayton-409301","49900","291.74"
"Dennis-Smith-Jr.-37847","D'Angelo-Russell-18947","Dorian-Finney-Smith-36032","Blake-Griffin-1503","Andre-Drummond-13904","Collin-Sexton-408896","Luke-Kennard-37814","Deandre-Ayton-409301","49900","291.68"
"Eric-Bledsoe-1031","D'Angelo-Russell-18947","Dion-Waiters-13897","Lauri-Markkanen-37809","Karl-Anthony-Towns-18937","Dennis-Smith-Jr.-37847","Luke-Kennard-37814","Collin-Sexton-408896","49600","291.65"
"Eric-Bledsoe-1031","D'Angelo-Russell-18947","Sterling-Brown-37821","Dorian-Finney-Smith-36032","Karl-Anthony-Towns-18937","Dennis-Smith-Jr.-37847","Luke-Kennard-37814","Andre-Drummond-13904","49900","291.65"
"D'Angelo-Russell-18947","Shabazz-Napier-18598","Dion-Waiters-13897","Lauri-Markkanen-37809","Karl-Anthony-Towns-18937","Dennis-Smith-Jr.-37847","Luke-Kennard-37814","Eric-Bledsoe-1031","49800","291.63"
"Eric-Bledsoe-1031","Luke-Kennard-37814","Justise-Winslow-18921","Dorian-Finney-Smith-36032","Joel-Embiid-18578","Dennis-Smith-Jr.-37847","Dion-Waiters-13897","Karl-Anthony-Towns-18937","49900","291.6"
"Eric-Bledsoe-1031","D'Angelo-Russell-18947","Dorian-Finney-Smith-36032","Lauri-Markkanen-37809","Karl-Anthony-Towns-18937","Dennis-Smith-Jr.-37847","Luke-Kennard-37814","Collin-Sexton-408896","49600","291.59"
"D'Angelo-Russell-18947","Shabazz-Napier-18598","Dorian-Finney-Smith-36032","Lauri-Markkanen-37809","Karl-Anthony-Towns-18937","Dennis-Smith-Jr.-37847","Luke-Kennard-37814","Eric-Bledsoe-1031","49800","291.57"
"Dennis-Smith-Jr.-37847","D'Angelo-Russell-18947","Tim-Hardaway-Jr.-16879","Dorian-Finney-Smith-36032","Joel-Embiid-18578","Collin-Sexton-408896","Luke-Kennard-37814","Andre-Drummond-13904","50000","291.54"
"Dennis-Smith-Jr.-37847","D'Angelo-Russell-18947","Dion-Waiters-13897","Lauri-Markkanen-37809","Joel-Embiid-18578","Collin-Sexton-408896","Luke-Kennard-37814","Deandre-Ayton-409301","50000","291.48"
"D'Angelo-Russell-18947","Josh-Richardson-18922","Dion-Waiters-13897","Dorian-Finney-Smith-36032","Karl-Anthony-Towns-18937","Dennis-Smith-Jr.-37847","Luke-Kennard-37814","Andre-Drummond-13904","50000","291.47"
"Dennis-Smith-Jr.-37847","D'Angelo-Russell-18947","Tim-Hardaway-Jr.-16879","Dorian-Finney-Smith-36032","Karl-Anthony-Towns-18937","Collin-Sexton-408896","Dion-Waiters-13897","Andre-Drummond-13904","49800","291.46"
"Eric-Bledsoe-1031","Malcolm-Brogdon-35195","Dion-Waiters-13897","Dorian-Finney-Smith-36032","Karl-Anthony-Towns-18937","Dennis-Smith-Jr.-37847","Luke-Kennard-37814","Joel-Embiid-18578","50000","291.44"
"D'Angelo-Russell-18947","Shabazz-Napier-18598","Tim-Hardaway-Jr.-16879","Dorian-Finney-Smith-36032","Karl-Anthony-Towns-18937","Dennis-Smith-Jr.-37847","Dion-Waiters-13897","Andre-Drummond-13904","50000","291.44"
"Dennis-Smith-Jr.-37847","D'Angelo-Russell-18947","Dorian-Finney-Smith-36032","Lauri-Markkanen-37809","Joel-Embiid-18578","Collin-Sexton-408896","Luke-Kennard-37814","Deandre-Ayton-409301","50000","291.42"
"Eric-Bledsoe-1031","Shabazz-Napier-18598","Josh-Jackson-37890","Blake-Griffin-1503","Karl-Anthony-Towns-18937","Dennis-Smith-Jr.-37847","Luke-Kennard-37814","Collin-Sexton-408896","50000","291.4"
"Eric-Bledsoe-1031","Dion-Waiters-13897","Dorian-Finney-Smith-36032","Blake-Griffin-1503","Deandre-Ayton-409301","Dennis-Smith-Jr.-37847","Luke-Kennard-37814","Joel-Embiid-18578","49800","291.38"
"Eric-Bledsoe-1031","Joe-Harris-18587","Dion-Waiters-13897","Blake-Griffin-1503","Karl-Anthony-Towns-18937","Dennis-Smith-Jr.-37847","Luke-Kennard-37814","Deandre-Ayton-409301","49900","291.37"
"Dennis-Smith-Jr.-37847","D'Angelo-Russell-18947","Dorian-Finney-Smith-36032","Lauri-Markkanen-37809","Deandre-Ayton-409301","Collin-Sexton-408896","Dion-Waiters-13897","Karl-Anthony-Towns-18937","49800","291.34"
"Eric-Bledsoe-1031","D'Angelo-Russell-18947","Tony-Snell-16872","Dorian-Finney-Smith-36032","Andre-Drummond-13904","Dennis-Smith-Jr.-37847","Luke-Kennard-37814","Karl-Anthony-Towns-18937","50000","291.34"
"D'Angelo-Russell-18947","Shabazz-Napier-18598","Dorian-Finney-Smith-36032","Blake-Griffin-1503","Karl-Anthony-Towns-18937","Dennis-Smith-Jr.-37847","Dion-Waiters-13897","Collin-Sexton-408896","49900","291.34"
"D'Angelo-Russell-18947","Shabazz-Napier-18598","Dorian-Finney-Smith-36032","Lauri-Markkanen-37809","Deandre-Ayton-409301","Dennis-Smith-Jr.-37847","Dion-Waiters-13897","Karl-Anthony-Towns-18937","50000","291.32"
"Eric-Bledsoe-1031","Joe-Harris-18587","Dorian-Finney-Smith-36032","Blake-Griffin-1503","Deandre-Ayton-409301","Dennis-Smith-Jr.-37847","Luke-Kennard-37814","Karl-Anthony-Towns-18937","49900","291.31"
"Eric-Bledsoe-1031","D'Angelo-Russell-18947","Tim-Hardaway-Jr.-16879","Dorian-Finney-Smith-36032","Karl-Anthony-Towns-18937","Dennis-Smith-Jr.-37847","Luke-Kennard-37814","Deandre-Ayton-409301","49500","291.29"
"Eric-Bledsoe-1031","Dion-Waiters-13897","Luke-Kennard-37814","Lauri-Markkanen-37809","Karl-Anthony-Towns-18937","Dennis-Smith-Jr.-37847","Dwight-Powell-18566","Andre-Drummond-13904","49900","291.23"
"Eric-Bledsoe-1031","D'Angelo-Russell-18947","Dion-Waiters-13897","Jeff-Green-1314","Karl-Anthony-Towns-18937","Dennis-Smith-Jr.-37847","Luke-Kennard-37814","Deandre-Ayton-409301","49900","291.21"
"Eric-Bledsoe-1031","Luke-Kennard-37814","Dorian-Finney-Smith-36032","Lauri-Markkanen-37809","Andre-Drummond-13904","Dennis-Smith-Jr.-37847","Dwight-Powell-18566","Karl-Anthony-Towns-18937","49900","291.17"
"Eric-Bledsoe-1031","Luke-Kennard-37814","Tim-Hardaway-Jr.-16879","Dorian-Finney-Smith-36032","Joel-Embiid-18578","Dennis-Smith-Jr.-37847","Joe-Harris-18587","Karl-Anthony-Towns-18937","50000","291.17"
"Eric-Bledsoe-1031","D'Angelo-Russell-18947","Dorian-Finney-Smith-36032","Jeff-Green-1314","Karl-Anthony-Towns-18937","Dennis-Smith-Jr.-37847","Luke-Kennard-37814","Deandre-Ayton-409301","49900","291.15"
"D'Angelo-Russell-18947","Andrew-Wiggins-18620","Dion-Waiters-13897","Dorian-Finney-Smith-36032","Karl-Anthony-Towns-18937","Dennis-Smith-Jr.-37847","Luke-Kennard-37814","Andre-Drummond-13904","49900","291.13"
"Eric-Bledsoe-1031","Dion-Waiters-13897","Dorian-Finney-Smith-36032","Blake-Griffin-1503","Karl-Anthony-Towns-18937","Dennis-Smith-Jr.-37847","Luke-Kennard-37814","Lauri-Markkanen-37809","49700","291.13"
"D'Angelo-Russell-18947","Jordan-Clarkson-18631","Dion-Waiters-13897","Dorian-Finney-Smith-36032","Karl-Anthony-Towns-18937","Eric-Bledsoe-1031","Luke-Kennard-37814","Andre-Drummond-13904","50000","291.08"
"Eric-Bledsoe-1031","Shabazz-Napier-18598","Dorian-Finney-Smith-36032","Dwight-Powell-18566","Karl-Anthony-Towns-18937","Dennis-Smith-Jr.-37847","Dion-Waiters-13897","Joel-Embiid-18578","50000","291.08"
"D'Angelo-Russell-18947","Luke-Kennard-37814","Josh-Jackson-37890","Dorian-Finney-Smith-36032","Karl-Anthony-Towns-18937","Dennis-Smith-Jr.-37847","Dion-Waiters-13897","Andre-Drummond-13904","49800","291.05"
"Eric-Bledsoe-1031","Jordan-Clarkson-18631","Dion-Waiters-13897","Dorian-Finney-Smith-36032","Karl-Anthony-Towns-18937","Dennis-Smith-Jr.-37847","Luke-Kennard-37814","Joel-Embiid-18578","49600","290.99"
"Dennis-Smith-Jr.-37847","D'Angelo-Russell-18947","Tim-Hardaway-Jr.-16879","Dwight-Powell-18566","Karl-Anthony-Towns-18937","Collin-Sexton-408896","Luke-Kennard-37814","Andre-Drummond-13904","49900","290.99"
"D'Angelo-Russell-18947","Dion-Waiters-13897","Tim-Hardaway-Jr.-16879","Blake-Griffin-1503","Karl-Anthony-Towns-18937","Dennis-Smith-Jr.-37847","Luke-Kennard-37814","Collin-Sexton-408896","49700","290.95"
"D'Angelo-Russell-18947","Luke-Kennard-37814","Dorian-Finney-Smith-36032","Otto-Porter-17069","Karl-Anthony-Towns-18937","Dennis-Smith-Jr.-37847","Dion-Waiters-13897","Blake-Griffin-1503","50000","290.94"
"Dennis-Smith-Jr.-37847","Dion-Waiters-13897","Dorian-Finney-Smith-36032","Dwight-Powell-18566","Andre-Drummond-13904","Collin-Sexton-408896","Blake-Griffin-1503","Karl-Anthony-Towns-18937","50000","290.94"
"D'Angelo-Russell-18947","Dion-Waiters-13897","Tim-Hardaway-Jr.-16879","Lauri-Markkanen-37809","Karl-Anthony-Towns-18937","Dennis-Smith-Jr.-37847","Luke-Kennard-37814","Deandre-Ayton-409301","49800","290.93"
"D'Angelo-Russell-18947","Shabazz-Napier-18598","Tim-Hardaway-Jr.-16879","Blake-Griffin-1503","Karl-Anthony-Towns-18937","Dennis-Smith-Jr.-37847","Luke-Kennard-37814","Dion-Waiters-13897","49900","290.93"
"D'Angelo-Russell-18947","Dion-Waiters-13897","Sterling-Brown-37821","Blake-Griffin-1503","Deandre-Ayton-409301","Dennis-Smith-Jr.-37847","Luke-Kennard-37814","Karl-Anthony-Towns-18937","50000","290.89"
"Eric-Bledsoe-1031","Shabazz-Napier-18598","Tim-Hardaway-Jr.-16879","Otto-Porter-17069","Karl-Anthony-Towns-18937","Dennis-Smith-Jr.-37847","Luke-Kennard-37814","Andre-Drummond-13904","50000","290.89"
"Dennis-Smith-Jr.-37847","D'Angelo-Russell-18947","Tim-Hardaway-Jr.-16879","Blake-Griffin-1503","Karl-Anthony-Towns-18937","Collin-Sexton-408896","Luke-Kennard-37814","Dorian-Finney-Smith-36032","49700","290.89"
"D'Angelo-Russell-18947","Shabazz-Napier-18598","Tim-Hardaway-Jr.-16879","Blake-Griffin-1503","Karl-Anthony-Towns-18937","Dennis-Smith-Jr.-37847","Luke-Kennard-37814","Dorian-Finney-Smith-36032","49900","290.87"
"Dennis-Smith-Jr.-37847","D'Angelo-Russell-18947","Luke-Kennard-37814","Lauri-Markkanen-37809","Karl-Anthony-Towns-18937","Collin-Sexton-408896","Dwight-Powell-18566","Deandre-Ayton-409301","49900","290.87"
"D'Angelo-Russell-18947","Shabazz-Napier-18598","Luke-Kennard-37814","Dwight-Powell-18566","Karl-Anthony-Towns-18937","Dennis-Smith-Jr.-37847","Blake-Griffin-1503","Collin-Sexton-408896","50000","290.87"
"D'Angelo-Russell-18947","Luke-Kennard-37814","Tim-Hardaway-Jr.-16879","Lauri-Markkanen-37809","Karl-Anthony-Towns-18937","Dennis-Smith-Jr.-37847","Dorian-Finney-Smith-36032","Deandre-Ayton-409301","49800","290.87"
"D'Angelo-Russell-18947","Sterling-Brown-37821","Dorian-Finney-Smith-36032","Blake-Griffin-1503","Deandre-Ayton-409301","Dennis-Smith-Jr.-37847","Luke-Kennard-37814","Karl-Anthony-Towns-18937","50000","290.83"
"Jordan-Clarkson-18631","Dion-Waiters-13897","Dorian-Finney-Smith-36032","Blake-Griffin-1503","Andre-Drummond-13904","Dennis-Smith-Jr.-37847","Luke-Kennard-37814","Karl-Anthony-Towns-18937","49800","290.83"
"Eric-Bledsoe-1031","Luke-Kennard-37814","Dion-Waiters-13897","Dwight-Powell-18566","Deandre-Ayton-409301","Dennis-Smith-Jr.-37847","Blake-Griffin-1503","Karl-Anthony-Towns-18937","49700","290.83"
"Eric-Bledsoe-1031","Shabazz-Napier-18598","Otto-Porter-17069","Blake-Griffin-1503","Karl-Anthony-Towns-18937","Dennis-Smith-Jr.-37847","Luke-Kennard-37814","Collin-Sexton-408896","49900","290.79"
"Eric-Bledsoe-1031","Luke-Kennard-37814","Dorian-Finney-Smith-36032","Dwight-Powell-18566","Deandre-Ayton-409301","Dennis-Smith-Jr.-37847","Blake-Griffin-1503","Karl-Anthony-Towns-18937","49700","290.77"
"Eric-Bledsoe-1031","Shabazz-Napier-18598","Otto-Porter-17069","Lauri-Markkanen-37809","Karl-Anthony-Towns-18937","Dennis-Smith-Jr.-37847","Luke-Kennard-37814","Deandre-Ayton-409301","50000","290.77"
"Eric-Bledsoe-1031","D'Angelo-Russell-18947","Dion-Waiters-13897","Dorian-Finney-Smith-36032","Joel-Embiid-18578","Collin-Sexton-408896","Luke-Kennard-37814","Andre-Drummond-13904","49900","290.73"
"Dennis-Smith-Jr.-37847","Luke-Kennard-37814","Josh-Jackson-37890","Blake-Griffin-1503","Karl-Anthony-Towns-18937","Collin-Sexton-408896","Tim-Hardaway-Jr.-16879","Deandre-Ayton-409301","50000","290.7"
"Eric-Bledsoe-1031","Dion-Waiters-13897","Tim-Hardaway-Jr.-16879","Dwight-Powell-18566","Karl-Anthony-Towns-18937","Dennis-Smith-Jr.-37847","Luke-Kennard-37814","Joel-Embiid-18578","49800","290.69"
"D'Angelo-Russell-18947","Dion-Waiters-13897","Tim-Hardaway-Jr.-16879","Blake-Griffin-1503","Karl-Anthony-Towns-18937","Eric-Bledsoe-1031","Luke-Kennard-37814","Dorian-Finney-Smith-36032","50000","290.68"
"Shabazz-Napier-18598","Dion-Waiters-13897","Dorian-Finney-Smith-36032","Blake-Griffin-1503","Karl-Anthony-Towns-18937","Collin-Sexton-408896","Luke-Kennard-37814","Joel-Embiid-18578","50000","290.66"
"Eric-Bledsoe-1031","D'Angelo-Russell-18947","Joe-Harris-18587","Dorian-Finney-Smith-36032","Andre-Drummond-13904","Collin-Sexton-408896","Luke-Kennard-37814","Karl-Anthony-Towns-18937","50000","290.66"
"Eric-Bledsoe-1031","D'Angelo-Russell-18947","Josh-Jackson-37890","Blake-Griffin-1503","Deandre-Ayton-409301","Dennis-Smith-Jr.-37847","Luke-Kennard-37814","Collin-Sexton-408896","50000","290.65"
"Eric-Bledsoe-1031","D'Angelo-Russell-18947","Luke-Kennard-37814","Lauri-Markkanen-37809","Karl-Anthony-Towns-18937","Dennis-Smith-Jr.-37847","Maxi-Kleber-37845","Collin-Sexton-408896","49900","290.64"
"Eric-Bledsoe-1031","Tim-Hardaway-Jr.-16879","Dorian-Finney-Smith-36032","Dwight-Powell-18566","Karl-Anthony-Towns-18937","Dennis-Smith-Jr.-37847","Luke-Kennard-37814","Joel-Embiid-18578","49800","290.63"
"Eric-Bledsoe-1031","Luke-Kennard-37814","Dorian-Finney-Smith-36032","Lauri-Markkanen-37809","Andre-Drummond-13904","Dennis-Smith-Jr.-37847","Dion-Waiters-13897","Karl-Anthony-Towns-18937","49400","290.63"
"Eric-Bledsoe-1031","Jamal-Murray-35211","Dorian-Finney-Smith-36032","Blake-Griffin-1503","Karl-Anthony-Towns-18937","Dennis-Smith-Jr.-37847","Dion-Waiters-13897","Collin-Sexton-408896","50000","290.62"
"Jordan-Clarkson-18631","Dion-Waiters-13897","Dorian-Finney-Smith-36032","Lauri-Markkanen-37809","Joel-Embiid-18578","Dennis-Smith-Jr.-37847","Luke-Kennard-37814","Karl-Anthony-Towns-18937","49900","290.57"
"Eric-Bledsoe-1031","Shabazz-Napier-18598","Joe-Harris-18587","Dorian-Finney-Smith-36032","Joel-Embiid-18578","Dennis-Smith-Jr.-37847","Luke-Kennard-37814","Karl-Anthony-Towns-18937","49800","290.55"
"Dennis-Smith-Jr.-37847","Tim-Hardaway-Jr.-16879","Luke-Kennard-37814","Dwight-Powell-18566","Andre-Drummond-13904","Dion-Waiters-13897","Blake-Griffin-1503","Karl-Anthony-Towns-18937","50000","290.53"
"Dennis-Smith-Jr.-37847","Shabazz-Napier-18598","Josh-Richardson-18922","Blake-Griffin-1503","Karl-Anthony-Towns-18937","Collin-Sexton-408896","Luke-Kennard-37814","Deandre-Ayton-409301","50000","290.5"
"Dennis-Smith-Jr.-37847","Shabazz-Napier-18598","Josh-Jackson-37890","Lauri-Markkanen-37809","Andre-Drummond-13904","Collin-Sexton-408896","Luke-Kennard-37814","Karl-Anthony-Towns-18937","50000","290.48"
"Dennis-Smith-Jr.-37847","Dion-Waiters-13897","Dorian-Finney-Smith-36032","Blake-Griffin-1503","Andre-Drummond-13904","Collin-Sexton-408896","Luke-Kennard-37814","Joel-Embiid-18578","49700","290.48"
"D'Angelo-Russell-18947","Dion-Waiters-13897","Luke-Kennard-37814","Dwight-Powell-18566","Andre-Drummond-13904","Dennis-Smith-Jr.-37847","Blake-Griffin-1503","Eric-Bledsoe-1031","50000","290.48"
"Dennis-Smith-Jr.-37847","Joe-Harris-18587","Dion-Waiters-13897","Blake-Griffin-1503","Karl-Anthony-Towns-18937","Collin-Sexton-408896","Luke-Kennard-37814","Andre-Drummond-13904","49800","290.47"
"Dennis-Smith-Jr.-37847","Tim-Hardaway-Jr.-16879","Dorian-Finney-Smith-36032","Dwight-Powell-18566","Andre-Drummond-13904","Luke-Kennard-37814","Blake-Griffin-1503","Karl-Anthony-Towns-18937","50000","290.47"
"Shabazz-Napier-18598","Dion-Waiters-13897","Dorian-Finney-Smith-36032","Blake-Griffin-1503","Andre-Drummond-13904","Dennis-Smith-Jr.-37847","Luke-Kennard-37814","Joel-Embiid-18578","49900","290.46"
"Eric-Bledsoe-1031","D'Angelo-Russell-18947","Andrew-Wiggins-18620","Dorian-Finney-Smith-36032","Karl-Anthony-Towns-18937","Dennis-Smith-Jr.-37847","Tim-Hardaway-Jr.-16879","Collin-Sexton-408896","50000","290.45"
"Shabazz-Napier-18598","Joe-Harris-18587","Dion-Waiters-13897","Blake-Griffin-1503","Karl-Anthony-Towns-18937","Dennis-Smith-Jr.-37847","Luke-Kennard-37814","Andre-Drummond-13904","50000","290.45"
"D'Angelo-Russell-18947","Luke-Kennard-37814","Dorian-Finney-Smith-36032","Otto-Porter-17069","Karl-Anthony-Towns-18937","Dennis-Smith-Jr.-37847","Dion-Waiters-13897","Andre-Drummond-13904","49700","290.44"
"Eric-Bledsoe-1031","D'Angelo-Russell-18947","Tim-Hardaway-Jr.-16879","Josh-Jackson-37890","Karl-Anthony-Towns-18937","Dennis-Smith-Jr.-37847","Dion-Waiters-13897","Collin-Sexton-408896","49900","290.43"
"Eric-Bledsoe-1031","D'Angelo-Russell-18947","Dorian-Finney-Smith-36032","Blake-Griffin-1503","Andre-Drummond-13904","Dennis-Smith-Jr.-37847","Luke-Kennard-37814","Dwight-Powell-18566","50000","290.42"
"Dennis-Smith-Jr.-37847","Joe-Harris-18587","Dorian-Finney-Smith-36032","Blake-Griffin-1503","Andre-Drummond-13904","Collin-Sexton-408896","Luke-Kennard-37814","Karl-Anthony-Towns-18937","49800","290.41"
"Shabazz-Napier-18598","Joe-Harris-18587","Dorian-Finney-Smith-36032","Blake-Griffin-1503","Andre-Drummond-13904","Dennis-Smith-Jr.-37847","Luke-Kennard-37814","Karl-Anthony-Towns-18937","50000","290.39"
"Eric-Bledsoe-1031","D'Angelo-Russell-18947","Ryan-Broekhoff-555205","Dorian-Finney-Smith-36032","Andre-Drummond-13904","Dennis-Smith-Jr.-37847","Luke-Kennard-37814","Karl-Anthony-Towns-18937","49800","290.39"
"Dennis-Smith-Jr.-37847","D'Angelo-Russell-18947","Tim-Hardaway-Jr.-16879","Dorian-Finney-Smith-36032","Karl-Anthony-Towns-18937","Collin-Sexton-408896","Luke-Kennard-37814","Andre-Drummond-13904","49400","290.39"
