"Ben-Simmons-35184","Corey-Brewer-1278","Kevin-Durant-1348","Al-Horford-1499","Paul-Millsap-1335","J.J.-Redick-1030","DeMarcus-Cousins-1490","Jaren-Jackson-409099","49900","276.49"
"Ben-Simmons-35184","Corey-Brewer-1278","Kevin-Durant-1348","Al-Horford-1499","Jaren-Jackson-409099","C.J.-McCollum-17121","Jonah-Bolden-554969","DeMarcus-Cousins-1490","50000","276.42"

"Ben-Simmons-35184","Corey-Brewer-1278","Kevin-Durant-1348","Al-Horford-1499","Paul-Millsap-1335","J.J.-Redick-1030","DeMarcus-Cousins-1490","Jaren-Jackson-409099","49900","276.49"
"Ben-Simmons-35184","Corey-Brewer-1278","Kevin-Durant-1348","Al-Horford-1499","Jaren-Jackson-409099","C.J.-McCollum-17121","Jonah-Bolden-554969","DeMarcus-Cousins-1490","50000","276.42"
"C.J.-McCollum-17121","Corey-Brewer-1278","Kevin-Durant-1348","Jonah-Bolden-554969","DeMarcus-Cousins-1490","J.J.-Redick-1030","Ben-Simmons-35184","Jaren-Jackson-409099","49900","276.34"
"Darren-Collison-1060","Corey-Brewer-1278","Kevin-Durant-1348","Al-Horford-1499","Paul-Millsap-1335","Ben-Simmons-35184","DeMarcus-Cousins-1490","Jaren-Jackson-409099","49900","276.07"
"Darren-Collison-1060","J.J.-Redick-1030","Kevin-Durant-1348","DeMarcus-Cousins-1490","Paul-Millsap-1335","Ben-Simmons-35184","Corey-Brewer-1278","Jaren-Jackson-409099","49800","275.99"
"Darren-Collison-1060","Corey-Brewer-1278","Kevin-Durant-1348","Jonah-Bolden-554969","DeMarcus-Cousins-1490","C.J.-McCollum-17121","Ben-Simmons-35184","Jaren-Jackson-409099","49900","275.92"
"Darren-Collison-1060","Corey-Brewer-1278","Kevin-Durant-1348","DeMarcus-Cousins-1490","Jaren-Jackson-409099","J.J.-Redick-1030","Tyreke-Evans-1070","Ben-Simmons-35184","50000","275.86"
"C.J.-McCollum-17121","Corey-Brewer-1278","Kevin-Durant-1348","DeMarcus-Cousins-1490","Mike-Muscala-17379","J.J.-Redick-1030","Ben-Simmons-35184","Jaren-Jackson-409099","50000","275.37"
"Kyrie-Irving-13334","Corey-Brewer-1278","J.J.-Redick-1030","Al-Horford-1499","Jaren-Jackson-409099","Ben-Simmons-35184","Paul-Millsap-1335","DeMarcus-Cousins-1490","50000","274.99"
"Darren-Collison-1060","Corey-Brewer-1278","Kevin-Durant-1348","DeMarcus-Cousins-1490","Mike-Muscala-17379","C.J.-McCollum-17121","Ben-Simmons-35184","Jaren-Jackson-409099","50000","274.95"
"Darren-Collison-1060","Klay-Thompson-13315","J.J.-Redick-1030","Al-Horford-1499","Jaren-Jackson-409099","C.J.-McCollum-17121","DeMarcus-Cousins-1490","Ben-Simmons-35184","50000","274.89"
"Kyrie-Irving-13334","Corey-Brewer-1278","Ben-Simmons-35184","Jonah-Bolden-554969","Jaren-Jackson-409099","C.J.-McCollum-17121","J.J.-Redick-1030","DeMarcus-Cousins-1490","50000","274.84"
"Ben-Simmons-35184","Corey-Brewer-1278","J.J.-Redick-1030","Al-Horford-1499","Marc-Gasol-1493","C.J.-McCollum-17121","DeMarcus-Cousins-1490","Jaren-Jackson-409099","50000","274.71"
"Kyrie-Irving-13334","Corey-Brewer-1278","Ben-Simmons-35184","Al-Horford-1499","Jaren-Jackson-409099","Darren-Collison-1060","Paul-Millsap-1335","DeMarcus-Cousins-1490","50000","274.57"
"Kyrie-Irving-13334","Corey-Brewer-1278","Ben-Simmons-35184","DeMarcus-Cousins-1490","Jaren-Jackson-409099","Darren-Collison-1060","J.J.-Redick-1030","Paul-Millsap-1335","49900","274.49"
"T.J.-McConnell-18956","C.J.-McCollum-17121","Kevin-Durant-1348","Al-Horford-1499","DeMarcus-Cousins-1490","Ben-Simmons-35184","Corey-Brewer-1278","Jaren-Jackson-409099","49900","274.45"
"Kyrie-Irving-13334","Corey-Brewer-1278","Ben-Simmons-35184","DeMarcus-Cousins-1490","Jaren-Jackson-409099","C.J.-McCollum-17121","Jonah-Bolden-554969","Darren-Collison-1060","50000","274.42"
"Ben-Simmons-35184","Tyreke-Evans-1070","Kevin-Durant-1348","Al-Horford-1499","Paul-Millsap-1335","C.J.-McCollum-17121","Corey-Brewer-1278","Jaren-Jackson-409099","49900","274.39"
"T.J.-McConnell-18956","Corey-Brewer-1278","Ben-Simmons-35184","Kevin-Durant-1348","Jaren-Jackson-409099","C.J.-McCollum-17121","J.J.-Redick-1030","DeMarcus-Cousins-1490","49800","274.37"
"Darren-Collison-1060","Corey-Brewer-1278","J.J.-Redick-1030","Al-Horford-1499","Jusuf-Nurkic-18619","Ben-Simmons-35184","DeMarcus-Cousins-1490","Jaren-Jackson-409099","49900","274.36"
"Ben-Simmons-35184","J.J.-Redick-1030","Tyreke-Evans-1070","Paul-Millsap-1335","Jaren-Jackson-409099","C.J.-McCollum-17121","Corey-Brewer-1278","Kevin-Durant-1348","49800","274.31"
"Darren-Collison-1060","Corey-Brewer-1278","Ben-Simmons-35184","Al-Horford-1499","Marc-Gasol-1493","C.J.-McCollum-17121","Jaren-Jackson-409099","DeMarcus-Cousins-1490","50000","274.29"
"Ben-Simmons-35184","Corey-Brewer-1278","Kevin-Durant-1348","Al-Horford-1499","Jaren-Jackson-409099","C.J.-McCollum-17121","Al-Farouq-Aminu-1279","J.J.-Redick-1030","49800","274.23"
"Darren-Collison-1060","J.J.-Redick-1030","Corey-Brewer-1278","Jaren-Jackson-409099","Marc-Gasol-1493","C.J.-McCollum-17121","Ben-Simmons-35184","DeMarcus-Cousins-1490","49900","274.21"
"Darren-Collison-1060","Jevon-Carter-409100","Kevin-Durant-1348","Al-Horford-1499","DeMarcus-Cousins-1490","Ben-Simmons-35184","J.J.-Redick-1030","Jaren-Jackson-409099","50000","274.1"
"Darren-Collison-1060","Shelvin-Mack-13354","Corey-Brewer-1278","Kevin-Durant-1348","DeMarcus-Cousins-1490","C.J.-McCollum-17121","J.J.-Redick-1030","Ben-Simmons-35184","50000","274.08"
"Marcus-Smart-18567","Corey-Brewer-1278","Kevin-Durant-1348","Al-Horford-1499","Jaren-Jackson-409099","C.J.-McCollum-17121","J.J.-Redick-1030","Ben-Simmons-35184","49900","274.06"
"Darren-Collison-1060","T.J.-McConnell-18956","Kevin-Durant-1348","DeMarcus-Cousins-1490","Jaren-Jackson-409099","C.J.-McCollum-17121","Corey-Brewer-1278","Ben-Simmons-35184","49800","273.95"
"Darren-Collison-1060","C.J.-McCollum-17121","Tyreke-Evans-1070","Paul-Millsap-1335","Jaren-Jackson-409099","Ben-Simmons-35184","Corey-Brewer-1278","Kevin-Durant-1348","49800","273.89"
"Darren-Collison-1060","Corey-Brewer-1278","Kevin-Durant-1348","Al-Horford-1499","DeMarcus-Cousins-1490","Ben-Simmons-35184","J.J.-Redick-1030","Jonah-Bolden-554969","49800","273.81"
"Darren-Collison-1060","Corey-Brewer-1278","Kevin-Durant-1348","Al-Horford-1499","Jaren-Jackson-409099","C.J.-McCollum-17121","Al-Farouq-Aminu-1279","Ben-Simmons-35184","49800","273.81"
"Ben-Simmons-35184","Corey-Brewer-1278","Kevin-Durant-1348","Al-Horford-1499","Jaren-Jackson-409099","J.J.-Redick-1030","Taurean-Prince-35218","DeMarcus-Cousins-1490","49900","273.78"
"Ben-Simmons-35184","Corey-Brewer-1278","Kevin-Durant-1348","DeMarcus-Cousins-1490","Jaren-Jackson-409099","C.J.-McCollum-17121","Al-Farouq-Aminu-1279","Paul-Millsap-1335","49700","273.77"
"Darren-Collison-1060","T.J.-McConnell-18956","Kevin-Durant-1348","Paul-Millsap-1335","Jaren-Jackson-409099","J.J.-Redick-1030","Ben-Simmons-35184","DeMarcus-Cousins-1490","50000","273.76"
"Darren-Collison-1060","Corey-Brewer-1278","Ben-Simmons-35184","Kevin-Durant-1348","Jaren-Jackson-409099","C.J.-McCollum-17121","J.J.-Redick-1030","Al-Farouq-Aminu-1279","49700","273.73"
"Ben-Simmons-35184","C.J.-McCollum-17121","Kevin-Durant-1348","Al-Horford-1499","DeMarcus-Cousins-1490","Cory-Joseph-13339","Corey-Brewer-1278","Jaren-Jackson-409099","50000","273.68"
"Ben-Simmons-35184","Corey-Brewer-1278","Tyreke-Evans-1070","DeMarcus-Cousins-1490","Jaren-Jackson-409099","C.J.-McCollum-17121","Al-Farouq-Aminu-1279","Kevin-Durant-1348","49900","273.64"
"Darren-Collison-1060","Marcus-Smart-18567","Corey-Brewer-1278","Al-Horford-1499","Jaren-Jackson-409099","C.J.-McCollum-17121","Ben-Simmons-35184","Kevin-Durant-1348","49900","273.64"
"Ben-Simmons-35184","Shelvin-Mack-13354","J.J.-Redick-1030","Al-Horford-1499","Jaren-Jackson-409099","C.J.-McCollum-17121","Paul-Millsap-1335","Kevin-Durant-1348","49900","273.63"
"Darren-Collison-1060","J.J.-Redick-1030","Kevin-Durant-1348","Al-Horford-1499","Jaren-Jackson-409099","Ben-Simmons-35184","Al-Farouq-Aminu-1279","Paul-Millsap-1335","50000","273.62"
"Stephen-Curry-1079","Corey-Brewer-1278","J.J.-Redick-1030","Al-Horford-1499","Jaren-Jackson-409099","Ben-Simmons-35184","Paul-Millsap-1335","DeMarcus-Cousins-1490","49800","273.61"
"Marcus-Smart-18567","C.J.-McCollum-17121","Kevin-Durant-1348","DeMarcus-Cousins-1490","Paul-Millsap-1335","Ben-Simmons-35184","Corey-Brewer-1278","Jaren-Jackson-409099","49800","273.6"
"Cory-Joseph-13339","Corey-Brewer-1278","Ben-Simmons-35184","Kevin-Durant-1348","Jaren-Jackson-409099","C.J.-McCollum-17121","J.J.-Redick-1030","DeMarcus-Cousins-1490","49900","273.6"
"Darren-Collison-1060","Marcus-Smart-18567","Ben-Simmons-35184","Kevin-Durant-1348","Jaren-Jackson-409099","C.J.-McCollum-17121","J.J.-Redick-1030","Corey-Brewer-1278","49800","273.56"
"Ben-Simmons-35184","C.J.-McCollum-17121","Kevin-Durant-1348","DeMarcus-Cousins-1490","Paul-Millsap-1335","Gary-Harris-18617","Corey-Brewer-1278","Jaren-Jackson-409099","50000","273.56"
"Stephen-Curry-1079","C.J.-McCollum-17121","Corey-Brewer-1278","Al-Horford-1499","Jaren-Jackson-409099","Ben-Simmons-35184","Jonah-Bolden-554969","DeMarcus-Cousins-1490","49900","273.54"
"Darren-Collison-1060","Corey-Brewer-1278","Ben-Simmons-35184","Kevin-Durant-1348","Jaren-Jackson-409099","C.J.-McCollum-17121","J.J.-Redick-1030","Gary-Harris-18617","50000","273.52"
"Darren-Collison-1060","Seth-Curry-16825","Kevin-Durant-1348","Al-Horford-1499","DeMarcus-Cousins-1490","Ben-Simmons-35184","J.J.-Redick-1030","Jaren-Jackson-409099","50000","273.51"
"Ben-Simmons-35184","Corey-Brewer-1278","Kevin-Durant-1348","Al-Horford-1499","DeMarcus-Cousins-1490","C.J.-McCollum-17121","J.J.-Redick-1030","Jevon-Carter-409100","50000","273.5"
"Stephen-Curry-1079","Corey-Brewer-1278","Tyreke-Evans-1070","Al-Horford-1499","DeMarcus-Cousins-1490","Ben-Simmons-35184","J.J.-Redick-1030","Jaren-Jackson-409099","50000","273.48"
"Ben-Simmons-35184","J.J.-Redick-1030","Corey-Brewer-1278","Al-Horford-1499","Jaren-Jackson-409099","C.J.-McCollum-17121","Jonah-Bolden-554969","Kevin-Durant-1348","49400","273.47"
"Darren-Collison-1060","C.J.-McCollum-17121","Al-Farouq-Aminu-1279","Jonah-Bolden-554969","Jaren-Jackson-409099","Ben-Simmons-35184","J.J.-Redick-1030","Kevin-Durant-1348","50000","273.47"
"Marcus-Smart-18567","Corey-Brewer-1278","Kevin-Durant-1348","DeMarcus-Cousins-1490","Jaren-Jackson-409099","C.J.-McCollum-17121","Tyreke-Evans-1070","Ben-Simmons-35184","50000","273.47"
"Stephen-Curry-1079","Corey-Brewer-1278","Ben-Simmons-35184","Jonah-Bolden-554969","Jaren-Jackson-409099","C.J.-McCollum-17121","J.J.-Redick-1030","DeMarcus-Cousins-1490","49800","273.46"
"C.J.-McCollum-17121","Corey-Brewer-1278","Kevin-Durant-1348","JaMychal-Green-18729","Jaren-Jackson-409099","J.J.-Redick-1030","Ben-Simmons-35184","Al-Horford-1499","50000","273.37"
"Darren-Collison-1060","Corey-Brewer-1278","Kevin-Durant-1348","Al-Horford-1499","Jaren-Jackson-409099","Ben-Simmons-35184","Taurean-Prince-35218","DeMarcus-Cousins-1490","49900","273.36"
"Darren-Collison-1060","J.J.-Redick-1030","Corey-Brewer-1278","Kevin-Durant-1348","DeMarcus-Cousins-1490","Ben-Simmons-35184","Taurean-Prince-35218","Jaren-Jackson-409099","49800","273.28"
"Darren-Collison-1060","Stephen-Curry-1079","Kevin-Durant-1348","Al-Horford-1499","DeMarcus-Cousins-1490","Corey-Brewer-1278","J.J.-Redick-1030","Jaren-Jackson-409099","50000","273.24"
"Darren-Collison-1060","C.J.-McCollum-17121","J.J.-Redick-1030","Al-Horford-1499","Jaren-Jackson-409099","Ben-Simmons-35184","Paul-Millsap-1335","DeMarcus-Cousins-1490","49100","273.21"
"Darren-Collison-1060","Shelvin-Mack-13354","Kevin-Durant-1348","Paul-Millsap-1335","Jaren-Jackson-409099","C.J.-McCollum-17121","Ben-Simmons-35184","Al-Horford-1499","49900","273.21"
"Darren-Collison-1060","Stephen-Curry-1079","Ben-Simmons-35184","Al-Horford-1499","Jaren-Jackson-409099","Corey-Brewer-1278","Paul-Millsap-1335","DeMarcus-Cousins-1490","49800","273.19"
"Darren-Collison-1060","C.J.-McCollum-17121","Kevin-Durant-1348","DeMarcus-Cousins-1490","Jaren-Jackson-409099","Cory-Joseph-13339","Corey-Brewer-1278","Ben-Simmons-35184","49900","273.18"
"T.J.-McConnell-18956","J.J.-Redick-1030","Kevin-Durant-1348","DeMarcus-Cousins-1490","Paul-Millsap-1335","C.J.-McCollum-17121","Corey-Brewer-1278","Ben-Simmons-35184","50000","273.16"
"Ben-Simmons-35184","J.J.-Redick-1030","Bojan-Bogdanovic-18571","Kevin-Durant-1348","Paul-Millsap-1335","C.J.-McCollum-17121","Corey-Brewer-1278","Jaren-Jackson-409099","50000","273.14"
"Darren-Collison-1060","Shelvin-Mack-13354","Ben-Simmons-35184","Kevin-Durant-1348","Jaren-Jackson-409099","C.J.-McCollum-17121","J.J.-Redick-1030","Paul-Millsap-1335","49800","273.13"
"Darren-Collison-1060","J.J.-Redick-1030","Kevin-Durant-1348","Al-Horford-1499","Paul-Millsap-1335","Ben-Simmons-35184","Corey-Brewer-1278","Jaren-Jackson-409099","49300","273.12"
"Darren-Collison-1060","Stephen-Curry-1079","Corey-Brewer-1278","DeMarcus-Cousins-1490","Paul-Millsap-1335","Ben-Simmons-35184","J.J.-Redick-1030","Jaren-Jackson-409099","49700","273.11"
"Darren-Collison-1060","Jevon-Carter-409100","Kevin-Durant-1348","Al-Horford-1499","DeMarcus-Cousins-1490","C.J.-McCollum-17121","Corey-Brewer-1278","Ben-Simmons-35184","50000","273.08"
"Darren-Collison-1060","C.J.-McCollum-17121","Tyreke-Evans-1070","Al-Horford-1499","DeMarcus-Cousins-1490","Ben-Simmons-35184","J.J.-Redick-1030","Jaren-Jackson-409099","49300","273.08"
"Kyrie-Irving-13334","J.J.-Redick-1030","Kevin-Durant-1348","Al-Horford-1499","Paul-Millsap-1335","C.J.-McCollum-17121","Corey-Brewer-1278","Jaren-Jackson-409099","50000","273.07"
"Darren-Collison-1060","Stephen-Curry-1079","Corey-Brewer-1278","Al-Horford-1499","Jaren-Jackson-409099","Tyreke-Evans-1070","Ben-Simmons-35184","DeMarcus-Cousins-1490","50000","273.06"
"Darren-Collison-1060","C.J.-McCollum-17121","Corey-Brewer-1278","Al-Horford-1499","Jaren-Jackson-409099","Ben-Simmons-35184","Jonah-Bolden-554969","Kevin-Durant-1348","49400","273.05"
"Ben-Simmons-35184","Shelvin-Mack-13354","Kevin-Durant-1348","DeMarcus-Cousins-1490","Jaren-Jackson-409099","C.J.-McCollum-17121","Tyreke-Evans-1070","Paul-Millsap-1335","50000","273.04"
"Darren-Collison-1060","Stephen-Curry-1079","Ben-Simmons-35184","DeMarcus-Cousins-1490","Jaren-Jackson-409099","C.J.-McCollum-17121","Jonah-Bolden-554969","Corey-Brewer-1278","49800","273.04"
"Ben-Simmons-35184","Tyreke-Evans-1070","Kevin-Durant-1348","Al-Horford-1499","Paul-Millsap-1335","Corey-Brewer-1278","DeMarcus-Cousins-1490","Jaren-Jackson-409099","49500","273.03"
"Darren-Collison-1060","C.J.-McCollum-17121","Jayson-Tatum-37782","DeMarcus-Cousins-1490","Jaren-Jackson-409099","Ben-Simmons-35184","J.J.-Redick-1030","Al-Horford-1499","49700","273.03"
"Ben-Simmons-35184","J.J.-Redick-1030","Kevin-Durant-1348","Al-Horford-1499","Paul-Millsap-1335","C.J.-McCollum-17121","Corey-Brewer-1278","Al-Farouq-Aminu-1279","50000","273.02"
"Ben-Simmons-35184","Corey-Brewer-1278","Kevin-Durant-1348","Paul-Millsap-1335","Jaren-Jackson-409099","C.J.-McCollum-17121","Jonah-Bolden-554969","DeMarcus-Cousins-1490","49300","273.01"
"Darren-Collison-1060","Tyreke-Evans-1070","Ben-Simmons-35184","Kevin-Durant-1348","Jaren-Jackson-409099","Shelvin-Mack-13354","J.J.-Redick-1030","C.J.-McCollum-17121","50000","273.0"
"Darren-Collison-1060","Jevon-Carter-409100","Corey-Brewer-1278","Kevin-Durant-1348","DeMarcus-Cousins-1490","C.J.-McCollum-17121","J.J.-Redick-1030","Ben-Simmons-35184","49900","273.0"
"Darren-Collison-1060","Corey-Brewer-1278","Tyreke-Evans-1070","Al-Horford-1499","Jaren-Jackson-409099","Ben-Simmons-35184","J.J.-Redick-1030","Kevin-Durant-1348","49500","272.99"
"Darren-Collison-1060","Stephen-Curry-1079","Ben-Simmons-35184","DeMarcus-Cousins-1490","Jaren-Jackson-409099","Tyreke-Evans-1070","J.J.-Redick-1030","Corey-Brewer-1278","49900","272.98"
"Darren-Collison-1060","Corey-Brewer-1278","Ben-Simmons-35184","Kevin-Durant-1348","Jaren-Jackson-409099","C.J.-McCollum-17121","J.J.-Redick-1030","Jonah-Bolden-554969","49300","272.97"
"Ben-Simmons-35184","Shelvin-Mack-13354","Kevin-Durant-1348","Al-Horford-1499","Jaren-Jackson-409099","C.J.-McCollum-17121","Al-Farouq-Aminu-1279","DeMarcus-Cousins-1490","50000","272.96"
"Darren-Collison-1060","Corey-Brewer-1278","Kevin-Durant-1348","JaMychal-Green-18729","Jaren-Jackson-409099","C.J.-McCollum-17121","Ben-Simmons-35184","Al-Horford-1499","50000","272.95"
"Ben-Simmons-35184","Tyreke-Evans-1070","Kevin-Durant-1348","DeMarcus-Cousins-1490","Paul-Millsap-1335","J.J.-Redick-1030","Corey-Brewer-1278","Jaren-Jackson-409099","49400","272.95"
"Kyrie-Irving-13334","T.J.-McConnell-18956","Corey-Brewer-1278","Al-Horford-1499","Jaren-Jackson-409099","C.J.-McCollum-17121","Ben-Simmons-35184","DeMarcus-Cousins-1490","50000","272.95"
"Darren-Collison-1060","Corey-Brewer-1278","Kevin-Durant-1348","Al-Horford-1499","Jaren-Jackson-409099","Ben-Simmons-35184","J.J.-Redick-1030","Jayson-Tatum-37782","49900","272.94"
"Ben-Simmons-35184","Corey-Brewer-1278","JaMychal-Green-18729","DeMarcus-Cousins-1490","Jaren-Jackson-409099","C.J.-McCollum-17121","Paul-Millsap-1335","Kevin-Durant-1348","49900","272.91"
"Ben-Simmons-35184","Corey-Brewer-1278","Kevin-Durant-1348","Al-Horford-1499","DeMarcus-Cousins-1490","Seth-Curry-16825","J.J.-Redick-1030","C.J.-McCollum-17121","50000","272.91"
"Ben-Simmons-35184","Corey-Brewer-1278","Jayson-Tatum-37782","Kevin-Durant-1348","Paul-Millsap-1335","J.J.-Redick-1030","DeMarcus-Cousins-1490","Jaren-Jackson-409099","49800","272.9"
"Kyrie-Irving-13334","C.J.-McCollum-17121","Tyreke-Evans-1070","Paul-Millsap-1335","Jaren-Jackson-409099","Ben-Simmons-35184","Corey-Brewer-1278","Al-Horford-1499","50000","272.89"
"Ben-Simmons-35184","Shelvin-Mack-13354","Kevin-Durant-1348","DeMarcus-Cousins-1490","Jaren-Jackson-409099","C.J.-McCollum-17121","Al-Farouq-Aminu-1279","J.J.-Redick-1030","49900","272.88"
"Ben-Simmons-35184","Corey-Brewer-1278","Kevin-Durant-1348","DeMarcus-Cousins-1490","Jaren-Jackson-409099","C.J.-McCollum-17121","Tyreke-Evans-1070","Jonah-Bolden-554969","49500","272.88"
"Kyrie-Irving-13334","T.J.-McConnell-18956","Ben-Simmons-35184","DeMarcus-Cousins-1490","Jaren-Jackson-409099","C.J.-McCollum-17121","J.J.-Redick-1030","Corey-Brewer-1278","49900","272.87"
"Darren-Collison-1060","Corey-Brewer-1278","Kevin-Durant-1348","JaMychal-Green-18729","Jaren-Jackson-409099","C.J.-McCollum-17121","Ben-Simmons-35184","J.J.-Redick-1030","49900","272.87"
"Ben-Simmons-35184","Corey-Brewer-1278","Kevin-Durant-1348","Al-Horford-1499","Jaren-Jackson-409099","J.J.-Redick-1030","Al-Farouq-Aminu-1279","DeMarcus-Cousins-1490","49400","272.87"
"Darren-Collison-1060","J.J.-Redick-1030","Kevin-Durant-1348","Al-Horford-1499","Jaren-Jackson-409099","Ben-Simmons-35184","Jonah-Bolden-554969","Paul-Millsap-1335","49600","272.86"
"Darren-Collison-1060","Stephen-Curry-1079","J.J.-Redick-1030","DeMarcus-Cousins-1490","Paul-Millsap-1335","Ben-Simmons-35184","Jonah-Bolden-554969","Jaren-Jackson-409099","50000","272.85"
"Darren-Collison-1060","Corey-Brewer-1278","Kevin-Durant-1348","Al-Horford-1499","DeMarcus-Cousins-1490","Ben-Simmons-35184","J.J.-Redick-1030","Mike-Muscala-17379","49900","272.84"
