"De'Aaron-Fox-37900","Jaylen-Brown-35181","Kyle-Anderson-18615","Domantas-Sabonis-35217","Jahlil-Okafor-18902","Jrue-Holiday-1073","Bogdan-Bogdanovic-37899","Otto-Porter-17069","49900","287.87"
"De'Aaron-Fox-37900","Bogdan-Bogdanovic-37899","Jaylen-Brown-35181","Marcus-Morris-13316","Marvin-Bagley-III-409321","Jrue-Holiday-1073","Otto-Porter-17069","Jahlil-Okafor-18902","49800","287.73"
"De'Aaron-Fox-37900","Jerryd-Bayless-1021","Jaylen-Brown-35181","Jayson-Tatum-37782","Jahlil-Okafor-18902","Jrue-Holiday-1073","Bogdan-Bogdanovic-37899","Otto-Porter-17069","49900","287.45"

"De'Aaron-Fox-37900","Jaylen-Brown-35181","Kyle-Anderson-18615","Domantas-Sabonis-35217","Jahlil-Okafor-18902","Jrue-Holiday-1073","Bogdan-Bogdanovic-37899","Otto-Porter-17069","49900","287.87"
"De'Aaron-Fox-37900","Bogdan-Bogdanovic-37899","Jaylen-Brown-35181","Marcus-Morris-13316","Marvin-Bagley-III-409321","Jrue-Holiday-1073","Otto-Porter-17069","Jahlil-Okafor-18902","49800","287.73"
"De'Aaron-Fox-37900","Jerryd-Bayless-1021","Jaylen-Brown-35181","Jayson-Tatum-37782","Jahlil-Okafor-18902","Jrue-Holiday-1073","Bogdan-Bogdanovic-37899","Otto-Porter-17069","49900","287.45"
"De'Aaron-Fox-37900","Jerryd-Bayless-1021","Jaylen-Brown-35181","Otto-Porter-17069","Jahlil-Okafor-18902","Jrue-Holiday-1073","Bogdan-Bogdanovic-37899","Noah-Vonleh-18597","50000","287.16"
"De'Aaron-Fox-37900","Jaylen-Brown-35181","Otto-Porter-17069","Domantas-Sabonis-35217","Jahlil-Okafor-18902","Justin-Holiday-14559","Bogdan-Bogdanovic-37899","Jrue-Holiday-1073","49700","286.89"
"De'Aaron-Fox-37900","Marcus-Smart-18567","Jaylen-Brown-35181","Marvin-Bagley-III-409321","Jahlil-Okafor-18902","Jrue-Holiday-1073","Bogdan-Bogdanovic-37899","Otto-Porter-17069","49700","286.82"
"Trey-Burke-17029","Jaylen-Brown-35181","Marcus-Morris-13316","Otto-Porter-17069","Jahlil-Okafor-18902","De'Aaron-Fox-37900","Domantas-Sabonis-35217","Jrue-Holiday-1073","50000","286.71"
"De'Aaron-Fox-37900","Jaylen-Brown-35181","Kyle-Anderson-18615","Otto-Porter-17069","Jahlil-Okafor-18902","Jrue-Holiday-1073","Bogdan-Bogdanovic-37899","Josh-Richardson-18922","49900","286.71"
"De'Aaron-Fox-37900","Jrue-Holiday-1073","Marcus-Morris-13316","Jayson-Tatum-37782","Jahlil-Okafor-18902","Kyle-Anderson-18615","Bogdan-Bogdanovic-37899","Otto-Porter-17069","50000","286.69"
"De'Aaron-Fox-37900","Jaylen-Brown-35181","Kyle-Anderson-18615","Otto-Porter-17069","Jahlil-Okafor-18902","Darren-Collison-1060","Bogdan-Bogdanovic-37899","Jrue-Holiday-1073","49800","286.69"
"De'Aaron-Fox-37900","Jaylen-Brown-35181","Jayson-Tatum-37782","Domantas-Sabonis-35217","Jahlil-Okafor-18902","Jrue-Holiday-1073","Justin-Holiday-14559","Otto-Porter-17069","50000","286.63"
"Trey-Burke-17029","Terry-Rozier-18894","Jaylen-Brown-35181","Otto-Porter-17069","Jahlil-Okafor-18902","De'Aaron-Fox-37900","Bogdan-Bogdanovic-37899","Jrue-Holiday-1073","50000","286.62"
"De'Aaron-Fox-37900","Jaylen-Brown-35181","Jayson-Tatum-37782","Marvin-Bagley-III-409321","Jahlil-Okafor-18902","Marcus-Smart-18567","Otto-Porter-17069","Jrue-Holiday-1073","50000","286.56"
"De'Aaron-Fox-37900","Marcus-Smart-18567","Jaylen-Brown-35181","Otto-Porter-17069","Jahlil-Okafor-18902","Jrue-Holiday-1073","Bogdan-Bogdanovic-37899","Marcus-Morris-13316","49600","286.51"
"Trey-Burke-17029","Jrue-Holiday-1073","Jaylen-Brown-35181","Jayson-Tatum-37782","Jahlil-Okafor-18902","De'Aaron-Fox-37900","Bogdan-Bogdanovic-37899","Otto-Porter-17069","49700","286.46"
"De'Aaron-Fox-37900","Jrue-Holiday-1073","Jaylen-Brown-35181","Marvin-Bagley-III-409321","Domantas-Sabonis-35217","Kyle-Anderson-18615","Otto-Porter-17069","Jahlil-Okafor-18902","49800","286.29"
"De'Aaron-Fox-37900","Jerryd-Bayless-1021","Otto-Porter-17069","Domantas-Sabonis-35217","Jahlil-Okafor-18902","Justin-Holiday-14559","Bogdan-Bogdanovic-37899","Jrue-Holiday-1073","50000","286.25"
"De'Aaron-Fox-37900","Marcus-Smart-18567","Jaylen-Brown-35181","Marcus-Morris-13316","Jahlil-Okafor-18902","Jrue-Holiday-1073","Jayson-Tatum-37782","Otto-Porter-17069","49900","286.25"
"Trey-Burke-17029","Jrue-Holiday-1073","Kyle-Anderson-18615","Domantas-Sabonis-35217","Jahlil-Okafor-18902","De'Aaron-Fox-37900","Bogdan-Bogdanovic-37899","Otto-Porter-17069","50000","286.24"
"De'Aaron-Fox-37900","Jaylen-Brown-35181","Otto-Porter-17069","Jaren-Jackson-409099","Jahlil-Okafor-18902","Jrue-Holiday-1073","Bogdan-Bogdanovic-37899","Marvin-Bagley-III-409321","49900","286.2"
"De'Aaron-Fox-37900","Marcus-Smart-18567","Otto-Porter-17069","Marvin-Bagley-III-409321","Jahlil-Okafor-18902","Jerryd-Bayless-1021","Bogdan-Bogdanovic-37899","Jrue-Holiday-1073","50000","286.18"
"Trey-Burke-17029","Jrue-Holiday-1073","Jaylen-Brown-35181","Otto-Porter-17069","Jahlil-Okafor-18902","De'Aaron-Fox-37900","Bogdan-Bogdanovic-37899","Noah-Vonleh-18597","49800","286.17"
"De'Aaron-Fox-37900","Jerryd-Bayless-1021","Jaylen-Brown-35181","Marvin-Bagley-III-409321","Jahlil-Okafor-18902","Jrue-Holiday-1073","Bogdan-Bogdanovic-37899","Otto-Porter-17069","49500","286.13"
"Trey-Burke-17029","Jrue-Holiday-1073","Marcus-Morris-13316","Otto-Porter-17069","Marvin-Bagley-III-409321","De'Aaron-Fox-37900","Bogdan-Bogdanovic-37899","Jahlil-Okafor-18902","49900","286.1"
"De'Aaron-Fox-37900","Jerryd-Bayless-1021","Jaylen-Brown-35181","Marcus-Morris-13316","Domantas-Sabonis-35217","Jrue-Holiday-1073","Bogdan-Bogdanovic-37899","Jahlil-Okafor-18902","50000","286.06"
"De'Aaron-Fox-37900","Bogdan-Bogdanovic-37899","Jayson-Tatum-37782","Marvin-Bagley-III-409321","Jahlil-Okafor-18902","Jrue-Holiday-1073","Justin-Holiday-14559","Otto-Porter-17069","49900","286.02"
"De'Aaron-Fox-37900","Jaylen-Brown-35181","Marcus-Morris-13316","Otto-Porter-17069","Jahlil-Okafor-18902","Jrue-Holiday-1073","Kyle-Anderson-18615","Domantas-Sabonis-35217","49700","285.98"
"De'Aaron-Fox-37900","Jaylen-Brown-35181","Kyle-Anderson-18615","Jayson-Tatum-37782","Jahlil-Okafor-18902","Jrue-Holiday-1073","Bogdan-Bogdanovic-37899","Domantas-Sabonis-35217","50000","285.97"
"De'Aaron-Fox-37900","Marcus-Smart-18567","Jaylen-Brown-35181","Marcus-Morris-13316","Jahlil-Okafor-18902","Jrue-Holiday-1073","Noah-Vonleh-18597","Otto-Porter-17069","50000","285.96"
"De'Aaron-Fox-37900","Jaylen-Brown-35181","Otto-Porter-17069","Jaren-Jackson-409099","Jahlil-Okafor-18902","Jrue-Holiday-1073","Bogdan-Bogdanovic-37899","Marcus-Morris-13316","49800","285.89"
"De'Aaron-Fox-37900","Jaylen-Brown-35181","Kyle-Anderson-18615","Otto-Porter-17069","Jahlil-Okafor-18902","Jrue-Holiday-1073","Bogdan-Bogdanovic-37899","Terry-Rozier-18894","49700","285.89"
"De'Aaron-Fox-37900","Marcus-Smart-18567","Marcus-Morris-13316","Otto-Porter-17069","Jahlil-Okafor-18902","Jerryd-Bayless-1021","Bogdan-Bogdanovic-37899","Jrue-Holiday-1073","49900","285.87"
"De'Aaron-Fox-37900","Jaylen-Brown-35181","Jayson-Tatum-37782","Marvin-Bagley-III-409321","Jahlil-Okafor-18902","Jerryd-Bayless-1021","Otto-Porter-17069","Jrue-Holiday-1073","49800","285.87"
"Trey-Burke-17029","Jrue-Holiday-1073","Jaylen-Brown-35181","Marvin-Bagley-III-409321","Jahlil-Okafor-18902","De'Aaron-Fox-37900","Otto-Porter-17069","Darren-Collison-1060","50000","285.84"
"De'Aaron-Fox-37900","Jaylen-Brown-35181","Marcus-Morris-13316","Jayson-Tatum-37782","Jahlil-Okafor-18902","Jrue-Holiday-1073","Bogdan-Bogdanovic-37899","Marvin-Bagley-III-409321","49900","285.83"
"Trey-Burke-17029","Jerryd-Bayless-1021","Jayson-Tatum-37782","Otto-Porter-17069","Jahlil-Okafor-18902","De'Aaron-Fox-37900","Bogdan-Bogdanovic-37899","Jrue-Holiday-1073","50000","285.82"
"De'Aaron-Fox-37900","Jerryd-Bayless-1021","Jaylen-Brown-35181","Otto-Porter-17069","Jahlil-Okafor-18902","Jrue-Holiday-1073","Bogdan-Bogdanovic-37899","Marcus-Morris-13316","49400","285.82"
"Trey-Burke-17029","Marcus-Smart-18567","Jaylen-Brown-35181","Otto-Porter-17069","Jahlil-Okafor-18902","De'Aaron-Fox-37900","Domantas-Sabonis-35217","Jrue-Holiday-1073","49900","285.8"
"De'Aaron-Fox-37900","Marcus-Smart-18567","Kyle-Anderson-18615","Jayson-Tatum-37782","Jahlil-Okafor-18902","Jrue-Holiday-1073","Bogdan-Bogdanovic-37899","Otto-Porter-17069","49900","285.78"
"De'Aaron-Fox-37900","Justin-Holiday-14559","Jaylen-Brown-35181","Otto-Porter-17069","Jahlil-Okafor-18902","Bogdan-Bogdanovic-37899","Josh-Richardson-18922","Jrue-Holiday-1073","49700","285.73"
"De'Aaron-Fox-37900","Jaylen-Brown-35181","Kyle-Anderson-18615","Jayson-Tatum-37782","Jahlil-Okafor-18902","Jrue-Holiday-1073","Bogdan-Bogdanovic-37899","Otto-Porter-17069","49400","285.73"
"De'Aaron-Fox-37900","Justin-Holiday-14559","Bogdan-Bogdanovic-37899","Marvin-Bagley-III-409321","Jahlil-Okafor-18902","Jrue-Holiday-1073","Noah-Vonleh-18597","Otto-Porter-17069","50000","285.73"
"De'Aaron-Fox-37900","Jerryd-Bayless-1021","Jaylen-Brown-35181","Marcus-Morris-13316","Jahlil-Okafor-18902","Jrue-Holiday-1073","Otto-Porter-17069","Terry-Rozier-18894","50000","285.72"
"De'Aaron-Fox-37900","Justin-Holiday-14559","Jaylen-Brown-35181","Otto-Porter-17069","Jahlil-Okafor-18902","Darren-Collison-1060","Bogdan-Bogdanovic-37899","Jrue-Holiday-1073","49600","285.71"
"De'Aaron-Fox-37900","Justin-Holiday-14559","Marcus-Morris-13316","Jayson-Tatum-37782","Jahlil-Okafor-18902","Jrue-Holiday-1073","Bogdan-Bogdanovic-37899","Otto-Porter-17069","49800","285.71"
"De'Aaron-Fox-37900","Terry-Rozier-18894","Jaylen-Brown-35181","Jayson-Tatum-37782","Jahlil-Okafor-18902","Jrue-Holiday-1073","Kyle-Anderson-18615","Otto-Porter-17069","50000","285.63"
"De'Aaron-Fox-37900","Jerryd-Bayless-1021","Jaylen-Brown-35181","Noah-Vonleh-18597","Jahlil-Okafor-18902","Jrue-Holiday-1073","Otto-Porter-17069","Marvin-Bagley-III-409321","49900","285.58"
"De'Aaron-Fox-37900","Jerryd-Bayless-1021","Jaylen-Brown-35181","Marcus-Morris-13316","Jahlil-Okafor-18902","Jrue-Holiday-1073","Jayson-Tatum-37782","Otto-Porter-17069","49700","285.56"
"Trey-Burke-17029","Jrue-Holiday-1073","Jaylen-Brown-35181","Otto-Porter-17069","Jahlil-Okafor-18902","De'Aaron-Fox-37900","Josh-Richardson-18922","Marcus-Morris-13316","50000","285.55"
"De'Aaron-Fox-37900","Jaylen-Brown-35181","Bogdan-Bogdanovic-37899","Marvin-Bagley-III-409321","Jahlil-Okafor-18902","Jrue-Holiday-1073","Noah-Vonleh-18597","Marcus-Morris-13316","50000","285.54"
"Trey-Burke-17029","Jrue-Holiday-1073","Jaylen-Brown-35181","Marcus-Morris-13316","Jahlil-Okafor-18902","De'Aaron-Fox-37900","Otto-Porter-17069","Darren-Collison-1060","49900","285.53"
"De'Aaron-Fox-37900","Bogdan-Bogdanovic-37899","Jaylen-Brown-35181","Otto-Porter-17069","Domantas-Sabonis-35217","Jrue-Holiday-1073","Dion-Waiters-13897","Jahlil-Okafor-18902","49600","285.52"
"De'Aaron-Fox-37900","Marcus-Smart-18567","Kyle-Anderson-18615","Otto-Porter-17069","Noah-Vonleh-18597","Jrue-Holiday-1073","Bogdan-Bogdanovic-37899","Jahlil-Okafor-18902","50000","285.49"
"De'Aaron-Fox-37900","Justin-Holiday-14559","Jaylen-Brown-35181","Jayson-Tatum-37782","Jahlil-Okafor-18902","Jrue-Holiday-1073","Josh-Richardson-18922","Otto-Porter-17069","50000","285.47"
"De'Aaron-Fox-37900","Jrue-Holiday-1073","Jaylen-Brown-35181","Otto-Porter-17069","Jahlil-Okafor-18902","Darren-Collison-1060","Justin-Holiday-14559","Jayson-Tatum-37782","49900","285.45"
"De'Aaron-Fox-37900","Jaylen-Brown-35181","Kyle-Anderson-18615","Otto-Porter-17069","Noah-Vonleh-18597","Jrue-Holiday-1073","Bogdan-Bogdanovic-37899","Jahlil-Okafor-18902","49500","285.44"
"De'Aaron-Fox-37900","Bogdan-Bogdanovic-37899","Justin-Holiday-14559","Noah-Vonleh-18597","Jahlil-Okafor-18902","Jrue-Holiday-1073","Otto-Porter-17069","Marcus-Morris-13316","49900","285.42"
"Trey-Burke-17029","Jrue-Holiday-1073","Jaylen-Brown-35181","Marvin-Bagley-III-409321","Domantas-Sabonis-35217","De'Aaron-Fox-37900","Bogdan-Bogdanovic-37899","Jahlil-Okafor-18902","49900","285.38"
"De'Aaron-Fox-37900","Bogdan-Bogdanovic-37899","Marcus-Morris-13316","Otto-Porter-17069","Marvin-Bagley-III-409321","Jrue-Holiday-1073","Kyle-Anderson-18615","Jahlil-Okafor-18902","49600","285.37"
"De'Aaron-Fox-37900","Jerryd-Bayless-1021","Marcus-Morris-13316","Otto-Porter-17069","Jahlil-Okafor-18902","Jrue-Holiday-1073","Kyle-Anderson-18615","Domantas-Sabonis-35217","50000","285.34"
"De'Aaron-Fox-37900","Justin-Holiday-14559","Jaylen-Brown-35181","Marvin-Bagley-III-409321","Domantas-Sabonis-35217","Jrue-Holiday-1073","Otto-Porter-17069","Jahlil-Okafor-18902","49600","285.31"
"De'Aaron-Fox-37900","Jerryd-Bayless-1021","Jaylen-Brown-35181","Marcus-Morris-13316","Jahlil-Okafor-18902","Jrue-Holiday-1073","Noah-Vonleh-18597","Otto-Porter-17069","49800","285.27"
"De'Aaron-Fox-37900","Jaylen-Brown-35181","Jayson-Tatum-37782","Otto-Porter-17069","Jahlil-Okafor-18902","Jrue-Holiday-1073","Dion-Waiters-13897","Domantas-Sabonis-35217","49900","285.26"
"Trey-Burke-17029","Justin-Holiday-14559","Otto-Porter-17069","Domantas-Sabonis-35217","Jahlil-Okafor-18902","De'Aaron-Fox-37900","Bogdan-Bogdanovic-37899","Jrue-Holiday-1073","49800","285.26"
"De'Aaron-Fox-37900","Jerryd-Bayless-1021","Kyle-Anderson-18615","Otto-Porter-17069","Jahlil-Okafor-18902","Jrue-Holiday-1073","Bogdan-Bogdanovic-37899","Terry-Rozier-18894","50000","285.25"
"De'Aaron-Fox-37900","Jerryd-Bayless-1021","Jaylen-Brown-35181","Marvin-Bagley-III-409321","Jahlil-Okafor-18902","Darren-Collison-1060","Bogdan-Bogdanovic-37899","Jrue-Holiday-1073","50000","285.19"
"Trey-Burke-17029","Marcus-Smart-18567","Otto-Porter-17069","Marvin-Bagley-III-409321","Jahlil-Okafor-18902","De'Aaron-Fox-37900","Bogdan-Bogdanovic-37899","Jrue-Holiday-1073","49800","285.19"
"De'Aaron-Fox-37900","Jrue-Holiday-1073","Jaylen-Brown-35181","Noah-Vonleh-18597","Jahlil-Okafor-18902","Kyle-Anderson-18615","Jayson-Tatum-37782","Otto-Porter-17069","49800","285.18"
"De'Aaron-Fox-37900","Jaylen-Brown-35181","Justin-Holiday-14559","Noah-Vonleh-18597","Jahlil-Okafor-18902","Darren-Collison-1060","Otto-Porter-17069","Jrue-Holiday-1073","50000","285.16"
"De'Aaron-Fox-37900","Marcus-Smart-18567","Jaylen-Brown-35181","Domantas-Sabonis-35217","Jahlil-Okafor-18902","Jerryd-Bayless-1021","Bogdan-Bogdanovic-37899","Jrue-Holiday-1073","49900","285.15"
"Trey-Burke-17029","Jrue-Holiday-1073","Jaylen-Brown-35181","Marvin-Bagley-III-409321","Jahlil-Okafor-18902","De'Aaron-Fox-37900","Bogdan-Bogdanovic-37899","Otto-Porter-17069","49300","285.14"
"De'Aaron-Fox-37900","Jrue-Holiday-1073","Jaylen-Brown-35181","Otto-Porter-17069","Jahlil-Okafor-18902","Kyle-Anderson-18615","Josh-Richardson-18922","Marvin-Bagley-III-409321","49800","285.13"
"De'Aaron-Fox-37900","Jrue-Holiday-1073","Jaylen-Brown-35181","Marvin-Bagley-III-409321","Jahlil-Okafor-18902","Darren-Collison-1060","Kyle-Anderson-18615","Otto-Porter-17069","49700","285.11"
"Trey-Burke-17029","Jerryd-Bayless-1021","Jaylen-Brown-35181","Otto-Porter-17069","Jahlil-Okafor-18902","De'Aaron-Fox-37900","Domantas-Sabonis-35217","Jrue-Holiday-1073","49700","285.11"
"De'Aaron-Fox-37900","Jrue-Holiday-1073","Jayson-Tatum-37782","Marvin-Bagley-III-409321","Jahlil-Okafor-18902","Kyle-Anderson-18615","Otto-Porter-17069","Marcus-Morris-13316","49900","285.11"
"De'Aaron-Fox-37900","Jerryd-Bayless-1021","Josh-Richardson-18922","Otto-Porter-17069","Jahlil-Okafor-18902","Bogdan-Bogdanovic-37899","Justin-Holiday-14559","Jrue-Holiday-1073","50000","285.09"
"De'Aaron-Fox-37900","Jerryd-Bayless-1021","Kyle-Anderson-18615","Jayson-Tatum-37782","Jahlil-Okafor-18902","Jrue-Holiday-1073","Bogdan-Bogdanovic-37899","Otto-Porter-17069","49700","285.09"
"Trey-Burke-17029","Josh-Richardson-18922","Kyle-Anderson-18615","Otto-Porter-17069","Jahlil-Okafor-18902","De'Aaron-Fox-37900","Bogdan-Bogdanovic-37899","Jrue-Holiday-1073","50000","285.08"
"Trey-Burke-17029","Jrue-Holiday-1073","Jaylen-Brown-35181","Marcus-Morris-13316","Domantas-Sabonis-35217","De'Aaron-Fox-37900","Bogdan-Bogdanovic-37899","Jahlil-Okafor-18902","49800","285.07"
"De'Aaron-Fox-37900","Bogdan-Bogdanovic-37899","Jaylen-Brown-35181","Harrison-Barnes-13901","Marvin-Bagley-III-409321","Jrue-Holiday-1073","Otto-Porter-17069","Jahlil-Okafor-18902","49700","285.07"
"De'Aaron-Fox-37900","Jerryd-Bayless-1021","Justin-Holiday-14559","Otto-Porter-17069","Jahlil-Okafor-18902","Darren-Collison-1060","Bogdan-Bogdanovic-37899","Jrue-Holiday-1073","49900","285.07"
"De'Aaron-Fox-37900","Marcus-Smart-18567","Jaylen-Brown-35181","Domantas-Sabonis-35217","Jahlil-Okafor-18902","Jrue-Holiday-1073","Kyle-Anderson-18615","Otto-Porter-17069","49600","285.07"
"Trey-Burke-17029","Jrue-Holiday-1073","Kyle-Anderson-18615","Otto-Porter-17069","Jahlil-Okafor-18902","De'Aaron-Fox-37900","Bogdan-Bogdanovic-37899","Darren-Collison-1060","49900","285.06"
"De'Aaron-Fox-37900","Marcus-Smart-18567","Marcus-Morris-13316","Domantas-Sabonis-35217","Jahlil-Okafor-18902","Jrue-Holiday-1073","Justin-Holiday-14559","Otto-Porter-17069","50000","285.05"
"Trey-Burke-17029","Terry-Rozier-18894","Jaylen-Brown-35181","Marvin-Bagley-III-409321","Jahlil-Okafor-18902","De'Aaron-Fox-37900","Otto-Porter-17069","Jrue-Holiday-1073","49900","285.04"
"De'Aaron-Fox-37900","Jaylen-Brown-35181","Marcus-Morris-13316","Domantas-Sabonis-35217","Jahlil-Okafor-18902","Jrue-Holiday-1073","Justin-Holiday-14559","Otto-Porter-17069","49500","285.0"
"De'Aaron-Fox-37900","Justin-Holiday-14559","Jaylen-Brown-35181","Jayson-Tatum-37782","Domantas-Sabonis-35217","Jrue-Holiday-1073","Bogdan-Bogdanovic-37899","Jahlil-Okafor-18902","49800","284.99"
"De'Aaron-Fox-37900","Marcus-Smart-18567","Jaylen-Brown-35181","Otto-Porter-17069","Jaren-Jackson-409099","Jrue-Holiday-1073","Bogdan-Bogdanovic-37899","Jahlil-Okafor-18902","49700","284.98"
"De'Aaron-Fox-37900","Jaylen-Brown-35181","Dion-Waiters-13897","Noah-Vonleh-18597","Jahlil-Okafor-18902","Jrue-Holiday-1073","Domantas-Sabonis-35217","Otto-Porter-17069","50000","284.97"
"De'Aaron-Fox-37900","Marcus-Smart-18567","Justin-Holiday-14559","Otto-Porter-17069","Jahlil-Okafor-18902","Jrue-Holiday-1073","Bogdan-Bogdanovic-37899","Terry-Rozier-18894","50000","284.96"
"De'Aaron-Fox-37900","Marcus-Smart-18567","Jaylen-Brown-35181","Marcus-Morris-13316","Marvin-Bagley-III-409321","Jrue-Holiday-1073","Otto-Porter-17069","Jahlil-Okafor-18902","49500","284.93"
"De'Aaron-Fox-37900","Marcus-Smart-18567","Jaylen-Brown-35181","Jayson-Tatum-37782","Jahlil-Okafor-18902","Jrue-Holiday-1073","Bogdan-Bogdanovic-37899","Marvin-Bagley-III-409321","49800","284.92"
"De'Aaron-Fox-37900","Marcus-Smart-18567","Jaylen-Brown-35181","Otto-Porter-17069","Jahlil-Okafor-18902","Jerryd-Bayless-1021","Bogdan-Bogdanovic-37899","Jrue-Holiday-1073","49300","284.91"
"De'Aaron-Fox-37900","Justin-Holiday-14559","Jaylen-Brown-35181","Otto-Porter-17069","Jahlil-Okafor-18902","Jrue-Holiday-1073","Bogdan-Bogdanovic-37899","Terry-Rozier-18894","49500","284.91"
"De'Aaron-Fox-37900","Jaylen-Brown-35181","Josh-Richardson-18922","Marcus-Morris-13316","Jahlil-Okafor-18902","Jerryd-Bayless-1021","Bogdan-Bogdanovic-37899","Jrue-Holiday-1073","50000","284.9"
"De'Aaron-Fox-37900","Jaylen-Brown-35181","Jayson-Tatum-37782","Otto-Porter-17069","Jahlil-Okafor-18902","Jrue-Holiday-1073","Bogdan-Bogdanovic-37899","Paul-Millsap-1335","49900","284.89"
"De'Aaron-Fox-37900","Jerryd-Bayless-1021","Otto-Porter-17069","Domantas-Sabonis-35217","Jahlil-Okafor-18902","Jrue-Holiday-1073","Bogdan-Bogdanovic-37899","Dion-Waiters-13897","49900","284.88"
"Trey-Burke-17029","Jaylen-Brown-35181","Jayson-Tatum-37782","Marvin-Bagley-III-409321","Jahlil-Okafor-18902","De'Aaron-Fox-37900","Otto-Porter-17069","Jrue-Holiday-1073","49600","284.88"
"Trey-Burke-17029","Marcus-Smart-18567","Marcus-Morris-13316","Otto-Porter-17069","Jahlil-Okafor-18902","De'Aaron-Fox-37900","Bogdan-Bogdanovic-37899","Jrue-Holiday-1073","49700","284.88"
"De'Aaron-Fox-37900","Jerryd-Bayless-1021","Jaylen-Brown-35181","Marcus-Morris-13316","Jahlil-Okafor-18902","Darren-Collison-1060","Bogdan-Bogdanovic-37899","Jrue-Holiday-1073","49900","284.88"
