"Shai-Gilgeous-Alexander-408990","Marcus-Smart-18567","Jayson-Tatum-37782","Pascal-Siakam-35186","Steven-Adams-16848","Kyrie-Irving-13334","Kawhi-Leonard-13310","Fred-VanVleet-36011","50000","288.76"

"Shai-Gilgeous-Alexander-408990","Marcus-Smart-18567","Jayson-Tatum-37782","Pascal-Siakam-35186","Steven-Adams-16848","Kyrie-Irving-13334","Kawhi-Leonard-13310","Fred-VanVleet-36011","50000","288.76"
"Shai-Gilgeous-Alexander-408990","Dennis-Schroder-18595","Jayson-Tatum-37782","Pascal-Siakam-35186","Steven-Adams-16848","Kyrie-Irving-13334","Kawhi-Leonard-13310","Fred-VanVleet-36011","49900","287.25"
"Russell-Westbrook-1083","Delon-Wright-18907","Kawhi-Leonard-13310","Pascal-Siakam-35186","Steven-Adams-16848","Marcus-Smart-18567","Danny-Green-940","Fred-VanVleet-36011","50000","286.87"
"Russell-Westbrook-1083","Delon-Wright-18907","Kawhi-Leonard-13310","Pascal-Siakam-35186","Steven-Adams-16848","Shai-Gilgeous-Alexander-408990","Gordon-Hayward-1239","Fred-VanVleet-36011","50000","286.56"
"Russell-Westbrook-1083","Shai-Gilgeous-Alexander-408990","Kawhi-Leonard-13310","Pascal-Siakam-35186","Steven-Adams-16848","Marcus-Smart-18567","Norman-Powell-18908","Fred-VanVleet-36011","49900","286.52"
"Lou-Williams-1044","Marcus-Smart-18567","Kawhi-Leonard-13310","Serge-Ibaka-1294","Steven-Adams-16848","Fred-VanVleet-36011","Pascal-Siakam-35186","Jayson-Tatum-37782","49700","286.33"
"Delon-Wright-18907","Marcus-Smart-18567","Jayson-Tatum-37782","Pascal-Siakam-35186","Steven-Adams-16848","Kyrie-Irving-13334","Kawhi-Leonard-13310","Fred-VanVleet-36011","49700","286.09"
"Dennis-Schroder-18595","Fred-VanVleet-36011","Jayson-Tatum-37782","Pascal-Siakam-35186","Steven-Adams-16848","Kyrie-Irving-13334","Danny-Green-940","Kawhi-Leonard-13310","50000","285.94"
"Russell-Westbrook-1083","Shai-Gilgeous-Alexander-408990","Jayson-Tatum-37782","Kawhi-Leonard-13310","Pascal-Siakam-35186","Marcus-Smart-18567","Danny-Green-940","Fred-VanVleet-36011","49900","285.9"
"Delon-Wright-18907","Shai-Gilgeous-Alexander-408990","Jayson-Tatum-37782","Pascal-Siakam-35186","Steven-Adams-16848","Fred-VanVleet-36011","Paul-George-1245","Kawhi-Leonard-13310","49800","285.72"
"Lou-Williams-1044","Shai-Gilgeous-Alexander-408990","Jayson-Tatum-37782","Al-Horford-1499","Pascal-Siakam-35186","Fred-VanVleet-36011","Kawhi-Leonard-13310","Steven-Adams-16848","49700","285.7"
"Lou-Williams-1044","Shai-Gilgeous-Alexander-408990","Jayson-Tatum-37782","Pascal-Siakam-35186","Steven-Adams-16848","Fred-VanVleet-36011","Montrezl-Harrell-18930","Kawhi-Leonard-13310","49900","285.7"
"Delon-Wright-18907","Marcus-Smart-18567","Kawhi-Leonard-13310","Serge-Ibaka-1294","Steven-Adams-16848","Kyrie-Irving-13334","Pascal-Siakam-35186","Fred-VanVleet-36011","50000","285.49"
"Russell-Westbrook-1083","Delon-Wright-18907","Kawhi-Leonard-13310","Pascal-Siakam-35186","Steven-Adams-16848","Dennis-Schroder-18595","Danny-Green-940","Fred-VanVleet-36011","49900","285.36"
"Delon-Wright-18907","Fred-VanVleet-36011","Jayson-Tatum-37782","Pascal-Siakam-35186","Steven-Adams-16848","Kyrie-Irving-13334","Kawhi-Leonard-13310","Marcus-Morris-13316","50000","285.27"
"Russell-Westbrook-1083","Marcus-Smart-18567","Norman-Powell-18908","Pascal-Siakam-35186","Steven-Adams-16848","Fred-VanVleet-36011","Danny-Green-940","Kawhi-Leonard-13310","50000","285.21"
"Lou-Williams-1044","Shai-Gilgeous-Alexander-408990","Kawhi-Leonard-13310","Serge-Ibaka-1294","Steven-Adams-16848","Fred-VanVleet-36011","Pascal-Siakam-35186","Al-Horford-1499","50000","285.1"
"Russell-Westbrook-1083","Shai-Gilgeous-Alexander-408990","Kawhi-Leonard-13310","Pascal-Siakam-35186","Steven-Adams-16848","Dennis-Schroder-18595","Norman-Powell-18908","Fred-VanVleet-36011","49800","285.01"
"Russell-Westbrook-1083","Shai-Gilgeous-Alexander-408990","Avery-Bradley-941","Pascal-Siakam-35186","Steven-Adams-16848","Marcus-Smart-18567","Kawhi-Leonard-13310","Fred-VanVleet-36011","50000","284.94"
"Russell-Westbrook-1083","Shai-Gilgeous-Alexander-408990","Kawhi-Leonard-13310","Gordon-Hayward-1239","Steven-Adams-16848","Fred-VanVleet-36011","Norman-Powell-18908","Pascal-Siakam-35186","50000","284.9"
"Russell-Westbrook-1083","Delon-Wright-18907","Jayson-Tatum-37782","Kawhi-Leonard-13310","Steven-Adams-16848","Fred-VanVleet-36011","Daniel-Theis-37784","Pascal-Siakam-35186","50000","284.87"
"Delon-Wright-18907","Shai-Gilgeous-Alexander-408990","Kawhi-Leonard-13310","Al-Horford-1499","Steven-Adams-16848","Kyrie-Irving-13334","Pascal-Siakam-35186","Fred-VanVleet-36011","50000","284.86"
"Lou-Williams-1044","Dennis-Schroder-18595","Kawhi-Leonard-13310","Serge-Ibaka-1294","Steven-Adams-16848","Fred-VanVleet-36011","Pascal-Siakam-35186","Jayson-Tatum-37782","49600","284.82"
"Russell-Westbrook-1083","Marcus-Smart-18567","Marcus-Morris-13316","Jayson-Tatum-37782","Steven-Adams-16848","Fred-VanVleet-36011","Al-Horford-1499","Pascal-Siakam-35186","50000","284.81"
"Russell-Westbrook-1083","Delon-Wright-18907","Jayson-Tatum-37782","Serge-Ibaka-1294","Pascal-Siakam-35186","Fred-VanVleet-36011","Al-Horford-1499","Steven-Adams-16848","49900","284.8"
"Shai-Gilgeous-Alexander-408990","Fred-VanVleet-36011","Jayson-Tatum-37782","Pascal-Siakam-35186","Steven-Adams-16848","Kyrie-Irving-13334","Danny-Green-940","Kawhi-Leonard-13310","49400","284.8"
"Delon-Wright-18907","Dennis-Schroder-18595","Jayson-Tatum-37782","Pascal-Siakam-35186","Steven-Adams-16848","Kyrie-Irving-13334","Kawhi-Leonard-13310","Fred-VanVleet-36011","49600","284.58"
"Shai-Gilgeous-Alexander-408990","Marcus-Smart-18567","Jayson-Tatum-37782","Serge-Ibaka-1294","Pascal-Siakam-35186","Kyrie-Irving-13334","Kawhi-Leonard-13310","Fred-VanVleet-36011","49900","284.52"
"Russell-Westbrook-1083","Shai-Gilgeous-Alexander-408990","Kawhi-Leonard-13310","Pascal-Siakam-35186","Steven-Adams-16848","Marcus-Smart-18567","Terrance-Ferguson-37871","Fred-VanVleet-36011","49800","284.48"
"Delon-Wright-18907","Fred-VanVleet-36011","Jayson-Tatum-37782","Pascal-Siakam-35186","Steven-Adams-16848","Kyrie-Irving-13334","Gordon-Hayward-1239","Kawhi-Leonard-13310","49800","284.47"
"Russell-Westbrook-1083","Shai-Gilgeous-Alexander-408990","Jayson-Tatum-37782","Kawhi-Leonard-13310","Steven-Adams-16848","Marcus-Smart-18567","Danny-Green-940","Fred-VanVleet-36011","49600","284.45"
"Shai-Gilgeous-Alexander-408990","Dennis-Schroder-18595","Kawhi-Leonard-13310","Pascal-Siakam-35186","Steven-Adams-16848","Marcus-Smart-18567","Paul-George-1245","Fred-VanVleet-36011","49800","284.44"
"Marcus-Smart-18567","Fred-VanVleet-36011","Jayson-Tatum-37782","Pascal-Siakam-35186","Steven-Adams-16848","Kyrie-Irving-13334","Norman-Powell-18908","Kawhi-Leonard-13310","49700","284.43"
"Delon-Wright-18907","Danny-Green-940","Jayson-Tatum-37782","Pascal-Siakam-35186","Steven-Adams-16848","Fred-VanVleet-36011","Paul-George-1245","Kawhi-Leonard-13310","49900","284.41"
"Lou-Williams-1044","Danny-Green-940","Jayson-Tatum-37782","Al-Horford-1499","Pascal-Siakam-35186","Fred-VanVleet-36011","Kawhi-Leonard-13310","Steven-Adams-16848","49800","284.39"
"Lou-Williams-1044","Danny-Green-940","Jayson-Tatum-37782","Pascal-Siakam-35186","Steven-Adams-16848","Fred-VanVleet-36011","Montrezl-Harrell-18930","Kawhi-Leonard-13310","50000","284.39"
"Russell-Westbrook-1083","Shai-Gilgeous-Alexander-408990","Jayson-Tatum-37782","Kawhi-Leonard-13310","Pascal-Siakam-35186","Dennis-Schroder-18595","Danny-Green-940","Fred-VanVleet-36011","49800","284.39"
"Russell-Westbrook-1083","Lou-Williams-1044","Jayson-Tatum-37782","Pascal-Siakam-35186","Steven-Adams-16848","Dennis-Schroder-18595","Gordon-Hayward-1239","Fred-VanVleet-36011","50000","284.38"
"Shai-Gilgeous-Alexander-408990","Marcus-Smart-18567","Kawhi-Leonard-13310","Gordon-Hayward-1239","Pascal-Siakam-35186","Fred-VanVleet-36011","Paul-George-1245","Steven-Adams-16848","50000","284.33"
"Russell-Westbrook-1083","Shai-Gilgeous-Alexander-408990","Kawhi-Leonard-13310","Gordon-Hayward-1239","Pascal-Siakam-35186","Fred-VanVleet-36011","Danny-Green-940","Jayson-Tatum-37782","50000","284.28"
"Russell-Westbrook-1083","Delon-Wright-18907","Kawhi-Leonard-13310","Pascal-Siakam-35186","Steven-Adams-16848","Shai-Gilgeous-Alexander-408990","Danny-Green-940","Fred-VanVleet-36011","49300","284.22"
"Shai-Gilgeous-Alexander-408990","Danny-Green-940","Kawhi-Leonard-13310","Serge-Ibaka-1294","Steven-Adams-16848","Kyrie-Irving-13334","Pascal-Siakam-35186","Fred-VanVleet-36011","49700","284.2"
"Russell-Westbrook-1083","Dennis-Schroder-18595","Jayson-Tatum-37782","Pascal-Siakam-35186","Steven-Adams-16848","Marcus-Smart-18567","Montrezl-Harrell-18930","Fred-VanVleet-36011","49800","284.12"
"Russell-Westbrook-1083","Dennis-Schroder-18595","Jayson-Tatum-37782","Al-Horford-1499","Steven-Adams-16848","Marcus-Smart-18567","Pascal-Siakam-35186","Fred-VanVleet-36011","49600","284.12"
"Russell-Westbrook-1083","Delon-Wright-18907","Jayson-Tatum-37782","Kawhi-Leonard-13310","Steven-Adams-16848","Marcus-Smart-18567","Gordon-Hayward-1239","Fred-VanVleet-36011","50000","284.12"
"Shai-Gilgeous-Alexander-408990","Norman-Powell-18908","Jayson-Tatum-37782","Pascal-Siakam-35186","Steven-Adams-16848","Fred-VanVleet-36011","Paul-George-1245","Kawhi-Leonard-13310","49800","284.06"
"Russell-Westbrook-1083","Lou-Williams-1044","Marcus-Morris-13316","Jayson-Tatum-37782","Steven-Adams-16848","Shai-Gilgeous-Alexander-408990","Pascal-Siakam-35186","Fred-VanVleet-36011","49600","284.04"
"Russell-Westbrook-1083","Marcus-Smart-18567","Jayson-Tatum-37782","Pascal-Siakam-35186","Steven-Adams-16848","Fred-VanVleet-36011","Montrezl-Harrell-18930","Gordon-Hayward-1239","50000","284.01"
"Russell-Westbrook-1083","Marcus-Smart-18567","Jayson-Tatum-37782","Pascal-Siakam-35186","Steven-Adams-16848","Fred-VanVleet-36011","Gordon-Hayward-1239","Al-Horford-1499","49800","284.01"
"Dennis-Schroder-18595","Marcus-Smart-18567","Marcus-Morris-13316","Pascal-Siakam-35186","Steven-Adams-16848","Kyrie-Irving-13334","Kawhi-Leonard-13310","Fred-VanVleet-36011","50000","283.99"
"Delon-Wright-18907","Dennis-Schroder-18595","Kawhi-Leonard-13310","Serge-Ibaka-1294","Steven-Adams-16848","Kyrie-Irving-13334","Pascal-Siakam-35186","Fred-VanVleet-36011","49900","283.98"
"Russell-Westbrook-1083","Delon-Wright-18907","Jayson-Tatum-37782","OG-Anunoby-37807","Steven-Adams-16848","Fred-VanVleet-36011","Kawhi-Leonard-13310","Pascal-Siakam-35186","50000","283.9"
"Russell-Westbrook-1083","Shai-Gilgeous-Alexander-408990","Kawhi-Leonard-13310","Serge-Ibaka-1294","Steven-Adams-16848","Marcus-Smart-18567","Danny-Green-940","Fred-VanVleet-36011","49900","283.85"
"Russell-Westbrook-1083","Delon-Wright-18907","Kawhi-Leonard-13310","Pascal-Siakam-35186","Steven-Adams-16848","Marcus-Smart-18567","Norman-Powell-18908","Fred-VanVleet-36011","49600","283.85"
"Marcus-Smart-18567","Norman-Powell-18908","Kawhi-Leonard-13310","Serge-Ibaka-1294","Steven-Adams-16848","Kyrie-Irving-13334","Pascal-Siakam-35186","Fred-VanVleet-36011","50000","283.83"
"Russell-Westbrook-1083","Delon-Wright-18907","Marcus-Morris-13316","Jayson-Tatum-37782","Pascal-Siakam-35186","Shai-Gilgeous-Alexander-408990","Kawhi-Leonard-13310","Fred-VanVleet-36011","49800","283.72"
"Russell-Westbrook-1083","Dennis-Schroder-18595","Norman-Powell-18908","Pascal-Siakam-35186","Steven-Adams-16848","Fred-VanVleet-36011","Danny-Green-940","Kawhi-Leonard-13310","49900","283.7"
"Lou-Williams-1044","Shai-Gilgeous-Alexander-408990","Kawhi-Leonard-13310","Serge-Ibaka-1294","Steven-Adams-16848","Fred-VanVleet-36011","Pascal-Siakam-35186","Jayson-Tatum-37782","49000","283.68"
"Russell-Westbrook-1083","Shai-Gilgeous-Alexander-408990","Marcus-Morris-13316","Kawhi-Leonard-13310","Steven-Adams-16848","Fred-VanVleet-36011","Danny-Green-940","Jayson-Tatum-37782","49900","283.63"
"Fred-VanVleet-36011","Norman-Powell-18908","Jayson-Tatum-37782","Pascal-Siakam-35186","Steven-Adams-16848","Kyrie-Irving-13334","Kawhi-Leonard-13310","Marcus-Morris-13316","50000","283.61"
"Russell-Westbrook-1083","Dennis-Schroder-18595","Kawhi-Leonard-13310","Pascal-Siakam-35186","Steven-Adams-16848","Marcus-Smart-18567","Daniel-Theis-37784","Fred-VanVleet-36011","50000","283.59"
"Russell-Westbrook-1083","Lou-Williams-1044","Jayson-Tatum-37782","Pascal-Siakam-35186","Steven-Adams-16848","Marcus-Smart-18567","Danny-Green-940","Fred-VanVleet-36011","49400","283.55"
"Russell-Westbrook-1083","Shai-Gilgeous-Alexander-408990","Jayson-Tatum-37782","Mike-Scott-13999","Steven-Adams-16848","Fred-VanVleet-36011","Pascal-Siakam-35186","Kawhi-Leonard-13310","50000","283.54"
"Russell-Westbrook-1083","Delon-Wright-18907","Jayson-Tatum-37782","Pascal-Siakam-35186","Marcin-Gortat-1479","Fred-VanVleet-36011","Kawhi-Leonard-13310","Steven-Adams-16848","50000","283.47"
"Delon-Wright-18907","Shai-Gilgeous-Alexander-408990","Jayson-Tatum-37782","Pascal-Siakam-35186","Steven-Adams-16848","Kyrie-Irving-13334","Kawhi-Leonard-13310","Fred-VanVleet-36011","49000","283.44"
"Russell-Westbrook-1083","Lou-Williams-1044","Marcus-Morris-13316","Serge-Ibaka-1294","Steven-Adams-16848","Shai-Gilgeous-Alexander-408990","Pascal-Siakam-35186","Fred-VanVleet-36011","49900","283.44"
"Russell-Westbrook-1083","Shai-Gilgeous-Alexander-408990","Avery-Bradley-941","Pascal-Siakam-35186","Steven-Adams-16848","Dennis-Schroder-18595","Kawhi-Leonard-13310","Fred-VanVleet-36011","49900","283.43"
"Russell-Westbrook-1083","Shai-Gilgeous-Alexander-408990","Jayson-Tatum-37782","Pascal-Siakam-35186","Steven-Adams-16848","Kyrie-Irving-13334","Daniel-Theis-37784","Fred-VanVleet-36011","50000","283.38"
"Russell-Westbrook-1083","Dennis-Schroder-18595","Marcus-Morris-13316","Jayson-Tatum-37782","Steven-Adams-16848","Fred-VanVleet-36011","Al-Horford-1499","Pascal-Siakam-35186","49900","283.3"
"Russell-Westbrook-1083","Lou-Williams-1044","Jayson-Tatum-37782","Pascal-Siakam-35186","Steven-Adams-16848","Shai-Gilgeous-Alexander-408990","Gordon-Hayward-1239","Fred-VanVleet-36011","49400","283.24"
"Russell-Westbrook-1083","Delon-Wright-18907","Jayson-Tatum-37782","Kawhi-Leonard-13310","Pascal-Siakam-35186","Marcus-Smart-18567","Danny-Green-940","Fred-VanVleet-36011","49600","283.23"
"Russell-Westbrook-1083","Norman-Powell-18908","Jayson-Tatum-37782","Kawhi-Leonard-13310","Steven-Adams-16848","Fred-VanVleet-36011","Daniel-Theis-37784","Pascal-Siakam-35186","50000","283.21"
"Marcus-Smart-18567","Danny-Green-940","Jayson-Tatum-37782","Serge-Ibaka-1294","Pascal-Siakam-35186","Kyrie-Irving-13334","Kawhi-Leonard-13310","Fred-VanVleet-36011","50000","283.21"
"Shai-Gilgeous-Alexander-408990","Fred-VanVleet-36011","Kawhi-Leonard-13310","Al-Horford-1499","Pascal-Siakam-35186","Kyrie-Irving-13334","Norman-Powell-18908","Steven-Adams-16848","50000","283.2"
"Dennis-Schroder-18595","Marcus-Smart-18567","Kawhi-Leonard-13310","Pascal-Siakam-35186","Steven-Adams-16848","Kyrie-Irving-13334","Gordon-Hayward-1239","Fred-VanVleet-36011","49800","283.19"
"Russell-Westbrook-1083","Marcus-Smart-18567","Danny-Green-940","Kawhi-Leonard-13310","Pascal-Siakam-35186","Fred-VanVleet-36011","Terrance-Ferguson-37871","Steven-Adams-16848","49900","283.17"
"Russell-Westbrook-1083","Norman-Powell-18908","Jayson-Tatum-37782","Serge-Ibaka-1294","Pascal-Siakam-35186","Fred-VanVleet-36011","Al-Horford-1499","Steven-Adams-16848","49900","283.14"
"Dennis-Schroder-18595","Marcus-Smart-18567","Kawhi-Leonard-13310","Paul-George-1245","Pascal-Siakam-35186","Fred-VanVleet-36011","Danny-Green-940","Steven-Adams-16848","49900","283.13"
"Shai-Gilgeous-Alexander-408990","Marcus-Smart-18567","Jayson-Tatum-37782","Serge-Ibaka-1294","Steven-Adams-16848","Kyrie-Irving-13334","Kawhi-Leonard-13310","Fred-VanVleet-36011","49600","283.07"
"Lou-Williams-1044","Delon-Wright-18907","Jayson-Tatum-37782","Al-Horford-1499","Pascal-Siakam-35186","Fred-VanVleet-36011","Kawhi-Leonard-13310","Steven-Adams-16848","49400","283.03"
"Lou-Williams-1044","Delon-Wright-18907","Jayson-Tatum-37782","Pascal-Siakam-35186","Steven-Adams-16848","Fred-VanVleet-36011","Montrezl-Harrell-18930","Kawhi-Leonard-13310","49600","283.03"
"Russell-Westbrook-1083","Delon-Wright-18907","Marcus-Morris-13316","Kawhi-Leonard-13310","Pascal-Siakam-35186","Fred-VanVleet-36011","Norman-Powell-18908","Steven-Adams-16848","49900","283.03"
"Lou-Williams-1044","Shai-Gilgeous-Alexander-408990","Jayson-Tatum-37782","Kawhi-Leonard-13310","Steven-Adams-16848","Kyrie-Irving-13334","Danny-Green-940","Fred-VanVleet-36011","50000","283.01"
"Shai-Gilgeous-Alexander-408990","Dennis-Schroder-18595","Jayson-Tatum-37782","Serge-Ibaka-1294","Pascal-Siakam-35186","Kyrie-Irving-13334","Kawhi-Leonard-13310","Fred-VanVleet-36011","49800","283.01"
"Russell-Westbrook-1083","Shai-Gilgeous-Alexander-408990","Jayson-Tatum-37782","Al-Horford-1499","Steven-Adams-16848","Marcus-Smart-18567","Pascal-Siakam-35186","Fred-VanVleet-36011","49000","282.98"
"Russell-Westbrook-1083","Shai-Gilgeous-Alexander-408990","Jayson-Tatum-37782","Pascal-Siakam-35186","Steven-Adams-16848","Marcus-Smart-18567","Montrezl-Harrell-18930","Fred-VanVleet-36011","49200","282.98"
"Russell-Westbrook-1083","Shai-Gilgeous-Alexander-408990","Kawhi-Leonard-13310","Pascal-Siakam-35186","Steven-Adams-16848","Dennis-Schroder-18595","Terrance-Ferguson-37871","Fred-VanVleet-36011","49700","282.97"
"Russell-Westbrook-1083","Lou-Williams-1044","Danny-Green-940","Serge-Ibaka-1294","Steven-Adams-16848","Marcus-Smart-18567","Pascal-Siakam-35186","Fred-VanVleet-36011","49700","282.95"
"Russell-Westbrook-1083","Shai-Gilgeous-Alexander-408990","Jayson-Tatum-37782","Kawhi-Leonard-13310","Steven-Adams-16848","Dennis-Schroder-18595","Danny-Green-940","Fred-VanVleet-36011","49500","282.94"
"Shai-Gilgeous-Alexander-408990","Fred-VanVleet-36011","Jayson-Tatum-37782","Pascal-Siakam-35186","Steven-Adams-16848","Kyrie-Irving-13334","Danny-Green-940","Paul-George-1245","49900","282.92"
"Russell-Westbrook-1083","Delon-Wright-18907","Jayson-Tatum-37782","Kawhi-Leonard-13310","Pascal-Siakam-35186","Shai-Gilgeous-Alexander-408990","Gordon-Hayward-1239","Fred-VanVleet-36011","49600","282.92"
"Dennis-Schroder-18595","Fred-VanVleet-36011","Jayson-Tatum-37782","Pascal-Siakam-35186","Steven-Adams-16848","Kyrie-Irving-13334","Norman-Powell-18908","Kawhi-Leonard-13310","49600","282.92"
"Shai-Gilgeous-Alexander-408990","Fred-VanVleet-36011","Jayson-Tatum-37782","Serge-Ibaka-1294","Pascal-Siakam-35186","Kyrie-Irving-13334","Kawhi-Leonard-13310","Gordon-Hayward-1239","50000","282.9"
"Russell-Westbrook-1083","Shai-Gilgeous-Alexander-408990","Jayson-Tatum-37782","Kawhi-Leonard-13310","Pascal-Siakam-35186","Marcus-Smart-18567","Norman-Powell-18908","Fred-VanVleet-36011","49500","282.88"
"Russell-Westbrook-1083","Shai-Gilgeous-Alexander-408990","Kawhi-Leonard-13310","Gordon-Hayward-1239","Pascal-Siakam-35186","Fred-VanVleet-36011","Terrance-Ferguson-37871","Steven-Adams-16848","49900","282.86"
"Shai-Gilgeous-Alexander-408990","Marcus-Smart-18567","Marcus-Morris-13316","Pascal-Siakam-35186","Steven-Adams-16848","Kyrie-Irving-13334","Kawhi-Leonard-13310","Fred-VanVleet-36011","49400","282.85"
"Marcus-Smart-18567","Fred-VanVleet-36011","Jayson-Tatum-37782","Kawhi-Leonard-13310","Pascal-Siakam-35186","Kyrie-Irving-13334","Avery-Bradley-941","Steven-Adams-16848","49800","282.85"
"Delon-Wright-18907","Shai-Gilgeous-Alexander-408990","Kawhi-Leonard-13310","Serge-Ibaka-1294","Steven-Adams-16848","Kyrie-Irving-13334","Pascal-Siakam-35186","Fred-VanVleet-36011","49300","282.84"
"Russell-Westbrook-1083","Shai-Gilgeous-Alexander-408990","Jayson-Tatum-37782","Gordon-Hayward-1239","Steven-Adams-16848","Fred-VanVleet-36011","Danny-Green-940","Kawhi-Leonard-13310","49700","282.83"
"Shai-Gilgeous-Alexander-408990","Dennis-Schroder-18595","Kawhi-Leonard-13310","Gordon-Hayward-1239","Pascal-Siakam-35186","Fred-VanVleet-36011","Paul-George-1245","Steven-Adams-16848","49900","282.82"
