"Eric-Bledsoe-1031","Shabazz-Napier-18598","Dorian-Finney-Smith-36032","Maxi-Kleber-37845","Lauri-Markkanen-37809","Luka-Doncic-408971","Otto-Porter-17069","D'Angelo-Russell-18947","50000","280.94"
"Eric-Bledsoe-1031","Shabazz-Napier-18598","Tim-Hardaway-Jr.-16879","Dorian-Finney-Smith-36032","Jarrett-Allen-37794","Luka-Doncic-408971","Lauri-Markkanen-37809","D'Angelo-Russell-18947","49900","280.7"
"Eric-Bledsoe-1031","Shabazz-Napier-18598","Tim-Hardaway-Jr.-16879","Dwight-Powell-18566","Lauri-Markkanen-37809","Luka-Doncic-408971","Joe-Harris-18587","D'Angelo-Russell-18947","50000","280.46"
"Eric-Bledsoe-1031","Shabazz-Napier-18598","Giannis-Antetokounmpo-16852","Dorian-Finney-Smith-36032","Lauri-Markkanen-37809","Sterling-Brown-37821","Tim-Hardaway-Jr.-16879","D'Angelo-Russell-18947","50000","280.32"
"Eric-Bledsoe-1031","Shabazz-Napier-18598","Giannis-Antetokounmpo-16852","Dorian-Finney-Smith-36032","Dwight-Powell-18566","Tim-Hardaway-Jr.-16879","Otto-Porter-17069","D'Angelo-Russell-18947","50000","280.07"

"Eric-Bledsoe-1031","Shabazz-Napier-18598","Dorian-Finney-Smith-36032","Maxi-Kleber-37845","Lauri-Markkanen-37809","Luka-Doncic-408971","Otto-Porter-17069","D'Angelo-Russell-18947","50000","280.94"
"Eric-Bledsoe-1031","Shabazz-Napier-18598","Tim-Hardaway-Jr.-16879","Dorian-Finney-Smith-36032","Jarrett-Allen-37794","Luka-Doncic-408971","Lauri-Markkanen-37809","D'Angelo-Russell-18947","49900","280.7"
"Eric-Bledsoe-1031","Shabazz-Napier-18598","Tim-Hardaway-Jr.-16879","Dwight-Powell-18566","Lauri-Markkanen-37809","Luka-Doncic-408971","Joe-Harris-18587","D'Angelo-Russell-18947","50000","280.46"
"Eric-Bledsoe-1031","Shabazz-Napier-18598","Giannis-Antetokounmpo-16852","Dorian-Finney-Smith-36032","Lauri-Markkanen-37809","Sterling-Brown-37821","Tim-Hardaway-Jr.-16879","D'Angelo-Russell-18947","50000","280.32"
"Eric-Bledsoe-1031","Shabazz-Napier-18598","Giannis-Antetokounmpo-16852","Dorian-Finney-Smith-36032","Dwight-Powell-18566","Tim-Hardaway-Jr.-16879","Otto-Porter-17069","D'Angelo-Russell-18947","50000","280.07"
"Eric-Bledsoe-1031","Shabazz-Napier-18598","Tim-Hardaway-Jr.-16879","Otto-Porter-17069","Lauri-Markkanen-37809","Luka-Doncic-408971","Sterling-Brown-37821","D'Angelo-Russell-18947","50000","279.9"
"Eric-Bledsoe-1031","Shabazz-Napier-18598","Tim-Hardaway-Jr.-16879","Dorian-Finney-Smith-36032","Lauri-Markkanen-37809","Luka-Doncic-408971","Joe-Harris-18587","D'Angelo-Russell-18947","49500","279.86"
"Eric-Bledsoe-1031","Luka-Doncic-408971","Tim-Hardaway-Jr.-16879","Maxi-Kleber-37845","Lauri-Markkanen-37809","Malcolm-Brogdon-35195","Dorian-Finney-Smith-36032","D'Angelo-Russell-18947","50000","279.74"
"Eric-Bledsoe-1031","Shabazz-Napier-18598","Tim-Hardaway-Jr.-16879","Dwight-Powell-18566","Lauri-Markkanen-37809","Luka-Doncic-408971","Dorian-Finney-Smith-36032","D'Angelo-Russell-18947","49300","279.32"
"Eric-Bledsoe-1031","Shabazz-Napier-18598","Giannis-Antetokounmpo-16852","Dorian-Finney-Smith-36032","Lauri-Markkanen-37809","Ryan-Broekhoff-555205","Tim-Hardaway-Jr.-16879","D'Angelo-Russell-18947","49900","279.06"
"Eric-Bledsoe-1031","Luka-Doncic-408971","Joe-Harris-18587","Dorian-Finney-Smith-36032","Lauri-Markkanen-37809","D'Angelo-Russell-18947","Otto-Porter-17069","Maxi-Kleber-37845","49900","278.92"
"Eric-Bledsoe-1031","Shabazz-Napier-18598","Tim-Hardaway-Jr.-16879","Maxi-Kleber-37845","Lauri-Markkanen-37809","Luka-Doncic-408971","Joe-Harris-18587","D'Angelo-Russell-18947","49800","278.91"
"Eric-Bledsoe-1031","Kris-Dunn-35215","Tim-Hardaway-Jr.-16879","Dorian-Finney-Smith-36032","Lauri-Markkanen-37809","Luka-Doncic-408971","Sterling-Brown-37821","D'Angelo-Russell-18947","49900","278.81"
"Eric-Bledsoe-1031","Kris-Dunn-35215","Tim-Hardaway-Jr.-16879","Dorian-Finney-Smith-36032","Lauri-Markkanen-37809","Zach-LaVine-18622","Otto-Porter-17069","D'Angelo-Russell-18947","49900","278.74"
"Eric-Bledsoe-1031","Luka-Doncic-408971","Tim-Hardaway-Jr.-16879","Lauri-Markkanen-37809","Jarrett-Allen-37794","D'Angelo-Russell-18947","Joe-Harris-18587","Dorian-Finney-Smith-36032","49800","278.68"
"Eric-Bledsoe-1031","Luka-Doncic-408971","Joe-Harris-18587","Dwight-Powell-18566","Lauri-Markkanen-37809","Malcolm-Brogdon-35195","Dorian-Finney-Smith-36032","D'Angelo-Russell-18947","49900","278.65"
"Eric-Bledsoe-1031","Shabazz-Napier-18598","Ryan-Broekhoff-555205","Otto-Porter-17069","Lauri-Markkanen-37809","Luka-Doncic-408971","Tim-Hardaway-Jr.-16879","D'Angelo-Russell-18947","49900","278.64"
"Eric-Bledsoe-1031","Jalen-Brunson-409062","Joe-Harris-18587","Dorian-Finney-Smith-36032","Lauri-Markkanen-37809","Luka-Doncic-408971","Otto-Porter-17069","D'Angelo-Russell-18947","50000","278.61"
"Eric-Bledsoe-1031","Kris-Dunn-35215","Tim-Hardaway-Jr.-16879","Dorian-Finney-Smith-36032","Dwight-Powell-18566","Luka-Doncic-408971","Otto-Porter-17069","D'Angelo-Russell-18947","49900","278.56"
"Eric-Bledsoe-1031","Shabazz-Napier-18598","Giannis-Antetokounmpo-16852","Dorian-Finney-Smith-36032","Maxi-Kleber-37845","Tim-Hardaway-Jr.-16879","Otto-Porter-17069","D'Angelo-Russell-18947","49800","278.52"
"Eric-Bledsoe-1031","Kris-Dunn-35215","Tim-Hardaway-Jr.-16879","Dorian-Finney-Smith-36032","Lauri-Markkanen-37809","Luka-Doncic-408971","Tony-Snell-16872","D'Angelo-Russell-18947","50000","278.5"
"Eric-Bledsoe-1031","Zach-LaVine-18622","Sterling-Brown-37821","Dorian-Finney-Smith-36032","Lauri-Markkanen-37809","Luka-Doncic-408971","Joe-Harris-18587","D'Angelo-Russell-18947","50000","278.48"
"Eric-Bledsoe-1031","Shabazz-Napier-18598","Giannis-Antetokounmpo-16852","Dwight-Powell-18566","Lauri-Markkanen-37809","D'Angelo-Russell-18947","Dorian-Finney-Smith-36032","Rondae-Hollis-Jefferson-18897","50000","278.38"
"Eric-Bledsoe-1031","Luka-Doncic-408971","Dorian-Finney-Smith-36032","Maxi-Kleber-37845","Lauri-Markkanen-37809","D'Angelo-Russell-18947","Otto-Porter-17069","Dwight-Powell-18566","49700","278.38"
"Eric-Bledsoe-1031","Shabazz-Napier-18598","Tim-Hardaway-Jr.-16879","Maxi-Kleber-37845","Lauri-Markkanen-37809","Luka-Doncic-408971","Dwight-Powell-18566","D'Angelo-Russell-18947","49600","278.37"
"Eric-Bledsoe-1031","Tim-Hardaway-Jr.-16879","Giannis-Antetokounmpo-16852","Dorian-Finney-Smith-36032","Lauri-Markkanen-37809","Sterling-Brown-37821","Joe-Harris-18587","D'Angelo-Russell-18947","49900","278.3"
"Eric-Bledsoe-1031","Shabazz-Napier-18598","Giannis-Antetokounmpo-16852","Dorian-Finney-Smith-36032","Dwight-Powell-18566","Malcolm-Brogdon-35195","Tim-Hardaway-Jr.-16879","D'Angelo-Russell-18947","49800","278.25"
"Eric-Bledsoe-1031","Zach-LaVine-18622","Joe-Harris-18587","Dorian-Finney-Smith-36032","Dwight-Powell-18566","Luka-Doncic-408971","Otto-Porter-17069","D'Angelo-Russell-18947","50000","278.23"
"Eric-Bledsoe-1031","Luka-Doncic-408971","Tim-Hardaway-Jr.-16879","Dwight-Powell-18566","Lauri-Markkanen-37809","D'Angelo-Russell-18947","Dorian-Finney-Smith-36032","Jarrett-Allen-37794","49600","278.14"
"Eric-Bledsoe-1031","Luka-Doncic-408971","Sterling-Brown-37821","Dorian-Finney-Smith-36032","Lauri-Markkanen-37809","Malcolm-Brogdon-35195","Otto-Porter-17069","D'Angelo-Russell-18947","49900","278.09"
"Eric-Bledsoe-1031","Jalen-Brunson-409062","Dorian-Finney-Smith-36032","Dwight-Powell-18566","Lauri-Markkanen-37809","Luka-Doncic-408971","Otto-Porter-17069","D'Angelo-Russell-18947","49800","278.07"
"Eric-Bledsoe-1031","Shabazz-Napier-18598","Joe-Harris-18587","Dorian-Finney-Smith-36032","Jarrett-Allen-37794","Luka-Doncic-408971","Lauri-Markkanen-37809","D'Angelo-Russell-18947","49600","278.06"
"Eric-Bledsoe-1031","Tim-Hardaway-Jr.-16879","Giannis-Antetokounmpo-16852","Dorian-Finney-Smith-36032","Dwight-Powell-18566","D'Angelo-Russell-18947","Otto-Porter-17069","Joe-Harris-18587","49900","278.05"
"Eric-Bledsoe-1031","Tim-Hardaway-Jr.-16879","Giannis-Antetokounmpo-16852","Dorian-Finney-Smith-36032","Lauri-Markkanen-37809","Tony-Snell-16872","Joe-Harris-18587","D'Angelo-Russell-18947","50000","277.99"
"Eric-Bledsoe-1031","Luka-Doncic-408971","Tim-Hardaway-Jr.-16879","Dorian-Finney-Smith-36032","Lauri-Markkanen-37809","D'Angelo-Russell-18947","Otto-Porter-17069","Rondae-Hollis-Jefferson-18897","49700","277.98"
"Eric-Bledsoe-1031","Shabazz-Napier-18598","Otto-Porter-17069","Dwight-Powell-18566","Lauri-Markkanen-37809","Luka-Doncic-408971","Rondae-Hollis-Jefferson-18897","D'Angelo-Russell-18947","50000","277.96"
"Eric-Bledsoe-1031","Zach-LaVine-18622","Sterling-Brown-37821","Dwight-Powell-18566","Lauri-Markkanen-37809","Luka-Doncic-408971","Dorian-Finney-Smith-36032","D'Angelo-Russell-18947","49800","277.94"
"Eric-Bledsoe-1031","Luka-Doncic-408971","Tim-Hardaway-Jr.-16879","Otto-Porter-17069","Lauri-Markkanen-37809","D'Angelo-Russell-18947","Sterling-Brown-37821","Joe-Harris-18587","49900","277.88"
"Eric-Bledsoe-1031","Shabazz-Napier-18598","Dorian-Finney-Smith-36032","Dwight-Powell-18566","Ed-Davis-1265","D'Angelo-Russell-18947","Lauri-Markkanen-37809","Giannis-Antetokounmpo-16852","49900","277.85"
"Eric-Bledsoe-1031","Luka-Doncic-408971","Tony-Snell-16872","Dorian-Finney-Smith-36032","Lauri-Markkanen-37809","Malcolm-Brogdon-35195","Otto-Porter-17069","D'Angelo-Russell-18947","50000","277.78"
"Eric-Bledsoe-1031","Shabazz-Napier-18598","Tim-Hardaway-Jr.-16879","Maxi-Kleber-37845","Lauri-Markkanen-37809","Luka-Doncic-408971","Dorian-Finney-Smith-36032","D'Angelo-Russell-18947","49100","277.77"
"Eric-Bledsoe-1031","Sterling-Brown-37821","Giannis-Antetokounmpo-16852","Dwight-Powell-18566","Lauri-Markkanen-37809","D'Angelo-Russell-18947","Tim-Hardaway-Jr.-16879","Dorian-Finney-Smith-36032","49700","277.76"
"Eric-Bledsoe-1031","Shabazz-Napier-18598","Giannis-Antetokounmpo-16852","Dorian-Finney-Smith-36032","Lauri-Markkanen-37809","Malcolm-Brogdon-35195","Tim-Hardaway-Jr.-16879","Otto-Porter-17069","50000","277.75"
"Eric-Bledsoe-1031","Shabazz-Napier-18598","Giannis-Antetokounmpo-16852","Dorian-Finney-Smith-36032","Lauri-Markkanen-37809","Sterling-Brown-37821","Joe-Harris-18587","D'Angelo-Russell-18947","49700","277.68"
"Eric-Bledsoe-1031","Zach-LaVine-18622","Tony-Snell-16872","Dwight-Powell-18566","Lauri-Markkanen-37809","Luka-Doncic-408971","Dorian-Finney-Smith-36032","D'Angelo-Russell-18947","49900","277.63"
"Eric-Bledsoe-1031","Zach-LaVine-18622","Giannis-Antetokounmpo-16852","Dwight-Powell-18566","Lauri-Markkanen-37809","Shabazz-Napier-18598","Tim-Hardaway-Jr.-16879","Dorian-Finney-Smith-36032","49900","277.6"
"Eric-Bledsoe-1031","Luka-Doncic-408971","Tim-Hardaway-Jr.-16879","Otto-Porter-17069","Lauri-Markkanen-37809","D'Angelo-Russell-18947","Tony-Snell-16872","Joe-Harris-18587","50000","277.57"
"Eric-Bledsoe-1031","Kris-Dunn-35215","Ryan-Broekhoff-555205","Dorian-Finney-Smith-36032","Lauri-Markkanen-37809","Luka-Doncic-408971","Tim-Hardaway-Jr.-16879","D'Angelo-Russell-18947","49800","277.55"
"Eric-Bledsoe-1031","Shabazz-Napier-18598","Dorian-Finney-Smith-36032","Dwight-Powell-18566","Jarrett-Allen-37794","Luka-Doncic-408971","Lauri-Markkanen-37809","D'Angelo-Russell-18947","49400","277.52"
"Kris-Dunn-35215","Shabazz-Napier-18598","Dorian-Finney-Smith-36032","Dwight-Powell-18566","Lauri-Markkanen-37809","Luka-Doncic-408971","Otto-Porter-17069","D'Angelo-Russell-18947","50000","277.52"
"Eric-Bledsoe-1031","Shabazz-Napier-18598","Giannis-Antetokounmpo-16852","Dorian-Finney-Smith-36032","Cristiano-Felicio-31767","Tim-Hardaway-Jr.-16879","Lauri-Markkanen-37809","D'Angelo-Russell-18947","49800","277.45"
"Eric-Bledsoe-1031","Tony-Snell-16872","Giannis-Antetokounmpo-16852","Dwight-Powell-18566","Lauri-Markkanen-37809","D'Angelo-Russell-18947","Tim-Hardaway-Jr.-16879","Dorian-Finney-Smith-36032","49800","277.45"
"Eric-Bledsoe-1031","Tim-Hardaway-Jr.-16879","Giannis-Antetokounmpo-16852","Maxi-Kleber-37845","Rondae-Hollis-Jefferson-18897","D'Angelo-Russell-18947","Dorian-Finney-Smith-36032","Lauri-Markkanen-37809","50000","277.45"
"Eric-Bledsoe-1031","Tim-Hardaway-Jr.-16879","Dorian-Finney-Smith-36032","Lauri-Markkanen-37809","Ed-Davis-1265","Luka-Doncic-408971","Otto-Porter-17069","D'Angelo-Russell-18947","49600","277.45"
"Eric-Bledsoe-1031","Shabazz-Napier-18598","Giannis-Antetokounmpo-16852","Dorian-Finney-Smith-36032","Dwight-Powell-18566","D'Angelo-Russell-18947","Otto-Porter-17069","Joe-Harris-18587","49700","277.43"
"Eric-Bledsoe-1031","Shabazz-Napier-18598","Otto-Porter-17069","Dwight-Powell-18566","Ed-Davis-1265","Luka-Doncic-408971","Lauri-Markkanen-37809","D'Angelo-Russell-18947","49900","277.43"
"Eric-Bledsoe-1031","Kris-Dunn-35215","Giannis-Antetokounmpo-16852","Maxi-Kleber-37845","Dwight-Powell-18566","Shabazz-Napier-18598","Dorian-Finney-Smith-36032","D'Angelo-Russell-18947","50000","277.41"
"Eric-Bledsoe-1031","Shabazz-Napier-18598","Giannis-Antetokounmpo-16852","Dorian-Finney-Smith-36032","Lauri-Markkanen-37809","Tony-Snell-16872","Joe-Harris-18587","D'Angelo-Russell-18947","49800","277.37"
"Eric-Bledsoe-1031","Shabazz-Napier-18598","Dorian-Finney-Smith-36032","Rondae-Hollis-Jefferson-18897","Lauri-Markkanen-37809","Luka-Doncic-408971","Otto-Porter-17069","D'Angelo-Russell-18947","49500","277.36"
"Eric-Bledsoe-1031","Luka-Doncic-408971","Tim-Hardaway-Jr.-16879","Dwight-Powell-18566","Lauri-Markkanen-37809","Sterling-Brown-37821","Otto-Porter-17069","D'Angelo-Russell-18947","49700","277.34"
"Eric-Bledsoe-1031","Luka-Doncic-408971","Tim-Hardaway-Jr.-16879","Dwight-Powell-18566","Lauri-Markkanen-37809","D'Angelo-Russell-18947","Dorian-Finney-Smith-36032","Joe-Harris-18587","49200","277.3"
"Eric-Bledsoe-1031","Luka-Doncic-408971","Tim-Hardaway-Jr.-16879","Dorian-Finney-Smith-36032","Robin-Lopez-1466","D'Angelo-Russell-18947","Lauri-Markkanen-37809","Otto-Porter-17069","50000","277.26"
"Eric-Bledsoe-1031","Shabazz-Napier-18598","Giannis-Antetokounmpo-16852","Dorian-Finney-Smith-36032","Jarrett-Allen-37794","Ryan-Broekhoff-555205","Lauri-Markkanen-37809","D'Angelo-Russell-18947","50000","277.26"
"Eric-Bledsoe-1031","Shabazz-Napier-18598","Sterling-Brown-37821","Otto-Porter-17069","Lauri-Markkanen-37809","Luka-Doncic-408971","Joe-Harris-18587","D'Angelo-Russell-18947","49700","277.26"
"Eric-Bledsoe-1031","Zach-LaVine-18622","Ryan-Broekhoff-555205","Dorian-Finney-Smith-36032","Lauri-Markkanen-37809","Luka-Doncic-408971","Joe-Harris-18587","D'Angelo-Russell-18947","49900","277.22"
"Zach-LaVine-18622","Shabazz-Napier-18598","Tim-Hardaway-Jr.-16879","Dorian-Finney-Smith-36032","Lauri-Markkanen-37809","Luka-Doncic-408971","Joe-Harris-18587","D'Angelo-Russell-18947","49700","277.2"
"Eric-Bledsoe-1031","Luka-Doncic-408971","Tim-Hardaway-Jr.-16879","Maxi-Kleber-37845","Lauri-Markkanen-37809","D'Angelo-Russell-18947","Dwight-Powell-18566","Jarrett-Allen-37794","49900","277.19"
"Eric-Bledsoe-1031","Shabazz-Napier-18598","Tim-Hardaway-Jr.-16879","Ersan-Ilyasova-1301","Lauri-Markkanen-37809","D'Angelo-Russell-18947","Dorian-Finney-Smith-36032","Giannis-Antetokounmpo-16852","50000","277.19"
"Eric-Bledsoe-1031","Zach-LaVine-18622","Tim-Hardaway-Jr.-16879","Dwight-Powell-18566","Lauri-Markkanen-37809","Shabazz-Napier-18598","Otto-Porter-17069","Luka-Doncic-408971","49900","277.18"
"Eric-Bledsoe-1031","Shabazz-Napier-18598","Giannis-Antetokounmpo-16852","Dwight-Powell-18566","Lauri-Markkanen-37809","Sterling-Brown-37821","Dorian-Finney-Smith-36032","D'Angelo-Russell-18947","49500","277.14"
"Eric-Bledsoe-1031","Shabazz-Napier-18598","Joe-Harris-18587","Maxi-Kleber-37845","Jarrett-Allen-37794","Luka-Doncic-408971","Lauri-Markkanen-37809","D'Angelo-Russell-18947","49900","277.11"
"Eric-Bledsoe-1031","Zach-LaVine-18622","Dorian-Finney-Smith-36032","Maxi-Kleber-37845","Ed-Davis-1265","Luka-Doncic-408971","Lauri-Markkanen-37809","D'Angelo-Russell-18947","50000","277.1"
"Eric-Bledsoe-1031","Luka-Doncic-408971","Joe-Harris-18587","Maxi-Kleber-37845","Lauri-Markkanen-37809","Malcolm-Brogdon-35195","Dorian-Finney-Smith-36032","D'Angelo-Russell-18947","49700","277.1"
"Eric-Bledsoe-1031","Ryan-Broekhoff-555205","Giannis-Antetokounmpo-16852","Dorian-Finney-Smith-36032","Lauri-Markkanen-37809","Tim-Hardaway-Jr.-16879","Joe-Harris-18587","D'Angelo-Russell-18947","49800","277.04"
"Eric-Bledsoe-1031","Shabazz-Napier-18598","Tim-Hardaway-Jr.-16879","Lauri-Markkanen-37809","Cristiano-Felicio-31767","Luka-Doncic-408971","Otto-Porter-17069","D'Angelo-Russell-18947","49800","277.03"
"Eric-Bledsoe-1031","Luka-Doncic-408971","Tim-Hardaway-Jr.-16879","Dwight-Powell-18566","Lauri-Markkanen-37809","D'Angelo-Russell-18947","Tony-Snell-16872","Otto-Porter-17069","49800","277.03"
"Eric-Bledsoe-1031","Luka-Doncic-408971","Tim-Hardaway-Jr.-16879","Maxi-Kleber-37845","Lauri-Markkanen-37809","D'Angelo-Russell-18947","Otto-Porter-17069","Rondae-Hollis-Jefferson-18897","50000","277.03"
"Shabazz-Napier-18598","D'Angelo-Russell-18947","Giannis-Antetokounmpo-16852","Dorian-Finney-Smith-36032","Dwight-Powell-18566","Joe-Harris-18587","Otto-Porter-17069","Lauri-Markkanen-37809","50000","277.01"
"Eric-Bledsoe-1031","Kris-Dunn-35215","Sterling-Brown-37821","Dorian-Finney-Smith-36032","Jarrett-Allen-37794","Luka-Doncic-408971","Lauri-Markkanen-37809","D'Angelo-Russell-18947","50000","277.01"
"Eric-Bledsoe-1031","Kris-Dunn-35215","Giannis-Antetokounmpo-16852","Dorian-Finney-Smith-36032","Rondae-Hollis-Jefferson-18897","Shabazz-Napier-18598","Tim-Hardaway-Jr.-16879","D'Angelo-Russell-18947","50000","277.01"
"Eric-Bledsoe-1031","Kris-Dunn-35215","Tim-Hardaway-Jr.-16879","Dorian-Finney-Smith-36032","Maxi-Kleber-37845","Luka-Doncic-408971","Otto-Porter-17069","D'Angelo-Russell-18947","49700","277.01"
"Eric-Bledsoe-1031","Shabazz-Napier-18598","Tony-Snell-16872","Otto-Porter-17069","Lauri-Markkanen-37809","Luka-Doncic-408971","Joe-Harris-18587","D'Angelo-Russell-18947","49800","276.95"
"Eric-Bledsoe-1031","Kris-Dunn-35215","Dorian-Finney-Smith-36032","Lauri-Markkanen-37809","Jarrett-Allen-37794","Zach-LaVine-18622","Otto-Porter-17069","D'Angelo-Russell-18947","50000","276.94"
"Eric-Bledsoe-1031","Tim-Hardaway-Jr.-16879","Giannis-Antetokounmpo-16852","Maxi-Kleber-37845","Ed-Davis-1265","D'Angelo-Russell-18947","Dorian-Finney-Smith-36032","Lauri-Markkanen-37809","49900","276.92"
"Eric-Bledsoe-1031","Jalen-Brunson-409062","Tim-Hardaway-Jr.-16879","Dwight-Powell-18566","Jarrett-Allen-37794","Luka-Doncic-408971","Lauri-Markkanen-37809","D'Angelo-Russell-18947","50000","276.88"
"Eric-Bledsoe-1031","Kris-Dunn-35215","Joe-Harris-18587","Dorian-Finney-Smith-36032","Ed-Davis-1265","Luka-Doncic-408971","Lauri-Markkanen-37809","D'Angelo-Russell-18947","50000","276.88"
"Eric-Bledsoe-1031","Kris-Dunn-35215","Dorian-Finney-Smith-36032","Dwight-Powell-18566","Lauri-Markkanen-37809","Luka-Doncic-408971","Rondae-Hollis-Jefferson-18897","D'Angelo-Russell-18947","49900","276.87"
"Eric-Bledsoe-1031","Shabazz-Napier-18598","Ryan-Broekhoff-555205","Lauri-Markkanen-37809","Jarrett-Allen-37794","Luka-Doncic-408971","Otto-Porter-17069","D'Angelo-Russell-18947","50000","276.84"
"Eric-Bledsoe-1031","Shabazz-Napier-18598","Giannis-Antetokounmpo-16852","Maxi-Kleber-37845","Rondae-Hollis-Jefferson-18897","D'Angelo-Russell-18947","Dorian-Finney-Smith-36032","Lauri-Markkanen-37809","49800","276.83"
"Eric-Bledsoe-1031","Shabazz-Napier-18598","Giannis-Antetokounmpo-16852","Dwight-Powell-18566","Lauri-Markkanen-37809","Tony-Snell-16872","Dorian-Finney-Smith-36032","D'Angelo-Russell-18947","49600","276.83"
"Eric-Bledsoe-1031","Shabazz-Napier-18598","Dorian-Finney-Smith-36032","Lauri-Markkanen-37809","Ed-Davis-1265","Luka-Doncic-408971","Otto-Porter-17069","D'Angelo-Russell-18947","49400","276.83"
"Eric-Bledsoe-1031","Luka-Doncic-408971","Ryan-Broekhoff-555205","Dorian-Finney-Smith-36032","Lauri-Markkanen-37809","Malcolm-Brogdon-35195","Otto-Porter-17069","D'Angelo-Russell-18947","49800","276.83"
"Eric-Bledsoe-1031","Sterling-Brown-37821","Giannis-Antetokounmpo-16852","Dwight-Powell-18566","Lauri-Markkanen-37809","D'Angelo-Russell-18947","Tim-Hardaway-Jr.-16879","Maxi-Kleber-37845","50000","276.81"
"Shabazz-Napier-18598","Luka-Doncic-408971","Tim-Hardaway-Jr.-16879","Dorian-Finney-Smith-36032","Lauri-Markkanen-37809","Malcolm-Brogdon-35195","Otto-Porter-17069","D'Angelo-Russell-18947","49600","276.81"
"Eric-Bledsoe-1031","Shabazz-Napier-18598","Tim-Hardaway-Jr.-16879","Ersan-Ilyasova-1301","Lauri-Markkanen-37809","Luka-Doncic-408971","Otto-Porter-17069","D'Angelo-Russell-18947","50000","276.77"
"Eric-Bledsoe-1031","Kris-Dunn-35215","Dorian-Finney-Smith-36032","Dwight-Powell-18566","Jarrett-Allen-37794","Luka-Doncic-408971","Otto-Porter-17069","D'Angelo-Russell-18947","50000","276.76"
"Eric-Bledsoe-1031","Luka-Doncic-408971","Tim-Hardaway-Jr.-16879","Dwight-Powell-18566","Lauri-Markkanen-37809","Malcolm-Brogdon-35195","Rondae-Hollis-Jefferson-18897","D'Angelo-Russell-18947","50000","276.76"
"Eric-Bledsoe-1031","Luka-Doncic-408971","Tim-Hardaway-Jr.-16879","Dorian-Finney-Smith-36032","Lauri-Markkanen-37809","Sterling-Brown-37821","Otto-Porter-17069","D'Angelo-Russell-18947","49200","276.74"
"Eric-Bledsoe-1031","Shabazz-Napier-18598","Giannis-Antetokounmpo-16852","Maxi-Kleber-37845","Lauri-Markkanen-37809","Sterling-Brown-37821","Joe-Harris-18587","D'Angelo-Russell-18947","50000","276.73"
"Eric-Bledsoe-1031","Shabazz-Napier-18598","Giannis-Antetokounmpo-16852","Maxi-Kleber-37845","Jarrett-Allen-37794","D'Angelo-Russell-18947","Otto-Porter-17069","Dorian-Finney-Smith-36032","49900","276.72"
