"Terry-Rozier-18894","Kris-Dunn-35215","JaMychal-Green-18729","Thomas-Bryant--37884","Marc-Gasol-1493","Zach-LaVine-18622","Daniel-Theis-37784","Karl-Anthony-Towns-18937","50000","284.83"
"Trae-Young-409063","Kris-Dunn-35215","DeAndre-Bembry-35198","Thomas-Bryant--37884","Marc-Gasol-1493","Zach-LaVine-18622","Daniel-Theis-37784","Karl-Anthony-Towns-18937","50000","284.43"

"Terry-Rozier-18894","Kris-Dunn-35215","JaMychal-Green-18729","Thomas-Bryant--37884","Marc-Gasol-1493","Zach-LaVine-18622","Daniel-Theis-37784","Karl-Anthony-Towns-18937","50000","284.83"
"Trae-Young-409063","Kris-Dunn-35215","DeAndre-Bembry-35198","Thomas-Bryant--37884","Marc-Gasol-1493","Zach-LaVine-18622","Daniel-Theis-37784","Karl-Anthony-Towns-18937","50000","284.43"
"Trae-Young-409063","Kris-Dunn-35215","Wesley-Matthews-1339","Thomas-Bryant--37884","Marc-Gasol-1493","Zach-LaVine-18622","Daniel-Theis-37784","Karl-Anthony-Towns-18937","50000","284.35"
"Trae-Young-409063","Terry-Rozier-18894","DeAndre-Bembry-35198","Thomas-Bryant--37884","Marc-Gasol-1493","Zach-LaVine-18622","Daniel-Theis-37784","Karl-Anthony-Towns-18937","50000","284.32"
"Trae-Young-409063","Terry-Rozier-18894","Wesley-Matthews-1339","Thomas-Bryant--37884","Marc-Gasol-1493","Zach-LaVine-18622","Daniel-Theis-37784","Karl-Anthony-Towns-18937","50000","284.24"
"Terry-Rozier-18894","Kris-Dunn-35215","Jaylen-Brown-35181","Lauri-Markkanen-37809","Karl-Anthony-Towns-18937","Zach-LaVine-18622","Daniel-Theis-37784","Hassan-Whiteside-18664","50000","283.89"
"Trae-Young-409063","Kris-Dunn-35215","Chandler-Hutchison-408877","Thomas-Bryant--37884","Karl-Anthony-Towns-18937","Zach-LaVine-18622","Daniel-Theis-37784","Nikola-Vucevic-13296","50000","283.83"
"Terry-Rozier-18894","Kris-Dunn-35215","Chandler-Hutchison-408877","Lauri-Markkanen-37809","Marc-Gasol-1493","Zach-LaVine-18622","Daniel-Theis-37784","Karl-Anthony-Towns-18937","49500","283.79"
"Trae-Young-409063","Terry-Rozier-18894","Chandler-Hutchison-408877","Thomas-Bryant--37884","Karl-Anthony-Towns-18937","Zach-LaVine-18622","Daniel-Theis-37784","Nikola-Vucevic-13296","50000","283.72"
"Terry-Rozier-18894","Kris-Dunn-35215","Trevor-Ariza-1323","Chandler-Hutchison-408877","Hassan-Whiteside-18664","Zach-LaVine-18622","Thomas-Bryant--37884","Karl-Anthony-Towns-18937","50000","283.68"
"Terry-Rozier-18894","Kris-Dunn-35215","Kevin-Huerter-408969","Lauri-Markkanen-37809","Karl-Anthony-Towns-18937","Zach-LaVine-18622","Daniel-Theis-37784","Hassan-Whiteside-18664","49800","283.64"
"Kris-Dunn-35215","Zach-LaVine-18622","Wesley-Matthews-1339","Lauri-Markkanen-37809","Hassan-Whiteside-18664","DeAndre-Bembry-35198","Thomas-Bryant--37884","Karl-Anthony-Towns-18937","50000","283.54"
"Kris-Dunn-35215","Zach-LaVine-18622","Trevor-Ariza-1323","Thomas-Bryant--37884","Karl-Anthony-Towns-18937","Marcus-Smart-18567","Daniel-Theis-37784","Marc-Gasol-1493","50000","283.49"
"Trae-Young-409063","Kris-Dunn-35215","Gordon-Hayward-1239","Thomas-Bryant--37884","Karl-Anthony-Towns-18937","Zach-LaVine-18622","Daniel-Theis-37784","Hassan-Whiteside-18664","49900","283.49"
"Eric-Bledsoe-1031","Kris-Dunn-35215","Chandler-Hutchison-408877","Lauri-Markkanen-37809","Marc-Gasol-1493","Zach-LaVine-18622","Daniel-Theis-37784","Karl-Anthony-Towns-18937","50000","283.48"
"Kris-Dunn-35215","Zach-LaVine-18622","Chandler-Hutchison-408877","Lauri-Markkanen-37809","Marc-Gasol-1493","Andrew-Wiggins-18620","Daniel-Theis-37784","Karl-Anthony-Towns-18937","50000","283.46"
"Terry-Rozier-18894","Zach-LaVine-18622","Wesley-Matthews-1339","Lauri-Markkanen-37809","Hassan-Whiteside-18664","DeAndre-Bembry-35198","Thomas-Bryant--37884","Karl-Anthony-Towns-18937","50000","283.43"
"Terry-Rozier-18894","Zach-LaVine-18622","Trevor-Ariza-1323","Thomas-Bryant--37884","Karl-Anthony-Towns-18937","Marcus-Smart-18567","Daniel-Theis-37784","Marc-Gasol-1493","50000","283.38"
"Trae-Young-409063","Terry-Rozier-18894","Gordon-Hayward-1239","Thomas-Bryant--37884","Karl-Anthony-Towns-18937","Zach-LaVine-18622","Daniel-Theis-37784","Hassan-Whiteside-18664","49900","283.38"
"Terry-Rozier-18894","Eric-Bledsoe-1031","Chandler-Hutchison-408877","Lauri-Markkanen-37809","Marc-Gasol-1493","Zach-LaVine-18622","Daniel-Theis-37784","Karl-Anthony-Towns-18937","50000","283.37"
"Terry-Rozier-18894","Zach-LaVine-18622","Chandler-Hutchison-408877","Lauri-Markkanen-37809","Marc-Gasol-1493","Andrew-Wiggins-18620","Daniel-Theis-37784","Karl-Anthony-Towns-18937","50000","283.35"
"Terry-Rozier-18894","Kris-Dunn-35215","DeAndre-Bembry-35198","Chandler-Hutchison-408877","Marc-Gasol-1493","Zach-LaVine-18622","Thomas-Bryant--37884","Karl-Anthony-Towns-18937","49700","283.25"
"Mike-Conley-1062","Kris-Dunn-35215","JaMychal-Green-18729","Thomas-Bryant--37884","Hassan-Whiteside-18664","Zach-LaVine-18622","Daniel-Theis-37784","Karl-Anthony-Towns-18937","50000","283.21"
"Terry-Rozier-18894","Kris-Dunn-35215","Wesley-Matthews-1339","Chandler-Hutchison-408877","Karl-Anthony-Towns-18937","Zach-LaVine-18622","Thomas-Bryant--37884","Marc-Gasol-1493","49700","283.17"
"Kris-Dunn-35215","Zach-LaVine-18622","Trevor-Ariza-1323","Thomas-Bryant--37884","Karl-Anthony-Towns-18937","DeAndre-Bembry-35198","Daniel-Theis-37784","Marc-Gasol-1493","49900","283.14"
"Terry-Rozier-18894","Kris-Dunn-35215","James-Johnson-1195","Thomas-Bryant--37884","Marc-Gasol-1493","Zach-LaVine-18622","Daniel-Theis-37784","Karl-Anthony-Towns-18937","49900","283.13"
"Terry-Rozier-18894","Kris-Dunn-35215","Kevin-Huerter-408969","Thomas-Bryant--37884","Hassan-Whiteside-18664","Zach-LaVine-18622","DeAndre-Bembry-35198","Karl-Anthony-Towns-18937","50000","283.1"
"Kris-Dunn-35215","Kevin-Huerter-408969","Gordon-Hayward-1239","Thomas-Bryant--37884","Karl-Anthony-Towns-18937","Zach-LaVine-18622","Daniel-Theis-37784","Marc-Gasol-1493","49900","283.1"
"Terry-Rozier-18894","Zach-LaVine-18622","JaMychal-Green-18729","Thomas-Bryant--37884","Hassan-Whiteside-18664","Mike-Conley-1062","Daniel-Theis-37784","Karl-Anthony-Towns-18937","50000","283.1"
"Kris-Dunn-35215","Zach-LaVine-18622","Gordon-Hayward-1239","Lauri-Markkanen-37809","Marc-Gasol-1493","DeAndre-Bembry-35198","Daniel-Theis-37784","Karl-Anthony-Towns-18937","50000","283.1"
"Terry-Rozier-18894","Kris-Dunn-35215","Chandler-Hutchison-408877","Lauri-Markkanen-37809","Marc-Gasol-1493","Marcus-Smart-18567","Thomas-Bryant--37884","Karl-Anthony-Towns-18937","50000","283.06"
"Kris-Dunn-35215","Zach-LaVine-18622","Trevor-Ariza-1323","Thomas-Bryant--37884","Karl-Anthony-Towns-18937","Wesley-Matthews-1339","Daniel-Theis-37784","Marc-Gasol-1493","49900","283.06"
"Terry-Rozier-18894","Zach-LaVine-18622","Trevor-Ariza-1323","Thomas-Bryant--37884","Karl-Anthony-Towns-18937","DeAndre-Bembry-35198","Daniel-Theis-37784","Marc-Gasol-1493","49900","283.03"
"Kris-Dunn-35215","Zach-LaVine-18622","Gordon-Hayward-1239","Lauri-Markkanen-37809","Marc-Gasol-1493","Wesley-Matthews-1339","Daniel-Theis-37784","Karl-Anthony-Towns-18937","50000","283.02"
"Terry-Rozier-18894","Kris-Dunn-35215","Kevin-Huerter-408969","Thomas-Bryant--37884","Karl-Anthony-Towns-18937","Zach-LaVine-18622","Wesley-Matthews-1339","Hassan-Whiteside-18664","50000","283.02"
"Trae-Young-409063","Zach-LaVine-18622","Chandler-Hutchison-408877","Lauri-Markkanen-37809","Marc-Gasol-1493","Marcus-Smart-18567","Thomas-Bryant--37884","Karl-Anthony-Towns-18937","50000","283.0"
"Terry-Rozier-18894","Kevin-Huerter-408969","Gordon-Hayward-1239","Thomas-Bryant--37884","Karl-Anthony-Towns-18937","Zach-LaVine-18622","Daniel-Theis-37784","Marc-Gasol-1493","49900","282.99"
"Terry-Rozier-18894","Zach-LaVine-18622","Gordon-Hayward-1239","Lauri-Markkanen-37809","Marc-Gasol-1493","DeAndre-Bembry-35198","Daniel-Theis-37784","Karl-Anthony-Towns-18937","50000","282.99"
"Terry-Rozier-18894","Zach-LaVine-18622","Trevor-Ariza-1323","Thomas-Bryant--37884","Karl-Anthony-Towns-18937","Wesley-Matthews-1339","Daniel-Theis-37784","Marc-Gasol-1493","49900","282.95"
"Kris-Dunn-35215","Kevin-Huerter-408969","Jayson-Tatum-37782","Lauri-Markkanen-37809","Hassan-Whiteside-18664","Zach-LaVine-18622","Daniel-Theis-37784","Karl-Anthony-Towns-18937","50000","282.93"
"Terry-Rozier-18894","Kris-Dunn-35215","Gordon-Hayward-1239","Thomas-Bryant--37884","Karl-Anthony-Towns-18937","Zach-LaVine-18622","Daniel-Theis-37784","Lauri-Markkanen-37809","49800","282.92"
"Terry-Rozier-18894","Zach-LaVine-18622","Gordon-Hayward-1239","Lauri-Markkanen-37809","Marc-Gasol-1493","Wesley-Matthews-1339","Daniel-Theis-37784","Karl-Anthony-Towns-18937","50000","282.91"
"Kris-Dunn-35215","Zach-LaVine-18622","Jayson-Tatum-37782","Chandler-Hutchison-408877","Karl-Anthony-Towns-18937","Marcus-Smart-18567","Thomas-Bryant--37884","Marc-Gasol-1493","50000","282.89"
"Terry-Rozier-18894","Kevin-Huerter-408969","Jayson-Tatum-37782","Lauri-Markkanen-37809","Hassan-Whiteside-18664","Zach-LaVine-18622","Daniel-Theis-37784","Karl-Anthony-Towns-18937","50000","282.82"
"Terry-Rozier-18894","Zach-LaVine-18622","Jayson-Tatum-37782","Chandler-Hutchison-408877","Karl-Anthony-Towns-18937","Marcus-Smart-18567","Thomas-Bryant--37884","Marc-Gasol-1493","50000","282.78"
"Terry-Rozier-18894","Kris-Dunn-35215","DeAndre-Bembry-35198","Thomas-Bryant--37884","Hassan-Whiteside-18664","Mike-Conley-1062","Daniel-Theis-37784","Karl-Anthony-Towns-18937","50000","282.76"
"Terry-Rozier-18894","Kris-Dunn-35215","Chandler-Hutchison-408877","Lauri-Markkanen-37809","Marc-Gasol-1493","DeAndre-Bembry-35198","Thomas-Bryant--37884","Karl-Anthony-Towns-18937","49900","282.71"
"Trae-Young-409063","Zach-LaVine-18622","DeAndre-Bembry-35198","Thomas-Bryant--37884","Hassan-Whiteside-18664","Mike-Conley-1062","Daniel-Theis-37784","Karl-Anthony-Towns-18937","50000","282.7"
"Jeremy-Lin-916","Kris-Dunn-35215","Chandler-Hutchison-408877","Lauri-Markkanen-37809","Marc-Gasol-1493","Zach-LaVine-18622","Thomas-Bryant--37884","Karl-Anthony-Towns-18937","50000","282.7"
"Terry-Rozier-18894","Kris-Dunn-35215","Wesley-Matthews-1339","Thomas-Bryant--37884","Karl-Anthony-Towns-18937","Mike-Conley-1062","Daniel-Theis-37784","Hassan-Whiteside-18664","50000","282.68"
"Trae-Young-409063","Zach-LaVine-18622","Chandler-Hutchison-408877","Lauri-Markkanen-37809","Marc-Gasol-1493","DeAndre-Bembry-35198","Thomas-Bryant--37884","Karl-Anthony-Towns-18937","49900","282.65"
"Terry-Rozier-18894","Kris-Dunn-35215","JaMychal-Green-18729","Lauri-Markkanen-37809","Karl-Anthony-Towns-18937","Zach-LaVine-18622","Chandler-Hutchison-408877","Marc-Gasol-1493","50000","282.64"
"Terry-Rozier-18894","Kris-Dunn-35215","Chandler-Hutchison-408877","Lauri-Markkanen-37809","Marc-Gasol-1493","Wesley-Matthews-1339","Thomas-Bryant--37884","Karl-Anthony-Towns-18937","49900","282.63"
"Terry-Rozier-18894","Kris-Dunn-35215","Trevor-Ariza-1323","Daniel-Theis-37784","Marc-Gasol-1493","Zach-LaVine-18622","DeAndre-Bembry-35198","Karl-Anthony-Towns-18937","50000","282.62"
"Trae-Young-409063","Zach-LaVine-18622","Wesley-Matthews-1339","Thomas-Bryant--37884","Karl-Anthony-Towns-18937","Mike-Conley-1062","Daniel-Theis-37784","Hassan-Whiteside-18664","50000","282.62"
"Dwyane-Wade-967","Kris-Dunn-35215","Gordon-Hayward-1239","Thomas-Bryant--37884","Karl-Anthony-Towns-18937","Zach-LaVine-18622","Daniel-Theis-37784","Marc-Gasol-1493","49900","282.6"
"Terry-Rozier-18894","Jeremy-Lin-916","Chandler-Hutchison-408877","Lauri-Markkanen-37809","Marc-Gasol-1493","Zach-LaVine-18622","Thomas-Bryant--37884","Karl-Anthony-Towns-18937","50000","282.59"
"Terry-Rozier-18894","Kris-Dunn-35215","Kevin-Huerter-408969","Gordon-Hayward-1239","Marc-Gasol-1493","Zach-LaVine-18622","Daniel-Theis-37784","Karl-Anthony-Towns-18937","50000","282.58"
"Trae-Young-409063","Zach-LaVine-18622","Chandler-Hutchison-408877","Lauri-Markkanen-37809","Marc-Gasol-1493","Wesley-Matthews-1339","Thomas-Bryant--37884","Karl-Anthony-Towns-18937","49900","282.57"
"Kris-Dunn-35215","Zach-LaVine-18622","Trevor-Ariza-1323","Thomas-Bryant--37884","Karl-Anthony-Towns-18937","D.J.-Augustin-1064","Daniel-Theis-37784","Marc-Gasol-1493","50000","282.56"
"Terry-Rozier-18894","Kris-Dunn-35215","Jaylen-Brown-35181","Thomas-Bryant--37884","Hassan-Whiteside-18664","Zach-LaVine-18622","Daniel-Theis-37784","Karl-Anthony-Towns-18937","49500","282.56"
"Kris-Dunn-35215","Zach-LaVine-18622","Jayson-Tatum-37782","Chandler-Hutchison-408877","Karl-Anthony-Towns-18937","DeAndre-Bembry-35198","Thomas-Bryant--37884","Marc-Gasol-1493","49900","282.54"
"Terry-Rozier-18894","Kris-Dunn-35215","Trevor-Ariza-1323","Daniel-Theis-37784","Karl-Anthony-Towns-18937","Zach-LaVine-18622","Wesley-Matthews-1339","Marc-Gasol-1493","50000","282.54"
"Terry-Rozier-18894","Dwyane-Wade-967","Gordon-Hayward-1239","Thomas-Bryant--37884","Karl-Anthony-Towns-18937","Zach-LaVine-18622","Daniel-Theis-37784","Marc-Gasol-1493","49900","282.49"
"Trae-Young-409063","Kris-Dunn-35215","JaMychal-Green-18729","Thomas-Bryant--37884","Marc-Gasol-1493","Zach-LaVine-18622","Daniel-Theis-37784","Karl-Anthony-Towns-18937","49800","282.49"
"Kris-Dunn-35215","Zach-LaVine-18622","Jayson-Tatum-37782","Chandler-Hutchison-408877","Karl-Anthony-Towns-18937","Wesley-Matthews-1339","Thomas-Bryant--37884","Marc-Gasol-1493","49900","282.46"
"Terry-Rozier-18894","Kris-Dunn-35215","Chandler-Hutchison-408877","Thomas-Bryant--37884","Karl-Anthony-Towns-18937","Zach-LaVine-18622","Daniel-Theis-37784","Marc-Gasol-1493","49000","282.46"
"Kris-Dunn-35215","Zach-LaVine-18622","Chandler-Hutchison-408877","John-Collins-37823","Karl-Anthony-Towns-18937","Marcus-Smart-18567","Thomas-Bryant--37884","Hassan-Whiteside-18664","49900","282.45"
"Terry-Rozier-18894","Zach-LaVine-18622","Trevor-Ariza-1323","Thomas-Bryant--37884","Karl-Anthony-Towns-18937","D.J.-Augustin-1064","Daniel-Theis-37784","Marc-Gasol-1493","50000","282.45"
"Dwyane-Wade-967","Kris-Dunn-35215","Jayson-Tatum-37782","Lauri-Markkanen-37809","Hassan-Whiteside-18664","Zach-LaVine-18622","Daniel-Theis-37784","Karl-Anthony-Towns-18937","50000","282.43"
"Terry-Rozier-18894","Zach-LaVine-18622","Jayson-Tatum-37782","Chandler-Hutchison-408877","Karl-Anthony-Towns-18937","DeAndre-Bembry-35198","Thomas-Bryant--37884","Marc-Gasol-1493","49900","282.43"
"Trae-Young-409063","Terry-Rozier-18894","JaMychal-Green-18729","Thomas-Bryant--37884","Marc-Gasol-1493","Zach-LaVine-18622","Daniel-Theis-37784","Karl-Anthony-Towns-18937","49800","282.38"
"Terry-Rozier-18894","Zach-LaVine-18622","Jayson-Tatum-37782","Chandler-Hutchison-408877","Karl-Anthony-Towns-18937","Wesley-Matthews-1339","Thomas-Bryant--37884","Marc-Gasol-1493","49900","282.35"
"Terry-Rozier-18894","Zach-LaVine-18622","Chandler-Hutchison-408877","John-Collins-37823","Karl-Anthony-Towns-18937","Marcus-Smart-18567","Thomas-Bryant--37884","Hassan-Whiteside-18664","49900","282.34"
"Kris-Dunn-35215","Zach-LaVine-18622","Andrew-Wiggins-18620","Lauri-Markkanen-37809","Hassan-Whiteside-18664","Marcus-Smart-18567","Daniel-Theis-37784","Karl-Anthony-Towns-18937","50000","282.33"
"Terry-Rozier-18894","Dwyane-Wade-967","Jayson-Tatum-37782","Lauri-Markkanen-37809","Hassan-Whiteside-18664","Zach-LaVine-18622","Daniel-Theis-37784","Karl-Anthony-Towns-18937","50000","282.32"
"Mike-Conley-1062","Kevin-Huerter-408969","DeAndre-Bembry-35198","Thomas-Bryant--37884","Marc-Gasol-1493","Zach-LaVine-18622","Daniel-Theis-37784","Karl-Anthony-Towns-18937","50000","282.31"
"Terry-Rozier-18894","Kris-Dunn-35215","DeAndre-Bembry-35198","Lauri-Markkanen-37809","Hassan-Whiteside-18664","Zach-LaVine-18622","Daniel-Theis-37784","Karl-Anthony-Towns-18937","49400","282.31"
"Kris-Dunn-35215","Zach-LaVine-18622","Kevin-Huerter-408969","Thomas-Bryant--37884","Karl-Anthony-Towns-18937","Marcus-Smart-18567","Daniel-Theis-37784","Nikola-Vucevic-13296","50000","282.31"
"Terry-Rozier-18894","Kris-Dunn-35215","Kevin-Huerter-408969","Thomas-Bryant--37884","Hassan-Whiteside-18664","Zach-LaVine-18622","Daniel-Theis-37784","Karl-Anthony-Towns-18937","49300","282.31"
"Terry-Rozier-18894","Kris-Dunn-35215","Gordon-Hayward-1239","Chandler-Hutchison-408877","Karl-Anthony-Towns-18937","Zach-LaVine-18622","Thomas-Bryant--37884","Hassan-Whiteside-18664","49600","282.31"
"Terry-Rozier-18894","Kris-Dunn-35215","Tyreke-Evans-1070","Thomas-Bryant--37884","Karl-Anthony-Towns-18937","Zach-LaVine-18622","Daniel-Theis-37784","Marc-Gasol-1493","49800","282.29"
"Eric-Bledsoe-1031","Kris-Dunn-35215","Jaylen-Brown-35181","Thomas-Bryant--37884","Hassan-Whiteside-18664","Zach-LaVine-18622","Daniel-Theis-37784","Karl-Anthony-Towns-18937","50000","282.25"
"Trae-Young-409063","Kris-Dunn-35215","DeAndre-Bembry-35198","Lauri-Markkanen-37809","Karl-Anthony-Towns-18937","Zach-LaVine-18622","Chandler-Hutchison-408877","Marc-Gasol-1493","50000","282.24"
"Mike-Conley-1062","Kris-Dunn-35215","DeAndre-Bembry-35198","Lauri-Markkanen-37809","Daniel-Theis-37784","Zach-LaVine-18622","Thomas-Bryant--37884","Karl-Anthony-Towns-18937","49900","282.24"
"Trae-Young-409063","Kris-Dunn-35215","Kevin-Huerter-408969","Chandler-Hutchison-408877","Karl-Anthony-Towns-18937","Zach-LaVine-18622","Thomas-Bryant--37884","Marc-Gasol-1493","49900","282.24"
"Kris-Dunn-35215","Zach-LaVine-18622","Andrew-Wiggins-18620","Thomas-Bryant--37884","Karl-Anthony-Towns-18937","Jaylen-Brown-35181","Daniel-Theis-37784","Hassan-Whiteside-18664","50000","282.23"
"Terry-Rozier-18894","Kris-Dunn-35215","Wesley-Matthews-1339","Lauri-Markkanen-37809","Hassan-Whiteside-18664","Zach-LaVine-18622","Daniel-Theis-37784","Karl-Anthony-Towns-18937","49400","282.23"
"Mike-Conley-1062","Kevin-Huerter-408969","Wesley-Matthews-1339","Thomas-Bryant--37884","Marc-Gasol-1493","Zach-LaVine-18622","Daniel-Theis-37784","Karl-Anthony-Towns-18937","50000","282.23"
"Terry-Rozier-18894","Zach-LaVine-18622","Andrew-Wiggins-18620","Lauri-Markkanen-37809","Hassan-Whiteside-18664","Marcus-Smart-18567","Daniel-Theis-37784","Karl-Anthony-Towns-18937","50000","282.22"
"Terry-Rozier-18894","Zach-LaVine-18622","Kevin-Huerter-408969","Thomas-Bryant--37884","Karl-Anthony-Towns-18937","Marcus-Smart-18567","Daniel-Theis-37784","Nikola-Vucevic-13296","50000","282.2"
"Terry-Rozier-18894","Kris-Dunn-35215","Kevin-Huerter-408969","John-Collins-37823","Karl-Anthony-Towns-18937","Zach-LaVine-18622","Daniel-Theis-37784","Thomas-Bryant--37884","50000","282.19"
"Mike-Conley-1062","Kris-Dunn-35215","Chandler-Hutchison-408877","Lauri-Markkanen-37809","Karl-Anthony-Towns-18937","Zach-LaVine-18622","Daniel-Theis-37784","Hassan-Whiteside-18664","49500","282.17"
"Trae-Young-409063","Kris-Dunn-35215","Wesley-Matthews-1339","Lauri-Markkanen-37809","Marc-Gasol-1493","Zach-LaVine-18622","Chandler-Hutchison-408877","Karl-Anthony-Towns-18937","50000","282.16"
"Mike-Conley-1062","Kris-Dunn-35215","Wesley-Matthews-1339","Lauri-Markkanen-37809","Daniel-Theis-37784","Zach-LaVine-18622","Thomas-Bryant--37884","Karl-Anthony-Towns-18937","49900","282.16"
"Eric-Bledsoe-1031","Kris-Dunn-35215","Chandler-Hutchison-408877","Thomas-Bryant--37884","Karl-Anthony-Towns-18937","Zach-LaVine-18622","Daniel-Theis-37784","Marc-Gasol-1493","49500","282.15"
"Terry-Rozier-18894","Eric-Bledsoe-1031","Jaylen-Brown-35181","Thomas-Bryant--37884","Hassan-Whiteside-18664","Zach-LaVine-18622","Daniel-Theis-37784","Karl-Anthony-Towns-18937","50000","282.14"
"Trae-Young-409063","Terry-Rozier-18894","DeAndre-Bembry-35198","Lauri-Markkanen-37809","Karl-Anthony-Towns-18937","Zach-LaVine-18622","Chandler-Hutchison-408877","Marc-Gasol-1493","50000","282.13"
"Trae-Young-409063","Terry-Rozier-18894","Kevin-Huerter-408969","Chandler-Hutchison-408877","Karl-Anthony-Towns-18937","Zach-LaVine-18622","Thomas-Bryant--37884","Marc-Gasol-1493","49900","282.13"
"Terry-Rozier-18894","Zach-LaVine-18622","DeAndre-Bembry-35198","Lauri-Markkanen-37809","Daniel-Theis-37784","Mike-Conley-1062","Thomas-Bryant--37884","Karl-Anthony-Towns-18937","49900","282.13"
