"Devin-Booker-18949","Dennis-Schroder-18595","Andrew-Wiggins-18620","Cheick-Diallo-35225","Karl-Anthony-Towns-18937","Russell-Westbrook-1083","Darius-Miller-13951","Jahlil-Okafor-18902","50000","294.27"
"Russell-Westbrook-1083","Dennis-Schroder-18595","Andrew-Wiggins-18620","Darius-Miller-13951","Jahlil-Okafor-18902","Damian-Lillard-13900","DeMarcus-Cousins-1490","Derrick-Rose-1086","50000","291.55"
"Devin-Booker-18949","Derrick-Rose-1086","Andrew-Wiggins-18620","Cheick-Diallo-35225","Jahlil-Okafor-18902","Russell-Westbrook-1083","Darius-Miller-13951","Damian-Lillard-13900","49900","291.48"
"Devin-Booker-18949","Brandon-Ingram-35227","Paul-George-1245","Cheick-Diallo-35225","Jahlil-Okafor-18902","Russell-Westbrook-1083","Darius-Miller-13951","Dennis-Schroder-18595","50000","291.46"
"Russell-Westbrook-1083","Andrew-Wiggins-18620","Darius-Miller-13951","Cheick-Diallo-35225","Karl-Anthony-Towns-18937","Derrick-Rose-1086","DeMarcus-Cousins-1490","Jahlil-Okafor-18902","50000","291.42"

"Devin-Booker-18949","Dennis-Schroder-18595","Andrew-Wiggins-18620","Cheick-Diallo-35225","Karl-Anthony-Towns-18937","Russell-Westbrook-1083","Darius-Miller-13951","Jahlil-Okafor-18902","50000","294.27"
"Russell-Westbrook-1083","Dennis-Schroder-18595","Andrew-Wiggins-18620","Darius-Miller-13951","Jahlil-Okafor-18902","Damian-Lillard-13900","DeMarcus-Cousins-1490","Derrick-Rose-1086","50000","291.55"
"Devin-Booker-18949","Derrick-Rose-1086","Andrew-Wiggins-18620","Cheick-Diallo-35225","Jahlil-Okafor-18902","Russell-Westbrook-1083","Darius-Miller-13951","Damian-Lillard-13900","49900","291.48"
"Devin-Booker-18949","Brandon-Ingram-35227","Paul-George-1245","Cheick-Diallo-35225","Jahlil-Okafor-18902","Russell-Westbrook-1083","Darius-Miller-13951","Dennis-Schroder-18595","50000","291.46"
"Russell-Westbrook-1083","Andrew-Wiggins-18620","Darius-Miller-13951","Cheick-Diallo-35225","Karl-Anthony-Towns-18937","Derrick-Rose-1086","DeMarcus-Cousins-1490","Jahlil-Okafor-18902","50000","291.42"
"Devin-Booker-18949","Andrew-Wiggins-18620","Paul-George-1245","Cheick-Diallo-35225","Jahlil-Okafor-18902","Russell-Westbrook-1083","Darius-Miller-13951","Elfrid-Payton-18602","50000","291.38"
"Devin-Booker-18949","Dennis-Schroder-18595","Andrew-Wiggins-18620","Solomon-Hill-16863","Jahlil-Okafor-18902","Russell-Westbrook-1083","Darius-Miller-13951","Karl-Anthony-Towns-18937","50000","291.24"
"Devin-Booker-18949","Brandon-Ingram-35227","Andrew-Wiggins-18620","Darius-Miller-13951","Jahlil-Okafor-18902","Russell-Westbrook-1083","DeMarcus-Cousins-1490","Draymond-Green-13976","50000","291.17"
"Russell-Westbrook-1083","Devin-Booker-18949","Andrew-Wiggins-18620","Cheick-Diallo-35225","Steven-Adams-16848","Damian-Lillard-13900","Darius-Miller-13951","Jahlil-Okafor-18902","50000","291.04"
"Devin-Booker-18949","Dennis-Schroder-18595","Andrew-Wiggins-18620","Darius-Miller-13951","Karl-Anthony-Towns-18937","Damian-Lillard-13900","Josh-Jackson-37890","Jahlil-Okafor-18902","50000","290.84"
"Devin-Booker-18949","Andrew-Wiggins-18620","Kevin-Durant-1348","Cheick-Diallo-35225","Jahlil-Okafor-18902","Russell-Westbrook-1083","DeMarcus-Cousins-1490","Darius-Miller-13951","49800","290.73"
"Devin-Booker-18949","Andrew-Wiggins-18620","Paul-George-1245","Darius-Miller-13951","Jahlil-Okafor-18902","Dennis-Schroder-18595","DeMarcus-Cousins-1490","Damian-Lillard-13900","49900","290.7"
"Devin-Booker-18949","Brandon-Ingram-35227","Andrew-Wiggins-18620","Darius-Miller-13951","Jahlil-Okafor-18902","Derrick-Rose-1086","DeMarcus-Cousins-1490","Karl-Anthony-Towns-18937","50000","290.67"
"Devin-Booker-18949","Dennis-Schroder-18595","Andrew-Wiggins-18620","Josh-Jackson-37890","Jahlil-Okafor-18902","Russell-Westbrook-1083","DeMarcus-Cousins-1490","Elfrid-Payton-18602","50000","290.63"
"Devin-Booker-18949","Stephen-Curry-1079","Andrew-Wiggins-18620","Cheick-Diallo-35225","Jahlil-Okafor-18902","Russell-Westbrook-1083","DeMarcus-Cousins-1490","Darius-Miller-13951","49900","290.6"
"Devin-Booker-18949","Dennis-Schroder-18595","Andrew-Wiggins-18620","Darius-Miller-13951","Jahlil-Okafor-18902","Russell-Westbrook-1083","Josh-Hart-37889","Damian-Lillard-13900","49800","290.41"
"Devin-Booker-18949","Dennis-Schroder-18595","Andrew-Wiggins-18620","Cheick-Diallo-35225","Jahlil-Okafor-18902","Russell-Westbrook-1083","Meyers-Leonard-13905","Karl-Anthony-Towns-18937","50000","290.38"
"Russell-Westbrook-1083","Dennis-Schroder-18595","Andrew-Wiggins-18620","DeMarcus-Cousins-1490","Jahlil-Okafor-18902","Damian-Lillard-13900","Brandon-Ingram-35227","Darius-Miller-13951","49700","290.37"
"Russell-Westbrook-1083","Josh-Hart-37889","Andrew-Wiggins-18620","Darius-Miller-13951","Jahlil-Okafor-18902","Dennis-Schroder-18595","DeMarcus-Cousins-1490","Karl-Anthony-Towns-18937","49900","290.35"
"Devin-Booker-18949","Dennis-Schroder-18595","Darius-Miller-13951","DeMarcus-Cousins-1490","Jahlil-Okafor-18902","Russell-Westbrook-1083","Josh-Hart-37889","Damian-Lillard-13900","50000","290.31"
"Russell-Westbrook-1083","Devin-Booker-18949","Andrew-Wiggins-18620","Darius-Miller-13951","Cheick-Diallo-35225","Damian-Lillard-13900","Brandon-Ingram-35227","Jahlil-Okafor-18902","49600","290.3"
"Devin-Booker-18949","Josh-Hart-37889","Andrew-Wiggins-18620","Cheick-Diallo-35225","Karl-Anthony-Towns-18937","Russell-Westbrook-1083","Darius-Miller-13951","Jahlil-Okafor-18902","49800","290.28"
"Devin-Booker-18949","Andrew-Wiggins-18620","Brandon-Ingram-35227","Darius-Miller-13951","Jahlil-Okafor-18902","Russell-Westbrook-1083","Josh-Jackson-37890","Derrick-Rose-1086","50000","290.26"
"Devin-Booker-18949","Andrew-Wiggins-18620","Darius-Miller-13951","Cheick-Diallo-35225","Jahlil-Okafor-18902","Russell-Westbrook-1083","Draymond-Green-13976","Kevin-Durant-1348","50000","290.25"
"Russell-Westbrook-1083","Andrew-Wiggins-18620","Darius-Miller-13951","Cheick-Diallo-35225","Karl-Anthony-Towns-18937","Brandon-Ingram-35227","DeMarcus-Cousins-1490","Jahlil-Okafor-18902","49700","290.24"
"Russell-Westbrook-1083","Andrew-Wiggins-18620","Paul-George-1245","Darius-Miller-13951","Jahlil-Okafor-18902","Dennis-Schroder-18595","DeMarcus-Cousins-1490","Josh-Jackson-37890","50000","290.23"
"Russell-Westbrook-1083","Devin-Booker-18949","Brandon-Ingram-35227","Cheick-Diallo-35225","DeMarcus-Cousins-1490","Damian-Lillard-13900","Darius-Miller-13951","Jahlil-Okafor-18902","49800","290.2"
"Devin-Booker-18949","Josh-Hart-37889","Darius-Miller-13951","Cheick-Diallo-35225","Karl-Anthony-Towns-18937","Russell-Westbrook-1083","DeMarcus-Cousins-1490","Jahlil-Okafor-18902","50000","290.18"
"Devin-Booker-18949","Andrew-Wiggins-18620","Paul-George-1245","Cheick-Diallo-35225","Jahlil-Okafor-18902","Russell-Westbrook-1083","Darius-Miller-13951","Josh-Jackson-37890","49900","290.16"
"Russell-Westbrook-1083","Dennis-Schroder-18595","Andrew-Wiggins-18620","Darius-Miller-13951","Jusuf-Nurkic-18619","Derrick-Rose-1086","Brandon-Ingram-35227","Jahlil-Okafor-18902","50000","290.16"
"Russell-Westbrook-1083","Andrew-Wiggins-18620","Kevin-Durant-1348","Cheick-Diallo-35225","Jahlil-Okafor-18902","Brandon-Ingram-35227","DeMarcus-Cousins-1490","Dennis-Schroder-18595","50000","290.13"
"Devin-Booker-18949","Jrue-Holiday-1073","Andrew-Wiggins-18620","Cheick-Diallo-35225","Jahlil-Okafor-18902","Dennis-Schroder-18595","DeMarcus-Cousins-1490","Karl-Anthony-Towns-18937","50000","290.07"
"Russell-Westbrook-1083","Andrew-Wiggins-18620","Paul-George-1245","Cheick-Diallo-35225","Jahlil-Okafor-18902","Dennis-Schroder-18595","Darius-Miller-13951","Jusuf-Nurkic-18619","49900","290.06"
"Devin-Booker-18949","Brandon-Ingram-35227","Paul-George-1245","Cheick-Diallo-35225","Jahlil-Okafor-18902","Dennis-Schroder-18595","Andrew-Wiggins-18620","Damian-Lillard-13900","50000","290.03"
"Devin-Booker-18949","Dennis-Schroder-18595","Andrew-Wiggins-18620","Darius-Miller-13951","Jahlil-Okafor-18902","Russell-Westbrook-1083","Dragan-Bender-35228","Damian-Lillard-13900","49800","289.99"
"Devin-Booker-18949","Andrew-Wiggins-18620","Brandon-Ingram-35227","Darius-Miller-13951","Jahlil-Okafor-18902","Russell-Westbrook-1083","Kyle-Kuzma-37886","Dennis-Schroder-18595","49900","289.98"
"Devin-Booker-18949","Derrick-Rose-1086","Andrew-Wiggins-18620","Cheick-Diallo-35225","Jahlil-Okafor-18902","Russell-Westbrook-1083","DeMarcus-Cousins-1490","Draymond-Green-13976","50000","289.98"
"Devin-Booker-18949","Dennis-Schroder-18595","Andrew-Wiggins-18620","Darius-Miller-13951","Jahlil-Okafor-18902","Russell-Westbrook-1083","Brandon-Ingram-35227","Derrick-Rose-1086","49500","289.96"
"Devin-Booker-18949","Kentavious-Caldwell-Pope-16869","Andrew-Wiggins-18620","DeMarcus-Cousins-1490","Jahlil-Okafor-18902","Russell-Westbrook-1083","Brandon-Ingram-35227","Dennis-Schroder-18595","50000","289.96"
"Russell-Westbrook-1083","Andrew-Wiggins-18620","Darius-Miller-13951","Dragan-Bender-35228","Karl-Anthony-Towns-18937","Dennis-Schroder-18595","DeMarcus-Cousins-1490","Jahlil-Okafor-18902","49900","289.93"
"Devin-Booker-18949","Dennis-Schroder-18595","Darius-Miller-13951","Cheick-Diallo-35225","Karl-Anthony-Towns-18937","Russell-Westbrook-1083","Josh-Jackson-37890","Jahlil-Okafor-18902","49700","289.9"
"Russell-Westbrook-1083","Brandon-Ingram-35227","Andrew-Wiggins-18620","Draymond-Green-13976","Jahlil-Okafor-18902","Dennis-Schroder-18595","Darius-Miller-13951","Damian-Lillard-13900","49900","289.89"
"Devin-Booker-18949","Dennis-Schroder-18595","Darius-Miller-13951","Dragan-Bender-35228","Jahlil-Okafor-18902","Russell-Westbrook-1083","DeMarcus-Cousins-1490","Damian-Lillard-13900","50000","289.89"
"Devin-Booker-18949","Dennis-Schroder-18595","Andrew-Wiggins-18620","Kevin-Durant-1348","Jahlil-Okafor-18902","Damian-Lillard-13900","Darius-Miller-13951","Derrick-Rose-1086","50000","289.88"
"Devin-Booker-18949","Andrew-Wiggins-18620","Paul-George-1245","Cheick-Diallo-35225","Jahlil-Okafor-18902","Russell-Westbrook-1083","Darius-Miller-13951","Dennis-Schroder-18595","49400","289.86"
"Devin-Booker-18949","Dennis-Schroder-18595","Brandon-Ingram-35227","Darius-Miller-13951","Jahlil-Okafor-18902","Russell-Westbrook-1083","DeMarcus-Cousins-1490","Derrick-Rose-1086","49700","289.86"
"Devin-Booker-18949","Andrew-Wiggins-18620","Darius-Miller-13951","Cheick-Diallo-35225","Karl-Anthony-Towns-18937","Russell-Westbrook-1083","Dragan-Bender-35228","Jahlil-Okafor-18902","49800","289.86"
"Devin-Booker-18949","Derrick-Rose-1086","Andrew-Wiggins-18620","Darius-Miller-13951","Jahlil-Okafor-18902","Russell-Westbrook-1083","DeMarcus-Cousins-1490","Elfrid-Payton-18602","49700","289.78"
"Devin-Booker-18949","Dennis-Schroder-18595","Paul-George-1245","Darius-Miller-13951","Jahlil-Okafor-18902","Russell-Westbrook-1083","DeMarcus-Cousins-1490","Cheick-Diallo-35225","49600","289.76"
"Russell-Westbrook-1083","Andrew-Wiggins-18620","Darius-Miller-13951","Cheick-Diallo-35225","Jahlil-Okafor-18902","Brandon-Ingram-35227","Draymond-Green-13976","Karl-Anthony-Towns-18937","49900","289.76"
"Devin-Booker-18949","Andrew-Wiggins-18620","Kevin-Durant-1348","Cheick-Diallo-35225","Karl-Anthony-Towns-18937","Derrick-Rose-1086","Darius-Miller-13951","Jahlil-Okafor-18902","50000","289.75"
"Devin-Booker-18949","Brandon-Ingram-35227","Darius-Miller-13951","Cheick-Diallo-35225","Jahlil-Okafor-18902","Russell-Westbrook-1083","Draymond-Green-13976","Damian-Lillard-13900","50000","289.72"
"Devin-Booker-18949","Josh-Okogie-409174","Andrew-Wiggins-18620","DeMarcus-Cousins-1490","Jahlil-Okafor-18902","Russell-Westbrook-1083","Brandon-Ingram-35227","Dennis-Schroder-18595","49900","289.68"
"Russell-Westbrook-1083","Brandon-Ingram-35227","Andrew-Wiggins-18620","Cheick-Diallo-35225","Karl-Anthony-Towns-18937","Dennis-Schroder-18595","Josh-Hart-37889","Jahlil-Okafor-18902","50000","289.68"
"Devin-Booker-18949","Mikal-Bridges-408842","Andrew-Wiggins-18620","Darius-Miller-13951","Jahlil-Okafor-18902","Russell-Westbrook-1083","DeMarcus-Cousins-1490","Damian-Lillard-13900","49900","289.66"
"Devin-Booker-18949","Jrue-Holiday-1073","Andrew-Wiggins-18620","Cheick-Diallo-35225","Jahlil-Okafor-18902","Russell-Westbrook-1083","Josh-Jackson-37890","Dennis-Schroder-18595","50000","289.66"
"Devin-Booker-18949","Frank-Jackson-37855","Andrew-Wiggins-18620","Darius-Miller-13951","Jahlil-Okafor-18902","Russell-Westbrook-1083","DeMarcus-Cousins-1490","Kevin-Durant-1348","50000","289.58"
"Russell-Westbrook-1083","Brandon-Ingram-35227","Andrew-Wiggins-18620","Cheick-Diallo-35225","Jahlil-Okafor-18902","Elfrid-Payton-18602","DeMarcus-Cousins-1490","Damian-Lillard-13900","50000","289.52"
"Devin-Booker-18949","Dennis-Schroder-18595","Andrew-Wiggins-18620","Darius-Miller-13951","Jahlil-Okafor-18902","Russell-Westbrook-1083","Brandon-Ingram-35227","Steven-Adams-16848","49600","289.52"
"Russell-Westbrook-1083","Dennis-Schroder-18595","Andrew-Wiggins-18620","Kevin-Durant-1348","Jahlil-Okafor-18902","Elfrid-Payton-18602","Brandon-Ingram-35227","Darius-Miller-13951","49900","289.45"
"Russell-Westbrook-1083","Dennis-Schroder-18595","Andrew-Wiggins-18620","Cheick-Diallo-35225","Jahlil-Okafor-18902","Damian-Lillard-13900","Kevin-Durant-1348","Darius-Miller-13951","49700","289.45"
"Russell-Westbrook-1083","Andrew-Wiggins-18620","Brandon-Ingram-35227","Darius-Miller-13951","Jahlil-Okafor-18902","Dennis-Schroder-18595","Jeff-Green-1314","Karl-Anthony-Towns-18937","50000","289.44"
"Devin-Booker-18949","Kelly-Oubre-18925","Andrew-Wiggins-18620","Darius-Miller-13951","Jahlil-Okafor-18902","Russell-Westbrook-1083","DeMarcus-Cousins-1490","Derrick-Rose-1086","50000","289.42"
"Devin-Booker-18949","Dennis-Schroder-18595","Brandon-Ingram-35227","Darius-Miller-13951","Jahlil-Okafor-18902","Russell-Westbrook-1083","DeMarcus-Cousins-1490","Steven-Adams-16848","49800","289.42"
"Dennis-Schroder-18595","Derrick-Rose-1086","Andrew-Wiggins-18620","Darius-Miller-13951","Jahlil-Okafor-18902","Damian-Lillard-13900","Brandon-Ingram-35227","Karl-Anthony-Towns-18937","49900","289.39"
"Devin-Booker-18949","Dennis-Schroder-18595","Brandon-Ingram-35227","Draymond-Green-13976","Jahlil-Okafor-18902","Russell-Westbrook-1083","Darius-Miller-13951","Derrick-Rose-1086","49900","289.38"
"Russell-Westbrook-1083","Dennis-Schroder-18595","Kevin-Durant-1348","Cheick-Diallo-35225","Jahlil-Okafor-18902","Damian-Lillard-13900","DeMarcus-Cousins-1490","Darius-Miller-13951","49900","289.35"
"Russell-Westbrook-1083","Devin-Booker-18949","Andrew-Wiggins-18620","Darius-Miller-13951","Jahlil-Okafor-18902","Elfrid-Payton-18602","DeMarcus-Cousins-1490","Steven-Adams-16848","49800","289.34"
"Russell-Westbrook-1083","Dennis-Schroder-18595","Andrew-Wiggins-18620","Cheick-Diallo-35225","Jahlil-Okafor-18902","Stephen-Curry-1079","Darius-Miller-13951","Damian-Lillard-13900","49800","289.32"
"Russell-Westbrook-1083","Dennis-Schroder-18595","Andrew-Wiggins-18620","Darius-Miller-13951","Jahlil-Okafor-18902","Elfrid-Payton-18602","Brandon-Ingram-35227","Stephen-Curry-1079","50000","289.32"
"Devin-Booker-18949","Andrew-Wiggins-18620","Paul-George-1245","Darius-Miller-13951","Jahlil-Okafor-18902","Dennis-Schroder-18595","Brandon-Ingram-35227","Jusuf-Nurkic-18619","49900","289.31"
"Devin-Booker-18949","Derrick-Rose-1086","Andrew-Wiggins-18620","Draymond-Green-13976","Jahlil-Okafor-18902","Russell-Westbrook-1083","Darius-Miller-13951","Elfrid-Payton-18602","49900","289.3"
"Elfrid-Payton-18602","Andrew-Wiggins-18620","Paul-George-1245","Darius-Miller-13951","Jahlil-Okafor-18902","Dennis-Schroder-18595","Brandon-Ingram-35227","Karl-Anthony-Towns-18937","50000","289.29"
"Dennis-Schroder-18595","Andrew-Wiggins-18620","Paul-George-1245","Cheick-Diallo-35225","Jahlil-Okafor-18902","Damian-Lillard-13900","Darius-Miller-13951","Karl-Anthony-Towns-18937","49800","289.29"
"Devin-Booker-18949","Brandon-Ingram-35227","Kevin-Durant-1348","Cheick-Diallo-35225","Jahlil-Okafor-18902","Russell-Westbrook-1083","Darius-Miller-13951","Elfrid-Payton-18602","50000","289.28"
"Devin-Booker-18949","Dennis-Schroder-18595","Andrew-Wiggins-18620","Cheick-Diallo-35225","Jahlil-Okafor-18902","Russell-Westbrook-1083","Jerami-Grant-18576","Damian-Lillard-13900","49900","289.28"
"Devin-Booker-18949","Dennis-Schroder-18595","Andrew-Wiggins-18620","Darius-Miller-13951","Jahlil-Okafor-18902","Russell-Westbrook-1083","Kentavious-Caldwell-Pope-16869","Damian-Lillard-13900","49700","289.28"
"Devin-Booker-18949","Dennis-Schroder-18595","Darius-Miller-13951","Cheick-Diallo-35225","Jahlil-Okafor-18902","Russell-Westbrook-1083","Draymond-Green-13976","Paul-George-1245","49800","289.28"
"Russell-Westbrook-1083","Andrew-Wiggins-18620","Brandon-Ingram-35227","Cheick-Diallo-35225","Karl-Anthony-Towns-18937","Dennis-Schroder-18595","Dragan-Bender-35228","Jahlil-Okafor-18902","50000","289.26"
"Devin-Booker-18949","Dennis-Schroder-18595","Andrew-Wiggins-18620","Cheick-Diallo-35225","Jusuf-Nurkic-18619","Russell-Westbrook-1083","Josh-Jackson-37890","Jahlil-Okafor-18902","49800","289.24"
"Devin-Booker-18949","Derrick-Rose-1086","Andrew-Wiggins-18620","Darius-Miller-13951","Jahlil-Okafor-18902","Damian-Lillard-13900","DeMarcus-Cousins-1490","Jusuf-Nurkic-18619","50000","289.23"
"Russell-Westbrook-1083","Kentavious-Caldwell-Pope-16869","Andrew-Wiggins-18620","Darius-Miller-13951","Jahlil-Okafor-18902","Dennis-Schroder-18595","DeMarcus-Cousins-1490","Karl-Anthony-Towns-18937","49800","289.22"
"Russell-Westbrook-1083","Dennis-Schroder-18595","Andrew-Wiggins-18620","Cheick-Diallo-35225","Jahlil-Okafor-18902","Elfrid-Payton-18602","Josh-Jackson-37890","Karl-Anthony-Towns-18937","49900","289.22"
"Russell-Westbrook-1083","Dennis-Schroder-18595","Darius-Miller-13951","Cheick-Diallo-35225","Jahlil-Okafor-18902","Stephen-Curry-1079","DeMarcus-Cousins-1490","Damian-Lillard-13900","50000","289.22"
"Devin-Booker-18949","Derrick-Rose-1086","Brandon-Ingram-35227","Cheick-Diallo-35225","Jahlil-Okafor-18902","Damian-Lillard-13900","Darius-Miller-13951","Karl-Anthony-Towns-18937","50000","289.22"
"Russell-Westbrook-1083","Jrue-Holiday-1073","Andrew-Wiggins-18620","Cheick-Diallo-35225","Jahlil-Okafor-18902","Damian-Lillard-13900","DeMarcus-Cousins-1490","Darius-Miller-13951","49900","289.22"
"Russell-Westbrook-1083","Dennis-Schroder-18595","Andrew-Wiggins-18620","Cheick-Diallo-35225","Jahlil-Okafor-18902","Damian-Lillard-13900","DeMarcus-Cousins-1490","Derrick-Rose-1086","49700","289.18"
"Russell-Westbrook-1083","Dennis-Schroder-18595","Andrew-Wiggins-18620","DeMarcus-Cousins-1490","Jahlil-Okafor-18902","Elfrid-Payton-18602","Brandon-Ingram-35227","Derrick-Rose-1086","49900","289.18"
"Devin-Booker-18949","Dennis-Schroder-18595","Darius-Miller-13951","DeMarcus-Cousins-1490","Jahlil-Okafor-18902","Russell-Westbrook-1083","Kentavious-Caldwell-Pope-16869","Damian-Lillard-13900","49900","289.18"
"Devin-Booker-18949","Andrew-Wiggins-18620","Darius-Miller-13951","Cheick-Diallo-35225","Karl-Anthony-Towns-18937","Russell-Westbrook-1083","Kentavious-Caldwell-Pope-16869","Jahlil-Okafor-18902","49700","289.15"
"Devin-Booker-18949","Frank-Jackson-37855","Andrew-Wiggins-18620","Darius-Miller-13951","Jahlil-Okafor-18902","Russell-Westbrook-1083","Brandon-Ingram-35227","Damian-Lillard-13900","49800","289.15"
"Devin-Booker-18949","Dennis-Schroder-18595","Josh-Jackson-37890","Cheick-Diallo-35225","Jusuf-Nurkic-18619","Russell-Westbrook-1083","DeMarcus-Cousins-1490","Jahlil-Okafor-18902","50000","289.14"
"Devin-Booker-18949","Frank-Jackson-37855","Andrew-Wiggins-18620","Darius-Miller-13951","Karl-Anthony-Towns-18937","Russell-Westbrook-1083","Josh-Hart-37889","Jahlil-Okafor-18902","50000","289.13"
"Devin-Booker-18949","Derrick-Rose-1086","Andrew-Wiggins-18620","Cheick-Diallo-35225","Jahlil-Okafor-18902","Russell-Westbrook-1083","Brandon-Ingram-35227","Elfrid-Payton-18602","49800","289.11"
"Russell-Westbrook-1083","Brandon-Ingram-35227","Andrew-Wiggins-18620","Darius-Miller-13951","Jahlil-Okafor-18902","Frank-Jackson-37855","DeMarcus-Cousins-1490","Karl-Anthony-Towns-18937","49900","289.09"
"Russell-Westbrook-1083","Dennis-Schroder-18595","Andrew-Wiggins-18620","Cheick-Diallo-35225","Jahlil-Okafor-18902","Elfrid-Payton-18602","DeMarcus-Cousins-1490","Paul-George-1245","49800","289.08"
"Devin-Booker-18949","Kentavious-Caldwell-Pope-16869","Darius-Miller-13951","Cheick-Diallo-35225","Karl-Anthony-Towns-18937","Russell-Westbrook-1083","DeMarcus-Cousins-1490","Jahlil-Okafor-18902","49900","289.05"
"Devin-Booker-18949","Frank-Jackson-37855","Brandon-Ingram-35227","Darius-Miller-13951","Jahlil-Okafor-18902","Russell-Westbrook-1083","DeMarcus-Cousins-1490","Damian-Lillard-13900","50000","289.05"
"Devin-Booker-18949","C.J.-McCollum-17121","Andrew-Wiggins-18620","DeMarcus-Cousins-1490","Jahlil-Okafor-18902","Russell-Westbrook-1083","Brandon-Ingram-35227","Cheick-Diallo-35225","50000","289.04"
"Devin-Booker-18949","Kentavious-Caldwell-Pope-16869","Andrew-Wiggins-18620","Cheick-Diallo-35225","Jahlil-Okafor-18902","Russell-Westbrook-1083","Kevin-Durant-1348","Dennis-Schroder-18595","50000","289.04"
