"Jrue-Holiday-1073","Jaylen-Brown-35181","Marcus-Morris-13316","Marvin-Bagley-III-409321","Jahlil-Okafor-18902","De'Aaron-Fox-37900","Jayson-Tatum-37782","Bogdan-Bogdanovic-37899","49900","286.1"
"Jrue-Holiday-1073","Trey-Burke-17029","Jaylen-Brown-35181","Marcus-Morris-13316","Nikola-Jokic-31812","Kyle-Anderson-18615","Justin-Holiday-14559","Jahlil-Okafor-18902","50000","286.07"

"Jrue-Holiday-1073","Jaylen-Brown-35181","Marcus-Morris-13316","Marvin-Bagley-III-409321","Jahlil-Okafor-18902","De'Aaron-Fox-37900","Jayson-Tatum-37782","Bogdan-Bogdanovic-37899","49900","286.1"
"Jrue-Holiday-1073","Trey-Burke-17029","Jaylen-Brown-35181","Marcus-Morris-13316","Nikola-Jokic-31812","Kyle-Anderson-18615","Justin-Holiday-14559","Jahlil-Okafor-18902","50000","286.07"
"Jrue-Holiday-1073","Bogdan-Bogdanovic-37899","Marcus-Morris-13316","Noah-Vonleh-18597","Jahlil-Okafor-18902","De'Aaron-Fox-37900","Jaylen-Brown-35181","Marvin-Bagley-III-409321","50000","286.05"
"Jrue-Holiday-1073","Jaylen-Brown-35181","Darius-Miller-13951","Marcus-Morris-13316","Nikola-Jokic-31812","Justin-Holiday-14559","Bogdan-Bogdanovic-37899","Jahlil-Okafor-18902","50000","286.03"
"Jrue-Holiday-1073","Trey-Burke-17029","Jaylen-Brown-35181","Domantas-Sabonis-35217","Jahlil-Okafor-18902","De'Aaron-Fox-37900","Bogdan-Bogdanovic-37899","Marvin-Bagley-III-409321","49900","285.65"
"Tim-Frazier-18743","Jrue-Holiday-1073","Jaylen-Brown-35181","Marvin-Bagley-III-409321","Jahlil-Okafor-18902","Trey-Burke-17029","Bogdan-Bogdanovic-37899","Nikola-Jokic-31812","50000","285.52"
"De'Aaron-Fox-37900","Jrue-Holiday-1073","Jaylen-Brown-35181","Jayson-Tatum-37782","Domantas-Sabonis-35217","Kyle-Anderson-18615","Bogdan-Bogdanovic-37899","Jahlil-Okafor-18902","50000","285.45"
"Jrue-Holiday-1073","Bogdan-Bogdanovic-37899","Marcus-Morris-13316","Domantas-Sabonis-35217","Jahlil-Okafor-18902","De'Aaron-Fox-37900","Justin-Holiday-14559","Marvin-Bagley-III-409321","50000","285.42"
"Trey-Burke-17029","Bogdan-Bogdanovic-37899","Jaylen-Brown-35181","Marvin-Bagley-III-409321","Nikola-Jokic-31812","De'Aaron-Fox-37900","Justin-Holiday-14559","Jahlil-Okafor-18902","49900","285.42"
"Trey-Burke-17029","Bogdan-Bogdanovic-37899","Jaylen-Brown-35181","Marcus-Morris-13316","Jahlil-Okafor-18902","De'Aaron-Fox-37900","Kyle-Anderson-18615","Nikola-Jokic-31812","50000","285.3"
"Jrue-Holiday-1073","Bogdan-Bogdanovic-37899","Darius-Miller-13951","Marvin-Bagley-III-409321","Nikola-Jokic-31812","Justin-Holiday-14559","Kyle-Anderson-18615","Jahlil-Okafor-18902","49900","285.29"
"Jrue-Holiday-1073","Bradley-Beal-13898","Marcus-Morris-13316","Marvin-Bagley-III-409321","Jahlil-Okafor-18902","Trey-Burke-17029","Jaylen-Brown-35181","Bogdan-Bogdanovic-37899","49900","285.29"
"Jrue-Holiday-1073","Jaylen-Brown-35181","Darius-Miller-13951","Marcus-Morris-13316","Jahlil-Okafor-18902","Justin-Holiday-14559","Marvin-Bagley-III-409321","Nikola-Jokic-31812","49900","285.24"
"De'Aaron-Fox-37900","Bogdan-Bogdanovic-37899","Jaylen-Brown-35181","Jayson-Tatum-37782","Jahlil-Okafor-18902","Kyle-Anderson-18615","Justin-Holiday-14559","Nikola-Jokic-31812","50000","285.22"
"Jrue-Holiday-1073","Bradley-Beal-13898","Jaylen-Brown-35181","Jayson-Tatum-37782","Jahlil-Okafor-18902","Bogdan-Bogdanovic-37899","Justin-Holiday-14559","Marvin-Bagley-III-409321","49900","285.21"
"Jrue-Holiday-1073","Bradley-Beal-13898","Bogdan-Bogdanovic-37899","Marvin-Bagley-III-409321","Jahlil-Okafor-18902","Jaylen-Brown-35181","Justin-Holiday-14559","Noah-Vonleh-18597","50000","285.16"
"Jrue-Holiday-1073","Bradley-Beal-13898","Jaylen-Brown-35181","Marcus-Morris-13316","Jahlil-Okafor-18902","Bogdan-Bogdanovic-37899","Kyle-Anderson-18615","Jayson-Tatum-37782","50000","285.09"
"Jrue-Holiday-1073","Bradley-Beal-13898","Kyle-Anderson-18615","Marvin-Bagley-III-409321","Jahlil-Okafor-18902","Jaylen-Brown-35181","Otto-Porter-17069","Bogdan-Bogdanovic-37899","50000","285.09"
"Jrue-Holiday-1073","Trey-Burke-17029","Jaylen-Brown-35181","Marvin-Bagley-III-409321","Jahlil-Okafor-18902","De'Aaron-Fox-37900","Bogdan-Bogdanovic-37899","Josh-Richardson-18922","49900","285.02"
"Jrue-Holiday-1073","Bogdan-Bogdanovic-37899","Marcus-Morris-13316","Otto-Porter-17069","Jahlil-Okafor-18902","De'Aaron-Fox-37900","Jaylen-Brown-35181","Marvin-Bagley-III-409321","49800","285.0"
"Jrue-Holiday-1073","Trey-Burke-17029","Marcus-Morris-13316","Marvin-Bagley-III-409321","Jahlil-Okafor-18902","De'Aaron-Fox-37900","Jayson-Tatum-37782","Bogdan-Bogdanovic-37899","50000","284.99"
"Jrue-Holiday-1073","Jaylen-Brown-35181","Bogdan-Bogdanovic-37899","Marvin-Bagley-III-409321","Jahlil-Okafor-18902","Frank-Jackson-37855","Kyle-Anderson-18615","Nikola-Jokic-31812","49900","284.98"
"Jrue-Holiday-1073","Jaylen-Brown-35181","Bogdan-Bogdanovic-37899","Domantas-Sabonis-35217","Jahlil-Okafor-18902","De'Aaron-Fox-37900","Kyle-Anderson-18615","Marvin-Bagley-III-409321","49600","284.92"
"Jrue-Holiday-1073","Josh-Richardson-18922","Jaylen-Brown-35181","Jayson-Tatum-37782","Jahlil-Okafor-18902","De'Aaron-Fox-37900","Bogdan-Bogdanovic-37899","Kyle-Anderson-18615","50000","284.82"
"Jrue-Holiday-1073","Justin-Holiday-14559","Bogdan-Bogdanovic-37899","Marcus-Morris-13316","Marvin-Bagley-III-409321","De'Aaron-Fox-37900","Josh-Richardson-18922","Jahlil-Okafor-18902","50000","284.79"
"Tim-Frazier-18743","Jaylen-Brown-35181","Bogdan-Bogdanovic-37899","Marvin-Bagley-III-409321","Jahlil-Okafor-18902","Jrue-Holiday-1073","Kyle-Anderson-18615","Nikola-Jokic-31812","49700","284.79"
"Marcus-Smart-18567","Jaylen-Brown-35181","Darius-Miller-13951","Marvin-Bagley-III-409321","Nikola-Jokic-31812","Jrue-Holiday-1073","Kyle-Anderson-18615","Jahlil-Okafor-18902","50000","284.78"
"De'Aaron-Fox-37900","Jaylen-Brown-35181","Kyle-Anderson-18615","Marvin-Bagley-III-409321","Nikola-Jokic-31812","Bogdan-Bogdanovic-37899","Justin-Holiday-14559","Jahlil-Okafor-18902","49600","284.69"
"De'Aaron-Fox-37900","Jrue-Holiday-1073","Jaylen-Brown-35181","Domantas-Sabonis-35217","Jahlil-Okafor-18902","Kyle-Anderson-18615","Jayson-Tatum-37782","Marvin-Bagley-III-409321","49900","284.66"
"Marcus-Smart-18567","Jrue-Holiday-1073","Jaylen-Brown-35181","Jayson-Tatum-37782","Jahlil-Okafor-18902","De'Aaron-Fox-37900","Bogdan-Bogdanovic-37899","Marvin-Bagley-III-409321","49800","284.66"
"Jrue-Holiday-1073","Bradley-Beal-13898","Bogdan-Bogdanovic-37899","Domantas-Sabonis-35217","Jahlil-Okafor-18902","Trey-Burke-17029","Kyle-Anderson-18615","Jaylen-Brown-35181","50000","284.64"
"Jrue-Holiday-1073","Jaylen-Brown-35181","Kyle-Anderson-18615","Noah-Vonleh-18597","Domantas-Sabonis-35217","De'Aaron-Fox-37900","Marvin-Bagley-III-409321","Jahlil-Okafor-18902","50000","284.61"
"Marcus-Smart-18567","Jrue-Holiday-1073","Jaylen-Brown-35181","Marvin-Bagley-III-409321","Jahlil-Okafor-18902","De'Aaron-Fox-37900","Bogdan-Bogdanovic-37899","Noah-Vonleh-18597","49900","284.61"
"Marcus-Smart-18567","Jaylen-Brown-35181","Bogdan-Bogdanovic-37899","Darius-Miller-13951","Nikola-Jokic-31812","Jrue-Holiday-1073","Justin-Holiday-14559","Jahlil-Okafor-18902","49900","284.59"
"Jrue-Holiday-1073","Justin-Holiday-14559","Darius-Miller-13951","Domantas-Sabonis-35217","Jahlil-Okafor-18902","Kyle-Anderson-18615","Jaylen-Brown-35181","Nikola-Jokic-31812","50000","284.59"
"Jrue-Holiday-1073","Bradley-Beal-13898","Jaylen-Brown-35181","Marcus-Morris-13316","Jahlil-Okafor-18902","Bogdan-Bogdanovic-37899","Kyle-Anderson-18615","Marvin-Bagley-III-409321","49600","284.56"
"Jrue-Holiday-1073","Trey-Burke-17029","Jaylen-Brown-35181","Marcus-Morris-13316","Jahlil-Okafor-18902","De'Aaron-Fox-37900","Bogdan-Bogdanovic-37899","Domantas-Sabonis-35217","49800","284.55"
"Tim-Frazier-18743","Jrue-Holiday-1073","Jaylen-Brown-35181","Marvin-Bagley-III-409321","Nikola-Jokic-31812","Kyle-Anderson-18615","Jayson-Tatum-37782","Jahlil-Okafor-18902","50000","284.53"
"De'Aaron-Fox-37900","Trey-Burke-17029","Marcus-Morris-13316","Marvin-Bagley-III-409321","Nikola-Jokic-31812","Kyle-Anderson-18615","Jaylen-Brown-35181","Jahlil-Okafor-18902","49900","284.51"
"Darren-Collison-1060","Jrue-Holiday-1073","Jaylen-Brown-35181","Marvin-Bagley-III-409321","Jahlil-Okafor-18902","Trey-Burke-17029","Bogdan-Bogdanovic-37899","De'Aaron-Fox-37900","49800","284.47"
"Jrue-Holiday-1073","Bogdan-Bogdanovic-37899","Jaylen-Brown-35181","Jayson-Tatum-37782","Jahlil-Okafor-18902","De'Aaron-Fox-37900","Justin-Holiday-14559","Domantas-Sabonis-35217","49800","284.47"
"De'Aaron-Fox-37900","Jaylen-Brown-35181","Darius-Miller-13951","Marcus-Morris-13316","Jahlil-Okafor-18902","Bogdan-Bogdanovic-37899","Marvin-Bagley-III-409321","Nikola-Jokic-31812","49900","284.47"
"De'Aaron-Fox-37900","Jaylen-Brown-35181","Jayson-Tatum-37782","Marvin-Bagley-III-409321","Jahlil-Okafor-18902","Kyle-Anderson-18615","Justin-Holiday-14559","Nikola-Jokic-31812","49900","284.43"
"Tim-Frazier-18743","Jrue-Holiday-1073","Jaylen-Brown-35181","Marcus-Morris-13316","Nikola-Jokic-31812","Trey-Burke-17029","Bogdan-Bogdanovic-37899","Jahlil-Okafor-18902","49900","284.42"
"Jrue-Holiday-1073","Jaylen-Brown-35181","Bogdan-Bogdanovic-37899","Noah-Vonleh-18597","Domantas-Sabonis-35217","De'Aaron-Fox-37900","Justin-Holiday-14559","Jahlil-Okafor-18902","49900","284.42"
"Jrue-Holiday-1073","Trey-Burke-17029","Jaylen-Brown-35181","Darius-Miller-13951","Nikola-Jokic-31812","Bogdan-Bogdanovic-37899","Kyle-Anderson-18615","Jahlil-Okafor-18902","49700","284.42"
"De'Aaron-Fox-37900","Justin-Holiday-14559","Jaylen-Brown-35181","Noah-Vonleh-18597","Nikola-Jokic-31812","Kyle-Anderson-18615","Marvin-Bagley-III-409321","Jahlil-Okafor-18902","50000","284.38"
"Jrue-Holiday-1073","Jaylen-Brown-35181","Bogdan-Bogdanovic-37899","Domantas-Sabonis-35217","Jahlil-Okafor-18902","De'Aaron-Fox-37900","Kyle-Anderson-18615","Otto-Porter-17069","49900","284.35"
"Tim-Frazier-18743","Jrue-Holiday-1073","Jaylen-Brown-35181","Jayson-Tatum-37782","Jahlil-Okafor-18902","Bogdan-Bogdanovic-37899","Justin-Holiday-14559","Nikola-Jokic-31812","49900","284.34"
"Trey-Burke-17029","Bogdan-Bogdanovic-37899","Jaylen-Brown-35181","Marcus-Morris-13316","Nikola-Jokic-31812","De'Aaron-Fox-37900","Justin-Holiday-14559","Jahlil-Okafor-18902","49800","284.32"
"Jrue-Holiday-1073","Bradley-Beal-13898","Marcus-Morris-13316","Marvin-Bagley-III-409321","Jahlil-Okafor-18902","Kyle-Anderson-18615","Jayson-Tatum-37782","Jaylen-Brown-35181","49900","284.3"
"Tim-Frazier-18743","Jrue-Holiday-1073","Jaylen-Brown-35181","Noah-Vonleh-18597","Nikola-Jokic-31812","Bogdan-Bogdanovic-37899","Justin-Holiday-14559","Jahlil-Okafor-18902","50000","284.29"
"Jrue-Holiday-1073","Jaylen-Brown-35181","Josh-Richardson-18922","Marvin-Bagley-III-409321","Jahlil-Okafor-18902","De'Aaron-Fox-37900","Kyle-Anderson-18615","Bogdan-Bogdanovic-37899","49600","284.29"
"Darren-Collison-1060","Jrue-Holiday-1073","Jaylen-Brown-35181","Jayson-Tatum-37782","Jahlil-Okafor-18902","De'Aaron-Fox-37900","Bogdan-Bogdanovic-37899","Kyle-Anderson-18615","49900","284.27"
"Jrue-Holiday-1073","Bogdan-Bogdanovic-37899","Marcus-Morris-13316","Marvin-Bagley-III-409321","Jahlil-Okafor-18902","De'Aaron-Fox-37900","Jayson-Tatum-37782","Kyle-Anderson-18615","49700","284.26"
"Jrue-Holiday-1073","Bradley-Beal-13898","Marcus-Morris-13316","Noah-Vonleh-18597","Jahlil-Okafor-18902","Kyle-Anderson-18615","Jaylen-Brown-35181","Marvin-Bagley-III-409321","50000","284.25"
"Darren-Collison-1060","Jrue-Holiday-1073","Bogdan-Bogdanovic-37899","Marvin-Bagley-III-409321","Jahlil-Okafor-18902","De'Aaron-Fox-37900","Justin-Holiday-14559","Marcus-Morris-13316","49900","284.24"
"Tim-Frazier-18743","Jrue-Holiday-1073","Jaylen-Brown-35181","Otto-Porter-17069","Jahlil-Okafor-18902","Bogdan-Bogdanovic-37899","Kyle-Anderson-18615","Nikola-Jokic-31812","50000","284.22"
"Darren-Collison-1060","Jrue-Holiday-1073","Jaylen-Brown-35181","Noah-Vonleh-18597","Jahlil-Okafor-18902","De'Aaron-Fox-37900","Kyle-Anderson-18615","Bogdan-Bogdanovic-37899","50000","284.22"
"Jrue-Holiday-1073","Bogdan-Bogdanovic-37899","Marcus-Morris-13316","Noah-Vonleh-18597","Jahlil-Okafor-18902","De'Aaron-Fox-37900","Kyle-Anderson-18615","Marvin-Bagley-III-409321","49800","284.21"
"Jrue-Holiday-1073","Bogdan-Bogdanovic-37899","Darius-Miller-13951","Marcus-Morris-13316","Nikola-Jokic-31812","Justin-Holiday-14559","Kyle-Anderson-18615","Jahlil-Okafor-18902","49800","284.19"
"Jrue-Holiday-1073","Trey-Burke-17029","Darius-Miller-13951","Jayson-Tatum-37782","Jahlil-Okafor-18902","Kyle-Anderson-18615","Jaylen-Brown-35181","Nikola-Jokic-31812","50000","284.16"
"Jrue-Holiday-1073","Jaylen-Brown-35181","Kyle-Anderson-18615","Marvin-Bagley-III-409321","Nikola-Jokic-31812","Tyler-Johnson-18720","Justin-Holiday-14559","Jahlil-Okafor-18902","49800","284.14"
"Jrue-Holiday-1073","Trey-Burke-17029","Darius-Miller-13951","Marcus-Morris-13316","Jahlil-Okafor-18902","Justin-Holiday-14559","Marvin-Bagley-III-409321","Nikola-Jokic-31812","50000","284.13"
"De'Aaron-Fox-37900","Bogdan-Bogdanovic-37899","Jaylen-Brown-35181","Otto-Porter-17069","Nikola-Jokic-31812","Kyle-Anderson-18615","Justin-Holiday-14559","Jahlil-Okafor-18902","49900","284.12"
"Jrue-Holiday-1073","Bradley-Beal-13898","Otto-Porter-17069","Marvin-Bagley-III-409321","Jahlil-Okafor-18902","Jaylen-Brown-35181","Justin-Holiday-14559","Bogdan-Bogdanovic-37899","49800","284.11"
"Jrue-Holiday-1073","Bradley-Beal-13898","Jaylen-Brown-35181","Jayson-Tatum-37782","Jahlil-Okafor-18902","Bogdan-Bogdanovic-37899","Justin-Holiday-14559","Marcus-Morris-13316","49800","284.11"
"Jrue-Holiday-1073","Bradley-Beal-13898","Jayson-Tatum-37782","Marvin-Bagley-III-409321","Jahlil-Okafor-18902","Trey-Burke-17029","Justin-Holiday-14559","Bogdan-Bogdanovic-37899","50000","284.1"
"Jrue-Holiday-1073","Bradley-Beal-13898","Bogdan-Bogdanovic-37899","Darius-Miller-13951","Jahlil-Okafor-18902","De'Aaron-Fox-37900","Kyle-Anderson-18615","Justin-Holiday-14559","50000","284.09"
"Jrue-Holiday-1073","Bradley-Beal-13898","Marcus-Morris-13316","Noah-Vonleh-18597","Jahlil-Okafor-18902","Bogdan-Bogdanovic-37899","Jaylen-Brown-35181","Justin-Holiday-14559","49900","284.06"
"Jrue-Holiday-1073","Jaylen-Brown-35181","Dion-Waiters-13897","Marvin-Bagley-III-409321","Nikola-Jokic-31812","Trey-Burke-17029","Kyle-Anderson-18615","Jahlil-Okafor-18902","50000","284.05"
"Jrue-Holiday-1073","Bradley-Beal-13898","Darius-Miller-13951","Marcus-Morris-13316","Jahlil-Okafor-18902","De'Aaron-Fox-37900","Jaylen-Brown-35181","Justin-Holiday-14559","50000","284.04"
"De'Aaron-Fox-37900","Jrue-Holiday-1073","Jaylen-Brown-35181","Jayson-Tatum-37782","Marvin-Bagley-III-409321","Kyle-Anderson-18615","Josh-Richardson-18922","Jahlil-Okafor-18902","49900","284.03"
"Jrue-Holiday-1073","Jaylen-Brown-35181","Darius-Miller-13951","Marvin-Bagley-III-409321","Nikola-Jokic-31812","Bogdan-Bogdanovic-37899","Dion-Waiters-13897","Jahlil-Okafor-18902","50000","284.01"
"Jrue-Holiday-1073","Frank-Jackson-37855","Jaylen-Brown-35181","Marvin-Bagley-III-409321","Nikola-Jokic-31812","Bogdan-Bogdanovic-37899","Justin-Holiday-14559","Jahlil-Okafor-18902","49700","284.0"
"Jrue-Holiday-1073","Trey-Burke-17029","Jaylen-Brown-35181","Noah-Vonleh-18597","Jahlil-Okafor-18902","De'Aaron-Fox-37900","Jayson-Tatum-37782","Bogdan-Bogdanovic-37899","49900","283.99"
"Jrue-Holiday-1073","Bradley-Beal-13898","Marcus-Morris-13316","Otto-Porter-17069","Jahlil-Okafor-18902","Kyle-Anderson-18615","Jaylen-Brown-35181","Bogdan-Bogdanovic-37899","49900","283.99"
"Marcus-Smart-18567","Jrue-Holiday-1073","Bogdan-Bogdanovic-37899","Domantas-Sabonis-35217","Jahlil-Okafor-18902","De'Aaron-Fox-37900","Justin-Holiday-14559","Marvin-Bagley-III-409321","49900","283.98"
"Jrue-Holiday-1073","Trey-Burke-17029","Jaylen-Brown-35181","Bam-Adebayo-37835","Jahlil-Okafor-18902","Bogdan-Bogdanovic-37899","Justin-Holiday-14559","Nikola-Jokic-31812","50000","283.98"
"Jrue-Holiday-1073","Jaylen-Brown-35181","Josh-Richardson-18922","Marvin-Bagley-III-409321","Jahlil-Okafor-18902","De'Aaron-Fox-37900","Kyle-Anderson-18615","Noah-Vonleh-18597","50000","283.98"
"Jrue-Holiday-1073","Bogdan-Bogdanovic-37899","Jaylen-Brown-35181","Marvin-Bagley-III-409321","Jahlil-Okafor-18902","De'Aaron-Fox-37900","Jayson-Tatum-37782","Jaren-Jackson-409099","50000","283.97"
"Jrue-Holiday-1073","Josh-Richardson-18922","Jaylen-Brown-35181","Darius-Miller-13951","Nikola-Jokic-31812","Justin-Holiday-14559","Kyle-Anderson-18615","Jahlil-Okafor-18902","50000","283.96"
"Jrue-Holiday-1073","Jaylen-Brown-35181","Bogdan-Bogdanovic-37899","Domantas-Sabonis-35217","Jahlil-Okafor-18902","De'Aaron-Fox-37900","Justin-Holiday-14559","Marvin-Bagley-III-409321","49400","283.94"
"Jrue-Holiday-1073","Trey-Burke-17029","Jaylen-Brown-35181","Marcus-Morris-13316","Jahlil-Okafor-18902","De'Aaron-Fox-37900","Bogdan-Bogdanovic-37899","Josh-Richardson-18922","49800","283.92"
"Jrue-Holiday-1073","Trey-Burke-17029","Marcus-Morris-13316","Otto-Porter-17069","Marvin-Bagley-III-409321","De'Aaron-Fox-37900","Bogdan-Bogdanovic-37899","Jahlil-Okafor-18902","49900","283.89"
"Jrue-Holiday-1073","Frank-Jackson-37855","Jaylen-Brown-35181","Marcus-Morris-13316","Jahlil-Okafor-18902","Bogdan-Bogdanovic-37899","Kyle-Anderson-18615","Nikola-Jokic-31812","49800","283.88"
"Jrue-Holiday-1073","Frank-Jackson-37855","Bogdan-Bogdanovic-37899","Marvin-Bagley-III-409321","Jahlil-Okafor-18902","Trey-Burke-17029","Kyle-Anderson-18615","Nikola-Jokic-31812","50000","283.87"
"Marcus-Smart-18567","Jrue-Holiday-1073","Bogdan-Bogdanovic-37899","Domantas-Sabonis-35217","Jahlil-Okafor-18902","De'Aaron-Fox-37900","Kyle-Anderson-18615","Marcus-Morris-13316","50000","283.86"
"Jrue-Holiday-1073","Bradley-Beal-13898","Jaylen-Brown-35181","Marvin-Bagley-III-409321","Domantas-Sabonis-35217","Trey-Burke-17029","Kyle-Anderson-18615","Jahlil-Okafor-18902","49900","283.85"
"Tim-Frazier-18743","Marcus-Smart-18567","Bogdan-Bogdanovic-37899","Marvin-Bagley-III-409321","Jahlil-Okafor-18902","Jrue-Holiday-1073","Justin-Holiday-14559","Nikola-Jokic-31812","50000","283.85"
"Marcus-Smart-18567","Bradley-Beal-13898","Jaylen-Brown-35181","Marvin-Bagley-III-409321","Jahlil-Okafor-18902","Trey-Burke-17029","Bogdan-Bogdanovic-37899","Jrue-Holiday-1073","49800","283.85"
"Terry-Rozier-18894","Jrue-Holiday-1073","Bogdan-Bogdanovic-37899","Marvin-Bagley-III-409321","Jahlil-Okafor-18902","De'Aaron-Fox-37900","Kyle-Anderson-18615","Marcus-Morris-13316","50000","283.84"
"Jrue-Holiday-1073","Bogdan-Bogdanovic-37899","Jaylen-Brown-35181","Jayson-Tatum-37782","Jahlil-Okafor-18902","De'Aaron-Fox-37900","Justin-Holiday-14559","Josh-Richardson-18922","49800","283.84"
"Trey-Burke-17029","Jaylen-Brown-35181","Jayson-Tatum-37782","Marvin-Bagley-III-409321","Jahlil-Okafor-18902","Bogdan-Bogdanovic-37899","Domantas-Sabonis-35217","Nikola-Jokic-31812","50000","283.83"
"Jrue-Holiday-1073","Bogdan-Bogdanovic-37899","Jaylen-Brown-35181","Marcus-Morris-13316","Jahlil-Okafor-18902","De'Aaron-Fox-37900","Kyle-Anderson-18615","Domantas-Sabonis-35217","49500","283.82"
"Jrue-Holiday-1073","Frank-Jackson-37855","Marcus-Morris-13316","Marvin-Bagley-III-409321","Nikola-Jokic-31812","Trey-Burke-17029","Jaylen-Brown-35181","Jahlil-Okafor-18902","50000","283.82"
"De'Aaron-Fox-37900","Bogdan-Bogdanovic-37899","Darius-Miller-13951","Domantas-Sabonis-35217","Jahlil-Okafor-18902","Kyle-Anderson-18615","Jaylen-Brown-35181","Nikola-Jokic-31812","50000","283.82"
"Jrue-Holiday-1073","Bogdan-Bogdanovic-37899","Jayson-Tatum-37782","Marvin-Bagley-III-409321","Jahlil-Okafor-18902","De'Aaron-Fox-37900","Justin-Holiday-14559","Otto-Porter-17069","49900","283.81"
"Jrue-Holiday-1073","Bradley-Beal-13898","Darius-Miller-13951","Domantas-Sabonis-35217","Jahlil-Okafor-18902","Bogdan-Bogdanovic-37899","Jaylen-Brown-35181","Marvin-Bagley-III-409321","49900","283.81"
"Jrue-Holiday-1073","Trey-Burke-17029","Bogdan-Bogdanovic-37899","Domantas-Sabonis-35217","Jahlil-Okafor-18902","De'Aaron-Fox-37900","Kyle-Anderson-18615","Marvin-Bagley-III-409321","49700","283.81"
