"Damian-Lillard-13900","Klay-Thompson-13315","Kentavious-Caldwell-Pope-16869","Kevin-Durant-1348","Draymond-Green-13976","Lance-Stephenson-947","Joe-Ingles-18627","Josh-Hart-37889","50000","268.58"
"Damian-Lillard-13900","Klay-Thompson-13315","Maurice-Harkless-16971","Draymond-Green-13976","DeMarcus-Cousins-1490","Joe-Ingles-18627","Kevin-Durant-1348","Lance-Stephenson-947","49900","267.59"
"Damian-Lillard-13900","Klay-Thompson-13315","Kentavious-Caldwell-Pope-16869","Maurice-Harkless-16971","Jusuf-Nurkic-18619","Lance-Stephenson-947","Kevin-Durant-1348","Josh-Hart-37889","49900","267.5"
"Lance-Stephenson-947","Klay-Thompson-13315","Kentavious-Caldwell-Pope-16869","Draymond-Green-13976","DeMarcus-Cousins-1490","Josh-Hart-37889","Kevin-Durant-1348","Jusuf-Nurkic-18619","49800","267.48"

"Damian-Lillard-13900","Klay-Thompson-13315","Kentavious-Caldwell-Pope-16869","Kevin-Durant-1348","Draymond-Green-13976","Lance-Stephenson-947","Joe-Ingles-18627","Josh-Hart-37889","50000","268.58"
"Damian-Lillard-13900","Klay-Thompson-13315","Maurice-Harkless-16971","Draymond-Green-13976","DeMarcus-Cousins-1490","Joe-Ingles-18627","Kevin-Durant-1348","Lance-Stephenson-947","49900","267.59"
"Damian-Lillard-13900","Klay-Thompson-13315","Kentavious-Caldwell-Pope-16869","Maurice-Harkless-16971","Jusuf-Nurkic-18619","Lance-Stephenson-947","Kevin-Durant-1348","Josh-Hart-37889","49900","267.5"
"Lance-Stephenson-947","Klay-Thompson-13315","Kentavious-Caldwell-Pope-16869","Draymond-Green-13976","DeMarcus-Cousins-1490","Josh-Hart-37889","Kevin-Durant-1348","Jusuf-Nurkic-18619","49800","267.48"
"Damian-Lillard-13900","Klay-Thompson-13315","Kyle-Korver-1269","Kevin-Durant-1348","Draymond-Green-13976","Lance-Stephenson-947","Joe-Ingles-18627","DeMarcus-Cousins-1490","50000","266.78"
"Lance-Stephenson-947","Klay-Thompson-13315","Kentavious-Caldwell-Pope-16869","Kevin-Durant-1348","Jusuf-Nurkic-18619","Josh-Hart-37889","Joe-Ingles-18627","Draymond-Green-13976","49600","266.77"
"Damian-Lillard-13900","Klay-Thompson-13315","Kentavious-Caldwell-Pope-16869","Kevin-Durant-1348","Jusuf-Nurkic-18619","Lance-Stephenson-947","Kyle-Korver-1269","Josh-Hart-37889","50000","266.69"
"Lance-Stephenson-947","Klay-Thompson-13315","Kentavious-Caldwell-Pope-16869","Kevin-Durant-1348","Jusuf-Nurkic-18619","Brandon-Ingram-35227","Joe-Ingles-18627","Josh-Hart-37889","50000","266.55"
"Damian-Lillard-13900","Klay-Thompson-13315","Joe-Ingles-18627","Draymond-Green-13976","Derrick-Favors-1266","Kentavious-Caldwell-Pope-16869","Kevin-Durant-1348","Lance-Stephenson-947","49900","266.41"
"Damian-Lillard-13900","Klay-Thompson-13315","Jae-Crowder-13942","Maurice-Harkless-16971","Jusuf-Nurkic-18619","Lance-Stephenson-947","Kevin-Durant-1348","Josh-Hart-37889","50000","266.41"
"Lance-Stephenson-947","Klay-Thompson-13315","Jae-Crowder-13942","Draymond-Green-13976","Jusuf-Nurkic-18619","Josh-Hart-37889","Kevin-Durant-1348","DeMarcus-Cousins-1490","49900","266.39"
"Damian-Lillard-13900","Klay-Thompson-13315","Kentavious-Caldwell-Pope-16869","Maurice-Harkless-16971","Draymond-Green-13976","Joe-Ingles-18627","Kevin-Durant-1348","Josh-Hart-37889","50000","266.39"
"C.J.-McCollum-17121","Klay-Thompson-13315","Kentavious-Caldwell-Pope-16869","Kevin-Durant-1348","Jusuf-Nurkic-18619","Lance-Stephenson-947","Joe-Ingles-18627","DeMarcus-Cousins-1490","49700","266.34"
"Damian-Lillard-13900","Klay-Thompson-13315","Joe-Ingles-18627","Meyers-Leonard-13905","Jusuf-Nurkic-18619","Lance-Stephenson-947","Derrick-Favors-1266","Kevin-Durant-1348","50000","266.32"
"Josh-Hart-37889","Klay-Thompson-13315","Kevin-Durant-1348","Meyers-Leonard-13905","DeMarcus-Cousins-1490","Joe-Ingles-18627","Draymond-Green-13976","Jusuf-Nurkic-18619","50000","266.28"
"Damian-Lillard-13900","Klay-Thompson-13315","Kevin-Durant-1348","Meyers-Leonard-13905","Jusuf-Nurkic-18619","Kentavious-Caldwell-Pope-16869","DeMarcus-Cousins-1490","Lance-Stephenson-947","49700","266.26"
"C.J.-McCollum-17121","Klay-Thompson-13315","Joe-Ingles-18627","Maurice-Harkless-16971","Jusuf-Nurkic-18619","Lance-Stephenson-947","Kevin-Durant-1348","Draymond-Green-13976","49900","266.23"
"Damian-Lillard-13900","Klay-Thompson-13315","Royce-O'Neale-37872","Kevin-Durant-1348","Draymond-Green-13976","Lance-Stephenson-947","Joe-Ingles-18627","Josh-Hart-37889","50000","266.15"
"Damian-Lillard-13900","Klay-Thompson-13315","Maurice-Harkless-16971","Meyers-Leonard-13905","Jusuf-Nurkic-18619","Lance-Stephenson-947","Kevin-Durant-1348","Draymond-Green-13976","49900","266.15"
"Damian-Lillard-13900","Klay-Thompson-13315","Joe-Ingles-18627","Kevon-Looney-18945","DeMarcus-Cousins-1490","Lance-Stephenson-947","Kevin-Durant-1348","Draymond-Green-13976","49800","266.14"
"Damian-Lillard-13900","Klay-Thompson-13315","Kentavious-Caldwell-Pope-16869","Kevon-Looney-18945","Jusuf-Nurkic-18619","Lance-Stephenson-947","Kevin-Durant-1348","Josh-Hart-37889","49800","266.05"
"Damian-Lillard-13900","Josh-Hart-37889","Kentavious-Caldwell-Pope-16869","Maurice-Harkless-16971","Draymond-Green-13976","Lance-Stephenson-947","Kevin-Durant-1348","Jusuf-Nurkic-18619","50000","265.9"
"Damian-Lillard-13900","Josh-Hart-37889","Joe-Ingles-18627","DeMarcus-Cousins-1490","Jusuf-Nurkic-18619","Lance-Stephenson-947","Kevin-Durant-1348","Kevon-Looney-18945","50000","265.8"
"Lance-Stephenson-947","Klay-Thompson-13315","Maurice-Harkless-16971","Draymond-Green-13976","DeMarcus-Cousins-1490","Joe-Ingles-18627","Kevin-Durant-1348","Jusuf-Nurkic-18619","49500","265.78"
"Damian-Lillard-13900","Klay-Thompson-13315","Kyle-Korver-1269","DeMarcus-Cousins-1490","Jusuf-Nurkic-18619","Lance-Stephenson-947","Kevin-Durant-1348","Maurice-Harkless-16971","49900","265.7"
"Lance-Stephenson-947","Klay-Thompson-13315","Jae-Crowder-13942","Draymond-Green-13976","Jusuf-Nurkic-18619","Joe-Ingles-18627","Kevin-Durant-1348","Josh-Hart-37889","49700","265.68"
"Damian-Lillard-13900","Klay-Thompson-13315","Kevin-Durant-1348","DeMarcus-Cousins-1490","Jusuf-Nurkic-18619","Alex-Caruso-37888","Derrick-Favors-1266","Lance-Stephenson-947","49900","265.62"
"Lance-Stephenson-947","Klay-Thompson-13315","Al-Farouq-Aminu-1279","Draymond-Green-13976","Jusuf-Nurkic-18619","Kentavious-Caldwell-Pope-16869","Kevin-Durant-1348","Joe-Ingles-18627","49900","265.61"
"Damian-Lillard-13900","Klay-Thompson-13315","Maurice-Harkless-16971","DeMarcus-Cousins-1490","Jusuf-Nurkic-18619","Alex-Caruso-37888","Kevin-Durant-1348","Josh-Hart-37889","50000","265.6"
"Damian-Lillard-13900","Klay-Thompson-13315","Joe-Ingles-18627","DeMarcus-Cousins-1490","Derrick-Favors-1266","Lance-Stephenson-947","Kevin-Durant-1348","Josh-Hart-37889","49700","265.57"
"Lance-Stephenson-947","Klay-Thompson-13315","Joe-Ingles-18627","DeMarcus-Cousins-1490","Jusuf-Nurkic-18619","Brandon-Ingram-35227","Kevin-Durant-1348","Maurice-Harkless-16971","49900","265.56"
"Damian-Lillard-13900","Klay-Thompson-13315","Kentavious-Caldwell-Pope-16869","Kevin-Durant-1348","Jusuf-Nurkic-18619","Lance-Stephenson-947","Joe-Ingles-18627","Meyers-Leonard-13905","49500","265.55"
"C.J.-McCollum-17121","Klay-Thompson-13315","Kevin-Durant-1348","Draymond-Green-13976","Jusuf-Nurkic-18619","Lance-Stephenson-947","Kevon-Looney-18945","DeMarcus-Cousins-1490","50000","265.49"
"Damian-Lillard-13900","Alex-Caruso-37888","Joe-Ingles-18627","Draymond-Green-13976","Jusuf-Nurkic-18619","Lance-Stephenson-947","Kevin-Durant-1348","Josh-Hart-37889","49900","265.48"
"Damian-Lillard-13900","Klay-Thompson-13315","Joe-Ingles-18627","Zach-Collins-37866","Jusuf-Nurkic-18619","Lance-Stephenson-947","Kevin-Durant-1348","Josh-Hart-37889","50000","265.46"
"Josh-Hart-37889","Klay-Thompson-13315","Joe-Ingles-18627","DeMarcus-Cousins-1490","Derrick-Favors-1266","Kentavious-Caldwell-Pope-16869","Kevin-Durant-1348","Jusuf-Nurkic-18619","49900","265.46"
"C.J.-McCollum-17121","Klay-Thompson-13315","Kyle-Korver-1269","Kevin-Durant-1348","Draymond-Green-13976","Lance-Stephenson-947","Joe-Ingles-18627","Jusuf-Nurkic-18619","50000","265.42"
"Damian-Lillard-13900","Klay-Thompson-13315","Kentavious-Caldwell-Pope-16869","Jae-Crowder-13942","DeMarcus-Cousins-1490","Josh-Hart-37889","Joe-Ingles-18627","Kevin-Durant-1348","49900","265.41"
"Damian-Lillard-13900","Klay-Thompson-13315","Maurice-Harkless-16971","Draymond-Green-13976","DeMarcus-Cousins-1490","Lance-Stephenson-947","Kevin-Durant-1348","Josh-Hart-37889","49600","265.4"
"Damian-Lillard-13900","Klay-Thompson-13315","Kyle-Korver-1269","Meyers-Leonard-13905","Draymond-Green-13976","Lance-Stephenson-947","Kevin-Durant-1348","Jusuf-Nurkic-18619","50000","265.34"
"Damian-Lillard-13900","Klay-Thompson-13315","Kentavious-Caldwell-Pope-16869","Derrick-Favors-1266","Jusuf-Nurkic-18619","Lance-Stephenson-947","Maurice-Harkless-16971","Kevin-Durant-1348","49800","265.33"
"Damian-Lillard-13900","Klay-Thompson-13315","Joe-Ingles-18627","Draymond-Green-13976","Derrick-Favors-1266","Lance-Stephenson-947","Kevin-Durant-1348","Jae-Crowder-13942","50000","265.32"
"Lance-Stephenson-947","Klay-Thompson-13315","Kevin-Durant-1348","Draymond-Green-13976","Derrick-Favors-1266","Kentavious-Caldwell-Pope-16869","DeMarcus-Cousins-1490","Jusuf-Nurkic-18619","49700","265.31"
"Josh-Hart-37889","Klay-Thompson-13315","Maurice-Harkless-16971","Draymond-Green-13976","DeMarcus-Cousins-1490","Kentavious-Caldwell-Pope-16869","Kevin-Durant-1348","Jusuf-Nurkic-18619","49800","265.29"
"Damian-Lillard-13900","Klay-Thompson-13315","Kentavious-Caldwell-Pope-16869","Jae-Crowder-13942","Draymond-Green-13976","Lance-Stephenson-947","Kevin-Durant-1348","DeMarcus-Cousins-1490","49700","265.26"
"C.J.-McCollum-17121","Klay-Thompson-13315","Joe-Ingles-18627","DeMarcus-Cousins-1490","Jusuf-Nurkic-18619","Lance-Stephenson-947","Kevin-Durant-1348","Jae-Crowder-13942","49800","265.25"
"Damian-Lillard-13900","Klay-Thompson-13315","Al-Farouq-Aminu-1279","Kevin-Durant-1348","Draymond-Green-13976","Lance-Stephenson-947","Kentavious-Caldwell-Pope-16869","Josh-Hart-37889","50000","265.23"
"Lance-Stephenson-947","Klay-Thompson-13315","Brandon-Ingram-35227","Meyers-Leonard-13905","Jusuf-Nurkic-18619","Joe-Ingles-18627","Draymond-Green-13976","Kevin-Durant-1348","50000","265.2"
"Damian-Lillard-13900","Klay-Thompson-13315","Brandon-Ingram-35227","Maurice-Harkless-16971","DeMarcus-Cousins-1490","Lance-Stephenson-947","Kevin-Durant-1348","Josh-Hart-37889","50000","265.18"
"Damian-Lillard-13900","Klay-Thompson-13315","Kevin-Durant-1348","Meyers-Leonard-13905","Jusuf-Nurkic-18619","Lance-Stephenson-947","DeMarcus-Cousins-1490","Jae-Crowder-13942","49800","265.17"
"Damian-Lillard-13900","Klay-Thompson-13315","Kevin-Durant-1348","Meyers-Leonard-13905","DeMarcus-Cousins-1490","Kentavious-Caldwell-Pope-16869","Draymond-Green-13976","Joe-Ingles-18627","49800","265.15"
"Damian-Lillard-13900","Lance-Stephenson-947","Maurice-Harkless-16971","DeMarcus-Cousins-1490","Jusuf-Nurkic-18619","Joe-Ingles-18627","Derrick-Favors-1266","Kevin-Durant-1348","50000","265.08"
"Damian-Lillard-13900","Klay-Thompson-13315","Royce-O'Neale-37872","Maurice-Harkless-16971","Jusuf-Nurkic-18619","Lance-Stephenson-947","Kevin-Durant-1348","Josh-Hart-37889","49900","265.07"
"Damian-Lillard-13900","Klay-Thompson-13315","Kevin-Durant-1348","Kevon-Looney-18945","Jusuf-Nurkic-18619","Lance-Stephenson-947","DeMarcus-Cousins-1490","Maurice-Harkless-16971","49700","265.06"
"Lance-Stephenson-947","Klay-Thompson-13315","Royce-O'Neale-37872","Draymond-Green-13976","DeMarcus-Cousins-1490","Josh-Hart-37889","Kevin-Durant-1348","Jusuf-Nurkic-18619","49800","265.05"
"C.J.-McCollum-17121","Alex-Caruso-37888","Joe-Ingles-18627","DeMarcus-Cousins-1490","Jusuf-Nurkic-18619","Damian-Lillard-13900","Kevin-Durant-1348","Lance-Stephenson-947","50000","265.05"
