"Austin-Rivers-13903","Jimmy-Butler-13327","Kevin-Durant-1348","Wilson-Chandler-1327","Joel-Embiid-18578","Josh-Richardson-18922","Kenneth-Faried-13313","Hassan-Whiteside-18664","50000","279.99"
"Lance-Stephenson-947","Jimmy-Butler-13327","Kevin-Durant-1348","Wilson-Chandler-1327","Joel-Embiid-18578","Klay-Thompson-13315","Kenneth-Faried-13313","Hassan-Whiteside-18664","49800","279.63"

"Austin-Rivers-13903","Jimmy-Butler-13327","Kevin-Durant-1348","Wilson-Chandler-1327","Joel-Embiid-18578","Josh-Richardson-18922","Kenneth-Faried-13313","Hassan-Whiteside-18664","50000","279.99"
"Lance-Stephenson-947","Jimmy-Butler-13327","Kevin-Durant-1348","Wilson-Chandler-1327","Joel-Embiid-18578","Klay-Thompson-13315","Kenneth-Faried-13313","Hassan-Whiteside-18664","49800","279.63"
"Austin-Rivers-13903","Jimmy-Butler-13327","Kevin-Durant-1348","Wilson-Chandler-1327","Joel-Embiid-18578","Joe-Ingles-18627","Kenneth-Faried-13313","Hassan-Whiteside-18664","49900","278.59"
"Marcus-Smart-18567","Jimmy-Butler-13327","Wilson-Chandler-1327","Al-Horford-1499","Joel-Embiid-18578","Klay-Thompson-13315","Kenneth-Faried-13313","Kevin-Durant-1348","49900","278.4"
"Austin-Rivers-13903","Jimmy-Butler-13327","Kevin-Durant-1348","Wilson-Chandler-1327","Joel-Embiid-18578","Josh-Hart-37889","Kenneth-Faried-13313","Klay-Thompson-13315","50000","278.31"
"Damian-Lillard-13900","Jimmy-Butler-13327","Wilson-Chandler-1327","Kenneth-Faried-13313","Joel-Embiid-18578","Klay-Thompson-13315","Josh-Richardson-18922","Al-Horford-1499","50000","278.07"
"Lance-Stephenson-947","Klay-Thompson-13315","Kevin-Durant-1348","Wilson-Chandler-1327","Joel-Embiid-18578","Damian-Lillard-13900","Kenneth-Faried-13313","Austin-Rivers-13903","50000","278.03"
"Austin-Rivers-13903","Jimmy-Butler-13327","Wilson-Chandler-1327","Al-Horford-1499","Joel-Embiid-18578","Josh-Richardson-18922","Kenneth-Faried-13313","Kevin-Durant-1348","49800","277.87"
"Marcus-Smart-18567","Jimmy-Butler-13327","Wilson-Chandler-1327","Kenneth-Faried-13313","Joel-Embiid-18578","Klay-Thompson-13315","Josh-Richardson-18922","Kevin-Durant-1348","49700","277.74"
"Austin-Rivers-13903","Jimmy-Butler-13327","Wilson-Chandler-1327","Kenneth-Faried-13313","Joel-Embiid-18578","Klay-Thompson-13315","Ben-Simmons-35184","Hassan-Whiteside-18664","49900","277.72"
"Lance-Stephenson-947","Jimmy-Butler-13327","Kevin-Durant-1348","Wilson-Chandler-1327","Joel-Embiid-18578","Damian-Lillard-13900","Kenneth-Faried-13313","Marcus-Smart-18567","50000","277.66"
"Austin-Rivers-13903","Jimmy-Butler-13327","Wilson-Chandler-1327","Al-Horford-1499","Joel-Embiid-18578","J.J.-Redick-1030","Kenneth-Faried-13313","Kevin-Durant-1348","49900","277.59"
"Lance-Stephenson-947","Jimmy-Butler-13327","Kevin-Durant-1348","Wilson-Chandler-1327","Joel-Embiid-18578","Klay-Thompson-13315","Kenneth-Faried-13313","Jayson-Tatum-37782","50000","277.56"
"Lance-Stephenson-947","Jimmy-Butler-13327","Wilson-Chandler-1327","Al-Horford-1499","Joel-Embiid-18578","Klay-Thompson-13315","Kenneth-Faried-13313","Kevin-Durant-1348","49600","277.51"
"Lance-Stephenson-947","Jimmy-Butler-13327","Kevin-Durant-1348","Kenneth-Faried-13313","Joel-Embiid-18578","Marcus-Smart-18567","Josh-Richardson-18922","Klay-Thompson-13315","50000","277.48"
"Josh-Hart-37889","Jimmy-Butler-13327","Wilson-Chandler-1327","Al-Horford-1499","Joel-Embiid-18578","Josh-Richardson-18922","Kenneth-Faried-13313","Kevin-Durant-1348","50000","277.46"
"Marcus-Smart-18567","Jimmy-Butler-13327","Kevin-Durant-1348","Wilson-Chandler-1327","Joel-Embiid-18578","J.J.-Redick-1030","Kenneth-Faried-13313","Klay-Thompson-13315","49800","277.46"
"Lance-Stephenson-947","Kentavious-Caldwell-Pope-16869","Jimmy-Butler-13327","Kevin-Durant-1348","Hassan-Whiteside-18664","Austin-Rivers-13903","Wilson-Chandler-1327","Joel-Embiid-18578","50000","277.31"
"Lance-Stephenson-947","Klay-Thompson-13315","Jimmy-Butler-13327","Kevin-Durant-1348","Bam-Adebayo-37835","Austin-Rivers-13903","Wilson-Chandler-1327","Joel-Embiid-18578","50000","277.21"
"Lance-Stephenson-947","Josh-Richardson-18922","Wilson-Chandler-1327","Al-Horford-1499","Joel-Embiid-18578","Damian-Lillard-13900","Kenneth-Faried-13313","Kevin-Durant-1348","50000","277.18"
"Ben-Simmons-35184","Klay-Thompson-13315","Jimmy-Butler-13327","Kevin-Durant-1348","Hassan-Whiteside-18664","Josh-Richardson-18922","Wilson-Chandler-1327","Kenneth-Faried-13313","49900","277.16"
"Damian-Lillard-13900","Jimmy-Butler-13327","Wilson-Chandler-1327","Kenneth-Faried-13313","Joel-Embiid-18578","J.J.-Redick-1030","Josh-Richardson-18922","Klay-Thompson-13315","49900","277.13"
"Lance-Stephenson-947","Klay-Thompson-13315","Jimmy-Butler-13327","Kevin-Durant-1348","Hassan-Whiteside-18664","Damian-Lillard-13900","Wilson-Chandler-1327","Austin-Rivers-13903","50000","277.12"
"Austin-Rivers-13903","Klay-Thompson-13315","Kevin-Durant-1348","Wilson-Chandler-1327","Joel-Embiid-18578","Marcus-Smart-18567","Kenneth-Faried-13313","Jusuf-Nurkic-18619","49900","277.11"
"Damian-Lillard-13900","Jimmy-Butler-13327","Kevin-Durant-1348","Wilson-Chandler-1327","Al-Horford-1499","Klay-Thompson-13315","Kenneth-Faried-13313","Hassan-Whiteside-18664","49800","277.11"
"James-Harden-1037","Klay-Thompson-13315","Jimmy-Butler-13327","Kenneth-Faried-13313","Hassan-Whiteside-18664","Austin-Rivers-13903","Josh-Richardson-18922","Wilson-Chandler-1327","50000","277.05"
"Marcus-Smart-18567","Jimmy-Butler-13327","Kevin-Durant-1348","Wilson-Chandler-1327","Joel-Embiid-18578","Klay-Thompson-13315","DeMarcus-Cousins-1490","Kenneth-Faried-13313","49800","277.05"
"Damian-Lillard-13900","Austin-Rivers-13903","Kevin-Durant-1348","Wilson-Chandler-1327","Joel-Embiid-18578","Marcus-Smart-18567","Kenneth-Faried-13313","Hassan-Whiteside-18664","49900","277.01"
"Damian-Lillard-13900","Klay-Thompson-13315","Jimmy-Butler-13327","Wilson-Chandler-1327","Hassan-Whiteside-18664","Austin-Rivers-13903","Kenneth-Faried-13313","Joel-Embiid-18578","49600","277.01"
"Lance-Stephenson-947","Klay-Thompson-13315","Kevin-Durant-1348","Wilson-Chandler-1327","Joel-Embiid-18578","Austin-Rivers-13903","J.J.-Redick-1030","Josh-Richardson-18922","50000","276.99"
"Damian-Lillard-13900","Jimmy-Butler-13327","Kevin-Durant-1348","Wilson-Chandler-1327","Joel-Embiid-18578","Austin-Rivers-13903","Kenneth-Faried-13313","Nene-Hilario-17321","50000","276.97"
"Lance-Stephenson-947","Klay-Thompson-13315","Jimmy-Butler-13327","Wilson-Chandler-1327","Jusuf-Nurkic-18619","Austin-Rivers-13903","Al-Horford-1499","Joel-Embiid-18578","50000","276.93"
"Austin-Rivers-13903","Jimmy-Butler-13327","Wilson-Chandler-1327","Kenneth-Faried-13313","Joel-Embiid-18578","J.J.-Redick-1030","Josh-Richardson-18922","Kevin-Durant-1348","49700","276.93"
"Austin-Rivers-13903","Marcus-Smart-18567","Kevin-Durant-1348","Wilson-Chandler-1327","Hassan-Whiteside-18664","Josh-Richardson-18922","Al-Horford-1499","Joel-Embiid-18578","50000","276.91"
"Austin-Rivers-13903","Klay-Thompson-13315","Jimmy-Butler-13327","Wilson-Chandler-1327","Hassan-Whiteside-18664","Josh-Richardson-18922","Al-Horford-1499","Joel-Embiid-18578","49700","276.91"
"Ben-Simmons-35184","Klay-Thompson-13315","Jimmy-Butler-13327","Kevin-Durant-1348","Hassan-Whiteside-18664","J.J.-Redick-1030","Wilson-Chandler-1327","Kenneth-Faried-13313","50000","276.88"
"Ben-Simmons-35184","Jimmy-Butler-13327","Wilson-Chandler-1327","Al-Horford-1499","Joel-Embiid-18578","Josh-Richardson-18922","Kenneth-Faried-13313","Hassan-Whiteside-18664","49900","276.87"
"Lance-Stephenson-947","Jimmy-Butler-13327","Wilson-Chandler-1327","Kenneth-Faried-13313","Joel-Embiid-18578","Klay-Thompson-13315","Josh-Richardson-18922","Kevin-Durant-1348","49400","276.85"
"Lance-Stephenson-947","Austin-Rivers-13903","Jimmy-Butler-13327","Wilson-Chandler-1327","Hassan-Whiteside-18664","Damian-Lillard-13900","Al-Horford-1499","Joel-Embiid-18578","50000","276.83"
"Austin-Rivers-13903","Klay-Thompson-13315","Kevin-Durant-1348","Kenneth-Faried-13313","Joel-Embiid-18578","Marcus-Smart-18567","Josh-Richardson-18922","Hassan-Whiteside-18664","49900","276.83"
"Lance-Stephenson-947","Austin-Rivers-13903","Kevin-Durant-1348","Wilson-Chandler-1327","Joel-Embiid-18578","Ben-Simmons-35184","Kenneth-Faried-13313","Hassan-Whiteside-18664","49900","276.83"
"Austin-Rivers-13903","Jimmy-Butler-13327","Kevin-Durant-1348","Kenneth-Faried-13313","Nene-Hilario-17321","Klay-Thompson-13315","Josh-Richardson-18922","Joel-Embiid-18578","50000","276.79"
"Damian-Lillard-13900","Klay-Thompson-13315","Wilson-Chandler-1327","Kenneth-Faried-13313","Joel-Embiid-18578","Austin-Rivers-13903","Josh-Richardson-18922","Jusuf-Nurkic-18619","50000","276.78"
"Marcus-Smart-18567","Jimmy-Butler-13327","Kevin-Durant-1348","Wilson-Chandler-1327","Nene-Hilario-17321","Klay-Thompson-13315","Josh-Richardson-18922","Joel-Embiid-18578","50000","276.74"
"Damian-Lillard-13900","Jimmy-Butler-13327","Wilson-Chandler-1327","Kenneth-Faried-13313","Joel-Embiid-18578","Klay-Thompson-13315","Josh-Richardson-18922","DeMarcus-Cousins-1490","49900","276.72"
"Ben-Simmons-35184","Jimmy-Butler-13327","Wilson-Chandler-1327","Kenneth-Faried-13313","Joel-Embiid-18578","Klay-Thompson-13315","Josh-Richardson-18922","Joe-Ingles-18627","50000","276.72"
"Lance-Stephenson-947","Klay-Thompson-13315","Kevin-Durant-1348","Wilson-Chandler-1327","Hassan-Whiteside-18664","Kentavious-Caldwell-Pope-16869","Josh-Richardson-18922","Joel-Embiid-18578","49900","276.7"
"Damian-Lillard-13900","Jimmy-Butler-13327","Wilson-Chandler-1327","Al-Horford-1499","Joel-Embiid-18578","Klay-Thompson-13315","Kenneth-Faried-13313","Joe-Ingles-18627","49900","276.67"
"Lance-Stephenson-947","Austin-Rivers-13903","Jimmy-Butler-13327","Kenneth-Faried-13313","Joel-Embiid-18578","Josh-Richardson-18922","J.J.-Redick-1030","Kevin-Durant-1348","50000","276.67"
"Lance-Stephenson-947","Jimmy-Butler-13327","Kevin-Durant-1348","Wilson-Chandler-1327","Joel-Embiid-18578","Kentavious-Caldwell-Pope-16869","Kenneth-Faried-13313","Jusuf-Nurkic-18619","49900","276.66"
"Lance-Stephenson-947","Klay-Thompson-13315","Jimmy-Butler-13327","Al-Horford-1499","Joel-Embiid-18578","Austin-Rivers-13903","Josh-Richardson-18922","Hassan-Whiteside-18664","50000","276.65"
"Austin-Rivers-13903","Jimmy-Butler-13327","Wilson-Chandler-1327","Al-Horford-1499","Joel-Embiid-18578","Klay-Thompson-13315","J.J.-Redick-1030","Hassan-Whiteside-18664","49800","276.63"
"Lance-Stephenson-947","Jimmy-Butler-13327","Kevin-Durant-1348","Wilson-Chandler-1327","Joel-Embiid-18578","Marcus-Smart-18567","J.J.-Redick-1030","Josh-Richardson-18922","50000","276.62"
"Lance-Stephenson-947","Jimmy-Butler-13327","Kevin-Durant-1348","Wilson-Chandler-1327","Joel-Embiid-18578","Klay-Thompson-13315","Kenneth-Faried-13313","C.J.-McCollum-17121","49900","276.61"
"Lance-Stephenson-947","Jimmy-Butler-13327","Kevin-Durant-1348","Wilson-Chandler-1327","Joel-Embiid-18578","Josh-Richardson-18922","Maurice-Harkless-16971","Hassan-Whiteside-18664","50000","276.6"
"Lance-Stephenson-947","Klay-Thompson-13315","Kevin-Durant-1348","Al-Horford-1499","Joel-Embiid-18578","Austin-Rivers-13903","Kenneth-Faried-13313","Hassan-Whiteside-18664","49800","276.6"
"Damian-Lillard-13900","Klay-Thompson-13315","Jimmy-Butler-13327","Wilson-Chandler-1327","Hassan-Whiteside-18664","Josh-Hart-37889","Kenneth-Faried-13313","Joel-Embiid-18578","49800","276.6"
"Ben-Simmons-35184","Jimmy-Butler-13327","Wilson-Chandler-1327","Al-Horford-1499","Joel-Embiid-18578","J.J.-Redick-1030","Kenneth-Faried-13313","Hassan-Whiteside-18664","50000","276.59"
"Lance-Stephenson-947","Klay-Thompson-13315","Kevin-Durant-1348","Wilson-Chandler-1327","Joel-Embiid-18578","Austin-Rivers-13903","DeMarcus-Cousins-1490","Josh-Richardson-18922","50000","276.58"
"Lance-Stephenson-947","Jimmy-Butler-13327","Kevin-Durant-1348","Wilson-Chandler-1327","Joel-Embiid-18578","J.J.-Redick-1030","Kenneth-Faried-13313","Klay-Thompson-13315","49500","276.57"
"Austin-Rivers-13903","Klay-Thompson-13315","Kevin-Durant-1348","Kenneth-Faried-13313","Hassan-Whiteside-18664","Marcus-Smart-18567","J.J.-Redick-1030","Joel-Embiid-18578","50000","276.55"
"Lance-Stephenson-947","Klay-Thompson-13315","Kevin-Durant-1348","Wilson-Chandler-1327","Hassan-Whiteside-18664","Marcus-Smart-18567","Al-Horford-1499","Joel-Embiid-18578","49800","276.55"
"Lance-Stephenson-947","Klay-Thompson-13315","Wilson-Chandler-1327","Al-Horford-1499","Joel-Embiid-18578","Austin-Rivers-13903","Joe-Ingles-18627","Kevin-Durant-1348","50000","276.53"
"Austin-Rivers-13903","Jimmy-Butler-13327","Kevin-Durant-1348","Wilson-Chandler-1327","Joel-Embiid-18578","Josh-Richardson-18922","DeMarcus-Cousins-1490","Kenneth-Faried-13313","49700","276.52"
"Josh-Hart-37889","Jimmy-Butler-13327","Wilson-Chandler-1327","Kenneth-Faried-13313","Joel-Embiid-18578","J.J.-Redick-1030","Josh-Richardson-18922","Kevin-Durant-1348","49900","276.52"
"Lance-Stephenson-947","Jimmy-Butler-13327","Kevin-Durant-1348","Wilson-Chandler-1327","Nene-Hilario-17321","Klay-Thompson-13315","Al-Horford-1499","Joel-Embiid-18578","49900","276.51"
"Austin-Rivers-13903","Klay-Thompson-13315","Kevin-Durant-1348","Wilson-Chandler-1327","Joel-Embiid-18578","Josh-Richardson-18922","Kenneth-Faried-13313","Draymond-Green-13976","49800","276.51"
"Josh-Hart-37889","Klay-Thompson-13315","Jimmy-Butler-13327","Wilson-Chandler-1327","Hassan-Whiteside-18664","Josh-Richardson-18922","Al-Horford-1499","Joel-Embiid-18578","49900","276.5"
"Lance-Stephenson-947","Austin-Rivers-13903","Jimmy-Butler-13327","Kevin-Durant-1348","Hassan-Whiteside-18664","Marcus-Smart-18567","Wilson-Chandler-1327","Joel-Embiid-18578","49700","276.5"
"Lance-Stephenson-947","Klay-Thompson-13315","Jimmy-Butler-13327","Kevin-Durant-1348","Jusuf-Nurkic-18619","Damian-Lillard-13900","Kenneth-Faried-13313","Wilson-Chandler-1327","49900","276.47"
"Austin-Rivers-13903","Jimmy-Butler-13327","Wilson-Chandler-1327","Al-Horford-1499","Joel-Embiid-18578","Joe-Ingles-18627","Kenneth-Faried-13313","Kevin-Durant-1348","49700","276.47"
"Ben-Simmons-35184","Jimmy-Butler-13327","Kevin-Durant-1348","DeMarcus-Cousins-1490","Hassan-Whiteside-18664","Klay-Thompson-13315","Kenneth-Faried-13313","Wilson-Chandler-1327","50000","276.47"
"Lance-Stephenson-947","Jimmy-Butler-13327","Kevin-Durant-1348","Wilson-Chandler-1327","Joel-Embiid-18578","Damian-Lillard-13900","Kenneth-Faried-13313","Bam-Adebayo-37835","49900","276.46"
"Damian-Lillard-13900","Klay-Thompson-13315","Jimmy-Butler-13327","Kevin-Durant-1348","Hassan-Whiteside-18664","Josh-Richardson-18922","Wilson-Chandler-1327","Kenneth-Faried-13313","49600","276.45"
"Damian-Lillard-13900","Jimmy-Butler-13327","Wilson-Chandler-1327","Kenneth-Faried-13313","Joel-Embiid-18578","Klay-Thompson-13315","J.J.-Redick-1030","DeMarcus-Cousins-1490","50000","276.44"
"Lance-Stephenson-947","Klay-Thompson-13315","Kevin-Durant-1348","Wilson-Chandler-1327","Joel-Embiid-18578","Kentavious-Caldwell-Pope-16869","J.J.-Redick-1030","Hassan-Whiteside-18664","50000","276.42"
"Damian-Lillard-13900","Jimmy-Butler-13327","Wilson-Chandler-1327","Kenneth-Faried-13313","Joel-Embiid-18578","Marcus-Smart-18567","Josh-Richardson-18922","Jusuf-Nurkic-18619","50000","276.41"
"Austin-Rivers-13903","Jimmy-Butler-13327","Kevin-Durant-1348","Wilson-Chandler-1327","Joel-Embiid-18578","Josh-Hart-37889","Kenneth-Faried-13313","Hassan-Whiteside-18664","49600","276.4"
"Lance-Stephenson-947","Jimmy-Butler-13327","Kevin-Durant-1348","Kenneth-Faried-13313","Hassan-Whiteside-18664","Josh-Richardson-18922","Kentavious-Caldwell-Pope-16869","Joel-Embiid-18578","49900","276.38"
"Lance-Stephenson-947","Jimmy-Butler-13327","Wilson-Chandler-1327","Al-Horford-1499","Jusuf-Nurkic-18619","Klay-Thompson-13315","Josh-Richardson-18922","Kevin-Durant-1348","50000","276.37"
"Damian-Lillard-13900","Klay-Thompson-13315","Kevin-Durant-1348","Wilson-Chandler-1327","Joel-Embiid-18578","Josh-Richardson-18922","Kenneth-Faried-13313","Nene-Hilario-17321","49900","276.36"
"Lance-Stephenson-947","Jimmy-Butler-13327","Wilson-Chandler-1327","Bam-Adebayo-37835","Joel-Embiid-18578","Josh-Richardson-18922","Al-Horford-1499","Kevin-Durant-1348","50000","276.36"
"Marcus-Smart-18567","Jimmy-Butler-13327","Kevin-Durant-1348","Wilson-Chandler-1327","Joel-Embiid-18578","Klay-Thompson-13315","Kenneth-Faried-13313","Joe-Ingles-18627","49600","276.34"
"Damian-Lillard-13900","Jimmy-Butler-13327","Wilson-Chandler-1327","Gordon-Hayward-1239","Joel-Embiid-18578","Klay-Thompson-13315","Kenneth-Faried-13313","Hassan-Whiteside-18664","50000","276.29"
"Lance-Stephenson-947","Klay-Thompson-13315","Jimmy-Butler-13327","Bam-Adebayo-37835","Joel-Embiid-18578","Josh-Richardson-18922","Kenneth-Faried-13313","Kevin-Durant-1348","49900","276.28"
"Lance-Stephenson-947","Klay-Thompson-13315","Jimmy-Butler-13327","Wilson-Chandler-1327","Jusuf-Nurkic-18619","Austin-Rivers-13903","Josh-Richardson-18922","Joel-Embiid-18578","49800","276.27"
"Lance-Stephenson-947","Josh-Richardson-18922","Jimmy-Butler-13327","Kevin-Durant-1348","Hassan-Whiteside-18664","Damian-Lillard-13900","Wilson-Chandler-1327","Al-Horford-1499","50000","276.27"
"Lance-Stephenson-947","Austin-Rivers-13903","Jimmy-Butler-13327","Kevin-Durant-1348","Joel-Embiid-18578","Josh-Richardson-18922","DeMarcus-Cousins-1490","Kenneth-Faried-13313","50000","276.26"
"Austin-Rivers-13903","Jimmy-Butler-13327","Kevin-Durant-1348","Wilson-Chandler-1327","Hassan-Whiteside-18664","Klay-Thompson-13315","Draymond-Green-13976","Al-Horford-1499","50000","276.26"
"Alex-Caruso-37888","Klay-Thompson-13315","Kevin-Durant-1348","Wilson-Chandler-1327","Joel-Embiid-18578","Damian-Lillard-13900","Kenneth-Faried-13313","Hassan-Whiteside-18664","50000","276.25"
"Austin-Rivers-13903","Jimmy-Butler-13327","Kevin-Durant-1348","Wilson-Chandler-1327","Joel-Embiid-18578","J.J.-Redick-1030","DeMarcus-Cousins-1490","Kenneth-Faried-13313","49800","276.24"
"Lance-Stephenson-947","J.J.-Redick-1030","Wilson-Chandler-1327","Kenneth-Faried-13313","Joel-Embiid-18578","Damian-Lillard-13900","Josh-Richardson-18922","Kevin-Durant-1348","49900","276.24"
"Lance-Stephenson-947","Jimmy-Butler-13327","Wilson-Chandler-1327","Kenneth-Faried-13313","Joel-Embiid-18578","Josh-Richardson-18922","Ben-Simmons-35184","Jusuf-Nurkic-18619","50000","276.23"
"Lance-Stephenson-947","Jimmy-Butler-13327","Kevin-Durant-1348","Al-Horford-1499","Joel-Embiid-18578","Marcus-Smart-18567","Kenneth-Faried-13313","Hassan-Whiteside-18664","49800","276.23"
"Austin-Rivers-13903","Klay-Thompson-13315","Kevin-Durant-1348","Wilson-Chandler-1327","Joel-Embiid-18578","J.J.-Redick-1030","Kenneth-Faried-13313","Draymond-Green-13976","49900","276.23"
"Austin-Rivers-13903","Jimmy-Butler-13327","Wilson-Chandler-1327","DeMarcus-Cousins-1490","Joel-Embiid-18578","Klay-Thompson-13315","Al-Horford-1499","Hassan-Whiteside-18664","49800","276.22"
"Lance-Stephenson-947","Klay-Thompson-13315","Kevin-Durant-1348","Wilson-Chandler-1327","Joel-Embiid-18578","Austin-Rivers-13903","Kenneth-Faried-13313","Jusuf-Nurkic-18619","49600","276.22"
"Josh-Hart-37889","Jimmy-Butler-13327","Wilson-Chandler-1327","Al-Horford-1499","Joel-Embiid-18578","Klay-Thompson-13315","J.J.-Redick-1030","Hassan-Whiteside-18664","50000","276.22"
"Lance-Stephenson-947","Klay-Thompson-13315","Wilson-Chandler-1327","Al-Horford-1499","Hassan-Whiteside-18664","Damian-Lillard-13900","Josh-Richardson-18922","Joel-Embiid-18578","49900","276.22"
"Damian-Lillard-13900","Jimmy-Butler-13327","Jayson-Tatum-37782","Wilson-Chandler-1327","Hassan-Whiteside-18664","Josh-Richardson-18922","Kenneth-Faried-13313","Joel-Embiid-18578","50000","276.21"
