"Lance-Stephenson-947","Julian-Washburn-760293","Paul-George-1245","Jaren-Jackson-409099","Ivan-Rabb-37854","Russell-Westbrook-1083","Jayson-Tatum-37782","JaVale-McGee-1485","49700","275.87"
"Russell-Westbrook-1083","Julian-Washburn-760293","Jayson-Tatum-37782","Al-Horford-1499","Steven-Adams-16848","Brandon-Ingram-35227","Ivan-Rabb-37854","Jaren-Jackson-409099","49800","275.25"
"Lance-Stephenson-947","Dennis-Schroder-18595","Jayson-Tatum-37782","Al-Horford-1499","Steven-Adams-16848","Russell-Westbrook-1083","Ivan-Rabb-37854","Jaren-Jackson-409099","49800","275.24"
"Kyrie-Irving-13334","Julian-Washburn-760293","Paul-George-1245","Jaren-Jackson-409099","Steven-Adams-16848","Lance-Stephenson-947","Jayson-Tatum-37782","Ivan-Rabb-37854","49600","274.93"
"Kyrie-Irving-13334","Julian-Washburn-760293","Marcus-Morris-13316","Bruno-Caboclo-18581","Jaren-Jackson-409099","Russell-Westbrook-1083","Jayson-Tatum-37782","Ivan-Rabb-37854","49900","274.9"

"Lance-Stephenson-947","Julian-Washburn-760293","Paul-George-1245","Jaren-Jackson-409099","Ivan-Rabb-37854","Russell-Westbrook-1083","Jayson-Tatum-37782","JaVale-McGee-1485","49700","275.87"
"Russell-Westbrook-1083","Julian-Washburn-760293","Jayson-Tatum-37782","Al-Horford-1499","Steven-Adams-16848","Brandon-Ingram-35227","Ivan-Rabb-37854","Jaren-Jackson-409099","49800","275.25"
"Lance-Stephenson-947","Dennis-Schroder-18595","Jayson-Tatum-37782","Al-Horford-1499","Steven-Adams-16848","Russell-Westbrook-1083","Ivan-Rabb-37854","Jaren-Jackson-409099","49800","275.24"
"Kyrie-Irving-13334","Julian-Washburn-760293","Paul-George-1245","Jaren-Jackson-409099","Steven-Adams-16848","Lance-Stephenson-947","Jayson-Tatum-37782","Ivan-Rabb-37854","49600","274.93"
"Kyrie-Irving-13334","Julian-Washburn-760293","Marcus-Morris-13316","Bruno-Caboclo-18581","Jaren-Jackson-409099","Russell-Westbrook-1083","Jayson-Tatum-37782","Ivan-Rabb-37854","49900","274.9"
"Russell-Westbrook-1083","Julian-Washburn-760293","Jayson-Tatum-37782","Al-Horford-1499","Steven-Adams-16848","Justin-Holiday-14559","Ivan-Rabb-37854","Jaren-Jackson-409099","49500","274.86"
"Russell-Westbrook-1083","Julian-Washburn-760293","Paul-George-1245","Bruno-Caboclo-18581","Ivan-Rabb-37854","Dennis-Schroder-18595","Jaren-Jackson-409099","Jayson-Tatum-37782","49800","274.83"
"Kyrie-Irving-13334","Dennis-Schroder-18595","Julian-Washburn-760293","Jaren-Jackson-409099","Steven-Adams-16848","Russell-Westbrook-1083","Lance-Stephenson-947","Ivan-Rabb-37854","50000","274.66"
"Russell-Westbrook-1083","Julian-Washburn-760293","Paul-George-1245","Jaren-Jackson-409099","JaVale-McGee-1485","Terrance-Ferguson-37871","Ivan-Rabb-37854","Steven-Adams-16848","49900","274.6"
"Kyrie-Irving-13334","Julian-Washburn-760293","Bruno-Caboclo-18581","Jaren-Jackson-409099","JaVale-McGee-1485","Russell-Westbrook-1083","Ivan-Rabb-37854","Al-Horford-1499","49800","274.55"
"Kyrie-Irving-13334","Julian-Washburn-760293","Lance-Stephenson-947","Jaren-Jackson-409099","JaVale-McGee-1485","Russell-Westbrook-1083","Ivan-Rabb-37854","Steven-Adams-16848","49600","274.53"
"Kyrie-Irving-13334","Justin-Holiday-14559","Julian-Washburn-760293","Bruno-Caboclo-18581","Ivan-Rabb-37854","Russell-Westbrook-1083","Jaren-Jackson-409099","Steven-Adams-16848","50000","274.34"
"Lance-Stephenson-947","Julian-Washburn-760293","Gordon-Hayward-1239","Jaren-Jackson-409099","Ivan-Rabb-37854","Russell-Westbrook-1083","Jayson-Tatum-37782","Paul-George-1245","50000","274.14"
"Lance-Stephenson-947","Marcus-Smart-18567","Jayson-Tatum-37782","Al-Horford-1499","Steven-Adams-16848","Russell-Westbrook-1083","Ivan-Rabb-37854","Jaren-Jackson-409099","49900","274.12"
"Kyrie-Irving-13334","Justin-Holiday-14559","Julian-Washburn-760293","Jayson-Tatum-37782","Jaren-Jackson-409099","Russell-Westbrook-1083","Lance-Stephenson-947","Ivan-Rabb-37854","49900","274.11"
"Russell-Westbrook-1083","Julian-Washburn-760293","Jayson-Tatum-37782","Al-Horford-1499","Steven-Adams-16848","Dennis-Schroder-18595","Ivan-Rabb-37854","Jaren-Jackson-409099","49200","274.01"
"Jevon-Carter-409100","Julian-Washburn-760293","Paul-George-1245","Jaren-Jackson-409099","JaVale-McGee-1485","Russell-Westbrook-1083","Ivan-Rabb-37854","Steven-Adams-16848","49700","273.99"
"Russell-Westbrook-1083","Julian-Washburn-760293","Paul-George-1245","Jaren-Jackson-409099","JaVale-McGee-1485","Josh-Hart-37889","Ivan-Rabb-37854","Steven-Adams-16848","49800","273.97"
"Kyrie-Irving-13334","Julian-Washburn-760293","Bruno-Caboclo-18581","Jerami-Grant-18576","Steven-Adams-16848","Russell-Westbrook-1083","Jaren-Jackson-409099","Ivan-Rabb-37854","50000","273.87"
"Lance-Stephenson-947","Jevon-Carter-409100","Paul-George-1245","Jaren-Jackson-409099","Ivan-Rabb-37854","Russell-Westbrook-1083","Jayson-Tatum-37782","JaVale-McGee-1485","49900","273.82"
"Lance-Stephenson-947","Josh-Hart-37889","Paul-George-1245","Jaren-Jackson-409099","Ivan-Rabb-37854","Russell-Westbrook-1083","Jayson-Tatum-37782","JaVale-McGee-1485","50000","273.8"
"Russell-Westbrook-1083","Julian-Washburn-760293","Paul-George-1245","Bruno-Caboclo-18581","Ivan-Rabb-37854","Marcus-Smart-18567","Jaren-Jackson-409099","Jayson-Tatum-37782","49900","273.71"
"Kyrie-Irving-13334","Julian-Washburn-760293","Jayson-Tatum-37782","Jerami-Grant-18576","Ivan-Rabb-37854","Lance-Stephenson-947","Jaren-Jackson-409099","Russell-Westbrook-1083","49900","273.64"
"Jevon-Carter-409100","Julian-Washburn-760293","Paul-George-1245","Jayson-Tatum-37782","Jaren-Jackson-409099","Russell-Westbrook-1083","Justin-Holiday-14559","Ivan-Rabb-37854","50000","273.57"
"Kyrie-Irving-13334","Dennis-Schroder-18595","Julian-Washburn-760293","Bruno-Caboclo-18581","Ivan-Rabb-37854","Russell-Westbrook-1083","Jaren-Jackson-409099","Steven-Adams-16848","49700","273.49"
"Kyrie-Irving-13334","Terrance-Ferguson-37871","Paul-George-1245","Jaren-Jackson-409099","Steven-Adams-16848","Lance-Stephenson-947","Jayson-Tatum-37782","Ivan-Rabb-37854","50000","273.49"
"Kyrie-Irving-13334","Julian-Washburn-760293","Paul-George-1245","Al-Horford-1499","Ivan-Rabb-37854","Terrance-Ferguson-37871","Jayson-Tatum-37782","Jaren-Jackson-409099","49900","273.45"
"Russell-Westbrook-1083","Justin-Holiday-14559","Jayson-Tatum-37782","Al-Horford-1499","Steven-Adams-16848","Terrance-Ferguson-37871","Ivan-Rabb-37854","Jaren-Jackson-409099","49900","273.42"
"Kyrie-Irving-13334","Julian-Washburn-760293","Marcus-Morris-13316","Jaren-Jackson-409099","Ivan-Rabb-37854","Dennis-Schroder-18595","Jayson-Tatum-37782","Paul-George-1245","50000","273.41"
"Kyrie-Irving-13334","Julian-Washburn-760293","Bruno-Caboclo-18581","Kyle-Kuzma-37886","Ivan-Rabb-37854","Russell-Westbrook-1083","Jayson-Tatum-37782","Jaren-Jackson-409099","49800","273.41"
"Kyrie-Irving-13334","Terrance-Ferguson-37871","Marcus-Morris-13316","Jaren-Jackson-409099","Ivan-Rabb-37854","Russell-Westbrook-1083","Julian-Washburn-760293","Jayson-Tatum-37782","50000","273.4"
"Lance-Stephenson-947","Julian-Washburn-760293","Paul-George-1245","Ivan-Rabb-37854","JaVale-McGee-1485","Russell-Westbrook-1083","Jayson-Tatum-37782","Steven-Adams-16848","49900","273.38"
"Russell-Westbrook-1083","Justin-Holiday-14559","Marcus-Morris-13316","Jaren-Jackson-409099","Ivan-Rabb-37854","Dennis-Schroder-18595","Jayson-Tatum-37782","Steven-Adams-16848","50000","273.38"
"Kyrie-Irving-13334","Julian-Washburn-760293","Bruno-Caboclo-18581","Jaren-Jackson-409099","JaVale-McGee-1485","Russell-Westbrook-1083","Ivan-Rabb-37854","Steven-Adams-16848","49300","273.36"
"Russell-Westbrook-1083","Julian-Washburn-760293","Paul-George-1245","Jayson-Tatum-37782","Jaren-Jackson-409099","Dennis-Schroder-18595","Terrance-Ferguson-37871","Ivan-Rabb-37854","49900","273.33"
"Kyrie-Irving-13334","Brandon-Ingram-35227","Julian-Washburn-760293","Bruno-Caboclo-18581","Ivan-Rabb-37854","Russell-Westbrook-1083","Jaren-Jackson-409099","Jayson-Tatum-37782","49900","273.33"
"Kyrie-Irving-13334","Dennis-Schroder-18595","Bruno-Caboclo-18581","Jaren-Jackson-409099","Ivan-Rabb-37854","Russell-Westbrook-1083","Lance-Stephenson-947","Jayson-Tatum-37782","49900","273.32"
"Kyrie-Irving-13334","Dennis-Schroder-18595","Julian-Washburn-760293","Jayson-Tatum-37782","Jaren-Jackson-409099","Russell-Westbrook-1083","Lance-Stephenson-947","Ivan-Rabb-37854","49600","273.26"
"Russell-Westbrook-1083","Julian-Washburn-760293","Paul-George-1245","Jaren-Jackson-409099","Ivan-Rabb-37854","Terrance-Ferguson-37871","Jayson-Tatum-37782","JaVale-McGee-1485","49500","273.2"
"Jevon-Carter-409100","Brandon-Ingram-35227","Jayson-Tatum-37782","Al-Horford-1499","Steven-Adams-16848","Russell-Westbrook-1083","Ivan-Rabb-37854","Jaren-Jackson-409099","50000","273.2"
"Kyrie-Irving-13334","Julian-Washburn-760293","Lance-Stephenson-947","Jaren-Jackson-409099","JaVale-McGee-1485","Russell-Westbrook-1083","Ivan-Rabb-37854","Jayson-Tatum-37782","49200","273.13"
"Kyrie-Irving-13334","Julian-Washburn-760293","Paul-George-1245","Jaren-Jackson-409099","JaVale-McGee-1485","Brandon-Ingram-35227","Ivan-Rabb-37854","Steven-Adams-16848","50000","273.11"
"Jevon-Carter-409100","Julian-Washburn-760293","Jayson-Tatum-37782","Jerami-Grant-18576","Ivan-Rabb-37854","Russell-Westbrook-1083","Jaren-Jackson-409099","Paul-George-1245","50000","273.1"
"Kyrie-Irving-13334","Dennis-Schroder-18595","Paul-George-1245","Jaren-Jackson-409099","JaVale-McGee-1485","Lance-Stephenson-947","Ivan-Rabb-37854","Steven-Adams-16848","50000","273.1"
"Kyrie-Irving-13334","Terrance-Ferguson-37871","Lance-Stephenson-947","Jaren-Jackson-409099","JaVale-McGee-1485","Russell-Westbrook-1083","Ivan-Rabb-37854","Steven-Adams-16848","50000","273.09"
"Kyrie-Irving-13334","Julian-Washburn-760293","Paul-George-1245","Al-Horford-1499","JaVale-McGee-1485","Dennis-Schroder-18595","Jaren-Jackson-409099","Ivan-Rabb-37854","49900","273.06"
"Kyrie-Irving-13334","Terrance-Ferguson-37871","Julian-Washburn-760293","Al-Horford-1499","JaVale-McGee-1485","Russell-Westbrook-1083","Jaren-Jackson-409099","Ivan-Rabb-37854","49900","273.05"
"Kyrie-Irving-13334","Julian-Washburn-760293","Marcus-Morris-13316","Jaren-Jackson-409099","JaVale-McGee-1485","Russell-Westbrook-1083","Ivan-Rabb-37854","Dennis-Schroder-18595","50000","273.01"
"Kyrie-Irving-13334","Justin-Holiday-14559","Julian-Washburn-760293","Bruno-Caboclo-18581","Ivan-Rabb-37854","Russell-Westbrook-1083","Jaren-Jackson-409099","Jayson-Tatum-37782","49600","272.94"
"Russell-Westbrook-1083","Julian-Washburn-760293","Jayson-Tatum-37782","Al-Horford-1499","Steven-Adams-16848","Marcus-Smart-18567","Ivan-Rabb-37854","Jaren-Jackson-409099","49300","272.89"
"Kyrie-Irving-13334","Jevon-Carter-409100","Paul-George-1245","Jaren-Jackson-409099","Steven-Adams-16848","Lance-Stephenson-947","Jayson-Tatum-37782","Ivan-Rabb-37854","49800","272.88"
"Mike-Conley-1062","Julian-Washburn-760293","Bruno-Caboclo-18581","Al-Horford-1499","Ivan-Rabb-37854","Russell-Westbrook-1083","Jaren-Jackson-409099","Jayson-Tatum-37782","50000","272.88"
"Mike-Conley-1062","Julian-Washburn-760293","Lance-Stephenson-947","Jaren-Jackson-409099","Steven-Adams-16848","Russell-Westbrook-1083","Ivan-Rabb-37854","Jayson-Tatum-37782","49800","272.86"
"Kyrie-Irving-13334","Josh-Hart-37889","Paul-George-1245","Jaren-Jackson-409099","Steven-Adams-16848","Lance-Stephenson-947","Jayson-Tatum-37782","Ivan-Rabb-37854","49900","272.86"
"Jevon-Carter-409100","Julian-Washburn-760293","Paul-George-1245","Al-Horford-1499","Ivan-Rabb-37854","Kyrie-Irving-13334","Jayson-Tatum-37782","Jaren-Jackson-409099","49700","272.84"
"Kyrie-Irving-13334","Julian-Washburn-760293","Paul-George-1245","Al-Horford-1499","Ivan-Rabb-37854","Josh-Hart-37889","Jayson-Tatum-37782","Jaren-Jackson-409099","49800","272.82"
"Lance-Stephenson-947","Julian-Washburn-760293","Paul-George-1245","Bruno-Caboclo-18581","Ivan-Rabb-37854","Russell-Westbrook-1083","Jaren-Jackson-409099","Al-Horford-1499","49600","272.81"
"Jevon-Carter-409100","Justin-Holiday-14559","Jayson-Tatum-37782","Al-Horford-1499","Steven-Adams-16848","Russell-Westbrook-1083","Ivan-Rabb-37854","Jaren-Jackson-409099","49700","272.81"
"Kyrie-Irving-13334","Julian-Washburn-760293","Gordon-Hayward-1239","Jaren-Jackson-409099","Steven-Adams-16848","Russell-Westbrook-1083","Lance-Stephenson-947","Ivan-Rabb-37854","49900","272.8"
"Russell-Westbrook-1083","Justin-Holiday-14559","Jayson-Tatum-37782","Al-Horford-1499","Steven-Adams-16848","Josh-Hart-37889","Ivan-Rabb-37854","Jaren-Jackson-409099","49800","272.79"
"Kyrie-Irving-13334","Jevon-Carter-409100","Marcus-Morris-13316","Jaren-Jackson-409099","Ivan-Rabb-37854","Russell-Westbrook-1083","Julian-Washburn-760293","Jayson-Tatum-37782","49800","272.79"
"Jevon-Carter-409100","Dennis-Schroder-18595","Paul-George-1245","Bruno-Caboclo-18581","Ivan-Rabb-37854","Russell-Westbrook-1083","Jaren-Jackson-409099","Jayson-Tatum-37782","50000","272.78"
"Kyrie-Irving-13334","Julian-Washburn-760293","Marcus-Morris-13316","Jayson-Tatum-37782","Ivan-Rabb-37854","Russell-Westbrook-1083","Josh-Hart-37889","Jaren-Jackson-409099","49900","272.77"
"Kyrie-Irving-13334","Julian-Washburn-760293","Paul-George-1245","Jaren-Jackson-409099","JaVale-McGee-1485","Justin-Holiday-14559","Ivan-Rabb-37854","Steven-Adams-16848","49700","272.72"
"Jevon-Carter-409100","Dennis-Schroder-18595","Paul-George-1245","Jayson-Tatum-37782","Ivan-Rabb-37854","Russell-Westbrook-1083","Julian-Washburn-760293","Jaren-Jackson-409099","49700","272.72"
"Russell-Westbrook-1083","Julian-Washburn-760293","Paul-George-1245","Jaren-Jackson-409099","Ivan-Rabb-37854","Dennis-Schroder-18595","Josh-Hart-37889","Jayson-Tatum-37782","49800","272.7"
"Jevon-Carter-409100","Julian-Washburn-760293","Paul-George-1245","Jaren-Jackson-409099","Ivan-Rabb-37854","Russell-Westbrook-1083","Jayson-Tatum-37782","JaVale-McGee-1485","49300","272.59"
"Russell-Westbrook-1083","Terrance-Ferguson-37871","Jayson-Tatum-37782","Al-Horford-1499","Steven-Adams-16848","Dennis-Schroder-18595","Ivan-Rabb-37854","Jaren-Jackson-409099","49600","272.57"
"Russell-Westbrook-1083","Julian-Washburn-760293","Paul-George-1245","Jaren-Jackson-409099","Ivan-Rabb-37854","Josh-Hart-37889","Jayson-Tatum-37782","JaVale-McGee-1485","49400","272.57"
"Kyrie-Irving-13334","Justin-Holiday-14559","Paul-George-1245","Jaren-Jackson-409099","Ivan-Rabb-37854","Lance-Stephenson-947","Jayson-Tatum-37782","JaVale-McGee-1485","49900","272.55"
"Russell-Westbrook-1083","Julian-Washburn-760293","Paul-George-1245","Bruno-Caboclo-18581","Ivan-Rabb-37854","Jaylen-Brown-35181","Jaren-Jackson-409099","Steven-Adams-16848","50000","272.51"
"Kyrie-Irving-13334","Jevon-Carter-409100","Bruno-Caboclo-18581","Jaren-Jackson-409099","JaVale-McGee-1485","Russell-Westbrook-1083","Ivan-Rabb-37854","Al-Horford-1499","50000","272.5"
"Kyrie-Irving-13334","Jevon-Carter-409100","Lance-Stephenson-947","Jaren-Jackson-409099","JaVale-McGee-1485","Russell-Westbrook-1083","Ivan-Rabb-37854","Steven-Adams-16848","49800","272.48"
"Kyrie-Irving-13334","Julian-Washburn-760293","Jayson-Tatum-37782","Jerami-Grant-18576","Ivan-Rabb-37854","Russell-Westbrook-1083","Jaren-Jackson-409099","Bruno-Caboclo-18581","49600","272.47"
"Kyrie-Irving-13334","Josh-Hart-37889","Lance-Stephenson-947","Jaren-Jackson-409099","JaVale-McGee-1485","Russell-Westbrook-1083","Ivan-Rabb-37854","Steven-Adams-16848","49900","272.46"
"Kyrie-Irving-13334","Jevon-Carter-409100","Julian-Washburn-760293","Al-Horford-1499","JaVale-McGee-1485","Russell-Westbrook-1083","Jaren-Jackson-409099","Ivan-Rabb-37854","49700","272.44"
"Kyrie-Irving-13334","Josh-Hart-37889","Julian-Washburn-760293","Al-Horford-1499","JaVale-McGee-1485","Russell-Westbrook-1083","Jaren-Jackson-409099","Ivan-Rabb-37854","49800","272.42"
"Kyrie-Irving-13334","Marcus-Smart-18567","Julian-Washburn-760293","Bruno-Caboclo-18581","Ivan-Rabb-37854","Russell-Westbrook-1083","Jaren-Jackson-409099","Steven-Adams-16848","49800","272.37"
"Russell-Westbrook-1083","Julian-Washburn-760293","Paul-George-1245","Bruno-Caboclo-18581","Steven-Adams-16848","Dennis-Schroder-18595","Jayson-Tatum-37782","Ivan-Rabb-37854","50000","272.34"
"Lance-Stephenson-947","Julian-Washburn-760293","Paul-George-1245","Jayson-Tatum-37782","Ivan-Rabb-37854","Russell-Westbrook-1083","Jaylen-Brown-35181","Jaren-Jackson-409099","49900","272.28"
"Jevon-Carter-409100","Julian-Washburn-760293","Paul-George-1245","Gordon-Hayward-1239","Ivan-Rabb-37854","Russell-Westbrook-1083","Jaren-Jackson-409099","Steven-Adams-16848","50000","272.26"
"Kyrie-Irving-13334","Julian-Washburn-760293","Paul-George-1245","Jaren-Jackson-409099","Steven-Adams-16848","Terrance-Ferguson-37871","Jayson-Tatum-37782","Ivan-Rabb-37854","49400","272.26"
"Kyrie-Irving-13334","Jevon-Carter-409100","Julian-Washburn-760293","Jaren-Jackson-409099","Ivan-Rabb-37854","Russell-Westbrook-1083","Justin-Holiday-14559","Steven-Adams-16848","49900","272.23"
"Russell-Westbrook-1083","Julian-Washburn-760293","Paul-George-1245","Jayson-Tatum-37782","Jaren-Jackson-409099","Marcus-Smart-18567","Terrance-Ferguson-37871","Ivan-Rabb-37854","50000","272.21"
"Kyrie-Irving-13334","Julian-Washburn-760293","Justin-Holiday-14559","Jaren-Jackson-409099","Ivan-Rabb-37854","Russell-Westbrook-1083","Josh-Hart-37889","Steven-Adams-16848","50000","272.21"
"Kyrie-Irving-13334","Marcus-Smart-18567","Bruno-Caboclo-18581","Jaren-Jackson-409099","Ivan-Rabb-37854","Russell-Westbrook-1083","Lance-Stephenson-947","Jayson-Tatum-37782","50000","272.2"
"Kyrie-Irving-13334","Marcus-Smart-18567","Julian-Washburn-760293","Jayson-Tatum-37782","Jaren-Jackson-409099","Russell-Westbrook-1083","Lance-Stephenson-947","Ivan-Rabb-37854","49700","272.14"
"Kyrie-Irving-13334","Julian-Washburn-760293","LeBron-James-1227","Jaren-Jackson-409099","Steven-Adams-16848","Lance-Stephenson-947","Jayson-Tatum-37782","Ivan-Rabb-37854","50000","272.1"
"Kyrie-Irving-13334","Dennis-Schroder-18595","Julian-Washburn-760293","Bruno-Caboclo-18581","Ivan-Rabb-37854","Russell-Westbrook-1083","Jaren-Jackson-409099","Jayson-Tatum-37782","49300","272.09"
"Rajon-Rondo-1085","Julian-Washburn-760293","Marcus-Morris-13316","Jaren-Jackson-409099","Ivan-Rabb-37854","Russell-Westbrook-1083","Jayson-Tatum-37782","Steven-Adams-16848","49600","272.07"
"Kyrie-Irving-13334","Julian-Washburn-760293","Bruno-Caboclo-18581","Al-Horford-1499","Steven-Adams-16848","Russell-Westbrook-1083","Ivan-Rabb-37854","JaVale-McGee-1485","50000","272.06"
"Russell-Westbrook-1083","Dennis-Schroder-18595","Jayson-Tatum-37782","Al-Horford-1499","JaVale-McGee-1485","Brandon-Ingram-35227","Ivan-Rabb-37854","Jaren-Jackson-409099","49800","272.02"
"Kyrie-Irving-13334","Terrance-Ferguson-37871","Julian-Washburn-760293","Jaren-Jackson-409099","Steven-Adams-16848","Russell-Westbrook-1083","Ivan-Rabb-37854","Dennis-Schroder-18595","49800","271.99"
"Jevon-Carter-409100","Dennis-Schroder-18595","Jayson-Tatum-37782","Al-Horford-1499","Steven-Adams-16848","Russell-Westbrook-1083","Ivan-Rabb-37854","Jaren-Jackson-409099","49400","271.96"
"Kyrie-Irving-13334","Julian-Washburn-760293","Bruno-Caboclo-18581","Ivan-Rabb-37854","JaVale-McGee-1485","Russell-Westbrook-1083","Jayson-Tatum-37782","Jaren-Jackson-409099","48900","271.96"
"Kyrie-Irving-13334","Julian-Washburn-760293","Paul-George-1245","Al-Horford-1499","JaVale-McGee-1485","Marcus-Smart-18567","Jaren-Jackson-409099","Ivan-Rabb-37854","50000","271.94"
"Russell-Westbrook-1083","Josh-Hart-37889","Jayson-Tatum-37782","Al-Horford-1499","Steven-Adams-16848","Dennis-Schroder-18595","Ivan-Rabb-37854","Jaren-Jackson-409099","49500","271.94"
"Kyrie-Irving-13334","Justin-Holiday-14559","Jayson-Tatum-37782","Al-Horford-1499","Steven-Adams-16848","Brandon-Ingram-35227","Ivan-Rabb-37854","Jaren-Jackson-409099","50000","271.93"
"Kyrie-Irving-13334","Julian-Washburn-760293","Paul-George-1245","Kyle-Kuzma-37886","Ivan-Rabb-37854","Dennis-Schroder-18595","Jayson-Tatum-37782","Jaren-Jackson-409099","49900","271.92"
"Jevon-Carter-409100","Josh-Hart-37889","Paul-George-1245","Jaren-Jackson-409099","JaVale-McGee-1485","Russell-Westbrook-1083","Ivan-Rabb-37854","Steven-Adams-16848","50000","271.92"
