"Mike-Conley-1062","C.J.-McCollum-17121","Joe-Ingles-18627","Jonathan-Isaac-37841","Hassan-Whiteside-18664","Damian-Lillard-13900","Kelly-Olynyk-16845","Andre-Drummond-13904","50000","286.7"
"Damian-Lillard-13900","Joe-Ingles-18627","Jonathan-Isaac-37841","Anthony-Davis-13895","Ante-Zizic-35180","C.J.-McCollum-17121","Kelly-Olynyk-16845","Hassan-Whiteside-18664","50000","286.36"
"Damian-Lillard-13900","C.J.-McCollum-17121","Joe-Ingles-18627","Jonathan-Isaac-37841","Nikola-Vucevic-13296","Andrew-Wiggins-18620","Kelly-Olynyk-16845","Hassan-Whiteside-18664","50000","286.11"
"Damian-Lillard-13900","Joe-Ingles-18627","Jonathan-Isaac-37841","Kelly-Olynyk-16845","Ante-Zizic-35180","C.J.-McCollum-17121","Blake-Griffin-1503","Nikola-Vucevic-13296","49900","285.49"
"Damian-Lillard-13900","Joe-Ingles-18627","Aaron-Gordon-18601","Danilo-Gallinari-1329","Pau-Gasol-1502","C.J.-McCollum-17121","Kelly-Olynyk-16845","Nikola-Vucevic-13296","50000","285.42"

"Mike-Conley-1062","C.J.-McCollum-17121","Joe-Ingles-18627","Jonathan-Isaac-37841","Hassan-Whiteside-18664","Damian-Lillard-13900","Kelly-Olynyk-16845","Andre-Drummond-13904","50000","286.7"
"Damian-Lillard-13900","Joe-Ingles-18627","Jonathan-Isaac-37841","Anthony-Davis-13895","Ante-Zizic-35180","C.J.-McCollum-17121","Kelly-Olynyk-16845","Hassan-Whiteside-18664","50000","286.36"
"Damian-Lillard-13900","C.J.-McCollum-17121","Joe-Ingles-18627","Jonathan-Isaac-37841","Nikola-Vucevic-13296","Andrew-Wiggins-18620","Kelly-Olynyk-16845","Hassan-Whiteside-18664","50000","286.11"
"Damian-Lillard-13900","Joe-Ingles-18627","Jonathan-Isaac-37841","Kelly-Olynyk-16845","Ante-Zizic-35180","C.J.-McCollum-17121","Blake-Griffin-1503","Nikola-Vucevic-13296","49900","285.49"
"Damian-Lillard-13900","Joe-Ingles-18627","Aaron-Gordon-18601","Danilo-Gallinari-1329","Pau-Gasol-1502","C.J.-McCollum-17121","Kelly-Olynyk-16845","Nikola-Vucevic-13296","50000","285.42"
"Damian-Lillard-13900","Joe-Ingles-18627","Royce-O'Neale-37872","Anthony-Davis-13895","Pau-Gasol-1502","C.J.-McCollum-17121","Kelly-Olynyk-16845","Hassan-Whiteside-18664","50000","285.4"
"Damian-Lillard-13900","Joe-Ingles-18627","Danilo-Gallinari-1329","Kelly-Olynyk-16845","Hassan-Whiteside-18664","C.J.-McCollum-17121","Blake-Griffin-1503","Ante-Zizic-35180","50000","285.3"
"Mike-Conley-1062","C.J.-McCollum-17121","Joe-Ingles-18627","Anthony-Davis-13895","Ante-Zizic-35180","Damian-Lillard-13900","Kelly-Olynyk-16845","Pau-Gasol-1502","49900","285.21"
"Damian-Lillard-13900","Joe-Ingles-18627","Royce-O'Neale-37872","Aaron-Gordon-18601","Andre-Drummond-13904","C.J.-McCollum-17121","Kelly-Olynyk-16845","Hassan-Whiteside-18664","50000","285.07"
"Damian-Lillard-13900","Joe-Ingles-18627","Danilo-Gallinari-1329","Jonathan-Isaac-37841","Hassan-Whiteside-18664","C.J.-McCollum-17121","Kelly-Olynyk-16845","Andre-Drummond-13904","49700","285.01"
"Damian-Lillard-13900","Joe-Ingles-18627","Aaron-Gordon-18601","Danilo-Gallinari-1329","Nikola-Vucevic-13296","C.J.-McCollum-17121","Jonathan-Isaac-37841","Pau-Gasol-1502","50000","284.99"
"Damian-Lillard-13900","Joe-Ingles-18627","Royce-O'Neale-37872","Anthony-Davis-13895","Pau-Gasol-1502","C.J.-McCollum-17121","Jonathan-Isaac-37841","Hassan-Whiteside-18664","50000","284.97"
"Mike-Conley-1062","C.J.-McCollum-17121","Joe-Ingles-18627","Kelly-Olynyk-16845","Nikola-Vucevic-13296","Damian-Lillard-13900","Andrew-Wiggins-18620","Pau-Gasol-1502","49900","284.96"
"Mike-Conley-1062","C.J.-McCollum-17121","Aaron-Gordon-18601","Kelly-Olynyk-16845","Andre-Drummond-13904","Damian-Lillard-13900","Joe-Ingles-18627","Ante-Zizic-35180","49900","284.88"
"Damian-Lillard-13900","Joe-Ingles-18627","Danilo-Gallinari-1329","Jonathan-Isaac-37841","Hassan-Whiteside-18664","C.J.-McCollum-17121","Blake-Griffin-1503","Ante-Zizic-35180","50000","284.87"
"Mike-Conley-1062","C.J.-McCollum-17121","Joe-Ingles-18627","Kelly-Olynyk-16845","Andre-Drummond-13904","Damian-Lillard-13900","Tobias-Harris-13332","Pau-Gasol-1502","50000","284.85"
"Mike-Conley-1062","C.J.-McCollum-17121","Joe-Ingles-18627","Anthony-Davis-13895","Ante-Zizic-35180","Damian-Lillard-13900","Jonathan-Isaac-37841","Pau-Gasol-1502","49900","284.78"
"Jeff-Teague-1005","C.J.-McCollum-17121","Joe-Ingles-18627","Jonathan-Isaac-37841","Nikola-Vucevic-13296","Damian-Lillard-13900","Kelly-Olynyk-16845","Hassan-Whiteside-18664","49900","284.75"
"Damian-Lillard-13900","Joe-Ingles-18627","Royce-O'Neale-37872","Aaron-Gordon-18601","Hassan-Whiteside-18664","C.J.-McCollum-17121","Jonathan-Isaac-37841","Andre-Drummond-13904","50000","284.64"
"Damian-Lillard-13900","Joe-Ingles-18627","Royce-O'Neale-37872","Kelly-Olynyk-16845","Pau-Gasol-1502","C.J.-McCollum-17121","Blake-Griffin-1503","Nikola-Vucevic-13296","49900","284.53"
"Mike-Conley-1062","C.J.-McCollum-17121","Joe-Ingles-18627","Jonathan-Isaac-37841","Nikola-Vucevic-13296","Damian-Lillard-13900","Andrew-Wiggins-18620","Pau-Gasol-1502","49900","284.53"
"Damian-Lillard-13900","Joe-Ingles-18627","Tobias-Harris-13332","Anthony-Davis-13895","Ante-Zizic-35180","C.J.-McCollum-17121","Kelly-Olynyk-16845","Pau-Gasol-1502","50000","284.51"
"Mike-Conley-1062","C.J.-McCollum-17121","Aaron-Gordon-18601","Jonathan-Isaac-37841","Ante-Zizic-35180","Damian-Lillard-13900","Joe-Ingles-18627","Andre-Drummond-13904","49900","284.45"
"Mike-Conley-1062","C.J.-McCollum-17121","Joe-Ingles-18627","Jonathan-Isaac-37841","Pau-Gasol-1502","Damian-Lillard-13900","Tobias-Harris-13332","Andre-Drummond-13904","50000","284.42"
"Damian-Lillard-13900","Joe-Ingles-18627","Jonathan-Isaac-37841","Nikola-Mirotic-18584","Hassan-Whiteside-18664","C.J.-McCollum-17121","Kelly-Olynyk-16845","Nikola-Vucevic-13296","49900","284.39"
"Mike-Conley-1062","C.J.-McCollum-17121","Joe-Ingles-18627","Danilo-Gallinari-1329","Pau-Gasol-1502","Damian-Lillard-13900","Andrew-Wiggins-18620","Hassan-Whiteside-18664","50000","284.34"
"Damian-Lillard-13900","Joe-Ingles-18627","Aaron-Gordon-18601","Kelly-Olynyk-16845","Ante-Zizic-35180","C.J.-McCollum-17121","Andrew-Wiggins-18620","Nikola-Vucevic-13296","49900","284.29"
"Damian-Lillard-13900","C.J.-McCollum-17121","Joe-Ingles-18627","Kelly-Olynyk-16845","Nikola-Vucevic-13296","Andrew-Wiggins-18620","Tobias-Harris-13332","Pau-Gasol-1502","50000","284.26"
"Damian-Lillard-13900","Joe-Ingles-18627","Aaron-Gordon-18601","Kelly-Olynyk-16845","Andre-Drummond-13904","C.J.-McCollum-17121","Tobias-Harris-13332","Ante-Zizic-35180","50000","284.18"
"Mike-Conley-1062","C.J.-McCollum-17121","Joe-Ingles-18627","Kelly-Olynyk-16845","Pau-Gasol-1502","Damian-Lillard-13900","Blake-Griffin-1503","Hassan-Whiteside-18664","49700","284.16"
"Damian-Lillard-13900","Joe-Ingles-18627","Royce-O'Neale-37872","Jonathan-Isaac-37841","Pau-Gasol-1502","C.J.-McCollum-17121","Blake-Griffin-1503","Nikola-Vucevic-13296","49900","284.1"
"Damian-Lillard-13900","Joe-Ingles-18627","Jonathan-Isaac-37841","Anthony-Davis-13895","Ante-Zizic-35180","C.J.-McCollum-17121","Tobias-Harris-13332","Pau-Gasol-1502","50000","284.08"
"Damian-Lillard-13900","Joe-Ingles-18627","Royce-O'Neale-37872","Danilo-Gallinari-1329","Hassan-Whiteside-18664","C.J.-McCollum-17121","Blake-Griffin-1503","Pau-Gasol-1502","50000","283.91"
"Mike-Conley-1062","C.J.-McCollum-17121","Joe-Ingles-18627","Danilo-Gallinari-1329","Andre-Drummond-13904","Damian-Lillard-13900","Kelly-Olynyk-16845","Pau-Gasol-1502","49600","283.86"
"Damian-Lillard-13900","Joe-Ingles-18627","Aaron-Gordon-18601","Jonathan-Isaac-37841","Nikola-Vucevic-13296","C.J.-McCollum-17121","Andrew-Wiggins-18620","Ante-Zizic-35180","49900","283.86"
"Damian-Lillard-13900","C.J.-McCollum-17121","Joe-Ingles-18627","Jonathan-Isaac-37841","Pau-Gasol-1502","Andrew-Wiggins-18620","Tobias-Harris-13332","Nikola-Vucevic-13296","50000","283.83"
"Damian-Lillard-13900","Joe-Ingles-18627","Aaron-Gordon-18601","Jonathan-Isaac-37841","Andre-Drummond-13904","C.J.-McCollum-17121","Tobias-Harris-13332","Ante-Zizic-35180","50000","283.75"
"Marcus-Smart-18567","C.J.-McCollum-17121","Joe-Ingles-18627","Kelly-Olynyk-16845","Pau-Gasol-1502","Damian-Lillard-13900","Blake-Griffin-1503","Nikola-Vucevic-13296","50000","283.75"
"Mike-Conley-1062","C.J.-McCollum-17121","Joe-Ingles-18627","Jonathan-Isaac-37841","Pau-Gasol-1502","Damian-Lillard-13900","Blake-Griffin-1503","Hassan-Whiteside-18664","49700","283.73"
"Mike-Conley-1062","C.J.-McCollum-17121","Joe-Ingles-18627","Danilo-Gallinari-1329","Ante-Zizic-35180","Damian-Lillard-13900","Blake-Griffin-1503","Pau-Gasol-1502","49900","283.72"
"Mike-Conley-1062","C.J.-McCollum-17121","Evan-Fournier-13913","Kelly-Olynyk-16845","Ante-Zizic-35180","Damian-Lillard-13900","Joe-Ingles-18627","Nikola-Vucevic-13296","50000","283.7"
"Mike-Conley-1062","Joe-Ingles-18627","Jonathan-Isaac-37841","Kelly-Olynyk-16845","Pau-Gasol-1502","Damian-Lillard-13900","Blake-Griffin-1503","Nikola-Vucevic-13296","50000","283.69"
"Damian-Lillard-13900","Joe-Ingles-18627","Danilo-Gallinari-1329","Montrezl-Harrell-18930","Andre-Drummond-13904","C.J.-McCollum-17121","Kelly-Olynyk-16845","Pau-Gasol-1502","49800","283.68"
"Damian-Lillard-13900","C.J.-McCollum-17121","Aaron-Gordon-18601","Danilo-Gallinari-1329","Ante-Zizic-35180","Andrew-Wiggins-18620","Joe-Ingles-18627","Hassan-Whiteside-18664","50000","283.67"
"Damian-Lillard-13900","Joe-Ingles-18627","Jonathan-Isaac-37841","Montrezl-Harrell-18930","Pau-Gasol-1502","C.J.-McCollum-17121","Blake-Griffin-1503","Hassan-Whiteside-18664","49900","283.55"
"Damian-Lillard-13900","Joe-Ingles-18627","Jonathan-Isaac-37841","Anthony-Davis-13895","Pau-Gasol-1502","C.J.-McCollum-17121","Kelly-Olynyk-16845","Hassan-Whiteside-18664","49400","283.53"
"Damian-Lillard-13900","Joe-Ingles-18627","Danilo-Gallinari-1329","Anthony-Davis-13895","Pau-Gasol-1502","C.J.-McCollum-17121","Kelly-Olynyk-16845","Ante-Zizic-35180","49600","283.52"
"Mike-Conley-1062","C.J.-McCollum-17121","Royce-O'Neale-37872","Aaron-Gordon-18601","Andre-Drummond-13904","Damian-Lillard-13900","Joe-Ingles-18627","Pau-Gasol-1502","49900","283.49"
"Damian-Lillard-13900","Joe-Ingles-18627","Aaron-Gordon-18601","Kelly-Olynyk-16845","Hassan-Whiteside-18664","C.J.-McCollum-17121","Blake-Griffin-1503","Ante-Zizic-35180","49700","283.49"
"Damian-Lillard-13900","Joe-Ingles-18627","Tobias-Harris-13332","Kelly-Olynyk-16845","Pau-Gasol-1502","C.J.-McCollum-17121","Blake-Griffin-1503","Hassan-Whiteside-18664","49800","283.46"
"Mike-Conley-1062","C.J.-McCollum-17121","Joe-Ingles-18627","Danilo-Gallinari-1329","Pau-Gasol-1502","Damian-Lillard-13900","Jonathan-Isaac-37841","Andre-Drummond-13904","49600","283.43"
"Jeff-Teague-1005","C.J.-McCollum-17121","Joe-Ingles-18627","Montrezl-Harrell-18930","Nikola-Vucevic-13296","Damian-Lillard-13900","Kelly-Olynyk-16845","Pau-Gasol-1502","50000","283.42"
"Ish-Smith-13958","C.J.-McCollum-17121","Joe-Ingles-18627","Anthony-Davis-13895","Ante-Zizic-35180","Damian-Lillard-13900","Kelly-Olynyk-16845","Hassan-Whiteside-18664","49900","283.4"
"Damian-Lillard-13900","Joe-Ingles-18627","Danilo-Gallinari-1329","Kelly-Olynyk-16845","Hassan-Whiteside-18664","C.J.-McCollum-17121","Blake-Griffin-1503","Jonathan-Isaac-37841","50000","283.33"
"Marcus-Smart-18567","C.J.-McCollum-17121","Joe-Ingles-18627","Jonathan-Isaac-37841","Pau-Gasol-1502","Damian-Lillard-13900","Blake-Griffin-1503","Nikola-Vucevic-13296","50000","283.32"
"Damian-Lillard-13900","Joe-Ingles-18627","Rodions-Kurucs-408801","Anthony-Davis-13895","Pau-Gasol-1502","C.J.-McCollum-17121","Kelly-Olynyk-16845","Hassan-Whiteside-18664","50000","283.32"
"Damian-Lillard-13900","Joe-Ingles-18627","Aaron-Gordon-18601","LaMarcus-Aldridge-1349","Pau-Gasol-1502","C.J.-McCollum-17121","Kelly-Olynyk-16845","Andre-Drummond-13904","49900","283.28"
"D'Angelo-Russell-18947","C.J.-McCollum-17121","Joe-Ingles-18627","Kelly-Olynyk-16845","Pau-Gasol-1502","Damian-Lillard-13900","Blake-Griffin-1503","Hassan-Whiteside-18664","50000","283.28"
"Damian-Lillard-13900","Joe-Ingles-18627","Danilo-Gallinari-1329","Kelly-Olynyk-16845","Nikola-Vucevic-13296","C.J.-McCollum-17121","Andrew-Wiggins-18620","Pau-Gasol-1502","49600","283.27"
"Mike-Conley-1062","C.J.-McCollum-17121","Evan-Fournier-13913","Jonathan-Isaac-37841","Nikola-Vucevic-13296","Damian-Lillard-13900","Joe-Ingles-18627","Ante-Zizic-35180","50000","283.27"
"Damian-Lillard-13900","Joe-Ingles-18627","Danilo-Gallinari-1329","Montrezl-Harrell-18930","Pau-Gasol-1502","C.J.-McCollum-17121","Jonathan-Isaac-37841","Andre-Drummond-13904","49800","283.25"
"Mike-Conley-1062","C.J.-McCollum-17121","Joe-Ingles-18627","Anthony-Davis-13895","Kelly-Olynyk-16845","Damian-Lillard-13900","Jonathan-Isaac-37841","Pau-Gasol-1502","49900","283.24"
"Mike-Conley-1062","C.J.-McCollum-17121","Joe-Ingles-18627","Nikola-Mirotic-18584","Nikola-Vucevic-13296","Damian-Lillard-13900","Kelly-Olynyk-16845","Pau-Gasol-1502","49800","283.24"
"Damian-Lillard-13900","Joe-Ingles-18627","Andrew-Wiggins-18620","Bam-Adebayo-37835","Andre-Drummond-13904","C.J.-McCollum-17121","Kelly-Olynyk-16845","Hassan-Whiteside-18664","50000","283.21"
"C.J.-McCollum-17121","Joe-Ingles-18627","Danilo-Gallinari-1329","Jonathan-Isaac-37841","Nikola-Vucevic-13296","Andrew-Wiggins-18620","Kelly-Olynyk-16845","Andre-Drummond-13904","50000","283.2"
"Damian-Lillard-13900","Joe-Ingles-18627","Aaron-Gordon-18601","Jonathan-Isaac-37841","Andre-Drummond-13904","C.J.-McCollum-17121","Kelly-Olynyk-16845","Hassan-Whiteside-18664","49400","283.2"
"Damian-Lillard-13900","Joe-Ingles-18627","Aaron-Gordon-18601","Danilo-Gallinari-1329","Ante-Zizic-35180","C.J.-McCollum-17121","Kelly-Olynyk-16845","Andre-Drummond-13904","49600","283.19"
"Damian-Lillard-13900","Joe-Ingles-18627","Royce-O'Neale-37872","Jonathan-Isaac-37841","Jusuf-Nurkic-18619","C.J.-McCollum-17121","Kelly-Olynyk-16845","Nikola-Vucevic-13296","50000","283.19"
"Damian-Lillard-13900","E'Twaun-Moore-18582","Joe-Ingles-18627","Jonathan-Isaac-37841","Nikola-Vucevic-13296","C.J.-McCollum-17121","Kelly-Olynyk-16845","Andre-Drummond-13904","49900","283.18"
"Damian-Lillard-13900","Joe-Ingles-18627","Danilo-Gallinari-1329","Kelly-Olynyk-16845","Andre-Drummond-13904","C.J.-McCollum-17121","Tobias-Harris-13332","Pau-Gasol-1502","49700","283.16"
"Damian-Lillard-13900","Joe-Ingles-18627","Royce-O'Neale-37872","Aaron-Gordon-18601","Pau-Gasol-1502","C.J.-McCollum-17121","Anthony-Davis-13895","Ante-Zizic-35180","49900","283.15"
"Ish-Smith-13958","C.J.-McCollum-17121","Joe-Ingles-18627","Kelly-Olynyk-16845","Nikola-Vucevic-13296","Damian-Lillard-13900","Andrew-Wiggins-18620","Hassan-Whiteside-18664","49900","283.15"
"Damian-Lillard-13900","Klay-Thompson-13315","Aaron-Gordon-18601","Kelly-Olynyk-16845","Pau-Gasol-1502","C.J.-McCollum-17121","Joe-Ingles-18627","Nikola-Vucevic-13296","49900","283.12"
"Damian-Lillard-13900","Joe-Ingles-18627","Danilo-Gallinari-1329","Anthony-Davis-13895","Ante-Zizic-35180","C.J.-McCollum-17121","Jonathan-Isaac-37841","Pau-Gasol-1502","49600","283.09"
"Damian-Lillard-13900","Joe-Ingles-18627","Aaron-Gordon-18601","Jonathan-Isaac-37841","Ante-Zizic-35180","C.J.-McCollum-17121","Blake-Griffin-1503","Hassan-Whiteside-18664","49700","283.06"
"Ish-Smith-13958","C.J.-McCollum-17121","Joe-Ingles-18627","Kelly-Olynyk-16845","Hassan-Whiteside-18664","Damian-Lillard-13900","Tobias-Harris-13332","Andre-Drummond-13904","50000","283.04"
"Damian-Lillard-13900","Joe-Ingles-18627","Jonathan-Isaac-37841","Tobias-Harris-13332","Hassan-Whiteside-18664","C.J.-McCollum-17121","Blake-Griffin-1503","Pau-Gasol-1502","49800","283.03"
"Damian-Lillard-13900","Joe-Ingles-18627","Danilo-Gallinari-1329","Tobias-Harris-13332","Pau-Gasol-1502","C.J.-McCollum-17121","Blake-Griffin-1503","Ante-Zizic-35180","50000","283.02"
"Damian-Lillard-13900","Derrick-White-37858","Joe-Ingles-18627","Jonathan-Isaac-37841","Nikola-Vucevic-13296","C.J.-McCollum-17121","Kelly-Olynyk-16845","Hassan-Whiteside-18664","49600","283.01"
"Damian-Lillard-13900","Derrick-White-37858","Joe-Ingles-18627","Danilo-Gallinari-1329","Nikola-Vucevic-13296","C.J.-McCollum-17121","Kelly-Olynyk-16845","Ante-Zizic-35180","49800","283.0"
"Damian-Lillard-13900","Klay-Thompson-13315","Joe-Ingles-18627","Kelly-Olynyk-16845","Ante-Zizic-35180","C.J.-McCollum-17121","Blake-Griffin-1503","Hassan-Whiteside-18664","49900","283.0"
"Damian-Lillard-13900","C.J.-McCollum-17121","Joe-Ingles-18627","Jonathan-Isaac-37841","Nikola-Vucevic-13296","Tyler-Johnson-18720","Kelly-Olynyk-16845","Andre-Drummond-13904","49800","283.0"
"Damian-Lillard-13900","Joe-Ingles-18627","E'Twaun-Moore-18582","Danilo-Gallinari-1329","Hassan-Whiteside-18664","C.J.-McCollum-17121","Kelly-Olynyk-16845","Andre-Drummond-13904","50000","282.99"
"Damian-Lillard-13900","Joe-Ingles-18627","Rodions-Kurucs-408801","Aaron-Gordon-18601","Andre-Drummond-13904","C.J.-McCollum-17121","Kelly-Olynyk-16845","Hassan-Whiteside-18664","50000","282.99"
"Jeff-Teague-1005","C.J.-McCollum-17121","Joe-Ingles-18627","Montrezl-Harrell-18930","Nikola-Vucevic-13296","Damian-Lillard-13900","Jonathan-Isaac-37841","Pau-Gasol-1502","50000","282.99"
"D'Angelo-Russell-18947","C.J.-McCollum-17121","Joe-Ingles-18627","Danilo-Gallinari-1329","Andre-Drummond-13904","Damian-Lillard-13900","Kelly-Olynyk-16845","Pau-Gasol-1502","49900","282.98"
"Ish-Smith-13958","C.J.-McCollum-17121","Joe-Ingles-18627","Anthony-Davis-13895","Ante-Zizic-35180","Damian-Lillard-13900","Jonathan-Isaac-37841","Hassan-Whiteside-18664","49900","282.97"
"Damian-Lillard-13900","Joe-Ingles-18627","Danilo-Gallinari-1329","Jonathan-Isaac-37841","Marc-Gasol-1493","C.J.-McCollum-17121","Kelly-Olynyk-16845","Andre-Drummond-13904","50000","282.95"
"Jeff-Teague-1005","C.J.-McCollum-17121","Aaron-Gordon-18601","Kelly-Olynyk-16845","Nikola-Vucevic-13296","Damian-Lillard-13900","Joe-Ingles-18627","Ante-Zizic-35180","49800","282.93"
"Damian-Lillard-13900","Joe-Ingles-18627","Royce-O'Neale-37872","Kelly-Olynyk-16845","Hassan-Whiteside-18664","C.J.-McCollum-17121","Andrew-Wiggins-18620","Andre-Drummond-13904","49600","282.92"
"Mike-Conley-1062","Joe-Ingles-18627","Aaron-Gordon-18601","Jonathan-Isaac-37841","Andre-Drummond-13904","Damian-Lillard-13900","Kelly-Olynyk-16845","C.J.-McCollum-17121","49900","282.91"
"Jeff-Teague-1005","C.J.-McCollum-17121","Joe-Ingles-18627","Kelly-Olynyk-16845","Nikola-Vucevic-13296","Damian-Lillard-13900","Tobias-Harris-13332","Pau-Gasol-1502","49900","282.9"
"Damian-Lillard-13900","Joe-Ingles-18627","Royce-O'Neale-37872","Aaron-Gordon-18601","Pau-Gasol-1502","C.J.-McCollum-17121","Andrew-Wiggins-18620","Nikola-Vucevic-13296","49900","282.9"
"Damian-Lillard-13900","Joe-Ingles-18627","Rodions-Kurucs-408801","Anthony-Davis-13895","Pau-Gasol-1502","C.J.-McCollum-17121","Jonathan-Isaac-37841","Hassan-Whiteside-18664","50000","282.89"
"D'Angelo-Russell-18947","C.J.-McCollum-17121","Joe-Ingles-18627","Jonathan-Isaac-37841","Pau-Gasol-1502","Damian-Lillard-13900","Blake-Griffin-1503","Hassan-Whiteside-18664","50000","282.85"
"Damian-Lillard-13900","Joe-Ingles-18627","Aaron-Gordon-18601","LaMarcus-Aldridge-1349","Pau-Gasol-1502","C.J.-McCollum-17121","Jonathan-Isaac-37841","Andre-Drummond-13904","49900","282.85"
"Damian-Lillard-13900","Joe-Ingles-18627","Danilo-Gallinari-1329","Jonathan-Isaac-37841","Pau-Gasol-1502","C.J.-McCollum-17121","Andrew-Wiggins-18620","Nikola-Vucevic-13296","49600","282.84"
"Mike-Conley-1062","C.J.-McCollum-17121","Joe-Ingles-18627","Jonathan-Isaac-37841","Jusuf-Nurkic-18619","Damian-Lillard-13900","Kelly-Olynyk-16845","Hassan-Whiteside-18664","49800","282.82"
"Dwyane-Wade-967","C.J.-McCollum-17121","Joe-Ingles-18627","Kelly-Olynyk-16845","Ante-Zizic-35180","Damian-Lillard-13900","Blake-Griffin-1503","Andre-Drummond-13904","50000","282.82"
"Damian-Lillard-13900","C.J.-McCollum-17121","Danilo-Gallinari-1329","Jonathan-Isaac-37841","Hassan-Whiteside-18664","Andrew-Wiggins-18620","Kelly-Olynyk-16845","Andre-Drummond-13904","49900","282.82"
