"Dennis-Smith-Jr.-37847","Justin-Holiday-14559","Gary-Clark-570141","Jaren-Jackson-409099","DeAndre-Jordan-1486","D'Angelo-Russell-18947","Serge-Ibaka-1294","James-Harden-1037","50000","268.17"

"Dennis-Smith-Jr.-37847","Justin-Holiday-14559","Gary-Clark-570141","Jaren-Jackson-409099","DeAndre-Jordan-1486","D'Angelo-Russell-18947","Serge-Ibaka-1294","James-Harden-1037","50000","268.17"
"Dennis-Smith-Jr.-37847","Justin-Holiday-14559","Gary-Clark-570141","Jaren-Jackson-409099","DeAndre-Jordan-1486","James-Harden-1037","Serge-Ibaka-1294","Marc-Gasol-1493","49800","267.62"
"Dennis-Smith-Jr.-37847","Spencer-Dinwiddie-18588","Justin-Holiday-14559","Jaren-Jackson-409099","Marc-Gasol-1493","James-Harden-1037","Gary-Clark-570141","Mike-Conley-1062","50000","267.52"
"Dennis-Smith-Jr.-37847","Luka-Doncic-408971","Justin-Holiday-14559","Jaren-Jackson-409099","Ed-Davis-1265","James-Harden-1037","DeMar-DeRozan-1053","Gary-Clark-570141","50000","267.4"
"Dennis-Smith-Jr.-37847","Justin-Holiday-14559","Luka-Doncic-408971","Gary-Clark-570141","Jaren-Jackson-409099","James-Harden-1037","Joe-Harris-18587","Marc-Gasol-1493","50000","267.34"
"Dennis-Smith-Jr.-37847","Justin-Holiday-14559","Luka-Doncic-408971","Serge-Ibaka-1294","Ed-Davis-1265","James-Harden-1037","Gary-Clark-570141","Mike-Conley-1062","49900","267.23"
"Dennis-Smith-Jr.-37847","Justin-Holiday-14559","Luka-Doncic-408971","Gary-Clark-570141","Jaren-Jackson-409099","D'Angelo-Russell-18947","Gerald-Green-13374","James-Harden-1037","49900","267.16"
"Dennis-Smith-Jr.-37847","D'Angelo-Russell-18947","Justin-Holiday-14559","Gary-Clark-570141","Marc-Gasol-1493","James-Harden-1037","Gerald-Green-13374","DeAndre-Jordan-1486","49800","267.15"
"Dennis-Smith-Jr.-37847","Luka-Doncic-408971","Justin-Holiday-14559","Serge-Ibaka-1294","DeAndre-Jordan-1486","Bryn-Forbes-36052","Gary-Clark-570141","James-Harden-1037","50000","266.99"
"Dennis-Smith-Jr.-37847","Luka-Doncic-408971","Justin-Holiday-14559","Serge-Ibaka-1294","DeAndre-Jordan-1486","James-Harden-1037","Gary-Clark-570141","Gerald-Green-13374","49800","266.91"
"Dennis-Smith-Jr.-37847","Justin-Holiday-14559","Gerald-Green-13374","Gary-Clark-570141","Serge-Ibaka-1294","D'Angelo-Russell-18947","DeMar-DeRozan-1053","James-Harden-1037","50000","266.86"
"Dennis-Smith-Jr.-37847","Luka-Doncic-408971","Justin-Holiday-14559","Gary-Clark-570141","Marc-Gasol-1493","Spencer-Dinwiddie-18588","P.J.-Tucker-13947","James-Harden-1037","49900","266.82"
"Dennis-Smith-Jr.-37847","Austin-Rivers-13903","Justin-Holiday-14559","Jaren-Jackson-409099","Marc-Gasol-1493","James-Harden-1037","Gary-Clark-570141","Mike-Conley-1062","50000","266.8"
"Dennis-Smith-Jr.-37847","Jevon-Carter-409100","Luka-Doncic-408971","Gary-Clark-570141","Marc-Gasol-1493","James-Harden-1037","Justin-Holiday-14559","DeAndre-Jordan-1486","49900","266.77"
"Dennis-Smith-Jr.-37847","Justin-Holiday-14559","Luka-Doncic-408971","Jaren-Jackson-409099","DeAndre-Jordan-1486","James-Harden-1037","Gary-Clark-570141","P.J.-Tucker-13947","49800","266.73"
"Dennis-Smith-Jr.-37847","Bryn-Forbes-36052","Luka-Doncic-408971","Gary-Clark-570141","Marc-Gasol-1493","James-Harden-1037","Justin-Holiday-14559","Jaren-Jackson-409099","49900","266.69"
"Dennis-Smith-Jr.-37847","D'Angelo-Russell-18947","Justin-Holiday-14559","P.J.-Tucker-13947","Jaren-Jackson-409099","James-Harden-1037","DeMar-DeRozan-1053","Gary-Clark-570141","50000","266.68"
"Dennis-Smith-Jr.-37847","Luka-Doncic-408971","Justin-Holiday-14559","Gary-Clark-570141","Marc-Gasol-1493","James-Harden-1037","Gerald-Green-13374","Jaren-Jackson-409099","49700","266.61"
"Dennis-Smith-Jr.-37847","D'Angelo-Russell-18947","Justin-Holiday-14559","Serge-Ibaka-1294","DeAndre-Jordan-1486","Spencer-Dinwiddie-18588","Gary-Clark-570141","James-Harden-1037","49800","266.59"
"Dennis-Smith-Jr.-37847","D'Angelo-Russell-18947","Justin-Holiday-14559","Gary-Clark-570141","Serge-Ibaka-1294","James-Harden-1037","P.J.-Tucker-13947","Mike-Conley-1062","49900","266.51"
"Dennis-Smith-Jr.-37847","James-Harden-1037","Justin-Holiday-14559","Gary-Clark-570141","Serge-Ibaka-1294","Mike-Conley-1062","DeMarre-Carroll-1174","Marc-Gasol-1493","50000","266.48"
"Dennis-Smith-Jr.-37847","DeMar-DeRozan-1053","Justin-Holiday-14559","Serge-Ibaka-1294","DeAndre-Jordan-1486","James-Harden-1037","Gary-Clark-570141","P.J.-Tucker-13947","49900","266.43"
"Dennis-Smith-Jr.-37847","Bryn-Forbes-36052","Justin-Holiday-14559","Serge-Ibaka-1294","Marc-Gasol-1493","James-Harden-1037","Gary-Clark-570141","DeMar-DeRozan-1053","50000","266.39"
"Dennis-Smith-Jr.-37847","Marcus-Smart-18567","Luka-Doncic-408971","Gary-Clark-570141","Marc-Gasol-1493","James-Harden-1037","Justin-Holiday-14559","Jaren-Jackson-409099","50000","266.38"
"Dennis-Smith-Jr.-37847","Gerald-Green-13374","Justin-Holiday-14559","Serge-Ibaka-1294","DeAndre-Jordan-1486","James-Harden-1037","Gary-Clark-570141","Kyrie-Irving-13334","50000","266.38"
"Dennis-Smith-Jr.-37847","DeMar-DeRozan-1053","Justin-Holiday-14559","Gary-Clark-570141","Marc-Gasol-1493","James-Harden-1037","Gerald-Green-13374","Serge-Ibaka-1294","49800","266.31"
"Dennis-Smith-Jr.-37847","Luka-Doncic-408971","Justin-Holiday-14559","Gary-Clark-570141","Al-Horford-1499","James-Harden-1037","Gerald-Green-13374","Marc-Gasol-1493","50000","266.3"
"Dennis-Smith-Jr.-37847","D'Angelo-Russell-18947","Justin-Holiday-14559","Jaren-Jackson-409099","Marc-Gasol-1493","Spencer-Dinwiddie-18588","Gary-Clark-570141","James-Harden-1037","49700","266.29"
"Dennis-Smith-Jr.-37847","Derrick-White-37858","Justin-Holiday-14559","Serge-Ibaka-1294","DeAndre-Jordan-1486","James-Harden-1037","Gary-Clark-570141","Marc-Gasol-1493","50000","266.29"
"Dennis-Smith-Jr.-37847","James-Harden-1037","Justin-Holiday-14559","Gary-Clark-570141","Jaren-Jackson-409099","Kyrie-Irving-13334","P.J.-Tucker-13947","DeAndre-Jordan-1486","50000","266.2"
"Dennis-Smith-Jr.-37847","D'Angelo-Russell-18947","Justin-Holiday-14559","Serge-Ibaka-1294","DeAndre-Jordan-1486","James-Harden-1037","Gary-Clark-570141","Jarrett-Allen-37794","50000","266.18"
"Dennis-Smith-Jr.-37847","DeMar-DeRozan-1053","Justin-Holiday-14559","Gary-Clark-570141","Marc-Gasol-1493","James-Harden-1037","P.J.-Tucker-13947","Jaren-Jackson-409099","49800","266.13"
"Dennis-Smith-Jr.-37847","Justin-Holiday-14559","Gerald-Green-13374","Gary-Clark-570141","Jaren-Jackson-409099","James-Harden-1037","DeMar-DeRozan-1053","Mike-Conley-1062","49900","266.12"
"Dennis-Smith-Jr.-37847","Luka-Doncic-408971","Justin-Holiday-14559","Gary-Clark-570141","Marc-Gasol-1493","James-Harden-1037","P.J.-Tucker-13947","Austin-Rivers-13903","49900","266.1"
"Dennis-Smith-Jr.-37847","James-Harden-1037","Justin-Holiday-14559","Gary-Clark-570141","Marc-Gasol-1493","Kyrie-Irving-13334","Gerald-Green-13374","Jaren-Jackson-409099","49900","266.08"
"Dennis-Smith-Jr.-37847","Spencer-Dinwiddie-18588","Luka-Doncic-408971","Gary-Clark-570141","Jaren-Jackson-409099","James-Harden-1037","Justin-Holiday-14559","Eric-Bledsoe-1031","50000","266.07"
"Dennis-Smith-Jr.-37847","Luka-Doncic-408971","Justin-Holiday-14559","Jaren-Jackson-409099","Serge-Ibaka-1294","Spencer-Dinwiddie-18588","Gary-Clark-570141","James-Harden-1037","49700","266.05"
"Dennis-Smith-Jr.-37847","Spencer-Dinwiddie-18588","Justin-Holiday-14559","Serge-Ibaka-1294","DeAndre-Jordan-1486","James-Harden-1037","Gary-Clark-570141","Marc-Gasol-1493","49600","266.04"
"Dennis-Smith-Jr.-37847","D'Angelo-Russell-18947","Luka-Doncic-408971","Gary-Clark-570141","Ed-Davis-1265","James-Harden-1037","Justin-Holiday-14559","Eric-Bledsoe-1031","49900","266.02"
"Dennis-Smith-Jr.-37847","Justin-Holiday-14559","Luka-Doncic-408971","Serge-Ibaka-1294","Ed-Davis-1265","D'Angelo-Russell-18947","Gary-Clark-570141","James-Harden-1037","49600","266.0"
"Dennis-Smith-Jr.-37847","Eric-Bledsoe-1031","Justin-Holiday-14559","Gary-Clark-570141","Marc-Gasol-1493","James-Harden-1037","P.J.-Tucker-13947","Mike-Conley-1062","50000","265.98"
"Spencer-Dinwiddie-18588","Luka-Doncic-408971","Justin-Holiday-14559","Serge-Ibaka-1294","DeAndre-Jordan-1486","James-Harden-1037","Gary-Clark-570141","Ed-Davis-1265","50000","265.98"
"Dennis-Smith-Jr.-37847","D'Angelo-Russell-18947","Justin-Holiday-14559","Al-Horford-1499","Marc-Gasol-1493","Spencer-Dinwiddie-18588","Gary-Clark-570141","James-Harden-1037","50000","265.98"
"Dennis-Smith-Jr.-37847","James-Harden-1037","Justin-Holiday-14559","Gary-Clark-570141","Marc-Gasol-1493","Mike-Conley-1062","P.J.-Tucker-13947","Serge-Ibaka-1294","49700","265.96"
"Dennis-Smith-Jr.-37847","Luka-Doncic-408971","Gerald-Green-13374","Serge-Ibaka-1294","Ed-Davis-1265","James-Harden-1037","Gary-Clark-570141","DeAndre-Jordan-1486","50000","265.95"
"Dennis-Smith-Jr.-37847","D'Angelo-Russell-18947","Justin-Holiday-14559","Jaren-Jackson-409099","DeAndre-Jordan-1486","James-Harden-1037","Gary-Clark-570141","Al-Horford-1499","49900","265.89"
"Dennis-Smith-Jr.-37847","D'Angelo-Russell-18947","Justin-Holiday-14559","Jaren-Jackson-409099","Jarrett-Allen-37794","James-Harden-1037","Gary-Clark-570141","Marc-Gasol-1493","49900","265.88"
"Dennis-Smith-Jr.-37847","Austin-Rivers-13903","Justin-Holiday-14559","Serge-Ibaka-1294","DeAndre-Jordan-1486","D'Angelo-Russell-18947","Gary-Clark-570141","James-Harden-1037","49800","265.87"
"Dennis-Smith-Jr.-37847","Spencer-Dinwiddie-18588","Justin-Holiday-14559","Jaren-Jackson-409099","DeAndre-Jordan-1486","James-Harden-1037","Gary-Clark-570141","Mike-Conley-1062","49700","265.85"
"Dennis-Smith-Jr.-37847","Spencer-Dinwiddie-18588","Luka-Doncic-408971","Gary-Clark-570141","Marc-Gasol-1493","James-Harden-1037","Justin-Holiday-14559","Brook-Lopez-1498","49900","265.85"
"D'Angelo-Russell-18947","Justin-Holiday-14559","Gerald-Green-13374","Gary-Clark-570141","DeAndre-Jordan-1486","James-Harden-1037","P.J.-Tucker-13947","Marc-Gasol-1493","50000","265.82"
"Dennis-Smith-Jr.-37847","Justin-Holiday-14559","Luka-Doncic-408971","Gary-Clark-570141","Ed-Davis-1265","Spencer-Dinwiddie-18588","DeMar-DeRozan-1053","James-Harden-1037","49800","265.82"
"Dennis-Smith-Jr.-37847","Luka-Doncic-408971","Gary-Clark-570141","Maxi-Kleber-37845","Marc-Gasol-1493","James-Harden-1037","Jaren-Jackson-409099","Justin-Holiday-14559","50000","265.8"
"Dennis-Smith-Jr.-37847","Luka-Doncic-408971","Gary-Clark-570141","Jaren-Jackson-409099","Ed-Davis-1265","James-Harden-1037","P.J.-Tucker-13947","DeAndre-Jordan-1486","50000","265.77"
"Dennis-Smith-Jr.-37847","Justin-Holiday-14559","Luka-Doncic-408971","Jaren-Jackson-409099","DeAndre-Jordan-1486","James-Harden-1037","Gary-Clark-570141","Brook-Lopez-1498","49800","265.76"
"Dennis-Smith-Jr.-37847","Justin-Holiday-14559","Luka-Doncic-408971","Gary-Clark-570141","Marc-Gasol-1493","Spencer-Dinwiddie-18588","Joe-Harris-18587","James-Harden-1037","49800","265.76"
"Dennis-Smith-Jr.-37847","Justin-Holiday-14559","Luka-Doncic-408971","Al-Horford-1499","Serge-Ibaka-1294","Spencer-Dinwiddie-18588","Gary-Clark-570141","James-Harden-1037","50000","265.74"
"Dennis-Smith-Jr.-37847","Justin-Holiday-14559","DeMar-DeRozan-1053","Jaren-Jackson-409099","Brook-Lopez-1498","D'Angelo-Russell-18947","Gary-Clark-570141","James-Harden-1037","50000","265.71"
"Dennis-Smith-Jr.-37847","Austin-Rivers-13903","Justin-Holiday-14559","Gary-Clark-570141","DeAndre-Jordan-1486","Spencer-Dinwiddie-18588","DeMar-DeRozan-1053","James-Harden-1037","50000","265.69"
"Spencer-Dinwiddie-18588","Luka-Doncic-408971","Justin-Holiday-14559","Jaren-Jackson-409099","Ed-Davis-1265","James-Harden-1037","Gary-Clark-570141","Marc-Gasol-1493","49900","265.68"
"Dennis-Smith-Jr.-37847","Justin-Holiday-14559","Luka-Doncic-408971","Jaren-Jackson-409099","DeAndre-Jordan-1486","James-Harden-1037","Joe-Harris-18587","Gary-Clark-570141","49700","265.67"
"Dennis-Smith-Jr.-37847","Spencer-Dinwiddie-18588","Luka-Doncic-408971","DeMarre-Carroll-1174","DeAndre-Jordan-1486","James-Harden-1037","Justin-Holiday-14559","Gary-Clark-570141","49900","265.67"
"Dennis-Smith-Jr.-37847","Luka-Doncic-408971","Gerald-Green-13374","Jaren-Jackson-409099","Marc-Gasol-1493","James-Harden-1037","Gary-Clark-570141","Ed-Davis-1265","49900","265.65"
"Dennis-Smith-Jr.-37847","Luka-Doncic-408971","Justin-Holiday-14559","Jaren-Jackson-409099","Serge-Ibaka-1294","James-Harden-1037","Gary-Clark-570141","Jarrett-Allen-37794","49900","265.64"
"Dennis-Smith-Jr.-37847","Justin-Holiday-14559","Luka-Doncic-408971","Gary-Clark-570141","DeAndre-Jordan-1486","James-Harden-1037","Khris-Middleton-13990","Ed-Davis-1265","50000","265.63"
"Dennis-Smith-Jr.-37847","Joe-Harris-18587","Justin-Holiday-14559","Gary-Clark-570141","Jaren-Jackson-409099","D'Angelo-Russell-18947","DeMar-DeRozan-1053","James-Harden-1037","49900","265.62"
"James-Harden-1037","Luka-Doncic-408971","Justin-Holiday-14559","Serge-Ibaka-1294","DeAndre-Jordan-1486","Gerald-Green-13374","Gary-Clark-570141","P.J.-Tucker-13947","50000","265.58"
"Dennis-Smith-Jr.-37847","Austin-Rivers-13903","Justin-Holiday-14559","Jaren-Jackson-409099","Marc-Gasol-1493","D'Angelo-Russell-18947","Gary-Clark-570141","James-Harden-1037","49700","265.57"
"Dennis-Smith-Jr.-37847","Spencer-Dinwiddie-18588","Justin-Holiday-14559","Al-Horford-1499","DeAndre-Jordan-1486","James-Harden-1037","Gary-Clark-570141","Mike-Conley-1062","50000","265.54"
"Dennis-Smith-Jr.-37847","D'Angelo-Russell-18947","Justin-Holiday-14559","Serge-Ibaka-1294","Brook-Lopez-1498","James-Harden-1037","Gary-Clark-570141","Mike-Conley-1062","49900","265.54"
"Dennis-Smith-Jr.-37847","Spencer-Dinwiddie-18588","Justin-Holiday-14559","Jaren-Jackson-409099","Serge-Ibaka-1294","James-Harden-1037","Gary-Clark-570141","Kyrie-Irving-13334","49900","265.52"
"Dennis-Smith-Jr.-37847","D'Angelo-Russell-18947","Justin-Holiday-14559","Gary-Clark-570141","Dwight-Powell-18566","James-Harden-1037","DeMar-DeRozan-1053","DeAndre-Jordan-1486","50000","265.51"
"Dennis-Smith-Jr.-37847","Luka-Doncic-408971","Justin-Holiday-14559","Gary-Clark-570141","Serge-Ibaka-1294","D'Angelo-Russell-18947","Marco-Belinelli-1033","James-Harden-1037","49800","265.51"
"Dennis-Smith-Jr.-37847","Eric-Bledsoe-1031","Luka-Doncic-408971","Gary-Clark-570141","Marc-Gasol-1493","James-Harden-1037","Justin-Holiday-14559","Ed-Davis-1265","49700","265.47"
"Dennis-Smith-Jr.-37847","D'Angelo-Russell-18947","Justin-Holiday-14559","Harrison-Barnes-13901","Marc-Gasol-1493","James-Harden-1037","Jaren-Jackson-409099","Gary-Clark-570141","50000","265.47"
"Dennis-Smith-Jr.-37847","D'Angelo-Russell-18947","Justin-Holiday-14559","Serge-Ibaka-1294","Ed-Davis-1265","James-Harden-1037","Gary-Clark-570141","Kyrie-Irving-13334","49800","265.47"
"Dennis-Smith-Jr.-37847","DeMar-DeRozan-1053","Justin-Holiday-14559","Serge-Ibaka-1294","DeAndre-Jordan-1486","James-Harden-1037","Gary-Clark-570141","Brook-Lopez-1498","49900","265.46"
"Dennis-Smith-Jr.-37847","D'Angelo-Russell-18947","Justin-Holiday-14559","Gary-Clark-570141","Serge-Ibaka-1294","James-Harden-1037","Joe-Harris-18587","Mike-Conley-1062","49800","265.45"
"Dennis-Smith-Jr.-37847","Justin-Holiday-14559","Luka-Doncic-408971","Serge-Ibaka-1294","Ed-Davis-1265","James-Harden-1037","Gary-Clark-570141","Marc-Gasol-1493","49400","265.45"
"Dennis-Smith-Jr.-37847","James-Harden-1037","Justin-Holiday-14559","Jaren-Jackson-409099","Jarrett-Allen-37794","Mike-Conley-1062","Gary-Clark-570141","DeAndre-Jordan-1486","49900","265.44"
"Dennis-Smith-Jr.-37847","DeMar-DeRozan-1053","Luka-Doncic-408971","Gary-Clark-570141","Jarrett-Allen-37794","James-Harden-1037","Justin-Holiday-14559","Ed-Davis-1265","50000","265.41"
"Dennis-Smith-Jr.-37847","Derrick-White-37858","Luka-Doncic-408971","P.J.-Tucker-13947","DeAndre-Jordan-1486","James-Harden-1037","Justin-Holiday-14559","Gary-Clark-570141","50000","265.4"
"Spencer-Dinwiddie-18588","Justin-Holiday-14559","DeMar-DeRozan-1053","Serge-Ibaka-1294","Ed-Davis-1265","James-Harden-1037","Gary-Clark-570141","Marc-Gasol-1493","50000","265.38"
"D'Angelo-Russell-18947","James-Harden-1037","Justin-Holiday-14559","Jaren-Jackson-409099","Serge-Ibaka-1294","Mike-Conley-1062","Gary-Clark-570141","Ed-Davis-1265","49900","265.37"
"Dennis-Smith-Jr.-37847","Joe-Harris-18587","Justin-Holiday-14559","Serge-Ibaka-1294","DeAndre-Jordan-1486","James-Harden-1037","Gary-Clark-570141","DeMar-DeRozan-1053","49800","265.37"
"Dennis-Smith-Jr.-37847","Fred-VanVleet-36011","Luka-Doncic-408971","Gary-Clark-570141","Marc-Gasol-1493","Spencer-Dinwiddie-18588","Justin-Holiday-14559","James-Harden-1037","49900","265.36"
"Dennis-Smith-Jr.-37847","Joe-Harris-18587","Luka-Doncic-408971","Al-Horford-1499","DeAndre-Jordan-1486","James-Harden-1037","Justin-Holiday-14559","Gary-Clark-570141","50000","265.36"
"Dennis-Smith-Jr.-37847","DeMar-DeRozan-1053","Gerald-Green-13374","Serge-Ibaka-1294","Ed-Davis-1265","James-Harden-1037","Gary-Clark-570141","Marc-Gasol-1493","50000","265.35"
"Dennis-Smith-Jr.-37847","Justin-Holiday-14559","Luka-Doncic-408971","Gary-Clark-570141","Jarrett-Allen-37794","James-Harden-1037","Joe-Harris-18587","Marc-Gasol-1493","50000","265.35"
"Dennis-Smith-Jr.-37847","Austin-Rivers-13903","Luka-Doncic-408971","Gary-Clark-570141","Jaren-Jackson-409099","James-Harden-1037","Justin-Holiday-14559","Eric-Bledsoe-1031","50000","265.35"
"Dennis-Smith-Jr.-37847","Justin-Holiday-14559","Gary-Clark-570141","Jaren-Jackson-409099","Marc-Gasol-1493","James-Harden-1037","Al-Horford-1499","DeAndre-Jordan-1486","49700","265.34"
"Dennis-Smith-Jr.-37847","Luka-Doncic-408971","Justin-Holiday-14559","Jaren-Jackson-409099","Serge-Ibaka-1294","James-Harden-1037","Gary-Clark-570141","Austin-Rivers-13903","49700","265.33"
"Dennis-Smith-Jr.-37847","Austin-Rivers-13903","Justin-Holiday-14559","Serge-Ibaka-1294","DeAndre-Jordan-1486","James-Harden-1037","Gary-Clark-570141","Marc-Gasol-1493","49600","265.32"
"Dennis-Smith-Jr.-37847","D'Angelo-Russell-18947","Justin-Holiday-14559","Gary-Clark-570141","DeAndre-Jordan-1486","James-Harden-1037","Marco-Belinelli-1033","Mike-Conley-1062","49800","265.31"
"James-Harden-1037","Justin-Holiday-14559","Gary-Clark-570141","Jaren-Jackson-409099","DeAndre-Jordan-1486","DeMar-DeRozan-1053","Serge-Ibaka-1294","Ed-Davis-1265","49900","265.29"
"Dennis-Smith-Jr.-37847","Spencer-Dinwiddie-18588","Justin-Holiday-14559","Gary-Clark-570141","Ed-Davis-1265","James-Harden-1037","DeMar-DeRozan-1053","Kyrie-Irving-13334","50000","265.29"
"James-Harden-1037","Luka-Doncic-408971","Gerald-Green-13374","Jaren-Jackson-409099","Marc-Gasol-1493","Justin-Holiday-14559","P.J.-Tucker-13947","Gary-Clark-570141","49900","265.28"
"Dennis-Smith-Jr.-37847","Luka-Doncic-408971","Justin-Holiday-14559","Gary-Clark-570141","Marc-Gasol-1493","James-Harden-1037","Gerald-Green-13374","Derrick-White-37858","49900","265.28"
"Dennis-Smith-Jr.-37847","D'Angelo-Russell-18947","Justin-Holiday-14559","Gary-Clark-570141","Marc-Gasol-1493","James-Harden-1037","DeMarre-Carroll-1174","Eric-Bledsoe-1031","50000","265.27"
"Dennis-Smith-Jr.-37847","Justin-Holiday-14559","Luka-Doncic-408971","Jaren-Jackson-409099","DeAndre-Jordan-1486","James-Harden-1037","Gary-Clark-570141","Fred-VanVleet-36011","49800","265.27"
