"Dennis-Schroder-18595","Tim-Hardaway-Jr.-16879","Al-Farouq-Aminu-1279","Kyle-Kuzma-37886","JaVale-McGee-1485","Damian-Lillard-13900","Maurice-Harkless-16971","Jusuf-Nurkic-18619","50000","264.5"
"Dennis-Schroder-18595","C.J.-McCollum-17121","Kyle-Kuzma-37886","Maurice-Harkless-16971","JaVale-McGee-1485","Brandon-Ingram-35227","Tim-Hardaway-Jr.-16879","Damian-Lillard-13900","50000","263.83"
"Dennis-Schroder-18595","Brandon-Ingram-35227","Al-Farouq-Aminu-1279","Kyle-Kuzma-37886","Jusuf-Nurkic-18619","Emmanuel-Mudiay-18936","Tim-Hardaway-Jr.-16879","JaVale-McGee-1485","50000","263.63"

"Dennis-Schroder-18595","Tim-Hardaway-Jr.-16879","Al-Farouq-Aminu-1279","Kyle-Kuzma-37886","JaVale-McGee-1485","Damian-Lillard-13900","Maurice-Harkless-16971","Jusuf-Nurkic-18619","50000","264.5"
"Dennis-Schroder-18595","C.J.-McCollum-17121","Kyle-Kuzma-37886","Maurice-Harkless-16971","JaVale-McGee-1485","Brandon-Ingram-35227","Tim-Hardaway-Jr.-16879","Damian-Lillard-13900","50000","263.83"
"Dennis-Schroder-18595","Brandon-Ingram-35227","Al-Farouq-Aminu-1279","Kyle-Kuzma-37886","Jusuf-Nurkic-18619","Emmanuel-Mudiay-18936","Tim-Hardaway-Jr.-16879","JaVale-McGee-1485","50000","263.63"
"C.J.-McCollum-17121","Brandon-Ingram-35227","Al-Farouq-Aminu-1279","Kyle-Kuzma-37886","JaVale-McGee-1485","Tim-Hardaway-Jr.-16879","Maurice-Harkless-16971","Damian-Lillard-13900","49900","262.64"
"Dennis-Schroder-18595","Brandon-Ingram-35227","Al-Farouq-Aminu-1279","Kyle-Kuzma-37886","JaVale-McGee-1485","Damian-Lillard-13900","Evan-Turner-1291","Jusuf-Nurkic-18619","50000","262.22"
"Dennis-Schroder-18595","Brandon-Ingram-35227","Al-Farouq-Aminu-1279","Meyers-Leonard-13905","Jusuf-Nurkic-18619","Damian-Lillard-13900","Kyle-Kuzma-37886","JaVale-McGee-1485","49600","261.93"
"Dennis-Schroder-18595","C.J.-McCollum-17121","Al-Farouq-Aminu-1279","Jerami-Grant-18576","JaVale-McGee-1485","Damian-Lillard-13900","Tim-Hardaway-Jr.-16879","Jusuf-Nurkic-18619","49900","261.88"
"Dennis-Schroder-18595","C.J.-McCollum-17121","Al-Farouq-Aminu-1279","Kyle-Kuzma-37886","Jusuf-Nurkic-18619","Emmanuel-Mudiay-18936","Tim-Hardaway-Jr.-16879","JaVale-McGee-1485","49600","261.73"
"Dennis-Schroder-18595","C.J.-McCollum-17121","Al-Farouq-Aminu-1279","Jerami-Grant-18576","JaVale-McGee-1485","Brandon-Ingram-35227","Kyle-Kuzma-37886","Damian-Lillard-13900","49800","261.68"
"Damian-Lillard-13900","Dennis-Schroder-18595","Al-Farouq-Aminu-1279","Kyle-Kuzma-37886","JaVale-McGee-1485","Emmanuel-Mudiay-18936","Maurice-Harkless-16971","Jusuf-Nurkic-18619","49800","261.66"
"Dennis-Schroder-18595","Brandon-Ingram-35227","Al-Farouq-Aminu-1279","Kyle-Kuzma-37886","Jusuf-Nurkic-18619","Tim-Hardaway-Jr.-16879","Kevin-Knox-408820","JaVale-McGee-1485","49900","261.48"
"Dennis-Schroder-18595","Brandon-Ingram-35227","Al-Farouq-Aminu-1279","Maurice-Harkless-16971","Jusuf-Nurkic-18619","Damian-Lillard-13900","Tim-Hardaway-Jr.-16879","JaVale-McGee-1485","49500","261.34"
"Dennis-Schroder-18595","C.J.-McCollum-17121","Al-Farouq-Aminu-1279","Meyers-Leonard-13905","Jusuf-Nurkic-18619","Damian-Lillard-13900","Kyle-Kuzma-37886","Emmanuel-Mudiay-18936","50000","261.21"
"Dennis-Schroder-18595","C.J.-McCollum-17121","Kyle-Kuzma-37886","Jerami-Grant-18576","JaVale-McGee-1485","Damian-Lillard-13900","Maurice-Harkless-16971","Jusuf-Nurkic-18619","50000","261.1"
"Damian-Lillard-13900","Dennis-Schroder-18595","Kyle-Kuzma-37886","Meyers-Leonard-13905","JaVale-McGee-1485","Emmanuel-Mudiay-18936","Tim-Hardaway-Jr.-16879","Jusuf-Nurkic-18619","49800","261.01"
"Dennis-Schroder-18595","Brandon-Ingram-35227","Al-Farouq-Aminu-1279","Jerami-Grant-18576","JaVale-McGee-1485","Tim-Hardaway-Jr.-16879","Kyle-Kuzma-37886","Damian-Lillard-13900","49600","260.91"
"Dennis-Schroder-18595","C.J.-McCollum-17121","Al-Farouq-Aminu-1279","Meyers-Leonard-13905","Jusuf-Nurkic-18619","Brandon-Ingram-35227","Tim-Hardaway-Jr.-16879","Damian-Lillard-13900","49700","260.89"
"Russell-Westbrook-1083","Dennis-Schroder-18595","Al-Farouq-Aminu-1279","Meyers-Leonard-13905","JaVale-McGee-1485","C.J.-McCollum-17121","Kyle-Kuzma-37886","Emmanuel-Mudiay-18936","49900","260.82"
"Russell-Westbrook-1083","Dennis-Schroder-18595","Evan-Turner-1291","Al-Farouq-Aminu-1279","JaVale-McGee-1485","C.J.-McCollum-17121","Tim-Hardaway-Jr.-16879","Brandon-Ingram-35227","50000","260.79"
"Dennis-Schroder-18595","C.J.-McCollum-17121","Kyle-Kuzma-37886","Jerami-Grant-18576","JaVale-McGee-1485","Damian-Lillard-13900","Tim-Hardaway-Jr.-16879","Emmanuel-Mudiay-18936","50000","260.76"
"Dennis-Schroder-18595","C.J.-McCollum-17121","Kyle-Kuzma-37886","Maurice-Harkless-16971","JaVale-McGee-1485","Brandon-Ingram-35227","Tim-Hardaway-Jr.-16879","Jusuf-Nurkic-18619","49400","260.63"
"Dennis-Schroder-18595","C.J.-McCollum-17121","Al-Farouq-Aminu-1279","Maurice-Harkless-16971","Jusuf-Nurkic-18619","Damian-Lillard-13900","Tim-Hardaway-Jr.-16879","Emmanuel-Mudiay-18936","49900","260.62"
"Damian-Lillard-13900","C.J.-McCollum-17121","Al-Farouq-Aminu-1279","Meyers-Leonard-13905","Jusuf-Nurkic-18619","Emmanuel-Mudiay-18936","Kyle-Kuzma-37886","JaVale-McGee-1485","49900","260.59"
"C.J.-McCollum-17121","Brandon-Ingram-35227","Evan-Turner-1291","Al-Farouq-Aminu-1279","JaVale-McGee-1485","Damian-Lillard-13900","Tim-Hardaway-Jr.-16879","Jusuf-Nurkic-18619","50000","260.56"
"Dennis-Schroder-18595","C.J.-McCollum-17121","Al-Farouq-Aminu-1279","Jerami-Grant-18576","Jusuf-Nurkic-18619","Damian-Lillard-13900","Maurice-Harkless-16971","Kyle-Kuzma-37886","50000","260.53"
"Russell-Westbrook-1083","Dennis-Schroder-18595","Al-Farouq-Aminu-1279","Meyers-Leonard-13905","JaVale-McGee-1485","C.J.-McCollum-17121","Tim-Hardaway-Jr.-16879","Brandon-Ingram-35227","49600","260.5"
"Dennis-Schroder-18595","Brandon-Ingram-35227","Al-Farouq-Aminu-1279","Kyle-Kuzma-37886","Jusuf-Nurkic-18619","Damian-Lillard-13900","Lance-Stephenson-947","JaVale-McGee-1485","50000","260.49"
"Damian-Lillard-13900","Dennis-Schroder-18595","Al-Farouq-Aminu-1279","Kyle-Kuzma-37886","Jusuf-Nurkic-18619","Emmanuel-Mudiay-18936","Tim-Hardaway-Jr.-16879","Meyers-Leonard-13905","49800","260.44"
"Russell-Westbrook-1083","Dennis-Schroder-18595","Al-Farouq-Aminu-1279","Meyers-Leonard-13905","JaVale-McGee-1485","Brandon-Ingram-35227","Maurice-Harkless-16971","Damian-Lillard-13900","49800","260.43"
"Dennis-Schroder-18595","Tim-Hardaway-Jr.-16879","Kyle-Kuzma-37886","Jerami-Grant-18576","JaVale-McGee-1485","Damian-Lillard-13900","Maurice-Harkless-16971","Jusuf-Nurkic-18619","49800","260.33"
"Dennis-Schroder-18595","C.J.-McCollum-17121","Al-Farouq-Aminu-1279","Kyle-Kuzma-37886","JaVale-McGee-1485","Damian-Lillard-13900","Evan-Turner-1291","Jusuf-Nurkic-18619","49600","260.32"
"Dennis-Schroder-18595","Brandon-Ingram-35227","Al-Farouq-Aminu-1279","Kyle-Kuzma-37886","Jusuf-Nurkic-18619","Damian-Lillard-13900","Damyean-Dotson-37795","JaVale-McGee-1485","49700","260.31"
"Dennis-Schroder-18595","C.J.-McCollum-17121","Kentavious-Caldwell-Pope-16869","Al-Farouq-Aminu-1279","JaVale-McGee-1485","Damian-Lillard-13900","Tim-Hardaway-Jr.-16879","Jusuf-Nurkic-18619","49800","260.29"
"C.J.-McCollum-17121","Kentavious-Caldwell-Pope-16869","Al-Farouq-Aminu-1279","Kyle-Kuzma-37886","Jusuf-Nurkic-18619","Brandon-Ingram-35227","Tim-Hardaway-Jr.-16879","JaVale-McGee-1485","50000","260.29"
"C.J.-McCollum-17121","Brandon-Ingram-35227","Al-Farouq-Aminu-1279","Meyers-Leonard-13905","JaVale-McGee-1485","Damian-Lillard-13900","Tim-Hardaway-Jr.-16879","Jusuf-Nurkic-18619","49600","260.27"
"Russell-Westbrook-1083","Dennis-Schroder-18595","Al-Farouq-Aminu-1279","Maurice-Harkless-16971","JaVale-McGee-1485","C.J.-McCollum-17121","Tim-Hardaway-Jr.-16879","Emmanuel-Mudiay-18936","49800","260.23"
"Dennis-Schroder-18595","Brandon-Ingram-35227","Kyle-Kuzma-37886","Maurice-Harkless-16971","JaVale-McGee-1485","Damian-Lillard-13900","Tim-Hardaway-Jr.-16879","Emmanuel-Mudiay-18936","49600","260.22"
"Russell-Westbrook-1083","Dennis-Schroder-18595","Al-Farouq-Aminu-1279","Jerami-Grant-18576","Meyers-Leonard-13905","Damian-Lillard-13900","Tim-Hardaway-Jr.-16879","JaVale-McGee-1485","50000","260.2"
"Russell-Westbrook-1083","Dennis-Schroder-18595","Al-Farouq-Aminu-1279","Kyle-Kuzma-37886","JaVale-McGee-1485","C.J.-McCollum-17121","Maurice-Harkless-16971","Jerami-Grant-18576","49900","260.14"
"Dennis-Schroder-18595","C.J.-McCollum-17121","Kyle-Kuzma-37886","Meyers-Leonard-13905","Jusuf-Nurkic-18619","Brandon-Ingram-35227","Maurice-Harkless-16971","Damian-Lillard-13900","49800","260.11"
"Dennis-Schroder-18595","Brandon-Ingram-35227","Al-Farouq-Aminu-1279","Luke-Kornet-37800","JaVale-McGee-1485","Tim-Hardaway-Jr.-16879","Kyle-Kuzma-37886","Damian-Lillard-13900","50000","260.09"
"Dennis-Schroder-18595","C.J.-McCollum-17121","Al-Farouq-Aminu-1279","Kyle-Kuzma-37886","JaVale-McGee-1485","Brandon-Ingram-35227","Kentavious-Caldwell-Pope-16869","Damian-Lillard-13900","49700","260.09"
"Dennis-Schroder-18595","C.J.-McCollum-17121","Al-Farouq-Aminu-1279","Maurice-Harkless-16971","Jusuf-Nurkic-18619","Brandon-Ingram-35227","Tim-Hardaway-Jr.-16879","Kyle-Kuzma-37886","49400","260.06"
"Dennis-Schroder-18595","Brandon-Ingram-35227","Al-Farouq-Aminu-1279","Kyle-Kuzma-37886","Jusuf-Nurkic-18619","Damian-Lillard-13900","Zach-Collins-37866","JaVale-McGee-1485","49600","260.06"
"Russell-Westbrook-1083","Dennis-Schroder-18595","Kyle-Kuzma-37886","Meyers-Leonard-13905","JaVale-McGee-1485","Emmanuel-Mudiay-18936","Tim-Hardaway-Jr.-16879","Al-Farouq-Aminu-1279","49700","260.05"
"Dennis-Schroder-18595","C.J.-McCollum-17121","Al-Farouq-Aminu-1279","Meyers-Leonard-13905","Jusuf-Nurkic-18619","Damian-Lillard-13900","Kyle-Kuzma-37886","JaVale-McGee-1485","49200","260.03"
"Damian-Lillard-13900","C.J.-McCollum-17121","Al-Farouq-Aminu-1279","Maurice-Harkless-16971","Jusuf-Nurkic-18619","Emmanuel-Mudiay-18936","Tim-Hardaway-Jr.-16879","JaVale-McGee-1485","49800","260.0"
"Dennis-Schroder-18595","Seth-Curry-16825","Al-Farouq-Aminu-1279","Kyle-Kuzma-37886","Jusuf-Nurkic-18619","Damian-Lillard-13900","Tim-Hardaway-Jr.-16879","Emmanuel-Mudiay-18936","49800","259.95"
"Dennis-Schroder-18595","C.J.-McCollum-17121","Al-Farouq-Aminu-1279","Kyle-Kuzma-37886","JaVale-McGee-1485","Damian-Lillard-13900","Kevin-Knox-408820","Emmanuel-Mudiay-18936","49900","259.94"
"Russell-Westbrook-1083","Dennis-Schroder-18595","Maurice-Harkless-16971","Meyers-Leonard-13905","Jusuf-Nurkic-18619","C.J.-McCollum-17121","Tim-Hardaway-Jr.-16879","JaVale-McGee-1485","49800","259.92"
"Russell-Westbrook-1083","Dennis-Schroder-18595","Al-Farouq-Aminu-1279","Kyle-Kuzma-37886","JaVale-McGee-1485","Seth-Curry-16825","Maurice-Harkless-16971","Jusuf-Nurkic-18619","49700","259.9"
"Dennis-Schroder-18595","C.J.-McCollum-17121","Tim-Hardaway-Jr.-16879","Jerami-Grant-18576","Jusuf-Nurkic-18619","Damian-Lillard-13900","Meyers-Leonard-13905","Kyle-Kuzma-37886","50000","259.88"
"Damian-Lillard-13900","Tim-Hardaway-Jr.-16879","Al-Farouq-Aminu-1279","Meyers-Leonard-13905","Jusuf-Nurkic-18619","Emmanuel-Mudiay-18936","Kyle-Kuzma-37886","JaVale-McGee-1485","49700","259.82"
"C.J.-McCollum-17121","Brandon-Ingram-35227","Al-Farouq-Aminu-1279","Kyle-Kuzma-37886","JaVale-McGee-1485","Damian-Lillard-13900","Maurice-Harkless-16971","Emmanuel-Mudiay-18936","49700","259.8"
"Dennis-Schroder-18595","Brandon-Ingram-35227","Al-Farouq-Aminu-1279","Kyle-Kuzma-37886","JaVale-McGee-1485","Tim-Hardaway-Jr.-16879","Maurice-Harkless-16971","Paul-George-1245","49900","259.8"
"Dennis-Schroder-18595","Tim-Hardaway-Jr.-16879","Al-Farouq-Aminu-1279","Jerami-Grant-18576","Jusuf-Nurkic-18619","Damian-Lillard-13900","Maurice-Harkless-16971","Kyle-Kuzma-37886","49800","259.76"
"Russell-Westbrook-1083","Dennis-Schroder-18595","Kyle-Kuzma-37886","Meyers-Leonard-13905","JaVale-McGee-1485","C.J.-McCollum-17121","Maurice-Harkless-16971","Brandon-Ingram-35227","49700","259.72"
"Russell-Westbrook-1083","Dennis-Schroder-18595","Al-Farouq-Aminu-1279","Jerami-Grant-18576","JaVale-McGee-1485","Seth-Curry-16825","Tim-Hardaway-Jr.-16879","Damian-Lillard-13900","50000","259.71"
"Russell-Westbrook-1083","Dennis-Schroder-18595","Al-Farouq-Aminu-1279","Jerami-Grant-18576","Jusuf-Nurkic-18619","Brandon-Ingram-35227","Meyers-Leonard-13905","JaVale-McGee-1485","50000","259.67"
"Dennis-Schroder-18595","C.J.-McCollum-17121","Al-Farouq-Aminu-1279","Jerami-Grant-18576","Jusuf-Nurkic-18619","Brandon-Ingram-35227","Kyle-Kuzma-37886","Emmanuel-Mudiay-18936","50000","259.66"
"Dennis-Schroder-18595","C.J.-McCollum-17121","Kyle-Kuzma-37886","Meyers-Leonard-13905","JaVale-McGee-1485","Damian-Lillard-13900","Kevin-Knox-408820","Jusuf-Nurkic-18619","49900","259.63"
"Dennis-Schroder-18595","Brandon-Ingram-35227","Evan-Turner-1291","Maurice-Harkless-16971","Jusuf-Nurkic-18619","Damian-Lillard-13900","Tim-Hardaway-Jr.-16879","Kyle-Kuzma-37886","50000","259.63"
"Dennis-Schroder-18595","C.J.-McCollum-17121","Al-Farouq-Aminu-1279","Kevin-Knox-408820","JaVale-McGee-1485","Brandon-Ingram-35227","Tim-Hardaway-Jr.-16879","Damian-Lillard-13900","49600","259.62"
"Dennis-Schroder-18595","C.J.-McCollum-17121","Al-Farouq-Aminu-1279","Kyle-Kuzma-37886","Jusuf-Nurkic-18619","Tim-Hardaway-Jr.-16879","Kevin-Knox-408820","JaVale-McGee-1485","49500","259.58"
"C.J.-McCollum-17121","Tim-Hardaway-Jr.-16879","Al-Farouq-Aminu-1279","Jerami-Grant-18576","JaVale-McGee-1485","Damian-Lillard-13900","Kyle-Kuzma-37886","Emmanuel-Mudiay-18936","49900","259.57"
"Russell-Westbrook-1083","Dennis-Schroder-18595","Al-Farouq-Aminu-1279","Kyle-Kuzma-37886","JaVale-McGee-1485","Seth-Curry-16825","Tim-Hardaway-Jr.-16879","Emmanuel-Mudiay-18936","49700","259.56"
"Dennis-Schroder-18595","Tim-Hardaway-Jr.-16879","Al-Farouq-Aminu-1279","Kyle-Kuzma-37886","JaVale-McGee-1485","Damian-Lillard-13900","Evan-Turner-1291","Jusuf-Nurkic-18619","49400","259.55"
"Dennis-Schroder-18595","C.J.-McCollum-17121","Kyle-Kuzma-37886","Maurice-Harkless-16971","JaVale-McGee-1485","Damian-Lillard-13900","Kentavious-Caldwell-Pope-16869","Jusuf-Nurkic-18619","49900","259.51"
"Russell-Westbrook-1083","Dennis-Schroder-18595","Maurice-Harkless-16971","Meyers-Leonard-13905","JaVale-McGee-1485","Damian-Lillard-13900","Tim-Hardaway-Jr.-16879","Emmanuel-Mudiay-18936","50000","259.51"
"C.J.-McCollum-17121","Brandon-Ingram-35227","Kyle-Kuzma-37886","Meyers-Leonard-13905","Jusuf-Nurkic-18619","Damian-Lillard-13900","Maurice-Harkless-16971","JaVale-McGee-1485","49700","259.49"
"Russell-Westbrook-1083","Dennis-Schroder-18595","Kyle-Kuzma-37886","Meyers-Leonard-13905","JaVale-McGee-1485","C.J.-McCollum-17121","Tim-Hardaway-Jr.-16879","Jerami-Grant-18576","49900","259.49"
"Dennis-Schroder-18595","Brandon-Ingram-35227","Kyle-Kuzma-37886","Jerami-Grant-18576","Jusuf-Nurkic-18619","Emmanuel-Mudiay-18936","Tim-Hardaway-Jr.-16879","JaVale-McGee-1485","49800","259.46"
"Russell-Westbrook-1083","Dennis-Schroder-18595","Al-Farouq-Aminu-1279","Meyers-Leonard-13905","Jusuf-Nurkic-18619","Seth-Curry-16825","Kyle-Kuzma-37886","C.J.-McCollum-17121","49900","259.45"
"Damian-Lillard-13900","Dennis-Schroder-18595","Al-Farouq-Aminu-1279","Kyle-Kuzma-37886","Nerlens-Noel-18575","Emmanuel-Mudiay-18936","Tim-Hardaway-Jr.-16879","Jusuf-Nurkic-18619","49800","259.44"
"Dennis-Schroder-18595","C.J.-McCollum-17121","Al-Farouq-Aminu-1279","Maurice-Harkless-16971","Jusuf-Nurkic-18619","Damian-Lillard-13900","Tim-Hardaway-Jr.-16879","JaVale-McGee-1485","49100","259.44"
"C.J.-McCollum-17121","Brandon-Ingram-35227","Al-Farouq-Aminu-1279","Kyle-Kuzma-37886","JaVale-McGee-1485","Tim-Hardaway-Jr.-16879","Maurice-Harkless-16971","Jusuf-Nurkic-18619","49300","259.44"
"Dennis-Schroder-18595","Seth-Curry-16825","Kyle-Kuzma-37886","Jerami-Grant-18576","Jusuf-Nurkic-18619","C.J.-McCollum-17121","Tim-Hardaway-Jr.-16879","Damian-Lillard-13900","50000","259.39"
"Damian-Lillard-13900","Dennis-Schroder-18595","Tim-Hardaway-Jr.-16879","Kyle-Kuzma-37886","JaVale-McGee-1485","Emmanuel-Mudiay-18936","Damyean-Dotson-37795","Jusuf-Nurkic-18619","49900","259.39"
"Russell-Westbrook-1083","Dennis-Schroder-18595","Al-Farouq-Aminu-1279","Kyle-Kuzma-37886","JaVale-McGee-1485","Tim-Hardaway-Jr.-16879","Maurice-Harkless-16971","Jerami-Grant-18576","49700","259.37"
"Russell-Westbrook-1083","Dennis-Schroder-18595","Al-Farouq-Aminu-1279","Maurice-Harkless-16971","Jusuf-Nurkic-18619","C.J.-McCollum-17121","Tim-Hardaway-Jr.-16879","Meyers-Leonard-13905","49800","259.35"
"Russell-Westbrook-1083","Dennis-Schroder-18595","Al-Farouq-Aminu-1279","Meyers-Leonard-13905","Jusuf-Nurkic-18619","Damian-Lillard-13900","Zach-Collins-37866","JaVale-McGee-1485","50000","259.35"
"Dennis-Schroder-18595","C.J.-McCollum-17121","Al-Farouq-Aminu-1279","Kyle-Kuzma-37886","Jusuf-Nurkic-18619","Damian-Lillard-13900","Zach-Collins-37866","Emmanuel-Mudiay-18936","50000","259.34"
"Dennis-Schroder-18595","Brandon-Ingram-35227","Kyle-Kuzma-37886","Maurice-Harkless-16971","Meyers-Leonard-13905","Damian-Lillard-13900","Tim-Hardaway-Jr.-16879","Jusuf-Nurkic-18619","49600","259.34"
"Damian-Lillard-13900","Seth-Curry-16825","Al-Farouq-Aminu-1279","Kyle-Kuzma-37886","Jusuf-Nurkic-18619","Emmanuel-Mudiay-18936","Tim-Hardaway-Jr.-16879","JaVale-McGee-1485","49700","259.33"
"Dennis-Schroder-18595","Brandon-Ingram-35227","Kentavious-Caldwell-Pope-16869","Al-Farouq-Aminu-1279","JaVale-McGee-1485","Damian-Lillard-13900","Tim-Hardaway-Jr.-16879","Kyle-Kuzma-37886","49500","259.32"
"Dennis-Schroder-18595","C.J.-McCollum-17121","Tim-Hardaway-Jr.-16879","Al-Farouq-Aminu-1279","Jusuf-Nurkic-18619","Brandon-Ingram-35227","Damyean-Dotson-37795","Damian-Lillard-13900","49800","259.27"
"C.J.-McCollum-17121","Tim-Hardaway-Jr.-16879","Kyle-Kuzma-37886","Jerami-Grant-18576","Jusuf-Nurkic-18619","Damian-Lillard-13900","Meyers-Leonard-13905","JaVale-McGee-1485","49900","259.26"
"Dennis-Schroder-18595","Tim-Hardaway-Jr.-16879","Al-Farouq-Aminu-1279","Meyers-Leonard-13905","Jusuf-Nurkic-18619","Damian-Lillard-13900","Kyle-Kuzma-37886","JaVale-McGee-1485","49000","259.26"
"Russell-Westbrook-1083","Dennis-Schroder-18595","Kyle-Kuzma-37886","Meyers-Leonard-13905","JaVale-McGee-1485","Seth-Curry-16825","Tim-Hardaway-Jr.-16879","Jusuf-Nurkic-18619","49700","259.25"
"Dennis-Schroder-18595","C.J.-McCollum-17121","Al-Farouq-Aminu-1279","Kyle-Kuzma-37886","JaVale-McGee-1485","Brandon-Ingram-35227","Maurice-Harkless-16971","Damian-Lillard-13900","49000","259.24"
"Russell-Westbrook-1083","Dennis-Schroder-18595","Kyle-Kuzma-37886","Maurice-Harkless-16971","JaVale-McGee-1485","Brandon-Ingram-35227","Evan-Turner-1291","Tim-Hardaway-Jr.-16879","49900","259.24"
"Russell-Westbrook-1083","Dennis-Schroder-18595","Al-Farouq-Aminu-1279","Kyle-Kuzma-37886","JaVale-McGee-1485","C.J.-McCollum-17121","Damyean-Dotson-37795","Emmanuel-Mudiay-18936","50000","259.2"
"Russell-Westbrook-1083","Dennis-Schroder-18595","Al-Farouq-Aminu-1279","Jerami-Grant-18576","Nerlens-Noel-18575","Damian-Lillard-13900","Tim-Hardaway-Jr.-16879","JaVale-McGee-1485","50000","259.2"
"Damian-Lillard-13900","Dennis-Schroder-18595","Al-Farouq-Aminu-1279","Kyle-Kuzma-37886","JaVale-McGee-1485","Emmanuel-Mudiay-18936","Tim-Hardaway-Jr.-16879","Kevin-Knox-408820","49700","259.17"
"Dennis-Schroder-18595","C.J.-McCollum-17121","Kentavious-Caldwell-Pope-16869","Kyle-Kuzma-37886","JaVale-McGee-1485","Damian-Lillard-13900","Tim-Hardaway-Jr.-16879","Emmanuel-Mudiay-18936","49900","259.17"
"Russell-Westbrook-1083","Dennis-Schroder-18595","Al-Farouq-Aminu-1279","Kyle-Kuzma-37886","Meyers-Leonard-13905","C.J.-McCollum-17121","Maurice-Harkless-16971","Brandon-Ingram-35227","49700","259.15"
"C.J.-McCollum-17121","Brandon-Ingram-35227","Kyle-Kuzma-37886","Meyers-Leonard-13905","JaVale-McGee-1485","Damian-Lillard-13900","Tim-Hardaway-Jr.-16879","Emmanuel-Mudiay-18936","49700","259.15"
"Damian-Lillard-13900","Dennis-Schroder-18595","Kyle-Kuzma-37886","Zach-Collins-37866","Jusuf-Nurkic-18619","Emmanuel-Mudiay-18936","Tim-Hardaway-Jr.-16879","JaVale-McGee-1485","49800","259.14"
"Russell-Westbrook-1083","Dennis-Schroder-18595","Lance-Stephenson-947","Al-Farouq-Aminu-1279","JaVale-McGee-1485","C.J.-McCollum-17121","Tim-Hardaway-Jr.-16879","Brandon-Ingram-35227","50000","259.06"
"Dennis-Schroder-18595","C.J.-McCollum-17121","Al-Farouq-Aminu-1279","Meyers-Leonard-13905","Jusuf-Nurkic-18619","Damian-Lillard-13900","Kyle-Kuzma-37886","Kevin-Knox-408820","49900","259.06"
