"Russell-Westbrook-1083","Dwyane-Wade-967","Joe-Ingles-18627","Derrick-Favors-1266","Hassan-Whiteside-18664","Tyler-Johnson-18720","Josh-Richardson-18922","Steven-Adams-16848","49900","260.37"
"Russell-Westbrook-1083","Tyler-Johnson-18720","Taurean-Prince-35218","Dewayne-Dedmon-16894","Hassan-Whiteside-18664","Ricky-Rubio-1001","Joe-Ingles-18627","Steven-Adams-16848","50000","260.14"

"Russell-Westbrook-1083","Dwyane-Wade-967","Joe-Ingles-18627","Derrick-Favors-1266","Hassan-Whiteside-18664","Tyler-Johnson-18720","Josh-Richardson-18922","Steven-Adams-16848","49900","260.37"
"Russell-Westbrook-1083","Tyler-Johnson-18720","Taurean-Prince-35218","Dewayne-Dedmon-16894","Hassan-Whiteside-18664","Ricky-Rubio-1001","Joe-Ingles-18627","Steven-Adams-16848","50000","260.14"
"Russell-Westbrook-1083","Tyler-Johnson-18720","Taurean-Prince-35218","Derrick-Favors-1266","Steven-Adams-16848","Josh-Richardson-18922","Joe-Ingles-18627","Hassan-Whiteside-18664","49800","259.97"
"Russell-Westbrook-1083","Tyler-Johnson-18720","Josh-Richardson-18922","Derrick-Favors-1266","Steven-Adams-16848","Ricky-Rubio-1001","Bam-Adebayo-37835","Hassan-Whiteside-18664","49900","259.93"
"Russell-Westbrook-1083","Tyler-Johnson-18720","Justise-Winslow-18921","Bam-Adebayo-37835","Steven-Adams-16848","Josh-Richardson-18922","Joe-Ingles-18627","Hassan-Whiteside-18664","49800","259.65"
"Russell-Westbrook-1083","Wayne-Ellington-1009","Joe-Ingles-18627","Derrick-Favors-1266","Rudy-Gobert-16935","Ricky-Rubio-1001","Josh-Richardson-18922","Tyler-Johnson-18720","50000","259.62"
"Russell-Westbrook-1083","Dwyane-Wade-967","Joe-Ingles-18627","Derrick-Favors-1266","Hassan-Whiteside-18664","Tyler-Johnson-18720","Bam-Adebayo-37835","Rudy-Gobert-16935","50000","259.61"
"Russell-Westbrook-1083","Dwyane-Wade-967","Joe-Ingles-18627","Bam-Adebayo-37835","Steven-Adams-16848","Tyler-Johnson-18720","Dewayne-Dedmon-16894","Rudy-Gobert-16935","50000","259.59"
"Russell-Westbrook-1083","Tyler-Johnson-18720","Taurean-Prince-35218","Derrick-Favors-1266","Steven-Adams-16848","Ricky-Rubio-1001","Joe-Ingles-18627","Hassan-Whiteside-18664","49700","259.43"
"Russell-Westbrook-1083","Dwyane-Wade-967","Wayne-Ellington-1009","Derrick-Favors-1266","Steven-Adams-16848","Tyler-Johnson-18720","Josh-Richardson-18922","Rudy-Gobert-16935","50000","259.28"
"Russell-Westbrook-1083","Kyle-Korver-1269","Justise-Winslow-18921","Derrick-Favors-1266","Steven-Adams-16848","Tyler-Johnson-18720","Joe-Ingles-18627","Rudy-Gobert-16935","50000","259.25"
"Russell-Westbrook-1083","Tyler-Johnson-18720","Joe-Ingles-18627","Dewayne-Dedmon-16894","Hassan-Whiteside-18664","Ricky-Rubio-1001","Josh-Richardson-18922","Derrick-Favors-1266","50000","259.23"
"Russell-Westbrook-1083","Joe-Ingles-18627","Taurean-Prince-35218","Derrick-Favors-1266","Hassan-Whiteside-18664","Tyler-Johnson-18720","Bam-Adebayo-37835","Rudy-Gobert-16935","49900","259.21"
"Russell-Westbrook-1083","Joe-Ingles-18627","Taurean-Prince-35218","Bam-Adebayo-37835","Rudy-Gobert-16935","Tyler-Johnson-18720","Dewayne-Dedmon-16894","Steven-Adams-16848","49900","259.19"
"Russell-Westbrook-1083","Wayne-Ellington-1009","Justise-Winslow-18921","Derrick-Favors-1266","Steven-Adams-16848","Tyler-Johnson-18720","Joe-Ingles-18627","Rudy-Gobert-16935","49900","259.13"
"Russell-Westbrook-1083","Tyler-Johnson-18720","Justise-Winslow-18921","Bam-Adebayo-37835","Steven-Adams-16848","Ricky-Rubio-1001","Joe-Ingles-18627","Hassan-Whiteside-18664","49700","259.11"
"Russell-Westbrook-1083","Kyle-Korver-1269","Taurean-Prince-35218","Derrick-Favors-1266","Steven-Adams-16848","Tyler-Johnson-18720","Josh-Richardson-18922","Rudy-Gobert-16935","50000","259.0"
"Russell-Westbrook-1083","Kyle-Korver-1269","Joe-Ingles-18627","Bam-Adebayo-37835","Rudy-Gobert-16935","Tyler-Johnson-18720","Josh-Richardson-18922","Hassan-Whiteside-18664","49800","258.92"
"Russell-Westbrook-1083","Dwyane-Wade-967","Josh-Richardson-18922","Derrick-Favors-1266","Hassan-Whiteside-18664","Tyler-Johnson-18720","Dewayne-Dedmon-16894","Steven-Adams-16848","50000","258.89"
"Russell-Westbrook-1083","Dwyane-Wade-967","Joe-Ingles-18627","Derrick-Favors-1266","Steven-Adams-16848","Tyler-Johnson-18720","Bam-Adebayo-37835","Rudy-Gobert-16935","49700","258.88"
"Russell-Westbrook-1083","Tyler-Johnson-18720","Taurean-Prince-35218","Derrick-Favors-1266","Steven-Adams-16848","Josh-Richardson-18922","Wayne-Ellington-1009","Rudy-Gobert-16935","49900","258.88"
"Russell-Westbrook-1083","Tyler-Johnson-18720","Taurean-Prince-35218","Bam-Adebayo-37835","Steven-Adams-16848","Ricky-Rubio-1001","Josh-Richardson-18922","Hassan-Whiteside-18664","49700","258.86"
"Russell-Westbrook-1083","Wayne-Ellington-1009","Joe-Ingles-18627","Bam-Adebayo-37835","Rudy-Gobert-16935","Tyler-Johnson-18720","Josh-Richardson-18922","Hassan-Whiteside-18664","49700","258.8"
"Russell-Westbrook-1083","Wayne-Ellington-1009","Joe-Ingles-18627","Derrick-Favors-1266","Hassan-Whiteside-18664","Tyler-Johnson-18720","Bam-Adebayo-37835","Paul-George-1245","50000","258.75"
"Justise-Winslow-18921","Tyler-Johnson-18720","Joe-Ingles-18627","Derrick-Favors-1266","Steven-Adams-16848","Russell-Westbrook-1083","Dewayne-Dedmon-16894","Hassan-Whiteside-18664","49900","258.74"
"Russell-Westbrook-1083","Joe-Ingles-18627","Wayne-Ellington-1009","Bam-Adebayo-37835","Dewayne-Dedmon-16894","Tyler-Johnson-18720","Paul-George-1245","Steven-Adams-16848","50000","258.73"
"Justise-Winslow-18921","Tyler-Johnson-18720","Kyle-Korver-1269","Bam-Adebayo-37835","Rudy-Gobert-16935","Russell-Westbrook-1083","Josh-Richardson-18922","Steven-Adams-16848","50000","258.68"
"Russell-Westbrook-1083","Joe-Ingles-18627","Taurean-Prince-35218","Bam-Adebayo-37835","Rudy-Gobert-16935","Ricky-Rubio-1001","Justise-Winslow-18921","Tyler-Johnson-18720","50000","258.64"
"Russell-Westbrook-1083","Dwyane-Wade-967","Joe-Ingles-18627","Dewayne-Dedmon-16894","Hassan-Whiteside-18664","Ricky-Rubio-1001","Josh-Richardson-18922","Tyler-Johnson-18720","49900","258.56"
"Russell-Westbrook-1083","Tyler-Johnson-18720","Wayne-Ellington-1009","Bam-Adebayo-37835","Steven-Adams-16848","Josh-Richardson-18922","Justise-Winslow-18921","Rudy-Gobert-16935","49900","258.56"
"Russell-Westbrook-1083","Dwyane-Wade-967","Taurean-Prince-35218","Bam-Adebayo-37835","Rudy-Gobert-16935","Tyler-Johnson-18720","Joe-Ingles-18627","Hassan-Whiteside-18664","49800","258.54"
"Russell-Westbrook-1083","Kyle-Korver-1269","Joe-Ingles-18627","Jae-Crowder-13942","Rudy-Gobert-16935","Tyler-Johnson-18720","Josh-Richardson-18922","Steven-Adams-16848","50000","258.52"
"Russell-Westbrook-1083","Tyler-Johnson-18720","Joe-Ingles-18627","Derrick-Favors-1266","Steven-Adams-16848","Ricky-Rubio-1001","Dewayne-Dedmon-16894","Josh-Richardson-18922","49700","258.5"
"Russell-Westbrook-1083","Tyler-Johnson-18720","Joe-Ingles-18627","James-Johnson-1195","Hassan-Whiteside-18664","Ricky-Rubio-1001","Josh-Richardson-18922","Steven-Adams-16848","49900","258.5"
"Russell-Westbrook-1083","Tyler-Johnson-18720","Taurean-Prince-35218","Derrick-Favors-1266","Hassan-Whiteside-18664","Josh-Richardson-18922","Dewayne-Dedmon-16894","Steven-Adams-16848","49900","258.49"
"Russell-Westbrook-1083","Joe-Ingles-18627","Taurean-Prince-35218","Derrick-Favors-1266","Steven-Adams-16848","Tyler-Johnson-18720","Bam-Adebayo-37835","Rudy-Gobert-16935","49600","258.48"
"Russell-Westbrook-1083","Jeremy-Lin-916","Joe-Ingles-18627","Bam-Adebayo-37835","Rudy-Gobert-16935","Tyler-Johnson-18720","Josh-Richardson-18922","Steven-Adams-16848","49800","258.46"
"Russell-Westbrook-1083","Tyler-Johnson-18720","Taurean-Prince-35218","Derrick-Favors-1266","Steven-Adams-16848","Ricky-Rubio-1001","Kyle-Korver-1269","Rudy-Gobert-16935","49900","258.46"
"Russell-Westbrook-1083","Tyler-Johnson-18720","Wayne-Ellington-1009","Jae-Crowder-13942","Steven-Adams-16848","Josh-Richardson-18922","Joe-Ingles-18627","Rudy-Gobert-16935","49900","258.4"
"Russell-Westbrook-1083","Tyler-Johnson-18720","Joe-Ingles-18627","Bam-Adebayo-37835","Hassan-Whiteside-18664","Ricky-Rubio-1001","Kyle-Korver-1269","Rudy-Gobert-16935","49700","258.38"
"Ricky-Rubio-1001","Joe-Ingles-18627","Josh-Richardson-18922","Derrick-Favors-1266","Steven-Adams-16848","Tyler-Johnson-18720","Paul-George-1245","Hassan-Whiteside-18664","49900","258.36"
"Russell-Westbrook-1083","Kevin-Huerter-408969","Josh-Richardson-18922","Derrick-Favors-1266","Steven-Adams-16848","Tyler-Johnson-18720","Bam-Adebayo-37835","Rudy-Gobert-16935","50000","258.34"
"Russell-Westbrook-1083","Tyler-Johnson-18720","Taurean-Prince-35218","Derrick-Favors-1266","Steven-Adams-16848","Ricky-Rubio-1001","Wayne-Ellington-1009","Rudy-Gobert-16935","49800","258.34"
"Russell-Westbrook-1083","Dwyane-Wade-967","Taurean-Prince-35218","Bam-Adebayo-37835","Rudy-Gobert-16935","Tyler-Johnson-18720","Justise-Winslow-18921","Steven-Adams-16848","50000","258.3"
"Russell-Westbrook-1083","Joe-Ingles-18627","Josh-Richardson-18922","Derrick-Favors-1266","Rudy-Gobert-16935","Tyler-Johnson-18720","Bam-Adebayo-37835","Dewayne-Dedmon-16894","49900","258.28"
"Russell-Westbrook-1083","Tyler-Johnson-18720","Wayne-Ellington-1009","Bam-Adebayo-37835","Rudy-Gobert-16935","Ricky-Rubio-1001","Joe-Ingles-18627","Hassan-Whiteside-18664","49600","258.26"
"Russell-Westbrook-1083","Dennis-Schroder-18595","Joe-Ingles-18627","Derrick-Favors-1266","Hassan-Whiteside-18664","Tyler-Johnson-18720","Josh-Richardson-18922","Steven-Adams-16848","49800","258.26"
"Russell-Westbrook-1083","Dwyane-Wade-967","Kevin-Huerter-408969","Derrick-Favors-1266","Rudy-Gobert-16935","Tyler-Johnson-18720","Joe-Ingles-18627","Steven-Adams-16848","49900","258.24"
"Russell-Westbrook-1083","Dwyane-Wade-967","Joe-Ingles-18627","Bam-Adebayo-37835","Hassan-Whiteside-18664","Tyler-Johnson-18720","Kyle-Korver-1269","Paul-George-1245","50000","258.2"
"Russell-Westbrook-1083","Kyle-Korver-1269","Joe-Ingles-18627","Bam-Adebayo-37835","Rudy-Gobert-16935","Tyler-Johnson-18720","Josh-Richardson-18922","Steven-Adams-16848","49500","258.19"
"Justise-Winslow-18921","Tyler-Johnson-18720","Josh-Richardson-18922","Bam-Adebayo-37835","Hassan-Whiteside-18664","Russell-Westbrook-1083","Dewayne-Dedmon-16894","Steven-Adams-16848","49900","258.17"
"Russell-Westbrook-1083","Joe-Ingles-18627","Taurean-Prince-35218","Dewayne-Dedmon-16894","Hassan-Whiteside-18664","Ricky-Rubio-1001","Josh-Richardson-18922","Tyler-Johnson-18720","49800","258.16"
"Russell-Westbrook-1083","Tyler-Johnson-18720","Justise-Winslow-18921","Bam-Adebayo-37835","Steven-Adams-16848","Ricky-Rubio-1001","Kyle-Korver-1269","Rudy-Gobert-16935","49900","258.14"
"Russell-Westbrook-1083","Kyle-Korver-1269","Joe-Ingles-18627","Bam-Adebayo-37835","Steven-Adams-16848","Tyler-Johnson-18720","Paul-George-1245","Derrick-Favors-1266","49800","258.14"
"Russell-Westbrook-1083","Dwyane-Wade-967","Taurean-Prince-35218","Jae-Crowder-13942","Rudy-Gobert-16935","Tyler-Johnson-18720","Joe-Ingles-18627","Steven-Adams-16848","50000","258.14"
"Russell-Westbrook-1083","Dwyane-Wade-967","Wayne-Ellington-1009","Paul-George-1245","Hassan-Whiteside-18664","Tyler-Johnson-18720","Joe-Ingles-18627","Bam-Adebayo-37835","49900","258.08"
"Russell-Westbrook-1083","Wayne-Ellington-1009","Joe-Ingles-18627","Bam-Adebayo-37835","Rudy-Gobert-16935","Tyler-Johnson-18720","Josh-Richardson-18922","Steven-Adams-16848","49400","258.07"
"Russell-Westbrook-1083","Dwyane-Wade-967","Justise-Winslow-18921","Dewayne-Dedmon-16894","Steven-Adams-16848","Tyler-Johnson-18720","Joe-Ingles-18627","Hassan-Whiteside-18664","49800","258.07"
"Russell-Westbrook-1083","Wayne-Ellington-1009","Joe-Ingles-18627","Bam-Adebayo-37835","Steven-Adams-16848","Tyler-Johnson-18720","Paul-George-1245","Derrick-Favors-1266","49700","258.02"
"Russell-Westbrook-1083","Tyler-Johnson-18720","Wayne-Ellington-1009","Bam-Adebayo-37835","Steven-Adams-16848","Ricky-Rubio-1001","Justise-Winslow-18921","Rudy-Gobert-16935","49800","258.02"
"Russell-Westbrook-1083","Joe-Ingles-18627","Kyle-Korver-1269","Derrick-Favors-1266","Hassan-Whiteside-18664","Tyler-Johnson-18720","Dewayne-Dedmon-16894","Rudy-Gobert-16935","49900","258.01"
"Russell-Westbrook-1083","Joe-Ingles-18627","Jae-Crowder-13942","Dewayne-Dedmon-16894","Steven-Adams-16848","Tyler-Johnson-18720","Josh-Richardson-18922","Hassan-Whiteside-18664","49900","258.01"
"Russell-Westbrook-1083","Kevin-Huerter-408969","Joe-Ingles-18627","Bam-Adebayo-37835","Rudy-Gobert-16935","Ricky-Rubio-1001","Josh-Richardson-18922","Tyler-Johnson-18720","49900","258.01"
"Russell-Westbrook-1083","Tyler-Johnson-18720","Wayne-Ellington-1009","Derrick-Favors-1266","Steven-Adams-16848","Ricky-Rubio-1001","Kyle-Korver-1269","Paul-George-1245","50000","258.0"
"Russell-Westbrook-1083","Tyler-Johnson-18720","Joe-Ingles-18627","Jae-Crowder-13942","Rudy-Gobert-16935","Ricky-Rubio-1001","Kyle-Korver-1269","Steven-Adams-16848","49900","257.98"
"Russell-Westbrook-1083","Tyler-Johnson-18720","Taurean-Prince-35218","Derrick-Favors-1266","Hassan-Whiteside-18664","Ricky-Rubio-1001","Dewayne-Dedmon-16894","Steven-Adams-16848","49800","257.95"
"Justise-Winslow-18921","Tyler-Johnson-18720","Taurean-Prince-35218","Derrick-Favors-1266","Hassan-Whiteside-18664","Russell-Westbrook-1083","Josh-Richardson-18922","Ricky-Rubio-1001","50000","257.94"
"Russell-Westbrook-1083","Tyler-Johnson-18720","Taurean-Prince-35218","Dewayne-Dedmon-16894","Steven-Adams-16848","Ricky-Rubio-1001","Justise-Winslow-18921","Josh-Richardson-18922","50000","257.92"
"Russell-Westbrook-1083","Joe-Ingles-18627","Wayne-Ellington-1009","Derrick-Favors-1266","Hassan-Whiteside-18664","Tyler-Johnson-18720","Dewayne-Dedmon-16894","Rudy-Gobert-16935","49800","257.89"
"Russell-Westbrook-1083","Wayne-Ellington-1009","Kyle-Korver-1269","Paul-George-1245","Steven-Adams-16848","Dwyane-Wade-967","Josh-Richardson-18922","Tyler-Johnson-18720","50000","257.87"
"Russell-Westbrook-1083","Tyler-Johnson-18720","Wayne-Ellington-1009","Jae-Crowder-13942","Steven-Adams-16848","Ricky-Rubio-1001","Joe-Ingles-18627","Rudy-Gobert-16935","49800","257.86"
"Russell-Westbrook-1083","Joe-Ingles-18627","Wayne-Ellington-1009","Dewayne-Dedmon-16894","Rudy-Gobert-16935","Tyler-Johnson-18720","Justise-Winslow-18921","Josh-Richardson-18922","50000","257.86"
"Russell-Westbrook-1083","Dwyane-Wade-967","Joe-Ingles-18627","Derrick-Favors-1266","Hassan-Whiteside-18664","Ricky-Rubio-1001","Josh-Richardson-18922","Tyler-Johnson-18720","49600","257.85"
"Russell-Westbrook-1083","Kevin-Huerter-408969","Taurean-Prince-35218","Derrick-Favors-1266","Rudy-Gobert-16935","Tyler-Johnson-18720","Joe-Ingles-18627","Steven-Adams-16848","49800","257.84"
"Russell-Westbrook-1083","Dwyane-Wade-967","Joe-Ingles-18627","Dewayne-Dedmon-16894","Steven-Adams-16848","Ricky-Rubio-1001","Josh-Richardson-18922","Tyler-Johnson-18720","49600","257.83"
"Russell-Westbrook-1083","Dwyane-Wade-967","Taurean-Prince-35218","Dewayne-Dedmon-16894","Hassan-Whiteside-18664","Tyler-Johnson-18720","Josh-Richardson-18922","Steven-Adams-16848","49800","257.82"
"Russell-Westbrook-1083","Dwyane-Wade-967","Taurean-Prince-35218","Bam-Adebayo-37835","Rudy-Gobert-16935","Tyler-Johnson-18720","Joe-Ingles-18627","Steven-Adams-16848","49500","257.81"
"Russell-Westbrook-1083","Tyler-Johnson-18720","Kevin-Huerter-408969","Derrick-Favors-1266","Steven-Adams-16848","Ricky-Rubio-1001","Bam-Adebayo-37835","Rudy-Gobert-16935","49900","257.8"
"Russell-Westbrook-1083","Joe-Ingles-18627","Taurean-Prince-35218","Paul-George-1245","Bam-Adebayo-37835","Tyler-Johnson-18720","Kyle-Korver-1269","Hassan-Whiteside-18664","49900","257.8"
"Russell-Westbrook-1083","Dwyane-Wade-967","Joe-Ingles-18627","Bam-Adebayo-37835","Steven-Adams-16848","Jeremy-Lin-916","Paul-George-1245","Tyler-Johnson-18720","50000","257.74"
"Russell-Westbrook-1083","Tyler-Johnson-18720","Joe-Ingles-18627","James-Johnson-1195","Rudy-Gobert-16935","Ricky-Rubio-1001","Bam-Adebayo-37835","Hassan-Whiteside-18664","50000","257.74"
"Russell-Westbrook-1083","Tyler-Johnson-18720","Joe-Ingles-18627","Derrick-Favors-1266","Dewayne-Dedmon-16894","Ricky-Rubio-1001","Bam-Adebayo-37835","Rudy-Gobert-16935","49800","257.74"
"Russell-Westbrook-1083","Joe-Ingles-18627","Wayne-Ellington-1009","Paul-George-1245","Steven-Adams-16848","Kyle-Korver-1269","Justise-Winslow-18921","Tyler-Johnson-18720","49900","257.72"
"Russell-Westbrook-1083","Tyler-Johnson-18720","Taurean-Prince-35218","Jae-Crowder-13942","Rudy-Gobert-16935","Ricky-Rubio-1001","Bam-Adebayo-37835","Steven-Adams-16848","50000","257.7"
"Ricky-Rubio-1001","Dwyane-Wade-967","Joe-Ingles-18627","Paul-George-1245","Hassan-Whiteside-18664","Tyler-Johnson-18720","Josh-Richardson-18922","Steven-Adams-16848","49800","257.69"
"Russell-Westbrook-1083","Joe-Ingles-18627","Taurean-Prince-35218","Paul-George-1245","Hassan-Whiteside-18664","Tyler-Johnson-18720","Wayne-Ellington-1009","Bam-Adebayo-37835","49800","257.68"
"Russell-Westbrook-1083","Joe-Ingles-18627","Josh-Richardson-18922","Bam-Adebayo-37835","Hassan-Whiteside-18664","Tyler-Johnson-18720","Dewayne-Dedmon-16894","Steven-Adams-16848","49400","257.68"
"Russell-Westbrook-1083","Joe-Ingles-18627","Taurean-Prince-35218","Dewayne-Dedmon-16894","Hassan-Whiteside-18664","Tyler-Johnson-18720","Justise-Winslow-18921","Steven-Adams-16848","49700","257.67"
"Russell-Westbrook-1083","Dwyane-Wade-967","Kevin-Huerter-408969","Bam-Adebayo-37835","Steven-Adams-16848","Tyler-Johnson-18720","Josh-Richardson-18922","Rudy-Gobert-16935","49900","257.67"
"Russell-Westbrook-1083","Tyler-Johnson-18720","Kyle-Korver-1269","Dewayne-Dedmon-16894","Steven-Adams-16848","Ricky-Rubio-1001","Josh-Richardson-18922","Hassan-Whiteside-18664","49700","257.66"
"Russell-Westbrook-1083","Tyler-Johnson-18720","Joe-Ingles-18627","Bam-Adebayo-37835","Rudy-Gobert-16935","Ricky-Rubio-1001","Kyle-Korver-1269","Steven-Adams-16848","49400","257.65"
"Justise-Winslow-18921","Tyler-Johnson-18720","Wayne-Ellington-1009","Derrick-Favors-1266","Steven-Adams-16848","Russell-Westbrook-1083","Dewayne-Dedmon-16894","Rudy-Gobert-16935","50000","257.65"
"Russell-Westbrook-1083","Tyler-Johnson-18720","Justise-Winslow-18921","Bam-Adebayo-37835","Steven-Adams-16848","Ricky-Rubio-1001","Dewayne-Dedmon-16894","Hassan-Whiteside-18664","49800","257.63"
"Russell-Westbrook-1083","Dwyane-Wade-967","Justise-Winslow-18921","Derrick-Favors-1266","Steven-Adams-16848","Ricky-Rubio-1001","Josh-Richardson-18922","Tyler-Johnson-18720","49800","257.61"
"Russell-Westbrook-1083","Dwyane-Wade-967","Joe-Ingles-18627","Bam-Adebayo-37835","Rudy-Gobert-16935","Tyler-Johnson-18720","Josh-Richardson-18922","Dewayne-Dedmon-16894","49800","257.61"
"Ricky-Rubio-1001","Joe-Ingles-18627","Paul-George-1245","Derrick-Favors-1266","Rudy-Gobert-16935","Tyler-Johnson-18720","Bam-Adebayo-37835","Hassan-Whiteside-18664","50000","257.6"
"Ricky-Rubio-1001","Joe-Ingles-18627","Paul-George-1245","Bam-Adebayo-37835","Steven-Adams-16848","Tyler-Johnson-18720","Dewayne-Dedmon-16894","Rudy-Gobert-16935","50000","257.58"
"Russell-Westbrook-1083","Jeremy-Lin-916","Joe-Ingles-18627","Derrick-Favors-1266","Steven-Adams-16848","Tyler-Johnson-18720","Dewayne-Dedmon-16894","Rudy-Gobert-16935","49900","257.55"
"Russell-Westbrook-1083","Tyler-Johnson-18720","Joe-Ingles-18627","James-Johnson-1195","Rudy-Gobert-16935","Josh-Richardson-18922","Bam-Adebayo-37835","Steven-Adams-16848","49800","257.55"
"Russell-Westbrook-1083","Tyler-Johnson-18720","Wayne-Ellington-1009","Dewayne-Dedmon-16894","Steven-Adams-16848","Ricky-Rubio-1001","Josh-Richardson-18922","Hassan-Whiteside-18664","49600","257.54"
