"Zach-LaVine-18622","Marcus-Smart-18567","Jayson-Tatum-37782","Dario-Saric-36004","Karl-Anthony-Towns-18937","Kris-Dunn-35215","Jaren-Jackson-409099","Marc-Gasol-1493","50000","285.21"

"Zach-LaVine-18622","Marcus-Smart-18567","Jayson-Tatum-37782","Dario-Saric-36004","Karl-Anthony-Towns-18937","Kris-Dunn-35215","Jaren-Jackson-409099","Marc-Gasol-1493","50000","285.21"
"Zach-LaVine-18622","Marcus-Smart-18567","Justin-Holiday-14559","Dario-Saric-36004","Marc-Gasol-1493","Kris-Dunn-35215","Jayson-Tatum-37782","Karl-Anthony-Towns-18937","49800","284.96"
"Zach-LaVine-18622","Terry-Rozier-18894","Aaron-Gordon-18601","Dario-Saric-36004","Marc-Gasol-1493","Justin-Holiday-14559","Jaren-Jackson-409099","Karl-Anthony-Towns-18937","49900","284.81"
"Zach-LaVine-18622","Marcus-Smart-18567","Justin-Holiday-14559","Dario-Saric-36004","Karl-Anthony-Towns-18937","Mike-Conley-1062","Jaren-Jackson-409099","Marc-Gasol-1493","49800","284.64"
"Zach-LaVine-18622","Terry-Rozier-18894","Justin-Holiday-14559","Dario-Saric-36004","Marc-Gasol-1493","Tyus-Jones-18938","Jayson-Tatum-37782","Karl-Anthony-Towns-18937","50000","284.52"
"Zach-LaVine-18622","Kris-Dunn-35215","Justin-Holiday-14559","Dario-Saric-36004","Karl-Anthony-Towns-18937","Tyus-Jones-18938","Jaren-Jackson-409099","Marc-Gasol-1493","49800","284.41"
"Zach-LaVine-18622","Kris-Dunn-35215","Jayson-Tatum-37782","Dario-Saric-36004","Karl-Anthony-Towns-18937","D.J.-Augustin-1064","Jaren-Jackson-409099","Marc-Gasol-1493","50000","284.34"
"Zach-LaVine-18622","Kris-Dunn-35215","Justin-Holiday-14559","Dario-Saric-36004","Marc-Gasol-1493","D.J.-Augustin-1064","Jayson-Tatum-37782","Karl-Anthony-Towns-18937","49800","284.09"
"Zach-LaVine-18622","Marcus-Smart-18567","Andrew-Wiggins-18620","Dario-Saric-36004","Marc-Gasol-1493","Kris-Dunn-35215","Jaren-Jackson-409099","Karl-Anthony-Towns-18937","49900","284.05"
"Zach-LaVine-18622","Marcus-Smart-18567","Justin-Holiday-14559","Dario-Saric-36004","Karl-Anthony-Towns-18937","Tyus-Jones-18938","Lauri-Markkanen-37809","Marc-Gasol-1493","49700","283.99"
"Zach-LaVine-18622","Marcus-Smart-18567","Jayson-Tatum-37782","Dario-Saric-36004","Karl-Anthony-Towns-18937","D.J.-Augustin-1064","Lauri-Markkanen-37809","Marc-Gasol-1493","49900","283.92"
"Zach-LaVine-18622","Marcus-Smart-18567","Andrew-Wiggins-18620","Dario-Saric-36004","Karl-Anthony-Towns-18937","Kris-Dunn-35215","Justin-Holiday-14559","Marc-Gasol-1493","49700","283.8"
"D.J.-Augustin-1064","Zach-LaVine-18622","Justin-Holiday-14559","Dario-Saric-36004","Karl-Anthony-Towns-18937","Mike-Conley-1062","Jaren-Jackson-409099","Marc-Gasol-1493","49800","283.77"
"Kyle-Anderson-18615","Zach-LaVine-18622","Aaron-Gordon-18601","Dario-Saric-36004","Marc-Gasol-1493","Terry-Rozier-18894","Justin-Holiday-14559","Karl-Anthony-Towns-18937","50000","283.72"
"Zach-LaVine-18622","Marcus-Smart-18567","Aaron-Gordon-18601","Dario-Saric-36004","Marc-Gasol-1493","Tyus-Jones-18938","Jaren-Jackson-409099","Karl-Anthony-Towns-18937","49700","283.67"
"Zach-LaVine-18622","Josh-Okogie-409174","Justin-Holiday-14559","Dario-Saric-36004","Karl-Anthony-Towns-18937","Kris-Dunn-35215","Lauri-Markkanen-37809","Marc-Gasol-1493","49900","283.61"
"Zach-LaVine-18622","Marcus-Smart-18567","Kyle-Anderson-18615","Dario-Saric-36004","Karl-Anthony-Towns-18937","Mike-Conley-1062","Justin-Holiday-14559","Marc-Gasol-1493","49900","283.55"
"Zach-LaVine-18622","Justin-Holiday-14559","Gordon-Hayward-1239","Aaron-Gordon-18601","Karl-Anthony-Towns-18937","Tyus-Jones-18938","Dario-Saric-36004","Marc-Gasol-1493","50000","283.54"
"Zach-LaVine-18622","Marcus-Smart-18567","Justin-Holiday-14559","Lauri-Markkanen-37809","Marc-Gasol-1493","Terry-Rozier-18894","Jaren-Jackson-409099","Karl-Anthony-Towns-18937","50000","283.51"
"Zach-LaVine-18622","Terry-Rozier-18894","Justin-Holiday-14559","Dario-Saric-36004","Karl-Anthony-Towns-18937","Kris-Dunn-35215","Jaren-Jackson-409099","Marc-Gasol-1493","49500","283.5"
"Zach-LaVine-18622","Marcus-Smart-18567","Aaron-Gordon-18601","Dario-Saric-36004","Marc-Gasol-1493","Tyus-Jones-18938","Justin-Holiday-14559","Karl-Anthony-Towns-18937","49500","283.42"
"Zach-LaVine-18622","Terry-Rozier-18894","Andrew-Wiggins-18620","Dario-Saric-36004","Karl-Anthony-Towns-18937","Tyus-Jones-18938","Justin-Holiday-14559","Marc-Gasol-1493","49900","283.36"
"Zach-LaVine-18622","Marcus-Smart-18567","Aaron-Gordon-18601","Dario-Saric-36004","Karl-Anthony-Towns-18937","D.J.-Augustin-1064","Jayson-Tatum-37782","Marc-Gasol-1493","49700","283.35"
"Zach-LaVine-18622","Kris-Dunn-35215","Kyle-Anderson-18615","Dario-Saric-36004","Karl-Anthony-Towns-18937","Tyus-Jones-18938","Justin-Holiday-14559","Marc-Gasol-1493","49900","283.32"
"Zach-LaVine-18622","Marcus-Smart-18567","Aaron-Gordon-18601","Dario-Saric-36004","Nikola-Vucevic-13296","Justin-Holiday-14559","Jayson-Tatum-37782","Marc-Gasol-1493","50000","283.3"
"Zach-LaVine-18622","Josh-Okogie-409174","Aaron-Gordon-18601","Dario-Saric-36004","Marc-Gasol-1493","Kris-Dunn-35215","Jaren-Jackson-409099","Karl-Anthony-Towns-18937","49900","283.29"
"Zach-LaVine-18622","Justin-Holiday-14559","Aaron-Gordon-18601","Dario-Saric-36004","Marc-Gasol-1493","Kris-Dunn-35215","JaMychal-Green-18729","Karl-Anthony-Towns-18937","50000","283.25"
"Zach-LaVine-18622","Marcus-Smart-18567","Justin-Holiday-14559","Dario-Saric-36004","Nikola-Vucevic-13296","Tyus-Jones-18938","Jaren-Jackson-409099","Karl-Anthony-Towns-18937","49700","283.24"
"Zach-LaVine-18622","Justin-Holiday-14559","Jayson-Tatum-37782","Dario-Saric-36004","Karl-Anthony-Towns-18937","Tyus-Jones-18938","Jaren-Jackson-409099","Marc-Gasol-1493","49700","283.24"
"Zach-LaVine-18622","Marcus-Smart-18567","Josh-Okogie-409174","Dario-Saric-36004","Karl-Anthony-Towns-18937","Mike-Conley-1062","Jayson-Tatum-37782","Marc-Gasol-1493","50000","283.23"
"Zach-LaVine-18622","Terry-Rozier-18894","Gordon-Hayward-1239","Dario-Saric-36004","Marc-Gasol-1493","Justin-Holiday-14559","Lauri-Markkanen-37809","Karl-Anthony-Towns-18937","49900","283.2"
"Zach-LaVine-18622","Kris-Dunn-35215","Andrew-Wiggins-18620","Dario-Saric-36004","Marc-Gasol-1493","D.J.-Augustin-1064","Jaren-Jackson-409099","Karl-Anthony-Towns-18937","49900","283.18"
"Zach-LaVine-18622","Marcus-Smart-18567","Jayson-Tatum-37782","Dario-Saric-36004","Karl-Anthony-Towns-18937","D.J.-Augustin-1064","Jaren-Jackson-409099","Nikola-Vucevic-13296","49900","283.17"
"Zach-LaVine-18622","Marcus-Smart-18567","Kyle-Anderson-18615","Dario-Saric-36004","Karl-Anthony-Towns-18937","Tyus-Jones-18938","Lauri-Markkanen-37809","Marc-Gasol-1493","50000","283.15"
"Tyus-Jones-18938","Zach-LaVine-18622","Justin-Holiday-14559","Dario-Saric-36004","Karl-Anthony-Towns-18937","D.J.-Augustin-1064","Lauri-Markkanen-37809","Marc-Gasol-1493","49700","283.12"
"Zach-LaVine-18622","Marcus-Smart-18567","Justin-Holiday-14559","Dario-Saric-36004","Karl-Anthony-Towns-18937","Terry-Rozier-18894","Lauri-Markkanen-37809","Marc-Gasol-1493","49400","283.08"
"Marcus-Smart-18567","Justin-Holiday-14559","Aaron-Gordon-18601","Dario-Saric-36004","Karl-Anthony-Towns-18937","Kris-Dunn-35215","Jayson-Tatum-37782","Marc-Gasol-1493","50000","283.06"
"Zach-LaVine-18622","Josh-Okogie-409174","Aaron-Gordon-18601","Dario-Saric-36004","Marc-Gasol-1493","Kris-Dunn-35215","Justin-Holiday-14559","Karl-Anthony-Towns-18937","49700","283.04"
"Zach-LaVine-18622","Marcus-Smart-18567","Gordon-Hayward-1239","Dario-Saric-36004","Marc-Gasol-1493","Kris-Dunn-35215","Jayson-Tatum-37782","Karl-Anthony-Towns-18937","49800","283.03"
"Zach-LaVine-18622","Kris-Dunn-35215","Josh-Okogie-409174","Dario-Saric-36004","Karl-Anthony-Towns-18937","Tyus-Jones-18938","Jayson-Tatum-37782","Marc-Gasol-1493","50000","283.0"
"Zach-LaVine-18622","Marcus-Smart-18567","Kyle-Anderson-18615","Dario-Saric-36004","Marc-Gasol-1493","Kris-Dunn-35215","Andrew-Wiggins-18620","Karl-Anthony-Towns-18937","50000","282.96"
"Zach-LaVine-18622","Marcus-Smart-18567","Aaron-Gordon-18601","Jaren-Jackson-409099","Marc-Gasol-1493","Terry-Rozier-18894","Justin-Holiday-14559","Karl-Anthony-Towns-18937","49800","282.94"
"Zach-LaVine-18622","Kris-Dunn-35215","Andrew-Wiggins-18620","Dario-Saric-36004","Karl-Anthony-Towns-18937","D.J.-Augustin-1064","Justin-Holiday-14559","Marc-Gasol-1493","49700","282.93"
"Zach-LaVine-18622","Marcus-Smart-18567","Justin-Holiday-14559","Dario-Saric-36004","Nikola-Vucevic-13296","D.J.-Augustin-1064","Jayson-Tatum-37782","Karl-Anthony-Towns-18937","49700","282.92"
"Zach-LaVine-18622","Evan-Fournier-13913","Aaron-Gordon-18601","Dario-Saric-36004","Marc-Gasol-1493","Justin-Holiday-14559","Jaren-Jackson-409099","Karl-Anthony-Towns-18937","50000","282.9"
"Zach-LaVine-18622","Marcus-Smart-18567","Jayson-Tatum-37782","Dario-Saric-36004","Karl-Anthony-Towns-18937","Andrew-Wiggins-18620","Jaren-Jackson-409099","Marc-Gasol-1493","49800","282.88"
"Zach-LaVine-18622","Marcus-Smart-18567","Aaron-Gordon-18601","Dario-Saric-36004","Karl-Anthony-Towns-18937","Josh-Okogie-409174","Lauri-Markkanen-37809","Marc-Gasol-1493","49800","282.87"
"Zach-LaVine-18622","Terry-Rozier-18894","Evan-Fournier-13913","Dario-Saric-36004","Marc-Gasol-1493","Kris-Dunn-35215","Justin-Holiday-14559","Karl-Anthony-Towns-18937","49900","282.87"
"Zach-LaVine-18622","Josh-Okogie-409174","Justin-Holiday-14559","Dario-Saric-36004","Nikola-Vucevic-13296","Kris-Dunn-35215","Jaren-Jackson-409099","Karl-Anthony-Towns-18937","49900","282.86"
"Tyus-Jones-18938","Zach-LaVine-18622","Aaron-Gordon-18601","Dario-Saric-36004","Marc-Gasol-1493","D.J.-Augustin-1064","Jaren-Jackson-409099","Karl-Anthony-Towns-18937","49700","282.8"
"Zach-LaVine-18622","Marcus-Smart-18567","Andrew-Wiggins-18620","Dario-Saric-36004","Karl-Anthony-Towns-18937","D.J.-Augustin-1064","Lauri-Markkanen-37809","Marc-Gasol-1493","49800","282.76"
"Zach-LaVine-18622","Marcus-Smart-18567","Aaron-Gordon-18601","Dario-Saric-36004","Marc-Gasol-1493","Terry-Rozier-18894","Jaren-Jackson-409099","Karl-Anthony-Towns-18937","49400","282.76"
"Zach-LaVine-18622","Justin-Holiday-14559","Aaron-Gordon-18601","Dario-Saric-36004","Marc-Gasol-1493","Tyus-Jones-18938","Jaren-Jackson-409099","Nikola-Vucevic-13296","50000","282.75"
"Marcus-Smart-18567","Justin-Holiday-14559","Aaron-Gordon-18601","Dario-Saric-36004","Marc-Gasol-1493","Mike-Conley-1062","Jaren-Jackson-409099","Karl-Anthony-Towns-18937","50000","282.74"
"Zach-LaVine-18622","Marcus-Smart-18567","Gordon-Hayward-1239","Dario-Saric-36004","Karl-Anthony-Towns-18937","Mike-Conley-1062","Jaren-Jackson-409099","Marc-Gasol-1493","49800","282.71"
"Zach-LaVine-18622","Marcus-Smart-18567","Evan-Fournier-13913","Dario-Saric-36004","Karl-Anthony-Towns-18937","Terry-Rozier-18894","Lauri-Markkanen-37809","Marc-Gasol-1493","50000","282.7"
"Tyus-Jones-18938","Zach-LaVine-18622","Josh-Okogie-409174","Dario-Saric-36004","Marc-Gasol-1493","Mike-Conley-1062","Jaren-Jackson-409099","Karl-Anthony-Towns-18937","50000","282.68"
"D.J.-Augustin-1064","Zach-LaVine-18622","Kyle-Anderson-18615","Dario-Saric-36004","Karl-Anthony-Towns-18937","Mike-Conley-1062","Justin-Holiday-14559","Marc-Gasol-1493","49900","282.68"
"Zach-LaVine-18622","Terry-Rozier-18894","Kyle-Anderson-18615","Dario-Saric-36004","Karl-Anthony-Towns-18937","Kris-Dunn-35215","Jaren-Jackson-409099","Marc-Gasol-1493","49800","282.66"
"Zach-LaVine-18622","Terry-Rozier-18894","Justin-Holiday-14559","Lauri-Markkanen-37809","Marc-Gasol-1493","D.J.-Augustin-1064","Jaren-Jackson-409099","Karl-Anthony-Towns-18937","50000","282.64"
"Zach-LaVine-18622","Marcus-Smart-18567","Andrew-Wiggins-18620","Dario-Saric-36004","Marc-Gasol-1493","Justin-Holiday-14559","Jayson-Tatum-37782","Karl-Anthony-Towns-18937","49600","282.63"
"Zach-LaVine-18622","Terry-Rozier-18894","Gordon-Hayward-1239","Aaron-Gordon-18601","Karl-Anthony-Towns-18937","Justin-Holiday-14559","Dario-Saric-36004","Marc-Gasol-1493","49700","282.63"
"Zach-LaVine-18622","Terry-Rozier-18894","Gordon-Hayward-1239","Dario-Saric-36004","Marc-Gasol-1493","Tyus-Jones-18938","Jayson-Tatum-37782","Karl-Anthony-Towns-18937","50000","282.59"
"Zach-LaVine-18622","Marcus-Smart-18567","Aaron-Gordon-18601","Dario-Saric-36004","Karl-Anthony-Towns-18937","Tyus-Jones-18938","Kyle-Anderson-18615","Marc-Gasol-1493","49800","282.58"
"Tyus-Jones-18938","Zach-LaVine-18622","Aaron-Gordon-18601","Dario-Saric-36004","Marc-Gasol-1493","D.J.-Augustin-1064","Justin-Holiday-14559","Karl-Anthony-Towns-18937","49500","282.55"
"Zach-LaVine-18622","Marcus-Smart-18567","Aaron-Gordon-18601","Dario-Saric-36004","Marc-Gasol-1493","Terry-Rozier-18894","Justin-Holiday-14559","Karl-Anthony-Towns-18937","49200","282.51"
"Tyus-Jones-18938","Justin-Holiday-14559","Aaron-Gordon-18601","Dario-Saric-36004","Marc-Gasol-1493","Kris-Dunn-35215","Jaren-Jackson-409099","Karl-Anthony-Towns-18937","50000","282.51"
"Zach-LaVine-18622","Reggie-Bullock-16943","Aaron-Gordon-18601","Dario-Saric-36004","Marc-Gasol-1493","Kris-Dunn-35215","Justin-Holiday-14559","Karl-Anthony-Towns-18937","50000","282.48"
"Zach-LaVine-18622","Kris-Dunn-35215","Gordon-Hayward-1239","Dario-Saric-36004","Karl-Anthony-Towns-18937","Tyus-Jones-18938","Jaren-Jackson-409099","Marc-Gasol-1493","49800","282.48"
"Zach-LaVine-18622","Marcus-Smart-18567","Gordon-Hayward-1239","Dario-Saric-36004","Karl-Anthony-Towns-18937","Mike-Conley-1062","Justin-Holiday-14559","Marc-Gasol-1493","49600","282.46"
"Zach-LaVine-18622","Terry-Rozier-18894","Gordon-Hayward-1239","Dario-Saric-36004","Nikola-Vucevic-13296","Justin-Holiday-14559","Jaren-Jackson-409099","Karl-Anthony-Towns-18937","49900","282.45"
"Kyle-Anderson-18615","Zach-LaVine-18622","Aaron-Gordon-18601","Dario-Saric-36004","Marc-Gasol-1493","Justin-Holiday-14559","Jaren-Jackson-409099","Karl-Anthony-Towns-18937","49700","282.44"
"Zach-LaVine-18622","Josh-Okogie-409174","Jayson-Tatum-37782","Dario-Saric-36004","Karl-Anthony-Towns-18937","Justin-Holiday-14559","Lauri-Markkanen-37809","Marc-Gasol-1493","49800","282.44"
"Zach-LaVine-18622","Marcus-Smart-18567","Justin-Holiday-14559","Dario-Saric-36004","Nikola-Vucevic-13296","Josh-Okogie-409174","Lauri-Markkanen-37809","Karl-Anthony-Towns-18937","49800","282.44"
"Tyus-Jones-18938","Zach-LaVine-18622","Josh-Okogie-409174","Dario-Saric-36004","Karl-Anthony-Towns-18937","Mike-Conley-1062","Justin-Holiday-14559","Marc-Gasol-1493","49800","282.43"
"Zach-LaVine-18622","Justin-Holiday-14559","Aaron-Gordon-18601","Dario-Saric-36004","Nikola-Vucevic-13296","D.J.-Augustin-1064","Jayson-Tatum-37782","Marc-Gasol-1493","50000","282.43"
"Zach-LaVine-18622","Terry-Rozier-18894","Kyle-Anderson-18615","Dario-Saric-36004","Karl-Anthony-Towns-18937","Kris-Dunn-35215","Justin-Holiday-14559","Marc-Gasol-1493","49600","282.41"
"Zach-LaVine-18622","Marcus-Smart-18567","Kyle-Anderson-18615","Dario-Saric-36004","Karl-Anthony-Towns-18937","Tyus-Jones-18938","Jaren-Jackson-409099","Nikola-Vucevic-13296","50000","282.4"
"Zach-LaVine-18622","Andrew-Wiggins-18620","Justin-Holiday-14559","Dario-Saric-36004","Karl-Anthony-Towns-18937","Kris-Dunn-35215","Taj-Gibson-1277","Marc-Gasol-1493","50000","282.4"
"Kyle-Anderson-18615","Zach-LaVine-18622","Jayson-Tatum-37782","Dario-Saric-36004","Karl-Anthony-Towns-18937","Tyus-Jones-18938","Jaren-Jackson-409099","Marc-Gasol-1493","50000","282.4"
"Zach-LaVine-18622","Marcus-Smart-18567","Jayson-Tatum-37782","Dario-Saric-36004","Karl-Anthony-Towns-18937","Justin-Holiday-14559","Taj-Gibson-1277","Nikola-Vucevic-13296","50000","282.39"
"Zach-LaVine-18622","Marcus-Smart-18567","Andrew-Wiggins-18620","Aaron-Gordon-18601","Karl-Anthony-Towns-18937","D.J.-Augustin-1064","Justin-Holiday-14559","Marc-Gasol-1493","50000","282.37"
"Tyus-Jones-18938","Zach-LaVine-18622","Justin-Holiday-14559","Dario-Saric-36004","Nikola-Vucevic-13296","D.J.-Augustin-1064","Jaren-Jackson-409099","Karl-Anthony-Towns-18937","49700","282.37"
"D.J.-Augustin-1064","Zach-LaVine-18622","Josh-Okogie-409174","Dario-Saric-36004","Karl-Anthony-Towns-18937","Mike-Conley-1062","Jayson-Tatum-37782","Marc-Gasol-1493","50000","282.36"
"Zach-LaVine-18622","Marcus-Smart-18567","Justin-Holiday-14559","Dario-Saric-36004","Nikola-Vucevic-13296","Terry-Rozier-18894","Jaren-Jackson-409099","Karl-Anthony-Towns-18937","49400","282.33"
"Zach-LaVine-18622","Terry-Rozier-18894","Jayson-Tatum-37782","Dario-Saric-36004","Karl-Anthony-Towns-18937","Justin-Holiday-14559","Jaren-Jackson-409099","Marc-Gasol-1493","49400","282.33"
"Zach-LaVine-18622","Terry-Rozier-18894","JaMychal-Green-18729","Dario-Saric-36004","Marc-Gasol-1493","Kris-Dunn-35215","Jayson-Tatum-37782","Karl-Anthony-Towns-18937","50000","282.3"
"Tyus-Jones-18938","Zach-LaVine-18622","Kyle-Anderson-18615","Dario-Saric-36004","Karl-Anthony-Towns-18937","D.J.-Augustin-1064","Lauri-Markkanen-37809","Marc-Gasol-1493","50000","282.28"
"Zach-LaVine-18622","Marcus-Smart-18567","Jayson-Tatum-37782","Dario-Saric-36004","Marc-Gasol-1493","Kris-Dunn-35215","Jaren-Jackson-409099","Nikola-Vucevic-13296","49800","282.24"
"Zach-LaVine-18622","Terry-Rozier-18894","Aaron-Gordon-18601","Dario-Saric-36004","Karl-Anthony-Towns-18937","Josh-Okogie-409174","Andrew-Wiggins-18620","Marc-Gasol-1493","50000","282.24"
"Zach-LaVine-18622","Marcus-Smart-18567","Kyle-Anderson-18615","Dario-Saric-36004","Karl-Anthony-Towns-18937","Terry-Rozier-18894","Lauri-Markkanen-37809","Marc-Gasol-1493","49700","282.24"
"Zach-LaVine-18622","Kris-Dunn-35215","Gordon-Hayward-1239","Dario-Saric-36004","Karl-Anthony-Towns-18937","Tyus-Jones-18938","Justin-Holiday-14559","Marc-Gasol-1493","49600","282.23"
"Zach-LaVine-18622","Terry-Rozier-18894","Justin-Holiday-14559","Dario-Saric-36004","Karl-Anthony-Towns-18937","D.J.-Augustin-1064","Lauri-Markkanen-37809","Marc-Gasol-1493","49400","282.21"
"Zach-LaVine-18622","Josh-Okogie-409174","Aaron-Gordon-18601","Dario-Saric-36004","Karl-Anthony-Towns-18937","Kris-Dunn-35215","Kyle-Anderson-18615","Marc-Gasol-1493","50000","282.2"
"Marcus-Smart-18567","Kris-Dunn-35215","Aaron-Gordon-18601","Dario-Saric-36004","Nikola-Vucevic-13296","D.J.-Augustin-1064","Justin-Holiday-14559","Karl-Anthony-Towns-18937","50000","282.19"
"Zach-LaVine-18622","Marcus-Smart-18567","Aaron-Gordon-18601","Dario-Saric-36004","Karl-Anthony-Towns-18937","D.J.-Augustin-1064","Andrew-Wiggins-18620","Marc-Gasol-1493","49600","282.19"
"D.J.-Augustin-1064","Justin-Holiday-14559","Aaron-Gordon-18601","Dario-Saric-36004","Karl-Anthony-Towns-18937","Kris-Dunn-35215","Jayson-Tatum-37782","Marc-Gasol-1493","50000","282.19"
"Zach-LaVine-18622","Kris-Dunn-35215","Gordon-Hayward-1239","Dario-Saric-36004","Marc-Gasol-1493","D.J.-Augustin-1064","Jayson-Tatum-37782","Karl-Anthony-Towns-18937","49800","282.16"
"Zach-LaVine-18622","Marcus-Smart-18567","Kyle-Anderson-18615","Dario-Saric-36004","Nikola-Vucevic-13296","Tyus-Jones-18938","Justin-Holiday-14559","Karl-Anthony-Towns-18937","49800","282.15"
"Kyle-Anderson-18615","Zach-LaVine-18622","Justin-Holiday-14559","Dario-Saric-36004","Marc-Gasol-1493","Tyus-Jones-18938","Jayson-Tatum-37782","Karl-Anthony-Towns-18937","49800","282.15"
