"Terry-Rozier-18894","Jrue-Holiday-1073","Jaylen-Brown-35181","Julius-Randle-18632","Nikola-Vucevic-13296","Kris-Dunn-35215","Kenneth-Faried-13313","Jahlil-Okafor-18902","49900","300.08"
"Terry-Rozier-18894","Kris-Dunn-35215","Jayson-Tatum-37782","Julius-Randle-18632","Nikola-Vucevic-13296","Zach-LaVine-18622","Kenneth-Faried-13313","Jahlil-Okafor-18902","49900","299.05"
"Kyle-Lowry-1057","Terry-Rozier-18894","Jaylen-Brown-35181","Julius-Randle-18632","Jahlil-Okafor-18902","Kris-Dunn-35215","Noah-Vonleh-18597","Nikola-Vucevic-13296","49900","298.14"

"Terry-Rozier-18894","Jrue-Holiday-1073","Jaylen-Brown-35181","Julius-Randle-18632","Nikola-Vucevic-13296","Kris-Dunn-35215","Kenneth-Faried-13313","Jahlil-Okafor-18902","49900","300.08"
"Terry-Rozier-18894","Kris-Dunn-35215","Jayson-Tatum-37782","Julius-Randle-18632","Nikola-Vucevic-13296","Zach-LaVine-18622","Kenneth-Faried-13313","Jahlil-Okafor-18902","49900","299.05"
"Kyle-Lowry-1057","Terry-Rozier-18894","Jaylen-Brown-35181","Julius-Randle-18632","Jahlil-Okafor-18902","Kris-Dunn-35215","Noah-Vonleh-18597","Nikola-Vucevic-13296","49900","298.14"
"Kyle-Lowry-1057","Terry-Rozier-18894","Jaylen-Brown-35181","Julius-Randle-18632","Jahlil-Okafor-18902","Kris-Dunn-35215","Serge-Ibaka-1294","Nikola-Vucevic-13296","50000","298.06"
"Fred-VanVleet-36011","Terry-Rozier-18894","Jayson-Tatum-37782","Julius-Randle-18632","Nikola-Vucevic-13296","Jrue-Holiday-1073","Kenneth-Faried-13313","Jahlil-Okafor-18902","49900","297.43"
"Kyle-Lowry-1057","Terry-Rozier-18894","Jayson-Tatum-37782","Julius-Randle-18632","Nikola-Vucevic-13296","Kris-Dunn-35215","Kenneth-Faried-13313","Zaza-Pachulia-1455","49800","297.35"
"Terry-Rozier-18894","Jrue-Holiday-1073","Justin-Holiday-14559","Julius-Randle-18632","Nikola-Vucevic-13296","Zach-LaVine-18622","Kenneth-Faried-13313","Jahlil-Okafor-18902","49900","297.15"
"Terry-Rozier-18894","Jrue-Holiday-1073","Jayson-Tatum-37782","Julius-Randle-18632","Nikola-Vucevic-13296","Jaylen-Brown-35181","Kenneth-Faried-13313","Jahlil-Okafor-18902","49600","297.09"
"Kyle-Lowry-1057","Terry-Rozier-18894","Jayson-Tatum-37782","Julius-Randle-18632","Nikola-Vucevic-13296","Kris-Dunn-35215","Kenneth-Faried-13313","Jaylen-Brown-35181","49900","297.03"
"Terry-Rozier-18894","Kris-Dunn-35215","Jayson-Tatum-37782","Julius-Randle-18632","Jahlil-Okafor-18902","Zach-LaVine-18622","Jaylen-Brown-35181","Nikola-Vucevic-13296","49800","296.8"
"Terry-Rozier-18894","Kris-Dunn-35215","Josh-Richardson-18922","Julius-Randle-18632","Jahlil-Okafor-18902","Zach-LaVine-18622","Kenneth-Faried-13313","Nikola-Vucevic-13296","50000","296.79"
"Mike-Conley-1062","Terry-Rozier-18894","Jaylen-Brown-35181","Julius-Randle-18632","Nikola-Vucevic-13296","Kyle-Lowry-1057","Kenneth-Faried-13313","Jahlil-Okafor-18902","49700","296.74"
"Terry-Rozier-18894","Kris-Dunn-35215","Jaylen-Brown-35181","Julius-Randle-18632","Jahlil-Okafor-18902","Zach-LaVine-18622","Pascal-Siakam-35186","Nikola-Vucevic-13296","50000","296.58"
"Terry-Rozier-18894","Jrue-Holiday-1073","Justin-Holiday-14559","Julius-Randle-18632","Nikola-Vucevic-13296","Kris-Dunn-35215","Kenneth-Faried-13313","Jahlil-Okafor-18902","49300","296.52"
"Kyle-Lowry-1057","Terry-Rozier-18894","Marcus-Morris-13316","Julius-Randle-18632","Jahlil-Okafor-18902","Zach-LaVine-18622","Kenneth-Faried-13313","Nikola-Vucevic-13296","49800","296.45"
"Fred-VanVleet-36011","Terry-Rozier-18894","Jaylen-Brown-35181","Julius-Randle-18632","Nikola-Vucevic-13296","Jrue-Holiday-1073","Kenneth-Faried-13313","Kris-Dunn-35215","49900","296.33"
"Terry-Rozier-18894","Jrue-Holiday-1073","Jaylen-Brown-35181","Julius-Randle-18632","Nikola-Vucevic-13296","Kris-Dunn-35215","Kenneth-Faried-13313","Zaza-Pachulia-1455","49500","296.31"
"Kyle-Lowry-1057","Terry-Rozier-18894","Jaylen-Brown-35181","Kenneth-Faried-13313","Nikola-Vucevic-13296","Kris-Dunn-35215","Noah-Vonleh-18597","Julius-Randle-18632","49700","296.3"
"Kyle-Lowry-1057","Terry-Rozier-18894","Jayson-Tatum-37782","Kenneth-Faried-13313","Jahlil-Okafor-18902","Jrue-Holiday-1073","Noah-Vonleh-18597","Nikola-Vucevic-13296","49900","296.27"
"Kyle-Lowry-1057","Terry-Rozier-18894","Jaylen-Brown-35181","Kenneth-Faried-13313","Nikola-Vucevic-13296","Kris-Dunn-35215","Serge-Ibaka-1294","Julius-Randle-18632","49800","296.22"
"Kyle-Lowry-1057","Terry-Rozier-18894","Jayson-Tatum-37782","Kenneth-Faried-13313","Jahlil-Okafor-18902","Jrue-Holiday-1073","Serge-Ibaka-1294","Nikola-Vucevic-13296","50000","296.19"
"Kyle-Lowry-1057","Terry-Rozier-18894","Corey-Brewer-1278","Julius-Randle-18632","Nikola-Vucevic-13296","Jrue-Holiday-1073","Kenneth-Faried-13313","Jahlil-Okafor-18902","50000","296.16"
"Kyle-Lowry-1057","Terry-Rozier-18894","Justin-Holiday-14559","Julius-Randle-18632","Nikola-Vucevic-13296","Kris-Dunn-35215","Domantas-Sabonis-35217","Jahlil-Okafor-18902","50000","296.11"
"Terry-Rozier-18894","Kris-Dunn-35215","Jaylen-Brown-35181","Julius-Randle-18632","Jahlil-Okafor-18902","Zach-LaVine-18622","Noah-Vonleh-18597","Nikola-Vucevic-13296","49600","296.07"
"Terry-Rozier-18894","Kris-Dunn-35215","Jaylen-Brown-35181","Julius-Randle-18632","Jahlil-Okafor-18902","Zach-LaVine-18622","Serge-Ibaka-1294","Nikola-Vucevic-13296","49700","295.99"
"Kyle-Lowry-1057","Terry-Rozier-18894","Jayson-Tatum-37782","Julius-Randle-18632","Jahlil-Okafor-18902","Jrue-Holiday-1073","Kenneth-Faried-13313","Kris-Dunn-35215","49500","295.98"
"Mike-Conley-1062","Terry-Rozier-18894","Jaylen-Brown-35181","Kenneth-Faried-13313","Nikola-Vucevic-13296","Kris-Dunn-35215","Noah-Vonleh-18597","Julius-Randle-18632","50000","295.92"
"Kyle-Lowry-1057","Terry-Rozier-18894","Jayson-Tatum-37782","Julius-Randle-18632","Nikola-Vucevic-13296","Josh-Richardson-18922","Kenneth-Faried-13313","Jahlil-Okafor-18902","50000","295.87"
"Terry-Rozier-18894","Jrue-Holiday-1073","Jayson-Tatum-37782","Kenneth-Faried-13313","Nikola-Vucevic-13296","Kris-Dunn-35215","Lauri-Markkanen-37809","Jahlil-Okafor-18902","49800","295.85"
"Kyle-Lowry-1057","Terry-Rozier-18894","Marcus-Morris-13316","Julius-Randle-18632","Jahlil-Okafor-18902","Kris-Dunn-35215","Kenneth-Faried-13313","Nikola-Vucevic-13296","49200","295.82"
"Terry-Rozier-18894","Jrue-Holiday-1073","Justin-Holiday-14559","Julius-Randle-18632","Nikola-Vucevic-13296","Kris-Dunn-35215","Marcus-Morris-13316","Jahlil-Okafor-18902","49900","295.67"
"Kyle-Lowry-1057","Terry-Rozier-18894","Jayson-Tatum-37782","Julius-Randle-18632","Jahlil-Okafor-18902","Jaylen-Brown-35181","Pascal-Siakam-35186","Nikola-Vucevic-13296","50000","295.66"
"Mike-Conley-1062","Terry-Rozier-18894","Jayson-Tatum-37782","Julius-Randle-18632","Jahlil-Okafor-18902","Jrue-Holiday-1073","Kenneth-Faried-13313","Kris-Dunn-35215","49800","295.6"
"Terry-Rozier-18894","Jrue-Holiday-1073","Marcus-Morris-13316","Julius-Randle-18632","Jahlil-Okafor-18902","Jaylen-Brown-35181","Noah-Vonleh-18597","Nikola-Vucevic-13296","50000","295.51"
"Kyle-Lowry-1057","Fred-VanVleet-36011","Jayson-Tatum-37782","Julius-Randle-18632","Jahlil-Okafor-18902","Terry-Rozier-18894","Noah-Vonleh-18597","Nikola-Vucevic-13296","49900","295.49"
"Kyle-Lowry-1057","Terry-Rozier-18894","Justin-Holiday-14559","Julius-Randle-18632","Nikola-Vucevic-13296","Jrue-Holiday-1073","Kenneth-Faried-13313","Zaza-Pachulia-1455","49800","295.45"
"Mike-Conley-1062","Terry-Rozier-18894","Marcus-Morris-13316","Julius-Randle-18632","Jahlil-Okafor-18902","Kris-Dunn-35215","Kenneth-Faried-13313","Nikola-Vucevic-13296","49500","295.44"
"Kyle-Lowry-1057","Fred-VanVleet-36011","Jayson-Tatum-37782","Julius-Randle-18632","Nikola-Vucevic-13296","Terry-Rozier-18894","Serge-Ibaka-1294","Jahlil-Okafor-18902","50000","295.41"
"Kyle-Lowry-1057","Terry-Rozier-18894","Justin-Holiday-14559","Julius-Randle-18632","Jahlil-Okafor-18902","Kris-Dunn-35215","Jayson-Tatum-37782","Nikola-Vucevic-13296","49500","295.31"
"Fred-VanVleet-36011","Terry-Rozier-18894","Jayson-Tatum-37782","Julius-Randle-18632","Nikola-Vucevic-13296","Kris-Dunn-35215","Kenneth-Faried-13313","Zach-LaVine-18622","49900","295.3"
"Kyle-Lowry-1057","Terry-Rozier-18894","Jaylen-Brown-35181","Julius-Randle-18632","Jahlil-Okafor-18902","Jrue-Holiday-1073","Lauri-Markkanen-37809","Kris-Dunn-35215","50000","295.28"
"Terry-Rozier-18894","Kris-Dunn-35215","Jayson-Tatum-37782","Julius-Randle-18632","Nikola-Vucevic-13296","Zach-LaVine-18622","Kenneth-Faried-13313","Zaza-Pachulia-1455","49500","295.28"
"Kyle-Lowry-1057","Terry-Rozier-18894","Jaylen-Brown-35181","Julius-Randle-18632","Nikola-Vucevic-13296","Kris-Dunn-35215","Kenneth-Faried-13313","Hassan-Whiteside-18664","49900","295.26"
"Terry-Rozier-18894","Jrue-Holiday-1073","Jayson-Tatum-37782","Kenneth-Faried-13313","Jahlil-Okafor-18902","Kris-Dunn-35215","Montrezl-Harrell-18930","Nikola-Vucevic-13296","49900","295.25"
"Kyle-Lowry-1057","Terry-Rozier-18894","Justin-Holiday-14559","Julius-Randle-18632","Nikola-Vucevic-13296","Zach-LaVine-18622","Noah-Vonleh-18597","Jahlil-Okafor-18902","49900","295.21"
"Fred-VanVleet-36011","Terry-Rozier-18894","Jayson-Tatum-37782","Julius-Randle-18632","Jahlil-Okafor-18902","Jrue-Holiday-1073","Jaylen-Brown-35181","Nikola-Vucevic-13296","49800","295.18"
"Fred-VanVleet-36011","Terry-Rozier-18894","Josh-Richardson-18922","Julius-Randle-18632","Jahlil-Okafor-18902","Jrue-Holiday-1073","Kenneth-Faried-13313","Nikola-Vucevic-13296","50000","295.17"
"Kyle-Lowry-1057","Terry-Rozier-18894","Jaylen-Brown-35181","Kenneth-Faried-13313","Nikola-Vucevic-13296","Jrue-Holiday-1073","Noah-Vonleh-18597","Kris-Dunn-35215","49900","295.17"
"Kyle-Lowry-1057","Terry-Rozier-18894","Jayson-Tatum-37782","Julius-Randle-18632","Jahlil-Okafor-18902","Jaylen-Brown-35181","Noah-Vonleh-18597","Nikola-Vucevic-13296","49600","295.15"
"Kyle-Lowry-1057","Terry-Rozier-18894","Justin-Holiday-14559","Julius-Randle-18632","Nikola-Vucevic-13296","Jrue-Holiday-1073","Kenneth-Faried-13313","Jaylen-Brown-35181","49900","295.13"
"Kyle-Lowry-1057","Terry-Rozier-18894","Justin-Holiday-14559","Julius-Randle-18632","Jahlil-Okafor-18902","Zach-LaVine-18622","Serge-Ibaka-1294","Nikola-Vucevic-13296","50000","295.13"
"Kyle-Lowry-1057","Terry-Rozier-18894","Jayson-Tatum-37782","Julius-Randle-18632","Zaza-Pachulia-1455","Kris-Dunn-35215","Jaylen-Brown-35181","Nikola-Vucevic-13296","49700","295.1"
"Terry-Rozier-18894","Jrue-Holiday-1073","Jayson-Tatum-37782","Kenneth-Faried-13313","Nikola-Vucevic-13296","Kris-Dunn-35215","Domantas-Sabonis-35217","Jahlil-Okafor-18902","49700","295.1"
"Kyle-Lowry-1057","Terry-Rozier-18894","Jaylen-Brown-35181","Kenneth-Faried-13313","Nikola-Vucevic-13296","Jrue-Holiday-1073","Serge-Ibaka-1294","Kris-Dunn-35215","50000","295.09"
"Kyle-Lowry-1057","Terry-Rozier-18894","Justin-Holiday-14559","Julius-Randle-18632","Jahlil-Okafor-18902","Kris-Dunn-35215","Pascal-Siakam-35186","Nikola-Vucevic-13296","49700","295.09"
"Kyle-Lowry-1057","Terry-Rozier-18894","Josh-Richardson-18922","Julius-Randle-18632","Nikola-Vucevic-13296","Kris-Dunn-35215","Kenneth-Faried-13313","Zaza-Pachulia-1455","49900","295.09"
"Kyle-Lowry-1057","Terry-Rozier-18894","Jayson-Tatum-37782","Julius-Randle-18632","Nikola-Vucevic-13296","Jaylen-Brown-35181","Serge-Ibaka-1294","Jahlil-Okafor-18902","49700","295.07"
"Fred-VanVleet-36011","Terry-Rozier-18894","Jayson-Tatum-37782","Julius-Randle-18632","Jahlil-Okafor-18902","Kris-Dunn-35215","Lauri-Markkanen-37809","Nikola-Vucevic-13296","49800","295.07"
"Kyle-Lowry-1057","Terry-Rozier-18894","Jaylen-Brown-35181","Julius-Randle-18632","Nikola-Vucevic-13296","Zach-LaVine-18622","Kenneth-Faried-13313","Jahlil-Okafor-18902","49100","295.05"
"Kyle-Lowry-1057","Terry-Rozier-18894","Justin-Holiday-14559","Julius-Randle-18632","Nikola-Vucevic-13296","Kris-Dunn-35215","Lauri-Markkanen-37809","Kenneth-Faried-13313","49900","295.02"
"Terry-Rozier-18894","Jrue-Holiday-1073","Jayson-Tatum-37782","Julius-Randle-18632","Nikola-Vucevic-13296","Marcus-Smart-18567","Kenneth-Faried-13313","Jahlil-Okafor-18902","49900","294.99"
"Fred-VanVleet-36011","Terry-Rozier-18894","Jaylen-Brown-35181","Julius-Randle-18632","Jahlil-Okafor-18902","Jrue-Holiday-1073","Pascal-Siakam-35186","Nikola-Vucevic-13296","50000","294.96"
"Terry-Rozier-18894","Kris-Dunn-35215","Jayson-Tatum-37782","Julius-Randle-18632","Nikola-Vucevic-13296","Zach-LaVine-18622","Kenneth-Faried-13313","Jaylen-Brown-35181","49600","294.96"
"Mike-Conley-1062","Terry-Rozier-18894","Justin-Holiday-14559","Julius-Randle-18632","Jahlil-Okafor-18902","Kris-Dunn-35215","Jayson-Tatum-37782","Nikola-Vucevic-13296","49800","294.93"
"Terry-Rozier-18894","Jrue-Holiday-1073","Justin-Holiday-14559","Julius-Randle-18632","Nikola-Vucevic-13296","Zach-LaVine-18622","Jaylen-Brown-35181","Jahlil-Okafor-18902","49800","294.9"
"Kyle-Lowry-1057","Terry-Rozier-18894","Jaylen-Brown-35181","Julius-Randle-18632","Zaza-Pachulia-1455","Kris-Dunn-35215","Pascal-Siakam-35186","Nikola-Vucevic-13296","49900","294.88"
"Terry-Rozier-18894","Jrue-Holiday-1073","Jaylen-Brown-35181","Julius-Randle-18632","Nikola-Vucevic-13296","Josh-Richardson-18922","Kenneth-Faried-13313","Jahlil-Okafor-18902","49700","294.83"
"Kyle-Lowry-1057","Terry-Rozier-18894","Gordon-Hayward-1239","Julius-Randle-18632","Jahlil-Okafor-18902","Zach-LaVine-18622","Kenneth-Faried-13313","Nikola-Vucevic-13296","49900","294.81"
"Kyle-Lowry-1057","Terry-Rozier-18894","Jeremy-Lamb-13955","Julius-Randle-18632","Nikola-Vucevic-13296","Kris-Dunn-35215","Kenneth-Faried-13313","Jahlil-Okafor-18902","49500","294.81"
"Terry-Rozier-18894","Kris-Dunn-35215","Justin-Holiday-14559","Julius-Randle-18632","Nikola-Vucevic-13296","Zach-LaVine-18622","Lauri-Markkanen-37809","Jahlil-Okafor-18902","49800","294.79"
"Mike-Conley-1062","Terry-Rozier-18894","Jayson-Tatum-37782","Julius-Randle-18632","Jahlil-Okafor-18902","Jaylen-Brown-35181","Noah-Vonleh-18597","Nikola-Vucevic-13296","49900","294.77"
"Kyle-Lowry-1057","Terry-Rozier-18894","Jaylen-Brown-35181","Julius-Randle-18632","Nikola-Vucevic-13296","Kris-Dunn-35215","Kenneth-Faried-13313","Josh-Richardson-18922","50000","294.77"
"Terry-Rozier-18894","Kris-Dunn-35215","Jaylen-Brown-35181","Julius-Randle-18632","Kenneth-Faried-13313","Zach-LaVine-18622","Pascal-Siakam-35186","Nikola-Vucevic-13296","49800","294.74"
"Terry-Rozier-18894","Kris-Dunn-35215","Jayson-Tatum-37782","Julius-Randle-18632","Jahlil-Okafor-18902","Jaylen-Brown-35181","Lauri-Markkanen-37809","Nikola-Vucevic-13296","49500","294.73"
"Mike-Conley-1062","Terry-Rozier-18894","Jayson-Tatum-37782","Julius-Randle-18632","Zaza-Pachulia-1455","Kris-Dunn-35215","Jaylen-Brown-35181","Nikola-Vucevic-13296","50000","294.72"
"Spencer-Dinwiddie-18588","Terry-Rozier-18894","Jayson-Tatum-37782","Julius-Randle-18632","Jahlil-Okafor-18902","Kris-Dunn-35215","Noah-Vonleh-18597","Nikola-Vucevic-13296","49900","294.71"
"Mike-Conley-1062","Terry-Rozier-18894","Justin-Holiday-14559","Julius-Randle-18632","Jahlil-Okafor-18902","Kris-Dunn-35215","Pascal-Siakam-35186","Nikola-Vucevic-13296","50000","294.71"
"Terry-Rozier-18894","Jrue-Holiday-1073","Jayson-Tatum-37782","Kenneth-Faried-13313","Jahlil-Okafor-18902","Zach-LaVine-18622","Pascal-Siakam-35186","Nikola-Vucevic-13296","50000","294.71"
"Mike-Conley-1062","Terry-Rozier-18894","Jayson-Tatum-37782","Julius-Randle-18632","Nikola-Vucevic-13296","Jaylen-Brown-35181","Serge-Ibaka-1294","Jahlil-Okafor-18902","50000","294.69"
"Mike-Conley-1062","Terry-Rozier-18894","Jaylen-Brown-35181","Julius-Randle-18632","Nikola-Vucevic-13296","Zach-LaVine-18622","Kenneth-Faried-13313","Jahlil-Okafor-18902","49400","294.67"
"Spencer-Dinwiddie-18588","Terry-Rozier-18894","Jayson-Tatum-37782","Julius-Randle-18632","Nikola-Vucevic-13296","Kris-Dunn-35215","Serge-Ibaka-1294","Jahlil-Okafor-18902","50000","294.63"
"Terry-Rozier-18894","Zach-LaVine-18622","Jayson-Tatum-37782","Julius-Randle-18632","Jahlil-Okafor-18902","Jaylen-Brown-35181","Domantas-Sabonis-35217","Nikola-Vucevic-13296","50000","294.61"
"Kyle-Lowry-1057","Terry-Rozier-18894","Justin-Holiday-14559","Julius-Randle-18632","Nikola-Vucevic-13296","Kris-Dunn-35215","Noah-Vonleh-18597","Jahlil-Okafor-18902","49300","294.58"
"Terry-Rozier-18894","Kris-Dunn-35215","Jaylen-Brown-35181","Julius-Randle-18632","Nikola-Vucevic-13296","Zach-LaVine-18622","Lauri-Markkanen-37809","Zaza-Pachulia-1455","50000","294.58"
"Terry-Rozier-18894","Kris-Dunn-35215","Josh-Richardson-18922","Julius-Randle-18632","Jahlil-Okafor-18902","Zach-LaVine-18622","Jaylen-Brown-35181","Nikola-Vucevic-13296","49900","294.54"
"Kyle-Lowry-1057","Terry-Rozier-18894","Jayson-Tatum-37782","Julius-Randle-18632","Jahlil-Okafor-18902","Jrue-Holiday-1073","Lauri-Markkanen-37809","Kenneth-Faried-13313","49800","294.54"
"Kyle-Lowry-1057","Terry-Rozier-18894","Jaylen-Brown-35181","Julius-Randle-18632","Jahlil-Okafor-18902","Jrue-Holiday-1073","Domantas-Sabonis-35217","Kris-Dunn-35215","49900","294.53"
"Kyle-Lowry-1057","Terry-Rozier-18894","Darius-Miller-13951","Julius-Randle-18632","Jahlil-Okafor-18902","Jrue-Holiday-1073","Kenneth-Faried-13313","Nikola-Vucevic-13296","49900","294.5"
"Kyle-Lowry-1057","Terry-Rozier-18894","Justin-Holiday-14559","Julius-Randle-18632","Jahlil-Okafor-18902","Kris-Dunn-35215","Serge-Ibaka-1294","Nikola-Vucevic-13296","49400","294.5"
"Fred-VanVleet-36011","Terry-Rozier-18894","Jayson-Tatum-37782","Julius-Randle-18632","Jahlil-Okafor-18902","Kris-Dunn-35215","Montrezl-Harrell-18930","Nikola-Vucevic-13296","49900","294.47"
"Fred-VanVleet-36011","Terry-Rozier-18894","Jaylen-Brown-35181","Julius-Randle-18632","Jahlil-Okafor-18902","Jrue-Holiday-1073","Noah-Vonleh-18597","Nikola-Vucevic-13296","49600","294.45"
"Mike-Conley-1062","Terry-Rozier-18894","Jeremy-Lamb-13955","Julius-Randle-18632","Nikola-Vucevic-13296","Kris-Dunn-35215","Kenneth-Faried-13313","Jahlil-Okafor-18902","49800","294.43"
"Kyle-Lowry-1057","Terry-Rozier-18894","Justin-Holiday-14559","Julius-Randle-18632","Nikola-Vucevic-13296","Kris-Dunn-35215","Kenneth-Faried-13313","Montrezl-Harrell-18930","50000","294.42"
"Kyle-Lowry-1057","Terry-Rozier-18894","Jaylen-Brown-35181","Julius-Randle-18632","Nikola-Vucevic-13296","Kris-Dunn-35215","Kenneth-Faried-13313","Jahlil-Okafor-18902","48500","294.42"
"Kyle-Lowry-1057","Terry-Rozier-18894","Marcus-Morris-13316","Julius-Randle-18632","Jahlil-Okafor-18902","Jrue-Holiday-1073","Noah-Vonleh-18597","Kris-Dunn-35215","49900","294.4"
"Terry-Rozier-18894","Jrue-Holiday-1073","Jayson-Tatum-37782","Julius-Randle-18632","Nikola-Vucevic-13296","Jaylen-Brown-35181","Kenneth-Faried-13313","Marcus-Morris-13316","50000","294.4"
"Kyle-Lowry-1057","Fred-VanVleet-36011","Jaylen-Brown-35181","Julius-Randle-18632","Nikola-Vucevic-13296","Kris-Dunn-35215","Noah-Vonleh-18597","Terry-Rozier-18894","49900","294.39"
"Mike-Conley-1062","Terry-Rozier-18894","Marcus-Morris-13316","Julius-Randle-18632","Nikola-Vucevic-13296","Kyle-Lowry-1057","Kenneth-Faried-13313","Zaza-Pachulia-1455","50000","294.37"
"Kyle-Lowry-1057","Terry-Rozier-18894","Jaylen-Brown-35181","Julius-Randle-18632","Nikola-Vucevic-13296","Kris-Dunn-35215","Noah-Vonleh-18597","Zaza-Pachulia-1455","49500","294.37"
"Fred-VanVleet-36011","Terry-Rozier-18894","Jaylen-Brown-35181","Julius-Randle-18632","Jahlil-Okafor-18902","Jrue-Holiday-1073","Serge-Ibaka-1294","Nikola-Vucevic-13296","49700","294.37"
