"Darren-Collison-1060","Justin-Holiday-14559","Darius-Miller-13951","Domantas-Sabonis-35217","Nikola-Jokic-31812","Tim-Frazier-18743","Kyle-Anderson-18615","Karl-Anthony-Towns-18937","49800","272.25"
"Darren-Collison-1060","Bradley-Beal-13898","Darius-Miller-13951","Domantas-Sabonis-35217","Nikola-Jokic-31812","Tim-Frazier-18743","Justin-Holiday-14559","Jahlil-Okafor-18902","50000","272.12"
"Tim-Frazier-18743","Justin-Holiday-14559","Kyle-Anderson-18615","Domantas-Sabonis-35217","Jahlil-Okafor-18902","Bradley-Beal-13898","Otto-Porter-17069","Karl-Anthony-Towns-18937","49900","271.8"
"Kyle-Anderson-18615","Bojan-Bogdanovic-18571","Darius-Miller-13951","Otto-Porter-17069","Nikola-Jokic-31812","Bradley-Beal-13898","Justin-Holiday-14559","Jahlil-Okafor-18902","50000","271.77"
"Cory-Joseph-13339","Bradley-Beal-13898","Justin-Holiday-14559","Darius-Miller-13951","Nikola-Jokic-31812","Tim-Frazier-18743","Kyle-Anderson-18615","Karl-Anthony-Towns-18937","50000","271.76"

"Darren-Collison-1060","Justin-Holiday-14559","Darius-Miller-13951","Domantas-Sabonis-35217","Nikola-Jokic-31812","Tim-Frazier-18743","Kyle-Anderson-18615","Karl-Anthony-Towns-18937","49800","272.25"
"Darren-Collison-1060","Bradley-Beal-13898","Darius-Miller-13951","Domantas-Sabonis-35217","Nikola-Jokic-31812","Tim-Frazier-18743","Justin-Holiday-14559","Jahlil-Okafor-18902","50000","272.12"
"Tim-Frazier-18743","Justin-Holiday-14559","Kyle-Anderson-18615","Domantas-Sabonis-35217","Jahlil-Okafor-18902","Bradley-Beal-13898","Otto-Porter-17069","Karl-Anthony-Towns-18937","49900","271.8"
"Kyle-Anderson-18615","Bojan-Bogdanovic-18571","Darius-Miller-13951","Otto-Porter-17069","Nikola-Jokic-31812","Bradley-Beal-13898","Justin-Holiday-14559","Jahlil-Okafor-18902","50000","271.77"
"Cory-Joseph-13339","Bradley-Beal-13898","Justin-Holiday-14559","Darius-Miller-13951","Nikola-Jokic-31812","Tim-Frazier-18743","Kyle-Anderson-18615","Karl-Anthony-Towns-18937","50000","271.76"
"Kyle-Anderson-18615","Bradley-Beal-13898","Bojan-Bogdanovic-18571","Domantas-Sabonis-35217","Nikola-Jokic-31812","Tim-Frazier-18743","Justin-Holiday-14559","Jahlil-Okafor-18902","50000","271.67"
"Darren-Collison-1060","Bradley-Beal-13898","Darius-Miller-13951","Paul-Millsap-1335","Nikola-Jokic-31812","Kyle-Anderson-18615","Justin-Holiday-14559","Jahlil-Okafor-18902","50000","271.5"
"Kyle-Anderson-18615","Justin-Holiday-14559","Darius-Miller-13951","Jaren-Jackson-409099","Jahlil-Okafor-18902","Bradley-Beal-13898","Otto-Porter-17069","Nikola-Jokic-31812","49900","271.46"
"Darren-Collison-1060","Bradley-Beal-13898","Justin-Holiday-14559","Otto-Porter-17069","Nikola-Jokic-31812","Tim-Frazier-18743","Kyle-Anderson-18615","Domantas-Sabonis-35217","49800","271.46"
"Ian-Clark-16922","Justin-Holiday-14559","Kyle-Anderson-18615","Domantas-Sabonis-35217","Jahlil-Okafor-18902","Bradley-Beal-13898","Otto-Porter-17069","Nikola-Jokic-31812","50000","271.39"
"Kyle-Anderson-18615","Bradley-Beal-13898","Justin-Holiday-14559","Jaren-Jackson-409099","Nikola-Jokic-31812","Tim-Frazier-18743","Domantas-Sabonis-35217","Jahlil-Okafor-18902","49900","271.36"
"Darren-Collison-1060","Justin-Holiday-14559","Darius-Miller-13951","Otto-Porter-17069","Karl-Anthony-Towns-18937","Cory-Joseph-13339","Kyle-Anderson-18615","Nikola-Jokic-31812","50000","271.34"
"Darren-Collison-1060","Bojan-Bogdanovic-18571","Kyle-Anderson-18615","Domantas-Sabonis-35217","Jahlil-Okafor-18902","Justin-Holiday-14559","Otto-Porter-17069","Nikola-Jokic-31812","50000","271.25"
"Darren-Collison-1060","Tim-Frazier-18743","Justin-Holiday-14559","Domantas-Sabonis-35217","Nikola-Jokic-31812","Cory-Joseph-13339","Kyle-Anderson-18615","Karl-Anthony-Towns-18937","50000","271.24"
"Kyle-Anderson-18615","Bradley-Beal-13898","Darius-Miller-13951","Dario-Saric-36004","Nikola-Jokic-31812","Tim-Frazier-18743","Justin-Holiday-14559","Karl-Anthony-Towns-18937","49900","271.18"
"Kyle-Anderson-18615","Gary-Harris-18617","Darius-Miller-13951","Otto-Porter-17069","Nikola-Jokic-31812","Bradley-Beal-13898","Justin-Holiday-14559","Jahlil-Okafor-18902","50000","271.09"
"Kyle-Anderson-18615","Bradley-Beal-13898","Darius-Miller-13951","Domantas-Sabonis-35217","Jahlil-Okafor-18902","Tim-Frazier-18743","Otto-Porter-17069","Nikola-Jokic-31812","49700","271.04"
"Tim-Frazier-18743","Gary-Harris-18617","Justin-Holiday-14559","Domantas-Sabonis-35217","Nikola-Jokic-31812","Bradley-Beal-13898","Kyle-Anderson-18615","Jahlil-Okafor-18902","50000","270.99"
"Darren-Collison-1060","Justin-Holiday-14559","Otto-Porter-17069","Jaren-Jackson-409099","Jahlil-Okafor-18902","Kyle-Anderson-18615","Domantas-Sabonis-35217","Nikola-Jokic-31812","49900","270.94"
"Kyle-Anderson-18615","Bojan-Bogdanovic-18571","Josh-Okogie-409174","Domantas-Sabonis-35217","Nikola-Jokic-31812","Justin-Holiday-14559","Darius-Miller-13951","Karl-Anthony-Towns-18937","50000","270.93"
"Darren-Collison-1060","Bradley-Beal-13898","Darius-Miller-13951","Domantas-Sabonis-35217","Jahlil-Okafor-18902","Tim-Frazier-18743","Kyle-Anderson-18615","Karl-Anthony-Towns-18937","49900","270.87"
"Kyle-Anderson-18615","Bradley-Beal-13898","Josh-Okogie-409174","Domantas-Sabonis-35217","Jahlil-Okafor-18902","Tim-Frazier-18743","Otto-Porter-17069","Nikola-Jokic-31812","50000","270.82"
"Darren-Collison-1060","Justin-Holiday-14559","Darius-Miller-13951","Dario-Saric-36004","Nikola-Jokic-31812","Kyle-Anderson-18615","Otto-Porter-17069","Karl-Anthony-Towns-18937","49900","270.76"
"Darren-Collison-1060","Justin-Holiday-14559","Bruno-Caboclo-18581","Domantas-Sabonis-35217","Karl-Anthony-Towns-18937","Kyle-Anderson-18615","Darius-Miller-13951","Nikola-Jokic-31812","49900","270.73"
"Darren-Collison-1060","Justin-Holiday-14559","Kyle-Anderson-18615","Domantas-Sabonis-35217","Nikola-Jokic-31812","Tim-Frazier-18743","Dario-Saric-36004","Karl-Anthony-Towns-18937","49900","270.66"
"Darren-Collison-1060","Bradley-Beal-13898","Justin-Holiday-14559","Otto-Porter-17069","Jahlil-Okafor-18902","Tim-Frazier-18743","Kyle-Anderson-18615","Karl-Anthony-Towns-18937","49800","270.64"
"Kyle-Anderson-18615","Josh-Okogie-409174","Darius-Miller-13951","Jaren-Jackson-409099","Karl-Anthony-Towns-18937","Justin-Holiday-14559","Domantas-Sabonis-35217","Nikola-Jokic-31812","49900","270.62"
"Darren-Collison-1060","Justin-Holiday-14559","Josh-Okogie-409174","Domantas-Sabonis-35217","Nikola-Jokic-31812","Bradley-Beal-13898","Darius-Miller-13951","Otto-Porter-17069","50000","270.59"
"Darren-Collison-1060","Gary-Harris-18617","Kyle-Anderson-18615","Domantas-Sabonis-35217","Jahlil-Okafor-18902","Justin-Holiday-14559","Otto-Porter-17069","Nikola-Jokic-31812","50000","270.57"
"Frank-Jackson-37855","Justin-Holiday-14559","Darius-Miller-13951","Domantas-Sabonis-35217","Nikola-Jokic-31812","Darren-Collison-1060","Kyle-Anderson-18615","Karl-Anthony-Towns-18937","50000","270.56"
"Jrue-Holiday-1073","Bradley-Beal-13898","Justin-Holiday-14559","Otto-Porter-17069","Nikola-Jokic-31812","Tim-Frazier-18743","Kyle-Anderson-18615","Darius-Miller-13951","50000","270.55"
"Darren-Collison-1060","Ian-Clark-16922","Darius-Miller-13951","Domantas-Sabonis-35217","Jahlil-Okafor-18902","Bradley-Beal-13898","Kyle-Anderson-18615","Nikola-Jokic-31812","50000","270.46"
"Kyle-Anderson-18615","Justin-Holiday-14559","Darius-Miller-13951","Paul-Millsap-1335","Jahlil-Okafor-18902","Bradley-Beal-13898","Domantas-Sabonis-35217","Karl-Anthony-Towns-18937","49800","270.43"
"Kyle-Anderson-18615","Justin-Holiday-14559","Bojan-Bogdanovic-18571","Darius-Miller-13951","Domantas-Sabonis-35217","Bradley-Beal-13898","Otto-Porter-17069","Nikola-Jokic-31812","49700","270.36"
"Tim-Frazier-18743","Justin-Holiday-14559","Darius-Miller-13951","Domantas-Sabonis-35217","Nikola-Jokic-31812","Tomas-Satoransky--36031","Kyle-Anderson-18615","Karl-Anthony-Towns-18937","49800","270.29"
"Kyle-Anderson-18615","Justin-Holiday-14559","Bruno-Caboclo-18581","Domantas-Sabonis-35217","Jahlil-Okafor-18902","Bradley-Beal-13898","Otto-Porter-17069","Karl-Anthony-Towns-18937","50000","270.28"
"Kyle-Anderson-18615","Gary-Harris-18617","Josh-Okogie-409174","Domantas-Sabonis-35217","Nikola-Jokic-31812","Justin-Holiday-14559","Darius-Miller-13951","Karl-Anthony-Towns-18937","50000","270.25"
"Darren-Collison-1060","Ian-Clark-16922","Justin-Holiday-14559","Otto-Porter-17069","Nikola-Jokic-31812","Bradley-Beal-13898","Kyle-Anderson-18615","Jahlil-Okafor-18902","49900","270.23"
"Darren-Collison-1060","Bradley-Beal-13898","Darius-Miller-13951","Dario-Saric-36004","Nikola-Jokic-31812","Kyle-Anderson-18615","Otto-Porter-17069","Domantas-Sabonis-35217","50000","270.2"
"Darren-Collison-1060","Bradley-Beal-13898","Justin-Holiday-14559","Jaren-Jackson-409099","Jahlil-Okafor-18902","Tim-Frazier-18743","Kyle-Anderson-18615","Nikola-Jokic-31812","49800","270.2"
"Darren-Collison-1060","Justin-Holiday-14559","Bojan-Bogdanovic-18571","Domantas-Sabonis-35217","Karl-Anthony-Towns-18937","Bradley-Beal-13898","Darius-Miller-13951","Kyle-Anderson-18615","49900","270.19"
"Kyle-Anderson-18615","Justin-Holiday-14559","Darius-Miller-13951","Domantas-Sabonis-35217","Karl-Anthony-Towns-18937","Tim-Frazier-18743","Otto-Porter-17069","Nikola-Jokic-31812","49300","270.19"
"Tim-Frazier-18743","Bradley-Beal-13898","Darius-Miller-13951","Domantas-Sabonis-35217","Nikola-Jokic-31812","Tomas-Satoransky--36031","Justin-Holiday-14559","Jahlil-Okafor-18902","50000","270.16"
"Kyle-Anderson-18615","Justin-Holiday-14559","Bojan-Bogdanovic-18571","Otto-Porter-17069","Nikola-Jokic-31812","Bradley-Beal-13898","Josh-Okogie-409174","Domantas-Sabonis-35217","50000","270.14"
"Cory-Joseph-13339","Justin-Holiday-14559","Bojan-Bogdanovic-18571","Domantas-Sabonis-35217","Karl-Anthony-Towns-18937","Kyle-Anderson-18615","Darius-Miller-13951","Nikola-Jokic-31812","49900","270.14"
"Cory-Joseph-13339","Justin-Holiday-14559","Darius-Miller-13951","Domantas-Sabonis-35217","Jahlil-Okafor-18902","Bradley-Beal-13898","Otto-Porter-17069","Karl-Anthony-Towns-18937","50000","270.14"
"Darren-Collison-1060","Justin-Holiday-14559","Kyle-Anderson-18615","Paul-Millsap-1335","Nikola-Jokic-31812","Bradley-Beal-13898","Domantas-Sabonis-35217","Darius-Miller-13951","49700","270.09"
"Tim-Frazier-18743","Justin-Holiday-14559","Darius-Miller-13951","Domantas-Sabonis-35217","Jahlil-Okafor-18902","Bradley-Beal-13898","Otto-Porter-17069","Nikola-Jokic-31812","49500","270.06"
"Kyle-Anderson-18615","Justin-Holiday-14559","Darius-Miller-13951","Jaren-Jackson-409099","Domantas-Sabonis-35217","Bradley-Beal-13898","Otto-Porter-17069","Nikola-Jokic-31812","49600","270.05"
"Cory-Joseph-13339","Bradley-Beal-13898","Kyle-Anderson-18615","Domantas-Sabonis-35217","Jahlil-Okafor-18902","Tim-Frazier-18743","Otto-Porter-17069","Nikola-Jokic-31812","49900","270.03"
"Jrue-Holiday-1073","Tim-Frazier-18743","Justin-Holiday-14559","Otto-Porter-17069","Nikola-Jokic-31812","Darren-Collison-1060","Kyle-Anderson-18615","Domantas-Sabonis-35217","50000","270.03"
"Kyle-Anderson-18615","Justin-Holiday-14559","Josh-Okogie-409174","Domantas-Sabonis-35217","Karl-Anthony-Towns-18937","Tim-Frazier-18743","Otto-Porter-17069","Nikola-Jokic-31812","49600","269.97"
"Darren-Collison-1060","Justin-Holiday-14559","Bruno-Caboclo-18581","Otto-Porter-17069","Nikola-Jokic-31812","Bradley-Beal-13898","Kyle-Anderson-18615","Domantas-Sabonis-35217","49900","269.94"
"Ian-Clark-16922","Justin-Holiday-14559","Josh-Okogie-409174","Darius-Miller-13951","Nikola-Jokic-31812","Bradley-Beal-13898","Kyle-Anderson-18615","Karl-Anthony-Towns-18937","49900","269.91"
"Darren-Collison-1060","Bradley-Beal-13898","Darius-Miller-13951","Domantas-Sabonis-35217","Karl-Anthony-Towns-18937","Tim-Frazier-18743","Justin-Holiday-14559","Jahlil-Okafor-18902","49700","269.89"
"Darren-Collison-1060","Bradley-Beal-13898","Darius-Miller-13951","Otto-Porter-17069","Jahlil-Okafor-18902","Tim-Frazier-18743","Kyle-Anderson-18615","Nikola-Jokic-31812","49600","269.88"
"Darren-Collison-1060","Justin-Holiday-14559","Darius-Miller-13951","Jaren-Jackson-409099","Karl-Anthony-Towns-18937","Bradley-Beal-13898","Kyle-Anderson-18615","Domantas-Sabonis-35217","49800","269.88"
"Darren-Collison-1060","Josh-Okogie-409174","Kyle-Anderson-18615","Paul-Millsap-1335","Nikola-Jokic-31812","Justin-Holiday-14559","Domantas-Sabonis-35217","Bradley-Beal-13898","50000","269.87"
"Kyle-Anderson-18615","Justin-Holiday-14559","Otto-Porter-17069","Jaren-Jackson-409099","Nikola-Jokic-31812","Bradley-Beal-13898","Dario-Saric-36004","Jahlil-Okafor-18902","50000","269.87"
"Darren-Collison-1060","Bradley-Beal-13898","Justin-Holiday-14559","Thaddeus-Young-1289","Nikola-Jokic-31812","Tim-Frazier-18743","Kyle-Anderson-18615","Jahlil-Okafor-18902","50000","269.85"
"Tim-Frazier-18743","Justin-Holiday-14559","Josh-Okogie-409174","Domantas-Sabonis-35217","Jahlil-Okafor-18902","Bradley-Beal-13898","Otto-Porter-17069","Nikola-Jokic-31812","49800","269.84"
"Kyle-Anderson-18615","Justin-Holiday-14559","Bruno-Caboclo-18581","Jaren-Jackson-409099","Jahlil-Okafor-18902","Bradley-Beal-13898","Domantas-Sabonis-35217","Nikola-Jokic-31812","50000","269.84"
"Kyle-Anderson-18615","Justin-Holiday-14559","Josh-Okogie-409174","Jaren-Jackson-409099","Domantas-Sabonis-35217","Bradley-Beal-13898","Otto-Porter-17069","Nikola-Jokic-31812","49900","269.83"
"Cory-Joseph-13339","Justin-Holiday-14559","Darius-Miller-13951","Jaren-Jackson-409099","Karl-Anthony-Towns-18937","Kyle-Anderson-18615","Domantas-Sabonis-35217","Nikola-Jokic-31812","49800","269.83"
"Darren-Collison-1060","Bradley-Beal-13898","Darius-Miller-13951","Otto-Porter-17069","Domantas-Sabonis-35217","Cory-Joseph-13339","Justin-Holiday-14559","Nikola-Jokic-31812","49900","269.8"
"Darren-Collison-1060","Josh-Okogie-409174","Darius-Miller-13951","Otto-Porter-17069","Karl-Anthony-Towns-18937","Bradley-Beal-13898","Justin-Holiday-14559","Jahlil-Okafor-18902","50000","269.77"
"Frank-Jackson-37855","Bradley-Beal-13898","Justin-Holiday-14559","Otto-Porter-17069","Nikola-Jokic-31812","Darren-Collison-1060","Kyle-Anderson-18615","Domantas-Sabonis-35217","50000","269.77"
"Darren-Collison-1060","Bojan-Bogdanovic-18571","Josh-Okogie-409174","Darius-Miller-13951","Nikola-Jokic-31812","Justin-Holiday-14559","Kyle-Anderson-18615","Karl-Anthony-Towns-18937","49900","269.77"
"Darren-Collison-1060","Justin-Holiday-14559","Darius-Miller-13951","Domantas-Sabonis-35217","Jahlil-Okafor-18902","Tomas-Satoransky--36031","Otto-Porter-17069","Nikola-Jokic-31812","50000","269.74"
"Darren-Collison-1060","Tim-Frazier-18743","Darius-Miller-13951","Paul-Millsap-1335","Karl-Anthony-Towns-18937","Kyle-Anderson-18615","Otto-Porter-17069","Nikola-Jokic-31812","49900","269.72"
"Cory-Joseph-13339","Justin-Holiday-14559","Darius-Miller-13951","Jaren-Jackson-409099","Nikola-Jokic-31812","Bradley-Beal-13898","Domantas-Sabonis-35217","Jahlil-Okafor-18902","50000","269.7"
"Kyle-Anderson-18615","Justin-Holiday-14559","Thaddeus-Young-1289","Darius-Miller-13951","Nikola-Jokic-31812","Bradley-Beal-13898","Otto-Porter-17069","Domantas-Sabonis-35217","49800","269.7"
"Kyle-Anderson-18615","Gary-Harris-18617","Darius-Miller-13951","Otto-Porter-17069","Domantas-Sabonis-35217","Bradley-Beal-13898","Justin-Holiday-14559","Nikola-Jokic-31812","49700","269.68"
"Darren-Collison-1060","Bradley-Beal-13898","Josh-Okogie-409174","Domantas-Sabonis-35217","Jahlil-Okafor-18902","Tim-Frazier-18743","Justin-Holiday-14559","Karl-Anthony-Towns-18937","50000","269.67"
"Darren-Collison-1060","Bradley-Beal-13898","Josh-Okogie-409174","Otto-Porter-17069","Jahlil-Okafor-18902","Tim-Frazier-18743","Kyle-Anderson-18615","Nikola-Jokic-31812","49900","269.66"
"Kyle-Anderson-18615","Justin-Holiday-14559","Bruno-Caboclo-18581","Darius-Miller-13951","Nikola-Jokic-31812","Bradley-Beal-13898","Dario-Saric-36004","Karl-Anthony-Towns-18937","50000","269.66"
"Darren-Collison-1060","Tim-Frazier-18743","Justin-Holiday-14559","Darius-Miller-13951","Karl-Anthony-Towns-18937","Kyle-Anderson-18615","Andrew-Wiggins-18620","Nikola-Jokic-31812","50000","269.64"
"Jrue-Holiday-1073","Tim-Frazier-18743","Darius-Miller-13951","Domantas-Sabonis-35217","Jahlil-Okafor-18902","Kyle-Anderson-18615","Otto-Porter-17069","Nikola-Jokic-31812","49900","269.61"
"Darren-Collison-1060","Ian-Clark-16922","Darius-Miller-13951","Domantas-Sabonis-35217","Nikola-Jokic-31812","Justin-Holiday-14559","Kyle-Anderson-18615","Karl-Anthony-Towns-18937","49600","269.61"
"Tim-Frazier-18743","Bojan-Bogdanovic-18571","Darius-Miller-13951","Jaren-Jackson-409099","Karl-Anthony-Towns-18937","Justin-Holiday-14559","Domantas-Sabonis-35217","Nikola-Jokic-31812","50000","269.56"
"Darren-Collison-1060","Bradley-Beal-13898","Justin-Holiday-14559","Darius-Miller-13951","Jahlil-Okafor-18902","Jerryd-Bayless-1021","Kyle-Anderson-18615","Nikola-Jokic-31812","50000","269.56"
"Kyle-Anderson-18615","Bojan-Bogdanovic-18571","Darius-Miller-13951","Domantas-Sabonis-35217","Nikola-Jokic-31812","Justin-Holiday-14559","Dario-Saric-36004","Karl-Anthony-Towns-18937","49800","269.56"
"Kyle-Anderson-18615","Bradley-Beal-13898","Darius-Miller-13951","Paul-Millsap-1335","Nikola-Jokic-31812","Tomas-Satoransky--36031","Justin-Holiday-14559","Jahlil-Okafor-18902","50000","269.54"
"Kyle-Anderson-18615","Bojan-Bogdanovic-18571","Darius-Miller-13951","Otto-Porter-17069","Karl-Anthony-Towns-18937","Bradley-Beal-13898","Justin-Holiday-14559","Jahlil-Okafor-18902","49700","269.54"
"Darren-Collison-1060","Justin-Holiday-14559","Thaddeus-Young-1289","Domantas-Sabonis-35217","Karl-Anthony-Towns-18937","Bradley-Beal-13898","Darius-Miller-13951","Kyle-Anderson-18615","50000","269.53"
"Darren-Collison-1060","Gary-Harris-18617","Justin-Holiday-14559","Darius-Miller-13951","Domantas-Sabonis-35217","Bradley-Beal-13898","Kyle-Anderson-18615","Karl-Anthony-Towns-18937","49900","269.51"
"Tim-Frazier-18743","Bradley-Beal-13898","Justin-Holiday-14559","Otto-Porter-17069","Nikola-Jokic-31812","Tomas-Satoransky--36031","Kyle-Anderson-18615","Domantas-Sabonis-35217","49800","269.5"
"Darren-Collison-1060","Ian-Clark-16922","Darius-Miller-13951","Domantas-Sabonis-35217","Nikola-Jokic-31812","Bradley-Beal-13898","Justin-Holiday-14559","Jahlil-Okafor-18902","49800","269.48"
"Cory-Joseph-13339","Justin-Holiday-14559","Thaddeus-Young-1289","Domantas-Sabonis-35217","Karl-Anthony-Towns-18937","Kyle-Anderson-18615","Darius-Miller-13951","Nikola-Jokic-31812","50000","269.48"
"Cory-Joseph-13339","Gary-Harris-18617","Darius-Miller-13951","Domantas-Sabonis-35217","Nikola-Jokic-31812","Justin-Holiday-14559","Kyle-Anderson-18615","Karl-Anthony-Towns-18937","49900","269.46"
"Kyle-Anderson-18615","Gary-Harris-18617","Josh-Okogie-409174","Otto-Porter-17069","Domantas-Sabonis-35217","Bradley-Beal-13898","Justin-Holiday-14559","Nikola-Jokic-31812","50000","269.46"
"Darren-Collison-1060","Justin-Holiday-14559","Josh-Okogie-409174","Jaren-Jackson-409099","Karl-Anthony-Towns-18937","Kyle-Anderson-18615","Darius-Miller-13951","Nikola-Jokic-31812","49800","269.46"
"Kyle-Anderson-18615","Bradley-Beal-13898","Otto-Porter-17069","Domantas-Sabonis-35217","Jahlil-Okafor-18902","Tim-Frazier-18743","Dario-Saric-36004","Nikola-Jokic-31812","49800","269.45"
"Kyle-Anderson-18615","Josh-Okogie-409174","Darius-Miller-13951","Paul-Millsap-1335","Nikola-Jokic-31812","Bradley-Beal-13898","Domantas-Sabonis-35217","Jahlil-Okafor-18902","49900","269.45"
"Tim-Frazier-18743","Justin-Holiday-14559","Bojan-Bogdanovic-18571","Domantas-Sabonis-35217","Karl-Anthony-Towns-18937","Bradley-Beal-13898","Kyle-Anderson-18615","Jahlil-Okafor-18902","49700","269.44"
"Kyle-Anderson-18615","Justin-Holiday-14559","Darius-Miller-13951","Paul-Millsap-1335","Nikola-Jokic-31812","Bradley-Beal-13898","Otto-Porter-17069","Jahlil-Okafor-18902","49500","269.44"
"Darren-Collison-1060","Bradley-Beal-13898","Darius-Miller-13951","Otto-Porter-17069","Karl-Anthony-Towns-18937","Tomas-Satoransky--36031","Justin-Holiday-14559","Kyle-Anderson-18615","50000","269.43"
"Cory-Joseph-13339","Justin-Holiday-14559","Kyle-Anderson-18615","Paul-Millsap-1335","Jahlil-Okafor-18902","Bradley-Beal-13898","Domantas-Sabonis-35217","Karl-Anthony-Towns-18937","50000","269.42"
"Darren-Collison-1060","Ian-Clark-16922","Josh-Okogie-409174","Domantas-Sabonis-35217","Nikola-Jokic-31812","Justin-Holiday-14559","Kyle-Anderson-18615","Karl-Anthony-Towns-18937","49900","269.39"
"Cory-Joseph-13339","Tomas-Satoransky--36031","Darius-Miller-13951","Otto-Porter-17069","Karl-Anthony-Towns-18937","Kyle-Anderson-18615","Justin-Holiday-14559","Nikola-Jokic-31812","50000","269.38"
