"Collin-Sexton-408896","Khris-Middleton-13990","Chandler-Hutchison-408877","Otto-Porter-17069","Zaza-Pachulia-1455","Trae-Young-409063","John-Collins-37823","Giannis-Antetokounmpo-16852","49900","287.39"
"Spencer-Dinwiddie-18588","Khris-Middleton-13990","Chandler-Hutchison-408877","Otto-Porter-17069","Zaza-Pachulia-1455","Malcolm-Brogdon-35195","John-Collins-37823","Giannis-Antetokounmpo-16852","49900","286.84"

"Collin-Sexton-408896","Khris-Middleton-13990","Chandler-Hutchison-408877","Otto-Porter-17069","Zaza-Pachulia-1455","Trae-Young-409063","John-Collins-37823","Giannis-Antetokounmpo-16852","49900","287.39"
"Spencer-Dinwiddie-18588","Khris-Middleton-13990","Chandler-Hutchison-408877","Otto-Porter-17069","Zaza-Pachulia-1455","Malcolm-Brogdon-35195","John-Collins-37823","Giannis-Antetokounmpo-16852","49900","286.84"
"Spencer-Dinwiddie-18588","Malcolm-Brogdon-35195","Chandler-Hutchison-408877","Otto-Porter-17069","Zaza-Pachulia-1455","Trae-Young-409063","John-Collins-37823","Giannis-Antetokounmpo-16852","50000","286.82"
"Cameron-Payne-18941","Bradley-Beal-13898","Chandler-Hutchison-408877","Otto-Porter-17069","Zaza-Pachulia-1455","Collin-Sexton-408896","John-Collins-37823","Giannis-Antetokounmpo-16852","49800","286.8"
"Cameron-Payne-18941","Reggie-Jackson-13352","Chandler-Hutchison-408877","Otto-Porter-17069","Zaza-Pachulia-1455","Bradley-Beal-13898","John-Collins-37823","Giannis-Antetokounmpo-16852","50000","286.78"
"Kris-Dunn-35215","Evan-Fournier-13913","Chandler-Hutchison-408877","Otto-Porter-17069","Zaza-Pachulia-1455","Spencer-Dinwiddie-18588","John-Collins-37823","Giannis-Antetokounmpo-16852","49800","286.75"
"Kris-Dunn-35215","Bradley-Beal-13898","Khris-Middleton-13990","Chandler-Hutchison-408877","John-Collins-37823","Trae-Young-409063","Otto-Porter-17069","Zaza-Pachulia-1455","49900","286.68"
"Kris-Dunn-35215","Bradley-Beal-13898","Giannis-Antetokounmpo-16852","Chandler-Hutchison-408877","Dewayne-Dedmon-16894","Collin-Sexton-408896","Otto-Porter-17069","Zaza-Pachulia-1455","49900","286.56"
"Kris-Dunn-35215","Khris-Middleton-13990","Chandler-Hutchison-408877","Otto-Porter-17069","Zaza-Pachulia-1455","Collin-Sexton-408896","John-Collins-37823","Giannis-Antetokounmpo-16852","49500","286.55"
"Collin-Sexton-408896","Kris-Dunn-35215","Chandler-Hutchison-408877","Otto-Porter-17069","Zaza-Pachulia-1455","Trae-Young-409063","John-Collins-37823","Giannis-Antetokounmpo-16852","49600","286.53"
"Kris-Dunn-35215","Khris-Middleton-13990","Chandler-Hutchison-408877","Otto-Porter-17069","Zaza-Pachulia-1455","Reggie-Jackson-13352","John-Collins-37823","Giannis-Antetokounmpo-16852","49700","286.53"
"Kris-Dunn-35215","Reggie-Jackson-13352","Chandler-Hutchison-408877","Otto-Porter-17069","Zaza-Pachulia-1455","Trae-Young-409063","John-Collins-37823","Giannis-Antetokounmpo-16852","49800","286.51"
"George-Hill-993","Bradley-Beal-13898","Chandler-Hutchison-408877","Otto-Porter-17069","Zaza-Pachulia-1455","Collin-Sexton-408896","John-Collins-37823","Giannis-Antetokounmpo-16852","49800","286.36"
"Spencer-Dinwiddie-18588","Khris-Middleton-13990","Chandler-Hutchison-408877","Otto-Porter-17069","Zaza-Pachulia-1455","Bogdan-Bogdanovic-37899","John-Collins-37823","Giannis-Antetokounmpo-16852","49800","286.35"
"George-Hill-993","Reggie-Jackson-13352","Chandler-Hutchison-408877","Otto-Porter-17069","Zaza-Pachulia-1455","Bradley-Beal-13898","John-Collins-37823","Giannis-Antetokounmpo-16852","50000","286.34"
"Spencer-Dinwiddie-18588","Bogdan-Bogdanovic-37899","Chandler-Hutchison-408877","Otto-Porter-17069","Zaza-Pachulia-1455","Trae-Young-409063","John-Collins-37823","Giannis-Antetokounmpo-16852","49900","286.33"
"Spencer-Dinwiddie-18588","Bradley-Beal-13898","Giannis-Antetokounmpo-16852","Trevor-Ariza-1323","Zaza-Pachulia-1455","Wesley-Matthews-1339","Chandler-Hutchison-408877","Otto-Porter-17069","50000","286.15"
"Kris-Dunn-35215","Spencer-Dinwiddie-18588","Chandler-Hutchison-408877","Otto-Porter-17069","Zaza-Pachulia-1455","Malcolm-Brogdon-35195","John-Collins-37823","Giannis-Antetokounmpo-16852","49600","285.98"
"Collin-Sexton-408896","Bradley-Beal-13898","Giannis-Antetokounmpo-16852","Otto-Porter-17069","Zaza-Pachulia-1455","Spencer-Dinwiddie-18588","Harrison-Barnes-13901","Chandler-Hutchison-408877","49800","285.98"
"Kris-Dunn-35215","Khris-Middleton-13990","Chandler-Hutchison-408877","Otto-Porter-17069","Zaza-Pachulia-1455","Bradley-Beal-13898","John-Collins-37823","Willie-Cauley-Stein-18951","50000","285.97"
"Reggie-Jackson-13352","Bradley-Beal-13898","Giannis-Antetokounmpo-16852","Otto-Porter-17069","Zaza-Pachulia-1455","Spencer-Dinwiddie-18588","Harrison-Barnes-13901","Chandler-Hutchison-408877","50000","285.96"
"Trae-Young-409063","Khris-Middleton-13990","Chandler-Hutchison-408877","Otto-Porter-17069","Zaza-Pachulia-1455","Bradley-Beal-13898","John-Collins-37823","Trevor-Ariza-1323","49700","285.91"
"Cameron-Payne-18941","Kris-Dunn-35215","Giannis-Antetokounmpo-16852","Chandler-Hutchison-408877","Zaza-Pachulia-1455","Bradley-Beal-13898","Khris-Middleton-13990","Otto-Porter-17069","50000","285.74"
"Kris-Dunn-35215","Khris-Middleton-13990","Chandler-Hutchison-408877","Otto-Porter-17069","Zaza-Pachulia-1455","DeAndre-Bembry-35198","John-Collins-37823","Giannis-Antetokounmpo-16852","49900","285.54"
"Collin-Sexton-408896","Bradley-Beal-13898","Giannis-Antetokounmpo-16852","Chandler-Hutchison-408877","Zaza-Pachulia-1455","Spencer-Dinwiddie-18588","Otto-Porter-17069","Malcolm-Brogdon-35195","50000","285.53"
"Kris-Dunn-35215","DeAndre-Bembry-35198","Chandler-Hutchison-408877","Otto-Porter-17069","Zaza-Pachulia-1455","Trae-Young-409063","John-Collins-37823","Giannis-Antetokounmpo-16852","50000","285.52"
"Kris-Dunn-35215","Bogdan-Bogdanovic-37899","Chandler-Hutchison-408877","Otto-Porter-17069","Zaza-Pachulia-1455","Spencer-Dinwiddie-18588","John-Collins-37823","Giannis-Antetokounmpo-16852","49500","285.49"
"Alec-Burks-13353","Bradley-Beal-13898","Giannis-Antetokounmpo-16852","Chandler-Hutchison-408877","Zaza-Pachulia-1455","Spencer-Dinwiddie-18588","John-Collins-37823","Jonathan-Isaac-37841","49800","285.48"
"Spencer-Dinwiddie-18588","Khris-Middleton-13990","Giannis-Antetokounmpo-16852","Chandler-Hutchison-408877","Zaza-Pachulia-1455","Trae-Young-409063","John-Collins-37823","Harrison-Barnes-13901","50000","285.45"
"Cameron-Payne-18941","Kris-Dunn-35215","Chandler-Hutchison-408877","Dewayne-Dedmon-16894","Zaza-Pachulia-1455","Bradley-Beal-13898","John-Collins-37823","Giannis-Antetokounmpo-16852","50000","285.44"
"Kris-Dunn-35215","Khris-Middleton-13990","Giannis-Antetokounmpo-16852","Chandler-Hutchison-408877","Zaza-Pachulia-1455","Spencer-Dinwiddie-18588","John-Collins-37823","Ante-Zizic-35180","50000","285.36"
"George-Hill-993","Kris-Dunn-35215","Giannis-Antetokounmpo-16852","Chandler-Hutchison-408877","Zaza-Pachulia-1455","Bradley-Beal-13898","Khris-Middleton-13990","Otto-Porter-17069","50000","285.3"
"Spencer-Dinwiddie-18588","Bradley-Beal-13898","Khris-Middleton-13990","Chandler-Hutchison-408877","John-Collins-37823","Trae-Young-409063","Otto-Porter-17069","Zaza-Pachulia-1455","49500","285.28"
"Kris-Dunn-35215","Reggie-Jackson-13352","Giannis-Antetokounmpo-16852","Chandler-Hutchison-408877","Zaza-Pachulia-1455","Bradley-Beal-13898","Otto-Porter-17069","Collin-Sexton-408896","49800","285.22"
"Collin-Sexton-408896","Bradley-Beal-13898","Giannis-Antetokounmpo-16852","Chandler-Hutchison-408877","Dewayne-Dedmon-16894","Spencer-Dinwiddie-18588","Otto-Porter-17069","Zaza-Pachulia-1455","49500","285.16"
"Collin-Sexton-408896","Khris-Middleton-13990","Chandler-Hutchison-408877","Otto-Porter-17069","Zaza-Pachulia-1455","Spencer-Dinwiddie-18588","John-Collins-37823","Giannis-Antetokounmpo-16852","49100","285.15"
"Reggie-Jackson-13352","Bradley-Beal-13898","Giannis-Antetokounmpo-16852","Chandler-Hutchison-408877","Dewayne-Dedmon-16894","Spencer-Dinwiddie-18588","Otto-Porter-17069","Zaza-Pachulia-1455","49700","285.14"
"Collin-Sexton-408896","Spencer-Dinwiddie-18588","Chandler-Hutchison-408877","Otto-Porter-17069","Zaza-Pachulia-1455","Trae-Young-409063","John-Collins-37823","Giannis-Antetokounmpo-16852","49200","285.13"
"Reggie-Jackson-13352","Khris-Middleton-13990","Chandler-Hutchison-408877","Otto-Porter-17069","Zaza-Pachulia-1455","Spencer-Dinwiddie-18588","John-Collins-37823","Giannis-Antetokounmpo-16852","49300","285.13"
"Alec-Burks-13353","Khris-Middleton-13990","Giannis-Antetokounmpo-16852","Chandler-Hutchison-408877","Dewayne-Dedmon-16894","Bradley-Beal-13898","Otto-Porter-17069","Zaza-Pachulia-1455","49900","285.11"
"Reggie-Jackson-13352","Spencer-Dinwiddie-18588","Chandler-Hutchison-408877","Otto-Porter-17069","Zaza-Pachulia-1455","Trae-Young-409063","John-Collins-37823","Giannis-Antetokounmpo-16852","49400","285.11"
"Kris-Dunn-35215","Bradley-Beal-13898","Giannis-Antetokounmpo-16852","Trevor-Ariza-1323","Zaza-Pachulia-1455","Spencer-Dinwiddie-18588","Chandler-Hutchison-408877","Jonathan-Isaac-37841","49800","285.1"
"Alec-Burks-13353","Bradley-Beal-13898","Giannis-Antetokounmpo-16852","Chandler-Hutchison-408877","Dewayne-Dedmon-16894","Trae-Young-409063","Otto-Porter-17069","Zaza-Pachulia-1455","50000","285.09"
"Alec-Burks-13353","Khris-Middleton-13990","Chandler-Hutchison-408877","Otto-Porter-17069","Zaza-Pachulia-1455","Trae-Young-409063","John-Collins-37823","Giannis-Antetokounmpo-16852","49600","285.08"
"Kris-Dunn-35215","Khris-Middleton-13990","Chandler-Hutchison-408877","Otto-Porter-17069","Zaza-Pachulia-1455","Bradley-Beal-13898","John-Collins-37823","Trevor-Ariza-1323","49300","285.07"
"Alec-Burks-13353","Kris-Dunn-35215","Giannis-Antetokounmpo-16852","Otto-Porter-17069","Zaza-Pachulia-1455","Bradley-Beal-13898","Harrison-Barnes-13901","Chandler-Hutchison-408877","49900","285.07"
"Collin-Sexton-408896","Bradley-Beal-13898","Chandler-Hutchison-408877","Otto-Porter-17069","Zaza-Pachulia-1455","Matthew-Dellavedova-16839","John-Collins-37823","Giannis-Antetokounmpo-16852","49800","285.06"
"Kris-Dunn-35215","Bradley-Beal-13898","Chandler-Hutchison-408877","Otto-Porter-17069","Zaza-Pachulia-1455","Trae-Young-409063","John-Collins-37823","Trevor-Ariza-1323","49400","285.05"
"Collin-Sexton-408896","Bradley-Beal-13898","Giannis-Antetokounmpo-16852","Chandler-Hutchison-408877","Zaza-Pachulia-1455","Spencer-Dinwiddie-18588","Bogdan-Bogdanovic-37899","Otto-Porter-17069","49900","285.04"
"Reggie-Jackson-13352","Bradley-Beal-13898","Chandler-Hutchison-408877","Otto-Porter-17069","Zaza-Pachulia-1455","Matthew-Dellavedova-16839","John-Collins-37823","Giannis-Antetokounmpo-16852","50000","285.04"
"Kris-Dunn-35215","Khris-Middleton-13990","Chandler-Hutchison-408877","Otto-Porter-17069","Zaza-Pachulia-1455","Joe-Harris-18587","John-Collins-37823","Giannis-Antetokounmpo-16852","49800","285.03"
"Kris-Dunn-35215","Joe-Harris-18587","Chandler-Hutchison-408877","Otto-Porter-17069","Zaza-Pachulia-1455","Trae-Young-409063","John-Collins-37823","Giannis-Antetokounmpo-16852","49900","285.01"
"George-Hill-993","Kris-Dunn-35215","Chandler-Hutchison-408877","Dewayne-Dedmon-16894","Zaza-Pachulia-1455","Bradley-Beal-13898","John-Collins-37823","Giannis-Antetokounmpo-16852","50000","285.0"
"Cameron-Payne-18941","Bradley-Beal-13898","Khris-Middleton-13990","Chandler-Hutchison-408877","Zaza-Pachulia-1455","Collin-Sexton-408896","John-Collins-37823","Giannis-Antetokounmpo-16852","50000","284.98"
"Cameron-Payne-18941","Khris-Middleton-13990","Giannis-Antetokounmpo-16852","Trevor-Ariza-1323","Zaza-Pachulia-1455","Bradley-Beal-13898","Chandler-Hutchison-408877","Otto-Porter-17069","49800","284.97"
"Cameron-Payne-18941","Bradley-Beal-13898","Giannis-Antetokounmpo-16852","Trevor-Ariza-1323","Zaza-Pachulia-1455","Trae-Young-409063","Chandler-Hutchison-408877","Otto-Porter-17069","49900","284.95"
"Kris-Dunn-35215","Evan-Fournier-13913","Khris-Middleton-13990","Chandler-Hutchison-408877","Zaza-Pachulia-1455","Spencer-Dinwiddie-18588","John-Collins-37823","Giannis-Antetokounmpo-16852","50000","284.93"
"Kris-Dunn-35215","Bradley-Beal-13898","Giannis-Antetokounmpo-16852","Jonathan-Isaac-37841","Zaza-Pachulia-1455","Malcolm-Brogdon-35195","Chandler-Hutchison-408877","Otto-Porter-17069","49900","284.88"
"Cameron-Payne-18941","Bradley-Beal-13898","Giannis-Antetokounmpo-16852","Chandler-Hutchison-408877","Zaza-Pachulia-1455","Spencer-Dinwiddie-18588","John-Collins-37823","Harrison-Barnes-13901","49900","284.86"
"Alec-Burks-13353","Kris-Dunn-35215","Giannis-Antetokounmpo-16852","Trevor-Ariza-1323","Zaza-Pachulia-1455","Bradley-Beal-13898","Chandler-Hutchison-408877","Spencer-Dinwiddie-18588","50000","284.84"
"Kris-Dunn-35215","Khris-Middleton-13990","Giannis-Antetokounmpo-16852","Chandler-Hutchison-408877","Zaza-Pachulia-1455","Malcolm-Brogdon-35195","John-Collins-37823","Trevor-Ariza-1323","50000","284.79"
"Kris-Dunn-35215","Bradley-Beal-13898","Trevor-Ariza-1323","Dewayne-Dedmon-16894","Zaza-Pachulia-1455","Spencer-Dinwiddie-18588","Otto-Porter-17069","John-Collins-37823","50000","284.74"
"Collin-Sexton-408896","Kris-Dunn-35215","Khris-Middleton-13990","Chandler-Hutchison-408877","Zaza-Pachulia-1455","Trae-Young-409063","John-Collins-37823","Giannis-Antetokounmpo-16852","49800","284.71"
"Kris-Dunn-35215","Khris-Middleton-13990","Giannis-Antetokounmpo-16852","Trevor-Ariza-1323","Zaza-Pachulia-1455","Trae-Young-409063","Chandler-Hutchison-408877","Otto-Porter-17069","49600","284.7"
"Kris-Dunn-35215","Reggie-Jackson-13352","Khris-Middleton-13990","Chandler-Hutchison-408877","Zaza-Pachulia-1455","Trae-Young-409063","John-Collins-37823","Giannis-Antetokounmpo-16852","50000","284.69"
"Alec-Burks-13353","Bradley-Beal-13898","Giannis-Antetokounmpo-16852","Chandler-Hutchison-408877","Zaza-Pachulia-1455","Spencer-Dinwiddie-18588","John-Collins-37823","Rodions-Kurucs-408801","49900","284.65"
"Spencer-Dinwiddie-18588","Khris-Middleton-13990","Chandler-Hutchison-408877","Dewayne-Dedmon-16894","Zaza-Pachulia-1455","Trae-Young-409063","John-Collins-37823","Giannis-Antetokounmpo-16852","49700","284.63"
"Kris-Dunn-35215","Bradley-Beal-13898","Giannis-Antetokounmpo-16852","Dewayne-Dedmon-16894","Zaza-Pachulia-1455","Spencer-Dinwiddie-18588","Harrison-Barnes-13901","Chandler-Hutchison-408877","50000","284.62"
"Kris-Dunn-35215","Khris-Middleton-13990","Giannis-Antetokounmpo-16852","Chandler-Hutchison-408877","Zaza-Pachulia-1455","Spencer-Dinwiddie-18588","John-Collins-37823","Harrison-Barnes-13901","49600","284.61"
"Kris-Dunn-35215","Spencer-Dinwiddie-18588","Giannis-Antetokounmpo-16852","Chandler-Hutchison-408877","Zaza-Pachulia-1455","Trae-Young-409063","John-Collins-37823","Harrison-Barnes-13901","49700","284.59"
"Spencer-Dinwiddie-18588","Khris-Middleton-13990","Chandler-Hutchison-408877","Otto-Porter-17069","Zaza-Pachulia-1455","Bradley-Beal-13898","John-Collins-37823","Willie-Cauley-Stein-18951","49600","284.57"
"Spencer-Dinwiddie-18588","Bradley-Beal-13898","Chandler-Hutchison-408877","Otto-Porter-17069","Zaza-Pachulia-1455","Trae-Young-409063","John-Collins-37823","Willie-Cauley-Stein-18951","49700","284.55"
"Spencer-Dinwiddie-18588","Bradley-Beal-13898","Giannis-Antetokounmpo-16852","Cedi-Osman-18912","Zaza-Pachulia-1455","Evan-Fournier-13913","Otto-Porter-17069","Chandler-Hutchison-408877","50000","284.54"
"George-Hill-993","Bradley-Beal-13898","Khris-Middleton-13990","Chandler-Hutchison-408877","Zaza-Pachulia-1455","Collin-Sexton-408896","John-Collins-37823","Giannis-Antetokounmpo-16852","50000","284.54"
"George-Hill-993","Khris-Middleton-13990","Giannis-Antetokounmpo-16852","Trevor-Ariza-1323","Zaza-Pachulia-1455","Bradley-Beal-13898","Chandler-Hutchison-408877","Otto-Porter-17069","49800","284.53"
"Kris-Dunn-35215","Khris-Middleton-13990","Chandler-Hutchison-408877","Otto-Porter-17069","DeAndre-Jordan-1486","Bradley-Beal-13898","John-Collins-37823","Zaza-Pachulia-1455","49700","284.51"
"George-Hill-993","Bradley-Beal-13898","Giannis-Antetokounmpo-16852","Trevor-Ariza-1323","Zaza-Pachulia-1455","Trae-Young-409063","Chandler-Hutchison-408877","Otto-Porter-17069","49900","284.51"
"Alec-Burks-13353","Luke-Kennard-37814","Chandler-Hutchison-408877","Otto-Porter-17069","Zaza-Pachulia-1455","Bradley-Beal-13898","John-Collins-37823","Giannis-Antetokounmpo-16852","50000","284.51"
"Cameron-Payne-18941","Alec-Burks-13353","Chandler-Hutchison-408877","Otto-Porter-17069","Zaza-Pachulia-1455","Bradley-Beal-13898","John-Collins-37823","Giannis-Antetokounmpo-16852","49500","284.49"
"Kris-Dunn-35215","Bradley-Beal-13898","Chandler-Hutchison-408877","Otto-Porter-17069","DeAndre-Jordan-1486","Trae-Young-409063","John-Collins-37823","Zaza-Pachulia-1455","49800","284.49"
"Reggie-Jackson-13352","Bradley-Beal-13898","Giannis-Antetokounmpo-16852","Trevor-Ariza-1323","Zaza-Pachulia-1455","Collin-Sexton-408896","Chandler-Hutchison-408877","Otto-Porter-17069","49600","284.45"
"Kris-Dunn-35215","Bradley-Beal-13898","Khris-Middleton-13990","Chandler-Hutchison-408877","John-Collins-37823","Spencer-Dinwiddie-18588","Otto-Porter-17069","Zaza-Pachulia-1455","49100","284.44"
"George-Hill-993","Bradley-Beal-13898","Giannis-Antetokounmpo-16852","Chandler-Hutchison-408877","Zaza-Pachulia-1455","Spencer-Dinwiddie-18588","John-Collins-37823","Harrison-Barnes-13901","49900","284.42"
"Kris-Dunn-35215","Bradley-Beal-13898","Chandler-Hutchison-408877","Otto-Porter-17069","Zaza-Pachulia-1455","Trae-Young-409063","John-Collins-37823","Spencer-Dinwiddie-18588","49200","284.42"
"Alec-Burks-13353","Bradley-Beal-13898","Giannis-Antetokounmpo-16852","Chandler-Hutchison-408877","Zaza-Pachulia-1455","Spencer-Dinwiddie-18588","Otto-Porter-17069","Ante-Zizic-35180","49900","284.42"
"Spencer-Dinwiddie-18588","Bradley-Beal-13898","Giannis-Antetokounmpo-16852","Chandler-Hutchison-408877","Zaza-Pachulia-1455","Wesley-Matthews-1339","John-Collins-37823","Cedi-Osman-18912","50000","284.4"
"Kris-Dunn-35215","Bradley-Beal-13898","Giannis-Antetokounmpo-16852","Jonathan-Isaac-37841","Zaza-Pachulia-1455","Bogdan-Bogdanovic-37899","Chandler-Hutchison-408877","Otto-Porter-17069","49800","284.39"
"Collin-Sexton-408896","Khris-Middleton-13990","Giannis-Antetokounmpo-16852","Cedi-Osman-18912","Zaza-Pachulia-1455","Bradley-Beal-13898","Otto-Porter-17069","Chandler-Hutchison-408877","49700","284.34"
"Cameron-Payne-18941","Bradley-Beal-13898","Giannis-Antetokounmpo-16852","Chandler-Hutchison-408877","Zaza-Pachulia-1455","Spencer-Dinwiddie-18588","Khris-Middleton-13990","Otto-Porter-17069","49600","284.34"
"Reggie-Jackson-13352","Khris-Middleton-13990","Giannis-Antetokounmpo-16852","Cedi-Osman-18912","Zaza-Pachulia-1455","Bradley-Beal-13898","Otto-Porter-17069","Chandler-Hutchison-408877","49900","284.32"
"Cameron-Payne-18941","Bradley-Beal-13898","Giannis-Antetokounmpo-16852","Chandler-Hutchison-408877","Zaza-Pachulia-1455","Trae-Young-409063","Otto-Porter-17069","Spencer-Dinwiddie-18588","49700","284.32"
"Collin-Sexton-408896","Bradley-Beal-13898","Giannis-Antetokounmpo-16852","Cedi-Osman-18912","Zaza-Pachulia-1455","Trae-Young-409063","Otto-Porter-17069","Chandler-Hutchison-408877","49800","284.32"
"Alec-Burks-13353","Bradley-Beal-13898","Giannis-Antetokounmpo-16852","Chandler-Hutchison-408877","Zaza-Pachulia-1455","Collin-Sexton-408896","John-Collins-37823","Harrison-Barnes-13901","49900","284.31"
"Alec-Burks-13353","Bradley-Beal-13898","Giannis-Antetokounmpo-16852","Chandler-Hutchison-408877","Zaza-Pachulia-1455","Spencer-Dinwiddie-18588","John-Collins-37823","Maxi-Kleber-37845","50000","284.31"
"Reggie-Jackson-13352","Bradley-Beal-13898","Giannis-Antetokounmpo-16852","Cedi-Osman-18912","Zaza-Pachulia-1455","Trae-Young-409063","Otto-Porter-17069","Chandler-Hutchison-408877","50000","284.3"
"Kris-Dunn-35215","Khris-Middleton-13990","Giannis-Antetokounmpo-16852","Chandler-Hutchison-408877","Zaza-Pachulia-1455","Bogdan-Bogdanovic-37899","John-Collins-37823","Trevor-Ariza-1323","49900","284.3"
"Kris-Dunn-35215","Spencer-Dinwiddie-18588","Chandler-Hutchison-408877","Otto-Porter-17069","Zaza-Pachulia-1455","Collin-Sexton-408896","John-Collins-37823","Giannis-Antetokounmpo-16852","48800","284.29"
"Kris-Dunn-35215","Bogdan-Bogdanovic-37899","Giannis-Antetokounmpo-16852","Chandler-Hutchison-408877","Zaza-Pachulia-1455","Trae-Young-409063","John-Collins-37823","Trevor-Ariza-1323","50000","284.28"
"Collin-Sexton-408896","Bradley-Beal-13898","Khris-Middleton-13990","Trevor-Ariza-1323","Zaza-Pachulia-1455","Spencer-Dinwiddie-18588","Otto-Porter-17069","John-Collins-37823","50000","284.28"
"Kris-Dunn-35215","Reggie-Jackson-13352","Chandler-Hutchison-408877","Otto-Porter-17069","Zaza-Pachulia-1455","Spencer-Dinwiddie-18588","John-Collins-37823","Giannis-Antetokounmpo-16852","49000","284.27"
