"Tomas-Satoransky--36031","DeMar-DeRozan-1053","Taurean-Prince-35218","Mason-Plumlee-16798","Jahlil-Okafor-18902","D'Angelo-Russell-18947","Kenneth-Faried-13313","Otto-Porter-17069","49800","291.57"
"D'Angelo-Russell-18947","DeMar-DeRozan-1053","Tomas-Satoransky--36031","Mason-Plumlee-16798","Jahlil-Okafor-18902","Frank-Jackson-37855","Otto-Porter-17069","Andre-Drummond-13904","50000","291.5"

"Tomas-Satoransky--36031","DeMar-DeRozan-1053","Taurean-Prince-35218","Mason-Plumlee-16798","Jahlil-Okafor-18902","D'Angelo-Russell-18947","Kenneth-Faried-13313","Otto-Porter-17069","49800","291.57"
"D'Angelo-Russell-18947","DeMar-DeRozan-1053","Tomas-Satoransky--36031","Mason-Plumlee-16798","Jahlil-Okafor-18902","Frank-Jackson-37855","Otto-Porter-17069","Andre-Drummond-13904","50000","291.5"
"Tomas-Satoransky--36031","D'Angelo-Russell-18947","DeMar-DeRozan-1053","Mason-Plumlee-16798","Andre-Drummond-13904","Frank-Jackson-37855","Otto-Porter-17069","Kenneth-Faried-13313","49900","291.31"
"Chris-Paul-1087","D'Angelo-Russell-18947","DeMar-DeRozan-1053","Mason-Plumlee-16798","Jahlil-Okafor-18902","Frank-Jackson-37855","Kenneth-Faried-13313","Otto-Porter-17069","49800","290.97"
"Chris-Paul-1087","DeMar-DeRozan-1053","Marco-Belinelli-1033","Mason-Plumlee-16798","Kenneth-Faried-13313","D'Angelo-Russell-18947","Otto-Porter-17069","Jahlil-Okafor-18902","50000","290.79"
"Tomas-Satoransky--36031","D'Angelo-Russell-18947","DeMar-DeRozan-1053","Otto-Porter-17069","Mason-Plumlee-16798","De'Aaron-Fox-37900","Taurean-Prince-35218","Kenneth-Faried-13313","50000","290.62"
"D'Angelo-Russell-18947","DeMar-DeRozan-1053","Tomas-Satoransky--36031","Mason-Plumlee-16798","Jahlil-Okafor-18902","Tyreke-Evans-1070","Otto-Porter-17069","Kenneth-Faried-13313","49700","290.57"
"D'Angelo-Russell-18947","Kenrich-Williams-570179","Tomas-Satoransky--36031","Mason-Plumlee-16798","Jahlil-Okafor-18902","DeMar-DeRozan-1053","Otto-Porter-17069","Kenneth-Faried-13313","49400","290.56"
"Monte-Morris-37860","Kenrich-Williams-570179","DeMar-DeRozan-1053","Mason-Plumlee-16798","Jahlil-Okafor-18902","D'Angelo-Russell-18947","Kenneth-Faried-13313","Otto-Porter-17069","49800","290.2"
"D'Angelo-Russell-18947","Kenrich-Williams-570179","DeMar-DeRozan-1053","Mason-Plumlee-16798","Jahlil-Okafor-18902","Frank-Jackson-37855","Kenneth-Faried-13313","Andre-Drummond-13904","49800","290.09"
"Chris-Paul-1087","D'Angelo-Russell-18947","DeMar-DeRozan-1053","Mason-Plumlee-16798","Kenneth-Faried-13313","Frank-Jackson-37855","Otto-Porter-17069","De'Aaron-Fox-37900","50000","290.02"
"D'Angelo-Russell-18947","Kenrich-Williams-570179","Marco-Belinelli-1033","Mason-Plumlee-16798","Andre-Drummond-13904","DeMar-DeRozan-1053","Kenneth-Faried-13313","Jahlil-Okafor-18902","50000","289.91"
"Tomas-Satoransky--36031","DeMar-DeRozan-1053","Otto-Porter-17069","Mason-Plumlee-16798","Jahlil-Okafor-18902","Tyreke-Evans-1070","Kenneth-Faried-13313","Andre-Drummond-13904","50000","289.82"
"D'Angelo-Russell-18947","DeMar-DeRozan-1053","Tomas-Satoransky--36031","Mason-Plumlee-16798","Jahlil-Okafor-18902","Tyreke-Evans-1070","Otto-Porter-17069","De'Aaron-Fox-37900","50000","289.81"
"Tomas-Satoransky--36031","Kenrich-Williams-570179","Otto-Porter-17069","Mason-Plumlee-16798","Jahlil-Okafor-18902","DeMar-DeRozan-1053","Kenneth-Faried-13313","Andre-Drummond-13904","49700","289.81"
"D'Angelo-Russell-18947","Kenrich-Williams-570179","Tomas-Satoransky--36031","Mason-Plumlee-16798","Jahlil-Okafor-18902","DeMar-DeRozan-1053","Otto-Porter-17069","De'Aaron-Fox-37900","49700","289.8"
"D'Angelo-Russell-18947","Khris-Middleton-13990","Otto-Porter-17069","Rondae-Hollis-Jefferson-18897","Jahlil-Okafor-18902","DeMar-DeRozan-1053","Mason-Plumlee-16798","Kenneth-Faried-13313","50000","289.65"
"Tomas-Satoransky--36031","D'Angelo-Russell-18947","DeMar-DeRozan-1053","Mason-Plumlee-16798","Kenneth-Faried-13313","De'Aaron-Fox-37900","Tyreke-Evans-1070","Otto-Porter-17069","49900","289.62"
"Tomas-Satoransky--36031","D'Angelo-Russell-18947","Kenrich-Williams-570179","Otto-Porter-17069","Kenneth-Faried-13313","De'Aaron-Fox-37900","DeMar-DeRozan-1053","Mason-Plumlee-16798","49600","289.61"
"Tomas-Satoransky--36031","Kenrich-Williams-570179","DeMar-DeRozan-1053","Kenneth-Faried-13313","Jahlil-Okafor-18902","D'Angelo-Russell-18947","Taurean-Prince-35218","Otto-Porter-17069","50000","289.47"
"D'Angelo-Russell-18947","Kenrich-Williams-570179","Otto-Porter-17069","Mason-Plumlee-16798","Jarrett-Allen-37794","DeMar-DeRozan-1053","Kenneth-Faried-13313","Andre-Drummond-13904","50000","289.47"
"D'Angelo-Russell-18947","Kenrich-Williams-570179","Taurean-Prince-35218","Mason-Plumlee-16798","Jahlil-Okafor-18902","DeMar-DeRozan-1053","Kenneth-Faried-13313","De'Aaron-Fox-37900","49900","289.4"
"Tomas-Satoransky--36031","DeMar-DeRozan-1053","Kenrich-Williams-570179","Mason-Plumlee-16798","Kenneth-Faried-13313","D'Angelo-Russell-18947","Khris-Middleton-13990","Jahlil-Okafor-18902","49900","289.37"
"Monte-Morris-37860","D'Angelo-Russell-18947","Kenrich-Williams-570179","Otto-Porter-17069","Kenneth-Faried-13313","De'Aaron-Fox-37900","DeMar-DeRozan-1053","Mason-Plumlee-16798","50000","289.25"
"D'Angelo-Russell-18947","Kelly-Oubre-18925","Taurean-Prince-35218","Mason-Plumlee-16798","Jahlil-Okafor-18902","DeMar-DeRozan-1053","Kenneth-Faried-13313","Otto-Porter-17069","50000","289.16"
"D'Angelo-Russell-18947","Kenrich-Williams-570179","DeMar-DeRozan-1053","Mason-Plumlee-16798","Andre-Drummond-13904","Frank-Jackson-37855","Kenneth-Faried-13313","De'Aaron-Fox-37900","50000","289.14"
"Tomas-Satoransky--36031","DeMar-DeRozan-1053","Otto-Porter-17069","Domantas-Sabonis-35217","Jahlil-Okafor-18902","De'Aaron-Fox-37900","Mason-Plumlee-16798","Kenneth-Faried-13313","50000","289.12"
"D'Angelo-Russell-18947","DeMar-DeRozan-1053","Khris-Middleton-13990","Mason-Plumlee-16798","Kenneth-Faried-13313","Frank-Jackson-37855","Otto-Porter-17069","Jahlil-Okafor-18902","49600","289.12"
"Tomas-Satoransky--36031","DeMar-DeRozan-1053","DeMarre-Carroll-1174","Mason-Plumlee-16798","Kenneth-Faried-13313","D'Angelo-Russell-18947","Otto-Porter-17069","Jahlil-Okafor-18902","49600","289.11"
"Chris-Paul-1087","DeMar-DeRozan-1053","Tomas-Satoransky--36031","Rondae-Hollis-Jefferson-18897","Jahlil-Okafor-18902","D'Angelo-Russell-18947","Kenneth-Faried-13313","Mason-Plumlee-16798","49900","289.1"
"De'Aaron-Fox-37900","Kenrich-Williams-570179","Tomas-Satoransky--36031","Mason-Plumlee-16798","Jahlil-Okafor-18902","DeMar-DeRozan-1053","Otto-Porter-17069","Andre-Drummond-13904","50000","289.05"
"Tomas-Satoransky--36031","D'Angelo-Russell-18947","Otto-Porter-17069","Mason-Plumlee-16798","Jarrett-Allen-37794","De'Aaron-Fox-37900","Kenneth-Faried-13313","Jahlil-Okafor-18902","50000","289.0"
"D'Angelo-Russell-18947","DeMar-DeRozan-1053","Tomas-Satoransky--36031","Mason-Plumlee-16798","Jahlil-Okafor-18902","Elie-Okobo-409300","Kenneth-Faried-13313","De'Aaron-Fox-37900","50000","288.97"
"D'Angelo-Russell-18947","DeMar-DeRozan-1053","Khris-Middleton-13990","Mason-Plumlee-16798","Kenneth-Faried-13313","Marco-Belinelli-1033","Otto-Porter-17069","Jahlil-Okafor-18902","49800","288.94"
"Chris-Paul-1087","D'Angelo-Russell-18947","Kenrich-Williams-570179","Otto-Porter-17069","Kenneth-Faried-13313","Frank-Jackson-37855","DeMar-DeRozan-1053","Jahlil-Okafor-18902","50000","288.87"
"Tomas-Satoransky--36031","Kenrich-Williams-570179","DeMar-DeRozan-1053","Mason-Plumlee-16798","Andre-Drummond-13904","De'Aaron-Fox-37900","Otto-Porter-17069","Kenneth-Faried-13313","49900","288.86"
"Tomas-Satoransky--36031","D'Angelo-Russell-18947","Otto-Porter-17069","Mason-Plumlee-16798","Jahlil-Okafor-18902","Frank-Jackson-37855","Kenneth-Faried-13313","Andre-Drummond-13904","49500","288.85"
"D'Angelo-Russell-18947","DeMar-DeRozan-1053","Otto-Porter-17069","Mason-Plumlee-16798","Andre-Drummond-13904","Tyreke-Evans-1070","Taurean-Prince-35218","Jahlil-Okafor-18902","50000","288.83"
"D'Angelo-Russell-18947","Kenrich-Williams-570179","Otto-Porter-17069","Mason-Plumlee-16798","Andre-Drummond-13904","DeMar-DeRozan-1053","Taurean-Prince-35218","Jahlil-Okafor-18902","49700","288.82"
"D'Angelo-Russell-18947","DeMar-DeRozan-1053","Otto-Porter-17069","Domantas-Sabonis-35217","Jahlil-Okafor-18902","Frank-Jackson-37855","Mason-Plumlee-16798","Andre-Drummond-13904","49900","288.82"
"Monte-Morris-37860","DeMar-DeRozan-1053","Taurean-Prince-35218","Mason-Plumlee-16798","Jahlil-Okafor-18902","Tomas-Satoransky--36031","Kenneth-Faried-13313","D'Angelo-Russell-18947","49900","288.81"
"D'Angelo-Russell-18947","DeMar-DeRozan-1053","Otto-Porter-17069","Mason-Plumlee-16798","Jahlil-Okafor-18902","De'Aaron-Fox-37900","Kenneth-Faried-13313","Cheick-Diallo-35225","50000","288.79"
"D'Angelo-Russell-18947","DeMar-DeRozan-1053","Rudy-Gay-1341","Mason-Plumlee-16798","Jahlil-Okafor-18902","Tyreke-Evans-1070","Kenneth-Faried-13313","Otto-Porter-17069","50000","288.77"
"D'Angelo-Russell-18947","Kenrich-Williams-570179","Rudy-Gay-1341","Mason-Plumlee-16798","Jahlil-Okafor-18902","DeMar-DeRozan-1053","Kenneth-Faried-13313","Otto-Porter-17069","49700","288.76"
"Monte-Morris-37860","DeMar-DeRozan-1053","DeMarre-Carroll-1174","Mason-Plumlee-16798","Kenneth-Faried-13313","D'Angelo-Russell-18947","Otto-Porter-17069","Jahlil-Okafor-18902","50000","288.75"
"Tomas-Satoransky--36031","D'Angelo-Russell-18947","Otto-Porter-17069","Mason-Plumlee-16798","Jahlil-Okafor-18902","Marco-Belinelli-1033","Kenneth-Faried-13313","Andre-Drummond-13904","49700","288.67"
"D'Angelo-Russell-18947","Khris-Middleton-13990","Torrey-Craig-37861","Mason-Plumlee-16798","Jahlil-Okafor-18902","DeMar-DeRozan-1053","Otto-Porter-17069","Kenneth-Faried-13313","49900","288.66"
"D'Angelo-Russell-18947","DeMar-DeRozan-1053","DeMarre-Carroll-1174","Mason-Plumlee-16798","Jahlil-Okafor-18902","Frank-Jackson-37855","Kenneth-Faried-13313","Andre-Drummond-13904","50000","288.64"
"D'Angelo-Russell-18947","DeMar-DeRozan-1053","Otto-Porter-17069","Kenneth-Faried-13313","Andre-Drummond-13904","Tyreke-Evans-1070","Taurean-Prince-35218","Mason-Plumlee-16798","49900","288.64"
"D'Angelo-Russell-18947","Kenrich-Williams-570179","Otto-Porter-17069","Kenneth-Faried-13313","Andre-Drummond-13904","DeMar-DeRozan-1053","Taurean-Prince-35218","Mason-Plumlee-16798","49600","288.63"
"D'Angelo-Russell-18947","DeMar-DeRozan-1053","Otto-Porter-17069","Domantas-Sabonis-35217","Andre-Drummond-13904","Frank-Jackson-37855","Mason-Plumlee-16798","Kenneth-Faried-13313","49800","288.63"
"D'Angelo-Russell-18947","DeMar-DeRozan-1053","Taurean-Prince-35218","Mason-Plumlee-16798","Jahlil-Okafor-18902","Bogdan-Bogdanovic-37899","Kenneth-Faried-13313","Otto-Porter-17069","49800","288.58"
"Chris-Paul-1087","DeMar-DeRozan-1053","Tomas-Satoransky--36031","Mason-Plumlee-16798","Brook-Lopez-1498","D'Angelo-Russell-18947","Kenneth-Faried-13313","Otto-Porter-17069","50000","288.58"
"Chris-Paul-1087","DeMar-DeRozan-1053","Tomas-Satoransky--36031","Mason-Plumlee-16798","Jahlil-Okafor-18902","D'Angelo-Russell-18947","Kenneth-Faried-13313","Frank-Jackson-37855","49500","288.57"
"Monte-Morris-37860","D'Angelo-Russell-18947","DeMar-DeRozan-1053","Kenneth-Faried-13313","Andre-Drummond-13904","Frank-Jackson-37855","Tomas-Satoransky--36031","Mason-Plumlee-16798","50000","288.55"
"Chris-Paul-1087","DeMar-DeRozan-1053","Kenrich-Williams-570179","Domantas-Sabonis-35217","Jahlil-Okafor-18902","D'Angelo-Russell-18947","Mason-Plumlee-16798","Kenneth-Faried-13313","50000","288.54"
"Chris-Paul-1087","Kenrich-Williams-570179","DeMar-DeRozan-1053","Mason-Plumlee-16798","Jahlil-Okafor-18902","De'Aaron-Fox-37900","Kenneth-Faried-13313","Otto-Porter-17069","49800","288.52"
"D'Angelo-Russell-18947","DeMar-DeRozan-1053","Bogdan-Bogdanovic-37899","Mason-Plumlee-16798","Andre-Drummond-13904","Frank-Jackson-37855","Otto-Porter-17069","Jahlil-Okafor-18902","50000","288.51"
"Monte-Morris-37860","D'Angelo-Russell-18947","Otto-Porter-17069","Mason-Plumlee-16798","Jahlil-Okafor-18902","Frank-Jackson-37855","Kenneth-Faried-13313","Andre-Drummond-13904","49900","288.49"
"Tomas-Satoransky--36031","Tyreke-Evans-1070","Kenrich-Williams-570179","Otto-Porter-17069","Kenneth-Faried-13313","D'Angelo-Russell-18947","DeMar-DeRozan-1053","Jahlil-Okafor-18902","49900","288.47"
"D'Angelo-Russell-18947","DeMar-DeRozan-1053","Otto-Porter-17069","Domantas-Sabonis-35217","Andre-Drummond-13904","Marco-Belinelli-1033","Mason-Plumlee-16798","Kenneth-Faried-13313","50000","288.45"
"Tomas-Satoransky--36031","DeMar-DeRozan-1053","Otto-Porter-17069","Rondae-Hollis-Jefferson-18897","Jahlil-Okafor-18902","D'Angelo-Russell-18947","Mason-Plumlee-16798","Kenneth-Faried-13313","49200","288.44"
"Bryn-Forbes-36052","DeMar-DeRozan-1053","Khris-Middleton-13990","Mason-Plumlee-16798","Kenneth-Faried-13313","D'Angelo-Russell-18947","Otto-Porter-17069","Jahlil-Okafor-18902","49900","288.42"
"D'Angelo-Russell-18947","DeMar-DeRozan-1053","Kenrich-Williams-570179","Mason-Plumlee-16798","Jahlil-Okafor-18902","De'Aaron-Fox-37900","Tyreke-Evans-1070","Kenneth-Faried-13313","49800","288.4"
"D'Angelo-Russell-18947","DeMar-DeRozan-1053","Tomas-Satoransky--36031","Mason-Plumlee-16798","Jahlil-Okafor-18902","Elie-Okobo-409300","Otto-Porter-17069","Andre-Drummond-13904","49800","288.39"
"Tomas-Satoransky--36031","Torrey-Craig-37861","Otto-Porter-17069","Mason-Plumlee-16798","Jahlil-Okafor-18902","D'Angelo-Russell-18947","Kenneth-Faried-13313","Andre-Drummond-13904","49800","288.39"
"Chris-Paul-1087","DeMar-DeRozan-1053","Tomas-Satoransky--36031","Mason-Plumlee-16798","Jahlil-Okafor-18902","D'Angelo-Russell-18947","Marco-Belinelli-1033","Kenneth-Faried-13313","49700","288.39"
"Frank-Jackson-37855","Khris-Middleton-13990","Otto-Porter-17069","Mason-Plumlee-16798","Jahlil-Okafor-18902","DeMar-DeRozan-1053","Kenneth-Faried-13313","Andre-Drummond-13904","49900","288.37"
"Tomas-Satoransky--36031","DeMar-DeRozan-1053","P.J.-Tucker-13947","Mason-Plumlee-16798","Jahlil-Okafor-18902","D'Angelo-Russell-18947","Kenneth-Faried-13313","Otto-Porter-17069","49500","288.37"
"D'Angelo-Russell-18947","Frank-Jackson-37855","Khris-Middleton-13990","Mason-Plumlee-16798","Jahlil-Okafor-18902","De'Aaron-Fox-37900","DeMar-DeRozan-1053","Otto-Porter-17069","49900","288.36"
"D'Angelo-Russell-18947","Kenrich-Williams-570179","Khris-Middleton-13990","Mason-Plumlee-16798","Kenneth-Faried-13313","De'Aaron-Fox-37900","Otto-Porter-17069","Jahlil-Okafor-18902","50000","288.36"
"Tomas-Satoransky--36031","D'Angelo-Russell-18947","DeMar-DeRozan-1053","DeMarre-Carroll-1174","Jahlil-Okafor-18902","De'Aaron-Fox-37900","Mason-Plumlee-16798","Otto-Porter-17069","49900","288.35"
"D'Angelo-Russell-18947","DeMar-DeRozan-1053","Bogdan-Bogdanovic-37899","Mason-Plumlee-16798","Andre-Drummond-13904","Frank-Jackson-37855","Otto-Porter-17069","Kenneth-Faried-13313","49900","288.32"
"D'Angelo-Russell-18947","Kevin-Huerter-408969","Tomas-Satoransky--36031","Mason-Plumlee-16798","Jahlil-Okafor-18902","DeMar-DeRozan-1053","Otto-Porter-17069","Kenneth-Faried-13313","49500","288.23"
"D'Angelo-Russell-18947","Frank-Jackson-37855","DeMar-DeRozan-1053","Mason-Plumlee-16798","Jahlil-Okafor-18902","De'Aaron-Fox-37900","Kenneth-Faried-13313","Brook-Lopez-1498","50000","288.22"
"Monte-Morris-37860","D'Angelo-Russell-18947","DeMar-DeRozan-1053","Mason-Plumlee-16798","Jahlil-Okafor-18902","Chris-Paul-1087","Kenneth-Faried-13313","Frank-Jackson-37855","49900","288.21"
"D'Angelo-Russell-18947","DeMar-DeRozan-1053","Tomas-Satoransky--36031","Mason-Plumlee-16798","Jahlil-Okafor-18902","Mikal-Bridges-408842","Otto-Porter-17069","Kenneth-Faried-13313","49500","288.21"
"Tomas-Satoransky--36031","D'Angelo-Russell-18947","DeMar-DeRozan-1053","Mason-Plumlee-16798","Andre-Drummond-13904","Elie-Okobo-409300","Otto-Porter-17069","Kenneth-Faried-13313","49700","288.2"
"D'Angelo-Russell-18947","DeMar-DeRozan-1053","Khris-Middleton-13990","Mason-Plumlee-16798","Kenneth-Faried-13313","Frank-Jackson-37855","Otto-Porter-17069","De'Aaron-Fox-37900","49800","288.17"
"D'Angelo-Russell-18947","DeMar-DeRozan-1053","Kelly-Oubre-18925","Kenneth-Faried-13313","Jahlil-Okafor-18902","Tyreke-Evans-1070","Otto-Porter-17069","Mason-Plumlee-16798","49900","288.16"
"Tomas-Satoransky--36031","D'Angelo-Russell-18947","Taurean-Prince-35218","Mason-Plumlee-16798","Jahlil-Okafor-18902","De'Aaron-Fox-37900","Kenneth-Faried-13313","Otto-Porter-17069","49600","288.16"
"Tomas-Satoransky--36031","DeMar-DeRozan-1053","DeMarre-Carroll-1174","Mason-Plumlee-16798","Kenneth-Faried-13313","D'Angelo-Russell-18947","Otto-Porter-17069","De'Aaron-Fox-37900","49800","288.16"
"D'Angelo-Russell-18947","Kenrich-Williams-570179","Kelly-Oubre-18925","Kenneth-Faried-13313","Jahlil-Okafor-18902","DeMar-DeRozan-1053","Otto-Porter-17069","Mason-Plumlee-16798","49600","288.15"
"Bryn-Forbes-36052","D'Angelo-Russell-18947","Otto-Porter-17069","Mason-Plumlee-16798","Jahlil-Okafor-18902","Tomas-Satoransky--36031","Kenneth-Faried-13313","Andre-Drummond-13904","49800","288.15"
"D'Angelo-Russell-18947","DeMar-DeRozan-1053","Otto-Porter-17069","Mason-Plumlee-16798","Jahlil-Okafor-18902","Tyreke-Evans-1070","Kenneth-Faried-13313","Willie-Cauley-Stein-18951","49900","288.15"
"D'Angelo-Russell-18947","Kenrich-Williams-570179","Otto-Porter-17069","Mason-Plumlee-16798","Jahlil-Okafor-18902","DeMar-DeRozan-1053","Kenneth-Faried-13313","Willie-Cauley-Stein-18951","49600","288.14"
"Tomas-Satoransky--36031","D'Angelo-Russell-18947","DeMar-DeRozan-1053","Mason-Plumlee-16798","Jarrett-Allen-37794","Chris-Paul-1087","Otto-Porter-17069","Jahlil-Okafor-18902","49800","288.14"
"D'Angelo-Russell-18947","DeMar-DeRozan-1053","Otto-Porter-17069","Domantas-Sabonis-35217","Jahlil-Okafor-18902","De'Aaron-Fox-37900","Mason-Plumlee-16798","Taurean-Prince-35218","50000","288.13"
"Chris-Paul-1087","DeMar-DeRozan-1053","Tomas-Satoransky--36031","Mason-Plumlee-16798","Kenneth-Faried-13313","D'Angelo-Russell-18947","Torrey-Craig-37861","Jahlil-Okafor-18902","49800","288.11"
"Tomas-Satoransky--36031","Khris-Middleton-13990","DeMar-DeRozan-1053","Domantas-Sabonis-35217","Jahlil-Okafor-18902","D'Angelo-Russell-18947","Otto-Porter-17069","Mason-Plumlee-16798","50000","288.1"
"Chris-Paul-1087","D'Angelo-Russell-18947","Otto-Porter-17069","Rondae-Hollis-Jefferson-18897","Jahlil-Okafor-18902","De'Aaron-Fox-37900","Mason-Plumlee-16798","Kenneth-Faried-13313","50000","288.09"
"D'Angelo-Russell-18947","Frank-Jackson-37855","Tomas-Satoransky--36031","Mason-Plumlee-16798","Jahlil-Okafor-18902","De'Aaron-Fox-37900","Otto-Porter-17069","Andre-Drummond-13904","49800","288.09"
"Monte-Morris-37860","DeMar-DeRozan-1053","Otto-Porter-17069","Rondae-Hollis-Jefferson-18897","Jahlil-Okafor-18902","D'Angelo-Russell-18947","Mason-Plumlee-16798","Kenneth-Faried-13313","49600","288.08"
"Tomas-Satoransky--36031","DeMar-DeRozan-1053","Otto-Porter-17069","Marvin-Bagley-III-409321","Jahlil-Okafor-18902","De'Aaron-Fox-37900","Kenneth-Faried-13313","Mason-Plumlee-16798","50000","288.06"
"Tomas-Satoransky--36031","D'Angelo-Russell-18947","Otto-Porter-17069","Kenneth-Faried-13313","Andre-Drummond-13904","Chris-Paul-1087","Taurean-Prince-35218","Mason-Plumlee-16798","50000","288.05"
"Monte-Morris-37860","DeMar-DeRozan-1053","P.J.-Tucker-13947","Mason-Plumlee-16798","Jahlil-Okafor-18902","D'Angelo-Russell-18947","Kenneth-Faried-13313","Otto-Porter-17069","49900","288.01"
"D'Angelo-Russell-18947","DeMar-DeRozan-1053","Kenrich-Williams-570179","Rudy-Gay-1341","Mason-Plumlee-16798","De'Aaron-Fox-37900","Otto-Porter-17069","Jahlil-Okafor-18902","50000","288.0"
"D'Angelo-Russell-18947","DeMar-DeRozan-1053","Khris-Middleton-13990","Mason-Plumlee-16798","Kenneth-Faried-13313","Marco-Belinelli-1033","Otto-Porter-17069","De'Aaron-Fox-37900","50000","287.99"
"D'Angelo-Russell-18947","DeMar-DeRozan-1053","Taurean-Prince-35218","Mason-Plumlee-16798","Jahlil-Okafor-18902","Elie-Okobo-409300","Kenneth-Faried-13313","Andre-Drummond-13904","50000","287.99"
"Tomas-Satoransky--36031","DeMar-DeRozan-1053","James-Ennis-18599","Mason-Plumlee-16798","Jahlil-Okafor-18902","D'Angelo-Russell-18947","Otto-Porter-17069","Andre-Drummond-13904","50000","287.97"
