"Russell-Westbrook-1083","Gary-Harris-18617","Justin-Holiday-14559","Paul-Millsap-1335","Jaren-Jackson-409099","Monte-Morris-37860","Bruno-Caboclo-18581","Nikola-Jokic-31812","50000","283.6"
"Russell-Westbrook-1083","Justin-Holiday-14559","Mario-Hezonja-18923","Paul-Millsap-1335","Nikola-Jokic-31812","Monte-Morris-37860","Bruno-Caboclo-18581","Steven-Adams-16848","50000","283.29"
"Russell-Westbrook-1083","Justin-Holiday-14559","Mario-Hezonja-18923","Paul-Millsap-1335","Nikola-Jokic-31812","Josh-Richardson-18922","Jaren-Jackson-409099","Bruno-Caboclo-18581","50000","283.07"
"Russell-Westbrook-1083","Justin-Holiday-14559","Mario-Hezonja-18923","Bruno-Caboclo-18581","Nikola-Jokic-31812","Jevon-Carter-409100","Jaren-Jackson-409099","Marc-Gasol-1493","49800","282.55"

"Russell-Westbrook-1083","Gary-Harris-18617","Justin-Holiday-14559","Paul-Millsap-1335","Jaren-Jackson-409099","Monte-Morris-37860","Bruno-Caboclo-18581","Nikola-Jokic-31812","50000","283.6"
"Russell-Westbrook-1083","Justin-Holiday-14559","Mario-Hezonja-18923","Paul-Millsap-1335","Nikola-Jokic-31812","Monte-Morris-37860","Bruno-Caboclo-18581","Steven-Adams-16848","50000","283.29"
"Russell-Westbrook-1083","Justin-Holiday-14559","Mario-Hezonja-18923","Paul-Millsap-1335","Nikola-Jokic-31812","Josh-Richardson-18922","Jaren-Jackson-409099","Bruno-Caboclo-18581","50000","283.07"
"Russell-Westbrook-1083","Justin-Holiday-14559","Mario-Hezonja-18923","Bruno-Caboclo-18581","Nikola-Jokic-31812","Jevon-Carter-409100","Jaren-Jackson-409099","Marc-Gasol-1493","49800","282.55"
"Russell-Westbrook-1083","Justin-Holiday-14559","Mario-Hezonja-18923","Paul-Millsap-1335","Nikola-Jokic-31812","Ricky-Rubio-1001","Jaren-Jackson-409099","Bruno-Caboclo-18581","49900","282.53"
"Russell-Westbrook-1083","Joe-Ingles-18627","Justin-Holiday-14559","Paul-Millsap-1335","Jaren-Jackson-409099","Monte-Morris-37860","Bruno-Caboclo-18581","Nikola-Jokic-31812","50000","282.45"
"Kadeem-Allen-37787","Justin-Holiday-14559","Mario-Hezonja-18923","Bruno-Caboclo-18581","Nikola-Jokic-31812","Russell-Westbrook-1083","Jaren-Jackson-409099","Marc-Gasol-1493","49900","282.42"
"Russell-Westbrook-1083","Justin-Holiday-14559","Bruno-Caboclo-18581","Paul-Millsap-1335","Jaren-Jackson-409099","Jevon-Carter-409100","Kenneth-Faried-13313","Nikola-Jokic-31812","49700","282.31"
"Kadeem-Allen-37787","Justin-Holiday-14559","Bruno-Caboclo-18581","Paul-Millsap-1335","Jaren-Jackson-409099","Russell-Westbrook-1083","Kenneth-Faried-13313","Nikola-Jokic-31812","49800","282.18"
"Russell-Westbrook-1083","Justin-Holiday-14559","Mario-Hezonja-18923","Paul-Millsap-1335","Nikola-Jokic-31812","Kemba-Walker-13335","Bruno-Caboclo-18581","Jevon-Carter-409100","49800","282.13"
"Kadeem-Allen-37787","Justin-Holiday-14559","Mario-Hezonja-18923","Paul-Millsap-1335","Nikola-Jokic-31812","Russell-Westbrook-1083","Bruno-Caboclo-18581","Kemba-Walker-13335","49900","282.0"
"Russell-Westbrook-1083","Justin-Holiday-14559","Mario-Hezonja-18923","Bruno-Caboclo-18581","Jaren-Jackson-409099","Tyler-Johnson-18720","Kenneth-Faried-13313","Nikola-Jokic-31812","49900","281.86"
"Russell-Westbrook-1083","Justin-Holiday-14559","Mario-Hezonja-18923","Bruno-Caboclo-18581","Nikola-Jokic-31812","Monte-Morris-37860","Jaren-Jackson-409099","Ricky-Rubio-1001","50000","281.83"
"Russell-Westbrook-1083","Justin-Holiday-14559","Mario-Hezonja-18923","Paul-Millsap-1335","Nikola-Jokic-31812","Jevon-Carter-409100","Jaren-Jackson-409099","Steven-Adams-16848","50000","281.62"
"Russell-Westbrook-1083","Jevon-Carter-409100","Justin-Holiday-14559","Bruno-Caboclo-18581","Jaren-Jackson-409099","Monte-Morris-37860","Kenneth-Faried-13313","Nikola-Jokic-31812","49800","281.61"
"Russell-Westbrook-1083","Justin-Holiday-14559","Mario-Hezonja-18923","Paul-Millsap-1335","Nikola-Jokic-31812","Wayne-Ellington-1009","Bruno-Caboclo-18581","Marc-Gasol-1493","49900","281.59"
"Russell-Westbrook-1083","Justin-Holiday-14559","Mario-Hezonja-18923","Paul-Millsap-1335","Nikola-Jokic-31812","Jevon-Carter-409100","Bruno-Caboclo-18581","Marc-Gasol-1493","49500","281.49"
"Russell-Westbrook-1083","Kadeem-Allen-37787","Justin-Holiday-14559","Bruno-Caboclo-18581","Jaren-Jackson-409099","Monte-Morris-37860","Kenneth-Faried-13313","Nikola-Jokic-31812","49900","281.48"
"Russell-Westbrook-1083","Eric-Gordon-1077","Justin-Holiday-14559","Paul-Millsap-1335","Jaren-Jackson-409099","Monte-Morris-37860","Bruno-Caboclo-18581","Nikola-Jokic-31812","49700","281.44"
"Russell-Westbrook-1083","Jevon-Carter-409100","Mario-Hezonja-18923","Bruno-Caboclo-18581","Nikola-Jokic-31812","Monte-Morris-37860","Justin-Holiday-14559","Kemba-Walker-13335","49900","281.43"
"Kadeem-Allen-37787","Justin-Holiday-14559","Mario-Hezonja-18923","Paul-Millsap-1335","Nikola-Jokic-31812","Russell-Westbrook-1083","Bruno-Caboclo-18581","Marc-Gasol-1493","49600","281.36"
"Russell-Westbrook-1083","Justin-Holiday-14559","Mario-Hezonja-18923","Paul-Millsap-1335","Nikola-Jokic-31812","Monte-Morris-37860","Bruno-Caboclo-18581","Josh-Richardson-18922","49800","281.31"
"Russell-Westbrook-1083","Kadeem-Allen-37787","Mario-Hezonja-18923","Bruno-Caboclo-18581","Nikola-Jokic-31812","Monte-Morris-37860","Justin-Holiday-14559","Kemba-Walker-13335","50000","281.3"
"Russell-Westbrook-1083","Jevon-Carter-409100","Justin-Holiday-14559","Bruno-Caboclo-18581","Jaren-Jackson-409099","Gary-Harris-18617","Kenneth-Faried-13313","Nikola-Jokic-31812","50000","281.26"
"Russell-Westbrook-1083","Jevon-Carter-409100","Mario-Hezonja-18923","Bruno-Caboclo-18581","Jaren-Jackson-409099","Monte-Morris-37860","Kenneth-Faried-13313","Nikola-Jokic-31812","49900","281.2"
"Shelvin-Mack-13354","Justin-Holiday-14559","Bruno-Caboclo-18581","Paul-Millsap-1335","Jaren-Jackson-409099","Russell-Westbrook-1083","Kenneth-Faried-13313","Nikola-Jokic-31812","50000","281.13"
"Russell-Westbrook-1083","Gary-Harris-18617","Justin-Holiday-14559","Paul-Millsap-1335","Jaren-Jackson-409099","Eric-Gordon-1077","Bruno-Caboclo-18581","Nikola-Jokic-31812","49900","281.09"
"Russell-Westbrook-1083","Justin-Holiday-14559","Mario-Hezonja-18923","Paul-Millsap-1335","Nikola-Jokic-31812","Monte-Morris-37860","Jaren-Jackson-409099","Bruno-Caboclo-18581","48900","281.07"
"Russell-Westbrook-1083","Kadeem-Allen-37787","Mario-Hezonja-18923","Bruno-Caboclo-18581","Jaren-Jackson-409099","Monte-Morris-37860","Kenneth-Faried-13313","Nikola-Jokic-31812","50000","281.07"
"Russell-Westbrook-1083","Eric-Gordon-1077","Mario-Hezonja-18923","Paul-Millsap-1335","Nikola-Jokic-31812","Monte-Morris-37860","Jaren-Jackson-409099","Bruno-Caboclo-18581","49800","281.03"
"Russell-Westbrook-1083","Justin-Holiday-14559","Marvin-Williams-1318","Paul-Millsap-1335","Nikola-Jokic-31812","Monte-Morris-37860","Jaren-Jackson-409099","Bruno-Caboclo-18581","49600","281.0"
"Russell-Westbrook-1083","Justin-Holiday-14559","Mario-Hezonja-18923","Paul-Millsap-1335","Nikola-Jokic-31812","Josh-Richardson-18922","Bruno-Caboclo-18581","Gary-Harris-18617","50000","280.96"
"Russell-Westbrook-1083","Justin-Holiday-14559","Mario-Hezonja-18923","Bruno-Caboclo-18581","Nikola-Jokic-31812","Jevon-Carter-409100","Kenneth-Faried-13313","Steven-Adams-16848","50000","280.95"
"Russell-Westbrook-1083","Justin-Holiday-14559","Mario-Hezonja-18923","Bruno-Caboclo-18581","Marc-Gasol-1493","Monte-Morris-37860","Wayne-Ellington-1009","Nikola-Jokic-31812","50000","280.89"
"Russell-Westbrook-1083","Justin-Holiday-14559","Mario-Hezonja-18923","Paul-Millsap-1335","Nikola-Jokic-31812","Tyler-Johnson-18720","Bruno-Caboclo-18581","Kenneth-Faried-13313","49600","280.8"
"Russell-Westbrook-1083","Jevon-Carter-409100","Mario-Hezonja-18923","Bruno-Caboclo-18581","Marc-Gasol-1493","Monte-Morris-37860","Justin-Holiday-14559","Nikola-Jokic-31812","49600","280.79"
"Russell-Westbrook-1083","Justin-Holiday-14559","Mario-Hezonja-18923","Paul-Millsap-1335","Nikola-Jokic-31812","Eric-Gordon-1077","Bruno-Caboclo-18581","Steven-Adams-16848","49900","280.78"
"Russell-Westbrook-1083","Justin-Holiday-14559","Mario-Hezonja-18923","Paul-Millsap-1335","Nikola-Jokic-31812","Monte-Morris-37860","Jaren-Jackson-409099","Tyler-Johnson-18720","49700","280.77"
"Russell-Westbrook-1083","Justin-Holiday-14559","Mario-Hezonja-18923","Paul-Millsap-1335","Nikola-Jokic-31812","Monte-Morris-37860","Bruno-Caboclo-18581","Ricky-Rubio-1001","49700","280.77"
"Russell-Westbrook-1083","Justin-Holiday-14559","Mario-Hezonja-18923","Paul-Millsap-1335","Nikola-Jokic-31812","Gary-Harris-18617","Jaren-Jackson-409099","Bruno-Caboclo-18581","49100","280.72"
"Russell-Westbrook-1083","Justin-Holiday-14559","Bruno-Caboclo-18581","Jayson-Tatum-37782","Nikola-Jokic-31812","Monte-Morris-37860","Jaren-Jackson-409099","Mario-Hezonja-18923","49700","280.69"
"Russell-Westbrook-1083","Gary-Harris-18617","Mario-Hezonja-18923","Paul-Millsap-1335","Nikola-Jokic-31812","Eric-Gordon-1077","Jaren-Jackson-409099","Bruno-Caboclo-18581","50000","280.68"
"Russell-Westbrook-1083","Kadeem-Allen-37787","Mario-Hezonja-18923","Bruno-Caboclo-18581","Marc-Gasol-1493","Monte-Morris-37860","Justin-Holiday-14559","Nikola-Jokic-31812","49700","280.66"
"Russell-Westbrook-1083","Wayne-Ellington-1009","Justin-Holiday-14559","Paul-Millsap-1335","Nikola-Jokic-31812","Monte-Morris-37860","Kenneth-Faried-13313","Bruno-Caboclo-18581","49900","280.65"
"Russell-Westbrook-1083","Justin-Holiday-14559","Marvin-Williams-1318","Paul-Millsap-1335","Nikola-Jokic-31812","Gary-Harris-18617","Jaren-Jackson-409099","Bruno-Caboclo-18581","49800","280.65"
"Russell-Westbrook-1083","Tyler-Johnson-18720","Justin-Holiday-14559","Paul-Millsap-1335","Steven-Adams-16848","Monte-Morris-37860","Bruno-Caboclo-18581","Nikola-Jokic-31812","50000","280.58"
"Russell-Westbrook-1083","Jevon-Carter-409100","Justin-Holiday-14559","Paul-Millsap-1335","Nikola-Jokic-31812","Monte-Morris-37860","Kenneth-Faried-13313","Bruno-Caboclo-18581","49500","280.55"
"Russell-Westbrook-1083","Jevon-Carter-409100","Mario-Hezonja-18923","Bruno-Caboclo-18581","Marc-Gasol-1493","Gary-Harris-18617","Justin-Holiday-14559","Nikola-Jokic-31812","49800","280.44"
"Russell-Westbrook-1083","Justin-Holiday-14559","Mario-Hezonja-18923","Paul-Millsap-1335","Nikola-Jokic-31812","Tyler-Johnson-18720","Jaren-Jackson-409099","Gary-Harris-18617","49900","280.42"
"Russell-Westbrook-1083","Justin-Holiday-14559","Mario-Hezonja-18923","Paul-Millsap-1335","Nikola-Jokic-31812","Ricky-Rubio-1001","Bruno-Caboclo-18581","Gary-Harris-18617","49900","280.42"
"Russell-Westbrook-1083","Kadeem-Allen-37787","Justin-Holiday-14559","Paul-Millsap-1335","Nikola-Jokic-31812","Monte-Morris-37860","Kenneth-Faried-13313","Bruno-Caboclo-18581","49600","280.42"
"Russell-Westbrook-1083","Gary-Harris-18617","Justin-Holiday-14559","Jaren-Jackson-409099","Nikola-Jokic-31812","Monte-Morris-37860","Eric-Gordon-1077","Bruno-Caboclo-18581","50000","280.39"
"Russell-Westbrook-1083","Justin-Holiday-14559","Bruno-Caboclo-18581","Paul-Millsap-1335","Jaren-Jackson-409099","Tyler-Johnson-18720","Josh-Richardson-18922","Nikola-Jokic-31812","50000","280.36"
"Russell-Westbrook-1083","Gary-Harris-18617","Justin-Holiday-14559","Paul-Millsap-1335","Nikola-Jokic-31812","Monte-Morris-37860","Joe-Ingles-18627","Bruno-Caboclo-18581","50000","280.34"
"Russell-Westbrook-1083","Justin-Holiday-14559","Bruno-Caboclo-18581","Jayson-Tatum-37782","Nikola-Jokic-31812","Gary-Harris-18617","Jaren-Jackson-409099","Mario-Hezonja-18923","49900","280.34"
"Kadeem-Allen-37787","Gary-Harris-18617","Mario-Hezonja-18923","Bruno-Caboclo-18581","Marc-Gasol-1493","Russell-Westbrook-1083","Justin-Holiday-14559","Nikola-Jokic-31812","49900","280.31"
"Shelvin-Mack-13354","Justin-Holiday-14559","Mario-Hezonja-18923","Paul-Millsap-1335","Nikola-Jokic-31812","Russell-Westbrook-1083","Bruno-Caboclo-18581","Marc-Gasol-1493","49800","280.31"
"Russell-Westbrook-1083","Justin-Holiday-14559","Bruno-Caboclo-18581","Derrick-Favors-1266","Nikola-Jokic-31812","Monte-Morris-37860","Paul-Millsap-1335","Jaren-Jackson-409099","49800","280.26"
"Russell-Westbrook-1083","Wayne-Ellington-1009","Mario-Hezonja-18923","Paul-Millsap-1335","Nikola-Jokic-31812","Monte-Morris-37860","Bruno-Caboclo-18581","Kenneth-Faried-13313","50000","280.24"
"Russell-Westbrook-1083","Jevon-Carter-409100","Justin-Holiday-14559","Paul-Millsap-1335","Nikola-Jokic-31812","Gary-Harris-18617","Kenneth-Faried-13313","Bruno-Caboclo-18581","49700","280.2"
"Russell-Westbrook-1083","Jevon-Carter-409100","Justin-Holiday-14559","Paul-Millsap-1335","Nikola-Jokic-31812","Monte-Morris-37860","Jaren-Jackson-409099","Gary-Harris-18617","49800","280.17"
"Russell-Westbrook-1083","Jevon-Carter-409100","Mario-Hezonja-18923","Paul-Millsap-1335","Nikola-Jokic-31812","Monte-Morris-37860","Bruno-Caboclo-18581","Kenneth-Faried-13313","49600","280.14"
"Russell-Westbrook-1083","Justin-Holiday-14559","Joe-Ingles-18627","Bruno-Caboclo-18581","Jaren-Jackson-409099","Jevon-Carter-409100","Kenneth-Faried-13313","Nikola-Jokic-31812","50000","280.11"
"Russell-Westbrook-1083","Tyler-Johnson-18720","Mario-Hezonja-18923","Kenneth-Faried-13313","Nikola-Jokic-31812","Monte-Morris-37860","Justin-Holiday-14559","Bruno-Caboclo-18581","49700","280.1"
"Russell-Westbrook-1083","Justin-Holiday-14559","Mario-Hezonja-18923","Paul-Millsap-1335","Nikola-Jokic-31812","Damyean-Dotson-37795","Bruno-Caboclo-18581","Marc-Gasol-1493","50000","280.09"
"Russell-Westbrook-1083","Justin-Holiday-14559","Mario-Hezonja-18923","Paul-Millsap-1335","Nikola-Jokic-31812","Monte-Morris-37860","Jaren-Jackson-409099","JaMychal-Green-18729","50000","280.09"
"Russell-Westbrook-1083","Eric-Gordon-1077","Mario-Hezonja-18923","Bruno-Caboclo-18581","Nikola-Jokic-31812","Monte-Morris-37860","Justin-Holiday-14559","Steven-Adams-16848","50000","280.08"
"Kadeem-Allen-37787","Gary-Harris-18617","Justin-Holiday-14559","Paul-Millsap-1335","Nikola-Jokic-31812","Russell-Westbrook-1083","Kenneth-Faried-13313","Bruno-Caboclo-18581","49800","280.07"
"Russell-Westbrook-1083","Justin-Holiday-14559","Mario-Hezonja-18923","Paul-Millsap-1335","Nikola-Jokic-31812","Justise-Winslow-18921","Jaren-Jackson-409099","Bruno-Caboclo-18581","49600","280.06"
"Kadeem-Allen-37787","Gary-Harris-18617","Justin-Holiday-14559","Paul-Millsap-1335","Nikola-Jokic-31812","Russell-Westbrook-1083","Jaren-Jackson-409099","Monte-Morris-37860","49900","280.04"
"Russell-Westbrook-1083","Justin-Holiday-14559","Bruno-Caboclo-18581","Paul-Millsap-1335","Nikola-Jokic-31812","Wayne-Ellington-1009","Jaren-Jackson-409099","Hassan-Whiteside-18664","49900","280.04"
"Russell-Westbrook-1083","Justin-Holiday-14559","Mario-Hezonja-18923","Bruno-Caboclo-18581","Nikola-Jokic-31812","Monte-Morris-37860","Jaren-Jackson-409099","Gary-Harris-18617","49200","280.02"
"Russell-Westbrook-1083","Kadeem-Allen-37787","Mario-Hezonja-18923","Paul-Millsap-1335","Nikola-Jokic-31812","Monte-Morris-37860","Bruno-Caboclo-18581","Kenneth-Faried-13313","49700","280.01"
"Russell-Westbrook-1083","Justin-Holiday-14559","Bruno-Caboclo-18581","Marvin-Williams-1318","Nikola-Jokic-31812","Monte-Morris-37860","Jaren-Jackson-409099","Gary-Harris-18617","49900","279.95"
"Monte-Morris-37860","Justin-Holiday-14559","Bruno-Caboclo-18581","Paul-Millsap-1335","Nikola-Jokic-31812","Kemba-Walker-13335","Jaren-Jackson-409099","Marc-Gasol-1493","49600","279.94"
"Russell-Westbrook-1083","Joe-Ingles-18627","Justin-Holiday-14559","Paul-Millsap-1335","Jaren-Jackson-409099","Eric-Gordon-1077","Bruno-Caboclo-18581","Nikola-Jokic-31812","49900","279.94"
"Russell-Westbrook-1083","Justin-Holiday-14559","Bruno-Caboclo-18581","Paul-Millsap-1335","Nikola-Jokic-31812","Jevon-Carter-409100","Jaren-Jackson-409099","Hassan-Whiteside-18664","49500","279.94"
"Russell-Westbrook-1083","Justin-Holiday-14559","Bruno-Caboclo-18581","Derrick-Favors-1266","Nikola-Jokic-31812","Gary-Harris-18617","Paul-Millsap-1335","Jaren-Jackson-409099","50000","279.91"
"Russell-Westbrook-1083","Jevon-Carter-409100","Mario-Hezonja-18923","Paul-Millsap-1335","Steven-Adams-16848","Monte-Morris-37860","Justin-Holiday-14559","Nikola-Jokic-31812","49800","279.86"
"Russell-Westbrook-1083","Justin-Holiday-14559","Mario-Hezonja-18923","Bruno-Caboclo-18581","Nikola-Jokic-31812","Josh-Richardson-18922","Jaren-Jackson-409099","Eric-Gordon-1077","50000","279.86"
"Russell-Westbrook-1083","Tyler-Johnson-18720","Justin-Holiday-14559","Bruno-Caboclo-18581","Marc-Gasol-1493","Jevon-Carter-409100","Jaren-Jackson-409099","Nikola-Jokic-31812","49800","279.84"
"Russell-Westbrook-1083","Tyler-Johnson-18720","Justin-Holiday-14559","Paul-Millsap-1335","Jaren-Jackson-409099","Ricky-Rubio-1001","Bruno-Caboclo-18581","Nikola-Jokic-31812","49900","279.82"
"Russell-Westbrook-1083","Justin-Holiday-14559","Mario-Hezonja-18923","Paul-Millsap-1335","Nikola-Jokic-31812","Josh-Richardson-18922","Bruno-Caboclo-18581","Joe-Ingles-18627","50000","279.81"
"Kadeem-Allen-37787","Justin-Holiday-14559","Bruno-Caboclo-18581","Paul-Millsap-1335","Nikola-Jokic-31812","Russell-Westbrook-1083","Jaren-Jackson-409099","Hassan-Whiteside-18664","49600","279.81"
"Russell-Westbrook-1083","Jevon-Carter-409100","Mario-Hezonja-18923","Paul-Millsap-1335","Nikola-Jokic-31812","Gary-Harris-18617","Bruno-Caboclo-18581","Kenneth-Faried-13313","49800","279.79"
"Russell-Westbrook-1083","Jevon-Carter-409100","Mario-Hezonja-18923","Paul-Millsap-1335","Nikola-Jokic-31812","Monte-Morris-37860","Jaren-Jackson-409099","Gary-Harris-18617","49900","279.76"
"Kadeem-Allen-37787","Jevon-Carter-409100","Bruno-Caboclo-18581","Paul-Millsap-1335","Nikola-Jokic-31812","Russell-Westbrook-1083","Jaren-Jackson-409099","Marc-Gasol-1493","49800","279.75"
"Russell-Westbrook-1083","Tyler-Johnson-18720","Mario-Hezonja-18923","Kenneth-Faried-13313","Nikola-Jokic-31812","Gary-Harris-18617","Justin-Holiday-14559","Bruno-Caboclo-18581","49900","279.75"
"Russell-Westbrook-1083","Kadeem-Allen-37787","Mario-Hezonja-18923","Paul-Millsap-1335","Steven-Adams-16848","Monte-Morris-37860","Justin-Holiday-14559","Nikola-Jokic-31812","49900","279.73"
"Russell-Westbrook-1083","Gary-Harris-18617","Mario-Hezonja-18923","Bruno-Caboclo-18581","Nikola-Jokic-31812","Monte-Morris-37860","Justin-Holiday-14559","Ricky-Rubio-1001","50000","279.72"
"Russell-Westbrook-1083","Tyler-Johnson-18720","Mario-Hezonja-18923","Jaren-Jackson-409099","Nikola-Jokic-31812","Monte-Morris-37860","Justin-Holiday-14559","Gary-Harris-18617","50000","279.72"
"Kadeem-Allen-37787","Tyler-Johnson-18720","Justin-Holiday-14559","Bruno-Caboclo-18581","Marc-Gasol-1493","Russell-Westbrook-1083","Jaren-Jackson-409099","Nikola-Jokic-31812","49900","279.71"
"Russell-Westbrook-1083","Justin-Holiday-14559","Mario-Hezonja-18923","Paul-Millsap-1335","Nikola-Jokic-31812","Will-Barton-13982","Bruno-Caboclo-18581","Marvin-Williams-1318","50000","279.7"
"Russell-Westbrook-1083","Jevon-Carter-409100","Bruno-Caboclo-18581","Paul-Millsap-1335","Jaren-Jackson-409099","Monte-Morris-37860","Josh-Richardson-18922","Nikola-Jokic-31812","50000","279.7"
"Kadeem-Allen-37787","Gary-Harris-18617","Mario-Hezonja-18923","Paul-Millsap-1335","Nikola-Jokic-31812","Russell-Westbrook-1083","Bruno-Caboclo-18581","Kenneth-Faried-13313","49900","279.66"
"Russell-Westbrook-1083","Justin-Holiday-14559","Mario-Hezonja-18923","Paul-Millsap-1335","Nikola-Jokic-31812","Josh-Richardson-18922","Jaren-Jackson-409099","Jevon-Carter-409100","49800","279.64"
"Russell-Westbrook-1083","Justin-Holiday-14559","Mario-Hezonja-18923","Bruno-Caboclo-18581","Steven-Adams-16848","Monte-Morris-37860","Marvin-Williams-1318","Nikola-Jokic-31812","49900","279.64"
"Kadeem-Allen-37787","Jevon-Carter-409100","Mario-Hezonja-18923","Jaren-Jackson-409099","Nikola-Jokic-31812","Russell-Westbrook-1083","Justin-Holiday-14559","Kemba-Walker-13335","50000","279.63"
"Russell-Westbrook-1083","Justin-Holiday-14559","Mario-Hezonja-18923","Bruno-Caboclo-18581","Paul-Millsap-1335","Monte-Morris-37860","Jayson-Tatum-37782","Nikola-Jokic-31812","49400","279.63"
"Kadeem-Allen-37787","Gary-Harris-18617","Mario-Hezonja-18923","Paul-Millsap-1335","Nikola-Jokic-31812","Russell-Westbrook-1083","Jaren-Jackson-409099","Monte-Morris-37860","50000","279.63"
