"Tim-Frazier-18743","Jrue-Holiday-1073","Otto-Porter-17069","Domantas-Sabonis-35217","Nikola-Jokic-31812","Kyle-Anderson-18615","Darius-Miller-13951","Jahlil-Okafor-18902","49900","279.74"
"Tim-Frazier-18743","Jrue-Holiday-1073","Kyle-Anderson-18615","Jaren-Jackson-409099","Jahlil-Okafor-18902","Darren-Collison-1060","Justin-Holiday-14559","Nikola-Jokic-31812","50000","279.44"
"Frank-Jackson-37855","Jrue-Holiday-1073","Otto-Porter-17069","Domantas-Sabonis-35217","Nikola-Jokic-31812","Justin-Holiday-14559","Darius-Miller-13951","Jahlil-Okafor-18902","49900","278.95"
"Jrue-Holiday-1073","Justin-Holiday-14559","Kyle-Anderson-18615","Paul-Millsap-1335","Domantas-Sabonis-35217","Bradley-Beal-13898","Otto-Porter-17069","Jahlil-Okafor-18902","50000","278.89"
"Frank-Jackson-37855","Jrue-Holiday-1073","Justin-Holiday-14559","Paul-Millsap-1335","Jahlil-Okafor-18902","Kyle-Anderson-18615","Domantas-Sabonis-35217","Nikola-Jokic-31812","49900","278.78"

"Tim-Frazier-18743","Jrue-Holiday-1073","Otto-Porter-17069","Domantas-Sabonis-35217","Nikola-Jokic-31812","Kyle-Anderson-18615","Darius-Miller-13951","Jahlil-Okafor-18902","49900","279.74"
"Tim-Frazier-18743","Jrue-Holiday-1073","Kyle-Anderson-18615","Jaren-Jackson-409099","Jahlil-Okafor-18902","Darren-Collison-1060","Justin-Holiday-14559","Nikola-Jokic-31812","50000","279.44"
"Frank-Jackson-37855","Jrue-Holiday-1073","Otto-Porter-17069","Domantas-Sabonis-35217","Nikola-Jokic-31812","Justin-Holiday-14559","Darius-Miller-13951","Jahlil-Okafor-18902","49900","278.95"
"Jrue-Holiday-1073","Justin-Holiday-14559","Kyle-Anderson-18615","Paul-Millsap-1335","Domantas-Sabonis-35217","Bradley-Beal-13898","Otto-Porter-17069","Jahlil-Okafor-18902","50000","278.89"
"Frank-Jackson-37855","Jrue-Holiday-1073","Justin-Holiday-14559","Paul-Millsap-1335","Jahlil-Okafor-18902","Kyle-Anderson-18615","Domantas-Sabonis-35217","Nikola-Jokic-31812","49900","278.78"
"Tim-Frazier-18743","Jrue-Holiday-1073","Otto-Porter-17069","Domantas-Sabonis-35217","Nikola-Jokic-31812","Justin-Holiday-14559","Darius-Miller-13951","Jahlil-Okafor-18902","49700","278.76"
"Frank-Jackson-37855","Jrue-Holiday-1073","Kyle-Anderson-18615","Otto-Porter-17069","Jahlil-Okafor-18902","Darren-Collison-1060","Darius-Miller-13951","Nikola-Jokic-31812","50000","278.75"
"Jrue-Holiday-1073","Justin-Holiday-14559","Otto-Porter-17069","Paul-Millsap-1335","Nikola-Jokic-31812","Kyle-Anderson-18615","Darius-Miller-13951","Jahlil-Okafor-18902","49700","278.67"
"Jrue-Holiday-1073","Justin-Holiday-14559","Kyle-Anderson-18615","Domantas-Sabonis-35217","Jahlil-Okafor-18902","Bradley-Beal-13898","Will-Barton-13982","Darius-Miller-13951","49900","278.61"
"Tim-Frazier-18743","Jrue-Holiday-1073","Justin-Holiday-14559","Paul-Millsap-1335","Jahlil-Okafor-18902","Kyle-Anderson-18615","Domantas-Sabonis-35217","Nikola-Jokic-31812","49700","278.59"
"Tim-Frazier-18743","Jrue-Holiday-1073","Kyle-Anderson-18615","Otto-Porter-17069","Jahlil-Okafor-18902","Darren-Collison-1060","Darius-Miller-13951","Nikola-Jokic-31812","49800","278.56"
"Tim-Frazier-18743","Jrue-Holiday-1073","Josh-Okogie-409174","Domantas-Sabonis-35217","Jahlil-Okafor-18902","Justin-Holiday-14559","Otto-Porter-17069","Nikola-Jokic-31812","50000","278.54"
"Jrue-Holiday-1073","Justin-Holiday-14559","Josh-Okogie-409174","Paul-Millsap-1335","Nikola-Jokic-31812","Kyle-Anderson-18615","Otto-Porter-17069","Jahlil-Okafor-18902","50000","278.45"
"Jrue-Holiday-1073","Bojan-Bogdanovic-18571","Justin-Holiday-14559","Jaren-Jackson-409099","Nikola-Jokic-31812","Kyle-Anderson-18615","Darius-Miller-13951","Jahlil-Okafor-18902","49900","278.34"
"Ian-Clark-16922","Jrue-Holiday-1073","Bojan-Bogdanovic-18571","Domantas-Sabonis-35217","Jahlil-Okafor-18902","Kyle-Anderson-18615","Justin-Holiday-14559","Nikola-Jokic-31812","50000","278.28"
"Ian-Clark-16922","Jrue-Holiday-1073","Justin-Holiday-14559","Domantas-Sabonis-35217","Jahlil-Okafor-18902","Darren-Collison-1060","Darius-Miller-13951","Nikola-Jokic-31812","50000","278.18"
"Jrue-Holiday-1073","Will-Barton-13982","Josh-Okogie-409174","Darius-Miller-13951","Jahlil-Okafor-18902","Kyle-Anderson-18615","Justin-Holiday-14559","Nikola-Jokic-31812","49900","278.17"
"Tim-Frazier-18743","Jrue-Holiday-1073","Otto-Porter-17069","Dario-Saric-36004","Nikola-Jokic-31812","Kyle-Anderson-18615","Domantas-Sabonis-35217","Jahlil-Okafor-18902","50000","278.15"
"Jrue-Holiday-1073","Justin-Holiday-14559","Josh-Okogie-409174","Domantas-Sabonis-35217","Nikola-Jokic-31812","Kyle-Anderson-18615","Darius-Miller-13951","Jahlil-Okafor-18902","49400","278.01"
"Ian-Clark-16922","Jrue-Holiday-1073","Kyle-Anderson-18615","Domantas-Sabonis-35217","Nikola-Jokic-31812","Justin-Holiday-14559","Jaren-Jackson-409099","Jahlil-Okafor-18902","49900","277.98"
"Jrue-Holiday-1073","Justin-Holiday-14559","Bojan-Bogdanovic-18571","Darius-Miller-13951","Jahlil-Okafor-18902","Gary-Harris-18617","Kyle-Anderson-18615","Nikola-Jokic-31812","50000","277.96"
"Tim-Frazier-18743","Jrue-Holiday-1073","Kyle-Anderson-18615","Otto-Porter-17069","Karl-Anthony-Towns-18937","Darren-Collison-1060","Justin-Holiday-14559","Jahlil-Okafor-18902","50000","277.93"
"Frank-Jackson-37855","Jrue-Holiday-1073","Bojan-Bogdanovic-18571","Otto-Porter-17069","Jahlil-Okafor-18902","Justin-Holiday-14559","Kyle-Anderson-18615","Nikola-Jokic-31812","49800","277.87"
"Tim-Frazier-18743","Jrue-Holiday-1073","Justin-Holiday-14559","Domantas-Sabonis-35217","Jahlil-Okafor-18902","Bradley-Beal-13898","Otto-Porter-17069","Darren-Collison-1060","49900","277.8"
"Frank-Jackson-37855","Jrue-Holiday-1073","Justin-Holiday-14559","Otto-Porter-17069","Nikola-Jokic-31812","Darren-Collison-1060","Darius-Miller-13951","Jahlil-Okafor-18902","49800","277.77"
"Tim-Frazier-18743","Jrue-Holiday-1073","Justin-Holiday-14559","Domantas-Sabonis-35217","Jahlil-Okafor-18902","Cory-Joseph-13339","Otto-Porter-17069","Nikola-Jokic-31812","49900","277.75"
"Jrue-Holiday-1073","Justin-Holiday-14559","Darius-Miller-13951","Paul-Millsap-1335","Jahlil-Okafor-18902","Kyle-Anderson-18615","Domantas-Sabonis-35217","Karl-Anthony-Towns-18937","50000","277.74"
"Jrue-Holiday-1073","Bradley-Beal-13898","Kyle-Anderson-18615","Otto-Porter-17069","Paul-Millsap-1335","Darren-Collison-1060","Justin-Holiday-14559","Jahlil-Okafor-18902","49900","277.71"
"Jrue-Holiday-1073","Bojan-Bogdanovic-18571","Kyle-Anderson-18615","Otto-Porter-17069","Jahlil-Okafor-18902","Bradley-Beal-13898","Darius-Miller-13951","Domantas-Sabonis-35217","50000","277.68"
"Jrue-Holiday-1073","Justin-Holiday-14559","Thaddeus-Young-1289","Jaren-Jackson-409099","Jahlil-Okafor-18902","Kyle-Anderson-18615","Darius-Miller-13951","Nikola-Jokic-31812","50000","277.68"
"Tim-Frazier-18743","Jrue-Holiday-1073","Bojan-Bogdanovic-18571","Otto-Porter-17069","Jahlil-Okafor-18902","Justin-Holiday-14559","Kyle-Anderson-18615","Nikola-Jokic-31812","49600","277.68"
"Jrue-Holiday-1073","Gary-Harris-18617","Justin-Holiday-14559","Jaren-Jackson-409099","Nikola-Jokic-31812","Kyle-Anderson-18615","Darius-Miller-13951","Jahlil-Okafor-18902","49900","277.66"
"Jrue-Holiday-1073","Justin-Holiday-14559","Kyle-Anderson-18615","Paul-Millsap-1335","Jahlil-Okafor-18902","Cory-Joseph-13339","Otto-Porter-17069","Nikola-Jokic-31812","49900","277.66"
"Ian-Clark-16922","Jrue-Holiday-1073","Kyle-Anderson-18615","Domantas-Sabonis-35217","Nikola-Jokic-31812","Gary-Harris-18617","Justin-Holiday-14559","Jahlil-Okafor-18902","50000","277.6"
"Frank-Jackson-37855","Jrue-Holiday-1073","Kyle-Anderson-18615","Paul-Millsap-1335","Nikola-Jokic-31812","Darren-Collison-1060","Justin-Holiday-14559","Jahlil-Okafor-18902","49800","277.6"
"Tim-Frazier-18743","Jrue-Holiday-1073","Justin-Holiday-14559","Otto-Porter-17069","Nikola-Jokic-31812","Darren-Collison-1060","Darius-Miller-13951","Jahlil-Okafor-18902","49600","277.58"
"Frank-Jackson-37855","Jrue-Holiday-1073","Justin-Holiday-14559","Jaren-Jackson-409099","Jahlil-Okafor-18902","Kyle-Anderson-18615","Otto-Porter-17069","Nikola-Jokic-31812","49700","277.57"
"Frank-Jackson-37855","Bojan-Bogdanovic-18571","Kyle-Anderson-18615","Domantas-Sabonis-35217","Nikola-Jokic-31812","Jrue-Holiday-1073","Darius-Miller-13951","Jahlil-Okafor-18902","49900","277.57"
"Tomas-Satoransky--36031","Tim-Frazier-18743","Kyle-Anderson-18615","Jaren-Jackson-409099","Jahlil-Okafor-18902","Jrue-Holiday-1073","Justin-Holiday-14559","Nikola-Jokic-31812","50000","277.48"
"Tim-Frazier-18743","Jrue-Holiday-1073","Bruno-Caboclo-18581","Darius-Miller-13951","Jahlil-Okafor-18902","Bradley-Beal-13898","Kyle-Anderson-18615","Nikola-Jokic-31812","49900","277.46"
"Kyle-Anderson-18615","Justin-Holiday-14559","Bojan-Bogdanovic-18571","Otto-Porter-17069","Jahlil-Okafor-18902","Bradley-Beal-13898","Darius-Miller-13951","Nikola-Jokic-31812","50000","277.45"
"Jrue-Holiday-1073","Bradley-Beal-13898","Justin-Holiday-14559","Darius-Miller-13951","Jahlil-Okafor-18902","Kyle-Anderson-18615","Will-Barton-13982","Darren-Collison-1060","49800","277.43"
"Jrue-Holiday-1073","Bradley-Beal-13898","Kyle-Anderson-18615","Paul-Millsap-1335","Domantas-Sabonis-35217","Darren-Collison-1060","Darius-Miller-13951","Jahlil-Okafor-18902","50000","277.41"
"Tim-Frazier-18743","Jrue-Holiday-1073","Kyle-Anderson-18615","Paul-Millsap-1335","Nikola-Jokic-31812","Darren-Collison-1060","Justin-Holiday-14559","Jahlil-Okafor-18902","49600","277.41"
"Jrue-Holiday-1073","Bradley-Beal-13898","Otto-Porter-17069","Domantas-Sabonis-35217","Jaren-Jackson-409099","Kyle-Anderson-18615","Darius-Miller-13951","Jahlil-Okafor-18902","49900","277.38"
"Kyle-Anderson-18615","Jrue-Holiday-1073","Justin-Holiday-14559","Darius-Miller-13951","Nikola-Jokic-31812","Cory-Joseph-13339","Will-Barton-13982","Jahlil-Okafor-18902","49800","277.38"
"Tim-Frazier-18743","Bojan-Bogdanovic-18571","Kyle-Anderson-18615","Domantas-Sabonis-35217","Nikola-Jokic-31812","Jrue-Holiday-1073","Darius-Miller-13951","Jahlil-Okafor-18902","49700","277.38"
"Tim-Frazier-18743","Jrue-Holiday-1073","Justin-Holiday-14559","Jaren-Jackson-409099","Jahlil-Okafor-18902","Kyle-Anderson-18615","Otto-Porter-17069","Nikola-Jokic-31812","49500","277.38"
"Tim-Frazier-18743","Bradley-Beal-13898","Bojan-Bogdanovic-18571","Domantas-Sabonis-35217","Jahlil-Okafor-18902","Kyle-Anderson-18615","Justin-Holiday-14559","Nikola-Jokic-31812","50000","277.37"
"Kyle-Anderson-18615","Jrue-Holiday-1073","Darius-Miller-13951","Paul-Millsap-1335","Nikola-Jokic-31812","Cory-Joseph-13339","Domantas-Sabonis-35217","Jahlil-Okafor-18902","50000","277.36"
"Frank-Jackson-37855","Jrue-Holiday-1073","Otto-Porter-17069","Dario-Saric-36004","Nikola-Jokic-31812","Justin-Holiday-14559","Domantas-Sabonis-35217","Jahlil-Okafor-18902","50000","277.36"
"Tim-Frazier-18743","Jrue-Holiday-1073","Josh-Okogie-409174","Otto-Porter-17069","Nikola-Jokic-31812","Darren-Collison-1060","Justin-Holiday-14559","Jahlil-Okafor-18902","49900","277.36"
"Tim-Frazier-18743","Bradley-Beal-13898","Justin-Holiday-14559","Domantas-Sabonis-35217","Jahlil-Okafor-18902","Darren-Collison-1060","Darius-Miller-13951","Nikola-Jokic-31812","50000","277.27"
"Frank-Jackson-37855","Jrue-Holiday-1073","Darius-Miller-13951","Domantas-Sabonis-35217","Nikola-Jokic-31812","Kyle-Anderson-18615","Jaren-Jackson-409099","Jahlil-Okafor-18902","49800","277.27"
"Jrue-Holiday-1073","Bradley-Beal-13898","Justin-Holiday-14559","Domantas-Sabonis-35217","Jahlil-Okafor-18902","Kyle-Anderson-18615","Darius-Miller-13951","Darren-Collison-1060","49300","277.27"
"Jrue-Holiday-1073","Josh-Okogie-409174","Kyle-Anderson-18615","Otto-Porter-17069","Jahlil-Okafor-18902","Bojan-Bogdanovic-18571","Darius-Miller-13951","Nikola-Jokic-31812","50000","277.24"
"Jrue-Holiday-1073","Justin-Holiday-14559","Kyle-Anderson-18615","Domantas-Sabonis-35217","Nikola-Jokic-31812","Cory-Joseph-13339","Darius-Miller-13951","Jahlil-Okafor-18902","49300","277.22"
"Frank-Jackson-37855","Jrue-Holiday-1073","Justin-Holiday-14559","Otto-Porter-17069","Jahlil-Okafor-18902","Kyle-Anderson-18615","Thaddeus-Young-1289","Nikola-Jokic-31812","49900","277.21"
"Frank-Jackson-37855","Jrue-Holiday-1073","Kyle-Anderson-18615","Otto-Porter-17069","Nikola-Jokic-31812","Gary-Harris-18617","Justin-Holiday-14559","Jahlil-Okafor-18902","49800","277.19"
"Kyle-Anderson-18615","Bradley-Beal-13898","Justin-Holiday-14559","Paul-Millsap-1335","Nikola-Jokic-31812","Darren-Collison-1060","Darius-Miller-13951","Jahlil-Okafor-18902","50000","277.18"
"Jrue-Holiday-1073","Josh-Okogie-409174","Darius-Miller-13951","Paul-Millsap-1335","Nikola-Jokic-31812","Justin-Holiday-14559","Domantas-Sabonis-35217","Jahlil-Okafor-18902","49900","277.17"
"Tim-Frazier-18743","Jrue-Holiday-1073","Otto-Porter-17069","Dario-Saric-36004","Nikola-Jokic-31812","Justin-Holiday-14559","Domantas-Sabonis-35217","Jahlil-Okafor-18902","49800","277.17"
"Tim-Frazier-18743","Bojan-Bogdanovic-18571","Josh-Okogie-409174","Domantas-Sabonis-35217","Nikola-Jokic-31812","Jrue-Holiday-1073","Kyle-Anderson-18615","Jahlil-Okafor-18902","50000","277.16"
"Kyle-Anderson-18615","Justin-Holiday-14559","Otto-Porter-17069","Jaren-Jackson-409099","Jahlil-Okafor-18902","Bradley-Beal-13898","Darius-Miller-13951","Nikola-Jokic-31812","49900","277.15"
"Ian-Clark-16922","Jrue-Holiday-1073","Otto-Porter-17069","Domantas-Sabonis-35217","Nikola-Jokic-31812","Kyle-Anderson-18615","Darius-Miller-13951","Jahlil-Okafor-18902","49700","277.1"
"Ian-Clark-16922","Bradley-Beal-13898","Justin-Holiday-14559","Domantas-Sabonis-35217","Jahlil-Okafor-18902","Kyle-Anderson-18615","Otto-Porter-17069","Nikola-Jokic-31812","50000","277.09"
"Jrue-Holiday-1073","Justin-Holiday-14559","Otto-Porter-17069","Paul-Millsap-1335","Jahlil-Okafor-18902","Kyle-Anderson-18615","Dario-Saric-36004","Nikola-Jokic-31812","49800","277.08"
"Tim-Frazier-18743","Jrue-Holiday-1073","Darius-Miller-13951","Domantas-Sabonis-35217","Nikola-Jokic-31812","Kyle-Anderson-18615","Jaren-Jackson-409099","Jahlil-Okafor-18902","49600","277.08"
"Jrue-Holiday-1073","Justin-Holiday-14559","Bruno-Caboclo-18581","Paul-Millsap-1335","Nikola-Jokic-31812","Kyle-Anderson-18615","Domantas-Sabonis-35217","Jahlil-Okafor-18902","49800","277.07"
"Tim-Frazier-18743","Justin-Holiday-14559","Kyle-Anderson-18615","Domantas-Sabonis-35217","Nikola-Jokic-31812","Bradley-Beal-13898","Jaren-Jackson-409099","Jahlil-Okafor-18902","49900","277.07"
"Tim-Frazier-18743","Jrue-Holiday-1073","Kyle-Anderson-18615","Thomas-Bryant--37884","Nikola-Jokic-31812","Darren-Collison-1060","Justin-Holiday-14559","Jahlil-Okafor-18902","50000","277.06"
"Tim-Frazier-18743","Jrue-Holiday-1073","Josh-Okogie-409174","Domantas-Sabonis-35217","Nikola-Jokic-31812","Darren-Collison-1060","Darius-Miller-13951","Jahlil-Okafor-18902","50000","277.06"
"Jrue-Holiday-1073","Justin-Holiday-14559","Josh-Okogie-409174","Domantas-Sabonis-35217","Jahlil-Okafor-18902","Bradley-Beal-13898","Kyle-Anderson-18615","Darren-Collison-1060","49600","277.05"
"Kyle-Anderson-18615","Jrue-Holiday-1073","Bruno-Caboclo-18581","Otto-Porter-17069","Nikola-Jokic-31812","Darren-Collison-1060","Darius-Miller-13951","Jahlil-Okafor-18902","49900","277.04"
"Jrue-Holiday-1073","Justin-Holiday-14559","Kyle-Anderson-18615","Domantas-Sabonis-35217","Jahlil-Okafor-18902","Bradley-Beal-13898","Will-Barton-13982","Dario-Saric-36004","50000","277.02"
"Tim-Frazier-18743","Jrue-Holiday-1073","Justin-Holiday-14559","Otto-Porter-17069","Jahlil-Okafor-18902","Kyle-Anderson-18615","Thaddeus-Young-1289","Nikola-Jokic-31812","49700","277.02"
"Tim-Frazier-18743","Jrue-Holiday-1073","Kyle-Anderson-18615","Otto-Porter-17069","Nikola-Jokic-31812","Gary-Harris-18617","Justin-Holiday-14559","Jahlil-Okafor-18902","49600","277.0"
"Kyle-Anderson-18615","Jrue-Holiday-1073","Josh-Okogie-409174","Domantas-Sabonis-35217","Nikola-Jokic-31812","Cory-Joseph-13339","Justin-Holiday-14559","Jahlil-Okafor-18902","49600","277.0"
"Jrue-Holiday-1073","Bradley-Beal-13898","Kyle-Anderson-18615","Otto-Porter-17069","Jahlil-Okafor-18902","Gary-Harris-18617","Darius-Miller-13951","Domantas-Sabonis-35217","50000","277.0"
"Jrue-Holiday-1073","Josh-Okogie-409174","Kyle-Anderson-18615","Paul-Millsap-1335","Nikola-Jokic-31812","Darren-Collison-1060","Darius-Miller-13951","Jahlil-Okafor-18902","50000","276.97"
"Tim-Frazier-18743","Jrue-Holiday-1073","Kyle-Anderson-18615","Dario-Saric-36004","Jahlil-Okafor-18902","Darren-Collison-1060","Otto-Porter-17069","Nikola-Jokic-31812","49900","276.97"
"Tim-Frazier-18743","Jrue-Holiday-1073","Bruno-Caboclo-18581","Domantas-Sabonis-35217","Nikola-Jokic-31812","Darren-Collison-1060","Kyle-Anderson-18615","Jahlil-Okafor-18902","49900","276.96"
"Kyle-Anderson-18615","Justin-Holiday-14559","Bojan-Bogdanovic-18571","Domantas-Sabonis-35217","Nikola-Jokic-31812","Darren-Collison-1060","Otto-Porter-17069","Jahlil-Okafor-18902","50000","276.95"
"Jrue-Holiday-1073","Jerryd-Bayless-1021","Justin-Holiday-14559","Domantas-Sabonis-35217","Jahlil-Okafor-18902","Bradley-Beal-13898","Otto-Porter-17069","Kyle-Anderson-18615","50000","276.95"
"Jrue-Holiday-1073","Josh-Okogie-409174","Otto-Porter-17069","Jaren-Jackson-409099","Jahlil-Okafor-18902","Kyle-Anderson-18615","Darius-Miller-13951","Nikola-Jokic-31812","49900","276.94"
"Frank-Jackson-37855","Jrue-Holiday-1073","Thaddeus-Young-1289","Domantas-Sabonis-35217","Jahlil-Okafor-18902","Kyle-Anderson-18615","Darius-Miller-13951","Nikola-Jokic-31812","50000","276.91"
"Frank-Jackson-37855","Jrue-Holiday-1073","Kyle-Anderson-18615","Domantas-Sabonis-35217","Nikola-Jokic-31812","Gary-Harris-18617","Darius-Miller-13951","Jahlil-Okafor-18902","49900","276.89"
"Ian-Clark-16922","Jrue-Holiday-1073","Josh-Okogie-409174","Domantas-Sabonis-35217","Jahlil-Okafor-18902","Kyle-Anderson-18615","Otto-Porter-17069","Nikola-Jokic-31812","50000","276.88"
"Tim-Frazier-18743","Jrue-Holiday-1073","Josh-Okogie-409174","Domantas-Sabonis-35217","Jahlil-Okafor-18902","Kyle-Anderson-18615","Jaren-Jackson-409099","Nikola-Jokic-31812","49900","276.86"
"Jrue-Holiday-1073","Justin-Holiday-14559","Kyle-Anderson-18615","Domantas-Sabonis-35217","Nikola-Jokic-31812","Monte-Morris-37860","Darius-Miller-13951","Jahlil-Okafor-18902","49800","276.85"
"Frank-Jackson-37855","Jrue-Holiday-1073","Kyle-Anderson-18615","Domantas-Sabonis-35217","Nikola-Jokic-31812","Jerryd-Bayless-1021","Justin-Holiday-14559","Jahlil-Okafor-18902","49900","276.84"
"Jrue-Holiday-1073","Bojan-Bogdanovic-18571","Kyle-Anderson-18615","Otto-Porter-17069","Jahlil-Okafor-18902","Justin-Holiday-14559","Darius-Miller-13951","Karl-Anthony-Towns-18937","49900","276.83"
"Kyle-Anderson-18615","Jrue-Holiday-1073","Josh-Okogie-409174","Darius-Miller-13951","Jahlil-Okafor-18902","Darren-Collison-1060","Justin-Holiday-14559","Nikola-Jokic-31812","49300","276.83"
"Ian-Clark-16922","Jrue-Holiday-1073","Kyle-Anderson-18615","Jaren-Jackson-409099","Jahlil-Okafor-18902","Darren-Collison-1060","Justin-Holiday-14559","Nikola-Jokic-31812","49800","276.8"
"Jrue-Holiday-1073","Justin-Holiday-14559","Kyle-Anderson-18615","Dario-Saric-36004","Nikola-Jokic-31812","Will-Barton-13982","Darius-Miller-13951","Jahlil-Okafor-18902","49700","276.8"
"Frank-Jackson-37855","Tomas-Satoransky--36031","Kyle-Anderson-18615","Otto-Porter-17069","Jahlil-Okafor-18902","Jrue-Holiday-1073","Darius-Miller-13951","Nikola-Jokic-31812","50000","276.79"
"Kyle-Anderson-18615","Bradley-Beal-13898","Justin-Holiday-14559","Otto-Porter-17069","Nikola-Jokic-31812","Gary-Harris-18617","Darius-Miller-13951","Jahlil-Okafor-18902","50000","276.77"
"Frank-Jackson-37855","Tim-Frazier-18743","Kyle-Anderson-18615","Otto-Porter-17069","Jahlil-Okafor-18902","Jrue-Holiday-1073","Will-Barton-13982","Nikola-Jokic-31812","50000","276.77"
"Jrue-Holiday-1073","Justin-Holiday-14559","Bojan-Bogdanovic-18571","Dario-Saric-36004","Jahlil-Okafor-18902","Kyle-Anderson-18615","Jaren-Jackson-409099","Nikola-Jokic-31812","50000","276.75"
"Tim-Frazier-18743","Jrue-Holiday-1073","Bojan-Bogdanovic-18571","Domantas-Sabonis-35217","Jahlil-Okafor-18902","Kyle-Anderson-18615","Justin-Holiday-14559","Karl-Anthony-Towns-18937","49900","276.75"
