"Kris-Dunn-35215","Bogdan-Bogdanovic-37899","Jabari-Parker-18593","Lauri-Markkanen-37809","Deandre-Ayton-409301","Devin-Booker-18949","Paul-George-1245","Bobby-Portis-18909","50000","279.26"
"Kemba-Walker-13335","Kentavious-Caldwell-Pope-16869","Jabari-Parker-18593","Lauri-Markkanen-37809","Bobby-Portis-18909","Devin-Booker-18949","Paul-George-1245","Marvin-Williams-1318","49900","279.21"
"Victor-Oladipo-16807","Kentavious-Caldwell-Pope-16869","Jabari-Parker-18593","Bobby-Portis-18909","Joel-Embiid-18578","Devin-Booker-18949","Marvin-Williams-1318","Deandre-Ayton-409301","49800","278.66"
"Kris-Dunn-35215","Kentavious-Caldwell-Pope-16869","Jabari-Parker-18593","Bobby-Portis-18909","Deandre-Ayton-409301","Devin-Booker-18949","Lauri-Markkanen-37809","Nikola-Jokic-31812","50000","278.64"
"Devin-Booker-18949","Kentavious-Caldwell-Pope-16869","Marvin-Williams-1318","Bobby-Portis-18909","Joel-Embiid-18578","Bogdan-Bogdanovic-37899","Lauri-Markkanen-37809","Deandre-Ayton-409301","50000","278.49"

"Kris-Dunn-35215","Bogdan-Bogdanovic-37899","Jabari-Parker-18593","Lauri-Markkanen-37809","Deandre-Ayton-409301","Devin-Booker-18949","Paul-George-1245","Bobby-Portis-18909","50000","279.26"
"Kemba-Walker-13335","Kentavious-Caldwell-Pope-16869","Jabari-Parker-18593","Lauri-Markkanen-37809","Bobby-Portis-18909","Devin-Booker-18949","Paul-George-1245","Marvin-Williams-1318","49900","279.21"
"Victor-Oladipo-16807","Kentavious-Caldwell-Pope-16869","Jabari-Parker-18593","Bobby-Portis-18909","Joel-Embiid-18578","Devin-Booker-18949","Marvin-Williams-1318","Deandre-Ayton-409301","49800","278.66"
"Kris-Dunn-35215","Kentavious-Caldwell-Pope-16869","Jabari-Parker-18593","Bobby-Portis-18909","Deandre-Ayton-409301","Devin-Booker-18949","Lauri-Markkanen-37809","Nikola-Jokic-31812","50000","278.64"
"Devin-Booker-18949","Kentavious-Caldwell-Pope-16869","Marvin-Williams-1318","Bobby-Portis-18909","Joel-Embiid-18578","Bogdan-Bogdanovic-37899","Lauri-Markkanen-37809","Deandre-Ayton-409301","50000","278.49"
"Victor-Oladipo-16807","Kentavious-Caldwell-Pope-16869","Jabari-Parker-18593","Bobby-Portis-18909","Deandre-Ayton-409301","Devin-Booker-18949","Marvin-Bagley-III-409321","Paul-George-1245","49900","278.47"
"Kemba-Walker-13335","Victor-Oladipo-16807","Jabari-Parker-18593","Bobby-Portis-18909","Deandre-Ayton-409301","Devin-Booker-18949","Marvin-Williams-1318","Brandon-Ingram-35227","50000","278.44"
"Devin-Booker-18949","Kentavious-Caldwell-Pope-16869","Jabari-Parker-18593","Bobby-Portis-18909","Deandre-Ayton-409301","Jeremy-Lamb-13955","Paul-George-1245","Steven-Adams-16848","50000","278.44"
"Brandon-Ingram-35227","J.J.-Redick-1030","Jabari-Parker-18593","Lauri-Markkanen-37809","Deandre-Ayton-409301","Devin-Booker-18949","Paul-George-1245","Bobby-Portis-18909","50000","278.37"
"Victor-Oladipo-16807","Bogdan-Bogdanovic-37899","Jabari-Parker-18593","Lauri-Markkanen-37809","Deandre-Ayton-409301","Brandon-Ingram-35227","Paul-George-1245","Bobby-Portis-18909","49900","278.33"
"Devin-Booker-18949","Kentavious-Caldwell-Pope-16869","Jabari-Parker-18593","Bobby-Portis-18909","Deandre-Ayton-409301","Bogdan-Bogdanovic-37899","Paul-George-1245","Steven-Adams-16848","49800","278.32"
"Kemba-Walker-13335","Kentavious-Caldwell-Pope-16869","Jabari-Parker-18593","Bobby-Portis-18909","Joel-Embiid-18578","Victor-Oladipo-16807","Marvin-Williams-1318","Lauri-Markkanen-37809","50000","278.25"
"Kemba-Walker-13335","Victor-Oladipo-16807","Jabari-Parker-18593","Bobby-Portis-18909","Deandre-Ayton-409301","Devin-Booker-18949","Marvin-Bagley-III-409321","Lauri-Markkanen-37809","50000","278.24"
"Victor-Oladipo-16807","Brandon-Ingram-35227","Jabari-Parker-18593","Marvin-Williams-1318","Bobby-Portis-18909","Devin-Booker-18949","Bogdan-Bogdanovic-37899","Paul-George-1245","50000","278.23"
"Victor-Oladipo-16807","Bogdan-Bogdanovic-37899","Jabari-Parker-18593","Bobby-Portis-18909","Joel-Embiid-18578","Devin-Booker-18949","Marvin-Williams-1318","Lauri-Markkanen-37809","49900","278.22"
"Kemba-Walker-13335","Bogdan-Bogdanovic-37899","Jabari-Parker-18593","Bobby-Portis-18909","Deandre-Ayton-409301","Devin-Booker-18949","Lauri-Markkanen-37809","Steven-Adams-16848","49900","278.09"
"Brandon-Ingram-35227","Kentavious-Caldwell-Pope-16869","Paul-George-1245","Bobby-Portis-18909","Steven-Adams-16848","Devin-Booker-18949","Lauri-Markkanen-37809","Jabari-Parker-18593","49900","278.03"
"Victor-Oladipo-16807","Bogdan-Bogdanovic-37899","Paul-George-1245","Bobby-Portis-18909","Marvin-Bagley-III-409321","Devin-Booker-18949","Lauri-Markkanen-37809","Jabari-Parker-18593","50000","278.03"
"Victor-Oladipo-16807","Kentavious-Caldwell-Pope-16869","Jabari-Parker-18593","Bobby-Portis-18909","Deandre-Ayton-409301","Devin-Booker-18949","Marvin-Williams-1318","Paul-George-1245","49500","277.99"
"Devin-Booker-18949","Kentavious-Caldwell-Pope-16869","Jabari-Parker-18593","Lauri-Markkanen-37809","Deandre-Ayton-409301","Jimmy-Butler-13327","Paul-George-1245","Bobby-Portis-18909","49800","277.99"
"Fred-VanVleet-36011","Brandon-Ingram-35227","Jabari-Parker-18593","Lauri-Markkanen-37809","Deandre-Ayton-409301","Devin-Booker-18949","Paul-George-1245","Bobby-Portis-18909","50000","277.95"
"Devin-Booker-18949","Kentavious-Caldwell-Pope-16869","Paul-George-1245","Lauri-Markkanen-37809","Deandre-Ayton-409301","Jeremy-Lamb-13955","Marvin-Williams-1318","Bobby-Portis-18909","49900","277.94"
"Victor-Oladipo-16807","Bogdan-Bogdanovic-37899","Marvin-Williams-1318","Bobby-Portis-18909","Deandre-Ayton-409301","Devin-Booker-18949","Lauri-Markkanen-37809","Steven-Adams-16848","50000","277.94"
"Russell-Westbrook-1083","Kentavious-Caldwell-Pope-16869","Jabari-Parker-18593","Bobby-Portis-18909","Deandre-Ayton-409301","Devin-Booker-18949","Marvin-Williams-1318","Lauri-Markkanen-37809","49800","277.93"
"Kemba-Walker-13335","Victor-Oladipo-16807","Kentavious-Caldwell-Pope-16869","Bobby-Portis-18909","Deandre-Ayton-409301","Devin-Booker-18949","Jabari-Parker-18593","Brandon-Ingram-35227","49900","277.91"
"Kemba-Walker-13335","Kentavious-Caldwell-Pope-16869","Paul-George-1245","Bobby-Portis-18909","Steven-Adams-16848","Bogdan-Bogdanovic-37899","Lauri-Markkanen-37809","Jabari-Parker-18593","50000","277.91"
"Victor-Oladipo-16807","Kentavious-Caldwell-Pope-16869","Jabari-Parker-18593","Lauri-Markkanen-37809","Bobby-Portis-18909","Devin-Booker-18949","Paul-George-1245","Paul-Millsap-1335","49800","277.82"
"Devin-Booker-18949","Kentavious-Caldwell-Pope-16869","Paul-George-1245","Lauri-Markkanen-37809","Deandre-Ayton-409301","Bogdan-Bogdanovic-37899","Marvin-Williams-1318","Bobby-Portis-18909","49700","277.82"
"Victor-Oladipo-16807","Kentavious-Caldwell-Pope-16869","Jeremy-Lamb-13955","Jabari-Parker-18593","Joel-Embiid-18578","Devin-Booker-18949","Lauri-Markkanen-37809","Bobby-Portis-18909","50000","277.81"
"Kris-Dunn-35215","Bogdan-Bogdanovic-37899","Kentavious-Caldwell-Pope-16869","Paul-George-1245","Bobby-Portis-18909","Devin-Booker-18949","Marvin-Williams-1318","Deandre-Ayton-409301","50000","277.8"
"Brandon-Ingram-35227","Bogdan-Bogdanovic-37899","Jabari-Parker-18593","Paul-George-1245","Deandre-Ayton-409301","Devin-Booker-18949","Paul-Millsap-1335","Bobby-Portis-18909","50000","277.79"
"Victor-Oladipo-16807","Brandon-Ingram-35227","Jabari-Parker-18593","Bobby-Portis-18909","Tyson-Chandler-1482","Devin-Booker-18949","Paul-George-1245","Deandre-Ayton-409301","49800","277.79"
"Malik-Monk-37827","Kentavious-Caldwell-Pope-16869","Jabari-Parker-18593","Lauri-Markkanen-37809","Bobby-Portis-18909","Devin-Booker-18949","Paul-George-1245","Joel-Embiid-18578","50000","277.79"
"Kemba-Walker-13335","Victor-Oladipo-16807","Jabari-Parker-18593","Bobby-Portis-18909","Deandre-Ayton-409301","Devin-Booker-18949","Marvin-Williams-1318","Lauri-Markkanen-37809","49600","277.76"
"Kris-Dunn-35215","Jeremy-Lamb-13955","Jabari-Parker-18593","Lauri-Markkanen-37809","Deandre-Ayton-409301","Victor-Oladipo-16807","Paul-George-1245","Bobby-Portis-18909","50000","277.75"
"Kris-Dunn-35215","Victor-Oladipo-16807","Jabari-Parker-18593","Bobby-Portis-18909","Deandre-Ayton-409301","Devin-Booker-18949","Marvin-Williams-1318","Kemba-Walker-13335","49900","277.74"
"Kemba-Walker-13335","J.J.-Redick-1030","Jabari-Parker-18593","Bobby-Portis-18909","Tyson-Chandler-1482","Devin-Booker-18949","Paul-George-1245","Deandre-Ayton-409301","50000","277.71"
"Victor-Oladipo-16807","Kentavious-Caldwell-Pope-16869","Jabari-Parker-18593","Bobby-Portis-18909","Deandre-Ayton-409301","Brandon-Ingram-35227","Lauri-Markkanen-37809","Nikola-Jokic-31812","49900","277.71"
"Victor-Oladipo-16807","Brandon-Ingram-35227","Kentavious-Caldwell-Pope-16869","Paul-George-1245","Bobby-Portis-18909","Devin-Booker-18949","Bogdan-Bogdanovic-37899","Jabari-Parker-18593","49900","277.7"
"Victor-Oladipo-16807","Kentavious-Caldwell-Pope-16869","Jabari-Parker-18593","Bobby-Portis-18909","Joel-Embiid-18578","Devin-Booker-18949","Lauri-Markkanen-37809","Bogdan-Bogdanovic-37899","49800","277.69"
"Kemba-Walker-13335","Victor-Oladipo-16807","Jabari-Parker-18593","Bobby-Portis-18909","Tyson-Chandler-1482","Bogdan-Bogdanovic-37899","Paul-George-1245","Deandre-Ayton-409301","49900","277.67"
"Brandon-Ingram-35227","Kentavious-Caldwell-Pope-16869","Jabari-Parker-18593","Bobby-Portis-18909","Deandre-Ayton-409301","Devin-Booker-18949","Paul-George-1245","Willie-Cauley-Stein-18951","49900","277.67"
"Kris-Dunn-35215","J.J.-Redick-1030","Jabari-Parker-18593","Lauri-Markkanen-37809","Deandre-Ayton-409301","Devin-Booker-18949","Paul-George-1245","Bobby-Portis-18909","49900","277.67"
"Victor-Oladipo-16807","Jeremy-Lamb-13955","Jabari-Parker-18593","Lauri-Markkanen-37809","Bobby-Portis-18909","Devin-Booker-18949","Paul-George-1245","Marvin-Williams-1318","49800","277.67"
"Kris-Dunn-35215","Brandon-Ingram-35227","Jabari-Parker-18593","Bobby-Portis-18909","Joel-Embiid-18578","Devin-Booker-18949","Marvin-Williams-1318","Deandre-Ayton-409301","50000","277.64"
"Kris-Dunn-35215","Victor-Oladipo-16807","Jabari-Parker-18593","Lauri-Markkanen-37809","Deandre-Ayton-409301","Bogdan-Bogdanovic-37899","Paul-George-1245","Bobby-Portis-18909","49800","277.63"
"Brandon-Ingram-35227","Bogdan-Bogdanovic-37899","Paul-George-1245","Bobby-Portis-18909","Deandre-Ayton-409301","Devin-Booker-18949","Lauri-Markkanen-37809","Tyson-Chandler-1482","50000","277.62"
"Victor-Oladipo-16807","Kentavious-Caldwell-Pope-16869","Jabari-Parker-18593","Bobby-Portis-18909","Nikola-Jokic-31812","Devin-Booker-18949","Marvin-Williams-1318","Brandon-Ingram-35227","50000","277.61"
"Devin-Booker-18949","J.J.-Redick-1030","Jabari-Parker-18593","Bobby-Portis-18909","Deandre-Ayton-409301","Bogdan-Bogdanovic-37899","Lauri-Markkanen-37809","Nikola-Jokic-31812","50000","277.6"
"Kris-Dunn-35215","Victor-Oladipo-16807","Jabari-Parker-18593","Bobby-Portis-18909","Deandre-Ayton-409301","Devin-Booker-18949","Paul-George-1245","Willy-Hernangomez-18901","50000","277.58"
"Kemba-Walker-13335","Kentavious-Caldwell-Pope-16869","Jabari-Parker-18593","Lauri-Markkanen-37809","Bobby-Portis-18909","Victor-Oladipo-16807","Paul-George-1245","Marvin-Williams-1318","49700","277.58"
"Kris-Dunn-35215","Victor-Oladipo-16807","Kentavious-Caldwell-Pope-16869","Paul-George-1245","Bobby-Portis-18909","Kemba-Walker-13335","Marvin-Williams-1318","Jabari-Parker-18593","50000","277.56"
"Kemba-Walker-13335","Kentavious-Caldwell-Pope-16869","Jabari-Parker-18593","Bobby-Portis-18909","Deandre-Ayton-409301","Bogdan-Bogdanovic-37899","Paul-George-1245","Willie-Cauley-Stein-18951","50000","277.55"
"Kemba-Walker-13335","Bogdan-Bogdanovic-37899","Jabari-Parker-18593","Bobby-Portis-18909","Deandre-Ayton-409301","Brandon-Ingram-35227","Marvin-Williams-1318","Paul-George-1245","49900","277.55"
"Victor-Oladipo-16807","Bogdan-Bogdanovic-37899","Jabari-Parker-18593","Lauri-Markkanen-37809","Bobby-Portis-18909","Devin-Booker-18949","Paul-George-1245","Marvin-Williams-1318","49600","277.55"
"Kris-Dunn-35215","Victor-Oladipo-16807","Jabari-Parker-18593","Marvin-Williams-1318","Bobby-Portis-18909","Devin-Booker-18949","Bogdan-Bogdanovic-37899","Paul-George-1245","49900","277.53"
"Kemba-Walker-13335","Victor-Oladipo-16807","Jabari-Parker-18593","Lauri-Markkanen-37809","Bobby-Portis-18909","Devin-Booker-18949","Bogdan-Bogdanovic-37899","Brandon-Ingram-35227","50000","277.47"
"Kemba-Walker-13335","Brandon-Ingram-35227","Jabari-Parker-18593","Bobby-Portis-18909","Deandre-Ayton-409301","Devin-Booker-18949","Lauri-Markkanen-37809","Willie-Cauley-Stein-18951","50000","277.44"
"Victor-Oladipo-16807","Kentavious-Caldwell-Pope-16869","Jabari-Parker-18593","Bobby-Portis-18909","Nikola-Jokic-31812","Devin-Booker-18949","Marvin-Bagley-III-409321","Lauri-Markkanen-37809","50000","277.41"
"Victor-Oladipo-16807","Kentavious-Caldwell-Pope-16869","Bogdan-Bogdanovic-37899","Bobby-Portis-18909","Deandre-Ayton-409301","Devin-Booker-18949","Lauri-Markkanen-37809","Steven-Adams-16848","49900","277.41"
"Kemba-Walker-13335","Victor-Oladipo-16807","Jabari-Parker-18593","Lauri-Markkanen-37809","Bobby-Portis-18909","Brandon-Ingram-35227","Paul-George-1245","Tyson-Chandler-1482","50000","277.38"
"Kemba-Walker-13335","Kentavious-Caldwell-Pope-16869","Jabari-Parker-18593","Bobby-Portis-18909","Tyson-Chandler-1482","Devin-Booker-18949","Paul-George-1245","Steven-Adams-16848","49900","277.37"
"Kris-Dunn-35215","Kentavious-Caldwell-Pope-16869","Paul-George-1245","Bobby-Portis-18909","Steven-Adams-16848","Devin-Booker-18949","Lauri-Markkanen-37809","Jabari-Parker-18593","49800","277.33"
"Kemba-Walker-13335","Fred-VanVleet-36011","Jabari-Parker-18593","Bobby-Portis-18909","Tyson-Chandler-1482","Devin-Booker-18949","Paul-George-1245","Deandre-Ayton-409301","50000","277.29"
"Devin-Booker-18949","Kentavious-Caldwell-Pope-16869","Jabari-Parker-18593","Bobby-Portis-18909","Nikola-Jokic-31812","Bogdan-Bogdanovic-37899","Lauri-Markkanen-37809","Steven-Adams-16848","49900","277.26"
"Victor-Oladipo-16807","Kentavious-Caldwell-Pope-16869","Paul-George-1245","Bobby-Portis-18909","Domantas-Sabonis-35217","Devin-Booker-18949","Marvin-Williams-1318","Jabari-Parker-18593","50000","277.25"
"Kemba-Walker-13335","Bogdan-Bogdanovic-37899","Jabari-Parker-18593","Paul-George-1245","Marvin-Bagley-III-409321","Devin-Booker-18949","Marvin-Williams-1318","Bobby-Portis-18909","50000","277.25"
"Kris-Dunn-35215","Fred-VanVleet-36011","Jabari-Parker-18593","Lauri-Markkanen-37809","Deandre-Ayton-409301","Devin-Booker-18949","Paul-George-1245","Bobby-Portis-18909","49900","277.25"
"Malik-Monk-37827","Victor-Oladipo-16807","Paul-George-1245","Bobby-Portis-18909","Steven-Adams-16848","Devin-Booker-18949","Lauri-Markkanen-37809","Jabari-Parker-18593","50000","277.24"
"Brandon-Ingram-35227","Bogdan-Bogdanovic-37899","Jabari-Parker-18593","Lauri-Markkanen-37809","Bobby-Portis-18909","Devin-Booker-18949","Paul-George-1245","Willie-Cauley-Stein-18951","50000","277.23"
"Kemba-Walker-13335","Victor-Oladipo-16807","Kentavious-Caldwell-Pope-16869","Jabari-Parker-18593","Deandre-Ayton-409301","Devin-Booker-18949","Lauri-Markkanen-37809","Bobby-Portis-18909","49500","277.23"
"Victor-Oladipo-16807","Kentavious-Caldwell-Pope-16869","Paul-George-1245","Bobby-Portis-18909","Steven-Adams-16848","Devin-Booker-18949","Marvin-Williams-1318","Tyson-Chandler-1482","50000","277.22"
"Kris-Dunn-35215","Victor-Oladipo-16807","Kentavious-Caldwell-Pope-16869","Bobby-Portis-18909","Deandre-Ayton-409301","Devin-Booker-18949","Jabari-Parker-18593","Kemba-Walker-13335","49800","277.21"
"Fred-VanVleet-36011","Bogdan-Bogdanovic-37899","Jabari-Parker-18593","Bobby-Portis-18909","Deandre-Ayton-409301","Devin-Booker-18949","Lauri-Markkanen-37809","Nikola-Jokic-31812","50000","277.18"
"Brandon-Ingram-35227","Kentavious-Caldwell-Pope-16869","Jabari-Parker-18593","Bobby-Portis-18909","Nikola-Jokic-31812","Devin-Booker-18949","Paul-Millsap-1335","Deandre-Ayton-409301","50000","277.17"
"Victor-Oladipo-16807","Jeremy-Lamb-13955","Kentavious-Caldwell-Pope-16869","Jabari-Parker-18593","Bobby-Portis-18909","Devin-Booker-18949","Paul-George-1245","Lauri-Markkanen-37809","49700","277.14"
"Kemba-Walker-13335","Kentavious-Caldwell-Pope-16869","Jeremy-Lamb-13955","Bobby-Portis-18909","Deandre-Ayton-409301","Brandon-Ingram-35227","Jabari-Parker-18593","Paul-George-1245","50000","277.14"
"Brandon-Ingram-35227","Kentavious-Caldwell-Pope-16869","Jabari-Parker-18593","Bobby-Portis-18909","Joel-Embiid-18578","Devin-Booker-18949","Lauri-Markkanen-37809","Deandre-Ayton-409301","49600","277.13"
"Kemba-Walker-13335","Kentavious-Caldwell-Pope-16869","Jabari-Parker-18593","Bobby-Portis-18909","Joel-Embiid-18578","Jeremy-Lamb-13955","Lauri-Markkanen-37809","Deandre-Ayton-409301","49900","277.13"
"Kris-Dunn-35215","Jeremy-Lamb-13955","Kentavious-Caldwell-Pope-16869","Jabari-Parker-18593","Bobby-Portis-18909","Devin-Booker-18949","Paul-George-1245","Victor-Oladipo-16807","50000","277.12"
"Kris-Dunn-35215","Kentavious-Caldwell-Pope-16869","Jabari-Parker-18593","Paul-George-1245","Deandre-Ayton-409301","Kemba-Walker-13335","Paul-Millsap-1335","Bobby-Portis-18909","50000","277.12"
"Kris-Dunn-35215","Brandon-Ingram-35227","Kentavious-Caldwell-Pope-16869","Bobby-Portis-18909","Deandre-Ayton-409301","Devin-Booker-18949","Jabari-Parker-18593","Joel-Embiid-18578","49900","277.11"
"Brandon-Ingram-35227","Bogdan-Bogdanovic-37899","Jeremy-Lamb-13955","Bobby-Portis-18909","Deandre-Ayton-409301","Devin-Booker-18949","Jabari-Parker-18593","Paul-George-1245","49900","277.11"
"Devin-Booker-18949","Jeremy-Lamb-13955","Jabari-Parker-18593","Bobby-Portis-18909","Joel-Embiid-18578","Bogdan-Bogdanovic-37899","Lauri-Markkanen-37809","Deandre-Ayton-409301","49800","277.1"
"Kris-Dunn-35215","Victor-Oladipo-16807","Jabari-Parker-18593","Bobby-Portis-18909","Tyson-Chandler-1482","Devin-Booker-18949","Paul-George-1245","Deandre-Ayton-409301","49700","277.09"
"Kris-Dunn-35215","Bogdan-Bogdanovic-37899","Jabari-Parker-18593","Paul-George-1245","Deandre-Ayton-409301","Devin-Booker-18949","Paul-Millsap-1335","Bobby-Portis-18909","49900","277.09"
"Victor-Oladipo-16807","Kentavious-Caldwell-Pope-16869","Jabari-Parker-18593","Bobby-Portis-18909","Joel-Embiid-18578","Brandon-Ingram-35227","Lauri-Markkanen-37809","Steven-Adams-16848","50000","277.07"
"Kris-Dunn-35215","Kentavious-Caldwell-Pope-16869","Kyle-Kuzma-37886","Bobby-Portis-18909","Deandre-Ayton-409301","Victor-Oladipo-16807","Paul-George-1245","Jabari-Parker-18593","50000","277.07"
"Kris-Dunn-35215","Devin-Booker-18949","Kentavious-Caldwell-Pope-16869","Lauri-Markkanen-37809","Bobby-Portis-18909","Kemba-Walker-13335","Bogdan-Bogdanovic-37899","Deandre-Ayton-409301","50000","277.04"
"Kemba-Walker-13335","Kentavious-Caldwell-Pope-16869","Paul-George-1245","Bobby-Portis-18909","Paul-Millsap-1335","Devin-Booker-18949","Marvin-Williams-1318","Jabari-Parker-18593","49800","277.04"
"Victor-Oladipo-16807","Jimmy-Butler-13327","Kentavious-Caldwell-Pope-16869","Jabari-Parker-18593","Bobby-Portis-18909","Brandon-Ingram-35227","Paul-George-1245","Deandre-Ayton-409301","50000","277.04"
"Kris-Dunn-35215","Devin-Booker-18949","Jabari-Parker-18593","Bobby-Portis-18909","Tyson-Chandler-1482","Russell-Westbrook-1083","Lauri-Markkanen-37809","Deandre-Ayton-409301","50000","277.03"
"Kemba-Walker-13335","Kentavious-Caldwell-Pope-16869","Kyle-Kuzma-37886","Lauri-Markkanen-37809","Deandre-Ayton-409301","Devin-Booker-18949","Marvin-Williams-1318","Bobby-Portis-18909","50000","277.03"
"Victor-Oladipo-16807","Kentavious-Caldwell-Pope-16869","J.J.-Redick-1030","Bobby-Portis-18909","Deandre-Ayton-409301","Devin-Booker-18949","Paul-George-1245","Tyson-Chandler-1482","50000","277.03"
"Victor-Oladipo-16807","Kentavious-Caldwell-Pope-16869","Jabari-Parker-18593","Bobby-Portis-18909","Joel-Embiid-18578","Jimmy-Butler-13327","Lauri-Markkanen-37809","Deandre-Ayton-409301","49900","277.03"
"Kemba-Walker-13335","Kentavious-Caldwell-Pope-16869","Jabari-Parker-18593","Bobby-Portis-18909","Joel-Embiid-18578","Devin-Booker-18949","Marvin-Williams-1318","Jeremy-Lamb-13955","50000","277.03"
"Victor-Oladipo-16807","Bogdan-Bogdanovic-37899","Kentavious-Caldwell-Pope-16869","Jabari-Parker-18593","Bobby-Portis-18909","Devin-Booker-18949","Paul-George-1245","Lauri-Markkanen-37809","49500","277.02"
"Brandon-Ingram-35227","Jeremy-Lamb-13955","Jabari-Parker-18593","Bobby-Portis-18909","Nikola-Jokic-31812","Devin-Booker-18949","Marvin-Williams-1318","Deandre-Ayton-409301","50000","277.02"
"Kemba-Walker-13335","Bogdan-Bogdanovic-37899","Kentavious-Caldwell-Pope-16869","Jabari-Parker-18593","Bobby-Portis-18909","Brandon-Ingram-35227","Paul-George-1245","Deandre-Ayton-409301","49800","277.02"
"Kris-Dunn-35215","Kentavious-Caldwell-Pope-16869","Jabari-Parker-18593","Bobby-Portis-18909","Deandre-Ayton-409301","Victor-Oladipo-16807","Lauri-Markkanen-37809","Nikola-Jokic-31812","49800","277.01"
