"Russell-Westbrook-1083","Dennis-Schroder-18595","E'Twaun-Moore-18582","Gorgui-Dieng-16939","Karl-Anthony-Towns-18937","Tyus-Jones-18938","Dario-Saric-36004","Jrue-Holiday-1073","49900","281.82"
"Russell-Westbrook-1083","Dennis-Schroder-18595","DeMar-DeRozan-1053","Gorgui-Dieng-16939","Karl-Anthony-Towns-18937","Patty-Mills-13977","Dario-Saric-36004","Tyus-Jones-18938","50000","280.97"

"Russell-Westbrook-1083","Dennis-Schroder-18595","E'Twaun-Moore-18582","Gorgui-Dieng-16939","Karl-Anthony-Towns-18937","Tyus-Jones-18938","Dario-Saric-36004","Jrue-Holiday-1073","49900","281.82"
"Russell-Westbrook-1083","Dennis-Schroder-18595","DeMar-DeRozan-1053","Gorgui-Dieng-16939","Karl-Anthony-Towns-18937","Patty-Mills-13977","Dario-Saric-36004","Tyus-Jones-18938","50000","280.97"
"Russell-Westbrook-1083","Dennis-Schroder-18595","DeMar-DeRozan-1053","Gorgui-Dieng-16939","Karl-Anthony-Towns-18937","Tyus-Jones-18938","Dario-Saric-36004","Jakob-Poeltl-35187","49700","280.19"
"Russell-Westbrook-1083","Dennis-Schroder-18595","DeMar-DeRozan-1053","Dario-Saric-36004","Karl-Anthony-Towns-18937","Tyus-Jones-18938","Marco-Belinelli-1033","Jakob-Poeltl-35187","50000","279.82"
"Russell-Westbrook-1083","Dennis-Schroder-18595","E'Twaun-Moore-18582","Julius-Randle-18632","Karl-Anthony-Towns-18937","Tyus-Jones-18938","Dario-Saric-36004","Jakob-Poeltl-35187","49800","279.62"
"Russell-Westbrook-1083","Dennis-Schroder-18595","Davis-Bertans-36051","Gorgui-Dieng-16939","Karl-Anthony-Towns-18937","Tyus-Jones-18938","DeMar-DeRozan-1053","Dario-Saric-36004","49900","278.97"
"Russell-Westbrook-1083","Dennis-Schroder-18595","DeMar-DeRozan-1053","Dario-Saric-36004","Karl-Anthony-Towns-18937","Tyus-Jones-18938","Marco-Belinelli-1033","Gorgui-Dieng-16939","49600","278.68"
"Russell-Westbrook-1083","Dennis-Schroder-18595","E'Twaun-Moore-18582","Jerami-Grant-18576","Karl-Anthony-Towns-18937","Elfrid-Payton-18602","Dario-Saric-36004","Tyus-Jones-18938","49900","278.64"
"Russell-Westbrook-1083","Dennis-Schroder-18595","E'Twaun-Moore-18582","Julius-Randle-18632","Karl-Anthony-Towns-18937","Tyus-Jones-18938","Dario-Saric-36004","Gorgui-Dieng-16939","49400","278.48"
"Russell-Westbrook-1083","Dennis-Schroder-18595","DeMar-DeRozan-1053","Gorgui-Dieng-16939","Karl-Anthony-Towns-18937","Patty-Mills-13977","E'Twaun-Moore-18582","Tyus-Jones-18938","49600","278.42"
"Russell-Westbrook-1083","Dennis-Schroder-18595","Davis-Bertans-36051","Dario-Saric-36004","Karl-Anthony-Towns-18937","Tyus-Jones-18938","E'Twaun-Moore-18582","Julius-Randle-18632","50000","278.4"
"Russell-Westbrook-1083","Dennis-Schroder-18595","Paul-George-1245","Gorgui-Dieng-16939","Karl-Anthony-Towns-18937","Patty-Mills-13977","Marco-Belinelli-1033","Tyus-Jones-18938","50000","278.36"
"Russell-Westbrook-1083","Dennis-Schroder-18595","DeMar-DeRozan-1053","Dario-Saric-36004","Gorgui-Dieng-16939","Marco-Belinelli-1033","E'Twaun-Moore-18582","Karl-Anthony-Towns-18937","50000","278.35"
"Russell-Westbrook-1083","Dennis-Schroder-18595","Josh-Okogie-409174","Dario-Saric-36004","Karl-Anthony-Towns-18937","Tyus-Jones-18938","E'Twaun-Moore-18582","Steven-Adams-16848","49900","278.34"
"Russell-Westbrook-1083","Dennis-Schroder-18595","E'Twaun-Moore-18582","Gorgui-Dieng-16939","Karl-Anthony-Towns-18937","Patty-Mills-13977","Dario-Saric-36004","Jrue-Holiday-1073","49900","278.3"
"Russell-Westbrook-1083","Dennis-Schroder-18595","E'Twaun-Moore-18582","Julius-Randle-18632","Karl-Anthony-Towns-18937","Tyus-Jones-18938","Marco-Belinelli-1033","Dario-Saric-36004","49700","278.11"
"Russell-Westbrook-1083","Dennis-Schroder-18595","Davis-Bertans-36051","Gorgui-Dieng-16939","Jakob-Poeltl-35187","Tyus-Jones-18938","Paul-George-1245","Karl-Anthony-Towns-18937","50000","277.87"
"Russell-Westbrook-1083","Dennis-Schroder-18595","E'Twaun-Moore-18582","Gorgui-Dieng-16939","Karl-Anthony-Towns-18937","Bryn-Forbes-36052","LaMarcus-Aldridge-1349","Tyus-Jones-18938","50000","277.83"
"Russell-Westbrook-1083","Dennis-Schroder-18595","E'Twaun-Moore-18582","Gorgui-Dieng-16939","Steven-Adams-16848","Tyus-Jones-18938","Dario-Saric-36004","Karl-Anthony-Towns-18937","48800","277.75"
"Russell-Westbrook-1083","Dennis-Schroder-18595","Davis-Bertans-36051","Dario-Saric-36004","Karl-Anthony-Towns-18937","Tyus-Jones-18938","E'Twaun-Moore-18582","Steven-Adams-16848","49400","277.67"
"Russell-Westbrook-1083","Dennis-Schroder-18595","DeMar-DeRozan-1053","Gorgui-Dieng-16939","Jakob-Poeltl-35187","Tyus-Jones-18938","E'Twaun-Moore-18582","Karl-Anthony-Towns-18937","49300","277.64"
"Russell-Westbrook-1083","Dennis-Schroder-18595","Paul-George-1245","Gorgui-Dieng-16939","Karl-Anthony-Towns-18937","Tyus-Jones-18938","Marco-Belinelli-1033","Jakob-Poeltl-35187","49700","277.58"
"Russell-Westbrook-1083","Dennis-Schroder-18595","DeMar-DeRozan-1053","Davis-Bertans-36051","Jakob-Poeltl-35187","Tyus-Jones-18938","E'Twaun-Moore-18582","Karl-Anthony-Towns-18937","49900","277.56"
"Russell-Westbrook-1083","Dennis-Schroder-18595","E'Twaun-Moore-18582","Gorgui-Dieng-16939","Karl-Anthony-Towns-18937","Tyus-Jones-18938","Jerami-Grant-18576","Steven-Adams-16848","49500","277.55"
"Russell-Westbrook-1083","Dennis-Schroder-18595","E'Twaun-Moore-18582","Gorgui-Dieng-16939","Jakob-Poeltl-35187","Jrue-Holiday-1073","Dario-Saric-36004","Karl-Anthony-Towns-18937","49600","277.52"
"Russell-Westbrook-1083","Dennis-Schroder-18595","E'Twaun-Moore-18582","Dario-Saric-36004","Steven-Adams-16848","Tyus-Jones-18938","Marco-Belinelli-1033","Karl-Anthony-Towns-18937","49100","277.38"
"Dennis-Schroder-18595","Jrue-Holiday-1073","DeMar-DeRozan-1053","Dario-Saric-36004","Karl-Anthony-Towns-18937","Tyus-Jones-18938","E'Twaun-Moore-18582","Steven-Adams-16848","50000","277.31"
"Russell-Westbrook-1083","Dennis-Schroder-18595","DeMar-DeRozan-1053","Anthony-Tolliver-1263","Jakob-Poeltl-35187","Tyus-Jones-18938","Dario-Saric-36004","Karl-Anthony-Towns-18937","50000","277.3"
"Russell-Westbrook-1083","Dennis-Schroder-18595","Josh-Okogie-409174","Gorgui-Dieng-16939","Karl-Anthony-Towns-18937","Tyus-Jones-18938","Dario-Saric-36004","Jrue-Holiday-1073","49900","277.3"
"Dennis-Schroder-18595","Bryn-Forbes-36052","E'Twaun-Moore-18582","Anthony-Davis-13895","Steven-Adams-16848","Tyus-Jones-18938","Dario-Saric-36004","Karl-Anthony-Towns-18937","50000","277.28"
"Dennis-Schroder-18595","Jrue-Holiday-1073","E'Twaun-Moore-18582","Gorgui-Dieng-16939","Anthony-Davis-13895","Tyus-Jones-18938","Dario-Saric-36004","Karl-Anthony-Towns-18937","49800","277.21"
"Russell-Westbrook-1083","Dennis-Schroder-18595","E'Twaun-Moore-18582","Julius-Randle-18632","Karl-Anthony-Towns-18937","Bryn-Forbes-36052","Dario-Saric-36004","Gorgui-Dieng-16939","50000","277.18"
"Russell-Westbrook-1083","Dennis-Schroder-18595","E'Twaun-Moore-18582","Jerami-Grant-18576","Steven-Adams-16848","Tyus-Jones-18938","Marco-Belinelli-1033","Karl-Anthony-Towns-18937","49800","277.18"
"Russell-Westbrook-1083","Dennis-Schroder-18595","E'Twaun-Moore-18582","Dario-Saric-36004","Karl-Anthony-Towns-18937","Jrue-Holiday-1073","Marco-Belinelli-1033","Jakob-Poeltl-35187","49900","277.15"
"Russell-Westbrook-1083","Dennis-Schroder-18595","Marco-Belinelli-1033","Julius-Randle-18632","Karl-Anthony-Towns-18937","Bryn-Forbes-36052","Dario-Saric-36004","Tyus-Jones-18938","49900","277.14"
"Russell-Westbrook-1083","DeMar-DeRozan-1053","Josh-Okogie-409174","Gorgui-Dieng-16939","Karl-Anthony-Towns-18937","Dennis-Schroder-18595","E'Twaun-Moore-18582","Tyus-Jones-18938","50000","277.09"
"Russell-Westbrook-1083","Dennis-Schroder-18595","Marco-Belinelli-1033","Gorgui-Dieng-16939","Steven-Adams-16848","Elfrid-Payton-18602","Dario-Saric-36004","Karl-Anthony-Towns-18937","49800","277.08"
"Russell-Westbrook-1083","Dennis-Schroder-18595","Marco-Belinelli-1033","Dario-Saric-36004","Jakob-Poeltl-35187","Tyus-Jones-18938","LaMarcus-Aldridge-1349","Karl-Anthony-Towns-18937","49800","277.01"
"Russell-Westbrook-1083","Dennis-Schroder-18595","DeMar-DeRozan-1053","Gorgui-Dieng-16939","Karl-Anthony-Towns-18937","Patty-Mills-13977","Dario-Saric-36004","Jakob-Poeltl-35187","49700","276.67"
"Jeff-Teague-1005","Dennis-Schroder-18595","E'Twaun-Moore-18582","Taj-Gibson-1277","Karl-Anthony-Towns-18937","Russell-Westbrook-1083","Dario-Saric-36004","Tyus-Jones-18938","50000","276.65"
"Jeff-Teague-1005","Dennis-Schroder-18595","E'Twaun-Moore-18582","Gorgui-Dieng-16939","Karl-Anthony-Towns-18937","Russell-Westbrook-1083","Nikola-Mirotic-18584","Tyus-Jones-18938","50000","276.64"
"Russell-Westbrook-1083","Dennis-Schroder-18595","Davis-Bertans-36051","Gorgui-Dieng-16939","Karl-Anthony-Towns-18937","Tyus-Jones-18938","Dario-Saric-36004","Jrue-Holiday-1073","49400","276.63"
"Russell-Westbrook-1083","Dennis-Schroder-18595","DeMar-DeRozan-1053","Gorgui-Dieng-16939","Pau-Gasol-1502","Tyus-Jones-18938","Dario-Saric-36004","Karl-Anthony-Towns-18937","49300","276.61"
"Russell-Westbrook-1083","Dennis-Schroder-18595","Davis-Bertans-36051","Dario-Saric-36004","Pau-Gasol-1502","Tyus-Jones-18938","DeMar-DeRozan-1053","Karl-Anthony-Towns-18937","49900","276.53"
"Russell-Westbrook-1083","Dennis-Schroder-18595","E'Twaun-Moore-18582","Gorgui-Dieng-16939","Steven-Adams-16848","Bryn-Forbes-36052","Dario-Saric-36004","Karl-Anthony-Towns-18937","49400","276.45"
"Russell-Westbrook-1083","Dennis-Schroder-18595","Davis-Bertans-36051","Gorgui-Dieng-16939","Karl-Anthony-Towns-18937","E'Twaun-Moore-18582","DeMar-DeRozan-1053","Tyus-Jones-18938","49500","276.42"
"Russell-Westbrook-1083","Dennis-Schroder-18595","DeMar-DeRozan-1053","Gorgui-Dieng-16939","Pau-Gasol-1502","Tyus-Jones-18938","Jerami-Grant-18576","Karl-Anthony-Towns-18937","50000","276.41"
"Russell-Westbrook-1083","Dennis-Schroder-18595","Davis-Bertans-36051","Dario-Saric-36004","Karl-Anthony-Towns-18937","Bryn-Forbes-36052","E'Twaun-Moore-18582","Steven-Adams-16848","50000","276.37"
"Dennis-Schroder-18595","Patty-Mills-13977","DeMar-DeRozan-1053","Gorgui-Dieng-16939","Anthony-Davis-13895","Tyus-Jones-18938","Dario-Saric-36004","Karl-Anthony-Towns-18937","49900","276.36"
"Russell-Westbrook-1083","Dennis-Schroder-18595","Davis-Bertans-36051","Paul-George-1245","Gorgui-Dieng-16939","Tyus-Jones-18938","Marco-Belinelli-1033","Karl-Anthony-Towns-18937","49900","276.36"
"Jeff-Teague-1005","Dennis-Schroder-18595","Paul-George-1245","Dario-Saric-36004","Steven-Adams-16848","Tyus-Jones-18938","E'Twaun-Moore-18582","Karl-Anthony-Towns-18937","50000","276.36"
"Russell-Westbrook-1083","Dennis-Schroder-18595","DeMar-DeRozan-1053","Gorgui-Dieng-16939","Jakob-Poeltl-35187","Bryn-Forbes-36052","E'Twaun-Moore-18582","Karl-Anthony-Towns-18937","49900","276.34"
"Russell-Westbrook-1083","Dennis-Schroder-18595","Marco-Belinelli-1033","Gorgui-Dieng-16939","Karl-Anthony-Towns-18937","Tyus-Jones-18938","Dario-Saric-36004","Jrue-Holiday-1073","49100","276.34"
"Russell-Westbrook-1083","Dennis-Schroder-18595","DeMar-DeRozan-1053","Dario-Saric-36004","Karl-Anthony-Towns-18937","Patty-Mills-13977","Marco-Belinelli-1033","Jakob-Poeltl-35187","50000","276.3"
"Russell-Westbrook-1083","Dennis-Schroder-18595","Davis-Bertans-36051","Dario-Saric-36004","Gorgui-Dieng-16939","Jrue-Holiday-1073","E'Twaun-Moore-18582","Karl-Anthony-Towns-18937","49800","276.3"
"Russell-Westbrook-1083","DeMar-DeRozan-1053","E'Twaun-Moore-18582","Gorgui-Dieng-16939","Pau-Gasol-1502","Dennis-Schroder-18595","Dario-Saric-36004","Karl-Anthony-Towns-18937","49700","276.28"
"Russell-Westbrook-1083","Dennis-Schroder-18595","Davis-Bertans-36051","Dario-Saric-36004","Karl-Anthony-Towns-18937","Tyus-Jones-18938","Marco-Belinelli-1033","Jrue-Holiday-1073","49700","276.26"
"Russell-Westbrook-1083","Dennis-Schroder-18595","DeMar-DeRozan-1053","Dario-Saric-36004","Pau-Gasol-1502","Tyus-Jones-18938","Marco-Belinelli-1033","Karl-Anthony-Towns-18937","49600","276.24"
"Russell-Westbrook-1083","Dennis-Schroder-18595","Davis-Bertans-36051","Gorgui-Dieng-16939","LaMarcus-Aldridge-1349","Tyus-Jones-18938","Dario-Saric-36004","Karl-Anthony-Towns-18937","49700","276.16"
"Russell-Westbrook-1083","Dennis-Schroder-18595","DeMar-DeRozan-1053","Gorgui-Dieng-16939","Karl-Anthony-Towns-18937","Tyus-Jones-18938","Anthony-Tolliver-1263","Dario-Saric-36004","49600","276.16"
"Russell-Westbrook-1083","Dennis-Schroder-18595","Marco-Belinelli-1033","Gorgui-Dieng-16939","Karl-Anthony-Towns-18937","Tyus-Jones-18938","Jerami-Grant-18576","Jrue-Holiday-1073","49800","276.14"
"Russell-Westbrook-1083","DeMar-DeRozan-1053","E'Twaun-Moore-18582","Gorgui-Dieng-16939","Karl-Anthony-Towns-18937","Dennis-Schroder-18595","Marco-Belinelli-1033","Tyus-Jones-18938","49200","276.13"
"Russell-Westbrook-1083","Dennis-Schroder-18595","E'Twaun-Moore-18582","Julius-Randle-18632","Karl-Anthony-Towns-18937","Patty-Mills-13977","Dario-Saric-36004","Jakob-Poeltl-35187","49800","276.1"
"Russell-Westbrook-1083","Dennis-Schroder-18595","E'Twaun-Moore-18582","Dario-Saric-36004","Steven-Adams-16848","Bryn-Forbes-36052","Marco-Belinelli-1033","Karl-Anthony-Towns-18937","49700","276.08"
"Russell-Westbrook-1083","Dennis-Schroder-18595","DeMar-DeRozan-1053","Davis-Bertans-36051","Karl-Anthony-Towns-18937","E'Twaun-Moore-18582","Marco-Belinelli-1033","Tyus-Jones-18938","49800","276.05"
"Russell-Westbrook-1083","Dennis-Schroder-18595","E'Twaun-Moore-18582","Julius-Randle-18632","Karl-Anthony-Towns-18937","Tyus-Jones-18938","Dario-Saric-36004","Pau-Gasol-1502","49400","276.04"
"Jeff-Teague-1005","Dennis-Schroder-18595","Josh-Okogie-409174","Dario-Saric-36004","Karl-Anthony-Towns-18937","Russell-Westbrook-1083","E'Twaun-Moore-18582","Tyus-Jones-18938","49800","276.04"
"Russell-Westbrook-1083","Dennis-Schroder-18595","E'Twaun-Moore-18582","Dario-Saric-36004","Karl-Anthony-Towns-18937","Jrue-Holiday-1073","Marco-Belinelli-1033","Gorgui-Dieng-16939","49500","276.01"
"Russell-Westbrook-1083","Dennis-Schroder-18595","DeMar-DeRozan-1053","Dario-Saric-36004","Karl-Anthony-Towns-18937","Tyus-Jones-18938","Darius-Miller-13951","Jakob-Poeltl-35187","50000","275.94"
"Russell-Westbrook-1083","Dennis-Schroder-18595","DeMar-DeRozan-1053","Dario-Saric-36004","Pau-Gasol-1502","E'Twaun-Moore-18582","Marco-Belinelli-1033","Karl-Anthony-Towns-18937","50000","275.91"
"Russell-Westbrook-1083","Dennis-Schroder-18595","Davis-Bertans-36051","Julius-Randle-18632","Karl-Anthony-Towns-18937","Elfrid-Payton-18602","Gorgui-Dieng-16939","Tyus-Jones-18938","49900","275.88"
"Russell-Westbrook-1083","Dennis-Schroder-18595","Marco-Belinelli-1033","Gorgui-Dieng-16939","LaMarcus-Aldridge-1349","Tyus-Jones-18938","Dario-Saric-36004","Karl-Anthony-Towns-18937","49400","275.87"
"Russell-Westbrook-1083","Dennis-Schroder-18595","Anthony-Tolliver-1263","Gorgui-Dieng-16939","Karl-Anthony-Towns-18937","Patty-Mills-13977","Paul-George-1245","Tyus-Jones-18938","50000","275.84"
"Russell-Westbrook-1083","DeMar-DeRozan-1053","Anthony-Tolliver-1263","Dario-Saric-36004","Gorgui-Dieng-16939","Dennis-Schroder-18595","E'Twaun-Moore-18582","Karl-Anthony-Towns-18937","50000","275.83"
"Dennis-Schroder-18595","Patty-Mills-13977","E'Twaun-Moore-18582","Julius-Randle-18632","Karl-Anthony-Towns-18937","Tyus-Jones-18938","Dario-Saric-36004","Anthony-Davis-13895","50000","275.79"
"Russell-Westbrook-1083","Dennis-Schroder-18595","Davis-Bertans-36051","Dario-Saric-36004","Karl-Anthony-Towns-18937","Tyus-Jones-18938","LaMarcus-Aldridge-1349","Marco-Belinelli-1033","50000","275.79"
"Russell-Westbrook-1083","DeMar-DeRozan-1053","Anthony-Tolliver-1263","Dario-Saric-36004","Karl-Anthony-Towns-18937","Dennis-Schroder-18595","Marco-Belinelli-1033","Tyus-Jones-18938","49900","275.79"
"Elfrid-Payton-18602","Dennis-Schroder-18595","E'Twaun-Moore-18582","Gorgui-Dieng-16939","Karl-Anthony-Towns-18937","Tyus-Jones-18938","Anthony-Davis-13895","Steven-Adams-16848","49700","275.73"
"Russell-Westbrook-1083","Dennis-Schroder-18595","E'Twaun-Moore-18582","Gorgui-Dieng-16939","Karl-Anthony-Towns-18937","Patty-Mills-13977","LaMarcus-Aldridge-1349","Tyus-Jones-18938","49400","275.61"
"Russell-Westbrook-1083","Dennis-Schroder-18595","Marco-Belinelli-1033","Julius-Randle-18632","Karl-Anthony-Towns-18937","Elfrid-Payton-18602","Gorgui-Dieng-16939","Tyus-Jones-18938","49600","275.59"
"Russell-Westbrook-1083","Dennis-Schroder-18595","E'Twaun-Moore-18582","Julius-Randle-18632","Karl-Anthony-Towns-18937","Tyus-Jones-18938","Dario-Saric-36004","Anthony-Tolliver-1263","49700","275.59"
"Russell-Westbrook-1083","Dennis-Schroder-18595","E'Twaun-Moore-18582","Gorgui-Dieng-16939","Karl-Anthony-Towns-18937","Marco-Belinelli-1033","LaMarcus-Aldridge-1349","Dario-Saric-36004","49800","275.54"
"Russell-Westbrook-1083","Dennis-Schroder-18595","DeMar-DeRozan-1053","Anthony-Tolliver-1263","Karl-Anthony-Towns-18937","Patty-Mills-13977","E'Twaun-Moore-18582","Tyus-Jones-18938","49900","275.53"
"Russell-Westbrook-1083","Dennis-Schroder-18595","Davis-Bertans-36051","LaMarcus-Aldridge-1349","Karl-Anthony-Towns-18937","Patty-Mills-13977","E'Twaun-Moore-18582","Tyus-Jones-18938","50000","275.53"
"Jeff-Teague-1005","Dennis-Schroder-18595","E'Twaun-Moore-18582","Gorgui-Dieng-16939","Karl-Anthony-Towns-18937","Russell-Westbrook-1083","Dario-Saric-36004","Tyus-Jones-18938","48700","275.45"
"Russell-Westbrook-1083","Dennis-Schroder-18595","Davis-Bertans-36051","Gorgui-Dieng-16939","Karl-Anthony-Towns-18937","Bryn-Forbes-36052","DeMar-DeRozan-1053","Tyus-Jones-18938","49700","275.45"
"Russell-Westbrook-1083","Dennis-Schroder-18595","Davis-Bertans-36051","Gorgui-Dieng-16939","Karl-Anthony-Towns-18937","Patty-Mills-13977","DeMar-DeRozan-1053","Dario-Saric-36004","49900","275.45"
"Jeff-Teague-1005","Dennis-Schroder-18595","Davis-Bertans-36051","Dario-Saric-36004","Karl-Anthony-Towns-18937","Russell-Westbrook-1083","E'Twaun-Moore-18582","Tyus-Jones-18938","49300","275.37"
"Russell-Westbrook-1083","Dennis-Schroder-18595","E'Twaun-Moore-18582","Gorgui-Dieng-16939","Karl-Anthony-Towns-18937","Tyus-Jones-18938","Taj-Gibson-1277","Jrue-Holiday-1073","49700","275.36"
"Elfrid-Payton-18602","Dennis-Schroder-18595","E'Twaun-Moore-18582","Anthony-Davis-13895","Steven-Adams-16848","Tyus-Jones-18938","Marco-Belinelli-1033","Karl-Anthony-Towns-18937","50000","275.36"
"Russell-Westbrook-1083","Dennis-Schroder-18595","DeMar-DeRozan-1053","Dario-Saric-36004","Gorgui-Dieng-16939","Tyus-Jones-18938","E'Twaun-Moore-18582","Paul-George-1245","50000","275.34"
"Russell-Westbrook-1083","Dennis-Schroder-18595","Davis-Bertans-36051","Gorgui-Dieng-16939","Karl-Anthony-Towns-18937","Bryn-Forbes-36052","Dario-Saric-36004","Jrue-Holiday-1073","50000","275.33"
"Jeff-Teague-1005","Dennis-Schroder-18595","Paul-George-1245","Gorgui-Dieng-16939","Karl-Anthony-Towns-18937","Tyus-Jones-18938","Dario-Saric-36004","Jrue-Holiday-1073","50000","275.32"
"Russell-Westbrook-1083","Dennis-Schroder-18595","DeMar-DeRozan-1053","Gorgui-Dieng-16939","Pau-Gasol-1502","Bryn-Forbes-36052","Dario-Saric-36004","Karl-Anthony-Towns-18937","49900","275.31"
"Russell-Westbrook-1083","Dennis-Schroder-18595","E'Twaun-Moore-18582","Julius-Randle-18632","Karl-Anthony-Towns-18937","Elfrid-Payton-18602","Marco-Belinelli-1033","Gorgui-Dieng-16939","50000","275.26"
"Dennis-Schroder-18595","Patty-Mills-13977","Paul-George-1245","Gorgui-Dieng-16939","Jakob-Poeltl-35187","Tyus-Jones-18938","Anthony-Davis-13895","Karl-Anthony-Towns-18937","50000","275.26"
"Jeff-Teague-1005","Dennis-Schroder-18595","E'Twaun-Moore-18582","Gorgui-Dieng-16939","Karl-Anthony-Towns-18937","Russell-Westbrook-1083","Jerami-Grant-18576","Tyus-Jones-18938","49400","275.25"
"Russell-Westbrook-1083","Dennis-Schroder-18595","E'Twaun-Moore-18582","LaMarcus-Aldridge-1349","Karl-Anthony-Towns-18937","Patty-Mills-13977","Marco-Belinelli-1033","Tyus-Jones-18938","49700","275.24"
"Russell-Westbrook-1083","Dennis-Schroder-18595","DeMar-DeRozan-1053","Gorgui-Dieng-16939","Karl-Anthony-Towns-18937","Tyus-Jones-18938","Terrance-Ferguson-37871","Dario-Saric-36004","49800","275.22"
"Dennis-Schroder-18595","Marco-Belinelli-1033","DeMar-DeRozan-1053","Anthony-Davis-13895","Karl-Anthony-Towns-18937","Tyus-Jones-18938","Dario-Saric-36004","Jakob-Poeltl-35187","49900","275.21"
