"Collin-Sexton-408896","Khris-Middleton-13990","Giannis-Antetokounmpo-16852","John-Collins-37823","Zaza-Pachulia-1455","Trae-Young-409063","Chandler-Hutchison-408877","Otto-Porter-17069","49900","287.39"
"Spencer-Dinwiddie-18588","Khris-Middleton-13990","Giannis-Antetokounmpo-16852","John-Collins-37823","Zaza-Pachulia-1455","Malcolm-Brogdon-35195","Chandler-Hutchison-408877","Otto-Porter-17069","49900","286.84"

"Collin-Sexton-408896","Khris-Middleton-13990","Giannis-Antetokounmpo-16852","John-Collins-37823","Zaza-Pachulia-1455","Trae-Young-409063","Chandler-Hutchison-408877","Otto-Porter-17069","49900","287.39"
"Spencer-Dinwiddie-18588","Khris-Middleton-13990","Giannis-Antetokounmpo-16852","John-Collins-37823","Zaza-Pachulia-1455","Malcolm-Brogdon-35195","Chandler-Hutchison-408877","Otto-Porter-17069","49900","286.84"
"Trae-Young-409063","Spencer-Dinwiddie-18588","Giannis-Antetokounmpo-16852","John-Collins-37823","Zaza-Pachulia-1455","Malcolm-Brogdon-35195","Chandler-Hutchison-408877","Otto-Porter-17069","50000","286.82"
"Collin-Sexton-408896","Bradley-Beal-13898","Giannis-Antetokounmpo-16852","John-Collins-37823","Zaza-Pachulia-1455","Cameron-Payne-18941","Chandler-Hutchison-408877","Otto-Porter-17069","49800","286.8"
"Reggie-Jackson-13352","Bradley-Beal-13898","Giannis-Antetokounmpo-16852","John-Collins-37823","Zaza-Pachulia-1455","Cameron-Payne-18941","Chandler-Hutchison-408877","Otto-Porter-17069","50000","286.78"
"Spencer-Dinwiddie-18588","Evan-Fournier-13913","Giannis-Antetokounmpo-16852","John-Collins-37823","Zaza-Pachulia-1455","Kris-Dunn-35215","Chandler-Hutchison-408877","Otto-Porter-17069","49800","286.75"
"Trae-Young-409063","Bradley-Beal-13898","Khris-Middleton-13990","John-Collins-37823","Zaza-Pachulia-1455","Kris-Dunn-35215","Chandler-Hutchison-408877","Otto-Porter-17069","49900","286.68"
"Collin-Sexton-408896","Bradley-Beal-13898","Giannis-Antetokounmpo-16852","Otto-Porter-17069","Zaza-Pachulia-1455","Kris-Dunn-35215","Dewayne-Dedmon-16894","Chandler-Hutchison-408877","49900","286.56"
"Collin-Sexton-408896","Khris-Middleton-13990","Giannis-Antetokounmpo-16852","John-Collins-37823","Zaza-Pachulia-1455","Kris-Dunn-35215","Chandler-Hutchison-408877","Otto-Porter-17069","49500","286.55"
"Reggie-Jackson-13352","Khris-Middleton-13990","Giannis-Antetokounmpo-16852","John-Collins-37823","Zaza-Pachulia-1455","Kris-Dunn-35215","Chandler-Hutchison-408877","Otto-Porter-17069","49700","286.53"
"Collin-Sexton-408896","Kris-Dunn-35215","Giannis-Antetokounmpo-16852","John-Collins-37823","Zaza-Pachulia-1455","Trae-Young-409063","Chandler-Hutchison-408877","Otto-Porter-17069","49600","286.53"
"Reggie-Jackson-13352","Kris-Dunn-35215","Giannis-Antetokounmpo-16852","John-Collins-37823","Zaza-Pachulia-1455","Trae-Young-409063","Chandler-Hutchison-408877","Otto-Porter-17069","49800","286.51"
"Collin-Sexton-408896","Bradley-Beal-13898","Giannis-Antetokounmpo-16852","John-Collins-37823","Zaza-Pachulia-1455","George-Hill-993","Chandler-Hutchison-408877","Otto-Porter-17069","49800","286.36"
"Spencer-Dinwiddie-18588","Khris-Middleton-13990","Giannis-Antetokounmpo-16852","John-Collins-37823","Zaza-Pachulia-1455","Bogdan-Bogdanovic-37899","Chandler-Hutchison-408877","Otto-Porter-17069","49800","286.35"
"Reggie-Jackson-13352","Bradley-Beal-13898","Giannis-Antetokounmpo-16852","John-Collins-37823","Zaza-Pachulia-1455","George-Hill-993","Chandler-Hutchison-408877","Otto-Porter-17069","50000","286.34"
"Trae-Young-409063","Spencer-Dinwiddie-18588","Giannis-Antetokounmpo-16852","John-Collins-37823","Zaza-Pachulia-1455","Bogdan-Bogdanovic-37899","Chandler-Hutchison-408877","Otto-Porter-17069","49900","286.33"
"Spencer-Dinwiddie-18588","Wesley-Matthews-1339","Giannis-Antetokounmpo-16852","Trevor-Ariza-1323","Zaza-Pachulia-1455","Bradley-Beal-13898","Chandler-Hutchison-408877","Otto-Porter-17069","50000","286.15"
"Spencer-Dinwiddie-18588","Malcolm-Brogdon-35195","Giannis-Antetokounmpo-16852","John-Collins-37823","Zaza-Pachulia-1455","Kris-Dunn-35215","Chandler-Hutchison-408877","Otto-Porter-17069","49600","285.98"
"Collin-Sexton-408896","Spencer-Dinwiddie-18588","Harrison-Barnes-13901","Chandler-Hutchison-408877","Zaza-Pachulia-1455","Bradley-Beal-13898","Otto-Porter-17069","Giannis-Antetokounmpo-16852","49800","285.98"
"Kris-Dunn-35215","Khris-Middleton-13990","Chandler-Hutchison-408877","John-Collins-37823","Zaza-Pachulia-1455","Bradley-Beal-13898","Otto-Porter-17069","Willie-Cauley-Stein-18951","50000","285.97"
"Reggie-Jackson-13352","Spencer-Dinwiddie-18588","Harrison-Barnes-13901","Chandler-Hutchison-408877","Zaza-Pachulia-1455","Bradley-Beal-13898","Otto-Porter-17069","Giannis-Antetokounmpo-16852","50000","285.96"
"Trae-Young-409063","Khris-Middleton-13990","Trevor-Ariza-1323","Chandler-Hutchison-408877","Zaza-Pachulia-1455","Bradley-Beal-13898","Otto-Porter-17069","John-Collins-37823","49700","285.91"
"Kris-Dunn-35215","Bradley-Beal-13898","Giannis-Antetokounmpo-16852","Chandler-Hutchison-408877","Zaza-Pachulia-1455","Cameron-Payne-18941","Khris-Middleton-13990","Otto-Porter-17069","50000","285.74"
"Kris-Dunn-35215","DeAndre-Bembry-35198","Giannis-Antetokounmpo-16852","John-Collins-37823","Zaza-Pachulia-1455","Khris-Middleton-13990","Chandler-Hutchison-408877","Otto-Porter-17069","49900","285.54"
"Collin-Sexton-408896","Spencer-Dinwiddie-18588","Giannis-Antetokounmpo-16852","Chandler-Hutchison-408877","Zaza-Pachulia-1455","Bradley-Beal-13898","Otto-Porter-17069","Malcolm-Brogdon-35195","50000","285.53"
"Trae-Young-409063","DeAndre-Bembry-35198","Giannis-Antetokounmpo-16852","John-Collins-37823","Zaza-Pachulia-1455","Kris-Dunn-35215","Chandler-Hutchison-408877","Otto-Porter-17069","50000","285.52"
"Spencer-Dinwiddie-18588","Kris-Dunn-35215","Giannis-Antetokounmpo-16852","John-Collins-37823","Zaza-Pachulia-1455","Bogdan-Bogdanovic-37899","Chandler-Hutchison-408877","Otto-Porter-17069","49500","285.49"
"Alec-Burks-13353","Spencer-Dinwiddie-18588","Chandler-Hutchison-408877","John-Collins-37823","Zaza-Pachulia-1455","Bradley-Beal-13898","Jonathan-Isaac-37841","Giannis-Antetokounmpo-16852","49800","285.48"
"Trae-Young-409063","Khris-Middleton-13990","Giannis-Antetokounmpo-16852","John-Collins-37823","Zaza-Pachulia-1455","Spencer-Dinwiddie-18588","Chandler-Hutchison-408877","Harrison-Barnes-13901","50000","285.45"
"Kris-Dunn-35215","Bradley-Beal-13898","Giannis-Antetokounmpo-16852","John-Collins-37823","Zaza-Pachulia-1455","Cameron-Payne-18941","Dewayne-Dedmon-16894","Chandler-Hutchison-408877","50000","285.44"
"Spencer-Dinwiddie-18588","Khris-Middleton-13990","Giannis-Antetokounmpo-16852","John-Collins-37823","Ante-Zizic-35180","Kris-Dunn-35215","Chandler-Hutchison-408877","Zaza-Pachulia-1455","50000","285.36"
"Kris-Dunn-35215","Bradley-Beal-13898","Giannis-Antetokounmpo-16852","Chandler-Hutchison-408877","Zaza-Pachulia-1455","George-Hill-993","Khris-Middleton-13990","Otto-Porter-17069","50000","285.3"
"Trae-Young-409063","Spencer-Dinwiddie-18588","Khris-Middleton-13990","John-Collins-37823","Zaza-Pachulia-1455","Bradley-Beal-13898","Chandler-Hutchison-408877","Otto-Porter-17069","49500","285.28"
"Collin-Sexton-408896","Reggie-Jackson-13352","Giannis-Antetokounmpo-16852","Chandler-Hutchison-408877","Zaza-Pachulia-1455","Kris-Dunn-35215","Otto-Porter-17069","Bradley-Beal-13898","49800","285.22"
"Collin-Sexton-408896","Spencer-Dinwiddie-18588","Giannis-Antetokounmpo-16852","Otto-Porter-17069","Zaza-Pachulia-1455","Bradley-Beal-13898","Dewayne-Dedmon-16894","Chandler-Hutchison-408877","49500","285.16"
"Collin-Sexton-408896","Khris-Middleton-13990","Giannis-Antetokounmpo-16852","John-Collins-37823","Zaza-Pachulia-1455","Spencer-Dinwiddie-18588","Chandler-Hutchison-408877","Otto-Porter-17069","49100","285.15"
"Reggie-Jackson-13352","Spencer-Dinwiddie-18588","Giannis-Antetokounmpo-16852","Otto-Porter-17069","Zaza-Pachulia-1455","Bradley-Beal-13898","Dewayne-Dedmon-16894","Chandler-Hutchison-408877","49700","285.14"
"Collin-Sexton-408896","Spencer-Dinwiddie-18588","Giannis-Antetokounmpo-16852","John-Collins-37823","Zaza-Pachulia-1455","Trae-Young-409063","Chandler-Hutchison-408877","Otto-Porter-17069","49200","285.13"
"Reggie-Jackson-13352","Khris-Middleton-13990","Giannis-Antetokounmpo-16852","John-Collins-37823","Zaza-Pachulia-1455","Spencer-Dinwiddie-18588","Chandler-Hutchison-408877","Otto-Porter-17069","49300","285.13"
"Reggie-Jackson-13352","Spencer-Dinwiddie-18588","Giannis-Antetokounmpo-16852","John-Collins-37823","Zaza-Pachulia-1455","Trae-Young-409063","Chandler-Hutchison-408877","Otto-Porter-17069","49400","285.11"
"Alec-Burks-13353","Khris-Middleton-13990","Giannis-Antetokounmpo-16852","Otto-Porter-17069","Zaza-Pachulia-1455","Bradley-Beal-13898","Dewayne-Dedmon-16894","Chandler-Hutchison-408877","49900","285.11"
"Spencer-Dinwiddie-18588","Bradley-Beal-13898","Giannis-Antetokounmpo-16852","Trevor-Ariza-1323","Zaza-Pachulia-1455","Kris-Dunn-35215","Chandler-Hutchison-408877","Jonathan-Isaac-37841","49800","285.1"
"Alec-Burks-13353","Bradley-Beal-13898","Giannis-Antetokounmpo-16852","Otto-Porter-17069","Zaza-Pachulia-1455","Trae-Young-409063","Dewayne-Dedmon-16894","Chandler-Hutchison-408877","50000","285.09"
"Alec-Burks-13353","Khris-Middleton-13990","Giannis-Antetokounmpo-16852","John-Collins-37823","Zaza-Pachulia-1455","Trae-Young-409063","Chandler-Hutchison-408877","Otto-Porter-17069","49600","285.08"
"Kris-Dunn-35215","Khris-Middleton-13990","Trevor-Ariza-1323","Chandler-Hutchison-408877","Zaza-Pachulia-1455","Bradley-Beal-13898","Otto-Porter-17069","John-Collins-37823","49300","285.07"
"Alec-Burks-13353","Bradley-Beal-13898","Harrison-Barnes-13901","Chandler-Hutchison-408877","Zaza-Pachulia-1455","Kris-Dunn-35215","Otto-Porter-17069","Giannis-Antetokounmpo-16852","49900","285.07"
"Collin-Sexton-408896","Bradley-Beal-13898","Giannis-Antetokounmpo-16852","John-Collins-37823","Zaza-Pachulia-1455","Matthew-Dellavedova-16839","Chandler-Hutchison-408877","Otto-Porter-17069","49800","285.06"
"Trae-Young-409063","Bradley-Beal-13898","Trevor-Ariza-1323","Chandler-Hutchison-408877","Zaza-Pachulia-1455","Kris-Dunn-35215","Otto-Porter-17069","John-Collins-37823","49400","285.05"
"Collin-Sexton-408896","Spencer-Dinwiddie-18588","Chandler-Hutchison-408877","Otto-Porter-17069","Zaza-Pachulia-1455","Bradley-Beal-13898","Bogdan-Bogdanovic-37899","Giannis-Antetokounmpo-16852","49900","285.04"
"Reggie-Jackson-13352","Bradley-Beal-13898","Giannis-Antetokounmpo-16852","John-Collins-37823","Zaza-Pachulia-1455","Matthew-Dellavedova-16839","Chandler-Hutchison-408877","Otto-Porter-17069","50000","285.04"
"Kris-Dunn-35215","Joe-Harris-18587","Giannis-Antetokounmpo-16852","John-Collins-37823","Zaza-Pachulia-1455","Khris-Middleton-13990","Chandler-Hutchison-408877","Otto-Porter-17069","49800","285.03"
"Trae-Young-409063","Joe-Harris-18587","Giannis-Antetokounmpo-16852","John-Collins-37823","Zaza-Pachulia-1455","Kris-Dunn-35215","Chandler-Hutchison-408877","Otto-Porter-17069","49900","285.01"
"Kris-Dunn-35215","Bradley-Beal-13898","Giannis-Antetokounmpo-16852","John-Collins-37823","Zaza-Pachulia-1455","George-Hill-993","Dewayne-Dedmon-16894","Chandler-Hutchison-408877","50000","285.0"
"Collin-Sexton-408896","Bradley-Beal-13898","Khris-Middleton-13990","John-Collins-37823","Zaza-Pachulia-1455","Cameron-Payne-18941","Chandler-Hutchison-408877","Giannis-Antetokounmpo-16852","50000","284.98"
"Cameron-Payne-18941","Khris-Middleton-13990","Giannis-Antetokounmpo-16852","Trevor-Ariza-1323","Zaza-Pachulia-1455","Bradley-Beal-13898","Chandler-Hutchison-408877","Otto-Porter-17069","49800","284.97"
"Trae-Young-409063","Bradley-Beal-13898","Giannis-Antetokounmpo-16852","Trevor-Ariza-1323","Zaza-Pachulia-1455","Cameron-Payne-18941","Chandler-Hutchison-408877","Otto-Porter-17069","49900","284.95"
"Spencer-Dinwiddie-18588","Evan-Fournier-13913","Khris-Middleton-13990","John-Collins-37823","Zaza-Pachulia-1455","Kris-Dunn-35215","Chandler-Hutchison-408877","Giannis-Antetokounmpo-16852","50000","284.93"
"Malcolm-Brogdon-35195","Bradley-Beal-13898","Giannis-Antetokounmpo-16852","Chandler-Hutchison-408877","Zaza-Pachulia-1455","Kris-Dunn-35215","Jonathan-Isaac-37841","Otto-Porter-17069","49900","284.88"
"Spencer-Dinwiddie-18588","Bradley-Beal-13898","Giannis-Antetokounmpo-16852","John-Collins-37823","Zaza-Pachulia-1455","Cameron-Payne-18941","Chandler-Hutchison-408877","Harrison-Barnes-13901","49900","284.86"
"Alec-Burks-13353","Spencer-Dinwiddie-18588","Giannis-Antetokounmpo-16852","Trevor-Ariza-1323","Zaza-Pachulia-1455","Kris-Dunn-35215","Chandler-Hutchison-408877","Bradley-Beal-13898","50000","284.84"
"Malcolm-Brogdon-35195","Khris-Middleton-13990","Giannis-Antetokounmpo-16852","Trevor-Ariza-1323","Zaza-Pachulia-1455","Kris-Dunn-35215","Chandler-Hutchison-408877","John-Collins-37823","50000","284.79"
"Spencer-Dinwiddie-18588","Bradley-Beal-13898","Trevor-Ariza-1323","John-Collins-37823","Zaza-Pachulia-1455","Kris-Dunn-35215","Otto-Porter-17069","Dewayne-Dedmon-16894","50000","284.74"
"Collin-Sexton-408896","Kris-Dunn-35215","Khris-Middleton-13990","John-Collins-37823","Zaza-Pachulia-1455","Trae-Young-409063","Chandler-Hutchison-408877","Giannis-Antetokounmpo-16852","49800","284.71"
"Trae-Young-409063","Khris-Middleton-13990","Giannis-Antetokounmpo-16852","Trevor-Ariza-1323","Zaza-Pachulia-1455","Kris-Dunn-35215","Chandler-Hutchison-408877","Otto-Porter-17069","49600","284.7"
"Reggie-Jackson-13352","Kris-Dunn-35215","Khris-Middleton-13990","John-Collins-37823","Zaza-Pachulia-1455","Trae-Young-409063","Chandler-Hutchison-408877","Giannis-Antetokounmpo-16852","50000","284.69"
"Alec-Burks-13353","Spencer-Dinwiddie-18588","Giannis-Antetokounmpo-16852","John-Collins-37823","Zaza-Pachulia-1455","Bradley-Beal-13898","Rodions-Kurucs-408801","Chandler-Hutchison-408877","49900","284.65"
"Trae-Young-409063","Khris-Middleton-13990","Giannis-Antetokounmpo-16852","John-Collins-37823","Zaza-Pachulia-1455","Spencer-Dinwiddie-18588","Dewayne-Dedmon-16894","Chandler-Hutchison-408877","49700","284.63"
"Spencer-Dinwiddie-18588","Bradley-Beal-13898","Harrison-Barnes-13901","Chandler-Hutchison-408877","Zaza-Pachulia-1455","Kris-Dunn-35215","Dewayne-Dedmon-16894","Giannis-Antetokounmpo-16852","50000","284.62"
"Spencer-Dinwiddie-18588","Khris-Middleton-13990","Giannis-Antetokounmpo-16852","John-Collins-37823","Zaza-Pachulia-1455","Kris-Dunn-35215","Chandler-Hutchison-408877","Harrison-Barnes-13901","49600","284.61"
"Trae-Young-409063","Spencer-Dinwiddie-18588","Giannis-Antetokounmpo-16852","John-Collins-37823","Zaza-Pachulia-1455","Kris-Dunn-35215","Chandler-Hutchison-408877","Harrison-Barnes-13901","49700","284.59"
"Spencer-Dinwiddie-18588","Khris-Middleton-13990","Chandler-Hutchison-408877","John-Collins-37823","Zaza-Pachulia-1455","Bradley-Beal-13898","Otto-Porter-17069","Willie-Cauley-Stein-18951","49600","284.57"
"Trae-Young-409063","Spencer-Dinwiddie-18588","Chandler-Hutchison-408877","John-Collins-37823","Zaza-Pachulia-1455","Bradley-Beal-13898","Otto-Porter-17069","Willie-Cauley-Stein-18951","49700","284.55"
"Spencer-Dinwiddie-18588","Evan-Fournier-13913","Cedi-Osman-18912","Giannis-Antetokounmpo-16852","Zaza-Pachulia-1455","Bradley-Beal-13898","Chandler-Hutchison-408877","Otto-Porter-17069","50000","284.54"
"Collin-Sexton-408896","Bradley-Beal-13898","Khris-Middleton-13990","John-Collins-37823","Zaza-Pachulia-1455","George-Hill-993","Chandler-Hutchison-408877","Giannis-Antetokounmpo-16852","50000","284.54"
"George-Hill-993","Khris-Middleton-13990","Giannis-Antetokounmpo-16852","Trevor-Ariza-1323","Zaza-Pachulia-1455","Bradley-Beal-13898","Chandler-Hutchison-408877","Otto-Porter-17069","49800","284.53"
"Alec-Burks-13353","Luke-Kennard-37814","Giannis-Antetokounmpo-16852","John-Collins-37823","Zaza-Pachulia-1455","Bradley-Beal-13898","Chandler-Hutchison-408877","Otto-Porter-17069","50000","284.51"
"Trae-Young-409063","Bradley-Beal-13898","Giannis-Antetokounmpo-16852","Trevor-Ariza-1323","Zaza-Pachulia-1455","George-Hill-993","Chandler-Hutchison-408877","Otto-Porter-17069","49900","284.51"
"Kris-Dunn-35215","Khris-Middleton-13990","Chandler-Hutchison-408877","John-Collins-37823","Zaza-Pachulia-1455","Bradley-Beal-13898","Otto-Porter-17069","DeAndre-Jordan-1486","49700","284.51"
"Alec-Burks-13353","Bradley-Beal-13898","Giannis-Antetokounmpo-16852","John-Collins-37823","Zaza-Pachulia-1455","Cameron-Payne-18941","Chandler-Hutchison-408877","Otto-Porter-17069","49500","284.49"
"Trae-Young-409063","Bradley-Beal-13898","Chandler-Hutchison-408877","John-Collins-37823","Zaza-Pachulia-1455","Kris-Dunn-35215","Otto-Porter-17069","DeAndre-Jordan-1486","49800","284.49"
"Collin-Sexton-408896","Reggie-Jackson-13352","Giannis-Antetokounmpo-16852","Trevor-Ariza-1323","Zaza-Pachulia-1455","Bradley-Beal-13898","Chandler-Hutchison-408877","Otto-Porter-17069","49600","284.45"
"Spencer-Dinwiddie-18588","Bradley-Beal-13898","Khris-Middleton-13990","John-Collins-37823","Zaza-Pachulia-1455","Kris-Dunn-35215","Chandler-Hutchison-408877","Otto-Porter-17069","49100","284.44"
"Trae-Young-409063","Spencer-Dinwiddie-18588","Chandler-Hutchison-408877","John-Collins-37823","Zaza-Pachulia-1455","Kris-Dunn-35215","Otto-Porter-17069","Bradley-Beal-13898","49200","284.42"
"Alec-Burks-13353","Spencer-Dinwiddie-18588","Giannis-Antetokounmpo-16852","Chandler-Hutchison-408877","Ante-Zizic-35180","Bradley-Beal-13898","Otto-Porter-17069","Zaza-Pachulia-1455","49900","284.42"
"Spencer-Dinwiddie-18588","Bradley-Beal-13898","Giannis-Antetokounmpo-16852","John-Collins-37823","Zaza-Pachulia-1455","George-Hill-993","Chandler-Hutchison-408877","Harrison-Barnes-13901","49900","284.42"
"Spencer-Dinwiddie-18588","Wesley-Matthews-1339","Cedi-Osman-18912","Giannis-Antetokounmpo-16852","Zaza-Pachulia-1455","Bradley-Beal-13898","Chandler-Hutchison-408877","John-Collins-37823","50000","284.4"
"Kris-Dunn-35215","Bradley-Beal-13898","Giannis-Antetokounmpo-16852","Chandler-Hutchison-408877","Zaza-Pachulia-1455","Bogdan-Bogdanovic-37899","Jonathan-Isaac-37841","Otto-Porter-17069","49800","284.39"
"Spencer-Dinwiddie-18588","Bradley-Beal-13898","Giannis-Antetokounmpo-16852","Chandler-Hutchison-408877","Zaza-Pachulia-1455","Cameron-Payne-18941","Khris-Middleton-13990","Otto-Porter-17069","49600","284.34"
"Collin-Sexton-408896","Khris-Middleton-13990","Cedi-Osman-18912","Giannis-Antetokounmpo-16852","Zaza-Pachulia-1455","Bradley-Beal-13898","Chandler-Hutchison-408877","Otto-Porter-17069","49700","284.34"
"Collin-Sexton-408896","Bradley-Beal-13898","Cedi-Osman-18912","Giannis-Antetokounmpo-16852","Zaza-Pachulia-1455","Trae-Young-409063","Chandler-Hutchison-408877","Otto-Porter-17069","49800","284.32"
"Reggie-Jackson-13352","Khris-Middleton-13990","Cedi-Osman-18912","Giannis-Antetokounmpo-16852","Zaza-Pachulia-1455","Bradley-Beal-13898","Chandler-Hutchison-408877","Otto-Porter-17069","49900","284.32"
"Trae-Young-409063","Spencer-Dinwiddie-18588","Giannis-Antetokounmpo-16852","Chandler-Hutchison-408877","Zaza-Pachulia-1455","Cameron-Payne-18941","Otto-Porter-17069","Bradley-Beal-13898","49700","284.32"
"Collin-Sexton-408896","Alec-Burks-13353","Giannis-Antetokounmpo-16852","John-Collins-37823","Zaza-Pachulia-1455","Bradley-Beal-13898","Chandler-Hutchison-408877","Harrison-Barnes-13901","49900","284.31"
"Alec-Burks-13353","Spencer-Dinwiddie-18588","Giannis-Antetokounmpo-16852","Maxi-Kleber-37845","Zaza-Pachulia-1455","Bradley-Beal-13898","Chandler-Hutchison-408877","John-Collins-37823","50000","284.31"
"Kris-Dunn-35215","Khris-Middleton-13990","Giannis-Antetokounmpo-16852","Trevor-Ariza-1323","Zaza-Pachulia-1455","Bogdan-Bogdanovic-37899","Chandler-Hutchison-408877","John-Collins-37823","49900","284.3"
"Reggie-Jackson-13352","Bradley-Beal-13898","Cedi-Osman-18912","Giannis-Antetokounmpo-16852","Zaza-Pachulia-1455","Trae-Young-409063","Chandler-Hutchison-408877","Otto-Porter-17069","50000","284.3"
"Collin-Sexton-408896","Spencer-Dinwiddie-18588","Giannis-Antetokounmpo-16852","John-Collins-37823","Zaza-Pachulia-1455","Kris-Dunn-35215","Chandler-Hutchison-408877","Otto-Porter-17069","48800","284.29"
"Trae-Young-409063","Kris-Dunn-35215","Giannis-Antetokounmpo-16852","Trevor-Ariza-1323","Zaza-Pachulia-1455","Bogdan-Bogdanovic-37899","Chandler-Hutchison-408877","John-Collins-37823","50000","284.28"
"Collin-Sexton-408896","Khris-Middleton-13990","Trevor-Ariza-1323","John-Collins-37823","Zaza-Pachulia-1455","Spencer-Dinwiddie-18588","Otto-Porter-17069","Bradley-Beal-13898","50000","284.28"
"Spencer-Dinwiddie-18588","Bradley-Beal-13898","Trevor-Ariza-1323","Chandler-Hutchison-408877","Zaza-Pachulia-1455","Kris-Dunn-35215","Rodions-Kurucs-408801","Giannis-Antetokounmpo-16852","49900","284.27"
