"Mike-Conley-1062","Josh-Richardson-18922","Kyle-Anderson-18615","Blake-Griffin-1503","Andre-Drummond-13904","Avery-Bradley-941","Kelly-Olynyk-16845","Bam-Adebayo-37835","49700","265.18"
"Reggie-Jackson-13352","Josh-Richardson-18922","Kyle-Anderson-18615","Bam-Adebayo-37835","Marc-Gasol-1493","Mike-Conley-1062","Kelly-Olynyk-16845","Andre-Drummond-13904","49700","264.05"

"Mike-Conley-1062","Josh-Richardson-18922","Kyle-Anderson-18615","Blake-Griffin-1503","Andre-Drummond-13904","Avery-Bradley-941","Kelly-Olynyk-16845","Bam-Adebayo-37835","49700","265.18"
"Reggie-Jackson-13352","Josh-Richardson-18922","Kyle-Anderson-18615","Bam-Adebayo-37835","Marc-Gasol-1493","Mike-Conley-1062","Kelly-Olynyk-16845","Andre-Drummond-13904","49700","264.05"
"Mike-Conley-1062","Avery-Bradley-941","Kyle-Anderson-18615","Blake-Griffin-1503","Andre-Drummond-13904","Justise-Winslow-18921","Kelly-Olynyk-16845","Bam-Adebayo-37835","49900","263.67"
"Mike-Conley-1062","Josh-Richardson-18922","Kyle-Anderson-18615","Blake-Griffin-1503","Andre-Drummond-13904","Garrett-Temple-14077","Kelly-Olynyk-16845","Bam-Adebayo-37835","49900","263.61"
"Kyle-Anderson-18615","Avery-Bradley-941","Josh-Richardson-18922","Bam-Adebayo-37835","Andre-Drummond-13904","Mike-Conley-1062","James-Johnson-1195","Blake-Griffin-1503","49900","263.48"
"Kyle-Anderson-18615","Josh-Richardson-18922","Tobias-Harris-13332","Bam-Adebayo-37835","Andre-Drummond-13904","Avery-Bradley-941","Blake-Griffin-1503","Kelly-Olynyk-16845","50000","263.23"
"Patrick-Beverley-14108","Dwyane-Wade-967","Josh-Richardson-18922","Blake-Griffin-1503","Andre-Drummond-13904","Mike-Conley-1062","Kelly-Olynyk-16845","Bam-Adebayo-37835","50000","263.07"
"Kyle-Anderson-18615","Josh-Richardson-18922","JaMychal-Green-18729","Blake-Griffin-1503","Andre-Drummond-13904","Mike-Conley-1062","James-Johnson-1195","Kelly-Olynyk-16845","50000","263.05"
"Reggie-Jackson-13352","Avery-Bradley-941","Josh-Richardson-18922","Blake-Griffin-1503","Andre-Drummond-13904","Mike-Conley-1062","Kelly-Olynyk-16845","Bam-Adebayo-37835","49600","263.05"
"Kyle-Anderson-18615","Reggie-Jackson-13352","JaMychal-Green-18729","Bam-Adebayo-37835","Kelly-Olynyk-16845","Mike-Conley-1062","Blake-Griffin-1503","Andre-Drummond-13904","49700","262.7"
"Mike-Conley-1062","Luke-Kennard-37814","Kyle-Anderson-18615","Blake-Griffin-1503","Andre-Drummond-13904","Josh-Richardson-18922","Kelly-Olynyk-16845","Bam-Adebayo-37835","49800","262.65"
"Mike-Conley-1062","Reggie-Jackson-13352","Kyle-Anderson-18615","Bam-Adebayo-37835","Marc-Gasol-1493","Justise-Winslow-18921","Kelly-Olynyk-16845","Andre-Drummond-13904","49900","262.54"
"Mike-Conley-1062","Josh-Richardson-18922","Danilo-Gallinari-1329","Bam-Adebayo-37835","Andre-Drummond-13904","Avery-Bradley-941","Kelly-Olynyk-16845","Marc-Gasol-1493","50000","262.48"
"Kyle-Anderson-18615","Josh-Richardson-18922","Tobias-Harris-13332","Bam-Adebayo-37835","Jaren-Jackson-409099","Mike-Conley-1062","Kelly-Olynyk-16845","Andre-Drummond-13904","50000","262.46"
"Reggie-Jackson-13352","Reggie-Bullock-16943","Kyle-Anderson-18615","Blake-Griffin-1503","Andre-Drummond-13904","Mike-Conley-1062","Kelly-Olynyk-16845","Bam-Adebayo-37835","49900","262.4"
"Dwyane-Wade-967","Josh-Richardson-18922","Kyle-Anderson-18615","Bam-Adebayo-37835","Marc-Gasol-1493","Mike-Conley-1062","Kelly-Olynyk-16845","Andre-Drummond-13904","49600","262.39"
"Kyle-Anderson-18615","Reggie-Jackson-13352","Josh-Richardson-18922","Bam-Adebayo-37835","Andre-Drummond-13904","Mike-Conley-1062","James-Johnson-1195","Marc-Gasol-1493","49900","262.35"
"Mike-Conley-1062","Josh-Richardson-18922","Tobias-Harris-13332","Bam-Adebayo-37835","James-Johnson-1195","Justise-Winslow-18921","Kelly-Olynyk-16845","Andre-Drummond-13904","49800","262.22"
"Kyle-Anderson-18615","Dwyane-Wade-967","Josh-Richardson-18922","Bam-Adebayo-37835","Marc-Gasol-1493","Mike-Conley-1062","Blake-Griffin-1503","Kelly-Olynyk-16845","50000","262.12"
"Kyle-Anderson-18615","Patrick-Beverley-14108","Tobias-Harris-13332","Bam-Adebayo-37835","Marc-Gasol-1493","Mike-Conley-1062","Kelly-Olynyk-16845","Andre-Drummond-13904","49900","262.11"
"Kyle-Anderson-18615","Josh-Richardson-18922","Tobias-Harris-13332","Bam-Adebayo-37835","Marc-Gasol-1493","Reggie-Jackson-13352","Kelly-Olynyk-16845","Andre-Drummond-13904","50000","262.1"
"Mike-Conley-1062","Josh-Richardson-18922","Kyle-Anderson-18615","Montrezl-Harrell-18930","Andre-Drummond-13904","Justise-Winslow-18921","Kelly-Olynyk-16845","Bam-Adebayo-37835","50000","261.92"
"Mike-Conley-1062","Josh-Richardson-18922","Kyle-Anderson-18615","Blake-Griffin-1503","Andre-Drummond-13904","Justin-Holiday-14559","Kelly-Olynyk-16845","Bam-Adebayo-37835","49800","261.92"
"Kyle-Anderson-18615","Josh-Richardson-18922","JaMychal-Green-18729","Bam-Adebayo-37835","Kelly-Olynyk-16845","Justise-Winslow-18921","Blake-Griffin-1503","Andre-Drummond-13904","49800","261.68"
"Kyle-Anderson-18615","Josh-Richardson-18922","Danilo-Gallinari-1329","Bam-Adebayo-37835","Andre-Drummond-13904","Avery-Bradley-941","Blake-Griffin-1503","Kelly-Olynyk-16845","49600","261.59"
"Reggie-Jackson-13352","Avery-Bradley-941","Justise-Winslow-18921","Blake-Griffin-1503","Andre-Drummond-13904","Mike-Conley-1062","Kelly-Olynyk-16845","Bam-Adebayo-37835","49800","261.54"
"Reggie-Jackson-13352","Garrett-Temple-14077","Josh-Richardson-18922","Blake-Griffin-1503","Andre-Drummond-13904","Mike-Conley-1062","Kelly-Olynyk-16845","Bam-Adebayo-37835","49800","261.48"
"Kyle-Anderson-18615","Reggie-Jackson-13352","Tobias-Harris-13332","Bam-Adebayo-37835","Andre-Drummond-13904","Mike-Conley-1062","Josh-Richardson-18922","Kelly-Olynyk-16845","49800","261.46"
"Kyle-Anderson-18615","Avery-Bradley-941","Danilo-Gallinari-1329","Kelly-Olynyk-16845","Andre-Drummond-13904","Mike-Conley-1062","James-Johnson-1195","Blake-Griffin-1503","50000","261.45"
"Patrick-Beverley-14108","Josh-Richardson-18922","Kyle-Anderson-18615","Blake-Griffin-1503","Andre-Drummond-13904","Mike-Conley-1062","Kelly-Olynyk-16845","James-Johnson-1195","49400","261.39"
"Dwyane-Wade-967","Avery-Bradley-941","Josh-Richardson-18922","Blake-Griffin-1503","Andre-Drummond-13904","Mike-Conley-1062","Kelly-Olynyk-16845","Bam-Adebayo-37835","49500","261.39"
"Justise-Winslow-18921","Reggie-Bullock-16943","Kyle-Anderson-18615","Blake-Griffin-1503","Andre-Drummond-13904","Josh-Richardson-18922","Kelly-Olynyk-16845","Bam-Adebayo-37835","50000","261.38"
"Reggie-Jackson-13352","Avery-Bradley-941","Josh-Richardson-18922","Bam-Adebayo-37835","Andre-Drummond-13904","Mike-Conley-1062","James-Johnson-1195","Blake-Griffin-1503","49800","261.35"
"Patrick-Beverley-14108","Josh-Richardson-18922","Danilo-Gallinari-1329","Bam-Adebayo-37835","Andre-Drummond-13904","Reggie-Jackson-13352","Blake-Griffin-1503","Kelly-Olynyk-16845","50000","261.14"
"Mike-Conley-1062","Luke-Kennard-37814","Kyle-Anderson-18615","Blake-Griffin-1503","Andre-Drummond-13904","Justise-Winslow-18921","Kelly-Olynyk-16845","Bam-Adebayo-37835","50000","261.14"
"Patrick-Beverley-14108","Avery-Bradley-941","Tobias-Harris-13332","Bam-Adebayo-37835","Andre-Drummond-13904","Mike-Conley-1062","Blake-Griffin-1503","Kelly-Olynyk-16845","49800","261.11"
"Reggie-Jackson-13352","Josh-Richardson-18922","Tobias-Harris-13332","Bam-Adebayo-37835","Andre-Drummond-13904","Avery-Bradley-941","Blake-Griffin-1503","Kelly-Olynyk-16845","49900","261.1"
"Patrick-Beverley-14108","Josh-Richardson-18922","JaMychal-Green-18729","Bam-Adebayo-37835","Kelly-Olynyk-16845","Mike-Conley-1062","Blake-Griffin-1503","Andre-Drummond-13904","49400","261.07"
"Patrick-Beverley-14108","Reggie-Jackson-13352","Kyle-Anderson-18615","Blake-Griffin-1503","Andre-Drummond-13904","Mike-Conley-1062","Kelly-Olynyk-16845","Bam-Adebayo-37835","49100","261.04"
"Kyle-Anderson-18615","Dwyane-Wade-967","JaMychal-Green-18729","Bam-Adebayo-37835","Kelly-Olynyk-16845","Mike-Conley-1062","Blake-Griffin-1503","Andre-Drummond-13904","49600","261.04"
"Kyle-Anderson-18615","Reggie-Jackson-13352","JaMychal-Green-18729","Blake-Griffin-1503","Andre-Drummond-13904","Mike-Conley-1062","James-Johnson-1195","Bam-Adebayo-37835","49900","261.0"
"Kyle-Anderson-18615","Luke-Kennard-37814","Josh-Richardson-18922","Bam-Adebayo-37835","Andre-Drummond-13904","Mike-Conley-1062","James-Johnson-1195","Blake-Griffin-1503","50000","260.95"
"Reggie-Jackson-13352","Josh-Richardson-18922","JaMychal-Green-18729","Blake-Griffin-1503","Andre-Drummond-13904","Mike-Conley-1062","James-Johnson-1195","Kelly-Olynyk-16845","49900","260.92"
"Patrick-Beverley-14108","Josh-Richardson-18922","Justise-Winslow-18921","Bam-Adebayo-37835","Andre-Drummond-13904","Mike-Conley-1062","Kelly-Olynyk-16845","Marc-Gasol-1493","49600","260.91"
"Mike-Conley-1062","Dwyane-Wade-967","Kyle-Anderson-18615","Bam-Adebayo-37835","Marc-Gasol-1493","Justise-Winslow-18921","Kelly-Olynyk-16845","Andre-Drummond-13904","49800","260.88"
"Kyle-Anderson-18615","Josh-Richardson-18922","Danilo-Gallinari-1329","Jaren-Jackson-409099","Andre-Drummond-13904","Mike-Conley-1062","Kelly-Olynyk-16845","Bam-Adebayo-37835","49600","260.82"
"Patrick-Beverley-14108","Josh-Richardson-18922","Reggie-Bullock-16943","Bam-Adebayo-37835","Andre-Drummond-13904","Mike-Conley-1062","Blake-Griffin-1503","Kelly-Olynyk-16845","49600","260.77"
"Dwyane-Wade-967","Reggie-Bullock-16943","Kyle-Anderson-18615","Blake-Griffin-1503","Andre-Drummond-13904","Mike-Conley-1062","Kelly-Olynyk-16845","Bam-Adebayo-37835","49800","260.74"
"Kyle-Anderson-18615","Dwyane-Wade-967","Josh-Richardson-18922","Bam-Adebayo-37835","Andre-Drummond-13904","Mike-Conley-1062","James-Johnson-1195","Marc-Gasol-1493","49800","260.69"
"Patrick-Beverley-14108","Josh-Richardson-18922","Justise-Winslow-18921","Bam-Adebayo-37835","Marc-Gasol-1493","Mike-Conley-1062","Blake-Griffin-1503","Kelly-Olynyk-16845","50000","260.64"
"Mike-Conley-1062","Josh-Richardson-18922","Danilo-Gallinari-1329","Kelly-Olynyk-16845","Andre-Drummond-13904","Justise-Winslow-18921","James-Johnson-1195","Bam-Adebayo-37835","49400","260.58"
"Kyle-Anderson-18615","Josh-Richardson-18922","Danilo-Gallinari-1329","Jaren-Jackson-409099","Kelly-Olynyk-16845","Mike-Conley-1062","Blake-Griffin-1503","Bam-Adebayo-37835","50000","260.55"
"Reggie-Jackson-13352","Luke-Kennard-37814","Josh-Richardson-18922","Blake-Griffin-1503","Andre-Drummond-13904","Mike-Conley-1062","Kelly-Olynyk-16845","Bam-Adebayo-37835","49700","260.52"
"Kyle-Anderson-18615","Patrick-Beverley-14108","Danilo-Gallinari-1329","Bam-Adebayo-37835","Andre-Drummond-13904","Mike-Conley-1062","Kelly-Olynyk-16845","Marc-Gasol-1493","49500","260.47"
"Kyle-Anderson-18615","Josh-Richardson-18922","Danilo-Gallinari-1329","Bam-Adebayo-37835","Andre-Drummond-13904","Reggie-Jackson-13352","Kelly-Olynyk-16845","Marc-Gasol-1493","49600","260.46"
"Kyle-Anderson-18615","Josh-Richardson-18922","Tobias-Harris-13332","Bam-Adebayo-37835","Marc-Gasol-1493","Dwyane-Wade-967","Kelly-Olynyk-16845","Andre-Drummond-13904","49900","260.44"
"Kyle-Anderson-18615","Avery-Bradley-941","Tobias-Harris-13332","Bam-Adebayo-37835","Marc-Gasol-1493","Mike-Conley-1062","Kelly-Olynyk-16845","Andre-Drummond-13904","49400","260.43"
"Mike-Conley-1062","Justin-Holiday-14559","Kyle-Anderson-18615","Blake-Griffin-1503","Andre-Drummond-13904","Justise-Winslow-18921","Kelly-Olynyk-16845","Bam-Adebayo-37835","50000","260.41"
"Kyle-Anderson-18615","Josh-Richardson-18922","JaMychal-Green-18729","Bam-Adebayo-37835","Marc-Gasol-1493","Mike-Conley-1062","Kelly-Olynyk-16845","Andre-Drummond-13904","49000","260.39"
"Reggie-Jackson-13352","Josh-Richardson-18922","Tobias-Harris-13332","Bam-Adebayo-37835","Jaren-Jackson-409099","Mike-Conley-1062","Kelly-Olynyk-16845","Andre-Drummond-13904","49900","260.33"
"Kyle-Anderson-18615","Reggie-Jackson-13352","Danilo-Gallinari-1329","Kelly-Olynyk-16845","Andre-Drummond-13904","Mike-Conley-1062","James-Johnson-1195","Marc-Gasol-1493","50000","260.32"
"Mike-Conley-1062","Josh-Richardson-18922","Danilo-Gallinari-1329","Bam-Adebayo-37835","James-Johnson-1195","Justise-Winslow-18921","Blake-Griffin-1503","Kelly-Olynyk-16845","49800","260.31"
"Reggie-Jackson-13352","Dwyane-Wade-967","Josh-Richardson-18922","Bam-Adebayo-37835","Marc-Gasol-1493","Mike-Conley-1062","Kelly-Olynyk-16845","Andre-Drummond-13904","49500","260.26"
"Kyle-Anderson-18615","Patrick-Beverley-14108","Josh-Richardson-18922","Bam-Adebayo-37835","Marc-Gasol-1493","Avery-Bradley-941","Blake-Griffin-1503","Andre-Drummond-13904","50000","260.22"
"Kyle-Anderson-18615","Justin-Holiday-14559","Josh-Richardson-18922","Bam-Adebayo-37835","Andre-Drummond-13904","Mike-Conley-1062","James-Johnson-1195","Blake-Griffin-1503","50000","260.22"
"Kyle-Anderson-18615","Patrick-Beverley-14108","Danilo-Gallinari-1329","Bam-Adebayo-37835","Marc-Gasol-1493","Mike-Conley-1062","Blake-Griffin-1503","Kelly-Olynyk-16845","49900","260.2"
"Kyle-Anderson-18615","Josh-Richardson-18922","Danilo-Gallinari-1329","Bam-Adebayo-37835","Marc-Gasol-1493","Reggie-Jackson-13352","Blake-Griffin-1503","Kelly-Olynyk-16845","50000","260.19"
"Kyle-Anderson-18615","Avery-Bradley-941","Tobias-Harris-13332","Bam-Adebayo-37835","Marc-Gasol-1493","Mike-Conley-1062","Kelly-Olynyk-16845","Blake-Griffin-1503","49800","260.16"
"Kyle-Anderson-18615","Josh-Richardson-18922","JaMychal-Green-18729","Bam-Adebayo-37835","Kelly-Olynyk-16845","Mike-Conley-1062","Blake-Griffin-1503","Marc-Gasol-1493","49400","260.12"
"Kyle-Anderson-18615","Josh-Richardson-18922","Reggie-Bullock-16943","Bam-Adebayo-37835","Andre-Drummond-13904","Mike-Conley-1062","Kelly-Olynyk-16845","Marc-Gasol-1493","49200","260.09"
"Kyle-Anderson-18615","Avery-Bradley-941","Danilo-Gallinari-1329","Bam-Adebayo-37835","Andre-Drummond-13904","Justise-Winslow-18921","Blake-Griffin-1503","Kelly-Olynyk-16845","49800","260.08"
"Kyle-Anderson-18615","Josh-Richardson-18922","Tobias-Harris-13332","Bam-Adebayo-37835","James-Johnson-1195","Mike-Conley-1062","Kelly-Olynyk-16845","Andre-Drummond-13904","48600","260.04"
"Patrick-Beverley-14108","Josh-Richardson-18922","Kyle-Anderson-18615","Blake-Griffin-1503","Andre-Drummond-13904","Justise-Winslow-18921","Kelly-Olynyk-16845","Bam-Adebayo-37835","49200","260.02"
"Kyle-Anderson-18615","Josh-Richardson-18922","Danilo-Gallinari-1329","Bam-Adebayo-37835","Andre-Drummond-13904","Garrett-Temple-14077","Blake-Griffin-1503","Kelly-Olynyk-16845","49800","260.02"
"Reggie-Jackson-13352","Dwyane-Wade-967","Josh-Richardson-18922","Bam-Adebayo-37835","Marc-Gasol-1493","Mike-Conley-1062","Blake-Griffin-1503","Kelly-Olynyk-16845","49900","259.99"
"Patrick-Beverley-14108","Reggie-Jackson-13352","Tobias-Harris-13332","Bam-Adebayo-37835","Marc-Gasol-1493","Mike-Conley-1062","Kelly-Olynyk-16845","Andre-Drummond-13904","49800","259.98"
"Kyle-Anderson-18615","Josh-Richardson-18922","JaMychal-Green-18729","Blake-Griffin-1503","Andre-Drummond-13904","Justise-Winslow-18921","James-Johnson-1195","Bam-Adebayo-37835","50000","259.98"
"Reggie-Jackson-13352","Garrett-Temple-14077","Justise-Winslow-18921","Blake-Griffin-1503","Andre-Drummond-13904","Mike-Conley-1062","Kelly-Olynyk-16845","Bam-Adebayo-37835","50000","259.97"
"Kyle-Anderson-18615","Reggie-Jackson-13352","Tobias-Harris-13332","Kelly-Olynyk-16845","Andre-Drummond-13904","Mike-Conley-1062","Justise-Winslow-18921","Bam-Adebayo-37835","50000","259.95"
"Kyle-Anderson-18615","Josh-Richardson-18922","Danilo-Gallinari-1329","Bam-Adebayo-37835","Andre-Drummond-13904","Avery-Bradley-941","Blake-Griffin-1503","James-Johnson-1195","49800","259.89"
"Dwyane-Wade-967","Avery-Bradley-941","Justise-Winslow-18921","Blake-Griffin-1503","Andre-Drummond-13904","Mike-Conley-1062","Kelly-Olynyk-16845","Bam-Adebayo-37835","49700","259.88"
"Mike-Conley-1062","Patrick-Beverley-14108","Kyle-Anderson-18615","Blake-Griffin-1503","Andre-Drummond-13904","Justise-Winslow-18921","Kelly-Olynyk-16845","James-Johnson-1195","49600","259.88"
"Reggie-Jackson-13352","Josh-Richardson-18922","Kyle-Anderson-18615","Blake-Griffin-1503","Andre-Drummond-13904","Justise-Winslow-18921","Kelly-Olynyk-16845","James-Johnson-1195","49700","259.87"
"Reggie-Jackson-13352","Avery-Bradley-941","Justise-Winslow-18921","Blake-Griffin-1503","Andre-Drummond-13904","Mike-Conley-1062","James-Johnson-1195","Bam-Adebayo-37835","50000","259.84"
"Dwyane-Wade-967","Garrett-Temple-14077","Josh-Richardson-18922","Blake-Griffin-1503","Andre-Drummond-13904","Mike-Conley-1062","Kelly-Olynyk-16845","Bam-Adebayo-37835","49700","259.82"
"Kyle-Anderson-18615","Reggie-Bullock-16943","Josh-Richardson-18922","Bam-Adebayo-37835","Marc-Gasol-1493","Mike-Conley-1062","Blake-Griffin-1503","Kelly-Olynyk-16845","49600","259.82"
"Kyle-Anderson-18615","Reggie-Jackson-13352","Josh-Richardson-18922","Bam-Adebayo-37835","Kelly-Olynyk-16845","Mike-Conley-1062","Danilo-Gallinari-1329","Andre-Drummond-13904","49400","259.82"
"Kyle-Anderson-18615","Dwyane-Wade-967","Tobias-Harris-13332","Bam-Adebayo-37835","Andre-Drummond-13904","Mike-Conley-1062","Josh-Richardson-18922","Kelly-Olynyk-16845","49700","259.8"
"Reggie-Jackson-13352","Josh-Richardson-18922","Justin-Holiday-14559","Bam-Adebayo-37835","Kelly-Olynyk-16845","Mike-Conley-1062","Blake-Griffin-1503","Andre-Drummond-13904","49700","259.79"
"Mike-Conley-1062","Reggie-Jackson-13352","Josh-Richardson-18922","Bam-Adebayo-37835","Andre-Drummond-13904","Justise-Winslow-18921","Montrezl-Harrell-18930","Kelly-Olynyk-16845","49900","259.79"
"Reggie-Jackson-13352","Garrett-Temple-14077","Josh-Richardson-18922","Bam-Adebayo-37835","Andre-Drummond-13904","Mike-Conley-1062","James-Johnson-1195","Blake-Griffin-1503","50000","259.78"
"Kyle-Anderson-18615","Josh-Richardson-18922","Tobias-Harris-13332","Bam-Adebayo-37835","Kelly-Olynyk-16845","Mike-Conley-1062","Blake-Griffin-1503","James-Johnson-1195","49000","259.77"
"Kyle-Anderson-18615","Reggie-Jackson-13352","Josh-Richardson-18922","Bam-Adebayo-37835","Andre-Drummond-13904","Mike-Conley-1062","James-Johnson-1195","Tobias-Harris-13332","50000","259.76"
"Mike-Conley-1062","Josh-Richardson-18922","Kyle-Anderson-18615","Blake-Griffin-1503","Andre-Drummond-13904","Avery-Bradley-941","Kelly-Olynyk-16845","James-Johnson-1195","48900","259.71"
"Dwyane-Wade-967","Avery-Bradley-941","Josh-Richardson-18922","Bam-Adebayo-37835","Andre-Drummond-13904","Mike-Conley-1062","James-Johnson-1195","Blake-Griffin-1503","49700","259.69"
"Patrick-Beverley-14108","Avery-Bradley-941","Kyle-Anderson-18615","Blake-Griffin-1503","Andre-Drummond-13904","Mike-Conley-1062","Josh-Richardson-18922","Bam-Adebayo-37835","49800","259.58"
"Mike-Conley-1062","Patrick-Beverley-14108","JaMychal-Green-18729","Bam-Adebayo-37835","Kelly-Olynyk-16845","Justise-Winslow-18921","Blake-Griffin-1503","Andre-Drummond-13904","49600","259.56"
"Reggie-Jackson-13352","Josh-Richardson-18922","JaMychal-Green-18729","Bam-Adebayo-37835","Kelly-Olynyk-16845","Justise-Winslow-18921","Blake-Griffin-1503","Andre-Drummond-13904","49700","259.55"
"Kyle-Anderson-18615","Reggie-Jackson-13352","Josh-Richardson-18922","Bam-Adebayo-37835","Kelly-Olynyk-16845","Mike-Conley-1062","Danilo-Gallinari-1329","Blake-Griffin-1503","49800","259.55"
"Patrick-Beverley-14108","Garrett-Temple-14077","Tobias-Harris-13332","Bam-Adebayo-37835","Andre-Drummond-13904","Mike-Conley-1062","Blake-Griffin-1503","Kelly-Olynyk-16845","50000","259.54"
