"Devin-Booker-18949","Dion-Waiters-13897","Kelly-Oubre-18925","Josh-Jackson-37890","Hassan-Whiteside-18664","Rajon-Rondo-1085","Brandon-Ingram-35227","Deandre-Ayton-409301","49600","262.42"

"Devin-Booker-18949","Dion-Waiters-13897","Kelly-Oubre-18925","Josh-Jackson-37890","Hassan-Whiteside-18664","Rajon-Rondo-1085","Brandon-Ingram-35227","Deandre-Ayton-409301","49600","262.42"
"Devin-Booker-18949","Trey-Burke-17029","Kelly-Oubre-18925","Josh-Jackson-37890","Hassan-Whiteside-18664","Rajon-Rondo-1085","Brandon-Ingram-35227","Deandre-Ayton-409301","49400","262.33"
"Devin-Booker-18949","Dion-Waiters-13897","Tim-Hardaway-Jr.-16879","Josh-Jackson-37890","Deandre-Ayton-409301","Rajon-Rondo-1085","Brandon-Ingram-35227","Hassan-Whiteside-18664","49700","261.99"
"Devin-Booker-18949","Trey-Burke-17029","Tim-Hardaway-Jr.-16879","Josh-Jackson-37890","Deandre-Ayton-409301","Rajon-Rondo-1085","Brandon-Ingram-35227","Hassan-Whiteside-18664","49500","261.9"
"Devin-Booker-18949","Trey-Burke-17029","Justise-Winslow-18921","Josh-Jackson-37890","Deandre-Ayton-409301","Rajon-Rondo-1085","Brandon-Ingram-35227","Hassan-Whiteside-18664","49900","261.77"
"Devin-Booker-18949","Kelly-Oubre-18925","Tim-Hardaway-Jr.-16879","Kevin-Knox-408820","Hassan-Whiteside-18664","Rajon-Rondo-1085","Brandon-Ingram-35227","Josh-Jackson-37890","49900","261.56"
"Elie-Okobo-409300","Devin-Booker-18949","Josh-Richardson-18922","Josh-Jackson-37890","Deandre-Ayton-409301","Rajon-Rondo-1085","Brandon-Ingram-35227","Hassan-Whiteside-18664","49900","261.38"
"Tyler-Johnson-18720","Devin-Booker-18949","Kelly-Oubre-18925","Kevin-Knox-408820","Deandre-Ayton-409301","Rajon-Rondo-1085","Brandon-Ingram-35227","Hassan-Whiteside-18664","49700","261.35"
"Tyler-Johnson-18720","Devin-Booker-18949","Tim-Hardaway-Jr.-16879","Josh-Jackson-37890","Hassan-Whiteside-18664","Rajon-Rondo-1085","Kelly-Oubre-18925","Deandre-Ayton-409301","49800","261.28"
"Devin-Booker-18949","Tim-Hardaway-Jr.-16879","Kelly-Oubre-18925","Josh-Jackson-37890","Ivica-Zubac-35226","Rajon-Rondo-1085","Brandon-Ingram-35227","Hassan-Whiteside-18664","49600","261.23"
"Tyler-Johnson-18720","Devin-Booker-18949","Tim-Hardaway-Jr.-16879","Josh-Jackson-37890","Hassan-Whiteside-18664","Rajon-Rondo-1085","Kelly-Oubre-18925","Brandon-Ingram-35227","49400","261.22"
"Tyler-Johnson-18720","Devin-Booker-18949","Josh-Richardson-18922","Josh-Jackson-37890","Deandre-Ayton-409301","Rajon-Rondo-1085","Brandon-Ingram-35227","Kelly-Oubre-18925","49900","261.15"
"Rajon-Rondo-1085","Devin-Booker-18949","Kelly-Oubre-18925","Josh-Jackson-37890","Ivica-Zubac-35226","Justise-Winslow-18921","Brandon-Ingram-35227","Hassan-Whiteside-18664","50000","261.1"
"Tyler-Johnson-18720","Devin-Booker-18949","Justise-Winslow-18921","Josh-Jackson-37890","Hassan-Whiteside-18664","Rajon-Rondo-1085","Brandon-Ingram-35227","Kelly-Oubre-18925","49800","261.09"
"Tyler-Johnson-18720","Devin-Booker-18949","Tim-Hardaway-Jr.-16879","Kevin-Knox-408820","Hassan-Whiteside-18664","Rajon-Rondo-1085","Brandon-Ingram-35227","Deandre-Ayton-409301","49800","260.92"
"Devin-Booker-18949","Tim-Hardaway-Jr.-16879","Kelly-Oubre-18925","Kyle-Kuzma-37886","Hassan-Whiteside-18664","Rajon-Rondo-1085","Brandon-Ingram-35227","Trey-Burke-17029","50000","260.9"
"Devin-Booker-18949","Josh-Richardson-18922","Kelly-Oubre-18925","Josh-Jackson-37890","Hassan-Whiteside-18664","Rajon-Rondo-1085","Brandon-Ingram-35227","Dion-Waiters-13897","49700","260.89"
"Devin-Booker-18949","Trey-Burke-17029","Kelly-Oubre-18925","Josh-Jackson-37890","Deandre-Ayton-409301","Rajon-Rondo-1085","Josh-Richardson-18922","Hassan-Whiteside-18664","49900","260.86"
"Devin-Booker-18949","Trey-Burke-17029","Kelly-Oubre-18925","Josh-Jackson-37890","Hassan-Whiteside-18664","Rajon-Rondo-1085","Brandon-Ingram-35227","Josh-Richardson-18922","49500","260.8"
"Tyler-Johnson-18720","Devin-Booker-18949","Tim-Hardaway-Jr.-16879","Josh-Jackson-37890","Deandre-Ayton-409301","Rajon-Rondo-1085","Josh-Richardson-18922","Brandon-Ingram-35227","50000","260.72"
"Tyler-Johnson-18720","Tim-Hardaway-Jr.-16879","Justise-Winslow-18921","Josh-Jackson-37890","Hassan-Whiteside-18664","Devin-Booker-18949","Brandon-Ingram-35227","Rajon-Rondo-1085","49900","260.66"
"Elie-Okobo-409300","Devin-Booker-18949","Kelly-Oubre-18925","Josh-Jackson-37890","Hassan-Whiteside-18664","Rajon-Rondo-1085","Brandon-Ingram-35227","Deandre-Ayton-409301","49000","260.64"
"Elie-Okobo-409300","Devin-Booker-18949","Kelly-Oubre-18925","Noah-Vonleh-18597","Deandre-Ayton-409301","Rajon-Rondo-1085","Brandon-Ingram-35227","Hassan-Whiteside-18664","49700","260.62"
"Devin-Booker-18949","Trey-Burke-17029","Josh-Richardson-18922","Kevin-Knox-408820","Hassan-Whiteside-18664","Rajon-Rondo-1085","Brandon-Ingram-35227","Deandre-Ayton-409301","49900","260.5"
"Devin-Booker-18949","Dion-Waiters-13897","Josh-Jackson-37890","Noah-Vonleh-18597","Deandre-Ayton-409301","Rajon-Rondo-1085","Brandon-Ingram-35227","Hassan-Whiteside-18664","50000","260.48"
"Devin-Booker-18949","Tim-Hardaway-Jr.-16879","Josh-Richardson-18922","Josh-Jackson-37890","Hassan-Whiteside-18664","Rajon-Rondo-1085","Dion-Waiters-13897","Brandon-Ingram-35227","49800","260.46"
"Devin-Booker-18949","Trey-Burke-17029","Tim-Hardaway-Jr.-16879","Josh-Jackson-37890","Deandre-Ayton-409301","Rajon-Rondo-1085","Josh-Richardson-18922","Hassan-Whiteside-18664","50000","260.43"
"Devin-Booker-18949","Brandon-Ingram-35227","Mikal-Bridges-408842","Josh-Jackson-37890","Deandre-Ayton-409301","Rajon-Rondo-1085","Kelly-Oubre-18925","Hassan-Whiteside-18664","49300","260.42"
"Devin-Booker-18949","Brandon-Ingram-35227","Mikal-Bridges-408842","Noah-Vonleh-18597","Deandre-Ayton-409301","Rajon-Rondo-1085","Kelly-Oubre-18925","Hassan-Whiteside-18664","50000","260.4"
"Devin-Booker-18949","Trey-Burke-17029","Josh-Jackson-37890","Noah-Vonleh-18597","Deandre-Ayton-409301","Rajon-Rondo-1085","Brandon-Ingram-35227","Hassan-Whiteside-18664","49800","260.39"
"Devin-Booker-18949","Trey-Burke-17029","Tim-Hardaway-Jr.-16879","Josh-Jackson-37890","Hassan-Whiteside-18664","Rajon-Rondo-1085","Josh-Richardson-18922","Brandon-Ingram-35227","49600","260.37"
"Devin-Booker-18949","Tim-Hardaway-Jr.-16879","Kevin-Knox-408820","Josh-Jackson-37890","Deandre-Ayton-409301","Rajon-Rondo-1085","Brandon-Ingram-35227","Kelly-Oubre-18925","49600","260.32"
"Devin-Booker-18949","Brandon-Ingram-35227","Tim-Hardaway-Jr.-16879","Josh-Jackson-37890","Hassan-Whiteside-18664","Rajon-Rondo-1085","Kelly-Oubre-18925","JaVale-McGee-1485","49300","260.28"
"Devin-Booker-18949","Brandon-Ingram-35227","Tim-Hardaway-Jr.-16879","Noah-Vonleh-18597","Hassan-Whiteside-18664","Rajon-Rondo-1085","Kelly-Oubre-18925","JaVale-McGee-1485","50000","260.26"
"Devin-Booker-18949","Trey-Burke-17029","Justise-Winslow-18921","Josh-Jackson-37890","Hassan-Whiteside-18664","Rajon-Rondo-1085","Brandon-Ingram-35227","Josh-Richardson-18922","50000","260.24"
"Devin-Booker-18949","Josh-Richardson-18922","Kelly-Oubre-18925","Josh-Jackson-37890","JaVale-McGee-1485","Rajon-Rondo-1085","Brandon-Ingram-35227","Deandre-Ayton-409301","49800","260.21"
"Elie-Okobo-409300","Devin-Booker-18949","Tim-Hardaway-Jr.-16879","Josh-Jackson-37890","Deandre-Ayton-409301","Rajon-Rondo-1085","Brandon-Ingram-35227","Hassan-Whiteside-18664","49100","260.21"
"Elie-Okobo-409300","Devin-Booker-18949","Tim-Hardaway-Jr.-16879","Noah-Vonleh-18597","Hassan-Whiteside-18664","Rajon-Rondo-1085","Brandon-Ingram-35227","Deandre-Ayton-409301","49800","260.19"
"Devin-Booker-18949","Kelly-Oubre-18925","Justise-Winslow-18921","Josh-Jackson-37890","Deandre-Ayton-409301","Rajon-Rondo-1085","Brandon-Ingram-35227","Kevin-Knox-408820","50000","260.19"
"Devin-Booker-18949","Kelly-Oubre-18925","Justise-Winslow-18921","Josh-Jackson-37890","Hassan-Whiteside-18664","Rajon-Rondo-1085","Brandon-Ingram-35227","JaVale-McGee-1485","49700","260.15"
"Elie-Okobo-409300","Devin-Booker-18949","Justise-Winslow-18921","Josh-Jackson-37890","Deandre-Ayton-409301","Rajon-Rondo-1085","Brandon-Ingram-35227","Hassan-Whiteside-18664","49500","260.08"
"Devin-Booker-18949","Kelly-Oubre-18925","Josh-Jackson-37890","Bam-Adebayo-37835","Hassan-Whiteside-18664","Rajon-Rondo-1085","Brandon-Ingram-35227","Deandre-Ayton-409301","49900","260.03"
"Elie-Okobo-409300","Devin-Booker-18949","Josh-Jackson-37890","Kyle-Kuzma-37886","Hassan-Whiteside-18664","Rajon-Rondo-1085","Brandon-Ingram-35227","Deandre-Ayton-409301","50000","259.99"
"Devin-Booker-18949","Brandon-Ingram-35227","Tim-Hardaway-Jr.-16879","Josh-Jackson-37890","Deandre-Ayton-409301","Rajon-Rondo-1085","Mikal-Bridges-408842","Hassan-Whiteside-18664","49400","259.99"
"Devin-Booker-18949","Tim-Hardaway-Jr.-16879","Kelly-Oubre-18925","Josh-Jackson-37890","Ivica-Zubac-35226","Rajon-Rondo-1085","Brandon-Ingram-35227","Deandre-Ayton-409301","49300","259.99"
"Tyler-Johnson-18720","Devin-Booker-18949","Tim-Hardaway-Jr.-16879","Josh-Jackson-37890","Deandre-Ayton-409301","Rajon-Rondo-1085","Brandon-Ingram-35227","Kelly-Oubre-18925","49100","259.98"
"Devin-Booker-18949","Tim-Hardaway-Jr.-16879","Kelly-Oubre-18925","Noah-Vonleh-18597","Deandre-Ayton-409301","Rajon-Rondo-1085","Brandon-Ingram-35227","Ivica-Zubac-35226","50000","259.97"
"Tyler-Johnson-18720","Tim-Hardaway-Jr.-16879","Kelly-Oubre-18925","Noah-Vonleh-18597","Deandre-Ayton-409301","Devin-Booker-18949","Brandon-Ingram-35227","Rajon-Rondo-1085","49800","259.96"
"Rajon-Rondo-1085","Devin-Booker-18949","Kelly-Oubre-18925","Josh-Jackson-37890","Ivica-Zubac-35226","Justise-Winslow-18921","Brandon-Ingram-35227","Deandre-Ayton-409301","49700","259.86"
"Devin-Booker-18949","Mikal-Bridges-408842","Justise-Winslow-18921","Josh-Jackson-37890","Deandre-Ayton-409301","Rajon-Rondo-1085","Brandon-Ingram-35227","Hassan-Whiteside-18664","49800","259.86"
"Devin-Booker-18949","Brandon-Ingram-35227","Kelly-Oubre-18925","Kevin-Knox-408820","Deandre-Ayton-409301","Rajon-Rondo-1085","Dion-Waiters-13897","Hassan-Whiteside-18664","49200","259.85"
"Tyler-Johnson-18720","Devin-Booker-18949","Justise-Winslow-18921","Josh-Jackson-37890","Deandre-Ayton-409301","Rajon-Rondo-1085","Brandon-Ingram-35227","Kelly-Oubre-18925","49500","259.85"
"Devin-Booker-18949","Brandon-Ingram-35227","Kelly-Oubre-18925","Kevin-Knox-408820","Hassan-Whiteside-18664","Rajon-Rondo-1085","Josh-Richardson-18922","Ivica-Zubac-35226","50000","259.83"
"Tyler-Johnson-18720","Devin-Booker-18949","Kelly-Oubre-18925","Kevin-Knox-408820","Hassan-Whiteside-18664","Rajon-Rondo-1085","Josh-Richardson-18922","Brandon-Ingram-35227","49800","259.82"
"Devin-Booker-18949","Dion-Waiters-13897","Tim-Hardaway-Jr.-16879","Josh-Jackson-37890","Hassan-Whiteside-18664","Rajon-Rondo-1085","Kelly-Oubre-18925","Deandre-Ayton-409301","49300","259.78"
"Devin-Booker-18949","Brandon-Ingram-35227","Tim-Hardaway-Jr.-16879","Josh-Jackson-37890","Deandre-Ayton-409301","Rajon-Rondo-1085","Josh-Richardson-18922","JaVale-McGee-1485","49900","259.78"
"Devin-Booker-18949","Tim-Hardaway-Jr.-16879","Kelly-Oubre-18925","Noah-Vonleh-18597","Deandre-Ayton-409301","Rajon-Rondo-1085","Dion-Waiters-13897","Hassan-Whiteside-18664","50000","259.76"
"Tyler-Johnson-18720","Devin-Booker-18949","Kelly-Oubre-18925","Kyle-Kuzma-37886","Deandre-Ayton-409301","Rajon-Rondo-1085","Brandon-Ingram-35227","Josh-Jackson-37890","50000","259.76"
"Devin-Booker-18949","Trey-Burke-17029","Kelly-Oubre-18925","Kevin-Knox-408820","Deandre-Ayton-409301","Rajon-Rondo-1085","Brandon-Ingram-35227","Hassan-Whiteside-18664","49000","259.76"
"Devin-Booker-18949","Dion-Waiters-13897","Tim-Hardaway-Jr.-16879","Kyle-Kuzma-37886","Deandre-Ayton-409301","Rajon-Rondo-1085","Kelly-Oubre-18925","Brandon-Ingram-35227","49900","259.75"
"Tyler-Johnson-18720","Devin-Booker-18949","Tim-Hardaway-Jr.-16879","Josh-Jackson-37890","Hassan-Whiteside-18664","Rajon-Rondo-1085","Kelly-Oubre-18925","Josh-Richardson-18922","49900","259.75"
"Devin-Booker-18949","Brandon-Ingram-35227","Kelly-Oubre-18925","Noah-Vonleh-18597","Ivica-Zubac-35226","Rajon-Rondo-1085","Josh-Jackson-37890","Hassan-Whiteside-18664","49900","259.72"
"Rajon-Rondo-1085","Devin-Booker-18949","Tim-Hardaway-Jr.-16879","Josh-Jackson-37890","JaVale-McGee-1485","Justise-Winslow-18921","Brandon-Ingram-35227","Hassan-Whiteside-18664","49800","259.72"
"Devin-Booker-18949","Dion-Waiters-13897","Tim-Hardaway-Jr.-16879","Josh-Jackson-37890","Hassan-Whiteside-18664","Rajon-Rondo-1085","Kelly-Oubre-18925","Brandon-Ingram-35227","48900","259.72"
"Tyler-Johnson-18720","Devin-Booker-18949","Kelly-Oubre-18925","Josh-Jackson-37890","Hassan-Whiteside-18664","Rajon-Rondo-1085","Brandon-Ingram-35227","Noah-Vonleh-18597","49700","259.71"
"Devin-Booker-18949","Dion-Waiters-13897","Tim-Hardaway-Jr.-16879","Noah-Vonleh-18597","Hassan-Whiteside-18664","Rajon-Rondo-1085","Kelly-Oubre-18925","Brandon-Ingram-35227","49600","259.7"
"Devin-Booker-18949","Trey-Burke-17029","Tim-Hardaway-Jr.-16879","Josh-Jackson-37890","Hassan-Whiteside-18664","Rajon-Rondo-1085","Kelly-Oubre-18925","Deandre-Ayton-409301","49100","259.69"
"Devin-Booker-18949","Trey-Burke-17029","Tim-Hardaway-Jr.-16879","Noah-Vonleh-18597","Hassan-Whiteside-18664","Rajon-Rondo-1085","Kelly-Oubre-18925","Deandre-Ayton-409301","49800","259.67"
"Devin-Booker-18949","Trey-Burke-17029","Tim-Hardaway-Jr.-16879","Kyle-Kuzma-37886","Deandre-Ayton-409301","Rajon-Rondo-1085","Kelly-Oubre-18925","Brandon-Ingram-35227","49700","259.66"
"Devin-Booker-18949","Kelly-Oubre-18925","Josh-Richardson-18922","Josh-Jackson-37890","Deandre-Ayton-409301","Rajon-Rondo-1085","Brandon-Ingram-35227","Dion-Waiters-13897","49400","259.65"
"Devin-Booker-18949","Kelly-Oubre-18925","Dion-Waiters-13897","Josh-Jackson-37890","Hassan-Whiteside-18664","Rajon-Rondo-1085","Justise-Winslow-18921","Deandre-Ayton-409301","49700","259.65"
"Devin-Booker-18949","Trey-Burke-17029","Tim-Hardaway-Jr.-16879","Josh-Jackson-37890","Hassan-Whiteside-18664","Rajon-Rondo-1085","Kelly-Oubre-18925","Brandon-Ingram-35227","48700","259.63"
"Devin-Booker-18949","Trey-Burke-17029","Tim-Hardaway-Jr.-16879","Noah-Vonleh-18597","Hassan-Whiteside-18664","Rajon-Rondo-1085","Kelly-Oubre-18925","Brandon-Ingram-35227","49400","259.61"
"Devin-Booker-18949","Brandon-Ingram-35227","Tim-Hardaway-Jr.-16879","Josh-Jackson-37890","Deandre-Ayton-409301","Rajon-Rondo-1085","Bam-Adebayo-37835","Hassan-Whiteside-18664","50000","259.6"
"Devin-Booker-18949","Kelly-Oubre-18925","Dion-Waiters-13897","Josh-Jackson-37890","Hassan-Whiteside-18664","Rajon-Rondo-1085","Justise-Winslow-18921","Brandon-Ingram-35227","49300","259.59"
"Dwyane-Wade-967","Devin-Booker-18949","Kelly-Oubre-18925","Kevin-Knox-408820","Deandre-Ayton-409301","Rajon-Rondo-1085","Brandon-Ingram-35227","Hassan-Whiteside-18664","49900","259.58"
"Devin-Booker-18949","Kelly-Oubre-18925","Dion-Waiters-13897","Noah-Vonleh-18597","Hassan-Whiteside-18664","Rajon-Rondo-1085","Brandon-Ingram-35227","Justise-Winslow-18921","50000","259.57"
"Devin-Booker-18949","Kelly-Oubre-18925","Josh-Richardson-18922","Josh-Jackson-37890","Deandre-Ayton-409301","Rajon-Rondo-1085","Brandon-Ingram-35227","Trey-Burke-17029","49200","259.56"
"Devin-Booker-18949","Trey-Burke-17029","Kelly-Oubre-18925","Josh-Jackson-37890","Hassan-Whiteside-18664","Rajon-Rondo-1085","Justise-Winslow-18921","Deandre-Ayton-409301","49500","259.56"
"Rajon-Rondo-1085","Kelly-Oubre-18925","Tim-Hardaway-Jr.-16879","Josh-Jackson-37890","Deandre-Ayton-409301","Brandon-Ingram-35227","Josh-Richardson-18922","Hassan-Whiteside-18664","49800","259.55"
"Devin-Booker-18949","Trey-Burke-17029","Kelly-Oubre-18925","Noah-Vonleh-18597","Deandre-Ayton-409301","Rajon-Rondo-1085","Brandon-Ingram-35227","Josh-Richardson-18922","49900","259.54"
"Dwyane-Wade-967","Devin-Booker-18949","Tim-Hardaway-Jr.-16879","Josh-Jackson-37890","Hassan-Whiteside-18664","Rajon-Rondo-1085","Kelly-Oubre-18925","Deandre-Ayton-409301","50000","259.51"
"Devin-Booker-18949","Kelly-Oubre-18925","Justise-Winslow-18921","Josh-Jackson-37890","Hassan-Whiteside-18664","Rajon-Rondo-1085","Brandon-Ingram-35227","Trey-Burke-17029","49100","259.5"
"Devin-Booker-18949","Kelly-Oubre-18925","Josh-Jackson-37890","Kyle-Kuzma-37886","Hassan-Whiteside-18664","Rajon-Rondo-1085","Brandon-Ingram-35227","Dion-Waiters-13897","49800","259.5"
"Devin-Booker-18949","Kelly-Oubre-18925","Justise-Winslow-18921","Noah-Vonleh-18597","Hassan-Whiteside-18664","Rajon-Rondo-1085","Brandon-Ingram-35227","Trey-Burke-17029","49800","259.48"
"Devin-Booker-18949","Trey-Burke-17029","Kelly-Oubre-18925","Josh-Jackson-37890","Hassan-Whiteside-18664","Rajon-Rondo-1085","Kyle-Kuzma-37886","Deandre-Ayton-409301","50000","259.47"
"Dwyane-Wade-967","Devin-Booker-18949","Tim-Hardaway-Jr.-16879","Josh-Jackson-37890","Hassan-Whiteside-18664","Rajon-Rondo-1085","Kelly-Oubre-18925","Brandon-Ingram-35227","49600","259.45"
"Tyler-Johnson-18720","Devin-Booker-18949","Kevin-Knox-408820","Josh-Jackson-37890","Deandre-Ayton-409301","Rajon-Rondo-1085","Brandon-Ingram-35227","Hassan-Whiteside-18664","49400","259.43"
"Devin-Booker-18949","Tim-Hardaway-Jr.-16879","Justise-Winslow-18921","Josh-Jackson-37890","Deandre-Ayton-409301","Rajon-Rondo-1085","Brandon-Ingram-35227","Ivica-Zubac-35226","49800","259.43"
"Tyler-Johnson-18720","Tim-Hardaway-Jr.-16879","Justise-Winslow-18921","Josh-Jackson-37890","Deandre-Ayton-409301","Devin-Booker-18949","Brandon-Ingram-35227","Rajon-Rondo-1085","49600","259.42"
"Devin-Booker-18949","Dion-Waiters-13897","Tim-Hardaway-Jr.-16879","Kevin-Knox-408820","Hassan-Whiteside-18664","Rajon-Rondo-1085","Brandon-Ingram-35227","Deandre-Ayton-409301","49300","259.42"
"Devin-Booker-18949","Kelly-Oubre-18925","Josh-Jackson-37890","Kyle-Kuzma-37886","Hassan-Whiteside-18664","Rajon-Rondo-1085","Brandon-Ingram-35227","Trey-Burke-17029","49600","259.41"
"Tyler-Johnson-18720","Devin-Booker-18949","Tim-Hardaway-Jr.-16879","Kevin-Knox-408820","Hassan-Whiteside-18664","Rajon-Rondo-1085","Brandon-Ingram-35227","Josh-Richardson-18922","49900","259.39"
"Devin-Booker-18949","Josh-Richardson-18922","Damyean-Dotson-37795","Josh-Jackson-37890","Hassan-Whiteside-18664","Rajon-Rondo-1085","Brandon-Ingram-35227","Deandre-Ayton-409301","50000","259.35"
"Devin-Booker-18949","Trey-Burke-17029","Tim-Hardaway-Jr.-16879","Kevin-Knox-408820","Hassan-Whiteside-18664","Rajon-Rondo-1085","Brandon-Ingram-35227","Deandre-Ayton-409301","49100","259.33"
"Devin-Booker-18949","Kelly-Oubre-18925","Tim-Hardaway-Jr.-16879","James-Johnson-1195","Hassan-Whiteside-18664","Rajon-Rondo-1085","Brandon-Ingram-35227","Deandre-Ayton-409301","49600","259.33"
"Dwyane-Wade-967","Devin-Booker-18949","Justise-Winslow-18921","Josh-Jackson-37890","Hassan-Whiteside-18664","Rajon-Rondo-1085","Brandon-Ingram-35227","Kelly-Oubre-18925","50000","259.32"
"Devin-Booker-18949","Brandon-Ingram-35227","Tim-Hardaway-Jr.-16879","Noah-Vonleh-18597","Hassan-Whiteside-18664","Rajon-Rondo-1085","Josh-Jackson-37890","Ivica-Zubac-35226","50000","259.29"
"Devin-Booker-18949","Dion-Waiters-13897","Justise-Winslow-18921","Kevin-Knox-408820","Deandre-Ayton-409301","Rajon-Rondo-1085","Brandon-Ingram-35227","Hassan-Whiteside-18664","49700","259.29"
"Tyler-Johnson-18720","Devin-Booker-18949","Tim-Hardaway-Jr.-16879","Noah-Vonleh-18597","Hassan-Whiteside-18664","Rajon-Rondo-1085","Josh-Jackson-37890","Brandon-Ingram-35227","49800","259.28"
