"Russell-Westbrook-1083","Patty-Mills-13977","DeMar-DeRozan-1053","LaMarcus-Aldridge-1349","Steven-Adams-16848","Reggie-Jackson-13352","Stanley-Johnson-18913","Pau-Gasol-1502","48500","299.01"
"Russell-Westbrook-1083","Patty-Mills-13977","Buddy-Hield-35206","LaMarcus-Aldridge-1349","Pau-Gasol-1502","Reggie-Jackson-13352","Stanley-Johnson-18913","Andre-Drummond-13904","49000","298.96"

"Russell-Westbrook-1083","Patty-Mills-13977","DeMar-DeRozan-1053","LaMarcus-Aldridge-1349","Steven-Adams-16848","Reggie-Jackson-13352","Stanley-Johnson-18913","Pau-Gasol-1502","48500","299.01"
"Russell-Westbrook-1083","Patty-Mills-13977","Buddy-Hield-35206","LaMarcus-Aldridge-1349","Pau-Gasol-1502","Reggie-Jackson-13352","Stanley-Johnson-18913","Andre-Drummond-13904","49000","298.96"
"Russell-Westbrook-1083","Dennis-Schroder-18595","DeMar-DeRozan-1053","LaMarcus-Aldridge-1349","Steven-Adams-16848","Reggie-Jackson-13352","Stanley-Johnson-18913","Pau-Gasol-1502","49800","298.46"
"Russell-Westbrook-1083","Patty-Mills-13977","DeMar-DeRozan-1053","LaMarcus-Aldridge-1349","Pau-Gasol-1502","Reggie-Jackson-13352","Stanley-Johnson-18913","Willie-Cauley-Stein-18951","48100","298.43"
"Russell-Westbrook-1083","Dennis-Schroder-18595","DeMar-DeRozan-1053","LaMarcus-Aldridge-1349","Pau-Gasol-1502","Reggie-Jackson-13352","Stanley-Johnson-18913","Willie-Cauley-Stein-18951","49400","297.88"
"Russell-Westbrook-1083","Marco-Belinelli-1033","DeMar-DeRozan-1053","LaMarcus-Aldridge-1349","Pau-Gasol-1502","Patty-Mills-13977","Stanley-Johnson-18913","Andre-Drummond-13904","48800","297.65"
"Russell-Westbrook-1083","Patty-Mills-13977","DeMar-DeRozan-1053","LaMarcus-Aldridge-1349","Steven-Adams-16848","Reggie-Jackson-13352","Reggie-Bullock-16943","Pau-Gasol-1502","50000","297.63"
"Russell-Westbrook-1083","Patty-Mills-13977","DeMar-DeRozan-1053","LaMarcus-Aldridge-1349","Pau-Gasol-1502","De'Aaron-Fox-37900","Stanley-Johnson-18913","Reggie-Jackson-13352","49100","297.42"
"Russell-Westbrook-1083","Patty-Mills-13977","DeMar-DeRozan-1053","LaMarcus-Aldridge-1349","Pau-Gasol-1502","Reggie-Jackson-13352","Reggie-Bullock-16943","Willie-Cauley-Stein-18951","49600","297.05"
"Bryn-Forbes-36052","Patty-Mills-13977","DeMar-DeRozan-1053","LaMarcus-Aldridge-1349","Pau-Gasol-1502","Russell-Westbrook-1083","Stanley-Johnson-18913","Andre-Drummond-13904","49900","296.8"
"Russell-Westbrook-1083","Reggie-Bullock-16943","DeMar-DeRozan-1053","LaMarcus-Aldridge-1349","Steven-Adams-16848","Reggie-Jackson-13352","Stanley-Johnson-18913","Pau-Gasol-1502","49600","296.74"
"Russell-Westbrook-1083","DeMar-DeRozan-1053","Stanley-Johnson-18913","Jon-Leuer-13317","Andre-Drummond-13904","Patty-Mills-13977","LaMarcus-Aldridge-1349","Pau-Gasol-1502","48700","296.67"
"Russell-Westbrook-1083","DeMar-DeRozan-1053","Stanley-Johnson-18913","LaMarcus-Aldridge-1349","Pau-Gasol-1502","Patty-Mills-13977","Iman-Shumpert-13350","Andre-Drummond-13904","49300","296.63"
"Russell-Westbrook-1083","DeMar-DeRozan-1053","Nemanja-Bjelica-31814","LaMarcus-Aldridge-1349","Willie-Cauley-Stein-18951","Reggie-Jackson-13352","Stanley-Johnson-18913","Pau-Gasol-1502","50000","296.24"
"Russell-Westbrook-1083","Reggie-Bullock-16943","DeMar-DeRozan-1053","LaMarcus-Aldridge-1349","Pau-Gasol-1502","Reggie-Jackson-13352","Stanley-Johnson-18913","Willie-Cauley-Stein-18951","49200","296.16"
"Russell-Westbrook-1083","DeMar-DeRozan-1053","Stanley-Johnson-18913","Jon-Leuer-13317","Andre-Drummond-13904","Dennis-Schroder-18595","LaMarcus-Aldridge-1349","Pau-Gasol-1502","50000","296.12"
"Russell-Westbrook-1083","Patty-Mills-13977","Nemanja-Bjelica-31814","LaMarcus-Aldridge-1349","Andre-Drummond-13904","Reggie-Jackson-13352","Stanley-Johnson-18913","Pau-Gasol-1502","47700","296.11"
"Patty-Mills-13977","DeMar-DeRozan-1053","Paul-George-1245","LaMarcus-Aldridge-1349","Pau-Gasol-1502","Reggie-Jackson-13352","Stanley-Johnson-18913","Andre-Drummond-13904","49100","296.09"
"Russell-Westbrook-1083","Patty-Mills-13977","Stanley-Johnson-18913","LaMarcus-Aldridge-1349","Pau-Gasol-1502","Reggie-Jackson-13352","Reggie-Bullock-16943","Andre-Drummond-13904","46900","296.03"
"Russell-Westbrook-1083","Langston-Galloway-18717","DeMar-DeRozan-1053","LaMarcus-Aldridge-1349","Pau-Gasol-1502","Patty-Mills-13977","Stanley-Johnson-18913","Andre-Drummond-13904","48700","295.87"
"Russell-Westbrook-1083","Patty-Mills-13977","Paul-George-1245","LaMarcus-Aldridge-1349","Pau-Gasol-1502","Reggie-Jackson-13352","Stanley-Johnson-18913","Steven-Adams-16848","50000","295.78"
"Russell-Westbrook-1083","Patty-Mills-13977","DeMar-DeRozan-1053","LaMarcus-Aldridge-1349","Pau-Gasol-1502","Dennis-Schroder-18595","Buddy-Hield-35206","Reggie-Jackson-13352","49900","295.63"
"Russell-Westbrook-1083","Dennis-Schroder-18595","Nemanja-Bjelica-31814","LaMarcus-Aldridge-1349","Andre-Drummond-13904","Reggie-Jackson-13352","Stanley-Johnson-18913","Pau-Gasol-1502","49000","295.56"
"Russell-Westbrook-1083","Patty-Mills-13977","DeMar-DeRozan-1053","Nemanja-Bjelica-31814","Pau-Gasol-1502","Reggie-Jackson-13352","Stanley-Johnson-18913","Andre-Drummond-13904","48800","295.49"
"Russell-Westbrook-1083","Dennis-Schroder-18595","Stanley-Johnson-18913","LaMarcus-Aldridge-1349","Pau-Gasol-1502","Reggie-Jackson-13352","Reggie-Bullock-16943","Andre-Drummond-13904","48200","295.48"
"Russell-Westbrook-1083","Patty-Mills-13977","DeMar-DeRozan-1053","Stanley-Johnson-18913","Andre-Drummond-13904","Reggie-Jackson-13352","Reggie-Bullock-16943","Pau-Gasol-1502","48000","295.41"
"Russell-Westbrook-1083","Marco-Belinelli-1033","DeMar-DeRozan-1053","LaMarcus-Aldridge-1349","Pau-Gasol-1502","Reggie-Bullock-16943","Stanley-Johnson-18913","Andre-Drummond-13904","49900","295.38"
"Russell-Westbrook-1083","Langston-Galloway-18717","DeMar-DeRozan-1053","LaMarcus-Aldridge-1349","Pau-Gasol-1502","Dennis-Schroder-18595","Stanley-Johnson-18913","Andre-Drummond-13904","50000","295.32"
"Russell-Westbrook-1083","DeMar-DeRozan-1053","Buddy-Hield-35206","LaMarcus-Aldridge-1349","Pau-Gasol-1502","Reggie-Jackson-13352","Stanley-Johnson-18913","Patty-Mills-13977","48200","295.29"
"Russell-Westbrook-1083","Patty-Mills-13977","Paul-George-1245","LaMarcus-Aldridge-1349","Pau-Gasol-1502","Reggie-Jackson-13352","Stanley-Johnson-18913","Willie-Cauley-Stein-18951","49600","295.2"
"Russell-Westbrook-1083","DeMar-DeRozan-1053","Stanley-Johnson-18913","LaMarcus-Aldridge-1349","Pau-Gasol-1502","Patty-Mills-13977","Davis-Bertans-36051","Andre-Drummond-13904","49300","295.17"
"Russell-Westbrook-1083","Dennis-Schroder-18595","DeMar-DeRozan-1053","Stanley-Johnson-18913","Andre-Drummond-13904","Reggie-Jackson-13352","Reggie-Bullock-16943","Pau-Gasol-1502","49300","294.86"
"Russell-Westbrook-1083","Patty-Mills-13977","DeMar-DeRozan-1053","LaMarcus-Aldridge-1349","Willie-Cauley-Stein-18951","Dennis-Schroder-18595","Stanley-Johnson-18913","Reggie-Jackson-13352","49800","294.75"
"Russell-Westbrook-1083","DeMar-DeRozan-1053","Buddy-Hield-35206","LaMarcus-Aldridge-1349","Pau-Gasol-1502","Dennis-Schroder-18595","Stanley-Johnson-18913","Reggie-Jackson-13352","49500","294.74"
"Russell-Westbrook-1083","Patty-Mills-13977","Nemanja-Bjelica-31814","LaMarcus-Aldridge-1349","Pau-Gasol-1502","Reggie-Jackson-13352","Reggie-Bullock-16943","Andre-Drummond-13904","49200","294.73"
"Russell-Westbrook-1083","DeMar-DeRozan-1053","Stanley-Johnson-18913","Jon-Leuer-13317","Andre-Drummond-13904","Reggie-Bullock-16943","LaMarcus-Aldridge-1349","Pau-Gasol-1502","49800","294.4"
"Russell-Westbrook-1083","Patty-Mills-13977","DeMar-DeRozan-1053","LaMarcus-Aldridge-1349","Willie-Cauley-Stein-18951","Reggie-Jackson-13352","Jerami-Grant-18576","Pau-Gasol-1502","49800","294.17"
"Russell-Westbrook-1083","Patty-Mills-13977","DeMar-DeRozan-1053","LaMarcus-Aldridge-1349","Pau-Gasol-1502","Dennis-Schroder-18595","Stanley-Johnson-18913","Reggie-Jackson-13352","46300","294.08"
"Russell-Westbrook-1083","DeMar-DeRozan-1053","Stanley-Johnson-18913","LaMarcus-Aldridge-1349","Andre-Drummond-13904","Patty-Mills-13977","Justin-Jackson-37895","Pau-Gasol-1502","49700","294.07"
"Russell-Westbrook-1083","DeMar-DeRozan-1053","Buddy-Hield-35206","LaMarcus-Aldridge-1349","Pau-Gasol-1502","Reggie-Jackson-13352","Reggie-Bullock-16943","Patty-Mills-13977","49700","293.91"
"Russell-Westbrook-1083","DeMar-DeRozan-1053","Buddy-Hield-35206","LaMarcus-Aldridge-1349","Pau-Gasol-1502","Patty-Mills-13977","Stanley-Johnson-18913","Willie-Cauley-Stein-18951","49800","293.9"
"Russell-Westbrook-1083","DeMar-DeRozan-1053","Stanley-Johnson-18913","LaMarcus-Aldridge-1349","Pau-Gasol-1502","Reggie-Jackson-13352","Jerami-Grant-18576","Steven-Adams-16848","49800","293.86"
"Russell-Westbrook-1083","Reggie-Bullock-16943","Nemanja-Bjelica-31814","LaMarcus-Aldridge-1349","Andre-Drummond-13904","Reggie-Jackson-13352","Stanley-Johnson-18913","Pau-Gasol-1502","48800","293.84"
"Russell-Westbrook-1083","Patty-Mills-13977","DeMar-DeRozan-1053","LaMarcus-Aldridge-1349","Pau-Gasol-1502","Yogi-Ferrell-35999","Stanley-Johnson-18913","Andre-Drummond-13904","48900","293.71"
"Russell-Westbrook-1083","Patty-Mills-13977","DeMar-DeRozan-1053","LaMarcus-Aldridge-1349","Pau-Gasol-1502","Luke-Kennard-37814","Stanley-Johnson-18913","Andre-Drummond-13904","48900","293.7"
"Russell-Westbrook-1083","Patty-Mills-13977","Stanley-Johnson-18913","LaMarcus-Aldridge-1349","Pau-Gasol-1502","De'Aaron-Fox-37900","Reggie-Bullock-16943","Andre-Drummond-13904","49500","293.63"
"Russell-Westbrook-1083","Patty-Mills-13977","DeMar-DeRozan-1053","LaMarcus-Aldridge-1349","Steven-Adams-16848","Reggie-Bullock-16943","Stanley-Johnson-18913","Reggie-Jackson-13352","50000","293.61"
"Russell-Westbrook-1083","Langston-Galloway-18717","DeMar-DeRozan-1053","LaMarcus-Aldridge-1349","Pau-Gasol-1502","Reggie-Bullock-16943","Stanley-Johnson-18913","Andre-Drummond-13904","49800","293.6"
"Russell-Westbrook-1083","DeMar-DeRozan-1053","Stanley-Johnson-18913","LaMarcus-Aldridge-1349","Willie-Cauley-Stein-18951","Reggie-Jackson-13352","Jerami-Grant-18576","Pau-Gasol-1502","49400","293.28"
"Russell-Westbrook-1083","Patty-Mills-13977","DeMar-DeRozan-1053","LaMarcus-Aldridge-1349","Steven-Adams-16848","Dennis-Schroder-18595","Stanley-Johnson-18913","Pau-Gasol-1502","48300","293.27"
"Russell-Westbrook-1083","Patty-Mills-13977","Buddy-Hield-35206","LaMarcus-Aldridge-1349","Pau-Gasol-1502","Dennis-Schroder-18595","Stanley-Johnson-18913","Andre-Drummond-13904","48800","293.22"
"Russell-Westbrook-1083","Reggie-Bullock-16943","DeMar-DeRozan-1053","Nemanja-Bjelica-31814","Pau-Gasol-1502","Reggie-Jackson-13352","Stanley-Johnson-18913","Andre-Drummond-13904","49900","293.22"
"Russell-Westbrook-1083","Patty-Mills-13977","Stanley-Johnson-18913","LaMarcus-Aldridge-1349","Pau-Gasol-1502","Reggie-Jackson-13352","Jerami-Grant-18576","Andre-Drummond-13904","47100","293.15"
"Russell-Westbrook-1083","Patty-Mills-13977","DeMar-DeRozan-1053","Stanley-Johnson-18913","LaMarcus-Aldridge-1349","Reggie-Jackson-13352","Reggie-Bullock-16943","Willie-Cauley-Stein-18951","49600","293.03"
"Russell-Westbrook-1083","DeMar-DeRozan-1053","Buddy-Hield-35206","LaMarcus-Aldridge-1349","Pau-Gasol-1502","Reggie-Bullock-16943","Stanley-Johnson-18913","Reggie-Jackson-13352","49300","293.02"
"Russell-Westbrook-1083","Patty-Mills-13977","DeMar-DeRozan-1053","Nemanja-Bjelica-31814","Pau-Gasol-1502","Dennis-Schroder-18595","LaMarcus-Aldridge-1349","Reggie-Jackson-13352","48600","292.78"
"Russell-Westbrook-1083","Patty-Mills-13977","DeMar-DeRozan-1053","LaMarcus-Aldridge-1349","Pau-Gasol-1502","Dennis-Schroder-18595","Reggie-Bullock-16943","Reggie-Jackson-13352","47800","292.7"
"Russell-Westbrook-1083","Patty-Mills-13977","DeMar-DeRozan-1053","LaMarcus-Aldridge-1349","Pau-Gasol-1502","Dennis-Schroder-18595","Stanley-Johnson-18913","Willie-Cauley-Stein-18951","47900","292.69"
"Russell-Westbrook-1083","Patty-Mills-13977","DeMar-DeRozan-1053","Stanley-Johnson-18913","Andre-Drummond-13904","Dennis-Schroder-18595","Buddy-Hield-35206","Pau-Gasol-1502","49900","292.6"
"Russell-Westbrook-1083","Dennis-Schroder-18595","Stanley-Johnson-18913","LaMarcus-Aldridge-1349","Pau-Gasol-1502","Reggie-Jackson-13352","Jerami-Grant-18576","Andre-Drummond-13904","48400","292.6"
"Russell-Westbrook-1083","Patty-Mills-13977","DeMar-DeRozan-1053","Stanley-Johnson-18913","Andre-Drummond-13904","Reggie-Jackson-13352","Jerami-Grant-18576","Pau-Gasol-1502","48200","292.53"
"Russell-Westbrook-1083","Reggie-Jackson-13352","Marco-Belinelli-1033","LaMarcus-Aldridge-1349","Andre-Drummond-13904","De'Aaron-Fox-37900","Stanley-Johnson-18913","Pau-Gasol-1502","49600","292.51"
"Russell-Westbrook-1083","Patty-Mills-13977","DeMar-DeRozan-1053","Nemanja-Bjelica-31814","Pau-Gasol-1502","Reggie-Jackson-13352","Stanley-Johnson-18913","LaMarcus-Aldridge-1349","46900","292.44"
"Russell-Westbrook-1083","Patty-Mills-13977","Nemanja-Bjelica-31814","LaMarcus-Aldridge-1349","Andre-Drummond-13904","Dennis-Schroder-18595","Stanley-Johnson-18913","Reggie-Jackson-13352","49400","292.43"
"Russell-Westbrook-1083","Patty-Mills-13977","DeMar-DeRozan-1053","LaMarcus-Aldridge-1349","Pau-Gasol-1502","Reggie-Bullock-16943","Stanley-Johnson-18913","Reggie-Jackson-13352","46100","292.36"
"Russell-Westbrook-1083","Patty-Mills-13977","Stanley-Johnson-18913","LaMarcus-Aldridge-1349","Andre-Drummond-13904","Dennis-Schroder-18595","Reggie-Bullock-16943","Reggie-Jackson-13352","48600","292.35"
"Russell-Westbrook-1083","Bruce-Brown-408913","DeMar-DeRozan-1053","LaMarcus-Aldridge-1349","Pau-Gasol-1502","Patty-Mills-13977","Stanley-Johnson-18913","Andre-Drummond-13904","49300","292.29"
"Russell-Westbrook-1083","Patty-Mills-13977","Paul-George-1245","Stanley-Johnson-18913","Pau-Gasol-1502","Reggie-Jackson-13352","Reggie-Bullock-16943","Andre-Drummond-13904","49500","292.18"
"Russell-Westbrook-1083","Patty-Mills-13977","Buddy-Hield-35206","LaMarcus-Aldridge-1349","Pau-Gasol-1502","Reggie-Jackson-13352","Stanley-Johnson-18913","Paul-George-1245","49700","292.06"
"Russell-Westbrook-1083","Dennis-Schroder-18595","DeMar-DeRozan-1053","Stanley-Johnson-18913","Andre-Drummond-13904","Reggie-Jackson-13352","Jerami-Grant-18576","Pau-Gasol-1502","49500","291.98"
"Russell-Westbrook-1083","DeMar-DeRozan-1053","Paul-George-1245","LaMarcus-Aldridge-1349","Pau-Gasol-1502","Patty-Mills-13977","Stanley-Johnson-18913","Jakob-Poeltl-35187","49900","291.93"
"Russell-Westbrook-1083","Patty-Mills-13977","DeMar-DeRozan-1053","LaMarcus-Aldridge-1349","Steven-Adams-16848","Dennis-Schroder-18595","Reggie-Bullock-16943","Pau-Gasol-1502","49800","291.89"
"Russell-Westbrook-1083","Dennis-Schroder-18595","DeMar-DeRozan-1053","Nemanja-Bjelica-31814","Pau-Gasol-1502","Reggie-Jackson-13352","Stanley-Johnson-18913","LaMarcus-Aldridge-1349","48200","291.89"
"Russell-Westbrook-1083","Patty-Mills-13977","Nemanja-Bjelica-31814","LaMarcus-Aldridge-1349","Andre-Drummond-13904","Reggie-Jackson-13352","Jerami-Grant-18576","Pau-Gasol-1502","49400","291.85"
"Russell-Westbrook-1083","Reggie-Bullock-16943","DeMar-DeRozan-1053","LaMarcus-Aldridge-1349","Pau-Gasol-1502","Dennis-Schroder-18595","Stanley-Johnson-18913","Reggie-Jackson-13352","47400","291.81"
"Russell-Westbrook-1083","Patty-Mills-13977","Reggie-Bullock-16943","LaMarcus-Aldridge-1349","Andre-Drummond-13904","Reggie-Jackson-13352","Jerami-Grant-18576","Pau-Gasol-1502","48600","291.77"
"Russell-Westbrook-1083","Patty-Mills-13977","DeMar-DeRozan-1053","Stanley-Johnson-18913","Andre-Drummond-13904","Dennis-Schroder-18595","Reggie-Bullock-16943","Reggie-Jackson-13352","49700","291.73"
"Russell-Westbrook-1083","Patty-Mills-13977","DeMar-DeRozan-1053","LaMarcus-Aldridge-1349","Pau-Gasol-1502","De'Aaron-Fox-37900","Stanley-Johnson-18913","Dennis-Schroder-18595","48900","291.68"
"Russell-Westbrook-1083","DeMar-DeRozan-1053","Nemanja-Bjelica-31814","LaMarcus-Aldridge-1349","Pau-Gasol-1502","Patty-Mills-13977","Stanley-Johnson-18913","Steven-Adams-16848","48900","291.63"
"Russell-Westbrook-1083","Patty-Mills-13977","DeMar-DeRozan-1053","Stanley-Johnson-18913","LaMarcus-Aldridge-1349","Dennis-Schroder-18595","Buddy-Hield-35206","Reggie-Jackson-13352","49900","291.61"
"Russell-Westbrook-1083","Buddy-Hield-35206","Nemanja-Bjelica-31814","LaMarcus-Aldridge-1349","Andre-Drummond-13904","Patty-Mills-13977","Stanley-Johnson-18913","Pau-Gasol-1502","49400","291.58"
"Russell-Westbrook-1083","Patty-Mills-13977","DeMar-DeRozan-1053","LaMarcus-Aldridge-1349","Steven-Adams-16848","Reggie-Bullock-16943","Stanley-Johnson-18913","Pau-Gasol-1502","48100","291.55"
"Russell-Westbrook-1083","Reggie-Jackson-13352","Stanley-Johnson-18913","Jon-Leuer-13317","Andre-Drummond-13904","De'Aaron-Fox-37900","LaMarcus-Aldridge-1349","Pau-Gasol-1502","49500","291.53"
"Russell-Westbrook-1083","Patty-Mills-13977","Buddy-Hield-35206","LaMarcus-Aldridge-1349","Pau-Gasol-1502","Reggie-Bullock-16943","Stanley-Johnson-18913","Andre-Drummond-13904","48600","291.5"
"Russell-Westbrook-1083","Reggie-Bullock-16943","DeMar-DeRozan-1053","LaMarcus-Aldridge-1349","Pau-Gasol-1502","Yogi-Ferrell-35999","Stanley-Johnson-18913","Andre-Drummond-13904","50000","291.44"
"Russell-Westbrook-1083","Reggie-Bullock-16943","DeMar-DeRozan-1053","LaMarcus-Aldridge-1349","Pau-Gasol-1502","Luke-Kennard-37814","Stanley-Johnson-18913","Andre-Drummond-13904","50000","291.43"
"Russell-Westbrook-1083","Patty-Mills-13977","DeMar-DeRozan-1053","LaMarcus-Aldridge-1349","Steven-Adams-16848","Reggie-Jackson-13352","Marco-Belinelli-1033","Pau-Gasol-1502","48600","291.32"
"Russell-Westbrook-1083","Patty-Mills-13977","DeMar-DeRozan-1053","LaMarcus-Aldridge-1349","Pau-Gasol-1502","Dennis-Schroder-18595","Reggie-Bullock-16943","Willie-Cauley-Stein-18951","49400","291.31"
"Russell-Westbrook-1083","Patty-Mills-13977","Buddy-Hield-35206","LaMarcus-Aldridge-1349","Pau-Gasol-1502","Reggie-Jackson-13352","Marco-Belinelli-1033","Andre-Drummond-13904","49100","291.27"
"Russell-Westbrook-1083","Dennis-Schroder-18595","Reggie-Bullock-16943","LaMarcus-Aldridge-1349","Andre-Drummond-13904","Reggie-Jackson-13352","Jerami-Grant-18576","Pau-Gasol-1502","49900","291.22"
"Russell-Westbrook-1083","Patty-Mills-13977","DeMar-DeRozan-1053","Jerami-Grant-18576","Andre-Drummond-13904","Reggie-Jackson-13352","Reggie-Bullock-16943","Pau-Gasol-1502","49700","291.15"
"Russell-Westbrook-1083","DeMar-DeRozan-1053","Nemanja-Bjelica-31814","LaMarcus-Aldridge-1349","Pau-Gasol-1502","Reggie-Jackson-13352","Reggie-Bullock-16943","Patty-Mills-13977","48400","291.06"
"Russell-Westbrook-1083","DeMar-DeRozan-1053","Nemanja-Bjelica-31814","LaMarcus-Aldridge-1349","Willie-Cauley-Stein-18951","Patty-Mills-13977","Stanley-Johnson-18913","Pau-Gasol-1502","48500","291.05"
"Russell-Westbrook-1083","DeMar-DeRozan-1053","Buddy-Hield-35206","LaMarcus-Aldridge-1349","Pau-Gasol-1502","Reggie-Jackson-13352","Jerami-Grant-18576","Patty-Mills-13977","49900","291.03"
"Russell-Westbrook-1083","Reggie-Bullock-16943","DeMar-DeRozan-1053","LaMarcus-Aldridge-1349","Steven-Adams-16848","Dennis-Schroder-18595","Stanley-Johnson-18913","Pau-Gasol-1502","49400","291.0"
"Russell-Westbrook-1083","Patty-Mills-13977","Marco-Belinelli-1033","LaMarcus-Aldridge-1349","Steven-Adams-16848","Reggie-Jackson-13352","Stanley-Johnson-18913","Andre-Drummond-13904","49400","290.97"
"Russell-Westbrook-1083","Patty-Mills-13977","DeMar-DeRozan-1053","LaMarcus-Aldridge-1349","Pau-Gasol-1502","Reggie-Bullock-16943","Stanley-Johnson-18913","Willie-Cauley-Stein-18951","47700","290.97"
"Russell-Westbrook-1083","Reggie-Bullock-16943","Buddy-Hield-35206","LaMarcus-Aldridge-1349","Pau-Gasol-1502","Dennis-Schroder-18595","Stanley-Johnson-18913","Andre-Drummond-13904","49900","290.95"
"Russell-Westbrook-1083","Reggie-Bullock-16943","Stanley-Johnson-18913","LaMarcus-Aldridge-1349","Pau-Gasol-1502","Reggie-Jackson-13352","Jerami-Grant-18576","Andre-Drummond-13904","48200","290.88"
"Russell-Westbrook-1083","Buddy-Hield-35206","DeMar-DeRozan-1053","Stanley-Johnson-18913","Andre-Drummond-13904","Patty-Mills-13977","Reggie-Bullock-16943","Pau-Gasol-1502","49700","290.88"
