"Ben-Simmons-35184","Kenrich-Williams-570179","Evan-Fournier-13913","Mike-Muscala-17379","Deandre-Ayton-409301","Luka-Doncic-408971","Jimmy-Butler-13327","Bobby-Portis-18909","50000","299.87"
"Ben-Simmons-35184","Mikal-Bridges-408842","Jimmy-Butler-13327","Bobby-Portis-18909","Deandre-Ayton-409301","Luka-Doncic-408971","Kenrich-Williams-570179","Malik-Beasley-35213","49900","299.4"
"Luka-Doncic-408971","Jimmy-Butler-13327","Kenrich-Williams-570179","Bobby-Portis-18909","Deandre-Ayton-409301","DeMar-DeRozan-1053","DeMarcus-Cousins-1490","Mike-Muscala-17379","50000","299.3"

"Ben-Simmons-35184","Kenrich-Williams-570179","Evan-Fournier-13913","Mike-Muscala-17379","Deandre-Ayton-409301","Luka-Doncic-408971","Jimmy-Butler-13327","Bobby-Portis-18909","50000","299.87"
"Ben-Simmons-35184","Mikal-Bridges-408842","Jimmy-Butler-13327","Bobby-Portis-18909","Deandre-Ayton-409301","Luka-Doncic-408971","Kenrich-Williams-570179","Malik-Beasley-35213","49900","299.4"
"Luka-Doncic-408971","Jimmy-Butler-13327","Kenrich-Williams-570179","Bobby-Portis-18909","Deandre-Ayton-409301","DeMar-DeRozan-1053","DeMarcus-Cousins-1490","Mike-Muscala-17379","50000","299.3"
"Ben-Simmons-35184","Jimmy-Butler-13327","Evan-Fournier-13913","Mike-Muscala-17379","Bobby-Portis-18909","Luka-Doncic-408971","DeMarcus-Cousins-1490","Kenrich-Williams-570179","49900","299.26"
"Ben-Simmons-35184","Mikal-Bridges-408842","Luka-Doncic-408971","Bobby-Portis-18909","DeMarcus-Cousins-1490","Jimmy-Butler-13327","Kenrich-Williams-570179","Malik-Beasley-35213","49800","298.79"
"Luka-Doncic-408971","Kenrich-Williams-570179","Ben-Simmons-35184","Aaron-Gordon-18601","Bobby-Portis-18909","Malik-Beasley-35213","Jimmy-Butler-13327","Darius-Miller-13951","49900","298.63"
"Ben-Simmons-35184","Jimmy-Butler-13327","Luka-Doncic-408971","Bobby-Portis-18909","DeMarcus-Cousins-1490","Tyler-Johnson-18720","Kenrich-Williams-570179","Malik-Beasley-35213","50000","298.62"
"Ben-Simmons-35184","Kenrich-Williams-570179","Luka-Doncic-408971","Bobby-Portis-18909","Maxi-Kleber-37845","Malik-Beasley-35213","Jimmy-Butler-13327","Deandre-Ayton-409301","49900","298.5"
"Ben-Simmons-35184","Jimmy-Butler-13327","Luka-Doncic-408971","Darius-Miller-13951","Bobby-Portis-18909","Kenrich-Williams-570179","Mikal-Bridges-408842","Deandre-Ayton-409301","49900","298.49"
"Ben-Simmons-35184","Klay-Thompson-13315","Jimmy-Butler-13327","Mike-Muscala-17379","Bobby-Portis-18909","Luka-Doncic-408971","Kenrich-Williams-570179","Monte-Morris-37860","49800","298.49"
"Ben-Simmons-35184","Jimmy-Butler-13327","Luka-Doncic-408971","Bobby-Portis-18909","Draymond-Green-13976","Monte-Morris-37860","Kenrich-Williams-570179","Mike-Muscala-17379","50000","298.46"
"Ben-Simmons-35184","Khris-Middleton-13990","Jimmy-Butler-13327","Mike-Muscala-17379","Bobby-Portis-18909","Luka-Doncic-408971","Kenrich-Williams-570179","Monte-Morris-37860","50000","298.42"
"Ben-Simmons-35184","Klay-Thompson-13315","Luka-Doncic-408971","Josh-Jackson-37890","Bobby-Portis-18909","Kenrich-Williams-570179","Jimmy-Butler-13327","Mike-Muscala-17379","49900","298.37"
"Ben-Simmons-35184","Jimmy-Butler-13327","Kenrich-Williams-570179","Mike-Muscala-17379","Bobby-Portis-18909","Luka-Doncic-408971","Paul-Millsap-1335","DeMarcus-Cousins-1490","50000","298.28"
"Luka-Doncic-408971","George-Hill-993","Ben-Simmons-35184","Bobby-Portis-18909","DeMarcus-Cousins-1490","Evan-Fournier-13913","Jimmy-Butler-13327","Malik-Beasley-35213","50000","298.24"
"Ben-Simmons-35184","George-Hill-993","Jimmy-Butler-13327","Darius-Miller-13951","Bobby-Portis-18909","DeMar-DeRozan-1053","Kenrich-Williams-570179","Luka-Doncic-408971","49900","298.2"
"Ben-Simmons-35184","Kenrich-Williams-570179","Luka-Doncic-408971","Bobby-Portis-18909","Dwight-Powell-18566","Malik-Beasley-35213","Jimmy-Butler-13327","Aaron-Gordon-18601","49900","298.2"
"Ben-Simmons-35184","Malcolm-Brogdon-35195","Luka-Doncic-408971","Josh-Jackson-37890","Bobby-Portis-18909","Kenrich-Williams-570179","Jimmy-Butler-13327","Malik-Beasley-35213","50000","298.17"
"Ben-Simmons-35184","Klay-Thompson-13315","Jimmy-Butler-13327","Darius-Miller-13951","Bobby-Portis-18909","Luka-Doncic-408971","Kenrich-Williams-570179","Malik-Beasley-35213","49600","298.14"
"Luka-Doncic-408971","Jimmy-Butler-13327","Ben-Simmons-35184","Bobby-Portis-18909","DeMarcus-Cousins-1490","Monte-Morris-37860","Sterling-Brown-37821","Kenrich-Williams-570179","50000","298.11"
"Ben-Simmons-35184","Jimmy-Butler-13327","Luka-Doncic-408971","Bobby-Portis-18909","Draymond-Green-13976","Malik-Beasley-35213","Kenrich-Williams-570179","Darius-Miller-13951","49800","298.11"
"Luka-Doncic-408971","Malcolm-Brogdon-35195","Ben-Simmons-35184","Mike-Muscala-17379","Bobby-Portis-18909","Klay-Thompson-13315","Jimmy-Butler-13327","Malik-Beasley-35213","50000","298.11"
"Luka-Doncic-408971","Jimmy-Butler-13327","Ben-Simmons-35184","Darius-Miller-13951","Bobby-Portis-18909","Kenrich-Williams-570179","Khris-Middleton-13990","Malik-Beasley-35213","49800","298.07"
"Ben-Simmons-35184","George-Hill-993","Luka-Doncic-408971","Marvin-Bagley-III-409321","Deandre-Ayton-409301","Kenrich-Williams-570179","Jimmy-Butler-13327","Bobby-Portis-18909","50000","298.07"
"Ben-Simmons-35184","Kenrich-Williams-570179","Mikal-Bridges-408842","Bobby-Portis-18909","Dwight-Powell-18566","Luka-Doncic-408971","Jimmy-Butler-13327","Deandre-Ayton-409301","49900","298.06"
"Ben-Simmons-35184","Mikal-Bridges-408842","Jimmy-Butler-13327","Mike-Muscala-17379","Bobby-Portis-18909","DeMar-DeRozan-1053","Kenrich-Williams-570179","Luka-Doncic-408971","49800","298.05"
"Ben-Simmons-35184","George-Hill-993","Luka-Doncic-408971","Bobby-Portis-18909","DeMarcus-Cousins-1490","Malcolm-Brogdon-35195","Kenrich-Williams-570179","Jimmy-Butler-13327","50000","298.04"
"Ben-Simmons-35184","George-Hill-993","Luka-Doncic-408971","Bobby-Portis-18909","Jahlil-Okafor-18902","Jimmy-Butler-13327","Evan-Fournier-13913","Kenrich-Williams-570179","50000","298.03"
"Luka-Doncic-408971","Klay-Thompson-13315","Jimmy-Butler-13327","Bobby-Portis-18909","Deandre-Ayton-409301","Malik-Beasley-35213","Kenrich-Williams-570179","Jahlil-Okafor-18902","49800","298.01"
"Malik-Beasley-35213","Jimmy-Butler-13327","Luka-Doncic-408971","Bobby-Portis-18909","Jahlil-Okafor-18902","Kenrich-Williams-570179","Draymond-Green-13976","Deandre-Ayton-409301","50000","297.98"
"Ben-Simmons-35184","George-Hill-993","Jimmy-Butler-13327","Bobby-Portis-18909","Deandre-Ayton-409301","Evan-Fournier-13913","Kenrich-Williams-570179","Luka-Doncic-408971","49800","297.98"
"Luka-Doncic-408971","Kenrich-Williams-570179","Khris-Middleton-13990","Bobby-Portis-18909","Jahlil-Okafor-18902","Malik-Beasley-35213","Jimmy-Butler-13327","Deandre-Ayton-409301","50000","297.94"
"Ben-Simmons-35184","Malik-Beasley-35213","Evan-Fournier-13913","Aaron-Gordon-18601","Bobby-Portis-18909","Luka-Doncic-408971","Jimmy-Butler-13327","Mike-Muscala-17379","50000","297.93"
"Malik-Beasley-35213","Klay-Thompson-13315","Luka-Doncic-408971","Bobby-Portis-18909","Draymond-Green-13976","DeMar-DeRozan-1053","Kenrich-Williams-570179","Jimmy-Butler-13327","50000","297.92"
"Ben-Simmons-35184","Kenrich-Williams-570179","Jimmy-Butler-13327","Bobby-Portis-18909","Maxi-Kleber-37845","Luka-Doncic-408971","DeMarcus-Cousins-1490","Malik-Beasley-35213","49800","297.89"
"Malik-Beasley-35213","Jimmy-Butler-13327","Luka-Doncic-408971","Bobby-Portis-18909","Jahlil-Okafor-18902","Kenrich-Williams-570179","DeMarcus-Cousins-1490","Aaron-Gordon-18601","50000","297.89"
"Ben-Simmons-35184","Mikal-Bridges-408842","Darius-Miller-13951","Bobby-Portis-18909","DeMarcus-Cousins-1490","Luka-Doncic-408971","Jimmy-Butler-13327","Kenrich-Williams-570179","49800","297.88"
"Ben-Simmons-35184","DeMar-DeRozan-1053","Jimmy-Butler-13327","Mike-Muscala-17379","Bobby-Portis-18909","Tyler-Johnson-18720","Kenrich-Williams-570179","Luka-Doncic-408971","50000","297.88"
"Luka-Doncic-408971","Jimmy-Butler-13327","Kenrich-Williams-570179","Bobby-Portis-18909","Deandre-Ayton-409301","Malik-Beasley-35213","DeMarcus-Cousins-1490","Aaron-Gordon-18601","49800","297.84"
"Luka-Doncic-408971","Kenrich-Williams-570179","Ben-Simmons-35184","Rondae-Hollis-Jefferson-18897","Bobby-Portis-18909","Malik-Beasley-35213","Jimmy-Butler-13327","Deandre-Ayton-409301","49900","297.8"
"Ben-Simmons-35184","Mikal-Bridges-408842","Evan-Fournier-13913","Mike-Muscala-17379","Deandre-Ayton-409301","Luka-Doncic-408971","Jimmy-Butler-13327","Bobby-Portis-18909","50000","297.79"
"Ben-Simmons-35184","George-Hill-993","Luka-Doncic-408971","Bobby-Portis-18909","Dwight-Powell-18566","DeMar-DeRozan-1053","Jimmy-Butler-13327","Kenrich-Williams-570179","49900","297.77"
"Ben-Simmons-35184","Jimmy-Butler-13327","Luka-Doncic-408971","Bobby-Portis-18909","Jahlil-Okafor-18902","Malik-Beasley-35213","Kenrich-Williams-570179","Mike-Muscala-17379","49500","297.76"
"Luka-Doncic-408971","Mikal-Bridges-408842","Kenrich-Williams-570179","Bobby-Portis-18909","Deandre-Ayton-409301","Jimmy-Butler-13327","DeMarcus-Cousins-1490","Jahlil-Okafor-18902","50000","297.75"
"Luka-Doncic-408971","Malcolm-Brogdon-35195","Ben-Simmons-35184","Aaron-Gordon-18601","Bobby-Portis-18909","Kenrich-Williams-570179","Jimmy-Butler-13327","Mike-Muscala-17379","50000","297.73"
"Ben-Simmons-35184","Malik-Beasley-35213","Darius-Miller-13951","Mike-Muscala-17379","Jahlil-Okafor-18902","Luka-Doncic-408971","Jimmy-Butler-13327","Bobby-Portis-18909","49800","297.72"
"Luka-Doncic-408971","Jimmy-Butler-13327","Kenrich-Williams-570179","Bobby-Portis-18909","Deandre-Ayton-409301","Monte-Morris-37860","DeMarcus-Cousins-1490","Josh-Jackson-37890","50000","297.72"
"Ben-Simmons-35184","Klay-Thompson-13315","Luka-Doncic-408971","Bobby-Portis-18909","Dwight-Powell-18566","Kenrich-Williams-570179","Jimmy-Butler-13327","Malik-Beasley-35213","49600","297.71"
"Monte-Morris-37860","Jimmy-Butler-13327","Luka-Doncic-408971","Bobby-Portis-18909","Jahlil-Okafor-18902","DeMar-DeRozan-1053","Kenrich-Williams-570179","Malik-Beasley-35213","49900","297.71"
"Ben-Simmons-35184","Malik-Beasley-35213","Jimmy-Butler-13327","Bobby-Portis-18909","Deandre-Ayton-409301","Luka-Doncic-408971","Kenrich-Williams-570179","Mike-Muscala-17379","49300","297.71"
"Ben-Simmons-35184","Jimmy-Butler-13327","Luka-Doncic-408971","Marvin-Bagley-III-409321","Bobby-Portis-18909","Monte-Morris-37860","Kenrich-Williams-570179","Malik-Beasley-35213","49800","297.71"
"Ben-Simmons-35184","Kenrich-Williams-570179","Darius-Miller-13951","Bobby-Portis-18909","DeMarcus-Cousins-1490","Tyler-Johnson-18720","Jimmy-Butler-13327","Luka-Doncic-408971","50000","297.71"
"Luka-Doncic-408971","Klay-Thompson-13315","Mikal-Bridges-408842","Bobby-Portis-18909","DeMarcus-Cousins-1490","DeMar-DeRozan-1053","Jimmy-Butler-13327","Kenrich-Williams-570179","50000","297.69"
"Ben-Simmons-35184","Jimmy-Butler-13327","Luka-Doncic-408971","Bobby-Portis-18909","Draymond-Green-13976","Malik-Beasley-35213","Kenrich-Williams-570179","Dwight-Powell-18566","49800","297.68"
"Ben-Simmons-35184","Jimmy-Butler-13327","Darius-Miller-13951","Mike-Muscala-17379","Bobby-Portis-18909","Malik-Beasley-35213","Luka-Doncic-408971","Deandre-Ayton-409301","49600","297.67"
"Ben-Simmons-35184","Klay-Thompson-13315","Darius-Miller-13951","Bobby-Portis-18909","Dwight-Powell-18566","Luka-Doncic-408971","Jimmy-Butler-13327","Malik-Beasley-35213","49900","297.67"
"Ben-Simmons-35184","Jimmy-Butler-13327","Luka-Doncic-408971","Bobby-Portis-18909","Deandre-Ayton-409301","Malik-Beasley-35213","Evan-Fournier-13913","Sterling-Brown-37821","50000","297.67"
"Monte-Morris-37860","Klay-Thompson-13315","Luka-Doncic-408971","Mike-Muscala-17379","Deandre-Ayton-409301","Jimmy-Butler-13327","DeMarcus-Cousins-1490","Bobby-Portis-18909","50000","297.66"
"Luka-Doncic-408971","DeMar-DeRozan-1053","Jimmy-Butler-13327","Bobby-Portis-18909","Deandre-Ayton-409301","Monte-Morris-37860","Kenrich-Williams-570179","Malik-Beasley-35213","49700","297.66"
"Ben-Simmons-35184","Khris-Middleton-13990","Luka-Doncic-408971","Bobby-Portis-18909","Dwight-Powell-18566","Kenrich-Williams-570179","Jimmy-Butler-13327","Malik-Beasley-35213","49800","297.64"
"Monte-Morris-37860","Jimmy-Butler-13327","Darius-Miller-13951","Bobby-Portis-18909","Deandre-Ayton-409301","DeMar-DeRozan-1053","Luka-Doncic-408971","Malik-Beasley-35213","50000","297.62"
"Ben-Simmons-35184","Malik-Beasley-35213","Jimmy-Butler-13327","Josh-Jackson-37890","Marvin-Bagley-III-409321","Luka-Doncic-408971","Kenrich-Williams-570179","Bobby-Portis-18909","49900","297.59"
"Luka-Doncic-408971","Jimmy-Butler-13327","Josh-Jackson-37890","Bobby-Portis-18909","Jahlil-Okafor-18902","DeMar-DeRozan-1053","Kenrich-Williams-570179","Malik-Beasley-35213","50000","297.59"
"Ben-Simmons-35184","Jimmy-Butler-13327","Darius-Miller-13951","Bobby-Portis-18909","Deandre-Ayton-409301","Kenrich-Williams-570179","Luka-Doncic-408971","Maxi-Kleber-37845","49900","297.59"
"Ben-Simmons-35184","Evan-Fournier-13913","Luka-Doncic-408971","Darius-Miller-13951","Bobby-Portis-18909","Monte-Morris-37860","Jimmy-Butler-13327","Malik-Beasley-35213","49900","297.58"
"Luka-Doncic-408971","DeMar-DeRozan-1053","Jimmy-Butler-13327","Bobby-Portis-18909","Deandre-Ayton-409301","Malik-Beasley-35213","Kenrich-Williams-570179","Josh-Jackson-37890","49800","297.54"
"Malik-Beasley-35213","Klay-Thompson-13315","Luka-Doncic-408971","Mike-Muscala-17379","Jahlil-Okafor-18902","DeMar-DeRozan-1053","Bobby-Portis-18909","Jimmy-Butler-13327","50000","297.53"
"Luka-Doncic-408971","Klay-Thompson-13315","Ben-Simmons-35184","Marvin-Bagley-III-409321","Bobby-Portis-18909","Jimmy-Butler-13327","Mike-Muscala-17379","Malik-Beasley-35213","49900","297.53"
"Ben-Simmons-35184","George-Hill-993","Luka-Doncic-408971","Mike-Muscala-17379","Bobby-Portis-18909","DeMar-DeRozan-1053","Evan-Fournier-13913","Jimmy-Butler-13327","50000","297.5"
"Ben-Simmons-35184","Evan-Fournier-13913","Luka-Doncic-408971","Josh-Jackson-37890","Bobby-Portis-18909","Kenrich-Williams-570179","Jimmy-Butler-13327","Malik-Beasley-35213","49700","297.5"
"Malik-Beasley-35213","Klay-Thompson-13315","Luka-Doncic-408971","Mike-Muscala-17379","Deandre-Ayton-409301","DeMar-DeRozan-1053","Bobby-Portis-18909","Jimmy-Butler-13327","49800","297.48"
"Ben-Simmons-35184","Malcolm-Brogdon-35195","Jimmy-Butler-13327","Bobby-Portis-18909","Deandre-Ayton-409301","Luka-Doncic-408971","Kenrich-Williams-570179","Sterling-Brown-37821","50000","297.47"
"Luka-Doncic-408971","George-Hill-993","Ben-Simmons-35184","Marvin-Bagley-III-409321","DeMarcus-Cousins-1490","Kenrich-Williams-570179","Jimmy-Butler-13327","Bobby-Portis-18909","49900","297.46"
"Ben-Simmons-35184","Evan-Fournier-13913","Luka-Doncic-408971","Josh-Jackson-37890","Bobby-Portis-18909","Malik-Beasley-35213","Jimmy-Butler-13327","Darius-Miller-13951","50000","297.46"
"George-Hill-993","Jimmy-Butler-13327","Luka-Doncic-408971","Bobby-Portis-18909","Jahlil-Okafor-18902","DeMar-DeRozan-1053","DeMarcus-Cousins-1490","Kenrich-Williams-570179","50000","297.46"
"Ben-Simmons-35184","Jimmy-Butler-13327","Luka-Doncic-408971","Darius-Miller-13951","Deandre-Ayton-409301","Monte-Morris-37860","Kenrich-Williams-570179","Malik-Beasley-35213","50000","297.45"
"Malik-Beasley-35213","Jimmy-Butler-13327","Luka-Doncic-408971","Mike-Muscala-17379","Deandre-Ayton-409301","DeMar-DeRozan-1053","Bobby-Portis-18909","Draymond-Green-13976","50000","297.45"
"Ben-Simmons-35184","Kenrich-Williams-570179","Mikal-Bridges-408842","Bobby-Portis-18909","Dwight-Powell-18566","Luka-Doncic-408971","Jimmy-Butler-13327","DeMarcus-Cousins-1490","49800","297.45"
"Ben-Simmons-35184","Klay-Thompson-13315","Luka-Doncic-408971","Mike-Muscala-17379","Bobby-Portis-18909","Jimmy-Butler-13327","Evan-Fournier-13913","Malik-Beasley-35213","49700","297.44"
"Malik-Beasley-35213","Evan-Fournier-13913","Ben-Simmons-35184","Mike-Muscala-17379","Draymond-Green-13976","Jimmy-Butler-13327","Luka-Doncic-408971","Bobby-Portis-18909","49900","297.41"
"Malik-Beasley-35213","Khris-Middleton-13990","Luka-Doncic-408971","Mike-Muscala-17379","Deandre-Ayton-409301","DeMar-DeRozan-1053","Bobby-Portis-18909","Jimmy-Butler-13327","50000","297.41"
"Luka-Doncic-408971","George-Hill-993","Jimmy-Butler-13327","Bobby-Portis-18909","Deandre-Ayton-409301","DeMar-DeRozan-1053","Kenrich-Williams-570179","DeMarcus-Cousins-1490","49800","297.41"
"Malik-Beasley-35213","Klay-Thompson-13315","Luka-Doncic-408971","Bobby-Portis-18909","Jahlil-Okafor-18902","Jimmy-Butler-13327","DeMarcus-Cousins-1490","Kenrich-Williams-570179","49700","297.4"
"Ben-Simmons-35184","Malcolm-Brogdon-35195","Jimmy-Butler-13327","Darius-Miller-13951","Bobby-Portis-18909","Luka-Doncic-408971","Kenrich-Williams-570179","Monte-Morris-37860","49900","297.38"
"Ben-Simmons-35184","Rodney-Hood-18629","Jimmy-Butler-13327","Bobby-Portis-18909","Deandre-Ayton-409301","Luka-Doncic-408971","Kenrich-Williams-570179","Malik-Beasley-35213","49900","297.38"
"Ben-Simmons-35184","Khris-Middleton-13990","Luka-Doncic-408971","Mike-Muscala-17379","Bobby-Portis-18909","Jimmy-Butler-13327","Evan-Fournier-13913","Malik-Beasley-35213","49900","297.37"
"Ben-Simmons-35184","George-Hill-993","Luka-Doncic-408971","Bobby-Portis-18909","DeMarcus-Cousins-1490","Evan-Fournier-13913","Kenrich-Williams-570179","Jimmy-Butler-13327","49700","297.37"
"Malik-Beasley-35213","Jimmy-Butler-13327","Luka-Doncic-408971","Bobby-Portis-18909","Jahlil-Okafor-18902","Kenrich-Williams-570179","DeMarcus-Cousins-1490","Draymond-Green-13976","49900","297.37"
"Luka-Doncic-408971","Klay-Thompson-13315","Darius-Miller-13951","Bobby-Portis-18909","DeMarcus-Cousins-1490","Malik-Beasley-35213","Jimmy-Butler-13327","Jahlil-Okafor-18902","50000","297.36"
"Malik-Beasley-35213","Klay-Thompson-13315","Ben-Simmons-35184","Mike-Muscala-17379","Jahlil-Okafor-18902","Jimmy-Butler-13327","Luka-Doncic-408971","Kenrich-Williams-570179","50000","297.36"
"Ben-Simmons-35184","Klay-Thompson-13315","Evan-Fournier-13913","Bobby-Portis-18909","Maxi-Kleber-37845","Luka-Doncic-408971","Kenrich-Williams-570179","Jimmy-Butler-13327","50000","297.36"
"Malik-Beasley-35213","Jimmy-Butler-13327","Luka-Doncic-408971","Mike-Muscala-17379","DeMarcus-Cousins-1490","DeMar-DeRozan-1053","Aaron-Gordon-18601","Bobby-Portis-18909","50000","297.36"
"Ben-Simmons-35184","George-Hill-993","Luka-Doncic-408971","Josh-Jackson-37890","Bobby-Portis-18909","Klay-Thompson-13315","Jimmy-Butler-13327","Malik-Beasley-35213","50000","297.35"
"Ben-Simmons-35184","Torrey-Craig-37861","Luka-Doncic-408971","Bobby-Portis-18909","Jahlil-Okafor-18902","Jimmy-Butler-13327","Kenrich-Williams-570179","Malik-Beasley-35213","49900","297.35"
"Luka-Doncic-408971","Klay-Thompson-13315","Jimmy-Butler-13327","Bobby-Portis-18909","Deandre-Ayton-409301","Malik-Beasley-35213","Kenrich-Williams-570179","DeMarcus-Cousins-1490","49500","297.35"
"Ben-Simmons-35184","George-Hill-993","Darius-Miller-13951","Bobby-Portis-18909","DeMarcus-Cousins-1490","Evan-Fournier-13913","Jimmy-Butler-13327","Luka-Doncic-408971","50000","297.33"
"Luka-Doncic-408971","Kenrich-Williams-570179","Khris-Middleton-13990","Bobby-Portis-18909","Jahlil-Okafor-18902","Malik-Beasley-35213","Jimmy-Butler-13327","DeMarcus-Cousins-1490","49900","297.33"
"Luka-Doncic-408971","Jimmy-Butler-13327","Kenrich-Williams-570179","Bobby-Portis-18909","Deandre-Ayton-409301","Malik-Beasley-35213","DeMarcus-Cousins-1490","Draymond-Green-13976","49700","297.32"
"Luka-Doncic-408971","Klay-Thompson-13315","Evan-Fournier-13913","Aaron-Gordon-18601","Bobby-Portis-18909","Kenrich-Williams-570179","Jimmy-Butler-13327","Deandre-Ayton-409301","50000","297.31"
"Luka-Doncic-408971","Klay-Thompson-13315","Darius-Miller-13951","Bobby-Portis-18909","DeMarcus-Cousins-1490","Malik-Beasley-35213","Jimmy-Butler-13327","Deandre-Ayton-409301","49800","297.31"
