Fred Perry,fred-perry/pi74,Dick Skeen,,64 68 62 63,Chicago,Other,1941.05.21,Outdoor,Clay,Finals
Dick Skeen,,John Faunce,,63 86 26 63,Chicago,Other,1941.05.21,Outdoor,Clay,Semi-Finals
Fred Perry,fred-perry/pi74,Keith Gledhill,keith-gledhill/gg73,61 68 64 75,Chicago,Other,1941.05.21,Outdoor,Clay,Semi-Finals
John Faunce,,Karel Kozeluh,,16 26 75 63 62,Chicago,Other,1941.05.21,Outdoor,Clay,Quarter-Finals
Dick Skeen,,Joe Whalen,,62 64 64,Chicago,Other,1941.05.21,Outdoor,Clay,Quarter-Finals
Fred Perry,fred-perry/pi74,John Nogrady,john-nogrady/n818,64 97 61,Chicago,Other,1941.05.21,Outdoor,Clay,Quarter-Finals
Keith Gledhill,keith-gledhill/gg73,Bill Tilden,bill-tilden/te54,62 63 63,Chicago,Other,1941.05.21,Outdoor,Clay,Quarter-Finals
John Faunce,,Don Budge,don-budge/bp59,64 61 63,Chicago,Other,1941.05.21,Outdoor,Clay,Round of 16
Karel Kozeluh,,Vincent Richards,vincent-richards/rf59,36 64 75 61,Chicago,Other,1941.05.21,Outdoor,Clay,Round of 16
Dick Skeen,,Dan Watson,,64 62 62,Chicago,Other,1941.05.21,Outdoor,Clay,Round of 16
Joe Whalen,,Lester Stoefen,lester-stoefen/st78,97 26 64 79 75,Chicago,Other,1941.05.21,Outdoor,Clay,Round of 16
Fred Perry,fred-perry/pi74,Charles Wood,charles-wood/w924,64 75 75,Chicago,Other,1941.05.21,Outdoor,Clay,Round of 16
John Nogrady,john-nogrady/n818,A. K. Wylie,,61 62 61,Chicago,Other,1941.05.21,Outdoor,Clay,Round of 16
Bill Tilden,bill-tilden/te54,George O'Connell,george-o'connell/o582,61 63 60,Chicago,Other,1941.05.21,Outdoor,Clay,Round of 16
Keith Gledhill,keith-gledhill/gg73,Berkeley Bell,berkeley-bell/bo97,64 46 60 64,Chicago,Other,1941.05.21,Outdoor,Clay,Round of 16
Karel Kozeluh,,Edward Stillman,,63 62 60,Chicago,Other,1941.05.21,Outdoor,Clay,Round of 32
Vincent Richards,vincent-richards/rf59,P. Martin,p.-martin/md75,61 64 60,Chicago,Other,1941.05.21,Outdoor,Clay,Round of 32
Dick Skeen,,J. Macy,,61 63 63,Chicago,Other,1941.05.21,Outdoor,Clay,Round of 32
Dan Watson,,Lloyd Budge,,62 62 61,Chicago,Other,1941.05.21,Outdoor,Clay,Round of 32
Lester Stoefen,lester-stoefen/st78,E. Underwood,,61 60 61,Chicago,Other,1941.05.21,Outdoor,Clay,Round of 32
Joe Whalen,,L. M. Fiske,,75 64 61,Chicago,Other,1941.05.21,Outdoor,Clay,Round of 32
Fred Perry,fred-perry/pi74,L. Volpe,,62 75 62,Chicago,Other,1941.05.21,Outdoor,Clay,Round of 32
Charles Wood,charles-wood/w924,George Jennings,george-jennings/j653,46 61 61 62,Chicago,Other,1941.05.21,Outdoor,Clay,Round of 32
A. K. Wylie,,Bruce Barnes,bruce-barnes/bq17,(W/O),Chicago,Other,1941.05.21,Outdoor,Clay,Round of 32
John Nogrady,john-nogrady/n818,G. Gaudet,,61 60 62,Chicago,Other,1941.05.21,Outdoor,Clay,Round of 32
Bill Tilden,bill-tilden/te54,Frank Goeltz,frank-goeltz/gg81,61 64 61,Chicago,Other,1941.05.21,Outdoor,Clay,Round of 32
George O'Connell,george-o'connell/o582,F. Wegener,,75 61 61,Chicago,Other,1941.05.21,Outdoor,Clay,Round of 32
Keith Gledhill,keith-gledhill/gg73,Ray White,ray-white/w832,61 62 61,Chicago,Other,1941.05.21,Outdoor,Clay,Round of 32
