Laurence Doherty,laurence-doherty/dg02,Harold Mahony,harold-mahony/mu14,64 62 63,Paris,Other,1900.07.06,Outdoor,Clay,Finals
Laurence Doherty,laurence-doherty/dg02,Reggie Doherty,reggie-doherty/dg13,(W/O),Paris,Other,1900.07.06,Outdoor,Clay,Semi-Finals
Harold Mahony,harold-mahony/mu14,Arthur Norris,arthur-norris/n905,86 61,Paris,Other,1900.07.06,Outdoor,Clay,Semi-Finals
Laurence Doherty,laurence-doherty/dg02,Basil Spaulding de Garmendia,basil-spaulding-de-garmendia/sw91,62 86,Paris,Other,1900.07.06,Outdoor,Clay,Quarter-Finals
Reggie Doherty,reggie-doherty/dg13,Paul Lecaron,,62 61,Paris,Other,1900.07.06,Outdoor,Clay,Quarter-Finals
Arthur Norris,arthur-norris/n905,Archibald Warden,,64 62,Paris,Other,1900.07.06,Outdoor,Clay,Quarter-Finals
Harold Mahony,harold-mahony/mu14,Max Decugis,max-decugis/de91,(W/O),Paris,Other,1900.07.06,Outdoor,Clay,Quarter-Finals
Basil Spaulding de Garmendia,basil-spaulding-de-garmendia/sw91,Charles Voight,,61 63,Paris,Other,1900.07.06,Outdoor,Clay,Round of 16
Laurence Doherty,laurence-doherty/dg02,Paul Lebreton,,62 63,Paris,Other,1900.07.06,Outdoor,Clay,Round of 16
Reggie Doherty,reggie-doherty/dg13,Etienne Durand,,61 63,Paris,Other,1900.07.06,Outdoor,Clay,Round of 16
Paul Lecaron,,Albert Lippmann,,60 61,Paris,Other,1900.07.06,Outdoor,Clay,Round of 16
Archibald Warden,,Wylie Grant,wylie-grant/gi57,(W/O),Paris,Other,1900.07.06,Outdoor,Clay,Round of 16
Arthur Norris,arthur-norris/n905,Andre Prevost,,64 64,Paris,Other,1900.07.06,Outdoor,Clay,Round of 16
Harold Mahony,harold-mahony/mu14,Charles Sands,,62 63,Paris,Other,1900.07.06,Outdoor,Clay,Round of 16
