Don Budge,don-budge/bp59,Fred Perry,fred-perry/pi74,63 57 64 63,Chicago,Other,1940.09.21,Outdoor,Clay,Finals
Don Budge,don-budge/bp59,Bill Tilden,bill-tilden/te54,64 62 64,Chicago,Other,1940.09.21,Outdoor,Clay,Semi-Finals
Fred Perry,fred-perry/pi74,John Nogrady,john-nogrady/n818,64 63 46 64,Chicago,Other,1940.09.21,Outdoor,Clay,Semi-Finals
Don Budge,don-budge/bp59,Walter Senior,walter-senior/su76,61 63 61,Chicago,Other,1940.09.21,Outdoor,Clay,Quarter-Finals
Bill Tilden,bill-tilden/te54,Joe Whalen,,64 61 75,Chicago,Other,1940.09.21,Outdoor,Clay,Quarter-Finals
John Nogrady,john-nogrady/n818,Karel Kozeluh,,64 60 (RET),Chicago,Other,1940.09.21,Outdoor,Clay,Quarter-Finals
Fred Perry,fred-perry/pi74,Arthur Hendrix,arthur-hendrix/hd51,61 64 62,Chicago,Other,1940.09.21,Outdoor,Clay,Quarter-Finals
Don Budge,don-budge/bp59,George Jennings,george-jennings/j653,63 63 60,Chicago,Other,1940.09.21,Outdoor,Clay,Round of 16
Walter Senior,walter-senior/su76,E. Bax,,61 61 61,Chicago,Other,1940.09.21,Outdoor,Clay,Round of 16
Bill Tilden,bill-tilden/te54,P. Martin,p.-martin/md75,64 61 63,Chicago,Other,1940.09.21,Outdoor,Clay,Round of 16
Joe Whalen,,George O'Connell,george-o'connell/o582,46 61 62 26 62,Chicago,Other,1940.09.21,Outdoor,Clay,Round of 16
John Nogrady,john-nogrady/n818,Vincent Richards,vincent-richards/rf59,810 60 61 60,Chicago,Other,1940.09.21,Outdoor,Clay,Round of 16
Karel Kozeluh,,J. L. Lamb,,60 62 63,Chicago,Other,1940.09.21,Outdoor,Clay,Round of 16
Arthur Hendrix,arthur-hendrix/hd51,Kenneth Napier,,911 64 64 64,Chicago,Other,1940.09.21,Outdoor,Clay,Round of 16
Fred Perry,fred-perry/pi74,Edward Stillman,,62 61 64,Chicago,Other,1940.09.21,Outdoor,Clay,Round of 16
George Jennings,george-jennings/j653,John Hendrix,,46 75 62 63,Chicago,Other,1940.09.21,Outdoor,Clay,Round of 32
Walter Senior,walter-senior/su76,Phil Greenstein,,60 62 64,Chicago,Other,1940.09.21,Outdoor,Clay,Round of 32
Bill Tilden,bill-tilden/te54,L. Volpe,,60 62 61,Chicago,Other,1940.09.21,Outdoor,Clay,Round of 32
Joe Whalen P.,,A. K. Wylie,,62 61 61,Chicago,Other,1940.09.21,Outdoor,Clay,Round of 32
George O'Connell,george-o'connell/o582,I. Denisoff,,62 62 46 62,Chicago,Other,1940.09.21,Outdoor,Clay,Round of 32
Fred Perry,fred-perry/pi74,William Kenney,,61 63 1210,Chicago,Other,1940.09.21,Outdoor,Clay,Round of 32
Arthur Hendrix,arthur-hendrix/hd51,G. Gaudet,,60 61 61,Chicago,Other,1940.09.21,Outdoor,Clay,Round of 32
Kenneth Napier,,L. M. Fiske,,61 61 62,Chicago,Other,1940.09.21,Outdoor,Clay,Round of 32
Karel Kozeluh,,Ray White,ray-white/w832,61 61 62,Chicago,Other,1940.09.21,Outdoor,Clay,Round of 32
Vincent Richards,vincent-richards/rf59,J. Macy,,60 60 61,Chicago,Other,1940.09.21,Outdoor,Clay,Round of 32
