Pancho Segura,pancho-segura/s246,Richard Pancho Gonzales,richard-pancho-gonzales/g077,63 64 62,New York,Other,1951.06.10,Outdoor,Grass,Round Robin
Bobby Riggs,bobby-riggs/rf00,Welby Van Horn,welby-van-horn/v938,63 810 46 64 64,New York,Other,1951.06.10,Outdoor,Grass,Round Robin
Pancho Segura,pancho-segura/s246,Welby Van Horn,welby-van-horn/v938,61 62 64,New York,Other,1951.06.10,Outdoor,Grass,Round Robin
Richard Pancho Gonzales,richard-pancho-gonzales/g077,Bobby Riggs,bobby-riggs/rf00,63 46 62 63,New York,Other,1951.06.10,Outdoor,Grass,Round Robin
Pancho Segura,pancho-segura/s246,Frank Parker,frank-parker/p154,62 62 60,New York,Other,1951.06.10,Outdoor,Grass,Round Robin
Welby Van Horn,welby-van-horn/v938,Frank Parker,frank-parker/p154,36 63 36 108 62,New York,Other,1951.06.10,Outdoor,Grass,Round Robin
Richard Pancho Gonzales,richard-pancho-gonzales/g077,Frank Parker,frank-parker/p154,46 61 75 62,New York,Other,1951.06.10,Outdoor,Grass,Round Robin
Pancho Segura,pancho-segura/s246,Bobby Riggs,bobby-riggs/rf00,60 86 61,New York,Other,1951.06.10,Outdoor,Grass,Round Robin
Richard Pancho Gonzales,richard-pancho-gonzales/g077,Welby Van Horn,welby-van-horn/v938,63 86 60,New York,Other,1951.06.10,Outdoor,Grass,Round Robin
Bobby Riggs,bobby-riggs/rf00,Frank Parker,frank-parker/p154,63 1715 62,New York,Other,1951.06.10,Outdoor,Grass,Round Robin
Jack Kramer,jack-kramer/kg10,Frank Parker,frank-parker/p154,46 60 46 60 63,New York,Other,1951.06.10,Outdoor,Grass,Round Robin
Richard Pancho Gonzales,richard-pancho-gonzales/g077,Pancho Segura,pancho-segura/s246,62 62 26 64,Wembley,Other,1951.09.20,Indoor,Wood,Finals
Pancho Segura,pancho-segura/s246,Welby Van Horn,welby-van-horn/v938,62 62 62,Wembley,Other,1951.09.20,Indoor,Wood,Semi-Finals
Richard Pancho Gonzales,richard-pancho-gonzales/g077,Francis Kovacs,francis-kovacs/kg37,61 63 63,Wembley,Other,1951.09.20,Indoor,Wood,Semi-Finals
Pancho Segura,pancho-segura/s246,Fred Perry,fred-perry/pi74,62 86,Wembley,Other,1951.09.20,Indoor,Wood,Quarter-Finals
Welby Van Horn,welby-van-horn/v938,Hans Nusslein,,62 36 61,Wembley,Other,1951.09.20,Indoor,Wood,Quarter-Finals
Richard Pancho Gonzales,richard-pancho-gonzales/g077,Carl Earn,,61 86,Wembley,Other,1951.09.20,Indoor,Wood,Quarter-Finals
Francis Kovacs,francis-kovacs/kg37,Bobby Riggs,bobby-riggs/rf00,61 16 63,Wembley,Other,1951.09.20,Indoor,Wood,Quarter-Finals
Pancho Segura,pancho-segura/s246,J. De Mos,,61 64,Wembley,Other,1951.09.20,Indoor,Wood,Round of 16
Fred Perry,fred-perry/pi74,M. Ali Moubarek,,61 63,Wembley,Other,1951.09.20,Indoor,Wood,Round of 16
Hans Nusslein,,F. Romanoni,,61 63,Wembley,Other,1951.09.20,Indoor,Wood,Round of 16
Welby Van Horn,welby-van-horn/v938,D. Bocquet,,86 64,Wembley,Other,1951.09.20,Indoor,Wood,Round of 16
Richard Pancho Gonzales,richard-pancho-gonzales/g077,Bill Moss,bill-moss/mr05,60 62,Wembley,Other,1951.09.20,Indoor,Wood,Round of 16
Carl Earn,,F. Wilde,,60 62,Wembley,Other,1951.09.20,Indoor,Wood,Round of 16
Bobby Riggs,bobby-riggs/rf00,G. Rogers,,61 60,Wembley,Other,1951.09.20,Indoor,Wood,Round of 16
Francis Kovacs,francis-kovacs/kg37,K. Schroeder,,61 64,Wembley,Other,1951.09.20,Indoor,Wood,Round of 16
