Richard Pancho Gonzales,richard-pancho-gonzales/g077,Rod Laver,rod-laver/l058,75 36 26 63 62,Tennis Champions Classic,Other,1970.01.23,,,Round Robin
Richard Pancho Gonzales,richard-pancho-gonzales/g077,John Newcombe,john-newcombe/n044,64 64 62,Tennis Champions Classic,Other,1970.02.07,,,Round Robin
Roy Emerson,roy-emerson/e030,Richard Pancho Gonzales,richard-pancho-gonzales/g077,63 62 63,Tennis Champions Classic,Other,1970.02.15,,,Round Robin
Roy Emerson,roy-emerson/e030,Ken Rosewall,ken-rosewall/r075,75 46 75 64,Tennis Champions Classic,Other,1970.02.28,,,Round Robin
Roy Emerson,roy-emerson/e030,Andres Gimeno,andres-gimeno/g075,97 16 46 63 62,Tennis Champions Classic,Other,1970.03.13,,,Round Robin
Arthur Ashe,arthur-ashe/a063,Brian Fairlie,brian-fairlie/f066,63 46 63,Jacksonville,Other,1970.03.29,,Asphalt,Finals
Arthur Ashe,arthur-ashe/a063,Onny Parun,onny-parun/p070,97 64,Jacksonville,Other,1970.03.29,,Asphalt,Semi-Finals
Brian Fairlie,brian-fairlie/f066,Clark Graebner,clark-graebner/g079,16 64 108,Jacksonville,Other,1970.03.29,,Asphalt,Semi-Finals
Arthur Ashe,arthur-ashe/a063,Nicola Spear,nicola-spear/s146,63 61,Jacksonville,Other,1970.03.29,,Asphalt,Quarter-Finals
Onny Parun,onny-parun/p070,Tom Edlefsen,tom-edlefsen/e035,1715 97,Jacksonville,Other,1970.03.29,,Asphalt,Quarter-Finals
Brian Fairlie,brian-fairlie/f066,Hans-Joachim Ploetz,hans-joachim-ploetz/p081,64 64,Jacksonville,Other,1970.03.29,,Asphalt,Quarter-Finals
Clark Graebner,clark-graebner/g079,Ray Keldie,ray-keldie/k047,26 63 62,Jacksonville,Other,1970.03.29,,Asphalt,Quarter-Finals
Arthur Ashe,arthur-ashe/a063,Gardnar Mulloy,gardnar-mulloy/m273,63 61,Jacksonville,Other,1970.03.29,,Asphalt,Round of 16
Nicola Spear,nicola-spear/s146,Lex Hester,lex-hester/h0ex,62 62,Jacksonville,Other,1970.03.29,,Asphalt,Round of 16
Onny Parun,onny-parun/p070,Ron Holmberg,ron-holmberg/h061,75 64,Jacksonville,Other,1970.03.29,,Asphalt,Round of 16
Tom Edlefsen,tom-edlefsen/e035,Szabolcz Baranyi,szabolcz-baranyi/b233,60 46 63,Jacksonville,Other,1970.03.29,,Asphalt,Round of 16
Hans-Joachim Ploetz,hans-joachim-ploetz/p081,Zeljko Franulovic,zeljko-franulovic/f074,36 108 62,Jacksonville,Other,1970.03.29,,Asphalt,Round of 16
Brian Fairlie,brian-fairlie/f066,Jim Bochte,jim-bochte/bm83,62 60,Jacksonville,Other,1970.03.29,,Asphalt,Round of 16
Ray Keldie,ray-keldie/k047,Roy Barth,roy-barth/b121,63 63,Jacksonville,Other,1970.03.29,,Asphalt,Round of 16
Clark Graebner,clark-graebner/g079,Richard Russell,richard-russell/r0di,75 63,Jacksonville,Other,1970.03.29,,Asphalt,Round of 16
Gardnar Mulloy,gardnar-mulloy/m273,Homer Shoop,,63 64,Jacksonville,Other,1970.03.29,,Asphalt,Round of 32
Lex Hester,lex-hester/h0ex,Herbert Rapp,herbert-rapp/r509,86 63,Jacksonville,Other,1970.03.29,,Asphalt,Round of 32
Ron Holmberg,ron-holmberg/h061,Lornie Kuhle,lornie-kuhle/kf28,86 26 61,Jacksonville,Other,1970.03.29,,Asphalt,Round of 32
Tom Edlefsen,tom-edlefsen/e035,Armistead Neely,armistead-neely/n043,61 26 61,Jacksonville,Other,1970.03.29,,Asphalt,Round of 32
Szabolcz Baranyi,szabolcz-baranyi/b233,Roberto Marcher,roberto-marcher/m295,63 75,Jacksonville,Other,1970.03.29,,Asphalt,Round of 32
Hans-Joachim Ploetz,hans-joachim-ploetz/p081,Chauncey Steele III,chauncey-steele-iii/s238,75 57 64,Jacksonville,Other,1970.03.29,,Asphalt,Round of 32
Zeljko Franulovic,zeljko-franulovic/f074,Lenny Schloss,lenny-schloss/s259,36 62 62,Jacksonville,Other,1970.03.29,,Asphalt,Round of 32
Jim Bochte,jim-bochte/bm83,Frank Froehling,frank-froehling/f079,63 64,Jacksonville,Other,1970.03.29,,Asphalt,Round of 32
Clark Graebner,clark-graebner/g079,Harold Solomon,harold-solomon/s065,75 62,Jacksonville,Other,1970.03.29,,Asphalt,Round of 32
Fred Stolle,fred-stolle/s129,Roy Emerson,roy-emerson/e030,75 75 64,Tennis Champions Classic,Other,1970.04.04,,,Round Robin
Ion Tiriac,ion-tiriac/t040,Istvan Gulyas,istvan-gulyas/g151,63 63 63,Catania,Other,1970.04.07,,,Finals
Istvan Gulyas,istvan-gulyas/g151,Hans Kary,hans-kary/k041,46 63 97 86,Catania,Other,1970.04.07,,,Semi-Finals
Ion Tiriac,ion-tiriac/t040,Martin Mulligan,martin-mulligan/m155,57 75 64 06 97,Catania,Other,1970.04.07,,,Semi-Finals
Hans Kary,hans-kary/k041,Ilie Nastase,ilie-nastase/n008,61 46 97,Catania,Other,1970.04.07,,,Quarter-Finals
Istvan Gulyas,istvan-gulyas/g151,Frantisek Pala,frantisek-pala/p100,64 63,Catania,Other,1970.04.07,,,Quarter-Finals
Ion Tiriac,ion-tiriac/t040,Adriano Panatta,adriano-panatta/p059,62 16 64,Catania,Other,1970.04.07,,,Quarter-Finals
Martin Mulligan,martin-mulligan/m155,Phil Dent,phil-dent/d074,46 64 1412,Catania,Other,1970.04.07,,,Quarter-Finals
Ilie Nastase,ilie-nastase/n008,John Paish,john-paish/p142,(W/O),Catania,Other,1970.04.07,,,Round of 16
Hans Kary,hans-kary/k041,Nicholas Kalogeropoulos,nicholas-kalogeropoulos/k045,64 16 63,Catania,Other,1970.04.07,,,Round of 16
Istvan Gulyas,istvan-gulyas/g151,Tadeusz Nowicki,tadeusz-nowicki/n082,61 63,Catania,Other,1970.04.07,,,Round of 16
Frantisek Pala,frantisek-pala/p100,Ezio Di Matteo,ezio-di-matteo/d135,63 62,Catania,Other,1970.04.07,,,Round of 16
Adriano Panatta,adriano-panatta/p059,Eric Drossart,eric-drossart/d134,63 61,Catania,Other,1970.04.07,,,Round of 16
Ion Tiriac,ion-tiriac/t040,Massimo Di Domenico,massimo-di-domenico/d137,64 64,Catania,Other,1970.04.07,,,Round of 16
Phil Dent,phil-dent/d074,John Clifton,john-clifton/c169,60 63,Catania,Other,1970.04.07,,,Round of 16
Martin Mulligan,martin-mulligan/m155,Mario Caimo,mario-caimo/c661,60 61,Catania,Other,1970.04.07,,,Round of 16
Ilie Nastase,ilie-nastase/n008,Stephen Warboys,stephen-warboys/w090,62 62,Catania,Other,1970.04.07,,,Round of 32
Nicholas Kalogeropoulos,nicholas-kalogeropoulos/k045,Ian Fletcher,ian-fletcher/f071,75 26 75,Catania,Other,1970.04.07,,,Round of 32
Hans Kary,hans-kary/k041,Franco Bartoni,franco-bartoni/b235,62 62,Catania,Other,1970.04.07,,,Round of 32
Istvan Gulyas,istvan-gulyas/g151,David Lloyd,david-lloyd/l083,63 62,Catania,Other,1970.04.07,,,Round of 32
Frantisek Pala,frantisek-pala/p100,Jacek Niedzwiedzki,jacek-niedzwiedzki/n083,62 64,Catania,Other,1970.04.07,,,Round of 32
Ezio Di Matteo,ezio-di-matteo/d135,Paul Hutchins,paul-hutchins/h128,97 86,Catania,Other,1970.04.07,,,Round of 32
Eric Drossart,eric-drossart/d134,Eugenio Castigliano,eugenio-castigliano/c173,63 64,Catania,Other,1970.04.07,,,Round of 32
Adriano Panatta,adriano-panatta/p059,Bob Giltinan,bob-giltinan/g074,63 62,Catania,Other,1970.04.07,,,Round of 32
Massimo Di Domenico,massimo-di-domenico/d137,Antonio Zugarelli,antonio-zugarelli/z013,61 64,Catania,Other,1970.04.07,,,Round of 32
Ion Tiriac,ion-tiriac/t040,Piero Toci,piero-toci/t086,86 62,Catania,Other,1970.04.07,,,Round of 32
John Clifton,john-clifton/c169,Tenny Svensson,tenny-svensson/s149,61 63,Catania,Other,1970.04.07,,,Round of 32
Phil Dent,phil-dent/d074,Lennart Bergelin,lennart-bergelin/b256,63 63,Catania,Other,1970.04.07,,,Round of 32
Mario Caimo,mario-caimo/c661,Witold Meres,,68 64 62,Catania,Other,1970.04.07,,,Round of 32
Martin Mulligan,martin-mulligan/m155,Kjell Johansson,kjell-johansson/j032,62 60,Catania,Other,1970.04.07,,,Round of 32
John Paish,john-paish/p142,Pietro Marzano,pietro-marzano/m224,6? 6?,Catania,Other,1970.04.07,,,Round of 32
David Lloyd,david-lloyd/l083,Vincenzo Franchitti,vincenzo-franchitti/f103,64 64,Catania,Other,1970.04.07,,,Round of 64
Pietro Marzano,pietro-marzano/m224,Wojtek Fibak,wojtek-fibak/f020,86 64,Catania,Other,1970.04.07,,,Round of 64
Frantisek Pala,frantisek-pala/p100,Hakan Zahr,hakan-zahr/z029,61 63,Catania,Other,1970.04.07,,,Round of 64
Jacek Niedzwiedzki,jacek-niedzwiedzki/n083,Vittorio Crotta,vittorio-crotta/c123,63 64,Catania,Other,1970.04.07,,,Round of 64
Ezio Di Matteo,ezio-di-matteo/d135,Augello,,62 62,Catania,Other,1970.04.07,,,Round of 64
Paul Hutchins,paul-hutchins/h128,Gianni Capozza,gianni-capozza/c700,64 61,Catania,Other,1970.04.07,,,Round of 64
Eric Drossart,eric-drossart/d134,Francesco Giordano,francesco-giordano/g533,26 62 63,Catania,Other,1970.04.07,,,Round of 64
Bob Giltinan,bob-giltinan/g074,Paolo Bertolucci,paolo-bertolucci/b129,63 64,Catania,Other,1970.04.07,,,Round of 64
Antonio Zugarelli,antonio-zugarelli/z013,Syd Ball,syd-ball/b106,64 75,Catania,Other,1970.04.07,,,Round of 64
Tom Okker,tom-okker/o032,Fred Stolle,fred-stolle/s129,63 63 26 61,Tennis Champions Classic,Other,1970.04.11,,,Round Robin
Georges Goven,georges-goven/g031,Jean-Loup Rouyer,jean-loup-rouyer/r141,26 61 61 60,Nice,Other,1970.04.12,,Clay,Finals
Jean-Loup Rouyer,jean-loup-rouyer/r141,Jean-Claude Barclay,jean-claude-barclay/b119,26 62 61,Nice,Other,1970.04.12,,Clay,Semi-Finals
Georges Goven,georges-goven/g031,Patrick Proisy,patrick-proisy/p085,75 64,Nice,Other,1970.04.12,,Clay,Semi-Finals
Patrick Proisy,patrick-proisy/p085,Karl Meiler,karl-meiler/m055,64 68 64,Nice,Other,1970.04.12,,Clay,Quarter-Finals
Georges Goven,georges-goven/g031,Bernard Montrenaud,bernard-montrenaud/m279,62 63,Nice,Other,1970.04.12,,Clay,Quarter-Finals
Jean-Claude Barclay,jean-claude-barclay/b119,Jean-Baptiste Chanfreau,jean-baptiste-chanfreau/c083,68 63 63,Nice,Other,1970.04.12,,Clay,Quarter-Finals
Jean-Loup Rouyer,jean-loup-rouyer/r141,Patrice Beust,patrice-beust/b229,64 60,Nice,Other,1970.04.12,,Clay,Quarter-Finals
Jean-Baptiste Chanfreau,jean-baptiste-chanfreau/c083,Barry Phillips-Moore,barry-phillips-moore/p078,62 108,Nice,Other,1970.04.12,,Clay,Round of 16
Jean-Claude Barclay,jean-claude-barclay/b119,Wanaro N'Godrella,wanaro-n'godrella/n045,64 62,Nice,Other,1970.04.12,,Clay,Round of 16
Jean-Loup Rouyer,jean-loup-rouyer/r141,Antonio Munoz,antonio-munoz/m156,75 63,Nice,Other,1970.04.12,,Clay,Round of 16
Patrice Beust,patrice-beust/b229,Jean-Paul Meyer,jean-paul-meyer/m280,62 57 64,Nice,Other,1970.04.12,,Clay,Round of 16
Patrick Proisy,patrick-proisy/p085,Wieslaw Gasiorek,wieslaw-gasiorek/g152,60 86,Nice,Other,1970.04.12,,Clay,Round of 16
Georges Goven,georges-goven/g031,Hans-Jurgen Pohmann,hans-jurgen-pohmann/p082,46 61 64,Nice,Other,1970.04.12,,Clay,Round of 16
Bernard Montrenaud,bernard-montrenaud/m279,Jurgen Fassbender,jurgen-fassbender/f068,57 63 108,Nice,Other,1970.04.12,,Clay,Round of 16
Karl Meiler,karl-meiler/m055,Daniel Contet,daniel-contet/c170,62 86,Nice,Other,1970.04.12,,Clay,Round of 16
Barry Phillips-Moore,barry-phillips-moore/p078,Dick R. Bohrnstedt,dick-r.-bohrnstedt/b238,63 61,Nice,Other,1970.04.12,,Clay,Round of 32
Jean-Claude Barclay,jean-claude-barclay/b119,Miecyslav Rybarczyk,miecyslav-rybarczyk/r142,64 75,Nice,Other,1970.04.12,,Clay,Round of 32
Wanaro N'Godrella,wanaro-n'godrella/n045,Stepan Koudelka,stepan-koudelka/k098,62 64,Nice,Other,1970.04.12,,Clay,Round of 32
Antonio Munoz,antonio-munoz/m156,Geza Varga,geza-varga/v103,61 36 62,Nice,Other,1970.04.12,,Clay,Round of 32
Patrice Beust,patrice-beust/b229,Patrick Hombergen,patrick-hombergen/h127,46 63 64,Nice,Other,1970.04.12,,Clay,Round of 32
Jean-Paul Meyer,jean-paul-meyer/m280,Peter Pokorny,peter-pokorny/p143,61 16 60,Nice,Other,1970.04.12,,Clay,Round of 32
Hans-Jurgen Pohmann,hans-jurgen-pohmann/p082,Patrice Dominguez,patrice-dominguez/d080,61 61,Nice,Other,1970.04.12,,Clay,Round of 32
Patrick Proisy,patrick-proisy/p085,Sever Dron,sever-dron/d116,75 63,Nice,Other,1970.04.12,,Clay,Round of 32
Jurgen Fassbender,jurgen-fassbender/f068,Jeff Simpson,jeff-simpson/s123,86 86,Nice,Other,1970.04.12,,Clay,Round of 32
Jean-Loup Rouyer,jean-loup-rouyer/r141,Geoff Masters,geoff-masters/m139,60 57 62,Nice,Other,1970.04.12,,Clay,Round of 32
Bernard Montrenaud,bernard-montrenaud/m279,Robert Machan,robert-machan/m194,64 46 63,Nice,Other,1970.04.12,,Clay,Round of 32
Wieslaw Gasiorek,wieslaw-gasiorek/g152,Mathias Werren,mathias-werren/w117,61 63,Nice,Other,1970.04.12,,Clay,Round of 32
Georges Goven,georges-goven/g031,John Bartlett,john-bartlett/b123,64 61,Nice,Other,1970.04.12,,Clay,Round of 32
Patrice Beust,patrice-beust/b229,Milodrag Mijuca,,61 62,Nice,Other,1970.04.12,,Clay,Round of 64
Geza Varga,geza-varga/v103,Elwyn McCabe,elwyn-mccabe/mo82,61 62,Nice,Other,1970.04.12,,Clay,Round of 64
Jean-Loup Rouyer,jean-loup-rouyer/r141,Pericles Gavrilidis,,41 (RET),Nice,Other,1970.04.12,,Clay,Round of 64
Wanaro N'Godrella,wanaro-n'godrella/n045,Hansjorg Elzer,hansjorg-elzer/e215,61 36 60,Nice,Other,1970.04.12,,Clay,Round of 64
Stepan Koudelka,stepan-koudelka/k098,Steve Fiske,steve-fiske/f405,1113 64 63,Nice,Other,1970.04.12,,Clay,Round of 64
Miecyslav Rybarczyk,miecyslav-rybarczyk/r142,Ove Nils Bengtson,ove-nils-bengtson/b126,60 60,Nice,Other,1970.04.12,,Clay,Round of 64
Bertalan Csoknyai,bertalan-csoknyai/c227,Eduardo Zuleta,eduardo-zuleta/z027,63 63,Nice,Other,1970.04.12,,Clay,Round of 64
Jean-Baptiste Chanfreau,jean-baptiste-chanfreau/c083,Boris Breskvar,boris-breskvar/b846,61 62,Nice,Other,1970.04.12,,Clay,Round of 64
Barry Phillips-Moore,barry-phillips-moore/p078,Epaminondas Argyriou,,61 61,Nice,Other,1970.04.12,,Clay,Round of 64
Karl Meiler,karl-meiler/m055,Thierry Bernasconi,thierry-bernasconi/b261,64 64,Nice,Other,1970.04.12,,Clay,Round of 64
Sever Dron,sever-dron/d116,Claude De Gronckel,claude-de-gronckel/d124,86 62,Nice,Other,1970.04.12,,Clay,Round of 64
Patrick Proisy,patrick-proisy/p085,Hans Nerell,hans-nerell/n066,36 63 61,Nice,Other,1970.04.12,,Clay,Round of 64
Mathias Werren,mathias-werren/w117,Bob Howe,bob-howe/h130,86 36 61,Nice,Other,1970.04.12,,Clay,Round of 64
Bernard Montrenaud,bernard-montrenaud/m279,Steven Turner,steven-turner/t053,16 63 61,Nice,Other,1970.04.12,,Clay,Round of 64
Jeff Simpson,jeff-simpson/s123,Alain Bouteleux,alain-bouteleux/b821,68 75 60,Nice,Other,1970.04.12,,Clay,Round of 64
Patrice Dominguez,patrice-dominguez/d080,Andres Tielemans,andres-tielemans/t117,64 64,Nice,Other,1970.04.12,,Clay,Round of 64
Hans-Jurgen Pohmann,hans-jurgen-pohmann/p082,Georges Deniau,georges-deniau/d163,108 57 75,Nice,Other,1970.04.12,,Clay,Round of 64
Georges Goven,georges-goven/g031,Zlatko Ivancic,zlatko-ivancic/i020,86 64,Nice,Other,1970.04.12,,Clay,Round of 64
Geoff Masters,geoff-masters/m139,Jean Lovera,jean-lovera/l139,46 97 75,Nice,Other,1970.04.12,,Clay,Round of 64
Daniel Contet,daniel-contet/c170,Thedy Stalder,thedy-stalder/sa22,60 64,Nice,Other,1970.04.12,,Clay,Round of 64
Ken Rosewall,ken-rosewall/r075,John Newcombe,john-newcombe/n044,57 75 61 62,Tennis Champions Classic,Other,1970.05.21,,,Round Robin
Rod Laver,rod-laver/l058,Andres Gimeno,andres-gimeno/g075,46 46 61 63 62,Tennis Champions Classic,Other,1970.05.21,,,Round Robin
Rod Laver,rod-laver/l058,Tony Roche,tony-roche/r073,62 64 62,Tennis Champions Classic,Other,1970.05.21,,,Round Robin
Ken Rosewall,ken-rosewall/r075,Tom Okker,tom-okker/o032,62 64 62,Tennis Champions Classic,Other,1970.05.28,,,Round Robin
Tom Okker,tom-okker/o032,Tony Roche,tony-roche/r073,63 36 75 36 64,Tennis Champions Classic,Other,1970.05.28,,,Round Robin
Ken Rosewall,ken-rosewall/r075,Fred Stolle,fred-stolle/s129,57 60 64 64,Tennis Champions Classic,Other,1970.05.28,,,Round Robin
Rod Laver,rod-laver/l058,Richard Pancho Gonzales,richard-pancho-gonzales/g077,63 63 61,Tennis Champions Classic,Other,1970.06.02,,,Semi-Finals
Ken Rosewall,ken-rosewall/r075,Roy Emerson,roy-emerson/e030,46 61 64 46 75,Tennis Champions Classic,Other,1970.06.05,,,Semi-Finals
Rod Laver,rod-laver/l058,Ken Rosewall,ken-rosewall/r075,64 63 63,Tennis Champions Classic,Other,1970.07.16,,,Finals
Jan Kukal,jan-kukal/k099,Franco Bartoni,franco-bartoni/b235,119 63 97,Senigallia,Other,1970.08.09,,,Finals
Jan Kukal,jan-kukal/k099,Frantisek Pala,frantisek-pala/p100,63 61,Senigallia,Other,1970.08.09,,,Semi-Finals
Franco Bartoni,franco-bartoni/b235,Bob Giltinan,bob-giltinan/g074,86 46 60,Senigallia,Other,1970.08.09,,,Semi-Finals
Frantisek Pala,frantisek-pala/p100,Patricio Rodriguez,patricio-rodriguez/r074,75 60,Senigallia,Other,1970.08.09,,,Quarter-Finals
Jan Kukal,jan-kukal/k099,Sergio Palmieri,sergio-palmieri/p170,36 64 61,Senigallia,Other,1970.08.09,,,Quarter-Finals
Bob Giltinan,bob-giltinan/g074,Jaime Pinto-Bravo,jaime-pinto-bravo/p067,97 63,Senigallia,Other,1970.08.09,,,Quarter-Finals
Franco Bartoni,franco-bartoni/b235,Bernard Montrenaud,bernard-montrenaud/m279,62 62,Senigallia,Other,1970.08.09,,,Quarter-Finals
Patricio Rodriguez,patricio-rodriguez/r074,Ian Fletcher,ian-fletcher/f071,61 64,Senigallia,Other,1970.08.09,,,Round of 16
Frantisek Pala,frantisek-pala/p100,Ezio Di Matteo,ezio-di-matteo/d135,64 60,Senigallia,Other,1970.08.09,,,Round of 16
Jan Kukal,jan-kukal/k099,John Bartlett,john-bartlett/b123,60 62,Senigallia,Other,1970.08.09,,,Round of 16
Sergio Palmieri,sergio-palmieri/p170,Massimo Di Domenico,massimo-di-domenico/d137,61 36 62,Senigallia,Other,1970.08.09,,,Round of 16
Bob Giltinan,bob-giltinan/g074,Pietro Marzano,pietro-marzano/m224,63 63,Senigallia,Other,1970.08.09,,,Round of 16
Jaime Pinto-Bravo,jaime-pinto-bravo/p067,Vittorio Crotta,vittorio-crotta/c123,97 63,Senigallia,Other,1970.08.09,,,Round of 16
Franco Bartoni,franco-bartoni/b235,Jose Cordon,jose-cordon/c801,60 63,Senigallia,Other,1970.08.09,,,Round of 16
Bernard Montrenaud,bernard-montrenaud/m279,Martin Mulligan,martin-mulligan/m155,64 36 63,Senigallia,Other,1970.08.09,,,Round of 16
Ian Fletcher,ian-fletcher/f071,Fabrizio Belli,,06 97 75,Senigallia,Other,1970.08.09,,,Round of 32
Ezio Di Matteo,ezio-di-matteo/d135,Mel Baleson,mel-baleson/b809,62 63,Senigallia,Other,1970.08.09,,,Round of 32
Jan Kukal,jan-kukal/k099,Cesare Guercilena,cesare-guercilena/gg12,61 60,Senigallia,Other,1970.08.09,,,Round of 32
John Bartlett,john-bartlett/b123,Eugenio Castigliano,eugenio-castigliano/c173,60 63,Senigallia,Other,1970.08.09,,,Round of 32
Massimo Di Domenico,massimo-di-domenico/d137,Lance Lumsden,lance-lumsden/l121,75 46 63,Senigallia,Other,1970.08.09,,,Round of 32
Sergio Palmieri,sergio-palmieri/p170,Piero Toci,piero-toci/t086,63 63,Senigallia,Other,1970.08.09,,,Round of 32
Pietro Marzano,pietro-marzano/m224,Giorgio Bologna,giorgio-bologna/b840,97 61,Senigallia,Other,1970.08.09,,,Round of 32
Bob Giltinan,bob-giltinan/g074,Giuseppe Merlo,giuseppe-merlo/m276,64 62,Senigallia,Other,1970.08.09,,,Round of 32
Vittorio Crotta,vittorio-crotta/c123,Gerry Perry,gerry-perry/p596,64 64,Senigallia,Other,1970.08.09,,,Round of 32
Bernard Montrenaud,bernard-montrenaud/m279,Mario Caimo,mario-caimo/c661,79 75 (RET),Senigallia,Other,1970.08.09,,,Round of 32
Piero Toci,piero-toci/t086,William Alvarez,william-alvarez/a121,46 63 64,Senigallia,Other,1970.08.09,,,Round of 64
Giorgio Bologna,giorgio-bologna/b840,Eric Drossart,eric-drossart/d134,62 26 63,Senigallia,Other,1970.08.09,,,Round of 64
