"nameCol","idCol","salaryCol","positionCol","dvpCol","ouCol","mpgCol","paceCol","usgCol","pminCol","ceilCol","floorCol","pointsCol","predictCol","actualCol"
"Tomas Satoransky ","Tomas-Satoransky--36031","3500","PG/SG","52.68","212.5","27.1","103.80","13.66","36.00","54.69","26.92","35.24","0","0"
"Channing Frye","Channing-Frye-1484","3100","PF/C","51.76","202","8.6","103.60","24.48","23.00","42.92","18.7","21.92","0","0"
"Dennis Schroder","Dennis-Schroder-18595","5300","PG/SG","53.30","225.5","0","102.62","0","36.00","56.94","29.35","37.34","0","0"
"Jeff Green","Jeff-Green-1314","4100","SF/PF","48.16","212.5","0","103.80","0","32.00","38.72","20.6","27.21","0","0"
"DeMarre Carroll","DeMarre-Carroll-1174","3700","SF/PF","38.35","220.5","24.4","114.62","17.94","24.00","40.66","19.31","24.23","0","0"
"Robin Lopez","Robin-Lopez-1466","3200","C","55.97","212.5","0","104.50","0","20.00","41.84","20.93","20.93","0","0"
"Davis Bertans","Davis-Bertans-36051","3500","PF/C","54.47","216","21.3","99.70","13.00","25.00","35.57","17.91","22.36","0","0"
"Josh Hart","Josh-Hart-37889","4200","PG/SG","0","229","0","112.50","0","32.00","36.73","18.54","26.71","0","0"
"Dewayne Dedmon","Dewayne-Dedmon-16894","5500","PF/C","50.41","229.5","28.3","105.10","18.22","32.00","49.29","20.85","34.86","0","0"
"Dorian Finney-Smith","Dorian-Finney-Smith-36032","3400","SF/PF","42.61","228.5","20.5","100.08","11.36","29.00","33.36","16.88","21.4","0","0"
"Danny Green","Danny-Green-940","4400","SG/SF","35.15","208","31.6","105.50","15.35","33.00","38.54","18.89","27.18","0","0"
"Ian Mahinmi","Ian-Mahinmi-1357","3500","C","55.77","212.5","0","103.80","0","20.00","38.7","19.3","21.37","0","0"
"Evan Fournier","Evan-Fournier-13913","5400","SG/SF","37.02","208","0","105.10","0","33.00","41.56","16.92","32.8","0","0"
"James Johnson","James-Johnson-1195","4400","SF/PF","0","202","23.0","106.90","16.63","27.00","34.89","13.71","26.51","0","0"
"Hamidou Diallo","Hamidou-Diallo-408800","3100","SG/SF","0","225.5","10.7","102.62","19.76","24.00","19.76","4.55","18.66","0","0"
"Nikola Jokic","Nikola-Jokic-31812","8800","C","0","216","0","99.62","0","35.00","67.31","21.87","52.96","0","0"
"Kevin Huerter","Kevin-Huerter-408969","4200","SG/SF","0","229.5","31.8","105.10","15.86","32.00","23.74","2.82","25.15","0","0"
"Lonzo Ball","Lonzo-Ball-37885","5900","PG","43.21","229","31.4","112.50","19.63","36.00","46.94","17.82","35.29","0","0"
"Aaron Gordon","Aaron-Gordon-18601","6500","SF/PF","45.72","208","34.0","105.10","18.00","35.00","49.86","21.17","38.77","0","0"
"Fred VanVleet","Fred-VanVleet-36011","5600","PG/SG","36.64","208","0","105.50","0","34.00","45.49","19.91","33.3","0","0"
"Josh Jackson","Josh-Jackson-37890","4400","SF/PF","0","225.5","0","108.80","0","24.00","36.46","16.8","26.12","0","0"
"Tyreke Evans","Tyreke-Evans-1070","3800","SG/SF","42.02","205.5","15.5","107.67","29.14","19.00","30.14","12.24","22.59","0","0"
"Trevor Ariza","Trevor-Ariza-1323","5600","SF/PF","39.27","212.5","38.6","103.80","18.27","38.00","43.61","16.74","33.14","0","0"
"Mason Plumlee","Mason-Plumlee-16798","5200","PF/C","0","216","27.2","99.62","16.37","30.00","43.81","21.78","30.68","0","0"
"Patrick Beverley","Patrick-Beverley-14108","3800","PG/SG","35.60","229","0","108.38","0","23.00","42.6","22.28","22.28","0","0"
"Serge Ibaka","Serge-Ibaka-1294","5700","PF/C","50.18","208","0","105.50","0","30.00","47.37","19.89","33.31","0","0"
"E'Twaun Moore","E'Twaun-Moore-18582","4000","SG/SF","0","228.5","29.2","104.88","15.15","30.00","36.98","19.17","23.26","0","0"
"Andrew Wiggins","Andrew-Wiggins-18620","5800","SG/SF","52.01","229.5","0","100.67","0","34.00","44.1","19.2","33.69","0","0"
"Shaquille Harrison","Shaquille-Harrison-36065","3300","PG","46.76","212.5","20.0","104.50","14.53","22.00","30.41","14.93","19.04","0","0"
"Jamal Murray","Jamal-Murray-35211","6600","PG/SG","51.64","216","0","99.62","0","35.00","55.54","22.83","37.99","0","0"
"Sam Dekker","Sam-Dekker-18929","3400","SF/PF","39.27","212.5","17.0","103.80","19.82","22.00","32.76","16.52","19.57","0","0"
"Julius Randle","Julius-Randle-18632","7900","PF/C","52.92","228.5","0","104.88","0","34.00","62.48","26.1","45.47","0","0"
"Terrance Ferguson","Terrance-Ferguson-37871","3100","SG/SF","0","225.5","18.3","102.62","11.55","30.00","28.36","11.08","17.79","0","0"
"Kelly Oubre","Kelly-Oubre-18925","4600","SG/SF","38.34","225.5","0","108.80","0","28.00","46.11","21.43","26.2","0","0"
"Jeremy Lin","Jeremy-Lin-916","3800","PG/SG","51.98","229.5","18.3","105.10","25.64","20.00","33.58","16.76","21.54","0","0"
"Delon Wright","Delon-Wright-18907","3600","PG/SG","36.64","208","23.5","105.50","16.35","24.00","33.48","16.23","20.34","0","0"
"Kentavious Caldwell-Pope","Kentavious-Caldwell-Pope-16869","3800","SG/SF","0","229","0","112.50","0","26.00","40.86","21.44","21.44","0","0"
"Rudy Gay","Rudy-Gay-1341","5700","SF/PF","0","216","0","99.70","0","28.00","41.55","16.05","32.16","0","0"
"Nikola Vucevic","Nikola-Vucevic-13296","8200","C","53.83","208","0","105.10","0","34.00","57.89","21.36","46.13","0","0"
"Chandler Hutchison","Chandler-Hutchison-408877","3000","SF/PF","35.98","212.5","0","104.50","0","22.00","17.81","4.1","16.82","0","0"
"Mikal Bridges","Mikal-Bridges-408842","4100","SG/SF","38.34","225.5","34.7","108.80","10.20","32.00","26.22","7.12","22.96","0","0"
"Cedi Osman","Cedi-Osman-18912","4200","SF/PF","37.25","202","31.0","103.60","15.89","33.00","29.43","10.89","23.51","0","0"
"Patty Mills","Patty-Mills-13977","3300","PG/SG","0","216","20.5","99.70","15.66","21.00","28.08","14.43","18.41","0","0"
"Terrence Ross","Terrence-Ross-13902","4100","SG/SF","37.02","208","0","105.10","0","28.00","35.24","19.39","22.78","0","0"
"Hassan Whiteside","Hassan-Whiteside-18664","7100","C","48.30","202","25.2","106.90","23.40","27.00","49.48","18.61","39.27","0","0"
"DeAndre Bembry","DeAndre-Bembry-35198","3600","SG/SF","0","229.5","22.5","105.10","15.35","23.00","29.47","16.7","19.86","0","0"
"Jerami Grant","Jerami-Grant-18576","4800","PF","49.61","225.5","0","102.62","0","32.00","41.19","18.91","26.49","0","0"
"Rodions Kurucs","Rodions-Kurucs-408801","5200","SF/PF","0","220.5","28.7","114.62","15.94","32.00","33.57","10.55","28.67","0","0"
"Nicolas Batum","Nicolas-Batum-1315","4400","SG/SF","0","220.5","32.7","103.00","12.77","30.00","33.54","17.41","24.25","0","0"
"Jonathan Isaac","Jonathan-Isaac-37841","3700","SF/PF","53.83","208","0","105.10","0","26.00","32.38","15.58","20.34","0","0"
"Russell Westbrook","Russell-Westbrook-1083","10900","PG","53.30","225.5","0","102.62","0","38.00","66.42","20.43","59.73","0","0"
"De'Anthony Melton","De'Anthony-Melton-409081","3500","PG","48.63","225.5","0","108.80","0","20.00","21.86","5.93","19.14","0","0"
"Harrison Barnes","Harrison-Barnes-13901","5600","SF/PF","0","228.5","0","100.08","0","34.00","39.01","17.7","30.62","0","0"
"Justin Holiday","Justin-Holiday-14559","4900","SG/SF","41.72","212.5","0","104.50","0","34.00","38.76","17.91","26.73","0","0"
"Darren Collison","Darren-Collison-1060","4600","PG","43.25","205.5","25.6","107.67","15.86","27.00","33.67","15.35","25","0","0"
"Juan Hernangomez","Juan-Hernangomez-35212","4800","SF/PF","0","216","0","99.62","0","33.00","43.29","17.5","26.08","0","0"
"LaMarcus Aldridge","LaMarcus-Aldridge-1349","7000","PF/C","54.47","216","0","99.70","0","33.00","54.7","24.79","37.96","0","0"
"Pascal Siakam","Pascal-Siakam-35186","6200","PF/C","0","208","33.0","105.50","21.06","34.00","49.72","19.1","33.57","0","0"
"Robert Covington","Robert-Covington-16874","6200","SF/PF","0","229.5","0","100.67","0","34.00","46.59","21.86","33.28","0","0"
"Steven Adams","Steven-Adams-16848","6800","C","0","225.5","0","102.62","0","34.00","48.08","24.02","36.51","0","0"
"Derrick Rose","Derrick-Rose-1086","7100","PG/SG","56.12","229.5","0","100.67","0","33.00","50.62","18.89","38.09","0","0"
"Bradley Beal","Bradley-Beal-13898","7800","SG","0","212.5","39.1","103.80","27.86","38.00","65.19","28.58","41.84","0","0"
"Maxi Kleber","Maxi-Kleber-37845","3400","PF/C","0","228.5","0","100.08","0","21.00","28.46","11.76","18.23","0","0"
"Jaron Blossomgame","Jaron-Blossomgame-570197","3400","SF/PF","37.25","202","0","103.60","0","28.00","19.27","4.44","18.2","0","0"
"Domantas Sabonis","Domantas-Sabonis-35217","6200","PF/C","51.86","205.5","24.6","107.67","24.48","25.00","49.11","25.88","33.18","0","0"
"Kawhi Leonard","Kawhi-Leonard-13310","9200","SF/PF","47.33","208","0","105.50","0","35.00","65.48","23.92","49.01","0","0"
"Dwyane Wade","Dwyane-Wade-967","5000","PG/SG","51.83","202","0","106.90","0","24.00","37.17","17.51","26.49","0","0"
"Alec Burks","Alec-Burks-13353","4600","PG/SG","0","202","26.9","103.60","20.09","29.00","34.31","17.89","24.4","0","0"
"Trey Lyles","Trey-Lyles-18942","3700","SF/PF","0","216","19.0","99.62","20.08","18.00","30.8","16.24","19.59","0","0"
"Justise Winslow","Justise-Winslow-18921","5800","PG/SF","37.28","202","25.4","106.90","21.22","31.00","47.31","17.37","30.64","0","0"
"Karl-Anthony Towns","Karl-Anthony-Towns-18937","9600","C","58.10","229.5","31.3","100.67","25.73","35.00","68.34","28.85","50.7","0","0"
"Reggie Bullock","Reggie-Bullock-16943","4300","SG/SF","0","205.5","35.2","100.30","15.91","34.00","36.4","15.45","22.68","0","0"
"Joe Harris","Joe-Harris-18587","4900","SG/SF","38.38","220.5","32.0","114.62","17.02","31.00","37.59","17.2","25.75","0","0"
"TJ Warren","TJ-Warren-18634","6300","SF/PF","0","225.5","0","108.80","0","33.00","43.53","18.94","33.05","0","0"
"Kent Bazemore","Kent-Bazemore-13987","6100","SG/SF","46.20","229.5","0","105.10","0","32.00","45.96","15.27","31.94","0","0"
"Wendell Carter","Wendell-Carter-408878","4800","PF/C","0","212.5","0","104.50","0","25.00","29.42","9.24","25.12","0","0"
"Dennis Smith Jr.","Dennis-Smith-Jr.-37847","5000","PG","51.25","228.5","27.0","100.08","16.79","28.00","35.95","14.43","26.09","0","0"
"D.J. Augustin","D.J.-Augustin-1064","4500","PG","0","208","0","105.10","0","30.00","37.38","13.56","23.38","0","0"
"Willy Hernangomez","Willy-Hernangomez-18901","4000","C","63.06","220.5","0","103.00","0","16.00","37.86","20.11","20.77","0","0"
"Blake Griffin","Blake-Griffin-1503","8400","PF/C","54.96","205.5","0","100.30","0","35.00","55.28","20.03","43.63","0","0"
"Taj Gibson","Taj-Gibson-1277","4400","PF/C","56.97","229.5","0","100.67","0","25.00","31.06","12.69","22.79","0","0"
"Jared Dudley","Jared-Dudley-1319","3200","SF/PF","38.35","220.5","0","114.62","0","22.00","29.39","14.48","16.55","0","0"
"Devin Booker","Devin-Booker-18949","8500","PG/SG","48.63","225.5","38.7","108.80","33.48","34.00","65.31","23.88","43.98","0","0"
"Andre Drummond","Andre-Drummond-13904","8600","C","0","205.5","34.7","100.30","20.63","33.00","53.96","20.49","44.34","0","0"
"Marvin Williams","Marvin-Williams-1318","5300","SF/PF","47.72","220.5","31.0","103.00","14.78","30.00","45.55","23.27","27.34","0","0"
"Jordan Clarkson","Jordan-Clarkson-18631","6000","PG/SG","0","202","0","103.60","0","31.00","51.74","29.9","30.98","0","0"
"Derrick White","Derrick-White-37858","3800","PG/SG","0","216","24.5","99.70","15.85","28.00","31.27","16.27","19.51","0","0"
"John Collins","John-Collins-37823","7700","PF/C","50.41","229.5","29.2","105.10","27.26","33.00","61.52","24.47","39.41","0","0"
"Ed Davis","Ed-Davis-1265","3500","PF/C","0","220.5","18.0","114.62","13.42","18.00","30.06","13.23","17.88","0","0"
"Michael Kidd-Gilchrist","Michael-Kidd-Gilchrist-13896","3500","SF/PF","0","220.5","16.3","103.00","21.79","20.00","29.6","15.24","17.84","0","0"
"Deandre Ayton","Deandre-Ayton-409301","7300","C","49.33","225.5","31.7","108.80","21.68","32.00","42.52","11.54","37.23","0","0"
"Anthony Davis","Anthony-Davis-13895","11600","PF/C","52.92","228.5","35.8","104.88","30.66","37.00","85.96","30.82","59.16","0","0"
"Brandon Ingram","Brandon-Ingram-35227","6300","PG/SG","0","229","0","112.50","0","35.00","48.31","19.75","31.95","0","0"
"Lance Stephenson","Lance-Stephenson-947","4400","SG/SF","0","229","0","112.50","0","22.00","37.83","17.77","22.29","0","0"
"Cody Zeller","Cody-Zeller-16836","4500","C","63.06","220.5","0","103.00","0","23.00","32.86","12.82","22.82","0","0"
"Darius Miller","Darius-Miller-13951","3900","SF/PF","0","228.5","32.8","104.88","14.70","32.00","31.62","16.48","19.76","0","0"
"Langston Galloway","Langston-Galloway-18717","3500","PG/SG","0","205.5","21.8","100.30","19.87","23.00","30.71","14.76","17.76","0","0"
"Rondae Hollis-Jefferson","Rondae-Hollis-Jefferson-18897","5300","PF/C","0","220.5","28.0","114.62","22.46","26.00","41.68","16.81","26.77","0","0"
"Shai Gilgeous-Alexander","Shai-Gilgeous-Alexander-408990","4400","PG/SG","35.60","229","27.0","108.38","15.53","26.00","25.97","8.16","22.18","0","0"
"Pau Gasol","Pau-Gasol-1502","3500","C","54.47","216","0","99.70","0","15.00","17.52","17.52","17.52","0","0"
"Zach LaVine","Zach-LaVine-18622","6500","PG/SG","55.91","212.5","26.0","104.50","31.91","30.00","44.65","19.77","32.57","0","0"
"OG Anunoby","OG-Anunoby-37807","3500","SF/PF","35.15","208","0","105.50","0","24.00","32.8","17.42","17.42","0","0"
"Tim Frazier","Tim-Frazier-18743","4200","PG/SG","41.04","228.5","18.6","104.88","16.78","23.00","33.24","14.34","20.93","0","0"
"Victor Oladipo","Victor-Oladipo-16807","8300","PG/SG","54.29","205.5","34.3","107.67","25.82","33.00","57.35","26.51","41.17","0","0"
"Marco Belinelli","Marco-Belinelli-1033","3600","SG/SF","0","216","0","99.70","0","22.00","25.51","12.51","17.84","0","0"
"Tobias Harris","Tobias-Harris-13332","7600","SF/PF","44.57","229","33.8","108.38","23.83","34.00","50.51","20.78","37.58","0","0"
"Josh Okogie","Josh-Okogie-409174","3700","SG/SF","52.01","229.5","21.2","100.67","15.72","23.00","18.46","3.29","18.19","0","0"
"Danilo Gallinari","Danilo-Gallinari-1329","6700","SF/PF","44.57","229","31.0","108.38","25.28","32.00","47.04","19.37","32.99","0","0"
"Kris Dunn","Kris-Dunn-35215","6900","PG/SG","55.91","212.5","0","104.50","0","32.00","47.19","16.88","33.9","0","0"
"Lauri Markkanen","Lauri-Markkanen-37809","7200","PF","49.39","212.5","32.7","104.50","23.04","32.00","50.83","22.88","35.25","0","0"
"Trae Young","Trae-Young-409063","6400","PG","51.98","229.5","0","105.10","0","29.00","29.6","3.51","31.36","0","0"
"Jeremy Lamb","Jeremy-Lamb-13955","6100","SG/SF","43.91","220.5","34.7","103.00","20.93","30.00","41.1","17.76","29.85","0","0"
"Jamal Crawford","Jamal-Crawford-1075","3400","PG/SG","0","225.5","0","108.80","0","20.00","29.0","16.59","16.59","0","0"
"Josh Richardson","Josh-Richardson-18922","7400","SG/SF","51.83","202","0","106.90","0","35.00","53.67","21.18","36.14","0","0"
"Jarrett Allen","Jarrett-Allen-37794","5500","C","0","220.5","0","114.62","0","26.00","37.08","16.11","26.85","0","0"
"Matthew Dellavedova","Matthew-Dellavedova-16839","3700","PG/SG","0","202","0","103.60","0","18.00","30.72","16.73","18.03","0","0"
"Rodney McGruder","Rodney-McGruder-16850","3500","SG/SF","37.14","202","21.6","106.90","14.51","22.00","26.43","10.61","17","0","0"
"Dario Saric","Dario-Saric-36004","4700","PF","53.29","229.5","24.3","100.67","19.03","23.00","38.38","18.56","22.86","0","0"
"Kemba Walker","Kemba-Walker-13335","9100","PG","0","220.5","34.7","103.00","28.58","35.00","58.71","21.98","44.04","0","0"
"Stanley Johnson","Stanley-Johnson-18913","3400","SF/PF","0","205.5","18.2","100.30","20.30","21.00","27.78","13.53","16.44","0","0"
"Malik Monk","Malik-Monk-37827","3200","PG/SG","0","220.5","0","103.00","0","18.00","23.73","12.75","15.45","0","0"
"Avery Bradley","Avery-Bradley-941","3900","SG","0","229","0","108.38","0","30.00","28.1","12.31","18.82","0","0"
"D'Angelo Russell","D'Angelo-Russell-18947","7000","PG/SG","52.32","220.5","29.0","114.62","30.57","30.00","46.95","16.82","33.78","0","0"
"Torrey Craig","Torrey-Craig-37861","3700","SG/SF","38.35","216","30.8","99.62","11.94","27.00","24.9","10.52","17.8","0","0"
"Jahlil Okafor","Jahlil-Okafor-18902","3300","C","48.45","228.5","14.8","104.88","22.11","16.00","27.07","13.37","15.82","0","0"
"Gorgui Dieng","Gorgui-Dieng-16939","3400","PF/C","56.97","229.5","0","100.67","0","15.00","24.5","11.9","16.26","0","0"
"Reggie Jackson","Reggie-Jackson-13352","5100","PG/SG","47.58","205.5","0","100.30","0","28.00","33.57","13.03","24.31","0","0"
"Jrue Holiday","Jrue-Holiday-1073","8900","PG/SG","0","228.5","0","104.88","0","37.00","56.86","19.87","42.37","0","0"
"Thaddeus Young","Thaddeus-Young-1289","5700","SF/PF","44.68","205.5","0","107.67","0","31.00","38.48","14.48","27.12","0","0"
"DeMar DeRozan","DeMar-DeRozan-1053","8100","SG/SF","45.26","216","0","99.70","0","34.00","51.49","17.96","38.14","0","0"
"Nerlens Noel","Nerlens-Noel-18575","3200","C","0","225.5","13.0","102.62","11.12","14.00","25.17","12.82","15.07","0","0"
"Bryn Forbes","Bryn-Forbes-36052","4200","PG/SG","50.17","216","0","99.70","0","28.00","28.17","11.86","19.51","0","0"
"Chasson Randle","Chasson-Randle-36002","3200","PG/SG","52.68","212.5","13.8","103.80","19.40","18.00","24.0","12.12","14.89","0","0"
"DeAndre Jordan","DeAndre-Jordan-1486","6800","C","0","228.5","0","100.08","0","32.00","39.13","18.97","31.56","0","0"
"Bruce Brown","Bruce-Brown-408913","3400","PG/SG","0","205.5","0","100.30","0","22.00","14.86","1.76","15.74","0","0"
"Montrezl Harrell","Montrezl-Harrell-18930","6400","PF/C","0","229","0","108.38","0","27.00","44.15","23.09","29.57","0","0"
"Jonathon Simmons","Jonathon-Simmons-31808","3500","SG/SF","48.41","208","0","105.10","0","21.00","24.32","13.23","16.14","0","0"
"Kyle Kuzma","Kyle-Kuzma-37886","7700","SF/PF","54.38","229","0","112.50","0","36.00","45.82","19.9","35.41","0","0"
"Monte Morris","Monte-Morris-37860","4700","PG","51.64","216","28.0","99.62","19.94","27.00","32.12","17.23","21.43","0","0"
"Miles Bridges","Miles-Bridges-409262","3500","SF/PF","47.72","220.5","19.0","103.00","15.57","19.00","16.17","2.88","15.93","0","0"
"Myles Turner","Myles-Turner-18915","7500","C","52.14","205.5","28.4","107.67","20.35","30.00","55.7","25.58","34.15","0","0"
"Dwight Powell","Dwight-Powell-18566","3400","PF/C","54.22","228.5","0","100.08","0","15.00","23.92","12.19","15.39","0","0"
"Cory Joseph","Cory-Joseph-13339","3900","PG","43.25","205.5","0","107.67","0","25.00","32.32","14.24","17.65","0","0"
"Spencer Dinwiddie","Spencer-Dinwiddie-18588","7300","PG/SG","52.32","220.5","0","114.62","0","31.00","50.6","23.14","33.01","0","0"
"Tony Parker","Tony-Parker-982","3600","PG","38.37","220.5","0","103.00","0","19.00","27.11","16.13","16.13","0","0"
"Richaun Holmes","Richaun-Holmes-18905","3600","PF/C","49.33","225.5","18.7","108.80","15.23","15.00","26.95","10.96","16.1","0","0"
"Ron Baker","Ron-Baker-36001","3000","PG/SG","42.27","212.5","15.0","103.80","4.44","14.00","25.71","13.16","13.16","0","0"
"Collin Sexton","Collin-Sexton-408896","5000","PG","0","202","28.9","103.60","24.51","32.00","25.7","8.08","21.95","0","0"
"Bojan Bogdanovic","Bojan-Bogdanovic-18571","5400","SG/SF","38.12","205.5","32.7","107.67","19.11","31.00","37.26","19.44","23.51","0","0"
"Lou Williams","Lou-Williams-1044","6600","PG/SG","49.68","229","0","108.38","0","25.00","43.83","17.59","28.74","0","0"
"Larry Nance","Larry-Nance-18946","6900","PF/C","51.76","202","31.4","103.60","17.40","30.00","44.21","18.22","29.97","0","0"
"Thomas Bryant ","Thomas-Bryant--37884","3800","PF/C","62.99","212.5","20.9","103.80","16.29","22.00","27.11","12.87","16.33","0","0"
"J.J. Barea","J.J.-Barea-18605","5100","PG/SG","51.25","228.5","0","100.08","0","19.00","32.89","15.81","21.84","0","0"
"Boban Marjanovic","Boban-Marjanovic-31807","3700","C","56.54","229","10.0","108.38","23.84","13.00","22.69","8.01","15.56","0","0"
"Malik Beasley","Malik-Beasley-35213","4000","PG/SG","38.35","216","0","99.62","0","25.00","30.43","16.84","16.84","0","0"
"Luka Doncic","Luka-Doncic-408971","8700","SG/SF","0","228.5","0","100.08","0","33.00","37.91","7.59","36.66","0","0"
"Kelly Olynyk","Kelly-Olynyk-16845","4200","PF/C","0","202","0","106.90","0","17.00","26.28","14.81","17.65","0","0"
"Ryan Arcidiacono","Ryan-Arcidiacono-36050","3700","PG","46.76","212.5","29.5","104.50","9.94","23.00","30.3","13.55","15.43","0","0"
"Ivica Zubac","Ivica-Zubac-35226","5900","C","57.96","229","19.0","112.50","16.36","29.00","38.58","19.76","24.37","0","0"
"Patrick Patterson","Patrick-Patterson-1260","3000","PF/C","54.97","225.5","10.7","102.62","12.02","18.00","21.63","10.37","12.24","0","0"
"Dirk Nowitzki","Dirk-Nowitzki-1346","3200","PF/C","54.22","228.5","8.6","100.08","19.93","13.00","18.78","10.71","12.95","0","0"
"Bam Adebayo","Bam-Adebayo-37835","4100","PF/C","48.30","202","21.3","106.90","12.89","17.00","23.97","14.38","16.27","0","0"
"Tyler Johnson","Tyler-Johnson-18720","6000","PG/SG","55.86","202","27.0","106.90","22.29","28.00","37.42","16.77","23.82","0","0"
"Jose Calderon","Jose-Calderon-1071","3100","PG","0","205.5","0","100.30","0","19.00","21.1","9.69","12.17","0","0"
"Tyson Chandler","Tyson-Chandler-1482","3500","C","57.96","229","0","112.50","0","15.00","26.12","13.75","13.75","0","0"
"Devin Harris","Devin-Harris-1076","3500","PG/SG","51.25","228.5","16.3","100.08","20.80","16.00","23.93","13.53","13.53","0","0"
"Jalen Jones","Jalen-Jones-35996","3000","SF/PF","37.25","202","7.0","103.60","13.94","16.00","20.93","10.16","11.61","0","0"
"Mike Scott","Mike-Scott-13999","3300","SF/PF","44.57","229","15.5","108.38","15.85","15.00","25.45","14.97","12.73","0","0"
"Mohamed Bamba","Mohamed-Bamba-409026","3700","C","51.27","208","0","105.10","0","18.00","14.37","2.56","14.16","0","0"
"C.J. Miles","C.J.-Miles-1299","3400","SG/SF","35.15","208","0","105.50","0","15.00","21.69","10.53","12.98","0","0"
"Tyus Jones","Tyus-Jones-18938","4300","PG","42.55","229.5","0","100.67","0","18.00","29.85","15.78","16.4","0","0"
"Doug McDermott","Doug-McDermott-18583","3000","SF/PF","38.12","205.5","18.6","107.67","12.78","18.00","22.05","11.03","11.03","0","0"
"Jerian Grant","Jerian-Grant-18900","3300","PG","0","208","0","105.10","0","15.00","20.35","10.64","12.12","0","0"
"Vince Carter","Vince-Carter-1066","3400","SG","0","229.5","18.8","105.10","17.68","16.00","20.81","10.9","12.43","0","0"
"Solomon Hill","Solomon-Hill-16863","3400","SF/PF","0","228.5","0","104.88","0","18.00","23.43","12.28","12.28","0","0"
"Jon Leuer","Jon-Leuer-13317","3000","PF/C","54.96","205.5","10.0","100.30","16.70","13.00","17.58","9.17","10.81","0","0"
"Greg Monroe","Greg-Monroe-1487","3600","C","52.30","208","0","105.50","0","11.00","17.85","8.08","12.75","0","0"
"Justin Anderson","Justin-Anderson-18927","3100","SF/PF","0","229.5","0","105.10","0","10.00","16.46","7.89","10.57","0","0"
"Zaza Pachulia","Zaza-Pachulia-1455","3300","C","0","205.5","9.8","100.30","17.50","12.00","18.93","8.58","11.22","0","0"
"Frank Jackson","Frank-Jackson-37855","3000","PG/SG","0","228.5","0","104.88","0","13.00","9.47","1.8","9.19","0","0"
"Abdel Nader","Abdel-Nader-35179","3000","PF","0","225.5","4.7","102.62","17.74","14.00","17.96","9.03","9.03","0","0"
"Derrick Jones","Derrick-Jones-36064","3900","SF/PF","37.14","202","18.2","106.90","18.27","12.00","19.79","10.61","10.61","0","0"
"Nick Young","Nick-Young-1063","3000","SG/SF","33.68","216","0","99.62","0","10.00","13.05","7.81","7.81","0","0"
"Marcin Gortat","Marcin-Gortat-1479","3300","C","56.54","229","14.6","108.38","14.04","8.00","13.71","6.6","8.12","0","0"
"Omari Spellman","Omari-Spellman-408970","3000","PF/C","0","229.5","0","105.10","0","8.00","7.6","1.87","7.16","0","0"
"Sviatoslav Mykhailiuk","Sviatoslav-Mykhailiuk-409280","3000","SG/SF","34.16","229","0","112.50","0","9.00","6.73","1.2","6.63","0","0"
"Alex Poythress","Alex-Poythress-36018","3000","SF/PF","0","229.5","2.5","105.10","8.00","5.00","8.71","4.39","4.92","0","0"
"Jakob Poeltl","Jakob-Poeltl-35187","3400","C","49.97","216","19.5","99.70","13.51","6.00","10.95","4.86","5.48","0","0"
"Tyrone Wallace","Tyrone-Wallace-35220","3300","PG/SG","49.68","229","13.8","108.38","17.45","7.00","8.27","5.18","5.18","0","0"
"Elie Okobo","Elie-Okobo-409300","3000","PG","0","225.5","0","108.80","0","2.00","1.64","0.35","1.51","0","0"
"Aaron Holiday","Aaron-Holiday-408932","3100","PG/SG","43.25","205.5","0","107.67","0","1.00","0.86","0.16","0.83","0","0"
"JaVale McGee","JaVale-McGee-1485","4700","C","57.96","229","17.0","112.50","27.95","1.00","1.73","0.76","1.23","0","0"
