"nameCol","idCol","salaryCol","positionCol","dvpCol","ouCol","mpgCol","paceCol","usgCol","pminCol","ceilCol","floorCol","pointsCol","predictCol","actualCol"
"Tyler Johnson","Tyler-Johnson-18720","4300","PG/SG","57.28","225","0","106.90","0","33.00","52.82","20.08","28.52","0","0"
"Marc Gasol","Marc-Gasol-1493","7400.00","C","0","209","35.1","103.30","21.48","35.00","76.45","27.71","48.2","0","0"
"Evan Fournier","Evan-Fournier-13913","5400","SG/SF","36.22","217.5","0","105.10","0","32.00","50.89","17.61","34.13","0","0"
"Trey Burke","Trey-Burke-17029","3500","PG/SG","38.15","217.5","0","100.17","0","21.00","43.96","19.11","21.99","0","0"
"Rudy Gay","Rudy-Gay-1341","5500","SF/PF","0","212.5","22.0","99.70","24.13","30.00","63.9","27.13","34.52","0","0"
"Shelvin Mack","Shelvin-Mack-13354","4200.00","PG","42.29","209","26.4","103.30","19.64","28.00","47.66","20.02","25.86","0","0"
"Garrett Temple","Garrett-Temple-14077","4000.00","SG/SF","0","209","0","103.30","0","31.00","46.28","17.56","24.46","0","0"
"Kevon Looney","Kevon-Looney-18945","3700","PF/C","57.36","212.5","20.3","103.10","12.52","24.00","38.54","14.44","22.59","0","0"
"Jeff Teague","Jeff-Teague-1005","5900.00","PG","42.48","209","35.7","100.67","23.57","32.00","59.92","18.2","35.69","0","0"
"Jonas Jerebko","Jonas-Jerebko-1106","3900","SF/PF","0","212.5","20.3","103.10","14.38","25.00","41.58","15.57","23.52","0","0"
"Noah Vonleh","Noah-Vonleh-18597","4100","PF/C","0","217.5","25.1","100.17","14.10","22.00","48.88","20.86","24.45","0","0"
"Justise Winslow","Justise-Winslow-18921","5100","PG/SF","0","225","0","106.90","0","29.00","53.91","17.4","29.95","0","0"
"Dario Saric","Dario-Saric-36004","4300.00","PF","43.23","209","0","100.67","0","25.00","48.97","20.12","24.78","0","0"
"Andre Iguodala","Andre-Iguodala-1334","3700","SG/SF","33.37","212.5","24.2","103.10","14.44","26.00","36.01","12.15","21.31","0","0"
"Kyle Kuzma","Kyle-Kuzma-37886","5300","SF/PF","0","225","0","112.50","0","32.00","46.27","16.85","30.3","0","0"
"Derrick White","Derrick-White-37858","4600","PG","0","212.5","0","99.70","0","27.00","49.89","21.82","26.23","0","0"
"Robert Covington","Robert-Covington-16874","5300.00","SF/PF","40.47","209","0","100.67","0","34.00","49.71","19.83","30.18","0","0"
"Otto Porter","Otto-Porter-17069","4900","SF/PF","0","221","0","103.80","0","29.00","47.96","18.66","27.69","0","0"
"Wayne Ellington","Wayne-Ellington-1009","3800","SG/SF","0","225","0","106.90","0","24.00","42.55","17.21","21.33","0","0"
"Andrew Wiggins","Andrew-Wiggins-18620","6100.00","SG/SF","0","209","36.0","100.67","23.10","35.00","52.66","19.48","34.17","0","0"
"C.J. McCollum","C.J.-McCollum-17121","6400","PG/SG","0","221","0","104.50","0","34.00","56.29","20.29","35.72","0","0"
"Lonzo Ball","Lonzo-Ball-37885","5600","PG","0","225","0","112.50","0","34.00","49.22","16.16","31.19","0","0"
"D.J. Augustin","D.J.-Augustin-1064","4200","PG","0","217.5","0","105.10","0","27.00","44.08","13.58","23.3","0","0"
"LaMarcus Aldridge","LaMarcus-Aldridge-1349","8000","PF/C","54.09","212.5","0","99.70","0","36.00","75.43","28.0","44.16","0","0"
"Jusuf Nurkic","Jusuf-Nurkic-18619","6800","C","0","221","0","104.50","0","27.00","57.4","20.89","37.37","0","0"
"Rodney McGruder","Rodney-McGruder-16850","4700","SG/SF","0","225","0","106.90","0","33.00","46.43","15.99","25.71","0","0"
"Enes Kanter","Enes-Kanter-13299","6300","C","0","217.5","0","100.17","0","24.00","56.67","25.27","34.43","0","0"
"Josh Richardson","Josh-Richardson-18922","6700","SG/SF","0","225","0","106.90","0","35.00","63.25","21.44","36.58","0","0"
"Zach Collins","Zach-Collins-37866","3500","PF","0","221","0","104.50","0","23.00","34.65","14.87","19.06","0","0"
"DeMar DeRozan","DeMar-DeRozan-1053","8600","SG/SF","0","212.5","0","99.70","0","36.00","75.82","22.46","46.8","0","0"
"Brandon Ingram","Brandon-Ingram-35227","5700","SG/SF","0","225","31.8","112.50","22.05","35.00","56.0","19.46","30.89","0","0"
"Al-Farouq Aminu","Al-Farouq-Aminu-1279","4800","SF/PF","37.42","221","28.8","104.50","11.27","30.00","46.91","19.44","25.96","0","0"
"Kyle Anderson","Kyle-Anderson-18615","4800.00","PG/SF","38.05","209","0","103.30","0","28.00","41.75","13.01","25.71","0","0"
"Mike Conley","Mike-Conley-1062","7000.00","PG","42.29","209","0","103.30","0","34.00","65.68","22.46","37.49","0","0"
"Damian Lillard","Damian-Lillard-13900","9300","PG","59.59","221","0","104.50","0","36.00","73.4","23.94","49.16","0","0"
"Aaron Gordon","Aaron-Gordon-18601","7600","SF/PF","0","217.5","33.9","105.10","21.07","34.00","60.51","21.36","40.15","0","0"
"Nik Stauskas","Nik-Stauskas-18636","3000","SG/SF","0","221","0","104.50","0","21.00","31.0","12.82","15.79","0","0"
"Jakob Poeltl","Jakob-Poeltl-35187","3000","C","46.26","212.5","0","99.70","0","16.00","31.42","13.96","15.72","0","0"
"Hassan Whiteside","Hassan-Whiteside-18664","8100","C","57.51","225","28.2","106.90","22.53","28.00","63.04","20.02","42.42","0","0"
"Kevin Durant","Kevin-Durant-1348","10700","SF/PF","0","212.5","0","103.10","0","36.00","85.0","29.16","55.96","0","0"
"Tim Hardaway Jr.","Tim-Hardaway-Jr.-16879","7300","SG/SF","0","217.5","0","100.17","0","34.00","69.81","25.9","38.15","0","0"
"Austin Rivers","Austin-Rivers-13903","3300","PG/SG","0","221","21.9","103.80","15.42","21.00","31.88","14.04","17.23","0","0"
"Markieff Morris","Markieff-Morris-13314","4400","SF/PF","0","221","24.7","103.80","18.06","25.00","39.59","12.76","22.95","0","0"
"Evan Turner","Evan-Turner-1291","4200","SG/SF","0","221","26.2","104.50","16.79","27.00","38.94","18.2","21.9","0","0"
"Jerian Grant","Jerian-Grant-18900","3300","PG","0","217.5","0","105.10","0","20.00","34.05","15.06","17.13","0","0"
"Lance Stephenson","Lance-Stephenson-947","3300","SG/SF","0","225","0","112.50","0","19.00","34.14","13.63","17.08","0","0"
"Mitchell Robinson","Mitchell-Robinson-408821","3800","C","53.48","217.5","20.3","100.17","9.59","22.00","23.82","4.05","19.57","0","0"
"Emmanuel Mudiay","Emmanuel-Mudiay-18936","4400","PG","38.15","217.5","0","100.17","0","21.00","36.02","14.13","22.68","0","0"
"Nikola Vucevic","Nikola-Vucevic-13296","8700","C","0","217.5","0","105.10","0","31.00","63.36","20.35","44.15","0","0"
"Patty Mills","Patty-Mills-13977","3800","PG/SG","0","212.5","0","99.70","0","25.00","34.38","14.98","19.28","0","0"
"Bradley Beal","Bradley-Beal-13898","7700","SG","0","221","0","103.80","0","35.00","71.6","26.68","39.06","0","0"
"Karl-Anthony Towns","Karl-Anthony-Towns-18937","9600.00","C","51.13","209","0","100.67","0","36.00","76.51","27.45","48.24","0","0"
"Tyson Chandler","Tyson-Chandler-1482","3400","C","0","225","0","112.50","0","20.00","33.94","16.98","16.98","0","0"
"John Wall","John-Wall-1084","9100","PG","45.06","221","0","103.80","0","35.00","59.43","17.97","45.16","0","0"
"Allonzo Trier","Allonzo-Trier-554950","4500","PG","0","217.5","0","100.17","0","29.00","27.13","4.61","22.29","0","0"
"JaMychal Green","JaMychal-Green-18729","4000.00","SF/PF","0","209","0","103.30","0","24.00","25.73","17.81","19.79","0","0"
"Dwight Howard","Dwight-Howard-1501","6600","C","0","221","0","103.80","0","30.00","53.66","16.59","32.6","0","0"
"Shaun Livingston","Shaun-Livingston-14007","3000","PG","43.95","212.5","0","103.10","0","17.00","27.72","11.54","14.63","0","0"
"Jonathon Simmons","Jonathon-Simmons-31808","3300","SG/SF","0","217.5","21.0","105.10","18.83","20.00","28.58","13.49","15.95","0","0"
"LeBron James","LeBron-James-1227","11000","SF/PF","0","225","0","112.50","0","36.00","79.65","21.05","53.03","0","0"
"Marco Belinelli","Marco-Belinelli-1033","3500","SG/SF","40.47","212.5","22.0","99.70","18.66","19.00","29.4","12.87","16.83","0","0"
"Klay Thompson","Klay-Thompson-13315","7200","SG","33.37","212.5","34.6","103.10","28.44","35.00","54.33","20.04","34.43","0","0"
"Jaren Jackson","Jaren-Jackson-409099","5400.00","PF","0","209","0","103.30","0","28.00","28.47","2.87","25.65","0","0"
"Kelly Olynyk","Kelly-Olynyk-16845","4000","PF/C","62.11","225","0","106.90","0","18.00","33.51","15.88","18.93","0","0"
"Jonathan Isaac","Jonathan-Isaac-37841","3500","PF","0","217.5","0","105.10","0","21.00","31.6","14.82","16.45","0","0"
"Taj Gibson","Taj-Gibson-1277","4600.00","PF","47.49","209","0","100.67","0","25.00","34.26","11.9","21.37","0","0"
"Derrick Rose","Derrick-Rose-1086","7000.00","PG/SG","42.48","209","0","100.67","0","30.00","59.82","28.73","32.35","0","0"
"JaVale McGee","JaVale-McGee-1485","5800","C","0","225","21.3","112.50","20.05","24.00","44.95","16.51","26.55","0","0"
"Wayne Selden","Wayne-Selden-36045","3100.00","SG","0","209","0","103.30","0","19.00","28.17","14.09","14.09","0","0"
"Jake Layman","Jake-Layman-35216","3100","PF","37.42","221","0","104.50","0","20.00","24.7","10.34","14.1","0","0"
"Terrence Ross","Terrence-Ross-13902","5200","SG/SF","36.22","217.5","26.2","105.10","21.78","27.00","42.35","19.88","23.36","0","0"
"Damyean Dotson","Damyean-Dotson-37795","3600","SG","0","217.5","0","100.17","0","19.00","32.18","13.56","16.1","0","0"
"Kevin Knox","Kevin-Knox-408820","4600","SF","0","217.5","0","100.17","0","30.00","24.97","4.25","20.52","0","0"
"Dante Cunningham","Dante-Cunningham-1259","3400","SF/PF","0","212.5","19.5","99.70","10.21","19.00","28.65","10.21","15.12","0","0"
"Kelly Oubre","Kelly-Oubre-18925","4400","SG/SF","0","221","0","103.80","0","23.00","38.76","15.88","19.39","0","0"
"Quinn Cook","Quinn-Cook-31771","5200","PG","0","212.5","23.7","103.10","22.87","29.00","44.74","22.38","22.38","0","0"
"Mohamed Bamba","Mohamed-Bamba-409026","3600","C","0","217.5","0","105.10","0","16.00","19.7","3.53","15.43","0","0"
"Jordan Bell","Jordan-Bell-37877","3400","PF","57.36","212.5","13.3","103.10","9.63","15.00","27.42","11.97","14.15","0","0"
"Damion Lee","Damion-Lee-35995","3000","SG","0","212.5","0","103.10","0","16.00","24.0","10.41","12.44","0","0"
"Josh Hart","Josh-Hart-37889","4100","SG","0","225","0","112.50","0","23.00","32.98","13.22","16.63","0","0"
"Meyers Leonard","Meyers-Leonard-13905","3200","C","0","221","0","104.50","0","12.00","25.85","10.51","12.93","0","0"
"Damian Jones","Damian-Jones-35223","3300","C","57.36","212.5","17.6","103.10","9.84","17.00","26.27","13.14","13.14","0","0"
"Jeff Green","Jeff-Green-1314","4200","SF/PF","0","221","23.7","103.80","17.92","22.00","32.8","12.97","16.61","0","0"
"James Johnson","James-Johnson-1195","4500","SF/PF","44.02","225","0","106.90","0","16.00","31.72","9.73","17.66","0","0"
"Bryn Forbes","Bryn-Forbes-36052","4000","PG/SG","40.47","212.5","0","99.70","0","20.00","26.31","9.36","15.42","0","0"
"Frank Ntilikina","Frank-Ntilikina-37796","3600","PG","38.15","217.5","0","100.17","0","18.00","26.24","12.11","13.9","0","0"
"Kentavious Caldwell-Pope","Kentavious-Caldwell-Pope-16869","3300","SG/SF","0","225","17.5","112.50","19.87","17.00","25.31","11.04","12.66","0","0"
"Tomas Satoransky ","Tomas-Satoransky--36031","3000","PG/SG","45.06","221","0","103.80","0","12.00","20.41","8.54","11.18","0","0"
"Gorgui Dieng","Gorgui-Dieng-16939","3200.00","PF/C","47.49","209","0","100.67","0","11.00","20.35","8.4","11.48","0","0"
"Derrick Jones","Derrick-Jones-36064","3000","SF","0","225","0","106.90","0","12.00","20.63","10.32","10.32","0","0"
"MarShon Brooks","MarShon-Brooks-188837","3300.00","SG","0","209","0","103.30","0","13.00","19.35","7.53","10.7","0","0"
"Bam Adebayo","Bam-Adebayo-37835","3900","C","57.51","225","0","106.90","0","12.00","20.57","10.49","11.87","0","0"
"Tyus Jones","Tyus-Jones-18938","3500.00","PG","44.23","209","0","100.67","0","12.00","20.39","9.81","10.2","0","0"
"Wade Baldwin","Wade-Baldwin-35204","3000","PG","59.59","221","0","104.50","0","10.00","15.41","7.71","7.71","0","0"
"Wesley Iwundu","Wesley-Iwundu-37839","3200","SG","37.47","217.5","0","105.10","0","12.00","14.31","5.28","7.83","0","0"
"Ian Mahinmi","Ian-Mahinmi-1357","3200","C","0","221","0","103.80","0","8.00","14.93","6.75","7.47","0","0"
"Quincy Pondexter","Quincy-Pondexter-1237","3000","SF","0","212.5","0","99.70","0","8.00","13.17","6.59","6.59","0","0"
"Chimezie Metu","Chimezie-Metu-409136","3000","PF","46.26","212.5","0","99.70","0","4.00","4.42","0.71","3.64","0","0"
