"nameCol","idCol","salaryCol","positionCol","dvpCol","ouCol","mpgCol","paceCol","usgCol","pminCol","ceilCol","floorCol","pointsCol","predictCol","actualCol"
"Taurean Prince","Taurean-Prince-35218","4800","SF","34.65","235.5","27.4","105.10","20.30","32.00","45.15","19.31","32.07","0","0"
"Allen Crabbe","Allen-Crabbe-16978","3700","SG/SF","36.52","210.5","27.4","114.62","16.10","30.00","38.88","16.04","24.42","0","0"
"Shabazz Napier","Shabazz-Napier-18598","3500","PG/SG","43.57","210.5","17.3","114.62","23.51","24.00","41.69","18.42","22.66","0","0"
"Julius Randle","Julius-Randle-18632","6700","PF/C","53.16","236","26.4","104.88","28.84","32.00","58.8","31.87","42.33","0","0"
"John Collins","John-Collins-37823","5300","C","49.00","235.5","28.3","105.10","21.68","30.00","51.18","20.85","33.3","0","0"
"Dewayne Dedmon","Dewayne-Dedmon-16894","3800","PF/C","49.00","235.5","22.9","105.10","16.46","22.00","33.41","14.11","23.51","0","0"
"Jeff Teague","Jeff-Teague-1005","5600","PG","48.42","222.5","29.5","100.67","20.21","33.00","48.22","17.23","33.79","0","0"
"E'Twaun Moore","E'Twaun-Moore-18582","4100","SG/SF","34.51","236","29.7","104.88","21.20","32.00","38.08","16.97","24.66","0","0"
"Kevin Huerter","Kevin-Huerter-408969","3700","SG","40.66","235.5","22.9","105.10","14.04","27.00","24.13","8.9","21.86","0","0"
"Tomas Satoransky ","Tomas-Satoransky--36031","3700","PG/SG","47.82","228.5","21.7","103.80","15.90","23.00","31.27","12.32","21.88","0","0"
"Alec Burks","Alec-Burks-13353","3800","SG/SF","42.78","210.5","19.3","103.60","26.34","26.00","37.47","22.33","22.33","0","0"
"Gary Harris","Gary-Harris-18617","5100","SG","46.70","218","32.8","99.62","24.37","35.00","40.2","17.48","29.93","0","0"
"Reggie Bullock","Reggie-Bullock-16943","4000","SG/SF","38.94","218","32.4","100.30","14.02","30.00","37.61","15.85","23.1","0","0"
"Tim Hardaway Jr.","Tim-Hardaway-Jr.-16879","6900","SG/SF","46.48","228.5","35.9","100.17","25.21","36.00","60.8","27.24","39.48","0","0"
"Trae Young","Trae-Young-409063","6000","PG","50.28","235.5","27.6","105.10","31.58","30.00","37.73","13.91","34.18","0","0"
"Nikola Jokic","Nikola-Jokic-31812","8200","C","54.24","218","28.5","99.62","27.61","32.00","61.6","18.67","46.67","0","0"
"Langston Galloway","Langston-Galloway-18717","3400","PG/SG","40.71","218","23.9","100.30","15.18","24.00","33.55","16.72","19.24","0","0"
"Jonas Jerebko","Jonas-Jerebko-1106","4200","SF/PF","55.13","235.5","22.3","103.10","14.58","25.00","35.44","15.3","23.69","0","0"
"Rodney Hood","Rodney-Hood-18629","4300","SG/SF","42.78","210.5","32.4","103.60","18.00","33.00","38.61","15.59","24.25","0","0"
"Ed Davis","Ed-Davis-1265","3300","PF/C","50.17","210.5","14.7","114.62","15.98","18.00","33.93","13.87","18.57","0","0"
"Karl-Anthony Towns","Karl-Anthony-Towns-18937","9000","C","53.84","222.5","32.5","100.67","28.29","36.00","68.13","28.76","50.54","0","0"
"Andrew Wiggins","Andrew-Wiggins-18620","5500","SG/SF","45.68","222.5","30.3","100.67","21.15","33.00","40.11","17.46","30.64","0","0"
"Jordan Bell","Jordan-Bell-37877","3400","PF","57.60","235.5","12.8","103.10","12.95","20.00","31.09","15.92","18.82","0","0"
"Trey Lyles","Trey-Lyles-18942","3500","SF/PF","46.55","218","17.0","99.62","26.29","18.00","30.54","16.64","19.39","0","0"
"Anthony Davis","Anthony-Davis-13895","11500","PF/C","53.16","236","36.1","104.88","30.77","37.00","92.18","33.18","63.57","0","0"
"Noah Vonleh","Noah-Vonleh-18597","5300","PF/C","51.17","228.5","29.0","100.17","12.44","30.00","41.39","19.08","29.27","0","0"
"Jarrett Allen","Jarrett-Allen-37794","5500","C","50.17","210.5","29.9","114.62","15.13","29.00","41.6","18.33","30.19","0","0"
"Rondae Hollis-Jefferson","Rondae-Hollis-Jefferson-18897","5600","PF/C","44.58","210.5","27.6","114.62","19.56","30.00","46.92","19.9","30.71","0","0"
"Tristan Thompson","Tristan-Thompson-13308","6500","C","63.36","210.5","34.1","103.60","17.67","35.00","48.8","21.33","35.44","0","0"
"Mario Hezonja","Mario-Hezonja-18923","3200","SF/PF","40.87","228.5","17.3","100.17","17.73","17.00","26.28","11.13","17.45","0","0"
"Jamal Murray","Jamal-Murray-35211","6400","PG/SG","46.29","218","36.2","99.62","25.83","36.00","54.06","22.28","34.7","0","0"
"Dario Saric","Dario-Saric-36004","4200","PF","44.40","222.5","20.2","100.67","20.51","24.00","38.2","18.47","22.75","0","0"
"Jeff Green","Jeff-Green-1314","3800","SF/PF","56.98","228.5","23.0","103.80","16.79","26.00","30.53","15.29","20.53","0","0"
"Jared Dudley","Jared-Dudley-1319","3100","SF/PF","38.04","210.5","17.1","114.62","9.25","21.00","29.85","14.63","16.74","0","0"
"Larry Nance","Larry-Nance-18946","5100","PF/C","58.77","210.5","24.6","103.60","12.14","27.00","42.23","21.66","27.42","0","0"
"Enes Kanter","Enes-Kanter-13299","6600","C","62.00","228.5","29.7","100.17","19.33","26.00","46.33","17.97","35.45","0","0"
"Cedi Osman","Cedi-Osman-18912","4700","SF","31.61","210.5","34.2","103.60","16.37","32.00","31.44","11.66","25.13","0","0"
"Andre Drummond","Andre-Drummond-13904","9200","C","49.07","218","33.0","100.30","24.26","34.00","59.36","22.49","49.22","0","0"
"Kent Bazemore","Kent-Bazemore-13987","4600","SG/SF","47.34","235.5","20.9","105.10","20.64","24.00","38.56","18.91","24.56","0","0"
"Steven Adams","Steven-Adams-16848","6400","C","52.42","218","34.3","102.62","15.69","34.00","44.91","22.44","34.1","0","0"
"Blake Griffin","Blake-Griffin-1503","8800","PF/C","45.68","218","36.3","100.30","30.03","36.00","60.2","22.66","46.81","0","0"
"Patrick Beverley","Patrick-Beverley-14108","3700","PG/SG","57.14","236","18.9","108.38","16.23","22.00","37.04","19.65","19.65","0","0"
"Danilo Gallinari","Danilo-Gallinari-1329","6600","SF/PF","48.31","236","32.8","108.38","19.63","34.00","49.31","19.78","34.95","0","0"
"Chris Paul","Chris-Paul-1087","8000","PG","45.01","222.5","32.2","101.42","25.78","35.00","57.76","20.27","42.22","0","0"
"Jordan Clarkson","Jordan-Clarkson-18631","5000","PG/SG","42.78","210.5","25.0","103.60","29.05","26.00","43.94","25.42","26.34","0","0"
"DeMarre Carroll","DeMarre-Carroll-1174","3900","SF/PF","38.04","210.5","21.7","114.62","16.96","22.00","34.91","15.86","20.55","0","0"
"Jonas Valanciunas","Jonas-Valanciunas-13301","4400","C","47.67","218","19.3","105.50","22.62","19.00","41.98","21.33","23.18","0","0"
"Stanley Johnson","Stanley-Johnson-18913","3700","SF/PF","38.94","218","20.9","100.30","23.80","25.00","32.52","15.29","19.45","0","0"
"Andre Iguodala","Andre-Iguodala-1334","3600","SG/SF","43.83","235.5","27.5","103.10","8.22","22.00","28.9","11.05","18.79","0","0"
"Danny Green","Danny-Green-940","4500","SG/SF","33.46","218","30.4","105.50","13.77","30.00","33.41","16.16","23.35","0","0"
"Reggie Jackson","Reggie-Jackson-13352","5200","PG/SG","45.79","218","26.9","100.30","25.25","29.00","37.14","14.45","26.91","0","0"
"Kelly Oubre","Kelly-Oubre-18925","4300","SG/SF","37.76","228.5","22.1","103.80","19.95","24.00","39.26","18.18","22.22","0","0"
"Tim Frazier","Tim-Frazier-18743","4700","PG/SG","44.21","236","25.5","104.88","14.07","28.00","38.41","16.66","24.28","0","0"
"James Ennis","James-Ennis-18599","3700","SG/SF","39.31","222.5","27.1","101.42","12.06","29.00","30.22","14.77","19.03","0","0"
"Terrance Ferguson","Terrance-Ferguson-37871","3000","SF","40.78","218","6.0","102.62","6.67","22.00","19.99","13.84","15.38","0","0"
"Lou Williams","Lou-Williams-1044","4900","PG/SG","49.48","236","23.6","108.38","33.10","24.00","38.31","15.37","25.12","0","0"
"Russell Westbrook","Russell-Westbrook-1083","11200","PG","48.90","218","34.7","102.62","33.01","36.00","63.25","19.45","56.88","0","0"
"Juan Hernangomez","Juan-Hernangomez-35212","4400","SF/PF","46.55","218","29.7","99.62","13.77","32.00","37.95","14.77","22.31","0","0"
"Darius Miller","Darius-Miller-13951","3100","SF/PF","33.84","236","20.8","104.88","14.10","26.00","27.82","15.64","15.64","0","0"
"Jrue Holiday","Jrue-Holiday-1073","8300","PG/SG","51.41","236","35.9","104.88","29.66","36.00","56.32","19.53","41.81","0","0"
"James Harden","James-Harden-1037","11100","PG/SG","45.01","222.5","37.1","101.42","41.50","37.00","64.6","20.99","55.98","0","0"
"Jerami Grant","Jerami-Grant-18576","4800","PF","41.55","218","30.7","102.62","14.09","30.00","37.49","17.21","24.11","0","0"
"Serge Ibaka","Serge-Ibaka-1294","5500","PF/C","48.65","218","28.9","105.50","20.42","25.00","38.52","15.84","27.59","0","0"
"Emmanuel Mudiay","Emmanuel-Mudiay-18936","5000","PG","47.94","228.5","24.4","100.17","25.82","28.00","32.73","13.87","25.08","0","0"
"DeAndre Bembry","DeAndre-Bembry-35198","3900","SF","34.65","235.5","21.6","105.10","21.89","22.00","29.36","15.46","19.55","0","0"
"Spencer Dinwiddie","Spencer-Dinwiddie-18588","6500","PG/SG","52.56","210.5","29.4","114.62","25.42","31.00","50.73","22.55","32.5","0","0"
"Bradley Beal","Bradley-Beal-13898","7900","SG","46.16","228.5","37.4","103.80","23.97","35.00","62.28","26.81","39.49","0","0"
"John Wall","John-Wall-1084","9300","PG","47.82","228.5","33.1","103.80","33.53","35.00","52.15","18.15","46.19","0","0"
"Dennis Schroder","Dennis-Schroder-18595","5800","PG/SG","48.90","218","27.8","102.62","28.79","29.00","43.63","22.49","28.61","0","0"
"Stephen Curry","Stephen-Curry-1079","9500","PG/SG","53.37","235.5","36.0","103.10","34.17","31.00","64.98","25.48","46.75","0","0"
"Kevon Looney","Kevon-Looney-18945","3700","PF/C","57.60","235.5","20.3","103.10","11.95","21.00","26.27","11.59","18.13","0","0"
"Paul George","Paul-George-1245","8500","SF/PF","41.55","218","33.2","102.62","30.38","36.00","57.99","25.64","41.63","0","0"
"Clint Capela","Clint-Capela-18610","8600","C","53.62","222.5","35.4","101.42","18.31","35.00","61.45","26.41","41.92","0","0"
"Taj Gibson","Taj-Gibson-1277","4300","PF/C","53.35","222.5","23.7","100.67","15.12","24.00","28.51","11.65","20.92","0","0"
"Montrezl Harrell","Montrezl-Harrell-18930","7600","PF/C","58.11","236","29.1","108.38","24.32","30.00","55.26","28.87","36.96","0","0"
"Eric Gordon","Eric-Gordon-1077","5700","SG/SF","47.87","222.5","33.6","101.42","21.98","31.00","42.51","20.56","27.71","0","0"
"D'Angelo Russell","D'Angelo-Russell-18947","7700","PG/SG","52.56","210.5","31.7","114.62","32.82","31.00","50.68","18.49","37.35","0","0"
"Monte Morris","Monte-Morris-37860","3800","PG","46.29","218","24.8","99.62","15.18","26.00","27.4","14.81","18.4","0","0"
"Shai Gilgeous-Alexander","Shai-Gilgeous-Alexander-408990","5500","PG","50.99","236","28.4","108.38","20.24","31.00","27.48","5.5","26.58","0","0"
"Markieff Morris","Markieff-Morris-13314","5900","PF/C","61.55","228.5","28.9","103.80","20.71","30.00","38.8","20.14","28.28","0","0"
"Kawhi Leonard","Kawhi-Leonard-13310","9700","SF/PF","41.57","218","35.3","105.50","27.31","35.00","63.51","22.58","46.09","0","0"
"Collin Sexton","Collin-Sexton-408896","5200","PG","47.62","210.5","32.0","103.60","26.23","33.00","25.42","5.09","24.58","0","0"
"Derrick Rose","Derrick-Rose-1086","6200","PG/SG","48.42","222.5","27.3","100.67","24.09","29.00","45.92","25.94","29.21","0","0"
"Pascal Siakam","Pascal-Siakam-35186","6000","PF","47.67","218","32.0","105.50","16.69","30.00","41.54","16.18","28.28","0","0"
"Shaun Livingston","Shaun-Livingston-14007","3200","PG","44.96","235.5","16.5","103.10","15.62","17.00","24.95","11.39","14.95","0","0"
"Ish Smith","Ish-Smith-13958","3500","PG","37.85","218","21.1","100.30","23.13","19.00","23.39","10.87","16.3","0","0"
"Tobias Harris","Tobias-Harris-13332","8100","SF/PF","48.31","236","34.6","108.38","24.16","35.00","50.15","20.74","37.71","0","0"
"George Hill","George-Hill-993","3800","PG/SG","47.62","210.5","18.0","103.60","13.80","20.00","27.82","10.17","17.29","0","0"
"Kevin Durant","Kevin-Durant-1348","10900","SF/PF","55.13","235.5","38.7","103.10","37.29","35.00","63.7","25.69","49.3","0","0"
"Otto Porter","Otto-Porter-17069","5900","SF/PF","37.76","228.5","33.7","103.80","14.56","29.00","34.62","23.97","26.63","0","0"
"Kyle Lowry","Kyle-Lowry-1057","8300","PG","48.95","218","34.0","105.50","21.43","33.00","52.73","20.52","37.37","0","0"
"Omari Spellman","Omari-Spellman-408970","3200","PF","46.07","235.5","15.0","105.10","16.76","17.00","14.79","2.81","14.35","0","0"
"Nerlens Noel","Nerlens-Noel-18575","3500","C","52.42","218","12.8","102.62","14.01","15.00","26.15","13.33","15.66","0","0"
"P.J. Tucker","P.J.-Tucker-13947","4400","SF/PF","39.31","222.5","34.4","101.42","9.29","33.00","38.22","16.27","19.44","0","0"
"Avery Bradley","Avery-Bradley-941","4400","SG","35.82","236","30.0","108.38","13.76","30.00","28.67","12.79","19.44","0","0"
"Damyean Dotson","Damyean-Dotson-37795","4500","SG","34.78","228.5","26.3","100.17","15.68","26.00","33.75","16.8","19.9","0","0"
"Mitchell Robinson","Mitchell-Robinson-408821","3200","C","54.44","228.5","15.4","100.17","11.55","18.00","14.53","2.76","14.09","0","0"
"Paul Millsap","Paul-Millsap-1335","6300","PF/C","46.55","218","27.5","99.62","20.96","28.00","39.32","17.57","27.63","0","0"
"Robert Covington","Robert-Covington-16874","6800","SF/PF","31.48","222.5","35.8","100.67","16.58","36.00","41.12","19.3","29.37","0","0"
"Klay Thompson","Klay-Thompson-13315","7400","SG","43.83","235.5","36.0","103.10","28.71","33.00","43.02","18.5","31.89","0","0"
"Thomas Bryant ","Thomas-Bryant--37884","3300","C","61.55","228.5","16.4","103.80","13.36","18.00","23.43","10.99","13.98","0","0"
"Jeremy Lin","Jeremy-Lin-916","5000","PG/SG","50.28","235.5","21.2","105.10","23.98","20.00","32.36","15.68","20.96","0","0"
"Austin Rivers","Austin-Rivers-13903","3500","PG/SG","46.75","228.5","21.3","103.80","18.26","19.00","22.46","11.89","14.54","0","0"
"Fred VanVleet","Fred-VanVleet-36011","4900","PG/SG","41.54","218","24.4","105.50","18.18","21.00","32.75","15.92","20.07","0","0"
"Wesley Johnson","Wesley-Johnson-1280","3100","SF/PF","33.84","236","15.1","104.88","11.35","18.00","23.94","12.68","12.68","0","0"
"Allonzo Trier","Allonzo-Trier-554950","3800","PG","46.48","228.5","21.9","100.17","25.28","22.00","16.03","3.05","15.55","0","0"
"Marcin Gortat","Marcin-Gortat-1479","3900","C","50.20","236","16.7","108.38","15.50","16.00","22.92","9.29","15.56","0","0"
"Alex Abrines","Alex-Abrines-36054","3000","SG/SF","40.78","218","16.0","102.62","14.99","17.00","16.6","6.52","11.97","0","0"
"Zaza Pachulia","Zaza-Pachulia-1455","3200","C","49.07","218","11.3","100.30","15.48","13.00","21.69","11.1","12.7","0","0"
"Alex Len","Alex-Len-16886","3600","C","49.00","235.5","19.4","105.10","23.56","13.00","20.43","10.09","14.29","0","0"
"Mason Plumlee","Mason-Plumlee-16798","3900","PF/C","48.24","218","17.7","99.62","18.74","16.00","26.46","12.57","15.4","0","0"
"Delon Wright","Delon-Wright-18907","3300","PG/SG","41.54","218","15.7","105.50","16.31","17.00","22.17","11.09","12.99","0","0"
"Solomon Hill","Solomon-Hill-16863","3300","SF/PF","33.84","236","21.0","104.88","7.98","19.00","24.1","12.66","12.66","0","0"
"Kevin Knox","Kevin-Knox-408820","4000","SF","46.48","228.5","18.1","100.17","21.04","24.00","15.76","3.0","15.29","0","0"
"Damion Lee","Damion-Lee-35995","3100","SG","53.37","235.5","17.0","103.10","16.24","13.00","18.72","9.73","11.62","0","0"
"Gorgui Dieng","Gorgui-Dieng-16939","3300","PF/C","53.35","222.5","13.7","100.67","18.19","12.00","18.39","8.93","12.2","0","0"
"Danuel House","Danuel-House-36029","3200","SG","45.01","222.5","23.0","101.42","16.59","14.00","19.66","9.36","11.83","0","0"
"Nene Hilario","Nene-Hilario-17321","3200","C","53.62","222.5","12.0","101.42","10.00","12.00","19.51","10.09","11.8","0","0"
"OG Anunoby","OG-Anunoby-37807","3400","SF","33.46","218","17.6","105.50","18.21","18.00","22.84","12.33","12.33","0","0"
"Gerald Green","Gerald-Green-13374","3400","SG/SF","47.87","222.5","16.8","101.42","14.70","14.00","20.73","9.77","12.03","0","0"
"Malik Beasley","Malik-Beasley-35213","3000","SG","37.86","218","18.5","99.62","14.01","17.00","18.58","10.52","10.52","0","0"
"C.J. Miles","C.J.-Miles-1299","3100","SG/SF","33.46","218","10.4","105.50","22.63","12.00","17.43","8.52","10.57","0","0"
"Tyus Jones","Tyus-Jones-18938","3100","PG","40.46","222.5","17.5","100.67","12.62","13.00","18.86","9.97","10.36","0","0"
"Patrick Patterson","Patrick-Patterson-1260","3300","PF/C","55.85","218","13.8","102.62","14.39","15.00","19.0","9.11","10.75","0","0"
"Mike Scott","Mike-Scott-13999","3300","SF/PF","48.31","236","16.6","108.38","17.12","12.00","20.41","12.01","10.21","0","0"
"Quinn Cook","Quinn-Cook-31771","3700","PG","53.37","235.5","24.7","103.10","18.18","13.00","18.61","9.89","9.89","0","0"
"Glenn Robinson","Glenn-Robinson-18621","3100","SF/PF","38.94","218","13.7","100.30","11.09","12.00","11.79","5.24","8.13","0","0"
"Channing Frye","Channing-Frye-1484","3000","PF/C","58.77","210.5","5.0","103.60","8.00","8.00","14.91","6.42","7.54","0","0"
"Marcus Derrickson","Marcus-Derrickson-570312","3000","SF","55.13","235.5","0","103.10","0","10.00","6.91","1.26","6.83","0","0"
"Luke Kennard","Luke-Kennard-37814","3000","SG/SF","40.71","218","0","100.30","0","8.00","10.26","4.73","6.8","0","0"
"Bruce Brown","Bruce-Brown-408913","3000","SG","45.79","218","18.8","100.30","9.11","10.00","7.37","1.55","6.79","0","0"
"Ian Clark","Ian-Clark-16922","3200","PG/SG","34.51","236","9.8","104.88","14.79","10.00","11.32","6.87","6.87","0","0"
"Frank Ntilikina","Frank-Ntilikina-37796","3300","PG","47.94","228.5","18.2","100.17","14.34","9.00","10.09","5.75","6.64","0","0"
"Sindarius Thornwell","Sindarius-Thornwell-37881","3000","SG","40.26","236","6.0","108.38","11.83","6.00","7.38","3.98","3.98","0","0"
"Rodions Kurucs","Rodions-Kurucs-408801","3000","PF","44.58","210.5","14.0","114.62","27.89","4.00","3.73","0.66","3.67","0","0"
"Justin Anderson","Justin-Anderson-18927","3300","SF/PF","34.65","235.5","10.2","105.10","26.49","4.00","6.29","2.96","3.99","0","0"
"Deonte Burton","Deonte-Burton-570274","3000","SG","48.90","218","13.2","102.62","16.75","5.00","3.35","0.77","3.16","0","0"
"Courtney Lee","Courtney-Lee-1025","3000","SG/SF","40.87","228.5","0","100.17","0","4.00","5.72","2.95","2.95","0","0"
"Cheick Diallo","Cheick-Diallo-35225","3200","PF","58.96","236","6.4","104.88","16.19","2.00","3.75","1.72","2.06","0","0"
"Hamidou Diallo","Hamidou-Diallo-408800","3200","SG","40.78","218","19.0","102.62","16.58","2.00","1.67","0.39","1.58","0","0"
"Troy Brown","Troy-Brown-409043","3000","SF","37.76","228.5","8.0","103.80","24.02","1.00","0.89","0.22","0.84","0","0"
