"nameCol","idCol","salaryCol","positionCol","dvpCol","ouCol","mpgCol","paceCol","usgCol","pminCol","ceilCol","floorCol","pointsCol","predictCol","actualCol"
"Garrett Temple","Garrett-Temple-14077","4000","SG/SF","39.90","212","33.4","103.30","12.86","35.00","47.64","18.3","25.41","0","0"
"Mike Conley","Mike-Conley-1062","7000","PG","42.84","212","33.7","103.30","25.24","35.00","72.01","23.18","41.1","0","0"
"Marc Gasol","Marc-Gasol-1493","7400","C","59.76","212","35.4","103.30","21.48","35.00","66.31","24.98","42.78","0","0"
"Shelvin Mack","Shelvin-Mack-13354","4200","PG","42.84","212","27.3","103.30","19.30","28.00","42.82","18.66","23.83","0","0"
"Kevin Knox","Kevin-Knox-408820","4300","SF","50.00","227","18.2","100.17","26.63","30.00","29.37","4.99","24.13","0","0"
"Jusuf Nurkic","Jusuf-Nurkic-18619","7100","C","58.45","222.5","26.8","104.50","26.09","29.00","61.58","22.05","39.45","0","0"
"Robert Covington","Robert-Covington-16874","5300","SF/PF","39.17","222.5","33.2","100.67","12.41","37.00","48.57","19.37","29.49","0","0"
"Tim Hardaway Jr.","Tim-Hardaway-Jr.-16879","6700","SG/SF","50.00","227","29.0","100.17","28.33","33.00","67.66","25.1","36.97","0","0"
"Kyle Anderson","Kyle-Anderson-18615","4800","PG/SF","37.87","212","32.3","103.30","12.68","35.00","41.32","14.24","26.32","0","0"
"De'Aaron Fox","De'Aaron-Fox-37900","6800","PG","44.50","212","32.2","98.20","23.91","36.00","54.61","18.89","37.25","0","0"
"Jeff Teague","Jeff-Teague-1005","5900","PG","43.17","222.5","35.0","100.67","27.91","32.00","54.1","16.43","32.22","0","0"
"Nikola Mirotic","Nikola-Mirotic-18584","7400","SF/PF","55.15","227","32.0","104.88","21.10","32.00","70.39","24.75","39.86","0","0"
"Bogdan Bogdanovic","Bogdan-Bogdanovic-37899","4200","SG/SF","43.12","212","20.7","98.20","22.98","25.00","41.8","19.56","22.4","0","0"
"Marvin Bagley III","Marvin-Bagley-III-409321","4300","PF","44.53","212","20.6","98.20","25.29","22.00","27.07","4.21","22.77","0","0"
"Karl-Anthony Towns","Karl-Anthony-Towns-18937","9600","C","59.20","222.5","34.7","100.67","26.36","35.00","80.33","28.82","50.65","0","0"
"Andrew Wiggins","Andrew-Wiggins-18620","6100","SG/SF","41.91","222.5","35.8","100.67","22.99","37.00","49.59","18.34","32.18","0","0"
"Anthony Davis","Anthony-Davis-13895","11400","PF/C","52.65","227","38.0","104.88","29.19","38.00","102.48","31.36","60.07","0","0"
"Emmanuel Mudiay","Emmanuel-Mudiay-18936","4000","PG","60.45","227","21.7","100.17","20.79","22.00","33.43","13.11","21.05","0","0"
"Al-Farouq Aminu","Al-Farouq-Aminu-1279","4900","SF/PF","39.14","222.5","29.3","104.50","10.95","30.00","46.39","19.3","25.73","0","0"
"Iman Shumpert","Iman-Shumpert-13350","3800","SG/SF","37.79","212","27.2","98.20","14.56","28.00","33.55","14.04","19.64","0","0"
"Evan Turner","Evan-Turner-1291","4400","SG/SF","54.48","222.5","26.5","104.50","18.19","29.00","39.89","18.79","22.59","0","0"
"Mario Hezonja","Mario-Hezonja-18923","3600","SF/PF","35.59","227","21.4","100.17","21.52","20.00","36.64","16.24","18.33","0","0"
"Damian Lillard","Damian-Lillard-13900","9100","PG","49.56","222.5","34.2","104.50","29.87","36.00","69.13","22.44","46.18","0","0"
"Taj Gibson","Taj-Gibson-1277","4600","PF","52.49","222.5","29.1","100.67","17.25","28.00","37.38","12.99","23.32","0","0"
"Enes Kanter","Enes-Kanter-13299","6500","C","60.29","227","25.7","100.17","26.06","25.00","53.73","23.96","32.64","0","0"
"C.J. McCollum","C.J.-McCollum-17121","6500","PG/SG","54.48","222.5","33.5","104.50","27.99","34.00","51.59","18.35","32.47","0","0"
"Jaren Jackson","Jaren-Jackson-409099","5400","PF","59.76","212","25.4","103.30","20.77","26.00","34.79","10.9","26.78","0","0"
"Elfrid Payton","Elfrid-Payton-18602","5600","PG","48.41","227","0","104.88","0","28.00","45.13","14.54","27.74","0","0"
"Nemanja Bjelica","Nemanja-Bjelica-31814","5100","SF/PF","44.53","212","23.6","98.20","16.04","28.00","49.08","16.59","25.17","0","0"
"Wayne Selden","Wayne-Selden-36045","3100","SG","55.51","212","16.0","103.30","14.54","20.00","30.54","14.7","15.28","0","0"
"Jrue Holiday","Jrue-Holiday-1073","8300","PG/SG","45.09","227","37.8","104.88","28.31","37.00","64.49","18.95","40.66","0","0"
"Buddy Hield","Buddy-Hield-35206","6200","SG/SF","37.79","212","28.4","98.20","28.17","31.00","53.99","20.3","30.3","0","0"
"Meyers Leonard","Meyers-Leonard-13905","3200","C","58.39","222.5","12.5","104.50","22.43","15.00","31.02","12.62","15.52","0","0"
"Willie Cauley-Stein","Willie-Cauley-Stein-18951","6400","C","48.11","212","27.2","98.20","23.96","31.00","52.26","19.59","31.05","0","0"
"Mitchell Robinson","Mitchell-Robinson-408821","3800","C","47.91","227","21.7","100.17","9.11","22.00","22.43","3.82","18.43","0","0"
"Zach Collins","Zach-Collins-37866","3600","PF","58.39","222.5","20.0","104.50","18.94","20.00","31.48","13.58","17.45","0","0"
"Derrick Rose","Derrick-Rose-1086","7000","PG/SG","43.17","222.5","29.2","100.67","26.69","32.00","60.96","29.28","32.97","0","0"
"Allonzo Trier","Allonzo-Trier-554950","4200","PG","50.00","227","27.4","100.17","21.58","26.00","23.28","3.62","19.58","0","0"
"Julius Randle","Julius-Randle-18632","6700","PF/C","52.65","227","27.2","104.88","23.95","23.00","50.22","23.05","30.53","0","0"
"Dario Saric","Dario-Saric-36004","4300","PF","48.42","222.5","28.2","100.67","18.01","21.00","38.24","15.71","19.35","0","0"
"E'Twaun Moore","E'Twaun-Moore-18582","5200","SG/SF","36.87","227","30.2","104.88","19.86","32.00","41.87","15.81","22.94","0","0"
"Damyean Dotson","Damyean-Dotson-37795","3900","SG","36.62","227","27.1","100.17","15.96","21.00","33.52","14.12","16.77","0","0"
"Noah Vonleh","Noah-Vonleh-18597","4600","PF/C","50.66","227","22.7","100.17","15.30","22.00","31.76","12.77","19.53","0","0"
"Jake Layman","Jake-Layman-35216","3200","PF","39.14","222.5","17.8","104.50","12.09","18.00","24.12","10.33","13.48","0","0"
"MarShon Brooks","MarShon-Brooks-188837","3300","SG","55.51","212","15.4","103.30","23.68","15.00","24.47","9.38","13.38","0","0"
"Nik Stauskas","Nik-Stauskas-18636","3000","SG/SF","38.34","222.5","13.5","104.50","18.80","16.00","22.27","9.05","11.57","0","0"
"Wade Baldwin","Wade-Baldwin-35204","3000","PG","49.56","222.5","9.0","104.50","16.27","13.00","22.89","11.45","11.45","0","0"
"Frank Ntilikina","Frank-Ntilikina-37796","3700","PG","60.45","227","20.3","100.17","20.13","21.00","26.6","12.27","14.09","0","0"
"Gorgui Dieng","Gorgui-Dieng-16939","3200","PF/C","52.49","222.5","11.3","100.67","16.52","12.00","21.24","8.77","11.98","0","0"
"Harry Giles","Harry-Giles-37897","3100","PF","44.53","212","8.7","98.20","32.82","13.00","13.39","2.08","11.26","0","0"
"Wesley Johnson","Wesley-Johnson-1280","3500","SF/PF","37.64","227","23.0","104.88","10.94","20.00","24.19","12.1","12.1","0","0"
"Darius Miller","Darius-Miller-13951","3300","SF/PF","37.64","227","18.5","104.88","11.52","20.00","21.27","10.64","10.64","0","0"
"Frank Mason","Frank-Mason-37898","3500","PG","44.50","212","15.2","98.20","18.14","12.00","19.8","9.69","11.25","0","0"
"Justin Jackson","Justin-Jackson-37895","3400","SF","37.79","212","14.2","98.20","14.07","14.00","16.14","7.3","9.06","0","0"
"Omri Casspi","Omri-Casspi-1270","3100","SF/PF","37.87","212","5.0","103.30","23.00","8.00","13.47","5.68","6.74","0","0"
"Ian Clark","Ian-Clark-16922","3200","PG/SG","36.87","227","19.2","104.88","17.69","10.00","12.55","6.56","6.56","0","0"
"Tyus Jones","Tyus-Jones-18938","3500","PG","39.85","222.5","20.3","100.67","14.93","6.00","9.3","4.47","4.65","0","0"
"Ivan Rabb","Ivan-Rabb-37854","3000","PF","52.70","212","4.8","103.30","20.90","3.00","5.32","2.52","2.94","0","0"
"Josh Okogie","Josh-Okogie-409174","3800","SG","41.91","222.5","20.9","100.67","18.09","4.00","3.49","0.53","2.92","0","0"
