"nameCol","idCol","salaryCol","positionCol","dvpCol","ouCol","mpgCol","paceCol","usgCol","pminCol","ceilCol","floorCol","pointsCol","predictCol","actualCol"
"Ed Davis","Ed-Davis-1265","4200","PF/C","52.67","217.5","17.9","114.62","11.71","27.00","54.69","20.44","27.36","0","0"
"DeMarre Carroll","DeMarre-Carroll-1174","4100","SF/PF","42.17","217.5","17.7","114.62","21.43","28.00","52.25","20.15","26.14","0","0"
"David Nwaba","David-Nwaba-36526","3200","SG/SF","37.57","216.5","14.0","103.60","14.74","26.00","39.96","19.37","19.99","0","0"
"Spencer Dinwiddie","Spencer-Dinwiddie-18588","4900","PG/SG","53.22","217.5","26.7","114.62","22.70","29.00","54.67","20.8","29.89","0","0"
"Jonas Valanciunas","Jonas-Valanciunas-13301","5000","C","51.23","223","19.2","105.50","23.14","23.00","60.59","27.89","30.31","0","0"
"D'Angelo Russell","D'Angelo-Russell-18947","6700","PG/SG","53.22","217.5","25.4","114.62","32.71","33.00","63.85","20.03","40.46","0","0"
"Shelvin Mack","Shelvin-Mack-13354","3800","PG","45.15","214","27.2","103.30","18.95","29.00","41.29","17.04","22.84","0","0"
"Tyson Chandler","Tyson-Chandler-1482","3400","C","52.71","223","18.5","112.50","12.65","22.00","40.86","20.44","20.44","0","0"
"Andrew Wiggins","Andrew-Wiggins-18620","5700","SG/SF","47.62","235.5","35.7","100.67","21.64","37.00","52.49","19.41","34.06","0","0"
"Deandre Ayton","Deandre-Ayton-409301","6400","C","44.63","213.5","33.4","108.80","19.25","34.00","49.44","15.49","38.06","0","0"
"Gordon Hayward","Gordon-Hayward-1239","5100","SG/SF","50.14","211.5","26.0","101.75","17.89","30.00","51.28","17.65","30.27","0","0"
"MarShon Brooks","MarShon-Brooks-188837","3300","SG","46.48","214","15.3","103.30","23.89","23.00","35.92","13.79","19.51","0","0"
"Jeff Teague","Jeff-Teague-1005","5600","PG","53.56","235.5","34.0","100.67","30.11","32.00","55.52","16.87","33.07","0","0"
"J.R. Smith","J.R.-Smith-915","4000","SG/SF","45.58","216.5","28.4","103.60","18.41","32.00","41.0","15.74","23.43","0","0"
"Mikal Bridges","Mikal-Bridges-408842","3700","SF","33.59","213.5","20.6","108.80","16.59","30.00","26.3","4.25","21.68","0","0"
"Jusuf Nurkic","Jusuf-Nurkic-18619","6500","C","56.82","223","25.7","104.50","26.10","28.00","58.29","21.21","37.95","0","0"
"Larry Nance","Larry-Nance-18946","5500","PF/C","57.75","216.5","22.2","103.60","15.36","33.00","55.69","19.52","32.1","0","0"
"Derrick White","Derrick-White-37858","4700","PG","50.11","213.5","23.3","99.70","20.46","30.00","51.49","22.84","27.39","0","0"
"Jabari Parker","Jabari-Parker-18593","5600","SF/PF","42.71","211.5","34.3","104.50","21.20","34.00","53.17","17.6","32.6","0","0"
"Garrett Temple","Garrett-Temple-14077","4000","SG/SF","38.01","214","32.7","103.30","12.82","34.00","44.14","16.58","23.16","0","0"
"Marc Gasol","Marc-Gasol-1493","7100","C","56.83","214","35.2","103.30","20.35","35.00","64.98","23.52","40.97","0","0"
"Allen Crabbe","Allen-Crabbe-16978","3800","SG/SF","40.75","217.5","23.3","114.62","17.44","28.00","41.2","14.38","21.82","0","0"
"Mike Conley","Mike-Conley-1062","6800","PG","45.15","214","33.5","103.30","25.09","36.00","67.93","22.81","39.06","0","0"
"Dwight Howard","Dwight-Howard-1501","5800","C","55.04","216.5","28.7","103.80","16.60","30.00","54.29","16.79","32.98","0","0"
"Devin Booker","Devin-Booker-18949","7600","PG/SG","50.39","213.5","36.3","108.80","30.56","37.00","75.42","23.36","43.1","0","0"
"Markieff Morris","Markieff-Morris-13314","4600","SF/PF","50.01","216.5","26.8","103.80","17.53","29.00","44.9","14.47","26.03","0","0"
"TJ Warren","TJ-Warren-18634","5800","SF/PF","48.89","213.5","31.2","108.80","20.81","36.00","50.82","18.89","32.85","0","0"
"John Wall","John-Wall-1084","9100","PG","49.82","216.5","37.7","103.80","28.26","36.00","67.71","20.48","51.45","0","0"
"Bradley Beal","Bradley-Beal-13898","7500","SG","52.80","216.5","35.2","103.80","25.98","37.00","77.61","28.92","42.34","0","0"
"Derrick Favors","Derrick-Favors-1266","4600","PF/C","47.00","212.5","22.6","98.88","17.97","27.00","40.17","15.97","25.93","0","0"
"Robin Lopez","Robin-Lopez-1466","3000","C","47.88","211.5","14.0","104.50","9.77","18.00","33.58","16.8","16.8","0","0"
"Justin Holiday","Justin-Holiday-14559","4700","SG/SF","40.54","211.5","37.7","104.50","12.72","36.00","44.72","17.57","26.23","0","0"
"Zach LaVine","Zach-LaVine-18622","7900","PG/SG","41.70","211.5","39.6","104.50","31.41","38.00","70.94","26.71","44.01","0","0"
"Emmanuel Mudiay","Emmanuel-Mudiay-18936","3700","PG","43.64","215.5","21.8","100.17","20.64","20.00","35.49","14.45","20.56","0","0"
"Robert Covington","Robert-Covington-16874","4700","SF/PF","36.56","235.5","31.6","100.67","11.30","32.00","42.92","17.12","26.06","0","0"
"Jaylen Brown","Jaylen-Brown-35181","4400","SG/SF","42.51","211.5","30.8","101.75","19.76","30.00","43.69","17.79","24.31","0","0"
"Al-Farouq Aminu","Al-Farouq-Aminu-1279","4900","SF/PF","37.81","223","29.2","104.50","10.63","30.00","48.17","19.97","26.66","0","0"
"Khris Middleton","Khris-Middleton-13990","6700","SG/SF","41.37","214","30.2","98.80","26.34","35.00","69.32","26.06","36.35","0","0"
"Richaun Holmes","Richaun-Holmes-18905","3300","PF/C","58.93","213.5","12.6","108.80","15.90","17.00","35.76","12.59","17.89","0","0"
"Jordan Clarkson","Jordan-Clarkson-18631","5600","PG/SG","44.86","216.5","24.7","103.60","28.17","28.00","59.56","29.25","30.31","0","0"
"LeBron James","LeBron-James-1227","10300","SF/PF","45.78","223","33.3","112.50","31.30","35.00","79.42","23.42","55.77","0","0"
"Danny Green","Danny-Green-940","4000","SG/SF","35.97","223","24.3","105.50","15.52","29.00","37.02","14.98","21.65","0","0"
"Antonio Blakeney","Antonio-Blakeney-37811","3300","PG","40.54","211.5","17.1","104.50","28.35","20.00","35.0","14.38","17.82","0","0"
"DeAndre Jordan","DeAndre-Jordan-1486","6500","C","50.42","212.5","30.3","100.08","11.72","32.00","51.33","21.03","35.11","0","0"
"Dante Cunningham","Dante-Cunningham-1259","3400","SF/PF","47.11","213.5","23.2","99.70","9.74","28.00","32.92","12.86","18.34","0","0"
"Al Horford","Al-Horford-1499","6400","PF/C","73.53","211.5","30.8","101.75","19.10","32.00","54.62","18.21","34.48","0","0"
"Joe Harris","Joe-Harris-18587","4700","SG/SF","40.75","217.5","29.4","114.62","16.82","32.00","43.43","16.84","25.25","0","0"
"Greg Monroe","Greg-Monroe-1487","3000","C","51.23","223","3.8","105.50","26.67","14.00","25.6","9.5","16.1","0","0"
"Donovan Mitchell","Donovan-Mitchell-37875","7400","PG/SG","51.08","212.5","32.6","98.88","28.96","36.00","60.97","21.88","39.64","0","0"
"Brook Lopez","Brook-Lopez-1498","5000","C","53.19","214","27.5","98.80","16.42","32.00","47.61","17.81","26.82","0","0"
"Kawhi Leonard","Kawhi-Leonard-13310","8600","SG/SF","41.14","223","29.0","105.50","29.71","35.00","75.02","21.14","46.05","0","0"
"Joe Ingles","Joe-Ingles-18627","6100","SG/SF","31.19","212.5","34.4","98.88","19.27","35.00","58.57","21.7","32.54","0","0"
"Kyle Lowry","Kyle-Lowry-1057","8100","PG","49.19","223","31.0","105.50","23.12","34.00","71.82","23.67","43.19","0","0"
"Karl-Anthony Towns","Karl-Anthony-Towns-18937","9500","C","58.58","235.5","35.6","100.67","25.67","36.00","80.36","28.83","50.67","0","0"
"Rondae Hollis-Jefferson","Rondae-Hollis-Jefferson-18897","5200","PF/C","46.76","217.5","20.6","114.62","22.12","29.00","55.15","21.41","27.59","0","0"
"Collin Sexton","Collin-Sexton-408896","5000","PG","59.34","216.5","27.8","103.60","21.99","34.00","36.53","9.76","26.53","0","0"
"Jonathon Simmons","Jonathon-Simmons-31808","3400","SG/SF","50.10","218","20.7","105.10","18.93","22.00","31.95","14.78","18.02","0","0"
"Otto Porter","Otto-Porter-17069","4800","SF/PF","36.50","216.5","23.8","103.80","14.92","28.00","44.1","17.16","25.46","0","0"
"Hassan Whiteside","Hassan-Whiteside-18664","8400","C","57.37","217.5","27.0","106.90","21.56","30.00","67.28","21.58","44.5","0","0"
"Goran Dragic","Goran-Dragic-1040","6300","PG","42.21","217.5","27.3","106.90","28.67","32.00","53.3","18.85","33.25","0","0"
"Ryan Arcidiacono","Ryan-Arcidiacono-36050","4100","PG","49.43","211.5","26.0","104.50","11.28","32.00","40.11","13.9","21.61","0","0"
"LaMarcus Aldridge","LaMarcus-Aldridge-1349","8300","PF/C","57.49","213.5","33.0","99.70","24.56","35.00","74.31","27.81","43.66","0","0"
"Fred VanVleet","Fred-VanVleet-36011","4000","PG/SG","50.08","223","22.7","105.50","20.79","23.00","39.12","16.73","21.02","0","0"
"Steven Adams","Steven-Adams-16848","7300","C","54.11","215.5","32.4","102.62","16.77","34.00","60.42","23.62","38.34","0","0"
"Ricky Rubio","Ricky-Rubio-1001","5800","PG","46.73","212.5","30.6","98.88","24.67","31.00","48.83","16.33","30.46","0","0"
"Josh Richardson","Josh-Richardson-18922","6800","SG/SF","41.10","217.5","35.5","106.90","25.17","36.00","61.62","21.57","35.72","0","0"
"JaVale McGee","JaVale-McGee-1485","5600","C","52.71","223","25.3","112.50","18.67","26.00","48.51","18.04","29.33","0","0"
"Eric Bledsoe","Eric-Bledsoe-1031","6300","PG/SG","43.26","214","28.8","98.80","23.61","31.00","56.54","20.12","32.93","0","0"
"Anthony Davis","Anthony-Davis-13895","11300","PF/C","58.76","235.5","38.2","104.88","27.74","38.00","102.55","30.25","58.97","0","0"
"Giannis Antetokounmpo","Giannis-Antetokounmpo-16852","11000","SF/PF","43.41","214","34.3","98.80","31.54","36.00","80.36","25.2","57.4","0","0"
"Kyle Anderson","Kyle-Anderson-18615","4800","PG/SF","40.02","214","31.2","103.30","13.48","33.00","40.78","12.74","24.99","0","0"
"Mike Muscala","Mike-Muscala-17379","3500","PF/C","48.02","218","25.8","108.33","16.54","25.00","36.36","18.19","18.19","0","0"
"Seth Curry","Seth-Curry-16825","3100","PG/SG","32.20","223","16.3","104.50","12.05","19.00","32.22","16.12","16.12","0","0"
"C.J. McCollum","C.J.-McCollum-17121","6600","PG/SG","51.00","223","32.5","104.50","27.16","35.00","54.1","19.5","34.33","0","0"
"Pascal Siakam","Pascal-Siakam-35186","5900","PF","51.23","223","30.0","105.50","17.97","31.00","52.5","17.64","30.63","0","0"
"Tyus Jones","Tyus-Jones-18938","3700","PG","62.30","235.5","21.8","100.67","15.27","24.00","38.38","18.47","19.2","0","0"
"Paul George","Paul-George-1245","9600","SF/PF","53.33","215.5","35.9","102.62","27.16","36.00","81.72","30.64","49.74","0","0"
"Tim Hardaway Jr.","Tim-Hardaway-Jr.-16879","7000","SG/SF","48.38","215.5","31.2","100.17","28.78","33.00","66.28","24.61","36.24","0","0"
"Wayne Selden","Wayne-Selden-36045","3000","SG","46.48","214","15.3","103.30","13.75","20.00","31.04","15.53","15.53","0","0"
"Tristan Thompson","Tristan-Thompson-13308","5800","C","56.40","216.5","30.2","103.60","17.85","32.00","48.64","18.01","29.97","0","0"
"Jared Dudley","Jared-Dudley-1319","3300","SF/PF","42.17","217.5","23.7","114.62","12.56","26.00","28.78","11.43","16.99","0","0"
"Jaren Jackson","Jaren-Jackson-409099","5600","PF","56.83","214","27.2","103.30","20.31","30.00","33.85","6.05","28.83","0","0"
"Bryn Forbes","Bryn-Forbes-36052","3900","PG/SG","36.71","213.5","26.5","99.70","19.18","30.00","34.25","12.6","19.97","0","0"
"Jayson Tatum","Jayson-Tatum-37782","6600","SF/PF","50.14","211.5","32.8","101.75","19.60","34.00","50.15","17.63","33.7","0","0"
"Jerami Grant","Jerami-Grant-18576","4700","SF/PF","53.33","215.5","30.0","102.62","14.64","30.00","45.08","15.99","23.98","0","0"
"Malcolm Brogdon","Malcolm-Brogdon-35195","5200","PG/SG","42.68","214","29.2","98.80","20.39","33.00","47.84","18.74","26.4","0","0"
"Damian Lillard","Damian-Lillard-13900","8800","PG","55.87","223","33.0","104.50","29.14","35.00","66.75","21.77","44.71","0","0"
"Rodney Hood","Rodney-Hood-18629","5100","SG/SF","44.86","216.5","26.3","103.60","18.96","29.00","48.53","16.58","25.87","0","0"
"Joel Embiid","Joel-Embiid-18578","10500","C","48.02","218","35.3","108.33","32.32","35.00","76.04","22.51","53.1","0","0"
"Nikola Vucevic","Nikola-Vucevic-13296","8200","C","56.11","218","30.3","105.10","24.89","32.00","60.97","19.13","41.31","0","0"
"Wayne Ellington","Wayne-Ellington-1009","3900","SG/SF","31.22","217.5","21.2","106.90","18.88","26.00","39.24","15.72","19.63","0","0"
"Enes Kanter","Enes-Kanter-13299","6600","C","44.30","215.5","25.6","100.17","26.18","26.00","54.45","24.34","33.16","0","0"
"Harrison Barnes","Harrison-Barnes-13901","5500","SF/PF","48.10","212.5","29.5","100.08","24.32","33.00","40.99","15.99","27.53","0","0"
"Kevin Knox","Kevin-Knox-408820","3900","SF","48.38","215.5","15.5","100.17","25.77","26.00","24.29","5.08","19.45","0","0"
"Reggie Jackson","Reggie-Jackson-13352","5600","PG/SG","48.99","223","29.5","100.30","27.91","31.00","45.38","14.6","27.86","0","0"
"DeMar DeRozan","DeMar-DeRozan-1053","9000","SG/SF","55.31","213.5","34.7","99.70","26.60","37.00","71.02","21.64","44.61","0","0"
"Kyle Kuzma","Kyle-Kuzma-37886","6000","SF/PF","45.78","223","30.5","112.50","22.71","32.00","45.33","16.74","29.78","0","0"
"Luka Doncic","Luka-Doncic-408971","6900","PG","36.38","212.5","32.0","100.08","25.79","34.00","45.61","10.46","34.19","0","0"
"Marco Belinelli","Marco-Belinelli-1033","3600","SG/SF","36.71","213.5","22.3","99.70","21.99","23.00","30.44","12.5","17.81","0","0"
"Jrue Holiday","Jrue-Holiday-1073","8500","PG/SG","50.04","235.5","37.9","104.88","28.38","38.00","67.17","19.96","42.11","0","0"
"Dennis Schroder","Dennis-Schroder-18595","7800","PG/SG","43.35","215.5","30.4","102.62","29.61","35.00","61.61","18.54","38.63","0","0"
"Dennis Smith Jr.","Dennis-Smith-Jr.-37847","5400","PG","48.80","212.5","26.5","100.08","24.95","28.00","41.99","14.45","26.46","0","0"
"Damyean Dotson","Damyean-Dotson-37795","4000","SG","36.39","215.5","28.3","100.17","16.08","25.00","32.25","11.02","19.58","0","0"
"Zach Collins","Zach-Collins-37866","3800","PF","60.25","223","20.3","104.50","18.70","20.00","33.63","14.43","18.5","0","0"
"Reggie Bullock","Reggie-Bullock-16943","4100","SG/SF","40.70","223","20.8","100.30","18.35","31.00","37.47","13.62","19.94","0","0"
"Nikola Mirotic","Nikola-Mirotic-18584","7500","SF/PF","55.95","235.5","32.2","104.88","23.44","31.00","64.5","23.08","36.46","0","0"
"Julius Randle","Julius-Randle-18632","6900","PF/C","58.76","235.5","28.0","104.88","25.59","25.00","55.69","25.01","33.43","0","0"
"Evan Turner","Evan-Turner-1291","4400","SG/SF","51.00","223","26.3","104.50","19.60","27.00","37.69","17.62","21.2","0","0"
"J.J. Redick","J.J.-Redick-1030","5300","SG/SF","42.31","218","31.4","108.33","23.24","31.00","40.35","15.91","25.54","0","0"
"Marcus Smart","Marcus-Smart-18567","3900","PG/SG","48.17","211.5","25.8","101.75","14.10","23.00","37.5","14.2","18.76","0","0"
"J.J. Barea","J.J.-Barea-18605","4300","PG/SG","48.80","212.5","19.2","100.08","32.75","19.00","36.07","15.06","20.68","0","0"
"Kyrie Irving","Kyrie-Irving-13334","8000","PG","48.17","211.5","33.6","101.75","30.52","33.00","61.8","20.48","38.36","0","0"
"Andre Drummond","Andre-Drummond-13904","9300","C","50.48","223","34.0","100.30","24.55","34.00","64.71","20.77","44.66","0","0"
"Justise Winslow","Justise-Winslow-18921","5300","PG/SF","31.22","217.5","29.8","106.90","21.72","30.00","46.07","14.87","25.37","0","0"
"Brandon Ingram","Brandon-Ingram-35227","5700","PG/SF","41.60","223","31.7","112.50","22.40","32.00","48.6","16.88","27.32","0","0"
"Meyers Leonard","Meyers-Leonard-13905","3300","C","60.25","223","13.4","104.50","22.12","16.00","31.6","12.85","15.81","0","0"
"Kelly Oubre","Kelly-Oubre-18925","4100","SG/SF","36.50","216.5","23.7","103.80","19.41","23.00","39.26","16.09","19.64","0","0"
"Ish Smith","Ish-Smith-13958","4200","PG","41.12","223","26.2","100.30","18.01","26.00","35.91","13.36","20.06","0","0"
"Kelly Olynyk","Kelly-Olynyk-16845","4100","PF/C","62.64","217.5","17.0","106.90","21.16","19.00","34.31","14.76","19.53","0","0"
"Alex Abrines","Alex-Abrines-36054","3400","SG/SF","37.44","215.5","25.0","102.62","14.39","24.00","32.34","16.18","16.18","0","0"
"Wesley Johnson","Wesley-Johnson-1280","3400","SF/PF","40.59","235.5","21.8","104.88","11.77","24.00","32.28","16.15","16.15","0","0"
"Langston Galloway","Langston-Galloway-18717","3900","PG/SG","38.28","223","22.2","100.30","19.36","25.00","37.04","15.4","18.53","0","0"
"Tim Frazier","Tim-Frazier-18743","3000","PG/SG","43.09","235.5","12.9","104.88","16.07","16.00","28.43","11.66","14.22","0","0"
"Ben Simmons","Ben-Simmons-35184","8700","PG/SF","39.19","218","34.0","108.33","21.65","35.00","64.19","17.47","41.2","0","0"
"Tyler Johnson","Tyler-Johnson-18720","4100","PG/SG","47.17","217.5","28.2","106.90","20.62","24.00","35.3","13.8","19.43","0","0"
"Wendell Carter","Wendell-Carter-408878","5700","C","50.90","211.5","28.3","104.50","21.22","28.00","37.12","9.92","26.96","0","0"
"Isaiah Canaan","Isaiah-Canaan-16875","3900","PG","50.39","213.5","31.2","108.80","15.80","26.00","29.12","11.03","18.41","0","0"
"Wesley Matthews","Wesley-Matthews-1339","5100","SG/SF","30.27","212.5","31.4","100.08","17.52","33.00","41.47","14.78","24.04","0","0"
"Rudy Gobert","Rudy-Gobert-16935","8100","C","51.11","212.5","33.1","98.88","16.13","33.00","62.1","18.37","38.12","0","0"
"Austin Rivers","Austin-Rivers-13903","3400","PG/SG","48.77","216.5","22.0","103.80","13.81","18.00","29.54","13.02","15.97","0","0"
"Noah Vonleh","Noah-Vonleh-18597","5100","PF/C","44.76","215.5","24.4","100.17","15.78","26.00","39.19","14.65","23.97","0","0"
"Josh Jackson","Josh-Jackson-37890","3200","SF","48.89","213.5","11.6","108.80","26.15","16.00","24.78","9.4","15.01","0","0"
"Aaron Gordon","Aaron-Gordon-18601","7700","SF/PF","54.25","218","33.3","105.10","19.54","34.00","54.56","19.69","36.06","0","0"
"Delon Wright","Delon-Wright-18907","3300","PG/SG","50.08","223","17.2","105.50","15.08","19.00","30.9","13.26","15.46","0","0"
"Mario Hezonja","Mario-Hezonja-18923","3800","SF/PF","37.10","215.5","20.0","100.17","21.69","20.00","35.4","15.69","17.71","0","0"
"Jimmy Butler","Jimmy-Butler-13327","8200","SG/SF","50.09","218","39.5","108.33","22.57","35.00","59.95","21.1","38.09","0","0"
"OG Anunoby","OG-Anunoby-37807","3600","SF","35.97","223","23.3","105.50","18.34","24.00","33.32","16.67","16.67","0","0"
"Landry Shamet","Landry-Shamet-408841","3300","PG","48.94","218","25.0","108.33","15.02","24.00","18.1","2.82","15.22","0","0"
"Ryan Anderson","Ryan-Anderson-1281","3100","PF/C","49.34","213.5","19.4","108.80","8.69","18.00","26.44","14.2","14.2","0","0"
"Dario Saric","Dario-Saric-36004","4500","PF","50.95","235.5","29.0","100.67","17.88","22.00","40.76","16.75","20.63","0","0"
"Lonzo Ball","Lonzo-Ball-37885","5400","PG","40.19","223","23.5","112.50","18.21","27.00","38.62","12.47","24.69","0","0"
"D.J. Augustin","D.J.-Augustin-1064","4700","PG","46.73","218","27.7","105.10","16.50","29.00","40.39","12.45","21.47","0","0"
"Patty Mills","Patty-Mills-13977","4100","PG/SG","56.50","213.5","26.0","99.70","19.89","25.00","33.79","14.57","18.63","0","0"
"Davis Bertans","Davis-Bertans-36051","3600","PF/C","57.49","213.5","18.5","99.70","14.00","20.00","31.16","13.04","16.28","0","0"
"Mitchell Robinson","Mitchell-Robinson-408821","4100","C","50.81","215.5","21.7","100.17","9.02","22.00","20.45","2.06","18.42","0","0"
"Taj Gibson","Taj-Gibson-1277","4800","PF","49.25","235.5","28.7","100.67","17.42","26.00","34.3","11.92","21.4","0","0"
"Evan Fournier","Evan-Fournier-13913","6200","SG/SF","33.06","218","29.4","105.10","27.06","31.00","41.24","14.28","27.68","0","0"
"Terry Rozier","Terry-Rozier-18894","4300","PG/SG","39.45","211.5","23.3","101.75","18.45","20.00","35.49","16.1","18.92","0","0"
"Blake Griffin","Blake-Griffin-1503","9400","PF/C","57.52","223","34.7","100.30","30.22","35.00","61.54","19.03","41.36","0","0"
"Ersan Ilyasova","Ersan-Ilyasova-1301","4100","PF/C","43.41","214","22.3","98.80","12.29","20.00","32.63","12.46","17.98","0","0"
"Alec Burks","Alec-Burks-13353","3700","SG","53.99","212.5","21.0","98.88","21.97","18.00","32.19","16.26","16.26","0","0"
"Dwight Powell","Dwight-Powell-18566","3400","PF/C","58.06","212.5","15.5","100.08","18.35","15.00","27.43","11.88","14.89","0","0"
"E'Twaun Moore","E'Twaun-Moore-18582","4900","SG/SF","37.67","235.5","30.1","104.88","17.53","32.00","38.6","14.81","21.43","0","0"
"Jonathan Isaac","Jonathan-Isaac-37841","3900","PF","56.11","218","12.0","105.10","13.33","20.00","31.82","13.01","16.99","0","0"
"Wilson Chandler","Wilson-Chandler-1327","3600","SF/PF","32.83","218","15.5","108.33","10.66","25.00","27.4","11.07","15.57","0","0"
"Nerlens Noel","Nerlens-Noel-18575","3500","C","54.11","215.5","12.7","102.62","12.00","14.00","30.16","12.84","15.09","0","0"
"Mohamed Bamba","Mohamed-Bamba-409026","3800","C","52.95","218","16.1","105.10","19.84","15.00","19.45","2.95","16.29","0","0"
"Dante Exum","Dante-Exum-18626","3500","PG/SG","46.73","212.5","15.7","98.88","19.30","18.00","29.97","11.84","14.99","0","0"
"Terrence Ross","Terrence-Ross-13902","5000","SG/SF","33.06","218","26.0","105.10","23.15","27.00","38.31","17.91","21.05","0","0"
"Glenn Robinson","Glenn-Robinson-18621","3600","SF/PF","40.70","223","20.7","100.30","17.33","22.00","25.8","9.69","15.05","0","0"
"Josh Hart","Josh-Hart-37889","4200","SG","37.70","223","21.7","112.50","15.15","22.00","34.45","13.77","17.34","0","0"
"Rodney McGruder","Rodney-McGruder-16850","5200","SG/SF","30.76","217.5","31.5","106.90","17.02","28.00","39.95","14.53","21.5","0","0"
"Markelle Fultz","Markelle-Fultz-37801","4000","PG/SG","48.94","218","23.6","108.33","18.65","17.00","28.74","11.51","16.24","0","0"
"Jae Crowder","Jae-Crowder-13942","5200","SF/PF","47.40","212.5","28.7","98.88","21.07","28.00","42.05","16.22","21.12","0","0"
"Frank Ntilikina","Frank-Ntilikina-37796","3900","PG","43.64","215.5","21.9","100.17","20.16","24.00","28.75","10.63","15.65","0","0"
"Chandler Hutchison","Chandler-Hutchison-408877","3500","SG","36.45","211.5","19.7","104.50","14.73","20.00","17.17","3.36","13.78","0","0"
"Terrance Ferguson","Terrance-Ferguson-37871","3200","SF","37.44","215.5","21.1","102.62","12.04","24.00","24.69","8.68","12.58","0","0"
"Bam Adebayo","Bam-Adebayo-37835","3900","C","57.37","217.5","18.3","106.90","11.69","15.00","26.29","13.3","15.05","0","0"
"Jeff Green","Jeff-Green-1314","4200","SF/PF","42.92","216.5","22.3","103.80","17.39","21.00","32.03","12.67","16.22","0","0"
"Jamal Crawford","Jamal-Crawford-1075","3100","PG/SG","48.89","213.5","8.2","108.80","24.64","15.00","23.65","11.83","11.83","0","0"
"De'Anthony Melton","De'Anthony-Melton-409081","3000","SG","50.39","213.5","19.0","108.80","30.17","11.00","21.64","4.47","11.45","0","0"
"Jerian Grant","Jerian-Grant-18900","3500","PG","46.73","218","20.0","105.10","16.18","15.00","26.23","11.66","13.28","0","0"
"Daniel Theis","Daniel-Theis-37784","3000","PF/C","50.15","211.5","4.0","101.75","20.00","12.00","22.45","10.14","11.23","0","0"
"Aron Baynes","Aron-Baynes-14114","3100","C","50.15","211.5","12.2","101.75","15.01","12.00","21.78","9.55","11.56","0","0"
"Jakob Poeltl","Jakob-Poeltl-35187","3000","C","59.78","213.5","9.4","99.70","8.20","12.00","22.33","9.91","11.17","0","0"
"Nik Stauskas","Nik-Stauskas-18636","3200","SG/SF","32.20","223","14.5","104.50","19.03","16.00","23.28","9.63","11.86","0","0"
"Rajon Rondo","Rajon-Rondo-1085","5200","PG","40.19","223","22.7","112.50","21.43","20.00","38.0","19.01","19.01","0","0"
"Darius Miller","Darius-Miller-13951","3200","SF/PF","40.59","235.5","18.6","104.88","12.75","20.00","23.41","11.71","11.71","0","0"
"Josh Okogie","Josh-Okogie-409174","3700","SG","47.62","235.5","23.7","100.67","15.51","17.00","15.8","2.39","13.23","0","0"
"Allonzo Trier","Allonzo-Trier-554950","4500","PG","48.38","215.5","26.1","100.17","20.82","20.00","19.73","4.12","15.8","0","0"
"Raymond Felton","Raymond-Felton-1078","3600","PG/SG","48.48","215.5","10.8","102.62","28.87","13.00","25.21","11.22","12.61","0","0"
"Patrick Patterson","Patrick-Patterson-1260","3100","PF/C","54.45","215.5","14.0","102.62","15.49","16.00","21.65","9.15","10.83","0","0"
"Devin Harris","Devin-Harris-1076","3200","PG/SG","48.80","212.5","14.5","100.08","17.45","14.00","22.23","11.12","11.12","0","0"
"Stanley Johnson","Stanley-Johnson-18913","3700","SF/PF","40.70","223","23.2","100.30","17.47","18.00","24.75","10.07","12.72","0","0"
"Shaquille Harrison","Shaquille-Harrison-36065","3200","PG","41.70","211.5","15.0","104.50","17.91","14.00","20.39","8.51","10.85","0","0"
"Jake Layman","Jake-Layman-35216","3200","PF","37.81","223","16.5","104.50","13.87","14.00","18.94","7.92","10.81","0","0"
"Ian Clark","Ian-Clark-16922","3300","PG/SG","37.67","235.5","19.7","104.88","17.50","16.00","21.55","10.96","10.96","0","0"
"Tomas Satoransky ","Tomas-Satoransky--36031","3000","PG/SG","49.82","216.5","9.7","103.80","14.52","11.00","18.19","7.61","9.96","0","0"
"Pat Connaughton","Pat-Connaughton-18939","3300","SG/SF","36.53","214","15.8","98.80","16.91","15.00","21.87","8.42","10.94","0","0"
"Maxi Kleber","Maxi-Kleber-37845","3300","PF","48.10","212.5","17.2","100.08","13.54","14.00","21.24","9.07","10.97","0","0"
"Semi Ojeleye","Semi-Ojeleye-37786","3000","PF","42.51","211.5","10.0","101.75","10.44","14.00","19.61","9.81","9.81","0","0"
"Dorian Finney-Smith","Dorian-Finney-Smith-36032","3700","SF","33.72","212.5","25.8","100.08","12.83","18.00","21.7","9.64","11.77","0","0"
"Andrew Harrison","Andrew-Harrison-18950","3000","PG","43.84","216.5","12.5","103.60","20.06","13.00","19.03","7.79","9.52","0","0"
"John Henson","John-Henson-13908","3200","C","47.74","214","11.3","98.80","20.11","10.00","19.34","7.95","10.04","0","0"
"Gorgui Dieng","Gorgui-Dieng-16939","3300","PF/C","49.25","235.5","10.4","100.67","18.24","10.00","18.3","7.55","10.32","0","0"
"Hamidou Diallo","Hamidou-Diallo-408800","3100","SG","37.44","215.5","11.7","102.62","21.27","14.00","12.11","2.17","9.48","0","0"
"Donte DiVincenzo","Donte-DiVincenzo-408950","3200","SG","36.53","214","17.3","98.80","14.90","14.00","11.47","1.74","9.61","0","0"
"Lance Stephenson","Lance-Stephenson-947","3300","PG/SG","41.60","223","11.3","112.50","25.41","11.00","19.56","7.81","9.8","0","0"
"Zaza Pachulia","Zaza-Pachulia-1455","3300","C","50.48","223","11.2","100.30","18.93","10.00","19.3","7.47","9.75","0","0"
"Kentavious Caldwell-Pope","Kentavious-Caldwell-Pope-16869","3000","SG/SF","37.70","223","15.8","112.50","18.98","13.00","17.35","8.68","8.68","0","0"
"Ante Zizic","Ante-Zizic-35180","3100","C","56.40","216.5","8.8","103.60","25.13","9.00","16.11","8.06","8.06","0","0"
"Tony Snell","Tony-Snell-16872","3100","SG/SF","41.36","214","15.3","98.80","14.18","14.00","15.65","7.06","7.83","0","0"
"Furkan Korkmaz","Furkan-Korkmaz-35185","3400","SG","48.94","218","15.7","108.33","20.31","11.00","14.75","7.38","7.38","0","0"
"Wesley Iwundu","Wesley-Iwundu-37839","3200","SG","33.88","218","19.0","105.10","13.25","15.00","13.41","6.71","6.71","0","0"
"Georges Niang","Georges-Niang-35193","3100","PF","44.61","212.5","7.9","98.88","13.81","8.00","12.85","5.42","6.44","0","0"
"Lorenzo Brown","Lorenzo-Brown-16940","3000","PG","49.19","223","4.0","105.50","17.77","8.00","12.17","6.09","6.09","0","0"
"Shabazz Napier","Shabazz-Napier-18598","3200","PG/SG","41.01","217.5","12.5","114.62","21.99","7.00","12.53","5.08","6.27","0","0"
"Ian Mahinmi","Ian-Mahinmi-1357","3300","C","55.04","216.5","8.3","103.80","13.82","7.00","12.87","5.82","6.44","0","0"
"Jose Calderon","Jose-Calderon-1071","3000","PG","41.12","223","13.0","100.30","13.31","8.00","10.73","4.27","5.37","0","0"
"Royce O'Neale","Royce-O'Neale-37872","3400","SF","47.40","212.5","15.7","98.88","16.50","6.00","7.73","3.29","4.43","0","0"
"Cedi Osman","Cedi-Osman-18912","5200","SF","37.57","216.5","26.8","103.60","17.48","8.00","7.48","6.35","6.68","0","0"
"Channing Frye","Channing-Frye-1484","3000","PF/C","57.75","216.5","3.0","103.60","26.67","4.00","7.52","3.21","3.76","0","0"
"Anthony Tolliver","Anthony-Tolliver-1263","3200","SF/PF","50.95","235.5","17.1","100.67","11.21","4.00","5.66","2.83","2.83","0","0"
"Amir Johnson","Amir-Johnson-1285","3100","PF/C","55.51","218","8.0","108.33","22.03","2.00","3.61","1.5","1.95","0","0"
"Trey Burke","Trey-Burke-17029","3300","PG/SG","43.64","215.5","16.4","100.17","25.71","1.00","1.98","0.83","0.99","0","0"
