"nameCol","idCol","salaryCol","positionCol","dvpCol","ouCol","mpgCol","paceCol","usgCol","pminCol","ceilCol","floorCol","pointsCol","predictCol","actualCol"
"Nemanja Bjelica","Nemanja-Bjelica-31814","4800","SF/PF","54.10","238","24.9","98.20","19.24","30.00","49.33","19.61","29.75","0","0"
"Willie Cauley-Stein","Willie-Cauley-Stein-18951","6500","C","58.17","238","29.0","98.20","18.52","33.00","56.28","24.82","39.33","0","0"
"Mason Plumlee","Mason-Plumlee-16798","5100","PF/C","51.71","216.5","26.8","99.62","17.00","30.00","43.69","21.37","30.66","0","0"
"Montrezl Harrell","Montrezl-Harrell-18930","5700","PF/C","56.80","238","23.2","108.38","24.13","28.00","50.77","26.28","33.6","0","0"
"Derrick White","Derrick-White-37858","3700","PG/SG","38.78","216.5","23.8","99.70","16.70","28.00","34.65","17.8","21.4","0","0"
"Wesley Matthews","Wesley-Matthews-1339","4400","SG/SF","37.26","228.5","30.9","100.08","18.10","32.00","37.31","15.65","25.45","0","0"
"Jamal Murray","Jamal-Murray-35211","6300","PG/SG","51.93","216.5","34.8","99.62","25.77","36.00","56.17","23.43","36.33","0","0"
"Julius Randle","Julius-Randle-18632","7900","PF/C","51.51","228.5","31.0","104.88","26.98","34.00","62.92","26.99","45.43","0","0"
"DeAndre Jordan","DeAndre-Jordan-1486","6400","C","51.20","228.5","31.6","100.08","14.22","32.00","44.55","21.47","35.84","0","0"
"Shai Gilgeous-Alexander","Shai-Gilgeous-Alexander-408990","4500","PG/SG","45.22","238","27.3","108.38","15.42","28.00","27.66","10.2","25.05","0","0"
"Buddy Hield","Buddy-Hield-35206","7200","SG/SF","32.98","238","31.9","98.20","28.10","34.00","58.07","25.68","38.33","0","0"
"Juan Hernangomez","Juan-Hernangomez-35212","4500","SF/PF","52.17","216.5","28.5","99.62","13.69","32.00","40.36","15.8","23.8","0","0"
"J.J. Barea","J.J.-Barea-18605","4800","PG/SG","50.75","228.5","20.4","100.08","32.40","21.00","37.55","18.45","25.34","0","0"
"Iman Shumpert","Iman-Shumpert-13350","3500","SG/SF","32.98","238","23.5","98.20","17.14","25.00","26.85","13.22","18.49","0","0"
"Trey Lyles","Trey-Lyles-18942","3900","SF/PF","52.17","216.5","20.2","99.62","20.00","23.00","32.06","17.51","20.41","0","0"
"Bryn Forbes","Bryn-Forbes-36052","3800","PG/SG","50.25","216.5","25.0","99.70","17.82","28.00","28.45","12.13","19.85","0","0"
"Jakob Poeltl","Jakob-Poeltl-35187","3300","C","50.15","216.5","20.0","99.70","12.80","19.00","34.44","15.28","17.23","0","0"
"Bogdan Bogdanovic","Bogdan-Bogdanovic-37899","5500","SG/SF","48.96","238","28.2","98.20","24.25","30.00","45.22","24.89","28.51","0","0"
"Patty Mills","Patty-Mills-13977","3300","PG/SG","38.78","216.5","20.5","99.70","15.26","23.00","25.13","13.13","16.83","0","0"
"Anthony Davis","Anthony-Davis-13895","11800","PF/C","51.51","228.5","36.8","104.88","31.92","38.00","88.9","30.76","60.07","0","0"
"De'Aaron Fox","De'Aaron-Fox-37900","8200","PG","54.02","238","29.4","98.20","29.12","34.00","51.82","21.09","41.59","0","0"
"Nikola Jokic","Nikola-Jokic-31812","9600","C","48.89","216.5","30.8","99.62","34.97","33.00","64.13","19.38","48.58","0","0"
"LaMarcus Aldridge","LaMarcus-Aldridge-1349","7200","PF/C","54.46","216.5","28.0","99.70","24.70","32.00","52.59","23.13","36.37","0","0"
"Rudy Gay","Rudy-Gay-1341","5900","SF/PF","48.80","216.5","26.3","99.70","19.77","31.00","37.78","14.93","29.75","0","0"
"Devin Harris","Devin-Harris-1076","3300","PG/SG","50.75","228.5","16.1","100.08","20.58","19.00","29.71","16.59","16.59","0","0"
"Darius Miller","Darius-Miller-13951","4100","SF/PF","38.23","228.5","31.0","104.88","15.58","34.00","32.6","16.07","20.58","0","0"
"Avery Bradley","Avery-Bradley-941","3600","SG","41.03","238","28.7","108.38","13.11","30.00","26.02","11.01","17.82","0","0"
"Davis Bertans","Davis-Bertans-36051","3500","PF/C","54.46","216.5","20.2","99.70","13.86","21.00","29.55","13.85","17.31","0","0"
"Tobias Harris","Tobias-Harris-13332","7800","SF/PF","53.26","238","33.5","108.38","25.04","34.00","50.53","20.34","38.02","0","0"
"Tim Frazier","Tim-Frazier-18743","4400","PG/SG","40.96","228.5","21.0","104.88","14.99","25.00","35.0","14.42","21.37","0","0"
"Monte Morris","Monte-Morris-37860","4600","PG","51.93","216.5","27.8","99.62","18.19","26.00","33.28","17.92","22.26","0","0"
"Luka Doncic","Luka-Doncic-408971","8300","SG/SF","50.18","228.5","32.7","100.08","31.36","34.00","45.41","12.25","40.04","0","0"
"Danilo Gallinari","Danilo-Gallinari-1329","7300","SF/PF","53.26","238","31.7","108.38","23.86","33.00","48.85","19.6","35.12","0","0"
"DeMar DeRozan","DeMar-DeRozan-1053","7900","SG/SF","44.05","216.5","32.2","99.70","27.86","35.00","52.12","17.77","37.96","0","0"
"Torrey Craig","Torrey-Craig-37861","3500","SG/SF","37.55","216.5","30.0","99.62","12.51","26.00","23.62","10.26","16.79","0","0"
"Jrue Holiday","Jrue-Holiday-1073","8800","PG/SG","55.66","228.5","36.6","104.88","29.57","37.00","57.21","20.08","42.1","0","0"
"Harrison Barnes","Harrison-Barnes-13901","6000","SF/PF","49.38","228.5","32.6","100.08","22.98","34.00","36.06","16.55","28.48","0","0"
"Patrick Beverley","Patrick-Beverley-14108","4000","PG/SG","45.22","238","25.0","108.38","14.19","22.00","30.52","10.4","18.91","0","0"
"E'Twaun Moore","E'Twaun-Moore-18582","4300","SG/SF","33.80","228.5","29.8","104.88","16.68","29.00","32.7","16.63","20.25","0","0"
"Kosta Koufos","Kosta-Koufos-1386","3200","PF/C","58.17","238","14.7","98.20","14.78","15.00","28.77","15.01","15.01","0","0"
"Jahlil Okafor","Jahlil-Okafor-18902","3300","C","48.80","228.5","14.3","104.88","23.53","16.00","26.82","13.06","15.46","0","0"
"Dorian Finney-Smith","Dorian-Finney-Smith-36032","3500","SF/PF","43.04","228.5","21.0","100.08","12.53","23.00","25.64","13.39","16.35","0","0"
"Justin Jackson","Justin-Jackson-37895","3300","SF/PF","32.98","238","22.1","98.20","13.84","23.00","22.62","12.04","14.94","0","0"
"Marco Belinelli","Marco-Belinelli-1033","3400","SG/SF","32.24","216.5","21.7","99.70","18.55","20.00","22.03","11.52","15.08","0","0"
"Malik Beasley","Malik-Beasley-35213","3600","PG/SG","37.55","216.5","21.0","99.62","18.40","23.00","26.9","15.33","15.33","0","0"
"Lou Williams","Lou-Williams-1044","6600","PG/SG","47.22","238","21.3","108.38","38.35","25.00","41.13","17.02","27.49","0","0"
"Marcin Gortat","Marcin-Gortat-1479","3400","C","54.78","238","15.8","108.38","14.43","16.00","19.12","7.95","13.34","0","0"
"Mike Scott","Mike-Scott-13999","3300","SF/PF","53.26","238","15.8","108.38","17.15","14.00","24.69","14.61","12.35","0","0"
"Jalen Brunson","Jalen-Brunson-409062","3600","PG","50.00","228.5","24.6","100.08","18.60","20.00","12.79","2.28","12.6","0","0"
"Dirk Nowitzki","Dirk-Nowitzki-1346","3200","PF/C","54.80","228.5","7.6","100.08","17.06","11.00","14.14","8.08","9.71","0","0"
"Maxi Kleber","Maxi-Kleber-37845","3100","PF/C","49.38","228.5","11.8","100.08","18.75","10.00","14.91","7.49","9.06","0","0"
"Solomon Hill","Solomon-Hill-16863","3500","SF/PF","38.23","228.5","23.2","104.88","11.32","15.00","18.85","10.08","10.08","0","0"
"Nick Young","Nick-Young-1063","3000","SG/SF","33.68","216.5","8.8","99.62","13.33","11.00","14.73","8.54","8.54","0","0"
"Frank Jackson","Frank-Jackson-37855","3000","PG/SG","55.66","228.5","12.6","104.88","13.39","12.00","8.91","2.05","8.41","0","0"
"Yogi Ferrell","Yogi-Ferrell-35999","3200","PG/SG","54.02","238","14.0","98.20","25.30","10.00","13.48","6.79","7.99","0","0"
"Harry Giles","Harry-Giles-37897","3000","PF/C","54.10","238","15.5","98.20","25.77","6.00","4.87","0.89","4.82","0","0"
"Boban Marjanovic","Boban-Marjanovic-31807","3800","C","54.78","238","7.0","108.38","25.67","4.00","10.39","5.41","5.41","0","0"
"Tyrone Wallace","Tyrone-Wallace-35220","3300","PG/SG","47.22","238","13.4","108.38","20.29","6.00","6.79","4.21","4.21","0","0"
"Dwight Powell","Dwight-Powell-18566","3400","PF/C","54.80","228.5","14.5","100.08","20.80","4.00","6.69","3.41","4.27","0","0"
"Dante Cunningham","Dante-Cunningham-1259","3200","SF/PF","48.80","216.5","10.0","99.70","8.17","3.00","4.26","1.81","2.26","0","0"
