"nameCol","idCol","salaryCol","positionCol","dvpCol","ouCol","mpgCol","paceCol","usgCol","pminCol","ceilCol","floorCol","pointsCol","predictCol","actualCol"
"Antonio Blakeney","Antonio-Blakeney-37811","3200","PG","37.62","214.5","17.1","104.50","29.65","26.00","48.71","20.12","24.99","0","0"
"Fred VanVleet","Fred-VanVleet-36011","3900","PG/SG","46.03","214.5","22.9","105.50","19.25","28.00","54.34","23.74","28.92","0","0"
"Danny Green","Danny-Green-940","3900","SG/SF","42.35","214.5","24.4","105.50","14.26","32.00","44.47","18.53","26.66","0","0"
"Wendell Carter","Wendell-Carter-408878","5200","C","57.87","214.5","26.6","104.50","19.59","32.00","46.89","10.76","35.15","0","0"
"Raymond Felton","Raymond-Felton-1078","3400","PG/SG","48.75","218","11.7","102.62","27.34","24.00","45.54","20.27","22.78","0","0"
"Robin Lopez","Robin-Lopez-1466","3000","C","50.03","214.5","16.5","104.50","12.11","19.00","40.18","20.1","20.1","0","0"
"Josh Jackson","Josh-Jackson-37890","3400","SF","47.31","218","11.8","108.80","27.58","20.00","36.45","14.27","22.2","0","0"
"Alex Poythress","Alex-Poythress-36018","3100","SF","45.23","219.5","12.9","105.10","15.74","23.00","40.1","17.89","20.06","0","0"
"Hamidou Diallo","Hamidou-Diallo-408800","3200","SG","36.45","218","12.2","102.62","24.03","24.00","25.13","4.92","20.17","0","0"
"Delon Wright","Delon-Wright-18907","3200","PG/SG","46.03","214.5","19.4","105.50","15.08","24.00","38.95","16.06","20.12","0","0"
"Justin Holiday","Justin-Holiday-14559","4400","SG/SF","37.62","214.5","35.7","104.50","13.32","35.00","45.94","16.5","27.54","0","0"
"Jabari Parker","Jabari-Parker-18593","5700","SF/PF","43.43","214.5","33.6","104.50","24.05","33.00","58.78","18.78","35.37","0","0"
"Jerami Grant","Jerami-Grant-18576","4600","SF/PF","46.12","218","29.8","102.62","15.00","29.00","51.3","20.03","28.05","0","0"
"Mike Muscala","Mike-Muscala-17379","3400","PF/C","54.98","225","27.4","108.33","15.68","23.00","40.9","20.46","20.46","0","0"
"Richaun Holmes","Richaun-Holmes-18905","3300","PF/C","50.64","218","15.0","108.80","17.47","18.00","39.08","13.51","19.84","0","0"
"Marvin Williams","Marvin-Williams-1318","4000","SF/PF","54.69","225","23.6","103.00","15.28","26.00","47.14","20.47","24.05","0","0"
"Eric Gordon","Eric-Gordon-1077","4900","SG/SF","46.89","219","30.8","101.42","24.44","30.00","52.28","21.73","29.32","0","0"
"Darren Collison","Darren-Collison-1060","4500","PG","52.09","219.5","27.3","107.67","15.34","29.00","42.73","16.51","26.89","0","0"
"Evan Fournier","Evan-Fournier-13913","5600","SG/SF","31.23","223","29.3","105.10","26.42","32.00","49.98","17.29","33.32","0","0"
"Mikal Bridges","Mikal-Bridges-408842","3700","SF","36.60","218","22.0","108.80","15.14","30.00","29.45","6.79","21.91","0","0"
"Kevin Huerter","Kevin-Huerter-408969","3300","SG","37.37","219.5","23.5","105.10","14.30","24.00","24.32","5.08","19.47","0","0"
"Trey Lyles","Trey-Lyles-18942","4400","SF/PF","49.57","227","21.6","99.62","20.22","23.00","48.02","22.25","25.93","0","0"
"Lonzo Ball","Lonzo-Ball-37885","5400","PG","38.90","223","23.3","112.50","19.71","34.00","50.12","16.14","31.78","0","0"
"J.J. Redick","J.J.-Redick-1030","5500","SG/SF","38.07","225","31.5","108.33","22.58","32.00","51.35","20.11","32.38","0","0"
"Tyreke Evans","Tyreke-Evans-1070","3900","SG/SF","49.35","219.5","20.0","107.67","28.03","19.00","35.92","12.94","22.94","0","0"
"Serge Ibaka","Serge-Ibaka-1294","6100","PF/C","51.30","214.5","25.8","105.50","23.07","30.00","59.76","21.32","35.72","0","0"
"DeAndre Jordan","DeAndre-Jordan-1486","6600","C","46.37","216","28.4","100.08","12.52","34.00","56.5","23.08","38.59","0","0"
"Shaun Livingston","Shaun-Livingston-14007","3000","PG","45.76","216","16.3","103.10","15.49","19.00","32.73","13.63","17.27","0","0"
"Jonas Jerebko","Jonas-Jerebko-1106","3700","SF/PF","44.03","216","19.5","103.10","14.61","26.00","37.61","14.08","21.27","0","0"
"Juan Hernangomez","Juan-Hernangomez-35212","4100","SF/PF","49.57","227","26.4","99.62","11.01","28.00","47.08","15.59","23.55","0","0"
"Gordon Hayward","Gordon-Hayward-1239","5300","SG/SF","47.87","208","28.1","101.75","17.20","30.00","50.96","17.54","30.08","0","0"
"Chandler Hutchison","Chandler-Hutchison-408877","3200","SG","37.89","214.5","19.6","104.50","13.64","25.00","21.67","3.29","18.15","0","0"
"Clint Capela","Clint-Capela-18610","7200","C","52.70","219","32.6","101.42","17.91","32.00","71.88","23.84","40.61","0","0"
"Derrick Favors","Derrick-Favors-1266","4700","PF/C","50.25","208","22.6","98.88","16.37","25.00","40.8","16.23","26.34","0","0"
"DeAndre Bembry","DeAndre-Bembry-35198","4000","SF","33.88","219.5","21.3","105.10","17.21","27.00","38.91","13.26","22.36","0","0"
"Andre Iguodala","Andre-Iguodala-1334","3800","SG/SF","44.61","216","23.4","103.10","13.68","26.00","38.27","12.42","21.19","0","0"
"Jeremy Lamb","Jeremy-Lamb-13955","5100","SG/SF","47.69","225","24.8","103.00","25.24","26.00","46.12","16.93","28.45","0","0"
"Steven Adams","Steven-Adams-16848","7200","C","59.59","218","33.5","102.62","18.67","35.00","61.9","26.29","39.96","0","0"
"Myles Turner","Myles-Turner-18915","4600","C","59.75","219.5","26.0","107.67","17.69","27.00","48.85","19.05","25.43","0","0"
"Kevon Looney","Kevon-Looney-18945","3700","PF/C","50.81","216","19.3","103.10","14.18","21.00","36.44","16.17","20.37","0","0"
"Jamal Murray","Jamal-Murray-35211","6300","PG/SG","53.58","227","34.3","99.62","26.47","34.00","63.68","22.3","34.74","0","0"
"Thaddeus Young","Thaddeus-Young-1289","4300","SF/PF","58.78","219.5","24.2","107.67","17.15","26.00","39.79","12.65","23.64","0","0"
"Nicolas Batum","Nicolas-Batum-1315","5700","SG/SF","48.86","225","27.4","103.00","16.23","31.00","50.88","22.45","31.27","0","0"
"Brandon Ingram","Brandon-Ingram-35227","5800","SG/SF","48.85","223","31.8","112.50","21.56","35.00","57.25","19.63","31.86","0","0"
"Greg Monroe","Greg-Monroe-1487","3700","C","51.46","214.5","9.0","105.50","25.42","18.00","33.45","12.88","20.31","0","0"
"Cameron Payne","Cameron-Payne-18941","3100","PG/SG","50.57","214.5","17.8","104.50","18.21","20.00","33.74","14.65","16.88","0","0"
"Kyle Lowry","Kyle-Lowry-1057","7800","PG","49.72","214.5","33.6","105.50","22.24","35.00","70.78","22.92","42.36","0","0"
"Chris Paul","Chris-Paul-1087","8200","PG","53.40","219","34.7","101.42","21.28","36.00","69.35","21.76","44.31","0","0"
"Marcus Smart","Marcus-Smart-18567","3800","PG/SG","47.75","208","23.4","101.75","16.60","23.00","41.02","15.53","20.52","0","0"
"Ryan Arcidiacono","Ryan-Arcidiacono-36050","4000","PG","50.57","214.5","27.1","104.50","11.58","30.00","40.71","13.89","21.54","0","0"
"Gary Harris","Gary-Harris-18617","6000","SG","50.00","227","32.7","99.62","20.43","34.00","51.07","18.87","32.32","0","0"
"Jonathan Isaac","Jonathan-Isaac-37841","3600","PF","59.50","223","16.0","105.10","9.70","24.00","36.1","14.86","19.38","0","0"
"Dennis Smith Jr.","Dennis-Smith-Jr.-37847","5300","PG","47.39","216","25.2","100.08","24.06","28.00","45.09","15.98","28.43","0","0"
"P.J. Tucker","P.J.-Tucker-13947","4400","SF/PF","37.67","219","35.1","101.42","8.09","35.00","47.12","19.89","23.57","0","0"
"D.J. Augustin","D.J.-Augustin-1064","4400","PG","30.81","223","28.3","105.10","15.85","29.00","44.32","13.71","23.6","0","0"
"De'Aaron Fox","De'Aaron-Fox-37900","6900","PG","41.78","219","32.8","98.20","25.60","33.00","54.08","18.7","36.89","0","0"
"Willie Cauley-Stein","Willie-Cauley-Stein-18951","6100","C","50.33","219","28.3","98.20","22.22","29.00","54.8","20.55","32.56","0","0"
"Luka Doncic","Luka-Doncic-408971","6700","PG","48.73","216","31.0","100.08","26.77","36.00","46.28","14.5","35.63","0","0"
"Harrison Barnes","Harrison-Barnes-13901","5700","SF/PF","45.89","216","28.2","100.08","23.54","34.00","45.36","17.57","30.34","0","0"
"Ricky Rubio","Ricky-Rubio-1001","5600","PG","39.81","208","30.1","98.88","23.50","31.00","47.63","15.92","29.71","0","0"
"Domantas Sabonis","Domantas-Sabonis-35217","6400","PF/C","52.64","219.5","26.3","107.67","20.35","28.00","59.48","26.4","33.93","0","0"
"James Harden","James-Harden-1037","11000","PG/SG","53.40","219","35.4","101.42","34.46","37.00","78.86","21.18","58.03","0","0"
"Miles Bridges","Miles-Bridges-409262","3800","SF","54.69","225","21.4","103.00","13.28","24.00","23.98","3.63","20.08","0","0"
"Kent Bazemore","Kent-Bazemore-13987","5500","SG/SF","44.62","219.5","25.7","105.10","23.69","29.00","49.11","13.87","29.01","0","0"
"Donovan Mitchell","Donovan-Mitchell-37875","7000","PG/SG","48.35","208","31.7","98.88","30.62","35.00","56.71","20.35","36.87","0","0"
"Guillermo Hernangomez","Guillermo-Hernangomez-18901","3500","C","52.41","225","14.8","103.00","19.84","18.00","36.82","17.83","18.42","0","0"
"Cody Zeller","Cody-Zeller-16836","4100","C","52.41","225","23.2","103.00","15.99","24.00","36.52","12.12","21.56","0","0"
"Al Horford","Al-Horford-1499","6100","PF/C","57.38","208","29.9","101.75","16.16","30.00","50.75","16.92","32.04","0","0"
"Nikola Mirotic","Nikola-Mirotic-18584","7100","SF/PF","46.54","227","31.0","104.88","20.57","31.00","65.75","23.12","37.23","0","0"
"Dennis Schroder","Dennis-Schroder-18595","7900","PG/SG","56.03","218","30.8","102.62","29.36","35.00","65.45","20.04","41.4","0","0"
"Damian Jones","Damian-Jones-35223","3300","C","50.81","216","16.8","103.10","10.66","19.00","34.32","12.16","17.3","0","0"
"Kevin Durant","Kevin-Durant-1348","10600","SF/PF","44.03","216","32.5","103.10","32.47","35.00","84.24","28.89","55.46","0","0"
"Anthony Davis","Anthony-Davis-13895","11100","PF/C","55.72","227","38.3","104.88","30.09","37.00","92.51","30.18","57.82","0","0"
"Jae Crowder","Jae-Crowder-13942","4500","SF/PF","35.30","208","27.3","98.88","21.34","29.00","46.65","17.99","23.43","0","0"
"Tyson Chandler","Tyson-Chandler-1482","3400","C","55.14","223","21.5","112.50","9.91","20.00","35.44","17.73","17.73","0","0"
"Timothe Luwawu-Cabarrot","Timothe-Luwawu-Cabarrot-35183","3000","SG","33.85","218","1.0","102.62","13.33","19.00","29.56","15.59","15.59","0","0"
"Iman Shumpert","Iman-Shumpert-13350","3600","SG/SF","36.21","219","27.8","98.20","14.19","26.00","31.96","13.38","18.71","0","0"
"Nikola Jokic","Nikola-Jokic-31812","9200","C","59.72","227","28.4","99.62","26.25","32.00","74.23","19.12","47.8","0","0"
"Jimmy Butler","Jimmy-Butler-13327","7500","SG/SF","49.17","225","38.4","108.33","21.18","35.00","61.76","21.39","38.89","0","0"
"Jeremy Lin","Jeremy-Lin-916","3900","PG/SG","47.73","219.5","19.3","105.10","25.84","20.00","36.96","15.68","20.15","0","0"
"Isaiah Canaan","Isaiah-Canaan-16875","4100","PG","46.75","218","31.0","108.80","15.08","30.00","33.64","12.73","21.21","0","0"
"Trae Young","Trae-Young-409063","6600","PG","47.73","219.5","28.7","105.10","33.33","32.00","37.84","3.82","34.09","0","0"
"Gary Clark","Gary-Clark-570141","3900","SF","55.65","219","24.0","101.42","9.38","24.00","24.38","3.94","20.1","0","0"
"Kyle Kuzma","Kyle-Kuzma-37886","5700","SF/PF","51.99","223","29.7","112.50","21.61","31.00","44.91","16.29","29.35","0","0"
"Klay Thompson","Klay-Thompson-13315","7300","SG","44.61","216","34.2","103.10","28.27","36.00","59.17","21.82","37.5","0","0"
"Nemanja Bjelica","Nemanja-Bjelica-31814","5200","SF/PF","45.16","219","24.3","98.20","15.67","27.00","51.89","17.54","26.61","0","0"
"Terry Rozier","Terry-Rozier-18894","4000","PG/SG","39.72","208","23.1","101.75","18.63","21.00","38.29","17.37","20.41","0","0"
"J.J. Barea","J.J.-Barea-18605","4800","PG/SG","47.39","216","18.8","100.08","31.80","20.00","42.5","17.71","24.33","0","0"
"Jrue Holiday","Jrue-Holiday-1073","8100","PG/SG","48.59","227","37.4","104.88","28.60","38.00","65.15","19.14","41.08","0","0"
"Markelle Fultz","Markelle-Fultz-37801","3600","PG/SG","46.15","225","22.2","108.33","17.67","20.00","32.36","12.9","18.22","0","0"
"Jayson Tatum","Jayson-Tatum-37782","5900","SF/PF","47.87","208","32.7","101.75","20.51","32.00","44.43","15.62","29.86","0","0"
"Aaron Gordon","Aaron-Gordon-18601","7700","SF/PF","43.59","223","34.7","105.10","20.96","33.00","58.96","21.3","38.94","0","0"
"Wilson Chandler","Wilson-Chandler-1327","3700","SF/PF","40.43","225","17.7","108.33","12.28","23.00","33.27","13.3","18.7","0","0"
"Pascal Siakam","Pascal-Siakam-35186","6200","PF","51.46","214.5","31.7","105.50","18.89","32.00","54.4","17.76","31.21","0","0"
"Cory Joseph","Cory-Joseph-13339","3600","PG","52.09","219.5","27.5","107.67","10.87","24.00","36.14","14.63","18.08","0","0"
"Buddy Hield","Buddy-Hield-35206","5900","SG/SF","36.21","219","28.2","98.20","27.66","30.00","52.73","19.83","29.59","0","0"
"Victor Oladipo","Victor-Oladipo-16807","9600","PG/SG","49.35","219.5","35.2","107.67","31.49","35.00","78.81","31.05","48.14","0","0"
"Joe Ingles","Joe-Ingles-18627","5800","SG/SF","38.62","208","32.3","98.88","18.06","33.00","51.7","19.16","28.72","0","0"
"Joel Embiid","Joel-Embiid-18578","10700","C","54.98","225","34.4","108.33","31.13","34.00","76.22","22.81","52.93","0","0"
"Lance Stephenson","Lance-Stephenson-947","3300","SG/SF","48.85","223","11.8","112.50","27.53","17.00","32.56","13.0","16.29","0","0"
"Nikola Vucevic","Nikola-Vucevic-13296","8400","C","59.50","223","31.3","105.10","24.27","30.00","60.97","19.26","41.42","0","0"
"Jerian Grant","Jerian-Grant-18900","3400","PG","30.81","223","19.3","105.10","14.29","19.00","33.25","14.67","16.75","0","0"
"Ben Simmons","Ben-Simmons-35184","8500","PG/SF","46.12","225","33.8","108.33","20.49","35.00","64.68","17.67","41.57","0","0"
"Paul Millsap","Paul-Millsap-1335","6200","PF/C","49.57","227","24.9","99.62","22.64","27.00","50.72","19.26","30.28","0","0"
"Dorian Finney-Smith","Dorian-Finney-Smith-36032","3800","SF","34.98","216","25.0","100.08","11.54","30.00","30.9","11.33","18.55","0","0"
"Shaquille Harrison","Shaquille-Harrison-36065","3500","PG","41.65","214.5","17.5","104.50","17.63","20.00","32.56","13.42","17.09","0","0"
"James Ennis","James-Ennis-18599","4000","SG/SF","37.67","219","24.7","101.42","14.14","28.00","35.63","15.21","19.48","0","0"
"Deandre Ayton","Deandre-Ayton-409301","6800","C","45.14","218","33.0","108.80","19.26","33.00","44.54","10.27","33.14","0","0"
"Frank Mason","Frank-Mason-37898","3500","PG","41.78","219","14.7","98.20","18.94","16.00","29.97","14.66","17.03","0","0"
"Devin Harris","Devin-Harris-1076","3200","PG/SG","47.39","216","13.7","100.08","19.60","17.00","31.08","15.55","15.55","0","0"
"TJ Warren","TJ-Warren-18634","6000","SF/PF","47.31","218","33.4","108.80","19.32","34.00","45.12","16.68","29.11","0","0"
"Julius Randle","Julius-Randle-18632","6500","PF/C","55.72","227","27.6","104.88","23.79","25.00","51.88","23.81","31.54","0","0"
"Dewayne Dedmon","Dewayne-Dedmon-16894","4300","PF/C","49.21","219.5","21.0","105.10","18.56","20.00","38.0","15.72","20.8","0","0"
"Kyrie Irving","Kyrie-Irving-13334","7700","PG","47.75","208","33.3","101.75","30.27","32.00","59.96","19.88","37.22","0","0"
"Jonas Valanciunas","Jonas-Valanciunas-13301","5600","C","51.46","214.5","19.4","105.50","23.52","20.00","54.11","23.47","27.07","0","0"
"Devin Booker","Devin-Booker-18949","8000","PG/SG","46.75","218","36.7","108.80","30.27","36.00","67.42","20.95","38.59","0","0"
"Rudy Gobert","Rudy-Gobert-16935","7300","C","46.68","208","30.9","98.88","16.67","32.00","57.11","16.9","35.06","0","0"
"Malik Monk","Malik-Monk-37827","4300","SG","47.69","225","21.6","103.00","29.30","23.00","36.77","16.79","20.35","0","0"
"Mason Plumlee","Mason-Plumlee-16798","3400","PF/C","47.56","227","15.9","99.62","16.49","15.00","32.14","13.12","16.08","0","0"
"Malik Beasley","Malik-Beasley-35213","3200","SG","36.41","227","16.7","99.62","18.83","21.00","30.06","15.04","15.04","0","0"
"LeBron James","LeBron-James-1227","11200","SF/PF","51.99","223","33.0","112.50","32.73","36.00","79.1","20.89","52.63","0","0"
"JaVale McGee","JaVale-McGee-1485","6000","C","55.14","223","23.3","112.50","18.99","24.00","47.52","17.52","28.12","0","0"
"Bojan Bogdanovic","Bojan-Bogdanovic-18571","5000","SG/SF","47.26","219.5","31.2","107.67","17.89","30.00","43.2","19.28","23.29","0","0"
"Justin Jackson","Justin-Jackson-37895","3400","SF","36.21","219","14.2","98.20","14.07","22.00","28.21","12.77","15.84","0","0"
"Marvin Bagley III","Marvin-Bagley-III-409321","4200","PF","45.16","219","20.5","98.20","23.77","24.00","23.23","3.61","19.54","0","0"
"Josh Hart","Josh-Hart-37889","4000","SG","43.05","223","22.8","112.50","15.74","25.00","36.61","14.69","18.48","0","0"
"Jaylen Brown","Jaylen-Brown-35181","4500","SG/SF","33.63","208","29.1","101.75","20.99","29.00","37.38","15.23","20.8","0","0"
"Paul George","Paul-George-1245","9900","SF/PF","46.12","218","35.2","102.62","29.07","36.00","74.82","28.12","45.65","0","0"
"Quinn Cook","Quinn-Cook-31771","5400","PG","50.37","216","24.2","103.10","22.87","31.00","41.82","15.48","24.85","0","0"
"Terrence Ross","Terrence-Ross-13902","5100","SG/SF","31.23","223","27.7","105.10","21.86","27.00","42.48","19.9","23.38","0","0"
"Kemba Walker","Kemba-Walker-13335","9500","PG","47.69","225","35.0","103.00","29.11","35.00","68.05","21.64","43.37","0","0"
"Nerlens Noel","Nerlens-Noel-18575","3500","C","59.59","218","13.0","102.62","12.17","14.00","31.44","13.62","16","0","0"
"Jordan Bell","Jordan-Bell-37877","3400","PF","50.81","216","15.5","103.10","9.63","16.00","29.92","13.06","15.44","0","0"
"Dante Exum","Dante-Exum-18626","3200","PG/SG","39.81","208","14.9","98.88","18.84","17.00","28.77","11.37","14.39","0","0"
"Mohamed Bamba","Mohamed-Bamba-409026","3700","C","58.21","223","14.6","105.10","21.25","18.00","20.15","3.26","16.61","0","0"
"Wesley Johnson","Wesley-Johnson-1280","3500","SF/PF","34.35","227","21.4","104.88","11.66","24.00","31.36","15.69","15.69","0","0"
"Alex Len","Alex-Len-16886","4400","C","49.21","219.5","19.3","105.10","24.70","18.00","32.59","11.86","19.73","0","0"
"Patrick Patterson","Patrick-Patterson-1260","3000","PF/C","55.00","218","15.3","102.62","13.90","18.00","26.73","11.32","13.37","0","0"
"Bogdan Bogdanovic","Bogdan-Bogdanovic-37899","4300","SG/SF","42.72","219","21.2","98.20","22.72","21.00","35.47","16.6","19.01","0","0"
"Dwight Powell","Dwight-Powell-18566","3500","PF/C","54.72","216","17.2","100.08","17.78","14.00","28.19","12.28","15.37","0","0"
"Jamal Crawford","Jamal-Crawford-1075","3100","PG/SG","47.31","218","10.6","108.80","26.96","16.00","27.03","13.52","13.52","0","0"
"Kentavious Caldwell-Pope","Kentavious-Caldwell-Pope-16869","3000","SG/SF","43.05","223","15.3","112.50","20.18","17.00","26.07","11.37","13.04","0","0"
"Alec Burks","Alec-Burks-13353","3400","SG","43.37","208","18.5","98.88","21.86","16.00","29.28","14.79","14.79","0","0"
"Jonathon Simmons","Jonathon-Simmons-31808","3400","SG/SF","50.57","223","20.3","105.10","18.53","18.00","26.12","12.03","14.69","0","0"
"Tony Parker","Tony-Parker-982","3900","PG","41.37","225","18.8","103.00","26.87","19.00","33.08","16.73","16.73","0","0"
"Maxi Kleber","Maxi-Kleber-37845","3300","PF","45.89","216","18.2","100.08","11.96","16.00","27.24","11.61","14","0","0"
"De'Anthony Melton","De'Anthony-Melton-409081","3000","SG","46.75","218","10.0","108.80","5.32","13.00","16.23","2.91","12.71","0","0"
"E'Twaun Moore","E'Twaun-Moore-18582","5300","SG/SF","33.34","227","30.1","104.88","19.19","31.00","40.92","15.45","22.42","0","0"
"Tim Frazier","Tim-Frazier-18743","3000","PG/SG","45.89","227","7.7","104.88","16.49","16.00","25.25","10.79","12.63","0","0"
"Marcus Morris","Marcus-Morris-13316","5700","SF/PF","33.63","208","27.3","101.75","20.90","24.00","45.48","18.9","23.6","0","0"
"Landry Shamet","Landry-Shamet-408841","3200","PG","46.15","225","22.5","108.33","15.54","18.00","15.66","3.07","12.57","0","0"
"Malachi Richardson","Malachi-Richardson-35199","3000","SG","36.35","214.5","3.5","105.50","11.43","17.00","23.51","11.76","11.76","0","0"
"Monte Morris","Monte-Morris-37860","4300","PG","53.58","227","23.7","99.62","16.57","22.00","29.47","13.54","16.82","0","0"
"Darius Miller","Darius-Miller-13951","3200","SF/PF","34.35","227","20.0","104.88","11.32","20.00","24.27","12.14","12.14","0","0"
"Ian Clark","Ian-Clark-16922","3100","PG/SG","33.34","227","18.4","104.88","18.83","18.00","21.18","11.07","11.07","0","0"
"John Collins","John-Collins-37823","5500","C","49.21","219.5","0","105.10","0","20.00","35.6","12.04","19.39","0","0"
"Aron Baynes","Aron-Baynes-14114","3400","C","51.41","208","13.3","101.75","15.69","13.00","22.63","9.92","12.01","0","0"
"Dwayne Bacon","Dwayne-Bacon-37828","3000","SG","33.60","225","15.0","103.00","13.60","14.00","19.87","9.25","10.31","0","0"
"Troy Williams","Troy-Williams-36043","3400","SG","36.21","219","14.8","98.20","19.14","12.00","20.51","8.92","11.04","0","0"
"Royce O'Neale","Royce-O'Neale-37872","3000","SF","35.30","208","13.9","98.88","14.59","12.00","16.3","6.93","9.34","0","0"
"Jalen Brunson","Jalen-Brunson-409062","3100","PG","45.34","216","7.4","100.08","24.46","13.00","11.61","1.88","9.57","0","0"
"Omari Spellman","Omari-Spellman-408970","4200","PF","45.23","219.5","22.4","105.10","17.02","15.00","15.79","3.3","12.64","0","0"
"Ryan Anderson","Ryan-Anderson-1281","3000","PF/C","44.33","218","17.5","108.80","7.99","10.00","15.46","8.52","8.52","0","0"
"Furkan Korkmaz","Furkan-Korkmaz-35185","3300","SG","46.15","225","14.4","108.33","18.07","14.00","18.49","9.25","9.25","0","0"
"Doug McDermott","Doug-McDermott-18583","3000","SF/PF","47.26","219.5","12.5","107.67","11.01","13.00","16.53","8.27","8.27","0","0"
"Gerald Green","Gerald-Green-13374","3400","SG/SF","46.89","219","12.2","101.42","20.03","9.00","17.57","7.13","8.79","0","0"
"Jacob Evans","Jacob-Evans-409245","3000","SG","30.24","216","7.0","103.10","18.40","11.00","9.61","1.88","7.71","0","0"
"Georges Niang","Georges-Niang-35193","3000","PF","42.85","208","6.8","98.88","14.30","10.00","14.67","6.19","7.35","0","0"
"TJ Leaf","TJ-Leaf-37817","3000","PF","59.75","219.5","9.7","107.67","12.87","9.00","13.83","6.92","6.92","0","0"
"Wesley Iwundu","Wesley-Iwundu-37839","3200","SG","37.75","223","17.1","105.10","13.76","10.00","13.43","6.72","6.72","0","0"
"Isaiah Hartenstein","Isaiah-Hartenstein-570142","3400","PF","55.65","219","10.1","101.42","14.75","9.00","8.47","1.37","6.98","0","0"
"Amir Johnson","Amir-Johnson-1285","3100","PF/C","54.54","225","8.1","108.33","23.75","6.00","11.36","4.73","6.14","0","0"
"Vince Carter","Vince-Carter-1066","3200","SG","37.37","219.5","15.7","105.10","15.30","8.00","12.23","5.45","6.21","0","0"
"Daniel Theis","Daniel-Theis-37784","3000","PF/C","51.41","208","6.5","101.75","12.31","6.00","11.57","5.23","5.79","0","0"
"Lorenzo Brown","Lorenzo-Brown-16940","3000","PG","49.72","214.5","4.0","105.50","17.77","5.00","8.3","4.15","4.15","0","0"
"Deonte Burton","Deonte-Burton-570274","3000","SG","56.03","218","6.5","102.62","22.55","6.00","4.98","0.98","4","0","0"
"Tyler Dorsey","Tyler-Dorsey-37825","3000","PG","37.37","219.5","11.7","105.10","14.94","4.00","6.33","2.56","3.24","0","0"
"Torrey Craig","Torrey-Craig-37861","3100","SG/SF","36.41","227","10.2","99.62","14.56","4.00","4.9","2.48","2.75","0","0"
