"nameCol","idCol","salaryCol","positionCol","dvpCol","ouCol","mpgCol","paceCol","usgCol","pminCol","ceilCol","floorCol","pointsCol","predictCol","actualCol"
"Antonio Blakeney","Antonio-Blakeney-37811","3200","PG","37.62","214.5","17.1","104.50","29.65","26.00","48.71","20.12","24.99","0","0"
"Fred VanVleet","Fred-VanVleet-36011","3900","PG/SG","46.03","214.5","22.9","105.50","19.25","28.00","54.34","23.74","28.92","0","0"
"Danny Green","Danny-Green-940","3900","SG/SF","42.35","214.5","24.4","105.50","14.26","32.00","44.47","18.53","26.66","0","0"
"Wendell Carter","Wendell-Carter-408878","5200","C","57.87","214.5","26.6","104.50","19.59","32.00","46.89","10.76","35.15","0","0"
"Robin Lopez","Robin-Lopez-1466","3000","C","50.03","214.5","16.5","104.50","12.11","19.00","40.18","20.1","20.1","0","0"
"Delon Wright","Delon-Wright-18907","3200","PG/SG","46.03","214.5","19.4","105.50","15.08","24.00","38.95","16.06","20.12","0","0"
"Justin Holiday","Justin-Holiday-14559","4400","SG/SF","37.62","214.5","35.7","104.50","13.32","35.00","45.94","16.5","27.54","0","0"
"Jabari Parker","Jabari-Parker-18593","5700","SF/PF","43.43","214.5","33.6","104.50","24.05","33.00","58.78","18.78","35.37","0","0"
"Eric Gordon","Eric-Gordon-1077","4900","SG/SF","46.89","219","30.8","101.42","24.44","30.00","52.28","21.73","29.32","0","0"
"Serge Ibaka","Serge-Ibaka-1294","6100","PF/C","51.30","214.5","25.8","105.50","23.07","30.00","59.76","21.32","35.72","0","0"
"Chandler Hutchison","Chandler-Hutchison-408877","3200","SG","37.89","214.5","19.6","104.50","13.64","25.00","21.67","3.29","18.15","0","0"
"Clint Capela","Clint-Capela-18610","7200","C","52.70","219","32.6","101.42","17.91","32.00","71.88","23.84","40.61","0","0"
"Greg Monroe","Greg-Monroe-1487","3700","C","51.46","214.5","9.0","105.50","25.42","18.00","33.45","12.88","20.31","0","0"
"Cameron Payne","Cameron-Payne-18941","3100","PG/SG","50.57","214.5","17.8","104.50","18.21","20.00","33.74","14.65","16.88","0","0"
"Kyle Lowry","Kyle-Lowry-1057","7800","PG","49.72","214.5","33.6","105.50","22.24","35.00","70.78","22.92","42.36","0","0"
"Chris Paul","Chris-Paul-1087","8200","PG","53.40","219","34.7","101.42","21.28","36.00","69.35","21.76","44.31","0","0"
"Ryan Arcidiacono","Ryan-Arcidiacono-36050","4000","PG","50.57","214.5","27.1","104.50","11.58","30.00","40.71","13.89","21.54","0","0"
"P.J. Tucker","P.J.-Tucker-13947","4400","SF/PF","37.67","219","35.1","101.42","8.09","35.00","47.12","19.89","23.57","0","0"
"De'Aaron Fox","De'Aaron-Fox-37900","6900","PG","41.78","219","32.8","98.20","25.60","33.00","54.08","18.7","36.89","0","0"
"Willie Cauley-Stein","Willie-Cauley-Stein-18951","6100","C","50.33","219","28.3","98.20","22.22","29.00","54.8","20.55","32.56","0","0"
"James Harden","James-Harden-1037","11000","PG/SG","53.40","219","35.4","101.42","34.46","37.00","78.86","21.18","58.03","0","0"
"Iman Shumpert","Iman-Shumpert-13350","3600","SG/SF","36.21","219","27.8","98.20","14.19","26.00","31.96","13.38","18.71","0","0"
"Gary Clark","Gary-Clark-570141","3900","SF","55.65","219","24.0","101.42","9.38","24.00","24.38","3.94","20.1","0","0"
"Nemanja Bjelica","Nemanja-Bjelica-31814","5200","SF/PF","45.16","219","24.3","98.20","15.67","27.00","51.89","17.54","26.61","0","0"
"Pascal Siakam","Pascal-Siakam-35186","6200","PF","51.46","214.5","31.7","105.50","18.89","32.00","54.4","17.76","31.21","0","0"
"Buddy Hield","Buddy-Hield-35206","5900","SG/SF","36.21","219","28.2","98.20","27.66","30.00","52.73","19.83","29.59","0","0"
"Shaquille Harrison","Shaquille-Harrison-36065","3500","PG","41.65","214.5","17.5","104.50","17.63","20.00","32.56","13.42","17.09","0","0"
"James Ennis","James-Ennis-18599","4000","SG/SF","37.67","219","24.7","101.42","14.14","28.00","35.63","15.21","19.48","0","0"
"Frank Mason","Frank-Mason-37898","3500","PG","41.78","219","14.7","98.20","18.94","16.00","29.97","14.66","17.03","0","0"
"Jonas Valanciunas","Jonas-Valanciunas-13301","5600","C","51.46","214.5","19.4","105.50","23.52","20.00","54.11","23.47","27.07","0","0"
"Justin Jackson","Justin-Jackson-37895","3400","SF","36.21","219","14.2","98.20","14.07","22.00","28.21","12.77","15.84","0","0"
"Marvin Bagley III","Marvin-Bagley-III-409321","4200","PF","45.16","219","20.5","98.20","23.77","24.00","23.23","3.61","19.54","0","0"
"Bogdan Bogdanovic","Bogdan-Bogdanovic-37899","4300","SG/SF","42.72","219","21.2","98.20","22.72","21.00","35.47","16.6","19.01","0","0"
"Malachi Richardson","Malachi-Richardson-35199","3000","SG","36.35","214.5","3.5","105.50","11.43","17.00","23.51","11.76","11.76","0","0"
"Troy Williams","Troy-Williams-36043","3400","SG","36.21","219","14.8","98.20","19.14","12.00","20.51","8.92","11.04","0","0"
"Gerald Green","Gerald-Green-13374","3400","SG/SF","46.89","219","12.2","101.42","20.03","9.00","17.57","7.13","8.79","0","0"
"Isaiah Hartenstein","Isaiah-Hartenstein-570142","3400","PF","55.65","219","10.1","101.42","14.75","9.00","8.47","1.37","6.98","0","0"
"Lorenzo Brown","Lorenzo-Brown-16940","3000","PG","49.72","214.5","4.0","105.50","17.77","5.00","8.3","4.15","4.15","0","0"
