"nameCol","idCol","salaryCol","positionCol","dvpCol","ouCol","mpgCol","paceCol","usgCol","pminCol","ceilCol","floorCol","pointsCol","predictCol","actualCol"
"Davis Bertans","Davis-Bertans-36051","3400","PF/C","50.13","218","21.1","99.70","13.65","27.00","44.78","20.65","25.81","0","0"
"Gerald Green","Gerald-Green-13374","3700","SG/SF","42.63","201","23.0","101.42","15.23","29.00","45.41","21.36","26.31","0","0"
"Jakob Poeltl","Jakob-Poeltl-35187","3300","C","50.51","218","18.4","99.70","14.48","23.00","45.18","20.34","22.9","0","0"
"Jahlil Okafor","Jahlil-Okafor-18902","3100","C","50.27","226.5","12.3","104.88","19.97","20.00","33.73","16.51","19.51","0","0"
"E'Twaun Moore","E'Twaun-Moore-18582","4200","SG/SF","40.07","226.5","28.7","104.88","15.88","34.00","42.68","21.63","26.38","0","0"
"Josh Jackson","Josh-Jackson-37890","4100","SF/PF","43.93","230.5","23.3","108.80","18.98","24.00","35.63","15.89","25.38","0","0"
"Julius Randle","Julius-Randle-18632","7900","PF/C","52.79","226.5","35.2","104.88","26.58","36.00","63.93","26.81","46.7","0","0"
"Dillon Brooks","Dillon-Brooks-37852","3200","SG/SF","47.28","201","16.7","103.30","22.46","25.00","35.87","18.89","18.89","0","0"
"Solomon Hill","Solomon-Hill-16863","3200","SF/PF","39.94","226.5","21.0","104.88","10.00","28.00","35.08","18.83","18.83","0","0"
"De'Anthony Melton","De'Anthony-Melton-409081","3500","PG","50.88","230.5","21.7","108.80","13.64","21.00","22.53","8.31","20.41","0","0"
"Tyus Jones","Tyus-Jones-18938","5000","PG","49.32","226.5","24.9","100.67","15.09","34.00","52.51","28.03","29.11","0","0"
"Kevon Looney","Kevon-Looney-18945","3700","PF/C","58.97","230.5","22.4","103.10","12.10","23.00","31.19","13.74","21.51","0","0"
"Bryn Forbes","Bryn-Forbes-36052","4200","PG/SG","51.33","218","28.4","99.70","17.69","32.00","35.37","14.8","24.39","0","0"
"Patty Mills","Patty-Mills-13977","3300","PG/SG","39.94","218","19.4","99.70","16.47","20.00","28.8","14.77","19.01","0","0"
"DeAndre Jordan","DeAndre-Jordan-1486","6100","C","49.68","223","32.0","100.08","14.36","34.00","43.83","20.93","35.06","0","0"
"Kyle Anderson","Kyle-Anderson-18615","4800","PG/SF","35.34","201","31.3","103.30","11.80","33.00","37.77","13.93","27.43","0","0"
"Marcus Smart","Marcus-Smart-18567","4300","PG/SG","51.81","218","29.5","101.75","14.96","28.00","33.7","13.69","24.49","0","0"
"JaMychal Green","JaMychal-Green-18729","3700","SF/PF","52.77","201","22.5","103.30","15.20","22.00","35.13","18.4","21.05","0","0"
"Gordon Hayward","Gordon-Hayward-1239","4700","SF/PF","51.32","218","27.7","101.75","16.33","27.00","39.31","18.43","26.63","0","0"
"Taj Gibson","Taj-Gibson-1277","4400","PF/C","50.93","226.5","24.4","100.67","15.21","27.00","34.52","12.84","24.94","0","0"
"Brandon Knight","Brandon-Knight-13336","3000","PG/SG","46.61","201","10.2","101.42","19.51","20.00","23.44","12.21","16.79","0","0"
"Marco Belinelli","Marco-Belinelli-1033","3500","SG/SF","34.13","218","19.9","99.70","20.67","23.00","29.0","14.94","19.53","0","0"
"Mikal Bridges","Mikal-Bridges-408842","4200","SG/SF","37.33","230.5","33.6","108.80","10.39","31.00","25.71","9.48","23.29","0","0"
"P.J. Tucker","P.J.-Tucker-13947","4500","SF/PF","36.81","201","35.1","101.42","10.97","37.00","48.5","20.92","24.82","0","0"
"James Harden","James-Harden-1037","11400","PG/SG","46.61","201","38.4","101.42","41.90","39.00","72.56","22.99","62.82","0","0"
"Dennis Schroder","Dennis-Schroder-18595","5400","PG/SG","55.61","223","30.8","102.62","24.24","26.00","45.38","24.29","29.7","0","0"
"Danuel House","Danuel-House-36029","4300","SF/PF","46.61","201","24.6","101.42","12.13","30.00","38.66","17.64","23.33","0","0"
"Devin Booker","Devin-Booker-18949","8300","PG/SG","50.88","230.5","37.9","108.80","34.34","35.00","67.08","24.45","45.11","0","0"
"Andrew Wiggins","Andrew-Wiggins-18620","5900","SG/SF","50.77","226.5","34.3","100.67","23.23","35.00","41.9","18.12","31.91","0","0"
"Wesley Matthews","Wesley-Matthews-1339","4300","SG/SF","40.51","223","31.0","100.08","18.02","28.00","40.3","17.15","23.08","0","0"
"Marc Gasol","Marc-Gasol-1493","7200","C","52.77","201","33.7","103.30","22.75","33.00","51.53","21.98","38.23","0","0"
"Dario Saric","Dario-Saric-36004","4500","PF","48.76","226.5","22.4","100.67","20.84","24.00","39.73","20.08","23.85","0","0"
"Elfrid Payton","Elfrid-Payton-18602","5400","PG","35.62","226.5","0","104.88","0","28.00","39.51","14.97","28.57","0","0"
"Harrison Barnes","Harrison-Barnes-13901","5600","SF/PF","47.05","223","34.0","100.08","21.60","34.00","37.74","17.08","29.6","0","0"
"Austin Rivers","Austin-Rivers-13903","4900","PG/SG","40.71","201","33.7","101.42","13.97","35.00","45.0","17.29","25.92","0","0"
"Clint Capela","Clint-Capela-18610","7400","C","49.25","201","33.1","101.42","17.46","35.00","58.59","23.0","38.98","0","0"
"Garrett Temple","Garrett-Temple-14077","4000","SG/SF","37.28","201","31.2","103.30","12.33","30.00","33.82","15.13","21.07","0","0"
"Draymond Green","Draymond-Green-13976","6400","PF/C","55.15","230.5","33.6","103.10","17.11","33.00","41.44","14.91","33.58","0","0"
"Terry Rozier","Terry-Rozier-18894","3600","PG/SG","46.55","218","19.8","101.75","19.84","19.00","29.94","16.12","18.88","0","0"
"LaMarcus Aldridge","LaMarcus-Aldridge-1349","7500","PF/C","50.13","218","30.3","99.70","26.38","33.00","56.51","24.68","38.92","0","0"
"Jonas Jerebko","Jonas-Jerebko-1106","3600","PF/C","48.95","230.5","19.9","103.10","17.41","21.00","33.81","14.49","18.63","0","0"
"Al Horford","Al-Horford-1499","5700","PF/C","49.18","218","24.0","101.75","22.24","29.00","40.13","16.25","29.55","0","0"
"Deandre Ayton","Deandre-Ayton-409301","7300","C","53.60","230.5","33.7","108.80","21.04","32.00","41.43","15.27","37.53","0","0"
"Dennis Smith Jr.","Dennis-Smith-Jr.-37847","5100","PG","48.77","223","28.0","100.08","20.29","28.00","36.09","14.92","26.23","0","0"
"Karl-Anthony Towns","Karl-Anthony-Towns-18937","9300","C","54.58","226.5","32.7","100.67","26.81","36.00","63.83","26.12","47.67","0","0"
"Klay Thompson","Klay-Thompson-13315","6200","SG","33.71","230.5","34.4","103.10","20.19","33.00","42.5","18.43","31.67","0","0"
"Kelly Oubre","Kelly-Oubre-18925","4300","SG/SF","37.33","230.5","25.5","108.80","19.29","25.00","37.69","17.93","21.89","0","0"
"DeMar DeRozan","DeMar-DeRozan-1053","8200","SG/SF","44.43","218","34.0","99.70","26.44","34.00","56.84","19.81","41.28","0","0"
"TJ Warren","TJ-Warren-18634","6600","SF/PF","43.93","230.5","37.7","108.80","22.05","36.00","43.68","19.1","33.22","0","0"
"Mike Conley","Mike-Conley-1062","7600","PG","38.73","201","34.6","103.30","26.57","34.00","56.74","22.92","38.26","0","0"
"Gorgui Dieng","Gorgui-Dieng-16939","3300","PF/C","50.93","226.5","14.3","100.67","18.96","16.00","25.15","11.97","16.46","0","0"
"Jayson Tatum","Jayson-Tatum-37782","6000","SF/PF","51.32","218","30.7","101.75","21.59","32.00","37.85","15.91","29.8","0","0"
"J.J. Barea","J.J.-Barea-18605","4600","PG/SG","48.77","223","21.9","100.08","29.57","20.00","34.41","16.54","22.85","0","0"
"Andre Iguodala","Andre-Iguodala-1334","3900","SG/SF","33.71","230.5","20.7","103.10","13.49","22.00","29.66","11.32","19.32","0","0"
"Stephen Curry","Stephen-Curry-1079","9600","PG/SG","54.20","230.5","37.0","103.10","29.13","33.00","65.56","25.86","47.37","0","0"
"Jerami Grant","Jerami-Grant-18576","5200","PF","47.33","223","34.0","102.62","14.70","32.00","41.04","17.68","25.62","0","0"
"Kevin Durant","Kevin-Durant-1348","9700","SF/PF","48.95","230.5","36.0","103.10","30.43","33.00","61.62","24.85","47.69","0","0"
"Kyrie Irving","Kyrie-Irving-13334","8900","PG","51.81","218","34.8","101.75","29.31","34.00","57.89","23.14","43.17","0","0"
"Russell Westbrook","Russell-Westbrook-1083","11000","PG","55.61","223","35.3","102.62","34.68","35.00","59.48","17.9","53.11","0","0"
"Nene Hilario","Nene-Hilario-17321","3100","C","49.25","201","14.3","101.42","9.90","15.00","24.85","13.23","14.9","0","0"
"Jaylen Brown","Jaylen-Brown-35181","4200","SG/SF","38.61","218","21.8","101.75","20.94","22.00","36.95","16.56","19.95","0","0"
"Paul George","Paul-George-1245","9400","SF/PF","47.33","223","36.5","102.62","35.16","36.00","62.4","27.46","44.57","0","0"
"Josh Okogie","Josh-Okogie-409174","3800","SG/SF","50.77","226.5","22.1","100.67","15.56","24.00","18.17","3.32","17.97","0","0"
"Jrue Holiday","Jrue-Holiday-1073","8500","PG/SG","51.63","226.5","36.7","104.88","29.13","36.00","54.19","18.73","40.2","0","0"
"Dorian Finney-Smith","Dorian-Finney-Smith-36032","3300","SF/PF","38.30","223","20.6","100.08","9.71","22.00","24.24","12.13","15.35","0","0"
"Jaren Jackson","Jaren-Jackson-409099","5300","PF/C","52.77","201","25.7","103.30","21.96","29.00","25.43","5.09","24.59","0","0"
"Robert Covington","Robert-Covington-16874","6500","SF/PF","41.58","226.5","35.0","100.67","17.44","35.00","43.45","19.12","29.78","0","0"
"Marcus Morris","Marcus-Morris-13316","5800","SF/PF","38.61","218","29.2","101.75","20.15","29.00","35.73","13.71","26.47","0","0"
"Derrick White","Derrick-White-37858","4500","PG/SG","39.94","218","26.7","99.70","15.92","27.00","33.2","17.08","20.53","0","0"
"Steven Adams","Steven-Adams-16848","7000","C","47.97","223","34.1","102.62","16.23","32.00","42.9","21.02","31.66","0","0"
"Darius Miller","Darius-Miller-13951","3700","SF/PF","39.94","226.5","28.8","104.88","14.43","28.00","26.71","13.82","16.55","0","0"
"Hamidou Diallo","Hamidou-Diallo-408800","3100","SG/SF","32.95","223","11.9","102.62","17.86","16.00","13.95","2.65","13.53","0","0"
"Terrance Ferguson","Terrance-Ferguson-37871","3100","SG/SF","32.95","223","16.0","102.62","14.62","22.00","21.81","8.8","13.25","0","0"
"Shaun Livingston","Shaun-Livingston-14007","3100","PG","44.53","230.5","15.1","103.10","16.62","16.00","21.14","10.35","13.12","0","0"
"Eric Moreland","Eric-Moreland-18637","3000","PF/C","53.60","230.5","0","108.80","0","14.00","22.83","12.55","12.55","0","0"
"Luka Doncic","Luka-Doncic-408971","8100","SG/SF","45.95","223","32.3","100.08","32.45","34.00","31.78","3.77","33.66","0","0"
"Nerlens Noel","Nerlens-Noel-18575","3300","C","47.97","223","12.4","102.62","10.70","13.00","24.09","11.7","13.68","0","0"
"Ian Clark","Ian-Clark-16922","3000","PG/SG","40.07","226.5","14.5","104.88","18.21","18.00","20.1","12.36","12.36","0","0"
"Shelvin Mack","Shelvin-Mack-13354","3300","PG","38.73","201","20.0","103.30","14.86","14.00","20.63","10.34","13.33","0","0"
"Daniel Theis","Daniel-Theis-37784","3500","PF/C","50.68","218","17.8","101.75","15.08","15.00","23.0","12.59","13.93","0","0"
"Devin Harris","Devin-Harris-1076","3400","PG/SG","48.77","223","15.3","100.08","18.47","14.00","21.61","12.29","12.29","0","0"
"Maxi Kleber","Maxi-Kleber-37845","3700","PF/C","47.05","223","19.5","100.08","13.74","16.00","19.76","8.29","12.78","0","0"
"Patrick Patterson","Patrick-Patterson-1260","3000","PF/C","54.76","223","11.4","102.62","13.44","15.00","17.16","8.7","9.84","0","0"
"Elie Okobo","Elie-Okobo-409300","3000","PG","38.19","230.5","17.0","108.80","16.07","11.00","9.84","1.87","9.54","0","0"
"Dante Cunningham","Dante-Cunningham-1259","3100","SF/PF","43.21","218","6.8","99.70","13.19","12.00","18.06","7.77","9.7","0","0"
"Jamal Crawford","Jamal-Crawford-1075","3200","PG/SG","43.93","230.5","18.7","108.80","23.13","11.00","16.76","9.55","9.55","0","0"
"Joakim Noah","Joakim-Noah-1404","3000","C","52.90","201","11.7","103.30","17.21","12.00","15.03","7.98","8.81","0","0"
"Abdel Nader","Abdel-Nader-35179","3200","PF","36.63","223","12.4","102.62","16.83","13.00","17.79","8.9","8.9","0","0"
"Tim Frazier","Tim-Frazier-18743","3900","PG/SG","35.62","226.5","20.7","104.88","16.77","12.00","20.04","9.05","10.6","0","0"
"Dwight Powell","Dwight-Powell-18566","3800","PF/C","52.56","223","14.0","100.08","22.12","10.00","16.35","8.08","10.19","0","0"
"Alfonzo McKinnie","Alfonzo-McKinnie-37808","3100","SF/PF","35.22","230.5","9.3","103.10","16.87","10.00","14.6","7.58","7.58","0","0"
"Pau Gasol","Pau-Gasol-1502","3400","C","50.13","218","0","99.70","0","6.00","12.24","5.5","8.29","0","0"
"Jordan Bell","Jordan-Bell-37877","3000","PF/C","58.97","230.5","7.0","103.10","16.87","8.00","11.87","6.1","7.21","0","0"
"Quinn Cook","Quinn-Cook-31771","3100","PG","54.20","230.5","4.6","103.10","20.64","8.00","11.53","6.18","6.18","0","0"
"Jerryd Bayless","Jerryd-Bayless-1021","3100","PG/SG","50.77","226.5","10.5","100.67","24.20","9.00","9.43","5.52","5.52","0","0"
"Wayne Selden","Wayne-Selden-36045","3200","SG/SF","48.80","201","10.3","103.30","23.63","8.00","10.12","5.59","5.59","0","0"
"Semi Ojeleye","Semi-Ojeleye-37786","3100","SF/PF","38.61","218","9.6","101.75","15.07","5.00","5.86","3.06","3.06","0","0"
"Quincy Pondexter","Quincy-Pondexter-1237","3000","SF","34.00","218","5.5","99.70","19.33","3.00","4.21","2.23","2.23","0","0"
"Dragan Bender","Dragan-Bender-35228","3000","PF/C","48.69","230.5","1.0","108.80","0.00","1.00","1.48","0.84","0.84","0","0"
