"nameCol","idCol","salaryCol","positionCol","dvpCol","ouCol","mpgCol","paceCol","usgCol","pminCol","ceilCol","floorCol","pointsCol","predictCol","actualCol"
"Ersan Ilyasova","Ersan-Ilyasova-1301","3300","PF/C","45.68","216","16.0","98.80","19.78","28.00","40.65","18.27","26.36","0","0"
"Dennis Schroder","Dennis-Schroder-18595","5100","PG/SG","47.97","217.5","26.2","102.62","25.11","28.00","47.86","25.56","31.28","0","0"
"Brook Lopez","Brook-Lopez-1498","4500","C","47.72","216","29.3","98.80","18.04","28.00","41.26","18.15","27.34","0","0"
"Jerami Grant","Jerami-Grant-18576","4300","PF","48.46","217.5","28.6","102.62","13.41","30.00","41.81","17.91","26","0","0"
"Khris Middleton","Khris-Middleton-13990","6700","SG/SF","53.02","216","29.2","98.80","24.35","36.00","65.16","28.82","40.2","0","0"
"Cedi Osman","Cedi-Osman-18912","4300","SF","39.65","216","33.8","103.60","16.52","32.00","31.82","11.95","25.58","0","0"
"Nemanja Bjelica","Nemanja-Bjelica-31814","4000","SF/PF","50.56","225.5","22.8","98.20","16.40","23.00","39.16","15.57","23.62","0","0"
"Marvin Bagley III","Marvin-Bagley-III-409321","4700","PF","50.56","225.5","20.3","98.20","22.43","27.00","27.54","5.04","27.24","0","0"
"Zach LaVine","Zach-LaVine-18622","7400","PG/SG","54.18","225.5","32.1","104.50","29.50","36.00","58.94","25.29","42.43","0","0"
"Wendell Carter","Wendell-Carter-408878","5000","C","57.92","225.5","24.7","104.50","19.16","30.00","31.57","11.64","28.6","0","0"
"Larry Nance","Larry-Nance-18946","4600","PF/C","54.58","216","27.6","103.60","12.00","26.00","40.52","20.93","26.33","0","0"
"Thon Maker","Thon-Maker-35194","3100","PF/C","48.55","216","11.5","98.80","15.62","20.00","29.67","13.99","17.27","0","0"
"Donovan Mitchell","Donovan-Mitchell-37875","7000","PG/SG","45.70","217.5","31.8","98.88","29.66","35.00","49.58","21.03","38.02","0","0"
"Collin Sexton","Collin-Sexton-408896","4900","PG","46.74","216","34.2","103.60","25.70","34.00","26.33","5.54","26.38","0","0"
"Lauri Markkanen","Lauri-Markkanen-37809","6300","PF","53.66","225.5","25.8","104.50","27.00","32.00","48.71","20.4","33.78","0","0"
"Alec Burks","Alec-Burks-13353","4700","PG/SG","50.44","216","26.6","103.60","22.52","30.00","34.9","18.17","24.82","0","0"
"Jordan Clarkson","Jordan-Clarkson-18631","4800","PG/SG","50.44","216","26.4","103.60","27.63","25.00","41.7","24.27","25.26","0","0"
"Willie Cauley-Stein","Willie-Cauley-Stein-18951","6100","C","56.05","225.5","27.4","98.20","20.70","29.00","45.91","20.24","32.08","0","0"
"Jae Crowder","Jae-Crowder-13942","4500","SF/PF","38.28","217.5","24.9","98.88","19.41","28.00","39.03","17.84","23.29","0","0"
"Ricky Rubio","Ricky-Rubio-1001","6300","PG","34.73","217.5","30.6","98.88","23.08","32.00","43.51","17.29","32.57","0","0"
"George Hill","George-Hill-993","3700","PG/SG","55.04","216","26.0","98.80","12.69","20.00","32.73","17.06","19.02","0","0"
"Russell Westbrook","Russell-Westbrook-1083","11000","PG","47.97","217.5","33.8","102.62","34.78","35.00","62.48","18.87","55.84","0","0"
"Eric Bledsoe","Eric-Bledsoe-1031","7500","PG/SG","42.63","216","31.2","98.80","22.88","34.00","55.28","23.15","37.89","0","0"
"Malcolm Brogdon","Malcolm-Brogdon-35195","6200","PG/SG","55.04","216","30.5","98.80","21.95","32.00","48.12","22.19","31.25","0","0"
"Rodney Hood","Rodney-Hood-18629","4500","SG/SF","50.44","216","29.9","103.60","18.60","30.00","35.95","14.38","22.47","0","0"
"De'Aaron Fox","De'Aaron-Fox-37900","7600","PG","51.76","225.5","30.8","98.20","27.96","34.00","47.06","19.15","37.77","0","0"
"Justin Jackson","Justin-Jackson-37895","3400","SF","34.49","225.5","20.2","98.20","13.67","22.00","25.12","13.37","16.59","0","0"
"Justin Holiday","Justin-Holiday-14559","5300","SG/SF","43.60","225.5","33.0","104.50","16.24","33.00","36.48","16.09","25.78","0","0"
"Bobby Portis","Bobby-Portis-18909","5300","PF/C","57.92","225.5","0","104.50","0","20.00","46.73","22.3","25.37","0","0"
"Rudy Gobert","Rudy-Gobert-16935","7900","C","48.79","217.5","28.0","98.88","18.62","33.00","53.55","19.13","37.58","0","0"
"Iman Shumpert","Iman-Shumpert-13350","3500","SG/SF","34.49","225.5","23.8","98.20","12.47","23.00","24.13","11.88","16.62","0","0"
"Jabari Parker","Jabari-Parker-18593","5800","SF/PF","53.66","225.5","29.9","104.50","25.30","26.00","47.28","23.42","27.52","0","0"
"Sterling Brown","Sterling-Brown-37821","3200","SG","36.71","216","16.6","98.80","11.34","16.00","29.11","15.12","15.12","0","0"
"Paul George","Paul-George-1245","8800","SF/PF","48.46","217.5","31.0","102.62","31.00","35.00","57.19","25.18","40.94","0","0"
"Steven Adams","Steven-Adams-16848","6800","C","53.33","217.5","30.4","102.62","18.98","33.00","42.65","20.92","31.5","0","0"
"Buddy Hield","Buddy-Hield-35206","6600","SG/SF","34.49","225.5","28.8","98.20","26.18","30.00","46.03","20.35","30.38","0","0"
"Joe Ingles","Joe-Ingles-18627","6100","SG/SF","39.73","217.5","27.9","98.88","17.43","31.00","41.94","18.59","27.79","0","0"
"Nerlens Noel","Nerlens-Noel-18575","3400","C","53.33","217.5","15.8","102.62","17.71","15.00","26.54","13.05","15.34","0","0"
"Royce O'Neale","Royce-O'Neale-37872","3500","SF","38.28","217.5","23.0","98.88","12.24","20.00","23.42","11.68","15.76","0","0"
"Bogdan Bogdanovic","Bogdan-Bogdanovic-37899","6300","SG/SF","44.14","225.5","28.0","98.20","26.40","30.00","44.68","24.59","28.17","0","0"
"Derrick Favors","Derrick-Favors-1266","5400","PF/C","47.31","217.5","22.1","98.88","15.84","23.00","31.57","14.71","23.92","0","0"
"Terrance Ferguson","Terrance-Ferguson-37871","3200","SF","33.79","217.5","25.3","102.62","8.00","25.00","21.93","9.17","13.9","0","0"
"Matthew Dellavedova","Matthew-Dellavedova-16839","3000","PG/SG","42.77","216","12.5","103.60","14.70","16.00","21.95","11.77","12.7","0","0"
"Kosta Koufos","Kosta-Koufos-1386","3000","C","56.05","225.5","16.2","98.20","15.10","11.00","23.96","12.5","12.5","0","0"
"Tristan Thompson","Tristan-Thompson-13308","7200","C","48.18","216","34.1","103.60","16.59","32.00","39.89","17.06","28.97","0","0"
"Jaron Blossomgame","Jaron-Blossomgame-570197","3000","SF","39.65","216","13.0","103.60","10.26","16.00","12.05","2.24","11.72","0","0"
"Kyle Korver","Kyle-Korver-1269","3200","SG/SF","39.73","217.5","17.2","98.88","19.75","15.00","21.18","9.71","12.25","0","0"
"Ryan Arcidiacono","Ryan-Arcidiacono-36050","3600","PG","44.66","225.5","29.4","104.50","12.60","22.00","22.53","8.9","13.77","0","0"
"Tony Snell","Tony-Snell-16872","3200","SG/SF","37.29","216","17.7","98.80","17.83","16.00","18.99","9.83","10.9","0","0"
"Kris Dunn","Kris-Dunn-35215","5600","PG/SG","54.18","225.5","0","104.50","0","20.00","24.7","17.1","19","0","0"
"Troy Williams","Troy-Williams-36043","3200","SG","34.49","225.5","15.0","98.20","15.63","11.00","16.44","8.41","10.41","0","0"
"Dante Exum","Dante-Exum-18626","3400","PG","34.73","217.5","9.3","98.88","32.41","13.00","19.08","8.61","10.93","0","0"
"Alex Abrines","Alex-Abrines-36054","3000","SG/SF","33.79","217.5","20.0","102.62","13.46","15.00","18.52","9.64","9.64","0","0"
"Thabo Sefolosha","Thabo-Sefolosha-1271","3000","SF/PF","38.28","217.5","10.5","98.88","12.19","10.00","12.86","7.3","8.65","0","0"
"Hamidou Diallo","Hamidou-Diallo-408800","3100","SG","33.79","217.5","6.5","102.62","25.26","12.00","9.02","1.61","8.89","0","0"
"Chandler Hutchison","Chandler-Hutchison-408877","3000","SG","36.94","225.5","15.4","104.50","10.03","10.00","7.97","1.52","7.73","0","0"
"Patrick Patterson","Patrick-Patterson-1260","3100","PF/C","55.99","217.5","13.8","102.62","13.70","12.00","13.79","6.69","7.92","0","0"
"Donte DiVincenzo","Donte-DiVincenzo-408950","3100","SG","36.71","216","12.8","98.80","14.37","10.00","7.01","1.25","6.91","0","0"
"Shaquille Harrison","Shaquille-Harrison-36065","3600","PG","44.66","225.5","16.1","104.50","16.53","8.00","11.57","5.6","7.14","0","0"
"Cameron Payne","Cameron-Payne-18941","3300","PG/SG","44.66","225.5","17.3","104.50","19.43","3.00","4.87","2.45","2.83","0","0"
