"nameCol","idCol","salaryCol","positionCol","dvpCol","ouCol","mpgCol","paceCol","usgCol","pminCol","ceilCol","floorCol","pointsCol","predictCol","actualCol"
"Kyle Anderson","Kyle-Anderson-18615","4500","PG/SF","36.85","209","29.8","103.30","12.16","33.00","41.22","16.71","30.88","0","0"
"Josh Hart","Josh-Hart-37889","3700","PG/SG","36.20","209","21.3","112.50","11.32","32.00","32.45","16.14","23.36","0","0"
"Garrett Temple","Garrett-Temple-14077","3700","SG/SF","34.59","209","31.3","103.30","13.96","32.00","35.23","15.91","22.1","0","0"
"Shelvin Mack","Shelvin-Mack-13354","3400","PG","36.00","209","24.3","103.30","16.84","24.00","30.66","15.72","20.08","0","0"
"JaVale McGee","JaVale-McGee-1485","4500","C","47.62","209","20.6","112.50","16.93","24.00","36.73","15.92","25.56","0","0"
"Gordon Hayward","Gordon-Hayward-1239","5900","SF/PF","50.98","215.5","25.0","101.75","22.13","30.00","47.19","22.17","32.04","0","0"
"Marcus Morris","Marcus-Morris-13316","5200","SF/PF","40.05","215.5","28.4","101.75","18.51","30.00","37.95","14.57","28.13","0","0"
"Lonzo Ball","Lonzo-Ball-37885","5600","PG","43.47","209","30.4","112.50","18.58","32.00","39.99","15.16","29.84","0","0"
"Kentavious Caldwell-Pope","Kentavious-Caldwell-Pope-16869","3900","SG/SF","36.20","209","23.7","112.50","14.30","30.00","38.81","17.99","20.63","0","0"
"Lauri Markkanen","Lauri-Markkanen-37809","6200","PF","43.14","215.5","28.3","104.50","27.38","32.00","47.23","19.78","32.75","0","0"
"Wendell Carter","Wendell-Carter-408878","5400","PF/C","51.23","215.5","27.1","104.50","19.67","30.00","31.43","11.59","28.47","0","0"
"Marcus Smart","Marcus-Smart-18567","4400","PG/SG","51.81","215.5","28.6","101.75","13.86","26.00","31.64","12.86","23.01","0","0"
"Ryan Arcidiacono","Ryan-Arcidiacono-36050","3700","PG","38.26","215.5","31.4","104.50","12.77","28.00","31.33","12.37","19.15","0","0"
"Zach LaVine","Zach-LaVine-18622","7600","PG/SG","51.59","215.5","34.9","104.50","30.10","36.00","54.21","23.26","39.03","0","0"
"Marc Gasol","Marc-Gasol-1493","8600","C","60.60","209","37.7","103.30","20.08","34.00","57.49","25.47","43.62","0","0"
"Al Horford","Al-Horford-1499","6600","PF/C","66.62","215.5","30.5","101.75","19.91","30.00","44.45","17.17","32.9","0","0"
"Justin Holiday","Justin-Holiday-14559","5500","SG/SF","34.88","215.5","36.0","104.50","16.42","34.00","37.65","16.6","26.61","0","0"
"Tyson Chandler","Tyson-Chandler-1482","3500","C","47.62","209","20.6","112.50","7.85","20.00","32.44","16.79","16.79","0","0"
"JaMychal Green","JaMychal-Green-18729","4700","SF/PF","60.60","209","25.0","103.30","21.64","23.00","38.02","19.73","22.5","0","0"
"LeBron James","LeBron-James-1227","10600","SF/PF","38.57","209","35.0","112.50","34.60","35.00","64.37","20.0","50.37","0","0"
"Jabari Parker","Jabari-Parker-18593","6000","SF/PF","43.14","215.5","31.6","104.50","26.49","26.00","47.86","23.71","27.86","0","0"
"Lance Stephenson","Lance-Stephenson-947","3200","SG/SF","43.33","209","9.7","112.50","25.64","17.00","25.49","11.83","14.83","0","0"
"MarShon Brooks","MarShon-Brooks-188837","3000","SG","50.58","209","14.0","103.30","22.27","17.00","21.41","9.66","13.78","0","0"
"Jaylen Brown","Jaylen-Brown-35181","4600","SG/SF","40.05","215.5","27.5","101.75","20.73","23.00","38.97","17.39","20.95","0","0"
"Kyle Kuzma","Kyle-Kuzma-37886","6800","SF/PF","38.57","209","34.0","112.50","23.30","33.00","40.04","17.09","30.8","0","0"
"Terry Rozier","Terry-Rozier-18894","5000","PG/SG","43.28","215.5","19.8","101.75","21.38","22.00","35.51","18.65","22.5","0","0"
"Mike Conley","Mike-Conley-1062","8700","PG","36.00","209","36.3","103.30","28.61","35.00","57.53","21.79","38.64","0","0"
"Daniel Theis","Daniel-Theis-37784","3000","PF/C","55.12","215.5","14.0","101.75","17.33","13.00","21.94","11.83","13.1","0","0"
"Jaren Jackson","Jaren-Jackson-409099","6300","PF/C","60.60","209","24.7","103.30","20.27","31.00","29.68","10.94","26.88","0","0"
"Jayson Tatum","Jayson-Tatum-37782","7000","SF/PF","50.98","215.5","30.2","101.75","20.70","31.00","37.39","15.84","29.56","0","0"
"Kyrie Irving","Kyrie-Irving-13334","9000","PG","51.81","215.5","31.2","101.75","33.03","31.00","50.56","20.37","37.93","0","0"
"Cameron Payne","Cameron-Payne-18941","3300","PG/SG","38.26","215.5","14.7","104.50","17.91","16.00","23.79","11.99","13.83","0","0"
"Sviatoslav Mykhailiuk","Sviatoslav-Mykhailiuk-409280","3000","SG/SF","38.55","209","8.3","112.50","22.20","17.00","10.89","1.99","10.77","0","0"
"Shaquille Harrison","Shaquille-Harrison-36065","3200","PG","38.26","215.5","14.0","104.50","14.03","14.00","17.29","8.38","10.67","0","0"
"Joakim Noah","Joakim-Noah-1404","3000","C","56.45","209","14.0","103.30","26.79","11.00","14.77","7.88","8.68","0","0"
"Bobby Portis","Bobby-Portis-18909","5000","PF/C","51.23","215.5","0","104.50","0","14.00","12.56","12.56","12.56","0","0"
"Chandler Hutchison","Chandler-Hutchison-408877","3000","SG/SF","34.80","215.5","14.5","104.50","9.90","8.00","5.88","1.12","5.7","0","0"
"Semi Ojeleye","Semi-Ojeleye-37786","3000","SF/PF","40.05","215.5","9.2","101.75","8.98","4.00","5.09","2.69","2.69","0","0"
"Robin Lopez","Robin-Lopez-1466","3000","C","46.33","215.5","18.3","104.50","16.91","2.00","4.08","2.07","2.07","0","0"
