"nameCol","idCol","salaryCol","positionCol","dvpCol","ouCol","mpgCol","paceCol","usgCol","pminCol","ceilCol","floorCol","pointsCol","predictCol","actualCol"
"Garrett Temple","Garrett-Temple-14077","3800","SG/SF","36.92","214.5","32.2","103.30","13.39","33.00","34.75","15.54","21.65","0","0"
"Shelvin Mack","Shelvin-Mack-13354","3400","PG","53.73","214.5","24.5","103.30","17.12","23.00","29.43","14.75","19.01","0","0"
"Kyle Anderson","Kyle-Anderson-18615","4600","PG/SF","40.24","214.5","31.0","103.30","11.97","33.00","35.32","13.03","25.65","0","0"
"Julius Randle","Julius-Randle-18632","7400","PF/C","51.55","214.5","29.0","104.88","28.17","31.00","56.92","30.86","40.98","0","0"
"Tim Frazier","Tim-Frazier-18743","4500","PG/SG","43.83","214.5","25.5","104.88","14.74","30.00","39.19","16.99","24.77","0","0"
"Wendell Carter","Wendell-Carter-408878","5200","PF/C","47.62","219.5","26.1","104.50","19.86","30.00","32.08","8.71","28.09","0","0"
"Anthony Davis","Anthony-Davis-13895","11000","PF/C","51.55","214.5","36.0","104.88","30.95","38.00","85.75","30.87","59.14","0","0"
"Dennis Schroder","Dennis-Schroder-18595","5500","PG/SG","50.39","219.5","27.5","102.62","25.83","29.00","44.47","22.9","29.14","0","0"
"Marc Gasol","Marc-Gasol-1493","8100","C","57.16","214.5","38.5","103.30","21.28","35.00","56.09","23.93","41.61","0","0"
"Jerami Grant","Jerami-Grant-18576","4500","PF","51.57","219.5","29.2","102.62","13.42","30.00","35.21","15.89","23.09","0","0"
"Lauri Markkanen","Lauri-Markkanen-37809","6300","PF","46.25","219.5","28.5","104.50","29.00","32.00","45.93","19.4","32.01","0","0"
"Steven Adams","Steven-Adams-16848","7000","C","55.20","219.5","32.5","102.62","16.79","33.00","46.61","23.29","35.39","0","0"
"Jaren Jackson","Jaren-Jackson-409099","6100","PF/C","57.16","214.5","28.0","103.30","21.27","30.00","31.71","6.35","30.67","0","0"
"Jrue Holiday","Jrue-Holiday-1073","8500","PG/SG","42.01","214.5","36.5","104.88","27.66","37.00","56.04","19.43","41.6","0","0"
"Mike Conley","Mike-Conley-1062","8400","PG","53.73","214.5","35.5","103.30","29.74","35.00","60.88","24.59","41.05","0","0"
"Russell Westbrook","Russell-Westbrook-1083","11400","PG","50.39","219.5","34.5","102.62","33.25","35.00","62.04","19.08","55.79","0","0"
"Justin Holiday","Justin-Holiday-14559","5700","SG/SF","39.27","219.5","36.4","104.50","17.70","37.00","39.38","16.65","27.79","0","0"
"E'Twaun Moore","E'Twaun-Moore-18582","4200","SG/SF","37.03","214.5","26.7","104.88","19.80","29.00","32.56","16.76","20.36","0","0"
"Ryan Arcidiacono","Ryan-Arcidiacono-36050","3800","PG","34.77","219.5","32.4","104.50","13.55","30.00","29.45","11.85","18.43","0","0"
"Paul George","Paul-George-1245","9100","SF/PF","51.57","219.5","32.5","102.62","30.41","35.00","61.45","27.13","44.05","0","0"
"Jabari Parker","Jabari-Parker-18593","6000","SF/PF","46.25","219.5","33.7","104.50","25.88","30.00","48.94","24.34","28.57","0","0"
"Zach LaVine","Zach-LaVine-18622","8200","PG/SG","45.38","219.5","34.7","104.50","30.60","35.00","53.76","23.24","38.87","0","0"
"Solomon Hill","Solomon-Hill-16863","3200","SF/PF","39.74","214.5","22.5","104.88","8.22","25.00","23.07","12.33","14.94","0","0"
"Nerlens Noel","Nerlens-Noel-18575","3500","C","55.20","219.5","14.0","102.62","16.81","15.00","27.5","13.9","16.35","0","0"
"Cameron Payne","Cameron-Payne-18941","3300","PG/SG","34.77","219.5","13.9","104.50","16.32","20.00","25.67","13.1","15.08","0","0"
"Nikola Mirotic","Nikola-Mirotic-18584","7200","SF/PF","39.11","214.5","32.0","104.88","21.01","28.00","47.98","19.88","32.01","0","0"
"Terrance Ferguson","Terrance-Ferguson-37871","3000","SG/SF","35.24","219.5","25.5","102.62","8.00","24.00","20.27","7.97","12.83","0","0"
"JaMychal Green","JaMychal-Green-18729","4500","SF/PF","57.16","214.5","26.0","103.30","19.07","20.00","31.14","16.31","18.66","0","0"
"Shaquille Harrison","Shaquille-Harrison-36065","3200","PG","34.77","219.5","14.4","104.50","15.54","16.00","21.38","10.76","13.23","0","0"
"Darius Miller","Darius-Miller-13951","3300","SF/PF","39.74","214.5","22.2","104.88","14.39","22.00","23.86","13.41","13.41","0","0"
"Alex Abrines","Alex-Abrines-36054","3000","SG/SF","35.24","219.5","16.5","102.62","12.79","18.00","23.58","12.07","12.07","0","0"
"MarShon Brooks","MarShon-Brooks-188837","3000","SG","50.97","214.5","14.0","103.30","23.64","15.00","18.46","8.49","12.04","0","0"
"Joakim Noah","Joakim-Noah-1404","3000","C","48.84","214.5","12.0","103.30","20.00","10.00","14.83","7.87","8.69","0","0"
"Patrick Patterson","Patrick-Patterson-1260","3200","PF/C","67.64","219.5","13.2","102.62","14.67","13.00","15.36","7.34","8.67","0","0"
"Chandler Hutchison","Chandler-Hutchison-408877","3000","SG/SF","38.34","219.5","15.2","104.50","9.64","10.00","7.91","1.67","7.29","0","0"
"Hamidou Diallo","Hamidou-Diallo-408800","3200","SG/SF","35.24","219.5","4.0","102.62","38.80","8.00","6.14","1.12","6.07","0","0"
"Omri Casspi","Omri-Casspi-1270","3100","SF/PF","40.24","214.5","13.7","103.30","12.93","6.00","8.8","4.23","5.04","0","0"
