"nameCol","idCol","salaryCol","positionCol","dvpCol","ouCol","mpgCol","paceCol","usgCol","pminCol","ceilCol","floorCol","pointsCol","predictCol","actualCol"
"Thomas Bryant ","Thomas-Bryant--37884","3200","C","53.88","233.5","3.0","103.80","32.49","22.00","26.83","16.51","20.64","0","0"
"Jonathan Isaac","Jonathan-Isaac-37841","3500","PF","57.26","219","18.7","105.10","16.40","25.00","42.3","19.63","21.86","0","0"
"Mario Hezonja","Mario-Hezonja-18923","3400","SF/PF","38.94","220.5","20.0","100.17","19.64","22.00","40.06","17.78","20.04","0","0"
"Enes Kanter","Enes-Kanter-13299","6300","C","57.05","220.5","24.7","100.17","26.54","27.00","60.64","27.1","36.62","0","0"
"Al-Farouq Aminu","Al-Farouq-Aminu-1279","4700","SF/PF","37.09","220.5","31.0","104.50","11.29","32.00","48.99","20.38","27.17","0","0"
"Allen Crabbe","Allen-Crabbe-16978","3800","SG/SF","38.54","216","24.1","114.62","16.90","29.00","41.31","14.32","21.89","0","0"
"Justise Winslow","Justise-Winslow-18921","4500","PG/SF","32.18","216","26.9","106.90","20.56","27.00","46.71","14.58","25.72","0","0"
"Derrick Jones","Derrick-Jones-36064","3000","SF","30.67","216","13.8","106.90","15.18","22.00","34.24","17.13","17.13","0","0"
"D.J. Augustin","D.J.-Augustin-1064","4300","PG","42.35","219","27.7","105.10","16.79","29.00","45.65","14.08","24.27","0","0"
"Aaron Gordon","Aaron-Gordon-18601","6900","SF/PF","43.57","219","32.0","105.10","22.61","34.00","58.02","20.94","38.35","0","0"
"Jonathon Simmons","Jonathon-Simmons-31808","3300","SG/SF","45.39","219","21.7","105.10","19.82","23.00","32.23","14.91","18.18","0","0"
"Jusuf Nurkic","Jusuf-Nurkic-18619","7400","C","54.12","220.5","27.2","104.50","24.46","29.00","63.31","22.67","40.56","0","0"
"Danilo Gallinari","Danilo-Gallinari-1329","5900","SF/PF","53.61","233.5","33.6","108.38","20.12","32.00","54.12","18.93","32.25","0","0"
"Spencer Dinwiddie","Spencer-Dinwiddie-18588","5500","PG/SG","54.14","216","27.7","114.62","24.64","29.00","53.77","20.9","29.82","0","0"
"Shai Gilgeous-Alexander","Shai-Gilgeous-Alexander-408990","5000","PG","59.97","233.5","31.3","108.38","19.07","32.00","37.17","9.93","26.99","0","0"
"D'Angelo Russell","D'Angelo-Russell-18947","7300","PG/SG","54.14","216","27.4","114.62","32.03","33.00","64.06","19.51","39.18","0","0"
"Josh Richardson","Josh-Richardson-18922","7100","SG/SF","41.31","216","33.9","106.90","23.63","36.00","66.47","22.3","38.05","0","0"
"Evan Fournier","Evan-Fournier-13913","5600","SG/SF","36.64","219","29.1","105.10","25.31","33.00","44.63","15.45","29.95","0","0"
"Rodney McGruder","Rodney-McGruder-16850","4800","SG/SF","30.67","216","32.0","106.90","16.84","32.00","46.75","15.95","25.56","0","0"
"Kyle Lowry","Kyle-Lowry-1057","7700","PG","48.12","219","33.8","105.50","20.12","35.00","68.41","22.15","40.94","0","0"
"Montrezl Harrell","Montrezl-Harrell-18930","6600","PF/C","58.03","233.5","29.0","108.38","22.42","29.00","60.2","26.77","34.28","0","0"
"Serge Ibaka","Serge-Ibaka-1294","6000","PF/C","50.55","219","27.0","105.50","22.57","29.00","51.73","18.46","30.92","0","0"
"Noah Vonleh","Noah-Vonleh-18597","3900","PF/C","48.27","220.5","27.7","100.17","12.33","24.00","40.16","16.17","20.09","0","0"
"Delon Wright","Delon-Wright-18907","3600","PG/SG","38.85","219","18.5","105.50","17.15","22.00","35.56","14.66","18.37","0","0"
"Zach Collins","Zach-Collins-37866","3400","PF","60.56","220.5","20.0","104.50","16.43","19.00","31.26","13.48","17.33","0","0"
"C.J. McCollum","C.J.-McCollum-17121","6800","PG/SG","48.75","220.5","34.5","104.50","25.70","35.00","55.12","19.6","34.69","0","0"
"Wayne Ellington","Wayne-Ellington-1009","4400","PG/SG","32.18","216","28.1","106.90","17.52","30.00","39.24","15.29","22.36","0","0"
"Hassan Whiteside","Hassan-Whiteside-18664","8000","C","61.20","216","27.9","106.90","22.28","28.00","60.26","19.27","40.66","0","0"
"Nikola Vucevic","Nikola-Vucevic-13296","8300","C","57.26","219","31.9","105.10","27.83","32.00","61.95","19.43","41.97","0","0"
"Tobias Harris","Tobias-Harris-13332","7600","SF/PF","53.61","233.5","37.0","108.38","22.48","34.00","60.44","21.14","38.23","0","0"
"Otto Porter","Otto-Porter-17069","5100","SF/PF","35.28","233.5","26.6","103.80","16.49","31.00","44.15","17.18","25.49","0","0"
"Evan Turner","Evan-Turner-1291","4300","SG/SF","48.75","220.5","27.7","104.50","16.47","29.00","37.79","17.8","21.4","0","0"
"John Wall","John-Wall-1084","9000","PG","51.18","233.5","35.0","103.80","29.07","35.00","59.04","17.85","44.86","0","0"
"Bradley Beal","Bradley-Beal-13898","7800","SG","45.72","233.5","33.1","103.80","26.02","35.00","71.05","26.47","38.76","0","0"
"Jonas Valanciunas","Jonas-Valanciunas-13301","5200","C","53.01","219","18.5","105.50","23.19","20.00","51.69","22.42","25.86","0","0"
"Jarrett Allen","Jarrett-Allen-37794","5700","C","51.84","216","27.0","114.62","19.57","28.00","45.71","16.88","28.13","0","0"
"Danny Green","Danny-Green-940","4500","SG/SF","32.93","219","24.8","105.50","14.76","30.00","37.05","15.44","22.21","0","0"
"Tim Hardaway Jr.","Tim-Hardaway-Jr.-16879","7200","SG/SF","42.95","220.5","31.7","100.17","30.79","34.00","63.9","24.64","35.56","0","0"
"Mohamed Bamba","Mohamed-Bamba-409026","3400","C","49.16","219","13.7","105.10","21.41","16.00","19.9","3.02","16.67","0","0"
"Kelly Oubre","Kelly-Oubre-18925","4600","SG/SF","35.28","233.5","22.9","103.80","20.02","26.00","45.06","18.46","22.54","0","0"
"Austin Rivers","Austin-Rivers-13903","3300","PG/SG","41.89","233.5","22.3","103.80","16.05","21.00","29.75","13.11","16.08","0","0"
"Trey Burke","Trey-Burke-17029","4200","PG/SG","37.50","220.5","24.3","100.17","33.01","20.00","40.0","16.95","20.11","0","0"
"Kawhi Leonard","Kawhi-Leonard-13310","9500","SG/SF","49.29","219","32.6","105.50","31.38","35.00","71.21","22.11","45.3","0","0"
"Damian Lillard","Damian-Lillard-13900","9700","PG","46.34","220.5","36.0","104.50","31.57","36.00","68.67","22.29","45.87","0","0"
"Joe Harris","Joe-Harris-18587","4600","SG/SF","38.54","216","26.7","114.62","19.09","30.00","37.04","14.41","21.57","0","0"
"Fred VanVleet","Fred-VanVleet-36011","4900","PG/SG","38.85","219","23.0","105.50","16.99","24.00","42.99","18.78","22.88","0","0"
"Lou Williams","Lou-Williams-1044","6200","PG/SG","42.93","233.5","30.5","108.38","32.69","28.00","51.08","17.42","28.47","0","0"
"James Johnson","James-Johnson-1195","4100","SF/PF","46.55","216","15.0","106.90","25.44","20.00","33.61","10.11","18.83","0","0"
"Jared Dudley","Jared-Dudley-1319","3300","SF/PF","40.77","216","23.3","114.62","12.15","25.00","26.01","10.51","15.12","0","0"
"DeMarre Carroll","DeMarre-Carroll-1174","3900","SF/PF","40.77","216","20.5","114.62","20.05","20.00","35.18","14.2","17.82","0","0"
"Patrick Beverley","Patrick-Beverley-14108","4600","PG/SG","44.66","233.5","27.5","108.38","14.33","27.00","34.99","14.06","20.93","0","0"
"Jake Layman","Jake-Layman-35216","3100","PF","37.09","220.5","17.7","104.50","13.11","20.00","25.17","10.78","14.07","0","0"
"Emmanuel Mudiay","Emmanuel-Mudiay-18936","4400","PG","37.50","220.5","20.8","100.17","22.26","22.00","29.95","10.83","19.54","0","0"
"Pascal Siakam","Pascal-Siakam-35186","6400","PF","53.01","219","31.2","105.50","18.76","30.00","48.46","15.82","27.8","0","0"
"Avery Bradley","Avery-Bradley-941","3500","SG","43.21","233.5","19.0","108.38","15.66","24.00","30.16","15.09","15.09","0","0"
"Ed Davis","Ed-Davis-1265","3900","PF/C","51.84","216","17.9","114.62","11.39","18.00","32.34","12.11","16.36","0","0"
"Dwyane Wade","Dwyane-Wade-967","4800","PG/SG","41.31","216","28.0","106.90","30.43","23.00","27.75","15.86","19.82","0","0"
"Meyers Leonard","Meyers-Leonard-13905","3100","C","60.56","220.5","11.2","104.50","20.22","12.00","25.55","10.39","12.78","0","0"
"Mitchell Robinson","Mitchell-Robinson-408821","3600","C","52.14","220.5","18.8","100.17","8.96","16.00","19.2","4.4","14.39","0","0"
"Kevin Knox","Kevin-Knox-408820","4000","SF","42.95","220.5","21.7","100.17","24.21","22.00","21.3","4.89","15.97","0","0"
"Terrence Ross","Terrence-Ross-13902","4700","SG/SF","36.64","219","24.4","105.10","22.72","23.00","33.38","15.61","18.34","0","0"
"Marcin Gortat","Marcin-Gortat-1479","3700","C","56.07","233.5","18.0","108.38","15.42","16.00","24.98","8.59","14.39","0","0"
"Allonzo Trier","Allonzo-Trier-554950","4000","PG","42.95","220.5","25.0","100.17","19.85","21.00","20.48","4.7","15.35","0","0"
"Jeff Green","Jeff-Green-1314","4200","SF/PF","50.79","233.5","23.4","103.80","16.92","21.00","31.6","12.5","16","0","0"
"Mike Scott","Mike-Scott-13999","3300","SF/PF","53.61","233.5","18.5","108.38","17.01","14.00","24.93","14.66","12.47","0","0"
"Frank Ntilikina","Frank-Ntilikina-37796","3400","PG","37.50","220.5","17.8","100.17","17.26","20.00","22.43","10.83","12.51","0","0"
"Markieff Morris","Markieff-Morris-13314","4900","SF/PF","53.88","233.5","23.0","103.80","16.43","20.00","30.46","9.82","17.66","0","0"
"Nik Stauskas","Nik-Stauskas-18636","3000","SG/SF","37.75","220.5","14.2","104.50","18.13","14.00","20.73","8.42","10.77","0","0"
"Bam Adebayo","Bam-Adebayo-37835","3800","C","61.20","216","13.7","106.90","18.71","13.00","22.89","11.68","13.21","0","0"
"Kelly Olynyk","Kelly-Olynyk-16845","3700","PF/C","60.93","216","15.0","106.90","21.37","12.00","22.3","10.68","12.73","0","0"
"Rondae Hollis-Jefferson","Rondae-Hollis-Jefferson-18897","5300","PF/C","50.55","216","17.8","114.62","26.16","18.00","36.04","14.03","18.03","0","0"
"Tomas Satoransky ","Tomas-Satoransky--36031","3200","PG/SG","51.18","233.5","10.7","103.80","15.67","12.00","18.83","7.88","10.31","0","0"
"Jerian Grant","Jerian-Grant-18900","3200","PG","42.35","219","17.4","105.10","12.90","12.00","18.86","8.38","9.55","0","0"
"Damyean Dotson","Damyean-Dotson-37795","3400","SG","41.67","220.5","19.0","100.17","15.74","12.00","20.11","8.49","10.06","0","0"
"Ian Mahinmi","Ian-Mahinmi-1357","3400","C","57.51","233.5","13.2","103.80","13.36","10.00","19.13","8.64","9.57","0","0"
"Shabazz Napier","Shabazz-Napier-18598","3300","PG/SG","39.07","216","15.5","114.62","22.84","10.00","17.39","7.1","8.7","0","0"
"Malachi Richardson","Malachi-Richardson-35199","3000","SG","42.52","219","7.0","105.50","17.77","11.00","15.43","7.72","7.72","0","0"
"Anfernee Simons","Anfernee-Simons-409191","3000","SG","46.34","220.5","9.0","104.50","24.91","10.00","8.57","1.79","6.86","0","0"
"Wesley Iwundu","Wesley-Iwundu-37839","3100","SG","38.15","219","18.6","105.10","10.89","13.00","12.68","4.66","6.93","0","0"
"Jason Smith","Jason-Smith-1467","3200","PF/C","53.88","233.5","5.7","103.80","20.09","7.00","11.82","6.04","6.04","0","0"
"Boban Marjanovic","Boban-Marjanovic-31807","3500","C","56.07","233.5","7.0","108.38","24.10","3.00","7.56","3.69","3.78","0","0"
"Lorenzo Brown","Lorenzo-Brown-16940","3000","PG","48.12","219","9.7","105.50","26.19","4.00","6.44","3.22","3.22","0","0"
"Wade Baldwin","Wade-Baldwin-35204","3000","PG","46.34","220.5","3.5","104.50","19.03","4.00","6.4","3.2","3.2","0","0"
"Milos Teodosic","Milos-Teodosic-37883","3000","PG","44.66","233.5","6.5","108.38","13.32","2.00","3.34","1.51","1.67","0","0"
"Tyrone Wallace","Tyrone-Wallace-35220","3000","PG/SG","42.93","233.5","10.6","108.38","23.53","2.00","2.65","1.41","1.41","0","0"
"Isaiah Briscoe","Isaiah-Briscoe-37868","3000","PG","42.35","219","7.3","105.10","3.62","2.00","1.52","0.23","1.27","0","0"
