"nameCol","idCol","salaryCol","positionCol","dvpCol","ouCol","mpgCol","paceCol","usgCol","pminCol","ceilCol","floorCol","pointsCol","predictCol","actualCol"
"Danuel House","Danuel-House-36029","3600","SF/PF","0","221","0","101.42","0","28.00","37.49","13.94","22.97","0","0"
"Jerami Grant","Jerami-Grant-18576","4500","PF","0","221","33.0","102.62","15.06","34.00","42.11","19.0","27.61","0","0"
"Dennis Schroder","Dennis-Schroder-18595","4900","PG/SG","0","221","27.3","102.62","27.40","28.00","44.53","22.94","29.18","0","0"
"Gerald Green","Gerald-Green-13374","3900","SG/SF","0","221","22.1","101.42","14.96","28.00","39.1","18.51","22.77","0","0"
"P.J. Tucker","P.J.-Tucker-13947","4300","SF/PF","38.63","221","0","101.42","0","36.00","47.72","20.61","24.51","0","0"
"Marcus Smart","Marcus-Smart-18567","4400","PG/SG","0","222","0","101.75","0","28.00","35.52","13.9","24.77","0","0"
"Clint Capela","Clint-Capela-18610","7400","C","49.01","221","0","101.42","0","35.00","62.33","26.2","41.58","0","0"
"James Harden","James-Harden-1037","10900","PG/SG","0","221","0","101.42","0","38.00","71.85","22.0","60.94","0","0"
"Eric Gordon","Eric-Gordon-1077","5800","SG/SF","0","221","34.7","101.42","19.20","36.00","46.36","21.9","32.02","0","0"
"J.J. Redick","J.J.-Redick-1030","5100","SG/SF","0","222","28.7","108.33","22.66","32.00","37.0","17.05","27.45","0","0"
"Gordon Hayward","Gordon-Hayward-1239","5000","SF/PF","0","222","0","101.75","0","26.00","39.54","18.64","26.9","0","0"
"Joel Embiid","Joel-Embiid-18578","9500","C","50.36","222","0","108.33","0","33.00","62.25","21.92","50.86","0","0"
"Kyrie Irving","Kyrie-Irving-13334","8100","PG","0","222","0","101.75","0","33.00","59.25","23.11","43.28","0","0"
"Jimmy Butler","Jimmy-Butler-13327","7000","SG/SF","0","222","0","108.33","0","34.00","50.31","20.5","37.27","0","0"
"Jayson Tatum","Jayson-Tatum-37782","6000","SF/PF","0","222","0","101.75","0","33.00","40.11","16.58","31.71","0","0"
"Wilson Chandler","Wilson-Chandler-1327","3800","SF/PF","34.50","222","0","108.33","0","27.00","29.86","14.04","19.75","0","0"
"Terry Rozier","Terry-Rozier-18894","3700","PG/SG","47.57","222","0","101.75","0","19.00","30.3","16.18","19.01","0","0"
"Ben Simmons","Ben-Simmons-35184","8400","PG/SF","0","222","32.5","108.33","24.69","35.00","56.85","18.27","43","0","0"
"Russell Westbrook","Russell-Westbrook-1083","10300","PG","0","221","0","102.62","0","36.00","58.02","17.85","52.18","0","0"
"Mike Muscala","Mike-Muscala-17379","4200","PF/C","50.36","222","0","108.33","0","24.00","35.7","20.24","20.24","0","0"
"Steven Adams","Steven-Adams-16848","6700","C","0","221","0","102.62","0","33.00","41.7","20.83","31.66","0","0"
"Paul George","Paul-George-1245","9700","SF/PF","0","221","0","102.62","0","38.00","62.83","27.74","45.04","0","0"
"Marcus Morris","Marcus-Morris-13316","5900","SF/PF","0","222","27.5","101.75","21.27","27.00","35.66","14.02","26.61","0","0"
"Al Horford","Al-Horford-1499","5700","PF/C","0","222","19.0","101.75","16.78","25.00","33.97","13.32","25.22","0","0"
"Terrance Ferguson","Terrance-Ferguson-37871","3100","SG/SF","37.18","221","18.0","102.62","10.47","24.00","20.92","8.22","13.24","0","0"
"Nene Hilario","Nene-Hilario-17321","3300","C","49.01","221","15.0","101.42","12.28","14.00","23.42","12.43","14","0","0"
"Nerlens Noel","Nerlens-Noel-18575","3200","C","0","221","13.1","102.62","12.58","13.00","21.6","10.91","12.84","0","0"
"Jaylen Brown","Jaylen-Brown-35181","4800","SG/SF","0","222","0","101.75","0","21.00","35.17","15.43","18.57","0","0"
"T.J. McConnell","T.J.-McConnell-18956","3600","PG/SG","0","222","25.7","108.33","16.34","19.00","22.09","11.57","13.73","0","0"
"Daniel Theis","Daniel-Theis-37784","4000","PF/C","0","222","0","101.75","0","15.00","24.91","13.19","14.61","0","0"
"Hamidou Diallo","Hamidou-Diallo-408800","3100","SG/SF","37.18","221","0","102.62","0","15.00","10.95","2.0","10.83","0","0"
"Landry Shamet","Landry-Shamet-408841","3200","PG/SG","0","222","0","108.33","0","18.00","11.45","2.64","10.81","0","0"
"Patrick Patterson","Patrick-Patterson-1260","3000","PF/C","0","221","12.6","102.62","11.15","14.00","16.78","8.02","9.47","0","0"
"Furkan Korkmaz","Furkan-Korkmaz-35185","3700","SG/SF","0","222","0","108.33","0","18.00","21.76","11.46","11.46","0","0"
"Brandon Knight","Brandon-Knight-13336","3300","PG/SG","0","221","7.8","101.42","19.00","10.00","12.66","6.42","8.85","0","0"
"Robert Williams","Robert-Williams-408780","3900","PF/C","0","222","0","101.75","0","8.00","7.31","1.3","7.2","0","0"
"Timothe Luwawu-Cabarrot","Timothe-Luwawu-Cabarrot-35183","3000","SG/SF","34.92","221","1.5","102.62","26.67","5.00","5.6","3.54","3.54","0","0"
"Semi Ojeleye","Semi-Ojeleye-37786","3100","SF/PF","0","222","0","101.75","0","5.00","6.44","3.34","3.34","0","0"
