"nameCol","idCol","salaryCol","positionCol","dvpCol","ouCol","mpgCol","paceCol","usgCol","pminCol","ceilCol","floorCol","pointsCol","predictCol","actualCol"
"Dewayne Dedmon","Dewayne-Dedmon-16894","4000","PF/C","48.35","230","23.6","105.10","16.12","24.00","33.13","14.01","23.43","0","0"
"Jerami Grant","Jerami-Grant-18576","4500","SF/PF","56.13","230","31.7","102.62","14.64","34.00","42.15","18.06","26.21","0","0"
"Kevin Huerter","Kevin-Huerter-408969","3500","SG","40.25","230","23.4","105.10","14.94","28.00","29.39","10.97","20.27","0","0"
"Nikola Mirotic","Nikola-Mirotic-18584","7300","SF/PF","49.93","228.5","31.2","104.88","18.82","34.00","62.95","27.02","41.83","0","0"
"Tim Frazier","Tim-Frazier-18743","4200","PG/SG","40.12","228.5","20.0","104.88","18.17","30.00","39.03","16.09","23.83","0","0"
"Taurean Prince","Taurean-Prince-35218","4900","SF","38.70","230","26.5","105.10","20.24","30.00","38.13","16.3","27.63","0","0"
"Wayne Ellington","Wayne-Ellington-1009","4400","PG/SG","41.30","228.5","29.0","106.90","15.87","32.00","36.86","16.91","24.72","0","0"
"Derrick White","Derrick-White-37858","3400","PG","39.94","216","14.0","99.70","14.36","22.00","30.5","15.74","18.9","0","0"
"Rodney McGruder","Rodney-McGruder-16850","4800","SG/SF","35.67","228.5","34.3","106.90","17.22","36.00","41.27","16.56","26.54","0","0"
"Russell Westbrook","Russell-Westbrook-1083","11500","PG","52.96","230","35.6","102.62","32.74","36.00","70.98","21.44","63.43","0","0"
"Justise Winslow","Justise-Winslow-18921","4400","PG/SF","41.30","228.5","24.2","106.90","19.16","28.00","37.12","17.92","24.15","0","0"
"Dennis Schroder","Dennis-Schroder-18595","5700","PG/SG","52.96","230","29.0","102.62","27.99","29.00","47.41","25.32","30.99","0","0"
"Kent Bazemore","Kent-Bazemore-13987","4800","SG/SF","47.09","230","22.0","105.10","20.35","27.00","38.87","19.28","25.91","0","0"
"John Collins","John-Collins-37823","5600","C","48.35","230","25.4","105.10","23.06","30.00","46.91","18.66","30.05","0","0"
"Dwyane Wade","Dwyane-Wade-967","5100","PG/SG","49.79","228.5","24.2","106.90","29.23","26.00","38.13","17.97","27.18","0","0"
"Trae Young","Trae-Young-409063","6400","PG","45.89","230","26.9","105.10","31.60","32.00","59.3","18.44","34.08","0","0"
"DeMar DeRozan","DeMar-DeRozan-1053","8100","SG/SF","45.02","216","34.1","99.70","28.98","36.00","59.26","20.72","43.07","0","0"
"Steven Adams","Steven-Adams-16848","6800","C","56.91","230","35.2","102.62","17.06","34.00","48.49","23.78","35.81","0","0"
"Clint Capela","Clint-Capela-18610","7800","C","53.23","216","37.0","101.42","17.66","34.00","59.91","25.66","40.92","0","0"
"Hassan Whiteside","Hassan-Whiteside-18664","7500","C","48.71","228.5","23.7","106.90","27.07","26.00","49.49","18.62","39.28","0","0"
"Bryn Forbes","Bryn-Forbes-36052","3900","PG/SG","36.84","216","26.1","99.70","19.49","28.00","29.15","12.28","20.19","0","0"
"DeAndre Bembry","DeAndre-Bembry-35198","4100","SF","38.70","230","22.0","105.10","22.57","26.00","31.43","17.81","21.18","0","0"
"Alex Abrines","Alex-Abrines-36054","3000","SG/SF","42.28","230","13.0","102.62","12.98","24.00","21.39","8.32","15.32","0","0"
"James Johnson","James-Johnson-1195","4000","SF/PF","48.42","228.5","20.2","106.90","18.98","24.00","26.78","10.52","20.35","0","0"
"Julius Randle","Julius-Randle-18632","6900","PF/C","50.99","228.5","27.9","104.88","27.86","27.00","49.59","26.94","34.9","0","0"
"LaMarcus Aldridge","LaMarcus-Aldridge-1349","7900","PF/C","55.88","216","32.9","99.70","24.47","34.00","57.14","25.12","39.49","0","0"
"Anthony Davis","Anthony-Davis-13895","11400","PF/C","50.99","228.5","36.0","104.88","32.29","37.00","83.78","28.98","56.61","0","0"
"Paul George","Paul-George-1245","8600","SF/PF","56.13","230","35.0","102.62","31.14","36.00","59.68","26.27","42.72","0","0"
"E'Twaun Moore","E'Twaun-Moore-18582","4600","SG/SF","38.45","228.5","31.0","104.88","19.95","32.00","35.19","15.18","22.82","0","0"
"Chris Paul","Chris-Paul-1087","7900","PG","48.57","216","34.3","101.42","26.40","32.00","53.12","19.3","39.06","0","0"
"James Ennis","James-Ennis-18599","3800","SG/SF","35.81","216","30.0","101.42","11.54","30.00","29.3","14.4","18.53","0","0"
"Josh Richardson","Josh-Richardson-18922","7700","SG/SF","49.79","228.5","34.2","106.90","25.03","36.00","55.55","21.92","37.41","0","0"
"P.J. Tucker","P.J.-Tucker-13947","4200","SF/PF","35.81","216","36.0","101.42","10.18","35.00","39.0","17.05","20.27","0","0"
"Rudy Gay","Rudy-Gay-1341","5600","SF/PF","44.39","216","25.9","99.70","20.52","28.00","34.08","13.31","26.67","0","0"
"James Harden","James-Harden-1037","11700","PG/SG","48.57","216","39.5","101.42","41.38","37.00","63.78","20.84","55.56","0","0"
"Jrue Holiday","Jrue-Holiday-1073","8700","PG/SG","52.87","228.5","35.2","104.88","30.56","37.00","55.81","19.59","41.07","0","0"
"Nerlens Noel","Nerlens-Noel-18575","3300","C","56.91","230","11.8","102.62","13.25","14.00","26.61","13.09","15.38","0","0"
"Patty Mills","Patty-Mills-13977","3700","PG/SG","49.17","216","21.9","99.70","16.87","23.00","25.84","13.38","17.17","0","0"
"Eric Gordon","Eric-Gordon-1077","5800","SG/SF","49.12","216","34.5","101.42","21.01","32.00","40.89","19.77","26.64","0","0"
"Marco Belinelli","Marco-Belinelli-1033","3500","SG/SF","36.84","216","21.6","99.70","21.31","19.00","23.09","12.04","15.76","0","0"
"Jakob Poeltl","Jakob-Poeltl-35187","3400","C","54.06","216","13.3","99.70","20.23","16.00","29.79","13.23","14.9","0","0"
"Omari Spellman","Omari-Spellman-408970","3300","PF","46.47","230","14.5","105.10","15.96","18.00","15.28","3.76","14.39","0","0"
"Bam Adebayo","Bam-Adebayo-37835","4300","C","48.71","228.5","21.0","106.90","21.21","19.00","27.47","16.49","18.65","0","0"
"Dante Cunningham","Dante-Cunningham-1259","3500","SF/PF","44.39","216","24.7","99.70","8.06","22.00","27.28","11.63","14.55","0","0"
"Solomon Hill","Solomon-Hill-16863","3000","SF/PF","38.50","228.5","18.5","104.88","5.63","19.00","22.59","12.08","12.08","0","0"
"Darius Miller","Darius-Miller-13951","3100","SF/PF","38.50","228.5","23.5","104.88","12.30","20.00","21.37","11.9","11.9","0","0"
"Kelly Olynyk","Kelly-Olynyk-16845","3500","PF/C","58.45","228.5","14.6","106.90","16.92","13.00","20.01","11.28","13.44","0","0"
"Gerald Green","Gerald-Green-13374","3300","SG/SF","49.12","216","14.0","101.42","17.06","14.00","19.54","9.13","11.26","0","0"
"Gary Clark","Gary-Clark-570141","3400","SF","50.92","216","19.0","101.42","7.09","14.00","10.69","2.46","10.09","0","0"
"Danuel House","Danuel-House-36029","3000","SG","48.57","216","25.5","101.42","18.96","12.00","14.48","6.9","8.72","0","0"
"Hamidou Diallo","Hamidou-Diallo-408800","3200","SG","42.28","230","19.0","102.62","12.60","13.00","11.4","7.89","8.77","0","0"
"Davis Bertans","Davis-Bertans-36051","3700","PF/C","55.88","216","17.8","99.70","18.56","12.00","17.35","7.99","9.99","0","0"
"Patrick Patterson","Patrick-Patterson-1260","3000","PF/C","61.66","230","12.8","102.62","12.40","12.00","12.76","6.19","7.33","0","0"
"Justin Anderson","Justin-Anderson-18927","3300","SF/PF","38.70","230","10.0","105.10","25.49","10.00","11.91","5.71","7.65","0","0"
"Alex Len","Alex-Len-16886","3500","C","48.35","230","18.8","105.10","21.43","8.00","11.35","5.7","8","0","0"
"Deonte Burton","Deonte-Burton-570274","3000","SG","52.96","230","11.7","102.62","18.14","8.00","6.18","1.1","6.09","0","0"
"Daniel Hamilton","Daniel-Hamilton-35210","3000","SG","40.25","230","4.0","105.10","23.30","4.00","3.45","0.85","3.25","0","0"
"Wesley Johnson","Wesley-Johnson-1280","3000","SF/PF","38.50","228.5","17.0","104.88","11.46","4.00","4.82","2.57","2.57","0","0"
"Vince Carter","Vince-Carter-1066","3200","SG/SF","40.25","230","13.8","105.10","22.20","3.00","3.8","1.99","2.27","0","0"
