"nameCol","idCol","salaryCol","positionCol","dvpCol","ouCol","mpgCol","paceCol","usgCol","pminCol","ceilCol","floorCol","pointsCol","predictCol","actualCol"
"Cheick Diallo","Cheick-Diallo-35225","3000","PF/C","50.04","235.5","9.7","104.88","14.44","22.00","37.69","16.58","20.05","0","0"
"Jeff Green","Jeff-Green-1314","3600","SF/PF","42.44","219.5","20.8","103.80","14.26","30.00","39.84","18.53","23.73","0","0"
"Larry Nance","Larry-Nance-18946","5700","PF/C","61.03","213","26.0","103.60","12.35","34.00","53.78","20.75","36.66","0","0"
"Cedi Osman","Cedi-Osman-18912","4300","SF/PF","38.91","213","33.8","103.60","16.85","34.00","35.92","12.4","27.67","0","0"
"Kevin Huerter","Kevin-Huerter-408969","3600","SG/SF","34.16","226","29.6","105.10","13.61","33.00","27.03","8.49","23.08","0","0"
"Furkan Korkmaz","Furkan-Korkmaz-35185","3200","SG/SF","46.31","224.5","15.2","108.33","21.56","28.00","39.07","19.75","19.75","0","0"
"Wesley Matthews","Wesley-Matthews-1339","4500","SG/SF","42.48","226","27.4","100.08","19.92","32.00","40.62","17.04","27.71","0","0"
"T.J. McConnell","T.J.-McConnell-18956","3500","PG/SG","39.36","224.5","24.7","108.33","17.75","28.00","34.95","18.08","21.4","0","0"
"Julius Randle","Julius-Randle-18632","7400","PF/C","46.97","235.5","30.0","104.88","29.55","35.00","61.92","25.96","45.23","0","0"
"Jalen Brunson","Jalen-Brunson-409062","3800","PG","41.82","226","16.2","100.08","18.29","30.00","25.96","7.0","22.89","0","0"
"Jerami Grant","Jerami-Grant-18576","4100","PF","48.10","235.5","28.7","102.62","14.04","32.00","37.47","16.9","24.57","0","0"
"Trae Young","Trae-Young-409063","6000","PG","54.68","226","29.2","105.10","33.04","31.00","41.95","13.18","35.82","0","0"
"Wilson Chandler","Wilson-Chandler-1327","3800","SF/PF","30.89","224.5","27.2","108.33","13.58","33.00","33.95","15.4","22.65","0","0"
"Tim Frazier","Tim-Frazier-18743","4100","PG/SG","36.19","235.5","30.5","104.88","14.05","30.00","38.74","16.77","24.44","0","0"
"J.J. Redick","J.J.-Redick-1030","5300","SG/SF","30.43","224.5","29.2","108.33","25.06","35.00","41.9","20.3","31.48","0","0"
"Mitchell Robinson","Mitchell-Robinson-408821","3400","C","48.42","213","18.0","100.17","12.07","19.00","20.4","3.73","20.18","0","0"
"Kent Bazemore","Kent-Bazemore-13987","5500","SG/SF","47.56","226","26.2","105.10","24.79","32.00","44.18","15.19","32.53","0","0"
"Garrett Temple","Garrett-Temple-14077","3400","SG/SF","39.09","200.5","29.3","103.30","13.27","33.00","32.22","14.47","20.04","0","0"
"Kyle Anderson","Kyle-Anderson-18615","4200","PG/SF","38.29","200.5","27.5","103.30","14.22","31.00","32.79","13.41","24.69","0","0"
"Joel Embiid","Joel-Embiid-18578","10500","C","59.63","224.5","31.4","108.33","29.41","35.00","74.45","26.0","61.33","0","0"
"Evan Turner","Evan-Turner-1291","4000","SG/SF","43.76","200.5","23.7","104.50","17.24","29.00","35.16","19.39","23.33","0","0"
"Marvin Bagley III","Marvin-Bagley-III-409321","4800","PF/C","53.98","226.5","21.8","98.20","21.08","27.00","30.22","6.38","27.85","0","0"
"Khris Middleton","Khris-Middleton-13990","6200","SG/SF","45.39","217.5","27.2","98.80","25.19","34.00","57.96","25.12","35.93","0","0"
"Seth Curry","Seth-Curry-16825","3000","PG/SG","37.34","200.5","14.8","104.50","13.57","20.00","31.98","17.35","17.35","0","0"
"Dewayne Dedmon","Dewayne-Dedmon-16894","4400","PF/C","48.37","226","23.8","105.10","16.68","26.00","35.73","15.07","25.32","0","0"
"Marc Gasol","Marc-Gasol-1493","7600","C","53.72","200.5","34.5","103.30","18.24","34.00","57.69","25.46","43.67","0","0"
"Rodney Hood","Rodney-Hood-18629","4300","SG/SF","48.59","213","27.7","103.60","17.43","30.00","39.93","15.97","24.68","0","0"
"Shelvin Mack","Shelvin-Mack-13354","3500","PG","39.72","200.5","24.8","103.30","16.27","23.00","30.37","16.13","19.89","0","0"
"Alec Burks","Alec-Burks-13353","4800","PG/SG","48.59","213","28.4","103.60","21.38","30.00","38.39","19.5","27.23","0","0"
"Donovan Mitchell","Donovan-Mitchell-37875","6600","PG/SG","52.36","211.5","31.0","98.88","30.30","34.00","48.86","20.12","37.33","0","0"
"Iman Shumpert","Iman-Shumpert-13350","3600","SG/SF","39.71","226.5","25.6","98.20","14.77","28.00","30.03","14.51","20.21","0","0"
"Jeremy Lamb","Jeremy-Lamb-13955","5900","SG/SF","44.99","217","29.7","103.00","20.07","33.00","45.42","19.61","32.96","0","0"
"Jusuf Nurkic","Jusuf-Nurkic-18619","7000","C","47.91","200.5","29.1","104.50","23.50","28.00","51.59","21.96","39.14","0","0"
"Ricky Rubio","Ricky-Rubio-1001","5900","PG","40.21","211.5","30.0","98.88","24.52","31.00","44.59","17.53","32.88","0","0"
"Cody Zeller","Cody-Zeller-16836","4400","C","52.17","217","23.8","103.00","15.10","28.00","35.24","13.85","24.52","0","0"
"Landry Shamet","Landry-Shamet-408841","3100","PG/SG","46.31","224.5","19.7","108.33","15.50","27.00","17.45","3.11","17.19","0","0"
"Derrick Rose","Derrick-Rose-1086","5800","PG/SG","53.69","226.5","27.8","100.67","26.34","32.00","50.3","27.66","32.2","0","0"
"J.J. Barea","J.J.-Barea-18605","4400","PG/SG","54.60","226","18.3","100.08","32.38","20.00","35.97","17.67","24.27","0","0"
"Langston Galloway","Langston-Galloway-18717","3300","PG/SG","39.43","217","25.9","100.30","15.80","24.00","31.14","15.1","18.22","0","0"
"Collin Sexton","Collin-Sexton-408896","5100","PG","50.25","213","33.5","103.60","25.93","35.00","32.17","8.73","28.17","0","0"
"Tim Hardaway Jr.","Tim-Hardaway-Jr.-16879","6800","SG/SF","52.84","213","32.2","100.17","24.72","35.00","58.2","25.41","37.43","0","0"
"Damyean Dotson","Damyean-Dotson-37795","4100","SG/SF","36.73","213","26.7","100.17","18.43","27.00","38.6","18.86","22.4","0","0"
"Dennis Schroder","Dennis-Schroder-18595","5300","PG/SG","49.46","235.5","26.7","102.62","26.50","28.00","44.19","22.76","28.96","0","0"
"Domantas Sabonis","Domantas-Sabonis-35217","6700","PF/C","48.50","217.5","24.4","107.67","23.57","26.00","54.04","28.52","36.56","0","0"
"Al-Farouq Aminu","Al-Farouq-Aminu-1279","4600","SF/PF","37.82","200.5","31.4","104.50","13.01","30.00","38.56","18.79","25.09","0","0"
"Thomas Bryant ","Thomas-Bryant--37884","3400","PF/C","52.67","219.5","17.0","103.80","14.39","20.00","30.77","14.54","18.48","0","0"
"Kevon Looney","Kevon-Looney-18945","3700","PF/C","49.60","227","24.8","103.10","12.39","25.00","28.82","12.81","20.14","0","0"
"Buddy Hield","Buddy-Hield-35206","5800","SG/SF","39.71","226.5","29.5","98.20","24.54","32.00","47.08","20.82","31.45","0","0"
"Marcus Smart","Marcus-Smart-18567","4500","PG/SG","55.70","219.5","25.8","101.75","13.68","32.00","33.53","13.62","24.37","0","0"
"Alex Len","Alex-Len-16886","3400","C","48.37","226","12.8","105.10","22.91","18.00","26.1","13.47","18.43","0","0"
"Kelly Oubre","Kelly-Oubre-18925","4900","SG/SF","34.41","219.5","27.6","103.80","20.19","30.00","45.65","21.71","26.51","0","0"
"Bam Adebayo","Bam-Adebayo-37835","6100","PF/C","53.28","211.5","25.5","106.90","16.21","30.00","46.28","18.99","33.03","0","0"
"Jeff Teague","Jeff-Teague-1005","6100","PG","53.69","226.5","30.5","100.67","18.82","32.00","46.31","17.03","32.94","0","0"
"Russell Westbrook","Russell-Westbrook-1083","10900","PG","49.46","235.5","34.0","102.62","34.46","36.00","65.45","20.13","58.86","0","0"
"Andre Drummond","Andre-Drummond-13904","8700","C","52.26","217","31.1","100.30","26.34","34.00","57.66","21.76","46.8","0","0"
"Kyrie Irving","Kyrie-Irving-13334","8500","PG","55.70","219.5","28.2","101.75","28.03","34.00","61.27","24.49","45.69","0","0"
"Kyle Lowry","Kyle-Lowry-1057","7200","PG","48.99","227","34.2","105.50","18.02","34.00","54.95","20.87","38.64","0","0"
"Willie Cauley-Stein","Willie-Cauley-Stein-18951","5900","C","52.85","226.5","27.3","98.20","20.57","30.00","43.91","18.12","31.68","0","0"
"Jonas Jerebko","Jonas-Jerebko-1106","3800","SF/PF","46.33","227","25.5","103.10","14.96","24.00","37.23","15.21","20.41","0","0"
"Jonas Valanciunas","Jonas-Valanciunas-13301","4600","C","49.10","227","18.0","105.50","26.20","19.00","42.99","21.31","24.55","0","0"
"DeMarre Carroll","DeMarre-Carroll-1174","3600","SF/PF","35.33","224.5","24.1","114.62","17.47","23.00","31.91","15.21","19.06","0","0"
"Enes Kanter","Enes-Kanter-13299","6500","C","47.90","213","24.0","100.17","20.47","26.00","45.56","17.07","34.28","0","0"
"Giannis Antetokounmpo","Giannis-Antetokounmpo-16852","11100","SF/PF","47.59","217.5","34.0","98.80","30.26","36.00","68.56","38.28","58.45","0","0"
"Jordan Clarkson","Jordan-Clarkson-18631","4700","PG/SG","48.59","213","26.2","103.60","29.35","24.00","41.04","24.71","24.71","0","0"
"Meyers Leonard","Meyers-Leonard-13905","3200","C","54.53","200.5","11.9","104.50","14.69","15.00","28.85","13.67","16.81","0","0"
"Mike Conley","Mike-Conley-1062","7700","PG","39.72","200.5","34.3","103.30","25.90","35.00","60.24","23.3","40.32","0","0"
"Kevin Knox","Kevin-Knox-408820","4500","SF/PF","52.84","213","28.5","100.17","24.30","30.00","23.79","4.35","23.53","0","0"
"Luka Doncic","Luka-Doncic-408971","7300","SG/SF","50.83","226","27.5","100.08","26.99","32.00","43.22","11.66","38.11","0","0"
"John Wall","John-Wall-1084","8400","PG","50.52","219.5","29.8","103.80","30.57","35.00","48.71","17.39","43.8","0","0"
"Noah Vonleh","Noah-Vonleh-18597","5600","PF/C","45.82","213","27.7","100.17","13.23","30.00","40.16","19.01","29.06","0","0"
"Derrick Favors","Derrick-Favors-1266","5000","PF/C","52.83","211.5","22.7","98.88","15.29","25.00","33.37","16.17","25.87","0","0"
"Luke Kennard","Luke-Kennard-37814","3500","SG/SF","39.43","217","19.6","100.30","20.35","24.00","27.22","13.67","18.06","0","0"
"Harrison Barnes","Harrison-Barnes-13901","6200","SF/PF","54.15","226","31.4","100.08","25.45","33.00","40.31","18.5","31.84","0","0"
"Kemba Walker","Kemba-Walker-13335","8600","PG","51.04","217","32.8","103.00","29.00","35.00","59.33","21.94","44.24","0","0"
"Steven Adams","Steven-Adams-16848","6400","C","50.58","235.5","30.2","102.62","20.08","34.00","43.26","21.62","32.85","0","0"
"Allen Crabbe","Allen-Crabbe-16978","4200","SG/SF","33.21","224.5","29.3","114.62","16.44","29.00","34.23","14.06","21.53","0","0"
"De'Aaron Fox","De'Aaron-Fox-37900","7300","PG","49.45","226.5","31.2","98.20","28.29","34.00","46.36","18.98","37.36","0","0"
"Bradley Beal","Bradley-Beal-13898","8000","SG","43.04","219.5","35.9","103.80","30.39","36.00","62.51","27.92","40.88","0","0"
"Solomon Hill","Solomon-Hill-16863","3200","SF/PF","38.57","235.5","24.0","104.88","8.76","26.00","25.08","13.01","16.34","0","0"
"Taj Gibson","Taj-Gibson-1277","4300","PF/C","52.85","226.5","23.3","100.67","18.26","25.00","30.32","11.28","21.91","0","0"
"Marvin Williams","Marvin-Williams-1318","4700","SF/PF","43.95","217","24.4","103.00","16.19","28.00","39.45","20.42","23.94","0","0"
"Reggie Jackson","Reggie-Jackson-13352","5400","PG/SG","50.29","217","27.4","100.30","22.89","29.00","38.39","14.43","27.48","0","0"
"Rudy Gobert","Rudy-Gobert-16935","7400","C","51.74","211.5","27.4","98.88","19.44","32.00","49.69","15.51","37.56","0","0"
"Dario Saric","Dario-Saric-36004","4000","PF","52.54","226.5","21.5","100.67","15.45","22.00","34.07","17.06","20.28","0","0"
"Serge Ibaka","Serge-Ibaka-1294","6000","PF/C","46.87","227","28.3","105.50","23.07","29.00","43.28","18.14","30.39","0","0"
"Brook Lopez","Brook-Lopez-1498","4400","C","52.16","217.5","29.0","98.80","18.22","28.00","33.61","15.14","22.2","0","0"
"Andrew Wiggins","Andrew-Wiggins-18620","6300","SG/SF","46.57","226.5","33.0","100.67","24.01","36.00","41.78","18.0","31.75","0","0"
"Rondae Hollis-Jefferson","Rondae-Hollis-Jefferson-18897","5400","PF/C","50.71","224.5","29.0","114.62","18.56","30.00","41.91","16.98","27.04","0","0"
"Fred VanVleet","Fred-VanVleet-36011","4300","PG/SG","41.33","227","23.7","105.50","18.04","23.00","33.79","17.64","21.48","0","0"
"Josh Richardson","Josh-Richardson-18922","6100","SG/SF","42.23","211.5","34.6","106.90","20.68","35.00","44.58","18.37","30.41","0","0"
"Tomas Satoransky ","Tomas-Satoransky--36031","4400","PG/SG","50.52","219.5","26.4","103.80","12.82","27.00","31.24","12.41","21.89","0","0"
"Rodney McGruder","Rodney-McGruder-16850","3900","SG/SF","33.73","211.5","24.8","106.90","15.00","28.00","30.57","13.09","19.36","0","0"
"Spencer Dinwiddie","Spencer-Dinwiddie-18588","6000","PG/SG","51.95","224.5","30.1","114.62","25.46","30.00","45.72","20.71","29.67","0","0"
"Markieff Morris","Markieff-Morris-13314","5300","PF/C","52.67","219.5","25.4","103.80","23.60","29.00","38.16","18.61","26.21","0","0"
"Draymond Green","Draymond-Green-13976","6600","PF/C","54.25","227","29.0","103.10","16.98","32.00","39.72","14.41","32.61","0","0"
"Nemanja Bjelica","Nemanja-Bjelica-31814","3900","SF/PF","53.98","226.5","22.5","98.20","17.00","21.00","31.53","12.77","19.26","0","0"
"John Collins","John-Collins-37823","7800","PF/C","48.37","226","31.2","105.10","24.16","32.00","60.17","23.92","38.45","0","0"
"Ben Simmons","Ben-Simmons-35184","8900","PG/SF","39.36","224.5","31.5","108.33","22.07","35.00","57.06","18.64","43.76","0","0"
"D'Angelo Russell","D'Angelo-Russell-18947","7500","PG/SG","51.95","224.5","32.4","114.62","33.19","32.00","51.3","18.39","36.93","0","0"
"Bogdan Bogdanovic","Bogdan-Bogdanovic-37899","5700","SG/SF","46.30","226.5","28.3","98.20","25.24","30.00","44.44","23.58","28","0","0"
"Anthony Davis","Anthony-Davis-13895","11200","PF/C","46.97","235.5","35.0","104.88","30.74","35.00","79.56","28.64","54.87","0","0"
"Kelly Olynyk","Kelly-Olynyk-16845","5000","PF/C","54.89","211.5","26.0","106.90","22.26","24.00","36.61","18.54","24.52","0","0"
"Jaren Jackson","Jaren-Jackson-409099","5700","PF/C","53.72","200.5","24.5","103.30","21.59","28.00","31.7","8.55","27.95","0","0"
"Klay Thompson","Klay-Thompson-13315","6500","SG","37.56","227","35.2","103.10","26.43","34.00","41.19","18.3","31.83","0","0"
"Kevin Durant","Kevin-Durant-1348","9600","SF/PF","46.33","227","36.7","103.10","29.07","34.00","62.11","21.89","46.98","0","0"
"Karl-Anthony Towns","Karl-Anthony-Towns-18937","10000","C","57.33","226.5","32.7","100.67","28.62","34.00","65.51","26.6","48.71","0","0"
"Paul George","Paul-George-1245","9000","SF/PF","48.10","235.5","30.8","102.62","29.93","36.00","61.2","27.02","43.87","0","0"
"Joe Harris","Joe-Harris-18587","4400","SG/SF","33.21","224.5","31.0","114.62","14.64","29.00","31.2","14.17","21.28","0","0"
"Jrue Holiday","Jrue-Holiday-1073","7900","PG/SG","45.69","235.5","37.5","104.88","26.17","35.00","51.37","17.76","38.11","0","0"
"Stanley Johnson","Stanley-Johnson-18913","4000","SF/PF","39.06","217","20.2","100.30","30.49","24.00","37.62","10.61","19.29","0","0"
"Damian Lillard","Damian-Lillard-13900","9200","PG","43.22","200.5","36.4","104.50","31.85","35.00","56.34","21.45","44.22","0","0"
"Emmanuel Mudiay","Emmanuel-Mudiay-18936","5500","PG","44.17","213","28.2","100.17","24.50","28.00","35.73","16.49","26.47","0","0"
"Stephen Curry","Stephen-Curry-1079","9800","PG/SG","45.92","227","33.6","103.10","32.46","34.00","65.83","24.53","47.09","0","0"
"Kawhi Leonard","Kawhi-Leonard-13310","9400","SF/PF","44.72","227","37.2","105.50","28.70","34.00","60.51","21.91","45.09","0","0"
"DeAndre Jordan","DeAndre-Jordan-1486","7300","C","57.12","226","28.6","100.08","15.35","31.00","43.58","21.0","35.06","0","0"
"Bruce Brown","Bruce-Brown-408913","3300","PG/SG","50.29","217","22.1","100.30","11.59","23.00","18.5","5.81","15.8","0","0"
"JaMychal Green","JaMychal-Green-18729","4600","SF/PF","53.72","200.5","24.7","103.30","21.96","24.00","37.06","19.21","21.98","0","0"
"Joe Ingles","Joe-Ingles-18627","5700","SG/SF","36.84","211.5","27.4","98.88","16.80","32.00","42.22","17.77","27.17","0","0"
"Darren Collison","Darren-Collison-1060","6700","PG","43.18","217.5","31.3","107.67","18.39","34.00","42.85","19.49","31.74","0","0"
"Darius Miller","Darius-Miller-13951","3200","SF/PF","38.57","235.5","20.2","104.88","13.26","26.00","26.01","15.16","15.16","0","0"
"Robert Covington","Robert-Covington-16874","5700","SF/PF","36.94","226.5","32.8","100.67","16.83","32.00","39.36","17.27","26.98","0","0"
"C.J. McCollum","C.J.-McCollum-17121","6900","PG/SG","43.76","200.5","36.7","104.50","25.53","35.00","43.92","18.47","32.63","0","0"
"Nicolas Batum","Nicolas-Batum-1315","4700","SG/SF","34.08","217","27.0","103.00","15.25","28.00","30.7","15.86","22.12","0","0"
"Blake Griffin","Blake-Griffin-1503","9300","PF/C","56.08","217","33.2","100.30","33.32","35.00","55.07","20.03","43.64","0","0"
"Eric Bledsoe","Eric-Bledsoe-1031","7100","PG/SG","36.23","217.5","30.0","98.80","23.52","33.00","48.23","21.32","33.1","0","0"
"Jayson Tatum","Jayson-Tatum-37782","6800","SF/PF","50.46","219.5","27.0","101.75","21.95","33.00","40.27","16.93","31.71","0","0"
"Marcus Morris","Marcus-Morris-13316","5900","SF/PF","36.07","219.5","28.0","101.75","20.57","30.00","36.91","14.16","27.34","0","0"
"Tony Parker","Tony-Parker-982","4100","PG","45.51","217","21.3","103.00","27.23","20.00","32.4","18.96","18.96","0","0"
"Terry Rozier","Terry-Rozier-18894","5700","PG/SG","45.62","219.5","24.0","101.75","18.41","28.00","41.58","22.39","26.22","0","0"
"Tyler Dorsey","Tyler-Dorsey-37825","3100","PG/SG","34.16","226","12.3","105.10","27.59","20.00","23.67","11.29","14.27","0","0"
"Jarrett Allen","Jarrett-Allen-37794","5800","C","52.91","224.5","29.9","114.62","16.28","30.00","36.73","15.96","26.6","0","0"
"Jae Crowder","Jae-Crowder-13942","4500","SF/PF","37.59","211.5","24.6","98.88","19.51","27.00","34.67","15.83","20.66","0","0"
"Kosta Koufos","Kosta-Koufos-1386","3000","C","52.85","226.5","16.0","98.20","13.77","14.00","26.31","13.76","13.76","0","0"
"Dwyane Wade","Dwyane-Wade-967","5900","PG/SG","42.23","211.5","27.0","106.90","30.83","26.00","38.61","17.94","27.02","0","0"
"Danny Green","Danny-Green-940","4500","SG/SF","34.93","227","32.3","105.50","11.12","30.00","29.28","13.14","20.59","0","0"
"Rodions Kurucs","Rodions-Kurucs-408801","3000","SF/PF","50.71","224.5","13.0","114.62","23.66","16.00","13.81","2.53","13.66","0","0"
"Tyreke Evans","Tyreke-Evans-1070","4900","SG/SF","48.69","217.5","25.5","107.67","25.64","22.00","29.73","12.94","22.27","0","0"
"Thaddeus Young","Thaddeus-Young-1289","5200","SF/PF","44.62","217.5","31.7","107.67","17.22","28.00","33.46","12.55","23.55","0","0"
"Malcolm Brogdon","Malcolm-Brogdon-35195","5800","PG/SG","48.14","217.5","29.2","98.80","22.09","32.00","37.54","18.51","26.14","0","0"
"Gorgui Dieng","Gorgui-Dieng-16939","3200","PF/C","52.85","226.5","13.2","100.67","15.55","14.00","22.53","10.88","14.43","0","0"
"Ersan Ilyasova","Ersan-Ilyasova-1301","3500","PF/C","47.59","217.5","17.2","98.80","19.29","18.00","25.37","11.86","15.71","0","0"
"Amir Johnson","Amir-Johnson-1285","3000","PF/C","61.77","224.5","10.2","108.33","13.58","13.00","21.09","10.36","13.46","0","0"
"Pascal Siakam","Pascal-Siakam-35186","6100","PF","49.10","227","31.7","105.50","18.41","30.00","40.39","15.57","27.31","0","0"
"Aron Baynes","Aron-Baynes-14114","4300","C","54.62","219.5","13.0","101.75","13.54","20.00","29.97","15.82","19.2","0","0"
"Ed Davis","Ed-Davis-1265","3400","PF/C","52.91","224.5","16.9","114.62","11.24","16.00","25.45","11.17","15.12","0","0"
"Shaun Livingston","Shaun-Livingston-14007","3100","PG","40.93","227","16.3","103.10","14.43","18.00","22.56","10.43","13.79","0","0"
"Jose Calderon","Jose-Calderon-1071","3000","PG","43.03","217","15.2","100.30","16.92","20.00","23.44","10.54","13.29","0","0"
"Jake Layman","Jake-Layman-35216","3300","SF/PF","37.82","200.5","15.0","104.50","25.96","19.00","25.18","12.2","14.59","0","0"
"Bojan Bogdanovic","Bojan-Bogdanovic-18571","5600","SG/SF","38.50","217.5","33.5","107.67","22.48","32.00","39.59","20.39","24.71","0","0"
"Cory Joseph","Cory-Joseph-13339","4200","PG","43.18","217.5","24.8","107.67","18.26","24.00","33.62","14.87","18.4","0","0"
"Joakim Noah","Joakim-Noah-1404","3200","C","51.34","200.5","16.0","103.30","22.40","16.00","23.86","12.73","14","0","0"
"Nerlens Noel","Nerlens-Noel-18575","3400","C","50.58","235.5","16.2","102.62","18.54","14.00","24.96","12.61","14.84","0","0"
"Justise Winslow","Justise-Winslow-18921","4900","SF/PF","29.37","211.5","32.2","106.90","21.25","27.00","32.99","16.38","21.3","0","0"
"Zaza Pachulia","Zaza-Pachulia-1455","3200","C","52.26","217","13.6","100.30","17.81","14.00","23.22","11.36","13.84","0","0"
"James Johnson","James-Johnson-1195","3700","SF/PF","48.89","211.5","19.7","106.90","22.39","20.00","20.87","8.42","15.94","0","0"
"Mario Hezonja","Mario-Hezonja-18923","3200","SF/PF","36.89","213","17.3","100.17","20.32","16.00","21.45","9.19","13.8","0","0"
"DeAndre Bembry","DeAndre-Bembry-35198","4300","SG/SF","37.87","226","21.8","105.10","20.92","23.00","27.47","15.46","18.4","0","0"
"David Nwaba","David-Nwaba-36526","3500","SG/SF","38.91","213","0","103.60","0","18.00","26.43","14.9","14.9","0","0"
"Miles Bridges","Miles-Bridges-409262","3700","SF/PF","43.95","217","20.3","103.00","19.87","20.00","16.16","3.07","15.67","0","0"
"Zach Collins","Zach-Collins-37866","3400","PF/C","54.53","200.5","16.7","104.50","13.44","16.00","21.98","11.05","14.18","0","0"
"Malik Monk","Malik-Monk-37827","3400","PG/SG","51.04","217","13.3","103.00","24.74","16.00","21.62","11.71","14.18","0","0"
"Derrick Jones","Derrick-Jones-36064","3600","SF/PF","33.73","211.5","19.7","106.90","11.42","18.00","26.77","14.59","14.59","0","0"
"Dorian Finney-Smith","Dorian-Finney-Smith-36032","3900","SF/PF","45.23","226","25.3","100.08","12.24","22.00","24.73","12.92","15.77","0","0"
"Austin Rivers","Austin-Rivers-13903","4300","PG/SG","38.32","219.5","26.0","103.80","16.82","21.00","27.18","14.08","17.27","0","0"
"Semi Ojeleye","Semi-Ojeleye-37786","3100","SF/PF","36.07","219.5","11.6","101.75","19.46","20.00","23.73","12.4","12.4","0","0"
"Michael Kidd-Gilchrist","Michael-Kidd-Gilchrist-13896","3700","SF/PF","34.08","217","19.7","103.00","15.68","20.00","23.88","12.38","14.48","0","0"
"Daniel Theis","Daniel-Theis-37784","4600","PF/C","54.62","219.5","19.0","101.75","19.34","18.00","29.4","16.1","17.81","0","0"
"Tyler Johnson","Tyler-Johnson-18720","4600","PG/SG","48.71","211.5","13.3","106.90","19.20","22.00","27.38","12.59","17.73","0","0"
"Frank Ntilikina","Frank-Ntilikina-37796","3300","PG/SF","44.17","213","16.3","100.17","22.84","20.00","20.27","11.0","12.63","0","0"
"Vince Carter","Vince-Carter-1066","3100","SG","34.16","226","12.6","105.10","20.58","17.00","20.43","10.33","11.83","0","0"
"Kyle Korver","Kyle-Korver-1269","3100","SG/SF","36.84","211.5","16.5","98.88","19.43","16.00","21.04","9.35","11.82","0","0"
"Myles Turner","Myles-Turner-18915","7200","C","54.66","217.5","30.5","107.67","20.09","31.00","45.15","21.06","27.38","0","0"
"Alfonzo McKinnie","Alfonzo-McKinnie-37808","3100","SF/PF","36.25","227","17.7","103.10","17.18","16.00","22.39","11.69","11.69","0","0"
"Jordan Bell","Jordan-Bell-37877","3100","PF/C","49.60","227","15.2","103.10","13.47","12.00","20.0","9.79","11.65","0","0"
"OG Anunoby","OG-Anunoby-37807","3200","SF/PF","34.93","227","16.3","105.50","18.66","17.00","22.54","11.92","11.92","0","0"
"Terrance Ferguson","Terrance-Ferguson-37871","3200","SG/SF","36.80","235.5","22.8","102.62","7.94","24.00","18.83","7.4","11.92","0","0"
"Victor Oladipo","Victor-Oladipo-16807","9000","PG/SG","46.37","217.5","0","107.67","0","25.00","46.36","21.56","33.38","0","0"
"Royce O'Neale","Royce-O'Neale-37872","3500","SF","37.59","211.5","21.6","98.88","12.17","18.00","19.54","9.54","12.82","0","0"
"Alex Abrines","Alex-Abrines-36054","3000","SG/SF","36.80","235.5","19.8","102.62","12.66","16.00","21.3","10.9","10.9","0","0"
"Delon Wright","Delon-Wright-18907","3200","PG/SG","41.33","227","14.9","105.50","17.25","14.00","19.18","9.55","11.58","0","0"
"Devin Harris","Devin-Harris-1076","3200","PG/SG","54.60","226","15.0","100.08","15.75","13.00","19.67","10.98","10.98","0","0"
"Robert Williams","Robert-Williams-408780","3400","PF/C","54.62","219.5","16.0","101.75","11.10","14.00","12.24","2.82","11.56","0","0"
"Matthew Dellavedova","Matthew-Dellavedova-16839","3300","PG/SG","43.98","213","17.5","103.60","21.78","13.00","19.75","11.06","11.06","0","0"
"Tony Snell","Tony-Snell-16872","3100","SG/SF","35.74","217.5","19.7","98.80","18.05","18.00","17.73","8.85","10.38","0","0"
"Dwight Powell","Dwight-Powell-18566","3600","PF/C","62.58","226","17.7","100.08","21.22","12.00","18.89","9.62","12.06","0","0"
"Sterling Brown","Sterling-Brown-37821","3300","SG/SF","37.17","217.5","21.4","98.80","12.24","14.00","20.9","10.87","10.87","0","0"
"Jon Leuer","Jon-Leuer-13317","3100","PF/C","56.08","217","13.4","100.30","18.29","13.00","16.58","8.69","10.21","0","0"
"Tyus Jones","Tyus-Jones-18938","3100","PG","43.70","226.5","16.2","100.67","12.02","13.00","18.18","9.67","10.05","0","0"
"Dirk Nowitzki","Dirk-Nowitzki-1346","4100","PF/C","62.58","226","0","100.08","0","15.00","19.23","10.99","13.21","0","0"
"Ian Clark","Ian-Clark-16922","3100","PG/SG","39.52","235.5","8.8","104.88","15.44","15.00","16.11","9.91","9.91","0","0"
"Omri Casspi","Omri-Casspi-1270","3200","SF/PF","38.29","200.5","14.8","103.30","14.21","12.00","17.75","8.48","10.11","0","0"
"Nik Stauskas","Nik-Stauskas-18636","3000","SG/SF","37.34","200.5","14.7","104.50","19.30","13.00","15.62","7.51","9.24","0","0"
"Frank Kaminsky","Frank-Kaminsky-18920","3500","PF/C","55.59","217","18.0","103.00","19.16","12.00","16.93","8.64","10.49","0","0"
"Channing Frye","Channing-Frye-1484","3000","PF/C","61.03","213","4.2","103.60","11.43","10.00","17.48","7.44","8.75","0","0"
"Thon Maker","Thon-Maker-35194","3100","PF/C","49.03","217.5","13.2","98.80","16.78","11.00","15.32","7.67","9.05","0","0"
"Brad Wanamaker","Brad-Wanamaker-438951","3000","PG/SG","47.01","219.5","9.0","101.75","18.11","11.00","9.15","2.11","8.64","0","0"
"Sam Dekker","Sam-Dekker-18929","3500","SF/PF","34.41","219.5","10.0","103.80","13.32","12.00","16.79","8.34","9.91","0","0"
"Frank Mason","Frank-Mason-37898","3200","PG/SG","35.95","226.5","10.0","98.20","21.29","10.00","13.79","7.95","8.99","0","0"
"Jaron Blossomgame","Jaron-Blossomgame-570197","3400","SF/PF","38.91","213","16.0","103.60","10.34","12.00","10.3","2.17","9.49","0","0"
"George Hill","George-Hill-993","3500","PG/SG","48.14","217.5","22.5","98.80","12.82","12.00","16.47","8.34","9.72","0","0"
"Raul Neto","Raul-Neto-31821","3200","PG","40.21","211.5","10.6","98.88","20.14","10.00","15.42","7.71","8.34","0","0"
"Ron Baker","Ron-Baker-36001","3000","PG/SG","44.17","213","7.0","100.17","15.20","9.00","15.26","7.67","7.67","0","0"
"Thabo Sefolosha","Thabo-Sefolosha-1271","3100","SF/PF","37.59","211.5","11.5","98.88","12.80","10.00","11.41","6.5","7.68","0","0"
"C.J. Miles","C.J.-Miles-1299","3100","SG/SF","34.93","227","12.3","105.50","16.47","10.00","12.61","6.19","7.64","0","0"
"Wesley Johnson","Wesley-Johnson-1280","3000","SG/SF","38.57","235.5","8.5","104.88","8.10","10.00","13.55","7.06","7.06","0","0"
"Hamidou Diallo","Hamidou-Diallo-408800","3100","SG/SF","36.80","235.5","7.7","102.62","25.08","10.00","7.27","1.33","7.19","0","0"
"Doug McDermott","Doug-McDermott-18583","3100","SF/PF","38.50","217.5","16.8","107.67","18.42","11.00","14.03","7.02","7.02","0","0"
"Justin Jackson","Justin-Jackson-37895","3300","SF","39.71","226.5","18.0","98.20","14.64","10.00","11.28","5.93","7.38","0","0"
"Patrick Patterson","Patrick-Patterson-1260","3100","PF/C","56.85","235.5","14.5","102.62","11.48","10.00","11.87","5.67","6.7","0","0"
"Aaron Holiday","Aaron-Holiday-408932","3200","PG/SG","43.18","217.5","12.8","107.67","20.01","7.00","6.26","1.23","6.14","0","0"
"Andrew Harrison","Andrew-Harrison-18950","3000","PG","36.19","235.5","8.2","104.88","20.17","6.00","9.66","4.37","5.77","0","0"
"Quinn Cook","Quinn-Cook-31771","3300","PG","45.92","227","13.8","103.10","17.93","8.00","10.85","5.68","5.68","0","0"
"Wayne Ellington","Wayne-Ellington-1009","4500","PG/SG","29.37","211.5","29.3","106.90","14.23","10.00","13.62","6.21","7.75","0","0"
"Shake Milton","Shake-Milton-409061","3000","PG/SG","46.31","224.5","6.5","108.33","15.35","6.00","4.57","0.81","4.5","0","0"
"Dante Exum","Dante-Exum-18626","3400","PG","40.21","211.5","8.2","98.88","30.03","5.00","7.51","3.54","4.33","0","0"
"Jaylen Adams","Jaylen-Adams-436365","3000","PG","54.68","226","4.0","105.10","3.30","5.00","3.82","0.88","3.61","0","0"
"MarShon Brooks","MarShon-Brooks-188837","3000","SG","47.69","200.5","12.8","103.30","21.28","4.00","4.98","2.27","3.23","0","0"
"Troy Williams","Troy-Williams-36043","3000","SF/PF","39.71","226.5","15.0","98.20","15.63","4.00","5.08","2.59","3.2","0","0"
"Jared Dudley","Jared-Dudley-1319","3100","SF/PF","35.33","224.5","15.3","114.62","9.75","5.00","5.85","2.84","3.25","0","0"
"Pat Connaughton","Pat-Connaughton-18939","3300","SG/SF","37.17","217.5","21.0","98.80","12.13","4.00","5.63","2.32","3.03","0","0"
"Justin Anderson","Justin-Anderson-18927","3100","SF/PF","37.87","226","6.8","105.10","29.12","3.00","4.31","2.08","2.71","0","0"
"Jacob Evans","Jacob-Evans-409245","3000","SG/SF","36.25","227","2.3","103.10","13.31","4.00","2.19","0.39","2.16","0","0"
