"nameCol","idCol","salaryCol","positionCol","dvpCol","ouCol","mpgCol","paceCol","usgCol","pminCol","ceilCol","floorCol","pointsCol","predictCol","actualCol"
"Jusuf Nurkic","Jusuf-Nurkic-18619","6100","C","51.82","0","27.1","104.50","22.78","29.00","52.54","22.36","39.86","0","0"
"Danuel House","Danuel-House-36029","3600","SF/PF","47.76","0","22.0","101.42","12.79","28.00","37.49","13.94","22.97","0","0"
"Al-Farouq Aminu","Al-Farouq-Aminu-1279","3900","SF/PF","29.65","0","29.7","104.50","12.51","30.00","37.33","18.19","24.29","0","0"
"Noah Vonleh","Noah-Vonleh-18597","5200","PF/C","45.52","0","30.5","100.17","15.54","30.00","45.02","21.49","32.02","0","0"
"Draymond Green","Draymond-Green-13976","6300","PF/C","58.91","0","31.6","103.10","16.66","34.00","46.87","17.16","38.64","0","0"
"Ricky Rubio","Ricky-Rubio-1001","5400","PG","41.20","0","29.7","98.88","24.55","32.00","42.56","17.23","32.44","0","0"
"Brook Lopez","Brook-Lopez-1498","4300","C","59.72","0","26.4","98.80","18.12","28.00","39.03","17.58","25.78","0","0"
"Gerald Green","Gerald-Green-13374","3900","SG/SF","47.61","0","22.1","101.42","14.96","28.00","39.06","18.5","22.75","0","0"
"P.J. Tucker","P.J.-Tucker-13947","4300","SF/PF","38.63","0","34.9","101.42","10.72","36.00","47.53","20.53","24.41","0","0"
"Marcus Smart","Marcus-Smart-18567","4400","PG/SG","53.53","0","30.4","101.75","16.01","28.00","35.53","13.9","24.78","0","0"
"Clint Capela","Clint-Capela-18610","7400","C","49.01","0","32.4","101.42","18.96","35.00","62.33","26.2","41.58","0","0"
"James Harden","James-Harden-1037","10900","PG/SG","47.76","0","37.6","101.42","38.50","38.00","71.85","22.0","60.94","0","0"
"Jerami Grant","Jerami-Grant-18576","4500","PF","44.64","0","32.5","102.62","15.30","31.00","38.31","17.28","25.12","0","0"
"Kevin Durant","Kevin-Durant-1348","9300","SF/PF","44.09","0","35.1","103.10","31.45","35.00","68.12","24.03","51.57","0","0"
"Dennis Schroder","Dennis-Schroder-18595","4900","PG/SG","48.54","0","27.6","102.62","28.20","26.00","41.45","21.35","27.16","0","0"
"Eric Gordon","Eric-Gordon-1077","5800","SG/SF","47.61","0","34.7","101.42","19.20","36.00","46.29","21.87","31.97","0","0"
"Kevon Looney","Kevon-Looney-18945","3500","PF/C","56.91","0","21.1","103.10","10.98","20.00","31.3","15.43","19.24","0","0"
"Khris Middleton","Khris-Middleton-13990","6500","SG/SF","49.96","0","32.8","98.80","27.08","33.00","57.6","24.96","35.71","0","0"
"Damian Lillard","Damian-Lillard-13900","7800","PG","49.37","0","35.1","104.50","29.20","35.00","54.54","20.76","42.81","0","0"
"Maurice Harkless","Maurice-Harkless-16971","3300","SF/PF","29.65","0","25.2","104.50","13.38","25.00","28.96","12.12","18.09","0","0"
"Stephen Curry","Stephen-Curry-1079","9000","PG/SG","51.98","0","35.6","103.10","29.34","35.00","68.51","25.81","49.25","0","0"
"Giannis Antetokounmpo","Giannis-Antetokounmpo-16852","10700","SF/PF","53.05","0","33.0","98.80","30.63","36.00","68.39","21.86","58.3","0","0"
"Gordon Hayward","Gordon-Hayward-1239","5000","SF/PF","50.32","0","26.6","101.75","19.55","26.00","39.54","18.64","26.9","0","0"
"J.J. Redick","J.J.-Redick-1030","5100","SG/SF","34.79","0","29.1","108.33","22.21","32.00","37.0","17.05","27.45","0","0"
"Tim Hardaway Jr.","Tim-Hardaway-Jr.-16879","6600","SG/SF","48.14","0","35.4","100.17","22.03","33.00","54.7","24.38","35.38","0","0"
"Joel Embiid","Joel-Embiid-18578","9500","C","50.36","0","30.9","108.33","33.91","33.00","62.25","21.92","50.86","0","0"
"Kyrie Irving","Kyrie-Irving-13334","8100","PG","53.53","0","32.7","101.75","32.65","33.00","59.18","23.08","43.23","0","0"
"Jimmy Butler","Jimmy-Butler-13327","7000","SG/SF","44.32","0","24.6","108.33","19.83","34.00","50.34","20.51","37.29","0","0"
"Jayson Tatum","Jayson-Tatum-37782","6000","SF/PF","50.32","0","31.1","101.75","24.14","33.00","40.11","16.58","31.71","0","0"
"Brandon Ingram","Brandon-Ingram-35227","5300","PG/SG","45.36","0","34.5","112.50","23.66","33.00","42.69","17.46","27.72","0","0"
"Andre Iguodala","Andre-Iguodala-1334","3300","SG/SF","37.40","0","20.0","103.10","12.26","19.00","25.89","10.06","17.26","0","0"
"Joe Ingles","Joe-Ingles-18627","5700","SG/SF","37.27","0","28.7","98.88","19.97","32.00","45.88","19.44","29.77","0","0"
"Klay Thompson","Klay-Thompson-13315","6700","SG","37.40","0","34.7","103.10","23.46","35.00","44.74","20.07","34.79","0","0"
"Wilson Chandler","Wilson-Chandler-1327","3800","SF/PF","34.50","0","28.5","108.33","12.93","27.00","29.77","14.0","19.69","0","0"
"Rudy Gobert","Rudy-Gobert-16935","7200","C","50.16","0","29.1","98.88","18.09","32.00","49.53","15.49","37.24","0","0"
"Terry Rozier","Terry-Rozier-18894","3700","PG/SG","47.57","0","25.4","101.75","18.62","19.00","30.37","16.21","19.05","0","0"
"Derrick Favors","Derrick-Favors-1266","4900","PF/C","52.63","0","23.0","98.88","22.24","25.00","32.57","15.73","25.21","0","0"
"Ben Simmons","Ben-Simmons-35184","8400","PG/SF","38.82","0","32.0","108.33","24.94","35.00","56.85","18.27","43","0","0"
"Eric Bledsoe","Eric-Bledsoe-1031","6800","PG/SG","53.16","0","30.1","98.80","25.72","32.00","50.4","22.28","34.59","0","0"
"Josh Hart","Josh-Hart-37889","3500","PG/SG","41.29","0","26.7","112.50","14.63","23.00","29.89","14.1","17.73","0","0"
"Enes Kanter","Enes-Kanter-13299","6200","C","47.04","0","28.3","100.17","19.84","26.00","41.19","15.87","31.42","0","0"
"Kyle Kuzma","Kyle-Kuzma-37886","6400","SF/PF","48.45","0","35.3","112.50","23.90","34.00","42.0","17.99","32.36","0","0"
"LeBron James","LeBron-James-1227","10100","SF/PF","48.45","0","35.6","112.50","31.00","37.00","65.06","20.23","50.95","0","0"
"Lonzo Ball","Lonzo-Ball-37885","5500","PG","37.30","0","33.0","112.50","18.79","28.00","37.09","14.33","27.66","0","0"
"Donovan Mitchell","Donovan-Mitchell-37875","7100","PG/SG","47.33","0","32.0","98.88","31.74","34.00","46.63","19.2","35.62","0","0"
"Jonas Jerebko","Jonas-Jerebko-1106","4100","PF/C","44.09","0","23.3","103.10","17.62","22.00","30.09","13.39","20.51","0","0"
"C.J. McCollum","C.J.-McCollum-17121","5900","PG/SG","40.25","0","33.3","104.50","27.40","35.00","39.67","16.68","29.47","0","0"
"Sterling Brown","Sterling-Brown-37821","3200","SG/SF","35.49","0","22.7","98.80","14.46","19.00","30.56","15.89","15.89","0","0"
"George Hill","George-Hill-993","3400","PG/SG","42.54","0","19.4","98.80","12.79","19.00","28.54","14.46","16.85","0","0"
"Russell Westbrook","Russell-Westbrook-1083","10300","PG","48.54","0","34.9","102.62","30.84","35.00","56.41","17.35","50.73","0","0"
"Mike Muscala","Mike-Muscala-17379","4200","PF/C","50.36","0","21.0","108.33","15.82","24.00","35.7","20.24","20.24","0","0"
"Malcolm Brogdon","Malcolm-Brogdon-35195","5000","PG/SG","53.16","0","25.8","98.80","24.48","28.00","34.52","17.02","24.04","0","0"
"Al Horford","Al-Horford-1499","5700","PF/C","53.85","0","19.0","101.75","16.78","27.00","36.65","14.37","27.21","0","0"
"Kyle Korver","Kyle-Korver-1269","3300","SG/SF","37.27","0","18.0","98.88","19.42","20.00","27.35","12.33","15.61","0","0"
"Steven Adams","Steven-Adams-16848","6700","C","53.74","0","32.9","102.62","21.24","33.00","41.7","20.83","31.66","0","0"
"Evan Turner","Evan-Turner-1291","4000","SG/SF","40.25","0","23.6","104.50","17.45","23.00","28.39","15.66","18.84","0","0"
"Jae Crowder","Jae-Crowder-13942","4600","SF/PF","39.10","0","24.4","98.88","17.14","26.00","36.55","16.59","21.68","0","0"
"Damyean Dotson","Damyean-Dotson-37795","3800","SG/SF","40.46","0","18.7","100.17","18.09","20.00","29.48","14.55","17.22","0","0"
"Marcus Morris","Marcus-Morris-13316","5900","SF/PF","34.66","0","28.4","101.75","22.51","27.00","35.74","14.06","26.67","0","0"
"Shaun Livingston","Shaun-Livingston-14007","3100","PG","35.71","0","15.5","103.10","14.79","16.00","22.76","10.42","13.82","0","0"
"Allonzo Trier","Allonzo-Trier-554950","3500","PG/SG","48.14","0","0","100.17","0","21.00","15.91","3.12","15.6","0","0"
"Paul George","Paul-George-1245","9700","SF/PF","44.64","0","36.0","102.62","31.43","36.00","59.58","26.31","42.71","0","0"
"JaVale McGee","JaVale-McGee-1485","4700","C","52.36","0","20.3","112.50","21.25","20.00","26.38","16.23","20.29","0","0"
"Rajon Rondo","Rajon-Rondo-1085","4500","PG","37.30","0","19.5","112.50","23.19","20.00","35.62","19.42","19.42","0","0"
"Kevin Knox","Kevin-Knox-408820","5600","SF/PF","48.14","0","36.2","100.17","21.32","34.00","23.55","3.41","24.18","0","0"
"Nene Hilario","Nene-Hilario-17321","3300","C","49.01","0","15.0","101.42","12.28","14.00","23.42","12.43","14","0","0"
"Emmanuel Mudiay","Emmanuel-Mudiay-18936","6900","PG","41.73","0","33.0","100.17","29.39","31.00","38.22","16.2","29.29","0","0"
"Nik Stauskas","Nik-Stauskas-18636","3200","SG/SF","34.90","0","14.0","104.50","19.02","19.00","22.31","10.73","13.2","0","0"
"Terrance Ferguson","Terrance-Ferguson-37871","3100","SG/SF","37.18","0","17.6","102.62","10.17","23.00","20.07","7.89","12.7","0","0"
"Zach Collins","Zach-Collins-37866","3100","PF/C","52.51","0","18.0","104.50","16.24","16.00","19.39","9.75","12.51","0","0"
"D.J. Wilson","D.J.-Wilson-37822","3700","PF/C","53.05","0","19.8","98.80","12.47","17.00","28.9","14.95","14.95","0","0"
"Nerlens Noel","Nerlens-Noel-18575","3200","C","53.74","0","13.8","102.62","14.16","13.00","21.6","10.91","12.84","0","0"
"Dante Exum","Dante-Exum-18626","3200","PG/SG","41.20","0","16.0","98.88","19.51","15.00","22.32","10.52","12.81","0","0"
"Kentavious Caldwell-Pope","Kentavious-Caldwell-Pope-16869","3500","SG/SF","41.29","0","23.4","112.50","16.48","18.00","25.87","11.94","13.69","0","0"
"Jaylen Brown","Jaylen-Brown-35181","4800","SG/SF","34.66","0","22.7","101.75","24.81","21.00","35.17","15.43","18.57","0","0"
"T.J. McConnell","T.J.-McConnell-18956","3600","PG/SG","38.82","0","26.0","108.33","17.09","19.00","22.09","11.57","13.73","0","0"
"Meyers Leonard","Meyers-Leonard-13905","3200","PF/C","52.51","0","15.6","104.50","15.23","12.00","20.8","9.85","12.12","0","0"
"Tyson Chandler","Tyson-Chandler-1482","3600","C","52.36","0","18.0","112.50","6.94","15.00","25.52","13.21","13.21","0","0"
"Frank Ntilikina","Frank-Ntilikina-37796","3300","PG/SG","41.73","0","18.7","100.17","21.31","15.00","18.29","10.44","12.05","0","0"
"Lance Thomas","Lance-Thomas-13363","3000","SF/PF","40.46","0","17.7","100.17","9.46","15.00","19.22","8.88","10.89","0","0"
"Seth Curry","Seth-Curry-16825","3000","PG/SG","34.90","0","17.0","104.50","13.85","16.00","19.65","10.66","10.66","0","0"
"Alex Abrines","Alex-Abrines-36054","3300","SG/SF","37.18","0","18.5","102.62","10.74","18.00","22.73","11.63","11.63","0","0"
"Thabo Sefolosha","Thabo-Sefolosha-1271","3100","SF/PF","39.10","0","11.1","98.88","10.88","12.00","16.1","9.09","10.76","0","0"
"Landry Shamet","Landry-Shamet-408841","3200","PG/SG","34.79","0","19.3","108.33","16.05","18.00","11.45","2.64","10.81","0","0"
"Jordan Bell","Jordan-Bell-37877","3000","PF/C","56.91","0","9.3","103.10","16.64","11.00","17.23","8.52","10.13","0","0"
"Daniel Theis","Daniel-Theis-37784","4000","PF/C","50.95","0","19.3","101.75","16.21","13.00","21.6","11.44","12.67","0","0"
"Patrick Patterson","Patrick-Patterson-1260","3000","PF/C","52.43","0","13.2","102.62","9.76","14.00","16.78","8.02","9.47","0","0"
"Royce O'Neale","Royce-O'Neale-37872","3100","SF","39.10","0","12.7","98.88","12.61","12.00","14.59","7.16","9.61","0","0"
"Furkan Korkmaz","Furkan-Korkmaz-35185","3700","SG/SF","34.79","0","23.0","108.33","18.65","18.00","21.76","11.46","11.46","0","0"
"Alfonzo McKinnie","Alfonzo-McKinnie-37808","3200","SF/PF","35.84","0","13.3","103.10","15.66","13.00","18.73","9.86","9.86","0","0"
"Tony Snell","Tony-Snell-16872","3800","SG/SF","38.67","0","21.4","98.80","13.38","18.00","19.62","9.88","11.49","0","0"
"Luke Kornet","Luke-Kornet-37800","3200","PF/C","40.46","0","12.3","100.17","18.35","11.00","14.32","6.83","9.04","0","0"
"Brandon Knight","Brandon-Knight-13336","3300","PG/SG","47.76","0","7.8","101.42","19.00","10.00","12.66","6.42","8.85","0","0"
"Thon Maker","Thon-Maker-35194","3100","PF/C","55.23","0","11.1","98.80","13.25","10.00","13.81","6.91","8.16","0","0"
"Hamidou Diallo","Hamidou-Diallo-408800","3100","SG/SF","37.18","0","9.8","102.62","20.54","11.00","8.04","1.47","7.95","0","0"
"Austin Rivers","Austin-Rivers-13903","4200","PG/SG","35.81","0","0","101.42","0","15.00","13.81","9.56","10.62","0","0"
"Robert Williams","Robert-Williams-408780","3900","PF/C","50.95","0","15.4","101.75","11.43","8.00","7.31","1.3","7.2","0","0"
"Ivica Zubac","Ivica-Zubac-35226","4400","C","52.36","0","16.6","112.50","16.27","8.00","8.93","4.38","6.35","0","0"
"Lance Stephenson","Lance-Stephenson-947","3400","SG/SF","45.36","0","15.5","112.50","23.34","4.00","6.4","2.97","3.72","0","0"
"Semi Ojeleye","Semi-Ojeleye-37786","3100","SF/PF","34.66","0","14.8","101.75","18.21","5.00","6.44","3.34","3.34","0","0"
"Courtney Lee","Courtney-Lee-1025","3300","SG/SF","36.51","0","16.2","100.17","15.40","4.00","5.71","3.02","3.02","0","0"
