"nameCol","idCol","salaryCol","positionCol","dvpCol","ouCol","mpgCol","paceCol","usgCol","pminCol","ceilCol","floorCol","pointsCol","predictCol","actualCol"
"Dewayne Dedmon","Dewayne-Dedmon-16894","5500","PF/C","50.41","230","28.3","105.10","18.22","32.00","49.29","20.85","34.86","0","0"
"Dorian Finney-Smith","Dorian-Finney-Smith-36032","3400","SF/PF","42.61","229","20.5","100.08","11.36","29.00","33.36","16.88","21.4","0","0"
"James Johnson","James-Johnson-1195","4400","SF/PF","48.32","202","23.0","106.90","16.63","27.00","34.89","13.71","26.51","0","0"
"Kevin Huerter","Kevin-Huerter-408969","4200","SG/SF","39.37","230","31.8","105.10","15.86","32.00","23.74","2.82","25.15","0","0"
"E'Twaun Moore","E'Twaun-Moore-18582","4000","SG/SF","33.32","229","29.2","104.88","15.15","30.00","36.98","19.17","23.26","0","0"
"Andrew Wiggins","Andrew-Wiggins-18620","5800","SG/SF","52.01","230","33.0","100.67","23.86","34.00","44.1","19.2","33.69","0","0"
"Julius Randle","Julius-Randle-18632","7900","PF/C","52.92","229","32.5","104.88","26.11","34.00","62.48","26.1","45.47","0","0"
"Jeremy Lin","Jeremy-Lin-916","3800","PG/SG","51.98","230","18.3","105.10","25.64","20.00","33.58","16.76","21.54","0","0"
"Hassan Whiteside","Hassan-Whiteside-18664","7100","C","48.30","202","25.2","106.90","23.40","27.00","49.48","18.61","39.27","0","0"
"DeAndre Bembry","DeAndre-Bembry-35198","3600","SG/SF","40.01","230","22.5","105.10","15.35","23.00","29.47","16.7","19.86","0","0"
"Harrison Barnes","Harrison-Barnes-13901","5600","SF/PF","49.15","229","32.8","100.08","22.16","34.00","39.01","17.7","30.62","0","0"
"Cedi Osman","Cedi-Osman-18912","4200","SF/PF","37.25","202","31.0","103.60","15.89","32.00","28.53","10.55","22.79","0","0"
"Robert Covington","Robert-Covington-16874","6200","SF/PF","44.15","230","31.8","100.67","16.43","34.00","46.59","21.86","33.28","0","0"
"Maxi Kleber","Maxi-Kleber-37845","3400","PF/C","49.15","229","14.0","100.08","18.21","21.00","28.46","11.76","18.23","0","0"
"Derrick Rose","Derrick-Rose-1086","7100","PG/SG","56.12","230","29.4","100.67","29.74","33.00","50.62","18.89","38.09","0","0"
"Dwyane Wade","Dwyane-Wade-967","5000","PG/SG","51.83","202","24.0","106.90","27.85","24.00","37.17","17.51","26.49","0","0"
"Alec Burks","Alec-Burks-13353","4600","PG/SG","45.53","202","26.9","103.60","20.09","29.00","34.31","17.89","24.4","0","0"
"Karl-Anthony Towns","Karl-Anthony-Towns-18937","9600","C","58.10","230","31.3","100.67","25.73","35.00","68.34","28.85","50.7","0","0"
"Justise Winslow","Justise-Winslow-18921","5800","PG/SF","37.28","202","25.4","106.90","21.22","31.00","47.31","17.37","30.64","0","0"
"Kent Bazemore","Kent-Bazemore-13987","6100","SG/SF","46.20","230","30.5","105.10","25.58","32.00","45.96","15.27","31.94","0","0"
"Dennis Smith Jr.","Dennis-Smith-Jr.-37847","5000","PG","51.25","229","27.0","100.08","16.79","28.00","35.95","14.43","26.09","0","0"
"Taj Gibson","Taj-Gibson-1277","4400","PF/C","56.97","230","23.4","100.67","15.52","25.00","31.06","12.69","22.79","0","0"
"Jordan Clarkson","Jordan-Clarkson-18631","6000","PG/SG","45.53","202","31.0","103.60","27.36","31.00","51.74","29.9","30.98","0","0"
"John Collins","John-Collins-37823","7700","PF/C","50.41","230","29.2","105.10","27.26","33.00","61.52","24.47","39.41","0","0"
"Anthony Davis","Anthony-Davis-13895","11600","PF/C","52.92","229","35.8","104.88","30.66","37.00","85.96","30.82","59.16","0","0"
"Darius Miller","Darius-Miller-13951","3900","SF/PF","37.54","229","32.8","104.88","14.70","32.00","31.62","16.48","19.76","0","0"
"Tim Frazier","Tim-Frazier-18743","4200","PG/SG","41.04","229","18.6","104.88","16.78","23.00","33.24","14.34","20.93","0","0"
"Josh Okogie","Josh-Okogie-409174","3700","SG/SF","52.01","230","21.2","100.67","15.72","23.00","18.46","3.29","18.19","0","0"
"Trae Young","Trae-Young-409063","6400","PG","51.98","230","27.0","105.10","29.17","29.00","29.6","3.51","31.36","0","0"
"Josh Richardson","Josh-Richardson-18922","7400","SG/SF","51.83","202","36.5","106.90","22.47","35.00","53.67","21.18","36.14","0","0"
"Matthew Dellavedova","Matthew-Dellavedova-16839","3700","PG/SG","40.22","202","19.2","103.60","21.18","18.00","30.72","16.73","18.03","0","0"
"Rodney McGruder","Rodney-McGruder-16850","3500","SG/SF","37.14","202","21.6","106.90","14.51","22.00","26.43","10.61","17","0","0"
"Dario Saric","Dario-Saric-36004","4700","PF","53.29","230","24.3","100.67","19.03","23.00","38.38","18.56","22.86","0","0"
"Jahlil Okafor","Jahlil-Okafor-18902","3300","C","48.45","229","14.8","104.88","22.11","16.00","27.07","13.37","15.82","0","0"
"Gorgui Dieng","Gorgui-Dieng-16939","3400","PF/C","56.97","230","14.8","100.67","20.16","15.00","24.5","11.9","16.26","0","0"
"Jrue Holiday","Jrue-Holiday-1073","8900","PG/SG","55.83","229","36.8","104.88","27.57","37.00","56.86","19.87","42.37","0","0"
"DeAndre Jordan","DeAndre-Jordan-1486","6800","C","51.77","229","31.0","100.08","14.61","32.00","39.13","18.97","31.56","0","0"
"Larry Nance","Larry-Nance-18946","6900","PF/C","51.76","202","31.4","103.60","17.40","32.00","47.14","19.43","31.96","0","0"
"Dwight Powell","Dwight-Powell-18566","3400","PF/C","54.22","229","15.0","100.08","18.51","15.00","23.92","12.19","15.39","0","0"
"Ante Zizic","Ante-Zizic-35180","3400","C","50.30","202","15.8","103.60","17.80","18.00","21.2","9.78","14.97","0","0"
"Collin Sexton","Collin-Sexton-408896","5000","PG","52.17","202","28.9","103.60","24.51","32.00","25.7","8.08","21.95","0","0"
"Channing Frye","Channing-Frye-1484","3100","PF/C","51.76","202","8.6","103.60","24.48","14.00","26.18","11.4","13.37","0","0"
"J.J. Barea","J.J.-Barea-18605","5100","PG/SG","51.25","229","23.0","100.08","30.09","19.00","32.89","15.81","21.84","0","0"
"Luka Doncic","Luka-Doncic-408971","8700","SG/SF","50.89","229","32.5","100.08","32.14","33.00","37.91","7.59","36.66","0","0"
"Kelly Olynyk","Kelly-Olynyk-16845","4200","PF/C","48.19","202","22.7","106.90","18.66","17.00","26.28","14.81","17.65","0","0"
"Dirk Nowitzki","Dirk-Nowitzki-1346","3200","PF/C","54.22","229","8.6","100.08","19.93","13.00","18.78","10.71","12.95","0","0"
"Bam Adebayo","Bam-Adebayo-37835","4100","PF/C","48.30","202","21.3","106.90","12.89","17.00","23.97","14.38","16.27","0","0"
"Tyler Johnson","Tyler-Johnson-18720","6000","PG/SG","55.86","202","27.0","106.90","22.29","28.00","37.42","16.77","23.82","0","0"
"Devin Harris","Devin-Harris-1076","3500","PG/SG","51.25","229","16.3","100.08","20.80","16.00","23.93","13.53","13.53","0","0"
"Jaron Blossomgame","Jaron-Blossomgame-570197","3400","SF/PF","37.25","202","19.3","103.60","10.33","20.00","13.77","3.17","13","0","0"
"Tyus Jones","Tyus-Jones-18938","4300","PG","42.55","230","21.5","100.67","14.67","18.00","29.85","15.78","16.4","0","0"
"Vince Carter","Vince-Carter-1066","3400","SG","39.37","230","18.8","105.10","17.68","16.00","20.81","10.9","12.43","0","0"
"Solomon Hill","Solomon-Hill-16863","3400","SF/PF","37.54","229","20.4","104.88","9.96","18.00","23.43","12.28","12.28","0","0"
"Justin Anderson","Justin-Anderson-18927","3100","SF/PF","40.01","230","6.8","105.10","12.39","10.00","16.46","7.89","10.57","0","0"
"Jalen Jones","Jalen-Jones-35996","3000","SF/PF","37.25","202","7.0","103.60","13.94","14.00","18.32","8.89","10.16","0","0"
"Frank Jackson","Frank-Jackson-37855","3000","PG/SG","55.83","229","11.4","104.88","14.65","13.00","9.47","1.8","9.19","0","0"
"Derrick Jones","Derrick-Jones-36064","3900","SF/PF","37.14","202","18.2","106.90","18.27","12.00","19.79","10.61","10.61","0","0"
"Omari Spellman","Omari-Spellman-408970","3000","PF/C","53.98","230","7.0","105.10","16.46","8.00","7.6","1.87","7.16","0","0"
"Alex Poythress","Alex-Poythress-36018","3000","SF/PF","53.98","230","2.5","105.10","8.00","5.00","8.71","4.39","4.92","0","0"
