"nameCol","idCol","salaryCol","positionCol","dvpCol","ouCol","mpgCol","paceCol","usgCol","pminCol","ceilCol","floorCol","pointsCol","predictCol","actualCol"
"Devin Harris","Devin-Harris-1076","3200","PG/SG","41.73","202","14.8","100.08","19.26","23.00","41.84","20.93","20.93","0","0"
"Trey Lyles","Trey-Lyles-18942","4000","SF/PF","45.92","225.5","21.6","99.62","20.57","23.00","47.55","22.05","25.76","0","0"
"Dante Cunningham","Dante-Cunningham-1259","3400","SF/PF","48.80","222","21.3","99.70","9.44","26.00","37.27","14.52","20.74","0","0"
"Rudy Gay","Rudy-Gay-1341","5300","SF/PF","48.80","222","24.7","99.70","22.20","29.00","48.94","15.91","32.01","0","0"
"Patty Mills","Patty-Mills-13977","3900","PG/SG","52.14","222","25.7","99.70","19.29","25.00","42.59","18.46","23.57","0","0"
"DeAndre Jordan","DeAndre-Jordan-1486","6400","C","46.77","202","28.7","100.08","12.81","34.00","55.76","22.97","38.22","0","0"
"Dennis Smith Jr.","Dennis-Smith-Jr.-37847","5000","PG","41.73","202","25.5","100.08","24.27","30.00","48.26","16.46","29.77","0","0"
"JaMychal Green","JaMychal-Green-18729","4100","SF/PF","46.68","202","21.0","103.30","21.35","24.00","48.37","21.33","24.32","0","0"
"Harrison Barnes","Harrison-Barnes-13901","5500","SF/PF","42.88","202","29.5","100.08","23.08","34.00","48.39","18.66","32.28","0","0"
"Luka Doncic","Luka-Doncic-408971","6600","PG","41.45","202","31.7","100.08","27.33","35.00","47.18","8.03","38.77","0","0"
"Dorian Finney-Smith","Dorian-Finney-Smith-36032","3600","SF","40.59","202","27.5","100.08","12.10","32.00","35.68","12.71","21.04","0","0"
"Maxi Kleber","Maxi-Kleber-37845","3200","PF","42.88","202","17.2","100.08","11.47","21.00","36.09","15.34","18.62","0","0"
"Ersan Ilyasova","Ersan-Ilyasova-1301","3600","PF/C","47.35","225.5","20.0","98.80","12.25","24.00","38.97","13.94","20.74","0","0"
"Marco Belinelli","Marco-Belinelli-1033","3500","SG/SF","35.59","222","22.5","99.70","19.57","23.00","34.45","14.69","20.1","0","0"
"Shelvin Mack","Shelvin-Mack-13354","4200","PG","46.56","202","26.4","103.30","18.30","28.00","43.24","18.84","24.06","0","0"
"Mike Conley","Mike-Conley-1062","7200","PG","46.56","202","35.3","103.30","23.65","36.00","71.76","23.1","40.96","0","0"
"Malcolm Brogdon","Malcolm-Brogdon-35195","4700","PG/SG","49.20","225.5","29.2","98.80","20.85","29.00","47.07","18.27","26.52","0","0"
"Marc Gasol","Marc-Gasol-1493","7600","C","46.68","202","35.0","103.30","22.34","36.00","65.38","24.63","42.18","0","0"
"Kyle Anderson","Kyle-Anderson-18615","4600","PG/SF","44.16","202","32.9","103.30","11.67","27.00","39.8","13.71","25.35","0","0"
"Monte Morris","Monte-Morris-37860","4100","PG","45.31","225.5","26.9","99.62","16.12","29.00","39.39","17.99","22.38","0","0"
"Gary Harris","Gary-Harris-18617","6100","SG","50.36","225.5","33.7","99.62","19.62","35.00","52.13","19.38","33.18","0","0"
"Garrett Temple","Garrett-Temple-14077","4300","SG/SF","30.24","202","32.1","103.30","13.10","32.00","43.82","16.83","23.37","0","0"
"Brook Lopez","Brook-Lopez-1498","5200","C","60.25","225.5","29.3","98.80","15.88","27.00","49.81","19.06","27.95","0","0"
"Anthony Davis","Anthony-Davis-13895","11600","PF/C","46.70","222","38.0","104.88","31.90","38.00","103.52","31.54","60.54","0","0"
"Giannis Antetokounmpo","Giannis-Antetokounmpo-16852","11300","SF/PF","47.35","225.5","34.2","98.80","30.61","35.00","82.66","25.09","58.75","0","0"
"Julius Randle","Julius-Randle-18632","6800","PF/C","46.70","222","27.7","104.88","23.90","26.00","56.0","25.81","34.27","0","0"
"Nikola Mirotic","Nikola-Mirotic-18584","7100","SF/PF","49.33","222","30.6","104.88","20.49","31.00","63.08","22.61","35.72","0","0"
"Bryn Forbes","Bryn-Forbes-36052","4100","PG/SG","35.59","222","28.8","99.70","17.76","28.00","35.07","12.44","20.53","0","0"
"E'Twaun Moore","E'Twaun-Moore-18582","5000","SG/SF","33.59","222","30.3","104.88","19.94","34.00","44.94","17.03","24.76","0","0"
"LaMarcus Aldridge","LaMarcus-Aldridge-1349","8000","PF/C","61.07","222","34.8","99.70","21.90","34.00","66.4","25.56","39.15","0","0"
"Pat Connaughton","Pat-Connaughton-18939","4000","SG/SF","32.81","225.5","19.8","98.80","15.88","26.00","38.96","15.03","19.49","0","0"
"Eric Bledsoe","Eric-Bledsoe-1031","6900","PG/SG","45.89","225.5","29.8","98.80","23.49","30.00","57.35","20.46","33.38","0","0"
"Mason Plumlee","Mason-Plumlee-16798","3300","PF/C","48.38","225.5","15.1","99.62","16.18","15.00","31.64","12.92","15.83","0","0"
"Nikola Jokic","Nikola-Jokic-31812","9500","C","56.93","225.5","29.3","99.62","26.70","33.00","70.48","18.12","45.53","0","0"
"Khris Middleton","Khris-Middleton-13990","7400","SG/SF","40.27","225.5","31.7","98.80","26.07","34.00","67.05","25.9","35.29","0","0"
"Jrue Holiday","Jrue-Holiday-1073","8700","PG/SG","48.25","222","36.3","104.88","28.82","37.00","65.31","19.41","41.39","0","0"
"Jaren Jackson","Jaren-Jackson-409099","5800","PF","46.68","202","26.4","103.30","23.68","29.00","34.97","10.96","26.92","0","0"
"Juan Hernangomez","Juan-Hernangomez-35212","4800","SF/PF","45.92","225.5","27.4","99.62","12.76","30.00","44.32","14.7","22.17","0","0"
"Paul Millsap","Paul-Millsap-1335","6100","PF/C","45.92","225.5","24.6","99.62","22.49","27.00","47.16","17.9","28.14","0","0"
"Wesley Johnson","Wesley-Johnson-1280","3400","SF/PF","33.39","222","21.9","104.88","11.08","24.00","27.94","13.6","15.69","0","0"
"Jamal Murray","Jamal-Murray-35211","6700","PG/SG","45.31","225.5","33.3","99.62","26.71","31.00","56.07","19.61","30.54","0","0"
"Jakob Poeltl","Jakob-Poeltl-35187","3100","C","48.34","222","12.0","99.70","17.21","15.00","28.25","12.52","14.13","0","0"
"DeMar DeRozan","DeMar-DeRozan-1053","9100","SG/SF","50.36","222","37.0","99.70","27.79","36.00","64.59","19.03","40.57","0","0"
"Thon Maker","Thon-Maker-35194","3100","PF/C","49.14","225.5","10.7","98.80","23.33","16.00","27.11","11.49","13.56","0","0"
"Ian Clark","Ian-Clark-16922","3200","PG/SG","33.59","222","19.0","104.88","18.76","21.00","25.98","12.9","13.44","0","0"
"Malik Beasley","Malik-Beasley-35213","3100","SG","38.14","225.5","16.0","99.62","18.20","17.00","24.93","12.47","12.47","0","0"
"Darius Miller","Darius-Miller-13951","3100","SF/PF","33.39","222","21.3","104.88","11.36","22.00","24.27","12.14","12.14","0","0"
"Tony Snell","Tony-Snell-16872","3100","SG/SF","33.57","225.5","15.7","98.80","13.46","19.00","24.07","10.86","12.04","0","0"
"Wayne Selden","Wayne-Selden-36045","3100","SG","51.04","202","18.1","103.30","15.80","15.00","22.95","11.04","11.48","0","0"
"Jalen Brunson","Jalen-Brunson-409062","3100","PG","44.22","202","7.4","100.08","24.46","18.00","12.83","2.0","10.79","0","0"
"MarShon Brooks","MarShon-Brooks-188837","3200","SG","51.04","202","15.4","103.30","25.41","13.00","19.84","7.61","10.85","0","0"
"Derrick White","Derrick-White-37858","4300","PG","60.25","222","22.0","99.70","20.37","20.00","28.69","12.4","14.35","0","0"
"Ryan Broekhoff","Ryan-Broekhoff-555205","3000","SG/SF","39.05","202","4.0","100.08","10.00","13.00","9.38","1.46","7.89","0","0"
"Frank Jackson","Frank-Jackson-37855","3000","PG","48.25","222","5.0","104.88","26.35","7.00","4.74","0.77","3.91","0","0"
"Quincy Pondexter","Quincy-Pondexter-1237","3000","SF","35.98","222","6.6","99.70","16.38","4.00","5.76","2.88","2.88","0","0"
"Torrey Craig","Torrey-Craig-37861","3000","SG/SF","38.14","225.5","8.0","99.62","16.21","4.00","5.01","2.56","2.83","0","0"
"Wesley Matthews","Wesley-Matthews-1339","4900","SG/SF","39.05","202","28.8","100.08","16.17","2.00","1.56","1.56","1.56","0","0"
