"nameCol","idCol","salaryCol","positionCol","dvpCol","ouCol","mpgCol","paceCol","usgCol","pminCol","ceilCol","floorCol","pointsCol","predictCol","actualCol"
"Cheick Diallo","Cheick-Diallo-35225","3000","PF/C","50.04","234.5","9.7","104.88","14.44","22.00","37.69","16.58","20.05","0","0"
"Kevin Huerter","Kevin-Huerter-408969","3600","SG/SF","34.16","226","29.6","105.10","13.61","33.00","27.03","8.49","23.08","0","0"
"Wesley Matthews","Wesley-Matthews-1339","4500","SG/SF","42.48","226","27.4","100.08","19.92","32.00","40.62","17.04","27.71","0","0"
"Julius Randle","Julius-Randle-18632","7400","PF/C","46.97","234.5","30.0","104.88","29.55","35.00","61.92","25.96","45.23","0","0"
"Evan Turner","Evan-Turner-1291","4000","SG/SF","43.76","200.5","23.7","104.50","17.24","30.00","36.39","20.07","24.15","0","0"
"Jalen Brunson","Jalen-Brunson-409062","3800","PG","41.82","226","16.2","100.08","18.29","30.00","25.96","7.0","22.89","0","0"
"Jerami Grant","Jerami-Grant-18576","4100","PF","48.10","234.5","28.7","102.62","14.04","32.00","37.47","16.9","24.57","0","0"
"Trae Young","Trae-Young-409063","6000","PG","54.68","226","29.2","105.10","33.04","31.00","41.95","13.18","35.82","0","0"
"Tim Frazier","Tim-Frazier-18743","4100","PG/SG","36.19","234.5","30.5","104.88","14.05","30.00","38.74","16.77","24.44","0","0"
"Kent Bazemore","Kent-Bazemore-13987","5500","SG/SF","47.56","226","26.2","105.10","24.79","32.00","44.18","15.19","32.53","0","0"
"Garrett Temple","Garrett-Temple-14077","3400","SG/SF","39.09","200.5","29.3","103.30","13.27","33.00","32.22","14.47","20.04","0","0"
"Kyle Anderson","Kyle-Anderson-18615","4200","PG/SF","38.29","200.5","27.5","103.30","14.22","31.00","32.79","13.41","24.69","0","0"
"Seth Curry","Seth-Curry-16825","3000","PG/SG","37.34","200.5","14.8","104.50","13.57","20.00","31.98","17.35","17.35","0","0"
"Dewayne Dedmon","Dewayne-Dedmon-16894","4400","PF/C","48.37","226","23.8","105.10","16.68","26.00","35.73","15.07","25.32","0","0"
"Marc Gasol","Marc-Gasol-1493","7600","C","53.72","200.5","34.5","103.30","18.24","34.00","57.69","25.46","43.67","0","0"
"Shelvin Mack","Shelvin-Mack-13354","3500","PG","39.72","200.5","24.8","103.30","16.27","23.00","30.37","16.13","19.89","0","0"
"Jusuf Nurkic","Jusuf-Nurkic-18619","7000","C","47.91","200.5","29.1","104.50","23.50","28.00","51.59","21.96","39.14","0","0"
"J.J. Barea","J.J.-Barea-18605","4400","PG/SG","54.60","226","18.3","100.08","32.38","20.00","35.97","17.67","24.27","0","0"
"Dennis Schroder","Dennis-Schroder-18595","5300","PG/SG","49.46","234.5","26.7","102.62","26.50","28.00","44.19","22.76","28.96","0","0"
"Al-Farouq Aminu","Al-Farouq-Aminu-1279","4600","SF/PF","37.82","200.5","31.4","104.50","13.01","30.00","38.56","18.79","25.09","0","0"
"Alex Len","Alex-Len-16886","3400","C","48.37","226","12.8","105.10","22.91","18.00","26.1","13.47","18.43","0","0"
"Russell Westbrook","Russell-Westbrook-1083","10900","PG","49.46","234.5","34.0","102.62","34.46","36.00","65.45","20.13","58.86","0","0"
"Meyers Leonard","Meyers-Leonard-13905","3200","C","54.53","200.5","11.9","104.50","14.69","15.00","28.85","13.67","16.81","0","0"
"Mike Conley","Mike-Conley-1062","7700","PG","39.72","200.5","34.3","103.30","25.90","35.00","60.24","23.3","40.32","0","0"
"Luka Doncic","Luka-Doncic-408971","7300","SG/SF","50.83","226","27.5","100.08","26.99","32.00","43.22","11.66","38.11","0","0"
"Harrison Barnes","Harrison-Barnes-13901","6200","SF/PF","54.15","226","31.4","100.08","25.45","33.00","40.31","18.5","31.84","0","0"
"Steven Adams","Steven-Adams-16848","6400","C","50.58","234.5","30.2","102.62","20.08","34.00","43.26","21.62","32.85","0","0"
"Solomon Hill","Solomon-Hill-16863","3200","SF/PF","38.57","234.5","24.0","104.88","8.76","26.00","25.08","13.01","16.34","0","0"
"John Collins","John-Collins-37823","7800","PF/C","48.37","226","31.2","105.10","24.16","32.00","60.17","23.92","38.45","0","0"
"Anthony Davis","Anthony-Davis-13895","11200","PF/C","46.97","234.5","35.0","104.88","30.74","35.00","79.56","28.64","54.87","0","0"
"Jaren Jackson","Jaren-Jackson-409099","5700","PF/C","53.72","200.5","24.5","103.30","21.59","28.00","31.7","8.55","27.95","0","0"
"Paul George","Paul-George-1245","9000","SF/PF","48.10","234.5","30.8","102.62","29.93","36.00","61.2","27.02","43.87","0","0"
"Jrue Holiday","Jrue-Holiday-1073","7900","PG/SG","45.69","234.5","37.5","104.88","26.17","35.00","51.37","17.76","38.11","0","0"
"Damian Lillard","Damian-Lillard-13900","9200","PG","43.22","200.5","36.4","104.50","31.85","35.00","56.34","21.45","44.22","0","0"
"DeAndre Jordan","DeAndre-Jordan-1486","7300","C","57.12","226","28.6","100.08","15.35","31.00","43.58","21.0","35.06","0","0"
"JaMychal Green","JaMychal-Green-18729","4600","SF/PF","53.72","200.5","24.7","103.30","21.96","24.00","37.06","19.21","21.98","0","0"
"Darius Miller","Darius-Miller-13951","3200","SF/PF","38.57","234.5","20.2","104.88","13.26","26.00","26.01","15.16","15.16","0","0"
"C.J. McCollum","C.J.-McCollum-17121","6900","PG/SG","43.76","200.5","36.7","104.50","25.53","35.00","43.92","18.47","32.63","0","0"
"Tyler Dorsey","Tyler-Dorsey-37825","3100","PG/SG","34.16","226","12.3","105.10","27.59","20.00","23.67","11.29","14.27","0","0"
"Joakim Noah","Joakim-Noah-1404","3200","C","51.34","200.5","16.0","103.30","22.40","16.00","23.86","12.73","14","0","0"
"Nerlens Noel","Nerlens-Noel-18575","3400","C","50.58","234.5","16.2","102.62","18.54","14.00","24.96","12.61","14.84","0","0"
"DeAndre Bembry","DeAndre-Bembry-35198","4300","SG/SF","37.87","226","21.8","105.10","20.92","23.00","27.47","15.46","18.4","0","0"
"Zach Collins","Zach-Collins-37866","3400","PF/C","54.53","200.5","16.7","104.50","13.44","16.00","21.98","11.05","14.18","0","0"
"Dorian Finney-Smith","Dorian-Finney-Smith-36032","3900","SF/PF","45.23","226","25.3","100.08","12.24","22.00","25.17","13.14","16.05","0","0"
"Maxi Kleber","Maxi-Kleber-37845","3100","PF","54.15","226","17.2","100.08","17.63","13.00","20.59","10.35","12.51","0","0"
"Dwight Powell","Dwight-Powell-18566","3600","PF/C","62.58","226","17.7","100.08","21.22","14.00","22.41","11.42","14.31","0","0"
"Jake Layman","Jake-Layman-35216","3300","SF/PF","37.82","200.5","15.0","104.50","25.96","17.00","22.51","10.9","13.04","0","0"
"Vince Carter","Vince-Carter-1066","3100","SG","34.16","226","12.6","105.10","20.58","17.00","20.43","10.33","11.83","0","0"
"Terrance Ferguson","Terrance-Ferguson-37871","3200","SG/SF","36.80","234.5","22.8","102.62","7.94","24.00","18.83","7.4","11.92","0","0"
"Alex Abrines","Alex-Abrines-36054","3000","SG/SF","36.80","234.5","19.8","102.62","12.66","16.00","21.3","10.9","10.9","0","0"
"Devin Harris","Devin-Harris-1076","3200","PG/SG","54.60","226","15.0","100.08","15.75","13.00","19.67","10.98","10.98","0","0"
"Ian Clark","Ian-Clark-16922","3100","PG/SG","39.52","234.5","8.8","104.88","15.44","15.00","16.11","9.91","9.91","0","0"
"Omri Casspi","Omri-Casspi-1270","3200","SF/PF","38.29","200.5","14.8","103.30","14.21","12.00","17.75","8.48","10.11","0","0"
"Nik Stauskas","Nik-Stauskas-18636","3000","SG/SF","37.34","200.5","14.7","104.50","19.30","13.00","15.62","7.51","9.24","0","0"
"Wesley Johnson","Wesley-Johnson-1280","3000","SG/SF","38.57","234.5","8.5","104.88","8.10","10.00","13.55","7.06","7.06","0","0"
"Hamidou Diallo","Hamidou-Diallo-408800","3100","SG/SF","36.80","234.5","7.7","102.62","25.08","10.00","7.27","1.33","7.19","0","0"
"Patrick Patterson","Patrick-Patterson-1260","3100","PF/C","56.85","234.5","14.5","102.62","11.48","10.00","11.87","5.67","6.7","0","0"
"Andrew Harrison","Andrew-Harrison-18950","3000","PG","36.19","234.5","8.2","104.88","20.17","6.00","9.66","4.37","5.77","0","0"
"Jaylen Adams","Jaylen-Adams-436365","3000","PG","54.68","226","4.0","105.10","3.30","5.00","3.82","0.88","3.61","0","0"
"MarShon Brooks","MarShon-Brooks-188837","3000","SG","47.69","200.5","12.8","103.30","21.28","4.00","4.98","2.27","3.23","0","0"
"Justin Anderson","Justin-Anderson-18927","3100","SF/PF","37.87","226","6.8","105.10","29.12","3.00","4.31","2.08","2.71","0","0"
