"nameCol","idCol","salaryCol","positionCol","dvpCol","ouCol","mpgCol","paceCol","usgCol","pminCol","ceilCol","floorCol","pointsCol","predictCol","actualCol"
"Mikal Bridges","Mikal-Bridges-408842","3600","SF","35.35","216.5","27.5","108.80","10.65","30.00","36.23","8.36","26.96","0","0"
"Justise Winslow","Justise-Winslow-18921","4200","PG/SF","43.27","224","25.5","106.90","17.60","30.00","56.23","23.08","31.1","0","0"
"Wayne Ellington","Wayne-Ellington-1009","4100","PG/SG","43.27","224","28.2","106.90","14.45","30.00","49.32","19.22","28.1","0","0"
"Taurean Prince","Taurean-Prince-35218","5200","SF","37.92","224","29.2","105.10","20.34","32.00","56.6","20.64","34.51","0","0"
"Mario Hezonja","Mario-Hezonja-18923","3200","SF/PF","40.57","219.5","18.2","100.17","16.99","20.00","37.36","13.23","20.35","0","0"
"Trey Lyles","Trey-Lyles-18942","3800","SF/PF","43.30","219","17.9","99.62","24.90","20.00","44.02","19.74","23.81","0","0"
"Reggie Bullock","Reggie-Bullock-16943","4100","SG/SF","37.57","219.5","32.8","100.30","13.01","32.00","47.88","17.15","25","0","0"
"Enes Kanter","Enes-Kanter-13299","6800","C","54.65","219.5","27.9","100.17","21.74","30.00","64.83","20.56","41.37","0","0"
"Garrett Temple","Garrett-Temple-14077","3900","SG/SF","37.22","209","33.1","103.30","11.34","32.00","44.78","17.09","23.67","0","0"
"Thaddeus Young","Thaddeus-Young-1289","4100","SF/PF","50.15","216.5","26.5","107.67","18.02","30.00","41.65","12.92","24.57","0","0"
"James Johnson","James-Johnson-1195","4000","SF/PF","57.63","224","20.8","106.90","18.92","22.00","37.01","12.36","23.91","0","0"
"Gary Harris","Gary-Harris-18617","5600","SG","50.13","219","32.7","99.62","20.30","35.00","54.65","19.6","33.28","0","0"
"Noah Vonleh","Noah-Vonleh-18597","5600","PF/C","40.91","219.5","30.4","100.17","12.29","32.00","54.3","22.07","32.99","0","0"
"Josh Jackson","Josh-Jackson-37890","3400","SF","45.27","216.5","16.8","108.80","23.07","18.00","32.79","12.84","19.97","0","0"
"Langston Galloway","Langston-Galloway-18717","3500","PG/SG","36.38","219.5","26.0","100.30","14.31","27.00","40.9","17.78","20.46","0","0"
"Emmanuel Mudiay","Emmanuel-Mudiay-18936","4500","PG","45.85","219.5","22.7","100.17","25.34","24.00","41.3","16.2","25.96","0","0"
"Trey Burke","Trey-Burke-17029","4700","PG/SG","51.16","219.5","26.3","100.17","30.67","26.00","54.21","23.57","27.12","0","0"
"Darren Collison","Darren-Collison-1060","4400","PG","50.69","216.5","25.3","107.67","17.63","28.00","40.27","15.24","25.03","0","0"
"Nikola Jokic","Nikola-Jokic-31812","8800","C","61.91","219","29.7","99.62","27.69","33.00","74.69","20.63","49.96","0","0"
"Kyle Anderson","Kyle-Anderson-18615","4800","PG/SF","38.31","209","34.9","103.30","9.44","34.00","42.56","14.79","27.23","0","0"
"Dewayne Dedmon","Dewayne-Dedmon-16894","4300","PF/C","52.84","224","24.6","105.10","16.17","23.00","40.29","14.44","24.27","0","0"
"Tyreke Evans","Tyreke-Evans-1070","5200","SG/SF","52.74","216.5","23.2","107.67","24.97","25.00","50.03","17.39","29.17","0","0"
"Rodney McGruder","Rodney-McGruder-16850","4900","SG/SF","43.52","224","34.0","106.90","17.55","35.00","49.88","17.02","27.27","0","0"
"Tim Hardaway Jr.","Tim-Hardaway-Jr.-16879","6500","SG/SF","40.37","219.5","34.9","100.17","27.70","35.00","65.76","24.42","36.13","0","0"
"Danny Green","Danny-Green-940","4200","SG/SF","40.06","209","27.4","105.50","13.68","30.00","38.91","16.21","23.33","0","0"
"Lonzo Ball","Lonzo-Ball-37885","5600","PG","41.40","219","29.7","112.50","16.71","33.00","49.07","15.74","31.04","0","0"
"Kevin Huerter","Kevin-Huerter-408969","3300","SG","38.75","224","21.9","105.10","15.52","23.00","22.69","4.44","18.21","0","0"
"Richaun Holmes","Richaun-Holmes-18905","3300","PF/C","48.75","216.5","16.3","108.80","20.47","16.00","35.42","12.24","17.98","0","0"
"Juan Hernangomez","Juan-Hernangomez-35212","4800","SF/PF","43.30","219","33.0","99.62","14.84","33.00","51.05","17.54","26.14","0","0"
"Dwyane Wade","Dwyane-Wade-967","5300","PG/SG","49.95","224","23.7","106.90","31.13","23.00","47.53","19.03","28.79","0","0"
"Jamal Murray","Jamal-Murray-35211","6900","PG/SG","54.80","219","33.3","99.62","25.20","36.00","64.12","22.39","37.26","0","0"
"Trevor Ariza","Trevor-Ariza-1323","5300","SF/PF","35.35","216.5","38.2","108.80","11.40","37.00","43.71","14.34","28.51","0","0"
"Jonas Valanciunas","Jonas-Valanciunas-13301","5300","C","46.95","209","20.9","105.50","23.87","23.00","43.91","17.05","28.46","0","0"
"Kyle Kuzma","Kyle-Kuzma-37886","5200","SF/PF","48.80","219","27.2","112.50","20.68","30.00","42.42","15.41","27.76","0","0"
"Ish Smith","Ish-Smith-13958","3500","PG","43.57","219.5","20.2","100.30","21.98","21.00","31.23","12.34","18.5","0","0"
"Reggie Jackson","Reggie-Jackson-13352","5400","PG/SG","48.50","219.5","27.2","100.30","26.65","30.00","46.27","15.3","28.49","0","0"
"Shelvin Mack","Shelvin-Mack-13354","3600","PG","40.62","209","23.0","103.30","17.63","21.00","34.07","15.38","18.96","0","0"
"Blake Griffin","Blake-Griffin-1503","9300","PF/C","61.32","219.5","38.4","100.30","29.35","36.00","73.83","23.62","48.8","0","0"
"Andre Drummond","Andre-Drummond-13904","9600","C","54.86","219.5","34.8","100.30","23.38","34.00","71.32","22.97","50.26","0","0"
"Alex Len","Alex-Len-16886","3700","C","52.84","224","20.2","105.10","20.97","17.00","32.13","14.11","19.3","0","0"
"JaVale McGee","JaVale-McGee-1485","5400","C","47.48","219","22.7","112.50","17.89","26.00","47.34","17.39","27.96","0","0"
"Aaron Holiday","Aaron-Holiday-408932","3600","PG","50.69","216.5","20.0","107.67","25.38","22.00","23.04","4.51","18.49","0","0"
"Paul Millsap","Paul-Millsap-1335","5900","PF/C","43.30","219","25.1","99.62","20.27","29.00","50.26","19.26","30.28","0","0"
"Kentavious Caldwell-Pope","Kentavious-Caldwell-Pope-16869","3600","SG/SF","32.91","219","25.0","112.50","17.57","25.00","36.74","16.03","18.38","0","0"
"DeAndre Bembry","DeAndre-Bembry-35198","4000","SF","37.92","224","20.1","105.10","21.93","26.00","35.6","17.02","20.26","0","0"
"Mike Conley","Mike-Conley-1062","7700","PG","40.62","209","34.3","103.30","28.61","36.00","68.54","22.54","38.99","0","0"
"TJ Warren","TJ-Warren-18634","6100","SF/PF","45.27","216.5","32.2","108.80","21.33","33.00","47.76","17.65","30.81","0","0"
"Stanley Johnson","Stanley-Johnson-18913","3700","SF/PF","37.57","219.5","20.0","100.30","20.51","23.00","36.68","14.66","18.65","0","0"
"Allonzo Trier","Allonzo-Trier-554950","3800","PG","40.37","219.5","23.0","100.17","20.62","25.00","23.76","4.65","19.07","0","0"
"Josh Richardson","Josh-Richardson-18922","7400","SG/SF","49.95","224","34.2","106.90","23.49","35.00","64.53","21.65","36.94","0","0"
"Kyle Lowry","Kyle-Lowry-1057","7800","PG","41.71","209","33.7","105.50","21.23","34.00","64.33","20.83","38.5","0","0"
"Marc Gasol","Marc-Gasol-1493","8900","C","56.89","209","36.1","103.30","24.28","36.00","67.93","25.48","43.71","0","0"
"Kent Bazemore","Kent-Bazemore-13987","5100","SG/SF","47.08","224","21.4","105.10","20.01","25.00","39.66","11.59","24.82","0","0"
"Tyson Chandler","Tyson-Chandler-1482","3100","C","47.48","219","18.7","112.50","6.34","18.00","30.02","15.02","15.02","0","0"
"Bam Adebayo","Bam-Adebayo-37835","4500","C","56.05","224","20.5","106.90","20.55","23.00","37.78","19.27","21.8","0","0"
"Myles Turner","Myles-Turner-18915","5500","C","54.34","216.5","26.4","107.67","22.53","28.00","50.69","19.74","26.36","0","0"
"Trae Young","Trae-Young-409063","6600","PG","53.22","224","26.0","105.10","30.40","30.00","43.5","11.63","31.59","0","0"
"Mason Plumlee","Mason-Plumlee-16798","3500","PF/C","55.64","219","15.7","99.62","20.39","15.00","32.92","12.97","16.72","0","0"
"Jaren Jackson","Jaren-Jackson-409099","5800","PF","56.89","209","25.0","103.30","21.51","30.00","36.86","8.45","27.63","0","0"
"Kawhi Leonard","Kawhi-Leonard-13310","9400","SF/PF","41.98","209","34.4","105.50","31.14","35.00","70.33","21.83","44.74","0","0"
"Kelly Olynyk","Kelly-Olynyk-16845","3500","PF/C","63.18","224","13.4","106.90","19.61","16.00","29.07","13.92","16.59","0","0"
"Brandon Ingram","Brandon-Ingram-35227","5800","SG/SF","40.56","219","33.8","112.50","22.45","35.00","49.25","17.42","27.47","0","0"
"Bojan Bogdanovic","Bojan-Bogdanovic-18571","4900","SG/SF","36.10","216.5","31.3","107.67","19.50","30.00","42.86","18.37","23.14","0","0"
"Domantas Sabonis","Domantas-Sabonis-35217","6700","PF/C","59.53","216.5","25.5","107.67","23.63","26.00","55.44","23.96","31.61","0","0"
"JaMychal Green","JaMychal-Green-18729","4200","SF/PF","56.89","209","21.2","103.30","19.53","20.00","39.22","17.28","19.77","0","0"
"John Collins","John-Collins-37823","6200","C","52.84","224","23.6","105.10","24.59","30.00","53.76","18.16","29.2","0","0"
"Fred VanVleet","Fred-VanVleet-36011","4300","PG/SG","45.12","209","25.1","105.50","17.17","21.00","37.9","16.56","20.17","0","0"
"Devin Booker","Devin-Booker-18949","8600","PG/SG","47.46","216.5","36.8","108.80","32.23","37.00","70.09","21.79","40.12","0","0"
"Deandre Ayton","Deandre-Ayton-409301","7100","C","51.31","216.5","30.8","108.80","21.98","32.00","44.43","10.25","33.06","0","0"
"Jamal Crawford","Jamal-Crawford-1075","3500","PG/SG","45.27","216.5","20.5","108.80","22.26","20.00","32.62","16.32","16.32","0","0"
"LeBron James","LeBron-James-1227","10900","SF/PF","48.80","219","34.8","112.50","34.97","36.00","76.62","20.04","50.74","0","0"
"Jeremy Lin","Jeremy-Lin-916","4700","PG/SG","53.22","224","22.4","105.10","25.75","22.00","40.25","16.32","21.91","0","0"
"Cory Joseph","Cory-Joseph-13339","4600","PG","50.69","216.5","27.5","107.67","18.72","28.00","41.6","16.92","20.81","0","0"
"Monte Morris","Monte-Morris-37860","4100","PG","54.80","219","26.7","99.62","15.40","24.00","32.69","14.91","18.54","0","0"
"Hassan Whiteside","Hassan-Whiteside-18664","8200","C","56.05","224","23.2","106.90","27.81","26.00","54.52","17.44","36.79","0","0"
"Lance Stephenson","Lance-Stephenson-947","3400","SG/SF","40.56","219","15.2","112.50","24.44","17.00","30.3","12.11","15.16","0","0"
"Pascal Siakam","Pascal-Siakam-35186","6000","PF","46.95","209","30.9","105.50","17.91","30.00","46.57","15.2","26.72","0","0"
"Josh Hart","Josh-Hart-37889","3400","SG","32.91","219","20.3","112.50","11.36","20.00","30.14","11.96","15.08","0","0"
"Serge Ibaka","Serge-Ibaka-1294","5700","PF/C","40.35","209","26.0","105.50","23.51","24.00","48.42","21.31","25.1","0","0"
"Frank Ntilikina","Frank-Ntilikina-37796","3400","PG","45.85","219.5","19.6","100.17","12.96","19.00","27.53","12.77","14.65","0","0"
"Isaiah Canaan","Isaiah-Canaan-16875","3400","PG","47.46","216.5","22.7","108.80","13.09","17.00","24.9","11.05","14.11","0","0"
"OG Anunoby","OG-Anunoby-37807","3700","SF","40.06","209","16.5","105.50","21.26","20.00","28.83","14.42","14.42","0","0"
"Malik Beasley","Malik-Beasley-35213","3000","SG","35.94","219","15.0","99.62","17.76","15.00","23.01","11.51","11.51","0","0"
"Doug McDermott","Doug-McDermott-18583","3200","SF/PF","36.10","216.5","20.8","107.67","15.16","20.00","24.19","12.1","12.1","0","0"
"Mitchell Robinson","Mitchell-Robinson-408821","3200","C","54.38","219.5","15.0","100.17","10.86","14.00","14.44","2.83","11.59","0","0"
"Glenn Robinson","Glenn-Robinson-18621","3200","SF/PF","37.57","219.5","15.0","100.30","14.02","16.00","18.97","7.17","11.12","0","0"
"Delon Wright","Delon-Wright-18907","3500","PG/SG","45.12","209","17.7","105.50","18.37","15.00","22.75","9.38","11.75","0","0"
"Kevin Knox","Kevin-Knox-408820","3500","SF","40.37","219.5","17.9","100.17","19.68","15.00","13.18","2.58","10.58","0","0"
"Omari Spellman","Omari-Spellman-408970","3400","PF","49.29","224","14.3","105.10","18.02","12.00","12.31","2.41","9.88","0","0"
"Zaza Pachulia","Zaza-Pachulia-1455","3200","C","54.86","219.5","7.4","100.30","24.32","9.00","18.25","7.98","9.13","0","0"
"Wayne Selden","Wayne-Selden-36045","3000","SG","48.55","209","16.6","103.30","18.53","12.00","16.79","8.4","8.4","0","0"
"Omri Casspi","Omri-Casspi-1270","3000","SF/PF","38.31","209","9.7","103.30","18.13","9.00","16.69","7.01","8.35","0","0"
"Bruce Brown","Bruce-Brown-408913","3100","SG","48.50","219.5","20.0","100.30","8.09","12.00","10.94","1.96","8.57","0","0"
"MarShon Brooks","MarShon-Brooks-188837","3000","SG","48.55","209","12.3","103.30","25.81","10.00","13.51","5.23","7.44","0","0"
"C.J. Miles","C.J.-Miles-1299","3100","SG/SF","40.06","209","15.0","105.50","26.35","8.00","14.01","5.78","7.13","0","0"
"Torrey Craig","Torrey-Craig-37861","3000","SG/SF","35.94","219","12.5","99.62","15.02","4.00","4.86","2.58","2.86","0","0"
"TJ Leaf","TJ-Leaf-37817","3100","PF","54.34","216.5","5.4","107.67","22.71","3.00","4.78","2.39","2.39","0","0"
