"nameCol","idCol","salaryCol","positionCol","dvpCol","ouCol","mpgCol","paceCol","usgCol","pminCol","ceilCol","floorCol","pointsCol","predictCol","actualCol"
"Daniel Theis","Daniel-Theis-37784","4000","PF/C","47.37","223.5","21.0","101.75","19.37","25.00","38.46","15.24","27.12","0","0"
"Maurice Harkless","Maurice-Harkless-16971","3400","SF/PF","29.81","214","26.0","104.50","12.84","27.00","35.8","15.42","22.98","0","0"
"Robin Lopez","Robin-Lopez-1466","3000","C","53.00","202.5","17.3","104.50","18.90","19.00","39.83","20.2","20.2","0","0"
"Shaquille Harrison","Shaquille-Harrison-36065","3200","PG","37.34","202.5","17.0","104.50","16.72","23.00","34.74","16.85","21.46","0","0"
"DeMarre Carroll","DeMarre-Carroll-1174","3600","SF/PF","35.08","209.5","24.3","114.62","17.99","24.00","40.82","17.88","23.65","0","0"
"Kyle Anderson","Kyle-Anderson-18615","4600","PG/SF","37.94","212","26.4","103.30","15.45","33.00","40.37","14.9","29.51","0","0"
"Robert Williams","Robert-Williams-408780","3800","PF/C","47.37","223.5","17.8","101.75","9.48","24.00","24.63","4.83","24.15","0","0"
"Delon Wright","Delon-Wright-18907","4100","PG/SG","44.88","210","20.3","105.50","17.78","28.00","43.33","21.74","25.37","0","0"
"OG Anunoby","OG-Anunoby-37807","3500","SF/PF","37.18","210","18.6","105.50","16.02","28.00","40.8","21.61","21.61","0","0"
"Antonio Blakeney","Antonio-Blakeney-37811","3000","PG/SG","41.60","202.5","12.0","104.50","20.88","19.00","30.37","14.76","18.33","0","0"
"Luke Kennard","Luke-Kennard-37814","3400","SG/SF","38.69","219.5","23.9","100.30","16.33","24.00","30.86","15.5","20.48","0","0"
"Rondae Hollis-Jefferson","Rondae-Hollis-Jefferson-18897","4900","PF/C","47.79","209.5","29.4","114.62","20.89","30.00","44.72","18.61","29.44","0","0"
"Jusuf Nurkic","Jusuf-Nurkic-18619","6600","C","52.52","214","27.3","104.50","25.47","29.00","50.98","21.77","39.43","0","0"
"Kevin Huerter","Kevin-Huerter-408969","4500","SG/SF","35.79","233","33.0","105.10","15.66","30.00","25.28","3.0","26.78","0","0"
"Rodions Kurucs","Rodions-Kurucs-408801","3700","SF/PF","47.79","209.5","20.1","114.62","15.14","25.00","25.15","6.83","22.02","0","0"
"Chandler Hutchison","Chandler-Hutchison-408877","3000","SF/PF","34.09","202.5","11.0","104.50","11.36","24.00","18.08","3.22","17.81","0","0"
"Fred VanVleet","Fred-VanVleet-36011","5500","PG/SG","44.88","210","29.5","105.50","17.85","33.00","44.08","19.04","32.32","0","0"
"Wendell Carter","Wendell-Carter-408878","4900","PF/C","50.42","202.5","20.3","104.50","16.69","28.00","32.34","8.73","28.52","0","0"
"Al-Farouq Aminu","Al-Farouq-Aminu-1279","4500","SF/PF","29.81","214","31.0","104.50","12.91","30.00","40.12","19.38","26.02","0","0"
"Gordon Hayward","Gordon-Hayward-1239","5400","SF/PF","45.91","223.5","24.8","101.75","20.76","30.00","45.51","21.71","31.19","0","0"
"Jakob Poeltl","Jakob-Poeltl-35187","3500","C","50.81","220","19.7","99.70","13.70","20.00","40.06","17.78","20.04","0","0"
"Cedi Osman","Cedi-Osman-18912","4200","SF/PF","37.15","210","32.6","103.60","15.71","31.00","29.9","11.09","23.9","0","0"
"Jonathan Isaac","Jonathan-Isaac-37841","4100","SF/PF","63.05","202.5","25.8","105.10","13.80","28.00","37.15","17.86","23.32","0","0"
"Shelvin Mack","Shelvin-Mack-13354","3600","PG","43.82","212","22.8","103.30","15.87","22.00","31.61","15.28","20.43","0","0"
"Willie Cauley-Stein","Willie-Cauley-Stein-18951","5700","C","48.74","212","26.9","98.20","18.38","30.00","44.64","18.42","32.21","0","0"
"Jeremy Lamb","Jeremy-Lamb-13955","6200","SG/SF","42.63","219.5","30.7","103.00","19.62","33.00","48.15","20.79","34.94","0","0"
"Langston Galloway","Langston-Galloway-18717","3400","PG/SG","38.69","219.5","26.9","100.30","19.11","24.00","32.69","15.86","19.13","0","0"
"Tyson Chandler","Tyson-Chandler-1482","3800","C","50.82","233.5","19.0","112.50","6.57","24.00","40.62","21.38","21.38","0","0"
"Ed Davis","Ed-Davis-1265","3500","PF/C","48.99","209.5","19.9","114.62","12.06","20.00","35.85","14.64","19.6","0","0"
"Patty Mills","Patty-Mills-13977","3500","PG/SG","35.67","220","23.0","99.70","15.54","21.00","29.25","15.28","19.59","0","0"
"Darren Collison","Darren-Collison-1060","4500","PG","38.95","209.5","27.9","107.67","15.54","29.00","34.57","15.3","25.2","0","0"
"Marvin Williams","Marvin-Williams-1318","4900","SF/PF","44.34","219.5","30.3","103.00","13.66","29.00","44.97","23.28","27.29","0","0"
"Cody Zeller","Cody-Zeller-16836","5000","C","51.16","219.5","27.5","103.00","13.98","28.00","39.96","15.71","27.81","0","0"
"Derrick White","Derrick-White-37858","3800","PG/SG","35.67","220","22.3","99.70","16.10","25.00","34.02","17.48","21.01","0","0"
"Damian Lillard","Damian-Lillard-13900","8500","PG","49.58","214","34.8","104.50","28.85","36.00","60.0","22.58","46.84","0","0"
"Noah Vonleh","Noah-Vonleh-18597","5600","PF/C","53.90","233","28.0","100.17","14.84","31.00","43.3","20.14","30.8","0","0"
"Greg Monroe","Greg-Monroe-1487","4700","C","48.50","210","11.8","105.50","21.97","22.00","35.34","15.12","25.85","0","0"
"Nicolas Batum","Nicolas-Batum-1315","4600","SG/SF","34.50","219.5","29.0","103.00","12.73","30.00","34.89","18.03","25.14","0","0"
"Ryan Arcidiacono","Ryan-Arcidiacono-36050","3900","PG","37.34","202.5","26.3","104.50","8.60","29.00","33.84","13.59","21.07","0","0"
"Andre Drummond","Andre-Drummond-13904","8900","C","52.40","219.5","34.7","100.30","22.39","32.00","59.1","22.31","47.97","0","0"
"Iman Shumpert","Iman-Shumpert-13350","3600","SG/SF","36.98","212","27.2","98.20","17.48","26.00","28.62","13.91","19.35","0","0"
"Andrew Wiggins","Andrew-Wiggins-18620","5800","SG/SF","47.54","220","33.5","100.67","23.10","33.00","40.89","17.62","31.07","0","0"
"Jaylen Brown","Jaylen-Brown-35181","4500","SG/SF","39.46","223.5","23.8","101.75","23.13","27.00","45.36","20.11","24.14","0","0"
"Jayson Tatum","Jayson-Tatum-37782","6100","SF/PF","45.91","223.5","30.8","101.75","22.78","33.00","41.5","17.01","32.65","0","0"
"Kawhi Leonard","Kawhi-Leonard-13310","9500","SF/PF","51.35","210","37.4","105.50","28.92","36.00","70.03","24.53","50.78","0","0"
"Ricky Rubio","Ricky-Rubio-1001","5600","PG","40.24","214","30.0","98.88","24.56","32.00","39.83","15.94","29.9","0","0"
"Jarrett Allen","Jarrett-Allen-37794","5100","C","48.99","209.5","23.7","114.62","17.06","28.00","37.49","16.57","27.17","0","0"
"Enes Kanter","Enes-Kanter-13299","7000","C","56.23","233","27.1","100.17","20.67","28.00","48.59","18.85","37.18","0","0"
"Marc Gasol","Marc-Gasol-1493","7700","C","57.26","212","30.9","103.30","21.14","33.00","54.74","23.37","40.64","0","0"
"Alec Burks","Alec-Burks-13353","4300","PG/SG","48.37","210","28.8","103.60","19.49","25.00","38.07","22.69","22.69","0","0"
"Lauri Markkanen","Lauri-Markkanen-37809","7000","PF","49.84","202.5","28.1","104.50","22.20","33.00","52.92","22.39","36.88","0","0"
"Jerian Grant","Jerian-Grant-18900","3400","PG","43.21","202.5","18.2","105.10","13.75","20.00","29.45","15.73","17.86","0","0"
"Terry Rozier","Terry-Rozier-18894","4200","PG/SG","48.71","223.5","26.5","101.75","18.12","22.00","35.44","18.76","22.07","0","0"
"Norman Powell","Norman-Powell-18908","3000","SG/SF","36.92","210","14.0","105.50","18.09","19.00","29.59","15.74","15.74","0","0"
"Derrick Favors","Derrick-Favors-1266","4900","PF/C","53.04","214","22.5","98.88","20.41","24.00","33.95","15.81","25.7","0","0"
"Tim Hardaway Jr.","Tim-Hardaway-Jr.-16879","7400","SG/SF","52.32","233","32.5","100.17","24.19","34.00","59.23","26.86","38.76","0","0"
"Khris Middleton","Khris-Middleton-13990","6500","SG/SF","43.51","223.5","31.5","98.80","25.27","33.00","53.67","23.15","33.99","0","0"
"Kemba Walker","Kemba-Walker-13335","8600","PG","55.32","219.5","34.2","103.00","31.27","36.00","60.33","22.32","44.99","0","0"
"John Collins","John-Collins-37823","7800","PF/C","55.56","233","31.0","105.10","30.12","34.00","63.6","25.3","40.74","0","0"
"JaMychal Green","JaMychal-Green-18729","4300","SF/PF","57.26","212","22.9","103.30","18.05","22.00","37.43","19.59","22.36","0","0"
"Justin Jackson","Justin-Jackson-37895","3500","SF/PF","36.98","212","20.9","98.20","14.55","25.00","27.69","14.59","18.12","0","0"
"Trae Young","Trae-Young-409063","6300","PG","53.05","233","28.8","105.10","27.91","30.00","43.12","25.03","32.59","0","0"
"Anthony Davis","Anthony-Davis-13895","11700","PF/C","57.90","233.5","33.8","104.88","32.90","37.00","89.41","30.93","60.41","0","0"
"Larry Nance","Larry-Nance-18946","6700","PF/C","54.04","210","30.5","103.60","15.60","34.00","51.46","21.06","34.58","0","0"
"Aaron Gordon","Aaron-Gordon-18601","6700","SF/PF","48.27","202.5","32.0","105.10","21.86","34.00","44.67","19.04","34.55","0","0"
"Brook Lopez","Brook-Lopez-1498","4600","C","50.94","223.5","28.7","98.80","18.73","28.00","34.58","15.72","23.67","0","0"
"DeMar DeRozan","DeMar-DeRozan-1053","8000","SG/SF","46.30","220","32.0","99.70","28.07","33.00","56.13","19.13","40.88","0","0"
"Eric Bledsoe","Eric-Bledsoe-1031","6700","PG/SG","50.47","223.5","30.0","98.80","25.55","32.00","49.89","21.49","34.17","0","0"
"Victor Oladipo","Victor-Oladipo-16807","8100","PG/SG","50.02","209.5","32.8","107.67","26.91","34.00","57.05","25.06","41.22","0","0"
"DeAndre Bembry","DeAndre-Bembry-35198","3700","SG/SF","38.58","233","19.8","105.10","19.67","23.00","27.85","15.79","18.77","0","0"
"Dewayne Dedmon","Dewayne-Dedmon-16894","5900","PF/C","55.56","233","29.0","105.10","15.85","29.00","42.28","17.88","29.9","0","0"
"Justin Holiday","Justin-Holiday-14559","5300","SG/SF","41.60","202.5","33.0","104.50","15.94","33.00","37.8","16.06","26.81","0","0"
"Damyean Dotson","Damyean-Dotson-37795","3800","SG/SF","45.83","233","25.2","100.17","17.77","22.00","32.73","16.24","19.24","0","0"
"D.J. Augustin","D.J.-Augustin-1064","4400","PG","43.21","202.5","27.2","105.10","17.00","30.00","36.3","11.92","22.24","0","0"
"Julius Randle","Julius-Randle-18632","7500","PF/C","57.90","233.5","31.2","104.88","29.09","29.00","52.26","22.41","37.73","0","0"
"Emmanuel Mudiay","Emmanuel-Mudiay-18936","6200","PG","41.41","233","29.7","100.17","28.17","31.00","40.59","17.26","31.15","0","0"
"Jordan Clarkson","Jordan-Clarkson-18631","5500","PG/SG","48.37","210","28.4","103.60","28.92","28.00","45.84","26.52","27.48","0","0"
"D'Angelo Russell","D'Angelo-Russell-18947","6900","PG/SG","48.04","209.5","29.3","114.62","29.95","31.00","46.3","17.02","34.45","0","0"
"Kevin Knox","Kevin-Knox-408820","6000","SF/PF","52.32","233","34.6","100.17","21.03","34.00","33.96","9.16","29.95","0","0"
"Joe Harris","Joe-Harris-18587","4700","SG/SF","35.38","209.5","30.1","114.62","17.44","30.00","34.14","15.65","23.43","0","0"
"Bogdan Bogdanovic","Bogdan-Bogdanovic-37899","5600","SG/SF","42.54","212","27.9","98.20","23.23","30.00","44.46","23.49","27.93","0","0"
"Mike Conley","Mike-Conley-1062","7900","PG","43.82","212","33.9","103.30","24.42","35.00","58.19","22.99","39.37","0","0"
"Giannis Antetokounmpo","Giannis-Antetokounmpo-16852","11000","SF/PF","42.62","223.5","33.7","98.80","29.63","36.00","64.04","21.2","54.78","0","0"
"Tim Frazier","Tim-Frazier-18743","4300","PG/SG","35.73","233.5","27.7","104.88","13.54","24.00","35.02","14.43","21.38","0","0"
"Donovan Mitchell","Donovan-Mitchell-37875","7100","PG/SG","47.98","214","32.7","98.88","33.40","34.00","46.06","19.45","35.24","0","0"
"Kent Bazemore","Kent-Bazemore-13987","6200","SG/SF","49.76","233","30.6","105.10","23.37","31.00","44.25","14.7","30.75","0","0"
"LeBron James","LeBron-James-1227","10900","SF/PF","48.95","233.5","34.9","112.50","33.48","36.00","65.3","22.67","53.97","0","0"
"Dario Saric","Dario-Saric-36004","5200","PF","52.52","220","28.0","100.67","14.47","29.00","43.26","21.66","25.75","0","0"
"De'Aaron Fox","De'Aaron-Fox-37900","7500","PG","45.82","212","29.4","98.20","29.59","35.00","45.76","18.95","37.08","0","0"
"Nikola Vucevic","Nikola-Vucevic-13296","9200","C","63.05","202.5","28.0","105.10","30.09","31.00","59.16","22.37","45.37","0","0"
"Marcus Smart","Marcus-Smart-18567","4900","PG/SG","47.44","223.5","29.5","101.75","16.61","25.00","34.45","14.13","23.99","0","0"
"Rudy Gay","Rudy-Gay-1341","6100","SF/PF","54.26","220","26.9","99.70","20.68","28.00","37.86","14.96","29.81","0","0"
"Evan Turner","Evan-Turner-1291","3900","SG/SF","39.96","214","23.7","104.50","16.81","23.00","28.15","15.87","19.07","0","0"
"Kyrie Irving","Kyrie-Irving-13334","8700","PG","47.44","223.5","30.4","101.75","35.21","33.00","58.79","22.68","42.48","0","0"
"Malcolm Brogdon","Malcolm-Brogdon-35195","5400","PG/SG","50.47","223.5","27.8","98.80","23.25","30.00","37.79","18.58","26.28","0","0"
"Nemanja Bjelica","Nemanja-Bjelica-31814","5000","SF/PF","40.68","212","23.4","98.20","18.45","27.00","39.76","16.12","24.32","0","0"
"Evan Fournier","Evan-Fournier-13913","5500","SG/SF","34.91","202.5","28.8","105.10","24.71","31.00","34.22","14.2","26.69","0","0"
"Matthew Dellavedova","Matthew-Dellavedova-16839","4000","PG/SG","39.20","210","19.6","103.60","22.54","19.00","32.92","18.03","19.41","0","0"
"Blake Griffin","Blake-Griffin-1503","9400","PF/C","57.11","219.5","36.7","100.30","32.10","36.00","57.59","20.94","45.63","0","0"
"Chris Boucher","Chris-Boucher-37880","3200","PF/C","48.50","210","5.0","105.50","20.00","13.00","15.73","2.81","15.5","0","0"
"Reggie Jackson","Reggie-Jackson-13352","5400","PG/SG","51.62","219.5","27.7","100.30","22.55","28.00","36.42","13.69","26.07","0","0"
"Garrett Temple","Garrett-Temple-14077","4100","SG/SF","41.42","212","28.6","103.30","13.69","28.00","31.94","14.13","19.74","0","0"
"Collin Sexton","Collin-Sexton-408896","4500","PG","46.55","210","30.8","103.60","26.21","32.00","22.32","4.47","21.59","0","0"
"Terrence Ross","Terrence-Ross-13902","4800","SG/SF","34.91","202.5","24.4","105.10","17.98","26.00","35.54","19.58","22.96","0","0"
"Bryn Forbes","Bryn-Forbes-36052","3800","PG/SG","51.32","220","24.7","99.70","17.83","23.00","26.05","11.11","18.18","0","0"
"Karl-Anthony Towns","Karl-Anthony-Towns-18937","9300","C","48.90","220","32.8","100.67","26.35","35.00","59.66","24.22","44.36","0","0"
"Jared Dudley","Jared-Dudley-1319","3200","SF/PF","35.08","209.5","17.4","114.62","13.45","21.00","27.11","13.32","15.24","0","0"
"Reggie Bullock","Reggie-Bullock-16943","4800","SG/SF","39.72","219.5","35.3","100.30","20.07","32.00","36.34","15.64","22.8","0","0"
"Domantas Sabonis","Domantas-Sabonis-35217","6600","PF/C","62.90","209.5","23.6","107.67","23.29","26.00","46.78","23.7","31.27","0","0"
"Lonzo Ball","Lonzo-Ball-37885","6800","PG","50.15","233.5","33.9","112.50","19.91","32.00","42.81","16.26","32.19","0","0"
"Brandon Ingram","Brandon-Ingram-35227","5600","PG/SG","49.87","233.5","0","112.50","0","29.00","40.04","16.36","26.48","0","0"
"Marco Belinelli","Marco-Belinelli-1033","3600","SG/SF","39.44","220","22.6","99.70","18.30","19.00","24.84","12.99","17","0","0"
"Kris Dunn","Kris-Dunn-35215","7300","PG/SG","48.71","202.5","27.8","104.50","24.14","32.00","48.82","17.6","34.45","0","0"
"Buddy Hield","Buddy-Hield-35206","6700","SG/SF","36.98","212","30.8","98.20","26.38","30.00","47.28","20.82","31.54","0","0"
"Rudy Gobert","Rudy-Gobert-16935","7700","C","50.35","214","29.0","98.88","17.33","32.00","50.58","17.93","36.23","0","0"
"Robert Covington","Robert-Covington-16874","5700","SF/PF","36.44","220","30.6","100.67","17.81","35.00","39.09","17.15","26.79","0","0"
"Malik Monk","Malik-Monk-37827","3200","PG/SG","55.32","219.5","18.0","103.00","28.02","17.00","22.94","12.42","15.04","0","0"
"Jrue Holiday","Jrue-Holiday-1073","9000","PG/SG","52.12","233.5","37.8","104.88","27.47","36.00","57.17","20.07","42.07","0","0"
"Jae Crowder","Jae-Crowder-13942","5000","SF/PF","39.69","214","24.2","98.88","17.18","28.00","39.36","17.78","23.18","0","0"
"Sterling Brown","Sterling-Brown-37821","3300","SG/SF","35.01","223.5","23.0","98.80","12.52","18.00","28.37","15.23","15.23","0","0"
"Davis Bertans","Davis-Bertans-36051","3700","PF/C","53.01","220","19.2","99.70","12.93","18.00","29.19","13.68","17.1","0","0"
"C.J. McCollum","C.J.-McCollum-17121","6400","PG/SG","39.96","214","33.7","104.50","27.08","35.00","39.17","17.12","29.56","0","0"
"Bojan Bogdanovic","Bojan-Bogdanovic-18571","5200","SG/SF","29.99","209.5","32.6","107.67","21.16","33.00","37.54","19.07","23.99","0","0"
"Josh Okogie","Josh-Okogie-409174","3300","SG/SF","47.54","220","15.7","100.67","13.64","24.00","16.09","3.71","15.19","0","0"
"Spencer Dinwiddie","Spencer-Dinwiddie-18588","6800","PG/SG","48.04","209.5","29.7","114.62","30.27","31.00","48.19","21.62","31.25","0","0"
"Pascal Siakam","Pascal-Siakam-35186","6300","PF","48.50","210","29.8","105.50","20.03","32.00","42.03","16.59","28.81","0","0"
"Derrick Rose","Derrick-Rose-1086","7200","PG/SG","52.74","220","31.2","100.67","31.16","32.00","45.31","16.84","32.76","0","0"
"Lorenzo Brown","Lorenzo-Brown-16940","3000","PG","55.88","210","9.2","105.50","16.55","14.00","25.05","13.55","13.55","0","0"
"LaMarcus Aldridge","LaMarcus-Aldridge-1349","8200","PF/C","53.01","220","27.1","99.70","27.00","31.00","53.17","23.39","36.77","0","0"
"Michael Kidd-Gilchrist","Michael-Kidd-Gilchrist-13896","3700","SF/PF","34.50","219.5","16.4","103.00","18.08","19.00","27.31","14.16","16.56","0","0"
"Thaddeus Young","Thaddeus-Young-1289","5800","SF/PF","48.47","209.5","34.2","107.67","18.67","32.00","37.29","13.69","25.93","0","0"
"Solomon Hill","Solomon-Hill-16863","3800","SF/PF","37.54","233.5","27.8","104.88","9.89","25.00","26.81","14.49","16.99","0","0"
"Kosta Koufos","Kosta-Koufos-1386","3200","C","48.74","212","15.2","98.20","13.39","14.00","27.19","14.29","14.29","0","0"
"E'Twaun Moore","E'Twaun-Moore-18582","4400","SG/SF","35.84","233.5","24.5","104.88","14.31","25.00","31.41","15.97","19.45","0","0"
"Rodney Hood","Rodney-Hood-18629","4600","SG/SF","48.37","210","25.9","103.60","18.61","25.00","32.21","13.01","20.23","0","0"
"Jaren Jackson","Jaren-Jackson-409099","5800","PF/C","57.26","212","24.1","103.30","17.55","29.00","29.8","9.37","25.45","0","0"
"Josh Hart","Josh-Hart-37889","4000","PG/SG","37.29","233.5","30.4","112.50","13.80","22.00","29.44","13.84","17.43","0","0"
"Taj Gibson","Taj-Gibson-1277","4200","PF/C","51.64","220","20.2","100.67","19.70","22.00","25.23","9.39","18.23","0","0"
"Kyle Kuzma","Kyle-Kuzma-37886","7200","SF/PF","48.95","233.5","35.0","112.50","25.95","32.00","40.3","17.5","31.14","0","0"
"Miles Bridges","Miles-Bridges-409262","3600","SF/PF","44.34","219.5","17.7","103.00","17.80","18.00","16.04","3.05","15.56","0","0"
"Joe Ingles","Joe-Ingles-18627","5700","SG/SF","36.24","214","28.2","98.88","18.27","29.00","37.17","16.41","24.57","0","0"
"Alex Len","Alex-Len-16886","3400","C","55.56","233","14.6","105.10","22.05","13.00","20.75","10.41","14.62","0","0"
"Darius Miller","Darius-Miller-13951","4000","SF/PF","37.54","233.5","26.2","104.88","14.25","28.00","30.46","16.96","16.96","0","0"
"Cory Joseph","Cory-Joseph-13339","3900","PG","38.95","209.5","23.5","107.67","17.26","24.00","28.89","12.47","16.47","0","0"
"Kyle Korver","Kyle-Korver-1269","3300","SG/SF","36.24","214","16.3","98.88","19.89","18.00","24.36","10.98","13.85","0","0"
"C.J. Miles","C.J.-Miles-1299","3400","SG/SF","37.18","210","16.7","105.50","16.74","15.00","23.28","11.48","14.22","0","0"
"Tyler Dorsey","Tyler-Dorsey-37825","3100","PG/SG","35.79","233","10.0","105.10","26.41","16.00","21.36","10.16","12.85","0","0"
"Frank Ntilikina","Frank-Ntilikina-37796","3300","PG/SG","41.41","233","19.1","100.17","22.89","16.00","20.8","11.82","13.65","0","0"
"Nik Stauskas","Nik-Stauskas-18636","3100","SG/SF","35.62","214","13.8","104.50","20.48","18.00","21.03","9.95","12.8","0","0"
"David Nwaba","David-Nwaba-36526","3200","SG/SF","37.15","210","13.0","103.60","20.62","17.00","20.68","9.44","13.18","0","0"
"Dante Cunningham","Dante-Cunningham-1259","3200","SF/PF","54.26","220","16.0","99.70","10.27","16.00","24.7","10.47","13.11","0","0"
"Rajon Rondo","Rajon-Rondo-1085","5000","PG","50.15","233.5","0","112.50","0","20.00","37.48","20.17","20.17","0","0"
"Stanley Johnson","Stanley-Johnson-18913","3600","SF/PF","39.72","219.5","17.0","100.30","22.34","18.00","23.83","11.45","14.46","0","0"
"George Hill","George-Hill-993","3500","PG/SG","38.43","223.5","19.6","98.80","12.14","16.00","24.08","11.97","13.95","0","0"
"Ante Zizic","Ante-Zizic-35180","3300","C","51.15","210","12.2","103.60","14.85","17.00","26.35","13.18","13.18","0","0"
"Dante Exum","Dante-Exum-18626","3200","PG/SG","40.24","214","13.8","98.88","18.69","15.00","21.98","10.0","12.67","0","0"
"Tony Parker","Tony-Parker-982","3800","PG","43.63","219.5","18.3","103.00","29.43","17.00","25.64","15","15","0","0"
"Mohamed Bamba","Mohamed-Bamba-409026","4000","C","56.35","202.5","18.8","105.10","21.18","17.00","15.82","2.9","15.65","0","0"
"Lance Stephenson","Lance-Stephenson-947","3700","SG/SF","49.87","233.5","17.8","112.50","25.02","15.00","24.47","11.49","14.42","0","0"
"Myles Turner","Myles-Turner-18915","7300","C","57.69","209.5","28.1","107.67","21.91","30.00","46.64","21.31","28.49","0","0"
"Frank Kaminsky","Frank-Kaminsky-18920","3200","PF/C","54.15","219.5","10.3","103.00","18.74","13.00","20.05","10.23","12.42","0","0"
"Tyus Jones","Tyus-Jones-18938","3500","PG","43.01","220","16.8","100.67","13.07","17.00","24.42","12.99","13.5","0","0"
"Zach Collins","Zach-Collins-37866","3300","PF/C","53.54","214","18.2","104.50","14.62","16.00","19.49","9.59","12.69","0","0"
"Kentavious Caldwell-Pope","Kentavious-Caldwell-Pope-16869","4100","SG/SF","37.29","233.5","25.3","112.50","18.18","20.00","30.04","15.76","15.76","0","0"
"Royce O'Neale","Royce-O'Neale-37872","3300","SF","39.69","214","16.2","98.88","13.22","16.00","18.5","9.3","12.52","0","0"
"Jeremy Lin","Jeremy-Lin-916","3800","PG/SG","53.05","233","17.7","105.10","27.03","14.00","22.29","11.13","14.3","0","0"
"Lance Thomas","Lance-Thomas-13363","3000","SF/PF","45.83","233","17.5","100.17","8.24","15.00","19.83","9.11","11.19","0","0"
"Gorgui Dieng","Gorgui-Dieng-16939","3400","PF/C","51.64","220","13.7","100.67","19.20","13.00","19.45","9.39","12.46","0","0"
"Jahlil Okafor","Jahlil-Okafor-18902","3300","C","56.76","233.5","7.5","104.88","32.21","12.00","20.33","9.9","11.72","0","0"
"D.J. Wilson","D.J.-Wilson-37822","3400","PF/C","42.62","223.5","20.3","98.80","13.76","16.00","22.93","11.9","11.9","0","0"
"Seth Curry","Seth-Curry-16825","3100","PG/SG","35.62","214","16.5","104.50","14.13","16.00","20.78","10.85","10.85","0","0"
"Thabo Sefolosha","Thabo-Sefolosha-1271","3100","SF/PF","39.69","214","11.7","98.88","11.74","12.00","16.2","9.07","10.75","0","0"
"Doug McDermott","Doug-McDermott-18583","3100","SF/PF","29.99","209.5","17.2","107.67","16.57","18.00","21.41","10.71","10.71","0","0"
"Yogi Ferrell","Yogi-Ferrell-35999","3400","PG/SG","45.82","212","11.9","98.20","27.63","15.00","19.77","10.26","11.62","0","0"
"Thon Maker","Thon-Maker-35194","3100","PF/C","49.40","223.5","10.7","98.80","14.14","13.00","17.83","8.58","10.52","0","0"
"Joakim Noah","Joakim-Noah-1404","3100","C","54.73","212","14.0","103.30","19.64","13.00","17.32","9.36","10.34","0","0"
"Wesley Iwundu","Wesley-Iwundu-37839","3300","SG/SF","41.02","202.5","16.0","105.10","16.66","16.00","21.95","10.98","10.98","0","0"
"Vince Carter","Vince-Carter-1066","3200","SG","35.79","233","17.0","105.10","18.76","14.00","17.79","9.32","10.63","0","0"
"Tony Snell","Tony-Snell-16872","3400","SG/SF","34.53","223.5","20.0","98.80","14.14","18.00","19.1","9.62","11.27","0","0"
"Bruce Brown","Bruce-Brown-408913","3300","PG/SG","38.69","219.5","19.9","100.30","12.62","15.00","11.49","2.65","10.85","0","0"
"Jose Calderon","Jose-Calderon-1071","3200","PG","44.74","219.5","20.3","100.30","16.23","15.00","17.94","8.06","10.17","0","0"
"Meyers Leonard","Meyers-Leonard-13905","3300","PF/C","53.54","214","13.3","104.50","12.93","10.00","17.87","8.48","10.42","0","0"
"Aaron Holiday","Aaron-Holiday-408932","3200","PG/SG","38.95","209.5","15.0","107.67","18.87","14.00","10.16","1.86","10.05","0","0"
"Semi Ojeleye","Semi-Ojeleye-37786","3100","SF/PF","39.46","223.5","15.0","101.75","19.07","15.00","18.41","9.52","9.52","0","0"
"Courtney Lee","Courtney-Lee-1025","3400","SG/SF","42.18","233","14.5","100.17","17.14","13.00","18.67","10.12","10.12","0","0"
"Omri Casspi","Omri-Casspi-1270","3200","SF/PF","37.94","212","11.3","103.30","19.72","10.00","16.56","7.95","9.47","0","0"
"Jevon Carter","Jevon-Carter-409100","3300","PG/SG","43.82","212","19.3","103.30","15.17","15.00","10.07","2.32","9.51","0","0"
"Zaza Pachulia","Zaza-Pachulia-1455","3200","C","52.40","219.5","10.8","100.30","22.98","9.00","15.22","7.45","9.07","0","0"
"Luke Kornet","Luke-Kornet-37800","3200","PF/C","45.83","233","12.6","100.17","18.60","10.00","14.21","6.27","8.98","0","0"
"Wesley Johnson","Wesley-Johnson-1280","3000","SG/SF","37.54","233.5","5.0","104.88","16.00","12.00","15.84","8.44","8.44","0","0"
"Frank Jackson","Frank-Jackson-37855","3000","PG/SG","52.12","233.5","13.7","104.88","12.57","12.00","8.78","2.02","8.29","0","0"
"Jaron Blossomgame","Jaron-Blossomgame-570197","3300","SF/PF","37.15","210","17.0","103.60","11.33","12.00","8.22","1.5","8.13","0","0"
"Troy Williams","Troy-Williams-36043","3100","SF/PF","36.98","212","14.6","98.20","13.99","8.00","11.86","5.97","7.41","0","0"
"Guerschon Yabusele","Guerschon-Yabusele-35176","3000","PF/C","45.91","223.5","15.0","101.75","7.97","8.00","12.01","6.29","6.29","0","0"
"Jarell Martin","Jarell-Martin-18931","3000","PF/C","48.27","202.5","4.8","105.10","15.87","7.00","9.6","5.14","6.07","0","0"
"Justin Anderson","Justin-Anderson-18927","3100","SF/PF","38.58","233","3.8","105.10","16.13","6.00","9.73","4.66","6.25","0","0"
"Jon Leuer","Jon-Leuer-13317","3100","PF/C","57.11","219.5","12.7","100.30","15.42","7.00","9.84","5.16","6.06","0","0"
"Mario Hezonja","Mario-Hezonja-18923","3200","SF/PF","42.18","233","12.1","100.17","17.97","5.00","10.0","4.77","5.38","0","0"
"Drew Eubanks","Drew-Eubanks-570198","3000","PF/C","54.26","220","7.5","99.70","19.23","6.00","5.27","1.11","4.86","0","0"
"Moritz Wagner","Moritz-Wagner-409281","3000","PF/C","54.80","233.5","8.2","112.50","22.33","8.00","4.91","0.88","4.84","0","0"
"Ivica Zubac","Ivica-Zubac-35226","3000","C","50.82","233.5","5.5","112.50","13.93","4.00","5.02","2.57","3.17","0","0"
