"nameCol","idCol","salaryCol","positionCol","dvpCol","ouCol","mpgCol","paceCol","usgCol","pminCol","ceilCol","floorCol","pointsCol","predictCol","actualCol"
"Tyson Chandler","Tyson-Chandler-1482","3400","C","52.71","223","18.5","112.50","12.65","22.00","40.86","20.44","20.44","0","0"
"Deandre Ayton","Deandre-Ayton-409301","6400","C","44.63","213.5","33.4","108.80","19.25","34.00","49.44","15.49","38.06","0","0"
"Jusuf Nurkic","Jusuf-Nurkic-18619","6500","C","56.82","223","25.7","104.50","26.10","28.00","58.29","21.21","37.95","0","0"
"Derrick White","Derrick-White-37858","4700","PG","50.11","213.5","23.3","99.70","20.46","30.00","51.49","22.84","27.39","0","0"
"Devin Booker","Devin-Booker-18949","7600","PG/SG","50.39","213.5","36.3","108.80","30.56","37.00","75.42","23.36","43.1","0","0"
"TJ Warren","TJ-Warren-18634","5800","SF/PF","48.89","213.5","31.2","108.80","20.81","35.00","49.43","18.37","31.95","0","0"
"Al-Farouq Aminu","Al-Farouq-Aminu-1279","4900","SF/PF","37.81","223","29.2","104.50","10.63","30.00","48.17","19.97","26.66","0","0"
"LeBron James","LeBron-James-1227","10300","SF/PF","45.78","223","33.3","112.50","31.30","35.00","79.42","23.42","55.77","0","0"
"Dante Cunningham","Dante-Cunningham-1259","3400","SF/PF","47.11","213.5","23.2","99.70","9.74","28.00","32.92","12.86","18.34","0","0"
"LaMarcus Aldridge","LaMarcus-Aldridge-1349","8300","PF/C","57.49","213.5","33.0","99.70","24.56","35.00","74.31","27.81","43.66","0","0"
"JaVale McGee","JaVale-McGee-1485","5600","C","52.71","223","25.3","112.50","18.67","26.00","48.51","18.04","29.33","0","0"
"C.J. McCollum","C.J.-McCollum-17121","6600","PG/SG","51.00","223","32.5","104.50","27.16","35.00","54.1","19.5","34.33","0","0"
"Seth Curry","Seth-Curry-16825","3100","PG/SG","32.20","223","16.3","104.50","12.05","19.00","32.22","16.12","16.12","0","0"
"Bryn Forbes","Bryn-Forbes-36052","3900","PG/SG","36.71","213.5","26.5","99.70","19.18","30.00","34.25","12.6","19.97","0","0"
"Trevor Ariza","Trevor-Ariza-1323","4700","SF/PF","33.59","213.5","33.7","108.80","14.12","32.00","37.06","12.09","23.94","0","0"
"Damian Lillard","Damian-Lillard-13900","8800","PG","55.87","223","33.0","104.50","29.14","35.00","66.75","21.77","44.71","0","0"
"Mikal Bridges","Mikal-Bridges-408842","3700","SF","33.59","213.5","20.6","108.80","16.59","26.00","22.76","3.68","18.76","0","0"
"DeMar DeRozan","DeMar-DeRozan-1053","9000","SG/SF","55.31","213.5","34.7","99.70","26.60","37.00","71.02","21.64","44.61","0","0"
"Kyle Kuzma","Kyle-Kuzma-37886","6000","SF/PF","45.78","223","30.5","112.50","22.71","32.00","45.33","16.74","29.78","0","0"
"Marco Belinelli","Marco-Belinelli-1033","3600","SG/SF","36.71","213.5","22.3","99.70","21.99","23.00","30.44","12.5","17.81","0","0"
"Zach Collins","Zach-Collins-37866","3800","PF","60.25","223","20.3","104.50","18.70","20.00","33.63","14.43","18.5","0","0"
"Evan Turner","Evan-Turner-1291","4400","SG/SF","51.00","223","26.3","104.50","19.60","27.00","37.69","17.62","21.2","0","0"
"Meyers Leonard","Meyers-Leonard-13905","3300","C","60.25","223","13.4","104.50","22.12","16.00","31.6","12.85","15.81","0","0"
"Brandon Ingram","Brandon-Ingram-35227","5700","PG/SF","41.60","223","31.7","112.50","22.40","32.00","48.6","16.88","27.32","0","0"
"Isaiah Canaan","Isaiah-Canaan-16875","3900","PG","50.39","213.5","31.2","108.80","15.80","26.00","29.12","11.03","18.41","0","0"
"Lonzo Ball","Lonzo-Ball-37885","5400","PG","40.19","223","23.5","112.50","18.21","27.00","38.62","12.47","24.69","0","0"
"Patty Mills","Patty-Mills-13977","4100","PG/SG","56.50","213.5","26.0","99.70","19.89","25.00","33.79","14.57","18.63","0","0"
"Davis Bertans","Davis-Bertans-36051","3600","PF/C","57.49","213.5","18.5","99.70","14.00","20.00","31.16","13.04","16.28","0","0"
"Richaun Holmes","Richaun-Holmes-18905","3300","PF/C","58.93","213.5","12.6","108.80","15.90","14.00","29.43","10.36","14.72","0","0"
"Josh Hart","Josh-Hart-37889","4200","SG","37.70","223","21.7","112.50","15.15","22.00","34.45","13.77","17.34","0","0"
"De'Anthony Melton","De'Anthony-Melton-409081","3000","SG","50.39","213.5","19.0","108.80","30.17","11.00","21.64","4.47","11.45","0","0"
"Jamal Crawford","Jamal-Crawford-1075","3100","PG/SG","48.89","213.5","8.2","108.80","24.64","15.00","23.65","11.83","11.83","0","0"
"Jakob Poeltl","Jakob-Poeltl-35187","3000","C","59.78","213.5","9.4","99.70","8.20","12.00","22.33","9.91","11.17","0","0"
"Nik Stauskas","Nik-Stauskas-18636","3200","SG/SF","32.20","223","14.5","104.50","19.03","16.00","23.28","9.63","11.86","0","0"
"Rajon Rondo","Rajon-Rondo-1085","5200","PG","40.19","223","22.7","112.50","21.43","20.00","38.0","19.01","19.01","0","0"
"Jake Layman","Jake-Layman-35216","3200","PF","37.81","223","16.5","104.50","13.87","14.00","18.94","7.92","10.81","0","0"
"Lance Stephenson","Lance-Stephenson-947","3300","PG/SG","41.60","223","11.3","112.50","25.41","11.00","19.56","7.81","9.8","0","0"
"Josh Jackson","Josh-Jackson-37890","3200","SF","48.89","213.5","11.6","108.80","26.15","10.00","15.49","5.87","9.38","0","0"
"Kentavious Caldwell-Pope","Kentavious-Caldwell-Pope-16869","3000","SG/SF","37.70","223","15.8","112.50","18.98","13.00","17.35","8.68","8.68","0","0"
