"nameCol","idCol","salaryCol","positionCol","dvpCol","ouCol","mpgCol","paceCol","usgCol","pminCol","ceilCol","floorCol","pointsCol","predictCol","actualCol"
"Larry Nance","Larry-Nance-18946","5300","PF/C","46.89","217","22.7","103.60","15.45","36.00","53.52","22.37","36.61","0","0"
"Nikola Mirotic","Nikola-Mirotic-18584","6900","SF/PF","51.35","241","31.9","104.88","18.43","34.00","62.64","26.42","41.73","0","0"
"Rodney Hood","Rodney-Hood-18629","4600","SG/SF","47.47","217","29.7","103.60","19.28","33.00","42.83","17.18","26.8","0","0"
"Otto Porter","Otto-Porter-17069","5900","SF/PF","40.94","241","31.9","103.80","17.69","35.00","48.94","22.8","33.73","0","0"
"Ersan Ilyasova","Ersan-Ilyasova-1301","3300","PF/C","50.92","227.5","15.8","98.80","17.82","20.00","29.05","13.06","18.84","0","0"
"Tristan Thompson","Tristan-Thompson-13308","6300","C","51.05","217","31.8","103.60","18.59","38.00","48.85","21.27","35.63","0","0"
"Anthony Davis","Anthony-Davis-13895","11400","PF/C","59.16","241","36.9","104.88","31.71","38.00","92.64","33.22","63.76","0","0"
"Jerami Grant","Jerami-Grant-18576","4300","SF/PF","44.19","217","30.7","102.62","14.86","32.00","38.45","16.47","23.91","0","0"
"Jeff Teague","Jeff-Teague-1005","6100","PG","47.94","216.5","32.0","100.67","20.01","34.00","47.7","17.19","33.57","0","0"
"Ryan Arcidiacono","Ryan-Arcidiacono-36050","3900","PG","45.89","227.5","32.7","104.50","11.55","34.00","33.45","13.63","21.2","0","0"
"Karl-Anthony Towns","Karl-Anthony-Towns-18937","9400","C","51.00","216.5","33.6","100.67","27.15","36.00","69.0","28.89","50.96","0","0"
"Dennis Schroder","Dennis-Schroder-18595","6000","PG/SG","50.18","217","30.0","102.62","28.53","30.00","49.53","26.45","32.37","0","0"
"Russell Westbrook","Russell-Westbrook-1083","10900","PG","50.18","217","35.2","102.62","34.01","36.00","65.6","19.81","58.62","0","0"
"Tomas Satoransky ","Tomas-Satoransky--36031","3400","PG/SG","51.46","241","18.1","103.80","16.37","20.00","27.82","13.85","18.15","0","0"
"Clint Capela","Clint-Capela-18610","8200","C","49.25","217.5","36.5","101.42","17.27","35.00","71.38","36.32","43.71","0","0"
"Steven Adams","Steven-Adams-16848","6700","C","52.11","217","34.8","102.62","19.18","35.00","48.28","23.68","35.66","0","0"
"Jrue Holiday","Jrue-Holiday-1073","8400","PG/SG","57.59","241","35.5","104.88","30.61","37.00","59.85","20.92","44.6","0","0"
"Jabari Parker","Jabari-Parker-18593","6600","SF/PF","43.87","227.5","33.7","104.50","24.96","34.00","48.52","18.92","35.03","0","0"
"Wesley Matthews","Wesley-Matthews-1339","4500","SG/SF","37.32","217.5","26.0","100.08","16.99","32.00","35.23","14.53","23.74","0","0"
"Markieff Morris","Markieff-Morris-13314","5100","SF/PF","60.00","241","25.6","103.80","17.73","30.00","36.87","19.16","26.91","0","0"
"Chris Paul","Chris-Paul-1087","7900","PG","51.02","217.5","32.8","101.42","25.12","34.00","55.26","20.4","41.55","0","0"
"Cedi Osman","Cedi-Osman-18912","4900","SF/PF","38.36","217","31.5","103.60","16.32","36.00","31.73","11.82","25.63","0","0"
"Eric Bledsoe","Eric-Bledsoe-1031","6900","PG/SG","48.45","227.5","30.9","98.80","23.61","33.00","52.47","21.97","35.96","0","0"
"Wendell Carter","Wendell-Carter-408878","5000","PF/C","54.98","227.5","22.9","104.50","21.05","27.00","25.96","5.46","26.01","0","0"
"John Wall","John-Wall-1084","9100","PG","51.46","241","33.6","103.80","32.14","36.00","53.15","18.5","47.08","0","0"
"James Harden","James-Harden-1037","11600","PG/SG","51.02","217.5","38.7","101.42","41.58","37.00","68.99","21.8","59.73","0","0"
"James Ennis","James-Ennis-18599","3700","SG/SF","40.84","217.5","30.0","101.42","11.37","30.00","29.65","14.89","19.07","0","0"
"Kyle Korver","Kyle-Korver-1269","3500","SG/SF","40.25","217","16.0","103.60","19.09","22.00","31.05","14.24","17.96","0","0"
"Zach LaVine","Zach-LaVine-18622","8100","PG/SG","45.89","227.5","34.7","104.50","32.81","36.00","56.87","25.16","41.45","0","0"
"Julius Randle","Julius-Randle-18632","6700","PF/C","59.16","241","26.4","104.88","27.07","26.00","47.49","25.75","34.19","0","0"
"Giannis Antetokounmpo","Giannis-Antetokounmpo-16852","12000","SF/PF","50.92","227.5","35.1","98.80","31.41","35.00","72.64","26.8","61.04","0","0"
"Jeff Green","Jeff-Green-1314","4000","SF/PF","48.77","241","24.3","103.80","17.36","27.00","34.79","15.96","20.3","0","0"
"Justin Holiday","Justin-Holiday-14559","5400","SG/SF","39.82","227.5","34.3","104.50","17.52","36.00","39.37","18.23","27.21","0","0"
"Malcolm Brogdon","Malcolm-Brogdon-35195","5600","PG/SG","49.63","227.5","29.9","98.80","20.92","34.00","43.38","20.0","28.17","0","0"
"Taj Gibson","Taj-Gibson-1277","4300","PF/C","53.08","216.5","23.1","100.67","15.28","26.00","29.3","11.94","21.48","0","0"
"Robin Lopez","Robin-Lopez-1466","3000","C","49.50","227.5","17.3","104.50","17.54","21.00","29.89","14.95","14.95","0","0"
"Kelly Oubre","Kelly-Oubre-18925","4200","SG/SF","40.94","241","21.6","103.80","22.14","23.00","30.44","13.28","20.85","0","0"
"Dennis Smith Jr.","Dennis-Smith-Jr.-37847","5200","PG","46.70","217.5","24.2","100.08","24.15","28.00","35.52","14.26","25.78","0","0"
"DeAndre Jordan","DeAndre-Jordan-1486","7100","C","53.36","217.5","30.4","100.08","16.31","33.00","43.71","21.19","35.25","0","0"
"Bradley Beal","Bradley-Beal-13898","8000","SG","49.23","241","36.9","103.80","23.93","36.00","62.47","26.88","39.59","0","0"
"Andrew Wiggins","Andrew-Wiggins-18620","5600","SG/SF","49.46","216.5","32.7","100.67","23.83","32.00","36.2","15.7","27.59","0","0"
"Khris Middleton","Khris-Middleton-13990","7500","SG/SF","43.09","227.5","32.1","98.80","24.53","34.00","59.62","26.37","36.78","0","0"
"P.J. Tucker","P.J.-Tucker-13947","4400","SF/PF","40.84","217.5","35.5","101.42","9.74","36.00","41.21","17.99","21.32","0","0"
"Paul George","Paul-George-1245","8900","SF/PF","44.19","217","35.7","102.62","31.61","37.00","60.06","26.44","42.99","0","0"
"Darius Miller","Darius-Miller-13951","3100","SF/PF","36.03","241","24.0","104.88","11.49","26.00","26.15","14.86","14.86","0","0"
"Luka Doncic","Luka-Doncic-408971","7400","SG/SF","43.75","217.5","31.8","100.08","26.49","34.00","36.49","7.31","35.29","0","0"
"Rudy Gay","Rudy-Gay-1341","5900","SF/PF","54.54","216.5","26.7","99.70","21.19","29.00","36.2","13.98","28.02","0","0"
"E'Twaun Moore","E'Twaun-Moore-18582","5000","SG/SF","41.74","241","32.5","104.88","21.57","33.00","36.53","16.3","23.69","0","0"
"Jordan Clarkson","Jordan-Clarkson-18631","5100","PG/SG","47.47","217","24.3","103.60","28.58","23.00","40.18","23.89","23.89","0","0"
"Robert Covington","Robert-Covington-16874","6300","SF/PF","33.89","216.5","35.4","100.67","14.66","37.00","41.19","19.32","29.4","0","0"
"Collin Sexton","Collin-Sexton-408896","5700","PG","45.64","217","32.2","103.60","26.34","35.00","25.07","2.97","26.56","0","0"
"Marco Belinelli","Marco-Belinelli-1033","3600","SG/SF","39.96","216.5","22.2","99.70","19.50","21.00","24.01","11.77","16.79","0","0"
"Brook Lopez","Brook-Lopez-1498","4800","C","69.46","227.5","27.4","98.80","15.01","27.00","33.71","14.83","22.34","0","0"
"Bryn Forbes","Bryn-Forbes-36052","4200","PG/SG","39.96","216.5","27.8","99.70","18.38","28.00","28.06","11.81","19.43","0","0"
"Derrick Rose","Derrick-Rose-1086","6400","PG/SG","47.94","216.5","30.0","100.67","22.53","30.00","46.57","26.06","29.38","0","0"
"DeMar DeRozan","DeMar-DeRozan-1053","8500","SG/SF","48.25","216.5","35.4","99.70","30.60","36.00","52.68","18.38","39.02","0","0"
"Eric Gordon","Eric-Gordon-1077","5800","SG/SF","51.92","217.5","33.8","101.42","20.92","31.00","38.44","18.03","26.44","0","0"
"Chandler Hutchison","Chandler-Hutchison-408877","3000","SG/SF","37.71","227.5","20.5","104.50","13.04","20.00","14.07","2.61","13.69","0","0"
"LaMarcus Aldridge","LaMarcus-Aldridge-1349","8300","PF/C","56.35","216.5","34.0","99.70","23.69","34.00","54.02","24.48","37.49","0","0"
"Harrison Barnes","Harrison-Barnes-13901","6300","SF/PF","45.08","217.5","32.6","100.08","21.21","32.00","35.72","16.21","28.04","0","0"
"Derrick White","Derrick-White-37858","3500","PG/SG","41.95","216.5","15.0","99.70","17.31","19.00","28.53","12.8","15.53","0","0"
"J.J. Barea","J.J.-Barea-18605","5000","PG/SG","46.70","217.5","23.2","100.08","27.95","20.00","33.31","16.01","22.12","0","0"
"Jakob Poeltl","Jakob-Poeltl-35187","3300","C","54.93","216.5","12.6","99.70","20.15","15.00","28.47","12.62","14.24","0","0"
"Timothe Luwawu-Cabarrot","Timothe-Luwawu-Cabarrot-35183","3200","SG/SF","37.98","217","15.7","102.62","16.20","21.00","21.57","11.01","13.78","0","0"
"Nerlens Noel","Nerlens-Noel-18575","3300","C","52.11","217","11.6","102.62","11.72","13.00","24.43","12.02","14.12","0","0"
"Shaquille Harrison","Shaquille-Harrison-36065","3400","PG","45.51","227.5","18.9","104.50","18.47","18.00","23.57","11.81","14.54","0","0"
"Pat Connaughton","Pat-Connaughton-18939","3700","SG/SF","36.22","227.5","21.0","98.80","14.85","20.00","28.38","12.17","15.8","0","0"
"Patty Mills","Patty-Mills-13977","3900","PG/SG","45.17","216.5","23.6","99.70","16.88","22.00","24.75","12.72","16.23","0","0"
"Thomas Bryant ","Thomas-Bryant--37884","3300","PF/C","60.00","241","12.0","103.80","16.21","16.00","22.84","10.78","13.7","0","0"
"Dante Cunningham","Dante-Cunningham-1259","3600","SF/PF","54.54","216.5","24.0","99.70","8.83","24.00","22.62","10.45","14.89","0","0"
"Dario Saric","Dario-Saric-36004","4700","PF","50.90","216.5","22.9","100.67","20.59","22.00","32.06","15.38","18.96","0","0"
"Dwight Powell","Dwight-Powell-18566","3300","PF/C","56.51","217.5","21.0","100.08","18.06","13.00","20.45","10.42","13.16","0","0"
"Maxi Kleber","Maxi-Kleber-37845","3200","PF","45.08","217.5","18.4","100.08","12.88","16.00","21.0","10.51","12.75","0","0"
"Gary Clark","Gary-Clark-570141","3400","SF/PF","45.09","217.5","20.2","101.42","7.34","18.00","13.85","2.63","13.43","0","0"
"Wesley Johnson","Wesley-Johnson-1280","3200","SF/PF","36.03","241","19.6","104.88","11.12","18.00","17.87","10.23","11.8","0","0"
"Austin Rivers","Austin-Rivers-13903","3500","PG/SG","59.88","241","20.1","103.80","17.51","17.00","19.08","10.34","12.58","0","0"
"Dorian Finney-Smith","Dorian-Finney-Smith-36032","3800","SF/PF","31.48","217.5","31.2","100.08","14.85","18.00","19.74","9.99","12.66","0","0"
"Gorgui Dieng","Gorgui-Dieng-16939","3300","PF/C","53.08","216.5","13.4","100.67","17.43","11.00","16.69","7.98","10.87","0","0"
"Devin Harris","Devin-Harris-1076","3400","PG/SG","46.70","217.5","16.4","100.08","21.58","14.00","19.65","11.11","11.11","0","0"
"Deonte Burton","Deonte-Burton-570274","3000","PG/SG","50.18","217","11.0","102.62","19.78","14.00","9.3","1.66","9.16","0","0"
"Gerald Green","Gerald-Green-13374","3300","SG/SF","51.92","217.5","11.8","101.42","18.90","12.00","17.05","7.99","9.85","0","0"
"Tyus Jones","Tyus-Jones-18938","3200","PG","46.48","216.5","14.6","100.67","12.08","12.00","15.75","8.29","8.62","0","0"
"Davis Bertans","Davis-Bertans-36051","3700","PF/C","56.35","216.5","14.5","99.70","18.73","12.00","15.05","7.58","9.46","0","0"
"Donte DiVincenzo","Donte-DiVincenzo-408950","3200","PG/SG","36.22","227.5","8.0","98.80","13.33","11.00","8.24","1.47","8.12","0","0"
"Alex Abrines","Alex-Abrines-36054","3000","SG/SF","37.52","217","6.7","102.62","12.66","12.00","14.23","7.41","7.41","0","0"
"Solomon Hill","Solomon-Hill-16863","3000","SF/PF","36.03","241","20.0","104.88","6.66","12.00","13.6","7.13","7.13","0","0"
"Andrew Harrison","Andrew-Harrison-18950","3200","PG","39.31","217","14.5","103.60","16.00","10.00","12.63","6.12","7.51","0","0"
"Patrick Patterson","Patrick-Patterson-1260","3000","PF/C","50.76","217","13.7","102.62","13.70","10.00","11.82","5.74","6.79","0","0"
"Ante Zizic","Ante-Zizic-35180","3100","C","51.05","217","12.0","103.60","13.43","7.00","13.17","6.59","6.59","0","0"
"Cameron Payne","Cameron-Payne-18941","3000","PG/SG","45.89","227.5","8.6","104.50","13.24","8.00","10.92","5.55","6.39","0","0"
"Frank Jackson","Frank-Jackson-37855","3000","PG/SG","57.59","241","12.4","104.88","18.17","10.00","6.23","1.18","6.04","0","0"
"Isaiah Hartenstein","Isaiah-Hartenstein-570142","3200","PF/C","45.09","217.5","8.0","101.42","10.63","7.00","5.64","1.07","5.47","0","0"
"Antonio Blakeney","Antonio-Blakeney-37811","3200","PG/SG","39.82","227.5","19.0","104.50","24.95","6.00","8.96","4.35","5.38","0","0"
"Thon Maker","Thon-Maker-35194","3000","PF/C","53.84","227.5","11.1","98.80","19.25","6.00","8.62","4.07","5.02","0","0"
"Matthew Dellavedova","Matthew-Dellavedova-16839","3100","PG/SG","48.45","227.5","7.0","98.80","15.58","6.00","9.01","5.12","5.12","0","0"
"Tony Snell","Tony-Snell-16872","3000","SG/SF","41.40","227.5","14.4","98.80","13.72","8.00","8.45","4.37","4.85","0","0"
"Sterling Brown","Sterling-Brown-37821","3100","SG/SF","36.22","227.5","10.7","98.80","17.56","6.00","8.22","4.27","4.27","0","0"
"Ian Clark","Ian-Clark-16922","3100","PG/SG","41.74","241","12.8","104.88","17.67","6.00","6.39","3.73","3.89","0","0"
