"nameCol","idCol","salaryCol","positionCol","dvpCol","ouCol","mpgCol","paceCol","usgCol","pminCol","ceilCol","floorCol","pointsCol","predictCol","actualCol"
"Derrick Favors","Derrick-Favors-1266","4900","PF/C","58.98","215.5","21.6","98.88","21.74","27.00","37.89","18.31","29.35","0","0"
"Kyle Anderson","Kyle-Anderson-18615","4600","PG/SF","34.02","201","30.0","103.30","12.49","31.00","36.5","14.79","27.34","0","0"
"Dante Exum","Dante-Exum-18626","3500","PG/SG","41.47","215.5","17.0","98.88","21.36","24.00","36.33","16.96","20.71","0","0"
"JaMychal Green","JaMychal-Green-18729","3900","SF/PF","50.65","201","22.8","103.30","16.11","23.00","38.75","20.11","22.93","0","0"
"Royce O'Neale","Royce-O'Neale-37872","3100","SF","38.28","215.5","9.7","98.88","12.66","21.00","27.05","13.13","17.67","0","0"
"Joe Ingles","Joe-Ingles-18627","5300","SG/SF","35.18","215.5","30.4","98.88","19.43","33.00","45.71","19.44","29.72","0","0"
"Gordon Hayward","Gordon-Hayward-1239","4700","SF/PF","41.42","201","28.0","101.75","15.87","26.00","38.7","18.18","26.27","0","0"
"Terry Rozier","Terry-Rozier-18894","3700","PG/SG","42.79","201","20.5","101.75","19.59","21.00","32.48","17.06","20.58","0","0"
"Thabo Sefolosha","Thabo-Sefolosha-1271","3100","SF/PF","38.28","215.5","10.0","98.88","10.09","19.00","25.16","14.36","17.01","0","0"
"Luke Kornet","Luke-Kornet-37800","4200","PF/C","52.95","215.5","14.8","100.17","21.75","27.00","35.71","14.61","23.01","0","0"
"Kyle Korver","Kyle-Korver-1269","3300","SG/SF","35.18","215.5","19.1","98.88","18.16","22.00","31.27","14.12","17.87","0","0"
"Al Horford","Al-Horford-1499","5500","PF/C","50.43","201","24.3","101.75","20.24","29.00","40.17","15.52","29.73","0","0"
"Shelvin Mack","Shelvin-Mack-13354","3300","PG","39.25","201","22.2","103.30","14.81","20.00","27.17","13.93","17.79","0","0"
"Marcus Smart","Marcus-Smart-18567","4300","PG/SG","46.23","201","29.7","101.75","16.64","28.00","31.8","12.93","23.13","0","0"
"Marc Gasol","Marc-Gasol-1493","7600","C","50.65","201","32.8","103.30","22.72","32.00","53.6","23.75","40.67","0","0"
"Mike Conley","Mike-Conley-1062","7300","PG","39.25","201","34.8","103.30","24.74","35.00","57.3","21.7","38.48","0","0"
"Donovan Mitchell","Donovan-Mitchell-37875","7500","PG/SG","52.52","215.5","33.7","98.88","30.68","36.00","51.22","21.18","39.22","0","0"
"Tim Hardaway Jr.","Tim-Hardaway-Jr.-16879","6600","SG/SF","40.09","215.5","33.2","100.17","26.35","33.00","53.41","23.32","34.35","0","0"
"Damyean Dotson","Damyean-Dotson-37795","3600","SG/SF","29.75","215.5","21.0","100.17","14.70","22.00","31.55","15.42","18.31","0","0"
"Emmanuel Mudiay","Emmanuel-Mudiay-18936","5700","PG","46.32","215.5","31.2","100.17","28.13","32.00","38.91","17.95","28.82","0","0"
"Jayson Tatum","Jayson-Tatum-37782","5800","SF/PF","41.42","201","30.7","101.75","23.69","31.00","37.0","15.79","29.25","0","0"
"Garrett Temple","Garrett-Temple-14077","4400","SG/SF","34.77","201","31.0","103.30","12.97","31.00","34.88","15.75","21.88","0","0"
"Rudy Gobert","Rudy-Gobert-16935","8200","C","55.34","215.5","32.4","98.88","18.78","33.00","54.01","17.92","40.55","0","0"
"Raul Neto","Raul-Neto-31821","3000","PG","41.47","215.5","2.3","98.88","16.46","17.00","26.37","13.49","14.62","0","0"
"Kyrie Irving","Kyrie-Irving-13334","8800","PG","46.23","201","34.5","101.75","30.14","33.00","54.55","21.97","40.92","0","0"
"Enes Kanter","Enes-Kanter-13299","5600","C","51.64","215.5","25.7","100.17","19.74","20.00","36.09","18.94","25.8","0","0"
"Jaylen Brown","Jaylen-Brown-35181","4400","SG/SF","36.95","201","22.3","101.75","20.84","23.00","37.45","16.77","20.2","0","0"
"Noah Vonleh","Noah-Vonleh-18597","6200","PF/C","49.06","215.5","30.8","100.17","15.28","31.00","39.36","18.63","28.48","0","0"
"Jaren Jackson","Jaren-Jackson-409099","5500","PF/C","50.65","201","27.2","103.30","20.56","28.00","27.79","10.24","25.17","0","0"
"Marcus Morris","Marcus-Morris-13316","6200","SF/PF","36.95","201","27.8","101.75","20.51","28.00","37.42","14.37","27.74","0","0"
"Kevin Knox","Kevin-Knox-408820","5900","SF/PF","40.09","215.5","36.3","100.17","22.79","35.00","26.72","5.35","25.84","0","0"
"Daniel Theis","Daniel-Theis-37784","3700","PF/C","49.37","201","20.0","101.75","14.82","15.00","23.82","12.84","14.22","0","0"
"Allonzo Trier","Allonzo-Trier-554950","3400","PG/SG","40.09","215.5","17.5","100.17","28.66","18.00","13.05","2.39","12.91","0","0"
"Joakim Noah","Joakim-Noah-1404","3000","C","50.64","201","10.3","103.30","17.01","13.00","17.04","9.09","10.01","0","0"
"Dillon Brooks","Dillon-Brooks-37852","3000","SG/SF","44.47","201","13.0","103.30","19.29","13.00","17.15","9.35","9.35","0","0"
"Wayne Selden","Wayne-Selden-36045","3200","SG/SF","51.17","201","10.8","103.30","21.72","14.00","18.15","9.61","9.99","0","0"
"Frank Ntilikina","Frank-Ntilikina-37796","3300","PG/SG","46.32","215.5","19.0","100.17","16.81","15.00","16.08","8.73","10.02","0","0"
"Georges Niang","Georges-Niang-35193","3000","SF/PF","55.77","215.5","2.3","98.88","22.86","8.00","11.1","5.5","6.54","0","0"
"Lance Thomas","Lance-Thomas-13363","3000","SF/PF","29.75","215.5","16.2","100.17","10.79","7.00","8.19","3.77","4.63","0","0"
"Semi Ojeleye","Semi-Ojeleye-37786","3100","SF/PF","36.95","201","11.0","101.75","15.23","6.00","6.83","3.61","3.61","0","0"
