"nameCol","idCol","salaryCol","positionCol","dvpCol","ouCol","mpgCol","paceCol","usgCol","pminCol","ceilCol","floorCol","pointsCol","predictCol","actualCol"
"George Hill","George-Hill-993","3400","PG/SG","54.79","219","22.4","98.80","12.20","24.00","38.64","19.15","22.35","0","0"
"Mason Plumlee","Mason-Plumlee-16798","4300","PF/C","49.49","218.5","20.8","99.62","18.27","30.00","39.66","19.75","27.81","0","0"
"Frank Ntilikina","Frank-Ntilikina-37796","3600","PG/SF","42.93","224.5","19.3","100.17","28.63","29.00","36.92","20.16","23.12","0","0"
"Iman Shumpert","Iman-Shumpert-13350","3600","SG/SF","40.19","235.5","27.4","98.20","15.20","30.00","33.83","16.52","22.95","0","0"
"Jerami Grant","Jerami-Grant-18576","4000","PF","48.48","218.5","27.5","102.62","12.97","30.00","39.45","17.51","25.45","0","0"
"DeMarre Carroll","DeMarre-Carroll-1174","3500","SF/PF","36.45","225","24.4","114.62","17.99","24.00","37.62","17.02","22.08","0","0"
"Dewayne Dedmon","Dewayne-Dedmon-16894","4300","PF/C","45.66","222","26.0","105.10","14.92","27.00","37.79","15.93","26.78","0","0"
"Wilson Chandler","Wilson-Chandler-1327","3800","SF/PF","35.68","218.5","28.6","108.33","12.64","28.00","35.13","16.37","23.42","0","0"
"Matthew Dellavedova","Matthew-Dellavedova-16839","3500","PG/SG","42.34","219","18.7","103.60","22.01","20.00","37.9","19.92","21.35","0","0"
"J.J. Redick","J.J.-Redick-1030","5100","SG/SF","36.80","218.5","31.0","108.33","23.58","33.00","41.93","20.08","31.13","0","0"
"Tony Snell","Tony-Snell-16872","3100","SG/SF","36.50","219","18.7","98.80","17.59","28.00","31.99","16.1","18.85","0","0"
"Garrett Temple","Garrett-Temple-14077","3400","SG/SF","37.41","196.5","29.4","103.30","12.76","32.00","32.84","14.83","20.6","0","0"
"Joe Harris","Joe-Harris-18587","4300","SG/SF","41.23","225","31.0","114.62","16.25","33.00","38.04","17.36","26.02","0","0"
"Kyle Anderson","Kyle-Anderson-18615","4200","PG/SF","37.71","196.5","27.1","103.30","13.75","30.00","33.87","13.73","25.37","0","0"
"Rondae Hollis-Jefferson","Rondae-Hollis-Jefferson-18897","5000","PF/C","49.73","225","28.1","114.62","17.43","29.00","45.9","19.41","30","0","0"
"Kevin Huerter","Kevin-Huerter-408969","3900","SG/SF","33.07","222","30.2","105.10","14.60","31.00","27.3","8.58","23.31","0","0"
"Alec Burks","Alec-Burks-13353","4500","PG/SG","48.45","219","28.1","103.60","20.43","28.00","36.94","19.02","26.67","0","0"
"Shelvin Mack","Shelvin-Mack-13354","3400","PG","40.29","196.5","23.4","103.30","16.59","22.00","30.42","15.6","19.92","0","0"
"Jeremy Lamb","Jeremy-Lamb-13955","5600","SG/SF","48.67","224.5","30.3","103.00","19.93","31.00","44.48","18.77","32.42","0","0"
"Evan Turner","Evan-Turner-1291","4000","SG/SF","47.99","216","24.5","104.50","16.36","28.00","33.96","19.14","23.01","0","0"
"Kevon Looney","Kevon-Looney-18945","3700","PF/C","52.75","235.5","23.8","103.10","12.66","23.00","30.78","13.57","21.23","0","0"
"Juan Hernangomez","Juan-Hernangomez-35212","4700","SF/PF","48.14","218.5","34.2","99.62","13.38","32.00","44.97","17.88","26.8","0","0"
"Josh Richardson","Josh-Richardson-18922","5600","SG/SF","44.55","196.5","33.0","106.90","21.21","35.00","46.34","19.09","31.61","0","0"
"Kevin Knox","Kevin-Knox-408820","4800","SF/PF","50.47","224.5","30.0","100.17","24.20","33.00","31.66","9.95","27.04","0","0"
"Buddy Hield","Buddy-Hield-35206","5800","SG/SF","40.19","235.5","29.0","98.20","24.80","31.00","48.91","22.33","32.41","0","0"
"Dennis Schroder","Dennis-Schroder-18595","5600","PG/SG","49.47","218.5","28.2","102.62","28.16","30.00","47.87","24.59","31.33","0","0"
"De'Aaron Fox","De'Aaron-Fox-37900","7000","PG","49.53","235.5","31.2","98.20","27.79","34.00","48.06","19.99","39.04","0","0"
"Jamal Murray","Jamal-Murray-35211","6900","PG/SG","45.74","218.5","36.2","99.62","25.17","37.00","56.46","23.11","38.51","0","0"
"Otto Porter","Otto-Porter-17069","5800","SF/PF","30.85","225","29.4","103.80","16.10","32.00","46.94","21.87","32.35","0","0"
"Markieff Morris","Markieff-Morris-13314","5100","PF/C","60.59","225","25.7","103.80","21.71","30.00","38.89","20.21","28.39","0","0"
"Ed Davis","Ed-Davis-1265","3400","PF/C","54.36","225","18.7","114.62","10.40","19.00","34.48","14.1","18.87","0","0"
"Klay Thompson","Klay-Thompson-13315","6200","SG","36.98","235.5","33.7","103.10","25.98","34.00","45.71","19.82","34.06","0","0"
"T.J. McConnell","T.J.-McConnell-18956","3600","PG/SG","37.46","218.5","25.2","108.33","18.81","24.00","32.13","16.72","19.76","0","0"
"Mike Muscala","Mike-Muscala-17379","4000","PF/C","52.17","218.5","27.2","108.33","14.87","24.00","40.49","21.9","21.9","0","0"
"Jusuf Nurkic","Jusuf-Nurkic-18619","6700","C","49.93","216","28.6","104.50","23.60","29.00","47.4","20.24","36.66","0","0"
"Rodions Kurucs","Rodions-Kurucs-408801","3200","SF/PF","49.73","225","14.2","114.62","23.08","19.00","18.02","3.43","17.48","0","0"
"Nikola Jokic","Nikola-Jokic-31812","9400","C","50.74","218.5","34.0","99.62","25.73","35.00","65.18","21.5","51.2","0","0"
"Marc Gasol","Marc-Gasol-1493","7800","C","53.45","196.5","33.4","103.30","19.67","33.00","55.75","24.7","42.3","0","0"
"Marvin Williams","Marvin-Williams-1318","4900","SF/PF","53.97","224.5","27.6","103.00","15.60","29.00","44.11","22.64","26.57","0","0"
"Cody Zeller","Cody-Zeller-16836","4900","C","54.02","224.5","24.4","103.00","13.39","27.00","38.18","14.95","26.55","0","0"
"Tim Hardaway Jr.","Tim-Hardaway-Jr.-16879","6600","SG/SF","50.47","224.5","34.8","100.17","24.32","36.00","55.2","24.12","35.68","0","0"
"Cedi Osman","Cedi-Osman-18912","4600","SF/PF","39.46","219","32.9","103.60","16.10","31.00","32.93","11.28","24.85","0","0"
"Nemanja Bjelica","Nemanja-Bjelica-31814","4200","SF/PF","47.60","235.5","24.0","98.20","18.87","23.00","36.73","15.02","22.59","0","0"
"Damian Lillard","Damian-Lillard-13900","8500","PG","45.37","216","36.6","104.50","31.21","35.00","58.38","21.96","45.57","0","0"
"Brook Lopez","Brook-Lopez-1498","4800","C","48.42","219","29.2","98.80","18.50","28.00","38.85","17.08","25.73","0","0"
"Spencer Dinwiddie","Spencer-Dinwiddie-18588","6500","PG/SG","55.58","225","31.4","114.62","26.91","32.00","54.05","24.19","34.76","0","0"
"JaMychal Green","JaMychal-Green-18729","4600","SF/PF","53.45","196.5","24.4","103.30","20.38","24.00","41.41","21.49","24.5","0","0"
"James Johnson","James-Johnson-1195","3600","SF/PF","40.00","196.5","19.4","106.90","22.98","19.00","25.03","10.1","19.12","0","0"
"Al-Farouq Aminu","Al-Farouq-Aminu-1279","4500","SF/PF","37.39","216","32.6","104.50","12.90","29.00","36.67","17.72","23.78","0","0"
"Monte Morris","Monte-Morris-37860","4000","PG","45.74","218.5","25.7","99.62","20.61","28.00","31.46","16.33","21.13","0","0"
"Maurice Harkless","Maurice-Harkless-16971","3700","SF/PF","37.39","216","23.0","104.50","11.59","26.00","30.18","13.0","19.37","0","0"
"Justise Winslow","Justise-Winslow-18921","5200","SF/PF","37.49","196.5","31.6","106.90","21.55","29.00","41.92","20.81","27.06","0","0"
"Trae Young","Trae-Young-409063","6100","PG","50.94","222","30.6","105.10","31.41","31.00","36.99","11.63","31.59","0","0"
"Greg Monroe","Greg-Monroe-1487","3600","C","50.80","216","6.3","105.50","27.56","17.00","26.08","11.81","18.63","0","0"
"Nicolas Batum","Nicolas-Batum-1315","4700","SG/SF","38.79","224.5","26.5","103.00","12.87","29.00","33.24","17.05","24.19","0","0"
"Trey Lyles","Trey-Lyles-18942","4400","SF/PF","48.14","218.5","20.0","99.62","23.30","22.00","35.66","18.74","22.61","0","0"
"Kent Bazemore","Kent-Bazemore-13987","5700","SG/SF","43.11","222","27.8","105.10","24.26","30.00","39.8","13.69","29.31","0","0"
"Pascal Siakam","Pascal-Siakam-35186","5900","PF","50.80","216","30.6","105.50","19.47","32.00","44.7","17.17","30.18","0","0"
"Sterling Brown","Sterling-Brown-37821","3300","SG/SF","36.64","219","22.3","98.80","11.57","22.00","31.69","16.9","16.9","0","0"
"Mike Conley","Mike-Conley-1062","8100","PG","40.29","196.5","34.0","103.30","26.41","35.00","61.66","23.36","41.41","0","0"
"Tomas Satoransky ","Tomas-Satoransky--36031","4200","PG/SG","46.30","225","27.0","103.80","12.11","25.00","30.63","12.42","21.42","0","0"
"Kawhi Leonard","Kawhi-Leonard-13310","9300","SF/PF","45.13","216","35.8","105.50","29.36","33.00","62.94","22.99","47.11","0","0"
"Noah Vonleh","Noah-Vonleh-18597","5400","PF/C","50.02","224.5","28.8","100.17","13.11","28.00","38.22","18.28","27.32","0","0"
"Hassan Whiteside","Hassan-Whiteside-18664","7500","C","47.48","196.5","26.0","106.90","21.22","26.00","48.66","18.37","37.87","0","0"
"Gordon Hayward","Gordon-Hayward-1239","5800","SF/PF","54.28","222","25.5","101.75","22.74","27.00","43.09","20.31","29.31","0","0"
"Jarrett Allen","Jarrett-Allen-37794","5600","C","54.36","225","28.0","114.62","16.21","28.00","38.98","17.16","28.27","0","0"
"Miles Bridges","Miles-Bridges-409262","3600","SF/PF","53.97","224.5","19.8","103.00","18.17","20.00","19.67","4.15","18.13","0","0"
"Emmanuel Mudiay","Emmanuel-Mudiay-18936","5700","PG","42.93","224.5","29.8","100.17","26.92","32.00","38.61","17.81","28.54","0","0"
"Mitchell Robinson","Mitchell-Robinson-408821","3400","C","52.28","224.5","17.7","100.17","11.00","20.00","17.84","4.11","16.85","0","0"
"Bradley Beal","Bradley-Beal-13898","7900","SG","43.52","225","36.4","103.80","30.23","35.00","61.65","26.53","39.07","0","0"
"Thon Maker","Thon-Maker-35194","3100","PF/C","48.02","219","13.0","98.80","18.03","18.00","25.67","12.44","15.28","0","0"
"Andre Iguodala","Andre-Iguodala-1334","3600","SG/SF","36.98","235.5","22.2","103.10","11.62","22.00","27.14","10.36","17.68","0","0"
"Joel Embiid","Joel-Embiid-18578","10600","C","52.17","218.5","33.0","108.33","28.39","34.00","63.06","21.95","51.9","0","0"
"Kosta Koufos","Kosta-Koufos-1386","3000","C","49.34","235.5","15.2","98.20","13.86","14.00","28.18","14.7","14.7","0","0"
"Jayson Tatum","Jayson-Tatum-37782","6300","SF/PF","54.28","222","29.0","101.75","20.71","31.00","38.99","16.12","30.82","0","0"
"Steven Adams","Steven-Adams-16848","6300","C","49.57","218.5","30.8","102.62","21.31","32.00","39.93","18.65","30.67","0","0"
"Channing Frye","Channing-Frye-1484","3000","PF/C","55.34","219","5.8","103.60","11.04","15.00","21.73","10.15","14.61","0","0"
"Marvin Bagley III","Marvin-Bagley-III-409321","5700","PF/C","47.60","235.5","21.5","98.20","18.46","27.00","28.57","5.43","27.71","0","0"
"Collin Sexton","Collin-Sexton-408896","5200","PG","46.58","219","32.4","103.60","26.49","32.00","34.43","3.55","25.15","0","0"
"Rodney McGruder","Rodney-McGruder-16850","4000","SG/SF","37.39","196.5","25.4","106.90","14.65","27.00","30.55","13.08","19.35","0","0"
"Landry Shamet","Landry-Shamet-408841","3200","PG/SG","47.13","218.5","19.5","108.33","16.66","24.00","16.77","3.54","15.46","0","0"
"Enes Kanter","Enes-Kanter-13299","7100","C","56.62","224.5","25.0","100.17","19.59","27.00","45.63","17.03","34.26","0","0"
"Terry Rozier","Terry-Rozier-18894","4600","PG/SG","51.62","222","25.7","101.75","17.52","21.00","35.31","18.85","22.15","0","0"
"Ben Simmons","Ben-Simmons-35184","8700","PG/SF","37.46","218.5","33.3","108.33","22.08","35.00","53.87","17.87","41.86","0","0"
"Malik Beasley","Malik-Beasley-35213","3500","PG/SG","38.74","218.5","23.2","99.62","16.71","23.00","30.74","16.79","16.79","0","0"
"Danny Green","Danny-Green-940","4600","SG/SF","38.46","216","31.3","105.50","11.94","29.00","31.22","15.3","22.02","0","0"
"Marcus Smart","Marcus-Smart-18567","4700","PG/SG","54.78","222","28.0","101.75","14.57","24.00","32.19","12.59","22.45","0","0"
"Kyle Lowry","Kyle-Lowry-1057","8200","PG","47.65","216","33.8","105.50","19.53","33.00","55.71","21.22","39.23","0","0"
"Russell Westbrook","Russell-Westbrook-1083","10800","PG","49.47","218.5","34.2","102.62","34.62","35.00","57.22","17.6","51.46","0","0"
"Willie Cauley-Stein","Willie-Cauley-Stein-18951","6400","C","49.34","235.5","27.2","98.20","19.92","28.00","42.26","17.44","30.49","0","0"
"D'Angelo Russell","D'Angelo-Russell-18947","7300","PG/SG","55.58","225","30.6","114.62","32.22","30.00","46.62","17.2","34.74","0","0"
"Bogdan Bogdanovic","Bogdan-Bogdanovic-37899","6000","SG/SF","44.72","235.5","27.5","98.20","23.70","30.00","45.49","23.81","28.34","0","0"
"Marcus Morris","Marcus-Morris-13316","6500","SF/PF","45.42","222","29.8","101.75","21.10","29.00","41.11","16.17","30.68","0","0"
"Mario Hezonja","Mario-Hezonja-18923","3200","SF/PF","39.43","224.5","14.8","100.17","17.11","15.00","28.26","13.39","15.11","0","0"
"Jordan Clarkson","Jordan-Clarkson-18631","5300","PG/SG","48.45","219","26.6","103.60","29.04","24.00","40.81","22.09","24.96","0","0"
"Michael Kidd-Gilchrist","Michael-Kidd-Gilchrist-13896","3700","SF/PF","38.79","224.5","20.6","103.00","15.56","20.00","28.5","14.84","17.38","0","0"
"Serge Ibaka","Serge-Ibaka-1294","6300","PF/C","51.85","216","27.1","105.50","24.44","30.00","41.98","17.62","29.52","0","0"
"Torrey Craig","Torrey-Craig-37861","3200","SG/SF","38.74","218.5","19.2","99.62","14.32","22.00","20.93","9.19","14.97","0","0"
"C.J. McCollum","C.J.-McCollum-17121","7100","PG/SG","47.99","216","37.5","104.50","27.51","35.00","43.87","19.17","33.11","0","0"
"Giannis Antetokounmpo","Giannis-Antetokounmpo-16852","11000","SF/PF","45.66","219","33.6","98.80","26.34","33.00","59.87","19.38","51.26","0","0"
"Draymond Green","Draymond-Green-13976","6800","PF/C","57.60","235.5","26.5","103.10","17.83","32.00","39.02","14.04","31.62","0","0"
"Kevin Durant","Kevin-Durant-1348","10300","SF/PF","52.48","235.5","35.2","103.10","28.47","34.00","61.62","24.85","47.69","0","0"
"John Collins","John-Collins-37823","7200","PF/C","45.66","222","32.0","105.10","26.59","33.00","51.9","20.63","33.16","0","0"
"Fred VanVleet","Fred-VanVleet-36011","4800","PG/SG","40.36","216","25.6","105.50","17.33","24.00","35.26","18.13","22.08","0","0"
"Jordan Bell","Jordan-Bell-37877","3200","PF/C","52.75","235.5","15.0","103.10","14.60","16.00","24.19","12.43","14.69","0","0"
"Eric Bledsoe","Eric-Bledsoe-1031","7600","PG/SG","45.62","219","30.8","98.80","25.74","31.00","50.79","21.97","34.88","0","0"
"Kemba Walker","Kemba-Walker-13335","9200","PG","50.03","224.5","33.5","103.00","29.88","34.00","55.98","21.19","42.22","0","0"
"Bojan Bogdanovic","Bojan-Bogdanovic-18571","5200","SG/SF","33.95","218.5","32.7","107.67","22.94","33.00","37.15","18.87","23.74","0","0"
"Alex Len","Alex-Len-16886","3300","C","45.66","222","12.8","105.10","20.34","14.00","21.24","10.96","15","0","0"
"Victor Oladipo","Victor-Oladipo-16807","8400","PG/SG","52.64","218.5","29.0","107.67","21.88","32.00","52.95","23.26","38.26","0","0"
"Nik Stauskas","Nik-Stauskas-18636","3100","SG/SF","36.45","216","14.9","104.50","16.69","20.00","23.12","10.93","14.07","0","0"
"Larry Nance","Larry-Nance-18946","6200","PF/C","55.34","219","25.8","103.60","12.79","32.00","43.66","22.59","28.17","0","0"
"Domantas Sabonis","Domantas-Sabonis-35217","6500","PF/C","52.15","218.5","23.4","107.67","23.48","25.00","44.06","22.32","29.45","0","0"
"Paul George","Paul-George-1245","9100","SF/PF","48.48","218.5","33.0","102.62","28.90","35.00","57.27","25.31","41.08","0","0"
"Ersan Ilyasova","Ersan-Ilyasova-1301","3500","PF/C","45.66","219","15.5","98.80","22.61","17.00","24.48","12.77","15.75","0","0"
"Jonas Jerebko","Jonas-Jerebko-1106","3800","SF/PF","52.48","235.5","24.0","103.10","12.81","18.00","30.89","13.24","17.02","0","0"
"Stephen Curry","Stephen-Curry-1079","10200","PG/SG","53.65","235.5","33.3","103.10","30.84","34.00","63.26","24.96","45.71","0","0"
"John Wall","John-Wall-1084","9500","PG","46.30","225","32.8","103.80","31.89","35.00","47.98","16.7","42.5","0","0"
"Nerlens Noel","Nerlens-Noel-18575","3300","C","49.57","218.5","15.7","102.62","19.23","15.00","24.8","12.51","14.72","0","0"
"Pat Connaughton","Pat-Connaughton-18939","3300","SG/SF","36.64","219","20.2","98.80","11.28","18.00","27.11","11.9","14.55","0","0"
"Kyrie Irving","Kyrie-Irving-13334","9000","PG","54.78","222","30.6","101.75","30.82","30.00","54.02","21.07","39.46","0","0"
"Cory Joseph","Cory-Joseph-13339","4100","PG","37.16","218.5","24.5","107.67","17.72","25.00","31.5","13.6","17.96","0","0"
"Furkan Korkmaz","Furkan-Korkmaz-35185","3800","SG/SF","47.13","218.5","17.2","108.33","22.24","27.00","32.94","16.57","16.57","0","0"
"Jeremy Lin","Jeremy-Lin-916","4500","PG/SG","50.94","222","13.5","105.10","23.97","20.00","30.33","14.47","19.42","0","0"
"Dwyane Wade","Dwyane-Wade-967","5500","PG/SG","44.55","196.5","25.7","106.90","29.65","22.00","33.58","15.6","23.5","0","0"
"Tyreke Evans","Tyreke-Evans-1070","4400","SG/SF","47.35","218.5","24.0","107.67","24.41","18.00","25.3","10.88","18.67","0","0"
"Kelly Olynyk","Kelly-Olynyk-16845","5000","PF/C","53.75","196.5","26.1","106.90","21.64","22.00","31.67","16.03","21.21","0","0"
"Jaylen Brown","Jaylen-Brown-35181","5400","SG/SF","45.42","222","25.7","101.75","27.59","25.00","43.03","18.88","22.72","0","0"
"Darren Collison","Darren-Collison-1060","5900","PG","37.16","218.5","31.8","107.67","16.86","28.00","33.97","15.03","24.76","0","0"
"Thaddeus Young","Thaddeus-Young-1289","5700","SF/PF","50.18","218.5","31.8","107.67","18.10","30.00","34.17","12.55","23.76","0","0"
"Jaren Jackson","Jaren-Jackson-409099","5800","PF/C","53.45","196.5","25.3","103.30","20.74","30.00","26.55","9.79","24.05","0","0"
"Alfonzo McKinnie","Alfonzo-McKinnie-37808","3200","SF/PF","42.74","235.5","17.5","103.10","15.55","17.00","25.27","13.12","13.12","0","0"
"Austin Rivers","Austin-Rivers-13903","3900","PG/SG","41.02","225","25.1","103.80","16.01","20.00","24.14","13.08","15.91","0","0"
"Donte DiVincenzo","Donte-DiVincenzo-408950","3000","PG/SF","36.64","219","13.7","98.80","16.58","18.00","12.36","2.26","12.23","0","0"
"Kelly Oubre","Kelly-Oubre-18925","5400","SG/SF","30.85","225","28.1","103.80","19.85","26.00","38.19","18.0","22.01","0","0"
"Rodney Hood","Rodney-Hood-18629","4700","SG/SF","48.45","219","25.9","103.60","18.93","24.00","30.93","12.32","19.07","0","0"
"Robert Williams","Robert-Williams-408780","3500","PF/C","56.39","222","15.3","101.75","12.07","15.00","14.41","2.57","14.2","0","0"
"Terrance Ferguson","Terrance-Ferguson-37871","3200","SG/SF","33.33","218.5","22.4","102.62","8.24","23.00","19.6","8.38","12.76","0","0"
"Doug McDermott","Doug-McDermott-18583","3100","SF/PF","33.95","218.5","16.8","107.67","18.07","20.00","24.71","12.36","12.36","0","0"
"Tyler Johnson","Tyler-Johnson-18720","4400","PG/SG","43.03","196.5","15.2","106.90","18.27","21.00","22.41","10.03","17.29","0","0"
"Malik Monk","Malik-Monk-37827","3400","PG/SG","50.03","224.5","13.8","103.00","28.40","15.00","20.27","10.94","13.24","0","0"
"Tony Parker","Tony-Parker-982","4300","PG","44.58","224.5","21.3","103.00","28.51","19.00","27.82","16.49","16.49","0","0"
"Thomas Bryant ","Thomas-Bryant--37884","3400","PF/C","60.59","225","17.6","103.80","14.90","18.00","21.64","10.22","12.98","0","0"
"Zach Collins","Zach-Collins-37866","3300","PF/C","54.23","216","15.7","104.50","12.84","16.00","19.28","9.49","12.55","0","0"
"Jared Dudley","Jared-Dudley-1319","3100","SF/PF","36.45","225","15.3","114.62","10.16","16.00","20.96","10.25","11.73","0","0"
"DeAndre Bembry","DeAndre-Bembry-35198","4100","SG/SF","34.29","222","20.2","105.10","20.90","20.00","22.89","12.88","15.33","0","0"
"Vince Carter","Vince-Carter-1066","3100","SG","33.07","222","13.6","105.10","20.11","15.00","19.27","9.74","11.16","0","0"
"Jeff Green","Jeff-Green-1314","4300","SF/PF","48.24","225","26.0","103.80","12.56","19.00","26.57","12.18","15.5","0","0"
"Aron Baynes","Aron-Baynes-14114","4200","C","56.39","222","13.8","101.75","12.26","15.00","24.12","10.18","15.02","0","0"
"Myles Turner","Myles-Turner-18915","7400","C","53.58","218.5","30.8","107.67","22.87","29.00","43.32","19.79","26.46","0","0"
"OG Anunoby","OG-Anunoby-37807","3200","SF/PF","38.46","216","16.7","105.50","17.46","17.00","21.35","11.34","11.34","0","0"
"Tyler Dorsey","Tyler-Dorsey-37825","3100","PG/SG","33.07","222","12.0","105.10","27.55","14.00","18.18","8.67","10.96","0","0"
"David Nwaba","David-Nwaba-36526","3500","SG/SF","39.46","219","10.0","103.60","37.28","15.00","21.77","12.32","12.32","0","0"
"Bam Adebayo","Bam-Adebayo-37835","5900","PF/C","47.48","196.5","25.7","106.90","15.53","22.00","30.12","17.93","20.28","0","0"
"Delon Wright","Delon-Wright-18907","3200","PG/SG","40.36","216","16.0","105.50","17.60","14.00","18.02","8.74","10.95","0","0"
"Meyers Leonard","Meyers-Leonard-13905","3200","C","54.23","216","11.1","104.50","14.50","10.00","17.84","8.47","10.4","0","0"
"Alex Abrines","Alex-Abrines-36054","3000","SG/SF","33.33","218.5","17.7","102.62","13.20","15.00","18.75","9.74","9.74","0","0"
"Nick Young","Nick-Young-1063","3000","SG/SF","39.52","218.5","0","99.62","0","11.00","16.0","9.71","9.71","0","0"
"Joakim Noah","Joakim-Noah-1404","3200","C","51.77","196.5","15.4","103.30","21.67","14.00","17.38","9.27","10.21","0","0"
"Courtney Lee","Courtney-Lee-1025","3100","SG/SF","39.43","224.5","10.2","100.17","18.17","13.00","18.6","9.9","9.9","0","0"
"C.J. Miles","C.J.-Miles-1299","3100","SG/SF","38.46","216","14.0","105.50","15.22","11.00","16.49","8.0","9.87","0","0"
"Shabazz Napier","Shabazz-Napier-18598","3400","PG/SG","46.67","225","16.5","114.62","29.18","12.00","19.85","8.65","10.67","0","0"
"Yogi Ferrell","Yogi-Ferrell-35999","3400","PG/SG","49.53","235.5","7.2","98.20","22.94","13.00","18.05","9.18","10.39","0","0"
"Frank Kaminsky","Frank-Kaminsky-18920","3400","PF/C","60.39","224.5","16.2","103.00","18.29","11.00","16.83","8.52","10.35","0","0"
"Daniel Theis","Daniel-Theis-37784","4400","PF/C","56.39","222","18.2","101.75","19.50","13.00","22.81","12.08","13.38","0","0"
"Omri Casspi","Omri-Casspi-1270","3200","SF/PF","37.71","196.5","13.6","103.30","14.15","10.00","16.45","7.88","9.36","0","0"
"Patrick Patterson","Patrick-Patterson-1260","3100","PF/C","54.07","218.5","15.3","102.62","12.11","14.00","15.91","7.54","8.96","0","0"
"Shake Milton","Shake-Milton-409061","3000","PG/SG","47.13","218.5","5.7","108.33","14.87","11.00","9.15","1.93","8.43","0","0"
"Derrick Jones","Derrick-Jones-36064","3700","SF/PF","37.39","196.5","21.2","106.90","11.58","13.00","18.75","10.22","10.22","0","0"
"Jake Layman","Jake-Layman-35216","3300","SF/PF","37.39","216","14.8","104.50","20.47","12.00","14.71","7.51","8.91","0","0"
"Jaron Blossomgame","Jaron-Blossomgame-570197","3400","SF/PF","39.46","219","14.8","103.60","10.26","12.00","9.13","1.79","8.95","0","0"
"MarShon Brooks","MarShon-Brooks-188837","3100","SG","52.70","196.5","13.4","103.30","22.81","10.00","11.95","5.39","7.69","0","0"
"Hamidou Diallo","Hamidou-Diallo-408800","3100","SG/SF","33.33","218.5","7.0","102.62","23.46","11.00","8.18","2.01","7.7","0","0"
"Quinn Cook","Quinn-Cook-31771","3200","PG","53.65","235.5","11.8","103.10","21.08","10.00","14.14","7.58","7.58","0","0"
"Justin Jackson","Justin-Jackson-37895","3300","SF","40.19","235.5","17.3","98.20","15.07","10.00","11.9","6.3","7.82","0","0"
"Semi Ojeleye","Semi-Ojeleye-37786","3100","SF/PF","45.42","222","12.3","101.75","20.11","10.00","12.33","6.39","6.39","0","0"
"Willy Hernangomez","Willy-Hernangomez-18901","3300","C","54.02","224.5","8.5","103.00","25.46","5.00","11.9","6.31","6.52","0","0"
"Luke Kornet","Luke-Kornet-37800","3000","PF/C","39.09","224.5","4.5","100.17","10.36","7.00","8.67","4.14","5.5","0","0"
"Justin Anderson","Justin-Anderson-18927","3100","SF/PF","34.29","222","5.0","105.10","26.27","5.00","8.17","3.94","5.13","0","0"
"Jalen Jones","Jalen-Jones-35996","3200","SF/PF","39.46","219","7.8","103.60","14.83","7.00","8.81","4.14","5.15","0","0"
"Jason Smith","Jason-Smith-1467","3000","PF/C","48.42","219","7.3","98.80","20.98","3.00","5.21","3.14","3.14","0","0"
"Wayne Ellington","Wayne-Ellington-1009","4300","PG/SG","37.49","196.5","26.0","106.90","14.86","4.00","5.92","2.7","3.37","0","0"
