"nameCol","idCol","salaryCol","positionCol","dvpCol","ouCol","mpgCol","paceCol","usgCol","pminCol","ceilCol","floorCol","pointsCol","predictCol","actualCol"
"Maurice Harkless","Maurice-Harkless-16971","3400","SF/PF","29.81","213.5","26.0","104.50","12.84","27.00","35.8","15.42","22.98","0","0"
"Kyle Anderson","Kyle-Anderson-18615","4600","PG/SF","37.94","212","26.4","103.30","15.45","33.00","40.37","14.9","29.51","0","0"
"Jusuf Nurkic","Jusuf-Nurkic-18619","6600","C","52.52","213.5","27.3","104.50","25.47","29.00","50.98","21.77","39.43","0","0"
"Al-Farouq Aminu","Al-Farouq-Aminu-1279","4500","SF/PF","29.81","213.5","31.0","104.50","12.91","30.00","40.12","19.38","26.02","0","0"
"Shelvin Mack","Shelvin-Mack-13354","3600","PG","43.82","212","22.8","103.30","15.87","22.00","31.61","15.28","20.43","0","0"
"Willie Cauley-Stein","Willie-Cauley-Stein-18951","5700","C","48.74","212","26.9","98.20","18.38","30.00","44.64","18.42","32.21","0","0"
"Tyson Chandler","Tyson-Chandler-1482","3800","C","50.82","233.5","19.0","112.50","6.57","24.00","40.62","21.38","21.38","0","0"
"Damian Lillard","Damian-Lillard-13900","8500","PG","49.58","213.5","34.8","104.50","28.85","36.00","60.0","22.58","46.84","0","0"
"Iman Shumpert","Iman-Shumpert-13350","3600","SG/SF","36.98","212","27.2","98.20","17.48","26.00","28.62","13.91","19.35","0","0"
"Ricky Rubio","Ricky-Rubio-1001","5600","PG","40.24","213.5","30.0","98.88","24.56","32.00","39.85","15.95","29.92","0","0"
"Marc Gasol","Marc-Gasol-1493","7700","C","57.26","212","30.9","103.30","21.14","33.00","54.74","23.37","40.64","0","0"
"Derrick Favors","Derrick-Favors-1266","4900","PF/C","53.04","213.5","22.5","98.88","20.41","24.00","33.95","15.81","25.7","0","0"
"JaMychal Green","JaMychal-Green-18729","4300","SF/PF","57.26","212","22.9","103.30","18.05","22.00","37.43","19.59","22.36","0","0"
"Justin Jackson","Justin-Jackson-37895","3500","SF/PF","36.98","212","20.9","98.20","14.55","25.00","27.69","14.59","18.12","0","0"
"Anthony Davis","Anthony-Davis-13895","11700","PF/C","57.90","233.5","33.8","104.88","32.90","37.00","89.41","30.93","60.41","0","0"
"Julius Randle","Julius-Randle-18632","7500","PF/C","57.90","233.5","31.2","104.88","29.09","29.00","52.26","22.41","37.73","0","0"
"Bogdan Bogdanovic","Bogdan-Bogdanovic-37899","5600","SG/SF","42.54","212","27.9","98.20","23.23","30.00","44.46","23.49","27.93","0","0"
"Mike Conley","Mike-Conley-1062","7900","PG","43.82","212","33.9","103.30","24.42","35.00","58.19","22.99","39.37","0","0"
"Tim Frazier","Tim-Frazier-18743","4300","PG/SG","35.73","233.5","27.7","104.88","13.54","24.00","35.02","14.43","21.38","0","0"
"Donovan Mitchell","Donovan-Mitchell-37875","7100","PG/SG","47.98","213.5","32.7","98.88","33.40","34.00","46.06","19.45","35.24","0","0"
"LeBron James","LeBron-James-1227","10900","SF/PF","48.95","233.5","34.9","112.50","33.48","36.00","65.3","22.67","53.97","0","0"
"De'Aaron Fox","De'Aaron-Fox-37900","7500","PG","45.82","212","29.4","98.20","29.59","35.00","45.76","18.95","37.08","0","0"
"Evan Turner","Evan-Turner-1291","3900","SG/SF","39.96","213.5","23.7","104.50","16.81","23.00","28.15","15.87","19.07","0","0"
"Nemanja Bjelica","Nemanja-Bjelica-31814","5000","SF/PF","40.68","212","23.4","98.20","18.45","27.00","39.73","16.11","24.3","0","0"
"Garrett Temple","Garrett-Temple-14077","4100","SG/SF","41.42","212","28.6","103.30","13.69","28.00","31.94","14.13","19.74","0","0"
"Brandon Ingram","Brandon-Ingram-35227","5600","PG/SG","49.87","233.5","0","112.50","0","29.00","40.04","16.36","26.48","0","0"
"Lonzo Ball","Lonzo-Ball-37885","6800","PG","50.15","233.5","33.9","112.50","19.91","32.00","42.81","16.26","32.19","0","0"
"Rudy Gobert","Rudy-Gobert-16935","7700","C","50.35","213.5","29.0","98.88","17.33","32.00","50.58","17.93","36.23","0","0"
"Buddy Hield","Buddy-Hield-35206","6700","SG/SF","36.98","212","30.8","98.20","26.38","30.00","47.28","20.82","31.54","0","0"
"Jrue Holiday","Jrue-Holiday-1073","9000","PG/SG","52.12","233.5","37.8","104.88","27.47","36.00","57.17","20.07","42.07","0","0"
"Jae Crowder","Jae-Crowder-13942","5000","SF/PF","39.69","213.5","24.2","98.88","17.18","28.00","39.36","17.78","23.18","0","0"
"C.J. McCollum","C.J.-McCollum-17121","6400","PG/SG","39.96","213.5","33.7","104.50","27.08","35.00","39.17","17.12","29.56","0","0"
"Solomon Hill","Solomon-Hill-16863","3800","SF/PF","37.54","233.5","27.8","104.88","9.89","25.00","26.81","14.49","16.99","0","0"
"Kosta Koufos","Kosta-Koufos-1386","3200","C","48.74","212","15.2","98.20","13.39","14.00","27.19","14.29","14.29","0","0"
"E'Twaun Moore","E'Twaun-Moore-18582","4400","SG/SF","35.84","233.5","24.5","104.88","14.31","25.00","31.41","15.97","19.45","0","0"
"Jaren Jackson","Jaren-Jackson-409099","5800","PF/C","57.26","212","24.1","103.30","17.55","29.00","29.8","9.37","25.45","0","0"
"Josh Hart","Josh-Hart-37889","4000","PG/SG","37.29","233.5","30.4","112.50","13.80","22.00","29.44","13.84","17.43","0","0"
"Kyle Kuzma","Kyle-Kuzma-37886","7200","SF/PF","48.95","233.5","35.0","112.50","25.95","32.00","40.3","17.5","31.14","0","0"
"Joe Ingles","Joe-Ingles-18627","5700","SG/SF","36.24","213.5","28.2","98.88","18.27","29.00","37.17","16.41","24.57","0","0"
"Darius Miller","Darius-Miller-13951","4000","SF/PF","37.54","233.5","26.2","104.88","14.25","28.00","30.46","16.96","16.96","0","0"
"Kyle Korver","Kyle-Korver-1269","3300","SG/SF","36.24","213.5","16.3","98.88","19.89","18.00","24.36","10.98","13.85","0","0"
"Nik Stauskas","Nik-Stauskas-18636","3100","SG/SF","35.62","213.5","13.8","104.50","20.48","18.00","21.03","9.95","12.8","0","0"
"Rajon Rondo","Rajon-Rondo-1085","5000","PG","50.15","233.5","0","112.50","0","20.00","37.48","20.17","20.17","0","0"
"Dante Exum","Dante-Exum-18626","3200","PG/SG","40.24","213.5","13.8","98.88","18.69","15.00","21.98","10.0","12.67","0","0"
"Lance Stephenson","Lance-Stephenson-947","3700","SG/SF","49.87","233.5","17.8","112.50","25.02","15.00","24.47","11.49","14.42","0","0"
"Zach Collins","Zach-Collins-37866","3300","PF/C","53.54","213.5","18.2","104.50","14.62","16.00","19.49","9.59","12.69","0","0"
"Kentavious Caldwell-Pope","Kentavious-Caldwell-Pope-16869","4100","SG/SF","37.29","233.5","25.3","112.50","18.18","20.00","30.04","15.76","15.76","0","0"
"Royce O'Neale","Royce-O'Neale-37872","3300","SF","39.69","213.5","16.2","98.88","13.22","16.00","18.5","9.3","12.52","0","0"
"Jahlil Okafor","Jahlil-Okafor-18902","3300","C","56.76","233.5","7.5","104.88","32.21","12.00","20.33","9.9","11.72","0","0"
"Seth Curry","Seth-Curry-16825","3100","PG/SG","35.62","213.5","16.5","104.50","14.13","16.00","20.78","10.85","10.85","0","0"
"Thabo Sefolosha","Thabo-Sefolosha-1271","3100","SF/PF","39.69","213.5","11.7","98.88","11.74","12.00","16.2","9.07","10.75","0","0"
"Yogi Ferrell","Yogi-Ferrell-35999","3400","PG/SG","45.82","212","11.9","98.20","27.63","15.00","19.77","10.26","11.62","0","0"
"Joakim Noah","Joakim-Noah-1404","3100","C","54.73","212","14.0","103.30","19.64","13.00","17.32","9.36","10.34","0","0"
"Meyers Leonard","Meyers-Leonard-13905","3300","PF/C","53.54","213.5","13.3","104.50","12.93","10.00","17.87","8.48","10.42","0","0"
"Omri Casspi","Omri-Casspi-1270","3200","SF/PF","37.94","212","11.3","103.30","19.72","10.00","16.56","7.95","9.47","0","0"
"Jevon Carter","Jevon-Carter-409100","3300","PG/SG","43.82","212","19.3","103.30","15.17","15.00","10.07","2.32","9.51","0","0"
"Wesley Johnson","Wesley-Johnson-1280","3000","SG/SF","37.54","233.5","5.0","104.88","16.00","12.00","15.84","8.44","8.44","0","0"
"Frank Jackson","Frank-Jackson-37855","3000","PG/SG","52.12","233.5","13.7","104.88","12.57","12.00","8.78","2.02","8.29","0","0"
"Troy Williams","Troy-Williams-36043","3100","SF/PF","36.98","212","14.6","98.20","13.99","8.00","11.86","5.97","7.41","0","0"
"Moritz Wagner","Moritz-Wagner-409281","3000","PF/C","54.80","233.5","8.2","112.50","22.33","8.00","4.91","0.88","4.84","0","0"
"Ivica Zubac","Ivica-Zubac-35226","3000","C","50.82","233.5","5.5","112.50","13.93","4.00","5.02","2.57","3.17","0","0"
