"nameCol","idCol","salaryCol","positionCol","dvpCol","ouCol","mpgCol","paceCol","usgCol","pminCol","ceilCol","floorCol","pointsCol","predictCol","actualCol"
"Wilson Chandler","Wilson-Chandler-1327","3800","SF/PF","0","223","0","108.33","0","30.00","36.91","17.54","24.67","0","0"
"Josh Hart","Josh-Hart-37889","4700","PG/SG","40.50","232.5","0","112.50","0","33.00","39.82","20.07","28.92","0","0"
"Maurice Harkless","Maurice-Harkless-16971","3700","SF/PF","0","223","0","104.50","0","26.00","35.38","15.24","22.71","0","0"
"Brandon Ingram","Brandon-Ingram-35227","5900","PG/SG","0","232.5","0","112.50","0","36.00","55.35","22.26","36.25","0","0"
"Justin Jackson","Justin-Jackson-37895","3200","SF/PF","0","232.5","0","98.20","0","26.00","29.48","15.78","19.55","0","0"
"Al-Farouq Aminu","Al-Farouq-Aminu-1279","4500","SF/PF","0","223","29.1","104.50","13.16","31.00","42.02","20.3","27.25","0","0"
"Jimmy Butler","Jimmy-Butler-13327","6700","SG/SF","0","223","0","108.33","0","35.00","53.69","22.23","40.13","0","0"
"Lonzo Ball","Lonzo-Ball-37885","6700","PG","0","232.5","0","112.50","0","37.00","51.87","20.07","38.97","0","0"
"Willie Cauley-Stein","Willie-Cauley-Stein-18951","6800","C","0","232.5","28.1","98.20","18.47","34.00","56.57","24.94","39.53","0","0"
"Kentavious Caldwell-Pope","Kentavious-Caldwell-Pope-16869","3700","SG/SF","40.50","232.5","0","112.50","0","25.00","40.91","21.42","21.42","0","0"
"Buddy Hield","Buddy-Hield-35206","7200","SG/SF","0","232.5","0","98.20","0","35.00","63.17","27.98","41.02","0","0"
"Damian Lillard","Damian-Lillard-13900","8200","PG","0","223","0","104.50","0","34.00","59.73","22.48","46.63","0","0"
"J.J. Redick","J.J.-Redick-1030","5100","SG/SF","0","223","0","108.33","0","31.00","38.22","17.73","28.46","0","0"
"Jusuf Nurkic","Jusuf-Nurkic-18619","7000","C","0","223","0","104.50","0","27.00","48.4","20.66","37.43","0","0"
"JaVale McGee","JaVale-McGee-1485","4700","C","0","232.5","0","112.50","0","20.00","35.35","15.41","25.09","0","0"
"Kosta Koufos","Kosta-Koufos-1386","3100","PF/C","0","232.5","0","98.20","0","15.00","31.42","16.29","16.29","0","0"
"Lance Stephenson","Lance-Stephenson-947","4000","SG/SF","0","232.5","0","112.50","0","20.00","35.56","16.67","20.92","0","0"
"Nemanja Bjelica","Nemanja-Bjelica-31814","5300","SF/PF","0","232.5","0","98.20","0","27.00","45.37","18.21","27.55","0","0"
"Kyle Kuzma","Kyle-Kuzma-37886","7700","SF/PF","0","232.5","0","112.50","0","37.00","51.34","22.39","39.77","0","0"
"C.J. McCollum","C.J.-McCollum-17121","6100","PG/SG","0","223","0","104.50","0","34.00","41.43","18.11","31.27","0","0"
"Meyers Leonard","Meyers-Leonard-13905","3200","PF/C","52.98","223","0","104.50","0","15.00","27.77","13.18","16.19","0","0"
"Ben Simmons","Ben-Simmons-35184","8500","PG/SF","0","223","0","108.33","0","36.00","56.03","17.94","42.32","0","0"
"Bogdan Bogdanovic","Bogdan-Bogdanovic-37899","5600","SG/SF","0","232.5","0","98.20","0","30.00","44.04","24.06","27.56","0","0"
"Mike Muscala","Mike-Muscala-17379","3700","PF/C","0","223","0","108.33","0","21.00","33.81","18.13","18.13","0","0"
"Joel Embiid","Joel-Embiid-18578","10200","C","0","223","0","108.33","0","34.00","59.85","20.84","49.14","0","0"
"Evan Turner","Evan-Turner-1291","3800","SG/SF","0","223","0","104.50","0","21.00","26.69","15.04","18.08","0","0"
"De'Aaron Fox","De'Aaron-Fox-37900","8400","PG","0","232.5","0","98.20","0","35.00","50.06","20.14","39.73","0","0"
"Iman Shumpert","Iman-Shumpert-13350","4300","SG/SF","0","232.5","0","98.20","0","27.00","28.82","14.27","19.93","0","0"
"Zach Collins","Zach-Collins-37866","3100","PF/C","52.98","223","0","104.50","0","17.00","21.63","10.64","14.08","0","0"
"T.J. McConnell","T.J.-McConnell-18956","3600","PG/SG","0","223","0","108.33","0","21.00","25.34","13.33","15.81","0","0"
"Seth Curry","Seth-Curry-16825","3100","PG/SG","0","223","0","104.50","0","18.00","24.36","12.72","12.72","0","0"
"Landry Shamet","Landry-Shamet-408841","3200","PG/SG","0","223","0","108.33","0","18.00","11.31","2.07","11.19","0","0"
"Tyson Chandler","Tyson-Chandler-1482","3600","C","0","232.5","0","112.50","0","12.00","21.56","11.47","11.47","0","0"
"Nik Stauskas","Nik-Stauskas-18636","3100","SG/SF","0","223","0","104.50","0","12.00","14.9","7.05","9.07","0","0"
"Yogi Ferrell","Yogi-Ferrell-35999","3100","PG/SG","0","232.5","0","98.20","0","11.00","14.26","7.33","8.59","0","0"
"Ivica Zubac","Ivica-Zubac-35226","5500","C","0","232.5","0","112.50","0","16.00","22.67","11.72","14.42","0","0"
"Furkan Korkmaz","Furkan-Korkmaz-35185","3500","SG/SF","0","223","0","108.33","0","14.00","17.29","9.03","9.03","0","0"
"Alex Caruso","Alex-Caruso-37888","3000","PG/SG","0","232.5","0","112.50","0","4.00","4.26","1.82","3.09","0","0"
