"nameCol","idCol","salaryCol","positionCol","dvpCol","ouCol","mpgCol","paceCol","usgCol","pminCol","ceilCol","floorCol","pointsCol","predictCol","actualCol"
"Austin Rivers","Austin-Rivers-13903","3400","PG/SG","41.97","229","21.3","103.80","17.49","30.00","37.38","20.25","24.64","0","0"
"Kevin Huerter","Kevin-Huerter-408969","3700","SG","41.00","229","24.9","105.10","13.87","32.00","26.2","9.66","23.73","0","0"
"Glenn Robinson","Glenn-Robinson-18621","3000","SF/PF","38.13","227","15.4","100.30","13.32","29.00","27.7","12.59","19.1","0","0"
"George Hill","George-Hill-993","3700","PG/SG","50.27","219.5","26.5","103.60","12.64","28.00","35.67","13.5","22.31","0","0"
"Rodney Hood","Rodney-Hood-18629","4400","SG/SF","46.41","219.5","32.9","103.60","17.50","33.00","42.82","17.13","26.48","0","0"
"Monte Morris","Monte-Morris-37860","3700","PG","48.75","206","24.3","99.62","15.86","27.00","33.09","17.89","22.22","0","0"
"Otto Porter","Otto-Porter-17069","6100","SF/PF","44.53","229","32.8","103.80","14.62","36.00","52.71","24.56","36.33","0","0"
"Alec Burks","Alec-Burks-13353","4000","PG/SG","46.41","219.5","21.7","103.60","25.47","28.00","40.02","23.78","23.78","0","0"
"Kent Bazemore","Kent-Bazemore-13987","4400","SG/SF","45.36","229","19.9","105.10","22.35","26.00","36.83","12.58","25.94","0","0"
"Kyle Anderson","Kyle-Anderson-18615","4500","PG/SF","33.35","209","32.7","103.30","10.50","33.00","35.22","14.4","26.52","0","0"
"Cedi Osman","Cedi-Osman-18912","4500","SF","35.16","219.5","34.0","103.60","16.09","34.00","34.9","11.82","26.2","0","0"
"Dewayne Dedmon","Dewayne-Dedmon-16894","3900","PF/C","54.29","229","23.9","105.10","13.72","23.00","31.86","13.25","22.42","0","0"
"Jeff Teague","Jeff-Teague-1005","6000","PG","50.53","221.5","30.3","100.67","19.88","34.00","48.48","17.47","34.12","0","0"
"Tomas Satoransky ","Tomas-Satoransky--36031","3700","PG/SG","55.77","229","21.6","103.80","14.48","30.00","30.13","12.22","21.07","0","0"
"Cody Zeller","Cody-Zeller-16836","4000","C","53.33","221.5","21.0","103.00","18.84","26.00","32.5","13.27","22.73","0","0"
"Davis Bertans","Davis-Bertans-36051","3500","PF/C","61.39","225.5","19.6","99.70","15.70","25.00","29.71","12.97","19.86","0","0"
"Jonathan Isaac","Jonathan-Isaac-37841","4200","PF","55.52","206","27.0","105.10","15.45","29.00","38.72","21.36","23.71","0","0"
"Lonzo Ball","Lonzo-Ball-37885","5200","PG","46.40","225.5","29.4","112.50","17.69","33.00","39.1","15.13","29.38","0","0"
"Tim Frazier","Tim-Frazier-18743","4500","PG/SG","43.35","227.5","26.0","104.88","14.21","28.00","40.22","17.35","25.33","0","0"
"Miles Bridges","Miles-Bridges-409262","4100","SF","54.74","221.5","19.6","103.00","16.81","28.00","24.35","5.98","22.93","0","0"
"Allen Crabbe","Allen-Crabbe-16978","3800","SG/SF","38.13","221","28.0","114.62","15.71","28.00","33.74","13.94","21.22","0","0"
"DeAndre Bembry","DeAndre-Bembry-35198","3700","SF","35.64","229","21.6","105.10","22.37","26.00","30.93","16.29","20.59","0","0"
"E'Twaun Moore","E'Twaun-Moore-18582","4000","SG/SF","32.63","227.5","28.4","104.88","19.95","30.00","34.19","15.25","22.17","0","0"
"Nikola Jokic","Nikola-Jokic-31812","9200","C","50.07","206","29.0","99.62","27.22","34.00","67.27","20.38","50.96","0","0"
"Trae Young","Trae-Young-409063","6000","PG","56.41","229","26.0","105.10","31.97","31.00","36.54","13.47","33.1","0","0"
"JaVale McGee","JaVale-McGee-1485","4800","C","55.71","225.5","21.7","112.50","16.54","24.00","37.25","16.23","26.44","0","0"
"Jamal Murray","Jamal-Murray-35211","6700","PG/SG","48.75","206","36.8","99.62","26.85","38.00","57.46","23.68","36.88","0","0"
"Reggie Jackson","Reggie-Jackson-13352","5100","PG/SG","47.35","227","27.6","100.30","24.55","30.00","39.1","14.69","27.99","0","0"
"Aaron Gordon","Aaron-Gordon-18601","6800","SF/PF","48.34","206","30.4","105.10","19.36","35.00","47.73","19.82","37.26","0","0"
"Steven Adams","Steven-Adams-16848","6700","C","63.18","221","32.8","102.62","16.27","34.00","48.24","24.1","36.63","0","0"
"Anthony Davis","Anthony-Davis-13895","11500","PF/C","48.79","227.5","37.0","104.88","29.56","38.00","91.44","32.79","62.93","0","0"
"Marc Gasol","Marc-Gasol-1493","8600","C","54.87","209","38.8","103.30","21.02","35.00","61.52","27.15","46.57","0","0"
"Stanley Johnson","Stanley-Johnson-18913","3600","SF/PF","38.13","227","20.9","100.30","23.53","25.00","32.72","15.44","19.49","0","0"
"Khris Middleton","Khris-Middleton-13990","7000","SG/SF","42.62","227","28.8","98.80","24.45","35.00","60.0","26.47","37.81","0","0"
"Collin Sexton","Collin-Sexton-408896","4900","PG","50.27","219.5","33.0","103.60","25.84","34.00","29.13","10.74","26.39","0","0"
"Kemba Walker","Kemba-Walker-13335","8100","PG","47.76","221.5","33.7","103.00","29.66","36.00","58.53","21.56","43.55","0","0"
"Malik Beasley","Malik-Beasley-35213","3500","SG","33.62","206","19.2","99.62","13.75","29.00","33.22","18.81","18.81","0","0"
"Joel Embiid","Joel-Embiid-18578","10300","C","55.69","229","31.5","108.33","31.63","36.00","67.17","23.38","55.15","0","0"
"Giannis Antetokounmpo","Giannis-Antetokounmpo-16852","11600","SF/PF","42.71","227","36.0","98.80","32.21","37.00","73.42","27.51","61.54","0","0"
"Eric Bledsoe","Eric-Bledsoe-1031","6900","PG/SG","39.78","227","31.0","98.80","22.32","34.00","53.51","22.37","36.55","0","0"
"Langston Galloway","Langston-Galloway-18717","3300","PG/SG","38.99","227","23.4","100.30","13.59","25.00","29.82","14.52","17.49","0","0"
"D.J. Augustin","D.J.-Augustin-1064","4400","PG","40.38","206","26.7","105.10","19.32","29.00","37.35","13.54","23.23","0","0"
"Serge Ibaka","Serge-Ibaka-1294","5800","PF/C","50.32","229","29.0","105.50","19.18","30.00","42.86","17.47","30.55","0","0"
"Mike Muscala","Mike-Muscala-17379","3800","PF/C","55.69","229","22.8","108.33","13.24","26.00","37.37","20.04","20.04","0","0"
"Jordan Clarkson","Jordan-Clarkson-18631","5300","PG/SG","46.41","219.5","25.4","103.60","30.53","28.00","46.12","24.86","27.9","0","0"
"Juan Hernangomez","Juan-Hernangomez-35212","4400","SF/PF","51.22","206","29.5","99.62","15.05","30.00","39.4","15.33","23.16","0","0"
"John Collins","John-Collins-37823","6300","C","54.29","229","29.6","105.10","21.72","30.00","50.84","20.71","33.08","0","0"
"Nicolas Batum","Nicolas-Batum-1315","4500","SG/SF","38.42","221.5","27.4","103.00","13.59","30.00","32.56","16.62","23.61","0","0"
"Jeremy Lamb","Jeremy-Lamb-13955","5900","SG/SF","45.69","221.5","32.7","103.00","20.60","32.00","41.76","18.33","30.91","0","0"
"Andrew Wiggins","Andrew-Wiggins-18620","5600","SG/SF","49.43","221.5","30.9","100.67","20.45","34.00","38.4","16.65","29.27","0","0"
"Andre Drummond","Andre-Drummond-13904","8800","C","49.27","227","30.7","100.30","25.06","34.00","56.37","20.98","45.9","0","0"
"Bradley Beal","Bradley-Beal-13898","8400","SG","49.75","229","37.0","103.80","24.45","38.00","69.13","29.75","43.81","0","0"
"D'Angelo Russell","D'Angelo-Russell-18947","7400","PG/SG","45.49","221","31.7","114.62","34.16","32.00","51.81","19.04","38.55","0","0"
"Jarrett Allen","Jarrett-Allen-37794","5400","C","49.16","221","30.1","114.62","14.59","30.00","38.74","17.12","28.07","0","0"
"Jonas Valanciunas","Jonas-Valanciunas-13301","4300","C","49.84","229","19.0","105.50","22.02","18.00","40.54","20.56","22.35","0","0"
"JaMychal Green","JaMychal-Green-18729","4400","SF/PF","54.87","209","24.3","103.30","19.29","24.00","38.53","19.97","22.85","0","0"
"Pat Connaughton","Pat-Connaughton-18939","3600","SG/SF","39.32","227","23.5","98.80","14.10","25.00","33.51","14.41","18.69","0","0"
"Kevon Looney","Kevon-Looney-18945","4200","PF/C","49.24","219.5","21.4","103.10","13.06","28.00","31.57","13.92","21.79","0","0"
"Luka Doncic","Luka-Doncic-408971","6700","PG","50.07","227.5","29.8","100.08","25.63","33.00","35.86","7.18","34.68","0","0"
"Kyle Lowry","Kyle-Lowry-1057","7700","PG","54.20","229","34.2","105.50","21.36","35.00","56.25","21.87","39.84","0","0"
"Joe Harris","Joe-Harris-18587","4000","SG/SF","38.13","221","29.8","114.62","17.08","28.00","30.09","13.79","20.65","0","0"
"Karl-Anthony Towns","Karl-Anthony-Towns-18937","9500","C","54.13","221.5","32.4","100.67","29.55","36.00","66.43","27.82","49.06","0","0"
"LaMarcus Aldridge","LaMarcus-Aldridge-1349","7800","PF/C","61.39","225.5","30.8","99.70","26.54","34.00","58.09","25.59","40.17","0","0"
"Kelly Oubre","Kelly-Oubre-18925","4600","SG/SF","44.53","229","24.9","103.80","19.46","27.00","41.0","19.33","23.63","0","0"
"Jordan Bell","Jordan-Bell-37877","3500","PF","49.24","219.5","13.7","103.10","14.97","19.00","29.7","15.21","17.98","0","0"
"DeAndre Jordan","DeAndre-Jordan-1486","6900","C","49.99","227.5","29.8","100.08","16.47","31.00","43.83","21.25","35.35","0","0"
"Nikola Mirotic","Nikola-Mirotic-18584","7200","SF/PF","45.22","227.5","31.6","104.88","20.73","32.00","55.27","23.31","36.82","0","0"
"Brandon Ingram","Brandon-Ingram-35227","5500","SG/SF","50.22","225.5","33.0","112.50","23.16","33.00","42.86","17.23","28.07","0","0"
"Jimmy Butler","Jimmy-Butler-13327","6900","SG/SF","46.45","229","30.8","108.33","23.70","35.00","47.03","19.47","35.15","0","0"
"Kawhi Leonard","Kawhi-Leonard-13310","9300","SF/PF","44.93","229","36.0","105.50","27.79","35.00","65.14","22.82","47.24","0","0"
"Garrett Temple","Garrett-Temple-14077","4100","SG/SF","34.10","209","34.2","103.30","12.63","33.00","33.41","15.0","20.78","0","0"
"Wesley Matthews","Wesley-Matthews-1339","4700","SG/SF","35.57","227.5","28.8","100.08","19.02","31.00","35.24","14.54","23.75","0","0"
"Solomon Hill","Solomon-Hill-16863","3300","SF/PF","39.86","227.5","22.6","104.88","7.82","25.00","31.81","16.67","16.67","0","0"
"Evan Fournier","Evan-Fournier-13913","5300","SG/SF","31.52","206","30.3","105.10","19.05","30.00","33.82","13.76","26.67","0","0"
"Dennis Schroder","Dennis-Schroder-18595","5800","PG/SG","45.97","221","27.0","102.62","28.78","29.00","44.39","22.86","29.09","0","0"
"Bryn Forbes","Bryn-Forbes-36052","3600","PG/SG","51.50","225.5","24.0","99.70","19.64","26.00","26.28","11.38","18.04","0","0"
"Wilson Chandler","Wilson-Chandler-1327","3800","SF/PF","38.04","229","28.4","108.33","13.38","30.00","28.41","13.5","18.99","0","0"
"Torrey Craig","Torrey-Craig-37861","3000","SG/SF","33.62","206","15.4","99.62","12.63","23.00","20.98","9.14","14.93","0","0"
"J.J. Redick","J.J.-Redick-1030","5200","SG/SF","37.29","229","28.2","108.33","23.82","30.00","34.66","16.08","25.81","0","0"
"Dennis Smith Jr.","Dennis-Smith-Jr.-37847","5600","PG","50.99","227.5","27.6","100.08","20.22","30.00","38.31","15.37","27.8","0","0"
"Russell Westbrook","Russell-Westbrook-1083","11200","PG","45.97","221","33.3","102.62","32.95","36.00","61.39","18.88","55.21","0","0"
"LeBron James","LeBron-James-1227","10500","SF/PF","50.88","225.5","34.1","112.50","33.50","35.00","62.56","21.71","51.7","0","0"
"Taj Gibson","Taj-Gibson-1277","4500","PF/C","52.81","221.5","24.1","100.67","16.38","26.00","30.17","12.3","22.12","0","0"
"Derrick Rose","Derrick-Rose-1086","5700","PG/SG","50.53","221.5","27.0","100.67","22.31","27.00","44.49","24.9","28.07","0","0"
"Jerian Grant","Jerian-Grant-18900","3300","PG","40.38","206","19.5","105.10","12.58","19.00","27.38","14.24","16.2","0","0"
"Nikola Vucevic","Nikola-Vucevic-13296","8700","C","55.52","206","31.0","105.10","28.23","32.00","52.02","19.66","42.64","0","0"
"Paul George","Paul-George-1245","8300","SF/PF","45.47","221","32.2","102.62","29.17","36.00","56.73","25.05","40.67","0","0"
"Frank Kaminsky","Frank-Kaminsky-18920","3700","PF/C","54.65","221.5","16.4","103.00","22.53","20.00","23.06","9.25","18.14","0","0"
"Rondae Hollis-Jefferson","Rondae-Hollis-Jefferson-18897","5300","PF/C","46.20","221","27.0","114.62","19.20","26.00","39.42","16.4","25.95","0","0"
"Tony Parker","Tony-Parker-982","3800","PG","36.40","221.5","23.2","103.00","23.59","20.00","31.29","18.59","18.59","0","0"
"Danny Green","Danny-Green-940","4400","SG/SF","35.94","229","30.1","105.50","12.95","30.00","30.69","14.84","21.45","0","0"
"Tobias Harris","Tobias-Harris-13332","7500","SF/PF","39.24","209","34.5","108.38","23.93","35.00","48.55","20.18","36.5","0","0"
"Jrue Holiday","Jrue-Holiday-1073","9100","PG/SG","54.14","227.5","37.2","104.88","29.66","38.00","59.37","20.75","44.24","0","0"
"Tyson Chandler","Tyson-Chandler-1482","3600","C","55.71","225.5","19.4","112.50","8.64","21.00","32.81","17.45","17.45","0","0"
"Danilo Gallinari","Danilo-Gallinari-1329","6600","SF/PF","39.24","209","33.3","108.38","20.71","32.00","45.11","18.1","31.97","0","0"
"Blake Griffin","Blake-Griffin-1503","9000","PF/C","53.57","227","35.3","100.30","31.08","36.00","54.69","19.8","43.23","0","0"
"Jerami Grant","Jerami-Grant-18576","4700","PF","45.47","221","30.5","102.62","13.70","30.00","34.42","15.53","22.57","0","0"
"Ben Simmons","Ben-Simmons-35184","8500","PG/SF","42.22","229","32.5","108.33","24.35","36.00","54.05","17.31","40.82","0","0"
"Paul Millsap","Paul-Millsap-1335","6500","PF/C","51.22","206","27.7","99.62","21.39","29.00","44.28","19.79","31.12","0","0"
"Marco Belinelli","Marco-Belinelli-1033","3500","SG/SF","34.76","225.5","20.0","99.70","19.97","20.00","24.28","11.73","16.71","0","0"
"Jaren Jackson","Jaren-Jackson-409099","6500","PF","54.87","209","26.5","103.30","21.30","30.00","35.18","9.49","31.02","0","0"
"Julius Randle","Julius-Randle-18632","7100","PF/C","48.79","227.5","28.1","104.88","28.96","26.00","47.05","25.5","33.87","0","0"
"Robert Covington","Robert-Covington-16874","6600","SF/PF","39.75","221.5","36.1","100.67","16.11","37.00","43.92","20.6","31.35","0","0"
"MarShon Brooks","MarShon-Brooks-188837","3000","SG","52.91","209","13.2","103.30","23.80","18.00","21.97","10.01","14.24","0","0"
"Jeff Green","Jeff-Green-1314","3700","SF/PF","55.58","229","21.2","103.80","14.89","22.00","29.93","13.72","17.46","0","0"
"Dario Saric","Dario-Saric-36004","4100","PF","49.48","221.5","20.1","100.67","20.37","22.00","32.65","15.66","19.31","0","0"
"Jeremy Lin","Jeremy-Lin-916","4900","PG/SG","56.41","229","23.6","105.10","24.43","22.00","35.54","17.22","23.02","0","0"
"Montrezl Harrell","Montrezl-Harrell-18930","6900","PF/C","52.88","209","28.2","108.38","24.82","29.00","48.53","25.35","32.46","0","0"
"Shelvin Mack","Shelvin-Mack-13354","3500","PG","41.54","209","23.0","103.30","16.85","20.00","25.12","13.34","16.45","0","0"
"Stephen Curry","Stephen-Curry-1079","9700","PG/SG","53.73","219.5","32.5","103.10","32.72","33.00","63.12","24.75","45.41","0","0"
"Rudy Gay","Rudy-Gay-1341","5700","SF/PF","45.26","225.5","25.2","99.70","15.73","27.00","34.55","13.7","26.6","0","0"
"Terrence Ross","Terrence-Ross-13902","5000","SG/SF","31.52","206","27.0","105.10","24.06","29.00","35.87","19.81","23.28","0","0"
"Spencer Dinwiddie","Spencer-Dinwiddie-18588","6300","PG/SG","45.49","221","29.7","114.62","25.09","29.00","45.0","20.19","29.18","0","0"
"Ed Davis","Ed-Davis-1265","3300","PF/C","49.16","221","14.4","114.62","15.03","16.00","27.95","11.41","15.28","0","0"
"Mike Conley","Mike-Conley-1062","8700","PG","41.54","209","35.5","103.30","30.88","35.00","60.03","23.22","40.18","0","0"
"Jonathon Simmons","Jonathon-Simmons-31808","3500","SG/SF","42.51","206","20.5","105.10","17.85","22.00","24.67","10.58","16.05","0","0"
"Tristan Thompson","Tristan-Thompson-13308","7300","C","49.37","219.5","34.6","103.60","18.12","34.00","46.08","20.22","33.54","0","0"
"Malcolm Brogdon","Malcolm-Brogdon-35195","6200","PG/SG","50.75","227","31.5","98.80","20.36","34.00","42.75","20.11","28.37","0","0"
"Kentavious Caldwell-Pope","Kentavious-Caldwell-Pope-16869","3500","SG/SF","35.02","225.5","23.1","112.50","14.46","22.00","30.56","16","16","0","0"
"Ish Smith","Ish-Smith-13958","3500","PG","44.55","227","21.7","100.30","22.58","19.00","26.08","11.14","15.93","0","0"
"Patty Mills","Patty-Mills-13977","3700","PG/SG","35.81","225.5","22.2","99.70","17.54","21.00","25.89","13.13","16.79","0","0"
"Pascal Siakam","Pascal-Siakam-35186","6100","PF","49.84","229","31.4","105.50","17.27","30.00","40.28","15.9","27.61","0","0"
"Thomas Bryant ","Thomas-Bryant--37884","3300","C","61.54","229","16.3","103.80","13.13","19.00","24.9","11.76","14.94","0","0"
"Patrick Beverley","Patrick-Beverley-14108","3600","PG/SG","44.44","209","19.0","108.38","14.47","20.00","30.63","16.25","16.25","0","0"
"Brook Lopez","Brook-Lopez-1498","5200","C","54.83","227","27.3","98.80","18.49","28.00","35.33","15.98","23.4","0","0"
"Lou Williams","Lou-Williams-1044","5500","PG/SG","43.72","209","22.7","108.38","31.84","24.00","37.56","15.07","24.63","0","0"
"Klay Thompson","Klay-Thompson-13315","7100","SG","37.03","219.5","35.4","103.10","28.78","33.00","42.66","18.34","31.62","0","0"
"DeMar DeRozan","DeMar-DeRozan-1053","8900","SG/SF","49.94","225.5","32.2","99.70","30.83","35.00","53.19","19.07","39.31","0","0"
"Jonas Jerebko","Jonas-Jerebko-1106","4300","SF/PF","44.50","219.5","22.4","103.10","13.85","23.00","34.1","14.67","19","0","0"
"Kevin Durant","Kevin-Durant-1348","10400","SF/PF","44.50","219.5","37.9","103.10","36.29","33.00","59.24","23.89","45.85","0","0"
"T.J. McConnell","T.J.-McConnell-18956","3400","PG/SG","42.22","229","20.5","108.33","14.04","20.00","23.9","12.57","14.91","0","0"
"Harrison Barnes","Harrison-Barnes-13901","6800","SF/PF","48.66","227.5","33.0","100.08","25.41","33.00","37.98","17.23","29.81","0","0"
"Zaza Pachulia","Zaza-Pachulia-1455","3200","C","49.27","227","12.0","100.30","14.46","14.00","23.39","11.44","13.94","0","0"
"Jakob Poeltl","Jakob-Poeltl-35187","3300","C","56.33","225.5","14.5","99.70","18.87","16.00","28.51","12.7","14.32","0","0"
"Andre Iguodala","Andre-Iguodala-1334","3600","SG/SF","37.03","219.5","26.6","103.10","8.29","22.00","22.46","8.91","15.64","0","0"
"Marcin Gortat","Marcin-Gortat-1479","3800","C","46.62","209","17.8","108.38","12.77","19.00","24.17","9.8","16.41","0","0"
"Trey Lyles","Trey-Lyles-18942","3500","SF/PF","51.22","206","16.5","99.62","25.38","15.00","23.72","12.92","15.06","0","0"
"Markieff Morris","Markieff-Morris-13314","6400","PF/C","61.54","229","28.6","103.80","21.45","30.00","37.47","19.47","27.35","0","0"
"Mohamed Bamba","Mohamed-Bamba-409026","3500","C","48.43","206","14.8","105.10","18.01","15.00","16.2","3.42","14.93","0","0"
"Shai Gilgeous-Alexander","Shai-Gilgeous-Alexander-408990","5100","PG","41.68","209","27.5","108.38","18.26","27.00","22.39","4.48","21.65","0","0"
"J.J. Barea","J.J.-Barea-18605","5000","PG/SG","50.99","227.5","22.0","100.08","31.89","18.00","31.67","15.23","21.03","0","0"
"Derrick White","Derrick-White-37858","4200","PG","35.81","225.5","19.2","99.70","16.19","22.00","31.47","13.57","17.51","0","0"
"Kyle Kuzma","Kyle-Kuzma-37886","6600","SF/PF","50.88","225.5","31.1","112.50","20.86","32.00","35.39","15.43","27.41","0","0"
"Nerlens Noel","Nerlens-Noel-18575","3600","C","63.18","221","14.0","102.62","14.96","14.00","25.06","12.66","14.9","0","0"
"Josh Hart","Josh-Hart-37889","3500","SG","35.02","225.5","19.3","112.50","10.89","20.00","24.0","11.27","14.19","0","0"
"Mason Plumlee","Mason-Plumlee-16798","3900","PF/C","53.47","206","18.2","99.62","19.32","15.00","27.09","12.87","15.77","0","0"
"Michael Beasley","Michael-Beasley-1338","3000","SF/PF","50.88","225.5","9.2","112.50","29.52","12.00","18.81","9.38","12.12","0","0"
"Avery Bradley","Avery-Bradley-941","4300","SG","37.80","209","31.5","108.38","15.76","30.00","25.37","11.32","17.2","0","0"
"Terrance Ferguson","Terrance-Ferguson-37871","3000","SF","30.98","221","16.0","102.62","5.25","22.00","18.87","7.41","11.94","0","0"
"Fred VanVleet","Fred-VanVleet-36011","4600","PG/SG","37.58","229","23.3","105.50","19.51","20.00","29.64","14.47","18.23","0","0"
"Dwight Powell","Dwight-Powell-18566","3700","PF/C","57.16","227.5","16.2","100.08","20.26","15.00","22.67","11.56","14.59","0","0"
"DeMarre Carroll","DeMarre-Carroll-1174","3900","SF/PF","38.22","221","22.7","114.62","16.50","18.00","26.36","11.54","15.27","0","0"
"Devin Harris","Devin-Harris-1076","3200","PG/SG","50.99","227.5","17.0","100.08","20.17","16.00","21.72","12.28","12.28","0","0"
"Darius Miller","Darius-Miller-13951","3300","SF/PF","39.86","227.5","21.0","104.88","14.37","21.00","22.12","12.57","12.57","0","0"
"Maxi Kleber","Maxi-Kleber-37845","3200","PF","48.66","227.5","17.8","100.08","17.63","15.00","20.01","10.01","12.15","0","0"
"Shaun Livingston","Shaun-Livingston-14007","3100","PG","43.56","219.5","16.7","103.10","15.11","17.00","19.48","8.89","11.67","0","0"
"Gorgui Dieng","Gorgui-Dieng-16939","3300","PF/C","52.81","221.5","13.6","100.67","17.81","12.00","18.59","8.89","12.11","0","0"
"Tony Snell","Tony-Snell-16872","3000","SG/SF","33.61","227","14.0","98.80","17.71","16.00","18.93","9.82","10.88","0","0"
"C.J. Miles","C.J.-Miles-1299","3100","SG/SF","35.94","229","11.3","105.50","22.60","14.00","18.24","8.99","11.14","0","0"
"Michael Kidd-Gilchrist","Michael-Kidd-Gilchrist-13896","4000","SF/PF","38.42","221.5","18.5","103.00","16.02","20.00","23.4","12.02","14.24","0","0"
"Mike Scott","Mike-Scott-13999","3300","SF/PF","39.24","209","15.2","108.38","13.18","14.00","23.45","13.79","11.73","0","0"
"Bruce Brown","Bruce-Brown-408913","3200","SG","47.35","227","18.8","100.30","10.52","16.00","11.22","2.36","11.24","0","0"
"Shabazz Napier","Shabazz-Napier-18598","3700","PG/SG","34.79","221","18.4","114.62","24.02","14.00","23.12","10.29","12.64","0","0"
"Larry Nance","Larry-Nance-18946","5100","PF/C","54.81","219.5","24.1","103.60","12.57","17.00","26.72","13.76","17.16","0","0"
"Delon Wright","Delon-Wright-18907","3400","PG/SG","37.58","229","16.0","105.50","16.37","14.00","19.44","9.75","11.38","0","0"
"Alfonzo McKinnie","Alfonzo-McKinnie-37808","3000","PF","36.20","219.5","0","103.10","0","14.00","19.33","10.02","10.02","0","0"
"Devonte' Graham","Devonte'-Graham-408968","3000","PG","36.40","221.5","11.0","103.00","17.19","12.00","10.42","2.56","9.81","0","0"
"Alex Abrines","Alex-Abrines-36054","3000","SG/SF","30.98","221","16.2","102.62","13.99","15.00","18.8","9.62","9.62","0","0"
"Landry Shamet","Landry-Shamet-408841","3100","PG","46.38","229","22.2","108.33","14.72","17.00","10.0","1.83","9.89","0","0"
"Dorian Finney-Smith","Dorian-Finney-Smith-36032","3800","SF","40.26","227.5","26.8","100.08","14.01","18.00","18.91","9.57","12.13","0","0"
"Vince Carter","Vince-Carter-1066","3100","SG","41.00","229","11.4","105.10","22.98","15.00","17.11","8.65","9.89","0","0"
"Justin Anderson","Justin-Anderson-18927","3300","SF/PF","35.64","229","10.3","105.10","27.28","13.00","15.92","7.5","10.1","0","0"
"Tyus Jones","Tyus-Jones-18938","3100","PG","43.31","221.5","16.7","100.67","13.38","12.00","17.23","9.07","9.43","0","0"
"Patrick Patterson","Patrick-Patterson-1260","3200","PF/C","59.15","221","14.3","102.62","13.94","14.00","16.76","8.01","9.46","0","0"
"Dante Cunningham","Dante-Cunningham-1259","3200","SF/PF","45.26","225.5","20.5","99.70","7.44","14.00","17.61","8.29","9.42","0","0"
"Alex Len","Alex-Len-16886","3500","C","54.29","229","15.4","105.10","23.74","10.00","14.64","7.23","10.24","0","0"
"Thon Maker","Thon-Maker-35194","3200","PF/C","53.28","227","12.0","98.80","17.20","11.00","15.21","7.28","8.96","0","0"
"OG Anunoby","OG-Anunoby-37807","3300","SF","35.94","229","16.5","105.50","18.61","14.00","17.28","9.15","9.15","0","0"
"Omari Spellman","Omari-Spellman-408970","3200","PF","50.49","229","13.8","105.10","15.77","12.00","9.06","1.72","8.79","0","0"
"Luke Kennard","Luke-Kennard-37814","3000","SG/SF","38.99","227","12.0","100.30","23.33","12.00","12.26","5.49","7.9","0","0"
"Malik Monk","Malik-Monk-37827","3200","SG","47.76","221.5","13.7","103.00","26.36","10.00","12.46","6.67","8.09","0","0"
"Tyrone Wallace","Tyrone-Wallace-35220","3000","PG/SG","43.72","209","11.0","108.38","26.22","10.00","11.71","7.23","7.23","0","0"
"Damion Lee","Damion-Lee-35995","3000","SG","53.73","219.5","16.3","103.10","15.35","8.00","11.24","5.84","6.98","0","0"
"Donte DiVincenzo","Donte-DiVincenzo-408950","3200","SG","39.32","227","11.7","98.80","12.56","10.00","7.58","1.44","7.35","0","0"
"Sterling Brown","Sterling-Brown-37821","3100","SG","39.32","227","14.0","98.80","15.73","10.00","13.45","7.07","7.07","0","0"
"Troy Brown","Troy-Brown-409043","3000","SF","44.53","229","8.0","103.80","24.02","8.00","6.81","1.25","6.74","0","0"
"Jared Dudley","Jared-Dudley-1319","3100","SF/PF","38.22","221","16.6","114.62","9.30","12.00","12.4","6.09","6.97","0","0"
"Quinn Cook","Quinn-Cook-31771","3500","PG","53.73","219.5","23.0","103.10","18.20","10.00","14.77","7.85","7.85","0","0"
"Hamidou Diallo","Hamidou-Diallo-408800","3200","SG","30.98","221","16.0","102.62","18.85","10.00","7.08","1.29","7","0","0"
"Omri Casspi","Omri-Casspi-1270","3100","SF/PF","33.35","209","13.7","103.30","13.37","8.00","11.87","5.67","6.76","0","0"
"Lance Stephenson","Lance-Stephenson-947","3300","SG/SF","50.22","225.5","10.9","112.50","25.58","8.00","12.19","5.71","7.17","0","0"
"Rodions Kurucs","Rodions-Kurucs-408801","3000","PF","46.20","221","13.5","114.62","30.76","7.00","6.75","1.42","6.22","0","0"
"Furkan Korkmaz","Furkan-Korkmaz-35185","3100","SG","46.38","229","13.4","108.33","22.72","10.00","11.16","5.83","5.83","0","0"
"Joakim Noah","Joakim-Noah-1404","3000","C","58.96","209","0","103.30","0","4.00","6.46","3.45","3.79","0","0"
"Dwayne Bacon","Dwayne-Bacon-37828","3000","SG","40.10","221.5","14.8","103.00","20.28","4.00","4.89","2.71","3.02","0","0"
"Jalen Jones","Jalen-Jones-35996","3000","SF","35.16","219.5","3.0","103.60","0.00","4.00","4.7","2.18","2.73","0","0"
"Willy Hernangomez","Willy-Hernangomez-18901","3200","C","53.33","221.5","7.0","103.00","25.37","2.00","4.55","2.43","2.51","0","0"
"Wesley Johnson","Wesley-Johnson-1280","3100","SF/PF","39.86","227.5","15.1","104.88","10.35","2.00","2.57","1.36","1.36","0","0"
