"nameCol","idCol","salaryCol","positionCol","dvpCol","ouCol","mpgCol","paceCol","usgCol","pminCol","ceilCol","floorCol","pointsCol","predictCol","actualCol"
"Bam Adebayo","Bam-Adebayo-37835","4200","PF/C","60.20","210.5","23.2","106.90","17.35","27.00","41.4","16.46","29.55","0","0"
"Kelly Olynyk","Kelly-Olynyk-16845","4000","PF/C","55.43","210.5","21.7","106.90","17.55","24.00","40.26","20.45","27.02","0","0"
"Elie Okobo","Elie-Okobo-409300","3800","PG","39.28","210.5","28.2","108.80","19.00","28.00","24.0","8.85","21.74","0","0"
"Khris Middleton","Khris-Middleton-13990","6700","SG/SF","45.08","239.5","30.0","98.80","23.79","35.00","58.77","25.92","37.03","0","0"
"Giannis Antetokounmpo","Giannis-Antetokounmpo-16852","11100","SF/PF","45.88","239.5","35.5","98.80","30.88","37.00","71.45","26.77","59.89","0","0"
"Josh Richardson","Josh-Richardson-18922","6700","SG/SF","51.19","210.5","34.5","106.90","25.58","35.00","52.88","21.71","36","0","0"
"Justise Winslow","Justise-Winslow-18921","4300","PG/SF","33.69","210.5","28.2","106.90","19.36","28.00","35.27","17.58","22.86","0","0"
"James Johnson","James-Johnson-1195","3700","SF/PF","52.00","210.5","20.0","106.90","21.31","23.00","25.64","10.34","19.51","0","0"
"Andre Iguodala","Andre-Iguodala-1334","3400","SG/SF","38.06","239.5","26.0","103.10","8.06","24.00","26.75","10.71","17.74","0","0"
"Eric Bledsoe","Eric-Bledsoe-1031","7200","PG/SG","41.28","239.5","31.5","98.80","23.42","34.00","54.27","22.69","37.07","0","0"
"Rodney McGruder","Rodney-McGruder-16850","4500","SG/SF","36.17","210.5","26.5","106.90","15.89","30.00","35.58","15.37","22.81","0","0"
"Mikal Bridges","Mikal-Bridges-408842","4000","SG/SF","37.56","210.5","25.1","108.80","12.30","29.00","22.31","8.23","20.21","0","0"
"Klay Thompson","Klay-Thompson-13315","6500","SG","38.06","239.5","35.6","103.10","27.18","35.00","42.84","18.76","32.02","0","0"
"Richaun Holmes","Richaun-Holmes-18905","4200","PF/C","52.12","210.5","18.4","108.80","18.68","20.00","35.34","14.53","20.64","0","0"
"Josh Jackson","Josh-Jackson-37890","5500","SF/PF","46.90","210.5","24.6","108.80","25.79","28.00","39.21","18.22","26.91","0","0"
"Stephen Curry","Stephen-Curry-1079","10000","PG/SG","47.21","239.5","32.7","103.10","33.78","35.00","67.1","25.86","48.52","0","0"
"Malcolm Brogdon","Malcolm-Brogdon-35195","5800","PG/SG","49.16","239.5","31.0","98.80","20.48","34.00","41.55","19.55","27.57","0","0"
"Kevin Durant","Kevin-Durant-1348","10300","SF/PF","44.10","239.5","37.7","103.10","35.52","35.00","63.81","25.32","48.97","0","0"
"Ersan Ilyasova","Ersan-Ilyasova-1301","3300","PF/C","45.88","239.5","18.0","98.80","21.59","18.00","23.74","11.71","15.57","0","0"
"Trevor Ariza","Trevor-Ariza-1323","5600","SF/PF","37.56","210.5","32.0","108.80","14.98","30.00","34.39","13.2","26.13","0","0"
"Goran Dragic","Goran-Dragic-1040","5900","PG","45.36","210.5","0","106.90","0","26.00","37.01","15.82","26.9","0","0"
"Deandre Ayton","Deandre-Ayton-409301","6600","C","52.95","210.5","28.0","108.80","20.43","28.00","33.22","12.25","30.09","0","0"
"Dwyane Wade","Dwyane-Wade-967","5400","PG/SG","51.19","210.5","27.0","106.90","29.41","25.00","35.12","16.34","24.61","0","0"
"Brook Lopez","Brook-Lopez-1498","4800","C","54.98","239.5","28.5","98.80","17.42","27.00","32.98","14.92","21.84","0","0"
"De'Anthony Melton","De'Anthony-Melton-409081","4200","PG/SG","52.77","210.5","15.0","108.80","22.78","20.00","19.37","3.68","18.79","0","0"
"Kevon Looney","Kevon-Looney-18945","4300","PF/C","48.37","239.5","22.0","103.10","12.93","25.00","27.79","12.24","19.15","0","0"
"Pat Connaughton","Pat-Connaughton-18939","3500","SG/SF","40.43","239.5","23.5","98.80","14.19","22.00","27.59","11.87","15.39","0","0"
"TJ Warren","TJ-Warren-18634","6000","SF/PF","46.90","210.5","29.0","108.80","21.21","30.00","31.63","21.9","24.33","0","0"
"Jamal Crawford","Jamal-Crawford-1075","3700","PG/SG","46.90","210.5","21.8","108.80","24.07","19.00","25.68","14.63","14.63","0","0"
"Jordan Bell","Jordan-Bell-37877","3300","PF/C","48.37","239.5","15.6","103.10","12.41","14.00","21.51","10.92","12.92","0","0"
"Shaun Livingston","Shaun-Livingston-14007","3100","PG","42.84","239.5","16.6","103.10","15.24","16.00","19.3","9.42","11.89","0","0"
"Tyler Johnson","Tyler-Johnson-18720","4800","PG/SG","53.65","210.5","13.0","106.90","13.32","22.00","28.26","12.72","17.94","0","0"
"Draymond Green","Draymond-Green-13976","7000","PF/C","54.58","239.5","0","103.10","0","25.00","30.89","11.11","25.03","0","0"
"Jonas Jerebko","Jonas-Jerebko-1106","4200","SF/PF","44.10","239.5","22.7","103.10","13.90","14.00","22.82","10.4","12.55","0","0"
"Donte DiVincenzo","Donte-DiVincenzo-408950","3200","PG/SG","40.43","239.5","12.8","98.80","14.37","13.00","9.06","1.72","8.79","0","0"
"Quinn Cook","Quinn-Cook-31771","3500","PG","47.21","239.5","20.6","103.10","18.69","10.00","15.24","8.06","8.06","0","0"
"Tony Snell","Tony-Snell-16872","3400","SG/SF","35.34","239.5","15.5","98.80","16.41","14.00","13.15","6.83","7.56","0","0"
"Thon Maker","Thon-Maker-35194","3200","PF/C","50.15","239.5","12.2","98.80","16.40","6.00","8.52","4.08","5.02","0","0"
"Alfonzo McKinnie","Alfonzo-McKinnie-37808","3000","SF/PF","38.32","239.5","13.0","103.10","13.66","4.00","5.7","2.96","2.96","0","0"
"Dragan Bender","Dragan-Bender-35228","3000","PF/C","52.95","210.5","13.7","108.80","14.50","4.00","5.19","2.95","2.95","0","0"
"Troy Daniels","Troy-Daniels-17383","3400","SG","37.71","210.5","18.0","108.80","21.53","4.00","5.5","3.04","3.04","0","0"
"Marcus Derrickson","Marcus-Derrickson-570312","3000","SF","44.10","239.5","4.5","103.10","22.22","3.00","2.28","0.42","2.22","0","0"
