"nameCol","idCol","salaryCol","positionCol","dvpCol","ouCol","mpgCol","paceCol","usgCol","pminCol","ceilCol","floorCol","pointsCol","predictCol","actualCol"
"Alec Burks","Alec-Burks-13353","3900","PG/SG","46.18","216","24.7","103.60","24.73","32.00","51.13","30.38","30.38","0","0"
"Trey Lyles","Trey-Lyles-18942","3500","SF/PF","55.58","223.5","17.2","99.62","23.14","25.00","41.78","22.76","26.53","0","0"
"Jordan Clarkson","Jordan-Clarkson-18631","5100","PG/SG","46.18","216","27.0","103.60","28.94","35.00","60.0","32.34","36.3","0","0"
"Kent Bazemore","Kent-Bazemore-13987","4800","SG/SF","40.65","223.5","24.8","105.10","24.72","33.00","47.52","17.02","33.44","0","0"
"Kyle Anderson","Kyle-Anderson-18615","4500","PG/SF","36.85","209","29.8","103.30","12.16","33.00","41.22","16.71","30.88","0","0"
"Justise Winslow","Justise-Winslow-18921","4300","SF/PF","33.83","219.5","28.7","106.90","19.59","30.00","44.87","22.28","28.97","0","0"
"Larry Nance","Larry-Nance-18946","4700","PF/C","62.44","216","26.5","103.60","11.38","30.00","46.36","18.32","31.47","0","0"
"Malik Beasley","Malik-Beasley-35213","3500","PG/SG","45.38","223.5","24.7","99.62","14.62","31.00","40.64","23.01","23.01","0","0"
"Juan Hernangomez","Juan-Hernangomez-35212","4300","SF/PF","55.58","223.5","31.0","99.62","14.48","32.00","46.32","18.03","27.23","0","0"
"Josh Hart","Josh-Hart-37889","3700","PG/SG","36.20","209","21.3","112.50","11.32","32.00","32.45","16.14","23.36","0","0"
"Noah Vonleh","Noah-Vonleh-18597","5300","PF/C","48.35","220","27.7","100.17","11.93","30.00","47.0","21.86","33.43","0","0"
"Mason Plumlee","Mason-Plumlee-16798","4100","PF/C","57.48","223.5","18.5","99.62","19.09","24.00","43.96","20.88","25.59","0","0"
"Kevin Huerter","Kevin-Huerter-408969","3700","SG/SF","33.19","223.5","25.5","105.10","14.09","32.00","26.23","7.12","22.97","0","0"
"Marvin Bagley III","Marvin-Bagley-III-409321","5300","PF/C","48.54","222.5","28.8","98.20","22.11","31.00","34.77","8.55","32.74","0","0"
"Cedi Osman","Cedi-Osman-18912","4600","SF/PF","36.04","216","31.8","103.60","17.02","35.00","37.39","12.66","28.07","0","0"
"Nikola Jokic","Nikola-Jokic-31812","9200","C","61.66","223.5","30.5","99.62","29.06","34.00","73.58","22.3","55.74","0","0"
"Garrett Temple","Garrett-Temple-14077","3700","SG/SF","34.59","209","31.3","103.30","13.96","32.00","35.23","15.91","22.1","0","0"
"DeAndre Bembry","DeAndre-Bembry-35198","3800","SG/SF","33.31","223.5","22.7","105.10","20.43","27.00","33.88","17.97","22.69","0","0"
"Thaddeus Young","Thaddeus-Young-1289","4600","SF/PF","54.37","222.5","27.7","107.67","16.67","30.00","38.64","14.54","27.23","0","0"
"Shelvin Mack","Shelvin-Mack-13354","3400","PG","36.00","209","24.3","103.30","16.84","24.00","30.66","15.72","20.08","0","0"
"Otto Porter","Otto-Porter-17069","6400","SF/PF","36.67","216","33.8","103.80","16.47","34.00","53.89","25.11","37.14","0","0"
"Eric Gordon","Eric-Gordon-1077","5000.00","SG/SF","49.42","217.5","32.4","101.42","22.94","32.00","44.47","21.5","28.97","0","0"
"Trae Young","Trae-Young-409063","6000","PG","50.17","223.5","29.0","105.10","34.12","31.00","39.63","10.76","34.7","0","0"
"Tyreke Evans","Tyreke-Evans-1070","4900","SG/SF","46.09","222.5","24.8","107.67","25.83","26.00","41.15","15.67","28.24","0","0"
"J.J. Barea","J.J.-Barea-18605","5000.00","PG/SG","48.52","217.5","20.2","100.08","33.84","24.00","42.4","20.83","28.61","0","0"
"Mario Hezonja","Mario-Hezonja-18923","3200","SF/PF","30.19","220","18.3","100.17","19.33","18.00","27.49","11.51","18.18","0","0"
"JaVale McGee","JaVale-McGee-1485","4500","C","47.62","209","20.6","112.50","16.93","24.00","36.73","15.92","25.56","0","0"
"Tim Hardaway Jr.","Tim-Hardaway-Jr.-16879","6900","SG/SF","44.74","220","34.2","100.17","24.20","36.00","59.04","26.78","38.64","0","0"
"Collin Sexton","Collin-Sexton-408896","4900","PG","55.76","216","33.4","103.60","25.73","36.00","30.22","11.14","27.37","0","0"
"Dorian Finney-Smith","Dorian-Finney-Smith-36032","3800.00","SF/PF","33.59","217.5","26.2","100.08","14.23","29.00","30.05","12.89","21.16","0","0"
"Al-Farouq Aminu","Al-Farouq-Aminu-1279","4600","SF/PF","39.20","219.5","29.7","104.50","11.37","29.00","39.32","19.08","25.58","0","0"
"Evan Turner","Evan-Turner-1291","4300","SG/SF","46.40","219.5","25.2","104.50","19.75","28.00","35.19","19.9","23.89","0","0"
"Monte Morris","Monte-Morris-37860","3600","PG","55.35","223.5","23.7","99.62","18.12","25.00","29.82","16.12","20.03","0","0"
"James Johnson","James-Johnson-1195","3700","SF/PF","52.54","219.5","18.3","106.90","22.76","25.00","26.95","10.87","20.59","0","0"
"Wesley Matthews","Wesley-Matthews-1339","4700.00","SG/SF","38.54","217.5","28.0","100.08","19.20","31.00","38.16","16.01","26.03","0","0"
"Rodney McGruder","Rodney-McGruder-16850","4500","SG/SF","33.85","219.5","25.8","106.90","14.61","33.00","39.22","16.79","24.84","0","0"
"Chris Paul","Chris-Paul-1087","7700.00","PG","54.24","217.5","29.8","101.42","24.37","33.00","57.5","20.89","42.28","0","0"
"Maurice Harkless","Maurice-Harkless-16971","3500","SF/PF","39.20","219.5","18.7","104.50","11.43","22.00","30.0","12.79","19.12","0","0"
"Dewayne Dedmon","Dewayne-Dedmon-16894","4200","PF/C","48.44","223.5","22.3","105.10","15.77","22.00","32.1","13.57","22.8","0","0"
"Gordon Hayward","Gordon-Hayward-1239","5900","SF/PF","50.98","215.5","25.0","101.75","22.13","30.00","47.19","22.17","32.04","0","0"
"Marcus Morris","Marcus-Morris-13316","5200","SF/PF","40.05","215.5","28.4","101.75","18.51","30.00","37.95","14.57","28.13","0","0"
"Tyler Dorsey","Tyler-Dorsey-37825","3000","PG/SG","33.19","223.5","11.0","105.10","27.62","20.00","27.25","12.8","16.18","0","0"
"Devin Harris","Devin-Harris-1076","3200.00","PG/SG","48.52","217.5","15.5","100.08","18.80","20.00","30.82","17.21","17.21","0","0"
"Tobias Harris","Tobias-Harris-13332","7400","SF/PF","50.86","219.5","34.0","108.38","24.87","35.00","52.44","21.11","39.46","0","0"
"Lonzo Ball","Lonzo-Ball-37885","5600","PG","43.47","209","30.4","112.50","18.58","32.00","39.99","15.16","29.84","0","0"
"Kentavious Caldwell-Pope","Kentavious-Caldwell-Pope-16869","3900","SG/SF","36.20","209","23.7","112.50","14.30","30.00","38.81","17.99","20.63","0","0"
"Lauri Markkanen","Lauri-Markkanen-37809","6200","PF","43.14","215.5","28.3","104.50","27.38","32.00","47.23","19.78","32.75","0","0"
"Wendell Carter","Wendell-Carter-408878","5400","PF/C","51.23","215.5","27.1","104.50","19.67","30.00","31.43","11.59","28.47","0","0"
"Enes Kanter","Enes-Kanter-13299","7300","C","58.79","220","29.2","100.17","20.29","26.00","50.28","19.5","38.47","0","0"
"Josh Richardson","Josh-Richardson-18922","6700","SG/SF","46.31","219.5","35.3","106.90","23.80","35.00","51.76","21.33","35.31","0","0"
"John Collins","John-Collins-37823","6800","PF/C","48.44","223.5","30.3","105.10","22.96","31.00","54.63","21.69","35.68","0","0"
"Allen Crabbe","Allen-Crabbe-16978","4000","SG/SF","35.65","220","28.4","114.62","16.07","26.00","33.23","13.69","20.94","0","0"
"Patrick Beverley","Patrick-Beverley-14108","3500","PG/SG","39.43","219.5","17.5","108.38","13.35","20.00","33.2","18.3","18.3","0","0"
"Marcus Smart","Marcus-Smart-18567","4400","PG/SG","51.81","215.5","28.6","101.75","13.86","26.00","31.64","12.86","23.01","0","0"
"Lou Williams","Lou-Williams-1044","5300","PG/SG","46.20","219.5","22.0","108.38","33.31","23.00","41.45","17.15","27.71","0","0"
"Taj Gibson","Taj-Gibson-1277","4600","PF/C","51.95","219.5","25.0","100.67","16.79","25.00","33.29","12.39","24.05","0","0"
"Emmanuel Mudiay","Emmanuel-Mudiay-18936","5800","PG","39.38","220","28.3","100.17","25.24","32.00","39.42","16.76","30.25","0","0"
"Clint Capela","Clint-Capela-18610","8000.00","C","49.33","217.5","33.1","101.42","18.58","35.00","60.95","26.23","41.63","0","0"
"Luka Doncic","Luka-Doncic-408971","6700.00","SG/SF","45.26","217.5","27.6","100.08","25.81","33.00","39.35","10.62","34.7","0","0"
"Dwight Powell","Dwight-Powell-18566","3700.00","PF/C","55.56","217.5","17.6","100.08","20.06","18.00","30.0","15.29","19.16","0","0"
"Ryan Arcidiacono","Ryan-Arcidiacono-36050","3700","PG","38.26","215.5","31.4","104.50","12.77","28.00","31.33","12.37","19.15","0","0"
"Willie Cauley-Stein","Willie-Cauley-Stein-18951","5900","C","49.32","222.5","24.8","98.20","19.36","30.00","43.58","19.16","30.41","0","0"
"Zach LaVine","Zach-LaVine-18622","7600","PG/SG","51.59","215.5","34.9","104.50","30.10","36.00","54.21","23.26","39.03","0","0"
"Avery Bradley","Avery-Bradley-941","4000","SG","37.81","219.5","31.5","108.38","15.46","31.00","29.89","12.65","20.47","0","0"
"Jarrett Allen","Jarrett-Allen-37794","5800","C","53.80","220","31.1","114.62","16.42","30.00","40.58","17.84","29.58","0","0"
"Danilo Gallinari","Danilo-Gallinari-1329","6900","SF/PF","50.86","219.5","32.3","108.38","21.81","33.00","48.95","19.64","35.19","0","0"
"De'Aaron Fox","De'Aaron-Fox-37900","7200","PG","48.36","222.5","30.0","98.20","27.96","34.00","46.57","18.55","36.73","0","0"
"Bojan Bogdanovic","Bojan-Bogdanovic-18571","5500","SG/SF","43.60","222.5","32.2","107.67","21.68","33.00","44.49","23.21","28.07","0","0"
"Jusuf Nurkic","Jusuf-Nurkic-18619","7500","C","52.74","219.5","26.5","104.50","22.35","28.00","49.63","20.68","38.15","0","0"
"Andrew Wiggins","Andrew-Wiggins-18620","5700","SG/SF","45.72","219.5","30.8","100.67","22.29","34.00","38.0","16.44","28.94","0","0"
"Marc Gasol","Marc-Gasol-1493","8600","C","60.60","209","37.7","103.30","20.08","34.00","57.49","25.47","43.62","0","0"
"Spencer Dinwiddie","Spencer-Dinwiddie-18588","5900","PG/SG","49.28","220","30.0","114.62","24.97","28.00","46.12","20.83","29.89","0","0"
"James Harden","James-Harden-1037","10800.00","PG/SG","54.24","217.5","35.4","101.42","39.51","37.00","62.77","20.5","54.68","0","0"
"Markieff Morris","Markieff-Morris-13314","5700","PF/C","49.45","216","27.7","103.80","21.95","30.00","39.52","20.54","28.85","0","0"
"Dario Saric","Dario-Saric-36004","4000","PF","51.94","219.5","19.8","100.67","21.54","21.00","33.55","16.92","20.14","0","0"
"Jeff Teague","Jeff-Teague-1005","6200","PG","46.06","219.5","31.3","100.67","19.73","34.00","43.95","16.09","31.19","0","0"
"John Wall","John-Wall-1084","9300","PG","56.37","216","32.8","103.80","34.63","35.00","52.63","18.32","46.62","0","0"
"Joe Harris","Joe-Harris-18587","4600","SG/SF","35.65","220","31.5","114.62","14.13","29.00","33.81","15.36","23.06","0","0"
"Al Horford","Al-Horford-1499","6600","PF/C","66.62","215.5","30.5","101.75","19.91","30.00","44.45","17.17","32.9","0","0"
"Vince Carter","Vince-Carter-1066","3100","SG","33.19","223.5","11.8","105.10","17.94","20.00","25.47","13.53","15.41","0","0"
"Jamal Murray","Jamal-Murray-35211","7800","PG/SG","55.35","223.5","38.3","99.62","28.32","37.00","60.06","24.75","38.55","0","0"
"Derrick Jones","Derrick-Jones-36064","3000","SF/PF","33.85","219.5","5.5","106.90","18.18","17.00","27.08","14.76","14.76","0","0"
"Dwyane Wade","Dwyane-Wade-967","5400","PG/SG","46.31","219.5","26.5","106.90","28.93","25.00","37.7","17.52","26.38","0","0"
"DeAndre Jordan","DeAndre-Jordan-1486","6900.00","C","53.41","217.5","29.0","100.08","15.42","31.00","41.96","20.22","33.76","0","0"
"Karl-Anthony Towns","Karl-Anthony-Towns-18937","9700","C","53.40","219.5","34.5","100.67","28.58","36.00","63.39","25.94","47.34","0","0"
"Derrick Rose","Derrick-Rose-1086","5400","PG/SG","46.06","219.5","26.0","100.67","22.28","28.00","40.59","22.55","26.22","0","0"
"C.J. McCollum","C.J.-McCollum-17121","7000","PG/SG","46.40","219.5","36.8","104.50","25.97","35.00","45.19","19.62","34","0","0"
"Kelly Olynyk","Kelly-Olynyk-16845","5100","PF/C","54.38","219.5","23.3","106.90","18.58","24.00","36.97","18.72","24.76","0","0"
"Justin Holiday","Justin-Holiday-14559","5500","SG/SF","34.88","215.5","36.0","104.50","16.42","34.00","37.65","16.6","26.61","0","0"
"P.J. Tucker","P.J.-Tucker-13947","4300.00","SF/PF","39.18","217.5","32.3","101.42","9.32","34.00","40.06","17.51","20.82","0","0"
"Ed Davis","Ed-Davis-1265","3300","PF/C","53.80","220","15.6","114.62","12.38","16.00","26.86","11.78","15.94","0","0"
"Bogdan Bogdanovic","Bogdan-Bogdanovic-37899","6100","SG/SF","45.01","222.5","28.0","98.20","25.20","33.00","46.51","25.7","29.4","0","0"
"Damian Lillard","Damian-Lillard-13900","9400","PG","47.50","219.5","37.0","104.50","32.34","36.00","57.74","21.9","45.25","0","0"
"Tristan Thompson","Tristan-Thompson-13308","7100","C","54.35","216","33.9","103.60","16.22","35.00","46.85","20.56","34.1","0","0"
"Tyson Chandler","Tyson-Chandler-1482","3500","C","47.62","209","20.6","112.50","7.85","20.00","32.44","16.79","16.79","0","0"
"DeMarre Carroll","DeMarre-Carroll-1174","3800","SF/PF","39.17","220","23.4","114.62","17.00","18.00","30.18","14.2","18.2","0","0"
"JaMychal Green","JaMychal-Green-18729","4700","SF/PF","60.60","209","25.0","103.30","21.64","23.00","38.02","19.73","22.5","0","0"
"Buddy Hield","Buddy-Hield-35206","6300","SG/SF","36.88","222.5","29.3","98.20","25.68","30.00","45.44","20.25","30.05","0","0"
"James Ennis","James-Ennis-18599","3700.00","SG/SF","39.18","217.5","25.7","101.42","12.19","26.00","27.9","13.71","17.65","0","0"
"LeBron James","LeBron-James-1227","10600","SF/PF","38.57","209","35.0","112.50","34.60","35.00","64.37","20.0","50.37","0","0"
"Marcin Gortat","Marcin-Gortat-1479","3800","C","52.09","219.5","17.2","108.38","13.53","18.00","25.85","10.75","18.04","0","0"
"Tyler Johnson","Tyler-Johnson-18720","5000","PG/SG","52.82","219.5","17.0","106.90","16.85","28.00","36.67","16.86","23.75","0","0"
"Cory Joseph","Cory-Joseph-13339","4200","PG","44.22","222.5","26.5","107.67","15.96","26.00","36.57","16.12","19.97","0","0"
"Nemanja Bjelica","Nemanja-Bjelica-31814","4100","SF/PF","48.54","222.5","20.3","98.20","17.07","20.00","32.09","12.73","19.34","0","0"
"Rondae Hollis-Jefferson","Rondae-Hollis-Jefferson-18897","5400","PF/C","55.67","220","28.7","114.62","17.27","25.00","39.27","16.05","25.47","0","0"
"Myles Turner","Myles-Turner-18915","6600","C","58.23","222.5","28.0","107.67","19.36","32.00","50.54","23.21","30.99","0","0"
"Darren Collison","Darren-Collison-1060","6700","PG","44.22","222.5","29.7","107.67","18.74","33.00","42.05","19.17","31.22","0","0"
"Jabari Parker","Jabari-Parker-18593","6000","SF/PF","43.14","215.5","31.6","104.50","26.49","26.00","47.86","23.71","27.86","0","0"
"Lance Stephenson","Lance-Stephenson-947","3200","SG/SF","43.33","209","9.7","112.50","25.64","17.00","25.49","11.83","14.83","0","0"
"Shai Gilgeous-Alexander","Shai-Gilgeous-Alexander-408990","5000","PG/SG","52.60","219.5","27.3","108.38","17.50","28.00","25.56","9.42","23.15","0","0"
"MarShon Brooks","MarShon-Brooks-188837","3000","SG","50.58","209","14.0","103.30","22.27","17.00","21.41","9.66","13.78","0","0"
"Montrezl Harrell","Montrezl-Harrell-18930","6500","PF/C","53.05","219.5","26.8","108.38","22.89","27.00","45.03","23.3","29.8","0","0"
"Jaylen Brown","Jaylen-Brown-35181","4600","SG/SF","40.05","215.5","27.5","101.75","20.73","23.00","38.97","17.39","20.95","0","0"
"Kelly Oubre","Kelly-Oubre-18925","4800","SG/SF","36.67","216","24.9","103.80","19.43","25.00","37.91","17.87","21.85","0","0"
"Kyle Kuzma","Kyle-Kuzma-37886","6800","SF/PF","38.57","209","34.0","112.50","23.30","33.00","40.04","17.09","30.8","0","0"
"Terry Rozier","Terry-Rozier-18894","5000","PG/SG","43.28","215.5","19.8","101.75","21.38","22.00","35.51","18.65","22.5","0","0"
"Bradley Beal","Bradley-Beal-13898","8800","SG","52.66","216","38.1","103.80","25.52","34.00","62.36","26.83","39.52","0","0"
"Alex Len","Alex-Len-16886","3400","C","48.44","223.5","13.4","105.10","21.00","14.00","22.06","10.82","15.2","0","0"
"Mike Conley","Mike-Conley-1062","8700","PG","36.00","209","36.3","103.30","28.61","35.00","57.53","21.79","38.64","0","0"
"Robert Covington","Robert-Covington-16874","6400","SF/PF","39.83","219.5","35.3","100.67","17.52","36.00","41.25","18.15","28.27","0","0"
"Domantas Sabonis","Domantas-Sabonis-35217","7500","PF/C","53.16","222.5","25.2","107.67","27.46","26.00","49.02","25.83","33.12","0","0"
"Jalen Jones","Jalen-Jones-35996","3000","SF/PF","36.04","216","3.3","103.60","14.64","19.00","22.6","10.48","13.13","0","0"
"Daniel Theis","Daniel-Theis-37784","3000","PF/C","55.12","215.5","14.0","101.75","17.33","13.00","21.94","11.83","13.1","0","0"
"Meyers Leonard","Meyers-Leonard-13905","3300","C","53.99","219.5","15.7","104.50","14.91","13.00","24.82","11.72","14.42","0","0"
"Mitchell Robinson","Mitchell-Robinson-408821","3200","C","61.89","220","16.5","100.17","11.70","18.00","14.15","2.52","13.94","0","0"
"Damyean Dotson","Damyean-Dotson-37795","4500","SG/SF","30.86","220","24.6","100.17","18.88","24.00","33.39","16.57","19.63","0","0"
"Austin Rivers","Austin-Rivers-13903","4400","PG/SG","43.17","216","23.9","103.80","17.57","22.00","28.87","15.64","19.03","0","0"
"Bam Adebayo","Bam-Adebayo-37835","5400","PF/C","58.34","219.5","24.2","106.90","16.48","23.00","32.67","13.41","23.32","0","0"
"Harrison Barnes","Harrison-Barnes-13901","6800.00","SF/PF","44.16","217.5","31.0","100.08","26.14","29.00","36.97","16.97","29.2","0","0"
"Jaren Jackson","Jaren-Jackson-409099","6300","PF/C","60.60","209","24.7","103.30","20.27","31.00","29.68","10.94","26.88","0","0"
"Troy Williams","Troy-Williams-36043","3300","SF/PF","36.88","222.5","12.2","98.20","16.24","16.00","22.27","11.38","14","0","0"
"Jeff Green","Jeff-Green-1314","3700","SF/PF","45.56","216","20.8","103.80","13.18","19.00","20.32","14.07","15.63","0","0"
"Jayson Tatum","Jayson-Tatum-37782","7000","SF/PF","50.98","215.5","30.2","101.75","20.70","31.00","37.39","15.84","29.56","0","0"
"Kyrie Irving","Kyrie-Irving-13334","9000","PG","51.81","215.5","31.2","101.75","33.03","31.00","50.56","20.37","37.93","0","0"
"Cameron Payne","Cameron-Payne-18941","3300","PG/SG","38.26","215.5","14.7","104.50","17.91","16.00","23.79","11.99","13.83","0","0"
"D'Angelo Russell","D'Angelo-Russell-18947","8100","PG/SG","49.28","220","33.0","114.62","35.00","30.00","47.15","16.88","33.9","0","0"
"Justin Jackson","Justin-Jackson-37895","3400","SF","36.88","222.5","19.5","98.20","14.15","19.00","21.54","11.42","14.17","0","0"
"Doug McDermott","Doug-McDermott-18583","3300","SF/PF","43.60","222.5","19.3","107.67","19.51","20.00","27.45","13.73","13.73","0","0"
"Torrey Craig","Torrey-Craig-37861","3300","SG/SF","45.38","223.5","19.3","99.62","10.18","19.00","20.71","12.33","13.66","0","0"
"Gerald Green","Gerald-Green-13374","3300.00","SG/SF","49.42","217.5","18.4","101.42","17.48","15.00","23.72","11.09","13.67","0","0"
"Kosta Koufos","Kosta-Koufos-1386","3000","C","49.32","222.5","16.0","98.20","17.67","12.00","23.62","12.31","12.31","0","0"
"Shabazz Napier","Shabazz-Napier-18598","3500","PG/SG","43.54","220","16.0","114.62","26.40","16.00","25.91","11.71","14.3","0","0"
"Jared Dudley","Jared-Dudley-1319","3100","SF/PF","39.17","220","16.1","114.62","8.88","17.00","22.13","10.99","12.54","0","0"
"Allonzo Trier","Allonzo-Trier-554950","3600","PG/SG","44.74","220","20.3","100.17","25.77","20.59","14.76","2.63","14.54","0","0"
"Nene Hilario","Nene-Hilario-17321","3100.00","C","49.33","217.5","11.7","101.42","16.35","13.00","20.3","10.7","12.46","0","0"
"Tomas Satoransky ","Tomas-Satoransky--36031","4900","PG/SG","56.37","216","23.6","103.80","13.33","23.00","28.16","11.42","19.69","0","0"
"Nik Stauskas","Nik-Stauskas-18636","3200","SG/SF","39.99","219.5","15.5","104.50","19.85","17.00","20.8","10.02","12.84","0","0"
"Mike Scott","Mike-Scott-13999","3200","SF/PF","50.86","219.5","14.8","108.38","12.58","16.00","25.55","15.12","12.78","0","0"
"Zach Collins","Zach-Collins-37866","3500","PF/C","53.99","219.5","17.3","104.50","14.00","16.00","21.01","10.78","13.82","0","0"
"Thomas Bryant ","Thomas-Bryant--37884","3700","PF/C","49.45","216","16.7","103.80","14.00","18.00","23.55","11.12","14.13","0","0"
"Kevin Knox","Kevin-Knox-408820","4300","SF/PF","44.74","220","22.0","100.17","24.75","26.00","16.66","2.97","16.41","0","0"
"Seth Curry","Seth-Curry-16825","3000","PG/SG","39.99","219.5","15.7","104.50","13.70","16.00","21.9","11.39","11.39","0","0"
"Gorgui Dieng","Gorgui-Dieng-16939","3300","PF/C","51.95","219.5","11.3","100.67","16.39","12.00","19.12","9.09","12.51","0","0"
"Danuel House","Danuel-House-36029","3200.00","SF/PF","54.24","217.5","21.2","101.42","16.24","15.00","19.98","9.52","12.03","0","0"
"Aaron Holiday","Aaron-Holiday-408932","3300","PG/SG","44.22","222.5","14.5","107.67","20.62","14.00","12.7","2.41","12.32","0","0"
"Sviatoslav Mykhailiuk","Sviatoslav-Mykhailiuk-409280","3000","SG/SF","38.55","209","8.3","112.50","22.20","17.00","10.89","1.99","10.77","0","0"
"Tyus Jones","Tyus-Jones-18938","3100","PG","39.98","219.5","15.7","100.67","11.65","14.00","19.83","10.58","10.99","0","0"
"Shaquille Harrison","Shaquille-Harrison-36065","3200","PG","38.26","215.5","14.0","104.50","14.03","14.00","17.29","8.38","10.67","0","0"
"Ben McLemore","Ben-McLemore-16822","3000","SG/SF","36.88","222.5","7.5","98.20","22.21","12.00","14.81","6.25","9.31","0","0"
"Courtney Lee","Courtney-Lee-1025","3100","SG/SF","30.19","220","12.5","100.17","16.83","12.00","16.88","9.15","9.15","0","0"
"Justin Anderson","Justin-Anderson-18927","3300","SF/PF","33.31","223.5","6.6","105.10","29.19","10.00","14.83","7.04","9.7","0","0"
"Joakim Noah","Joakim-Noah-1404","3000","C","56.45","209","14.0","103.30","26.79","11.00","14.77","7.88","8.68","0","0"
"Tyler Lydon","Tyler-Lydon-37862","3000","PF","55.58","223.5","4.0","99.62","30.00","13.00","8.74","1.6","8.64","0","0"
"Jalen Brunson","Jalen-Brunson-409062","3100.00","PG","40.19","217.5","8.8","100.08","18.84","14.00","8.49","1.51","8.36","0","0"
"Channing Frye","Channing-Frye-1484","3000","PF/C","62.44","216","4.0","103.60","10.00","8.00","15.35","6.6","7.75","0","0"
"Bobby Portis","Bobby-Portis-18909","5000","PF/C","51.23","215.5","0","104.50","0","14.00","12.56","12.56","12.56","0","0"
"Tyrone Wallace","Tyrone-Wallace-35220","3000","PG/SG","46.20","219.5","6.5","108.38","22.18","9.00","10.86","6.73","6.73","0","0"
"Jaron Blossomgame","Jaron-Blossomgame-570197","3000","SF/PF","36.04","216","0","103.60","0","10.00","6.37","1.21","6.18","0","0"
"Ryan Broekhoff","Ryan-Broekhoff-555205","3000.00","SG/SF","38.54","217.5","7.3","100.08","17.76","11.00","6.18","1.1","6.09","0","0"
"Chandler Hutchison","Chandler-Hutchison-408877","3000","SG/SF","34.80","215.5","14.5","104.50","9.90","8.00","5.88","1.12","5.7","0","0"
"Rodions Kurucs","Rodions-Kurucs-408801","3000","SF/PF","55.67","220","13.3","114.62","27.76","5.00","4.79","1.18","4.51","0","0"
"Frank Mason","Frank-Mason-37898","3000","PG/SG","36.20","222.5","10.0","98.20","19.51","4.00","6.57","3.88","4.38","0","0"
"Semi Ojeleye","Semi-Ojeleye-37786","3000","SF/PF","40.05","215.5","9.2","101.75","8.98","4.00","5.09","2.69","2.69","0","0"
"Robin Lopez","Robin-Lopez-1466","3000","C","46.33","215.5","18.3","104.50","16.91","2.00","4.08","2.07","2.07","0","0"
