"nameCol","idCol","salaryCol","positionCol","dvpCol","ouCol","mpgCol","paceCol","usgCol","pminCol","ceilCol","floorCol","pointsCol","predictCol","actualCol"
"Ryan Arcidiacono","Ryan-Arcidiacono-36050","3600","PG","47.51","215.5","32.6","104.50","11.13","33.00","43.31","14.54","22.5","0","0"
"Marcus Smart","Marcus-Smart-18567","4100","PG/SG","51.51","228.5","20.7","101.75","17.96","28.00","50.01","19.04","25.02","0","0"
"Jabari Parker","Jabari-Parker-18593","6300","SF/PF","50.85","215.5","32.9","104.50","26.03","35.00","61.82","19.77","37.24","0","0"
"Al Horford","Al-Horford-1499","5400","PF/C","60.14","228.5","28.7","101.75","15.17","30.00","50.28","16.52","31.64","0","0"
"Dante Cunningham","Dante-Cunningham-1259","3700","SF/PF","51.97","215.5","24.9","99.70","9.53","26.00","38.78","15.11","21.58","0","0"
"Terry Rozier","Terry-Rozier-18894","3900","PG/SG","49.21","228.5","20.6","101.75","19.82","25.00","41.61","18.59","22.42","0","0"
"Justin Holiday","Justin-Holiday-14559","4800","SG/SF","33.66","215.5","34.1","104.50","17.28","35.00","45.43","17.04","27.3","0","0"
"Antonio Blakeney","Antonio-Blakeney-37811","3400","PG","33.66","215.5","21.3","104.50","24.39","20.00","37.06","15.53","19.31","0","0"
"Wendell Carter","Wendell-Carter-408878","5200","C","51.56","215.5","23.1","104.50","20.65","30.00","38.35","12.01","29.52","0","0"
"Gordon Hayward","Gordon-Hayward-1239","5500","SG/SF","48.84","228.5","29.3","101.75","18.17","31.00","52.8","21.09","30.47","0","0"
"Bryn Forbes","Bryn-Forbes-36052","3800","PG/SG","35.40","215.5","27.9","99.70","18.00","29.00","35.32","12.53","20.68","0","0"
"DeMar DeRozan","DeMar-DeRozan-1053","8600","SG/SF","42.48","215.5","35.6","99.70","30.83","37.00","74.38","21.91","46.72","0","0"
"Marco Belinelli","Marco-Belinelli-1033","3600","SG/SF","35.40","215.5","21.6","99.70","18.34","21.00","33.23","14.17","19.39","0","0"
"Aron Baynes","Aron-Baynes-14114","3200","C","48.87","228.5","15.1","101.75","18.83","18.00","33.14","13.17","17.26","0","0"
"Zach LaVine","Zach-LaVine-18622","7700","PG/SG","47.51","215.5","35.7","104.50","31.81","38.00","67.21","24.51","41.13","0","0"
"Rudy Gay","Rudy-Gay-1341","6200","SF/PF","51.97","215.5","27.3","99.70","21.86","31.00","50.32","16.36","32.91","0","0"
"Nikola Mirotic","Nikola-Mirotic-18584","6900","SF/PF","42.99","228.5","31.3","104.88","18.48","31.00","64.37","23.07","36.45","0","0"
"Marcus Morris","Marcus-Morris-13316","5200","SF/PF","39.90","228.5","26.7","101.75","18.15","27.00","53.73","21.92","27.47","0","0"
"LaMarcus Aldridge","LaMarcus-Aldridge-1349","8100","PF/C","71.38","215.5","34.4","99.70","23.39","32.00","72.23","27.81","42.59","0","0"
"Anthony Davis","Anthony-Davis-13895","11200","PF/C","50.43","228.5","37.1","104.88","30.84","37.00","100.43","30.6","58.73","0","0"
"Jrue Holiday","Jrue-Holiday-1073","8300","PG/SG","51.17","228.5","35.6","104.88","31.39","37.00","67.51","20.06","42.78","0","0"
"Kyrie Irving","Kyrie-Irving-13334","8700","PG","51.51","228.5","31.0","101.75","32.86","34.00","69.65","23.85","44.42","0","0"
"Patty Mills","Patty-Mills-13977","3800","PG/SG","49.75","215.5","23.4","99.70","16.89","25.00","34.88","15.11","19.3","0","0"
"Wesley Johnson","Wesley-Johnson-1280","3200","SF/PF","36.37","228.5","20.0","104.88","10.91","23.00","27.61","13.44","15.5","0","0"
"Jayson Tatum","Jayson-Tatum-37782","6400","SF/PF","48.84","228.5","29.0","101.75","21.50","32.00","44.46","16.02","29.88","0","0"
"Davis Bertans","Davis-Bertans-36051","3600","PF/C","71.38","215.5","12.7","99.70","19.16","18.00","31.67","13.28","16.58","0","0"
"Julius Randle","Julius-Randle-18632","7600","PF/C","50.43","228.5","28.1","104.88","25.64","26.00","56.06","25.84","34.31","0","0"
"E'Twaun Moore","E'Twaun-Moore-18582","5400","SG/SF","36.28","228.5","33.8","104.88","22.58","32.00","42.51","16.11","23.42","0","0"
"Jakob Poeltl","Jakob-Poeltl-35187","3200","C","53.70","215.5","12.1","99.70","18.87","12.00","24.91","11.04","12.46","0","0"
"Darius Miller","Darius-Miller-13951","3100","SF/PF","36.37","228.5","23.0","104.88","11.70","19.00","22.57","11.29","11.29","0","0"
"Shaquille Harrison","Shaquille-Harrison-36065","3300","PG","46.30","215.5","18.1","104.50","19.00","15.00","22.72","9.36","11.92","0","0"
"Chandler Hutchison","Chandler-Hutchison-408877","3100","SG","34.24","215.5","20.5","104.50","15.97","14.00","12.74","2.06","10.5","0","0"
"Semi Ojeleye","Semi-Ojeleye-37786","3000","PF","39.90","228.5","18.5","101.75","12.55","15.00","19.21","9.61","9.61","0","0"
"Robin Lopez","Robin-Lopez-1466","3000","C","54.62","215.5","16.6","104.50","18.45","13.00","18.85","9.43","9.43","0","0"
"Frank Jackson","Frank-Jackson-37855","3000","PG","51.17","228.5","13.5","104.88","18.86","15.00","11.2","1.81","9.23","0","0"
"Cheick Diallo","Cheick-Diallo-35225","3300","PF","47.08","228.5","11.4","104.88","14.97","10.00","18.53","7.76","9.27","0","0"
"Ian Clark","Ian-Clark-16922","3100","PG/SG","36.28","228.5","15.2","104.88","16.74","10.00","12.97","6.44","6.71","0","0"
"Derrick White","Derrick-White-37858","3500","PG","47.61","215.5","15.4","99.70","18.25","9.00","14.45","6.25","7.23","0","0"
"Cameron Payne","Cameron-Payne-18941","3100","PG/SG","47.51","215.5","8.7","104.50","12.97","5.00","8.52","3.69","4.26","0","0"
"Cristiano Felicio","Cristiano-Felicio-31767","3000","C","54.62","215.5","6.4","104.50","14.20","2.00","3.52","1.52","1.76","0","0"
