"nameCol","idCol","salaryCol","positionCol","dvpCol","ouCol","mpgCol","paceCol","usgCol","pminCol","ceilCol","floorCol","pointsCol","predictCol","actualCol"
"Justise Winslow","Justise-Winslow-18921","4200","PG/SF","43.27","224","25.5","106.90","17.60","30.00","56.23","23.08","31.1","0","0"
"Wayne Ellington","Wayne-Ellington-1009","4100","PG/SG","43.27","224","28.2","106.90","14.45","30.00","49.32","19.22","28.1","0","0"
"Taurean Prince","Taurean-Prince-35218","5200","SF","37.92","224","29.2","105.10","20.34","32.00","56.6","20.64","34.51","0","0"
"Garrett Temple","Garrett-Temple-14077","3900","SG/SF","37.22","209","33.1","103.30","11.34","32.00","44.78","17.09","23.67","0","0"
"James Johnson","James-Johnson-1195","4000","SF/PF","57.63","224","20.8","106.90","18.92","22.00","37.01","12.36","23.91","0","0"
"Kyle Anderson","Kyle-Anderson-18615","4800","PG/SF","38.31","209","34.9","103.30","9.44","34.00","42.56","14.79","27.23","0","0"
"Dewayne Dedmon","Dewayne-Dedmon-16894","4300","PF/C","52.84","224","24.6","105.10","16.17","23.00","40.29","14.44","24.27","0","0"
"Rodney McGruder","Rodney-McGruder-16850","4900","SG/SF","43.52","224","34.0","106.90","17.55","35.00","49.88","17.02","27.27","0","0"
"Danny Green","Danny-Green-940","4200","SG/SF","40.06","209","27.4","105.50","13.68","30.00","38.91","16.21","23.33","0","0"
"Kevin Huerter","Kevin-Huerter-408969","3300","SG","38.75","224","21.9","105.10","15.52","23.00","22.69","4.44","18.21","0","0"
"Dwyane Wade","Dwyane-Wade-967","5300","PG/SG","49.95","224","23.7","106.90","31.13","23.00","47.53","19.03","28.79","0","0"
"Jonas Valanciunas","Jonas-Valanciunas-13301","5300","C","46.95","209","20.9","105.50","23.87","23.00","43.91","17.05","28.46","0","0"
"Shelvin Mack","Shelvin-Mack-13354","3600","PG","40.62","209","23.0","103.30","17.63","21.00","34.07","15.38","18.96","0","0"
"Alex Len","Alex-Len-16886","3700","C","52.84","224","20.2","105.10","20.97","17.00","32.13","14.11","19.3","0","0"
"DeAndre Bembry","DeAndre-Bembry-35198","4000","SF","37.92","224","20.1","105.10","21.93","26.00","35.6","17.02","20.26","0","0"
"Mike Conley","Mike-Conley-1062","7700","PG","40.62","209","34.3","103.30","28.61","36.00","68.54","22.54","38.99","0","0"
"Josh Richardson","Josh-Richardson-18922","7400","SG/SF","49.95","224","34.2","106.90","23.49","35.00","64.53","21.65","36.94","0","0"
"Kyle Lowry","Kyle-Lowry-1057","7800","PG","41.71","209","33.7","105.50","21.23","34.00","64.33","20.83","38.5","0","0"
"Marc Gasol","Marc-Gasol-1493","8900","C","56.89","209","36.1","103.30","24.28","36.00","67.93","25.48","43.71","0","0"
"Kent Bazemore","Kent-Bazemore-13987","5100","SG/SF","47.08","224","21.4","105.10","20.01","25.00","39.66","11.59","24.82","0","0"
"Bam Adebayo","Bam-Adebayo-37835","4500","C","56.05","224","20.5","106.90","20.55","23.00","37.78","19.27","21.8","0","0"
"Trae Young","Trae-Young-409063","6600","PG","53.22","224","26.0","105.10","30.40","30.00","43.5","11.63","31.59","0","0"
"Jaren Jackson","Jaren-Jackson-409099","5800","PF","56.89","209","25.0","103.30","21.51","30.00","36.86","8.45","27.63","0","0"
"Kawhi Leonard","Kawhi-Leonard-13310","9400","SF/PF","41.98","209","34.4","105.50","31.14","35.00","70.33","21.83","44.74","0","0"
"Kelly Olynyk","Kelly-Olynyk-16845","3500","PF/C","63.18","224","13.4","106.90","19.61","16.00","29.07","13.92","16.59","0","0"
"JaMychal Green","JaMychal-Green-18729","4200","SF/PF","56.89","209","21.2","103.30","19.53","20.00","39.22","17.28","19.77","0","0"
"John Collins","John-Collins-37823","6200","C","52.84","224","23.6","105.10","24.59","30.00","53.76","18.16","29.2","0","0"
"Fred VanVleet","Fred-VanVleet-36011","4300","PG/SG","45.12","209","25.1","105.50","17.17","21.00","37.9","16.56","20.17","0","0"
"Jeremy Lin","Jeremy-Lin-916","4700","PG/SG","53.22","224","22.4","105.10","25.75","22.00","40.25","16.32","21.91","0","0"
"Hassan Whiteside","Hassan-Whiteside-18664","8200","C","56.05","224","23.2","106.90","27.81","26.00","54.52","17.44","36.79","0","0"
"Pascal Siakam","Pascal-Siakam-35186","6000","PF","46.95","209","30.9","105.50","17.91","30.00","46.57","15.2","26.72","0","0"
"Serge Ibaka","Serge-Ibaka-1294","5700","PF/C","40.35","209","26.0","105.50","23.51","24.00","48.42","21.31","25.1","0","0"
"OG Anunoby","OG-Anunoby-37807","3700","SF","40.06","209","16.5","105.50","21.26","20.00","28.83","14.42","14.42","0","0"
"Delon Wright","Delon-Wright-18907","3500","PG/SG","45.12","209","17.7","105.50","18.37","15.00","22.75","9.38","11.75","0","0"
"Omari Spellman","Omari-Spellman-408970","3400","PF","49.29","224","14.3","105.10","18.02","12.00","12.31","2.41","9.88","0","0"
"Wayne Selden","Wayne-Selden-36045","3000","SG","48.55","209","16.6","103.30","18.53","12.00","16.79","8.4","8.4","0","0"
"Omri Casspi","Omri-Casspi-1270","3000","SF/PF","38.31","209","9.7","103.30","18.13","9.00","16.69","7.01","8.35","0","0"
"MarShon Brooks","MarShon-Brooks-188837","3000","SG","48.55","209","12.3","103.30","25.81","10.00","13.51","5.23","7.44","0","0"
"C.J. Miles","C.J.-Miles-1299","3100","SG/SF","40.06","209","15.0","105.50","26.35","8.00","14.01","5.78","7.13","0","0"
