"nameCol","idCol","salaryCol","positionCol","dvpCol","ouCol","mpgCol","paceCol","usgCol","pminCol","ceilCol","floorCol","pointsCol","predictCol","actualCol"
"Trey Lyles","Trey-Lyles-18942","3700","SF/PF","40.62","197.5","20.3","99.62","22.23","30.00","39.06","16.64","29.24","0","0"
"Langston Galloway","Langston-Galloway-18717","3300","PG/SG","32.76","218.5","25.7","100.30","16.87","32.00","43.32","20.81","25.04","0","0"
"Bruce Brown","Bruce-Brown-408913","3300","SG","52.47","218.5","21.1","100.30","11.24","32.00","24.08","4.41","23.82","0","0"
"Luke Kennard","Luke-Kennard-37814","3000","SG/SF","32.76","218.5","15.5","100.30","16.12","25.00","32.19","14.91","21.36","0","0"
"Daniel Theis","Daniel-Theis-37784","4000","PF/C","50.95","223.5","18.5","101.75","20.50","28.00","48.03","25.44","28.17","0","0"
"Jonathon Simmons","Jonathon-Simmons-31808","3300","SG/SF","47.46","210.5","22.8","105.10","14.09","28.00","33.73","14.6","22.4","0","0"
"Tomas Satoransky ","Tomas-Satoransky--36031","4200","PG/SG","48.51","217","25.3","103.80","12.72","35.00","40.61","16.0","28.42","0","0"
"Lonzo Ball","Lonzo-Ball-37885","5200","PG","39.97","221","29.6","112.50","19.51","35.00","46.8","18.11","35.16","0","0"
"Marcus Smart","Marcus-Smart-18567","4300","PG/SG","49.99","223.5","27.8","101.75","11.87","32.00","40.9","16.0","28.52","0","0"
"JaVale McGee","JaVale-McGee-1485","4400","C","52.04","221","20.1","112.50","18.05","25.00","40.88","17.81","29.01","0","0"
"Kyle Anderson","Kyle-Anderson-18615","4200","PG/SF","34.89","197.5","28.5","103.30","12.97","33.00","37.95","13.91","27.5","0","0"
"Austin Rivers","Austin-Rivers-13903","4000","PG/SG","36.34","217","23.4","103.80","16.96","33.00","40.59","16.34","25.9","0","0"
"Jerian Grant","Jerian-Grant-18900","3200","PG","43.70","210.5","21.2","105.10","10.71","24.00","33.7","17.94","20.41","0","0"
"Wilson Chandler","Wilson-Chandler-1327","3900","SF/PF","34.02","218.5","27.2","108.33","13.03","30.00","37.62","16.85","24.85","0","0"
"D.J. Augustin","D.J.-Augustin-1064","3900","PG","43.70","210.5","26.5","105.10","17.60","29.00","40.12","13.23","24.63","0","0"
"Jon Leuer","Jon-Leuer-13317","3000","PF/C","54.98","218.5","9.2","100.30","22.30","21.00","30.07","15.69","18.48","0","0"
"Otto Porter","Otto-Porter-17069","6100","SF/PF","34.97","217","33.5","103.80","15.04","34.00","54.86","25.35","37.5","0","0"
"Dennis Schroder","Dennis-Schroder-18595","5100","PG/SG","47.97","218.5","26.2","102.62","25.11","28.00","47.86","25.56","31.28","0","0"
"Brook Lopez","Brook-Lopez-1498","4500","C","47.72","219","29.3","98.80","18.04","28.00","41.26","18.15","27.34","0","0"
"Garrett Temple","Garrett-Temple-14077","3500","SG/SF","33.90","197.5","28.8","103.30","15.01","31.00","34.04","15.2","21.17","0","0"
"Jerami Grant","Jerami-Grant-18576","4300","PF","48.46","218.5","28.6","102.62","13.41","30.00","41.81","17.91","26","0","0"
"Reggie Jackson","Reggie-Jackson-13352","5000","PG/SG","52.47","218.5","27.1","100.30","22.72","33.00","41.8","15.81","30.18","0","0"
"Juan Hernangomez","Juan-Hernangomez-35212","4700","SF/PF","40.62","197.5","31.8","99.62","14.06","33.00","46.85","18.81","28.12","0","0"
"Shelvin Mack","Shelvin-Mack-13354","3300","PG","39.84","197.5","24.8","103.30","16.56","24.00","30.83","15.24","19.69","0","0"
"Cedi Osman","Cedi-Osman-18912","4300","SF","39.65","219","33.8","103.60","16.52","32.00","31.82","11.95","25.58","0","0"
"Jeff Teague","Jeff-Teague-1005","5900","PG","49.08","229","31.8","100.67","19.73","34.00","49.06","18.04","34.89","0","0"
"Nemanja Bjelica","Nemanja-Bjelica-31814","4000","SF/PF","50.56","225.5","22.8","98.20","16.40","23.00","39.16","15.57","23.62","0","0"
"Josh Hart","Josh-Hart-37889","4100","SG","37.09","221","24.1","112.50","12.56","32.00","33.28","16.77","24.17","0","0"
"Tim Frazier","Tim-Frazier-18743","4100","PG/SG","38.02","223.5","27.0","104.88","14.21","30.00","39.1","16.11","23.87","0","0"
"Jaylen Brown","Jaylen-Brown-35181","5000","SG/SF","41.22","223.5","26.5","101.75","23.68","32.00","55.06","24.16","29.07","0","0"
"Kevon Looney","Kevon-Looney-18945","4100","PF/C","54.06","229","24.5","103.10","12.61","25.00","34.01","15.2","23.82","0","0"
"Marvin Bagley III","Marvin-Bagley-III-409321","4700","PF","50.56","225.5","20.3","98.20","22.43","27.00","27.54","5.04","27.24","0","0"
"Tyreke Evans","Tyreke-Evans-1070","4700","SG/SF","45.58","217","24.3","107.67","25.64","23.00","39.51","15.05","27.12","0","0"
"Nikola Jokic","Nikola-Jokic-31812","9300","C","53.70","197.5","31.3","99.62","27.34","34.00","68.05","21.97","53.46","0","0"
"Jonathan Isaac","Jonathan-Isaac-37841","4100","PF","52.36","210.5","26.8","105.10","16.76","29.00","38.57","21.09","23.56","0","0"
"Zach LaVine","Zach-LaVine-18622","7400","PG/SG","54.18","225.5","32.1","104.50","29.50","36.00","58.94","25.29","42.43","0","0"
"Wesley Matthews","Wesley-Matthews-1339","4600","SG/SF","42.46","210.5","27.8","100.08","20.03","31.00","38.67","16.22","26.38","0","0"
"Bam Adebayo","Bam-Adebayo-37835","5800","C","56.10","221","23.0","106.90","15.78","31.00","46.47","18.48","33.17","0","0"
"Wendell Carter","Wendell-Carter-408878","5000","C","57.92","225.5","24.7","104.50","19.16","30.00","31.57","11.64","28.6","0","0"
"Larry Nance","Larry-Nance-18946","4600","PF/C","54.58","219","27.6","103.60","12.00","26.00","40.52","20.93","26.33","0","0"
"Andre Drummond","Andre-Drummond-13904","8400","C","51.82","218.5","30.1","100.30","26.70","35.00","58.9","22.23","47.81","0","0"
"Solomon Hill","Solomon-Hill-16863","3200","SF/PF","34.62","223.5","24.0","104.88","8.49","29.00","28.7","15.52","18.19","0","0"
"Derrick Rose","Derrick-Rose-1086","5500","PG/SG","49.08","229","27.0","100.67","24.86","28.00","48.55","26.7","31.08","0","0"
"Terry Rozier","Terry-Rozier-18894","5300","PG/SG","49.98","223.5","21.4","101.75","21.20","32.00","47.36","25.28","29.71","0","0"
"De'Anthony Melton","De'Anthony-Melton-409081","4600","SG","52.97","221.5","16.8","108.80","23.30","26.00","29.19","7.88","25.74","0","0"
"Mikal Bridges","Mikal-Bridges-408842","3800","SF","34.83","221.5","25.3","108.80","13.75","30.00","24.05","6.49","21.21","0","0"
"Mike Muscala","Mike-Muscala-17379","4200","PF/C","55.62","218.5","27.0","108.33","14.49","26.00","42.68","23.27","23.27","0","0"
"Khris Middleton","Khris-Middleton-13990","6700","SG/SF","53.02","219","29.2","98.80","24.35","33.00","59.73","26.42","36.85","0","0"
"Andrew Wiggins","Andrew-Wiggins-18620","5900","SG/SF","44.90","229","31.7","100.67","23.80","34.00","42.68","18.39","32.43","0","0"
"Zaza Pachulia","Zaza-Pachulia-1455","3200","C","51.82","218.5","14.6","100.30","15.33","18.00","29.59","13.47","17.58","0","0"
"Andre Iguodala","Andre-Iguodala-1334","3700","SG/SF","39.73","229","25.5","103.10","10.24","24.00","30.78","11.91","20.25","0","0"
"Dario Saric","Dario-Saric-36004","3800","PF","47.07","229","19.5","100.67","16.81","21.00","34.79","17.42","20.71","0","0"
"Karl-Anthony Towns","Karl-Anthony-Towns-18937","9200","C","53.86","229","33.3","100.67","27.37","36.00","67.38","27.35","50.1","0","0"
"Ben Simmons","Ben-Simmons-35184","8500","PG/SF","43.39","218.5","32.0","108.33","21.25","35.00","60.36","19.8","46.36","0","0"
"Donovan Mitchell","Donovan-Mitchell-37875","7000","PG/SG","45.70","218.5","31.8","98.88","29.66","35.00","49.58","21.03","38.02","0","0"
"Ersan Ilyasova","Ersan-Ilyasova-1301","3300","PF/C","45.68","219","16.0","98.80","19.78","19.00","27.56","12.38","17.87","0","0"
"Julius Randle","Julius-Randle-18632","7100","PF/C","50.67","223.5","29.1","104.88","29.27","32.00","53.31","22.86","38.49","0","0"
"Mason Plumlee","Mason-Plumlee-16798","3900","PF/C","48.22","197.5","18.3","99.62","18.66","21.00","35.33","16.39","21.12","0","0"
"Torrey Craig","Torrey-Craig-37861","3200","SG/SF","38.35","197.5","18.5","99.62","12.63","24.00","24.16","10.25","17.32","0","0"
"Joel Embiid","Joel-Embiid-18578","9800","C","55.62","218.5","31.2","108.33","28.57","34.00","64.67","22.95","53.01","0","0"
"Kentavious Caldwell-Pope","Kentavious-Caldwell-Pope-16869","3800","SG/SF","37.09","221","22.9","112.50","15.87","27.00","39.17","20.51","20.51","0","0"
"Markieff Morris","Markieff-Morris-13314","5200","PF/C","52.39","217","28.1","103.80","21.78","30.00","38.43","19.94","28.01","0","0"
"Marcus Morris","Marcus-Morris-13316","5500","SF/PF","41.22","223.5","27.6","101.75","19.30","32.00","39.62","15.58","29.57","0","0"
"Collin Sexton","Collin-Sexton-408896","4900","PG","46.74","219","34.2","103.60","25.70","34.00","26.33","5.54","26.38","0","0"
"Malik Beasley","Malik-Beasley-35213","3500","SG","38.35","197.5","26.5","99.62","16.34","26.00","34.4","18.82","18.82","0","0"
"Jamal Murray","Jamal-Murray-35211","7200","PG/SG","42.44","197.5","35.8","99.62","27.04","37.00","56.91","23.16","38.66","0","0"
"Lauri Markkanen","Lauri-Markkanen-37809","6300","PF","53.66","225.5","25.8","104.50","27.00","32.00","48.71","20.4","33.78","0","0"
"Richaun Holmes","Richaun-Holmes-18905","4000","PF/C","58.25","221.5","19.0","108.80","18.69","19.00","36.18","14.58","21.41","0","0"
"Avery Bradley","Avery-Bradley-941","3900","SG","36.28","221.5","32.0","108.38","14.23","31.00","31.1","13.62","20.83","0","0"
"Monte Morris","Monte-Morris-37860","3600","PG","42.44","197.5","25.3","99.62","19.94","25.00","28.56","14.82","19.17","0","0"
"Terrence Ross","Terrence-Ross-13902","4800","SG/SF","34.29","210.5","28.3","105.10","22.59","30.00","39.44","21.73","25.48","0","0"
"Aaron Holiday","Aaron-Holiday-408932","3300","PG","46.97","217","14.7","107.67","19.61","20.00","18.03","3.43","17.49","0","0"
"Alec Burks","Alec-Burks-13353","4700","PG/SG","50.44","219","26.6","103.60","22.52","30.00","34.9","18.17","24.82","0","0"
"Trevor Ariza","Trevor-Ariza-1323","4900","SF/PF","34.83","221.5","30.4","108.80","16.30","33.00","33.98","13.04","25.82","0","0"
"Willie Cauley-Stein","Willie-Cauley-Stein-18951","6100","C","56.05","225.5","27.4","98.20","20.70","29.00","45.91","20.24","32.08","0","0"
"Jordan Clarkson","Jordan-Clarkson-18631","4800","PG/SG","50.44","219","26.4","103.60","27.63","25.00","41.7","24.27","25.26","0","0"
"Glenn Robinson","Glenn-Robinson-18621","3000","SF/PF","35.49","218.5","15.1","100.30","12.78","22.00","23.01","10.17","15.79","0","0"
"Patrick Beverley","Patrick-Beverley-14108","3600","PG/SG","46.27","221.5","18.2","108.38","14.65","20.00","36.06","18.86","18.86","0","0"
"James Johnson","James-Johnson-1195","4100","SF/PF","45.39","221","20.0","106.90","22.68","20.00","28.07","11.32","21.36","0","0"
"Taj Gibson","Taj-Gibson-1277","4300","PF/C","49.65","229","25.3","100.67","17.72","25.00","30.82","11.47","22.27","0","0"
"Jae Crowder","Jae-Crowder-13942","4500","SF/PF","38.28","218.5","24.9","98.88","19.41","28.00","39.03","17.84","23.29","0","0"
"Ricky Rubio","Ricky-Rubio-1001","6300","PG","34.73","218.5","30.6","98.88","23.08","32.00","43.51","17.29","32.57","0","0"
"J.J. Barea","J.J.-Barea-18605","4800","PG/SG","48.92","210.5","18.7","100.08","33.08","20.00","36.75","18.05","24.8","0","0"
"Anthony Davis","Anthony-Davis-13895","10900","PF/C","50.67","223.5","35.0","104.88","29.64","37.00","83.46","28.87","56.39","0","0"
"Kelly Oubre","Kelly-Oubre-18925","4500","SG/SF","34.97","217","25.0","103.80","19.89","26.00","40.71","18.85","23.04","0","0"
"Josh Richardson","Josh-Richardson-18922","6600","SG/SF","51.31","221","35.6","106.90","23.41","35.00","49.31","20.24","33.57","0","0"
"Jrue Holiday","Jrue-Holiday-1073","8000","PG/SG","51.46","223.5","37.4","104.88","26.81","38.00","55.22","19.38","40.63","0","0"
"Russell Westbrook","Russell-Westbrook-1083","11000","PG","47.97","218.5","33.8","102.62","34.78","35.00","62.48","18.87","55.84","0","0"
"Robert Covington","Robert-Covington-16874","6000","SF/PF","35.12","229","35.4","100.67","16.42","36.00","44.46","19.5","30.47","0","0"
"LeBron James","LeBron-James-1227","10700","SF/PF","50.13","221","33.7","112.50","35.94","37.00","65.72","22.81","54.31","0","0"
"Nikola Vucevic","Nikola-Vucevic-13296","8600","C","52.36","210.5","31.0","105.10","27.49","31.00","56.69","21.45","43.51","0","0"
"Lou Williams","Lou-Williams-1044","5500","PG/SG","48.36","221.5","23.8","108.38","33.25","23.00","42.47","17.04","27.85","0","0"
"Bradley Beal","Bradley-Beal-13898","8400","SG","45.09","217","36.6","103.80","28.00","36.00","67.02","28.86","42.5","0","0"
"Jayson Tatum","Jayson-Tatum-37782","6900","SF/PF","48.17","223.5","27.2","101.75","21.42","35.00","43.71","18.07","34.55","0","0"
"T.J. McConnell","T.J.-McConnell-18956","3300","PG/SG","43.39","218.5","24.0","108.33","16.94","20.00","27.04","13.95","16.51","0","0"
"Shai Gilgeous-Alexander","Shai-Gilgeous-Alexander-408990","5000","PG","53.66","221.5","25.7","108.38","18.03","28.00","29.22","9.18","24.95","0","0"
"Danilo Gallinari","Danilo-Gallinari-1329","6800","SF/PF","52.07","221.5","32.7","108.38","22.06","32.00","48.36","19.91","33.91","0","0"
"Rodney Hood","Rodney-Hood-18629","4500","SG/SF","50.44","219","29.9","103.60","18.60","30.00","35.95","14.38","22.47","0","0"
"Dwight Powell","Dwight-Powell-18566","3600","PF/C","51.11","210.5","17.3","100.08","19.66","16.00","28.06","14.3","17.92","0","0"
"Kevin Durant","Kevin-Durant-1348","10100","SF/PF","54.23","229","37.3","103.10","33.19","34.00","66.19","23.5","50.22","0","0"
"JaMychal Green","JaMychal-Green-18729","4400","SF/PF","56.09","197.5","24.8","103.30","21.25","24.00","36.65","19.12","21.88","0","0"
"De'Aaron Fox","De'Aaron-Fox-37900","7600","PG","51.76","225.5","30.8","98.20","27.96","34.00","47.06","19.15","37.77","0","0"
"J.J. Redick","J.J.-Redick-1030","5500","SG/SF","38.58","218.5","28.6","108.33","26.23","30.00","36.38","17.57","27.29","0","0"
"Marc Gasol","Marc-Gasol-1493","8300","C","56.09","197.5","35.8","103.30","18.91","35.00","55.48","23.67","41.16","0","0"
"Landry Shamet","Landry-Shamet-408841","3000","PG","51.11","218.5","19.4","108.33","14.65","20.00","15.31","2.91","14.85","0","0"
"Deandre Ayton","Deandre-Ayton-409301","6300","C","54.48","221.5","27.3","108.80","19.85","31.00","35.06","9.46","30.92","0","0"
"Eric Bledsoe","Eric-Bledsoe-1031","7500","PG/SG","42.63","219","31.2","98.80","22.88","33.00","53.65","22.47","36.77","0","0"
"Jalen Brunson","Jalen-Brunson-409062","3400","PG","37.59","210.5","13.2","100.08","18.95","24.00","18.9","5.1","16.67","0","0"
"Goran Dragic","Goran-Dragic-1040","6000","PG","35.76","221","21.0","106.90","34.86","30.00","40.4","17.26","29.36","0","0"
"Thaddeus Young","Thaddeus-Young-1289","4800","SF/PF","50.49","217","29.1","107.67","17.41","30.00","33.29","12.53","23.46","0","0"
"Malcolm Brogdon","Malcolm-Brogdon-35195","6200","PG/SG","55.04","219","30.5","98.80","21.95","31.00","46.57","21.47","30.24","0","0"
"Giannis Antetokounmpo","Giannis-Antetokounmpo-16852","11700","SF/PF","45.68","219","34.8","98.80","28.83","36.00","67.95","25.07","57.1","0","0"
"Justin Jackson","Justin-Jackson-37895","3400","SF","34.49","225.5","20.2","98.20","13.67","22.00","25.12","13.37","16.59","0","0"
"Jaren Jackson","Jaren-Jackson-409099","5900","PF","56.09","197.5","24.2","103.30","21.77","27.00","27.13","3.22","28.74","0","0"
"Justin Holiday","Justin-Holiday-14559","5300","SG/SF","43.60","225.5","33.0","104.50","16.24","33.00","36.48","16.09","25.78","0","0"
"DeAndre Jordan","DeAndre-Jordan-1486","7500","C","53.86","210.5","28.8","100.08","15.41","31.00","45.26","21.48","36.41","0","0"
"Rodney McGruder","Rodney-McGruder-16850","4200","SG/SF","34.40","221","26.8","106.90","15.01","27.00","31.75","13.72","20.35","0","0"
"Jimmy Butler","Jimmy-Butler-13327","7900","SG/SF","45.05","218.5","31.6","108.33","28.99","35.00","52.6","20.1","38.28","0","0"
"Tobias Harris","Tobias-Harris-13332","7700","SF/PF","52.07","221.5","33.8","108.38","24.63","35.00","50.12","20.62","37.29","0","0"
"Klay Thompson","Klay-Thompson-13315","6800","SG","39.73","229","35.8","103.10","25.24","34.00","42.35","19.0","32.93","0","0"
"Montrezl Harrell","Montrezl-Harrell-18930","6700","PF/C","55.50","221.5","26.3","108.38","22.04","27.00","48.21","25.22","32.29","0","0"
"Bojan Bogdanovic","Bojan-Bogdanovic-18571","5700","SG/SF","41.40","217","31.4","107.67","22.25","31.00","43.59","22.74","27.5","0","0"
"Mike Conley","Mike-Conley-1062","8100","PG","39.84","197.5","34.8","103.30","26.78","35.00","58.16","23.4","39.06","0","0"
"Justise Winslow","Justise-Winslow-18921","4800","SF/PF","36.63","221","30.2","106.90","21.18","23.00","35.71","17.79","23.14","0","0"
"Jordan Bell","Jordan-Bell-37877","3200","PF","54.06","229","15.3","103.10","13.61","16.00","26.51","12.88","15.35","0","0"
"Bobby Portis","Bobby-Portis-18909","5300","PF/C","57.92","225.5","0","104.50","0","20.00","46.73","22.3","25.37","0","0"
"Rudy Gobert","Rudy-Gobert-16935","7900","C","48.79","218.5","28.0","98.88","18.62","33.00","53.55","19.13","37.58","0","0"
"Harrison Barnes","Harrison-Barnes-13901","6500","SF/PF","50.17","210.5","32.2","100.08","25.49","33.00","39.06","17.92","30.85","0","0"
"Iman Shumpert","Iman-Shumpert-13350","3500","SG/SF","34.49","225.5","23.8","98.20","12.47","23.00","24.13","11.88","16.62","0","0"
"Jabari Parker","Jabari-Parker-18593","5800","SF/PF","53.66","225.5","29.9","104.50","25.30","26.00","47.28","23.42","27.52","0","0"
"Nikola Mirotic","Nikola-Mirotic-18584","6500","PF/C","42.55","223.5","28.8","104.88","20.53","27.00","49.42","21.83","30.41","0","0"
"Paul George","Paul-George-1245","8800","SF/PF","48.46","218.5","31.0","102.62","31.00","35.00","57.19","25.18","40.94","0","0"
"Darius Miller","Darius-Miller-13951","3200","SF/PF","34.62","223.5","20.6","104.88","14.58","26.00","26.67","14.85","14.85","0","0"
"Luka Doncic","Luka-Doncic-408971","7100","PG","46.66","210.5","28.0","100.08","26.87","32.00","37.37","10.08","32.95","0","0"
"Steven Adams","Steven-Adams-16848","6800","C","53.33","218.5","30.4","102.62","18.98","33.00","42.65","20.92","31.5","0","0"
"Draymond Green","Draymond-Green-13976","7000","PF/C","52.73","229","0","103.10","0","30.00","39.41","14.03","32.41","0","0"
"Kyle Kuzma","Kyle-Kuzma-37886","7200","SF/PF","50.13","221","34.0","112.50","23.01","35.00","42.9","18.71","33.23","0","0"
"Stephen Curry","Stephen-Curry-1079","9900","PG/SG","48.14","229","33.2","103.10","31.96","34.00","63.62","23.78","45.64","0","0"
"Dwyane Wade","Dwyane-Wade-967","5800","PG/SG","51.31","221","26.0","106.90","29.35","22.00","38.14","17.75","26.73","0","0"
"Buddy Hield","Buddy-Hield-35206","6600","SG/SF","34.49","225.5","28.8","98.20","26.18","30.00","46.03","20.35","30.38","0","0"
"Aaron Gordon","Aaron-Gordon-18601","7500","SF/PF","45.22","210.5","32.2","105.10","21.73","34.00","44.53","19.0","34.49","0","0"
"Maxi Kleber","Maxi-Kleber-37845","3200","PF","50.17","210.5","18.7","100.08","18.71","16.00","24.11","12.12","14.65","0","0"
"Joe Ingles","Joe-Ingles-18627","6100","SG/SF","39.73","218.5","27.9","98.88","17.43","31.00","41.94","18.59","27.79","0","0"
"Devin Harris","Devin-Harris-1076","3100","PG/SG","48.92","210.5","15.3","100.08","15.72","16.00","25.32","14.14","14.14","0","0"
"Marcin Gortat","Marcin-Gortat-1479","3700","C","60.30","221.5","17.8","108.38","13.57","17.00","24.78","10.03","16.8","0","0"
"Domantas Sabonis","Domantas-Sabonis-35217","7300","PF/C","55.04","217","25.0","107.67","26.59","25.00","49.06","25.86","33.15","0","0"
"Lance Stephenson","Lance-Stephenson-947","3200","SG/SF","45.86","221","9.8","112.50","26.64","16.00","24.7","11.58","14.53","0","0"
"Mike Scott","Mike-Scott-13999","3200","SF/PF","52.07","221.5","14.0","108.38","15.81","17.00","28.93","17.02","14.47","0","0"
"Nerlens Noel","Nerlens-Noel-18575","3400","C","53.33","218.5","15.8","102.62","17.71","15.00","26.54","13.05","15.34","0","0"
"Royce O'Neale","Royce-O'Neale-37872","3500","SF","38.28","218.5","23.0","98.88","12.24","20.00","23.42","11.68","15.76","0","0"
"Mohamed Bamba","Mohamed-Bamba-409026","3500","C","48.73","210.5","16.2","105.10","18.31","17.00","16.65","3.84","15.72","0","0"
"Bogdan Bogdanovic","Bogdan-Bogdanovic-37899","6300","SG/SF","44.14","225.5","28.0","98.20","26.40","30.00","44.68","24.59","28.17","0","0"
"Josh Jackson","Josh-Jackson-37890","5400","SF","47.45","221.5","26.0","108.80","26.96","24.00","33.88","15.44","24.01","0","0"
"Tyson Chandler","Tyson-Chandler-1482","3600","C","52.04","221","21.7","112.50","7.40","19.00","30.08","16","16","0","0"
"Derrick Favors","Derrick-Favors-1266","5400","PF/C","47.31","218.5","22.1","98.88","15.84","23.00","31.57","14.71","23.92","0","0"
"Dorian Finney-Smith","Dorian-Finney-Smith-36032","3700","SF","33.13","210.5","25.8","100.08","12.67","21.00","25.53","13.33","16.28","0","0"
"Terrance Ferguson","Terrance-Ferguson-37871","3200","SF","33.79","218.5","25.3","102.62","8.00","25.00","21.93","9.17","13.9","0","0"
"Thomas Bryant ","Thomas-Bryant--37884","3500","C","52.39","217","16.0","103.80","14.03","20.00","25.48","11.95","15.2","0","0"
"Shaun Livingston","Shaun-Livingston-14007","3100","PG","36.23","229","17.0","103.10","13.51","16.00","21.34","9.99","13.18","0","0"
"Matthew Dellavedova","Matthew-Dellavedova-16839","3000","PG/SG","42.77","219","12.5","103.60","14.70","16.00","21.95","11.77","12.7","0","0"
"Kelly Olynyk","Kelly-Olynyk-16845","5300","PF/C","58.93","221","25.7","106.90","20.48","22.00","33.3","16.92","22.35","0","0"
"TJ Warren","TJ-Warren-18634","6000","SF/PF","47.45","221.5","35.5","108.80","21.40","25.00","33.84","14.49","25.29","0","0"
"Jeff Green","Jeff-Green-1314","3500","SF/PF","48.45","217","20.6","103.80","14.26","18.00","25.28","11.54","14.7","0","0"
"Cory Joseph","Cory-Joseph-13339","4400","PG","46.97","217","26.6","107.67","16.55","26.00","33.75","14.87","18.43","0","0"
"Kosta Koufos","Kosta-Koufos-1386","3000","C","56.05","225.5","16.2","98.20","15.10","11.00","23.96","12.5","12.5","0","0"
"Semi Ojeleye","Semi-Ojeleye-37786","3100","PF","41.22","223.5","8.4","101.75","18.41","20.00","24.54","12.72","12.72","0","0"
"Darren Collison","Darren-Collison-1060","6900","PG","46.97","217","29.9","107.67","18.81","31.00","37.66","17.17","27.96","0","0"
"Myles Turner","Myles-Turner-18915","7000","C","62.58","217","28.4","107.67","19.50","29.00","45.95","21.1","28.17","0","0"
"Tristan Thompson","Tristan-Thompson-13308","7200","C","48.18","219","34.1","103.60","16.59","32.00","39.89","17.06","28.97","0","0"
"Wesley Iwundu","Wesley-Iwundu-37839","3000","SG","38.43","210.5","6.0","105.10","12.58","18.00","23.69","11.85","11.85","0","0"
"Jaron Blossomgame","Jaron-Blossomgame-570197","3000","SF","39.65","219","13.0","103.60","10.26","16.00","12.05","2.24","11.72","0","0"
"Gorgui Dieng","Gorgui-Dieng-16939","3200","PF/C","49.65","229","12.5","100.67","14.44","12.00","19.43","9.39","12.45","0","0"
"Tyus Jones","Tyus-Jones-18938","3100","PG","41.52","229","15.2","100.67","11.06","14.00","21.69","11.53","11.99","0","0"
"George Hill","George-Hill-993","3700","PG/SG","55.04","219","26.0","98.80","12.69","15.00","24.58","12.81","14.28","0","0"
"Kyle Korver","Kyle-Korver-1269","3200","SG/SF","39.73","218.5","17.2","98.88","19.75","15.00","21.18","9.71","12.25","0","0"
"Ryan Arcidiacono","Ryan-Arcidiacono-36050","3600","PG","44.66","225.5","29.4","104.50","12.60","22.00","22.53","8.9","13.77","0","0"
"Elie Okobo","Elie-Okobo-409300","4100","PG","41.58","221.5","27.2","108.80","18.80","20.00","15.57","2.78","15.34","0","0"
"Doug McDermott","Doug-McDermott-18583","3200","SF/PF","41.40","217","19.3","107.67","20.12","19.00","23.43","11.72","11.72","0","0"
"Tony Snell","Tony-Snell-16872","3200","SG/SF","37.29","219","17.7","98.80","17.83","17.00","20.15","10.44","11.57","0","0"
"Jamal Crawford","Jamal-Crawford-1075","3600","PG/SG","47.45","221.5","21.0","108.80","23.77","14.00","22.56","12.68","12.68","0","0"
"Jonas Jerebko","Jonas-Jerebko-1106","3900","SF/PF","54.23","229","23.5","103.10","14.48","15.00","24.35","10.24","13.64","0","0"
"Wayne Ellington","Wayne-Ellington-1009","4500","PG/SG","36.63","221","29.8","106.90","15.56","20.00","20.24","14.01","15.57","0","0"
"Kris Dunn","Kris-Dunn-35215","5600","PG/SG","54.18","225.5","0","104.50","0","20.00","24.7","17.1","19","0","0"
"Wesley Johnson","Wesley-Johnson-1280","3000","SG/SF","34.62","223.5","11.0","104.88","9.90","16.00","18.92","10.08","10.08","0","0"
"Troy Williams","Troy-Williams-36043","3200","SG","34.49","225.5","15.0","98.20","15.63","11.00","16.44","8.41","10.41","0","0"
"Sviatoslav Mykhailiuk","Sviatoslav-Mykhailiuk-409280","3100","SG","37.53","221","10.8","112.50","20.64","14.00","10.25","1.95","9.94","0","0"
"Dante Exum","Dante-Exum-18626","3400","PG","34.73","218.5","9.3","98.88","32.41","13.00","19.08","8.61","10.93","0","0"
"Alex Abrines","Alex-Abrines-36054","3000","SG/SF","33.79","218.5","20.0","102.62","13.46","15.00","18.52","9.64","9.64","0","0"
"Brad Wanamaker","Brad-Wanamaker-438951","3000","PG/SG","52.16","223.5","6.0","101.75","19.96","11.00","9.51","1.7","9.37","0","0"
"Robert Williams","Robert-Williams-408780","3000","C","50.95","223.5","4.0","101.75","20.00","10.00","9.42","1.68","9.28","0","0"
"Jose Calderon","Jose-Calderon-1071","3000","PG","37.17","218.5","13.8","100.30","13.78","14.00","16.05","7.3","9.18","0","0"
"Sterling Brown","Sterling-Brown-37821","3200","SG","36.71","219","16.6","98.80","11.34","10.00","18.19","9.45","9.45","0","0"
"Thabo Sefolosha","Thabo-Sefolosha-1271","3000","SF/PF","38.28","218.5","10.5","98.88","12.19","10.00","12.86","7.3","8.65","0","0"
"Hamidou Diallo","Hamidou-Diallo-408800","3100","SG","33.79","218.5","6.5","102.62","25.26","12.00","9.02","1.61","8.89","0","0"
"Joakim Noah","Joakim-Noah-1404","3200","C","49.86","197.5","15.3","103.30","27.69","13.00","15.44","8.2","9.05","0","0"
"Thon Maker","Thon-Maker-35194","3100","PF/C","48.55","219","11.5","98.80","15.62","10.00","14.83","6.99","8.63","0","0"
"Troy Daniels","Troy-Daniels-17383","3400","SG","34.00","221.5","20.6","108.80","20.10","10.00","17.1","9.4","9.4","0","0"
"Tyrone Wallace","Tyrone-Wallace-35220","3000","PG/SG","48.36","221.5","6.3","108.38","19.39","10.00","13.03","8.16","8.16","0","0"
"MarShon Brooks","MarShon-Brooks-188837","3000","SG","49.39","197.5","14.2","103.30","20.83","10.00","12.0","5.5","7.81","0","0"
"Chandler Hutchison","Chandler-Hutchison-408877","3000","SG","36.94","225.5","15.4","104.50","10.03","10.00","7.97","1.52","7.73","0","0"
"Patrick Patterson","Patrick-Patterson-1260","3100","PF/C","55.99","218.5","13.8","102.62","13.70","12.00","13.79","6.69","7.92","0","0"
"Dragan Bender","Dragan-Bender-35228","3000","PF","54.48","221.5","13.7","108.80","14.50","8.00","12.48","7.13","7.13","0","0"
"Omri Casspi","Omri-Casspi-1270","3100","SF/PF","34.89","197.5","14.5","103.30","13.36","8.00","12.56","6.03","7.18","0","0"
"Henry Ellenson","Henry-Ellenson-35191","3000","PF","54.98","218.5","0","100.30","0","8.00","12.31","6.49","6.49","0","0"
"Furkan Korkmaz","Furkan-Korkmaz-35185","3100","SG","51.11","218.5","13.2","108.33","22.25","10.00","13.09","6.65","6.65","0","0"
"Pat Connaughton","Pat-Connaughton-18939","3300","SG/SF","36.71","219","21.8","98.80","13.95","8.00","11.85","5.08","6.6","0","0"
"Alfonzo McKinnie","Alfonzo-McKinnie-37808","3100","PF","39.91","229","15.0","103.10","18.36","8.00","11.85","6.17","6.17","0","0"
"Shaquille Harrison","Shaquille-Harrison-36065","3600","PG","44.66","225.5","16.1","104.50","16.53","8.00","11.57","5.6","7.14","0","0"
"Sam Dekker","Sam-Dekker-18929","3700","SF/PF","34.97","217","0","103.80","0","8.00","11.33","5.62","6.68","0","0"
"Tyler Johnson","Tyler-Johnson-18720","4800","PG/SG","50.89","221","13.3","106.90","19.20","10.00","13.21","5.95","8.39","0","0"
"P.J. Dozier","P.J.-Dozier-37848","3000","PG","49.99","223.5","5.0","101.75","40.00","8.00","6.05","4.54","5.04","0","0"
"TJ Leaf","TJ-Leaf-37817","3000","PF","62.58","217","7.2","107.67","20.81","6.00","9.3","4.65","4.65","0","0"
"Ian Clark","Ian-Clark-16922","3100","PG/SG","33.65","223.5","5.4","104.88","16.77","5.00","5.26","3.1","3.1","0","0"
"Quinn Cook","Quinn-Cook-31771","3300","PG","48.14","229","17.2","103.10","17.20","4.00","5.47","2.91","2.91","0","0"
"Cameron Payne","Cameron-Payne-18941","3300","PG/SG","44.66","225.5","17.3","104.50","19.43","3.00","4.87","2.45","2.83","0","0"
