"nameCol","idCol","salaryCol","positionCol","dvpCol","ouCol","mpgCol","paceCol","usgCol","pminCol","ceilCol","floorCol","pointsCol","predictCol","actualCol"
"Josh Jackson","Josh-Jackson-37890","5300","SF","46.32","222.5","22.7","108.80","23.75","36.00","55.31","25.7","37.96","0","0"
"Mikal Bridges","Mikal-Bridges-408842","3800","SF","37.12","222.5","24.7","108.80","10.68","31.00","28.95","10.67","26.22","0","0"
"Troy Daniels","Troy-Daniels-17383","3000","SG","42.54","222.5","15.0","108.80","21.33","18.00","33.85","18.7","18.7","0","0"
"Deandre Ayton","Deandre-Ayton-409301","6500","C","59.93","222.5","30.0","108.80","20.27","31.00","44.56","16.43","40.36","0","0"
"Nemanja Bjelica","Nemanja-Bjelica-31814","3900","SF/PF","51.88","222.5","19.4","98.20","20.00","24.00","39.33","15.78","23.88","0","0"
"Elie Okobo","Elie-Okobo-409300","4400","PG","45.10","222.5","29.3","108.80","18.77","30.00","29.53","10.89","26.75","0","0"
"Royce O'Neale","Royce-O'Neale-37872","3300","SF","37.18","215.5","21.9","98.88","9.81","23.00","28.68","14.0","18.82","0","0"
"Kosta Koufos","Kosta-Koufos-1386","3000","C","60.67","222.5","15.0","98.20","14.21","16.00","32.95","17.08","17.08","0","0"
"Trevor Ariza","Trevor-Ariza-1323","5700","SF/PF","37.12","222.5","34.6","108.80","13.34","36.00","40.7","15.62","30.93","0","0"
"Willie Cauley-Stein","Willie-Cauley-Stein-18951","6400","C","60.67","222.5","27.8","98.20","20.92","31.00","49.28","21.73","34.44","0","0"
"Troy Williams","Troy-Williams-36043","3000","SG","35.71","222.5","12.2","98.20","18.48","18.00","25.86","13.06","16.14","0","0"
"Jae Crowder","Jae-Crowder-13942","5000","SF/PF","37.18","215.5","28.4","98.88","21.14","32.00","39.39","15.18","26.78","0","0"
"LaMarcus Aldridge","LaMarcus-Aldridge-1349","7600","PF/C","56.38","215.5","32.1","99.70","26.43","34.00","57.84","26.19","40.11","0","0"
"Patty Mills","Patty-Mills-13977","3600","PG/SG","48.39","215.5","23.0","99.70","17.00","22.00","28.94","14.75","18.84","0","0"
"Ricky Rubio","Ricky-Rubio-1001","6200","PG","46.71","215.5","29.6","98.88","23.83","32.00","43.87","17.24","32.35","0","0"
"Joe Ingles","Joe-Ingles-18627","5100","SG/SF","33.38","215.5","31.1","98.88","17.99","32.00","41.32","17.39","26.59","0","0"
"Davis Bertans","Davis-Bertans-36051","3500","PF/C","56.38","215.5","19.0","99.70","16.73","21.00","27.08","11.79","18.03","0","0"
"Justin Jackson","Justin-Jackson-37895","3400","SF","35.71","222.5","18.0","98.20","13.75","24.00","26.21","14.03","17.38","0","0"
"De'Aaron Fox","De'Aaron-Fox-37900","7500","PG","52.20","222.5","32.2","98.20","26.88","34.00","47.75","19.22","37.9","0","0"
"Derrick Favors","Derrick-Favors-1266","4400","PF/C","50.92","215.5","21.4","98.88","15.57","21.00","37.96","18.08","22.08","0","0"
"Buddy Hield","Buddy-Hield-35206","6000","SG/SF","35.71","222.5","31.2","98.20","24.03","30.00","46.11","20.42","29.94","0","0"
"Bogdan Bogdanovic","Bogdan-Bogdanovic-37899","5800","SG/SF","51.97","222.5","31.2","98.20","24.80","31.00","46.15","25.21","28.88","0","0"
"Rudy Gay","Rudy-Gay-1341","5500","SF/PF","49.43","215.5","26.3","99.70","16.11","27.00","35.58","13.61","27.39","0","0"
"Kyle Korver","Kyle-Korver-1269","3400","SG/SF","33.38","215.5","16.7","98.88","18.48","22.00","29.89","13.28","16.79","0","0"
"Bryn Forbes","Bryn-Forbes-36052","3700","PG/SG","48.18","215.5","24.7","99.70","19.02","25.00","26.25","10.96","18.09","0","0"
"Iman Shumpert","Iman-Shumpert-13350","3700","SG/SF","35.71","222.5","26.2","98.20","10.65","24.00","25.32","12.54","17.51","0","0"
"Richaun Holmes","Richaun-Holmes-18905","3800","PF/C","54.44","222.5","17.1","108.80","20.11","16.00","30.64","12.6","17.9","0","0"
"Jamal Crawford","Jamal-Crawford-1075","3900","PG/SG","46.32","222.5","21.9","108.80","24.48","20.00","32.08","18.28","18.28","0","0"
"Donovan Mitchell","Donovan-Mitchell-37875","7900","PG/SG","51.12","215.5","29.8","98.88","33.62","34.00","48.38","19.92","36.96","0","0"
"DeMar DeRozan","DeMar-DeRozan-1053","8300","SG/SF","41.21","215.5","33.4","99.70","30.81","35.00","51.91","18.0","38.37","0","0"
"Rudy Gobert","Rudy-Gobert-16935","8600","C","55.12","215.5","32.6","98.88","17.45","33.00","52.31","16.33","39.54","0","0"
"Derrick White","Derrick-White-37858","4200","PG","48.39","215.5","19.0","99.70","14.34","27.00","34.3","16.35","18.92","0","0"
"Jakob Poeltl","Jakob-Poeltl-35187","3300","C","52.49","215.5","13.9","99.70","17.11","17.00","29.38","13.03","14.71","0","0"
"Marco Belinelli","Marco-Belinelli-1033","3500","SG/SF","33.85","215.5","19.5","99.70","21.55","19.00","22.53","11.3","15.46","0","0"
"Ryan Anderson","Ryan-Anderson-1281","3000","PF/C","54.68","222.5","14.0","108.80","9.04","14.00","20.14","12.73","12.73","0","0"
"Dante Cunningham","Dante-Cunningham-1259","3300","SF/PF","49.43","215.5","20.4","99.70","6.77","13.00","17.94","8.39","9.55","0","0"
"De'Anthony Melton","De'Anthony-Melton-409081","3000","SG","54.44","222.5","6.0","108.80","14.40","8.00","8.74","1.66","8.48","0","0"
"Raul Neto","Raul-Neto-31821","3200","PG","46.71","215.5","10.0","98.88","24.84","11.00","16.77","8.38","9.07","0","0"
"Harry Giles","Harry-Giles-37897","3100","PF","51.88","222.5","10.5","98.20","32.01","8.00","6.46","1.49","6.1","0","0"
