"nameCol","idCol","salaryCol","positionCol","dvpCol","ouCol","mpgCol","paceCol","usgCol","pminCol","ceilCol","floorCol","pointsCol","predictCol","actualCol"
"Jusuf Nurkic","Jusuf-Nurkic-18619","6100","C","51.82","0","27.1","104.50","22.78","29.00","52.5","22.34","39.83","0","0"
"Al-Farouq Aminu","Al-Farouq-Aminu-1279","3900","SF/PF","29.65","0","29.7","104.50","12.51","30.00","37.36","18.21","24.31","0","0"
"Draymond Green","Draymond-Green-13976","6300","PF/C","58.91","0","31.6","103.10","16.66","34.00","46.89","17.17","38.66","0","0"
"Ricky Rubio","Ricky-Rubio-1001","5400","PG","41.20","0","29.7","98.88","24.55","32.00","42.56","17.23","32.44","0","0"
"Kevin Durant","Kevin-Durant-1348","9300","SF/PF","44.09","0","35.1","103.10","31.45","35.00","68.07","24.01","51.53","0","0"
"Kevon Looney","Kevon-Looney-18945","3500","PF/C","56.91","0","21.1","103.10","10.98","20.00","31.3","15.43","19.24","0","0"
"Damian Lillard","Damian-Lillard-13900","7800","PG","49.37","0","35.1","104.50","29.20","35.00","54.55","20.77","42.82","0","0"
"Stephen Curry","Stephen-Curry-1079","9000","PG/SG","51.98","0","35.6","103.10","29.34","35.00","68.62","25.85","49.33","0","0"
"Maurice Harkless","Maurice-Harkless-16971","3300","SF/PF","29.65","0","25.2","104.50","13.38","25.00","28.87","12.08","18.03","0","0"
"Andre Iguodala","Andre-Iguodala-1334","3300","SG/SF","37.40","0","20.0","103.10","12.26","19.00","25.91","10.07","17.27","0","0"
"Brandon Ingram","Brandon-Ingram-35227","5300","PG/SG","45.36","0","34.5","112.50","23.66","33.00","42.72","17.48","27.74","0","0"
"Joe Ingles","Joe-Ingles-18627","5700","SG/SF","37.27","0","28.7","98.88","19.97","32.00","45.88","19.44","29.77","0","0"
"Klay Thompson","Klay-Thompson-13315","6700","SG","37.40","0","34.7","103.10","23.46","35.00","44.74","20.07","34.79","0","0"
"Rudy Gobert","Rudy-Gobert-16935","7200","C","50.16","0","29.1","98.88","18.09","32.00","49.53","15.49","37.24","0","0"
"Derrick Favors","Derrick-Favors-1266","4900","PF/C","52.63","0","23.0","98.88","22.24","25.00","32.57","15.73","25.21","0","0"
"Josh Hart","Josh-Hart-37889","3500","PG/SG","41.29","0","26.7","112.50","14.63","23.00","29.89","14.1","17.73","0","0"
"LeBron James","LeBron-James-1227","10100","SF/PF","48.45","0","35.6","112.50","31.00","37.00","65.09","20.24","50.97","0","0"
"Kyle Kuzma","Kyle-Kuzma-37886","6400","SF/PF","48.45","0","35.3","112.50","23.90","34.00","41.98","17.98","32.34","0","0"
"Lonzo Ball","Lonzo-Ball-37885","5500","PG","37.30","0","33.0","112.50","18.79","28.00","37.07","14.32","27.64","0","0"
"Donovan Mitchell","Donovan-Mitchell-37875","7100","PG/SG","47.33","0","32.0","98.88","31.74","34.00","46.63","19.2","35.62","0","0"
"C.J. McCollum","C.J.-McCollum-17121","5900","PG/SG","40.25","0","33.3","104.50","27.40","35.00","39.72","16.7","29.51","0","0"
"Jonas Jerebko","Jonas-Jerebko-1106","4100","PF/C","44.09","0","23.3","103.10","17.62","22.00","30.09","13.39","20.51","0","0"
"Kyle Korver","Kyle-Korver-1269","3300","SG/SF","37.27","0","18.0","98.88","19.42","20.00","27.35","12.33","15.61","0","0"
"Jae Crowder","Jae-Crowder-13942","4600","SF/PF","39.10","0","24.4","98.88","17.14","26.00","36.55","16.59","21.68","0","0"
"Evan Turner","Evan-Turner-1291","4000","SG/SF","40.25","0","23.6","104.50","17.45","23.00","28.39","15.66","18.84","0","0"
"Ivica Zubac","Ivica-Zubac-35226","4400","C","52.36","0","16.6","112.50","16.27","22.00","28.02","13.73","19.93","0","0"
"Shaun Livingston","Shaun-Livingston-14007","3100","PG","35.71","0","15.5","103.10","14.79","16.00","22.76","10.42","13.82","0","0"
"Tyson Chandler","Tyson-Chandler-1482","3600","C","52.36","0","18.0","112.50","6.94","18.00","30.62","15.85","15.85","0","0"
"Rajon Rondo","Rajon-Rondo-1085","4500","PG","37.30","0","19.5","112.50","23.19","20.00","35.62","19.42","19.42","0","0"
"Nik Stauskas","Nik-Stauskas-18636","3200","SG/SF","34.90","0","14.0","104.50","19.02","19.00","22.31","10.73","13.2","0","0"
"Zach Collins","Zach-Collins-37866","3100","PF/C","52.51","0","18.0","104.50","16.24","16.00","19.39","9.75","12.51","0","0"
"Dante Exum","Dante-Exum-18626","3200","PG/SG","41.20","0","16.0","98.88","19.51","15.00","22.32","10.52","12.81","0","0"
"Kentavious Caldwell-Pope","Kentavious-Caldwell-Pope-16869","3500","SG/SF","41.29","0","23.4","112.50","16.48","18.00","25.87","11.94","13.69","0","0"
"Meyers Leonard","Meyers-Leonard-13905","3200","PF/C","52.51","0","15.6","104.50","15.23","12.00","20.8","9.85","12.12","0","0"
"Seth Curry","Seth-Curry-16825","3000","PG/SG","34.90","0","17.0","104.50","13.85","16.00","19.65","10.66","10.66","0","0"
"Thabo Sefolosha","Thabo-Sefolosha-1271","3100","SF/PF","39.10","0","11.1","98.88","10.88","12.00","16.1","9.09","10.76","0","0"
"Jordan Bell","Jordan-Bell-37877","3000","PF/C","56.91","0","9.3","103.10","16.64","11.00","17.23","8.52","10.13","0","0"
"Royce O'Neale","Royce-O'Neale-37872","3100","SF","39.10","0","12.7","98.88","12.61","12.00","14.59","7.16","9.61","0","0"
"Alfonzo McKinnie","Alfonzo-McKinnie-37808","3200","SF/PF","35.84","0","13.3","103.10","15.66","13.00","18.73","9.86","9.86","0","0"
"Lance Stephenson","Lance-Stephenson-947","3400","SG/SF","45.36","0","15.5","112.50","23.34","7.00","11.24","5.21","6.53","0","0"
