"nameCol","idCol","salaryCol","positionCol","dvpCol","ouCol","mpgCol","paceCol","usgCol","pminCol","ceilCol","floorCol","pointsCol","predictCol","actualCol"
"James Johnson","James-Johnson-1195","3700","SF/PF","45.82","208.5","21.2","106.90","18.62","24.00","31.23","12.27","23.73","0","0"
"DeMarre Carroll","DeMarre-Carroll-1174","3800","SF/PF","39.49","220","23.9","114.62","17.60","23.00","40.04","18.12","23.5","0","0"
"Rodions Kurucs","Rodions-Kurucs-408801","4600","SF/PF","50.69","220","26.0","114.62","16.99","31.00","31.27","11.53","28.32","0","0"
"Dewayne Dedmon","Dewayne-Dedmon-16894","5200","PF/C","48.37","216.5","27.3","105.10","16.23","30.00","44.61","18.85","31.68","0","0"
"Darren Collison","Darren-Collison-1060","4300","PG","41.43","216.5","25.6","107.67","15.14","28.00","35.08","15.52","25.57","0","0"
"Serge Ibaka","Serge-Ibaka-1294","5700","PF/C","50.22","208.5","32.0","105.50","19.01","30.00","48.32","20.26","33.93","0","0"
"Cody Zeller","Cody-Zeller-16836","4400","C","62.71","220","24.8","103.00","13.70","25.00","36.17","14.75","25.26","0","0"
"Ed Davis","Ed-Davis-1265","3600","PF/C","52.56","220","20.3","114.62","13.53","20.00","36.74","15.02","20.11","0","0"
"Jeremy Lamb","Jeremy-Lamb-13955","5500","SG/SF","43.74","220","32.3","103.00","21.46","30.00","41.05","18.09","30.61","0","0"
"Miles Bridges","Miles-Bridges-409262","3600","SF/PF","48.53","220","19.5","103.00","15.17","24.00","20.11","3.68","19.89","0","0"
"Kawhi Leonard","Kawhi-Leonard-13310","9500","SF/PF","44.56","208.5","36.2","105.50","29.61","36.00","70.35","25.48","52.42","0","0"
"Kent Bazemore","Kent-Bazemore-13987","5700","SG/SF","45.67","216.5","30.8","105.10","23.43","32.00","44.68","16.0","31.44","0","0"
"Nicolas Batum","Nicolas-Batum-1315","4400","SG/SF","32.21","220","30.5","103.00","12.05","30.00","33.16","17.11","23.87","0","0"
"Victor Oladipo","Victor-Oladipo-16807","8700","PG/SG","56.26","216.5","33.6","107.67","25.50","36.00","65.17","28.63","47.09","0","0"
"Kevin Huerter","Kevin-Huerter-408969","4400","SG/SF","35.29","216.5","32.8","105.10","16.48","34.00","26.43","7.17","23.14","0","0"
"Domantas Sabonis","Domantas-Sabonis-35217","6200","PF/C","56.97","216.5","23.9","107.67","24.53","25.00","48.58","24.61","32.47","0","0"
"Jarrett Allen","Jarrett-Allen-37794","5600","C","52.56","220","22.9","114.62","16.00","28.00","40.31","17.74","29.23","0","0"
"Danny Green","Danny-Green-940","4200","SG/SF","36.72","208.5","31.2","105.50","15.26","28.00","30.83","13.83","21.68","0","0"
"Joe Harris","Joe-Harris-18587","4700","SG/SF","38.04","220","30.3","114.62","16.83","32.00","35.22","16.07","24.09","0","0"
"Fred VanVleet","Fred-VanVleet-36011","5900","PG/SG","40.49","208.5","31.6","105.50","18.96","32.00","47.11","24.59","29.95","0","0"
"Kemba Walker","Kemba-Walker-13335","8400","PG","50.18","220","33.5","103.00","30.05","34.00","56.83","20.82","42.41","0","0"
"Thaddeus Young","Thaddeus-Young-1289","5600","SF/PF","53.46","216.5","32.4","107.67","20.29","31.00","40.55","14.89","28.2","0","0"
"Trae Young","Trae-Young-409063","5900","PG","47.18","216.5","28.3","105.10","29.14","28.00","33.88","9.2","29.67","0","0"
"Willy Hernangomez","Willy-Hernangomez-18901","3700","C","62.71","220","15.2","103.00","26.34","16.00","33.56","17.96","18.53","0","0"
"D'Angelo Russell","D'Angelo-Russell-18947","7500","PG/SG","51.70","220","28.4","114.62","29.77","30.00","49.73","18.34","37.06","0","0"
"Josh Richardson","Josh-Richardson-18922","6700","SG/SF","48.45","208.5","34.7","106.90","23.54","36.00","48.83","19.27","32.88","0","0"
"Pascal Siakam","Pascal-Siakam-35186","6500","PF/C","52.76","208.5","33.2","105.50","21.39","34.00","47.12","18.16","31.86","0","0"
"Bojan Bogdanovic","Bojan-Bogdanovic-18571","5200","SG/SF","42.21","216.5","33.1","107.67","18.39","33.00","39.81","20.22","25.44","0","0"
"Dwyane Wade","Dwyane-Wade-967","5100","PG/SG","48.45","208.5","23.0","106.90","26.16","24.00","34.95","16.47","24.91","0","0"
"Hassan Whiteside","Hassan-Whiteside-18664","6600","C","51.13","208.5","24.2","106.90","24.69","26.00","40.19","15.12","31.9","0","0"
"Norman Powell","Norman-Powell-18908","3200","SG/SF","37.42","208.5","21.7","105.50","17.14","22.00","27.22","12.03","15.36","0","0"
"Jeremy Lin","Jeremy-Lin-916","3800","PG/SG","47.18","216.5","18.0","105.10","27.10","18.00","27.92","14.13","18.12","0","0"
"Spencer Dinwiddie","Spencer-Dinwiddie-18588","7000","PG/SG","51.70","220","29.6","114.62","29.78","32.00","51.84","23.2","33.34","0","0"
"Michael Kidd-Gilchrist","Michael-Kidd-Gilchrist-13896","3700","SF/PF","32.21","220","16.8","103.00","21.09","20.00","28.77","14.88","17.61","0","0"
"Justise Winslow","Justise-Winslow-18921","5500","PG/SF","36.53","208.5","24.6","106.90","21.33","29.00","40.3","14.8","26.1","0","0"
"Marvin Williams","Marvin-Williams-1318","5100","SF/PF","48.53","220","29.8","103.00","14.66","30.00","40.72","20.42","24.05","0","0"
"Delon Wright","Delon-Wright-18907","4000","PG/SG","40.49","208.5","24.2","105.50","16.58","24.00","31.23","15.56","18.86","0","0"
"Kelly Olynyk","Kelly-Olynyk-16845","4400","PF/C","54.38","208.5","24.5","106.90","18.86","22.00","30.55","17.22","20.52","0","0"
"Rondae Hollis-Jefferson","Rondae-Hollis-Jefferson-18897","4900","PF/C","50.69","220","25.1","114.62","22.50","22.00","34.96","14.78","22.85","0","0"
"Tyreke Evans","Tyreke-Evans-1070","3600","SG/SF","51.38","216.5","14.8","107.67","28.37","14.00","22.63","9.74","16.7","0","0"
"Cory Joseph","Cory-Joseph-13339","3700","PG","41.43","216.5","23.9","107.67","16.56","22.00","29.19","12.6","16.64","0","0"
"Rodney McGruder","Rodney-McGruder-16850","3500","SG/SF","37.33","208.5","24.6","106.90","13.93","22.00","24.07","9.66","15.48","0","0"
"DeAndre Bembry","DeAndre-Bembry-35198","3700","SG/SF","35.35","216.5","20.8","105.10","16.80","20.00","23.89","12.67","16","0","0"
"Jared Dudley","Jared-Dudley-1319","3400","SF/PF","39.49","220","21.7","114.62","13.97","22.00","25.84","12.64","14.46","0","0"
"Allen Crabbe","Allen-Crabbe-16978","4500","SG/SF","38.04","220","30.0","114.62","17.88","22.00","35.11","18.23","18.99","0","0"
"John Collins","John-Collins-37823","7600","PF/C","48.37","216.5","30.8","105.10","28.93","34.00","48.07","19.09","31.4","0","0"
"Malik Monk","Malik-Monk-37827","3200","PG/SG","50.18","220","15.8","103.00","31.64","15.00","19.76","10.54","12.79","0","0"
"Vince Carter","Vince-Carter-1066","3300","SG","35.29","216.5","18.2","105.10","17.97","17.00","21.65","11.5","13.1","0","0"
"Doug McDermott","Doug-McDermott-18583","3100","SF/PF","42.21","216.5","19.3","107.67","12.50","19.00","24.29","12.15","12.15","0","0"
"Bam Adebayo","Bam-Adebayo-37835","4400","PF/C","51.13","208.5","23.0","106.90","13.37","19.00","24.95","14.97","16.94","0","0"
"Tony Parker","Tony-Parker-982","3600","PG","38.28","220","17.0","103.00","24.69","16.00","22.83","13.59","13.59","0","0"
"Myles Turner","Myles-Turner-18915","8000","C","58.59","216.5","29.1","107.67","22.18","32.00","49.36","22.55","30.15","0","0"
"Omari Spellman","Omari-Spellman-408970","3000","PF/C","47.48","216.5","0","105.10","0","15.00","13.38","9.26","10.29","0","0"
"Tyler Johnson","Tyler-Johnson-18720","5600","PG/SG","46.83","208.5","25.7","106.90","22.13","24.00","29.49","13.21","18.77","0","0"
"OG Anunoby","OG-Anunoby-37807","3600","SF/PF","36.72","208.5","21.7","105.50","16.30","17.00","21.8","11.53","11.53","0","0"
"Greg Monroe","Greg-Monroe-1487","4500","C","50.08","208.5","14.5","105.50","20.36","11.00","16.85","7.52","12.15","0","0"
"Alex Poythress","Alex-Poythress-36018","3000","SF/PF","47.48","216.5","3.0","105.10","13.33","8.00","12.34","6.24","6.99","0","0"
"Derrick Jones","Derrick-Jones-36064","4600","SF/PF","37.33","208.5","21.0","106.90","16.54","12.00","17.03","9.13","9.13","0","0"
"Justin Anderson","Justin-Anderson-18927","3100","SF/PF","35.35","216.5","6.0","105.10","12.27","4.00","5.99","2.85","3.92","0","0"
"C.J. Miles","C.J.-Miles-1299","3400","SG/SF","36.72","208.5","17.0","105.50","17.47","4.00","5.81","2.85","3.52","0","0"
