"nameCol","idCol","salaryCol","positionCol","dvpCol","ouCol","mpgCol","paceCol","usgCol","pminCol","ceilCol","floorCol","pointsCol","predictCol","actualCol"
"Nemanja Bjelica","Nemanja-Bjelica-31814","4800","SF/PF","48.12","232.5","23.6","98.20","17.78","33.00","52.58","21.3","32.12","0","0"
"Ben McLemore","Ben-McLemore-16822","3000","SG/SF","39.50","232.5","9.0","98.20","21.69","24.00","32.16","14.08","19.89","0","0"
"Marc Gasol","Marc-Gasol-1493","7500","C","53.70","202","30.4","103.30","21.35","35.00","61.87","26.39","45.9","0","0"
"JaMychal Green","JaMychal-Green-18729","4500","SF/PF","53.70","202","23.9","103.30","18.68","26.00","43.59","22.83","26.12","0","0"
"Maurice Harkless","Maurice-Harkless-16971","3600","SF/PF","37.87","202","24.8","104.50","12.54","28.00","32.16","13.85","20.64","0","0"
"De'Aaron Fox","De'Aaron-Fox-37900","7000","PG","46.76","232.5","28.3","98.20","29.08","34.00","49.13","20.11","39.59","0","0"
"Jaren Jackson","Jaren-Jackson-409099","5700","PF/C","53.70","202","23.1","103.30","17.51","30.00","33.25","6.66","32.16","0","0"
"Kyle Anderson","Kyle-Anderson-18615","4600","PG/SF","39.26","202","25.4","103.30","15.70","30.00","35.4","13.06","25.71","0","0"
"Jusuf Nurkic","Jusuf-Nurkic-18619","7200","C","48.83","202","27.7","104.50","25.97","28.00","51.64","22.05","39.94","0","0"
"Shelvin Mack","Shelvin-Mack-13354","3700","PG","40.69","202","23.4","103.30","16.26","24.00","31.81","15.95","20.55","0","0"
"Jerami Grant","Jerami-Grant-18576","4500","PF","52.54","232.5","30.3","102.62","14.70","32.00","38.63","17.74","24.84","0","0"
"Damian Lillard","Damian-Lillard-13900","9000","PG","45.27","202","33.8","104.50","29.69","36.00","61.58","23.17","48.07","0","0"
"Willie Cauley-Stein","Willie-Cauley-Stein-18951","5900","C","49.30","232.5","26.3","98.20","18.60","30.00","43.52","17.96","31.4","0","0"
"Russell Westbrook","Russell-Westbrook-1083","11000","PG","54.18","232.5","35.7","102.62","31.58","35.00","64.47","19.83","57.98","0","0"
"Alex Abrines","Alex-Abrines-36054","3000","SG/SF","42.48","232.5","16.4","102.62","10.50","24.00","29.95","15.52","15.52","0","0"
"Buddy Hield","Buddy-Hield-35206","6200","SG/SF","39.50","232.5","30.3","98.20","25.04","33.00","47.78","21.13","31.92","0","0"
"Paul George","Paul-George-1245","8900","SF/PF","52.54","232.5","35.0","102.62","29.88","35.00","63.79","28.21","45.79","0","0"
"Justin Jackson","Justin-Jackson-37895","3300","SF/PF","39.50","232.5","18.7","98.20","14.98","27.00","25.7","13.52","16.81","0","0"
"C.J. McCollum","C.J.-McCollum-17121","6600","PG/SG","43.40","202","34.6","104.50","27.17","34.00","44.35","19.38","33.47","0","0"
"Mike Conley","Mike-Conley-1062","7600","PG","40.69","202","33.4","103.30","24.03","33.00","57.1","23.06","38.5","0","0"
"Steven Adams","Steven-Adams-16848","7000","C","54.05","232.5","32.1","102.62","24.31","33.00","46.5","23.23","35.31","0","0"
"Nerlens Noel","Nerlens-Noel-18575","3300","C","54.05","232.5","14.4","102.62","16.61","15.00","27.27","13.9","16.33","0","0"
"Al-Farouq Aminu","Al-Farouq-Aminu-1279","4800","SF/PF","37.87","202","31.7","104.50","12.87","30.00","36.65","17.71","23.77","0","0"
"Omri Casspi","Omri-Casspi-1270","3200","SF/PF","39.26","202","12.2","103.30","18.48","18.00","27.38","13.16","15.67","0","0"
"Garrett Temple","Garrett-Temple-14077","4000","SG/SF","36.23","202","27.5","103.30","14.25","32.00","31.28","13.99","19.49","0","0"
"Hamidou Diallo","Hamidou-Diallo-408800","3100","SG/SF","42.48","232.5","8.4","102.62","22.71","19.00","15.85","3.65","14.97","0","0"
"Evan Turner","Evan-Turner-1291","4100","SG/SF","43.40","202","22.5","104.50","17.55","24.00","28.47","16.05","19.29","0","0"
"Zach Collins","Zach-Collins-37866","3200","PF/C","52.26","202","18.2","104.50","14.09","17.00","22.53","11.09","14.67","0","0"
"Meyers Leonard","Meyers-Leonard-13905","3100","PF/C","52.26","202","10.8","104.50","12.49","13.00","24.25","11.51","14.14","0","0"
"Kosta Koufos","Kosta-Koufos-1386","3200","C","49.30","232.5","15.6","98.20","13.12","14.00","25.91","13.55","13.55","0","0"
"Frank Mason","Frank-Mason-37898","3400","PG/SG","34.45","232.5","13.0","98.20","23.88","14.00","21.83","12.58","14.23","0","0"
"Seth Curry","Seth-Curry-16825","3000","PG/SG","36.91","202","16.2","104.50","15.99","14.00","23.23","12.13","12.13","0","0"
"Troy Williams","Troy-Williams-36043","3100","SF/PF","39.50","232.5","13.8","98.20","14.78","16.00","19.81","10.11","12.48","0","0"
"Nik Stauskas","Nik-Stauskas-18636","3100","SG/SF","36.91","202","16.0","104.50","20.15","16.00","19.75","9.34","12.02","0","0"
"Terrance Ferguson","Terrance-Ferguson-37871","3200","SG/SF","42.48","232.5","19.6","102.62","8.65","21.00","17.12","6.69","10.74","0","0"
"MarShon Brooks","MarShon-Brooks-188837","3100","SG/SF","48.15","202","13.8","103.30","19.61","12.00","15.9","7.31","10.37","0","0"
"Timothe Luwawu-Cabarrot","Timothe-Luwawu-Cabarrot-35183","3000","SG/SF","37.92","232.5","2.0","102.62","40.00","12.00","15.93","9.88","9.88","0","0"
"Yogi Ferrell","Yogi-Ferrell-35999","3400","PG/SG","46.76","232.5","11.7","98.20","26.55","15.00","18.59","9.52","10.81","0","0"
"Patrick Patterson","Patrick-Patterson-1260","3100","PF/C","57.49","232.5","12.7","102.62","8.93","12.00","14.08","6.75","7.97","0","0"
"Abdel Nader","Abdel-Nader-35179","3000","PF","37.92","232.5","2.5","102.62","15.04","4.00","5.37","2.7","2.7","0","0"
