"nameCol","idCol","salaryCol","positionCol","dvpCol","ouCol","mpgCol","paceCol","usgCol","pminCol","ceilCol","floorCol","pointsCol","predictCol","actualCol"
"Patrick Beverley","Patrick-Beverley-14108","3600","PG/SG","36.72","222.5","22.1","108.38","14.22","28.00","50.85","27.09","27.09","0","0"
"Jerami Grant","Jerami-Grant-18576","3900","PF","54.64","222.5","28.8","102.62","14.09","32.00","42.71","18.3","26.56","0","0"
"Dario Saric","Dario-Saric-36004","4200","PF","51.54","218","24.0","100.67","14.76","34.00","36.5","15.48","27.65","0","0"
"Josh Jackson","Josh-Jackson-37890","5500","SF/PF","46.79","218","28.9","108.80","26.47","30.00","45.59","21.0","32.66","0","0"
"Mikal Bridges","Mikal-Bridges-408842","3700","SG/SF","39.97","218","30.3","108.80","14.37","28.00","23.24","4.91","21.42","0","0"
"Dennis Schroder","Dennis-Schroder-18595","5800","PG/SG","52.27","222.5","28.2","102.62","27.47","30.00","50.95","27.21","33.3","0","0"
"Avery Bradley","Avery-Bradley-941","3700","SG","39.50","222.5","31.3","108.38","13.71","30.00","30.25","13.59","20.59","0","0"
"Tobias Harris","Tobias-Harris-13332","7000","SF/PF","47.59","222.5","32.6","108.38","25.50","35.00","50.62","20.61","38.23","0","0"
"De'Anthony Melton","De'Anthony-Melton-409081","5300","PG/SG","49.95","218","24.1","108.80","23.87","30.00","33.05","8.97","28.94","0","0"
"Danilo Gallinari","Danilo-Gallinari-1329","6300","SF/PF","47.59","222.5","30.6","108.38","21.88","33.00","48.34","19.39","34.26","0","0"
"Jeff Teague","Jeff-Teague-1005","6200","PG","53.00","218","32.0","100.67","20.01","33.00","47.03","17.29","33.45","0","0"
"Richaun Holmes","Richaun-Holmes-18905","4000","PF/C","52.59","218","20.9","108.80","20.36","20.00","36.09","14.68","21.56","0","0"
"Robert Covington","Robert-Covington-16874","5500","SF/PF","35.44","218","33.0","100.67","16.73","36.00","43.06","18.89","29.51","0","0"
"Andrew Wiggins","Andrew-Wiggins-18620","6400","SG/SF","48.33","218","34.2","100.67","23.58","35.00","43.64","18.8","33.16","0","0"
"Karl-Anthony Towns","Karl-Anthony-Towns-18937","9800","C","54.73","218","33.7","100.67","28.01","35.00","67.86","27.55","50.45","0","0"
"Steven Adams","Steven-Adams-16848","6500","C","58.42","222.5","31.8","102.62","23.43","32.00","43.86","21.51","32.39","0","0"
"TJ Warren","TJ-Warren-18634","6600","SF/PF","46.79","218","23.7","108.80","27.63","34.00","42.86","18.65","32.54","0","0"
"Paul George","Paul-George-1245","9200","SF/PF","54.64","222.5","34.8","102.62","29.31","35.00","62.84","27.66","44.98","0","0"
"Nerlens Noel","Nerlens-Noel-18575","3300","C","58.42","222.5","14.7","102.62","17.41","15.00","27.8","13.68","16.07","0","0"
"Derrick Rose","Derrick-Rose-1086","6000","PG/SG","53.00","218","28.7","100.67","27.54","28.00","45.25","24.89","28.97","0","0"
"Russell Westbrook","Russell-Westbrook-1083","11200","PG","52.27","222.5","35.2","102.62","32.99","35.00","60.12","18.16","53.73","0","0"
"Shai Gilgeous-Alexander","Shai-Gilgeous-Alexander-408990","5000","PG/SG","45.94","222.5","25.1","108.38","17.05","28.00","22.44","2.66","23.77","0","0"
"Marcin Gortat","Marcin-Gortat-1479","3600","C","49.66","222.5","18.6","108.38","15.08","18.00","24.66","10.1","16.83","0","0"
"Montrezl Harrell","Montrezl-Harrell-18930","5600","PF/C","52.46","222.5","23.3","108.38","19.68","23.00","37.69","19.62","25.16","0","0"
"Deandre Ayton","Deandre-Ayton-409301","6900","C","52.70","218","26.1","108.80","22.52","30.00","34.21","9.29","29.96","0","0"
"Gorgui Dieng","Gorgui-Dieng-16939","3200","PF/C","59.54","218","13.0","100.67","15.58","13.00","21.28","10.28","13.63","0","0"
"Devin Booker","Devin-Booker-18949","8000","PG/SG","49.95","218","17.0","108.80","22.73","30.00","50.55","18.48","34.04","0","0"
"Troy Daniels","Troy-Daniels-17383","3400","SG","39.66","218","20.9","108.80","17.10","15.00","25.3","14.2","14.2","0","0"
"Jamal Crawford","Jamal-Crawford-1075","3500","PG/SG","46.79","218","21.0","108.80","25.26","17.00","25.33","14.49","14.49","0","0"
"Terrance Ferguson","Terrance-Ferguson-37871","3200","SG/SF","34.13","222.5","22.5","102.62","7.39","23.00","20.92","8.75","13.26","0","0"
"Tyus Jones","Tyus-Jones-18938","3100","PG","44.42","218","14.7","100.67","10.38","16.00","22.96","12.21","12.69","0","0"
"Milos Teodosic","Milos-Teodosic-37883","3000","PG","36.72","222.5","10.8","108.38","27.56","13.00","22.58","10.41","11.4","0","0"
"Mike Scott","Mike-Scott-13999","3400","SF/PF","47.59","222.5","15.3","108.38","16.68","15.00","24.11","14.16","12.06","0","0"
"Alex Abrines","Alex-Abrines-36054","3000","SG/SF","34.13","222.5","16.5","102.62","10.36","15.00","19.69","10.25","10.25","0","0"
"Boban Marjanovic","Boban-Marjanovic-31807","3800","C","49.66","222.5","11.0","108.38","26.54","11.00","23.64","11.83","12.13","0","0"
"Patrick Patterson","Patrick-Patterson-1260","3100","PF/C","55.47","222.5","12.7","102.62","9.99","14.00","16.92","8.21","9.72","0","0"
"Anthony Tolliver","Anthony-Tolliver-1263","3000","SF/PF","51.54","218","1.0","100.67","0.00","10.00","13.53","7.32","7.32","0","0"
"Hamidou Diallo","Hamidou-Diallo-408800","3100","SG/SF","34.13","222.5","6.2","102.62","24.90","9.00","6.34","1.13","6.25","0","0"
"Tyrone Wallace","Tyrone-Wallace-35220","3200","PG/SG","47.43","222.5","9.8","108.38","25.87","8.00","8.98","5.62","5.62","0","0"
"Dragan Bender","Dragan-Bender-35228","3000","PF/C","52.70","218","14.8","108.80","13.69","4.00","6.18","3.55","3.55","0","0"
"Jawun Evans","Jawun-Evans-37882","3300","PG/SG","49.95","218","14.5","108.80","16.54","2.00","3.16","1.68","1.68","0","0"
