"nameCol","idCol","salaryCol","positionCol","dvpCol","ouCol","mpgCol","paceCol","usgCol","pminCol","ceilCol","floorCol","pointsCol","predictCol","actualCol"
"Wilson Chandler","Wilson-Chandler-1327","3400","SF/PF","0","218","22.4","108.33","11.40","30.00","45.2","17.44","25.64","0","0"
"Antonio Blakeney","Antonio-Blakeney-37811","3200","PG","0","213","21.8","104.50","27.30","23.00","44.25","18.54","23.06","0","0"
"Kyle O'Quinn","Kyle-O'Quinn-13934","3200","PF/C","0","208","2.8","107.67","22.98","18.00","43.77","19.17","22.63","0","0"
"James Johnson","James-Johnson-1195","4000","SF/PF","0","213","19.0","106.90","19.73","25.00","48.89","14.93","27.65","0","0"
"Mario Hezonja","Mario-Hezonja-18923","3300","SF/PF","0","235.5","19.8","100.17","20.09","21.00","39.97","14.22","22.47","0","0"
"Dario Saric","Dario-Saric-36004","4500","PF","0","221.5","28.4","100.67","19.10","28.00","54.08","23.23","27.59","0","0"
"Trey Burke","Trey-Burke-17029","4400","PG/SG","0","235.5","25.8","100.17","32.92","27.00","57.3","24.29","28.81","0","0"
"Kyle Anderson","Kyle-Anderson-18615","4700","PG/SF","0","211","34.3","103.30","9.97","32.00","47.03","14.76","29.05","0","0"
"Aron Baynes","Aron-Baynes-14114","3300","C","0","223.5","12.7","101.75","16.60","22.00","40.92","16.26","21.31","0","0"
"Eric Gordon","Eric-Gordon-1077","4500","SG/SF","0","214","30.3","101.42","21.83","31.00","52.39","21.53","29.01","0","0"
"Patty Mills","Patty-Mills-13977","3500","PG/SG","0","208","23.4","99.70","16.10","24.00","40.42","17.66","22.53","0","0"
"Cedi Osman","Cedi-Osman-18912","4300","SF","0","218","31.7","103.60","14.90","33.00","39.98","12.6","27.16","0","0"
"Damion Lee","Damion-Lee-35995","3000","SG","0","220","16.8","103.10","15.38","22.00","35.83","15.87","18.96","0","0"
"Andre Iguodala","Andre-Iguodala-1334","3600","SG/SF","0","220","25.7","103.10","13.13","26.00","38.09","12.92","22.62","0","0"
"David Nwaba","David-Nwaba-36526","3700","SG/SF","0","218","23.0","103.60","15.93","28.00","45.98","22.29","23","0","0"
"Noah Vonleh","Noah-Vonleh-18597","4300","PF/C","0","235.5","27.7","100.17","12.71","30.00","43.78","17.31","26.47","0","0"
"Thaddeus Young","Thaddeus-Young-1289","4000","SF/PF","0","208","24.3","107.67","18.67","29.00","41.09","13.15","24.62","0","0"
"P.J. Tucker","P.J.-Tucker-13947","4100","SF/PF","0","214","33.7","101.42","8.29","33.00","50.43","21.22","25.23","0","0"
"Al-Farouq Aminu","Al-Farouq-Aminu-1279","4400","SF/PF","0","220","30.3","104.50","13.86","30.00","48.43","20.07","26.8","0","0"
"DeMarre Carroll","DeMarre-Carroll-1174","3700","SF/PF","0","221.5","19.6","114.62","19.72","22.00","45.96","17.38","22.99","0","0"
"Allen Crabbe","Allen-Crabbe-16978","3800","SG/SF","0","221.5","25.5","114.62","16.66","27.00","43.69","15.34","23.35","0","0"
"Garrett Temple","Garrett-Temple-14077","4000","SG/SF","0","211","33.1","103.30","12.13","32.00","47.39","18.02","25.1","0","0"
"Nicolas Batum","Nicolas-Batum-1315","4800","SG/SF","0","228.5","25.8","103.00","14.72","31.00","46.45","20.15","28.62","0","0"
"Otto Porter","Otto-Porter-17069","5400","SF/PF","0","230.5","26.6","103.80","15.82","32.00","54.81","21.71","32.11","0","0"
"Marvin Williams","Marvin-Williams-1318","3800","SF/PF","0","228.5","24.0","103.00","11.38","26.00","44.78","19.14","22.55","0","0"
"Dewayne Dedmon","Dewayne-Dedmon-16894","4200","PF/C","0","223.5","25.8","105.10","18.19","24.00","45.13","19.78","24.88","0","0"
"Langston Galloway","Langston-Galloway-18717","3700","PG/SG","0","214","26.0","100.30","15.27","28.00","43.62","18.96","21.82","0","0"
"Ryan Arcidiacono","Ryan-Arcidiacono-36050","3700","PG","0","213","30.7","104.50","11.72","30.00","41.91","14.06","21.77","0","0"
"John Collins","John-Collins-37823","4900","C","0","223.5","19.3","105.10","25.70","28.00","52.16","22.67","28.8","0","0"
"Rodney Hood","Rodney-Hood-18629","4400","SG/SF","0","218","27.0","103.60","19.69","31.00","48.34","16.6","25.81","0","0"
"Jusuf Nurkic","Jusuf-Nurkic-18619","6600","C","0","220","27.8","104.50","23.80","29.00","59.43","21.63","38.69","0","0"
"Gary Harris","Gary-Harris-18617","5700","SG","0","211","33.9","99.62","19.61","35.00","55.21","19.64","33.4","0","0"
"J.J. Redick","J.J.-Redick-1030","5200","SG/SF","0","218","32.4","108.33","22.16","31.00","47.75","19.67","30.49","0","0"
"Tomas Satoransky ","Tomas-Satoransky--36031","3400","PG/SG","0","230.5","13.4","103.80","16.65","22.00","35.84","15.17","19.88","0","0"
"Richaun Holmes","Richaun-Holmes-18905","3100","PF/C","0","232.5","16.0","108.80","17.81","16.00","36.28","14.34","18.15","0","0"
"Danilo Gallinari","Danilo-Gallinari-1329","5600","SF/PF","0","211","33.2","108.38","19.07","32.00","56.46","19.2","34.47","0","0"
"Jabari Parker","Jabari-Parker-18593","5800","SF/PF","0","213","30.7","104.50","25.77","31.00","56.12","17.95","33.81","0","0"
"Frank Ntilikina","Frank-Ntilikina-37796","3300","PG","0","235.5","19.9","100.17","13.80","25.00","34.32","16.58","19.14","0","0"
"Derrick Favors","Derrick-Favors-1266","4700","PF/C","0","221","23.3","98.88","14.86","25.00","42.07","16.73","27.16","0","0"
"Mikal Bridges","Mikal-Bridges-408842","3800","SF","0","232.5","25.0","108.80","14.59","29.00","26.36","4.16","21.8","0","0"
"Jeff Teague","Jeff-Teague-1005","6100","PG","0","221.5","32.8","100.67","21.65","32.00","57.75","17.98","34.85","0","0"
"Marc Gasol","Marc-Gasol-1493","7900","C","0","211","36.1","103.30","23.06","35.00","70.58","25.59","44.5","0","0"
"Avery Bradley","Avery-Bradley-941","3400","SG","0","211","25.0","108.38","10.75","26.00","34.19","12.24","19.96","0","0"
"Gordon Hayward","Gordon-Hayward-1239","5600","SG/SF","0","223.5","30.0","101.75","17.97","30.00","55.35","22.1","31.94","0","0"
"Tyreke Evans","Tyreke-Evans-1070","5400","SG/SF","0","208","22.3","107.67","24.81","27.00","48.17","16.64","30.7","0","0"
"Tyson Chandler","Tyson-Chandler-1482","3200","C","0","221","20.5","112.50","8.95","22.00","36.4","18.21","18.21","0","0"
"Taurean Prince","Taurean-Prince-35218","5700","SF","0","223.5","30.2","105.10","19.99","32.00","53.64","19.5","32.39","0","0"
"Andre Drummond","Andre-Drummond-13904","8900","C","0","214","33.6","100.30","24.17","34.00","72.59","23.17","50.48","0","0"
"Terry Rozier","Terry-Rozier-18894","4000","PG/SG","0","223.5","22.3","101.75","18.50","22.00","41.98","18.75","22.62","0","0"
"Justin Holiday","Justin-Holiday-14559","4700","SG/SF","0","213","32.8","104.50","14.32","33.00","44.2","16.57","26.56","0","0"
"Lonzo Ball","Lonzo-Ball-37885","5100","PG","0","221","27.2","112.50","17.88","30.00","45.03","14.54","28.79","0","0"
"Chris Paul","Chris-Paul-1087","7900","PG","0","214","33.7","101.42","22.75","33.00","71.3","22.01","44.56","0","0"
"Jonas Valanciunas","Jonas-Valanciunas-13301","5200","C","0","230.5","19.7","105.50","24.18","22.00","58.41","26.88","29.22","0","0"
"Reggie Bullock","Reggie-Bullock-16943","4300","SG/SF","0","214","30.2","100.30","15.87","32.00","46.19","16.55","24.12","0","0"
"Jeremy Lamb","Jeremy-Lamb-13955","5300","SG/SF","0","228.5","28.7","103.00","23.25","29.00","47.15","17.59","29.67","0","0"
"Spencer Dinwiddie","Spencer-Dinwiddie-18588","5700","PG/SG","0","221.5","27.9","114.62","26.60","30.00","59.99","22.87","33.05","0","0"
"Mike Muscala","Mike-Muscala-17379","3900","PF/C","0","218","26.3","108.33","14.57","23.00","43.44","21.73","21.73","0","0"
"Daniel Theis","Daniel-Theis-37784","3000","PF/C","0","223.5","8.6","101.75","18.69","18.00","32.76","15.01","16.62","0","0"
"Karl-Anthony Towns","Karl-Anthony-Towns-18937","9300","C","0","221.5","34.8","100.67","27.31","36.00","76.81","26.73","48.77","0","0"
"Jerami Grant","Jerami-Grant-18576","4400","SF/PF","0","228.5","29.7","102.62","15.13","30.00","45.92","16.81","24.36","0","0"
"Enes Kanter","Enes-Kanter-13299","6000","C","0","235.5","23.9","100.17","25.14","26.00","50.97","16.81","33.16","0","0"
"Joe Ingles","Joe-Ingles-18627","5200","SG/SF","0","221","31.7","98.88","18.35","32.00","51.66","19.14","28.7","0","0"
"Shaun Livingston","Shaun-Livingston-14007","3000","PG","0","220","17.0","103.10","15.36","19.00","31.9","12.53","16.57","0","0"
"Jimmy Butler","Jimmy-Butler-13327","7300","SG/SF","0","218","35.5","108.33","21.15","34.00","64.51","21.34","40.27","0","0"
"Cody Zeller","Cody-Zeller-16836","4100","C","0","228.5","27.0","103.00","15.56","26.00","38.01","13.2","22.6","0","0"
"Jamal Murray","Jamal-Murray-35211","6500","PG/SG","0","211","33.3","99.62","22.65","35.00","61.92","21.43","35.77","0","0"
"Dwayne Bacon","Dwayne-Bacon-37828","3100","SG","0","228.5","20.8","103.00","18.23","22.00","32.41","15.25","17.02","0","0"
"Kyle Korver","Kyle-Korver-1269","3100","SG/SF","0","218","18.0","103.60","13.81","20.00","33.9","13.45","16.96","0","0"
"Joel Embiid","Joel-Embiid-18578","10600","C","0","218","35.1","108.33","34.43","36.00","82.72","24.56","57.93","0","0"
"Clint Capela","Clint-Capela-18610","7300","C","0","214","32.7","101.42","18.25","33.00","68.66","25.0","39.87","0","0"
"Zach LaVine","Zach-LaVine-18622","7600","PG/SG","0","213","36.2","104.50","30.06","37.00","67.86","24.75","41.53","0","0"
"Rondae Hollis-Jefferson","Rondae-Hollis-Jefferson-18897","4900","PF/C","0","221.5","20.9","114.62","23.76","26.00","55.57","21.63","27.8","0","0"
"Joe Harris","Joe-Harris-18587","4200","SG/SF","0","221.5","26.9","114.62","19.70","29.00","41.14","16.03","24","0","0"
"Bryn Forbes","Bryn-Forbes-36052","3900","PG/SG","0","208","28.0","99.70","17.31","28.00","35.93","12.87","21.16","0","0"
"Rudy Gay","Rudy-Gay-1341","5600","SF/PF","0","208","26.8","99.70","23.16","30.00","46.21","15.17","30.4","0","0"
"Brandon Ingram","Brandon-Ingram-35227","5500","SG/SF","0","221","32.2","112.50","21.45","34.00","53.01","18.42","29.8","0","0"
"Malcolm Brogdon","Malcolm-Brogdon-35195","4900","PG/SG","0","232.5","29.8","98.80","21.77","29.00","47.0","18.8","26.51","0","0"
"Kyle Kuzma","Kyle-Kuzma-37886","5300","SF/PF","0","221","27.2","112.50","20.82","30.00","43.65","16.12","28.68","0","0"
"Juan Hernangomez","Juan-Hernangomez-35212","4700","SF/PF","0","211","29.4","99.62","14.38","31.00","49.78","16.99","25.4","0","0"
"Dennis Schroder","Dennis-Schroder-18595","6100","PG/SG","0","228.5","31.0","102.62","29.94","30.00","59.21","26.94","32.93","0","0"
"Russell Westbrook","Russell-Westbrook-1083","10900","PG","0","228.5","34.0","102.62","33.15","37.00","77.36","19.8","58.74","0","0"
"Nikola Jokic","Nikola-Jokic-31812","9400","C","0","211","31.6","99.62","28.57","34.00","75.93","20.83","50.69","0","0"
"Kyle Lowry","Kyle-Lowry-1057","8000","PG","0","230.5","33.0","105.50","20.23","34.00","71.68","23.62","43.1","0","0"
"Andrew Wiggins","Andrew-Wiggins-18620","6700","SG/SF","0","221.5","35.0","100.67","25.47","36.00","55.68","20.47","36.04","0","0"
"Jonathan Isaac","Jonathan-Isaac-37841","3600","PF","0","211","19.0","105.10","16.69","25.00","37.77","17.36","19.35","0","0"
"Steven Adams","Steven-Adams-16848","7100","C","0","228.5","34.0","102.62","19.19","34.00","60.76","25.31","38.12","0","0"
"Kelly Oubre","Kelly-Oubre-18925","4600","SG/SF","0","230.5","21.4","103.80","19.94","30.00","42.4","15.72","24.68","0","0"
"Jae Crowder","Jae-Crowder-13942","4400","SF/PF","0","221","28.0","98.88","17.89","28.00","46.83","18.06","23.52","0","0"
"Brook Lopez","Brook-Lopez-1498","5300","C","0","232.5","29.7","98.80","15.17","28.00","50.32","19.34","28.32","0","0"
"Wendell Carter","Wendell-Carter-408878","5600","C","0","213","23.8","104.50","20.89","28.00","38.78","12.15","29.85","0","0"
"Aaron Gordon","Aaron-Gordon-18601","7000","SF/PF","0","211","33.3","105.10","22.21","33.00","56.48","19.98","37.28","0","0"
"Damian Lillard","Damian-Lillard-13900","9000","PG","0","220","35.3","104.50","34.07","36.00","71.59","23.35","47.95","0","0"
"C.J. McCollum","C.J.-McCollum-17121","6500","PG/SG","0","220","34.7","104.50","23.83","35.00","54.53","19.65","34.6","0","0"
"Rudy Gobert","Rudy-Gobert-16935","7500","C","0","221","30.0","98.88","15.09","33.00","64.88","19.2","39.83","0","0"
"Josh Jackson","Josh-Jackson-37890","3400","SF","0","232.5","14.8","108.80","25.39","16.00","30.39","11.53","18.07","0","0"
"James Harden","James-Harden-1037","10700","PG/SG","0","214","35.5","101.42","37.05","38.00","76.83","21.33","56.87","0","0"
"Justise Winslow","Justise-Winslow-18921","4500","PG/SF","0","213","24.9","106.90","18.97","25.00","43.38","18.31","23.81","0","0"
"Jarrett Allen","Jarrett-Allen-37794","5700","C","0","221.5","27.8","114.62","17.79","28.00","48.07","18.06","29.6","0","0"
"Nikola Mirotic","Nikola-Mirotic-18584","7300","SF/PF","0","235.5","30.0","104.88","17.58","31.00","68.25","24.42","38.58","0","0"
"Dwyane Wade","Dwyane-Wade-967","4700","PG/SG","0","213","13.0","106.90","32.43","23.00","41.68","16.45","24.78","0","0"
"Derrick Jones","Derrick-Jones-36064","3000","SF","0","213","16.0","106.90","15.54","18.00","30.53","11.09","15.82","0","0"
"Evan Fournier","Evan-Fournier-13913","5900","SG/SF","0","211","29.6","105.10","24.98","31.00","46.98","17.11","31.11","0","0"
"Tim Hardaway Jr.","Tim-Hardaway-Jr.-16879","7200","SG/SF","0","235.5","32.4","100.17","29.77","34.00","68.02","26.23","37.85","0","0"
"Miles Bridges","Miles-Bridges-409262","3800","SF","0","228.5","23.0","103.00","10.42","24.00","24.96","5.21","19.98","0","0"
"Nikola Vucevic","Nikola-Vucevic-13296","8100","C","0","211","31.7","105.10","27.42","31.00","64.52","20.9","42.56","0","0"
"Robert Covington","Robert-Covington-16874","5800","SF/PF","0","221.5","33.6","100.67","13.51","36.00","50.46","18.87","29.39","0","0"
"Kevin Durant","Kevin-Durant-1348","10400","SF/PF","0","220","34.4","103.10","35.61","36.00","84.51","25.33","54.35","0","0"
"Shelvin Mack","Shelvin-Mack-13354","3900","PG","0","211","25.6","103.30","16.78","22.00","38.1","16.23","20.92","0","0"
"Marcus Morris","Marcus-Morris-13316","4900","SF/PF","0","223.5","26.3","101.75","19.92","29.00","50.03","20.41","25.58","0","0"
"Trey Lyles","Trey-Lyles-18942","3700","SF/PF","0","211","18.4","99.62","22.71","17.00","35.76","16.0","19.3","0","0"
"Kawhi Leonard","Kawhi-Leonard-13310","9300","SG/SF","0","230.5","32.4","105.50","29.93","35.00","78.76","22.19","48.35","0","0"
"TJ Warren","TJ-Warren-18634","6500","SF/PF","0","232.5","37.3","108.80","20.49","38.00","51.98","19.44","33.75","0","0"
"Kentavious Caldwell-Pope","Kentavious-Caldwell-Pope-16869","3500","SG/SF","0","221","21.5","112.50","21.33","24.00","36.24","18.13","18.13","0","0"
"Marcus Smart","Marcus-Smart-18567","3700","PG/SG","0","223.5","21.6","101.75","15.66","21.00","38.32","14.59","19.17","0","0"
"Quinn Cook","Quinn-Cook-31771","5100","PG","0","220","27.0","103.10","20.74","30.00","52.79","26.41","26.41","0","0"
"Anthony Davis","Anthony-Davis-13895","11600","PF/C","0","235.5","37.7","104.88","30.46","38.00","104.53","30.84","60.11","0","0"
"Lou Williams","Lou-Williams-1044","5900","PG/SG","0","211","28.3","108.38","33.50","27.00","56.42","19.83","32.04","0","0"
"Ersan Ilyasova","Ersan-Ilyasova-1301","3400","PF/C","0","232.5","17.2","98.80","14.83","19.00","31.48","13.2","17.55","0","0"
"JaVale McGee","JaVale-McGee-1485","5200","C","0","221","22.2","112.50","17.76","24.00","44.41","16.51","26.85","0","0"
"Rodney McGruder","Rodney-McGruder-16850","4800","SG/SF","0","213","31.9","106.90","18.36","32.00","45.8","16.66","24.65","0","0"
"Klay Thompson","Klay-Thompson-13315","6700","SG","0","220","34.9","103.10","30.78","34.00","52.27","19.75","34.34","0","0"
"Deandre Ayton","Deandre-Ayton-409301","6400","C","0","232.5","31.2","108.80","21.20","31.00","38.44","6.55","32.74","0","0"
"Jayson Tatum","Jayson-Tatum-37782","6300","SF/PF","0","223.5","30.7","101.75","22.36","33.00","48.02","17.3","32.27","0","0"
"Derrick Rose","Derrick-Rose-1086","6400","PG/SG","0","221.5","32.6","100.67","23.95","30.00","58.65","27.68","32.19","0","0"
"James Ennis","James-Ennis-18599","3900","SG/SF","0","214","27.3","101.42","11.63","29.00","36.94","15.43","19.86","0","0"
"Seth Curry","Seth-Curry-16825","3000","PG/SG","0","220","13.0","104.50","13.32","20.00","30.52","15.27","15.27","0","0"
"Josh Richardson","Josh-Richardson-18922","7300","SG/SF","0","213","34.1","106.90","23.78","35.00","64.05","22.43","37.13","0","0"
"Collin Sexton","Collin-Sexton-408896","5200","PG","0","218","31.4","103.60","24.74","34.00","32.15","5.47","26.42","0","0"
"Hassan Whiteside","Hassan-Whiteside-18664","8500","C","0","213","27.7","106.90","22.83","28.00","65.21","20.92","43.13","0","0"
"Emmanuel Mudiay","Emmanuel-Mudiay-18936","3900","PG","0","235.5","21.0","100.17","21.61","22.00","30.26","10.94","19.74","0","0"
"DeMar DeRozan","DeMar-DeRozan-1053","8200","SG/SF","0","208","36.1","99.70","29.56","37.00","65.82","19.52","41.45","0","0"
"Tobias Harris","Tobias-Harris-13332","7700","SF/PF","0","211","37.2","108.38","23.58","35.00","59.88","20.52","38.36","0","0"
"LaMarcus Aldridge","LaMarcus-Aldridge-1349","7800","PF/C","0","208","34.7","99.70","22.76","35.00","66.63","25.67","39.31","0","0"
"Timothe Luwawu-Cabarrot","Timothe-Luwawu-Cabarrot-35183","3200","SG","0","228.5","11.7","102.62","17.00","20.00","31.57","16.13","16.13","0","0"
"Donovan Mitchell","Donovan-Mitchell-37875","7400","PG/SG","0","221","32.1","98.88","29.84","34.00","57.34","20.58","37.28","0","0"
"Jordan Clarkson","Jordan-Clarkson-18631","5300","PG/SG","0","218","25.8","103.60","30.80","29.00","52.42","25.78","26.72","0","0"
"Eric Bledsoe","Eric-Bledsoe-1031","6900","PG/SG","0","232.5","30.2","98.80","23.09","31.00","59.77","21.23","34.69","0","0"
"Wesley Johnson","Wesley-Johnson-1280","3300","SF/PF","0","235.5","21.6","104.88","10.47","24.00","29.43","14.38","16.6","0","0"
"Mason Plumlee","Mason-Plumlee-16798","3300","PF/C","0","211","14.1","99.62","15.80","15.00","32.69","12.89","16.61","0","0"
"D.J. Augustin","D.J.-Augustin-1064","4300","PG","0","211","27.1","105.10","16.07","27.00","41.24","11.62","21.59","0","0"
"Gary Clark","Gary-Clark-570141","3600","SF","0","214","22.8","101.42","7.29","22.00","22.53","4.41","18.08","0","0"
"Jamal Crawford","Jamal-Crawford-1075","3000","PG/SG","0","232.5","17.3","108.80","22.65","18.00","30.02","15.02","15.02","0","0"
"Danny Green","Danny-Green-940","4700","SG/SF","0","230.5","26.0","105.50","14.43","30.00","40.27","16.3","23.55","0","0"
"Mike Conley","Mike-Conley-1062","7600","PG","0","211","35.7","103.30","27.47","34.00","65.47","22.49","37.54","0","0"
"Evan Turner","Evan-Turner-1291","4100","SG/SF","0","220","26.7","104.50","16.28","24.00","36.5","17.06","20.53","0","0"
"Paul George","Paul-George-1245","8600","SF/PF","0","228.5","35.2","102.62","32.73","37.00","70.45","26.46","42.96","0","0"
"Kevon Looney","Kevon-Looney-18945","3700","PF/C","0","220","20.3","103.10","12.83","20.00","34.96","14.81","18.49","0","0"
"Chandler Hutchison","Chandler-Hutchison-408877","3100","SG","0","213","20.0","104.50","15.71","20.00","18.77","3.03","15.47","0","0"
"Reggie Jackson","Reggie-Jackson-13352","5100","PG/SG","0","214","25.0","100.30","25.42","27.00","41.89","13.73","25.42","0","0"
"Giannis Antetokounmpo","Giannis-Antetokounmpo-16852","11400","SF/PF","0","232.5","35.0","98.80","32.27","36.00","79.3","25.26","56.52","0","0"
"E'Twaun Moore","E'Twaun-Moore-18582","5200","SG/SF","0","235.5","33.1","104.88","22.86","33.00","46.45","17.82","25.79","0","0"
"Ben Simmons","Ben-Simmons-35184","8800","PG/SF","0","218","35.8","108.33","23.10","35.00","66.78","18.54","43.53","0","0"
"Dante Exum","Dante-Exum-18626","3300","PG/SG","0","221","16.0","98.88","20.51","19.00","32.66","12.91","16.34","0","0"
"Shai Gilgeous-Alexander","Shai-Gilgeous-Alexander-408990","5300","PG","0","211","30.2","108.38","19.79","30.00","32.98","7.56","24.72","0","0"
"Ed Davis","Ed-Davis-1265","3700","PF/C","0","221.5","17.4","114.62","12.48","18.00","37.32","13.95","18.67","0","0"
"Ish Smith","Ish-Smith-13958","3600","PG","0","214","22.6","100.30","19.21","21.00","30.96","11.73","17.69","0","0"
"Kent Bazemore","Kent-Bazemore-13987","5300","SG/SF","0","223.5","24.1","105.10","20.12","26.00","43.35","12.58","25.94","0","0"
"Ricky Rubio","Ricky-Rubio-1001","6300","PG","0","221","28.6","98.88","24.80","29.00","49.42","16.52","30.83","0","0"
"D'Angelo Russell","D'Angelo-Russell-18947","8200","PG/SG","0","221.5","28.0","114.62","33.23","30.00","55.38","17.3","35.03","0","0"
"Jrue Holiday","Jrue-Holiday-1073","8300","PG/SG","0","235.5","35.6","104.88","30.54","36.00","64.53","19.18","40.46","0","0"
"Davis Bertans","Davis-Bertans-36051","3200","PF/C","0","208","12.2","99.70","14.48","16.00","29.11","12.46","15.55","0","0"
"Paul Millsap","Paul-Millsap-1335","6100","PF/C","0","211","25.9","99.62","22.40","28.00","49.1","18.84","29.63","0","0"
"Julius Randle","Julius-Randle-18632","7500","PF/C","0","235.5","28.0","104.88","26.09","27.00","60.73","27.26","36.45","0","0"
"Patrick Beverley","Patrick-Beverley-14108","4600","PG/SG","0","211","25.0","108.38","16.39","22.00","44.64","22.33","22.33","0","0"
"Maurice Harkless","Maurice-Harkless-16971","3300","SF/PF","0","220","13.0","104.50","15.38","18.00","31.92","13.46","15.97","0","0"
"Stanley Johnson","Stanley-Johnson-18913","3600","SF/PF","0","214","20.4","100.30","22.11","23.00","33.97","13.16","17.41","0","0"
"Jaylen Brown","Jaylen-Brown-35181","4200","SG/SF","0","223.5","25.0","101.75","20.51","24.00","36.16","14.81","20.29","0","0"
"LeBron James","LeBron-James-1227","11000","SF/PF","0","221","33.2","112.50","36.18","36.00","75.46","22.26","52.99","0","0"
"Trae Young","Trae-Young-409063","6700","PG","0","223.5","27.4","105.10","30.79","30.00","41.96","13.15","32.3","0","0"
"JaMychal Green","JaMychal-Green-18729","4400","SF/PF","0","211","18.0","103.30","25.09","20.00","38.85","17.29","19.78","0","0"
"Bojan Bogdanovic","Bojan-Bogdanovic-18571","4800","SG/SF","0","208","31.7","107.67","19.13","32.00","43.03","19.08","23.07","0","0"
"Markieff Morris","Markieff-Morris-13314","4500","SF/PF","0","230.5","23.4","103.80","16.97","25.00","34.85","15.4","21.63","0","0"
"Bradley Beal","Bradley-Beal-13898","7700","SG","0","230.5","33.9","103.80","26.38","34.00","68.6","25.08","36.94","0","0"
"Malik Monk","Malik-Monk-37827","3400","SG","0","228.5","17.2","103.00","26.59","19.00","29.52","13.44","16.29","0","0"
"Khris Middleton","Khris-Middleton-13990","7200","SG/SF","0","232.5","31.0","98.80","24.55","33.00","64.26","24.09","34.42","0","0"
"Fred VanVleet","Fred-VanVleet-36011","4600","PG/SG","0","230.5","25.6","105.50","15.97","22.00","40.89","17.49","21.97","0","0"
"Monte Morris","Monte-Morris-37860","4200","PG","0","211","27.3","99.62","16.08","25.00","35.17","15.51","20.06","0","0"
"Willy Hernangomez","Willy-Hernangomez-18901","3400","C","0","228.5","13.2","103.00","25.95","13.00","32.36","15.69","16.19","0","0"
"Jared Dudley","Jared-Dudley-1319","3200","SF/PF","0","221.5","22.2","114.62","11.23","20.00","26.06","10.2","15.24","0","0"
"Alex Abrines","Alex-Abrines-36054","3000","SG/SF","0","228.5","17.7","102.62","13.99","20.00","28.53","14.27","14.27","0","0"
"Blake Griffin","Blake-Griffin-1503","9200","PF/C","0","214","33.8","100.30","29.56","35.00","66.02","21.22","43.75","0","0"
"John Wall","John-Wall-1084","8700","PG","0","230.5","34.9","103.80","29.72","34.00","54.77","16.2","41.21","0","0"
"Damian Jones","Damian-Jones-35223","3300","C","0","220","18.9","103.10","8.66","19.00","30.35","10.97","15.61","0","0"
"Cory Joseph","Cory-Joseph-13339","3800","PG","0","208","27.5","107.67","15.09","26.00","35.94","14.51","17.98","0","0"
"Wayne Ellington","Wayne-Ellington-1009","4300","PG/SG","0","213","27.4","106.90","16.86","25.00","35.22","13.84","20.3","0","0"
"Malik Beasley","Malik-Beasley-35213","3100","SG","0","211","17.3","99.62","17.07","20.00","29.11","14.56","14.56","0","0"
"Jonathon Simmons","Jonathon-Simmons-31808","3300","SG/SF","0","211","20.3","105.10","19.87","20.00","27.3","12.55","15.38","0","0"
"Darius Miller","Darius-Miller-13951","3100","SF/PF","0","235.5","21.6","104.88","11.29","23.00","28.67","14.34","14.34","0","0"
"Andrew Harrison","Andrew-Harrison-18950","3300","PG","0","218","14.4","103.60","19.34","16.00","29.73","12.4","15.23","0","0"
"Serge Ibaka","Serge-Ibaka-1294","6200","PF/C","0","230.5","26.3","105.50","24.73","25.00","47.19","16.3","28.55","0","0"
"Domantas Sabonis","Domantas-Sabonis-35217","6800","PF/C","0","208","23.7","107.67","22.05","27.00","54.2","24.28","31.13","0","0"
"Alec Burks","Alec-Burks-13353","3000","SG","0","221","15.6","98.88","18.89","15.00","27.19","13.73","13.73","0","0"
"Terrence Ross","Terrence-Ross-13902","4400","SG/SF","0","211","23.4","105.10","22.58","24.00","36.52","17.15","20.1","0","0"
"Lance Stephenson","Lance-Stephenson-947","3300","SG/SF","0","221","14.7","112.50","22.54","17.00","29.92","11.95","14.99","0","0"
"Jaren Jackson","Jaren-Jackson-409099","5500","PF","0","211","24.1","103.30","21.28","29.00","30.88","5.25","25.37","0","0"
"Darren Collison","Darren-Collison-1060","4900","PG","0","208","28.3","107.67","17.56","26.00","35.19","13.63","22.2","0","0"
"Jonas Jerebko","Jonas-Jerebko-1106","4100","SF/PF","0","220","21.7","103.10","13.26","20.00","37.16","13.85","18.59","0","0"
"Kyrie Irving","Kyrie-Irving-13334","9100","PG","0","223.5","32.7","101.75","32.85","33.00","64.59","22.12","41.19","0","0"
"Jerian Grant","Jerian-Grant-18900","3200","PG","0","211","18.0","105.10","13.03","17.00","28.2","12.7","14.47","0","0"
"Trevor Ariza","Trevor-Ariza-1323","5000","SF/PF","0","232.5","34.5","108.80","11.80","34.00","35.12","11.04","22.57","0","0"
"Devin Booker","Devin-Booker-18949","8400","PG/SG","0","232.5","36.0","108.80","29.17","36.00","68.07","22.05","37.88","0","0"
"Marco Belinelli","Marco-Belinelli-1033","3600","SG/SF","0","208","21.1","99.70","18.00","19.00","27.3","11.37","16.22","0","0"
"Kemba Walker","Kemba-Walker-13335","9600","PG","0","228.5","36.8","103.00","32.86","35.00","68.03","21.3","43.03","0","0"
"Zach Collins","Zach-Collins-37866","3300","PF","0","220","16.8","104.50","15.83","18.00","26.83","11.51","14.76","0","0"
"Alex Len","Alex-Len-16886","4100","C","0","223.5","20.0","105.10","23.12","18.00","30.6","10.85","18.15","0","0"
"Jeff Green","Jeff-Green-1314","4300","SF/PF","0","230.5","25.0","103.80","17.05","25.00","38.0","14.94","19.01","0","0"
"Bam Adebayo","Bam-Adebayo-37835","3800","C","0","213","14.3","106.90","19.88","17.00","29.28","14.82","16.76","0","0"
"Mike Scott","Mike-Scott-13999","3500","SF/PF","0","211","17.5","108.38","18.36","17.00","29.01","17.17","14.51","0","0"
"Dante Cunningham","Dante-Cunningham-1259","3800","SF/PF","0","208","23.0","99.70","10.78","21.00","29.79","11.7","16.67","0","0"
"Jakob Poeltl","Jakob-Poeltl-35187","3100","C","0","208","11.3","99.70","18.58","14.00","27.19","12.05","13.6","0","0"
"Robin Lopez","Robin-Lopez-1466","3000","C","0","213","16.2","104.50","16.57","12.00","26.19","13.1","13.1","0","0"
"Thomas Bryant ","Thomas-Bryant--37884","3400","C","0","230.5","9.0","103.80","21.51","19.00","29.39","14.7","14.7","0","0"
"Montrezl Harrell","Montrezl-Harrell-18930","6900","PF/C","0","211","30.0","108.38","22.26","27.00","50.27","22.1","28.26","0","0"
"Shaquille Harrison","Shaquille-Harrison-36065","3600","PG","0","213","19.0","104.50","19.65","17.00","29.33","12.08","15.39","0","0"
"Josh Hart","Josh-Hart-37889","4000","SG","0","221","22.0","112.50","16.12","23.00","33.84","13.52","17.03","0","0"
"Austin Rivers","Austin-Rivers-13903","3300","PG/SG","0","230.5","21.6","103.80","16.02","18.00","24.94","11.48","13.97","0","0"
"Tristan Thompson","Tristan-Thompson-13308","5700","C","0","218","27.8","103.60","19.70","30.00","38.85","14.44","23.98","0","0"
"Mohamed Bamba","Mohamed-Bamba-409026","3400","C","0","211","13.9","105.10","21.28","16.00","17.85","3.73","14.29","0","0"
"Aaron Holiday","Aaron-Holiday-408932","3300","PG","0","208","19.7","107.67","24.88","22.00","16.78","2.71","13.83","0","0"
"Jeremy Lin","Jeremy-Lin-916","3800","PG/SG","0","223.5","20.1","105.10","26.18","16.00","28.82","11.87","15.87","0","0"
"Doug McDermott","Doug-McDermott-18583","3200","SF/PF","0","208","18.7","107.67","12.80","24.00","26.65","13.33","13.33","0","0"
"Royce O'Neale","Royce-O'Neale-37872","3000","SF","0","221","12.9","98.88","10.91","15.00","21.78","9.26","12.48","0","0"
"Taj Gibson","Taj-Gibson-1277","4300","PF","0","221.5","24.5","100.67","16.51","20.00","29.69","9.39","18.24","0","0"
"Marcin Gortat","Marcin-Gortat-1479","3700","C","0","211","17.5","108.38","16.94","15.00","25.56","9.06","15.18","0","0"
"Pascal Siakam","Pascal-Siakam-35186","6400","PF","0","230.5","31.0","105.50","19.14","28.00","44.63","15.0","26.04","0","0"
"Isaiah Canaan","Isaiah-Canaan-16875","3600","PG","0","232.5","24.8","108.80","13.88","22.00","23.74","8.86","14.62","0","0"
"DeAndre Bembry","DeAndre-Bembry-35198","3500","SF","0","223.5","17.6","105.10","20.88","18.00","25.06","11.22","14.18","0","0"
"Patrick Patterson","Patrick-Patterson-1260","3000","PF/C","0","228.5","15.2","102.62","14.10","17.00","24.09","10.65","12.05","0","0"
"Wayne Selden","Wayne-Selden-36045","3000","SG","0","211","18.3","103.30","16.65","16.00","23.87","11.94","11.94","0","0"
"Mitchell Robinson","Mitchell-Robinson-408821","3500","C","0","235.5","19.0","100.17","9.38","17.00","16.49","2.5","13.81","0","0"
"Gorgui Dieng","Gorgui-Dieng-16939","3200","PF/C","0","221.5","12.2","100.67","15.87","12.00","22.28","9.01","12.4","0","0"
"Landry Shamet","Landry-Shamet-408841","3100","PG","0","218","21.8","108.33","13.86","18.00","14.29","2.17","11.97","0","0"
"Glenn Robinson","Glenn-Robinson-18621","3500","SF/PF","0","214","17.6","100.30","16.34","20.00","23.28","8.74","13.48","0","0"
"Ian Clark","Ian-Clark-16922","3100","PG/SG","0","235.5","16.0","104.88","17.56","18.00","23.3","11.85","11.85","0","0"
"Pat Connaughton","Pat-Connaughton-18939","3600","SG/SF","0","232.5","21.2","98.80","13.10","17.00","27.39","10.56","13.7","0","0"
"OG Anunoby","OG-Anunoby-37807","3700","SF","0","230.5","20.0","105.50","23.31","20.00","27.81","13.91","13.91","0","0"
"Matthew Dellavedova","Matthew-Dellavedova-16839","3000","PG/SG","0","232.5","7.0","98.80","24.71","10.00","22.41","11.21","11.21","0","0"
"Delon Wright","Delon-Wright-18907","3500","PG/SG","0","230.5","19.0","105.50","17.86","16.00","26.19","11.24","13.1","0","0"
"Kevin Knox","Kevin-Knox-408820","3900","SF","0","235.5","22.6","100.17","20.79","21.00","17.25","2.62","14.45","0","0"
"Larry Nance","Larry-Nance-18946","5500","PF/C","0","218","25.2","103.60","14.23","19.00","35.6","12.38","20.33","0","0"
"Omari Spellman","Omari-Spellman-408970","3400","PF","0","223.5","19.8","105.10","17.58","15.00","16.34","5.12","12.58","0","0"
"Kevin Huerter","Kevin-Huerter-408969","3300","SG","0","223.5","21.0","105.10","16.38","16.00","14.75","2.38","12.16","0","0"
"Tony Snell","Tony-Snell-16872","3100","SG/SF","0","232.5","15.2","98.80","13.38","17.00","22.75","10.28","11.38","0","0"
"Nik Stauskas","Nik-Stauskas-18636","3000","SG/SF","0","220","14.7","104.50","17.76","14.00","21.14","8.75","10.77","0","0"
"Nerlens Noel","Nerlens-Noel-18575","3400","C","0","228.5","12.8","102.62","15.19","14.00","13.62","10.21","11.35","0","0"
"Allonzo Trier","Allonzo-Trier-554950","3800","PG","0","235.5","20.4","100.17","21.47","17.00","15.04","2.28","12.6","0","0"
"Wesley Iwundu","Wesley-Iwundu-37839","3100","SG","0","211","19.3","105.10","11.59","16.00","18.59","6.69","10.01","0","0"
"Thon Maker","Thon-Maker-35194","3000","PF/C","0","232.5","12.2","98.80","20.13","11.00","19.0","7.72","9.51","0","0"
"Furkan Korkmaz","Furkan-Korkmaz-35185","3200","SG","0","218","14.7","108.33","19.04","14.00","19.97","9.99","9.99","0","0"
"MarShon Brooks","MarShon-Brooks-188837","3100","SG","0","211","14.9","103.30","25.62","12.00","17.37","6.79","9.63","0","0"
"Gerald Green","Gerald-Green-13374","3400","SG/SF","0","214","9.0","101.42","24.31","11.00","20.67","8.39","10.34","0","0"
"Shabazz Napier","Shabazz-Napier-18598","3200","PG/SG","0","221.5","14.7","114.62","22.23","10.00","18.47","7.52","9.24","0","0"
"Meyers Leonard","Meyers-Leonard-13905","3100","C","0","220","12.2","104.50","21.12","8.00","17.87","7.27","8.94","0","0"
"Amir Johnson","Amir-Johnson-1285","3000","PF/C","0","218","8.2","108.33","22.52","8.00","15.87","6.63","8.61","0","0"
"Devonte' Graham","Devonte'-Graham-408968","3000","PG","0","228.5","4.5","103.00","14.80","15.00","10.75","2.25","8.61","0","0"
"Derrick White","Derrick-White-37858","3900","PG","0","208","20.0","99.70","19.39","16.00","22.19","9.15","11.1","0","0"
"Sterling Brown","Sterling-Brown-37821","3000","SG","0","232.5","11.3","98.80","17.64","9.00","16.87","8.44","8.44","0","0"
"T.J. McConnell","T.J.-McConnell-18956","3400","PG/SG","0","218","15.2","108.33","15.82","11.00","18.27","8.04","9.51","0","0"
"Justin Anderson","Justin-Anderson-18927","3000","SF/PF","0","223.5","7.5","105.10","18.35","8.00","15.43","6.18","8.32","0","0"
"Zaza Pachulia","Zaza-Pachulia-1455","3200","C","0","214","8.2","100.30","22.52","9.00","17.66","7.74","8.84","0","0"
"Cristiano Felicio","Cristiano-Felicio-31767","3000","C","0","213","7.8","104.50","13.31","9.00","15.93","6.87","7.97","0","0"
"Omri Casspi","Omri-Casspi-1270","3000","SF/PF","0","211","10.2","103.30","20.77","8.00","15.17","6.38","7.59","0","0"
"Kelly Olynyk","Kelly-Olynyk-16845","3600","PF/C","0","213","15.5","106.90","22.46","8.00","15.43","6.64","8.78","0","0"
"Jose Calderon","Jose-Calderon-1071","3000","PG","0","214","11.0","100.30","12.50","11.00","13.97","5.9","6.99","0","0"
"C.J. Miles","C.J.-Miles-1299","3200","SG/SF","0","230.5","12.5","105.50","21.66","8.00","14.09","5.87","7.28","0","0"
"Jordan Bell","Jordan-Bell-37877","3200","PF","0","220","8.6","103.10","14.33","8.00","14.55","6.12","7.28","0","0"
"Frank Jackson","Frank-Jackson-37855","3000","PG","0","235.5","10.2","104.88","19.59","10.00","8.51","1.78","6.81","0","0"
"Isaiah Hartenstein","Isaiah-Hartenstein-570142","3300","PF","0","214","11.0","101.42","14.45","10.00","9.31","1.82","7.47","0","0"
"Jake Layman","Jake-Layman-35216","3100","PF","0","220","17.3","104.50","12.34","8.00","12.11","5.07","6.91","0","0"
"Tyus Jones","Tyus-Jones-18938","3400","PG","0","221.5","15.5","100.67","13.59","10.00","15.51","7.47","7.76","0","0"
"TJ Leaf","TJ-Leaf-37817","3000","PF","0","208","3.8","107.67","16.88","9.00","13.21","6.61","6.61","0","0"
"Tyrone Wallace","Tyrone-Wallace-35220","3000","PG/SG","0","211","9.7","108.38","22.50","9.00","12.73","6.58","6.58","0","0"
"Vince Carter","Vince-Carter-1066","3200","SG/SF","0","223.5","15.7","105.10","19.54","9.00","13.85","6.06","6.93","0","0"
"Semi Ojeleye","Semi-Ojeleye-37786","3000","PF","0","223.5","13.7","101.75","8.78","8.00","10.13","5.07","5.07","0","0"
"Jacob Evans","Jacob-Evans-409245","3000","SG","0","220","4.8","103.10","18.23","6.00","4.88","0.74","4.09","0","0"
"Duncan Robinson","Duncan-Robinson-555145","3000","SF","0","213","6.0","106.90","6.67","4.00","3.38","0.53","2.84","0","0"
"Boban Marjanovic","Boban-Marjanovic-31807","3500","C","0","211","4.0","108.38","27.73","2.00","4.54","2.27","2.27","0","0"
"Raymond Felton","Raymond-Felton-1078","3100","PG/SG","0","228.5","12.0","102.62","24.78","1.00","2.04","0.91","1.02","0","0"
"Ian Mahinmi","Ian-Mahinmi-1357","3200","C","0","230.5","13.2","103.80","13.36","1.00","1.76","0.79","0.88","0","0"
"Deonte Burton","Deonte-Burton-570274","3000","SG","0","228.5","6.6","102.62","20.19","1.00","0.85","0.14","0.7","0","0"
