"nameCol","idCol","salaryCol","positionCol","dvpCol","ouCol","mpgCol","paceCol","usgCol","pminCol","ceilCol","floorCol","pointsCol","predictCol","actualCol"
"Antonio Blakeney","Antonio-Blakeney-37811","3200","PG","36.34","217","20.5","104.50","29.18","23.00","39.67","16.62","20.67","0","0"
"Tyson Chandler","Tyson-Chandler-1482","3300","C","55.14","220.5","21.0","112.50","8.98","23.00","40.18","20.1","20.1","0","0"
"Justin Holiday","Justin-Holiday-14559","4600","SG/SF","36.34","217","33.7","104.50","15.19","36.00","45.14","16.93","27.13","0","0"
"Jusuf Nurkic","Jusuf-Nurkic-18619","6700","C","48.45","226","28.2","104.50","24.38","29.00","59.56","21.78","39.03","0","0"
"Cedi Osman","Cedi-Osman-18912","4300","SF","36.09","220.5","26.5","103.60","15.74","30.00","38.77","11.16","24.74","0","0"
"Al-Farouq Aminu","Al-Farouq-Aminu-1279","4500","SF/PF","38.87","226","30.5","104.50","11.69","31.00","45.97","19.28","25.67","0","0"
"Karl-Anthony Towns","Karl-Anthony-Towns-18937","8800","C","58.56","220","36.5","100.67","25.81","36.00","79.11","28.38","49.88","0","0"
"Wendell Carter","Wendell-Carter-408878","5500","C","56.21","217","25.2","104.50","19.99","30.00","39.98","12.53","30.78","0","0"
"Rodney Hood","Rodney-Hood-18629","4400","SG/SF","51.07","220.5","25.2","103.60","21.66","29.00","46.29","15.75","24.34","0","0"
"Josh Hart","Josh-Hart-37889","4000","SG","36.14","220.5","22.0","112.50","17.52","26.00","43.23","17.35","21.82","0","0"
"Isaiah Canaan","Isaiah-Canaan-16875","3800","PG","50.08","217","27.3","108.80","13.83","27.00","37.4","16.15","20.62","0","0"
"Robin Lopez","Robin-Lopez-1466","3000","C","58.98","217","16.0","104.50","14.52","18.00","32.52","16.27","16.27","0","0"
"James Harden","James-Harden-1037","10900","PG/SG","48.94","214.5","35.7","101.42","34.94","37.00","79.72","21.41","58.66","0","0"
"Gary Harris","Gary-Harris-18617","5800","SG","51.50","220","33.3","99.62","20.60","35.00","49.78","18.21","31.13","0","0"
"Zach LaVine","Zach-LaVine-18622","7900","PG/SG","50.06","217","36.2","104.50","30.33","36.00","69.13","25.22","42.31","0","0"
"Ryan Arcidiacono","Ryan-Arcidiacono-36050","3800","PG","53.35","217","31.0","104.50","11.52","31.00","39.17","13.15","20.35","0","0"
"David Nwaba","David-Nwaba-36526","3600","SG/SF","36.09","220.5","23.0","103.60","15.72","25.00","38.6","19.31","19.31","0","0"
"Dario Saric","Dario-Saric-36004","4200","PF","48.23","220","30.0","100.67","19.21","26.00","43.85","18.32","22.51","0","0"
"C.J. McCollum","C.J.-McCollum-17121","6400","PG/SG","48.91","226","35.0","104.50","24.15","36.00","53.15","19.1","33.45","0","0"
"Brandon Ingram","Brandon-Ingram-35227","5900","SG/SF","53.60","220.5","32.0","112.50","22.44","35.00","55.49","19.02","30.88","0","0"
"P.J. Tucker","P.J.-Tucker-13947","4300","SF/PF","35.24","214.5","34.8","101.42","9.07","36.00","44.98","18.99","22.5","0","0"
"Eric Gordon","Eric-Gordon-1077","4700","SG/SF","44.00","214.5","30.2","101.42","23.79","30.00","43.74","18.18","24.53","0","0"
"Ersan Ilyasova","Ersan-Ilyasova-1301","3400","PF/C","48.74","226","19.0","98.80","12.89","20.00","32.03","12.23","17.65","0","0"
"TJ Warren","TJ-Warren-18634","6700","SF/PF","42.30","217","38.8","108.80","20.25","38.00","53.01","20.02","34.58","0","0"
"Robert Covington","Robert-Covington-16874","5600","SF/PF","32.97","220","33.2","100.67","13.03","37.00","47.33","18.34","28.79","0","0"
"Deandre Ayton","Deandre-Ayton-409301","6900","C","71.24","217","32.0","108.80","19.94","32.00","43.07","7.33","35.39","0","0"
"Khris Middleton","Khris-Middleton-13990","7000","SG/SF","43.30","226","31.8","98.80","25.00","35.00","68.48","25.75","35.91","0","0"
"Langston Galloway","Langston-Galloway-18717","3800","PG/SG","37.25","214.5","26.2","100.30","15.95","27.00","38.96","16.2","19.49","0","0"
"Jabari Parker","Jabari-Parker-18593","6000","SF/PF","48.00","217","30.0","104.50","26.44","32.00","50.88","16.28","30.65","0","0"
"Clint Capela","Clint-Capela-18610","7600","C","50.70","214.5","32.2","101.42","18.14","34.00","68.41","22.69","38.65","0","0"
"Chris Paul","Chris-Paul-1087","8300","PG","48.94","214.5","33.8","101.42","21.74","36.00","65.93","20.69","42.13","0","0"
"Tristan Thompson","Tristan-Thompson-13308","5800","C","56.77","220.5","27.5","103.60","18.71","30.00","47.53","17.73","29.41","0","0"
"Reggie Bullock","Reggie-Bullock-16943","4300","SG/SF","28.96","214.5","29.0","100.30","17.21","31.00","40.91","14.87","21.77","0","0"
"Trevor Ariza","Trevor-Ariza-1323","5100","SF/PF","42.94","217","35.8","108.80","11.91","35.00","39.91","12.69","25.8","0","0"
"Zach Collins","Zach-Collins-37866","3300","PF","56.69","226","18.2","104.50","16.41","19.00","29.46","12.91","16.59","0","0"
"Trey Lyles","Trey-Lyles-18942","3800","SF/PF","55.37","220","20.4","99.62","20.95","20.00","35.47","15.92","19.13","0","0"
"Giannis Antetokounmpo","Giannis-Antetokounmpo-16852","11200","SF/PF","48.74","226","34.5","98.80","31.63","36.00","78.69","24.68","56.21","0","0"
"Jamal Murray","Jamal-Murray-35211","6800","PG/SG","48.36","220","33.0","99.62","24.23","35.00","62.15","21.91","34.02","0","0"
"Kyle Kuzma","Kyle-Kuzma-37886","5200","SF/PF","42.89","220.5","27.8","112.50","21.84","28.00","39.76","14.42","25.99","0","0"
"Richaun Holmes","Richaun-Holmes-18905","3200","PF/C","52.28","217","15.8","108.80","14.91","16.00","31.92","11.18","15.97","0","0"
"Evan Turner","Evan-Turner-1291","4100","SG/SF","48.91","226","28.0","104.50","16.27","28.00","36.27","16.87","20.32","0","0"
"Jordan Clarkson","Jordan-Clarkson-18631","5200","PG/SG","51.07","220.5","25.8","103.60","29.87","26.00","49.99","22.9","25.7","0","0"
"Kentavious Caldwell-Pope","Kentavious-Caldwell-Pope-16869","3500","SG/SF","36.14","220.5","19.5","112.50","21.09","24.00","34.4","15.01","17.21","0","0"
"Collin Sexton","Collin-Sexton-408896","5400","PG","56.52","220.5","30.5","103.60","25.76","33.00","34.46","10.8","26.53","0","0"
"Jeff Teague","Jeff-Teague-1005","6100","PG","48.91","220","34.0","100.67","22.46","30.00","50.57","15.11","29.87","0","0"
"Lance Stephenson","Lance-Stephenson-947","3200","SG/SF","53.60","220.5","13.2","112.50","22.87","16.00","31.34","12.51","15.68","0","0"
"Eric Bledsoe","Eric-Bledsoe-1031","6700","PG/SG","38.10","226","30.7","98.80","23.79","32.00","56.09","19.96","32.67","0","0"
"Andre Drummond","Andre-Drummond-13904","9400","C","49.87","214.5","35.2","100.30","23.61","35.00","66.0","21.18","45.55","0","0"
"Monte Morris","Monte-Morris-37860","4300","PG","48.36","220","27.7","99.62","16.38","26.00","36.23","16.11","20.81","0","0"
"Reggie Jackson","Reggie-Jackson-13352","5300","PG/SG","45.77","214.5","25.5","100.30","26.37","29.00","41.8","13.45","25.66","0","0"
"Devin Booker","Devin-Booker-18949","8700","PG/SG","50.08","217","37.5","108.80","30.03","36.00","74.45","24.9","41.78","0","0"
"Brook Lopez","Brook-Lopez-1498","5300","C","56.52","226","30.0","98.80","14.78","30.00","45.05","16.85","25.38","0","0"
"Nikola Jokic","Nikola-Jokic-31812","9700","C","58.73","220","30.0","99.62","28.31","33.00","71.92","18.54","46.34","0","0"
"Andrew Wiggins","Andrew-Wiggins-18620","6700","SG/SF","40.63","220","37.0","100.67","23.66","37.00","49.2","18.29","32.03","0","0"
"Malcolm Brogdon","Malcolm-Brogdon-35195","4900","PG/SG","46.95","226","29.8","98.80","21.73","30.00","42.35","16.59","23.37","0","0"
"JaVale McGee","JaVale-McGee-1485","5700","C","55.14","220.5","22.3","112.50","18.03","24.00","45.9","16.92","27.16","0","0"
"Paul Millsap","Paul-Millsap-1335","5900","PF/C","55.37","220","24.7","99.62","22.15","28.00","46.43","17.66","27.77","0","0"
"Mikal Bridges","Mikal-Bridges-408842","4000","SF","42.94","217","22.2","108.80","16.22","26.00","22.87","3.89","18.79","0","0"
"Juan Hernangomez","Juan-Hernangomez-35212","4700","SF/PF","55.37","220","28.1","99.62","13.48","30.00","42.73","14.51","21.99","0","0"
"Damian Lillard","Damian-Lillard-13900","9200","PG","45.50","226","36.0","104.50","34.36","36.00","64.46","20.76","42.89","0","0"
"Lonzo Ball","Lonzo-Ball-37885","5600","PG","45.27","220.5","24.7","112.50","18.46","28.00","40.78","13.14","25.86","0","0"
"Ish Smith","Ish-Smith-13958","3700","PG","42.13","214.5","21.0","100.30","19.50","21.00","30.43","11.32","17","0","0"
"Mason Plumlee","Mason-Plumlee-16798","3300","PF/C","57.92","220","14.9","99.62","16.15","15.00","30.18","12.34","15.1","0","0"
"Taj Gibson","Taj-Gibson-1277","4400","PF","48.76","220","27.5","100.67","17.64","24.00","32.26","11.13","20.06","0","0"
"Blake Griffin","Blake-Griffin-1503","9500","PF/C","57.56","214.5","32.8","100.30","26.56","36.00","64.12","19.82","43.09","0","0"
"LeBron James","LeBron-James-1227","11600","SF/PF","42.89","220.5","33.7","112.50","34.90","36.00","79.1","20.89","52.63","0","0"
"Derrick Rose","Derrick-Rose-1086","6300","PG/SG","48.91","220","34.0","100.67","24.75","30.00","52.59","24.61","28.52","0","0"
"James Ennis","James-Ennis-18599","3900","SG/SF","35.24","214.5","26.0","101.42","12.17","28.00","32.12","13.71","17.56","0","0"
"Shaquille Harrison","Shaquille-Harrison-36065","3700","PG","50.06","217","19.4","104.50","19.11","20.00","31.11","12.81","16.32","0","0"
"Malik Beasley","Malik-Beasley-35213","3100","SG","38.34","220","16.1","99.62","16.86","18.00","26.69","13.35","13.35","0","0"
"Gary Clark","Gary-Clark-570141","3700","SF","43.44","214.5","24.5","101.42","8.16","22.00","18.8","3.04","15.5","0","0"
"Kyle Korver","Kyle-Korver-1269","3100","SG/SF","32.87","220.5","18.5","103.60","13.68","18.00","25.97","10.28","12.99","0","0"
"Glenn Robinson","Glenn-Robinson-18621","3500","SF/PF","28.96","214.5","19.0","100.30","16.35","21.00","24.06","9.04","14.04","0","0"
"Pat Connaughton","Pat-Connaughton-18939","3700","SG/SF","38.33","226","21.7","98.80","15.39","19.00","29.21","11.25","14.61","0","0"
"Ante Zizic","Ante-Zizic-35180","3200","C","56.77","220.5","13.0","103.60","17.76","14.00","25.29","12.65","12.65","0","0"
"Larry Nance","Larry-Nance-18946","5600","PF/C","61.58","220.5","27.2","103.60","12.37","20.00","38.11","12.8","21.99","0","0"
"Nik Stauskas","Nik-Stauskas-18636","3000","SG/SF","39.75","226","14.8","104.50","18.11","17.00","23.12","9.55","11.77","0","0"
"Josh Jackson","Josh-Jackson-37890","3400","SF","42.30","217","13.5","108.80","25.76","14.00","21.6","8.26","12.96","0","0"
"Jamal Crawford","Jamal-Crawford-1075","3000","PG/SG","42.30","217","16.8","108.80","21.70","14.00","22.47","11.24","11.24","0","0"
"Jake Layman","Jake-Layman-35216","3100","PF","38.87","226","18.0","104.50","10.77","16.00","19.92","8.29","11.33","0","0"
"Stanley Johnson","Stanley-Johnson-18913","3700","SF/PF","28.96","214.5","19.2","100.30","24.57","18.00","26.02","10.59","13.37","0","0"
"Andrew Harrison","Andrew-Harrison-18950","3300","PG","35.90","220.5","15.0","103.60","18.85","15.00","21.17","8.16","10.77","0","0"
"Tony Snell","Tony-Snell-16872","3100","SG/SF","41.67","226","16.0","98.80","13.09","19.00","19.95","9.0","9.98","0","0"
"Maurice Harkless","Maurice-Harkless-16971","3300","SF/PF","38.87","226","0","104.50","0","14.00","10.35","10.35","10.35","0","0"
"Cameron Payne","Cameron-Payne-18941","3100","PG/SG","53.35","217","11.8","104.50","19.46","12.00","19.19","8.32","9.6","0","0"
"Gorgui Dieng","Gorgui-Dieng-16939","3200","PF/C","48.76","220","10.5","100.67","18.11","10.00","17.34","7.17","9.79","0","0"
"Zaza Pachulia","Zaza-Pachulia-1455","3200","C","49.87","214.5","8.5","100.30","20.24","10.00","19.03","7.36","9.61","0","0"
"Thon Maker","Thon-Maker-35194","3000","PF/C","52.27","226","8.8","98.80","21.33","10.00","17.17","6.96","8.59","0","0"
"Wade Baldwin","Wade-Baldwin-35204","3000","PG","45.50","226","4.3","104.50","10.25","10.00","16.13","8.07","8.07","0","0"
"Jose Calderon","Jose-Calderon-1071","3000","PG","42.13","214.5","11.0","100.30","12.50","12.00","14.97","5.95","7.49","0","0"
"Sterling Brown","Sterling-Brown-37821","3000","SG","38.33","226","7.0","98.80","15.64","9.00","14.33","7.17","7.17","0","0"
"Tyus Jones","Tyus-Jones-18938","3500","PG","47.17","220","14.3","100.67","12.89","10.00","15.39","7.41","7.7","0","0"
"Isaiah Hartenstein","Isaiah-Hartenstein-570142","3300","PF","43.44","214.5","10.2","101.42","14.69","9.00","8.24","1.33","6.79","0","0"
"Gerald Green","Gerald-Green-13374","3400","SG/SF","44.00","214.5","9.8","101.42","24.49","8.00","13.03","5.29","6.52","0","0"
"Meyers Leonard","Meyers-Leonard-13905","3100","C","56.69","226","11.5","104.50","22.46","4.00","8.08","3.29","4.04","0","0"
"Cristiano Felicio","Cristiano-Felicio-31767","3000","C","58.98","217","6.4","104.50","10.39","2.00","3.36","1.45","1.68","0","0"
"Troy Daniels","Troy-Daniels-17383","3000","SG","36.29","217","2.0","108.80","0.00","2.00","3.28","1.56","1.64","0","0"
