"nameCol","idCol","salaryCol","positionCol","dvpCol","ouCol","mpgCol","paceCol","usgCol","pminCol","ceilCol","floorCol","pointsCol","predictCol","actualCol"
"Tomas Satoransky ","Tomas-Satoransky--36031","3400","PG/SG","47.46","227.5","20.6","103.80","17.15","24.00","34.38","16.92","22.15","0","0"
"Marcus Smart","Marcus-Smart-18567","4200","PG/SG","44.89","216.5","25.3","101.75","15.06","29.00","37.17","15.1","27.01","0","0"
"Alec Burks","Alec-Burks-13353","3500","SG/SF","48.21","214.5","17.7","103.60","25.16","24.00","36.93","22.01","22.01","0","0"
"Jonas Valanciunas","Jonas-Valanciunas-13301","4800","C","51.11","214.5","18.6","105.50","23.32","24.00","52.37","25.72","29.67","0","0"
"Tyreke Evans","Tyreke-Evans-1070","5000","SG/SF","55.14","225","23.6","107.67","25.18","26.00","44.82","18.32","30.74","0","0"
"Reggie Bullock","Reggie-Bullock-16943","3800","SG/SF","34.06","229","32.7","100.30","13.58","30.00","36.45","15.44","22.47","0","0"
"Rodney Hood","Rodney-Hood-18629","4600","SG/SF","48.21","214.5","31.1","103.60","18.84","31.00","43.81","17.6","27.16","0","0"
"Andrew Wiggins","Andrew-Wiggins-18620","5400","SG/SF","43.41","216.5","30.5","100.67","22.47","33.00","41.51","18.0","31.64","0","0"
"Jordan Clarkson","Jordan-Clarkson-18631","5100","PG/SG","48.21","214.5","24.4","103.60","29.31","28.00","49.3","26.61","29.86","0","0"
"Allen Crabbe","Allen-Crabbe-16978","3700","SG/SF","41.33","227.5","27.0","114.62","16.73","27.00","34.41","14.03","21.45","0","0"
"Otto Porter","Otto-Porter-17069","5600","SF/PF","31.55","227.5","32.2","103.80","16.05","33.00","47.77","21.87","32.45","0","0"
"Gordon Hayward","Gordon-Hayward-1239","5300","SG/SF","53.31","216.5","25.8","101.75","18.61","30.00","44.38","21.2","30.46","0","0"
"Wendell Carter","Wendell-Carter-408878","4600","C","54.96","","23.3","104.50","22.54","26.00","27.31","5.47","26.41","0","0"
"DeMarre Carroll","DeMarre-Carroll-1174","3400","SF/PF","34.98","227.5","21.6","114.62","16.28","22.00","32.72","15.54","19.5","0","0"
"Clint Capela","Clint-Capela-18610","7800","C","55.37","","35.9","101.42","18.50","35.00","66.84","26.24","44.47","0","0"
"Terry Rozier","Terry-Rozier-18894","4100","PG/SG","47.57","216.5","19.1","101.75","21.70","24.00","36.63","19.22","23.27","0","0"
"Joe Harris","Joe-Harris-18587","4000","SG/SF","41.33","227.5","29.5","114.62","17.65","29.00","32.79","15.0","22.46","0","0"
"Rondae Hollis-Jefferson","Rondae-Hollis-Jefferson-18897","5500","PF/C","51.81","227.5","25.3","114.62","20.40","30.00","47.41","19.12","30.45","0","0"
"Willie Cauley-Stein","Willie-Cauley-Stein-18951","6000","C","48.98","225","25.8","98.20","21.76","30.00","45.57","18.81","32.88","0","0"
"Thaddeus Young","Thaddeus-Young-1289","4700","SF/PF","55.16","225","27.6","107.67","18.59","28.00","36.82","13.44","25.55","0","0"
"Jeff Teague","Jeff-Teague-1005","6000","PG","51.57","216.5","29.0","100.67","19.31","33.00","46.3","16.68","32.58","0","0"
"Marvin Bagley III","Marvin-Bagley-III-409321","5600","PF","47.16","225","28.2","98.20","22.03","29.00","32.93","6.95","30.35","0","0"
"Bogdan Bogdanovic","Bogdan-Bogdanovic-37899","5500","SG/SF","45.49","225","28.0","98.20","25.97","30.00","47.04","24.96","29.64","0","0"
"Ish Smith","Ish-Smith-13958","3600","PG","41.34","229","21.2","100.30","23.29","22.00","30.21","13.36","19.28","0","0"
"De'Aaron Fox","De'Aaron-Fox-37900","6900","PG","42.14","225","30.7","98.20","26.20","34.00","45.83","18.76","36.93","0","0"
"Buddy Hield","Buddy-Hield-35206","5700","SG/SF","37.38","225","31.0","98.20","24.05","30.00","45.57","20.15","30.44","0","0"
"Dario Saric","Dario-Saric-36004","4500","PF","43.15","216.5","21.5","100.67","21.10","24.00","40.45","19.4","23.92","0","0"
"Austin Rivers","Austin-Rivers-13903","3500","PG/SG","40.59","227.5","21.7","103.80","18.20","23.00","29.16","15.12","18.55","0","0"
"Reggie Jackson","Reggie-Jackson-13352","5600","PG/SG","50.61","229","27.0","100.30","25.11","29.00","42.28","16.08","29.67","0","0"
"Zach LaVine","Zach-LaVine-18622","8200","PG/SG","48.80","","35.3","104.50","32.21","36.00","61.01","26.36","43.36","0","0"
"Jarrett Allen","Jarrett-Allen-37794","5400","C","55.28","227.5","30.3","114.62","16.65","29.00","39.39","17.11","28.52","0","0"
"John Wall","John-Wall-1084","8900","PG","47.46","227.5","32.4","103.80","33.22","35.00","52.5","18.67","46.92","0","0"
"Danny Green","Danny-Green-940","4500","SG/SF","38.01","214.5","29.6","105.50","13.97","29.00","33.59","16.46","23.69","0","0"
"Chris Paul","Chris-Paul-1087","7900","PG","49.71","","32.5","101.42","26.20","34.00","54.92","20.42","41.51","0","0"
"Derrick Rose","Derrick-Rose-1086","5900","PG/SG","51.57","216.5","27.3","100.67","22.27","29.00","48.9","27.36","30.85","0","0"
"Bojan Bogdanovic","Bojan-Bogdanovic-18571","5200","SG/SF","42.55","225","31.1","107.67","19.97","32.00","42.81","21.6","27.2","0","0"
"Ryan Arcidiacono","Ryan-Arcidiacono-36050","4500","PG","48.80","","33.3","104.50","13.39","33.00","36.7","15.07","23.48","0","0"
"Andre Iguodala","Andre-Iguodala-1334","3700","SG/SF","33.07","229","28.4","103.10","9.16","26.00","27.69","10.99","19.28","0","0"
"James Ennis","James-Ennis-18599","3800","SG/SF","40.29","","27.4","101.42","11.31","29.00","30.55","14.79","19.75","0","0"
"Andre Drummond","Andre-Drummond-13904","9400","C","48.19","229","33.0","100.30","23.96","33.00","59.85","22.4","48.9","0","0"
"Karl-Anthony Towns","Karl-Anthony-Towns-18937","9200","C","50.94","216.5","32.7","100.67","27.24","36.00","64.33","26.94","47.51","0","0"
"Bradley Beal","Bradley-Beal-13898","8000","SG","43.62","227.5","35.1","103.80","24.52","36.00","64.11","28.11","41.15","0","0"
"Damian Jones","Damian-Jones-35223","3300","C","53.59","229","17.1","103.10","9.98","20.00","28.59","11.92","16.96","0","0"
"Cedi Osman","Cedi-Osman-18912","4900","SF","37.97","214.5","34.1","103.60","15.73","30.00","32.34","11.25","24.99","0","0"
"Blake Griffin","Blake-Griffin-1503","9300","PF/C","54.62","229","36.7","100.30","29.53","36.00","60.93","21.73","46.83","0","0"
"Jabari Parker","Jabari-Parker-18593","6800","SF/PF","43.82","","34.4","104.50","25.26","34.00","47.58","18.48","34.28","0","0"
"Al Horford","Al-Horford-1499","6400","PF/C","55.66","216.5","29.8","101.75","17.46","30.00","43.35","16.82","32.16","0","0"
"Stanley Johnson","Stanley-Johnson-18913","4000","SF/PF","34.06","229","20.7","100.30","22.33","24.00","33.05","15.09","19.96","0","0"
"D'Angelo Russell","D'Angelo-Russell-18947","7200","PG/SG","57.59","227.5","33.0","114.62","32.77","31.00","49.94","17.89","35.93","0","0"
"Glenn Robinson","Glenn-Robinson-18621","3100","SF/PF","34.06","229","13.7","100.30","12.34","21.00","22.93","10.06","15.45","0","0"
"Fred VanVleet","Fred-VanVleet-36011","4400","PG/SG","44.93","214.5","23.9","105.50","17.71","21.00","34.72","17.85","21.74","0","0"
"Stephen Curry","Stephen-Curry-1079","9000","PG/SG","49.06","229","0","103.10","0","30.00","61.34","24.2","44.32","0","0"
"Eric Gordon","Eric-Gordon-1077","6100","SG/SF","43.43","","33.1","101.42","21.92","31.00","46.05","22.23","29.96","0","0"
"P.J. Tucker","P.J.-Tucker-13947","4300","SF/PF","40.29","","34.3","101.42","10.03","33.00","41.09","17.73","21.03","0","0"
"Marcus Morris","Marcus-Morris-13316","5500","SF/PF","39.36","216.5","26.1","101.75","19.62","30.00","36.58","13.84","26.92","0","0"
"Nemanja Bjelica","Nemanja-Bjelica-31814","3900","SF/PF","47.16","225","18.8","98.20","16.11","19.00","31.14","12.61","19.02","0","0"
"Darren Collison","Darren-Collison-1060","5400","PG","44.06","225","26.6","107.67","19.31","28.00","35.84","15.97","26.22","0","0"
"Jayson Tatum","Jayson-Tatum-37782","6700","SF/PF","53.31","216.5","27.7","101.75","21.65","33.00","41.31","17.31","32.48","0","0"
"Kevin Durant","Kevin-Durant-1348","10800","SF/PF","40.91","229","37.9","103.10","38.82","35.00","67.57","27.25","52.3","0","0"
"James Harden","James-Harden-1037","11900","PG/SG","49.71","","37.7","101.42","41.12","37.00","66.44","21.05","57.52","0","0"
"Justin Holiday","Justin-Holiday-14559","5600","SG/SF","37.07","","36.1","104.50","16.58","36.00","39.22","18.07","27.01","0","0"
"Markieff Morris","Markieff-Morris-13314","5700","PF/C","58.86","227.5","27.6","103.80","20.15","29.00","39.88","19.48","27.43","0","0"
"Iman Shumpert","Iman-Shumpert-13350","3700","SG/SF","37.38","225","25.4","98.20","14.30","24.00","26.38","12.74","17.75","0","0"
"Spencer Dinwiddie","Spencer-Dinwiddie-18588","6300","PG/SG","57.59","227.5","29.3","114.62","27.30","28.00","46.16","21.38","30.11","0","0"
"Taj Gibson","Taj-Gibson-1277","4300","PF/C","46.68","216.5","23.0","100.67","15.17","24.00","27.98","11.4","20.51","0","0"
"Klay Thompson","Klay-Thompson-13315","7100","SG","33.07","229","36.4","103.10","30.11","35.00","45.2","19.6","33.68","0","0"
"Larry Nance","Larry-Nance-18946","5500","PF/C","55.45","214.5","25.1","103.60","12.17","27.00","39.9","20.86","26.08","0","0"
"Jonas Jerebko","Jonas-Jerebko-1106","4100","SF/PF","40.91","229","23.0","103.10","14.58","22.00","35.03","15.02","19.3","0","0"
"Cory Joseph","Cory-Joseph-13339","4400","PG","44.06","225","27.0","107.67","18.36","27.00","36.61","16.8","20.66","0","0"
"Serge Ibaka","Serge-Ibaka-1294","5800","PF/C","45.28","214.5","27.6","105.50","22.59","24.00","38.69","16.24","27.21","0","0"
"Tristan Thompson","Tristan-Thompson-13308","5800","C","47.57","214.5","33.4","103.60","17.43","30.00","37.32","16.44","27.22","0","0"
"Kelly Oubre","Kelly-Oubre-18925","4500","SG/SF","31.55","227.5","23.3","103.80","21.44","24.00","30.68","14.74","21.06","0","0"
"Kyrie Irving","Kyrie-Irving-13334","8700","PG","44.89","216.5","30.0","101.75","34.62","34.00","54.09","21.78","40.55","0","0"
"Robert Covington","Robert-Covington-16874","6500","SF/PF","34.35","216.5","35.7","100.67","16.00","36.00","42.27","19.82","30.17","0","0"
"Myles Turner","Myles-Turner-18915","5900","C","59.81","225","27.0","107.67","20.17","28.00","43.99","20.16","26.92","0","0"
"Kawhi Leonard","Kawhi-Leonard-13310","9600","SF/PF","50.86","214.5","35.2","105.50","26.85","32.00","57.61","21.04","43.12","0","0"
"Gary Clark","Gary-Clark-570141","3200","SF","52.59","","18.9","101.42","7.64","17.00","14.52","2.59","14.31","0","0"
"Langston Galloway","Langston-Galloway-18717","3500","PG/SG","41.00","229","23.3","100.30","15.82","20.00","26.88","13.6","15.61","0","0"
"George Hill","George-Hill-993","3800","PG/SG","47.40","214.5","0","103.60","0","20.00","29.19","15.21","16.96","0","0"
"Shabazz Napier","Shabazz-Napier-18598","3200","PG/SG","48.11","227.5","15.4","114.62","23.22","16.00","25.64","11.52","14.12","0","0"
"Kyle Lowry","Kyle-Lowry-1057","8400","PG","52.56","214.5","33.3","105.50","21.45","31.00","51.97","19.8","36.6","0","0"
"Pascal Siakam","Pascal-Siakam-35186","6200","PF","51.11","214.5","31.4","105.50","16.45","29.00","39.72","15.26","26.82","0","0"
"Kevon Looney","Kevon-Looney-18945","3700","PF/C","53.59","229","20.9","103.10","11.96","17.00","24.3","12.7","15.99","0","0"
"C.J. Miles","C.J.-Miles-1299","3100","SG/SF","38.01","214.5","9.5","105.50","26.41","15.00","22.37","10.86","13.39","0","0"
"Collin Sexton","Collin-Sexton-408896","5600","PG","47.40","214.5","32.9","103.60","26.47","35.00","27.34","7.38","24.11","0","0"
"Ed Davis","Ed-Davis-1265","3400","PF/C","55.28","227.5","15.9","114.62","14.31","15.00","24.53","10.8","14.59","0","0"
"Shaun Livingston","Shaun-Livingston-14007","3200","PG","40.83","229","17.3","103.10","16.19","16.00","21.96","10.75","13.63","0","0"
"Delon Wright","Delon-Wright-18907","3400","PG/SG","44.93","214.5","15.7","105.50","19.21","17.00","23.36","11.32","14.19","0","0"
"Domantas Sabonis","Domantas-Sabonis-35217","7600","PF/C","54.79","225","25.7","107.67","25.77","26.00","47.09","23.94","31.58","0","0"
"Aaron Holiday","Aaron-Holiday-408932","3600","PG","44.06","225","18.3","107.67","24.17","17.00","15.6","3.59","14.73","0","0"
"OG Anunoby","OG-Anunoby-37807","3300","SF","38.01","214.5","16.8","105.50","19.69","18.00","24.95","13.25","13.25","0","0"
"Zaza Pachulia","Zaza-Pachulia-1455","3200","C","48.19","229","11.2","100.30","16.87","13.00","21.65","11.2","12.78","0","0"
"Gerald Green","Gerald-Green-13374","3300","SG/SF","43.43","","16.0","101.42","18.44","14.00","22.59","10.63","13.09","0","0"
"Doug McDermott","Doug-McDermott-18583","3500","SF/PF","42.55","225","21.3","107.67","16.41","20.00","27.45","13.73","13.73","0","0"
"Lauri Markkanen","Lauri-Markkanen-37809","5000","PF","43.82","","0","104.50","0","20.00","25.12","17.39","19.32","0","0"
"Aron Baynes","Aron-Baynes-14114","3400","C","54.80","216.5","16.1","101.75","17.71","14.00","20.28","10.74","13.04","0","0"
"Andrew Harrison","Andrew-Harrison-18950","3200","PG","43.12","214.5","13.7","103.60","17.14","15.00","19.77","9.18","12.13","0","0"
"Troy Brown","Troy-Brown-409043","3000","SF","31.55","227.5","11.0","103.80","19.08","14.00","11.34","2.02","11.17","0","0"
"Robin Lopez","Robin-Lopez-1466","3300","C","54.12","","18.4","104.50","18.07","12.00","24.39","12.2","12.2","0","0"
"Justin Jackson","Justin-Jackson-37895","3400","SF","37.38","225","15.7","98.20","13.17","16.00","18.81","9.89","12.3","0","0"
"Gorgui Dieng","Gorgui-Dieng-16939","3300","PF/C","46.68","216.5","13.5","100.67","19.02","12.00","18.22","8.71","11.87","0","0"
"Jared Dudley","Jared-Dudley-1319","3100","SF/PF","34.98","227.5","18.4","114.62","7.50","15.00","19.38","9.55","10.91","0","0"
"Quinn Cook","Quinn-Cook-31771","4000","PG","49.06","229","27.3","103.10","19.37","18.00","25.9","13.88","13.88","0","0"
"Jordan Bell","Jordan-Bell-37877","3300","PF","53.59","229","9.7","103.10","11.92","12.00","18.68","9.59","11.34","0","0"
"Thomas Bryant ","Thomas-Bryant--37884","3300","C","58.86","227.5","14.3","103.80","14.47","16.00","18.68","8.87","11.25","0","0"
"Shaquille Harrison","Shaquille-Harrison-36065","3300","PG","40.20","","17.3","104.50","17.25","14.00","17.55","8.64","11.01","0","0"
"Tyus Jones","Tyus-Jones-18938","3200","PG","38.86","216.5","17.3","100.67","13.77","13.00","19.27","10.15","10.55","0","0"
"Antonio Blakeney","Antonio-Blakeney-37811","3000","PG","37.07","","16.3","104.50","22.98","10.00","16.24","7.89","9.77","0","0"
"Nene Hilario","Nene-Hilario-17321","3300","C","55.37","","0","101.42","0","10.00","17.31","9.22","10.38","0","0"
"Troy Williams","Troy-Williams-36043","3200","SG","37.38","225","11.8","98.20","16.92","10.00","14.24","7.27","8.97","0","0"
"Chandler Hutchison","Chandler-Hutchison-408877","3000","SG","31.41","","18.2","104.50","13.14","10.00","8.25","1.51","8.16","0","0"
"Semi Ojeleye","Semi-Ojeleye-37786","3000","PF","39.36","216.5","14.4","101.75","14.01","12.00","14.87","7.68","7.68","0","0"
"Cameron Payne","Cameron-Payne-18941","3000","PG/SG","48.80","","12.9","104.50","14.94","9.00","12.55","6.41","7.38","0","0"
"Damion Lee","Damion-Lee-35995","3100","SG","49.06","229","18.9","103.10","15.55","9.00","11.69","5.97","7.13","0","0"
"Frank Mason","Frank-Mason-37898","3000","PG","42.14","225","9.3","98.20","22.10","6.00","10.34","5.96","6.74","0","0"
"Kosta Koufos","Kosta-Koufos-1386","3000","C","48.98","225","0","98.20","0","8.00","8.44","5.84","6.49","0","0"
"Harry Giles","Harry-Giles-37897","3200","PF","47.16","225","10.2","98.20","30.92","8.00","7.4","1.56","6.82","0","0"
"TJ Leaf","TJ-Leaf-37817","3100","PF","59.81","225","5.8","107.67","19.81","8.00","12.08","6.48","6.48","0","0"
"Luke Kennard","Luke-Kennard-37814","3000","SG/SF","41.00","229","0","100.30","0","10.00","7.75","5.36","5.96","0","0"
"Ian Mahinmi","Ian-Mahinmi-1357","3000","C","63.36","227.5","9.0","103.80","8.89","6.00","10.68","5.33","5.9","0","0"
"Daniel Theis","Daniel-Theis-37784","3000","PF/C","54.80","216.5","12.4","101.75","16.61","4.00","6.7","3.61","4","0","0"
"Danuel House","Danuel-House-36029","3200","SG","49.71","","25.0","101.42","15.67","4.00","5.55","2.53","3.35","0","0"
"Bruce Brown","Bruce-Brown-408913","3100","SG","50.61","229","20.0","100.30","8.54","2.00","1.61","0.31","1.56","0","0"
