"nameCol","idCol","salaryCol","positionCol","dvpCol","ouCol","mpgCol","paceCol","usgCol","pminCol","ceilCol","floorCol","pointsCol","predictCol","actualCol"
"Seth Curry","Seth-Curry-16825","3000","PG/SG","36.87","212.5","14.7","104.50","12.67","23.00","38.03","20.07","20.07","0","0"
"Nik Stauskas","Nik-Stauskas-18636","3100","SG/SF","36.87","212.5","12.5","104.50","21.02","26.00","32.2","15.12","19.49","0","0"
"De'Anthony Melton","De'Anthony-Melton-409081","4200","PG/SG","46.15","212.5","11.7","108.80","21.68","26.00","24.87","4.55","24.6","0","0"
"Evan Turner","Evan-Turner-1291","4200","SG/SF","51.33","212.5","26.8","104.50","17.77","32.00","36.33","20.43","24.55","0","0"
"Elie Okobo","Elie-Okobo-409300","4000","PG","40.00","212.5","28.5","108.80","18.12","28.00","23.81","4.77","23.03","0","0"
"Mikal Bridges","Mikal-Bridges-408842","4100","SG/SF","41.33","212.5","25.4","108.80","12.47","32.00","23.49","4.7","22.72","0","0"
"Jusuf Nurkic","Jusuf-Nurkic-18619","7300","C","60.44","212.5","27.2","104.50","22.62","27.00","50.93","21.96","39.85","0","0"
"Derrick Favors","Derrick-Favors-1266","4600","PF/C","54.78","215","21.7","98.88","16.17","24.00","32.03","15.47","24.79","0","0"
"Josh Jackson","Josh-Jackson-37890","5400","SF/PF","45.64","212.5","24.6","108.80","24.59","30.00","41.91","19.41","28.59","0","0"
"Joe Ingles","Joe-Ingles-18627","5500","SG/SF","37.90","215","29.6","98.88","18.16","33.00","43.61","18.48","28.3","0","0"
"Ricky Rubio","Ricky-Rubio-1001","6400","PG","38.75","215","29.4","98.88","23.50","32.00","42.55","17.22","32.43","0","0"
"Deandre Ayton","Deandre-Ayton-409301","6700","C","54.55","212.5","28.1","108.80","19.81","30.00","34.7","6.95","33.56","0","0"
"Chris Paul","Chris-Paul-1087","7700","PG","48.90","215","32.5","101.42","23.47","35.00","51.98","18.48","38.42","0","0"
"P.J. Tucker","P.J.-Tucker-13947","4300","SF/PF","30.09","215","36.0","101.42","9.73","35.00","41.7","18.0","21.46","0","0"
"Maurice Harkless","Maurice-Harkless-16971","3600","SF/PF","32.06","212.5","17.2","104.50","11.99","25.00","28.06","11.92","17.77","0","0"
"Donovan Mitchell","Donovan-Mitchell-37875","7600","PG/SG","49.16","215","28.4","98.88","31.99","35.00","48.97","20.16","37.41","0","0"
"Damian Lillard","Damian-Lillard-13900","10100","PG","52.38","212.5","38.2","104.50","32.44","36.00","63.17","23.92","49.43","0","0"
"James Harden","James-Harden-1037","10800","PG/SG","48.90","215","37.3","101.42","40.27","37.00","60.19","19.54","52.11","0","0"
"Clint Capela","Clint-Capela-18610","8000","C","53.58","215","35.6","101.42","18.42","35.00","56.09","24.07","38.39","0","0"
"Jae Crowder","Jae-Crowder-13942","4900","SF/PF","32.09","215","26.1","98.88","20.30","29.00","39.65","17.99","23.52","0","0"
"Eric Gordon","Eric-Gordon-1077","5000","SG/SF","41.90","215","34.0","101.42","22.74","30.00","36.46","17.66","23.77","0","0"
"Al-Farouq Aminu","Al-Farouq-Aminu-1279","5200","SF/PF","32.06","212.5","30.0","104.50","11.61","29.00","37.82","18.28","24.54","0","0"
"Zach Collins","Zach-Collins-37866","3400","PF/C","55.66","212.5","16.0","104.50","15.78","17.00","24.54","12.08","16.02","0","0"
"James Ennis","James-Ennis-18599","3700","SG/SF","30.09","215","26.0","101.42","12.20","30.00","27.4","12.98","17.42","0","0"
"Rudy Gobert","Rudy-Gobert-16935","8300","C","53.12","215","31.7","98.88","18.43","33.00","51.92","16.24","39.04","0","0"
"Trevor Ariza","Trevor-Ariza-1323","5600","SF/PF","41.33","212.5","33.3","108.80","15.55","32.00","34.24","12.81","26.04","0","0"
"Richaun Holmes","Richaun-Holmes-18905","4300","PF/C","52.55","212.5","18.1","108.80","19.17","18.00","33.14","13.58","19.4","0","0"
"Jamal Crawford","Jamal-Crawford-1075","3900","PG/SG","45.64","212.5","22.1","108.80","24.04","21.00","29.75","16.95","16.95","0","0"
"Meyers Leonard","Meyers-Leonard-13905","3400","C","55.66","212.5","15.8","104.50","15.50","13.00","25.26","11.76","14.46","0","0"
"Kyle Korver","Kyle-Korver-1269","3400","SG/SF","37.90","215","16.3","98.88","21.57","17.00","23.0","10.37","13.13","0","0"
"Nene Hilario","Nene-Hilario-17321","3100","C","53.58","215","11.0","101.42","9.69","13.00","19.19","9.97","11.65","0","0"
"Troy Daniels","Troy-Daniels-17383","3400","SG","38.86","212.5","16.7","108.80","21.68","17.00","20.91","11.29","11.86","0","0"
"Royce O'Neale","Royce-O'Neale-37872","3400","SF","32.09","215","22.1","98.88","11.43","16.00","17.7","8.69","11.66","0","0"
"Jake Layman","Jake-Layman-35216","3000","SF/PF","32.06","212.5","20.0","104.50","8.00","12.00","16.09","8.22","9.75","0","0"
"Raul Neto","Raul-Neto-31821","3200","PG","38.75","215","12.3","98.88","23.56","13.00","18.95","9.48","10.26","0","0"
"Gerald Green","Gerald-Green-13374","3300","SG/SF","41.90","215","16.2","101.42","15.90","13.00","17.55","8.22","10.14","0","0"
"Gary Clark","Gary-Clark-570141","3000","SF/PF","48.23","215","15.7","101.42","8.93","12.00","8.65","1.58","8.56","0","0"
"Thabo Sefolosha","Thabo-Sefolosha-1271","3000","SF/PF","32.09","215","9.3","98.88","11.49","8.00","8.45","4.77","5.65","0","0"
"Ryan Anderson","Ryan-Anderson-1281","3000","PF/C","51.94","212.5","10.7","108.80","7.91","6.00","6.27","4.27","4.27","0","0"
