"nameCol","idCol","salaryCol","positionCol","dvpCol","ouCol","mpgCol","paceCol","usgCol","pminCol","ceilCol","floorCol","pointsCol","predictCol","actualCol"
"Danuel House","Danuel-House-36029","3600","SF/PF","0","221","0","101.42","0","28.00","37.49","13.94","22.97","0","0"
"Al-Farouq Aminu","Al-Farouq-Aminu-1279","3900","SF/PF","0","213.5","29.7","104.50","12.51","30.00","37.36","18.21","24.31","0","0"
"Noah Vonleh","Noah-Vonleh-18597","5200","PF/C","0","225.5","0","100.17","0","30.00","45.05","21.5","32.04","0","0"
"Jerami Grant","Jerami-Grant-18576","4500","PF","0","221","33.0","102.62","15.06","34.00","42.11","19.0","27.61","0","0"
"Draymond Green","Draymond-Green-13976","6300","PF/C","58.91","234","0","103.10","0","34.00","46.89","17.17","38.66","0","0"
"Jusuf Nurkic","Jusuf-Nurkic-18619","6100","C","51.82","213.5","27.1","104.50","22.78","29.00","49.16","20.93","37.3","0","0"
"Ricky Rubio","Ricky-Rubio-1001","5400","PG","41.20","213.5","0","98.88","0","32.00","42.56","17.23","32.44","0","0"
"Brook Lopez","Brook-Lopez-1498","4300","C","59.72","225.5","0","98.80","0","28.00","39.06","17.6","25.8","0","0"
"Dennis Schroder","Dennis-Schroder-18595","4900","PG/SG","0","221","27.3","102.62","27.40","28.00","44.53","22.94","29.18","0","0"
"Gerald Green","Gerald-Green-13374","3900","SG/SF","0","221","22.1","101.42","14.96","28.00","39.1","18.51","22.77","0","0"
"P.J. Tucker","P.J.-Tucker-13947","4300","SF/PF","38.63","221","0","101.42","0","36.00","47.72","20.61","24.51","0","0"
"Marcus Smart","Marcus-Smart-18567","4400","PG/SG","0","222","0","101.75","0","28.00","35.52","13.9","24.77","0","0"
"Clint Capela","Clint-Capela-18610","7400","C","49.01","221","0","101.42","0","35.00","62.33","26.2","41.58","0","0"
"James Harden","James-Harden-1037","10900","PG/SG","0","221","0","101.42","0","38.00","71.85","22.0","60.94","0","0"
"Kevin Durant","Kevin-Durant-1348","9300","SF/PF","44.09","234","0","103.10","0","35.00","68.07","24.01","51.53","0","0"
"Eric Gordon","Eric-Gordon-1077","5800","SG/SF","0","221","34.7","101.42","19.20","36.00","46.36","21.9","32.02","0","0"
"Kevon Looney","Kevon-Looney-18945","3500","PF/C","0","234","0","103.10","0","20.00","31.3","15.43","19.24","0","0"
"Khris Middleton","Khris-Middleton-13990","6500","SG/SF","49.96","225.5","0","98.80","0","33.00","57.6","24.96","35.71","0","0"
"Damian Lillard","Damian-Lillard-13900","7800","PG","49.37","213.5","0","104.50","0","35.00","54.55","20.77","42.82","0","0"
"Stephen Curry","Stephen-Curry-1079","9000","PG/SG","0","234","0","103.10","0","35.00","68.62","25.85","49.33","0","0"
"Maurice Harkless","Maurice-Harkless-16971","3300","SF/PF","0","213.5","0","104.50","0","25.00","28.87","12.08","18.03","0","0"
"Giannis Antetokounmpo","Giannis-Antetokounmpo-16852","10700","SF/PF","0","225.5","0","98.80","0","36.00","68.44","21.88","58.35","0","0"
"J.J. Redick","J.J.-Redick-1030","5100","SG/SF","0","222","28.7","108.33","22.66","32.00","37.0","17.05","27.45","0","0"
"Gordon Hayward","Gordon-Hayward-1239","5000","SF/PF","0","222","0","101.75","0","26.00","39.54","18.64","26.9","0","0"
"Tim Hardaway Jr.","Tim-Hardaway-Jr.-16879","6600","SG/SF","0","225.5","0","100.17","0","33.00","54.7","24.38","35.38","0","0"
"Joel Embiid","Joel-Embiid-18578","9500","C","50.36","222","0","108.33","0","33.00","62.25","21.92","50.86","0","0"
"Kyrie Irving","Kyrie-Irving-13334","8100","PG","0","222","0","101.75","0","33.00","59.25","23.11","43.28","0","0"
"Jimmy Butler","Jimmy-Butler-13327","7000","SG/SF","0","222","0","108.33","0","34.00","50.31","20.5","37.27","0","0"
"Jayson Tatum","Jayson-Tatum-37782","6000","SF/PF","0","222","0","101.75","0","33.00","40.11","16.58","31.71","0","0"
"Brandon Ingram","Brandon-Ingram-35227","5300","PG/SG","45.36","234","0","112.50","0","33.00","42.72","17.48","27.74","0","0"
"Andre Iguodala","Andre-Iguodala-1334","3300","SG/SF","37.40","234","0","103.10","0","19.00","25.91","10.07","17.27","0","0"
"Joe Ingles","Joe-Ingles-18627","5700","SG/SF","0","213.5","29.3","98.88","20.62","32.00","45.88","19.44","29.77","0","0"
"Wilson Chandler","Wilson-Chandler-1327","3800","SF/PF","34.50","222","0","108.33","0","27.00","29.86","14.04","19.75","0","0"
"Klay Thompson","Klay-Thompson-13315","6700","SG","37.40","234","34.5","103.10","21.94","35.00","44.74","20.07","34.79","0","0"
"Rudy Gobert","Rudy-Gobert-16935","7200","C","0","213.5","30.5","98.88","17.89","32.00","49.53","15.49","37.24","0","0"
"Derrick Favors","Derrick-Favors-1266","4900","PF/C","0","213.5","22.3","98.88","23.34","25.00","32.57","15.73","25.21","0","0"
"Terry Rozier","Terry-Rozier-18894","3700","PG/SG","47.57","222","0","101.75","0","19.00","30.3","16.18","19.01","0","0"
"Ben Simmons","Ben-Simmons-35184","8400","PG/SF","0","222","32.5","108.33","24.69","35.00","56.85","18.27","43","0","0"
"Eric Bledsoe","Eric-Bledsoe-1031","6800","PG/SG","53.16","225.5","0","98.80","0","32.00","50.4","22.28","34.59","0","0"
"Enes Kanter","Enes-Kanter-13299","6200","C","0","225.5","0","100.17","0","26.00","41.2","15.87","31.43","0","0"
"Russell Westbrook","Russell-Westbrook-1083","10300","PG","0","221","0","102.62","0","36.00","58.02","17.85","52.18","0","0"
"Josh Hart","Josh-Hart-37889","3500","PG/SG","41.29","234","25.5","112.50","15.03","23.00","29.89","14.1","17.73","0","0"
"LeBron James","LeBron-James-1227","10100","SF/PF","48.45","234","0","112.50","0","37.00","65.09","20.24","50.97","0","0"
"Kyle Kuzma","Kyle-Kuzma-37886","6400","SF/PF","48.45","234","0","112.50","0","34.00","41.98","17.98","32.34","0","0"
"Lonzo Ball","Lonzo-Ball-37885","5500","PG","0","234","0","112.50","0","28.00","37.07","14.32","27.64","0","0"
"Donovan Mitchell","Donovan-Mitchell-37875","7100","PG/SG","0","213.5","33.0","98.88","31.32","34.00","46.63","19.2","35.62","0","0"
"Jonas Jerebko","Jonas-Jerebko-1106","4100","PF/C","44.09","234","0","103.10","0","22.00","30.09","13.39","20.51","0","0"
"C.J. McCollum","C.J.-McCollum-17121","5900","PG/SG","0","213.5","0","104.50","0","35.00","39.72","16.7","29.51","0","0"
"Sterling Brown","Sterling-Brown-37821","3200","SG/SF","35.49","225.5","21.2","98.80","14.16","19.00","30.56","15.89","15.89","0","0"
"George Hill","George-Hill-993","3400","PG/SG","0","225.5","0","98.80","0","19.00","28.54","14.46","16.85","0","0"
"Mike Muscala","Mike-Muscala-17379","4200","PF/C","50.36","222","0","108.33","0","24.00","35.7","20.24","20.24","0","0"
"Malcolm Brogdon","Malcolm-Brogdon-35195","5000","PG/SG","53.16","225.5","25.0","98.80","24.50","28.00","34.55","17.03","24.06","0","0"
"Steven Adams","Steven-Adams-16848","6700","C","0","221","0","102.62","0","33.00","41.7","20.83","31.66","0","0"
"Kyle Korver","Kyle-Korver-1269","3300","SG/SF","0","213.5","18.2","98.88","18.50","20.00","27.35","12.33","15.61","0","0"
"Jae Crowder","Jae-Crowder-13942","4600","SF/PF","39.10","213.5","25.3","98.88","16.01","26.00","36.55","16.59","21.68","0","0"
"Evan Turner","Evan-Turner-1291","4000","SG/SF","0","213.5","0","104.50","0","23.00","28.39","15.66","18.84","0","0"
"Paul George","Paul-George-1245","9700","SF/PF","0","221","0","102.62","0","38.00","62.83","27.74","45.04","0","0"
"Ivica Zubac","Ivica-Zubac-35226","4400","C","0","234","0","112.50","0","22.00","28.02","13.73","19.93","0","0"
"Damyean Dotson","Damyean-Dotson-37795","3800","SG/SF","0","225.5","0","100.17","0","20.00","29.48","14.55","17.22","0","0"
"Marcus Morris","Marcus-Morris-13316","5900","SF/PF","0","222","27.5","101.75","21.27","27.00","35.66","14.02","26.61","0","0"
"Allonzo Trier","Allonzo-Trier-554950","3500","PG/SG","0","225.5","0","100.17","0","21.00","15.91","3.12","15.6","0","0"
"Shaun Livingston","Shaun-Livingston-14007","3100","PG","0","234","0","103.10","0","16.00","22.76","10.42","13.82","0","0"
"Al Horford","Al-Horford-1499","5700","PF/C","0","222","19.0","101.75","16.78","25.00","33.97","13.32","25.22","0","0"
"Tyson Chandler","Tyson-Chandler-1482","3600","C","0","234","16.8","112.50","7.18","18.00","30.62","15.85","15.85","0","0"
"Rajon Rondo","Rajon-Rondo-1085","4500","PG","0","234","19.5","112.50","23.19","20.00","35.62","19.42","19.42","0","0"
"Kevin Knox","Kevin-Knox-408820","5600","SF/PF","0","225.5","36.2","100.17","21.32","34.00","23.55","3.41","24.18","0","0"
"Terrance Ferguson","Terrance-Ferguson-37871","3100","SG/SF","37.18","221","18.0","102.62","10.47","24.00","20.92","8.22","13.24","0","0"
"Nene Hilario","Nene-Hilario-17321","3300","C","49.01","221","15.0","101.42","12.28","14.00","23.42","12.43","14","0","0"
"Emmanuel Mudiay","Emmanuel-Mudiay-18936","6900","PG","41.73","225.5","33.0","100.17","29.39","31.00","38.2","16.19","29.27","0","0"
"Nik Stauskas","Nik-Stauskas-18636","3200","SG/SF","34.90","213.5","14.0","104.50","19.02","19.00","22.31","10.73","13.2","0","0"
"D.J. Wilson","D.J.-Wilson-37822","3700","PF/C","0","225.5","21.5","98.80","12.03","17.00","28.9","14.95","14.95","0","0"
"Zach Collins","Zach-Collins-37866","3100","PF/C","0","213.5","0","104.50","0","16.00","19.39","9.75","12.51","0","0"
"Nerlens Noel","Nerlens-Noel-18575","3200","C","0","221","13.1","102.62","12.58","13.00","21.6","10.91","12.84","0","0"
"Dante Exum","Dante-Exum-18626","3200","PG/SG","41.20","213.5","0","98.88","0","15.00","22.32","10.52","12.81","0","0"
"Kentavious Caldwell-Pope","Kentavious-Caldwell-Pope-16869","3500","SG/SF","41.29","234","23.5","112.50","15.77","18.00","25.87","11.94","13.69","0","0"
"Jaylen Brown","Jaylen-Brown-35181","4800","SG/SF","0","222","0","101.75","0","21.00","35.17","15.43","18.57","0","0"
"T.J. McConnell","T.J.-McConnell-18956","3600","PG/SG","0","222","25.7","108.33","16.34","19.00","22.09","11.57","13.73","0","0"
"Meyers Leonard","Meyers-Leonard-13905","3200","PF/C","0","213.5","15.6","104.50","15.23","12.00","20.8","9.85","12.12","0","0"
"Frank Ntilikina","Frank-Ntilikina-37796","3300","PG/SG","41.73","225.5","0","100.17","0","15.00","18.29","10.44","12.05","0","0"
"Daniel Theis","Daniel-Theis-37784","4000","PF/C","0","222","0","101.75","0","15.00","24.91","13.19","14.61","0","0"
"Lance Thomas","Lance-Thomas-13363","3000","SF/PF","0","225.5","0","100.17","0","15.00","19.22","8.88","10.89","0","0"
"Seth Curry","Seth-Curry-16825","3000","PG/SG","34.90","213.5","0","104.50","0","16.00","19.65","10.66","10.66","0","0"
"Hamidou Diallo","Hamidou-Diallo-408800","3100","SG/SF","37.18","221","0","102.62","0","15.00","10.95","2.0","10.83","0","0"
"Thabo Sefolosha","Thabo-Sefolosha-1271","3100","SF/PF","39.10","213.5","0","98.88","0","12.00","16.1","9.09","10.76","0","0"
"Jordan Bell","Jordan-Bell-37877","3000","PF/C","0","234","0","103.10","0","11.00","17.23","8.52","10.13","0","0"
"Landry Shamet","Landry-Shamet-408841","3200","PG/SG","0","222","0","108.33","0","18.00","11.45","2.64","10.81","0","0"
"Patrick Patterson","Patrick-Patterson-1260","3000","PF/C","0","221","12.6","102.62","11.15","14.00","16.78","8.02","9.47","0","0"
"Furkan Korkmaz","Furkan-Korkmaz-35185","3700","SG/SF","0","222","0","108.33","0","18.00","21.76","11.46","11.46","0","0"
"Royce O'Neale","Royce-O'Neale-37872","3100","SF","39.10","213.5","0","98.88","0","12.00","14.59","7.16","9.61","0","0"
"Alfonzo McKinnie","Alfonzo-McKinnie-37808","3200","SF/PF","0","234","0","103.10","0","13.00","18.73","9.86","9.86","0","0"
"Tony Snell","Tony-Snell-16872","3800","SG/SF","0","225.5","0","98.80","0","18.00","19.62","9.88","11.49","0","0"
"Luke Kornet","Luke-Kornet-37800","3200","PF/C","0","225.5","0","100.17","0","11.00","14.32","6.83","9.04","0","0"
"Brandon Knight","Brandon-Knight-13336","3300","PG/SG","0","221","7.8","101.42","19.00","10.00","12.66","6.42","8.85","0","0"
"Thon Maker","Thon-Maker-35194","3100","PF/C","0","225.5","10.5","98.80","11.83","10.00","13.81","6.91","8.16","0","0"
"Austin Rivers","Austin-Rivers-13903","4200","PG/SG","35.81","221","26.0","101.42","13.73","15.00","13.82","9.57","10.63","0","0"
"Lance Stephenson","Lance-Stephenson-947","3400","SG/SF","45.36","234","0","112.50","0","7.00","11.24","5.21","6.53","0","0"
"Robert Williams","Robert-Williams-408780","3900","PF/C","0","222","0","101.75","0","8.00","7.31","1.3","7.2","0","0"
"Timothe Luwawu-Cabarrot","Timothe-Luwawu-Cabarrot-35183","3000","SG/SF","34.92","221","1.5","102.62","26.67","5.00","5.6","3.54","3.54","0","0"
"Semi Ojeleye","Semi-Ojeleye-37786","3100","SF/PF","0","222","0","101.75","0","5.00","6.44","3.34","3.34","0","0"
"Courtney Lee","Courtney-Lee-1025","3300","SG/SF","36.51","225.5","16.2","100.17","15.40","4.00","5.71","3.02","3.02","0","0"
