"nameCol","idCol","salaryCol","positionCol","dvpCol","ouCol","mpgCol","paceCol","usgCol","pminCol","ceilCol","floorCol","pointsCol","predictCol","actualCol"
"Maurice Harkless","Maurice-Harkless-16971","3300","SF/PF","36.72","227","24.0","104.50","13.87","25.00","33.38","13.97","20.85","0","0"
"Jusuf Nurkic","Jusuf-Nurkic-18619","6400","C","52.86","227","25.8","104.50","22.89","28.00","51.63","22.11","39.56","0","0"
"Meyers Leonard","Meyers-Leonard-13905","3200","PF/C","49.99","227","19.2","104.50","14.98","18.00","33.87","16.01","19.69","0","0"
"Wilson Chandler","Wilson-Chandler-1327","4000","SF/PF","29.99","219.5","30.2","108.33","13.29","30.00","35.05","16.66","23.43","0","0"
"Kevin Durant","Kevin-Durant-1348","9300","SF/PF","51.96","227","35.7","103.10","30.64","36.00","70.26","24.77","53.15","0","0"
"Draymond Green","Draymond-Green-13976","6100","PF/C","52.81","227","32.2","103.10","16.90","33.00","42.31","15.36","34.74","0","0"
"Donovan Mitchell","Donovan-Mitchell-37875","6700","PG/SG","53.63","219.5","33.8","98.88","30.74","35.00","49.77","20.49","38.02","0","0"
"Stephen Curry","Stephen-Curry-1079","8900","PG/SG","47.14","227","36.3","103.10","28.56","35.00","68.8","25.64","49.21","0","0"
"C.J. McCollum","C.J.-McCollum-17121","6000","PG/SG","45.34","227","31.3","104.50","25.65","33.00","43.88","18.6","32.75","0","0"
"Derrick Favors","Derrick-Favors-1266","4800","PF/C","53.35","219.5","22.2","98.88","22.55","25.00","33.84","16.34","26.19","0","0"
"Damian Lillard","Damian-Lillard-13900","8300","PG","50.76","227","34.0","104.50","28.45","35.00","56.89","21.83","44.83","0","0"
"Jimmy Butler","Jimmy-Butler-13327","7200","SG/SF","40.13","219.5","31.4","108.33","21.64","34.00","51.38","21.27","38.4","0","0"
"Ricky Rubio","Ricky-Rubio-1001","6300","PG","38.45","219.5","31.8","98.88","24.46","32.00","43.89","17.76","33.45","0","0"
"J.J. Redick","J.J.-Redick-1030","5100","SG/SF","34.90","219.5","28.8","108.33","23.35","30.00","36.19","16.79","26.95","0","0"
"Klay Thompson","Klay-Thompson-13315","6200","SG","38.55","227","34.3","103.10","20.56","34.00","41.81","18.58","32.31","0","0"
"Joel Embiid","Joel-Embiid-18578","10100","C","52.03","219.5","31.0","108.33","33.63","35.00","63.51","22.11","52.14","0","0"
"Rudy Gobert","Rudy-Gobert-16935","7500","C","50.84","219.5","31.8","98.88","18.72","32.00","51.4","16.08","38.65","0","0"
"Kevon Looney","Kevon-Looney-18945","3600","PF/C","50.91","227","22.2","103.10","11.72","20.00","26.24","11.66","18.34","0","0"
"Ben Simmons","Ben-Simmons-35184","8200","PG/SF","44.80","219.5","32.8","108.33","23.67","35.00","54.8","17.55","41.39","0","0"
"Jonas Jerebko","Jonas-Jerebko-1106","3700","PF/C","51.96","227","20.3","103.10","19.36","21.00","33.85","13.83","18.56","0","0"
"Evan Turner","Evan-Turner-1291","3900","SG/SF","45.34","227","22.5","104.50","20.68","23.00","29.24","16.08","19.35","0","0"
"Joe Ingles","Joe-Ingles-18627","5700","SG/SF","33.30","219.5","30.7","98.88","19.27","32.00","43.52","18.44","28.24","0","0"
"Al-Farouq Aminu","Al-Farouq-Aminu-1279","4500","SF/PF","36.72","227","28.2","104.50","12.92","29.00","34.18","16.67","22.25","0","0"
"Jae Crowder","Jae-Crowder-13942","4300","SF/PF","35.12","219.5","26.5","98.88","17.53","26.00","35.76","16.23","21.21","0","0"
"Kyle Korver","Kyle-Korver-1269","3300","SG/SF","33.30","219.5","19.0","98.88","17.22","20.00","28.31","12.77","16.16","0","0"
"T.J. McConnell","T.J.-McConnell-18956","3600","PG/SG","44.80","219.5","24.8","108.33","14.47","22.00","27.51","14.47","17.16","0","0"
"Zach Collins","Zach-Collins-37866","3100","PF/C","49.99","227","19.3","104.50","17.79","18.00","22.4","11.3","14.49","0","0"
"Mike Muscala","Mike-Muscala-17379","3800","PF/C","52.03","219.5","19.7","108.33","16.90","21.00","32.84","17.61","17.61","0","0"
"Andre Iguodala","Andre-Iguodala-1334","4100","SG/SF","38.55","227","21.2","103.10","14.61","23.00","28.26","10.93","18.59","0","0"
"Dante Exum","Dante-Exum-18626","3400","PG/SG","38.45","219.5","16.3","98.88","18.65","16.00","24.35","11.48","13.98","0","0"
"Shaun Livingston","Shaun-Livingston-14007","3100","PG","41.96","227","15.4","103.10","18.73","15.00","20.37","9.41","12.45","0","0"
"Seth Curry","Seth-Curry-16825","3100","PG/SG","40.70","227","16.5","104.50","14.53","16.00","21.94","12.01","12.01","0","0"
"Nik Stauskas","Nik-Stauskas-18636","3100","SG/SF","40.70","227","14.2","104.50","20.05","15.00","18.89","9.19","11.32","0","0"
"Landry Shamet","Landry-Shamet-408841","3200","PG/SG","34.90","219.5","18.0","108.33","14.31","18.00","11.06","2.02","10.94","0","0"
"Thabo Sefolosha","Thabo-Sefolosha-1271","3100","SF/PF","35.12","219.5","8.8","98.88","11.57","11.00","15.39","8.7","10.29","0","0"
"Jordan Bell","Jordan-Bell-37877","3000","PF/C","50.91","227","7.6","103.10","18.35","11.00","16.6","8.12","9.67","0","0"
"Royce O'Neale","Royce-O'Neale-37872","3100","SF","35.12","219.5","10.2","98.88","13.46","11.00","13.63","6.69","8.98","0","0"
"Furkan Korkmaz","Furkan-Korkmaz-35185","3500","SG/SF","34.90","219.5","18.5","108.33","16.85","15.00","17.62","9.2","9.2","0","0"
"Alfonzo McKinnie","Alfonzo-McKinnie-37808","3200","SF/PF","37.92","227","10.8","103.10","21.03","12.00","15.99","8.35","8.35","0","0"
