"nameCol","idCol","salaryCol","positionCol","dvpCol","ouCol","mpgCol","paceCol","usgCol","pminCol","ceilCol","floorCol","pointsCol","predictCol","actualCol"
"Nemanja Bjelica","Nemanja-Bjelica-31814","4400","SF/PF","54.75","232","25.7","98.20","16.89","30.00","49.27","19.54","29.7","0","0"
"Maurice Harkless","Maurice-Harkless-16971","3500","SF/PF","34.61","217","23.4","104.50","11.85","26.00","34.79","14.56","21.73","0","0"
"Luke Kennard","Luke-Kennard-37814","3500","SG/SF","38.31","225.5","20.6","100.30","18.11","25.00","32.64","15.02","21.49","0","0"
"Patrick Beverley","Patrick-Beverley-14108","3800","PG/SG","40.63","217","24.0","108.38","13.12","26.00","32.88","18.13","23.12","0","0"
"Jamal Crawford","Jamal-Crawford-1075","3500","PG/SG","48.51","222.5","22.6","108.80","24.57","26.00","35.89","20.82","20.82","0","0"
"Enes Kanter","Enes-Kanter-13299","6700","C","59.35","222.5","26.0","100.17","21.37","29.00","51.99","20.17","39.78","0","0"
"Eric Gordon","Eric-Gordon-1077","4500","SG/SF","41.35","211.5","31.7","101.42","16.79","34.00","37.95","17.36","26.23","0","0"
"Wendell Carter","Wendell-Carter-408878","4800","PF/C","52.93","212.5","21.8","104.50","16.36","28.00","26.38","3.13","27.95","0","0"
"Justin Jackson","Justin-Jackson-37895","3400","SF/PF","39.66","232","18.1","98.20","14.72","26.00","29.78","15.79","19.59","0","0"
"Jeff Teague","Jeff-Teague-1005","6100","PG","53.86","232","31.8","100.67","19.92","32.00","49.92","17.99","35.13","0","0"
"Avery Bradley","Avery-Bradley-941","3700","SG","37.94","217","31.0","108.38","14.45","30.00","31.03","13.06","21.31","0","0"
"Tim Hardaway Jr.","Tim-Hardaway-Jr.-16879","6600","SG/SF","47.93","222.5","33.0","100.17","23.10","35.00","58.49","26.21","37.98","0","0"
"Mike Muscala","Mike-Muscala-17379","3500","PF/C","48.97","","23.4","108.33","16.17","24.00","35.26","19.99","19.99","0","0"
"Wilson Chandler","Wilson-Chandler-1327","3700","SF/PF","36.32","","30.2","108.33","11.50","27.00","31.84","14.97","21.06","0","0"
"Patty Mills","Patty-Mills-13977","3700","PG/SG","38.75","","23.0","99.70","17.30","23.00","31.7","16.41","21.06","0","0"
"Garrett Temple","Garrett-Temple-14077","3500","SG/SF","40.63","210.5","27.9","103.30","13.16","32.00","31.89","14.11","19.71","0","0"
"Jerami Grant","Jerami-Grant-18576","4500","PF","48.83","212.5","29.6","102.62","14.61","27.00","40.67","17.42","25.29","0","0"
"Reggie Bullock","Reggie-Bullock-16943","3900","SG/SF","39.25","225.5","16.0","100.30","20.26","30.00","35.4","15.0","21.77","0","0"
"Dario Saric","Dario-Saric-36004","4900","PF","52.06","232","26.3","100.67","14.95","28.00","46.01","22.07","27.21","0","0"
"Khris Middleton","Khris-Middleton-13990","6200","SG/SF","43.28","225.5","30.0","98.80","26.12","33.00","54.16","23.36","34.3","0","0"
"Shelvin Mack","Shelvin-Mack-13354","3400","PG","41.42","210.5","23.1","103.30","16.25","23.00","29.05","14.05","18.78","0","0"
"Robert Covington","Robert-Covington-16874","5200","SF/PF","37.71","232","30.4","100.67","16.61","32.00","40.1","18.8","28.62","0","0"
"Lauri Markkanen","Lauri-Markkanen-37809","6500","PF","47.45","212.5","28.2","104.50","25.52","31.00","51.22","23.02","35.74","0","0"
"Mario Hezonja","Mario-Hezonja-18923","3200","SF/PF","35.18","222.5","14.6","100.17","16.93","17.00","32.97","15.55","17.53","0","0"
"Bobby Portis","Bobby-Portis-18909","5000","PF/C","52.93","212.5","19.3","104.50","25.64","25.00","50.6","23.19","27.38","0","0"
"Dennis Schroder","Dennis-Schroder-18595","5600","PG/SG","51.82","212.5","27.6","102.62","27.58","29.00","46.88","25.03","30.64","0","0"
"Chris Paul","Chris-Paul-1087","7700","PG","48.01","211.5","34.0","101.42","22.41","35.00","55.66","20.7","42.07","0","0"
"P.J. Tucker","P.J.-Tucker-13947","3700","SF/PF","29.25","211.5","33.0","101.42","9.81","36.00","39.45","17.02","20.19","0","0"
"Evan Turner","Evan-Turner-1291","4300","SG/SF","47.98","217","23.7","104.50","18.25","28.00","35.34","19.49","23.45","0","0"
"Blake Griffin","Blake-Griffin-1503","9000","PF/C","55.30","225.5","34.2","100.30","33.51","36.00","63.34","22.51","48.61","0","0"
"Kyle Anderson","Kyle-Anderson-18615","4300","PG/SF","34.78","210.5","25.7","103.30","14.98","29.00","31.63","11.68","23.12","0","0"
"Al-Farouq Aminu","Al-Farouq-Aminu-1279","4700","SF/PF","34.61","217","31.7","104.50","13.32","29.00","38.84","18.93","25.27","0","0"
"Buddy Hield","Buddy-Hield-35206","6200","SG/SF","39.66","232","30.1","98.20","25.51","32.00","50.32","22.43","33.28","0","0"
"Ricky Rubio","Ricky-Rubio-1001","6000","PG","39.11","211.5","27.7","98.88","26.44","32.00","42.88","17.16","32.19","0","0"
"Reggie Jackson","Reggie-Jackson-13352","5200","PG/SG","46.04","225.5","27.0","100.30","23.31","29.00","39.69","15.11","27.87","0","0"
"Ben Simmons","Ben-Simmons-35184","8900","PG/SF","45.16","","34.3","108.33","23.48","35.00","62.21","20.0","47.06","0","0"
"Jusuf Nurkic","Jusuf-Nurkic-18619","7500","C","57.43","217","27.8","104.50","24.68","28.00","52.19","22.22","39.6","0","0"
"Tobias Harris","Tobias-Harris-13332","7200","SF/PF","51.46","217","33.0","108.38","24.25","34.00","50.36","20.3","37.95","0","0"
"Gerald Green","Gerald-Green-13374","3500","SG/SF","41.35","211.5","17.7","101.42","15.84","22.00","31.86","14.99","18.46","0","0"
"Kosta Koufos","Kosta-Koufos-1386","3200","C","52.02","232","15.0","98.20","13.28","15.00","32.34","16.85","16.85","0","0"
"Andre Drummond","Andre-Drummond-13904","9300","C","48.73","225.5","31.3","100.30","25.23","34.00","59.63","21.95","48.88","0","0"
"Andrew Wiggins","Andrew-Wiggins-18620","6200","SG/SF","47.25","232","34.3","100.67","23.31","33.00","42.68","18.51","32.53","0","0"
"Damian Lillard","Damian-Lillard-13900","8800","PG","52.51","217","34.2","104.50","30.81","35.00","58.58","22.3","45.98","0","0"
"Rudy Gobert","Rudy-Gobert-16935","7400","C","52.80","211.5","23.5","98.88","16.88","33.00","54.01","19.15","38.69","0","0"
"DeMar DeRozan","DeMar-DeRozan-1053","8100","SG/SF","46.19","","32.9","99.70","30.16","35.00","58.07","20.3","42.2","0","0"
"Frank Mason","Frank-Mason-37898","3200","PG/SG","35.95","232","12.2","98.20","21.72","15.00","24.99","14.76","16.66","0","0"
"Mikal Bridges","Mikal-Bridges-408842","4100","SG/SF","39.13","222.5","31.7","108.80","14.62","28.00","29.89","16.01","21.35","0","0"
"Kris Dunn","Kris-Dunn-35215","6200","PG/SG","45.55","212.5","26.7","104.50","20.92","32.00","45.36","16.31","32.24","0","0"
"Davis Bertans","Davis-Bertans-36051","3500","PF/C","53.23","","18.8","99.70","11.71","20.00","31.6","14.55","18.19","0","0"
"Montrezl Harrell","Montrezl-Harrell-18930","5700","PF/C","54.11","217","23.6","108.38","20.19","26.00","44.85","23.19","29.66","0","0"
"Russell Westbrook","Russell-Westbrook-1083","11200","PG","51.82","212.5","35.3","102.62","32.44","35.00","65.07","19.65","58.15","0","0"
"Giannis Antetokounmpo","Giannis-Antetokounmpo-16852","11300","SF/PF","42.86","225.5","32.8","98.80","27.60","36.00","68.6","22.71","58.68","0","0"
"Donovan Mitchell","Donovan-Mitchell-37875","6800","PG/SG","48.03","211.5","28.5","98.88","28.79","34.00","46.08","19.46","35.26","0","0"
"Langston Galloway","Langston-Galloway-18717","3400","PG/SG","38.31","225.5","27.1","100.30","16.94","26.00","30.24","14.65","17.61","0","0"
"De'Aaron Fox","De'Aaron-Fox-37900","7300","PG","50.45","232","31.1","98.20","28.77","34.00","47.89","19.07","37.77","0","0"
"J.J. Redick","J.J.-Redick-1030","5400","SG/SF","33.62","","33.0","108.33","23.14","31.00","37.66","17.35","27.94","0","0"
"Richaun Holmes","Richaun-Holmes-18905","4000","PF/C","55.07","222.5","20.7","108.80","18.30","20.00","35.01","13.89","20.64","0","0"
"Steven Adams","Steven-Adams-16848","6900","C","55.91","212.5","31.7","102.62","23.46","32.00","48.07","23.57","35.5","0","0"
"Marc Gasol","Marc-Gasol-1493","7600","C","54.77","210.5","31.0","103.30","21.37","33.00","52.45","22.39","38.94","0","0"
"Danilo Gallinari","Danilo-Gallinari-1329","6600","SF/PF","51.46","217","31.0","108.38","22.62","32.00","46.65","18.67","33.51","0","0"
"Derrick White","Derrick-White-37858","3900","PG/SG","38.75","","20.6","99.70","17.17","26.00","31.91","16.47","19.77","0","0"
"Willie Cauley-Stein","Willie-Cauley-Stein-18951","6400","C","52.02","232","27.9","98.20","19.08","30.00","46.47","20.43","32.43","0","0"
"Kevon Looney","Kevon-Looney-18945","3800","PF/C","47.63","210.5","25.0","103.10","12.66","23.00","27.5","12.22","19.22","0","0"
"Shai Gilgeous-Alexander","Shai-Gilgeous-Alexander-408990","4600","PG/SG","47.65","217","24.7","108.38","17.29","28.00","26.34","7.11","23.23","0","0"
"Jimmy Butler","Jimmy-Butler-13327","7400","SG/SF","48.83","","27.5","108.33","29.77","33.00","50.49","20.57","37.4","0","0"
"Nerlens Noel","Nerlens-Noel-18575","3300","C","55.91","212.5","14.9","102.62","16.65","15.00","28.82","14.18","16.66","0","0"
"Draymond Green","Draymond-Green-13976","6700","PF/C","54.26","210.5","28.0","103.10","16.63","32.00","41.14","14.93","33.78","0","0"
"Clint Capela","Clint-Capela-18610","7800","C","52.98","211.5","31.3","101.42","20.57","34.00","58.99","23.16","39.25","0","0"
"JaMychal Green","JaMychal-Green-18729","4600","SF/PF","54.77","210.5","24.1","103.30","19.17","24.00","38.67","20.24","23.1","0","0"
"Andre Iguodala","Andre-Iguodala-1334","3500","SG/SF","36.71","210.5","23.0","103.10","11.77","22.00","26.71","10.33","17.57","0","0"
"Joel Embiid","Joel-Embiid-18578","10600","C","48.97","","33.6","108.33","32.74","35.00","64.85","22.83","52.98","0","0"
"Karl-Anthony Towns","Karl-Anthony-Towns-18937","10000","C","57.10","232","33.8","100.67","29.84","36.00","67.73","28.36","50.02","0","0"
"Klay Thompson","Klay-Thompson-13315","6400","SG","36.71","210.5","34.0","103.10","27.38","34.00","41.02","18.23","31.7","0","0"
"Ryan Arcidiacono","Ryan-Arcidiacono-36050","4200","PG","36.18","212.5","27.8","104.50","8.95","30.00","32.4","13.22","20.65","0","0"
"Malcolm Brogdon","Malcolm-Brogdon-35195","5800","PG/SG","52.80","225.5","27.0","98.80","22.86","31.00","40.94","20.13","28.47","0","0"
"Derrick Rose","Derrick-Rose-1086","6300","PG/SG","53.86","232","29.2","100.67","26.05","28.00","48.98","27.41","30.9","0","0"
"LaMarcus Aldridge","LaMarcus-Aldridge-1349","8000","PF/C","53.23","","27.1","99.70","27.27","32.00","56.69","24.92","39.18","0","0"
"TJ Warren","TJ-Warren-18634","6700","SF/PF","48.51","222.5","25.8","108.80","26.90","33.00","42.45","18.9","32.65","0","0"
"Bogdan Bogdanovic","Bogdan-Bogdanovic-37899","5800","SG/SF","46.44","232","29.3","98.20","22.79","31.00","44.68","24.68","28.24","0","0"
"Kevin Durant","Kevin-Durant-1348","9700","SF/PF","40.10","210.5","34.5","103.10","29.92","34.00","62.31","21.96","47.13","0","0"
"Noah Vonleh","Noah-Vonleh-18597","5500","PF/C","50.96","222.5","30.0","100.17","14.91","28.00","37.67","17.37","26.64","0","0"
"Nik Stauskas","Nik-Stauskas-18636","3100","SG/SF","33.90","217","16.0","104.50","20.15","20.00","25.25","12.15","14.94","0","0"
"Rudy Gay","Rudy-Gay-1341","6100","SF/PF","50.66","","27.0","99.70","21.70","27.00","37.61","14.69","29.43","0","0"
"Pat Connaughton","Pat-Connaughton-18939","3700","SG/SF","38.25","225.5","18.8","98.80","13.49","22.00","32.19","14.32","17.61","0","0"
"Brook Lopez","Brook-Lopez-1498","5100","C","55.42","225.5","29.8","98.80","18.76","28.00","35.43","16.1","24.25","0","0"
"Mike Conley","Mike-Conley-1062","7900","PG","41.42","210.5","33.4","103.30","24.03","34.00","55.44","21.91","37.51","0","0"
"Eric Bledsoe","Eric-Bledsoe-1031","7600","PG/SG","46.17","225.5","29.8","98.80","27.08","32.00","52.47","22.61","35.94","0","0"
"Paul George","Paul-George-1245","9500","SF/PF","48.83","212.5","35.0","102.62","29.01","35.00","62.11","27.34","44.46","0","0"
"Marcin Gortat","Marcin-Gortat-1479","3500","C","49.81","217","19.2","108.38","15.75","19.00","23.41","9.76","16.35","0","0"
"Josh Jackson","Josh-Jackson-37890","5300","SF/PF","48.51","222.5","27.9","108.80","26.95","23.00","35.06","15.86","24.74","0","0"
"Jaren Jackson","Jaren-Jackson-409099","5900","PF/C","54.77","210.5","23.3","103.30","18.03","28.00","32.2","10.12","27.5","0","0"
"Derrick Favors","Derrick-Favors-1266","5400","PF/C","54.42","211.5","23.7","98.88","21.94","24.00","33.01","15.37","24.99","0","0"
"Stephen Curry","Stephen-Curry-1079","9900","PG/SG","43.59","210.5","33.3","103.10","30.59","34.00","64.13","23.9","45.87","0","0"
"Jonas Jerebko","Jonas-Jerebko-1106","3600","SF/PF","40.10","210.5","24.2","103.10","14.31","18.00","30.28","12.37","16.6","0","0"
"George Hill","George-Hill-993","3400","PG/SG","52.80","225.5","23.4","98.80","11.72","17.00","26.98","13.41","15.63","0","0"
"James Harden","James-Harden-1037","10900","PG/SG","48.01","211.5","34.5","101.42","36.42","36.00","57.95","18.36","50.17","0","0"
"Marco Belinelli","Marco-Belinelli-1033","3800","SG/SF","33.83","","21.9","99.70","16.77","21.00","25.59","13.35","17.47","0","0"
"Terrance Ferguson","Terrance-Ferguson-37871","3200","SG/SF","34.79","212.5","21.4","102.62","7.19","23.00","23.18","9.7","14.69","0","0"
"Royce O'Neale","Royce-O'Neale-37872","3500","SF","33.65","211.5","18.3","98.88","14.72","20.00","23.69","11.91","16.03","0","0"
"Justin Holiday","Justin-Holiday-14559","5800","SG/SF","39.41","212.5","34.8","104.50","15.49","34.00","37.89","17.7","26.46","0","0"
"Alex Abrines","Alex-Abrines-36054","3000","SG/SF","34.79","212.5","17.0","102.62","10.26","19.00","26.16","13.62","13.62","0","0"
"Damyean Dotson","Damyean-Dotson-37795","3900","SG/SF","35.23","222.5","24.6","100.17","19.50","20.00","29.78","14.82","17.56","0","0"
"Yogi Ferrell","Yogi-Ferrell-35999","3100","PG/SG","50.45","232","9.5","98.20","25.69","17.00","23.11","11.66","13.75","0","0"
"Bryn Forbes","Bryn-Forbes-36052","3900","PG/SG","52.09","","23.6","99.70","18.86","23.00","24.92","10.49","17.26","0","0"
"Devin Booker","Devin-Booker-18949","8500","PG/SG","51.01","222.5","35.0","108.80","26.23","35.00","54.4","22.33","37.34","0","0"
"Gorgui Dieng","Gorgui-Dieng-16939","3200","PF/C","52.91","232","12.8","100.67","16.77","13.00","21.34","10.2","13.9","0","0"
"Tyus Jones","Tyus-Jones-18938","3100","PG","43.19","232","14.8","100.67","11.86","16.00","24.52","12.91","13.42","0","0"
"Joe Ingles","Joe-Ingles-18627","5900","SG/SF","37.96","211.5","26.8","98.88","18.04","30.00","38.43","16.97","25.4","0","0"
"Chandler Hutchison","Chandler-Hutchison-408877","3000","SF/PF","38.39","212.5","10.0","104.50","13.13","17.00","13.72","3.37","12.92","0","0"
"C.J. McCollum","C.J.-McCollum-17121","7100","PG/SG","47.98","217","35.6","104.50","26.61","35.00","41.0","17.24","30.46","0","0"
"Jawun Evans","Jawun-Evans-37882","3300","PG/SG","51.01","222.5","14.0","108.80","15.53","17.00","25.63","13.98","13.98","0","0"
"Danuel House","Danuel-House-36029","3600","SF/PF","48.01","211.5","18.2","101.42","13.48","20.00","24.95","11.43","15.12","0","0"
"Emmanuel Mudiay","Emmanuel-Mudiay-18936","6200","PG","43.99","222.5","30.7","100.17","26.72","27.00","33.83","14.33","25.92","0","0"
"Kevin Knox","Kevin-Knox-408820","5700","SF/PF","47.93","222.5","31.6","100.17","21.94","33.00","26.3","9.69","23.82","0","0"
"Jordan Bell","Jordan-Bell-37877","3000","PF/C","47.63","210.5","14.2","103.10","14.67","14.00","21.48","10.51","12.51","0","0"
"Taj Gibson","Taj-Gibson-1277","4200","PF/C","52.91","232","22.0","100.67","19.08","20.00","23.83","9.71","17.47","0","0"
"Robin Lopez","Robin-Lopez-1466","3100","C","49.30","212.5","18.2","104.50","19.71","13.00","25.67","12.84","12.84","0","0"
"Thabo Sefolosha","Thabo-Sefolosha-1271","3100","SF/PF","33.65","211.5","14.8","98.88","11.72","15.00","19.32","10.82","12.82","0","0"
"Dante Cunningham","Dante-Cunningham-1259","3500","SF/PF","50.66","","20.8","99.70","9.27","18.00","27.15","11.57","14.48","0","0"
"Frank Ntilikina","Frank-Ntilikina-37796","3600","PG/SG","43.99","222.5","18.0","100.17","24.86","19.00","22.6","12.88","14.87","0","0"
"Tony Snell","Tony-Snell-16872","3100","SG/SF","33.69","225.5","19.8","98.80","14.47","19.00","21.63","10.9","12.76","0","0"
"Zaza Pachulia","Zaza-Pachulia-1455","3200","C","48.73","225.5","13.5","100.30","19.64","13.00","22.29","11.53","13.16","0","0"
"Milos Teodosic","Milos-Teodosic-37883","3000","PG","40.63","217","13.0","108.38","27.92","14.00","24.49","12.25","12.25","0","0"
"Stanley Johnson","Stanley-Johnson-18913","3600","SF/PF","39.25","225.5","17.5","100.30","25.90","18.00","24.31","11.1","14.66","0","0"
"De'Anthony Melton","De'Anthony-Melton-409081","5200","PG","51.01","222.5","26.0","108.80","23.63","22.00","29.53","14.3","21.09","0","0"
"Trey Burke","Trey-Burke-17029","4500","PG/SG","52.49","222.5","12.0","100.17","26.63","18.00","30.94","15.89","18.24","0","0"
"Jae Crowder","Jae-Crowder-13942","4400","SF/PF","33.65","211.5","21.2","98.88","16.71","22.00","29.99","13.55","17.66","0","0"
"Zach Collins","Zach-Collins-37866","3300","PF/C","55.00","217","18.2","104.50","12.22","16.00","20.37","10.24","13.14","0","0"
"Mike Scott","Mike-Scott-13999","3200","SF/PF","51.46","217","15.4","108.38","16.16","15.00","25.23","14.93","12.62","0","0"
"Thon Maker","Thon-Maker-35194","3100","PF/C","51.11","225.5","12.7","98.80","16.52","14.00","20.59","9.91","12.15","0","0"
"Kyle Korver","Kyle-Korver-1269","3100","SG/SF","37.96","211.5","15.7","98.88","21.31","16.00","21.34","9.62","12.13","0","0"
"Deandre Ayton","Deandre-Ayton-409301","7000","C","59.87","222.5","26.3","108.80","22.25","30.00","40.97","19.12","27.31","0","0"
"Shaun Livingston","Shaun-Livingston-14007","3000","PG","42.74","210.5","16.6","103.10","11.60","15.00","18.94","8.75","11.58","0","0"
"Nene Hilario","Nene-Hilario-17321","3200","C","52.98","211.5","14.3","101.42","14.97","13.00","20.37","10.84","12.21","0","0"
"Jakob Poeltl","Jakob-Poeltl-35187","3800","C","52.07","","18.7","99.70","15.76","15.00","28.81","12.8","14.41","0","0"
"T.J. McConnell","T.J.-McConnell-18956","3800","PG/SG","45.16","","25.3","108.33","18.10","19.00","22.86","11.98","14.21","0","0"
"Dante Exum","Dante-Exum-18626","3200","PG/SG","39.11","211.5","13.2","98.88","24.07","14.00","20.07","9.13","11.57","0","0"
"Joakim Noah","Joakim-Noah-1404","3100","C","49.82","210.5","13.7","103.30","20.89","14.00","17.86","9.65","10.66","0","0"
"Bruce Brown","Bruce-Brown-408913","3400","PG/SG","46.04","225.5","23.4","100.30","12.07","16.00","11.79","2.31","11.56","0","0"
"Patrick Patterson","Patrick-Patterson-1260","3100","PF/C","64.99","212.5","12.7","102.62","9.28","14.00","18.21","8.84","10.46","0","0"
"Luke Kornet","Luke-Kornet-37800","3300","PF/C","35.23","222.5","10.5","100.17","15.44","14.00","17.38","7.95","10.93","0","0"
"Meyers Leonard","Meyers-Leonard-13905","3200","PF/C","55.00","217","10.0","104.50","11.39","10.00","18.1","8.58","10.55","0","0"
"MarShon Brooks","MarShon-Brooks-188837","3300","SG/SF","49.91","210.5","13.0","103.30","19.80","13.00","16.23","7.4","10.53","0","0"
"Shaquille Harrison","Shaquille-Harrison-36065","3200","PG","36.18","212.5","14.8","104.50","15.97","12.00","16.08","8.25","10.13","0","0"
"Alfonzo McKinnie","Alfonzo-McKinnie-37808","3200","SF/PF","37.76","210.5","17.0","103.10","16.61","14.00","19.34","10.1","10.1","0","0"
"Boban Marjanovic","Boban-Marjanovic-31807","3700","C","49.81","217","13.0","108.38","26.95","10.00","22.1","11.51","11.51","0","0"
"Furkan Korkmaz","Furkan-Korkmaz-35185","3900","SG/SF","50.87","","19.8","108.33","19.49","19.00","22.58","11.89","11.89","0","0"
"Seth Curry","Seth-Curry-16825","3000","PG/SG","33.90","217","15.2","104.50","17.70","13.00","16.79","9.11","9.11","0","0"
"Omri Casspi","Omri-Casspi-1270","3100","SF/PF","34.78","210.5","11.0","103.30","17.00","10.00","16.16","7.76","9.24","0","0"
"Landry Shamet","Landry-Shamet-408841","3300","PG/SG","50.87","","18.7","108.33","15.14","17.00","10.38","2.39","9.8","0","0"
"Hamidou Diallo","Hamidou-Diallo-408800","3100","SG/SF","34.79","212.5","7.0","102.62","23.98","11.00","8.93","1.59","8.8","0","0"
"Jose Calderon","Jose-Calderon-1071","3200","PG","42.40","225.5","17.1","100.30","17.11","13.00","15.65","7.49","8.91","0","0"
"Ben McLemore","Ben-McLemore-16822","3000","SG/SF","39.66","232","5.5","98.20","21.82","10.00","13.13","5.54","8.25","0","0"
"Brandon Knight","Brandon-Knight-13336","3000","PG/SG","48.01","211.5","3.0","101.42","15.53","10.00","11.49","5.98","8.23","0","0"
"Cameron Payne","Cameron-Payne-18941","3100","PG/SG","36.18","212.5","14.0","104.50","21.49","10.00","13.89","7.17","8.24","0","0"
"Jason Smith","Jason-Smith-1467","3000","PF/C","55.42","225.5","5.0","98.80","30.16","8.00","12.98","7.93","7.93","0","0"
"Antonio Blakeney","Antonio-Blakeney-37811","3000","PG/SG","39.41","212.5","18.0","104.50","24.91","8.00","12.37","5.98","7.41","0","0"
"Troy Daniels","Troy-Daniels-17383","3400","SG","35.68","222.5","21.8","108.80","17.22","6.00","9.43","4.65","5.47","0","0"
"Sindarius Thornwell","Sindarius-Thornwell-37881","3000","SG/SF","39.26","217","7.5","108.38","18.65","6.00","7.78","4.22","4.22","0","0"
"Josh Okogie","Josh-Okogie-409174","3100","SG/SF","47.25","232","7.4","100.67","14.64","3.00","2.37","0.45","2.3","0","0"
