"nameCol","idCol","salaryCol","positionCol","dvpCol","ouCol","mpgCol","paceCol","usgCol","pminCol","ceilCol","floorCol","pointsCol","predictCol","actualCol"
"Jonathon Simmons","Jonathon-Simmons-31808","3200","SG/SF","47.11","214","19.0","105.10","20.75","26.00","39.03","17.82","21.78","0","0"
"Andre Iguodala","Andre-Iguodala-1334","3600","SG/SF","32.94","214","26.9","103.10","10.91","27.00","38.31","12.99","22.75","0","0"
"D.J. Augustin","D.J.-Augustin-1064","3800","PG","42.70","214","27.9","105.10","16.07","28.00","44.26","12.4","23.1","0","0"
"Evan Fournier","Evan-Fournier-13913","5300","SG/SF","40.70","214","30.0","105.10","22.87","30.00","48.04","17.0","31.71","0","0"
"Nikola Vucevic","Nikola-Vucevic-13296","7800","C","53.85","214","32.6","105.10","27.99","33.00","71.28","22.92","46.5","0","0"
"Terrence Ross","Terrence-Ross-13902","4000","SG/SF","40.70","214","23.3","105.10","21.58","26.00","42.43","19.87","23.3","0","0"
"Jae Crowder","Jae-Crowder-13942","4200","SF/PF","34.94","206","27.2","98.88","18.29","28.00","46.96","18.1","23.6","0","0"
"Kevin Durant","Kevin-Durant-1348","10900","SF/PF","50.18","214","36.0","103.10","36.57","37.50","94.48","28.31","60.76","0","0"
"Thaddeus Young","Thaddeus-Young-1289","4100","SF/PF","49.48","206","27.4","107.67","18.45","27.00","38.48","12.01","22.74","0","0"
"Rudy Gobert","Rudy-Gobert-16935","7100","C","49.11","206","29.4","98.88","16.49","33.00","61.79","17.43","39.43","0","0"
"Damion Lee","Damion-Lee-35995","3000","SG","47.36","214","20.0","103.10","14.52","17.00","30.62","13.56","16.2","0","0"
"Jonas Jerebko","Jonas-Jerebko-1106","4000","SF/PF","50.18","214","21.0","103.10","12.68","22.00","43.16","16.08","21.59","0","0"
"Shaun Livingston","Shaun-Livingston-14007","3000","PG","38.57","214","16.8","103.10","16.39","18.00","30.93","12.15","16.07","0","0"
"Jerian Grant","Jerian-Grant-18900","3100","PG","42.70","214","16.0","105.10","13.54","19.00","32.2","14.57","16.58","0","0"
"Joe Ingles","Joe-Ingles-18627","6000","SG/SF","36.75","206","31.5","98.88","17.94","34.00","57.85","20.9","31.96","0","0"
"Alec Burks","Alec-Burks-13353","4000","SG","44.52","206","16.4","98.88","25.14","23.00","41.04","21.07","21.07","0","0"
"Klay Thompson","Klay-Thompson-13315","7300","SG","32.94","214","35.5","103.10","30.72","36.00","58.09","21.95","38.17","0","0"
"Royce O'Neale","Royce-O'Neale-37872","3500","SF","34.94","206","14.6","98.88","11.58","22.00","32.8","13.53","18.21","0","0"
"Jonathan Isaac","Jonathan-Isaac-37841","3500","PF","53.85","214","20.2","105.10","17.42","23.00","34.98","16.25","18.16","0","0"
"Derrick Favors","Derrick-Favors-1266","4800","PF/C","51.37","206","23.5","98.88","15.79","23.00","37.23","15.29","24.51","0","0"
"Aaron Gordon","Aaron-Gordon-18601","7100","SF/PF","47.14","214","31.6","105.10","22.36","33.00","54.09","19.62","35.61","0","0"
"Tyreke Evans","Tyreke-Evans-1070","5100","SG/SF","48.25","206","23.2","107.67","24.95","23.00","40.5","14.81","25.41","0","0"
"Damian Jones","Damian-Jones-35223","3500","C","53.80","214","17.9","103.10","9.61","20.00","33.2","12.01","17.08","0","0"
"Myles Turner","Myles-Turner-18915","5100","C","57.60","206","26.8","107.67","22.69","28.00","47.74","18.55","24.8","0","0"
"Bojan Bogdanovic","Bojan-Bogdanovic-18571","4700","SG/SF","32.27","206","31.2","107.67","20.01","32.00","42.07","18.17","22.85","0","0"
"Darren Collison","Darren-Collison-1060","4600","PG","47.96","206","25.2","107.67","18.21","26.00","35.72","13.43","22.13","0","0"
"Ricky Rubio","Ricky-Rubio-1001","6500","PG","43.24","206","26.8","98.88","26.79","30.00","47.52","16.28","30.72","0","0"
"Kevon Looney","Kevon-Looney-18945","3800","PF/C","53.80","214","20.4","103.10","13.44","17.00","33.43","14.16","17.68","0","0"
"Quinn Cook","Quinn-Cook-31771","5100","PG","47.36","214","27.2","103.10","20.14","29.00","39.49","14.65","23.56","0","0"
"Aaron Holiday","Aaron-Holiday-408932","3600","PG","47.96","206","19.8","107.67","27.24","22.00","19.58","3.05","16.47","0","0"
"Dante Exum","Dante-Exum-18626","3400","PG/SG","43.24","206","18.5","98.88","17.86","18.00","30.88","12.65","15.45","0","0"
"Cory Joseph","Cory-Joseph-13339","4500","PG","47.96","206","27.8","107.67","19.35","30.00","40.6","15.37","20.31","0","0"
"Domantas Sabonis","Domantas-Sabonis-35217","6800","PF/C","50.76","206","26.0","107.67","22.49","26.00","51.99","22.39","29.54","0","0"
"Jordan Bell","Jordan-Bell-37877","3400","PF","53.80","214","8.4","103.10","14.21","14.00","28.37","11.92","14.19","0","0"
"Mohamed Bamba","Mohamed-Bamba-409026","3300","C","47.99","214","12.6","105.10","18.67","14.00","16.37","3.21","13.14","0","0"
"Doug McDermott","Doug-McDermott-18583","3200","SF/PF","32.27","206","20.6","107.67","12.58","20.00","23.81","11.91","11.91","0","0"
"Thabo Sefolosha","Thabo-Sefolosha-1271","3100","SF/PF","34.94","206","10.8","98.88","10.68","11.00","17.14","8.31","9.85","0","0"
"Raul Neto","Raul-Neto-31821","3000","PG","43.24","206","9.3","98.88","22.96","10.00","17.59","8.12","8.8","0","0"
"Grayson Allen","Grayson-Allen-409227","3200","SG","36.75","206","8.2","98.88","31.51","8.00","8.15","1.46","6.38","0","0"
"Wesley Iwundu","Wesley-Iwundu-37839","3000","SG","33.91","214","16.9","105.10","10.59","8.00","10.19","3.57","5.39","0","0"
"TJ Leaf","TJ-Leaf-37817","3100","PF","57.60","206","5.8","107.67","21.44","6.00","9.02","4.51","4.51","0","0"
"Jacob Evans","Jacob-Evans-409245","3000","SG","41.43","214","4.5","103.10","11.84","3.00","3.04","0.46","2.55","0","0"
