"nameCol","idCol","salaryCol","positionCol","dvpCol","ouCol","mpgCol","paceCol","usgCol","pminCol","ceilCol","floorCol","pointsCol","predictCol","actualCol"
"Nemanja Bjelica","Nemanja-Bjelica-31814","4400","SF/PF","54.75","232","25.7","98.20","16.89","35.00","57.52","22.81","34.67","0","0"
"Buddy Hield","Buddy-Hield-35206","6200","SG/SF","39.66","232","30.1","98.20","25.51","35.00","55.05","24.54","36.41","0","0"
"Eric Gordon","Eric-Gordon-1077","4500","SG/SF","41.35","211.5","31.7","101.42","16.79","34.00","37.95","17.36","26.23","0","0"
"Wendell Carter","Wendell-Carter-408878","4800","PF/C","52.93","212.5","21.8","104.50","16.36","28.00","26.38","3.13","27.95","0","0"
"Jeff Teague","Jeff-Teague-1005","6100","PG","53.86","232","31.8","100.67","19.92","32.00","49.92","17.99","35.13","0","0"
"Kosta Koufos","Kosta-Koufos-1386","3200","C","52.02","232","15.0","98.20","13.28","16.00","34.52","17.99","17.99","0","0"
"Jerami Grant","Jerami-Grant-18576","4500","PF","48.83","212.5","29.6","102.62","14.61","27.00","40.67","17.42","25.29","0","0"
"Dario Saric","Dario-Saric-36004","4900","PF","52.06","232","26.3","100.67","14.95","28.00","46.01","22.07","27.21","0","0"
"Bogdan Bogdanovic","Bogdan-Bogdanovic-37899","5800","SG/SF","46.44","232","29.3","98.20","22.79","35.00","50.48","27.89","31.91","0","0"
"Lauri Markkanen","Lauri-Markkanen-37809","6500","PF","47.45","212.5","28.2","104.50","25.52","31.00","51.22","23.02","35.74","0","0"
"Robert Covington","Robert-Covington-16874","5200","SF/PF","37.71","232","30.4","100.67","16.61","32.00","40.1","18.8","28.62","0","0"
"Bobby Portis","Bobby-Portis-18909","5000","PF/C","52.93","212.5","19.3","104.50","25.64","25.00","50.6","23.19","27.38","0","0"
"Dennis Schroder","Dennis-Schroder-18595","5600","PG/SG","51.82","212.5","27.6","102.62","27.58","29.00","46.88","25.03","30.64","0","0"
"P.J. Tucker","P.J.-Tucker-13947","3700","SF/PF","29.25","211.5","33.0","101.42","9.81","36.00","39.45","17.02","20.19","0","0"
"Chris Paul","Chris-Paul-1087","7700","PG","48.01","211.5","34.0","101.42","22.41","35.00","55.66","20.7","42.07","0","0"
"Willie Cauley-Stein","Willie-Cauley-Stein-18951","6400","C","52.02","232","27.9","98.20","19.08","32.00","49.61","21.81","34.62","0","0"
"Ricky Rubio","Ricky-Rubio-1001","6000","PG","39.11","211.5","27.7","98.88","26.44","32.00","42.88","17.16","32.19","0","0"
"Justin Jackson","Justin-Jackson-37895","3400","SF/PF","39.66","232","18.1","98.20","14.72","24.00","27.54","14.6","18.12","0","0"
"Gerald Green","Gerald-Green-13374","3500","SG/SF","41.35","211.5","17.7","101.42","15.84","22.00","31.86","14.99","18.46","0","0"
"Andrew Wiggins","Andrew-Wiggins-18620","6200","SG/SF","47.25","232","34.3","100.67","23.31","33.00","42.68","18.51","32.53","0","0"
"Rudy Gobert","Rudy-Gobert-16935","7400","C","52.80","211.5","23.5","98.88","16.88","33.00","54.01","19.15","38.69","0","0"
"Kris Dunn","Kris-Dunn-35215","6200","PG/SG","45.55","212.5","26.7","104.50","20.92","32.00","45.36","16.31","32.24","0","0"
"Donovan Mitchell","Donovan-Mitchell-37875","6800","PG/SG","48.03","211.5","28.5","98.88","28.79","34.00","46.08","19.46","35.26","0","0"
"Russell Westbrook","Russell-Westbrook-1083","11200","PG","51.82","212.5","35.3","102.62","32.44","35.00","65.07","19.65","58.15","0","0"
"Steven Adams","Steven-Adams-16848","6900","C","55.91","212.5","31.7","102.62","23.46","32.00","48.07","23.57","35.5","0","0"
"Nerlens Noel","Nerlens-Noel-18575","3300","C","55.91","212.5","14.9","102.62","16.65","15.00","28.82","14.18","16.66","0","0"
"Clint Capela","Clint-Capela-18610","7800","C","52.98","211.5","31.3","101.42","20.57","34.00","58.99","23.16","39.25","0","0"
"De'Aaron Fox","De'Aaron-Fox-37900","7300","PG","50.45","232","31.1","98.20","28.77","33.00","46.52","18.53","36.69","0","0"
"Karl-Anthony Towns","Karl-Anthony-Towns-18937","10000","C","57.10","232","33.8","100.67","29.84","36.00","67.73","28.36","50.02","0","0"
"Ryan Arcidiacono","Ryan-Arcidiacono-36050","4200","PG","36.18","212.5","27.8","104.50","8.95","30.00","32.4","13.22","20.65","0","0"
"Derrick Rose","Derrick-Rose-1086","6300","PG/SG","53.86","232","29.2","100.67","26.05","28.00","48.98","27.41","30.9","0","0"
"Paul George","Paul-George-1245","9500","SF/PF","48.83","212.5","35.0","102.62","29.01","35.00","62.11","27.34","44.46","0","0"
"Derrick Favors","Derrick-Favors-1266","5400","PF/C","54.42","211.5","23.7","98.88","21.94","24.00","33.01","15.37","24.99","0","0"
"James Harden","James-Harden-1037","10900","PG/SG","48.01","211.5","34.5","101.42","36.42","36.00","57.95","18.36","50.17","0","0"
"Terrance Ferguson","Terrance-Ferguson-37871","3200","SG/SF","34.79","212.5","21.4","102.62","7.19","23.00","23.18","9.7","14.69","0","0"
"Royce O'Neale","Royce-O'Neale-37872","3500","SF","33.65","211.5","18.3","98.88","14.72","20.00","23.69","11.91","16.03","0","0"
"Justin Holiday","Justin-Holiday-14559","5800","SG/SF","39.41","212.5","34.8","104.50","15.49","34.00","37.89","17.7","26.46","0","0"
"Alex Abrines","Alex-Abrines-36054","3000","SG/SF","34.79","212.5","17.0","102.62","10.26","19.00","26.16","13.62","13.62","0","0"
"Troy Williams","Troy-Williams-36043","3000","SF/PF","39.66","232","11.8","98.20","13.33","14.00","20.76","10.61","13.05","0","0"
"Gorgui Dieng","Gorgui-Dieng-16939","3200","PF/C","52.91","232","12.8","100.67","16.77","13.00","21.34","10.2","13.9","0","0"
"Tyus Jones","Tyus-Jones-18938","3100","PG","43.19","232","14.8","100.67","11.86","16.00","24.52","12.91","13.42","0","0"
"Joe Ingles","Joe-Ingles-18627","5900","SG/SF","37.96","211.5","26.8","98.88","18.04","30.00","38.43","16.97","25.4","0","0"
"Chandler Hutchison","Chandler-Hutchison-408877","3000","SF/PF","38.39","212.5","10.0","104.50","13.13","17.00","13.72","3.37","12.92","0","0"
"Danuel House","Danuel-House-36029","3600","SF/PF","48.01","211.5","18.2","101.42","13.48","20.00","24.95","11.43","15.12","0","0"
"Yogi Ferrell","Yogi-Ferrell-35999","3100","PG/SG","50.45","232","9.5","98.20","25.69","16.00","21.77","10.98","12.95","0","0"
"Taj Gibson","Taj-Gibson-1277","4200","PF/C","52.91","232","22.0","100.67","19.08","20.00","23.83","9.71","17.47","0","0"
"Robin Lopez","Robin-Lopez-1466","3100","C","49.30","212.5","18.2","104.50","19.71","13.00","25.67","12.84","12.84","0","0"
"Thabo Sefolosha","Thabo-Sefolosha-1271","3100","SF/PF","33.65","211.5","14.8","98.88","11.72","15.00","19.32","10.82","12.82","0","0"
"Jae Crowder","Jae-Crowder-13942","4400","SF/PF","33.65","211.5","21.2","98.88","16.71","22.00","29.99","13.55","17.66","0","0"
"Kyle Korver","Kyle-Korver-1269","3100","SG/SF","37.96","211.5","15.7","98.88","21.31","16.00","21.34","9.62","12.13","0","0"
"Nene Hilario","Nene-Hilario-17321","3200","C","52.98","211.5","14.3","101.42","14.97","13.00","20.37","10.84","12.21","0","0"
"Dante Exum","Dante-Exum-18626","3200","PG/SG","39.11","211.5","13.2","98.88","24.07","14.00","20.07","9.13","11.57","0","0"
"Patrick Patterson","Patrick-Patterson-1260","3100","PF/C","64.99","212.5","12.7","102.62","9.28","14.00","18.21","8.84","10.46","0","0"
"Shaquille Harrison","Shaquille-Harrison-36065","3200","PG","36.18","212.5","14.8","104.50","15.97","12.00","16.08","8.25","10.13","0","0"
"Hamidou Diallo","Hamidou-Diallo-408800","3100","SG/SF","34.79","212.5","7.0","102.62","23.98","11.00","8.93","1.59","8.8","0","0"
"Brandon Knight","Brandon-Knight-13336","3000","PG/SG","48.01","211.5","3.0","101.42","15.53","10.00","11.49","5.98","8.23","0","0"
"Cameron Payne","Cameron-Payne-18941","3100","PG/SG","36.18","212.5","14.0","104.50","21.49","10.00","13.89","7.17","8.24","0","0"
"Antonio Blakeney","Antonio-Blakeney-37811","3000","PG/SG","39.41","212.5","18.0","104.50","24.91","8.00","12.37","5.98","7.41","0","0"
"Josh Okogie","Josh-Okogie-409174","3100","SG/SF","47.25","232","7.4","100.67","14.64","3.00","2.37","0.45","2.3","0","0"
