"nameCol","idCol","salaryCol","positionCol","dvpCol","ouCol","mpgCol","paceCol","usgCol","pminCol","ceilCol","floorCol","pointsCol","predictCol","actualCol"
"Alex Len","Alex-Len-16886","4600","C","49.87","223","20.7","105.10","23.94","29.00","49.05","17.84","29.69","0","0"
"Jeremy Lin","Jeremy-Lin-916","3900","PG/SG","49.11","223","19.0","105.10","26.74","22.00","40.84","17.33","22.27","0","0"
"Danilo Gallinari","Danilo-Gallinari-1329","5800","SF/PF","49.01","216","32.5","108.38","21.86","33.00","53.43","18.22","32.66","0","0"
"Monte Morris","Monte-Morris-37860","4100","PG","50.30","223","22.7","99.62","17.13","28.00","40.25","17.75","22.96","0","0"
"Jamal Murray","Jamal-Murray-35211","6500","PG/SG","50.30","223","34.1","99.62","25.91","35.00","62.78","21.73","36.27","0","0"
"Juan Hernangomez","Juan-Hernangomez-35212","3800","SF/PF","56.41","223","26.0","99.62","10.90","31.00","41.34","14.11","21.09","0","0"
"Gary Harris","Gary-Harris-18617","6100","SG","47.65","223","32.7","99.62","21.05","35.00","54.12","19.25","32.74","0","0"
"Kent Bazemore","Kent-Bazemore-13987","5500","SG/SF","40.34","223","26.4","105.10","23.44","30.00","49.74","14.04","29.38","0","0"
"Tobias Harris","Tobias-Harris-13332","7200","SF/PF","49.01","216","34.7","108.38","21.64","35.00","59.82","20.47","38.27","0","0"
"Paul Millsap","Paul-Millsap-1335","5800","PF/C","56.41","223","24.3","99.62","22.00","28.00","50.02","19.2","30.19","0","0"
"Derrick White","Derrick-White-37858","4800","PG","46.04","216","24.8","99.70","22.44","29.00","46.79","20.79","24.93","0","0"
"Montrezl Harrell","Montrezl-Harrell-18930","6200","PF/C","45.70","216","26.3","108.38","20.18","28.00","56.94","25.06","32.04","0","0"
"Nikola Jokic","Nikola-Jokic-31812","9600","C","57.92","223","28.0","99.62","24.98","33.00","71.98","19.75","48.05","0","0"
"LaMarcus Aldridge","LaMarcus-Aldridge-1349","8200","PF/C","54.69","216","33.8","99.70","23.14","34.00","69.45","26.74","40.95","0","0"
"DeAndre Bembry","DeAndre-Bembry-35198","4000","SF","34.70","223","22.4","105.10","17.38","25.00","34.38","16.56","19.69","0","0"
"DeMar DeRozan","DeMar-DeRozan-1053","8800","SG/SF","44.21","216","35.5","99.70","27.20","36.00","68.5","20.18","43.03","0","0"
"Omari Spellman","Omari-Spellman-408970","4200","PF","45.59","223","21.6","105.10","14.02","27.00","22.69","2.29","20.44","0","0"
"Shai Gilgeous-Alexander","Shai-Gilgeous-Alexander-408990","5300","PG","49.66","216","29.5","108.38","18.75","31.00","30.43","4.92","25.09","0","0"
"Patrick Beverley","Patrick-Beverley-14108","4700","PG/SG","45.57","216","29.8","108.38","12.94","28.00","37.24","13.85","22.06","0","0"
"Marcin Gortat","Marcin-Gortat-1479","3400","C","57.66","216","16.0","108.38","15.07","18.00","26.86","9.49","15.93","0","0"
"Trae Young","Trae-Young-409063","7300","PG","49.11","223","28.9","105.10","34.57","31.00","37.78","3.81","34.04","0","0"
"Trey Lyles","Trey-Lyles-18942","4400","SF/PF","56.41","223","21.1","99.62","20.93","20.00","37.93","16.97","20.47","0","0"
"Lou Williams","Lou-Williams-1044","6000","PG/SG","50.34","216","28.2","108.38","34.62","27.00","48.44","17.03","27.52","0","0"
"Marco Belinelli","Marco-Belinelli-1033","3500","SG/SF","35.42","216","22.7","99.70","19.59","20.00","27.36","11.67","15.96","0","0"
"Kevin Huerter","Kevin-Huerter-408969","3200","SG","33.68","223","19.0","105.10","13.55","20.00","18.21","3.81","14.58","0","0"
"Bryn Forbes","Bryn-Forbes-36052","3900","PG/SG","35.42","216","27.3","99.70","18.71","28.00","30.09","10.68","17.62","0","0"
"Rudy Gay","Rudy-Gay-1341","5600","SF/PF","50.81","216","19.5","99.70","26.32","26.00","47.66","19.45","25.06","0","0"
"Patty Mills","Patty-Mills-13977","3800","PG/SG","50.25","216","26.2","99.70","19.23","24.00","30.41","13.18","16.83","0","0"
"Mason Plumlee","Mason-Plumlee-16798","3400","PF/C","52.77","223","17.1","99.62","16.33","15.00","29.38","11.59","14.93","0","0"
"Alex Poythress","Alex-Poythress-36018","3000","SF","45.59","223","11.9","105.10","15.41","18.00","26.09","11.64","13.05","0","0"
"Dante Cunningham","Dante-Cunningham-1259","3400","SF/PF","50.81","216","23.0","99.70","10.20","22.00","25.91","10.09","14.42","0","0"
"Vince Carter","Vince-Carter-1066","3300","SG","33.68","223","15.7","105.10","14.57","20.00","27.49","12.24","13.96","0","0"
"Avery Bradley","Avery-Bradley-941","3500","SG","33.63","216","29.5","108.38","14.68","21.00","21.63","7.78","12.59","0","0"
"Miles Plumlee","Miles-Plumlee-13920","3300","C","49.87","223","11.8","105.10","17.44","12.00","20.42","10.61","10.61","0","0"
"Malik Beasley","Malik-Beasley-35213","3100","SG","46.10","223","16.7","99.62","16.44","15.00","19.91","9.96","9.96","0","0"
"Davis Bertans","Davis-Bertans-36051","3500","PF/C","54.69","216","16.8","99.70","16.00","13.00","21.07","8.84","11.03","0","0"
"Luc Mbah a Moute","Luc-Mbah-a-Moute-14026","3000","SF/PF","49.01","216","0","108.38","0","13.00","15.39","6.29","7.7","0","0"
"Jakob Poeltl","Jakob-Poeltl-35187","3000","C","53.99","216","11.6","99.70","12.68","8.00","15.33","6.8","7.67","0","0"
"Tyler Dorsey","Tyler-Dorsey-37825","3000","PG","33.68","223","10.7","105.10","21.33","6.00","9.42","3.81","4.82","0","0"
"Mike Scott","Mike-Scott-13999","3200","SF/PF","49.01","216","16.2","108.38","12.50","6.00","9.46","5.6","4.73","0","0"
"Boban Marjanovic","Boban-Marjanovic-31807","3600","C","57.66","216","14.6","108.38","23.02","2.00","5.04","2.52","2.52","0","0"
