"nameCol","idCol","salaryCol","positionCol","dvpCol","ouCol","mpgCol","paceCol","usgCol","pminCol","ceilCol","floorCol","pointsCol","predictCol","actualCol"
"Julius Randle","Julius-Randle-18632","7100","PF/C","48.79","227.5","28.1","104.88","28.96","34.00","63.62","34.49","45.8","0","0"
"Glenn Robinson","Glenn-Robinson-18621","3000","SF/PF","38.13","226.5","15.4","100.30","13.32","29.00","27.7","12.59","19.1","0","0"
"E'Twaun Moore","E'Twaun-Moore-18582","4000","SG/SF","32.63","227.5","28.4","104.88","19.95","32.00","36.44","16.26","23.63","0","0"
"Kyle Anderson","Kyle-Anderson-18615","4500","PG/SF","33.35","209","32.7","103.30","10.50","33.00","35.22","14.4","26.52","0","0"
"Tim Frazier","Tim-Frazier-18743","4500","PG/SG","43.35","227.5","26.0","104.88","14.21","29.00","41.7","17.99","26.26","0","0"
"J.J. Barea","J.J.-Barea-18605","5000","PG/SG","50.99","227.5","22.0","100.08","31.89","25.00","43.95","21.13","29.18","0","0"
"Jeff Teague","Jeff-Teague-1005","6000","PG","50.53","221.5","30.3","100.67","19.88","34.00","48.48","17.47","34.12","0","0"
"Cody Zeller","Cody-Zeller-16836","4000","C","53.33","221.5","21.0","103.00","18.84","26.00","32.5","13.27","22.73","0","0"
"Devin Harris","Devin-Harris-1076","3200","PG/SG","50.99","227.5","17.0","100.08","20.17","23.00","31.15","17.61","17.61","0","0"
"Reggie Jackson","Reggie-Jackson-13352","5100","PG/SG","47.35","226.5","27.6","100.30","24.55","30.00","39.1","14.69","27.99","0","0"
"Anthony Davis","Anthony-Davis-13895","11500","PF/C","48.79","227.5","37.0","104.88","29.56","38.00","91.44","32.79","62.93","0","0"
"Solomon Hill","Solomon-Hill-16863","3300","SF/PF","39.86","227.5","22.6","104.88","7.82","27.00","34.36","18.01","18.01","0","0"
"Marc Gasol","Marc-Gasol-1493","8600","C","54.87","209","38.8","103.30","21.02","35.00","61.52","27.15","46.57","0","0"
"Stanley Johnson","Stanley-Johnson-18913","3600","SF/PF","38.13","226.5","20.9","100.30","23.53","25.00","32.72","15.44","19.49","0","0"
"Khris Middleton","Khris-Middleton-13990","7000","SG/SF","42.62","226.5","28.8","98.80","24.45","35.00","60.0","26.47","37.81","0","0"
"Kemba Walker","Kemba-Walker-13335","8100","PG","47.76","221.5","33.7","103.00","29.66","36.00","58.53","21.56","43.55","0","0"
"Joel Embiid","Joel-Embiid-18578","10300","C","55.69","229","31.5","108.33","31.63","36.00","67.17","23.38","55.15","0","0"
"Giannis Antetokounmpo","Giannis-Antetokounmpo-16852","11600","SF/PF","42.71","226.5","36.0","98.80","32.21","37.00","73.42","27.51","61.54","0","0"
"Langston Galloway","Langston-Galloway-18717","3300","PG/SG","38.99","226.5","23.4","100.30","13.59","25.00","29.82","14.52","17.49","0","0"
"Eric Bledsoe","Eric-Bledsoe-1031","6900","PG/SG","39.78","226.5","31.0","98.80","22.32","34.00","53.51","22.37","36.55","0","0"
"Mike Muscala","Mike-Muscala-17379","3800","PF/C","55.69","229","22.8","108.33","13.24","26.00","37.37","20.04","20.04","0","0"
"Serge Ibaka","Serge-Ibaka-1294","5800","PF/C","50.32","229","29.0","105.50","19.18","30.00","42.86","17.47","30.55","0","0"
"Nicolas Batum","Nicolas-Batum-1315","4500","SG/SF","38.42","221.5","27.4","103.00","13.59","30.00","32.56","16.62","23.61","0","0"
"Jeremy Lamb","Jeremy-Lamb-13955","5900","SG/SF","45.69","221.5","32.7","103.00","20.60","32.00","41.76","18.33","30.91","0","0"
"Andrew Wiggins","Andrew-Wiggins-18620","5600","SG/SF","49.43","221.5","30.9","100.67","20.45","34.00","38.4","16.65","29.27","0","0"
"Andre Drummond","Andre-Drummond-13904","8800","C","49.27","226.5","30.7","100.30","25.06","34.00","56.37","20.98","45.9","0","0"
"Jonas Valanciunas","Jonas-Valanciunas-13301","4300","C","49.84","229","19.0","105.50","22.02","18.00","40.54","20.56","22.35","0","0"
"Miles Bridges","Miles-Bridges-409262","4100","SF","54.74","221.5","19.6","103.00","16.81","26.00","22.62","5.56","21.3","0","0"
"Pat Connaughton","Pat-Connaughton-18939","3600","SG/SF","39.32","226.5","23.5","98.80","14.10","25.00","33.51","14.41","18.69","0","0"
"JaMychal Green","JaMychal-Green-18729","4400","SF/PF","54.87","209","24.3","103.30","19.29","24.00","38.53","19.97","22.85","0","0"
"Luka Doncic","Luka-Doncic-408971","6700","PG","50.07","227.5","29.8","100.08","25.63","33.00","35.86","7.18","34.68","0","0"
"Kyle Lowry","Kyle-Lowry-1057","7700","PG","54.20","229","34.2","105.50","21.36","35.00","56.25","21.87","39.84","0","0"
"Karl-Anthony Towns","Karl-Anthony-Towns-18937","9500","C","54.13","221.5","32.4","100.67","29.55","36.00","66.43","27.82","49.06","0","0"
"DeAndre Jordan","DeAndre-Jordan-1486","6900","C","49.99","227.5","29.8","100.08","16.47","31.00","43.83","21.25","35.35","0","0"
"Jimmy Butler","Jimmy-Butler-13327","6900","SG/SF","46.45","229","30.8","108.33","23.70","35.00","47.03","19.47","35.15","0","0"
"Kawhi Leonard","Kawhi-Leonard-13310","9300","SF/PF","44.93","229","36.0","105.50","27.79","35.00","65.14","22.82","47.24","0","0"
"Garrett Temple","Garrett-Temple-14077","4100","SG/SF","34.10","209","34.2","103.30","12.63","33.00","33.41","15.0","20.78","0","0"
"Wesley Matthews","Wesley-Matthews-1339","4700","SG/SF","35.57","227.5","28.8","100.08","19.02","31.00","35.24","14.54","23.75","0","0"
"Wilson Chandler","Wilson-Chandler-1327","3800","SF/PF","38.04","229","28.4","108.33","13.38","30.00","28.41","13.5","18.99","0","0"
"Michael Kidd-Gilchrist","Michael-Kidd-Gilchrist-13896","4000","SF/PF","38.42","221.5","18.5","103.00","16.02","28.00","32.71","16.8","19.91","0","0"
"J.J. Redick","J.J.-Redick-1030","5200","SG/SF","37.29","229","28.2","108.33","23.82","30.00","34.66","16.08","25.81","0","0"
"Derrick Rose","Derrick-Rose-1086","5700","PG/SG","50.53","221.5","27.0","100.67","22.31","27.00","44.49","24.9","28.07","0","0"
"Taj Gibson","Taj-Gibson-1277","4500","PF/C","52.81","221.5","24.1","100.67","16.38","26.00","30.17","12.3","22.12","0","0"
"Tony Parker","Tony-Parker-982","3800","PG","36.40","221.5","23.2","103.00","23.59","20.00","31.29","18.59","18.59","0","0"
"Danny Green","Danny-Green-940","4400","SG/SF","35.94","229","30.1","105.50","12.95","30.00","30.69","14.84","21.45","0","0"
"Tobias Harris","Tobias-Harris-13332","7500","SF/PF","39.24","209","34.5","108.38","23.93","35.00","48.55","20.18","36.5","0","0"
"Jrue Holiday","Jrue-Holiday-1073","9100","PG/SG","54.14","227.5","37.2","104.88","29.66","38.00","59.37","20.75","44.24","0","0"
"Danilo Gallinari","Danilo-Gallinari-1329","6600","SF/PF","39.24","209","33.3","108.38","20.71","32.00","45.11","18.1","31.97","0","0"
"Blake Griffin","Blake-Griffin-1503","9000","PF/C","53.57","226.5","35.3","100.30","31.08","36.00","54.69","19.8","43.23","0","0"
"Ben Simmons","Ben-Simmons-35184","8500","PG/SF","42.22","229","32.5","108.33","24.35","36.00","54.05","17.31","40.82","0","0"
"Jaren Jackson","Jaren-Jackson-409099","6500","PF","54.87","209","26.5","103.30","21.30","30.00","35.18","9.49","31.02","0","0"
"Robert Covington","Robert-Covington-16874","6600","SF/PF","39.75","221.5","36.1","100.67","16.11","37.00","43.92","20.6","31.35","0","0"
"MarShon Brooks","MarShon-Brooks-188837","3000","SG","52.91","209","13.2","103.30","23.80","18.00","21.97","10.01","14.24","0","0"
"Dario Saric","Dario-Saric-36004","4100","PF","49.48","221.5","20.1","100.67","20.37","22.00","32.65","15.66","19.31","0","0"
"Shelvin Mack","Shelvin-Mack-13354","3500","PG","41.54","209","23.0","103.30","16.85","20.00","25.12","13.34","16.45","0","0"
"Montrezl Harrell","Montrezl-Harrell-18930","6900","PF/C","52.88","209","28.2","108.38","24.82","29.00","48.53","25.35","32.46","0","0"
"Mike Conley","Mike-Conley-1062","8700","PG","41.54","209","35.5","103.30","30.88","35.00","60.03","23.22","40.18","0","0"
"Dorian Finney-Smith","Dorian-Finney-Smith-36032","3800","SF","40.26","227.5","26.8","100.08","14.01","26.00","27.31","13.82","17.52","0","0"
"Malcolm Brogdon","Malcolm-Brogdon-35195","6200","PG/SG","50.75","226.5","31.5","98.80","20.36","34.00","42.75","20.11","28.37","0","0"
"Ish Smith","Ish-Smith-13958","3500","PG","44.55","226.5","21.7","100.30","22.58","19.00","26.08","11.14","15.93","0","0"
"Pascal Siakam","Pascal-Siakam-35186","6100","PF","49.84","229","31.4","105.50","17.27","30.00","40.28","15.9","27.61","0","0"
"Patrick Beverley","Patrick-Beverley-14108","3600","PG/SG","44.44","209","19.0","108.38","14.47","20.00","30.63","16.25","16.25","0","0"
"Brook Lopez","Brook-Lopez-1498","5200","C","54.83","226.5","27.3","98.80","18.49","28.00","35.33","15.98","23.4","0","0"
"Lou Williams","Lou-Williams-1044","5500","PG/SG","43.72","209","22.7","108.38","31.84","24.00","37.56","15.07","24.63","0","0"
"T.J. McConnell","T.J.-McConnell-18956","3400","PG/SG","42.22","229","20.5","108.33","14.04","20.00","23.9","12.57","14.91","0","0"
"Harrison Barnes","Harrison-Barnes-13901","6800","SF/PF","48.66","227.5","33.0","100.08","25.41","33.00","37.98","17.23","29.81","0","0"
"Zaza Pachulia","Zaza-Pachulia-1455","3200","C","49.27","226.5","12.0","100.30","14.46","14.00","23.39","11.44","13.94","0","0"
"Marcin Gortat","Marcin-Gortat-1479","3800","C","46.62","209","17.8","108.38","12.77","19.00","24.17","9.8","16.41","0","0"
"Shai Gilgeous-Alexander","Shai-Gilgeous-Alexander-408990","5100","PG","41.68","209","27.5","108.38","18.26","27.00","22.39","4.48","21.65","0","0"
"Wesley Johnson","Wesley-Johnson-1280","3100","SF/PF","39.86","227.5","15.1","104.88","10.35","19.00","24.56","13","13","0","0"
"Darius Miller","Darius-Miller-13951","3300","SF/PF","39.86","227.5","21.0","104.88","14.37","23.00","24.2","13.75","13.75","0","0"
"Avery Bradley","Avery-Bradley-941","4300","SG","37.80","209","31.5","108.38","15.76","30.00","25.37","11.32","17.2","0","0"
"Fred VanVleet","Fred-VanVleet-36011","4600","PG/SG","37.58","229","23.3","105.50","19.51","20.00","29.64","14.47","18.23","0","0"
"Dwight Powell","Dwight-Powell-18566","3700","PF/C","57.16","227.5","16.2","100.08","20.26","15.00","22.67","11.56","14.59","0","0"
"Frank Kaminsky","Frank-Kaminsky-18920","3700","PF/C","54.65","221.5","16.4","103.00","22.53","16.00","18.42","7.39","14.49","0","0"
"Maxi Kleber","Maxi-Kleber-37845","3200","PF","48.66","227.5","17.8","100.08","17.63","15.00","20.01","10.01","12.15","0","0"
"Gorgui Dieng","Gorgui-Dieng-16939","3300","PF/C","52.81","221.5","13.6","100.67","17.81","12.00","18.59","8.89","12.11","0","0"
"Tony Snell","Tony-Snell-16872","3000","SG/SF","33.61","226.5","14.0","98.80","17.71","16.00","18.93","9.82","10.88","0","0"
"C.J. Miles","C.J.-Miles-1299","3100","SG/SF","35.94","229","11.3","105.50","22.60","14.00","18.24","8.99","11.14","0","0"
"Mike Scott","Mike-Scott-13999","3300","SF/PF","39.24","209","15.2","108.38","13.18","14.00","23.45","13.79","11.73","0","0"
"Bruce Brown","Bruce-Brown-408913","3200","SG","47.35","226.5","18.8","100.30","10.52","16.00","11.22","2.36","11.24","0","0"
"Delon Wright","Delon-Wright-18907","3400","PG/SG","37.58","229","16.0","105.50","16.37","14.00","19.44","9.75","11.38","0","0"
"Devonte' Graham","Devonte'-Graham-408968","3000","PG","36.40","221.5","11.0","103.00","17.19","12.00","10.42","2.56","9.81","0","0"
"Landry Shamet","Landry-Shamet-408841","3100","PG","46.38","229","22.2","108.33","14.72","17.00","10.0","1.83","9.89","0","0"
"Tyus Jones","Tyus-Jones-18938","3100","PG","43.31","221.5","16.7","100.67","13.38","12.00","17.23","9.07","9.43","0","0"
"Thon Maker","Thon-Maker-35194","3200","PF/C","53.28","226.5","12.0","98.80","17.20","11.00","15.21","7.28","8.96","0","0"
"OG Anunoby","OG-Anunoby-37807","3300","SF","35.94","229","16.5","105.50","18.61","14.00","17.28","9.15","9.15","0","0"
"Luke Kennard","Luke-Kennard-37814","3000","SG/SF","38.99","226.5","12.0","100.30","23.33","12.00","12.26","5.49","7.9","0","0"
"Malik Monk","Malik-Monk-37827","3200","SG","47.76","221.5","13.7","103.00","26.36","10.00","12.46","6.67","8.09","0","0"
"Tyrone Wallace","Tyrone-Wallace-35220","3000","PG/SG","43.72","209","11.0","108.38","26.22","10.00","11.71","7.23","7.23","0","0"
"Donte DiVincenzo","Donte-DiVincenzo-408950","3200","SG","39.32","226.5","11.7","98.80","12.56","10.00","7.58","1.44","7.35","0","0"
"Sterling Brown","Sterling-Brown-37821","3100","SG","39.32","226.5","14.0","98.80","15.73","10.00","13.45","7.07","7.07","0","0"
"Omri Casspi","Omri-Casspi-1270","3100","SF/PF","33.35","209","13.7","103.30","13.37","8.00","11.87","5.67","6.76","0","0"
"Furkan Korkmaz","Furkan-Korkmaz-35185","3100","SG","46.38","229","13.4","108.33","22.72","10.00","11.16","5.83","5.83","0","0"
"Jalen Brunson","Jalen-Brunson-409062","3100","PG","53.69","227.5","4.8","100.08","17.96","8.00","4.99","0.91","4.94","0","0"
"Joakim Noah","Joakim-Noah-1404","3000","C","58.96","209","0","103.30","0","4.00","6.46","3.45","3.79","0","0"
"Dwayne Bacon","Dwayne-Bacon-37828","3000","SG","40.10","221.5","14.8","103.00","20.28","4.00","4.89","2.71","3.02","0","0"
"Willy Hernangomez","Willy-Hernangomez-18901","3200","C","53.33","221.5","7.0","103.00","25.37","2.00","4.55","2.43","2.51","0","0"
