"nameCol","idCol","salaryCol","positionCol","dvpCol","ouCol","mpgCol","paceCol","usgCol","pminCol","ceilCol","floorCol","pointsCol","predictCol","actualCol"
"Garrett Temple","Garrett-Temple-14077","3400","SG/SF","38.38","200.5","28.4","103.30","13.14","32.00","35.6","15.99","22.14","0","0"
"Eric Gordon","Eric-Gordon-1077","4800","SG/SF","44.82","200.5","31.7","101.42","17.91","36.00","42.68","19.62","29.6","0","0"
"Shelvin Mack","Shelvin-Mack-13354","3400","PG","39.77","200.5","22.1","103.30","16.72","23.00","31.09","16.51","20.36","0","0"
"Patty Mills","Patty-Mills-13977","3700","PG/SG","46.93","214","22.9","99.70","18.30","22.00","32.6","16.87","21.66","0","0"
"LaMarcus Aldridge","LaMarcus-Aldridge-1349","7900","PF/C","66.31","214","26.9","99.70","28.27","34.00","65.84","28.94","45.5","0","0"
"Kyle Anderson","Kyle-Anderson-18615","4300","PG/SF","33.70","200.5","25.9","103.30","13.87","30.00","32.66","13.35","24.59","0","0"
"Derrick White","Derrick-White-37858","3800","PG/SG","46.93","214","22.7","99.70","17.19","26.00","34.62","17.87","21.45","0","0"
"Marco Belinelli","Marco-Belinelli-1033","3500","SG/SF","34.41","214","20.7","99.70","17.58","21.00","28.13","14.67","19.2","0","0"
"Gerald Green","Gerald-Green-13374","3500","SG/SF","44.82","200.5","17.0","101.42","15.16","22.00","32.46","15.21","18.75","0","0"
"P.J. Tucker","P.J.-Tucker-13947","3700","SF/PF","36.96","200.5","31.5","101.42","9.38","34.00","38.47","16.61","19.8","0","0"
"Davis Bertans","Davis-Bertans-36051","3500","PF/C","66.31","214","20.0","99.70","12.30","19.00","32.5","14.97","18.71","0","0"
"Marc Gasol","Marc-Gasol-1493","7500","C","54.77","200.5","31.9","103.30","21.18","33.00","52.83","23.31","39.99","0","0"
"Antonio Blakeney","Antonio-Blakeney-37811","3000","PG/SG","33.75","214","10.5","104.50","25.16","17.00","26.2","12.67","15.7","0","0"
"Lauri Markkanen","Lauri-Markkanen-37809","5900","PF","52.64","214","26.3","104.50","25.47","32.00","44.34","19.96","30.75","0","0"
"DeMar DeRozan","DeMar-DeRozan-1053","8600","SG/SF","44.24","214","33.0","99.70","31.20","36.00","61.29","21.42","44.54","0","0"
"Bobby Portis","Bobby-Portis-18909","5400","PF/C","49.66","214","19.5","104.50","23.90","25.00","50.54","24.37","26.87","0","0"
"Rudy Gay","Rudy-Gay-1341","6400","SF/PF","49.16","214","28.1","99.70","20.19","27.00","40.38","15.77","31.6","0","0"
"Wendell Carter","Wendell-Carter-408878","5200","PF/C","49.66","214","23.8","104.50","15.36","28.00","30.09","9.46","25.7","0","0"
"Chris Paul","Chris-Paul-1087","8000","PG","43.22","200.5","33.2","101.42","23.77","33.00","53.11","18.88","39.25","0","0"
"JaMychal Green","JaMychal-Green-18729","4600","SF/PF","54.77","200.5","24.1","103.30","19.68","24.00","37.85","19.62","22.45","0","0"
"Kris Dunn","Kris-Dunn-35215","5200","PG/SG","50.69","214","22.5","104.50","17.74","26.00","34.51","12.35","24.79","0","0"
"Justin Holiday","Justin-Holiday-14559","5300","SG/SF","33.75","214","32.2","104.50","17.47","34.00","36.25","16.75","25","0","0"
"Mike Conley","Mike-Conley-1062","7700","PG","39.77","200.5","32.9","103.30","24.72","34.00","53.75","20.8","35.98","0","0"
"Ryan Arcidiacono","Ryan-Arcidiacono-36050","3500","PG","45.43","214","25.8","104.50","9.04","22.00","25.56","10.42","16.2","0","0"
"James Harden","James-Harden-1037","11100","PG/SG","43.22","200.5","32.8","101.42","38.34","36.00","59.27","19.25","51.32","0","0"
"Clint Capela","Clint-Capela-18610","8100","C","47.48","200.5","31.0","101.42","19.71","33.00","54.54","23.41","37.33","0","0"
"Jaren Jackson","Jaren-Jackson-409099","5800","PF/C","54.77","200.5","22.3","103.30","20.06","28.00","29.48","7.96","26","0","0"
"Jakob Poeltl","Jakob-Poeltl-35187","4100","C","56.24","214","18.4","99.70","15.76","17.00","36.18","16.07","18.1","0","0"
"Cameron Payne","Cameron-Payne-18941","3200","PG/SG","45.43","214","14.8","104.50","21.16","17.00","23.33","11.9","13.69","0","0"
"Bryn Forbes","Bryn-Forbes-36052","4200","PG/SG","52.28","214","23.4","99.70","18.90","22.00","25.17","10.6","17.43","0","0"
"Chandler Hutchison","Chandler-Hutchison-408877","3000","SG/SF","36.50","214","12.2","104.50","12.07","17.00","12.95","2.98","12.23","0","0"
"Danuel House","Danuel-House-36029","3700","SF/PF","43.22","200.5","17.8","101.42","16.25","20.00","24.74","11.72","14.83","0","0"
"Nene Hilario","Nene-Hilario-17321","3200","C","47.48","200.5","14.2","101.42","13.89","13.00","20.32","10.56","12.34","0","0"
"Dante Cunningham","Dante-Cunningham-1259","3600","SF/PF","49.16","214","21.3","99.70","8.84","16.00","24.34","10.37","12.98","0","0"
"Joakim Noah","Joakim-Noah-1404","3200","C","52.92","200.5","14.8","103.30","20.64","15.00","18.83","10.04","11.05","0","0"
"Brandon Knight","Brandon-Knight-13336","3000","PG/SG","43.22","200.5","3.0","101.42","31.07","13.00","15.39","7.46","10.25","0","0"
"Robin Lopez","Robin-Lopez-1466","3100","C","52.88","214","16.0","104.50","19.87","10.00","19.43","9.72","9.72","0","0"
"Omri Casspi","Omri-Casspi-1270","3100","SF/PF","33.70","200.5","12.0","103.30","15.43","10.00","15.28","7.3","8.7","0","0"
"Shaquille Harrison","Shaquille-Harrison-36065","3300","PG","45.43","214","15.0","104.50","17.22","12.00","14.5","7.12","9.08","0","0"
"MarShon Brooks","MarShon-Brooks-188837","3200","SG","43.22","218","13.4","108.80","22.81","11.00","12.84","5.85","8.32","0","0"
