"nameCol","idCol","salaryCol","positionCol","dvpCol","ouCol","mpgCol","paceCol","usgCol","pminCol","ceilCol","floorCol","pointsCol","predictCol","actualCol"
"Kelly Olynyk","Kelly-Olynyk-16845","3900","PF/C","0","207","21.8","106.90","17.59","26.00","39.41","22.19","26.38","0","0"
"Wilson Chandler","Wilson-Chandler-1327","3800","SF/PF","0","224","0","108.33","0","30.00","36.91","17.54","24.67","0","0"
"Serge Ibaka","Serge-Ibaka-1294","5700","PF/C","0","207.5","0","105.50","0","30.00","51.87","21.15","36.97","0","0"
"Evan Fournier","Evan-Fournier-13913","5400.00","SG/SF","0","204","0","105.10","0","32.00","43.62","17.75","34.21","0","0"
"Jonathon Simmons","Jonathon-Simmons-31808","3500.00","SG/SF","0","204","0","105.10","0","28.00","33.41","18.11","22.11","0","0"
"Zach LaVine","Zach-LaVine-18622","6100","PG/SG","0","207.5","0","104.50","0","35.00","53.02","22.91","37.68","0","0"
"Josh Hart","Josh-Hart-37889","4700","PG/SG","40.50","232","0","112.50","0","33.00","39.82","20.07","28.92","0","0"
"Maurice Harkless","Maurice-Harkless-16971","3700","SF/PF","0","224","0","104.50","0","26.00","35.38","15.24","22.71","0","0"
"Brandon Ingram","Brandon-Ingram-35227","5900","PG/SG","0","232","0","112.50","0","36.00","55.35","22.26","36.25","0","0"
"Justin Jackson","Justin-Jackson-37895","3200","SF/PF","0","232","0","98.20","0","26.00","29.48","15.78","19.55","0","0"
"Fred VanVleet","Fred-VanVleet-36011","5400","PG/SG","0","207.5","0","105.50","0","32.00","44.92","19.4","32.93","0","0"
"Al-Farouq Aminu","Al-Farouq-Aminu-1279","4500","SF/PF","0","224","29.1","104.50","13.16","31.00","42.02","20.3","27.25","0","0"
"Jimmy Butler","Jimmy-Butler-13327","6700","SG/SF","0","224","0","108.33","0","35.00","53.69","22.23","40.13","0","0"
"Dennis Smith Jr.","Dennis-Smith-Jr.-37847","4900","PG","0","225.5","0","100.08","0","30.00","38.86","15.75","28.85","0","0"
"Aaron Gordon","Aaron-Gordon-18601","6500.00","SF/PF","0","204","0","105.10","0","34.00","48.94","20.8","38.03","0","0"
"Lonzo Ball","Lonzo-Ball-37885","6700","PG","0","232","0","112.50","0","37.00","51.87","20.07","38.97","0","0"
"Willie Cauley-Stein","Willie-Cauley-Stein-18951","6800","C","0","232","28.1","98.20","18.47","34.00","56.57","24.94","39.53","0","0"
"Kentavious Caldwell-Pope","Kentavious-Caldwell-Pope-16869","3700","SG/SF","40.50","232","0","112.50","0","25.00","40.91","21.42","21.42","0","0"
"Hassan Whiteside","Hassan-Whiteside-18664","7100","C","0","207","0","106.90","0","28.00","51.45","19.35","40.83","0","0"
"Tyus Jones","Tyus-Jones-18938","4900","PG","0","207","0","100.67","0","32.00","39.0","15.36","28.14","0","0"
"Harrison Barnes","Harrison-Barnes-13901","5500","SF/PF","0","225.5","0","100.08","0","33.00","39.99","18.32","31.59","0","0"
"Buddy Hield","Buddy-Hield-35206","7200","SG/SF","0","232","0","98.20","0","35.00","63.17","27.98","41.02","0","0"
"Damian Lillard","Damian-Lillard-13900","8200","PG","0","224","0","104.50","0","34.00","59.73","22.48","46.63","0","0"
"Reggie Bullock","Reggie-Bullock-16943","4300.00","SG/SF","0","204","0","100.30","0","32.00","38.89","16.63","24.35","0","0"
"Devin Harris","Devin-Harris-1076","3400","PG/SG","0","225.5","0","100.08","0","21.00","33.75","19.1","19.1","0","0"
"J.J. Redick","J.J.-Redick-1030","5100","SG/SF","0","224","0","108.33","0","31.00","38.22","17.73","28.46","0","0"
"Dennis Schroder","Dennis-Schroder-18595","5800","PG/SG","55.80","225.5","0","102.62","0","30.00","49.36","25.44","32.37","0","0"
"Reggie Jackson","Reggie-Jackson-13352","5100.00","PG/SG","0","204","0","100.30","0","27.00","39.36","14.89","28.42","0","0"
"Danny Green","Danny-Green-940","4400","SG/SF","0","207.5","0","105.50","0","28.00","34.8","16.83","24.32","0","0"
"Terrence Ross","Terrence-Ross-13902","4100.00","SG/SF","0","204","0","105.10","0","26.00","34.91","19.24","22.61","0","0"
"Kawhi Leonard","Kawhi-Leonard-13310","9200","SF/PF","0","207.5","34.4","105.50","30.62","35.00","69.76","24.43","50.59","0","0"
"Jonathan Isaac","Jonathan-Isaac-37841","3700.00","SF/PF","0","204","0","105.10","0","26.00","32.22","15.6","20.34","0","0"
"Justin Holiday","Justin-Holiday-14559","4700","SG/SF","0","207.5","0","104.50","0","34.00","37.19","17.13","25.61","0","0"
"Dwyane Wade","Dwyane-Wade-967","4600","PG/SG","0","207","0","106.90","0","23.00","35.47","16.57","25.03","0","0"
"OG Anunoby","OG-Anunoby-37807","3500","SF/PF","0","207.5","0","105.50","0","24.00","35.93","19.03","19.03","0","0"
"D.J. Augustin","D.J.-Augustin-1064","4500.00","PG","0","204","0","105.10","0","30.00","39.05","14.22","24.47","0","0"
"Pascal Siakam","Pascal-Siakam-35186","6000","PF/C","0","207.5","0","105.50","0","32.00","47.49","18.75","32.55","0","0"
"Blake Griffin","Blake-Griffin-1503","8400.00","PF/C","0","204","0","100.30","0","35.00","57.63","20.96","45.56","0","0"
"Andre Drummond","Andre-Drummond-13904","8600.00","C","0","204","0","100.30","0","33.00","57.1","21.55","46.35","0","0"
"Danny Green","Danny-Green-940","4400","SG/SF","0","207.5","0","105.50","0","30.00","33.89","16.39","23.68","0","0"
"Jusuf Nurkic","Jusuf-Nurkic-18619","7000","C","0","224","0","104.50","0","27.00","48.4","20.66","37.43","0","0"
"DeAndre Jordan","DeAndre-Jordan-1486","6300","C","49.40","225.5","0","100.08","0","32.00","42.17","20.07","33.68","0","0"
"JaVale McGee","JaVale-McGee-1485","4700","C","0","232","0","112.50","0","20.00","35.35","15.41","25.09","0","0"
"Kris Dunn","Kris-Dunn-35215","6200","PG/SG","0","207.5","0","104.50","0","32.00","46.03","16.81","32.97","0","0"
"Bruce Brown","Bruce-Brown-408913","3400.00","PG/SG","0","204","0","100.30","0","22.00","18.68","3.74","18.07","0","0"
"Robert Covington","Robert-Covington-16874","6400","SF/PF","0","207","0","100.67","0","36.00","49.18","21.57","33.71","0","0"
"Rodney McGruder","Rodney-McGruder-16850","3500","SG/SF","39.84","207","0","106.90","0","25.00","28.55","11.98","18.43","0","0"
"Nikola Vucevic","Nikola-Vucevic-13296","8200.00","C","0","204","0","105.10","0","30.00","54.0","20.06","43.13","0","0"
"Andrew Wiggins","Andrew-Wiggins-18620","6000","SG/SF","0","207","0","100.67","0","34.00","41.52","17.89","31.55","0","0"
"Maxi Kleber","Maxi-Kleber-37845","3500","PF/C","0","225.5","0","100.08","0","22.00","30.12","15.24","18.4","0","0"
"Kosta Koufos","Kosta-Koufos-1386","3100","PF/C","0","232","0","98.20","0","15.00","31.42","16.29","16.29","0","0"
"Justise Winslow","Justise-Winslow-18921","6500","PG/SF","0","207","0","106.90","0","34.00","52.59","19.3","34.04","0","0"
"Lance Stephenson","Lance-Stephenson-947","4000","SG/SF","0","232","0","112.50","0","20.00","35.56","16.67","20.92","0","0"
"Bam Adebayo","Bam-Adebayo-37835","4200","PF/C","0","207","0","106.90","0","23.00","31.97","19.35","21.87","0","0"
"Nemanja Bjelica","Nemanja-Bjelica-31814","5300","SF/PF","0","232","0","98.20","0","27.00","45.37","18.21","27.55","0","0"
"Josh Richardson","Josh-Richardson-18922","6900","SG/SF","0","207","0","106.90","0","35.00","52.64","20.92","35.57","0","0"
"Delon Wright","Delon-Wright-18907","3600","PG/SG","0","207.5","0","105.50","0","21.00","31.75","15.93","18.59","0","0"
"Kyle Kuzma","Kyle-Kuzma-37886","7700","SF/PF","0","232","0","112.50","0","37.00","51.34","22.39","39.77","0","0"
"Wendell Carter","Wendell-Carter-408878","5200","PF/C","0","207.5","0","104.50","0","28.00","27.64","5.53","26.73","0","0"
"C.J. McCollum","C.J.-McCollum-17121","6100","PG/SG","0","224","0","104.50","0","34.00","41.43","18.11","31.27","0","0"
"Taj Gibson","Taj-Gibson-1277","4400","PF/C","0","207","0","100.67","0","25.00","30.9","11.5","22.33","0","0"
"Robin Lopez","Robin-Lopez-1466","3400","C","0","207.5","0","104.50","0","17.00","34.54","17.28","17.28","0","0"
"Jerami Grant","Jerami-Grant-18576","5000","PF","0","225.5","0","102.62","0","32.00","39.45","18.11","25.37","0","0"
"Meyers Leonard","Meyers-Leonard-13905","3200","PF/C","52.98","224","0","104.50","0","15.00","27.77","13.18","16.19","0","0"
"Stanley Johnson","Stanley-Johnson-18913","3400.00","SF/PF","0","204","0","100.30","0","22.00","28.42","13.61","17.18","0","0"
"Dario Saric","Dario-Saric-36004","4600","PF","0","207","0","100.67","0","23.00","38.57","19.31","22.96","0","0"
"Ben Simmons","Ben-Simmons-35184","8500","PG/SF","0","224","0","108.33","0","36.00","56.03","17.94","42.32","0","0"
"Karl-Anthony Towns","Karl-Anthony-Towns-18937","9800","C","0","207","0","100.67","0","36.00","65.1","26.43","48.4","0","0"
"Langston Galloway","Langston-Galloway-18717","3500.00","PG/SG","0","204","20.5","100.30","18.60","22.00","29.86","14.34","17.26","0","0"
"Bogdan Bogdanovic","Bogdan-Bogdanovic-37899","5600","SG/SF","0","232","0","98.20","0","30.00","44.04","24.06","27.56","0","0"
"Lauri Markkanen","Lauri-Markkanen-37809","6600","PF","0","207.5","0","104.50","0","32.00","46.47","21.14","32.43","0","0"
"Mike Muscala","Mike-Muscala-17379","3700","PF/C","0","224","0","108.33","0","21.00","33.81","18.13","18.13","0","0"
"Dwight Powell","Dwight-Powell-18566","3500","PF/C","0","225.5","0","100.08","0","16.00","26.67","13.67","17.11","0","0"
"J.J. Barea","J.J.-Barea-18605","4800","PG/SG","0","225.5","0","100.08","0","20.00","34.67","17.02","23.38","0","0"
"Shaquille Harrison","Shaquille-Harrison-36065","3300","PG","41.01","207.5","0","104.50","0","19.00","25.57","12.59","16.04","0","0"
"Joel Embiid","Joel-Embiid-18578","10200","C","0","224","0","108.33","0","34.00","59.85","20.84","49.14","0","0"
"Evan Turner","Evan-Turner-1291","3800","SG/SF","0","224","0","104.50","0","21.00","26.69","15.04","18.08","0","0"
"De'Aaron Fox","De'Aaron-Fox-37900","8400","PG","0","232","0","98.20","0","35.00","50.06","20.14","39.73","0","0"
"Russell Westbrook","Russell-Westbrook-1083","11100","PG","55.80","225.5","0","102.62","0","36.00","58.1","17.87","52.25","0","0"
"Dorian Finney-Smith","Dorian-Finney-Smith-36032","3300","SF/PF","0","225.5","0","100.08","0","21.00","24.1","12.69","15.47","0","0"
"Chandler Hutchison","Chandler-Hutchison-408877","3000","SF/PF","0","207.5","0","104.50","0","20.00","14.17","2.59","14.02","0","0"
"Iman Shumpert","Iman-Shumpert-13350","4300","SG/SF","0","232","0","98.20","0","27.00","28.82","14.27","19.93","0","0"
"Paul George","Paul-George-1245","9700","SF/PF","0","225.5","0","102.62","0","36.00","61.64","27.26","44.25","0","0"
"Zach Collins","Zach-Collins-37866","3100","PF/C","52.98","224","0","104.50","0","17.00","21.63","10.64","14.08","0","0"
"Nerlens Noel","Nerlens-Noel-18575","3200","C","0","225.5","0","102.62","0","14.00","24.23","12.35","14.51","0","0"
"Luka Doncic","Luka-Doncic-408971","8100","SG/SF","0","225.5","32.6","100.08","32.17","32.00","41.63","11.3","36.45","0","0"
"Terrance Ferguson","Terrance-Ferguson-37871","3100","SG/SF","0","225.5","0","102.62","0","23.00","22.0","8.6","13.8","0","0"
"Zaza Pachulia","Zaza-Pachulia-1455","3300.00","C","0","204","0","100.30","0","14.00","24.44","11.12","14.52","0","0"
"T.J. McConnell","T.J.-McConnell-18956","3600","PG/SG","0","224","0","108.33","0","21.00","25.34","13.33","15.81","0","0"
"Ryan Arcidiacono","Ryan-Arcidiacono-36050","3600","PG","41.01","207.5","0","104.50","0","23.00","30.89","13.79","15.71","0","0"
"Steven Adams","Steven-Adams-16848","7300","C","0","225.5","0","102.62","0","32.00","41.01","20.49","31.14","0","0"
"Josh Okogie","Josh-Okogie-409174","3900","SG/SF","0","207","0","100.67","0","24.00","17.25","3.97","16.29","0","0"
"Greg Monroe","Greg-Monroe-1487","3400","C","55.40","207.5","0","105.50","0","12.00","19.14","8.19","14","0","0"
"Seth Curry","Seth-Curry-16825","3100","PG/SG","0","224","0","104.50","0","18.00","24.36","12.72","12.72","0","0"
"Dirk Nowitzki","Dirk-Nowitzki-1346","3200","PF/C","0","225.5","0","100.08","0","13.00","19.09","9.82","13.04","0","0"
"Jose Calderon","Jose-Calderon-1071","3100.00","PG","0","204","0","100.30","0","18.00","21.55","9.8","12.33","0","0"
"Gorgui Dieng","Gorgui-Dieng-16939","3400","PF/C","0","207","0","100.67","0","13.00","21.12","10.2","13.53","0","0"
"Luke Kennard","Luke-Kennard-37814","3100.00","SG/SF","0","204","0","100.30","0","15.00","18.46","8.55","12.25","0","0"
"Mohamed Bamba","Mohamed-Bamba-409026","3700.00","C","0","204","0","105.10","0","16.00","15.04","2.86","14.59","0","0"
"Norman Powell","Norman-Powell-18908","3200","SG/SF","0","207.5","0","105.50","0","16.00","23.71","12.61","12.61","0","0"
"Hamidou Diallo","Hamidou-Diallo-408800","3100","SG/SF","0","225.5","0","102.62","0","14.00","12.62","2.91","11.92","0","0"
"Derrick Jones","Derrick-Jones-36064","4000","SF/PF","39.84","207","0","106.90","0","18.00","28.77","15.35","15.35","0","0"
"Wes Iwundu","Wes-Iwundu-37839","3100.00","SG/SF","0","204","0","105.10","0","18.00","23.25","11.63","11.63","0","0"
"Tyler Johnson","Tyler-Johnson-18720","5400","PG/SG","0","207","0","106.90","0","24.00","31.33","13.94","19.83","0","0"
"Landry Shamet","Landry-Shamet-408841","3200","PG/SG","0","224","0","108.33","0","18.00","11.31","2.07","11.19","0","0"
"Jerryd Bayless","Jerryd-Bayless-1021","3100","PG/SG","0","207","0","100.67","0","17.00","17.54","10.18","10.18","0","0"
"Tyson Chandler","Tyson-Chandler-1482","3600","C","0","232","0","112.50","0","12.00","21.56","11.47","11.47","0","0"
"Patrick Patterson","Patrick-Patterson-1260","3000","PF/C","0","225.5","0","102.62","0","14.00","16.08","7.71","9.1","0","0"
"Nik Stauskas","Nik-Stauskas-18636","3100","SG/SF","0","224","0","104.50","0","12.00","14.9","7.05","9.07","0","0"
"Yogi Ferrell","Yogi-Ferrell-35999","3100","PG/SG","0","232","0","98.20","0","11.00","14.26","7.33","8.59","0","0"
"Ivica Zubac","Ivica-Zubac-35226","5500","C","0","232","0","112.50","0","16.00","22.67","11.72","14.42","0","0"
"Furkan Korkmaz","Furkan-Korkmaz-35185","3500","SG/SF","0","224","0","108.33","0","14.00","17.29","9.03","9.03","0","0"
"C.J. Miles","C.J.-Miles-1299","3400","SG/SF","0","207.5","0","105.50","0","8.00","12.06","5.95","7.37","0","0"
"Abdel Nader","Abdel-Nader-35179","3300","PF","0","225.5","0","102.62","0","9.00","12.43","6.25","6.25","0","0"
"Wayne Ellington","Wayne-Ellington-1009","3100","PG/SG","0","207","0","106.90","0","4.00","5.91","2.82","3.49","0","0"
"Alex Caruso","Alex-Caruso-37888","3000","PG/SG","0","232","0","112.50","0","4.00","4.26","1.82","3.09","0","0"
