"nameCol","idCol","salaryCol","positionCol","dvpCol","ouCol","mpgCol","paceCol","usgCol","pminCol","ceilCol","floorCol","pointsCol","predictCol","actualCol"
"Ricky Rubio","Ricky-Rubio-1001","5400","PG","34.40","218","29.4","98.88","25.85","32.00","40.25","16.22","30.61","0","0"
"Derrick Favors","Derrick-Favors-1266","4700","PF/C","51.51","218","22.6","98.88","19.48","25.00","34.1","16.48","26.41","0","0"
"Jonas Jerebko","Jonas-Jerebko-1106","3500","PF/C","45.56","227","24.4","103.10","16.18","22.00","35.71","15.11","19.6","0","0"
"Draymond Green","Draymond-Green-13976","6300","PF/C","52.04","227","30.8","103.10","15.24","35.00","41.98","15.37","34.61","0","0"
"Donovan Mitchell","Donovan-Mitchell-37875","6900","PG/SG","47.55","218","31.9","98.88","32.27","34.00","48.58","20.09","37.2","0","0"
"Dennis Schroder","Dennis-Schroder-18595","5400","PG/SG","49.63","218","28.4","102.62","28.69","29.00","44.33","22.83","29.05","0","0"
"Stephen Curry","Stephen-Curry-1079","9500","PG/SG","55.71","227","35.0","103.10","28.86","35.00","70.26","26.47","50.51","0","0"
"Klay Thompson","Klay-Thompson-13315","6400","SG","37.71","227","34.8","103.10","24.54","35.00","43.61","19.57","33.91","0","0"
"Jerami Grant","Jerami-Grant-18576","4600","PF","47.98","218","31.3","102.62","16.01","29.00","37.0","16.69","24.26","0","0"
"Wesley Matthews","Wesley-Matthews-1339","4500","SG/SF","41.20","227","29.0","100.08","18.84","31.00","35.36","14.98","23.67","0","0"
"Harrison Barnes","Harrison-Barnes-13901","5800","SF/PF","47.93","227","31.7","100.08","22.08","33.00","39.01","17.54","30.45","0","0"
"Kevin Durant","Kevin-Durant-1348","9200","SF/PF","45.56","227","34.6","103.10","31.44","35.00","63.71","22.48","48.23","0","0"
"J.J. Barea","J.J.-Barea-18605","4700","PG/SG","50.93","227","19.0","100.08","31.07","20.00","36.99","17.76","24.53","0","0"
"Kevon Looney","Kevon-Looney-18945","3600","PF/C","48.70","227","20.6","103.10","10.99","20.00","26.46","11.75","18.48","0","0"
"Jalen Brunson","Jalen-Brunson-409062","3700","PG","37.97","227","25.3","100.08","17.90","26.00","22.23","6.98","18.98","0","0"
"Rudy Gobert","Rudy-Gobert-16935","7500","C","49.07","218","29.0","98.88","17.67","32.00","50.54","16.77","37.94","0","0"
"Andre Iguodala","Andre-Iguodala-1334","3500","SG/SF","37.71","227","16.5","103.10","12.78","19.00","25.35","9.85","16.9","0","0"
"DeAndre Jordan","DeAndre-Jordan-1486","7100","C","51.59","227","30.1","100.08","14.34","31.00","41.8","20.17","33.68","0","0"
"Joe Ingles","Joe-Ingles-18627","5600","SG/SF","40.33","218","28.0","98.88","19.03","29.00","40.73","17.32","26.48","0","0"
"Dorian Finney-Smith","Dorian-Finney-Smith-36032","3400","SF/PF","36.48","227","22.6","100.08","11.51","21.00","25.03","12.08","15.91","0","0"
"Paul George","Paul-George-1245","9400","SF/PF","47.98","218","35.0","102.62","30.72","36.00","59.93","26.46","42.96","0","0"
"Jae Crowder","Jae-Crowder-13942","5200","SF/PF","38.19","218","24.1","98.88","17.21","28.00","40.04","18.16","23.68","0","0"
"Russell Westbrook","Russell-Westbrook-1083","11100","PG","49.63","218","35.0","102.62","30.52","35.00","55.42","17.05","49.84","0","0"
"Kyle Korver","Kyle-Korver-1269","3300","SG/SF","40.33","218","17.6","98.88","20.11","18.00","25.78","11.64","14.73","0","0"
"Devin Harris","Devin-Harris-1076","3300","PG/SG","50.93","227","16.0","100.08","19.88","16.00","25.93","14.65","14.65","0","0"
"Dwight Powell","Dwight-Powell-18566","3500","PF/C","51.66","227","15.0","100.08","20.62","14.00","23.69","12.2","15.39","0","0"
"Shaun Livingston","Shaun-Livingston-14007","3100","PG","41.13","227","15.2","103.10","13.46","16.00","22.0","10.07","13.36","0","0"
"Royce O'Neale","Royce-O'Neale-37872","3200","SF","38.19","218","15.3","98.88","12.60","17.00","20.88","10.13","13.64","0","0"
"Nerlens Noel","Nerlens-Noel-18575","3300","C","52.60","218","14.2","102.62","16.50","14.00","23.5","11.87","13.97","0","0"
"Luka Doncic","Luka-Doncic-408971","8100","SG/SF","44.18","227","31.7","100.08","30.81","32.00","40.12","12.61","34.26","0","0"
"Steven Adams","Steven-Adams-16848","7300","C","52.60","218","32.8","102.62","22.83","33.00","40.47","20.22","30.73","0","0"
"Dante Exum","Dante-Exum-18626","3100","PG/SG","34.40","218","14.9","98.88","18.63","15.00","22.5","10.51","12.83","0","0"
"Terrance Ferguson","Terrance-Ferguson-37871","3200","SG/SF","35.31","218","19.3","102.62","10.91","23.00","20.07","7.89","12.7","0","0"
"Alex Abrines","Alex-Abrines-36054","3000","SG/SF","35.31","218","17.7","102.62","10.89","18.00","22.26","11.39","11.39","0","0"
"Alfonzo McKinnie","Alfonzo-McKinnie-37808","3200","SF/PF","33.50","227","14.8","103.10","17.04","13.00","18.41","9.69","9.69","0","0"
"Jordan Bell","Jordan-Bell-37877","3000","PF/C","48.70","227","10.6","103.10","16.08","10.00","14.97","7.4","8.8","0","0"
"Thabo Sefolosha","Thabo-Sefolosha-1271","3000","SF/PF","38.19","218","11.3","98.88","11.41","10.00","12.93","7.38","8.74","0","0"
"Dirk Nowitzki","Dirk-Nowitzki-1346","3400","PF/C","51.66","227","6.5","100.08","16.57","10.00","14.36","8.19","9.9","0","0"
"Patrick Patterson","Patrick-Patterson-1260","3100","PF/C","52.83","218","13.5","102.62","9.81","13.00","15.03","7.18","8.48","0","0"
"Hamidou Diallo","Hamidou-Diallo-408800","3100","SG/SF","35.31","218","10.3","102.62","19.54","10.00","7.51","1.37","7.43","0","0"
"Maxi Kleber","Maxi-Kleber-37845","3100","PF/C","47.93","227","11.0","100.08","20.33","6.00","8.63","4.35","5.27","0","0"
