"nameCol","idCol","salaryCol","positionCol","dvpCol","ouCol","mpgCol","paceCol","usgCol","pminCol","ceilCol","floorCol","pointsCol","predictCol","actualCol"
"Mario Hezonja","Mario-Hezonja-18923","3200","SF/PF","39.51","224","19.4","100.17","18.34","20.00","31.6","13.39","20.98","0","0"
"Cody Zeller","Cody-Zeller-16836","4000","C","53.91","224","23.5","103.00","15.60","27.00","37.41","15.28","26.16","0","0"
"Nicolas Batum","Nicolas-Batum-1315","5000","SG/SF","38.93","224","28.6","103.00","15.04","31.00","41.56","21.22","30.14","0","0"
"Rudy Gay","Rudy-Gay-1341","5600","SF/PF","47.79","218.5","24.4","99.70","18.28","31.00","42.51","16.6","33.26","0","0"
"Tim Hardaway Jr.","Tim-Hardaway-Jr.-16879","6700","SG/SF","50.08","224","32.4","100.17","24.44","36.00","61.34","23.9","39.83","0","0"
"Danny Green","Danny-Green-940","4000","SG/SF","40.15","230.5","31.7","105.50","11.17","30.00","33.99","16.3","23.62","0","0"
"Noah Vonleh","Noah-Vonleh-18597","5700","PF/C","50.13","224","26.6","100.17","12.19","30.00","46.66","21.52","33","0","0"
"LaMarcus Aldridge","LaMarcus-Aldridge-1349","7300","PF/C","55.98","218.5","27.6","99.70","25.94","34.00","60.99","26.81","42.15","0","0"
"Damyean Dotson","Damyean-Dotson-37795","4300","SG/SF","39.58","224","25.3","100.17","18.58","28.00","41.7","20.75","24.59","0","0"
"Brook Lopez","Brook-Lopez-1498","4600","C","54.87","230.5","28.8","98.80","17.98","28.00","39.35","17.3","26.06","0","0"
"Kyle Lowry","Kyle-Lowry-1057","7600","PG","47.45","230.5","35.2","105.50","19.21","33.00","59.9","23.2","42.33","0","0"
"Jakob Poeltl","Jakob-Poeltl-35187","3900","C","53.87","218.5","17.1","99.70","18.31","24.00","43.14","19.16","21.58","0","0"
"Derrick White","Derrick-White-37858","3700","PG/SG","46.91","218.5","22.4","99.70","17.02","28.00","37.41","17.64","20.44","0","0"
"Jeremy Lamb","Jeremy-Lamb-13955","6200","SG/SF","48.56","224","30.9","103.00","20.07","31.00","44.23","19.41","32.74","0","0"
"Khris Middleton","Khris-Middleton-13990","6600","SG/SF","47.76","230.5","28.2","98.80","25.46","33.00","54.6","24.1","34.58","0","0"
"Emmanuel Mudiay","Emmanuel-Mudiay-18936","6100","PG","42.66","224","27.9","100.17","25.30","32.00","41.41","17.55","31.73","0","0"
"Kemba Walker","Kemba-Walker-13335","8500","PG","49.59","224","33.9","103.00","28.37","36.00","59.35","21.86","44.16","0","0"
"Marco Belinelli","Marco-Belinelli-1033","3400","SG/SF","33.44","218.5","19.3","99.70","19.21","21.00","25.73","13.42","17.56","0","0"
"Ricky Rubio","Ricky-Rubio-1001","6300","PG","46.44","218.5","29.3","98.88","23.57","32.00","44.12","17.36","32.39","0","0"
"Serge Ibaka","Serge-Ibaka-1294","5800","PF/C","43.81","230.5","28.6","105.50","19.02","27.00","41.8","17.03","29.77","0","0"
"Fred VanVleet","Fred-VanVleet-36011","4200","PG/SG","42.67","230.5","21.4","105.50","19.08","21.00","33.31","16.82","21.16","0","0"
"Donovan Mitchell","Donovan-Mitchell-37875","7400","PG/SG","51.55","218.5","31.2","98.88","29.21","36.00","48.78","20.6","37.32","0","0"
"Pascal Siakam","Pascal-Siakam-35186","6000","PF","47.50","230.5","33.0","105.50","17.09","32.00","44.67","17.42","30.14","0","0"
"Patty Mills","Patty-Mills-13977","3900","PG/SG","46.91","218.5","21.7","99.70","19.18","22.00","29.35","15.19","19.5","0","0"
"Enes Kanter","Enes-Kanter-13299","7500","C","56.85","224","28.7","100.17","20.89","26.00","48.59","18.85","37.18","0","0"
"Giannis Antetokounmpo","Giannis-Antetokounmpo-16852","11200","SF/PF","45.13","230.5","34.4","98.80","30.31","36.00","64.87","32.1","55.54","0","0"
"Eric Bledsoe","Eric-Bledsoe-1031","7100","PG/SG","42.63","230.5","30.8","98.80","23.34","33.00","50.83","21.99","34.91","0","0"
"Ersan Ilyasova","Ersan-Ilyasova-1301","3200","PF/C","45.13","230.5","16.0","98.80","22.63","18.00","24.41","12.74","15.71","0","0"
"Joe Ingles","Joe-Ingles-18627","5900","SG/SF","34.26","218.5","27.9","98.88","18.09","31.00","44.11","19.23","28.83","0","0"
"Frank Kaminsky","Frank-Kaminsky-18920","3700","PF/C","61.83","224","16.0","103.00","20.95","19.00","29.64","14.84","17.95","0","0"
"Kawhi Leonard","Kawhi-Leonard-13310","9500","SF/PF","50.07","230.5","36.9","105.50","28.36","35.00","63.83","21.22","46.12","0","0"
"Jonas Valanciunas","Jonas-Valanciunas-13301","5300","C","47.50","230.5","19.0","105.50","23.58","20.00","37.19","19.24","25.65","0","0"
"Marvin Williams","Marvin-Williams-1318","4900","SF/PF","55.10","224","27.8","103.00","16.14","26.00","39.97","20.1","23.68","0","0"
"Jae Crowder","Jae-Crowder-13942","4800","SF/PF","37.70","218.5","25.9","98.88","20.08","28.00","34.16","13.2","23.11","0","0"
"Bryn Forbes","Bryn-Forbes-36052","3500","PG/SG","48.24","218.5","21.1","99.70","19.62","22.00","23.75","10.0","16.45","0","0"
"Derrick Favors","Derrick-Favors-1266","5100","PF/C","50.98","218.5","22.0","98.88","17.90","23.00","40.58","20.1","23.9","0","0"
"Mitchell Robinson","Mitchell-Robinson-408821","3400","C","52.66","224","17.0","100.17","11.52","18.00","16.39","3.12","15.9","0","0"
"Rudy Gobert","Rudy-Gobert-16935","8200","C","53.38","218.5","27.3","98.88","19.57","33.00","52.84","18.39","38.15","0","0"
"Royce O'Neale","Royce-O'Neale-37872","3500","SF","37.70","218.5","21.6","98.88","12.61","20.00","24.07","12.04","16.23","0","0"
"DeMar DeRozan","DeMar-DeRozan-1053","8700","SG/SF","41.09","218.5","32.4","99.70","32.42","35.00","55.19","19.29","40.11","0","0"
"Kevin Knox","Kevin-Knox-408820","4200","SF/PF","50.08","224","21.7","100.17","23.77","26.00","19.93","3.79","19.33","0","0"
"Malcolm Brogdon","Malcolm-Brogdon-35195","5800","PG/SG","46.38","230.5","30.4","98.80","22.19","30.00","37.91","18.65","26.38","0","0"
"Miles Bridges","Miles-Bridges-409262","3900","SF/PF","55.10","224","18.6","103.00","20.52","19.00","18.14","4.46","17.08","0","0"
"Malik Monk","Malik-Monk-37827","3300","PG/SG","49.59","224","14.7","103.00","25.21","16.00","21.67","11.61","14.07","0","0"
"Chimezie Metu","Chimezie-Metu-409136","3000","PF/C","53.87","218.5","7.5","99.70","31.65","16.00","12.7","2.26","12.51","0","0"
"George Hill","George-Hill-993","3600","PG/SG","46.38","230.5","26.0","98.80","12.69","18.00","25.73","12.75","14.88","0","0"
"Courtney Lee","Courtney-Lee-1025","3100","SG/SF","39.51","224","9.3","100.17","16.46","16.00","23.99","12.37","12.37","0","0"
"Delon Wright","Delon-Wright-18907","3300","PG/SG","42.67","230.5","14.3","105.50","17.80","16.00","22.69","11.23","13.1","0","0"
"Tony Parker","Tony-Parker-982","4100","PG","43.54","224","22.2","103.00","26.08","18.00","26.49","15.74","15.74","0","0"
"Michael Kidd-Gilchrist","Michael-Kidd-Gilchrist-13896","3800","SF/PF","38.93","224","18.7","103.00","16.61","17.00","23.86","12.25","14.52","0","0"
"Pat Connaughton","Pat-Connaughton-18939","3500","SG/SF","37.26","230.5","25.2","98.80","13.87","18.00","24.05","10.56","12.91","0","0"
"Kyle Korver","Kyle-Korver-1269","3300","SG/SF","34.26","218.5","17.6","98.88","20.39","15.00","20.02","9.05","11.41","0","0"
"OG Anunoby","OG-Anunoby-37807","3300","SF/PF","40.15","230.5","16.3","105.50","17.68","16.00","21.3","11.31","11.31","0","0"
"Thabo Sefolosha","Thabo-Sefolosha-1271","3000","SF/PF","37.70","218.5","10.0","98.88","11.61","11.00","13.72","7.66","9.06","0","0"
"C.J. Miles","C.J.-Miles-1299","3100","SG/SF","40.15","230.5","10.4","105.50","19.03","10.00","15.2","7.43","9.22","0","0"
"Thon Maker","Thon-Maker-35194","3200","PF/C","48.67","230.5","12.2","98.80","15.12","12.00","15.66","7.59","9.32","0","0"
"Dante Exum","Dante-Exum-18626","3200","PG","46.44","218.5","12.3","98.88","26.86","11.00","15.62","7.14","9.04","0","0"
"Tony Snell","Tony-Snell-16872","3400","SG/SF","37.66","230.5","17.4","98.80","16.63","14.00","14.2","7.15","8.37","0","0"
"Frank Ntilikina","Frank-Ntilikina-37796","3200","PG/SF","42.66","224","14.0","100.17","17.76","8.00","9.96","5.67","6.55","0","0"
"Quincy Pondexter","Quincy-Pondexter-1237","3000","SF","29.42","218.5","10.0","99.70","14.39","8.00","11.44","6.07","6.07","0","0"
"Sterling Brown","Sterling-Brown-37821","3100","SG/SF","37.26","230.5","15.2","98.80","11.28","1.00","1.54","0.82","0.82","0","0"
"Donte DiVincenzo","Donte-DiVincenzo-408950","3200","PG/SG","37.26","230.5","12.8","98.80","14.37","1.00","0.6","0.11","0.59","0","0"
