"nameCol","idCol","salaryCol","positionCol","dvpCol","ouCol","mpgCol","paceCol","usgCol","pminCol","ceilCol","floorCol","pointsCol","predictCol","actualCol"
"De'Anthony Melton","De'Anthony-Melton-409081","4900","PG/SG","54.72","209.5","21.7","108.80","24.70","33.00","35.85","13.22","32.47","0","0"
"Jonathan Isaac","Jonathan-Isaac-37841","4200","SF/PF","66.62","210","25.6","105.10","14.46","28.00","42.18","23.02","25.64","0","0"
"Eric Gordon","Eric-Gordon-1077","4800","SG/SF","51.19","225.5","30.5","101.42","19.70","36.00","41.66","19.54","28.65","0","0"
"Josh Hart","Josh-Hart-37889","4200","PG/SG","38.39","225.5","26.1","112.50","12.45","33.00","33.71","16.77","24.27","0","0"
"D.J. Augustin","D.J.-Augustin-1064","4000","PG","46.86","210","26.4","105.10","17.04","28.00","36.71","13.32","22.96","0","0"
"Lonzo Ball","Lonzo-Ball-37885","5600","PG","40.08","225.5","32.3","112.50","19.20","35.00","42.49","16.11","31.71","0","0"
"TJ Warren","TJ-Warren-18634","5800","SF/PF","47.71","209.5","18.0","108.80","29.36","32.00","42.67","18.66","32.45","0","0"
"LaMarcus Aldridge","LaMarcus-Aldridge-1349","7500","PF/C","55.21","222","27.4","99.70","27.79","33.00","60.37","26.53","41.72","0","0"
"Shai Gilgeous-Alexander","Shai-Gilgeous-Alexander-408990","4700","PG/SG","51.20","222","25.7","108.38","16.86","32.00","30.42","9.56","25.98","0","0"
"JaVale McGee","JaVale-McGee-1485","4500","C","54.17","225.5","20.0","112.50","20.01","23.00","35.71","15.48","24.85","0","0"
"Avery Bradley","Avery-Bradley-941","3500","SG","33.51","222","31.7","108.38","14.08","33.00","28.56","12.51","19.13","0","0"
"Josh Jackson","Josh-Jackson-37890","5200","SF/PF","47.71","209.5","29.4","108.80","26.52","30.00","39.86","17.77","28.39","0","0"
"Wesley Matthews","Wesley-Matthews-1339","4600","SG/SF","35.43","209.5","28.1","100.08","19.32","32.00","37.53","15.9","25.12","0","0"
"Wendell Carter","Wendell-Carter-408878","5200","PF/C","51.07","210","25.8","104.50","18.09","30.00","29.15","5.84","28.19","0","0"
"Patrick Beverley","Patrick-Beverley-14108","3600","PG/SG","46.45","222","20.7","108.38","14.13","25.00","37.05","19.38","19.38","0","0"
"Nikola Vucevic","Nikola-Vucevic-13296","8900","C","66.62","210","30.2","105.10","27.65","33.00","59.61","21.99","47.5","0","0"
"Deandre Ayton","Deandre-Ayton-409301","7200","C","51.85","209.5","26.9","108.80","21.99","31.00","42.37","15.62","38.38","0","0"
"P.J. Tucker","P.J.-Tucker-13947","3800","SF/PF","37.48","225.5","29.3","101.42","9.62","34.00","38.39","16.76","19.86","0","0"
"Tobias Harris","Tobias-Harris-13332","7300","SF/PF","53.44","222","33.1","108.38","24.87","36.00","51.31","21.11","38.18","0","0"
"Justin Holiday","Justin-Holiday-14559","5100","SG/SF","41.89","210","31.3","104.50","17.15","34.00","38.57","17.77","26.56","0","0"
"Trevor Ariza","Trevor-Ariza-1323","5000","SF/PF","37.66","209.5","30.8","108.80","16.20","28.00","34.12","13.09","25.93","0","0"
"Clint Capela","Clint-Capela-18610","8200","C","56.45","225.5","30.2","101.42","20.80","34.00","63.51","24.77","42.2","0","0"
"Derrick White","Derrick-White-37858","3800","PG/SG","43.11","222","24.0","99.70","16.58","23.00","31.52","16.27","19.53","0","0"
"DeAndre Jordan","DeAndre-Jordan-1486","7000","C","60.06","209.5","30.0","100.08","14.54","31.00","44.56","21.51","35.91","0","0"
"Jerian Grant","Jerian-Grant-18900","3200","PG","46.86","210","19.8","105.10","10.61","20.00","27.02","14.13","16.09","0","0"
"DeMar DeRozan","DeMar-DeRozan-1053","8500","SG/SF","47.89","222","32.6","99.70","32.21","35.00","58.55","20.47","42.55","0","0"
"Danilo Gallinari","Danilo-Gallinari-1329","6600","SF/PF","53.44","222","31.4","108.38","22.06","33.00","47.19","19.42","33.09","0","0"
"Harrison Barnes","Harrison-Barnes-13901","5900","SF/PF","52.15","209.5","31.7","100.08","25.66","33.00","37.61","16.91","29.36","0","0"
"James Harden","James-Harden-1037","10900","PG/SG","50.89","225.5","31.5","101.42","36.20","36.00","62.28","19.68","53.92","0","0"
"Mohamed Bamba","Mohamed-Bamba-409026","3500","C","56.08","210","15.8","105.10","19.81","15.00","17.59","3.14","17.33","0","0"
"Montrezl Harrell","Montrezl-Harrell-18930","6000","PF/C","49.85","222","24.9","108.38","20.44","26.00","44.01","23.02","29.48","0","0"
"Kentavious Caldwell-Pope","Kentavious-Caldwell-Pope-16869","3900","SG/SF","38.39","225.5","22.9","112.50","17.37","26.00","35.96","16.67","19.12","0","0"
"Evan Fournier","Evan-Fournier-13913","5700","SG/SF","35.34","210","31.2","105.10","19.43","31.00","35.21","14.34","27.79","0","0"
"LeBron James","LeBron-James-1227","11000","SF/PF","43.56","225.5","34.7","112.50","35.93","36.00","68.45","21.26","53.56","0","0"
"Richaun Holmes","Richaun-Holmes-18905","3800","PF/C","47.58","209.5","20.1","108.80","19.95","17.00","31.59","12.99","18.45","0","0"
"J.J. Barea","J.J.-Barea-18605","4400","PG/SG","53.88","209.5","18.0","100.08","33.08","18.00","31.71","15.23","21.03","0","0"
"Bobby Portis","Bobby-Portis-18909","5300","PF/C","51.07","210","18.0","104.50","22.69","23.00","47.23","21.45","25.35","0","0"
"Dennis Smith Jr.","Dennis-Smith-Jr.-37847","5500","PG","53.88","209.5","29.7","100.08","22.73","29.00","36.18","14.99","26.29","0","0"
"Zach LaVine","Zach-LaVine-18622","7400","PG/SG","49.05","210","31.0","104.50","27.01","34.00","49.71","21.48","35.33","0","0"
"Aaron Gordon","Aaron-Gordon-18601","7800","SF/PF","49.84","210","34.2","105.10","22.64","34.00","47.34","20.1","36.81","0","0"
"Chris Paul","Chris-Paul-1087","8600","PG","50.89","225.5","31.5","101.42","24.94","34.00","53.59","19.78","40.29","0","0"
"Patty Mills","Patty-Mills-13977","3600","PG/SG","43.11","222","23.1","99.70","17.97","22.00","25.34","13.12","16.84","0","0"
"Lauri Markkanen","Lauri-Markkanen-37809","6500","PF","49.83","210","26.2","104.50","27.09","32.00","43.35","19.72","30.25","0","0"
"Tyson Chandler","Tyson-Chandler-1482","3600","C","54.17","225.5","22.3","112.50","7.36","21.00","32.32","16.73","16.73","0","0"
"Marco Belinelli","Marco-Belinelli-1033","3500","SG/SF","33.56","222","19.7","99.70","17.92","20.00","23.45","12.23","16.01","0","0"
"Gerald Green","Gerald-Green-13374","3700","SG/SF","51.19","225.5","18.3","101.42","16.60","21.00","29.2","13.68","16.87","0","0"
"Marcin Gortat","Marcin-Gortat-1479","3600","C","53.34","222","17.8","108.38","14.91","19.00","23.95","9.7","16.24","0","0"
"Lance Stephenson","Lance-Stephenson-947","3200","SG/SF","45.11","225.5","10.0","112.50","24.35","16.00","24.72","11.48","14.38","0","0"
"Terrence Ross","Terrence-Ross-13902","5500","SG/SF","35.34","210","28.0","105.10","20.67","29.00","37.76","20.77","24.41","0","0"
"Mikal Bridges","Mikal-Bridges-408842","3800","SG/SF","37.66","209.5","29.9","108.80","14.32","24.00","18.61","6.86","16.86","0","0"
"Luka Doncic","Luka-Doncic-408971","7700","SG/SF","48.37","209.5","29.2","100.08","27.44","33.00","39.94","12.55","34.11","0","0"
"Kyle Kuzma","Kyle-Kuzma-37886","7600","SF/PF","43.56","225.5","35.1","112.50","23.46","37.00","43.6","18.61","33.54","0","0"
"Rudy Gay","Rudy-Gay-1341","6200","SF/PF","54.04","222","27.7","99.70","19.59","28.00","34.8","13.59","27.23","0","0"
"Bryn Forbes","Bryn-Forbes-36052","4300","PG/SG","52.64","222","23.1","99.70","18.64","25.00","27.23","11.47","18.86","0","0"
"Nene Hilario","Nene-Hilario-17321","3200","C","56.45","225.5","14.4","101.42","14.18","15.00","22.63","11.99","13.89","0","0"
"Ryan Arcidiacono","Ryan-Arcidiacono-36050","3500","PG","37.93","210","26.5","104.50","9.52","25.00","23.7","9.73","15.16","0","0"
"Kris Dunn","Kris-Dunn-35215","5500","PG/SG","49.05","210","20.0","104.50","20.60","23.00","36.8","19.98","23.26","0","0"
"Davis Bertans","Davis-Bertans-36051","3500","PF/C","55.21","222","20.2","99.70","13.24","18.00","25.01","11.52","14.4","0","0"
"Danuel House","Danuel-House-36029","3400","SF/PF","50.89","225.5","17.0","101.42","15.22","18.00","22.59","10.37","13.64","0","0"
"Dorian Finney-Smith","Dorian-Finney-Smith-36032","3700","SF/PF","35.40","209.5","25.1","100.08","12.33","20.00","22.97","11.08","14.6","0","0"
"Jonathon Simmons","Jonathon-Simmons-31808","3900","SG/SF","44.53","210","21.6","105.10","14.64","22.00","23.26","10.07","15.21","0","0"
"Jabari Parker","Jabari-Parker-18593","5400","SF/PF","49.83","210","26.5","104.50","24.27","23.00","36.2","17.88","21.01","0","0"
"Jakob Poeltl","Jakob-Poeltl-35187","4100","C","58.70","222","17.3","99.70","16.40","16.00","31.56","14.02","15.79","0","0"
"Devin Harris","Devin-Harris-1076","3300","PG/SG","53.88","209.5","15.3","100.08","13.96","15.00","22.11","12.49","12.49","0","0"
"Dante Cunningham","Dante-Cunningham-1259","3700","SF/PF","54.04","222","22.0","99.70","8.68","20.00","24.36","10.38","12.99","0","0"
"Brandon Knight","Brandon-Knight-13336","3000","PG/SG","50.89","225.5","0","101.42","0","12.00","14.63","7.65","10.51","0","0"
"Jawun Evans","Jawun-Evans-37882","3400","PG/SG","54.72","209.5","26.0","108.80","16.91","15.00","21.65","11.56","11.56","0","0"
"Milos Teodosic","Milos-Teodosic-37883","3000","PG","46.45","222","9.2","108.38","25.90","12.00","19.59","8.92","9.88","0","0"
"Jamal Crawford","Jamal-Crawford-1075","3500","PG/SG","47.71","209.5","21.8","108.80","24.00","15.00","19.85","11.31","11.31","0","0"
"Mike Scott","Mike-Scott-13999","3400","SF/PF","53.44","222","14.9","108.38","17.33","14.00","21.53","12.67","10.77","0","0"
"Dirk Nowitzki","Dirk-Nowitzki-1346","4100","PF/C","54.89","209.5","0","100.08","0","12.00","15.65","8.92","10.79","0","0"
"Sviatoslav Mykhailiuk","Sviatoslav-Mykhailiuk-409280","3000","SG/SF","33.90","225.5","10.7","112.50","19.09","13.00","7.97","1.46","7.88","0","0"
"Robin Lopez","Robin-Lopez-1466","3000","C","53.27","210","13.8","104.50","20.21","8.00","14.39","7.2","7.2","0","0"
"Maxi Kleber","Maxi-Kleber-37845","3100","PF","52.15","209.5","17.0","100.08","18.74","8.00","11.46","5.78","7","0","0"
"Shaquille Harrison","Shaquille-Harrison-36065","3300","PG","37.93","210","16.0","104.50","17.03","8.00","10.36","5.1","6.5","0","0"
"Dwight Powell","Dwight-Powell-18566","3600","PF/C","54.89","209.5","17.1","100.08","22.70","6.00","9.97","5.14","6.48","0","0"
"Dragan Bender","Dragan-Bender-35228","3000","PF/C","51.85","209.5","14.8","108.80","13.69","8.00","8.81","5.01","5.01","0","0"
"Troy Daniels","Troy-Daniels-17383","3500","SG","34.58","209.5","21.4","108.80","18.42","7.00","8.78","4.85","4.85","0","0"
"Tyrone Wallace","Tyrone-Wallace-35220","3200","PG/SG","49.26","222","9.2","108.38","24.59","6.00","6.56","4.11","4.11","0","0"
"Boban Marjanovic","Boban-Marjanovic-31807","4000","C","53.34","222","11.6","108.38","27.52","4.00","9.59","4.79","4.91","0","0"
"Jalen Brunson","Jalen-Brunson-409062","4300","PG","44.57","209.5","19.2","100.08","16.62","3.00","2.1","0.48","1.98","0","0"
