"nameCol","idCol","salaryCol","positionCol","dvpCol","ouCol","mpgCol","paceCol","usgCol","pminCol","ceilCol","floorCol","pointsCol","predictCol","actualCol"
"Dennis Schroder","Dennis-Schroder-18595","5300","PG/SG","53.30","225.5","0","102.62","0","36.00","56.94","29.35","37.34","0","0"
"Davis Bertans","Davis-Bertans-36051","3500","PF/C","54.47","216","21.3","99.70","13.00","25.00","35.57","17.91","22.36","0","0"
"Josh Hart","Josh-Hart-37889","4200","PG/SG","0","229","0","112.50","0","32.00","36.73","18.54","26.71","0","0"
"Kentavious Caldwell-Pope","Kentavious-Caldwell-Pope-16869","3800","SG/SF","0","229","0","112.50","0","28.00","43.93","23.05","23.05","0","0"
"Hamidou Diallo","Hamidou-Diallo-408800","3100","SG/SF","0","225.5","10.7","102.62","19.76","24.00","19.76","4.55","18.66","0","0"
"Nikola Jokic","Nikola-Jokic-31812","8800","C","0","216","0","99.62","0","35.00","67.31","21.87","52.96","0","0"
"Lonzo Ball","Lonzo-Ball-37885","5900","PG","43.21","229","31.4","112.50","19.63","36.00","46.94","17.82","35.29","0","0"
"Josh Jackson","Josh-Jackson-37890","4400","SF/PF","0","225.5","0","108.80","0","24.00","36.46","16.8","26.12","0","0"
"Mason Plumlee","Mason-Plumlee-16798","5200","PF/C","0","216","27.2","99.62","16.37","30.00","43.81","21.78","30.68","0","0"
"Patrick Beverley","Patrick-Beverley-14108","3800","PG/SG","35.60","229","0","108.38","0","23.00","42.6","22.28","22.28","0","0"
"Jamal Murray","Jamal-Murray-35211","6600","PG/SG","51.64","216","0","99.62","0","35.00","55.54","22.83","37.99","0","0"
"Terrance Ferguson","Terrance-Ferguson-37871","3100","SG/SF","0","225.5","18.3","102.62","11.55","30.00","28.36","11.08","17.79","0","0"
"Kelly Oubre","Kelly-Oubre-18925","4600","SG/SF","38.34","225.5","0","108.80","0","28.00","46.11","21.43","26.2","0","0"
"Rudy Gay","Rudy-Gay-1341","5700","SF/PF","0","216","0","99.70","0","28.00","41.55","16.05","32.16","0","0"
"Mikal Bridges","Mikal-Bridges-408842","4100","SG/SF","38.34","225.5","34.7","108.80","10.20","32.00","26.22","7.12","22.96","0","0"
"Patty Mills","Patty-Mills-13977","3300","PG/SG","0","216","20.5","99.70","15.66","21.00","28.08","14.43","18.41","0","0"
"Jerami Grant","Jerami-Grant-18576","4800","PF","49.61","225.5","0","102.62","0","32.00","41.19","18.91","26.49","0","0"
"Tyson Chandler","Tyson-Chandler-1482","3500","C","57.96","229","0","112.50","0","21.00","36.56","19.24","19.24","0","0"
"Russell Westbrook","Russell-Westbrook-1083","10900","PG","53.30","225.5","0","102.62","0","38.00","66.42","20.43","59.73","0","0"
"De'Anthony Melton","De'Anthony-Melton-409081","3500","PG","48.63","225.5","0","108.80","0","20.00","21.86","5.93","19.14","0","0"
"Juan Hernangomez","Juan-Hernangomez-35212","4800","SF/PF","0","216","0","99.62","0","33.00","43.29","17.5","26.08","0","0"
"LaMarcus Aldridge","LaMarcus-Aldridge-1349","7000","PF/C","54.47","216","0","99.70","0","33.00","54.7","24.79","37.96","0","0"
"Steven Adams","Steven-Adams-16848","6800","C","0","225.5","0","102.62","0","34.00","48.08","24.02","36.51","0","0"
"Trey Lyles","Trey-Lyles-18942","3700","SF/PF","0","216","19.0","99.62","20.08","18.00","30.8","16.24","19.59","0","0"
"TJ Warren","TJ-Warren-18634","6300","SF/PF","0","225.5","0","108.80","0","33.00","43.53","18.94","33.05","0","0"
"Brandon Ingram","Brandon-Ingram-35227","6300","PG/SG","0","229","0","112.50","0","36.00","49.67","20.3","32.85","0","0"
"Devin Booker","Devin-Booker-18949","8500","PG/SG","48.63","225.5","38.7","108.80","33.48","34.00","65.31","23.88","43.98","0","0"
"Derrick White","Derrick-White-37858","3800","PG/SG","0","216","24.5","99.70","15.85","28.00","31.27","16.27","19.51","0","0"
"Deandre Ayton","Deandre-Ayton-409301","7300","C","49.33","225.5","31.7","108.80","21.68","32.00","42.52","11.54","37.23","0","0"
"Shai Gilgeous-Alexander","Shai-Gilgeous-Alexander-408990","4400","PG/SG","35.60","229","27.0","108.38","15.53","26.00","25.97","8.16","22.18","0","0"
"Pau Gasol","Pau-Gasol-1502","3500","C","54.47","216","0","99.70","0","15.00","17.52","17.52","17.52","0","0"
"Marco Belinelli","Marco-Belinelli-1033","3600","SG/SF","0","216","0","99.70","0","22.00","25.51","12.51","17.84","0","0"
"Tobias Harris","Tobias-Harris-13332","7600","SF/PF","44.57","229","33.8","108.38","23.83","34.00","50.51","20.78","37.58","0","0"
"Danilo Gallinari","Danilo-Gallinari-1329","6700","SF/PF","44.57","229","31.0","108.38","25.28","32.00","47.04","19.37","32.99","0","0"
"Jamal Crawford","Jamal-Crawford-1075","3400","PG/SG","0","225.5","0","108.80","0","20.00","29.0","16.59","16.59","0","0"
"Kyle Kuzma","Kyle-Kuzma-37886","7700","SF/PF","54.38","229","0","112.50","0","38.00","48.38","21.01","37.39","0","0"
"Avery Bradley","Avery-Bradley-941","3900","SG","0","229","0","108.38","0","30.00","28.1","12.31","18.82","0","0"
"Torrey Craig","Torrey-Craig-37861","3700","SG/SF","38.35","216","30.8","99.62","11.94","27.00","24.9","10.52","17.8","0","0"
"Nerlens Noel","Nerlens-Noel-18575","3200","C","0","225.5","13.0","102.62","11.12","14.00","25.17","12.82","15.07","0","0"
"DeMar DeRozan","DeMar-DeRozan-1053","8100","SG/SF","45.26","216","0","99.70","0","34.00","51.49","17.96","38.14","0","0"
"Bryn Forbes","Bryn-Forbes-36052","4200","PG/SG","50.17","216","0","99.70","0","28.00","28.17","11.86","19.51","0","0"
"Montrezl Harrell","Montrezl-Harrell-18930","6400","PF/C","0","229","0","108.38","0","27.00","44.15","23.09","29.57","0","0"
"Lance Stephenson","Lance-Stephenson-947","4400","SG/SF","0","229","0","112.50","0","20.00","34.35","16.13","20.24","0","0"
"Monte Morris","Monte-Morris-37860","4700","PG","51.64","216","28.0","99.62","19.94","27.00","32.12","17.23","21.43","0","0"
"Richaun Holmes","Richaun-Holmes-18905","3600","PF/C","49.33","225.5","18.7","108.80","15.23","15.00","26.95","10.96","16.1","0","0"
"Lou Williams","Lou-Williams-1044","6600","PG/SG","49.68","229","0","108.38","0","25.00","43.83","17.59","28.74","0","0"
"Malik Beasley","Malik-Beasley-35213","4000","PG/SG","38.35","216","0","99.62","0","25.00","30.43","16.84","16.84","0","0"
"Boban Marjanovic","Boban-Marjanovic-31807","3700","C","56.54","229","10.0","108.38","23.84","13.00","22.69","8.01","15.56","0","0"
"Patrick Patterson","Patrick-Patterson-1260","3000","PF/C","54.97","225.5","10.7","102.62","12.02","18.00","21.63","10.37","12.24","0","0"
"Mike Scott","Mike-Scott-13999","3300","SF/PF","44.57","229","15.5","108.38","15.85","15.00","25.45","14.97","12.73","0","0"
"Ivica Zubac","Ivica-Zubac-35226","5900","C","57.96","229","19.0","112.50","16.36","24.00","31.9","16.34","20.15","0","0"
"Abdel Nader","Abdel-Nader-35179","3000","PF","0","225.5","4.7","102.62","17.74","14.00","17.96","9.03","9.03","0","0"
"Nick Young","Nick-Young-1063","3000","SG/SF","33.68","216","0","99.62","0","10.00","13.05","7.81","7.81","0","0"
"Marcin Gortat","Marcin-Gortat-1479","3300","C","56.54","229","14.6","108.38","14.04","8.00","13.71","6.6","8.12","0","0"
"Jakob Poeltl","Jakob-Poeltl-35187","3400","C","49.97","216","19.5","99.70","13.51","6.00","10.95","4.86","5.48","0","0"
"Tyrone Wallace","Tyrone-Wallace-35220","3300","PG/SG","49.68","229","13.8","108.38","17.45","7.00","8.27","5.18","5.18","0","0"
"Alex Caruso","Alex-Caruso-37888","3000","PG/SG","54.39","229","3.0","112.50","0.00","4.00","3.73","1.72","2.7","0","0"
"Elie Okobo","Elie-Okobo-409300","3000","PG","0","225.5","0","108.80","0","2.00","1.64","0.35","1.51","0","0"
"Sviatoslav Mykhailiuk","Sviatoslav-Mykhailiuk-409280","3000","SG/SF","34.16","229","0","112.50","0","1.00","0.74","0.13","0.73","0","0"
