"nameCol","idCol","salaryCol","positionCol","dvpCol","ouCol","mpgCol","paceCol","usgCol","pminCol","ceilCol","floorCol","pointsCol","predictCol","actualCol"
"Jonas Jerebko","Jonas-Jerebko-1106","3500","PF/C","53.52","234","23.7","103.10","17.69","24.00","39.33","16.06","21.56","0","0"
"Draymond Green","Draymond-Green-13976","6400","PF/C","0","234","0","103.10","0","35.00","45.92","16.66","37.7","0","0"
"Tyus Jones","Tyus-Jones-18938","4300","PG","0","223","0","100.67","0","29.00","44.35","24.34","25.27","0","0"
"Andrew Wiggins","Andrew-Wiggins-18620","6000","SG/SF","0","223","0","100.67","0","35.00","43.63","19.0","33.33","0","0"
"Shai Gilgeous-Alexander","Shai-Gilgeous-Alexander-408990","4700","PG/SG","38.19","234","0","108.38","0","27.00","30.61","9.62","26.14","0","0"
"Jerami Grant","Jerami-Grant-18576","4500","PF","0","223","0","102.62","0","27.00","39.61","16.53","24.79","0","0"
"Kevin Durant","Kevin-Durant-1348","9400","SF/PF","53.52","234","0","103.10","0","35.00","67.7","23.86","51.21","0","0"
"Klay Thompson","Klay-Thompson-13315","6500","SG","0","234","0","103.10","0","35.00","44.97","19.98","34.75","0","0"
"Stephen Curry","Stephen-Curry-1079","9700","PG/SG","53.34","234","0","103.10","0","35.00","71.84","26.77","51.39","0","0"
"Karl-Anthony Towns","Karl-Anthony-Towns-18937","8900","C","0","223","0","100.67","0","35.00","62.73","25.67","46.85","0","0"
"Russell Westbrook","Russell-Westbrook-1083","11000","PG","0","223","0","102.62","0","35.00","64.74","19.48","57.8","0","0"
"Danilo Gallinari","Danilo-Gallinari-1329","6900","SF/PF","0","234","0","108.38","0","34.00","49.75","20.48","34.89","0","0"
"Dario Saric","Dario-Saric-36004","5000","PF","0","223","27.7","100.67","16.25","29.00","42.3","20.57","25.24","0","0"
"Paul George","Paul-George-1245","9200","SF/PF","0","223","0","102.62","0","37.00","63.63","28.08","45.58","0","0"
"Andre Iguodala","Andre-Iguodala-1334","3400","SG/SF","0","234","0","103.10","0","19.00","25.02","9.68","16.46","0","0"
"Josh Okogie","Josh-Okogie-409174","4100","SG/SF","0","223","15.8","100.67","14.47","28.00","21.07","5.18","19.84","0","0"
"Robert Covington","Robert-Covington-16874","6300","SF/PF","0","223","30.5","100.67","17.34","35.00","44.08","19.39","30.21","0","0"
"Tobias Harris","Tobias-Harris-13332","7600","SF/PF","0","234","0","108.38","0","34.00","48.91","20.12","36.39","0","0"
"Kevon Looney","Kevon-Looney-18945","3600","PF/C","58.35","234","0","103.10","0","18.00","24.61","10.94","17.2","0","0"
"Lou Williams","Lou-Williams-1044","6400","PG/SG","0","234","16.7","108.38","32.71","25.00","45.7","18.34","29.97","0","0"
"Alex Abrines","Alex-Abrines-36054","3000","SG/SF","0","223","17.3","102.62","10.87","20.00","26.4","13.96","13.96","0","0"
"Avery Bradley","Avery-Bradley-941","3700","SG","41.67","234","0","108.38","0","28.00","25.63","11.23","17.17","0","0"
"Gorgui Dieng","Gorgui-Dieng-16939","3300","PF/C","0","223","0","100.67","0","15.00","23.32","10.96","15.12","0","0"
"Montrezl Harrell","Montrezl-Harrell-18930","6100","PF/C","0","234","22.6","108.38","22.29","28.00","41.57","21.74","27.84","0","0"
"Dennis Schroder","Dennis-Schroder-18595","5500","PG/SG","0","223","0","102.62","0","28.00","32.46","22.47","24.97","0","0"
"Patrick Beverley","Patrick-Beverley-14108","4200","PG/SG","38.19","234","25.7","108.38","13.55","23.00","36.33","19","19","0","0"
"Taj Gibson","Taj-Gibson-1277","4200","PF/C","0","223","19.8","100.67","17.00","22.00","26.05","9.67","18.81","0","0"
"Nerlens Noel","Nerlens-Noel-18575","3300","C","0","223","0","102.62","0","14.00","25.76","12.33","14.49","0","0"
"Terrance Ferguson","Terrance-Ferguson-37871","3200","SG/SF","0","223","0","102.62","0","23.00","23.38","9.67","14.01","0","0"
"Shaun Livingston","Shaun-Livingston-14007","3100","PG","0","234","0","103.10","0","16.00","21.89","10.12","13.38","0","0"
"Steven Adams","Steven-Adams-16848","7400","C","0","223","0","102.62","0","32.00","42.49","19.53","31.71","0","0"
"Marcin Gortat","Marcin-Gortat-1479","3400","C","0","234","0","108.38","0","12.00","16.92","6.85","11.47","0","0"
"Mike Scott","Mike-Scott-13999","3300","SF/PF","0","234","0","108.38","0","12.00","20.57","12.1","10.29","0","0"
"Jordan Bell","Jordan-Bell-37877","3000","PF/C","58.35","234","9.3","103.10","16.64","10.00","15.76","7.71","9.18","0","0"
"Hamidou Diallo","Hamidou-Diallo-408800","3100","SG/SF","0","223","0","102.62","0","10.00","9.2","1.94","8.48","0","0"
"Tyrone Wallace","Tyrone-Wallace-35220","3400","PG/SG","0","234","0","108.38","0","12.00","14.8","9.27","9.27","0","0"
"Patrick Patterson","Patrick-Patterson-1260","3100","PF/C","0","223","0","102.62","0","13.00","14.73","7.11","8.42","0","0"
"Alfonzo McKinnie","Alfonzo-McKinnie-37808","3200","SF/PF","0","234","0","103.10","0","13.00","16.49","8.61","8.61","0","0"
"Jerryd Bayless","Jerryd-Bayless-1021","3000","PG/SG","0","223","0","100.67","0","8.00","8.4","4.93","4.93","0","0"
"Boban Marjanovic","Boban-Marjanovic-31807","3700","C","0","234","0","108.38","0","5.00","10.86","5.42","5.56","0","0"
