"nameCol","idCol","salaryCol","positionCol","dvpCol","ouCol","mpgCol","paceCol","usgCol","pminCol","ceilCol","floorCol","pointsCol","predictCol","actualCol"
"Patrick Beverley","Patrick-Beverley-14108","3600","PG/SG","41.84","220.5","20.3","108.38","14.52","28.00","45.34","25.12","25.12","0","0"
"De'Anthony Melton","De'Anthony-Melton-409081","4300","PG/SG","51.74","217.5","19.8","108.80","23.83","30.00","34.69","10.9","29.62","0","0"
"Eric Gordon","Eric-Gordon-1077","4500","SG/SF","45.43","219.5","29.7","101.42","21.31","32.00","40.53","18.54","28.01","0","0"
"Marco Belinelli","Marco-Belinelli-1033","3500","SG/SF","35.47","217.5","19.3","99.70","18.30","24.00","31.05","16.0","20.91","0","0"
"Josh Jackson","Josh-Jackson-37890","5500","SF/PF","49.86","217.5","26.5","108.80","26.67","31.00","46.21","20.72","32.43","0","0"
"Derrick White","Derrick-White-37858","3800","PG/SG","45.35","217.5","23.4","99.70","16.29","28.00","39.43","16.78","21.71","0","0"
"Avery Bradley","Avery-Bradley-941","3700","SG","37.18","220.5","32.7","108.38","13.94","32.00","30.33","12.77","20.83","0","0"
"Patty Mills","Patty-Mills-13977","3900","PG/SG","45.35","217.5","22.3","99.70","18.83","23.00","33.06","16.95","21.82","0","0"
"LaMarcus Aldridge","LaMarcus-Aldridge-1349","8100","PF/C","54.97","217.5","27.4","99.70","26.10","34.00","64.13","28.0","44.17","0","0"
"Evan Turner","Evan-Turner-1291","4200","SG/SF","45.93","219.5","24.8","104.50","17.49","29.00","34.33","18.93","22.78","0","0"
"Shai Gilgeous-Alexander","Shai-Gilgeous-Alexander-408990","4900","PG/SG","46.23","220.5","26.7","108.38","18.20","32.00","29.88","8.06","26.35","0","0"
"Clint Capela","Clint-Capela-18610","7700","C","51.68","219.5","31.0","101.42","19.74","35.00","60.53","23.76","40.27","0","0"
"Danilo Gallinari","Danilo-Gallinari-1329","6500","SF/PF","46.22","220.5","33.3","108.38","21.70","33.00","46.74","18.7","33.58","0","0"
"Fred VanVleet","Fred-VanVleet-36011","4400","PG/SG","41.62","220.5","22.6","105.50","18.48","24.00","36.27","18.64","22.71","0","0"
"Danny Green","Danny-Green-940","4600","SG/SF","34.96","220.5","32.3","105.50","11.50","30.00","33.44","16.39","23.58","0","0"
"Tobias Harris","Tobias-Harris-13332","7400","SF/PF","46.22","220.5","34.9","108.38","25.07","35.00","50.23","20.25","37.85","0","0"
"Mikal Bridges","Mikal-Bridges-408842","4000","SG/SF","37.41","217.5","26.9","108.80","14.17","30.00","23.94","7.52","20.44","0","0"
"Al-Farouq Aminu","Al-Farouq-Aminu-1279","4700","SF/PF","33.72","219.5","30.5","104.50","13.31","29.00","36.83","17.95","23.96","0","0"
"Kyle Lowry","Kyle-Lowry-1057","7200","PG","52.70","220.5","35.0","105.50","18.16","34.00","51.9","19.77","36.55","0","0"
"Jonas Valanciunas","Jonas-Valanciunas-13301","4800","C","58.80","220.5","17.4","105.50","25.31","19.00","42.75","21.0","24.22","0","0"
"Jakob Poeltl","Jakob-Poeltl-35187","4100","C","60.32","217.5","17.3","99.70","17.28","21.00","40.21","18.1","20.38","0","0"
"P.J. Tucker","P.J.-Tucker-13947","4000","SF/PF","39.83","219.5","30.2","101.42","9.42","33.00","38.57","16.64","19.74","0","0"
"Chris Paul","Chris-Paul-1087","7800","PG","46.18","219.5","31.2","101.42","25.14","33.00","50.83","18.9","38.42","0","0"
"James Harden","James-Harden-1037","10700","PG/SG","46.18","219.5","32.3","101.42","36.33","37.00","60.93","19.31","52.75","0","0"
"DeMar DeRozan","DeMar-DeRozan-1053","9200","SG/SF","48.78","217.5","33.0","99.70","32.60","36.00","62.49","21.78","45.38","0","0"
"Jusuf Nurkic","Jusuf-Nurkic-18619","7500","C","54.06","219.5","28.8","104.50","23.85","28.00","48.49","20.64","36.79","0","0"
"Damian Lillard","Damian-Lillard-13900","9700","PG","48.10","219.5","36.2","104.50","31.58","36.00","58.69","22.34","46.07","0","0"
"Richaun Holmes","Richaun-Holmes-18905","4100","PF/C","53.30","217.5","19.8","108.80","19.46","19.00","33.66","14.75","19.49","0","0"
"Dante Cunningham","Dante-Cunningham-1259","3700","SF/PF","52.30","217.5","21.8","99.70","8.13","22.00","28.26","11.85","17.55","0","0"
"C.J. McCollum","C.J.-McCollum-17121","6800","PG/SG","45.93","219.5","36.2","104.50","25.49","35.00","43.34","18.23","32.2","0","0"
"Bryn Forbes","Bryn-Forbes-36052","3800","PG/SG","53.38","217.5","21.6","99.70","18.15","25.00","25.95","10.87","17.9","0","0"
"Serge Ibaka","Serge-Ibaka-1294","6200","PF/C","52.85","220.5","29.9","105.50","20.90","27.00","41.37","17.37","29.09","0","0"
"Maurice Harkless","Maurice-Harkless-16971","3800","SF/PF","33.72","219.5","19.8","104.50","11.31","22.00","28.18","11.79","17.6","0","0"
"TJ Warren","TJ-Warren-18634","6000","SF/PF","49.86","217.5","27.7","108.80","21.68","28.00","35.88","16.02","27.62","0","0"
"Deandre Ayton","Deandre-Ayton-409301","6700","C","50.55","217.5","27.2","108.80","20.83","30.00","35.63","11.2","30.43","0","0"
"Montrezl Harrell","Montrezl-Harrell-18930","6600","PF/C","54.57","220.5","25.9","108.38","22.00","29.00","45.19","23.37","29.89","0","0"
"Pascal Siakam","Pascal-Siakam-35186","6300","PF","58.80","220.5","32.3","105.50","17.78","30.00","40.83","15.69","27.57","0","0"
"Rudy Gay","Rudy-Gay-1341","6400","SF/PF","52.30","217.5","27.0","99.70","19.45","27.00","35.64","14.36","27.89","0","0"
"James Ennis","James-Ennis-18599","3900","SG/SF","39.83","219.5","23.8","101.42","12.48","26.00","28.07","13.45","16.96","0","0"
"Nene Hilario","Nene-Hilario-17321","3200","C","51.68","219.5","13.0","101.42","14.25","14.00","23.17","12.33","13.89","0","0"
"Delon Wright","Delon-Wright-18907","3200","PG/SG","41.62","220.5","13.9","105.50","15.88","17.00","22.7","11.0","13.79","0","0"
"C.J. Miles","C.J.-Miles-1299","3100","SG/SF","34.96","220.5","10.7","105.50","16.45","15.00","22.16","10.75","13.26","0","0"
"Marcin Gortat","Marcin-Gortat-1479","3600","C","49.00","220.5","17.8","108.38","13.57","16.00","25.79","12.48","15.24","0","0"
"Jamal Crawford","Jamal-Crawford-1075","3500","PG/SG","49.86","217.5","21.0","108.80","23.77","18.00","25.62","14.74","14.74","0","0"
"Milos Teodosic","Milos-Teodosic-37883","3000","PG","41.84","220.5","6.0","108.38","27.84","15.00","25.07","12.54","12.54","0","0"
"Troy Daniels","Troy-Daniels-17383","3600","SG","33.85","217.5","22.3","108.80","18.73","16.00","25.05","14.25","14.25","0","0"
"Meyers Leonard","Meyers-Leonard-13905","3300","C","55.07","219.5","13.2","104.50","14.76","13.00","22.43","10.63","13.07","0","0"
"Danuel House","Danuel-House-36029","3300","SF/PF","46.18","219.5","17.8","101.42","17.08","15.00","20.96","9.56","12.65","0","0"
"Trevor Ariza","Trevor-Ariza-1323","5000","SF/PF","37.41","217.5","31.5","108.80","15.73","26.00","25.21","9.4","19.14","0","0"
"OG Anunoby","OG-Anunoby-37807","3200","SF/PF","34.96","220.5","15.9","105.50","18.09","19.00","23.09","12.26","12.26","0","0"
"Gerald Green","Gerald-Green-13374","3400","SG/SF","45.43","219.5","17.8","101.42","17.67","15.00","22.2","10.44","12.86","0","0"
"Kawhi Leonard","Kawhi-Leonard-13310","9400","SF/PF","47.89","220.5","37.0","105.50","27.43","25.00","47.0","17.17","35.18","0","0"
"Mike Scott","Mike-Scott-13999","3200","SF/PF","46.22","220.5","14.0","108.38","15.45","15.00","23.65","13.99","11.83","0","0"
"Nik Stauskas","Nik-Stauskas-18636","3100","SG/SF","38.87","219.5","16.3","104.50","20.29","16.00","19.25","9.26","11.39","0","0"
"Seth Curry","Seth-Curry-16825","3000","PG/SG","38.87","219.5","14.4","104.50","14.00","16.00","20.03","10.87","10.87","0","0"
"Zach Collins","Zach-Collins-37866","3500","PF/C","55.07","219.5","17.7","104.50","12.19","16.00","19.59","9.85","12.64","0","0"
"Jawun Evans","Jawun-Evans-37882","3000","PG/SG","51.74","217.5","0","108.80","0","12.00","18.19","9.59","9.59","0","0"
"Tyrone Wallace","Tyrone-Wallace-35220","3000","PG/SG","47.53","220.5","5.5","108.38","19.16","5.00","5.85","3.56","3.56","0","0"
