"nameCol","idCol","salaryCol","positionCol","dvpCol","ouCol","mpgCol","paceCol","usgCol","pminCol","ceilCol","floorCol","pointsCol","predictCol","actualCol"
"Elie Okobo","Elie-Okobo-409300","3000","PG","36.11","218.5","31.0","108.80","21.06","36.00","31.08","8.39","27.41","0","0"
"Josh Jackson","Josh-Jackson-37890","3800","SF","47.81","218.5","17.3","108.80","22.55","32.00","43.92","20.02","31.13","0","0"
"Aron Baynes","Aron-Baynes-14114","3200","C","51.14","206.5","15.4","101.75","16.75","25.00","37.71","15.92","23.48","0","0"
"Tyson Chandler","Tyson-Chandler-1482","3100","C","49.38","223.5","19.6","112.50","7.31","24.00","39.67","21.1","21.1","0","0"
"Marcus Smart","Marcus-Smart-18567","4300","PG/SG","51.30","206.5","23.7","101.75","16.16","35.00","38.3","14.98","26.71","0","0"
"Shabazz Napier","Shabazz-Napier-18598","3200","PG/SG","45.44","207.5","14.6","114.62","20.80","22.00","36.45","16.11","19.81","0","0"
"DeMarre Carroll","DeMarre-Carroll-1174","3400","SF/PF","39.75","207.5","19.6","114.62","18.04","24.00","35.27","16.03","20.76","0","0"
"Daniel Theis","Daniel-Theis-37784","3000","PF/C","51.14","206.5","11.2","101.75","19.04","18.00","31.12","16.48","18.25","0","0"
"Mikal Bridges","Mikal-Bridges-408842","3500","SF","33.85","218.5","25.3","108.80","10.91","32.00","21.4","3.82","21.08","0","0"
"Jeff Green","Jeff-Green-1314","4000","SF/PF","51.35","234","23.6","103.80","17.79","31.00","40.6","18.62","23.69","0","0"
"Marcus Morris","Marcus-Morris-13316","5400","SF/PF","38.14","206.5","27.1","101.75","18.65","32.00","42.83","16.84","31.96","0","0"
"Wilson Chandler","Wilson-Chandler-1327","3800","SF/PF","34.97","234","26.7","108.33","10.37","32.00","33.91","15.19","22.4","0","0"
"Dewayne Dedmon","Dewayne-Dedmon-16894","4000","PF/C","48.35","230","23.6","105.10","16.12","24.00","33.13","14.01","23.43","0","0"
"Allen Crabbe","Allen-Crabbe-16978","3700","SG/SF","36.74","207.5","26.6","114.62","16.89","31.00","34.55","14.26","21.7","0","0"
"Jusuf Nurkic","Jusuf-Nurkic-18619","6700","C","46.63","212.5","25.7","104.50","23.23","29.00","50.99","21.24","39.19","0","0"
"Jerami Grant","Jerami-Grant-18576","4500","SF/PF","56.13","230","31.7","102.62","14.64","34.00","42.15","18.06","26.21","0","0"
"Kelly Oubre","Kelly-Oubre-18925","4600","SG/SF","35.49","234","23.9","103.80","20.68","32.00","39.0","17.01","26.71","0","0"
"Kevin Huerter","Kevin-Huerter-408969","3500","SG","40.25","230","23.4","105.10","14.94","28.00","29.39","10.97","20.27","0","0"
"Nikola Mirotic","Nikola-Mirotic-18584","7300","SF/PF","49.93","228.5","31.2","104.88","18.82","34.00","62.95","27.02","41.83","0","0"
"Jonathan Isaac","Jonathan-Isaac-37841","4400","PF","55.18","218.5","23.6","105.10","18.66","30.00","41.19","22.52","25.16","0","0"
"Lonzo Ball","Lonzo-Ball-37885","5400","PG","45.26","223.5","28.1","112.50","15.91","32.00","41.03","15.88","30.83","0","0"
"Tim Frazier","Tim-Frazier-18743","4200","PG/SG","40.12","228.5","20.0","104.88","18.17","30.00","39.03","16.09","23.83","0","0"
"Gary Harris","Gary-Harris-18617","5400","SG","43.76","212.5","33.2","99.62","21.50","34.00","40.97","17.82","30.51","0","0"
"Rondae Hollis-Jefferson","Rondae-Hollis-Jefferson-18897","5300","PF/C","39.96","207.5","23.2","114.62","21.93","30.00","45.69","19.38","29.9","0","0"
"Taurean Prince","Taurean-Prince-35218","4900","SF","38.70","230","26.5","105.10","20.24","30.00","38.13","16.3","27.63","0","0"
"Wayne Ellington","Wayne-Ellington-1009","4400","PG/SG","41.30","228.5","29.0","106.90","15.87","32.00","36.86","16.91","24.72","0","0"
"Larry Nance","Larry-Nance-18946","5600","PF/C","53.13","206.5","24.2","103.60","13.34","36.00","46.23","19.05","31.34","0","0"
"Derrick White","Derrick-White-37858","3400","PG","39.94","216","14.0","99.70","14.36","22.00","30.5","15.74","18.9","0","0"
"Wesley Matthews","Wesley-Matthews-1339","4400","SG/SF","34.34","223.5","27.0","100.08","19.57","32.00","36.5","15.46","24.43","0","0"
"Rodney McGruder","Rodney-McGruder-16850","4800","SG/SF","35.67","228.5","34.3","106.90","17.22","36.00","41.27","16.56","26.54","0","0"
"Russell Westbrook","Russell-Westbrook-1083","11500","PG","52.96","230","35.6","102.62","32.74","36.00","70.98","21.44","63.43","0","0"
"Wendell Carter","Wendell-Carter-408878","4700","C","54.72","216.5","22.6","104.50","19.94","26.00","30.31","9.52","25.88","0","0"
"Kyle Anderson","Kyle-Anderson-18615","4700","PG/SF","31.23","207.5","34.1","103.30","9.82","34.00","35.62","13.14","25.87","0","0"
"Justise Winslow","Justise-Winslow-18921","4400","PG/SF","41.30","228.5","24.2","106.90","19.16","28.00","37.12","17.92","24.15","0","0"
"Jayson Tatum","Jayson-Tatum-37782","6500","SF/PF","45.21","206.5","30.1","101.75","20.89","35.00","45.03","18.62","35.6","0","0"
"Rodney Hood","Rodney-Hood-18629","4700","SG/SF","43.02","206.5","32.8","103.60","18.41","32.00","41.05","16.51","25.75","0","0"
"Andre Drummond","Andre-Drummond-13904","9400","C","53.45","216.5","33.8","100.30","23.45","34.00","62.62","23.5","51.2","0","0"
"Dennis Schroder","Dennis-Schroder-18595","5700","PG/SG","52.96","230","29.0","102.62","27.99","29.00","47.41","25.32","30.99","0","0"
"DeAndre Jordan","DeAndre-Jordan-1486","6900","C","57.08","223.5","30.6","100.08","17.12","33.00","46.5","22.44","37.47","0","0"
"Joe Ingles","Joe-Ingles-18627","5400","SG/SF","39.04","218.5","31.9","98.88","17.37","34.00","44.69","19.48","29.21","0","0"
"Kent Bazemore","Kent-Bazemore-13987","4800","SG/SF","47.09","230","22.0","105.10","20.35","27.00","38.87","19.28","25.91","0","0"
"Nikola Jokic","Nikola-Jokic-31812","8600","C","55.59","212.5","28.8","99.62","29.44","32.00","61.12","18.52","46.3","0","0"
"Tomas Satoransky ","Tomas-Satoransky--36031","3400","PG/SG","53.20","234","19.0","103.80","16.17","21.00","28.02","13.95","18.28","0","0"
"John Collins","John-Collins-37823","5600","C","48.35","230","25.4","105.10","23.06","30.00","46.91","18.66","30.05","0","0"
"Joel Embiid","Joel-Embiid-18578","10900","C","61.54","234","33.0","108.33","35.66","35.00","71.36","25.33","58.49","0","0"
"D.J. Augustin","D.J.-Augustin-1064","4300","PG","46.90","218.5","26.3","105.10","17.53","28.00","37.4","12.33","22.96","0","0"
"Dwyane Wade","Dwyane-Wade-967","5100","PG/SG","49.79","228.5","24.2","106.90","29.23","26.00","38.13","17.97","27.18","0","0"
"Trae Young","Trae-Young-409063","6400","PG","45.89","230","26.9","105.10","31.60","32.00","59.3","18.44","34.08","0","0"
"Mike Muscala","Mike-Muscala-17379","3500","PF/C","61.54","234","23.9","108.33","13.42","23.00","34.2","18.65","18.65","0","0"
"DeMar DeRozan","DeMar-DeRozan-1053","8100","SG/SF","45.02","216","34.1","99.70","28.98","36.00","59.26","20.72","43.07","0","0"
"J.J. Redick","J.J.-Redick-1030","5300","SG/SF","41.37","234","29.9","108.33","22.68","32.00","37.56","18.15","28.18","0","0"
"D'Angelo Russell","D'Angelo-Russell-18947","7300","PG/SG","42.23","207.5","30.7","114.62","32.79","33.00","52.75","19.24","38.87","0","0"
"JaVale McGee","JaVale-McGee-1485","5000","C","49.38","223.5","21.4","112.50","16.61","24.00","37.45","16.32","26.58","0","0"
"Brandon Ingram","Brandon-Ingram-35227","5700","SG/SF","50.92","223.5","33.0","112.50","22.17","34.00","46.21","18.58","30.26","0","0"
"Robin Lopez","Robin-Lopez-1466","3000","C","53.62","216.5","18.7","104.50","18.37","22.00","31.8","15.91","15.91","0","0"
"Tony Parker","Tony-Parker-982","3500","PG","48.11","218.5","19.0","103.00","20.45","20.00","31.12","18.51","18.51","0","0"
"Justin Holiday","Justin-Holiday-14559","5400","SG/SF","40.24","216.5","35.6","104.50","17.33","36.00","41.35","19.11","28.52","0","0"
"Al-Farouq Aminu","Al-Farouq-Aminu-1279","4400","SF/PF","32.58","212.5","28.7","104.50","11.88","29.00","35.74","17.34","23.25","0","0"
"Tristan Thompson","Tristan-Thompson-13308","6000","C","46.92","206.5","34.3","103.60","17.31","35.00","43.64","19.0","31.62","0","0"
"Steven Adams","Steven-Adams-16848","6800","C","56.91","230","35.2","102.62","17.06","34.00","48.49","23.78","35.81","0","0"
"Cody Zeller","Cody-Zeller-16836","4300","C","51.50","218.5","26.6","103.00","16.17","28.00","32.63","12.73","22.66","0","0"
"Kyle Kuzma","Kyle-Kuzma-37886","5600","SF/PF","44.11","223.5","28.9","112.50","21.01","32.00","37.98","16.56","29.42","0","0"
"Clint Capela","Clint-Capela-18610","7800","C","53.23","216","37.0","101.42","17.66","34.00","59.91","25.66","40.92","0","0"
"Hassan Whiteside","Hassan-Whiteside-18664","7500","C","48.71","228.5","23.7","106.90","27.07","26.00","49.49","18.62","39.28","0","0"
"Langston Galloway","Langston-Galloway-18717","3600","PG/SG","36.35","216.5","24.2","100.30","14.78","25.00","32.86","16.36","18.83","0","0"
"Malik Monk","Malik-Monk-37827","3300","SG","48.37","218.5","14.3","103.00","24.36","20.00","26.42","14.19","17.2","0","0"
"JaMychal Green","JaMychal-Green-18729","4300","SF/PF","60.60","207.5","22.0","103.30","19.21","24.00","37.27","19.52","22.33","0","0"
"Juan Hernangomez","Juan-Hernangomez-35212","4700","SF/PF","52.58","212.5","30.8","99.62","15.29","32.00","41.5","16.15","24.4","0","0"
"Bryn Forbes","Bryn-Forbes-36052","3900","PG/SG","36.84","216","26.1","99.70","19.49","28.00","29.15","12.28","20.19","0","0"
"Jarrett Allen","Jarrett-Allen-37794","5500","C","46.84","207.5","29.3","114.62","17.65","29.00","39.15","17.24","28.41","0","0"
"Trey Lyles","Trey-Lyles-18942","3700","SF/PF","52.58","212.5","18.3","99.62","25.15","20.00","30.13","16.41","19.13","0","0"
"DeAndre Bembry","DeAndre-Bembry-35198","4100","SF","38.70","230","22.0","105.10","22.57","26.00","31.43","17.81","21.18","0","0"
"Derrick Favors","Derrick-Favors-1266","4900","PF/C","51.18","218.5","23.4","98.88","15.87","25.00","33.28","15.57","25.27","0","0"
"Kemba Walker","Kemba-Walker-13335","8800","PG","48.37","218.5","35.9","103.00","34.07","36.00","60.54","22.66","45.42","0","0"
"Spencer Dinwiddie","Spencer-Dinwiddie-18588","6300","PG/SG","42.23","207.5","27.7","114.62","29.09","31.00","50.55","22.47","32.38","0","0"
"Jamal Crawford","Jamal-Crawford-1075","3400","PG/SG","47.81","218.5","20.7","108.80","22.13","22.00","31.11","17.49","17.49","0","0"
"Reggie Bullock","Reggie-Bullock-16943","4000","SG/SF","40.91","216.5","33.0","100.30","12.26","31.00","33.46","14.1","20.55","0","0"
"Monte Morris","Monte-Morris-37860","3900","PG","46.56","212.5","25.5","99.62","15.04","24.00","29.71","16.06","19.95","0","0"
"Markieff Morris","Markieff-Morris-13314","5500","SF/PF","56.65","234","27.3","103.80","18.97","31.00","38.58","20.05","28.16","0","0"
"Alex Abrines","Alex-Abrines-36054","3000","SG/SF","42.28","230","13.0","102.62","12.98","24.00","21.39","8.32","15.32","0","0"
"Jonathon Simmons","Jonathon-Simmons-31808","3600","SG/SF","53.82","218.5","19.9","105.10","19.82","24.00","27.68","11.98","18.38","0","0"
"Jamal Murray","Jamal-Murray-35211","6800","PG/SG","46.56","212.5","35.0","99.62","26.27","36.00","54.02","22.26","34.67","0","0"
"Mike Conley","Mike-Conley-1062","8300","PG","39.66","207.5","34.1","103.30","29.36","36.00","62.64","25.3","42.24","0","0"
"Donovan Mitchell","Donovan-Mitchell-37875","7600","PG/SG","49.45","218.5","29.8","98.88","32.99","35.00","50.52","21.33","38.65","0","0"
"James Johnson","James-Johnson-1195","4000","SF/PF","48.42","228.5","20.2","106.90","18.98","24.00","26.78","10.52","20.35","0","0"
"Evan Fournier","Evan-Fournier-13913","5800","SG/SF","35.94","218.5","31.4","105.10","21.57","32.00","37.83","15.74","29.37","0","0"
"Julius Randle","Julius-Randle-18632","6900","PF/C","50.99","228.5","27.9","104.88","27.86","27.00","49.59","26.94","34.9","0","0"
"LeBron James","LeBron-James-1227","10600","SF/PF","44.11","223.5","34.4","112.50","34.88","36.00","64.75","22.47","53.51","0","0"
"Jaren Jackson","Jaren-Jackson-409099","5800","PF","60.60","207.5","25.4","103.30","20.75","28.00","30.24","6.05","29.25","0","0"
"Richaun Holmes","Richaun-Holmes-18905","3600","PF/C","53.20","218.5","16.3","108.80","19.02","17.00","30.59","12.33","18.1","0","0"
"Terry Rozier","Terry-Rozier-18894","3800","PG/SG","51.28","206.5","19.0","101.75","20.20","20.00","30.38","16.22","19.06","0","0"
"Jimmy Butler","Jimmy-Butler-13327","7400","SG/SF","45.59","234","33.4","108.33","21.86","35.00","51.09","19.52","37.18","0","0"
"Trevor Ariza","Trevor-Ariza-1323","5200","SF/PF","33.85","218.5","36.7","108.80","12.33","38.00","34.26","13.15","26.03","0","0"
"LaMarcus Aldridge","LaMarcus-Aldridge-1349","7900","PF/C","55.88","216","32.9","99.70","24.47","34.00","57.14","25.12","39.49","0","0"
"Mohamed Bamba","Mohamed-Bamba-409026","3500","C","61.61","218.5","14.7","105.10","18.23","17.00","18.53","4.27","17.5","0","0"
"Gordon Hayward","Gordon-Hayward-1239","5500","SG/SF","45.21","206.5","28.5","101.75","17.22","28.00","40.37","19.03","27.46","0","0"
"C.J. McCollum","C.J.-McCollum-17121","6600","PG/SG","40.78","212.5","35.0","104.50","24.36","35.00","43.68","18.97","32.87","0","0"
"Anthony Davis","Anthony-Davis-13895","11400","PF/C","50.99","228.5","36.0","104.88","32.29","37.00","83.78","28.98","56.61","0","0"
"Ricky Rubio","Ricky-Rubio-1001","6300","PG","43.72","218.5","28.0","98.88","25.52","31.00","42.6","16.77","31.28","0","0"
"Paul George","Paul-George-1245","8600","SF/PF","56.13","230","35.0","102.62","31.14","36.00","59.68","26.27","42.72","0","0"
"Marvin Williams","Marvin-Williams-1318","4500","SF/PF","48.91","218.5","28.1","103.00","12.01","27.00","37.17","18.99","22.31","0","0"
"E'Twaun Moore","E'Twaun-Moore-18582","4600","SG/SF","38.45","228.5","31.0","104.88","19.95","32.00","35.19","15.18","22.82","0","0"
"Ben Simmons","Ben-Simmons-35184","8500","PG/SF","46.73","234","34.1","108.33","24.91","35.00","54.8","17.97","42.09","0","0"
"Nicolas Batum","Nicolas-Batum-1315","5000","SG/SF","30.69","218.5","28.7","103.00","14.21","33.00","34.2","17.76","24.73","0","0"
"Chris Paul","Chris-Paul-1087","7900","PG","48.57","216","34.3","101.42","26.40","32.00","53.12","19.3","39.06","0","0"
"Garrett Temple","Garrett-Temple-14077","4100","SG/SF","31.22","207.5","32.1","103.30","12.01","34.00","32.45","14.52","20.22","0","0"
"Aaron Gordon","Aaron-Gordon-18601","7000","SF/PF","50.42","218.5","29.7","105.10","21.95","32.00","44.41","18.95","34.4","0","0"
"Ed Davis","Ed-Davis-1265","3500","PF/C","46.84","207.5","15.3","114.62","15.18","18.00","31.37","12.83","17.17","0","0"
"Jabari Parker","Jabari-Parker-18593","6700","SF/PF","41.58","216.5","34.7","104.50","25.90","34.00","45.47","17.72","32.81","0","0"
"Reggie Jackson","Reggie-Jackson-13352","5700","PG/SG","50.27","216.5","27.0","100.30","26.08","29.00","39.14","15.09","27.94","0","0"
"Dennis Smith Jr.","Dennis-Smith-Jr.-37847","5500","PG","53.64","223.5","26.8","100.08","21.72","28.00","36.97","15.32","26.87","0","0"
"Damian Lillard","Damian-Lillard-13900","9500","PG","49.51","212.5","36.0","104.50","34.03","37.00","59.33","22.51","46.5","0","0"
"Paul Millsap","Paul-Millsap-1335","6100","PF/C","52.58","212.5","25.0","99.62","20.42","28.00","42.45","18.97","29.83","0","0"
"James Ennis","James-Ennis-18599","3800","SG/SF","35.81","216","30.0","101.42","11.54","30.00","29.3","14.4","18.53","0","0"
"Blake Griffin","Blake-Griffin-1503","9600","PF/C","67.88","216.5","37.8","100.30","30.41","36.00","60.01","22.68","46.77","0","0"
"Cedi Osman","Cedi-Osman-18912","5200","SF","35.14","206.5","34.2","103.60","16.60","36.00","31.71","11.73","25.33","0","0"
"Josh Richardson","Josh-Richardson-18922","7700","SG/SF","49.79","228.5","34.2","106.90","25.03","36.00","55.55","21.92","37.41","0","0"
"Nikola Vucevic","Nikola-Vucevic-13296","8900","C","55.18","218.5","31.0","105.10","29.04","32.00","56.35","21.32","43.25","0","0"
"Zach LaVine","Zach-LaVine-18622","8400","PG/SG","50.68","216.5","35.5","104.50","33.14","36.00","55.69","24.66","40.62","0","0"
"P.J. Tucker","P.J.-Tucker-13947","4200","SF/PF","35.81","216","36.0","101.42","10.18","35.00","39.0","17.05","20.27","0","0"
"Harrison Barnes","Harrison-Barnes-13901","5900","SF/PF","44.87","223.5","33.2","100.08","21.29","34.00","36.46","16.39","28.46","0","0"
"Ryan Arcidiacono","Ryan-Arcidiacono-36050","4400","PG","50.68","216.5","33.7","104.50","12.82","34.00","33.47","13.64","21.21","0","0"
"Zach Collins","Zach-Collins-37866","3600","PF","56.05","212.5","17.7","104.50","15.61","20.00","26.39","13.54","17.36","0","0"
"Austin Rivers","Austin-Rivers-13903","3500","PG/SG","37.32","234","19.4","103.80","17.63","21.00","25.58","13.86","16.86","0","0"
"Marc Gasol","Marc-Gasol-1493","9100","C","60.60","207.5","36.4","103.30","22.87","35.00","58.71","25.04","43.55","0","0"
"Rudy Gobert","Rudy-Gobert-16935","8000","C","51.96","218.5","29.5","98.88","17.31","33.00","52.95","18.43","38.23","0","0"
"Jeremy Lamb","Jeremy-Lamb-13955","6000","SG/SF","40.62","218.5","32.1","103.00","22.22","32.00","39.37","17.01","28.59","0","0"
"Rudy Gay","Rudy-Gay-1341","5600","SF/PF","44.39","216","25.9","99.70","20.52","28.00","34.08","13.31","26.67","0","0"
"John Wall","John-Wall-1084","9000","PG","53.20","234","34.1","103.80","32.53","35.00","48.4","16.85","42.87","0","0"
"Stanley Johnson","Stanley-Johnson-18913","4200","SF/PF","40.91","216.5","21.0","100.30","21.38","26.00","33.11","15.09","19.96","0","0"
"James Harden","James-Harden-1037","11700","PG/SG","48.57","216","39.5","101.42","41.38","37.00","63.78","20.84","55.56","0","0"
"Deandre Ayton","Deandre-Ayton-409301","7200","C","50.34","218.5","30.9","108.80","20.33","31.00","38.73","10.45","34.15","0","0"
"Jrue Holiday","Jrue-Holiday-1073","8700","PG/SG","52.87","228.5","35.2","104.88","30.56","37.00","55.81","19.59","41.07","0","0"
"Jae Crowder","Jae-Crowder-13942","4200","SF/PF","41.03","218.5","26.8","98.88","17.52","27.00","33.55","15.23","19.83","0","0"
"Jerian Grant","Jerian-Grant-18900","3300","PG","46.90","218.5","17.6","105.10","13.99","19.00","25.71","13.69","15.57","0","0"
"Luka Doncic","Luka-Doncic-408971","7100","PG","50.13","223.5","31.6","100.08","26.74","33.00","39.06","12.28","33.36","0","0"
"Shelvin Mack","Shelvin-Mack-13354","3800","PG","39.66","207.5","22.3","103.30","17.09","21.00","27.6","13.84","17.83","0","0"
"Kyrie Irving","Kyrie-Irving-13334","9300","PG","51.30","206.5","31.6","101.75","35.65","32.00","59.47","23.2","43.44","0","0"
"Jordan Clarkson","Jordan-Clarkson-18631","5300","PG/SG","43.02","206.5","25.0","103.60","28.94","26.00","41.32","23.87","24.74","0","0"
"Nerlens Noel","Nerlens-Noel-18575","3300","C","56.91","230","11.8","102.62","13.25","14.00","26.61","13.09","15.38","0","0"
"Patty Mills","Patty-Mills-13977","3700","PG/SG","49.17","216","21.9","99.70","16.87","23.00","25.84","13.38","17.17","0","0"
"Ish Smith","Ish-Smith-13958","3600","PG","47.91","216.5","20.4","100.30","23.20","20.00","24.64","10.98","16.56","0","0"
"Evan Turner","Evan-Turner-1291","4200","SG/SF","40.78","212.5","26.4","104.50","16.59","26.00","28.49","16.11","19.34","0","0"
"Eric Gordon","Eric-Gordon-1077","5800","SG/SF","49.12","216","34.5","101.42","21.01","32.00","40.89","19.77","26.64","0","0"
"Chandler Hutchison","Chandler-Hutchison-408877","3000","SG","33.24","216.5","19.2","104.50","12.85","18.00","14.55","3.35","13.74","0","0"
"Bradley Beal","Bradley-Beal-13898","8200","SG","44.91","234","37.9","103.80","23.65","37.00","58.97","25.37","37.37","0","0"
"Kentavious Caldwell-Pope","Kentavious-Caldwell-Pope-16869","3500","SG/SF","32.68","223.5","24.7","112.50","15.88","20.00","30.14","15.78","15.78","0","0"
"Marco Belinelli","Marco-Belinelli-1033","3500","SG/SF","36.84","216","21.6","99.70","21.31","19.00","23.09","12.04","15.76","0","0"
"Alec Burks","Alec-Burks-13353","3500","SG/SF","43.02","206.5","15.6","103.60","24.28","18.00","25.87","15.37","15.37","0","0"
"Jakob Poeltl","Jakob-Poeltl-35187","3400","C","54.06","216","13.3","99.70","20.23","16.00","29.79","13.23","14.9","0","0"
"Omari Spellman","Omari-Spellman-408970","3300","PF","46.47","230","14.5","105.10","15.96","18.00","15.28","3.76","14.39","0","0"
"J.J. Barea","J.J.-Barea-18605","5300","PG/SG","53.64","223.5","23.0","100.08","29.17","20.00","34.79","16.7","23.07","0","0"
"Bam Adebayo","Bam-Adebayo-37835","4300","C","48.71","228.5","21.0","106.90","21.21","19.00","27.47","16.49","18.65","0","0"
"Meyers Leonard","Meyers-Leonard-13905","3600","C","56.05","212.5","14.0","104.50","18.53","15.00","26.9","12.71","15.63","0","0"
"De'Anthony Melton","De'Anthony-Melton-409081","3000","SG","49.65","218.5","9.0","108.80","13.33","18.00","16.82","11.65","12.94","0","0"
"Josh Hart","Josh-Hart-37889","3600","SG","32.68","223.5","20.6","112.50","11.50","20.00","25.87","12.15","15.3","0","0"
"Mason Plumlee","Mason-Plumlee-16798","3800","PF/C","51.37","212.5","17.3","99.62","19.28","16.00","27.63","13.12","16.08","0","0"
"Landry Shamet","Landry-Shamet-408841","3200","PG","57.99","234","20.9","108.33","13.14","22.00","13.95","2.65","13.53","0","0"
"Kyle Korver","Kyle-Korver-1269","3500","SG/SF","39.04","218.5","16.0","98.88","19.09","19.00","25.75","11.63","14.67","0","0"
"Terrence Ross","Terrence-Ross-13902","4900","SG/SF","35.94","218.5","23.0","105.10","23.78","26.00","31.7","17.47","20.48","0","0"
"Dante Cunningham","Dante-Cunningham-1259","3500","SF/PF","44.39","216","24.7","99.70","8.06","22.00","27.28","11.63","14.55","0","0"
"Jared Dudley","Jared-Dudley-1319","3100","SF/PF","39.75","207.5","18.9","114.62","8.45","22.00","23.02","11.28","12.91","0","0"
"Maurice Harkless","Maurice-Harkless-16971","3300","SF/PF","32.58","212.5","11.8","104.50","13.51","20.00","21.28","9.07","13.56","0","0"
"Omri Casspi","Omri-Casspi-1270","3100","SF/PF","31.23","207.5","10.7","103.30","18.81","14.00","22.19","10.67","12.7","0","0"
"Cameron Payne","Cameron-Payne-18941","3000","PG/SG","50.68","216.5","9.7","104.50","13.51","16.00","20.91","10.66","12.27","0","0"
"Collin Sexton","Collin-Sexton-408896","5700","PG","52.17","206.5","32.8","103.60","26.10","34.00","27.27","8.57","23.29","0","0"
"Seth Curry","Seth-Curry-16825","3000","PG/SG","32.06","212.5","15.7","104.50","12.37","14.00","23.5","12.22","12.22","0","0"
"Solomon Hill","Solomon-Hill-16863","3000","SF/PF","38.50","228.5","18.5","104.88","5.63","19.00","22.59","12.08","12.08","0","0"
"Dwight Powell","Dwight-Powell-18566","3300","PF/C","60.78","223.5","17.5","100.08","11.93","13.00","20.21","10.41","13.13","0","0"
"Dorian Finney-Smith","Dorian-Finney-Smith-36032","3800","SF","36.10","223.5","32.2","100.08","15.17","20.00","23.26","11.23","14.79","0","0"
"Thomas Bryant ","Thomas-Bryant--37884","3300","C","56.65","234","13.7","103.80","13.32","17.00","21.24","10.03","12.74","0","0"
"Darius Miller","Darius-Miller-13951","3100","SF/PF","38.50","228.5","23.5","104.88","12.30","20.00","21.37","11.9","11.9","0","0"
"Kelly Olynyk","Kelly-Olynyk-16845","3500","PF/C","58.45","228.5","14.6","106.90","16.92","13.00","20.01","11.28","13.44","0","0"
"Ryan Anderson","Ryan-Anderson-1281","3000","PF/C","52.33","218.5","0","108.80","0","14.00","18.09","11.36","11.36","0","0"
"Maxi Kleber","Maxi-Kleber-37845","3200","PF","44.87","223.5","17.6","100.08","13.56","14.00","19.79","9.97","12.09","0","0"
"Zaza Pachulia","Zaza-Pachulia-1455","3200","C","53.45","216.5","9.8","100.30","19.36","11.00","19.88","10.25","11.71","0","0"
"Michael Beasley","Michael-Beasley-1338","3000","SF/PF","44.11","223.5","9.7","112.50","29.86","10.00","16.51","8.24","10.64","0","0"
"Nik Stauskas","Nik-Stauskas-18636","3200","SG/SF","32.06","212.5","13.6","104.50","22.76","15.00","17.93","8.63","11.07","0","0"
"Miles Bridges","Miles-Bridges-409262","3400","SF","48.91","218.5","20.1","103.00","13.91","14.00","11.83","2.11","11.66","0","0"
"Shaquille Harrison","Shaquille-Harrison-36065","3300","PG","42.11","216.5","17.3","104.50","18.17","14.00","18.08","8.87","11.32","0","0"
"Gerald Green","Gerald-Green-13374","3300","SG/SF","49.12","216","14.0","101.42","17.06","14.00","19.54","9.13","11.26","0","0"
"Royce O'Neale","Royce-O'Neale-37872","3700","SF","41.03","218.5","20.0","98.88","10.05","17.00","17.9","8.96","12.07","0","0"
"Wayne Selden","Wayne-Selden-36045","3000","SG","47.74","207.5","15.9","103.30","19.08","14.00","17.71","9.78","9.78","0","0"
"T.J. McConnell","T.J.-McConnell-18956","3400","PG/SG","46.73","234","15.8","108.33","13.14","14.00","17.94","9.25","10.95","0","0"
"Malik Beasley","Malik-Beasley-35213","3000","SG","42.25","212.5","18.5","99.62","15.45","14.00","17.02","9.64","9.64","0","0"
"Bruce Brown","Bruce-Brown-408913","3100","SG","50.27","216.5","19.0","100.30","8.72","15.00","10.07","1.8","9.92","0","0"
"Frank Kaminsky","Frank-Kaminsky-18920","3300","PF/C","57.50","218.5","15.0","103.00","24.79","12.00","16.98","8.64","10.49","0","0"
"Devin Harris","Devin-Harris-1076","3400","PG/SG","53.64","223.5","16.8","100.08","22.59","13.00","19.08","10.78","10.78","0","0"
"Michael Kidd-Gilchrist","Michael-Kidd-Gilchrist-13896","3800","SF/PF","30.69","218.5","16.0","103.00","16.93","18.00","19.79","10.19","11.93","0","0"
"Ante Zizic","Ante-Zizic-35180","3100","C","46.92","206.5","11.3","103.60","20.11","11.00","19.37","9.69","9.69","0","0"
"Gary Clark","Gary-Clark-570141","3400","SF","50.92","216","19.0","101.42","7.09","14.00","10.69","2.46","10.09","0","0"
"Danuel House","Danuel-House-36029","3000","SG","48.57","216","25.5","101.42","18.96","12.00","14.48","6.9","8.72","0","0"
"Glenn Robinson","Glenn-Robinson-18621","3200","SF/PF","40.91","216.5","13.8","100.30","12.73","13.00","12.92","5.7","8.8","0","0"
"Hamidou Diallo","Hamidou-Diallo-408800","3200","SG","42.28","230","19.0","102.62","12.60","13.00","11.4","7.89","8.77","0","0"
"Davis Bertans","Davis-Bertans-36051","3700","PF/C","55.88","216","17.8","99.70","18.56","12.00","17.35","7.99","9.99","0","0"
"Andrew Harrison","Andrew-Harrison-18950","3200","PG","38.65","206.5","13.3","103.60","16.91","12.00","13.84","6.64","8.12","0","0"
"Patrick Patterson","Patrick-Patterson-1260","3000","PF/C","61.66","230","12.8","102.62","12.40","12.00","12.76","6.19","7.33","0","0"
"Dante Exum","Dante-Exum-18626","3300","PG/SG","43.72","218.5","16.2","98.88","21.54","10.00","13.79","6.3","7.98","0","0"
"Justin Anderson","Justin-Anderson-18927","3300","SF/PF","38.70","230","10.0","105.10","25.49","10.00","11.91","5.71","7.65","0","0"
"Alex Len","Alex-Len-16886","3500","C","48.35","230","18.8","105.10","21.43","8.00","11.35","5.7","8","0","0"
"Raul Neto","Raul-Neto-31821","3200","PG","43.72","218.5","11.6","98.88","25.24","9.00","13.55","6.47","7.28","0","0"
"Deonte Burton","Deonte-Burton-570274","3000","SG","52.96","230","11.7","102.62","18.14","8.00","6.18","1.1","6.09","0","0"
"Lance Stephenson","Lance-Stephenson-947","3700","SG/SF","50.92","223.5","13.9","112.50","23.88","8.00","12.68","5.95","7.46","0","0"
"Amir Johnson","Amir-Johnson-1285","3000","PF/C","55.54","234","10.2","108.33","21.97","6.00","9.26","4.57","5.92","0","0"
"Robert Williams","Robert-Williams-408780","3000","C","51.14","206.5","4.5","101.75","13.33","5.00","5.51","0.98","5.43","0","0"
"Semi Ojeleye","Semi-Ojeleye-37786","3000","PF","38.14","206.5","14.5","101.75","14.63","8.00","10.38","5.38","5.38","0","0"
"Devin Robinson","Devin-Robinson-37843","3000","SG","35.49","234","3.0","103.80","23.60","6.00","5.43","0.99","5.37","0","0"
"Troy Brown","Troy-Brown-409043","3000","SF","35.49","234","4.7","103.80","14.89","5.00","4.24","0.78","4.19","0","0"
"Ian Mahinmi","Ian-Mahinmi-1357","3000","C","50.45","234","9.0","103.80","25.60","4.00","7.03","3.54","3.92","0","0"
"Furkan Korkmaz","Furkan-Korkmaz-35185","3000","SG","57.99","234","12.2","108.33","18.97","6.00","7.05","3.58","3.58","0","0"
"Antonio Blakeney","Antonio-Blakeney-37811","3200","PG","40.24","216.5","19.2","104.50","23.87","4.00","6.09","2.95","3.65","0","0"
"Daniel Hamilton","Daniel-Hamilton-35210","3000","SG","40.25","230","4.0","105.10","23.30","4.00","3.45","0.85","3.25","0","0"
"Torrey Craig","Torrey-Craig-37861","3000","SG/SF","42.25","212.5","20.0","99.62","11.99","4.00","4.14","2.47","2.73","0","0"
"Wesley Johnson","Wesley-Johnson-1280","3000","SF/PF","38.50","228.5","17.0","104.88","11.46","4.00","4.82","2.57","2.57","0","0"
"Vince Carter","Vince-Carter-1066","3200","SG/SF","40.25","230","13.8","105.10","22.20","3.00","3.8","1.99","2.27","0","0"
"Guerschon Yabusele","Guerschon-Yabusele-35176","3000","PF","45.21","206.5","3.7","101.75","36.69","2.00","3.33","1.52","1.76","0","0"
