"nameCol","idCol","salaryCol","positionCol","dvpCol","ouCol","mpgCol","paceCol","usgCol","pminCol","ceilCol","floorCol","pointsCol","predictCol","actualCol"
"Mohamed Bamba","Mohamed-Bamba-409026","3700","C","52.67","210.5","16.2","105.10","22.20","28.00","30.12","5.73","29.21","0","0"
"Greg Monroe","Greg-Monroe-1487","4100","C","48.78","208.5","8.6","105.50","25.09","26.00","38.31","16.46","28.13","0","0"
"Nemanja Bjelica","Nemanja-Bjelica-31814","4800","SF/PF","48.12","234","23.6","98.20","17.78","32.00","50.98","20.65","31.14","0","0"
"Jonathan Isaac","Jonathan-Isaac-37841","4100","SF/PF","49.26","210.5","25.8","105.10","15.73","30.00","40.23","19.48","25.4","0","0"
"D.J. Augustin","D.J.-Augustin-1064","4000","PG","43.45","210.5","28.4","105.10","14.63","30.00","38.88","14.15","24.36","0","0"
"Josh Okogie","Josh-Okogie-409174","3200","SG/SF","43.56","217","10.7","100.67","15.88","23.00","19.87","3.78","19.27","0","0"
"Trevor Ariza","Trevor-Ariza-1323","4500","SF/PF","34.29","224","34.0","103.80","14.54","34.00","35.4","13.24","26.92","0","0"
"Bobby Portis","Bobby-Portis-18909","4700","PF/C","57.66","213.5","20.0","104.50","28.31","24.00","50.96","23.59","27.88","0","0"
"Eric Gordon","Eric-Gordon-1077","4400","SG/SF","45.38","224","32.2","101.42","17.05","35.00","37.93","17.79","26.09","0","0"
"Ricky Rubio","Ricky-Rubio-1001","5700","PG","38.10","218","28.8","98.88","25.60","32.00","44.92","17.66","33.13","0","0"
"Dennis Schroder","Dennis-Schroder-18595","5500","PG/SG","54.18","234","28.3","102.62","26.72","30.00","48.68","25.09","31.92","0","0"
"Wendell Carter","Wendell-Carter-408878","4800","PF/C","57.66","213.5","19.8","104.50","16.03","26.00","31.26","8.44","27.57","0","0"
"Maurice Harkless","Maurice-Harkless-16971","3600","SF/PF","37.87","202","24.8","104.50","12.54","28.00","32.16","13.85","20.64","0","0"
"Khris Middleton","Khris-Middleton-13990","6500","SG/SF","50.08","231","31.2","98.80","25.63","34.00","59.78","26.44","36.88","0","0"
"De'Aaron Fox","De'Aaron-Fox-37900","7000","PG","46.76","234","28.3","98.20","29.08","34.00","49.13","20.11","39.59","0","0"
"Marvin Williams","Marvin-Williams-1318","4700","SF/PF","48.12","214","29.0","103.00","13.38","31.00","43.97","22.46","26.39","0","0"
"Jeff Green","Jeff-Green-1314","4900","SF/PF","44.60","224","31.5","103.80","15.22","34.00","40.67","20.47","27.44","0","0"
"P.J. Tucker","P.J.-Tucker-13947","3600","SF/PF","36.23","224","32.7","101.42","9.84","35.00","38.89","16.98","20.12","0","0"
"Mike Muscala","Mike-Muscala-17379","3500","PF/C","59.65","228","22.5","108.33","16.68","24.00","36.17","19.56","19.56","0","0"
"Derrick Rose","Derrick-Rose-1086","6700","PG/SG","55.12","217","29.0","100.67","29.54","34.00","49.86","18.5","37.15","0","0"
"Jerami Grant","Jerami-Grant-18576","4500","PF","52.54","234","30.3","102.62","14.70","32.00","38.63","17.74","24.84","0","0"
"J.J. Redick","J.J.-Redick-1030","5100","SG/SF","35.11","228","31.4","108.33","22.88","31.00","37.85","18.12","28.1","0","0"
"Jeremy Lamb","Jeremy-Lamb-13955","5800","SG/SF","51.50","214","28.8","103.00","21.61","32.00","44.04","19.03","31.98","0","0"
"Larry Nance","Larry-Nance-18946","6300","PF/C","56.80","214","29.1","103.60","15.78","34.00","51.06","21.05","34.62","0","0"
"Giannis Antetokounmpo","Giannis-Antetokounmpo-16852","11100","SF/PF","48.23","231","32.5","98.80","29.27","36.00","72.51","26.75","60.93","0","0"
"Joel Embiid","Joel-Embiid-18578","10200","C","59.65","228","32.8","108.33","32.61","34.00","68.09","23.7","56.04","0","0"
"Marc Gasol","Marc-Gasol-1493","7500","C","53.70","202","30.4","103.30","21.35","33.00","55.55","23.7","41.21","0","0"
"DeMarre Carroll","DeMarre-Carroll-1174","3700","SF/PF","41.63","213.5","24.3","114.62","19.40","24.00","33.98","16.2","20.3","0","0"
"Jonas Jerebko","Jonas-Jerebko-1106","3500","SF/PF","47.77","218","24.7","103.10","15.83","23.00","34.36","14.78","19.14","0","0"
"Pascal Siakam","Pascal-Siakam-35186","5700","PF","54.74","208.5","29.3","105.50","19.02","34.00","45.7","17.79","31.11","0","0"
"Delon Wright","Delon-Wright-18907","4300","PG/SG","36.16","208.5","19.0","105.50","17.62","28.00","39.88","19.95","23.36","0","0"
"Kelly Oubre","Kelly-Oubre-18925","4000","SG/SF","34.19","223","30.0","108.80","21.21","25.00","37.59","17.78","21.73","0","0"
"Collin Sexton","Collin-Sexton-408896","4600","PG","52.03","214","31.8","103.60","25.26","33.00","29.04","9.13","24.8","0","0"
"Markieff Morris","Markieff-Morris-13314","4800","PF/C","54.21","224","23.0","103.80","19.87","28.00","35.39","18.39","25.83","0","0"
"Cheick Diallo","Cheick-Diallo-35225","4500","PF/C","46.60","231","13.0","104.88","11.62","24.00","41.76","20.48","24.15","0","0"
"Darius Miller","Darius-Miller-13951","3600","SF/PF","40.11","231","24.5","104.88","12.50","31.00","34.52","19.34","19.34","0","0"
"Nicolas Batum","Nicolas-Batum-1315","4800","SG/SF","36.58","214","30.0","103.00","14.40","32.00","35.54","18.45","25.7","0","0"
"Anthony Davis","Anthony-Davis-13895","11600","PF/C","57.22","231","34.5","104.88","32.84","38.00","92.31","31.66","62.08","0","0"
"Damian Lillard","Damian-Lillard-13900","9000","PG","45.27","202","33.8","104.50","29.69","36.00","61.58","23.17","48.07","0","0"
"James Harden","James-Harden-1037","11400","PG/SG","55.41","224","35.0","101.42","38.63","36.00","70.35","22.23","60.91","0","0"
"Willie Cauley-Stein","Willie-Cauley-Stein-18951","5900","C","49.30","234","26.3","98.20","18.60","30.00","43.52","17.96","31.4","0","0"
"Justin Holiday","Justin-Holiday-14559","5500","SG/SF","30.12","213.5","32.8","104.50","16.05","35.00","41.42","17.5","29.21","0","0"
"Clint Capela","Clint-Capela-18610","7900","C","55.52","224","30.8","101.42","19.68","34.00","63.16","24.64","41.97","0","0"
"Kyle Anderson","Kyle-Anderson-18615","4600","PG/SF","39.26","202","25.4","103.30","15.70","30.00","33.63","12.41","24.42","0","0"
"Kemba Walker","Kemba-Walker-13335","8400","PG","55.59","214","33.0","103.00","30.11","34.00","59.39","22.23","44.55","0","0"
"Jarrett Allen","Jarrett-Allen-37794","5500","C","56.63","213.5","23.3","114.62","18.65","28.00","40.26","17.49","29.15","0","0"
"Jusuf Nurkic","Jusuf-Nurkic-18619","7200","C","48.83","202","27.7","104.50","25.97","28.00","49.15","20.98","38.01","0","0"
"Russell Westbrook","Russell-Westbrook-1083","11000","PG","54.18","234","35.7","102.62","31.58","35.00","64.47","19.83","57.98","0","0"
"Cedi Osman","Cedi-Osman-18912","4500","SF/PF","40.07","214","33.4","103.60","15.89","34.00","29.7","10.98","23.72","0","0"
"Shelvin Mack","Shelvin-Mack-13354","3700","PG","40.69","202","23.4","103.30","16.26","24.00","30.19","15.13","19.5","0","0"
"E'Twaun Moore","E'Twaun-Moore-18582","4600","SG/SF","36.18","231","25.0","104.88","17.89","32.00","37.47","16.1","24.25","0","0"
"Tim Frazier","Tim-Frazier-18743","4700","PG/SG","42.17","231","27.5","104.88","14.18","29.00","40.55","16.7","24.74","0","0"
"Richaun Holmes","Richaun-Holmes-18905","4000","PF/C","49.38","223","20.1","108.80","17.37","19.00","36.35","15.93","21.05","0","0"
"Reggie Jackson","Reggie-Jackson-13352","5000","PG/SG","51.25","217","26.4","100.30","23.65","28.00","36.25","14.07","26.25","0","0"
"Jrue Holiday","Jrue-Holiday-1073","8600","PG/SG","46.70","231","37.5","104.88","25.91","38.00","61.58","21.41","45.08","0","0"
"Karl-Anthony Towns","Karl-Anthony-Towns-18937","9700","C","54.83","217","32.0","100.67","28.24","35.00","68.69","28.76","50.73","0","0"
"Kris Dunn","Kris-Dunn-35215","6300","PG/SG","49.78","213.5","26.2","104.50","21.72","32.00","46.53","16.78","32.84","0","0"
"Kawhi Leonard","Kawhi-Leonard-13310","9200","SF/PF","44.66","208.5","36.8","105.50","28.97","35.00","65.74","23.09","47.71","0","0"
"Bryn Forbes","Bryn-Forbes-36052","3800","PG/SG","48.87","210.5","24.1","99.70","17.78","25.00","28.5","11.9","19.64","0","0"
"Lauri Markkanen","Lauri-Markkanen-37809","7400","PF","49.32","213.5","27.3","104.50","24.94","32.00","54.67","23.13","38.1","0","0"
"Andre Drummond","Andre-Drummond-13904","9100","C","51.13","217","33.0","100.30","23.46","34.00","57.07","21.66","46.89","0","0"
"Paul George","Paul-George-1245","8900","SF/PF","52.54","234","35.0","102.62","29.88","35.00","63.79","28.21","45.79","0","0"
"Andrew Wiggins","Andrew-Wiggins-18620","5800","SG/SF","43.56","217","33.0","100.67","24.66","34.00","39.03","16.93","29.75","0","0"
"Stanley Johnson","Stanley-Johnson-18913","3800","SF/PF","39.88","217","20.0","100.30","24.99","25.00","32.9","16.02","19.47","0","0"
"Chris Paul","Chris-Paul-1087","8300","PG","55.41","224","34.0","101.42","22.71","35.00","56.46","20.84","42.45","0","0"
"Fred VanVleet","Fred-VanVleet-36011","4900","PG/SG","36.16","208.5","27.5","105.50","16.96","26.00","40.85","19.85","25.03","0","0"
"JaMychal Green","JaMychal-Green-18729","4500","SF/PF","53.70","202","23.9","103.30","18.68","24.00","38.15","19.98","22.86","0","0"
"Jimmy Butler","Jimmy-Butler-13327","7200","SG/SF","49.46","228","28.0","108.33","27.29","34.00","49.78","19.4","36.6","0","0"
"Draymond Green","Draymond-Green-13976","6400","PF/C","54.34","218","29.2","103.10","16.52","34.00","40.23","14.37","32.5","0","0"
"Wilson Chandler","Wilson-Chandler-1327","3800","SF/PF","38.78","228","29.3","108.33","12.15","29.00","28.89","13.46","19.26","0","0"
"Jayson Tatum","Jayson-Tatum-37782","6400","SF/PF","50.76","223","29.3","101.75","22.31","32.00","41.03","16.84","32.33","0","0"
"John Wall","John-Wall-1084","9300","PG","49.40","224","33.8","103.80","31.60","36.00","53.07","18.47","47.01","0","0"
"Jamal Crawford","Jamal-Crawford-1075","3600","PG/SG","43.45","223","23.4","108.80","24.68","24.00","31.6","18.18","18.18","0","0"
"Steven Adams","Steven-Adams-16848","7000","C","54.05","234","32.1","102.62","24.31","33.00","46.5","23.23","35.31","0","0"
"Tomas Satoransky ","Tomas-Satoransky--36031","4300","PG/SG","49.40","224","28.4","103.80","12.12","23.00","33.2","16.53","21.66","0","0"
"Rondae Hollis-Jefferson","Rondae-Hollis-Jefferson-18897","5600","PF/C","48.99","213.5","28.7","114.62","19.66","30.00","43.55","17.65","28.1","0","0"
"Brook Lopez","Brook-Lopez-1498","4700","C","55.12","231","29.6","98.80","17.25","29.00","35.6","15.66","23.59","0","0"
"Solomon Hill","Solomon-Hill-16863","3900","SF/PF","40.11","231","26.3","104.88","10.37","30.00","30.79","16.64","19.51","0","0"
"Buddy Hield","Buddy-Hield-35206","6200","SG/SF","39.50","234","30.3","98.20","25.04","32.00","46.35","20.5","30.96","0","0"
"Luke Kennard","Luke-Kennard-37814","3500","SG/SF","39.96","217","22.1","100.30","16.82","24.00","26.6","13.25","17.48","0","0"
"Aaron Gordon","Aaron-Gordon-18601","6900","SF/PF","52.47","210.5","33.6","105.10","21.91","33.00","44.23","18.8","34.37","0","0"
"Enes Kanter","Enes-Kanter-13299","7100","C","51.52","228","26.3","100.17","21.66","30.00","47.02","17.62","35.38","0","0"
"Bradley Beal","Bradley-Beal-13898","8100","SG","45.40","224","38.9","103.80","30.53","36.00","63.5","27.32","40.24","0","0"
"Reggie Bullock","Reggie-Bullock-16943","4300","SG/SF","39.88","217","32.0","100.30","19.36","30.00","34.3","14.55","21.37","0","0"
"Andre Iguodala","Andre-Iguodala-1334","3500","SG/SF","29.35","218","21.3","103.10","13.25","23.00","26.72","10.21","17.37","0","0"
"Donovan Mitchell","Donovan-Mitchell-37875","7400","PG/SG","51.00","218","30.8","98.88","29.90","35.00","48.09","19.8","36.74","0","0"
"Al-Farouq Aminu","Al-Farouq-Aminu-1279","4800","SF/PF","37.87","202","31.7","104.50","12.87","30.00","36.65","17.71","23.77","0","0"
"Nerlens Noel","Nerlens-Noel-18575","3300","C","54.05","234","14.4","102.62","16.61","15.00","27.27","13.9","16.33","0","0"
"Victor Oladipo","Victor-Oladipo-16807","8500","PG/SG","46.97","208.5","32.0","107.67","25.85","33.00","58.24","25.58","42.08","0","0"
"D'Angelo Russell","D'Angelo-Russell-18947","7700","PG/SG","53.46","213.5","29.0","114.62","31.07","32.00","52.93","18.98","38.11","0","0"
"Tim Hardaway Jr.","Tim-Hardaway-Jr.-16879","6500","SG/SF","46.87","228","33.5","100.17","23.17","32.00","49.99","21.83","32.15","0","0"
"Marcus Morris","Marcus-Morris-13316","6200","SF/PF","35.01","223","29.5","101.75","21.27","30.00","40.96","16.05","30.52","0","0"
"Robert Covington","Robert-Covington-16874","5500","SF/PF","33.97","217","29.8","100.67","16.74","33.00","37.94","17.79","27.08","0","0"
"Joe Ingles","Joe-Ingles-18627","5600","SG/SF","40.53","218","26.7","98.88","18.05","32.00","42.77","18.0","27.52","0","0"
"Bogdan Bogdanovic","Bogdan-Bogdanovic-37899","6000","SG/SF","47.73","234","27.9","98.20","23.23","30.00","46.69","24.77","29.42","0","0"
"Jakob Poeltl","Jakob-Poeltl-35187","3600","C","53.43","210.5","18.9","99.70","13.42","18.00","35.17","15.6","17.61","0","0"
"Kyrie Irving","Kyrie-Irving-13334","9100","PG","53.10","223","29.4","101.75","34.23","32.00","61.01","23.59","44.34","0","0"
"Garrett Temple","Garrett-Temple-14077","4000","SG/SF","36.23","202","27.5","103.30","14.25","32.00","31.28","13.99","19.49","0","0"
"Ben Simmons","Ben-Simmons-35184","8800","PG/SF","41.14","228","33.6","108.33","23.28","34.00","55.1","18.28","42.81","0","0"
"Kevon Looney","Kevon-Looney-18945","3700","PF/C","53.09","218","23.2","103.10","11.43","22.00","26.01","11.47","17.95","0","0"
"Deandre Ayton","Deandre-Ayton-409301","6700","C","50.18","223","27.6","108.80","23.25","29.00","38.01","11.95","32.46","0","0"
"Domantas Sabonis","Domantas-Sabonis-35217","6700","PF/C","51.19","208.5","23.3","107.67","23.05","26.00","48.53","24.59","32.44","0","0"
"Taj Gibson","Taj-Gibson-1277","4400","PF/C","51.16","217","20.8","100.67","19.47","24.00","29.01","11.83","21.27","0","0"
"Joe Harris","Joe-Harris-18587","5100","SG/SF","34.83","213.5","30.9","114.62","17.32","32.00","36.14","16.42","24.65","0","0"
"Malcolm Brogdon","Malcolm-Brogdon-35195","5400","PG/SG","50.31","231","27.0","98.80","22.86","30.00","40.09","18.48","26.03","0","0"
"OG Anunoby","OG-Anunoby-37807","3300","SF/PF","35.11","208.5","18.3","105.50","17.00","22.00","29.41","15.88","15.88","0","0"
"C.J. McCollum","C.J.-McCollum-17121","6600","PG/SG","43.40","202","34.6","104.50","27.17","34.00","42.1","18.39","31.77","0","0"
"Mike Conley","Mike-Conley-1062","7600","PG","40.69","202","33.4","103.30","24.03","33.00","54.19","21.89","36.54","0","0"
"Jaren Jackson","Jaren-Jackson-409099","5700","PF/C","53.70","202","23.1","103.30","17.51","27.00","28.37","5.68","27.44","0","0"
"Stephen Curry","Stephen-Curry-1079","9500","PG/SG","49.18","218","34.3","103.10","29.53","34.00","63.34","24.84","45.57","0","0"
"Kevin Durant","Kevin-Durant-1348","9400","SF/PF","47.77","218","34.5","103.10","29.53","34.00","58.33","23.52","45.15","0","0"
"Darren Collison","Darren-Collison-1060","4700","PG","39.69","208.5","27.6","107.67","14.69","28.00","30.95","13.69","22.56","0","0"
"Evan Fournier","Evan-Fournier-13913","5800","SG/SF","33.71","210.5","32.2","105.10","22.57","32.00","35.45","14.43","27.8","0","0"
"DeMar DeRozan","DeMar-DeRozan-1053","8200","SG/SF","47.22","210.5","33.6","99.70","29.61","35.00","53.11","18.41","39.25","0","0"
"Ed Davis","Ed-Davis-1265","3600","PF/C","56.63","213.5","20.3","114.62","11.43","18.00","28.96","12.72","17.21","0","0"
"Gordon Hayward","Gordon-Hayward-1239","5600","SF/PF","50.76","223","23.8","101.75","20.37","28.00","39.45","18.56","26.78","0","0"
"Rudy Gobert","Rudy-Gobert-16935","8000","C","51.04","218","24.0","98.88","16.87","32.00","50.49","15.76","38.16","0","0"
"Ryan Arcidiacono","Ryan-Arcidiacono-36050","3900","PG","39.42","213.5","26.8","104.50","8.18","30.00","29.89","12.0","18.61","0","0"
"Iman Shumpert","Iman-Shumpert-13350","3600","SG/SF","39.50","234","27.2","98.20","17.48","25.00","25.46","12.3","17.13","0","0"
"Marcus Smart","Marcus-Smart-18567","4900","PG/SG","53.10","223","28.0","101.75","16.63","28.00","33.39","13.09","23.3","0","0"
"Eric Bledsoe","Eric-Bledsoe-1031","7600","PG/SG","50.31","231","30.4","98.80","26.92","32.00","52.76","22.09","36.16","0","0"
"LaMarcus Aldridge","LaMarcus-Aldridge-1349","8100","PF/C","50.08","210.5","28.0","99.70","26.81","33.00","55.2","25.0","38.28","0","0"
"Cody Zeller","Cody-Zeller-16836","5300","C","48.87","214","28.5","103.00","14.74","28.00","35.99","14.04","24.99","0","0"
"Derrick Favors","Derrick-Favors-1266","5200","PF/C","51.75","218","22.5","98.88","21.75","24.00","31.62","15.32","24.51","0","0"
"David Nwaba","David-Nwaba-36526","3400","SG/SF","40.07","214","12.2","103.60","23.45","20.00","25.26","11.11","16.03","0","0"
"Evan Turner","Evan-Turner-1291","4100","SG/SF","43.40","202","22.5","104.50","17.55","24.00","28.47","16.05","19.29","0","0"
"Terry Rozier","Terry-Rozier-18894","4300","PG/SG","47.00","223","26.7","101.75","17.14","20.00","31.59","17.08","20.07","0","0"
"Danuel House","Danuel-House-36029","3500","SF/PF","55.41","224","19.2","101.42","12.62","22.00","27.08","12.43","16.35","0","0"
"Rudy Gay","Rudy-Gay-1341","6300","SF/PF","49.24","210.5","28.6","99.70","22.64","30.00","38.06","14.56","29.3","0","0"
"Rodions Kurucs","Rodions-Kurucs-408801","3800","SF/PF","48.99","213.5","19.7","114.62","16.10","22.00","17.86","3.27","17.67","0","0"
"Klay Thompson","Klay-Thompson-13315","6600","SG","29.35","218","33.8","103.10","25.61","34.00","41.14","17.69","30.5","0","0"
"Langston Galloway","Langston-Galloway-18717","3400","PG/SG","39.96","217","26.7","100.30","18.07","22.00","27.02","12.99","15.63","0","0"
"Blake Griffin","Blake-Griffin-1503","9600","PF/C","52.85","217","34.8","100.30","34.75","35.00","55.81","20.22","44.05","0","0"
"Rodney Hood","Rodney-Hood-18629","4800","SG/SF","48.87","214","25.1","103.60","20.50","28.00","35.07","14.1","22","0","0"
"Zach Collins","Zach-Collins-37866","3200","PF/C","52.26","202","18.2","104.50","14.09","17.00","22.53","11.09","14.67","0","0"
"Danny Green","Danny-Green-940","4600","SG/SF","35.11","208.5","32.9","105.50","11.52","31.00","30.08","14.55","21.02","0","0"
"Spencer Dinwiddie","Spencer-Dinwiddie-18588","7300","PG/SG","53.46","213.5","29.4","114.62","29.33","32.00","51.25","23.22","33.26","0","0"
"Meyers Leonard","Meyers-Leonard-13905","3100","PF/C","52.26","202","10.8","104.50","12.49","13.00","24.25","11.51","14.14","0","0"
"Bojan Bogdanovic","Bojan-Bogdanovic-18571","5100","SG/SF","36.23","208.5","32.6","107.67","21.55","32.00","36.29","18.44","23.19","0","0"
"Justin Jackson","Justin-Jackson-37895","3300","SF/PF","39.50","234","18.7","98.20","14.98","24.00","22.84","12.01","14.94","0","0"
"Jae Crowder","Jae-Crowder-13942","4600","SF/PF","35.81","218","23.2","98.88","17.82","26.00","34.75","15.86","20.71","0","0"
"Alec Burks","Alec-Burks-13353","4100","PG/SG","48.87","214","28.4","103.60","20.32","21.00","31.02","18.43","18.43","0","0"
"Jerian Grant","Jerian-Grant-18900","3200","PG","43.45","210.5","17.8","105.10","11.01","18.00","24.24","12.59","14.37","0","0"
"Kevin Knox","Kevin-Knox-408820","5900","SF/PF","46.87","228","33.0","100.17","21.45","34.00","27.26","5.46","26.36","0","0"
"De'Anthony Melton","De'Anthony-Melton-409081","4500","PG","50.41","223","25.6","108.80","22.02","22.00","23.49","7.38","20.06","0","0"
"Gerald Green","Gerald-Green-13374","3400","SG/SF","45.38","224","18.5","101.42","14.65","19.00","26.28","12.31","15.18","0","0"
"Tyus Jones","Tyus-Jones-18938","3600","PG","43.88","217","16.7","100.67","12.67","20.00","29.32","15.44","16.05","0","0"
"Tyreke Evans","Tyreke-Evans-1070","3900","SG/SF","48.38","208.5","20.5","107.67","26.05","17.00","23.54","10.13","17.37","0","0"
"Patty Mills","Patty-Mills-13977","3700","PG/SG","38.03","210.5","23.6","99.70","16.21","22.00","25.24","12.86","16.43","0","0"
"Mikal Bridges","Mikal-Bridges-408842","4200","SG/SF","34.19","223","31.6","108.80","13.32","29.00","21.77","6.84","18.59","0","0"
"Aron Baynes","Aron-Baynes-14114","4000","C","60.22","223","12.0","101.75","15.07","18.00","28.15","12.03","17.67","0","0"
"Tony Parker","Tony-Parker-982","4000","PG","45.06","214","17.2","103.00","27.94","19.00","29.62","17.62","17.62","0","0"
"Devin Booker","Devin-Booker-18949","8700","PG/SG","50.41","223","36.0","108.80","30.12","34.00","58.4","22.25","38.37","0","0"
"Marco Belinelli","Marco-Belinelli-1033","3600","SG/SF","40.94","210.5","21.1","99.70","17.19","20.00","23.09","11.59","15.85","0","0"
"Dario Saric","Dario-Saric-36004","5000","PF","44.35","217","26.3","100.67","14.69","24.00","37.08","17.79","21.93","0","0"
"Daniel Theis","Daniel-Theis-37784","4200","PF/C","60.22","223","20.3","101.75","20.08","18.00","30.73","16.53","18.29","0","0"
"Davis Bertans","Davis-Bertans-36051","3900","PF/C","50.08","210.5","18.8","99.70","13.49","20.00","27.38","13.51","16.87","0","0"
"Noah Vonleh","Noah-Vonleh-18597","5400","PF/C","50.77","228","27.9","100.17","14.74","28.00","32.31","15.29","23.38","0","0"
"TJ Warren","TJ-Warren-18634","6800","SF/PF","43.45","223","28.4","108.80","24.95","34.00","38.19","17.05","29.4","0","0"
"D.J. Wilson","D.J.-Wilson-37822","3000","PF/C","48.23","231","14.3","98.80","13.83","16.00","24.8","12.81","12.81","0","0"
"T.J. McConnell","T.J.-McConnell-18956","3700","PG/SG","41.14","228","25.3","108.33","17.88","20.00","25.63","13.33","15.76","0","0"
"Jordan Clarkson","Jordan-Clarkson-18631","5900","PG/SG","48.87","214","27.7","103.60","28.81","26.00","41.9","24.21","25.09","0","0"
"Dante Exum","Dante-Exum-18626","3200","PG/SG","38.10","218","14.7","98.88","23.22","17.00","23.51","11.08","13.55","0","0"
"Kosta Koufos","Kosta-Koufos-1386","3200","C","49.30","234","15.6","98.20","13.12","14.00","25.91","13.55","13.55","0","0"
"Terrence Ross","Terrence-Ross-13902","5200","SG/SF","33.71","210.5","26.6","105.10","17.26","28.00","33.46","18.44","21.67","0","0"
"Nene Hilario","Nene-Hilario-17321","3200","C","55.52","224","14.8","101.42","15.76","14.00","21.75","11.52","13.35","0","0"
"Joakim Noah","Joakim-Noah-1404","3100","C","49.78","202","13.8","103.30","19.68","15.00","21.8","11.58","12.78","0","0"
"Thaddeus Young","Thaddeus-Young-1289","5900","SF/PF","46.19","208.5","34.1","107.67","19.51","31.00","34.76","12.76","24.17","0","0"
"Malik Monk","Malik-Monk-37827","3300","PG/SG","55.59","214","17.8","103.00","27.21","15.00","20.72","11.13","13.49","0","0"
"Myles Turner","Myles-Turner-18915","6600","C","53.41","208.5","28.6","107.67","22.72","30.00","44.08","20.14","26.93","0","0"
"Jaylen Brown","Jaylen-Brown-35181","5000","SG/SF","35.01","223","24.2","101.75","24.94","24.00","38.56","16.94","20.39","0","0"
"Cameron Payne","Cameron-Payne-18941","3400","PG/SG","39.42","213.5","14.4","104.50","21.57","17.00","23.43","11.91","13.72","0","0"
"Gorgui Dieng","Gorgui-Dieng-16939","3400","PF/C","51.16","217","14.0","100.67","18.44","13.00","21.08","10.08","13.73","0","0"
"Sam Dekker","Sam-Dekker-18929","3700","SF/PF","34.29","224","12.8","103.80","21.79","18.00","25.11","12.41","14.76","0","0"
"Emmanuel Mudiay","Emmanuel-Mudiay-18936","6400","PG","38.83","228","30.1","100.17","28.53","30.00","34.29","15.82","25.4","0","0"
"Royce O'Neale","Royce-O'Neale-37872","3400","SF","35.81","218","18.7","98.88","13.82","18.00","20.48","10.0","13.44","0","0"
"Cory Joseph","Cory-Joseph-13339","4000","PG","39.69","208.5","23.7","107.67","18.18","23.00","27.73","11.97","15.81","0","0"
"Josh Jackson","Josh-Jackson-37890","5300","SF/PF","43.45","223","27.7","108.80","25.67","24.00","29.85","13.39","20.95","0","0"
"Jose Calderon","Jose-Calderon-1071","3200","PG","35.54","217","19.4","100.30","16.17","18.00","21.88","10.05","12.62","0","0"
"Chandler Hutchison","Chandler-Hutchison-408877","3000","SF/PF","31.76","213.5","12.0","104.50","10.50","16.00","12.0","2.14","11.82","0","0"
"Derrick White","Derrick-White-37858","3900","PG/SG","38.03","210.5","20.0","99.70","16.99","19.00","27.65","13.18","15.25","0","0"
"Nik Stauskas","Nik-Stauskas-18636","3100","SG/SF","36.91","202","16.0","104.50","20.15","16.00","19.75","9.34","12.02","0","0"
"Dante Cunningham","Dante-Cunningham-1259","3300","SF/PF","49.24","210.5","19.5","99.70","8.43","18.00","19.48","8.93","12.76","0","0"
"Seth Curry","Seth-Curry-16825","3000","PG/SG","36.91","202","16.2","104.50","15.99","14.00","22.12","11.55","11.55","0","0"
"Sterling Brown","Sterling-Brown-37821","3300","SG/SF","37.17","231","23.2","98.80","12.37","18.00","24.22","12.58","12.58","0","0"
"Jonathon Simmons","Jonathon-Simmons-31808","3800","SG/SF","47.90","210.5","21.8","105.10","16.01","21.00","21.7","11.76","14.36","0","0"
"Trey Burke","Trey-Burke-17029","4200","PG/SG","53.43","228","17.5","100.17","20.17","17.00","27.3","13.78","15.86","0","0"
"Furkan Korkmaz","Furkan-Korkmaz-35185","3600","SG/SF","35.11","228","19.4","108.33","19.50","18.00","26.98","13.57","13.57","0","0"
"Robin Lopez","Robin-Lopez-1466","3000","C","63.41","213.5","17.8","104.50","19.75","14.00","22.09","11.2","11.2","0","0"
"Ante Zizic","Ante-Zizic-35180","3300","C","52.42","214","11.3","103.60","15.14","14.00","24.55","12.28","12.28","0","0"
"Damyean Dotson","Damyean-Dotson-37795","3900","SG/SF","35.63","228","24.8","100.17","18.48","19.00","18.97","12.93","14.37","0","0"
"Doug McDermott","Doug-McDermott-18583","3100","SF/PF","36.23","208.5","17.1","107.67","17.39","20.00","22.73","11.37","11.37","0","0"
"Alex Abrines","Alex-Abrines-36054","3000","SG/SF","42.48","234","16.4","102.62","10.50","17.00","21.23","11","11","0","0"
"Jared Dudley","Jared-Dudley-1319","3200","SF/PF","41.63","213.5","17.3","114.62","14.19","18.00","21.15","10.28","11.75","0","0"
"Lorenzo Brown","Lorenzo-Brown-16940","3000","PG","48.13","208.5","7.5","105.50","18.64","15.00","19.85","10.98","10.98","0","0"
"Jordan Bell","Jordan-Bell-37877","3000","PF/C","53.09","218","13.0","103.10","13.83","12.00","18.01","9.22","10.9","0","0"
"Frank Kaminsky","Frank-Kaminsky-18920","3200","PF/C","48.79","214","13.3","103.00","18.36","13.00","18.83","9.58","11.63","0","0"
"Jon Leuer","Jon-Leuer-13317","3100","PF/C","52.85","217","13.0","100.30","16.40","14.00","18.19","9.49","11.19","0","0"
"Frank Ntilikina","Frank-Ntilikina-37796","3500","PG/SG","38.83","228","19.7","100.17","23.10","20.00","20.09","10.9","12.52","0","0"
"Shaquille Harrison","Shaquille-Harrison-36065","3200","PG","39.42","213.5","15.7","104.50","17.43","14.00","18.52","8.98","11.44","0","0"
"Shaun Livingston","Shaun-Livingston-14007","3000","PG","44.36","218","15.8","103.10","11.74","16.00","17.86","8.15","10.7","0","0"
"Kyle Korver","Kyle-Korver-1269","3100","SG/SF","40.53","218","15.3","98.88","18.59","14.00","19.62","8.72","11.02","0","0"
"Landry Shamet","Landry-Shamet-408841","3200","PG/SG","35.11","228","18.4","108.33","15.00","16.00","12.16","2.57","11.21","0","0"
"Chasson Randle","Chasson-Randle-36002","3000","PG","49.40","224","16.0","103.80","16.88","13.00","16.42","4.63","10.17","0","0"
"Terrance Ferguson","Terrance-Ferguson-37871","3200","SG/SF","42.48","234","19.6","102.62","8.65","21.00","17.12","6.69","10.74","0","0"
"Miles Bridges","Miles-Bridges-409262","3800","SF/PF","48.12","214","18.8","103.00","18.47","16.00","12.81","2.28","12.62","0","0"
"Thomas Bryant ","Thomas-Bryant--37884","3900","PF/C","54.21","224","18.0","103.80","14.47","18.00","21.44","10.12","12.86","0","0"
"Andrew Harrison","Andrew-Harrison-18950","3200","PG","42.17","231","6.5","104.88","18.25","14.00","17.93","8.62","10.54","0","0"
"Tony Snell","Tony-Snell-16872","3300","SG/SF","42.68","231","21.0","98.80","13.98","18.00","18.71","9.69","10.74","0","0"
"Michael Kidd-Gilchrist","Michael-Kidd-Gilchrist-13896","3600","SF/PF","36.58","214","17.0","103.00","17.39","16.00","19.01","9.79","11.46","0","0"
"Yogi Ferrell","Yogi-Ferrell-35999","3400","PG/SG","46.76","234","11.7","98.20","26.55","15.00","18.59","9.52","10.81","0","0"
"C.J. Miles","C.J.-Miles-1299","3500","SG/SF","35.11","208.5","17.1","105.50","16.09","15.00","18.19","8.89","11.03","0","0"
"Matthew Dellavedova","Matthew-Dellavedova-16839","4000","PG/SG","44.74","214","19.7","103.60","21.39","16.00","21.01","11.44","12.33","0","0"
"Brandon Knight","Brandon-Knight-13336","3000","PG/SG","55.41","224","4.7","101.42","20.94","10.00","12.61","6.6","9.06","0","0"
"George Hill","George-Hill-993","3400","PG/SG","50.66","231","19.0","98.80","13.46","13.00","17.61","9.18","10.23","0","0"
"MarShon Brooks","MarShon-Brooks-188837","3100","SG/SF","48.15","202","13.8","103.30","19.61","11.00","13.84","6.37","9.03","0","0"
"Robert Williams","Robert-Williams-408780","3400","PF/C","60.22","223","16.2","101.75","9.16","10.00","10.1","1.92","9.8","0","0"
"Khem Birch","Khem-Birch-37838","3500","PF/C","52.67","210.5","13.0","105.10","17.25","12.00","15.7","7.56","9.99","0","0"
"Omri Casspi","Omri-Casspi-1270","3200","SF/PF","39.26","202","12.2","103.30","18.48","11.00","15.88","7.64","9.09","0","0"
"Mario Hezonja","Mario-Hezonja-18923","3400","SF/PF","33.14","228","14.3","100.17","17.76","12.00","17.92","8.49","9.58","0","0"
"Jaron Blossomgame","Jaron-Blossomgame-570197","3200","SF/PF","40.07","214","14.5","103.60","10.64","14.00","9.23","2.13","8.72","0","0"
"Patrick Patterson","Patrick-Patterson-1260","3100","PF/C","57.49","234","12.7","102.62","8.93","12.00","14.08","6.75","7.97","0","0"
"Hamidou Diallo","Hamidou-Diallo-408800","3100","SG/SF","42.48","234","8.4","102.62","22.71","10.00","8.32","1.92","7.86","0","0"
"Thabo Sefolosha","Thabo-Sefolosha-1271","3100","SF/PF","35.81","218","13.5","98.88","12.72","10.00","10.62","6.05","7.15","0","0"
"Luke Kornet","Luke-Kornet-37800","3300","PF/C","35.63","228","11.0","100.17","18.64","10.00","11.62","5.44","7.52","0","0"
"Thon Maker","Thon-Maker-35194","3100","PF/C","51.05","231","11.7","98.80","15.96","8.00","11.91","5.61","6.93","0","0"
"Jarell Martin","Jarell-Martin-18931","3000","PF/C","52.47","210.5","4.3","105.10","13.32","8.00","10.15","5.42","6.58","0","0"
"Zaza Pachulia","Zaza-Pachulia-1455","3200","C","51.13","217","13.4","100.30","21.56","6.00","10.26","4.65","6.08","0","0"
"Alfonzo McKinnie","Alfonzo-McKinnie-37808","3200","SF/PF","35.50","218","15.5","103.10","17.33","8.00","10.63","5.51","5.51","0","0"
"Courtney Lee","Courtney-Lee-1025","3700","SG/SF","33.14","228","14.5","100.17","17.90","8.00","10.69","5.82","5.82","0","0"
"Willy Hernangomez","Willy-Hernangomez-18901","3400","C","48.87","214","9.2","103.00","26.99","4.00","9.66","5.13","5.3","0","0"
"Donte DiVincenzo","Donte-DiVincenzo-408950","3200","PG/SF","37.17","231","14.8","98.80","16.04","6.00","4.11","0.73","4.05","0","0"
"Shabazz Napier","Shabazz-Napier-18598","3300","PG/SG","43.62","213.5","2.0","114.62","28.80","4.00","6.81","3.05","3.73","0","0"
"Troy Williams","Troy-Williams-36043","3100","SF/PF","39.50","234","13.8","98.20","14.78","4.00","4.95","2.53","3.12","0","0"
"Norman Powell","Norman-Powell-18908","3000","SG/SF","35.82","208.5","0","105.50","0","4.00","5.65","2.9","2.9","0","0"
"Chris Boucher","Chris-Boucher-37880","3000","PF/C","54.74","208.5","1.0","105.50","40.00","4.00","3.05","0.64","2.81","0","0"
"Frank Jackson","Frank-Jackson-37855","3000","PG/SG","46.70","231","11.5","104.88","13.70","4.00","2.85","0.53","2.77","0","0"
"Bruce Brown","Bruce-Brown-408913","3300","PG/SG","39.96","217","21.3","100.30","11.41","4.00","3.01","0.74","2.83","0","0"
"Semi Ojeleye","Semi-Ojeleye-37786","3100","SF/PF","35.01","223","13.0","101.75","22.21","4.00","5.16","2.65","2.65","0","0"
