"nameCol","idCol","salaryCol","positionCol","dvpCol","ouCol","mpgCol","paceCol","usgCol","pminCol","ceilCol","floorCol","pointsCol","predictCol","actualCol"
"Tyreke Evans","Tyreke-Evans-1070","4100","SG/SF","48.15","206.5","20.5","107.67","27.35","30.00","50.21","18.08","32.06","0","0"
"Devin Harris","Devin-Harris-1076","3200","PG/SG","41.73","200.5","14.8","100.08","19.26","23.00","41.84","20.93","20.93","0","0"
"Wilson Chandler","Wilson-Chandler-1327","3500","SF/PF","33.94","220","18.5","108.33","12.64","27.00","40.27","15.33","22.61","0","0"
"Trey Lyles","Trey-Lyles-18942","4000","SF/PF","45.92","223.5","21.6","99.62","20.57","23.00","47.55","22.05","25.76","0","0"
"De'Aaron Fox","De'Aaron-Fox-37900","6100","PG","41.79","223","32.8","98.20","25.69","35.00","56.6","19.7","38.77","0","0"
"Nicolas Batum","Nicolas-Batum-1315","4900","SG/SF","42.34","218","25.8","103.00","14.97","32.00","50.79","22.3","31.1","0","0"
"Bogdan Bogdanovic","Bogdan-Bogdanovic-37899","4000","SG/SF","46.63","223","20.8","98.20","23.43","27.00","46.94","21.17","25.14","0","0"
"Avery Bradley","Avery-Bradley-941","3500","SG","45.50","233.5","0","108.38","0","27.00","43.64","21.83","21.83","0","0"
"Dante Cunningham","Dante-Cunningham-1259","3400","SF/PF","48.80","221","21.3","99.70","9.44","26.00","37.27","14.52","20.74","0","0"
"Patty Mills","Patty-Mills-13977","3900","PG/SG","52.14","221","25.7","99.70","19.29","25.00","42.59","18.46","23.57","0","0"
"Rudy Gay","Rudy-Gay-1341","5300","SF/PF","48.80","221","24.7","99.70","22.20","29.00","48.94","15.91","32.01","0","0"
"Dennis Smith Jr.","Dennis-Smith-Jr.-37847","5000","PG","41.73","200.5","25.5","100.08","24.27","30.00","48.26","16.46","29.77","0","0"
"JaMychal Green","JaMychal-Green-18729","4100","SF/PF","46.68","200.5","21.0","103.30","21.35","24.00","48.37","21.33","24.32","0","0"
"Harrison Barnes","Harrison-Barnes-13901","5500","SF/PF","42.88","200.5","29.5","100.08","23.08","34.00","48.39","18.66","32.28","0","0"
"Luka Doncic","Luka-Doncic-408971","6600","PG","41.45","200.5","31.7","100.08","27.33","35.00","47.18","8.03","38.77","0","0"
"Dorian Finney-Smith","Dorian-Finney-Smith-36032","3600","SF","40.59","200.5","27.5","100.08","12.10","32.00","35.68","12.71","21.04","0","0"
"Maxi Kleber","Maxi-Kleber-37845","3200","PF","42.88","200.5","17.2","100.08","11.47","21.00","36.09","15.34","18.62","0","0"
"Willie Cauley-Stein","Willie-Cauley-Stein-18951","5800","C","50.82","223","28.3","98.20","22.90","30.00","54.79","19.21","33.59","0","0"
"Thaddeus Young","Thaddeus-Young-1289","4000","SF/PF","47.52","206.5","23.7","107.67","17.32","27.00","38.96","12.39","23.15","0","0"
"Ish Smith","Ish-Smith-13958","3900","PG","46.33","213.5","23.6","100.30","19.86","25.00","39.38","14.92","22.5","0","0"
"Ersan Ilyasova","Ersan-Ilyasova-1301","3600","PF/C","47.35","223.5","20.0","98.80","12.25","24.00","38.97","13.94","20.74","0","0"
"Marco Belinelli","Marco-Belinelli-1033","3500","SG/SF","35.59","221","22.5","99.70","19.57","23.00","34.45","14.69","20.1","0","0"
"Shelvin Mack","Shelvin-Mack-13354","4200","PG","46.56","200.5","26.4","103.30","18.30","28.00","43.24","18.84","24.06","0","0"
"Mike Conley","Mike-Conley-1062","7200","PG","46.56","200.5","35.3","103.30","23.65","36.00","71.76","23.1","40.96","0","0"
"Joe Ingles","Joe-Ingles-18627","5400","SG/SF","36.35","206.5","32.0","98.88","18.60","33.00","54.42","20.51","30.66","0","0"
"Derrick Favors","Derrick-Favors-1266","4600","PF/C","51.59","206.5","23.3","98.88","15.43","25.00","40.39","16.0","26.01","0","0"
"Malcolm Brogdon","Malcolm-Brogdon-35195","4700","PG/SG","49.20","223.5","29.2","98.80","20.85","29.00","47.07","18.27","26.52","0","0"
"Reggie Bullock","Reggie-Bullock-16943","4000","SG/SF","38.71","213.5","25.8","100.30","17.37","28.00","43.01","15.41","22.46","0","0"
"Buddy Hield","Buddy-Hield-35206","5600","SG/SF","37.08","223","29.0","98.20","27.07","30.00","54.89","20.63","31.17","0","0"
"Jaylen Brown","Jaylen-Brown-35181","4200","SG/SF","40.03","218","28.1","101.75","20.20","29.00","41.62","17.07","23.38","0","0"
"Jae Crowder","Jae-Crowder-13942","4200","SF/PF","34.18","206.5","26.7","98.88","19.35","28.00","46.03","17.88","23.34","0","0"
"Cody Zeller","Cody-Zeller-16836","4000","C","46.91","218","26.8","103.00","14.90","26.00","37.5","12.54","22.19","0","0"
"Marc Gasol","Marc-Gasol-1493","7600","C","46.68","200.5","35.0","103.30","22.34","36.00","65.38","24.63","42.18","0","0"
"Kyle Anderson","Kyle-Anderson-18615","4600","PG/SF","44.16","200.5","32.9","103.30","11.67","27.00","39.8","13.71","25.35","0","0"
"Langston Galloway","Langston-Galloway-18717","3800","PG/SG","37.25","213.5","27.6","100.30","17.60","25.00","41.72","18.14","20.87","0","0"
"Donovan Mitchell","Donovan-Mitchell-37875","7300","PG/SG","47.87","206.5","32.2","98.88","31.02","37.00","61.1","22.03","39.83","0","0"
"Monte Morris","Monte-Morris-37860","4100","PG","45.31","223.5","26.9","99.62","16.12","29.00","39.39","17.99","22.38","0","0"
"Rudy Gobert","Rudy-Gobert-16935","7000","C","49.00","206.5","30.1","98.88","16.07","33.00","63.94","19.41","38.13","0","0"
"Reggie Jackson","Reggie-Jackson-13352","5500","PG/SG","51.35","213.5","28.6","100.30","28.58","28.00","49.37","16.18","29.96","0","0"
"Jerami Grant","Jerami-Grant-18576","4900","SF/PF","54.53","223","30.1","102.62","14.82","30.00","48.76","19.04","26.66","0","0"
"Rodney Hood","Rodney-Hood-18629","4500","SG/SF","44.19","213.5","24.8","103.60","19.43","29.00","45.92","15.69","24.48","0","0"
"Gary Harris","Gary-Harris-18617","6100","SG","50.36","223.5","33.7","99.62","19.62","35.00","52.13","19.38","33.18","0","0"
"Garrett Temple","Garrett-Temple-14077","4300","SG/SF","30.24","200.5","32.1","103.30","13.10","32.00","43.82","16.83","23.37","0","0"
"Jimmy Butler","Jimmy-Butler-13327","7900","SG/SF","55.03","220","38.2","108.33","21.15","35.00","69.21","22.49","42.83","0","0"
"Collin Sexton","Collin-Sexton-408896","5100","PG","48.60","213.5","31.2","103.60","23.23","34.00","37.96","10.15","27.57","0","0"
"Darren Collison","Darren-Collison-1060","4900","PG","47.78","206.5","27.5","107.67","16.26","30.00","42.04","16.25","26.46","0","0"
"Shai Gilgeous-Alexander","Shai-Gilgeous-Alexander-408990","5300","PG","48.56","233.5","30.5","108.38","18.43","33.00","34.81","5.92","28.6","0","0"
"Mike Muscala","Mike-Muscala-17379","3900","PF/C","54.01","220","30.0","108.33","14.06","23.00","42.06","21.04","21.04","0","0"
"Hamidou Diallo","Hamidou-Diallo-408800","3400","SG","40.76","223","13.1","102.62","20.03","22.00","25.21","6.74","18.31","0","0"
"Mike Scott","Mike-Scott-13999","3400","SF/PF","57.85","233.5","16.5","108.38","14.76","21.00","36.64","21.56","18.33","0","0"
"Myles Turner","Myles-Turner-18915","4700","C","57.30","206.5","25.3","107.67","19.68","28.00","48.68","18.98","25.34","0","0"
"DeAndre Jordan","DeAndre-Jordan-1486","6400","C","46.77","200.5","28.7","100.08","12.81","34.00","50.23","20.69","34.43","0","0"
"Brook Lopez","Brook-Lopez-1498","5200","C","60.25","223.5","29.3","98.80","15.88","27.00","49.81","19.06","27.95","0","0"
"Al Horford","Al-Horford-1499","6000","PF/C","53.77","218","28.9","101.75","16.02","31.00","51.46","17.72","32.22","0","0"
"Kent Bazemore","Kent-Bazemore-13987","5700","SG/SF","46.40","233.5","26.9","105.10","23.75","29.00","51.08","14.96","30.53","0","0"
"Jeremy Lamb","Jeremy-Lamb-13955","5100","SG/SF","49.48","218","27.8","103.00","23.69","27.00","44.11","16.19","27.21","0","0"
"J.J. Redick","J.J.-Redick-1030","5300","SG/SF","35.78","220","32.0","108.33","22.28","32.00","44.4","18.23","28.3","0","0"
"Marvin Bagley III","Marvin-Bagley-III-409321","3900","PF","44.33","223","21.7","98.20","21.99","26.00","26.54","4.76","20.78","0","0"
"Trae Young","Trae-Young-409063","6300","PG","50.41","233.5","27.6","105.10","31.79","30.00","44.78","10.27","33.57","0","0"
"Ricky Rubio","Ricky-Rubio-1001","5700","PG","43.38","206.5","29.6","98.88","23.57","30.00","47.65","16.09","30.31","0","0"
"Dewayne Dedmon","Dewayne-Dedmon-16894","4000","PF/C","55.74","233.5","21.0","105.10","16.96","20.00","38.67","16.24","21.26","0","0"
"Nemanja Bjelica","Nemanja-Bjelica-31814","4500","SF/PF","44.33","223","23.0","98.20","14.74","24.00","45.95","15.82","23.86","0","0"
"Trevor Ariza","Trevor-Ariza-1323","4500","SF/PF","33.68","220","33.2","108.80","11.37","32.00","36.6","11.64","23.66","0","0"
"Cedi Osman","Cedi-Osman-18912","4500","SF","35.72","213.5","23.3","103.60","17.14","27.00","40.15","17.12","23.62","0","0"
"Mikal Bridges","Mikal-Bridges-408842","4000","SF","33.68","220","22.8","108.80","15.75","27.00","24.93","3.88","20.97","0","0"
"Jayson Tatum","Jayson-Tatum-37782","6000","SF/PF","49.64","218","31.3","101.75","21.08","32.00","46.94","16.78","31.42","0","0"
"Aaron Holiday","Aaron-Holiday-408932","3200","PG","47.78","206.5","15.0","107.67","25.44","22.00","19.96","3.03","16.72","0","0"
"Anthony Davis","Anthony-Davis-13895","11600","PF/C","46.70","221","38.0","104.88","31.90","38.00","103.52","31.54","60.54","0","0"
"Terry Rozier","Terry-Rozier-18894","3900","PG/SG","48.26","218","23.4","101.75","19.49","20.00","37.97","17.38","20.35","0","0"
"Jordan Clarkson","Jordan-Clarkson-18631","5200","PG/SG","44.19","213.5","27.0","103.60","28.35","27.00","53.27","26.03","27.11","0","0"
"Giannis Antetokounmpo","Giannis-Antetokounmpo-16852","11300","SF/PF","47.35","223.5","34.2","98.80","30.61","35.00","82.66","25.09","58.75","0","0"
"Marvin Williams","Marvin-Williams-1318","3900","SF/PF","42.42","218","24.4","103.00","14.52","26.00","39.32","17.3","20.28","0","0"
"Larry Nance","Larry-Nance-18946","5700","PF/C","54.09","213.5","25.0","103.60","13.52","27.00","51.46","18.03","29.66","0","0"
"Tobias Harris","Tobias-Harris-13332","7800","SF/PF","57.85","233.5","37.2","108.38","22.18","35.00","63.15","22.31","40.35","0","0"
"Richaun Holmes","Richaun-Holmes-18905","3200","PF/C","50.98","220","15.2","108.80","15.81","15.00","33.02","11.56","16.52","0","0"
"Lou Williams","Lou-Williams-1044","6200","PG/SG","48.17","233.5","30.0","108.38","32.48","29.00","57.17","19.5","31.87","0","0"
"Josh Jackson","Josh-Jackson-37890","3400","SF","47.58","220","12.5","108.80","27.65","16.00","29.02","11.09","17.41","0","0"
"Guillermo Hernangomez","Guillermo-Hernangomez-18901","3400","C","46.91","218","13.2","103.00","22.18","14.00","34.62","16.77","17.32","0","0"
"Alex Len","Alex-Len-16886","4200","C","55.74","233.5","18.9","105.10","25.76","18.00","35.9","12.75","21.22","0","0"
"Julius Randle","Julius-Randle-18632","6800","PF/C","46.70","221","27.7","104.88","23.90","26.00","56.0","25.81","34.27","0","0"
"Nikola Mirotic","Nikola-Mirotic-18584","7100","SF/PF","49.33","221","30.6","104.88","20.49","31.00","63.08","22.61","35.72","0","0"
"Joel Embiid","Joel-Embiid-18578","11100","C","54.01","220","35.7","108.33","31.52","34.00","79.9","24.11","55.68","0","0"
"Patrick Beverley","Patrick-Beverley-14108","4900","PG/SG","51.30","233.5","30.7","108.38","12.85","26.00","41.21","16.23","24.59","0","0"
"Bryn Forbes","Bryn-Forbes-36052","4100","PG/SG","35.59","221","28.8","99.70","17.76","28.00","35.07","12.44","20.53","0","0"
"Jeremy Lin","Jeremy-Lin-916","4200","PG/SG","50.41","233.5","20.4","105.10","27.26","19.00","37.94","15.69","20.95","0","0"
"Cory Joseph","Cory-Joseph-13339","3900","PG","47.78","206.5","28.2","107.67","13.00","28.00","38.92","15.75","19.47","0","0"
"Gordon Hayward","Gordon-Hayward-1239","5900","SG/SF","49.64","218","28.3","101.75","17.00","29.00","51.22","17.92","29.42","0","0"
"Steven Adams","Steven-Adams-16848","7500","C","54.35","223","33.9","102.62","19.25","34.00","57.98","24.63","37.43","0","0"
"Stanley Johnson","Stanley-Johnson-18913","3700","SF/PF","38.71","213.5","19.6","100.30","20.67","22.00","35.82","13.88","18.36","0","0"
"Kyrie Irving","Kyrie-Irving-13334","8400","PG","44.92","218","33.8","101.75","30.34","33.00","65.58","22.28","41.56","0","0"
"E'Twaun Moore","E'Twaun-Moore-18582","5000","SG/SF","33.59","221","30.3","104.88","19.94","34.00","44.94","17.03","24.76","0","0"
"Ben Simmons","Ben-Simmons-35184","8900","PG/SF","47.49","220","36.1","108.33","20.85","35.00","67.43","18.81","44.04","0","0"
"Montrezl Harrell","Montrezl-Harrell-18930","6600","PF/C","60.70","233.5","28.8","108.38","20.99","30.00","57.29","25.44","32.57","0","0"
"Marcus Smart","Marcus-Smart-18567","3600","PG/SG","44.92","218","22.4","101.75","15.93","19.00","35.32","13.45","17.67","0","0"
"Andre Drummond","Andre-Drummond-13904","9700","C","54.43","213.5","36.4","100.30","24.04","32.00","68.48","21.86","47.62","0","0"
"David Nwaba","David-Nwaba-36526","3500","SG/SF","35.72","213.5","21.0","103.60","14.62","20.00","34.24","16.6","17.13","0","0"
"LaMarcus Aldridge","LaMarcus-Aldridge-1349","8000","PF/C","61.07","221","34.8","99.70","21.90","34.00","66.4","25.56","39.15","0","0"
"Pat Connaughton","Pat-Connaughton-18939","4000","SG/SF","32.81","223.5","19.8","98.80","15.88","26.00","38.96","15.03","19.49","0","0"
"Malik Monk","Malik-Monk-37827","3700","SG","49.48","218","19.6","103.00","28.71","21.00","32.24","14.84","17.97","0","0"
"Glenn Robinson","Glenn-Robinson-18621","3500","SF/PF","38.71","213.5","22.8","100.30","17.79","22.00","29.29","10.99","16.96","0","0"
"Eric Bledsoe","Eric-Bledsoe-1031","6900","PG/SG","45.89","223.5","29.8","98.80","23.49","30.00","57.35","20.46","33.38","0","0"
"Deandre Ayton","Deandre-Ayton-409301","6500","C","55.79","220","32.8","108.80","21.28","32.00","38.31","6.52","31.48","0","0"
"Iman Shumpert","Iman-Shumpert-13350","3500","SG/SF","37.08","223","27.3","98.20","13.72","23.00","29.61","12.16","16.94","0","0"
"Mason Plumlee","Mason-Plumlee-16798","3300","PF/C","48.38","223.5","15.1","99.62","16.18","15.00","31.64","12.92","15.83","0","0"
"Nikola Jokic","Nikola-Jokic-31812","9500","C","56.93","223.5","29.3","99.62","26.70","33.00","70.48","18.12","45.53","0","0"
"Bojan Bogdanovic","Bojan-Bogdanovic-18571","4600","SG/SF","31.68","206.5","32.0","107.67","17.98","30.00","40.77","18.2","21.98","0","0"
"Aron Baynes","Aron-Baynes-14114","3300","C","54.56","218","12.6","101.75","18.10","16.00","28.9","12.97","15.74","0","0"
"Khris Middleton","Khris-Middleton-13990","7400","SG/SF","40.27","223.5","31.7","98.80","26.07","34.00","67.05","25.9","35.29","0","0"
"Jrue Holiday","Jrue-Holiday-1073","8700","PG/SG","48.25","221","36.3","104.88","28.82","37.00","65.31","19.41","41.39","0","0"
"Devin Booker","Devin-Booker-18949","7700","PG/SG","49.59","220","37.5","108.80","28.71","35.00","65.24","21.82","36.61","0","0"
"TJ Warren","TJ-Warren-18634","6400","SF/PF","47.58","220","34.5","108.80","19.88","34.00","46.57","17.59","30.38","0","0"
"Taurean Prince","Taurean-Prince-35218","5800","SF","34.62","233.5","31.2","105.10","20.39","30.00","27.25","27.25","27.25","0","0"
"Blake Griffin","Blake-Griffin-1503","10100","PF/C","50.47","213.5","33.8","100.30","28.54","36.00","71.16","22.87","47.16","0","0"
"Jaren Jackson","Jaren-Jackson-409099","5800","PF","46.68","200.5","26.4","103.30","23.68","29.00","34.97","10.96","26.92","0","0"
"Juan Hernangomez","Juan-Hernangomez-35212","4800","SF/PF","45.92","223.5","27.4","99.62","12.76","30.00","44.32","14.7","22.17","0","0"
"Paul Millsap","Paul-Millsap-1335","6100","PF/C","45.92","223.5","24.6","99.62","22.49","27.00","47.16","17.9","28.14","0","0"
"Wesley Johnson","Wesley-Johnson-1280","3400","SF/PF","33.39","221","21.9","104.88","11.08","24.00","27.94","13.6","15.69","0","0"
"Domantas Sabonis","Domantas-Sabonis-35217","6300","PF/C","51.22","206.5","26.5","107.67","19.94","25.00","50.78","22.54","28.97","0","0"
"Markelle Fultz","Markelle-Fultz-37801","3400","PG/SG","55.05","220","21.3","108.33","18.34","17.00","27.53","11.06","15.58","0","0"
"Omari Spellman","Omari-Spellman-408970","3800","PF","51.18","233.5","21.3","105.10","17.70","21.00","20.75","3.15","17.38","0","0"
"Jamal Murray","Jamal-Murray-35211","6700","PG/SG","45.31","223.5","33.3","99.62","26.71","31.00","56.07","19.61","30.54","0","0"
"Jakob Poeltl","Jakob-Poeltl-35187","3100","C","48.34","221","12.0","99.70","17.21","15.00","28.25","12.52","14.13","0","0"
"Nerlens Noel","Nerlens-Noel-18575","3400","C","54.35","223","12.7","102.62","12.91","14.00","30.2","13.08","15.37","0","0"
"Russell Westbrook","Russell-Westbrook-1083","10200","PG","55.82","223","25.0","102.62","45.58","33.00","66.92","36.92","46.15","0","0"
"Paul George","Paul-George-1245","10400","SF/PF","54.53","223","35.7","102.62","29.73","36.00","76.77","28.85","46.84","0","0"
"Dante Exum","Dante-Exum-18626","3200","PG/SG","43.38","206.5","15.3","98.88","20.85","17.00","28.65","11.29","14.33","0","0"
"Justin Jackson","Justin-Jackson-37895","3300","SF","37.08","223","13.4","98.20","11.86","20.00","26.52","11.85","14.74","0","0"
"DeMar DeRozan","DeMar-DeRozan-1053","9100","SG/SF","50.36","221","37.0","99.70","27.79","36.00","64.59","19.03","40.57","0","0"
"Dennis Schroder","Dennis-Schroder-18595","8100","PG/SG","55.82","223","31.4","102.62","28.91","35.00","57.01","17.45","36.06","0","0"
"Marcin Gortat","Marcin-Gortat-1479","3500","C","53.79","233.5","18.5","108.38","15.04","15.00","26.86","9.25","15.5","0","0"
"Isaiah Canaan","Isaiah-Canaan-16875","3900","PG","49.59","220","30.0","108.80","14.62","23.00","27.62","10.44","17.23","0","0"
"Kevin Huerter","Kevin-Huerter-408969","3300","SG","36.54","233.5","23.5","105.10","14.70","17.00","19.36","4.44","14.51","0","0"
"Frank Mason","Frank-Mason-37898","3300","PG","41.79","223","13.3","98.20","21.07","13.00","26.0","12.74","14.41","0","0"
"Thon Maker","Thon-Maker-35194","3100","PF/C","49.14","223.5","10.7","98.80","23.33","16.00","27.11","11.49","13.56","0","0"
"Patrick Patterson","Patrick-Patterson-1260","3000","PF/C","60.32","223","15.3","102.62","14.15","17.00","26.05","11.04","13.03","0","0"
"Tristan Thompson","Tristan-Thompson-13308","5500","C","51.55","213.5","29.0","103.60","20.02","28.00","38.63","14.3","23.8","0","0"
"Tyrone Wallace","Tyrone-Wallace-35220","3000","PG/SG","48.17","233.5","11.8","108.38","23.23","16.00","24.57","12.9","12.9","0","0"
"Justin Anderson","Justin-Anderson-18927","3000","SF/PF","34.62","233.5","0","105.10","0","12.00","23.34","9.49","12.72","0","0"
"Kyle Korver","Kyle-Korver-1269","3200","SG/SF","41.37","213.5","14.7","103.60","18.27","15.00","26.89","10.67","13.45","0","0"
"Ian Clark","Ian-Clark-16922","3200","PG/SG","33.59","221","19.0","104.88","18.76","21.00","25.98","12.9","13.44","0","0"
"Marcus Morris","Marcus-Morris-13316","5200","SF/PF","40.03","218","25.2","101.75","20.97","25.00","42.44","17.42","21.8","0","0"
"J.R. Smith","J.R.-Smith-915","3800","SG/SF","41.37","213.5","28.4","103.60","19.45","23.00","27.16","10.43","15.52","0","0"
"Royce O'Neale","Royce-O'Neale-37872","3000","SF","34.18","206.5","13.3","98.88","15.99","15.00","21.27","9.01","12.16","0","0"
"Jamal Crawford","Jamal-Crawford-1075","3100","PG/SG","47.58","220","14.2","108.80","22.74","15.00","25.03","12.52","12.52","0","0"
"DeAndre Bembry","DeAndre-Bembry-35198","3800","SF","34.62","233.5","21.1","105.10","17.24","18.00","27.14","12.16","15.37","0","0"
"Kemba Walker","Kemba-Walker-13335","9900","PG","49.48","218","38.2","103.00","33.45","34.00","62.94","19.8","39.91","0","0"
"Malik Beasley","Malik-Beasley-35213","3100","SG","38.14","223.5","16.0","99.62","18.20","17.00","24.93","12.47","12.47","0","0"
"Zaza Pachulia","Zaza-Pachulia-1455","3200","C","54.43","213.5","9.0","100.30","19.73","12.00","25.63","11.23","12.83","0","0"
"Doug McDermott","Doug-McDermott-18583","3000","SF/PF","31.68","206.5","14.8","107.67","12.13","20.00","23.95","11.98","11.98","0","0"
"Landry Shamet","Landry-Shamet-408841","3200","PG","55.05","220","22.3","108.33","14.77","18.00","15.42","2.49","12.71","0","0"
"Darius Miller","Darius-Miller-13951","3100","SF/PF","33.39","221","21.3","104.88","11.36","22.00","24.27","12.14","12.14","0","0"
"Tony Snell","Tony-Snell-16872","3100","SG/SF","33.57","223.5","15.7","98.80","13.46","19.00","24.07","10.86","12.04","0","0"
"Miles Bridges","Miles-Bridges-409262","4200","SF","42.42","218","22.2","103.00","13.28","21.00","19.65","3.18","16.2","0","0"
"Tony Parker","Tony-Parker-982","3700","PG","41.33","218","18.2","103.00","23.80","17.00","28.43","14.22","14.22","0","0"
"Alec Burks","Alec-Burks-13353","3100","SG","45.43","206.5","17.6","98.88","21.35","13.00","23.48","11.84","11.84","0","0"
"De'Anthony Melton","De'Anthony-Melton-409081","3000","SG","49.59","220","9.5","108.80","9.12","11.00","13.57","2.11","11.41","0","0"
"Wayne Selden","Wayne-Selden-36045","3100","SG","51.04","200.5","18.1","103.30","15.80","15.00","22.95","11.04","11.48","0","0"
"Dwayne Bacon","Dwayne-Bacon-37828","3300","SG","37.73","218","22.0","103.00","14.60","16.00","23.16","10.48","12.09","0","0"
"John Collins","John-Collins-37823","4800","C","55.74","233.5","12.0","105.10","40.27","18.00","31.1","10.45","17.21","0","0"
"Jalen Brunson","Jalen-Brunson-409062","3100","PG","44.22","200.5","7.4","100.08","24.46","18.00","12.83","2.0","10.79","0","0"
"MarShon Brooks","MarShon-Brooks-188837","3200","SG","51.04","200.5","15.4","103.30","25.41","13.00","19.84","7.61","10.85","0","0"
"Derrick White","Derrick-White-37858","4300","PG","60.25","221","22.0","99.70","20.37","20.00","28.69","12.4","14.35","0","0"
"Andrew Harrison","Andrew-Harrison-18950","3300","PG","47.30","213.5","14.3","103.60","19.09","10.00","18.87","7.72","9.44","0","0"
"Ryan Broekhoff","Ryan-Broekhoff-555205","3000","SG/SF","39.05","200.5","4.0","100.08","10.00","13.00","9.38","1.46","7.89","0","0"
"Amir Johnson","Amir-Johnson-1285","3100","PF/C","59.33","220","7.7","108.33","24.41","8.00","15.02","6.3","8.16","0","0"
"Georges Niang","Georges-Niang-35193","3000","PF","44.57","206.5","7.3","98.88","16.25","10.00","14.92","6.77","7.48","0","0"
"Jose Calderon","Jose-Calderon-1071","3000","PG","46.33","213.5","11.2","100.30","10.77","10.00","14.27","6.03","7.14","0","0"
"Alex Abrines","Alex-Abrines-36054","3200","SG/SF","40.76","223","21.3","102.62","12.94","12.00","9.78","6.77","7.52","0","0"
"Furkan Korkmaz","Furkan-Korkmaz-35185","3300","SG","55.05","220","16.8","108.33","17.33","11.00","14.57","7.29","7.29","0","0"
"Daniel Theis","Daniel-Theis-37784","3000","PF/C","54.56","218","8.3","101.75","15.62","6.00","11.67","5.43","6.01","0","0"
"Harry Giles","Harry-Giles-37897","3000","PF","44.33","223","7.5","98.20","31.39","8.00","7.61","1.36","5.96","0","0"
"Vince Carter","Vince-Carter-1066","3200","SG/SF","36.54","233.5","15.4","105.10","15.71","8.00","12.45","5.46","6.23","0","0"
"Bismack Biyombo","Bismack-Biyombo-13312","3000","C","46.91","218","4.7","103.00","12.03","6.00","11.59","4.74","5.8","0","0"
"Raymond Felton","Raymond-Felton-1078","3300","PG/SG","43.16","223","11.9","102.62","26.91","4.00","8.62","3.84","4.31","0","0"
"Frank Jackson","Frank-Jackson-37855","3000","PG","48.25","221","5.0","104.88","26.35","7.00","4.74","0.77","3.91","0","0"
"Boban Marjanovic","Boban-Marjanovic-31807","3700","C","53.79","233.5","9.7","108.38","23.10","4.00","9.36","4.56","4.68","0","0"
"Troy Williams","Troy-Williams-36043","3200","SG","37.08","223","14.6","98.20","18.73","4.00","6.8","2.95","3.64","0","0"
"Timothe Luwawu-Cabarrot","Timothe-Luwawu-Cabarrot-35183","3200","SG","36.58","223","7.0","102.62","16.64","4.00","6.56","3.46","3.46","0","0"
"Quincy Pondexter","Quincy-Pondexter-1237","3000","SF","35.98","221","6.6","99.70","16.38","4.00","5.76","2.88","2.88","0","0"
"Sindarius Thornwell","Sindarius-Thornwell-37881","3000","SG","46.24","233.5","8.8","108.38","7.47","4.00","5.7","2.85","2.85","0","0"
"Torrey Craig","Torrey-Craig-37861","3000","SG/SF","38.14","223.5","8.0","99.62","16.21","4.00","5.01","2.56","2.83","0","0"
"Deonte Burton","Deonte-Burton-570274","3000","SG","55.82","223","7.7","102.62","19.70","4.00","3.41","0.67","2.74","0","0"
