"nameCol","idCol","salaryCol","positionCol","dvpCol","ouCol","mpgCol","paceCol","usgCol","pminCol","ceilCol","floorCol","pointsCol","predictCol","actualCol"
"Alec Burks","Alec-Burks-13353","4400","PG/SG","0","201.5","0","103.60","0","31.00","52.57","31.33","31.33","0","0"
"Maurice Harkless","Maurice-Harkless-16971","3400","SF/PF","0","215.5","0","104.50","0","27.00","37.64","16.0","23.84","0","0"
"Cedi Osman","Cedi-Osman-18912","4000","SF/PF","0","201.5","0","103.60","0","33.00","36.23","12.6","28","0","0"
"Matthew Dellavedova","Matthew-Dellavedova-16839","3800","PG/SG","0","201.5","0","103.60","0","23.00","45.78","26.01","26.01","0","0"
"Wendell Carter","Wendell-Carter-408878","4800","PF/C","0","201.5","0","104.50","0","25.00","33.26","6.66","32.17","0","0"
"Josh Jackson","Josh-Jackson-37890","4700","SF/PF","0","218.5","0","108.80","0","27.00","42.14","18.94","29.74","0","0"
"DeMarre Carroll","DeMarre-Carroll-1174","3900","SF/PF","34.36","218.5","23.2","114.62","19.99","24.00","41.07","18.58","24.1","0","0"
"Robin Lopez","Robin-Lopez-1466","3200","C","0","201.5","18.0","104.50","17.91","18.00","39.36","19.69","19.69","0","0"
"Jusuf Nurkic","Jusuf-Nurkic-18619","6800","C","0","215.5","0","104.50","0","30.00","52.16","22.49","40.81","0","0"
"Iman Shumpert","Iman-Shumpert-13350","3500","SG/SF","0","236.5","26.5","98.20","17.88","28.00","30.99","15.06","20.95","0","0"
"Cody Zeller","Cody-Zeller-16836","4600","C","0","216.5","25.8","103.00","13.60","28.00","38.85","15.91","27.19","0","0"
"Nicolas Batum","Nicolas-Batum-1315","4400","SG/SF","0","216.5","0","103.00","0","32.00","36.27","18.59","26","0","0"
"Draymond Green","Draymond-Green-13976","6400","PF/C","0","234","0","103.10","0","35.00","45.92","16.66","37.7","0","0"
"Jordan Clarkson","Jordan-Clarkson-18631","5900","PG/SG","0","201.5","0","103.60","0","33.00","57.24","30.89","34.67","0","0"
"Wesley Matthews","Wesley-Matthews-1339","4300","SG/SF","37.86","215.5","0","100.08","0","31.00","37.47","15.45","25.25","0","0"
"Jarrett Allen","Jarrett-Allen-37794","5400","C","0","218.5","0","114.62","0","28.00","43.49","19.14","31.54","0","0"
"Al-Farouq Aminu","Al-Farouq-Aminu-1279","4400","SF/PF","0","215.5","28.8","104.50","12.78","29.00","39.54","19.12","25.66","0","0"
"Gordon Hayward","Gordon-Hayward-1239","5300","SG/SF","0","216.5","0","101.75","0","30.00","44.4","18.14","30.9","0","0"
"Ed Davis","Ed-Davis-1265","3400","PF/C","0","218.5","19.7","114.62","12.19","20.00","36.16","14.78","19.79","0","0"
"Kyle Anderson","Kyle-Anderson-18615","4800","PG/SF","0","208","0","103.30","0","30.00","38.17","14.09","27.9","0","0"
"James Johnson","James-Johnson-1195","3700","SF/PF","0","201","0","106.90","0","20.00","28.14","11.35","21.5","0","0"
"Rodions Kurucs","Rodions-Kurucs-408801","4200","SF/PF","0","218.5","0","114.62","0","25.00","26.94","9.93","24.4","0","0"
"Julius Randle","Julius-Randle-18632","7800","PF/C","56.09","236.5","0","104.88","0","34.00","62.64","26.87","45.23","0","0"
"D.J. Augustin","D.J.-Augustin-1064","4300","PG","0","201","29.4","105.10","17.30","31.00","39.74","14.47","24.9","0","0"
"Jeremy Lamb","Jeremy-Lamb-13955","5700","SG/SF","0","216.5","0","103.00","0","33.00","44.5","19.95","32.7","0","0"
"Jonas Jerebko","Jonas-Jerebko-1106","3500","PF/C","53.52","234","23.7","103.10","17.69","22.00","36.1","14.74","19.79","0","0"
"Nemanja Bjelica","Nemanja-Bjelica-31814","4900","SF/PF","0","236.5","23.7","98.20","20.35","28.00","45.04","18.27","27.55","0","0"
"Marc Gasol","Marc-Gasol-1493","7500","C","0","208","0","103.30","0","33.00","56.82","24.25","42.18","0","0"
"Shelvin Mack","Shelvin-Mack-13354","3700","PG","0","208","23.1","103.30","16.87","22.00","32.13","15.54","20.77","0","0"
"Shai Gilgeous-Alexander","Shai-Gilgeous-Alexander-408990","4700","PG/SG","38.19","234","0","108.38","0","27.00","30.61","9.62","26.14","0","0"
"De'Anthony Melton","De'Anthony-Melton-409081","3700","PG","0","218.5","0","108.80","0","22.00","21.22","4.25","20.52","0","0"
"Bogdan Bogdanovic","Bogdan-Bogdanovic-37899","5000","SG/SF","0","236.5","0","98.20","0","30.00","43.96","23.22","27.61","0","0"
"Justin Jackson","Justin-Jackson-37895","3400","SF/PF","0","236.5","0","98.20","0","25.00","28.7","15.12","18.78","0","0"
"Damian Lillard","Damian-Lillard-13900","8700","PG","0","215.5","0","104.50","0","35.00","61.25","23.2","47.93","0","0"
"Jerami Grant","Jerami-Grant-18576","4500","PF","0","224","0","102.62","0","27.00","39.61","16.53","24.79","0","0"
"Dwyane Wade","Dwyane-Wade-967","5200","PG/SG","47.56","201","24.8","106.90","28.23","24.00","40.86","18.98","28.59","0","0"
"C.J. McCollum","C.J.-McCollum-17121","6200","PG/SG","48.76","215.5","33.2","104.50","27.55","35.00","44.95","19.8","34.08","0","0"
"Buddy Hield","Buddy-Hield-35206","6700","SG/SF","0","236.5","0","98.20","0","32.00","55.22","24.31","36.84","0","0"
"Willie Cauley-Stein","Willie-Cauley-Stein-18951","6100","C","0","236.5","0","98.20","0","31.00","46.31","19.11","33.41","0","0"
"Jaron Blossomgame","Jaron-Blossomgame-570197","3500","SF/PF","0","201.5","0","103.60","0","29.00","19.43","3.46","19.14","0","0"
"Kevin Durant","Kevin-Durant-1348","9400","SF/PF","53.52","234","0","103.10","0","35.00","67.7","23.86","51.21","0","0"
"Mikal Bridges","Mikal-Bridges-408842","3900","SG/SF","0","218.5","0","108.80","0","29.00","21.89","4.38","21.17","0","0"
"Kris Dunn","Kris-Dunn-35215","7200","PG/SG","0","201.5","0","104.50","0","35.00","54.33","19.85","38.92","0","0"
"Klay Thompson","Klay-Thompson-13315","6500","SG","0","234","0","103.10","0","35.00","44.97","19.98","34.75","0","0"
"JaMychal Green","JaMychal-Green-18729","4000","SF/PF","0","208","0","103.30","0","22.00","35.77","18.72","21.37","0","0"
"Marcus Smart","Marcus-Smart-18567","4800","PG/SG","0","216.5","30.8","101.75","16.99","26.00","36.64","14.37","25.57","0","0"
"Jonathan Isaac","Jonathan-Isaac-37841","4000","SF/PF","54.02","201","0","105.10","0","28.00","33.76","16.34","21.31","0","0"
"Kevon Looney","Kevon-Looney-18945","3600","PF/C","58.35","234","0","103.10","0","20.00","27.38","12.17","19.13","0","0"
"Marvin Williams","Marvin-Williams-1318","5600","SF/PF","0","216.5","30.2","103.00","14.50","33.00","49.8","25.27","29.73","0","0"
"Stephen Curry","Stephen-Curry-1079","9700","PG/SG","53.34","234","0","103.10","0","35.00","71.84","26.77","51.39","0","0"
"Kelly Olynyk","Kelly-Olynyk-16845","4600","PF/C","0","201","0","106.90","0","24.00","36.28","18.37","24.3","0","0"
"Russell Westbrook","Russell-Westbrook-1083","11000","PG","0","224","0","102.62","0","35.00","64.74","19.48","57.8","0","0"
"Larry Nance","Larry-Nance-18946","7500","PF/C","0","201.5","0","103.60","0","34.00","58.66","22.91","39.37","0","0"
"Justin Holiday","Justin-Holiday-14559","5400","SG/SF","0","201.5","35.3","104.50","15.77","35.00","41.08","18.93","28.29","0","0"
"Harrison Barnes","Harrison-Barnes-13901","6000","SF/PF","52.35","215.5","0","100.08","0","34.00","40.05","18.17","31.44","0","0"
"Andrew Wiggins","Andrew-Wiggins-18620","6000","SG/SF","0","224","0","100.67","0","33.00","41.15","17.92","31.44","0","0"
"Jayson Tatum","Jayson-Tatum-37782","6500","SF/PF","0","216.5","0","101.75","0","33.00","43.13","17.71","33.99","0","0"
"Bam Adebayo","Bam-Adebayo-37835","4500","PF/C","52.99","201","0","106.90","0","25.00","34.88","20.77","23.49","0","0"
"Anthony Davis","Anthony-Davis-13895","11500","PF/C","56.09","236.5","0","104.88","0","37.00","88.71","30.69","59.94","0","0"
"Rondae Hollis-Jefferson","Rondae-Hollis-Jefferson-18897","5200","PF/C","0","218.5","0","114.62","0","25.00","41.4","17.51","27.06","0","0"
"Michael Kidd-Gilchrist","Michael-Kidd-Gilchrist-13896","3800","SF/PF","0","216.5","0","103.00","0","24.00","32.91","16.72","19.74","0","0"
"Evan Fournier","Evan-Fournier-13913","5700","SG/SF","37.15","201","0","105.10","0","32.00","37.66","15.33","29.54","0","0"
"Kelly Oubre","Kelly-Oubre-18925","4900","SG/SF","0","218.5","0","108.80","0","28.00","43.95","20.72","25.33","0","0"
"Hassan Whiteside","Hassan-Whiteside-18664","6700","C","52.99","201","23.5","106.90","24.46","24.00","44.55","16.81","34.67","0","0"
"Terry Rozier","Terry-Rozier-18894","3900","PG/SG","0","216.5","0","101.75","0","19.00","31.61","17.09","20.08","0","0"
"De'Aaron Fox","De'Aaron-Fox-37900","7700","PG","50.59","236.5","0","98.20","0","35.00","48.85","20.23","39.59","0","0"
"Kyrie Irving","Kyrie-Irving-13334","9000","PG","0","216.5","33.6","101.75","34.18","34.00","63.49","24.55","46.14","0","0"
"Collin Sexton","Collin-Sexton-408896","4800","PG","0","201.5","0","103.60","0","33.00","27.85","7.52","24.56","0","0"
"Richaun Holmes","Richaun-Holmes-18905","3800","PF/C","0","218.5","20.3","108.80","16.56","18.00","33.2","13.61","19.44","0","0"
"Karl-Anthony Towns","Karl-Anthony-Towns-18937","8900","C","0","224","0","100.67","0","34.00","61.02","24.97","45.57","0","0"
"DeAndre Jordan","DeAndre-Jordan-1486","6600","C","0","215.5","0","100.08","0","31.00","41.8","20.26","33.71","0","0"
"Joe Harris","Joe-Harris-18587","4800","SG/SF","0","218.5","0","114.62","0","30.00","35.67","16.27","24.4","0","0"
"Aaron Gordon","Aaron-Gordon-18601","7000","SF/PF","0","201","32.8","105.10","21.34","34.00","45.71","19.43","35.52","0","0"
"Danilo Gallinari","Danilo-Gallinari-1329","6900","SF/PF","0","234","0","108.38","0","34.00","49.75","20.48","34.89","0","0"
"Devin Booker","Devin-Booker-18949","8600","PG/SG","0","218.5","0","108.80","0","34.00","65.86","25.91","43.47","0","0"
"Dario Saric","Dario-Saric-36004","5000","PF","0","224","27.7","100.67","16.25","29.00","42.3","20.57","25.24","0","0"
"Kemba Walker","Kemba-Walker-13335","8500","PG","0","216.5","0","103.00","0","35.00","55.16","20.67","42.27","0","0"
"Josh Richardson","Josh-Richardson-18922","7100","SG/SF","47.56","201","0","106.90","0","35.00","51.59","21.25","35.19","0","0"
"Miles Bridges","Miles-Bridges-409262","3500","SF/PF","0","216.5","18.8","103.00","16.14","23.00","18.33","4.22","17.31","0","0"
"Paul George","Paul-George-1245","9200","SF/PF","0","224","0","102.62","0","37.00","63.63","28.08","45.58","0","0"
"Deandre Ayton","Deandre-Ayton-409301","7300","C","0","218.5","0","108.80","0","30.00","37.14","7.44","35.92","0","0"
"Ryan Arcidiacono","Ryan-Arcidiacono-36050","3800","PG","0","201.5","27.5","104.50","9.56","28.00","29.17","11.98","18.66","0","0"
"D'Angelo Russell","D'Angelo-Russell-18947","7300","PG/SG","0","218.5","0","114.62","0","30.00","47.98","17.7","35.75","0","0"
"Kosta Koufos","Kosta-Koufos-1386","3300","C","0","236.5","0","98.20","0","15.00","30.58","16.07","16.07","0","0"
"Chandler Hutchison","Chandler-Hutchison-408877","3000","SF/PF","0","201.5","0","104.50","0","14.00","14.74","2.7","14.58","0","0"
"Nikola Vucevic","Nikola-Vucevic-13296","9300","C","54.02","201","0","105.10","0","32.00","56.45","20.97","45.09","0","0"
"E'Twaun Moore","E'Twaun-Moore-18582","4500","SG/SF","0","236.5","0","104.88","0","28.00","35.26","17.92","21.83","0","0"
"TJ Warren","TJ-Warren-18634","6600","SF/PF","0","218.5","0","108.80","0","33.00","41.7","18.53","32","0","0"
"Evan Turner","Evan-Turner-1291","4100","SG/SF","48.76","215.5","0","104.50","0","23.00","29.41","16.53","19.87","0","0"
"Andre Iguodala","Andre-Iguodala-1334","3400","SG/SF","0","234","0","103.10","0","19.00","25.02","9.68","16.46","0","0"
"Devin Harris","Devin-Harris-1076","3300","PG/SG","0","215.5","0","100.08","0","18.00","28.16","15.92","15.92","0","0"
"Brandon Ingram","Brandon-Ingram-35227","5600","PG/SG","42.53","208","0","112.50","0","32.00","40.81","16.68","26.99","0","0"
"Jaylen Brown","Jaylen-Brown-35181","4700","SG/SF","39.02","216.5","0","101.75","0","24.00","42.83","18.82","22.65","0","0"
"LeBron James","LeBron-James-1227","10900","SF/PF","0","208","0","112.50","0","36.00","63.46","22.03","52.45","0","0"
"Jared Dudley","Jared-Dudley-1319","3400","SF/PF","34.36","218.5","0","114.62","0","22.00","29.2","14.28","16.34","0","0"
"Tobias Harris","Tobias-Harris-13332","7600","SF/PF","0","234","0","108.38","0","34.00","48.91","20.12","36.39","0","0"
"Shaquille Harrison","Shaquille-Harrison-36065","3600","PG","0","201.5","0","104.50","0","18.00","27.26","13.42","17.1","0","0"
"Mike Conley","Mike-Conley-1062","7900","PG","0","208","0","103.30","0","34.00","55.17","21.8","37.33","0","0"
"Willy Hernangomez","Willy-Hernangomez-18901","3400","C","0","216.5","0","103.00","0","13.00","28.39","15.5","16.01","0","0"
"Lou Williams","Lou-Williams-1044","6400","PG/SG","0","234","16.7","108.38","32.71","25.00","45.7","18.34","29.97","0","0"
"Lauri Markkanen","Lauri-Markkanen-37809","7300","PF","47.85","201.5","31.2","104.50","22.65","34.00","48.99","22.29","34.19","0","0"
"Ivica Zubac","Ivica-Zubac-35226","3700","C","0","208","0","112.50","0","21.00","24.22","11.93","17.29","0","0"
"Robert Covington","Robert-Covington-16874","6300","SF/PF","0","224","30.5","100.67","17.34","34.00","42.84","18.85","29.36","0","0"
"Ante Zizic","Ante-Zizic-35180","3300","C","0","201.5","0","103.60","0","17.00","30.74","15.38","15.38","0","0"
"Jrue Holiday","Jrue-Holiday-1073","9100","PG/SG","0","236.5","0","104.88","0","37.00","57.57","20.21","42.36","0","0"
"Tim Frazier","Tim-Frazier-18743","4200","PG/SG","0","236.5","0","104.88","0","21.00","31.99","13.18","19.53","0","0"
"Alex Abrines","Alex-Abrines-36054","3000","SG/SF","0","224","17.3","102.62","10.87","20.00","26.4","13.96","13.96","0","0"
"Spencer Dinwiddie","Spencer-Dinwiddie-18588","7200","PG/SG","0","218.5","0","114.62","0","31.00","51.97","23.26","33.42","0","0"
"Avery Bradley","Avery-Bradley-941","3700","SG","41.67","234","0","108.38","0","28.00","25.63","11.23","17.17","0","0"
"Garrett Temple","Garrett-Temple-14077","4300","SG/SF","0","208","0","103.30","0","29.00","31.99","14.16","19.77","0","0"
"Dorian Finney-Smith","Dorian-Finney-Smith-36032","3600","SF/PF","39.52","215.5","0","100.08","0","22.00","25.69","13.0","16.48","0","0"
"Gorgui Dieng","Gorgui-Dieng-16939","3300","PF/C","0","224","0","100.67","0","15.00","23.32","10.96","15.12","0","0"
"Terrence Ross","Terrence-Ross-13902","4400","SG/SF","37.15","201","0","105.10","0","24.00","31.0","17.09","20.08","0","0"
"Montrezl Harrell","Montrezl-Harrell-18930","6100","PF/C","0","234","22.6","108.38","22.29","28.00","41.57","21.74","27.84","0","0"
"Dennis Schroder","Dennis-Schroder-18595","5500","PG/SG","0","224","0","102.62","0","28.00","32.46","22.47","24.97","0","0"
"J.J. Barea","J.J.-Barea-18605","5000","PG/SG","0","215.5","0","100.08","0","19.00","34.22","16.45","22.72","0","0"
"Justise Winslow","Justise-Winslow-18921","4800","PG/SF","0","201","0","106.90","0","30.00","30.38","17.36","21.7","0","0"
"Patrick Beverley","Patrick-Beverley-14108","4200","PG/SG","38.19","234","25.7","108.38","13.55","23.00","36.33","19","19","0","0"
"Tyson Chandler","Tyson-Chandler-1482","3700","C","0","208","0","112.50","0","19.00","31.79","16.73","16.73","0","0"
"Jalen Brunson","Jalen-Brunson-409062","3600","PG","41.34","215.5","24.4","100.08","18.99","24.00","16.77","3.36","16.22","0","0"
"Rajon Rondo","Rajon-Rondo-1085","4800","PG","0","208","0","112.50","0","22.00","40.0","21.53","21.53","0","0"
"Taj Gibson","Taj-Gibson-1277","4200","PF/C","0","224","19.8","100.67","17.00","22.00","26.05","9.67","18.81","0","0"
"Lonzo Ball","Lonzo-Ball-37885","6300","PG","0","208","0","112.50","0","30.00","37.4","14.2","28.12","0","0"
"Derrick Rose","Derrick-Rose-1086","6700","PG/SG","0","224","27.5","100.67","30.53","28.00","40.01","15.05","29.46","0","0"
"Nerlens Noel","Nerlens-Noel-18575","3300","C","0","224","0","102.62","0","14.00","25.76","12.33","14.49","0","0"
"Terrance Ferguson","Terrance-Ferguson-37871","3200","SG/SF","0","224","0","102.62","0","23.00","23.38","9.67","14.01","0","0"
"Maxi Kleber","Maxi-Kleber-37845","3100","PF/C","52.35","215.5","11.2","100.08","19.40","15.00","22.37","11.19","13.58","0","0"
"Zach Collins","Zach-Collins-37866","3200","PF/C","52.01","215.5","18.2","104.50","16.57","16.00","21.4","10.53","13.97","0","0"
"Nik Stauskas","Nik-Stauskas-18636","3100","SG/SF","33.36","215.5","0","104.50","0","18.00","22.35","10.5","13.53","0","0"
"Jerian Grant","Jerian-Grant-18900","3300","PG","0","201","16.0","105.10","14.86","17.00","24.19","12.56","14.34","0","0"
"Shaun Livingston","Shaun-Livingston-14007","3100","PG","0","234","0","103.10","0","16.00","21.89","10.12","13.38","0","0"
"Josh Okogie","Josh-Okogie-409174","4100","SG/SF","0","224","15.8","100.67","14.47","25.00","18.83","4.63","17.73","0","0"
"Josh Hart","Josh-Hart-37889","3600","PG/SG","0","208","0","112.50","0","20.00","26.21","12.32","15.52","0","0"
"Steven Adams","Steven-Adams-16848","7400","C","0","224","0","102.62","0","32.00","42.49","19.53","31.71","0","0"
"Tony Parker","Tony-Parker-982","3700","PG","0","216.5","17.8","103.00","28.31","19.00","27.07","15.82","15.82","0","0"
"Jamal Crawford","Jamal-Crawford-1075","3500","PG/SG","0","218.5","0","108.80","0","19.00","26.18","14.92","14.92","0","0"
"Rodney McGruder","Rodney-McGruder-16850","3500","SG/SF","41.30","201","0","106.90","0","20.00","23.53","10.07","14.9","0","0"
"Dwight Powell","Dwight-Powell-18566","3500","PF/C","0","215.5","0","100.08","0","14.00","23.11","11.78","14.87","0","0"
"Jaren Jackson","Jaren-Jackson-409099","5800","PF/C","0","208","0","103.30","0","28.00","28.51","8.96","24.35","0","0"
"Kyle Kuzma","Kyle-Kuzma-37886","6900","SF/PF","0","208","0","112.50","0","30.00","37.42","16.25","28.92","0","0"
"Luka Doncic","Luka-Doncic-408971","8100","SG/SF","45.62","215.5","0","100.08","0","32.00","34.83","6.97","33.68","0","0"
"Al Horford","Al-Horford-1499","6200","PF/C","0","216.5","0","101.75","0","27.00","35.76","20.43","25.54","0","0"
"Darius Miller","Darius-Miller-13951","4100","SF/PF","0","236.5","0","104.88","0","26.00","30.3","16.87","16.87","0","0"
"Tyus Jones","Tyus-Jones-18938","4300","PG","0","224","0","100.67","0","20.00","30.61","16.79","17.44","0","0"
"Solomon Hill","Solomon-Hill-16863","3700","SF/PF","0","236.5","25.2","104.88","9.35","22.00","23.73","12.83","15.04","0","0"
"Kentavious Caldwell-Pope","Kentavious-Caldwell-Pope-16869","3700","SG/SF","0","208","0","112.50","0","20.00","28.48","14.94","14.94","0","0"
"Mohamed Bamba","Mohamed-Bamba-409026","3800","C","0","201","16.8","105.10","20.98","17.00","14.92","2.84","14.47","0","0"
"Yogi Ferrell","Yogi-Ferrell-35999","3300","PG/SG","50.59","236.5","0","98.20","0","16.00","20.84","10.82","12.25","0","0"
"Marcus Morris","Marcus-Morris-13316","5700","SF/PF","39.02","216.5","30.5","101.75","22.59","26.00","27.42","18.98","21.09","0","0"
"Jahlil Okafor","Jahlil-Okafor-18902","3300","C","0","236.5","9.3","104.88","30.41","12.00","20.42","9.95","11.77","0","0"
"Cameron Payne","Cameron-Payne-18941","3300","PG/SG","0","201.5","0","104.50","0","14.00","14.9","10.31","11.46","0","0"
"Meyers Leonard","Meyers-Leonard-13905","3200","PF/C","52.01","215.5","0","104.50","0","10.00","19.01","8.85","10.88","0","0"
"Marcin Gortat","Marcin-Gortat-1479","3400","C","0","234","0","108.38","0","12.00","16.92","6.85","11.47","0","0"
"Daniel Theis","Daniel-Theis-37784","4200","PF/C","52.66","216.5","0","101.75","0","13.00","23.32","12.55","13.88","0","0"
"Jonathon Simmons","Jonathon-Simmons-31808","3700","SG/SF","0","201","0","105.10","0","21.00","15.55","10.76","11.96","0","0"
"Frank Jackson","Frank-Jackson-37855","3000","PG/SG","0","236.5","0","104.88","0","14.00","10.07","2.32","9.51","0","0"
"Tyler Johnson","Tyler-Johnson-18720","5300","PG/SG","0","201","25.2","106.90","21.30","20.00","21.66","9.69","16.71","0","0"
"Joakim Noah","Joakim-Noah-1404","3100","C","0","208","0","103.30","0","14.00","12.68","8.78","9.75","0","0"
"Seth Curry","Seth-Curry-16825","3000","PG/SG","33.36","215.5","0","104.50","0","13.00","17.79","9.39","9.39","0","0"
"Mike Scott","Mike-Scott-13999","3300","SF/PF","0","234","0","108.38","0","12.00","20.57","12.1","10.29","0","0"
"Jordan Bell","Jordan-Bell-37877","3000","PF/C","58.35","234","9.3","103.10","16.64","10.00","15.76","7.71","9.18","0","0"
"Wayne Selden","Wayne-Selden-36045","3200","SG/SF","52.06","208","10.2","103.30","17.53","13.00","17.46","9.66","9.66","0","0"
"Dillon Brooks","Dillon-Brooks-37852","3000","SG/SF","50.06","208","0","103.30","0","15.00","9.61","7.87","8.74","0","0"
"Derrick Jones","Derrick-Jones-36064","5100","SF/PF","41.30","201","0","106.90","0","18.00","26.75","14.58","14.58","0","0"
"Hamidou Diallo","Hamidou-Diallo-408800","3100","SG/SF","0","224","0","102.62","0","10.00","9.2","1.94","8.48","0","0"
"Tyrone Wallace","Tyrone-Wallace-35220","3400","PG/SG","0","234","0","108.38","0","12.00","14.8","9.27","9.27","0","0"
"Patrick Patterson","Patrick-Patterson-1260","3100","PF/C","0","224","0","102.62","0","13.00","14.73","7.11","8.42","0","0"
"Alfonzo McKinnie","Alfonzo-McKinnie-37808","3200","SF/PF","0","234","0","103.10","0","13.00","16.49","8.61","8.61","0","0"
"Antonio Blakeney","Antonio-Blakeney-37811","3000","PG/SG","0","201.5","0","104.50","0","8.00","13.38","6.5","8.05","0","0"
"Lance Stephenson","Lance-Stephenson-947","3500","SG/SF","42.53","208","0","112.50","0","10.00","15.12","7.1","8.91","0","0"
"Channing Frye","Channing-Frye-1484","3100","PF/C","0","201.5","0","103.60","0","7.00","14.85","6.32","7.43","0","0"
"Jabari Parker","Jabari-Parker-18593","4000","SF/PF","47.85","201.5","0","104.50","0","12.00","10.78","8.98","8.98","0","0"
"Robert Williams","Robert-Williams-408780","4100","PF/C","52.66","216.5","0","101.75","0","8.00","7.9","1.5","7.66","0","0"
"Kenrich Williams","Kenrich-Williams-570179","3000","SG/SF","0","236.5","0","104.88","0","8.00","5.56","1.28","5.25","0","0"
"Boban Marjanovic","Boban-Marjanovic-31807","3700","C","0","234","0","108.38","0","5.00","10.86","5.42","5.56","0","0"
"Shabazz Napier","Shabazz-Napier-18598","3300","PG/SG","0","218.5","0","114.62","0","5.00","8.18","3.57","4.4","0","0"
"Jarell Martin","Jarell-Martin-18931","3000","PF/C","0","201","4.5","105.10","12.31","4.00","5.3","2.83","3.44","0","0"
"Jake Layman","Jake-Layman-35216","3100","SF/PF","0","215.5","7.7","104.50","8.28","4.00","5.51","2.82","3.34","0","0"
"Wayne Ellington","Wayne-Ellington-1009","3300","PG/SG","0","201","0","106.90","0","1.00","1.41","0.64","0.8","0","0"
"Ryan Broekhoff","Ryan-Broekhoff-555205","3000","SG/SF","37.86","215.5","0","100.08","0","1.00","0.6","0.11","0.59","0","0"
