"nameCol","idCol","salaryCol","positionCol","dvpCol","ouCol","mpgCol","paceCol","usgCol","pminCol","ceilCol","floorCol","pointsCol","predictCol","actualCol"
"Tomas Satoransky ","Tomas-Satoransky--36031","3800","PG/SG","51.41","231","26.0","103.80","11.63","28.00","38.91","15.46","27.27","0","0"
"Cheick Diallo","Cheick-Diallo-35225","3000","PF/C","51.73","222.5","12.2","104.88","11.87","19.00","34.78","16.15","19.3","0","0"
"Wesley Matthews","Wesley-Matthews-1339","4400","SG/SF","42.75","224.5","28.3","100.08","19.87","31.00","41.14","17.15","27.97","0","0"
"Mason Plumlee","Mason-Plumlee-16798","4800","PF/C","50.57","213","21.7","99.62","19.14","30.00","43.18","21.53","30.32","0","0"
"Otto Porter","Otto-Porter-17069","5800","SF/PF","36.33","231","27.5","103.80","18.41","32.00","51.92","23.69","35.2","0","0"
"Julius Randle","Julius-Randle-18632","8100","PF/C","52.10","222.5","31.4","104.88","29.85","37.00","67.26","28.1","48.95","0","0"
"Jamal Murray","Jamal-Murray-35211","6300","PG/SG","45.83","213","35.8","99.62","25.70","37.00","55.7","22.67","37.84","0","0"
"Tim Frazier","Tim-Frazier-18743","4700","PG/SG","41.23","222.5","31.3","104.88","13.72","33.00","43.89","18.93","27.64","0","0"
"Torrey Craig","Torrey-Craig-37861","3500","SG/SF","37.28","213","25.0","99.62","13.11","30.00","28.49","12.09","20.42","0","0"
"Justise Winslow","Justise-Winslow-18921","4800","SF/PF","42.90","222.5","31.7","106.90","21.23","29.00","43.12","21.41","27.84","0","0"
"JaVale McGee","JaVale-McGee-1485","4700","C","54.17","231","20.7","112.50","20.61","24.00","39.18","16.94","27.23","0","0"
"Harrison Barnes","Harrison-Barnes-13901","5600","SF/PF","52.36","224.5","31.3","100.08","25.20","33.00","40.93","18.66","32.23","0","0"
"Buddy Hield","Buddy-Hield-35206","6100","SG/SF","34.36","224.5","28.7","98.20","25.23","31.00","53.05","23.49","34.45","0","0"
"Nemanja Bjelica","Nemanja-Bjelica-31814","4600","SF/PF","44.44","224.5","24.3","98.20","17.48","26.00","42.03","16.87","25.52","0","0"
"Markieff Morris","Markieff-Morris-13314","5400","PF/C","58.49","231","26.2","103.80","20.95","31.00","43.21","21.07","29.68","0","0"
"James Johnson","James-Johnson-1195","3700","SF/PF","48.35","222.5","0","106.90","0","20.00","26.63","10.74","20.34","0","0"
"Dennis Smith Jr.","Dennis-Smith-Jr.-37847","5300","PG","54.31","224.5","29.7","100.08","18.44","28.00","39.29","16.38","29.15","0","0"
"Solomon Hill","Solomon-Hill-16863","3500","SF/PF","37.62","222.5","27.0","104.88","9.79","28.00","30.03","15.83","19.19","0","0"
"De'Aaron Fox","De'Aaron-Fox-37900","7600","PG","54.01","224.5","30.8","98.20","28.43","37.00","52.39","21.08","41.58","0","0"
"DeAndre Jordan","DeAndre-Jordan-1486","6800","C","51.99","224.5","30.3","100.08","15.19","31.00","45.84","22.04","36.85","0","0"
"J.J. Barea","J.J.-Barea-18605","4300","PG/SG","54.31","224.5","18.2","100.08","34.25","19.00","34.47","16.9","23.21","0","0"
"Josh Richardson","Josh-Richardson-18922","6200","SG/SF","49.95","222.5","33.2","106.90","20.38","34.00","48.96","20.17","33.4","0","0"
"John Wall","John-Wall-1084","9200","PG","51.41","231","34.5","103.80","29.85","36.00","55.09","19.67","49.54","0","0"
"Trey Lyles","Trey-Lyles-18942","4600","SF/PF","46.72","213","23.0","99.62","21.65","22.00","39.0","20.53","24.76","0","0"
"Hassan Whiteside","Hassan-Whiteside-18664","6900","C","50.38","222.5","26.3","106.90","19.83","25.00","47.16","17.8","36.7","0","0"
"Kawhi Leonard","Kawhi-Leonard-13310","9000","SF/PF","41.32","213","36.0","105.50","28.99","35.00","63.71","23.34","47.72","0","0"
"Jrue Holiday","Jrue-Holiday-1073","8400","PG/SG","51.70","222.5","36.9","104.88","26.84","38.00","59.76","20.88","44.53","0","0"
"Lonzo Ball","Lonzo-Ball-37885","5900","PG","46.67","231","33.3","112.50","19.36","34.00","41.91","16.19","31.25","0","0"
"Bradley Beal","Bradley-Beal-13898","8200","SG","49.87","231","38.8","103.80","31.05","38.00","66.02","29.49","43.18","0","0"
"Nikola Jokic","Nikola-Jokic-31812","9900","C","53.75","213","34.5","99.62","27.59","35.00","66.02","21.31","51.86","0","0"
"Josh Hart","Josh-Hart-37889","4600","PG/SG","41.71","231","27.0","112.50","13.53","32.00","33.36","16.67","23.98","0","0"
"Kentavious Caldwell-Pope","Kentavious-Caldwell-Pope-16869","3700","SG/SF","41.71","231","23.1","112.50","17.29","25.00","35.68","16.46","18.88","0","0"
"Serge Ibaka","Serge-Ibaka-1294","6500","PF/C","47.99","213","27.7","105.50","24.55","30.00","46.8","19.8","33.05","0","0"
"Lance Stephenson","Lance-Stephenson-947","3600","SG/SF","44.85","231","15.8","112.50","23.09","20.00","31.44","14.58","18.27","0","0"
"Juan Hernangomez","Juan-Hernangomez-35212","5100","SF/PF","46.72","213","35.0","99.62","13.75","32.00","42.95","17.25","25.78","0","0"
"Anthony Davis","Anthony-Davis-13895","11600","PF/C","52.10","222.5","34.9","104.88","32.24","37.00","84.61","30.34","58.23","0","0"
"Iman Shumpert","Iman-Shumpert-13350","3700","SG/SF","34.36","224.5","26.4","98.20","17.08","25.00","26.72","13.23","18.48","0","0"
"Justin Jackson","Justin-Jackson-37895","3500","SF","34.36","224.5","17.5","98.20","14.42","23.00","26.36","14.11","17.48","0","0"
"Rodney McGruder","Rodney-McGruder-16850","4000","SG/SF","36.07","222.5","24.9","106.90","14.80","27.00","31.07","13.3","19.68","0","0"
"LeBron James","LeBron-James-1227","10900","SF/PF","49.60","231","34.3","112.50","34.06","36.00","68.5","21.3","53.64","0","0"
"Pascal Siakam","Pascal-Siakam-35186","5800","PF","50.26","213","29.3","105.50","19.31","32.00","41.89","16.1","28.34","0","0"
"Bogdan Bogdanovic","Bogdan-Bogdanovic-37899","5700","SG/SF","48.06","224.5","28.0","98.20","23.93","30.00","44.46","24.29","27.82","0","0"
"Kyle Lowry","Kyle-Lowry-1057","7900","PG","49.46","213","33.8","105.50","19.53","34.00","54.22","20.62","38.18","0","0"
"Tyson Chandler","Tyson-Chandler-1482","3500","C","54.17","231","20.3","112.50","5.65","20.00","32.42","16.78","16.78","0","0"
"Dwight Powell","Dwight-Powell-18566","3600","PF/C","57.40","224.5","17.0","100.08","21.18","14.00","25.93","13.29","16.63","0","0"
"E'Twaun Moore","E'Twaun-Moore-18582","4000","SG/SF","37.44","222.5","21.5","104.88","19.26","25.00","29.21","15.14","18.37","0","0"
"Luka Doncic","Luka-Doncic-408971","7300","SG/SF","46.29","224.5","29.2","100.08","27.42","32.00","36.81","13.57","33.34","0","0"
"Willie Cauley-Stein","Willie-Cauley-Stein-18951","6700","C","47.93","224.5","27.2","98.20","19.45","28.00","43.67","19.26","30.52","0","0"
"Kosta Koufos","Kosta-Koufos-1386","3300","C","47.93","224.5","15.0","98.20","12.68","14.00","28.86","14.96","14.96","0","0"
"Devin Harris","Devin-Harris-1076","3300","PG/SG","54.31","224.5","0","100.08","0","16.00","26.56","14.89","14.89","0","0"
"Danny Green","Danny-Green-940","4900","SG/SF","35.44","213","31.9","105.50","11.89","29.00","31.35","15.32","22.08","0","0"
"Sam Dekker","Sam-Dekker-18929","3500","SF/PF","36.33","231","10.0","103.80","14.05","18.00","26.53","13.19","15.66","0","0"
"Kelly Olynyk","Kelly-Olynyk-16845","5000","PF/C","56.22","222.5","26.3","106.90","22.46","22.00","33.08","16.75","22.16","0","0"
"Jeff Green","Jeff-Green-1314","4400","SF/PF","44.54","231","26.8","103.80","12.95","25.00","32.71","15.21","19.48","0","0"
"Dorian Finney-Smith","Dorian-Finney-Smith-36032","3700","SF/PF","38.01","224.5","24.3","100.08","12.50","21.00","25.39","13.42","16.34","0","0"
"Greg Monroe","Greg-Monroe-1487","3500","C","50.26","213","7.8","105.50","24.63","14.00","21.12","9.35","15.15","0","0"
"Thomas Bryant ","Thomas-Bryant--37884","3400","PF/C","58.49","231","17.0","103.80","15.31","20.00","24.46","11.56","14.69","0","0"
"Dwyane Wade","Dwyane-Wade-967","5500","PG/SG","49.95","222.5","25.7","106.90","29.30","20.00","33.57","15.6","23.49","0","0"
"Fred VanVleet","Fred-VanVleet-36011","5200","PG/SG","40.65","213","26.1","105.50","17.55","24.00","34.84","17.54","22.09","0","0"
"Monte Morris","Monte-Morris-37860","4500","PG/SG","45.83","213","25.0","99.62","22.05","26.00","28.5","14.79","19.13","0","0"
"Darius Miller","Darius-Miller-13951","3400","SF/PF","37.62","222.5","23.4","104.88","13.36","23.00","25.38","14.42","14.42","0","0"
"Kyle Kuzma","Kyle-Kuzma-37886","8000","SF/PF","49.60","231","34.4","112.50","25.34","35.00","42.19","18.07","32.5","0","0"
"Tyler Johnson","Tyler-Johnson-18720","4600","PG/SG","49.82","222.5","18.4","106.90","19.73","22.00","23.61","10.57","18.22","0","0"
"Bam Adebayo","Bam-Adebayo-37835","5300","PF/C","50.38","222.5","25.6","106.90","15.31","23.00","30.03","17.87","20.22","0","0"
"Derrick Jones","Derrick-Jones-36064","3900","SF/PF","36.07","222.5","21.6","106.90","12.94","18.00","26.35","14.36","14.36","0","0"
"Malik Beasley","Malik-Beasley-35213","3300","PG/SG","37.28","213","23.5","99.62","17.99","18.00","21.64","11.84","11.84","0","0"
"OG Anunoby","OG-Anunoby-37807","3200","SF/PF","35.44","213","16.3","105.50","16.60","17.00","21.67","11.47","11.47","0","0"
"Harry Giles","Harry-Giles-37897","3000","PF/C","44.44","224.5","4.3","98.20","33.69","12.00","10.69","2.46","10.09","0","0"
"Yogi Ferrell","Yogi-Ferrell-35999","3300","PG/SG","54.01","224.5","8.6","98.20","22.90","14.00","18.16","9.33","10.94","0","0"
"Troy Brown","Troy-Brown-409043","3100","SG/SF","36.33","231","7.0","103.80","24.74","12.00","10.11","1.92","9.81","0","0"
"Sviatoslav Mykhailiuk","Sviatoslav-Mykhailiuk-409280","3000","SG/SF","37.00","231","0","112.50","0","14.00","9.94","2.29","9.39","0","0"
"Delon Wright","Delon-Wright-18907","3200","PG/SG","40.65","213","15.7","105.50","18.40","13.00","16.03","7.65","9.62","0","0"
"C.J. Miles","C.J.-Miles-1299","3600","SG/SF","35.44","213","14.7","105.50","17.07","12.00","17.35","8.47","10.47","0","0"
"Dirk Nowitzki","Dirk-Nowitzki-1346","3800","PF/C","57.40","224.5","6.0","100.08","13.33","10.00","16.02","8.49","10.86","0","0"
"Nick Young","Nick-Young-1063","3000","SG/SF","37.11","213","8.0","99.62","15.00","10.00","12.9","7.84","7.84","0","0"
"Jalen Brunson","Jalen-Brunson-409062","3900","PG","43.56","224.5","22.2","100.08","17.34","5.00","3.44","0.65","3.34","0","0"
