"nameCol","idCol","salaryCol","positionCol","dvpCol","ouCol","mpgCol","paceCol","usgCol","pminCol","ceilCol","floorCol","pointsCol","predictCol","actualCol"
"Daniel Theis","Daniel-Theis-37784","4000","PF/C","47.37","223.5","21.0","101.75","19.37","25.00","38.46","15.24","27.12","0","0"
"Robin Lopez","Robin-Lopez-1466","3000","C","53.00","202.5","17.3","104.50","18.90","19.00","39.83","20.2","20.2","0","0"
"Shaquille Harrison","Shaquille-Harrison-36065","3200","PG","37.34","202.5","17.0","104.50","16.72","23.00","34.74","16.85","21.46","0","0"
"Robert Williams","Robert-Williams-408780","3800","PF/C","47.37","223.5","17.8","101.75","9.48","24.00","24.63","4.83","24.15","0","0"
"Antonio Blakeney","Antonio-Blakeney-37811","3000","PG/SG","41.60","202.5","12.0","104.50","20.88","19.00","30.37","14.76","18.33","0","0"
"Chandler Hutchison","Chandler-Hutchison-408877","3000","SF/PF","34.09","202.5","11.0","104.50","11.36","24.00","18.08","3.22","17.81","0","0"
"Wendell Carter","Wendell-Carter-408878","4900","PF/C","50.42","202.5","20.3","104.50","16.69","28.00","32.34","8.73","28.52","0","0"
"Gordon Hayward","Gordon-Hayward-1239","5400","SF/PF","45.91","223.5","24.8","101.75","20.76","30.00","45.51","21.71","31.19","0","0"
"Jonathan Isaac","Jonathan-Isaac-37841","4100","SF/PF","63.05","202.5","25.8","105.10","13.80","28.00","37.15","17.86","23.32","0","0"
"Ryan Arcidiacono","Ryan-Arcidiacono-36050","3900","PG","37.34","202.5","26.3","104.50","8.60","29.00","33.84","13.59","21.07","0","0"
"Jaylen Brown","Jaylen-Brown-35181","4500","SG/SF","39.46","223.5","23.8","101.75","23.13","27.00","45.36","20.11","24.14","0","0"
"Jayson Tatum","Jayson-Tatum-37782","6100","SF/PF","45.91","223.5","30.8","101.75","22.78","33.00","41.5","17.01","32.65","0","0"
"Lauri Markkanen","Lauri-Markkanen-37809","7000","PF","49.84","202.5","28.1","104.50","22.20","33.00","52.92","22.39","36.88","0","0"
"Jerian Grant","Jerian-Grant-18900","3400","PG","43.21","202.5","18.2","105.10","13.75","20.00","29.45","15.73","17.86","0","0"
"Terry Rozier","Terry-Rozier-18894","4200","PG/SG","48.71","223.5","26.5","101.75","18.12","22.00","35.44","18.76","22.07","0","0"
"Khris Middleton","Khris-Middleton-13990","6500","SG/SF","43.51","223.5","31.5","98.80","25.27","33.00","53.67","23.15","33.99","0","0"
"Aaron Gordon","Aaron-Gordon-18601","6700","SF/PF","48.27","202.5","32.0","105.10","21.86","34.00","44.67","19.04","34.55","0","0"
"Brook Lopez","Brook-Lopez-1498","4600","C","50.94","223.5","28.7","98.80","18.73","28.00","34.58","15.72","23.67","0","0"
"Eric Bledsoe","Eric-Bledsoe-1031","6700","PG/SG","50.47","223.5","30.0","98.80","25.55","32.00","49.89","21.49","34.17","0","0"
"Justin Holiday","Justin-Holiday-14559","5300","SG/SF","41.60","202.5","33.0","104.50","15.94","33.00","37.8","16.06","26.81","0","0"
"D.J. Augustin","D.J.-Augustin-1064","4400","PG","43.21","202.5","27.2","105.10","17.00","30.00","36.3","11.92","22.24","0","0"
"Giannis Antetokounmpo","Giannis-Antetokounmpo-16852","11000","SF/PF","42.62","223.5","33.7","98.80","29.63","36.00","64.04","21.2","54.78","0","0"
"Nikola Vucevic","Nikola-Vucevic-13296","9200","C","63.05","202.5","28.0","105.10","30.09","31.00","59.16","22.37","45.37","0","0"
"Marcus Smart","Marcus-Smart-18567","4900","PG/SG","47.44","223.5","29.5","101.75","16.61","25.00","34.45","14.13","23.99","0","0"
"Kyrie Irving","Kyrie-Irving-13334","8700","PG","47.44","223.5","30.4","101.75","35.21","33.00","58.79","22.68","42.48","0","0"
"Malcolm Brogdon","Malcolm-Brogdon-35195","5400","PG/SG","50.47","223.5","27.8","98.80","23.25","30.00","37.79","18.58","26.28","0","0"
"Evan Fournier","Evan-Fournier-13913","5500","SG/SF","34.91","202.5","28.8","105.10","24.71","31.00","34.22","14.2","26.69","0","0"
"Terrence Ross","Terrence-Ross-13902","4800","SG/SF","34.91","202.5","24.4","105.10","17.98","26.00","35.54","19.58","22.96","0","0"
"Kris Dunn","Kris-Dunn-35215","7300","PG/SG","48.71","202.5","27.8","104.50","24.14","32.00","48.82","17.6","34.45","0","0"
"Sterling Brown","Sterling-Brown-37821","3300","SG/SF","35.01","223.5","23.0","98.80","12.52","18.00","28.37","15.23","15.23","0","0"
"George Hill","George-Hill-993","3500","PG/SG","38.43","223.5","19.6","98.80","12.14","16.00","24.08","11.97","13.95","0","0"
"Mohamed Bamba","Mohamed-Bamba-409026","4000","C","56.35","202.5","18.8","105.10","21.18","17.00","15.82","2.9","15.65","0","0"
"D.J. Wilson","D.J.-Wilson-37822","3400","PF/C","42.62","223.5","20.3","98.80","13.76","16.00","22.93","11.9","11.9","0","0"
"Thon Maker","Thon-Maker-35194","3100","PF/C","49.40","223.5","10.7","98.80","14.14","13.00","17.83","8.58","10.52","0","0"
"Wesley Iwundu","Wesley-Iwundu-37839","3300","SG/SF","41.02","202.5","16.0","105.10","16.66","16.00","21.95","10.98","10.98","0","0"
"Tony Snell","Tony-Snell-16872","3400","SG/SF","34.53","223.5","20.0","98.80","14.14","18.00","19.1","9.62","11.27","0","0"
"Semi Ojeleye","Semi-Ojeleye-37786","3100","SF/PF","39.46","223.5","15.0","101.75","19.07","15.00","18.41","9.52","9.52","0","0"
"Guerschon Yabusele","Guerschon-Yabusele-35176","3000","PF/C","45.91","223.5","15.0","101.75","7.97","8.00","12.01","6.29","6.29","0","0"
"Jarell Martin","Jarell-Martin-18931","3000","PF/C","48.27","202.5","4.8","105.10","15.87","7.00","9.6","5.14","6.07","0","0"
