"nameCol","idCol","salaryCol","positionCol","dvpCol","ouCol","mpgCol","paceCol","usgCol","pminCol","ceilCol","floorCol","pointsCol","predictCol","actualCol"
"Jonathon Simmons","Jonathon-Simmons-31808","3200","SG/SF","44.22","214","19.1","105.10","18.96","29.00","34.27","14.73","22.56","0","0"
"Jonathan Isaac","Jonathan-Isaac-37841","3700","SF/PF","54.97","214","21.6","105.10","17.22","30.00","42.43","23.24","25.97","0","0"
"Larry Nance","Larry-Nance-18946","5300","PF/C","46.89","216.5","22.7","103.60","15.45","36.00","53.52","22.37","36.61","0","0"
"Wilson Chandler","Wilson-Chandler-1327","3600","SF/PF","37.85","227.5","26.4","108.33","10.63","32.00","34.05","15.87","22.7","0","0"
"Nikola Mirotic","Nikola-Mirotic-18584","6900","SF/PF","51.35","241.5","31.9","104.88","18.43","34.00","62.64","26.42","41.73","0","0"
"Rodney Hood","Rodney-Hood-18629","4600","SG/SF","47.47","216.5","29.7","103.60","19.28","33.00","42.83","17.18","26.8","0","0"
"Malik Monk","Malik-Monk-37827","3300","PG/SG","52.75","232","15.8","103.00","25.01","21.00","29.34","15.76","19.1","0","0"
"Dewayne Dedmon","Dewayne-Dedmon-16894","4000","PF/C","52.40","232","24.2","105.10","15.58","23.00","32.59","13.74","23.1","0","0"
"Otto Porter","Otto-Porter-17069","5900","SF/PF","40.94","241.5","31.9","103.80","17.69","35.00","48.94","22.8","33.73","0","0"
"Ersan Ilyasova","Ersan-Ilyasova-1301","3300","PF/C","50.92","228","15.8","98.80","17.82","20.00","29.05","13.06","18.84","0","0"
"Josh Jackson","Josh-Jackson-37890","3300","SF","45.95","229.5","17.6","108.80","22.62","20.00","26.64","11.98","18.8","0","0"
"Tristan Thompson","Tristan-Thompson-13308","6300","C","51.05","216.5","31.8","103.60","18.59","38.00","48.85","21.27","35.63","0","0"
"Cody Zeller","Cody-Zeller-16836","4100","C","56.66","232","27.2","103.00","14.70","28.00","33.06","12.9","22.96","0","0"
"Anthony Davis","Anthony-Davis-13895","11400","PF/C","59.16","241.5","36.9","104.88","31.71","38.00","92.64","33.22","63.76","0","0"
"Jusuf Nurkic","Jusuf-Nurkic-18619","6800","C","52.81","214","26.0","104.50","23.34","28.00","49.08","20.95","37.96","0","0"
"D.J. Augustin","D.J.-Augustin-1064","4300","PG","39.47","214","27.6","105.10","17.08","29.00","39.05","12.83","23.93","0","0"
"Enes Kanter","Enes-Kanter-13299","6800","C","57.19","227.5","28.8","100.17","21.33","32.00","50.29","18.84","37.84","0","0"
"Jerami Grant","Jerami-Grant-18576","4300","SF/PF","44.19","216.5","30.7","102.62","14.86","32.00","38.45","16.47","23.91","0","0"
"J.J. Redick","J.J.-Redick-1030","5200","SG/SF","36.32","227.5","30.9","108.33","22.72","32.00","38.87","18.61","28.86","0","0"
"Marvin Williams","Marvin-Williams-1318","4500","SF/PF","57.34","232","29.3","103.00","12.57","30.00","41.52","21.21","24.92","0","0"
"Nikola Vucevic","Nikola-Vucevic-13296","8300","C","54.97","214","32.6","105.10","29.15","34.00","59.79","22.6","45.85","0","0"
"Jeff Teague","Jeff-Teague-1005","6100","PG","47.94","216.5","32.0","100.67","20.01","34.00","47.7","17.19","33.57","0","0"
"Tony Parker","Tony-Parker-982","3600","PG","45.64","232","19.0","103.00","20.83","21.00","33.18","19.74","19.74","0","0"
"Ryan Arcidiacono","Ryan-Arcidiacono-36050","3900","PG","45.89","228","32.7","104.50","11.55","34.00","33.45","13.63","21.2","0","0"
"Taurean Prince","Taurean-Prince-35218","5100","SF","40.21","232","27.8","105.10","20.47","31.00","38.59","16.55","27.68","0","0"
"Karl-Anthony Towns","Karl-Anthony-Towns-18937","9400","C","51.00","216.5","33.6","100.67","27.15","36.00","69.0","28.89","50.96","0","0"
"Dennis Schroder","Dennis-Schroder-18595","6000","PG/SG","50.18","216.5","30.0","102.62","28.53","30.00","49.53","26.45","32.37","0","0"
"Russell Westbrook","Russell-Westbrook-1083","10900","PG","50.18","216.5","35.2","102.62","34.01","36.00","65.6","19.81","58.62","0","0"
"Kent Bazemore","Kent-Bazemore-13987","4900","SG/SF","49.21","232","21.4","105.10","19.50","26.00","39.78","19.54","26.33","0","0"
"Montrezl Harrell","Montrezl-Harrell-18930","7200","PF/C","54.93","229.5","30.2","108.38","22.28","32.00","58.43","30.24","38.67","0","0"
"Nicolas Batum","Nicolas-Batum-1315","4800","SG/SF","43.67","232","28.0","103.00","13.76","32.00","35.61","18.49","25.75","0","0"
"Tomas Satoransky ","Tomas-Satoransky--36031","3400","PG/SG","51.46","241.5","18.1","103.80","16.37","20.00","27.82","13.85","18.15","0","0"
"Derrick Favors","Derrick-Favors-1266","4800","PF/C","61.09","216.5","23.0","98.88","16.78","24.00","33.88","15.77","25.65","0","0"
"Clint Capela","Clint-Capela-18610","8200","C","49.25","217.5","36.5","101.42","17.27","35.00","71.38","36.32","43.71","0","0"
"Steven Adams","Steven-Adams-16848","6700","C","52.11","216.5","34.8","102.62","19.18","35.00","48.28","23.68","35.66","0","0"
"Deandre Ayton","Deandre-Ayton-409301","7300","C","53.59","229.5","30.7","108.80","21.64","32.00","40.14","8.04","38.82","0","0"
"Jabari Parker","Jabari-Parker-18593","6600","SF/PF","43.87","228","33.7","104.50","24.96","34.00","48.52","18.92","35.03","0","0"
"Jrue Holiday","Jrue-Holiday-1073","8400","PG/SG","57.59","241.5","35.5","104.88","30.61","37.00","59.85","20.92","44.6","0","0"
"John Collins","John-Collins-37823","6100","PF/C","52.40","232","24.5","105.10","23.67","30.00","50.72","20.16","32.41","0","0"
"Markieff Morris","Markieff-Morris-13314","5100","SF/PF","60.00","241.5","25.6","103.80","17.73","30.00","36.87","19.16","26.91","0","0"
"Alex Len","Alex-Len-16886","3600","C","52.40","232","17.7","105.10","22.52","18.00","26.93","13.9","19.02","0","0"
"Wesley Matthews","Wesley-Matthews-1339","4500","SG/SF","37.32","217.5","26.0","100.08","16.99","32.00","35.23","14.53","23.74","0","0"
"Chris Paul","Chris-Paul-1087","7900","PG","51.02","217.5","32.8","101.42","25.12","34.00","55.26","20.4","41.55","0","0"
"TJ Warren","TJ-Warren-18634","6500","SF/PF","45.95","229.5","33.0","108.80","21.43","36.00","44.41","19.73","34.08","0","0"
"Jarrett Allen","Jarrett-Allen-37794","5500","C","51.73","216.5","29.3","114.62","17.80","30.00","39.73","17.5","28.83","0","0"
"Cedi Osman","Cedi-Osman-18912","4900","SF/PF","38.36","216.5","31.5","103.60","16.32","36.00","31.73","11.82","25.63","0","0"
"Kemba Walker","Kemba-Walker-13335","9300","PG","52.75","232","36.3","103.00","34.21","36.00","64.74","24.24","48.57","0","0"
"Eric Bledsoe","Eric-Bledsoe-1031","6900","PG/SG","48.45","228","30.9","98.80","23.61","33.00","52.47","21.97","35.96","0","0"
"Evan Fournier","Evan-Fournier-13913","5500","SG/SF","38.42","214","30.3","105.10","22.13","32.00","36.77","15.26","28.68","0","0"
"Wendell Carter","Wendell-Carter-408878","5000","PF/C","54.98","228","22.9","104.50","21.05","27.00","25.96","5.46","26.01","0","0"
"Tim Hardaway Jr.","Tim-Hardaway-Jr.-16879","6600","SG/SF","46.98","227.5","34.2","100.17","27.74","34.00","53.37","23.3","34.32","0","0"
"Al-Farouq Aminu","Al-Farouq-Aminu-1279","4600","SF/PF","34.85","214","29.9","104.50","12.92","30.00","36.76","17.76","23.84","0","0"
"Noah Vonleh","Noah-Vonleh-18597","5700","PF/C","51.69","227.5","29.0","100.17","12.35","32.00","40.81","19.31","29.53","0","0"
"Allonzo Trier","Allonzo-Trier-554950","3800","SG","46.98","227.5","23.9","100.17","21.90","27.00","19.91","3.64","19.69","0","0"
"Trae Young","Trae-Young-409063","6600","PG","49.24","232","26.6","105.10","30.38","30.00","39.97","12.56","34.13","0","0"
"John Wall","John-Wall-1084","9100","PG","51.46","241.5","33.6","103.80","32.14","36.00","53.15","18.5","47.08","0","0"
"Joel Embiid","Joel-Embiid-18578","11200","C","60.98","227.5","33.7","108.33","34.77","35.00","70.26","24.46","57.83","0","0"
"James Harden","James-Harden-1037","11600","PG/SG","51.02","217.5","38.7","101.42","41.58","37.00","68.99","21.8","59.73","0","0"
"James Ennis","James-Ennis-18599","3700","SG/SF","40.84","217.5","30.0","101.42","11.37","30.00","29.65","14.89","19.07","0","0"
"Richaun Holmes","Richaun-Holmes-18905","3400","PF/C","57.84","229.5","16.4","108.80","19.44","16.00","29.8","12.21","17.45","0","0"
"Kyle Korver","Kyle-Korver-1269","3500","SG/SF","40.25","216.5","16.0","103.60","19.09","22.00","31.05","14.24","17.96","0","0"
"Zach LaVine","Zach-LaVine-18622","8100","PG/SG","45.89","228","34.7","104.50","32.81","36.00","56.87","25.16","41.45","0","0"
"Trevor Ariza","Trevor-Ariza-1323","5300","SF/PF","34.38","229.5","36.2","108.80","11.40","36.00","35.68","13.35","27.13","0","0"
"Mikal Bridges","Mikal-Bridges-408842","3500","SG/SF","34.38","229.5","26.7","108.80","10.76","26.00","18.53","3.71","17.92","0","0"
"Julius Randle","Julius-Randle-18632","6700","PF/C","59.16","241.5","26.4","104.88","27.07","26.00","47.49","25.75","34.19","0","0"
"Damian Lillard","Damian-Lillard-13900","9000","PG","47.77","214","36.0","104.50","34.82","36.00","58.64","22.07","45.78","0","0"
"Giannis Antetokounmpo","Giannis-Antetokounmpo-16852","12000","SF/PF","50.92","228","35.1","98.80","31.41","35.00","72.64","26.8","61.04","0","0"
"Jeff Green","Jeff-Green-1314","4000","SF/PF","48.77","241.5","24.3","103.80","17.36","27.00","34.79","15.96","20.3","0","0"
"Terrence Ross","Terrence-Ross-13902","4400","SG/SF","38.42","214","23.7","105.10","21.86","28.00","34.5","19.01","22.29","0","0"
"Joe Harris","Joe-Harris-18587","4100","SG/SF","34.19","216.5","28.3","114.62","19.32","30.00","30.31","13.89","20.79","0","0"
"Mike Muscala","Mike-Muscala-17379","3500","PF/C","60.98","227.5","24.1","108.33","13.54","22.00","32.82","17.75","17.75","0","0"
"Justin Holiday","Justin-Holiday-14559","5400","SG/SF","39.82","228","34.3","104.50","17.52","36.00","39.37","18.23","27.21","0","0"
"Malcolm Brogdon","Malcolm-Brogdon-35195","5600","PG/SG","49.63","228","29.9","98.80","20.92","34.00","43.38","20.0","28.17","0","0"
"Taj Gibson","Taj-Gibson-1277","4300","PF/C","53.08","216.5","23.1","100.67","15.28","26.00","29.3","11.94","21.48","0","0"
"Rudy Gobert","Rudy-Gobert-16935","7700","C","62.22","216.5","28.5","98.88","16.04","32.00","53.68","19.03","38.45","0","0"
"Danilo Gallinari","Danilo-Gallinari-1329","6200","SF/PF","49.85","229.5","31.8","108.38","19.08","31.00","42.95","17.23","30.88","0","0"
"Robin Lopez","Robin-Lopez-1466","3000","C","49.50","228","17.3","104.50","17.54","21.00","29.89","14.95","14.95","0","0"
"Dennis Smith Jr.","Dennis-Smith-Jr.-37847","5200","PG","46.70","217.5","24.2","100.08","24.15","28.00","35.52","14.26","25.78","0","0"
"Allen Crabbe","Allen-Crabbe-16978","3800","SG/SF","34.19","216.5","26.6","114.62","15.60","26.00","30.03","12.39","18.86","0","0"
"Kelly Oubre","Kelly-Oubre-18925","4200","SG/SF","40.94","241.5","21.6","103.80","22.14","23.00","30.44","13.28","20.85","0","0"
"DeAndre Jordan","DeAndre-Jordan-1486","7100","C","53.36","217.5","30.4","100.08","16.31","33.00","43.71","21.19","35.25","0","0"
"Bradley Beal","Bradley-Beal-13898","8000","SG","49.23","241.5","36.9","103.80","23.93","36.00","62.47","26.88","39.59","0","0"
"Donovan Mitchell","Donovan-Mitchell-37875","7300","PG/SG","47.33","216.5","27.8","98.88","32.06","34.00","47.22","19.94","36.13","0","0"
"D'Angelo Russell","D'Angelo-Russell-18947","7600","PG/SG","48.01","216.5","29.0","114.62","33.02","31.00","50.97","18.59","37.56","0","0"
"Shai Gilgeous-Alexander","Shai-Gilgeous-Alexander-408990","5000","PG/SG","52.02","229.5","27.0","108.38","21.01","30.00","27.27","10.05","24.7","0","0"
"Andrew Wiggins","Andrew-Wiggins-18620","5600","SG/SF","49.46","216.5","32.7","100.67","23.83","32.00","36.2","15.7","27.59","0","0"
"Mario Hezonja","Mario-Hezonja-18923","3200","SF/PF","31.79","227.5","17.7","100.17","16.55","18.00","24.44","10.48","15.73","0","0"
"Devin Booker","Devin-Booker-18949","8800","PG/SG","52.41","229.5","36.7","108.80","32.58","36.00","65.45","25.75","43.2","0","0"
"Khris Middleton","Khris-Middleton-13990","7500","SG/SF","43.09","228","32.1","98.80","24.53","34.00","59.62","26.37","36.78","0","0"
"Maurice Harkless","Maurice-Harkless-16971","3200","SF/PF","34.85","214","11.7","104.50","13.58","22.00","24.4","10.51","15.66","0","0"
"Seth Curry","Seth-Curry-16825","3000","PG/SG","41.43","214","13.3","104.50","12.00","18.00","28.0","14.62","14.62","0","0"
"P.J. Tucker","P.J.-Tucker-13947","4400","SF/PF","40.84","217.5","35.5","101.42","9.74","36.00","41.21","17.99","21.32","0","0"
"Rondae Hollis-Jefferson","Rondae-Hollis-Jefferson-18897","5200","PF/C","48.84","216.5","22.3","114.62","22.48","28.00","38.46","16.31","25.17","0","0"
"Paul George","Paul-George-1245","8900","SF/PF","44.19","216.5","35.7","102.62","31.61","37.00","60.06","26.44","42.99","0","0"
"Avery Bradley","Avery-Bradley-941","3800","SG","36.97","229.5","28.8","108.38","12.62","31.00","26.78","11.33","18.34","0","0"
"Jae Crowder","Jae-Crowder-13942","4600","SF/PF","31.53","216.5","26.5","98.88","19.20","28.00","37.59","16.98","22.14","0","0"
"Spencer Dinwiddie","Spencer-Dinwiddie-18588","6200","PG/SG","48.01","216.5","28.9","114.62","28.86","29.00","46.42","20.64","29.74","0","0"
"Ben Simmons","Ben-Simmons-35184","8700","PG/SF","43.99","227.5","35.1","108.33","23.19","35.00","53.8","17.85","41.8","0","0"
"Darius Miller","Darius-Miller-13951","3100","SF/PF","36.03","241.5","24.0","104.88","11.49","26.00","26.15","14.86","14.86","0","0"
"Jimmy Butler","Jimmy-Butler-13327","7800","SG/SF","46.46","227.5","34.4","108.33","22.04","35.00","50.66","19.74","37.25","0","0"
"Luka Doncic","Luka-Doncic-408971","7400","SG/SF","43.75","217.5","31.8","100.08","26.49","34.00","36.49","7.31","35.29","0","0"
"DeMarre Carroll","DeMarre-Carroll-1174","3500","SF/PF","32.14","216.5","20.7","114.62","18.72","20.00","28.39","12.9","16.71","0","0"
"Jerian Grant","Jerian-Grant-18900","3000","PG","39.47","214","16.3","105.10","13.31","18.00","23.56","12.59","14.29","0","0"
"Joe Ingles","Joe-Ingles-18627","5900","SG/SF","30.88","216.5","30.5","98.88","17.66","33.00","42.41","18.72","28.03","0","0"
"Rudy Gay","Rudy-Gay-1341","5900","SF/PF","54.54","216.5","26.7","99.70","21.19","29.00","36.2","13.98","28.02","0","0"
"E'Twaun Moore","E'Twaun-Moore-18582","5000","SG/SF","41.74","241.5","32.5","104.88","21.57","33.00","36.53","16.3","23.69","0","0"
"Lou Williams","Lou-Williams-1044","5700","PG/SG","52.71","229.5","25.5","108.38","32.56","26.00","40.35","16.69","26.97","0","0"
"Jeremy Lamb","Jeremy-Lamb-13955","6400","SG/SF","50.64","232","32.3","103.00","22.48","32.00","41.6","17.97","30.21","0","0"
"Kevin Huerter","Kevin-Huerter-408969","3300","SG/SF","39.26","232","22.7","105.10","15.52","21.00","18.19","5.72","15.53","0","0"
"Evan Turner","Evan-Turner-1291","4100","SG/SF","48.18","214","26.6","104.50","16.91","25.00","28.53","16.08","19.33","0","0"
"C.J. McCollum","C.J.-McCollum-17121","7200","PG/SG","48.18","214","35.1","104.50","24.88","35.00","44.94","19.64","33.92","0","0"
"Ed Davis","Ed-Davis-1265","3500","PF/C","51.73","216.5","15.3","114.62","15.68","18.00","30.05","12.29","16.45","0","0"
"Jordan Clarkson","Jordan-Clarkson-18631","5100","PG/SG","47.47","216.5","24.3","103.60","28.58","23.00","40.18","23.89","23.89","0","0"
"Robert Covington","Robert-Covington-16874","6300","SF/PF","33.89","216.5","35.4","100.67","14.66","37.00","41.19","19.32","29.4","0","0"
"Collin Sexton","Collin-Sexton-408896","5700","PG","45.64","216.5","32.2","103.60","26.34","35.00","25.07","2.97","26.56","0","0"
"Marco Belinelli","Marco-Belinelli-1033","3600","SG/SF","39.96","216.5","22.2","99.70","19.50","21.00","24.01","11.77","16.79","0","0"
"Brook Lopez","Brook-Lopez-1498","4800","C","69.46","228","27.4","98.80","15.01","27.00","33.71","14.83","22.34","0","0"
"Bryn Forbes","Bryn-Forbes-36052","4200","PG/SG","39.96","216.5","27.8","99.70","18.38","28.00","28.06","11.81","19.43","0","0"
"DeMar DeRozan","DeMar-DeRozan-1053","8500","SG/SF","48.25","216.5","35.4","99.70","30.60","36.00","52.68","18.38","39.02","0","0"
"Derrick Rose","Derrick-Rose-1086","6400","PG/SG","47.94","216.5","30.0","100.67","22.53","30.00","46.57","26.06","29.38","0","0"
"Meyers Leonard","Meyers-Leonard-13905","4000","C","51.53","214","13.1","104.50","19.21","17.00","31.35","14.88","18.28","0","0"
"Eric Gordon","Eric-Gordon-1077","5800","SG/SF","51.92","217.5","33.8","101.42","20.92","31.00","38.44","18.03","26.44","0","0"
"Chandler Hutchison","Chandler-Hutchison-408877","3000","SG/SF","37.71","228","20.5","104.50","13.04","20.00","14.07","2.61","13.69","0","0"
"Tobias Harris","Tobias-Harris-13332","8400","SF/PF","49.85","229.5","35.8","108.38","23.25","35.00","50.65","20.39","38.11","0","0"
"LaMarcus Aldridge","LaMarcus-Aldridge-1349","8300","PF/C","56.35","216.5","34.0","99.70","23.69","34.00","54.02","24.48","37.49","0","0"
"DeAndre Bembry","DeAndre-Bembry-35198","4200","SG/SF","40.21","232","20.7","105.10","22.62","23.00","28.32","15.93","18.97","0","0"
"Mohamed Bamba","Mohamed-Bamba-409026","3500","C","51.77","214","13.1","105.10","20.22","15.00","15.93","2.92","15.76","0","0"
"Jamal Crawford","Jamal-Crawford-1075","3400","PG/SG","45.95","229.5","20.7","108.80","21.73","20.00","26.82","15.28","15.28","0","0"
"Dante Exum","Dante-Exum-18626","3400","PG/SG","40.70","216.5","18.0","98.88","19.78","18.00","26.39","12.0","15.21","0","0"
"T.J. McConnell","T.J.-McConnell-18956","3200","PG/SG","43.99","227.5","13.5","108.33","12.58","18.00","23.15","12.05","14.24","0","0"
"Harrison Barnes","Harrison-Barnes-13901","6300","SF/PF","45.08","217.5","32.6","100.08","21.21","32.00","35.72","16.21","28.04","0","0"
"Derrick White","Derrick-White-37858","3500","PG/SG","41.95","216.5","15.0","99.70","17.31","19.00","28.53","12.8","15.53","0","0"
"J.J. Barea","J.J.-Barea-18605","5000","PG/SG","46.70","217.5","23.2","100.08","27.95","20.00","33.31","16.01","22.12","0","0"
"Ricky Rubio","Ricky-Rubio-1001","6900","PG","40.70","216.5","27.0","98.88","26.61","30.00","40.49","16.2","30.4","0","0"
"Emmanuel Mudiay","Emmanuel-Mudiay-18936","4700","PG","39.12","227.5","22.6","100.17","25.72","23.00","27.97","12.91","20.72","0","0"
"Zach Collins","Zach-Collins-37866","4000","PF/C","51.53","214","16.9","104.50","17.08","18.00","26.71","13.15","17.39","0","0"
"Landry Shamet","Landry-Shamet-408841","3200","PG/SG","48.57","227.5","19.9","108.33","13.99","20.00","15.1","3.19","13.92","0","0"
"Jeremy Lin","Jeremy-Lin-916","5000","PG/SG","49.24","232","22.1","105.10","25.45","20.00","33.82","16.13","21.65","0","0"
"Jakob Poeltl","Jakob-Poeltl-35187","3300","C","54.93","216.5","12.6","99.70","20.15","15.00","28.47","12.62","14.24","0","0"
"Timothe Luwawu-Cabarrot","Timothe-Luwawu-Cabarrot-35183","3200","SG/SF","37.98","216.5","15.7","102.62","16.20","21.00","21.57","11.01","13.78","0","0"
"Nerlens Noel","Nerlens-Noel-18575","3300","C","52.11","216.5","11.6","102.62","11.72","13.00","24.43","12.02","14.12","0","0"
"Shaquille Harrison","Shaquille-Harrison-36065","3400","PG","45.51","228","18.9","104.50","18.47","18.00","23.57","11.81","14.54","0","0"
"Pat Connaughton","Pat-Connaughton-18939","3700","SG/SF","36.22","228","21.0","98.80","14.85","20.00","28.38","12.17","15.8","0","0"
"Patty Mills","Patty-Mills-13977","3900","PG/SG","45.17","216.5","23.6","99.70","16.88","22.00","24.75","12.72","16.23","0","0"
"Thomas Bryant ","Thomas-Bryant--37884","3300","PF/C","60.00","241.5","12.0","103.80","16.21","16.00","22.84","10.78","13.7","0","0"
"Dante Cunningham","Dante-Cunningham-1259","3600","SF/PF","54.54","216.5","24.0","99.70","8.83","24.00","22.62","10.45","14.89","0","0"
"Mitchell Robinson","Mitchell-Robinson-408821","3200","C","50.24","227.5","15.1","100.17","11.08","16.00","13.29","2.43","13.15","0","0"
"Michael Kidd-Gilchrist","Michael-Kidd-Gilchrist-13896","3800","SF/PF","43.67","232","17.0","103.00","17.25","20.00","25.53","13.14","15.39","0","0"
"Dario Saric","Dario-Saric-36004","4700","PF","50.90","216.5","22.9","100.67","20.59","22.00","32.06","15.38","18.96","0","0"
"Dwight Powell","Dwight-Powell-18566","3300","PF/C","56.51","217.5","21.0","100.08","18.06","13.00","20.45","10.42","13.16","0","0"
"Maxi Kleber","Maxi-Kleber-37845","3200","PF","45.08","217.5","18.4","100.08","12.88","16.00","21.0","10.51","12.75","0","0"
"Gary Clark","Gary-Clark-570141","3400","SF/PF","45.09","217.5","20.2","101.42","7.34","18.00","13.85","2.63","13.43","0","0"
"Marcin Gortat","Marcin-Gortat-1479","3600","C","61.32","229.5","16.3","108.38","16.35","16.00","20.33","8.46","14.19","0","0"
"Omari Spellman","Omari-Spellman-408970","3300","PF/C","49.93","232","15.3","105.10","19.35","15.00","13.47","3.1","12.72","0","0"
"Shabazz Napier","Shabazz-Napier-18598","3200","PG/SG","48.16","216.5","15.9","114.62","20.44","14.00","22.63","10.0","12.3","0","0"
"Wesley Johnson","Wesley-Johnson-1280","3200","SF/PF","36.03","241.5","19.6","104.88","11.12","18.00","17.87","10.23","11.8","0","0"
"Damyean Dotson","Damyean-Dotson-37795","3000","SG/SF","34.68","227.5","19.2","100.17","15.97","14.00","18.87","9.22","10.95","0","0"
"Patrick Beverley","Patrick-Beverley-14108","4400","PG/SG","48.27","229.5","23.7","108.38","15.99","20.00","28.99","15.98","15.98","0","0"
"Austin Rivers","Austin-Rivers-13903","3500","PG/SG","59.88","241.5","20.1","103.80","17.51","17.00","19.08","10.34","12.58","0","0"
"Miles Bridges","Miles-Bridges-409262","3400","SF/PF","57.34","232","20.2","103.00","12.73","14.00","12.17","2.17","11.99","0","0"
"Alec Burks","Alec-Burks-13353","4100","SG","43.62","216.5","15.6","98.88","24.54","16.00","23.76","14.16","14.16","0","0"
"Mike Scott","Mike-Scott-13999","3500","SF/PF","49.85","229.5","17.7","108.38","16.80","14.00","23.49","13.9","11.75","0","0"
"Trey Burke","Trey-Burke-17029","4900","PG/SG","53.49","227.5","24.7","100.17","30.26","16.00","28.19","14.23","16.38","0","0"
"Dorian Finney-Smith","Dorian-Finney-Smith-36032","3800","SF/PF","31.48","217.5","31.2","100.08","14.85","18.00","19.74","9.99","12.66","0","0"
"Gorgui Dieng","Gorgui-Dieng-16939","3300","PF/C","53.08","216.5","13.4","100.67","17.43","11.00","16.69","7.98","10.87","0","0"
"Devin Harris","Devin-Harris-1076","3400","PG/SG","46.70","217.5","16.4","100.08","21.58","14.00","19.65","11.11","11.11","0","0"
"Kevin Knox","Kevin-Knox-408820","3400","SF/PF","46.98","227.5","17.5","100.17","20.24","15.00","10.94","2.0","10.82","0","0"
"Jarell Martin","Jarell-Martin-18931","3200","PF/C","52.79","214","2.0","105.10","10.00","12.00","16.03","8.58","10.13","0","0"
"Deonte Burton","Deonte-Burton-570274","3000","PG/SG","50.18","216.5","11.0","102.62","19.78","14.00","9.3","1.66","9.16","0","0"
"Gerald Green","Gerald-Green-13374","3300","SG/SF","51.92","217.5","11.8","101.42","18.90","12.00","17.05","7.99","9.85","0","0"
"Royce O'Neale","Royce-O'Neale-37872","3700","SF","31.53","216.5","17.5","98.88","10.59","15.00","16.11","8.1","10.9","0","0"
"Troy Daniels","Troy-Daniels-17383","3000","SG","34.56","229.5","2.0","108.80","0.00","9.00","14.42","7.79","8.18","0","0"
"Tyus Jones","Tyus-Jones-18938","3200","PG","46.48","216.5","14.6","100.67","12.08","12.00","15.75","8.29","8.62","0","0"
"Davis Bertans","Davis-Bertans-36051","3700","PF/C","56.35","216.5","14.5","99.70","18.73","12.00","15.05","7.58","9.46","0","0"
"Donte DiVincenzo","Donte-DiVincenzo-408950","3200","PG/SG","36.22","228","8.0","98.80","13.33","11.00","8.24","1.47","8.12","0","0"
"Jared Dudley","Jared-Dudley-1319","3100","SF/PF","32.14","216.5","19.7","114.62","10.69","14.00","13.93","6.83","7.81","0","0"
"Nik Stauskas","Nik-Stauskas-18636","3000","SG/SF","41.43","214","12.9","104.50","19.44","11.00","12.17","5.76","7.41","0","0"
"Alex Abrines","Alex-Abrines-36054","3000","SG/SF","37.52","216.5","6.7","102.62","12.66","12.00","14.23","7.41","7.41","0","0"
"Solomon Hill","Solomon-Hill-16863","3000","SF/PF","36.03","241.5","20.0","104.88","6.66","12.00","13.6","7.13","7.13","0","0"
"Andrew Harrison","Andrew-Harrison-18950","3200","PG","39.31","216.5","14.5","103.60","16.00","10.00","12.63","6.12","7.51","0","0"
"Frank Ntilikina","Frank-Ntilikina-37796","3400","PG/SF","39.12","227.5","18.9","100.17","12.82","13.00","12.58","6.83","7.84","0","0"
"Wesley Iwundu","Wesley-Iwundu-37839","3000","SG/SF","43.02","214","15.1","105.10","10.00","13.00","13.75","6.88","6.88","0","0"
"Patrick Patterson","Patrick-Patterson-1260","3000","PF/C","50.76","216.5","13.7","102.62","13.70","10.00","11.82","5.74","6.79","0","0"
"Elie Okobo","Elie-Okobo-409300","3000","PG","42.64","229.5","0","108.80","0","9.00","6.56","1.2","6.49","0","0"
"Ante Zizic","Ante-Zizic-35180","3100","C","51.05","216.5","12.0","103.60","13.43","7.00","13.17","6.59","6.59","0","0"
"Cameron Payne","Cameron-Payne-18941","3000","PG/SG","45.89","228","8.6","104.50","13.24","8.00","10.92","5.55","6.39","0","0"
"Frank Jackson","Frank-Jackson-37855","3000","PG/SG","57.59","241.5","12.4","104.88","18.17","10.00","6.23","1.18","6.04","0","0"
"Raul Neto","Raul-Neto-31821","3200","PG","40.70","216.5","10.8","98.88","23.31","7.00","10.86","5.1","5.74","0","0"
"Frank Kaminsky","Frank-Kaminsky-18920","3300","PF/C","61.88","232","14.0","103.00","24.87","6.00","9.33","4.75","5.76","0","0"
"Isaiah Hartenstein","Isaiah-Hartenstein-570142","3200","PF/C","45.09","217.5","8.0","101.42","10.63","7.00","5.64","1.07","5.47","0","0"
"Antonio Blakeney","Antonio-Blakeney-37811","3200","PG/SG","39.82","228","19.0","104.50","24.95","6.00","8.96","4.35","5.38","0","0"
"Thon Maker","Thon-Maker-35194","3000","PF/C","53.84","228","11.1","98.80","19.25","6.00","8.62","4.07","5.02","0","0"
"Matthew Dellavedova","Matthew-Dellavedova-16839","3100","PG/SG","48.45","228","7.0","98.80","15.58","6.00","9.01","5.12","5.12","0","0"
"Tony Snell","Tony-Snell-16872","3000","SG/SF","41.40","228","14.4","98.80","13.72","8.00","8.45","4.37","4.85","0","0"
"Furkan Korkmaz","Furkan-Korkmaz-35185","3000","SG/SF","48.57","227.5","11.0","108.33","18.90","7.00","9.18","4.62","4.62","0","0"
"Sterling Brown","Sterling-Brown-37821","3100","SG/SF","36.22","228","10.7","98.80","17.56","6.00","8.22","4.27","4.27","0","0"
"Milos Teodosic","Milos-Teodosic-37883","3000","PG","48.27","229.5","7.5","108.38","20.11","5.00","8.15","4.08","4.08","0","0"
"Amir Johnson","Amir-Johnson-1285","3000","PF/C","54.17","227.5","9.8","108.33","21.36","4.00","6.05","2.97","3.86","0","0"
"Ian Clark","Ian-Clark-16922","3100","PG/SG","41.74","241.5","12.8","104.88","17.67","6.00","6.39","3.73","3.89","0","0"
"Justin Anderson","Justin-Anderson-18927","3000","SF/PF","40.21","232","8.5","105.10","24.15","3.00","3.74","1.81","2.35","0","0"
"Thabo Sefolosha","Thabo-Sefolosha-1271","3100","SF/PF","31.53","216.5","10.7","98.88","10.26","3.00","3.29","1.84","2.18","0","0"
