"nameCol","idCol","salaryCol","positionCol","dvpCol","ouCol","mpgCol","paceCol","usgCol","pminCol","ceilCol","floorCol","pointsCol","predictCol","actualCol"
"Davis Bertans","Davis-Bertans-36051","3500","PF/C","54.23","226","20.9","99.70","13.13","24.00","36.0","17.77","22.18","0","0"
"Maurice Harkless","Maurice-Harkless-16971","3600","SF/PF","36.99","226.5","24.8","104.50","13.46","25.00","35.35","15.02","22.39","0","0"
"Al-Farouq Aminu","Al-Farouq-Aminu-1279","4600","SF/PF","36.99","226.5","29.7","104.50","12.94","32.00","43.38","20.97","28.15","0","0"
"Kevon Looney","Kevon-Looney-18945","3600","PF/C","50.64","226.5","22.0","103.10","12.01","24.00","29.43","12.98","20.31","0","0"
"LaMarcus Aldridge","LaMarcus-Aldridge-1349","7100","PF/C","54.23","226","30.3","99.70","24.54","33.00","57.64","26.1","39.97","0","0"
"Meyers Leonard","Meyers-Leonard-13905","3200","PF/C","49.01","226.5","18.5","104.50","15.64","16.00","30.96","14.41","17.72","0","0"
"Draymond Green","Draymond-Green-13976","6700","PF/C","52.73","226.5","33.7","103.10","17.93","33.00","45.73","16.33","36.94","0","0"
"Damian Lillard","Damian-Lillard-13900","8300","PG","50.40","226.5","36.0","104.50","28.70","35.00","58.39","22.11","45.69","0","0"
"Klay Thompson","Klay-Thompson-13315","6000","SG","39.06","226.5","34.7","103.10","18.95","35.00","44.23","19.02","32.79","0","0"
"Evan Turner","Evan-Turner-1291","3800","SG/SF","45.02","226.5","22.0","104.50","19.27","24.00","30.53","17.16","20.63","0","0"
"Danilo Gallinari","Danilo-Gallinari-1329","6400","SF/PF","51.65","226","31.4","108.38","24.64","34.00","47.13","18.91","33.88","0","0"
"Patty Mills","Patty-Mills-13977","3300","PG/SG","43.06","226","20.3","99.70","16.34","19.00","26.73","13.62","17.4","0","0"
"Avery Bradley","Avery-Bradley-941","3800","SG","33.68","226","29.0","108.38","14.33","29.00","29.0","12.27","19.86","0","0"
"Patrick Beverley","Patrick-Beverley-14108","3700","PG/SG","42.59","226","24.9","108.38","13.91","22.00","34.97","19.28","19.28","0","0"
"Kevin Durant","Kevin-Durant-1348","9700","SF/PF","52.40","226.5","36.5","103.10","29.67","35.00","65.04","26.23","50.34","0","0"
"Derrick White","Derrick-White-37858","3700","PG/SG","43.06","226","25.0","99.70","16.03","27.00","30.39","15.88","19.04","0","0"
"Marco Belinelli","Marco-Belinelli-1033","3600","SG/SF","33.93","226","21.1","99.70","18.72","22.00","27.01","13.55","18.54","0","0"
"Jonas Jerebko","Jonas-Jerebko-1106","3700","PF/C","52.40","226.5","20.3","103.10","18.56","22.00","34.21","14.71","19.06","0","0"
"Stephen Curry","Stephen-Curry-1079","9300","PG/SG","47.62","226.5","37.2","103.10","29.20","35.00","66.64","26.13","47.94","0","0"
"Rudy Gay","Rudy-Gay-1341","6000","SF/PF","54.08","226","25.4","99.70","20.52","28.00","39.14","14.97","30.13","0","0"
"Andre Iguodala","Andre-Iguodala-1334","4100","SG/SF","39.06","226.5","22.2","103.10","14.61","25.00","31.45","12.02","20.45","0","0"
"Jusuf Nurkic","Jusuf-Nurkic-18619","7200","C","53.20","226.5","27.3","104.50","23.53","28.00","45.47","19.6","35.58","0","0"
"Tobias Harris","Tobias-Harris-13332","7400","SF/PF","51.65","226","33.7","108.38","22.47","34.00","48.3","19.44","36.34","0","0"
"DeMar DeRozan","DeMar-DeRozan-1053","8500","SG/SF","48.28","226","34.0","99.70","27.04","35.00","56.0","19.41","41.39","0","0"
"C.J. McCollum","C.J.-McCollum-17121","6300","PG/SG","45.02","226.5","33.2","104.50","26.41","35.00","40.04","17.64","30.36","0","0"
"Bryn Forbes","Bryn-Forbes-36052","4500","PG/SG","54.34","226","27.1","99.70","17.62","29.00","30.99","12.94","21.36","0","0"
"Shai Gilgeous-Alexander","Shai-Gilgeous-Alexander-408990","4300","PG/SG","42.59","226","25.6","108.38","16.27","26.00","22.57","8.32","20.44","0","0"
"Boban Marjanovic","Boban-Marjanovic-31807","3700","C","50.83","226","10.4","108.38","23.98","15.00","24.97","7.98","17.23","0","0"
"Seth Curry","Seth-Curry-16825","3100","PG/SG","40.93","226.5","16.3","104.50","14.41","18.00","25.56","13.49","13.49","0","0"
"Montrezl Harrell","Montrezl-Harrell-18930","6700","PF/C","48.75","226","24.4","108.38","24.42","29.00","43.73","22.63","28.94","0","0"
"Shaun Livingston","Shaun-Livingston-14007","3100","PG","41.73","226.5","15.3","103.10","17.41","16.00","21.41","9.78","12.83","0","0"
"Lou Williams","Lou-Williams-1044","6600","PG/SG","46.46","226","23.2","108.38","36.91","24.00","40.87","16.91","27.32","0","0"
"Zach Collins","Zach-Collins-37866","3100","PF/C","49.01","226.5","18.7","104.50","17.63","15.00","18.75","9.23","12.24","0","0"
"Pau Gasol","Pau-Gasol-1502","3500","C","54.23","226","0","99.70","0","13.00","17.86","12.37","13.74","0","0"
"Mike Scott","Mike-Scott-13999","3300","SF/PF","51.65","226","14.6","108.38","16.28","15.00","23.03","13.63","11.52","0","0"
"Nik Stauskas","Nik-Stauskas-18636","3100","SG/SF","40.93","226.5","12.8","104.50","17.93","12.00","15.26","7.17","9.24","0","0"
"Jakob Poeltl","Jakob-Poeltl-35187","3400","C","57.99","226","19.1","99.70","14.61","10.00","18.89","8.38","9.46","0","0"
"Alfonzo McKinnie","Alfonzo-McKinnie-37808","3200","SF/PF","37.96","226.5","8.7","103.10","20.07","10.00","13.31","6.9","6.9","0","0"
"Marcin Gortat","Marcin-Gortat-1479","3300","C","50.83","226","13.3","108.38","15.64","6.00","9.62","4.64","5.67","0","0"
"Jordan Bell","Jordan-Bell-37877","3000","PF/C","50.64","226.5","7.2","103.10","18.52","5.00","7.17","3.67","4.34","0","0"
"Tyrone Wallace","Tyrone-Wallace-35220","3300","PG/SG","46.46","226","13.2","108.38","17.43","6.00","6.58","4.08","4.08","0","0"
