"nameCol","idCol","salaryCol","positionCol","dvpCol","ouCol","mpgCol","paceCol","usgCol","pminCol","ceilCol","floorCol","pointsCol","predictCol","actualCol"
"Maxi Kleber","Maxi-Kleber-37845","3100","PF/C","49.38","228.5","11.8","100.08","18.75","24.00","35.77","17.97","21.73","0","0"
"Jeff Green","Jeff-Green-1314","4200","SF/PF","44.69","220.5","34.1","103.80","14.89","32.00","40.39","20.42","27.33","0","0"
"James Johnson","James-Johnson-1195","3700","SF/PF","45.82","207.5","21.2","106.90","18.62","24.00","31.23","12.27","23.73","0","0"
"Nemanja Bjelica","Nemanja-Bjelica-31814","4800","SF/PF","54.10","238","24.9","98.20","19.24","30.00","49.33","19.61","29.75","0","0"
"DeMarre Carroll","DeMarre-Carroll-1174","3800","SF/PF","39.49","220","23.9","114.62","17.60","23.00","40.04","18.12","23.5","0","0"
"Rodions Kurucs","Rodions-Kurucs-408801","4600","SF/PF","50.69","220","26.0","114.62","16.99","31.00","31.27","11.53","28.32","0","0"
"Mikal Bridges","Mikal-Bridges-408842","4200","SG/SF","35.01","210","32.5","108.80","10.40","33.00","26.54","5.31","25.67","0","0"
"Dewayne Dedmon","Dewayne-Dedmon-16894","5200","PF/C","48.37","217.5","27.3","105.10","16.23","30.00","44.61","18.85","31.68","0","0"
"Willie Cauley-Stein","Willie-Cauley-Stein-18951","6500","C","58.17","238","29.0","98.20","18.52","33.00","56.28","24.82","39.33","0","0"
"Josh Jackson","Josh-Jackson-37890","4400","SF/PF","47.36","210","24.5","108.80","21.83","23.00","37.56","16.89","26.51","0","0"
"Mason Plumlee","Mason-Plumlee-16798","5100","PF/C","51.71","216.5","26.8","99.62","17.00","30.00","43.69","21.37","30.66","0","0"
"Serge Ibaka","Serge-Ibaka-1294","5700","PF/C","50.22","207.5","32.0","105.50","19.01","30.00","48.32","20.26","33.93","0","0"
"Darren Collison","Darren-Collison-1060","4300","PG","41.43","217.5","25.6","107.67","15.14","28.00","35.08","15.52","25.57","0","0"
"Montrezl Harrell","Montrezl-Harrell-18930","5700","PF/C","56.80","238","23.2","108.38","24.13","28.00","50.77","26.28","33.6","0","0"
"Wendell Carter","Wendell-Carter-408878","4700","PF/C","53.03","210.5","20.3","104.50","17.50","25.00","31.38","8.52","27.48","0","0"
"John Wall","John-Wall-1084","8600","PG","55.22","220.5","34.7","103.80","32.41","36.00","56.32","19.74","50.24","0","0"
"Trevor Ariza","Trevor-Ariza-1323","5400","SF/PF","34.63","220.5","38.4","103.80","17.06","36.00","41.16","15.34","31.25","0","0"
"Wesley Matthews","Wesley-Matthews-1339","4400","SG/SF","37.26","228.5","30.9","100.08","18.10","32.00","37.31","15.65","25.45","0","0"
"Derrick White","Derrick-White-37858","3700","PG/SG","38.78","216.5","23.8","99.70","16.70","28.00","34.65","17.8","21.4","0","0"
"Jamal Murray","Jamal-Murray-35211","6300","PG/SG","51.93","216.5","34.8","99.62","25.77","36.00","56.17","23.43","36.33","0","0"
"Julius Randle","Julius-Randle-18632","7900","PF/C","51.51","228.5","31.0","104.88","26.98","34.00","62.92","26.99","45.43","0","0"
"Cody Zeller","Cody-Zeller-16836","4400","C","62.71","220","24.8","103.00","13.70","25.00","36.17","14.75","25.26","0","0"
"Markieff Morris","Markieff-Morris-13314","4500","PF/C","54.15","220.5","23.3","103.80","21.07","26.00","35.21","18.28","25.68","0","0"
"Cedi Osman","Cedi-Osman-18912","4200","SF/PF","37.30","196.5","31.3","103.60","14.79","35.00","29.89","11.08","23.89","0","0"
"Dario Saric","Dario-Saric-36004","4800","PF","48.13","210.5","26.3","100.67","17.05","28.00","45.48","22.99","27.3","0","0"
"TJ Warren","TJ-Warren-18634","6100","SF/PF","47.36","210","37.3","108.80","22.45","35.00","45.07","20.03","34.59","0","0"
"De'Anthony Melton","De'Anthony-Melton-409081","3500","PG","48.85","210","20.3","108.80","14.30","21.00","20.43","4.09","19.76","0","0"
"Andrew Wiggins","Andrew-Wiggins-18620","6200","SG/SF","43.52","210.5","33.8","100.67","23.95","34.00","45.77","19.8","34.86","0","0"
"DeAndre Jordan","DeAndre-Jordan-1486","6400","C","51.20","228.5","31.6","100.08","14.22","32.00","44.55","21.47","35.84","0","0"
"Ed Davis","Ed-Davis-1265","3600","PF/C","52.56","220","20.3","114.62","13.53","20.00","36.74","15.02","20.11","0","0"
"Jeremy Lamb","Jeremy-Lamb-13955","5500","SG/SF","43.74","220","32.3","103.00","21.46","30.00","41.05","18.09","30.61","0","0"
"Shai Gilgeous-Alexander","Shai-Gilgeous-Alexander-408990","4500","PG/SG","45.22","238","27.3","108.38","15.42","28.00","27.66","10.2","25.05","0","0"
"Miles Bridges","Miles-Bridges-409262","3600","SF/PF","48.53","220","19.5","103.00","15.17","24.00","20.11","3.68","19.89","0","0"
"Troy Daniels","Troy-Daniels-17383","3000","SG","41.12","210","10.0","108.80","12.44","18.00","29.23","15.78","16.58","0","0"
"Kent Bazemore","Kent-Bazemore-13987","5700","SG/SF","45.67","217.5","30.8","105.10","23.43","32.00","44.68","16.0","31.44","0","0"
"Kawhi Leonard","Kawhi-Leonard-13310","9500","SF/PF","44.56","207.5","36.2","105.50","29.61","36.00","70.35","25.48","52.42","0","0"
"Reggie Bullock","Reggie-Bullock-16943","4700","SG/SF","36.39","220.5","35.8","100.30","16.77","35.00","42.09","17.83","25.95","0","0"
"Nikola Vucevic","Nikola-Vucevic-13296","8900","C","55.54","210","31.8","105.10","25.94","32.00","61.03","22.67","48.75","0","0"
"Alec Burks","Alec-Burks-13353","4600","PG/SG","42.27","196.5","26.6","103.60","19.66","28.00","36.13","18.51","25.18","0","0"
"Nicolas Batum","Nicolas-Batum-1315","4400","SG/SF","32.21","220","30.5","103.00","12.05","30.00","33.16","17.11","23.87","0","0"
"Victor Oladipo","Victor-Oladipo-16807","8700","PG/SG","56.26","217.5","33.6","107.67","25.50","36.00","65.17","28.63","47.09","0","0"
"JaMychal Green","JaMychal-Green-18729","4000","SF/PF","48.46","196.5","23.1","103.30","15.81","22.00","36.13","18.73","21.43","0","0"
"Reggie Jackson","Reggie-Jackson-13352","5400","PG/SG","55.96","220.5","27.2","100.30","23.56","28.00","41.15","15.65","28.88","0","0"
"Blake Griffin","Blake-Griffin-1503","9000","PF/C","61.50","220.5","36.8","100.30","29.03","36.00","62.7","22.36","48.19","0","0"
"D.J. Augustin","D.J.-Augustin-1064","4200","PG","44.40","210","29.0","105.10","16.71","30.00","35.72","13.0","22.38","0","0"
"Buddy Hield","Buddy-Hield-35206","7200","SG/SF","32.98","238","31.9","98.20","28.10","34.00","58.07","25.68","38.33","0","0"
"Karl-Anthony Towns","Karl-Anthony-Towns-18937","9400","C","62.66","210.5","31.3","100.67","25.75","35.00","66.99","27.42","50.03","0","0"
"Langston Galloway","Langston-Galloway-18717","3300","PG/SG","41.50","220.5","22.5","100.30","19.14","22.00","30.22","15.29","17.55","0","0"
"Andre Drummond","Andre-Drummond-13904","9200","C","55.56","220.5","34.0","100.30","20.69","35.00","59.84","22.39","48.89","0","0"
"Juan Hernangomez","Juan-Hernangomez-35212","4500","SF/PF","52.17","216.5","28.5","99.62","13.69","32.00","40.36","15.8","23.8","0","0"
"Iman Shumpert","Iman-Shumpert-13350","3500","SG/SF","32.98","238","23.5","98.20","17.14","25.00","26.85","13.22","18.49","0","0"
"Tomas Satoransky ","Tomas-Satoransky--36031","3700","PG/SG","55.22","220.5","27.9","103.80","14.06","20.00","29.85","14.86","19.47","0","0"
"Kevin Huerter","Kevin-Huerter-408969","4400","SG/SF","35.29","217.5","32.8","105.10","16.48","34.00","26.43","7.17","23.14","0","0"
"Kyle Anderson","Kyle-Anderson-18615","4600","PG/SF","36.99","196.5","25.8","103.30","12.92","32.00","32.15","13.15","24.21","0","0"
"Domantas Sabonis","Domantas-Sabonis-35217","6200","PF/C","56.97","217.5","23.9","107.67","24.53","25.00","48.58","24.61","32.47","0","0"
"Trey Lyles","Trey-Lyles-18942","3900","SF/PF","52.17","216.5","20.2","99.62","20.00","23.00","32.06","17.51","20.41","0","0"
"Bradley Beal","Bradley-Beal-13898","8000","SG","42.23","220.5","38.3","103.80","28.45","36.00","65.99","28.43","41.87","0","0"
"Jarrett Allen","Jarrett-Allen-37794","5600","C","52.56","220","22.9","114.62","16.00","28.00","40.31","17.74","29.23","0","0"
"Bryn Forbes","Bryn-Forbes-36052","3800","PG/SG","50.25","216.5","25.0","99.70","17.82","28.00","28.45","12.13","19.85","0","0"
"Jakob Poeltl","Jakob-Poeltl-35187","3300","C","50.15","216.5","20.0","99.70","12.80","19.00","34.44","15.28","17.23","0","0"
"Bogdan Bogdanovic","Bogdan-Bogdanovic-37899","5500","SG/SF","48.96","238","28.2","98.20","24.25","30.00","45.22","24.89","28.51","0","0"
"Danny Green","Danny-Green-940","4200","SG/SF","36.72","207.5","31.2","105.50","15.26","28.00","30.83","13.83","21.68","0","0"
"Shelvin Mack","Shelvin-Mack-13354","3500","PG","44.38","196.5","22.1","103.30","16.20","23.00","27.55","14.63","18.04","0","0"
"Devin Booker","Devin-Booker-18949","8500","PG/SG","48.85","210","38.6","108.80","33.24","37.00","66.22","26.05","43.71","0","0"
"Chandler Hutchison","Chandler-Hutchison-408877","3000","SF/PF","40.33","210.5","15.2","104.50","8.77","20.00","16.69","3.52","15.38","0","0"
"Joe Harris","Joe-Harris-18587","4700","SG/SF","38.04","220","30.3","114.62","16.83","32.00","35.22","16.07","24.09","0","0"
"Jaren Jackson","Jaren-Jackson-409099","5800","PF/C","48.46","196.5","26.7","103.30","20.36","28.00","33.67","9.09","29.69","0","0"
"Jordan Clarkson","Jordan-Clarkson-18631","5700","PG/SG","42.27","196.5","31.7","103.60","27.18","32.00","48.61","28.12","29.14","0","0"
"Evan Fournier","Evan-Fournier-13913","5800","SG/SF","35.12","210","29.2","105.10","26.78","32.00","37.77","15.37","29.62","0","0"
"Patty Mills","Patty-Mills-13977","3300","PG/SG","38.78","216.5","20.5","99.70","15.26","23.00","25.13","13.13","16.83","0","0"
"Anthony Davis","Anthony-Davis-13895","11800","PF/C","51.51","228.5","36.8","104.88","31.92","38.00","88.9","30.76","60.07","0","0"
"Fred VanVleet","Fred-VanVleet-36011","5900","PG/SG","40.49","207.5","31.6","105.50","18.96","32.00","47.11","24.59","29.95","0","0"
"De'Aaron Fox","De'Aaron-Fox-37900","8200","PG","54.02","238","29.4","98.20","29.12","34.00","51.82","21.09","41.59","0","0"
"Nikola Jokic","Nikola-Jokic-31812","9600","C","48.89","216.5","30.8","99.62","34.97","33.00","64.13","19.38","48.58","0","0"
"Justin Holiday","Justin-Holiday-14559","5300","SG/SF","39.71","210.5","35.3","104.50","15.58","34.00","37.98","16.05","26.8","0","0"
"Kemba Walker","Kemba-Walker-13335","8400","PG","50.18","220","33.5","103.00","30.05","34.00","56.83","20.82","42.41","0","0"
"LaMarcus Aldridge","LaMarcus-Aldridge-1349","7200","PF/C","54.46","216.5","28.0","99.70","24.70","32.00","52.59","23.13","36.37","0","0"
"Thaddeus Young","Thaddeus-Young-1289","5600","SF/PF","53.46","217.5","32.4","107.67","20.29","31.00","40.55","14.89","28.2","0","0"
"Rudy Gay","Rudy-Gay-1341","5900","SF/PF","48.80","216.5","26.3","99.70","19.77","31.00","37.78","14.93","29.75","0","0"
"J.J. Barea","J.J.-Barea-18605","4800","PG/SG","50.75","228.5","20.4","100.08","32.40","20.00","35.76","17.57","24.13","0","0"
"Terrence Ross","Terrence-Ross-13902","4200","SG/SF","35.12","210","25.4","105.10","17.10","28.00","32.61","17.97","21.12","0","0"
"Jonathan Isaac","Jonathan-Isaac-37841","3900","SF/PF","55.54","210","25.0","105.10","12.89","25.00","31.06","15.04","19.61","0","0"
"Trae Young","Trae-Young-409063","5900","PG","47.18","217.5","28.3","105.10","29.14","28.00","33.88","9.2","29.67","0","0"
"Darius Miller","Darius-Miller-13951","4100","SF/PF","38.23","228.5","31.0","104.88","15.58","34.00","32.6","16.07","20.58","0","0"
"Willy Hernangomez","Willy-Hernangomez-18901","3700","C","62.71","220","15.2","103.00","26.34","16.00","33.56","17.96","18.53","0","0"
"Zach LaVine","Zach-LaVine-18622","7100","PG/SG","51.77","210.5","40.0","104.50","26.53","34.00","48.93","21.16","35.38","0","0"
"Larry Nance","Larry-Nance-18946","7100","PF/C","51.75","196.5","31.9","103.60","16.71","35.00","52.48","21.48","35.27","0","0"
"Shaquille Harrison","Shaquille-Harrison-36065","3400","PG","36.28","210.5","18.2","104.50","13.72","18.00","27.33","13.75","16.91","0","0"
"Taj Gibson","Taj-Gibson-1277","4300","PF/C","55.68","210.5","21.4","100.67","16.56","23.00","29.49","10.97","21.31","0","0"
"Avery Bradley","Avery-Bradley-941","3600","SG","41.03","238","28.7","108.38","13.11","30.00","26.02","11.01","17.82","0","0"
"Davis Bertans","Davis-Bertans-36051","3500","PF/C","54.46","216.5","20.2","99.70","13.86","21.00","29.55","13.85","17.31","0","0"
"Aaron Gordon","Aaron-Gordon-18601","6900","SF/PF","50.03","210","33.0","105.10","19.86","34.00","43.98","18.69","34.17","0","0"
"D'Angelo Russell","D'Angelo-Russell-18947","7500","PG/SG","51.70","220","28.4","114.62","29.77","30.00","49.73","18.34","37.06","0","0"
"Josh Richardson","Josh-Richardson-18922","6700","SG/SF","48.45","207.5","34.7","106.90","23.54","36.00","48.83","19.27","32.88","0","0"
"Pascal Siakam","Pascal-Siakam-35186","6500","PF/C","52.76","207.5","33.2","105.50","21.39","34.00","47.12","18.16","31.86","0","0"
"Marc Gasol","Marc-Gasol-1493","7400","C","48.46","196.5","32.0","103.30","23.75","33.00","47.91","21.15","36.27","0","0"
"Bojan Bogdanovic","Bojan-Bogdanovic-18571","5200","SG/SF","42.21","217.5","33.1","107.67","18.39","33.00","39.81","20.22","25.44","0","0"
"Dwyane Wade","Dwyane-Wade-967","5100","PG/SG","48.45","207.5","23.0","106.90","26.16","24.00","34.95","16.47","24.91","0","0"
"Kris Dunn","Kris-Dunn-35215","7400","PG/SG","51.77","210.5","30.3","104.50","24.02","34.00","51.55","18.3","36.1","0","0"
"Tobias Harris","Tobias-Harris-13332","7800","SF/PF","53.26","238","33.5","108.38","25.04","34.00","50.53","20.34","38.02","0","0"
"Tim Frazier","Tim-Frazier-18743","4400","PG/SG","40.96","228.5","21.0","104.88","14.99","25.00","35.0","14.42","21.37","0","0"
"Mike Conley","Mike-Conley-1062","7700","PG","44.38","196.5","35.0","103.30","24.70","34.00","55.85","21.61","37.38","0","0"
"Monte Morris","Monte-Morris-37860","4600","PG","51.93","216.5","27.8","99.62","18.19","26.00","33.28","17.92","22.26","0","0"
"Hassan Whiteside","Hassan-Whiteside-18664","6600","C","51.13","207.5","24.2","106.90","24.69","26.00","40.19","15.12","31.9","0","0"
"Derrick Rose","Derrick-Rose-1086","6800","PG/SG","52.63","210.5","26.2","100.67","31.23","30.00","45.5","16.78","32.78","0","0"
"Danilo Gallinari","Danilo-Gallinari-1329","7300","SF/PF","53.26","238","31.7","108.38","23.86","33.00","48.85","19.6","35.12","0","0"
"Robin Lopez","Robin-Lopez-1466","3100","C","49.59","210.5","19.7","104.50","18.24","21.00","29.73","14.91","14.91","0","0"
"DeMar DeRozan","DeMar-DeRozan-1053","7900","SG/SF","44.05","216.5","32.2","99.70","27.86","35.00","52.12","17.77","37.96","0","0"
"Norman Powell","Norman-Powell-18908","3200","SG/SF","37.42","207.5","21.7","105.50","17.14","22.00","27.22","12.03","15.36","0","0"
"Torrey Craig","Torrey-Craig-37861","3500","SG/SF","37.55","216.5","30.0","99.62","12.51","26.00","23.62","10.26","16.79","0","0"
"Garrett Temple","Garrett-Temple-14077","4500","SG/SF","37.25","196.5","31.6","103.30","13.02","33.00","34.75","15.6","21.61","0","0"
"Collin Sexton","Collin-Sexton-408896","4700","PG","46.10","196.5","28.6","103.60","24.94","33.00","23.25","4.66","22.49","0","0"
"Jonathon Simmons","Jonathon-Simmons-31808","3500","SG/SF","48.46","210","19.2","105.10","18.05","21.00","25.26","13.69","16.72","0","0"
"Jrue Holiday","Jrue-Holiday-1073","8800","PG/SG","55.66","228.5","36.6","104.88","29.57","37.00","57.21","20.08","42.1","0","0"
"Jeremy Lin","Jeremy-Lin-916","3800","PG/SG","47.18","217.5","18.0","105.10","27.10","18.00","27.92","14.13","18.12","0","0"
"Michael Kidd-Gilchrist","Michael-Kidd-Gilchrist-13896","3700","SF/PF","32.21","220","16.8","103.00","21.09","20.00","28.77","14.88","17.61","0","0"
"Spencer Dinwiddie","Spencer-Dinwiddie-18588","7000","PG/SG","51.70","220","29.6","114.62","29.78","32.00","51.84","23.2","33.34","0","0"
"Justise Winslow","Justise-Winslow-18921","5500","PG/SF","36.53","207.5","24.6","106.90","21.33","29.00","40.3","14.8","26.1","0","0"
"Harrison Barnes","Harrison-Barnes-13901","6000","SF/PF","49.38","228.5","32.6","100.08","22.98","34.00","36.06","16.55","28.48","0","0"
"Kelly Oubre","Kelly-Oubre-18925","4600","SG/SF","35.01","210","30.6","108.80","18.66","25.00","37.88","17.86","21.83","0","0"
"Richaun Holmes","Richaun-Holmes-18905","3700","PF/C","52.82","210","19.2","108.80","15.14","16.00","29.99","12.29","17.56","0","0"
"Patrick Beverley","Patrick-Beverley-14108","4000","PG/SG","45.22","238","25.0","108.38","14.19","22.00","30.52","10.4","18.91","0","0"
"Delon Wright","Delon-Wright-18907","4000","PG/SG","40.49","207.5","24.2","105.50","16.58","24.00","31.23","15.56","18.86","0","0"
"Lauri Markkanen","Lauri-Markkanen-37809","7700","PF","54.52","210.5","31.8","104.50","22.50","34.00","52.18","22.03","36.36","0","0"
"Marvin Williams","Marvin-Williams-1318","5100","SF/PF","48.53","220","29.8","103.00","14.66","30.00","40.72","20.42","24.05","0","0"
"E'Twaun Moore","E'Twaun-Moore-18582","4300","SG/SF","33.80","228.5","29.8","104.88","16.68","29.00","32.7","16.63","20.25","0","0"
"Kosta Koufos","Kosta-Koufos-1386","3200","PF/C","58.17","238","14.7","98.20","14.78","15.00","28.77","15.01","15.01","0","0"
"Luka Doncic","Luka-Doncic-408971","8300","SG/SF","50.18","228.5","32.7","100.08","31.36","33.00","44.03","11.88","38.83","0","0"
"Jahlil Okafor","Jahlil-Okafor-18902","3300","C","48.80","228.5","14.3","104.88","23.53","16.00","26.82","13.06","15.46","0","0"
"Kelly Olynyk","Kelly-Olynyk-16845","4400","PF/C","54.38","207.5","24.5","106.90","18.86","22.00","30.55","17.22","20.52","0","0"
"Rondae Hollis-Jefferson","Rondae-Hollis-Jefferson-18897","4900","PF/C","50.69","220","25.1","114.62","22.50","22.00","34.96","14.78","22.85","0","0"
"Jaron Blossomgame","Jaron-Blossomgame-570197","3500","SF/PF","37.30","196.5","18.1","103.60","10.07","26.00","16.84","3.37","16.29","0","0"
"Jerian Grant","Jerian-Grant-18900","3300","PG","44.40","210","18.0","105.10","14.39","18.00","25.83","13.41","15.31","0","0"
"Tyreke Evans","Tyreke-Evans-1070","3600","SG/SF","51.38","217.5","14.8","107.67","28.37","14.00","22.63","9.74","16.7","0","0"
"Justin Jackson","Justin-Jackson-37895","3300","SF/PF","32.98","238","22.1","98.20","13.84","23.00","22.62","12.04","14.94","0","0"
"Cory Joseph","Cory-Joseph-13339","3700","PG","41.43","217.5","23.9","107.67","16.56","22.00","29.19","12.6","16.64","0","0"
"Dorian Finney-Smith","Dorian-Finney-Smith-36032","3500","SF/PF","43.04","228.5","21.0","100.08","12.53","22.00","24.52","12.81","15.64","0","0"
"Josh Okogie","Josh-Okogie-409174","4500","SG/SF","43.52","210.5","19.7","100.67","15.67","26.00","20.34","3.72","20.12","0","0"
"Marco Belinelli","Marco-Belinelli-1033","3400","SG/SF","32.24","216.5","21.7","99.70","18.55","20.00","22.03","11.52","15.08","0","0"
"Gorgui Dieng","Gorgui-Dieng-16939","3500","PF/C","55.68","210.5","15.2","100.67","20.15","14.00","23.67","11.26","15.49","0","0"
"Rodney McGruder","Rodney-McGruder-16850","3500","SG/SF","37.33","207.5","24.6","106.90","13.93","22.00","24.07","9.66","15.48","0","0"
"Ante Zizic","Ante-Zizic-35180","3300","C","48.89","196.5","14.8","103.60","17.15","16.00","28.47","14.24","14.24","0","0"
"DeAndre Bembry","DeAndre-Bembry-35198","3700","SG/SF","35.35","217.5","20.8","105.10","16.80","20.00","23.89","12.67","16","0","0"
"Robert Covington","Robert-Covington-16874","6600","SF/PF","39.42","210.5","31.0","100.67","16.94","34.00","41.25","18.15","28.27","0","0"
"Malik Beasley","Malik-Beasley-35213","3600","PG/SG","37.55","216.5","21.0","99.62","18.40","23.00","26.9","15.33","15.33","0","0"
"Jared Dudley","Jared-Dudley-1319","3400","SF/PF","39.49","220","21.7","114.62","13.97","22.00","25.84","12.64","14.46","0","0"
"Stanley Johnson","Stanley-Johnson-18913","3500","SF/PF","36.39","220.5","18.2","100.30","21.64","19.00","24.46","11.17","14.77","0","0"
"Luke Kennard","Luke-Kennard-37814","3200","SG/SF","41.50","220.5","19.0","100.30","13.44","16.00","20.55","9.96","13.46","0","0"
"Deandre Ayton","Deandre-Ayton-409301","7800","C","52.82","210","30.3","108.80","24.22","32.00","33.82","6.77","32.71","0","0"
"Matthew Dellavedova","Matthew-Dellavedova-16839","3800","PG/SG","41.14","196.5","19.8","103.60","21.40","20.00","26.85","14.71","15.83","0","0"
"Lou Williams","Lou-Williams-1044","6600","PG/SG","47.22","238","21.3","108.38","38.35","25.00","41.13","17.02","27.49","0","0"
"John Collins","John-Collins-37823","7600","PF/C","48.37","217.5","30.8","105.10","28.93","34.00","48.07","19.09","31.4","0","0"
"Dillon Brooks","Dillon-Brooks-37852","3000","SG/SF","52.51","196.5","12.0","103.30","25.53","16.00","22.17","11.53","12.09","0","0"
"Malik Monk","Malik-Monk-37827","3200","PG/SG","50.18","220","15.8","103.00","31.64","15.00","19.76","10.54","12.79","0","0"
"Ryan Arcidiacono","Ryan-Arcidiacono-36050","4100","PG","36.28","210.5","28.7","104.50","10.82","20.00","29.55","14.11","16.28","0","0"
"Vince Carter","Vince-Carter-1066","3300","SG","35.29","217.5","18.2","105.10","17.97","17.00","21.65","11.5","13.1","0","0"
"Devin Harris","Devin-Harris-1076","3300","PG/SG","50.75","228.5","16.1","100.08","20.58","15.00","23.41","13.07","13.07","0","0"
"Joakim Noah","Joakim-Noah-1404","3000","C","48.19","196.5","11.5","103.30","15.90","13.00","20.09","10.72","11.79","0","0"
"Jose Calderon","Jose-Calderon-1071","3100","PG","47.50","220.5","20.7","100.30","14.87","19.00","21.8","10.25","12.17","0","0"
"Marcin Gortat","Marcin-Gortat-1479","3400","C","54.78","238","15.8","108.38","14.43","16.00","19.12","7.95","13.34","0","0"
"Doug McDermott","Doug-McDermott-18583","3100","SF/PF","42.21","217.5","19.3","107.67","12.50","19.00","24.29","12.15","12.15","0","0"
"Bam Adebayo","Bam-Adebayo-37835","4400","PF/C","51.13","207.5","23.0","106.90","13.37","19.00","24.95","14.97","16.94","0","0"
"Jalen Jones","Jalen-Jones-35996","3000","SF/PF","37.30","196.5","3.0","103.60","25.87","15.00","20.69","10.02","11.43","0","0"
"Tony Parker","Tony-Parker-982","3600","PG","38.28","220","17.0","103.00","24.69","16.00","22.83","13.59","13.59","0","0"
"Myles Turner","Myles-Turner-18915","8000","C","58.59","217.5","29.1","107.67","22.18","32.00","49.36","22.55","30.15","0","0"
"Mike Scott","Mike-Scott-13999","3300","SF/PF","53.26","238","15.8","108.38","17.15","14.00","24.69","14.61","12.35","0","0"
"Mohamed Bamba","Mohamed-Bamba-409026","3900","C","59.87","210","16.2","105.10","21.29","16.00","15.0","2.85","14.55","0","0"
"Zaza Pachulia","Zaza-Pachulia-1455","3300","C","55.56","220.5","10.8","100.30","14.22","12.00","20.58","10.64","12.15","0","0"
"Thomas Bryant ","Thomas-Bryant--37884","4000","PF/C","54.15","220.5","21.6","103.80","15.26","20.00","24.68","11.45","14.61","0","0"
"Bruce Brown","Bruce-Brown-408913","3500","PG/SG","41.50","220.5","16.2","100.30","14.65","20.00","12.9","2.45","12.51","0","0"
"Omari Spellman","Omari-Spellman-408970","3000","PF/C","47.48","217.5","0","105.10","0","15.00","13.38","9.26","10.29","0","0"
"Sam Dekker","Sam-Dekker-18929","3500","SF/PF","34.63","220.5","15.0","103.80","19.63","14.00","20.01","9.98","11.88","0","0"
"Tyler Johnson","Tyler-Johnson-18720","5600","PG/SG","46.83","207.5","25.7","106.90","22.13","24.00","29.49","13.21","18.77","0","0"
"Dirk Nowitzki","Dirk-Nowitzki-1346","3200","PF/C","54.80","228.5","7.6","100.08","17.06","12.00","15.43","8.82","10.6","0","0"
"OG Anunoby","OG-Anunoby-37807","3600","SF/PF","36.72","207.5","21.7","105.50","16.30","17.00","21.8","11.53","11.53","0","0"
"Tyus Jones","Tyus-Jones-18938","4700","PG","41.75","210.5","20.7","100.67","13.76","16.00","25.31","13.51","14.03","0","0"
"Solomon Hill","Solomon-Hill-16863","3500","SF/PF","38.23","228.5","23.2","104.88","11.32","15.00","18.85","10.08","10.08","0","0"
"Nick Young","Nick-Young-1063","3000","SG/SF","33.68","216.5","8.8","99.62","13.33","11.00","14.73","8.54","8.54","0","0"
"Chasson Randle","Chasson-Randle-36002","3200","PG/SG","55.22","220.5","14.8","103.80","20.65","12.00","14.88","7.4","9.05","0","0"
"Jalen Brunson","Jalen-Brunson-409062","3600","PG","50.00","228.5","24.6","100.08","18.60","16.00","10.23","1.82","10.08","0","0"
"Frank Jackson","Frank-Jackson-37855","3000","PG/SG","55.66","228.5","12.6","104.88","13.39","12.00","8.91","2.05","8.41","0","0"
"Greg Monroe","Greg-Monroe-1487","4500","C","50.08","207.5","14.5","105.50","20.36","11.00","16.85","7.52","12.15","0","0"
"Yogi Ferrell","Yogi-Ferrell-35999","3200","PG/SG","54.02","238","14.0","98.20","25.30","10.00","13.48","6.79","7.99","0","0"
"Ron Baker","Ron-Baker-36001","3000","PG/SG","43.25","220.5","15.0","103.80","4.44","8.00","14.77","7.48","7.48","0","0"
"Alex Poythress","Alex-Poythress-36018","3000","SF/PF","47.48","217.5","3.0","105.10","13.33","8.00","12.34","6.24","6.99","0","0"
"Derrick Jones","Derrick-Jones-36064","4600","SF/PF","37.33","207.5","21.0","106.90","16.54","12.00","17.03","9.13","9.13","0","0"
"Harry Giles","Harry-Giles-37897","3000","PF/C","54.10","238","15.5","98.20","25.77","6.00","4.87","0.89","4.82","0","0"
"Boban Marjanovic","Boban-Marjanovic-31807","3800","C","54.78","238","7.0","108.38","25.67","4.00","10.39","5.41","5.41","0","0"
"Wayne Selden","Wayne-Selden-36045","3200","SG/SF","56.20","196.5","11.3","103.30","18.99","6.00","8.11","4.46","4.46","0","0"
"Tyrone Wallace","Tyrone-Wallace-35220","3300","PG/SG","47.22","238","13.4","108.38","20.29","6.00","6.79","4.21","4.21","0","0"
"Justin Anderson","Justin-Anderson-18927","3100","SF/PF","35.35","217.5","6.0","105.10","12.27","4.00","5.99","2.85","3.92","0","0"
"Jarell Martin","Jarell-Martin-18931","3000","PF/C","50.03","210","4.0","105.10","13.03","4.00","5.64","3.02","3.66","0","0"
"C.J. Miles","C.J.-Miles-1299","3400","SG/SF","36.72","207.5","17.0","105.50","17.47","4.00","5.81","2.85","3.52","0","0"
"Dante Cunningham","Dante-Cunningham-1259","3200","SF/PF","48.80","216.5","10.0","99.70","8.17","3.00","4.26","1.81","2.26","0","0"
