"nameCol","idCol","salaryCol","positionCol","dvpCol","ouCol","mpgCol","paceCol","usgCol","pminCol","ceilCol","floorCol","pointsCol","predictCol","actualCol"
"Trae Young","Trae-Young-409063","6200","PG","47.80","234.5","30.1","105.10","28.42","34.00","50.95","7.35","36.39","0","0"
"DeAndre Bembry","DeAndre-Bembry-35198","4500","SG/SF","40.09","234.5","30.0","105.10","20.32","31.00","40.03","15.16","25.79","0","0"
"Lauri Markkanen","Lauri-Markkanen-37809","6100","PF","43.77","215.5","32.2","104.50","20.07","34.00","56.68","24.3","34.37","0","0"
"Kevin Huerter","Kevin-Huerter-408969","4800","SG/SF","41.76","234.5","37.5","105.10","19.22","36.00","37.37","5.39","26.69","0","0"
"Draymond Green","Draymond-Green-13976","6300","PF/C","52.81","228","30.4","103.10","13.59","34.00","51.95","19.8","34.98","0","0"
"Russell Westbrook","Russell-Westbrook-1083","11600","PG","56.86","234.5","38.0","102.62","36.56","35.00","89.01","29.76","63.58","0","0"
"Paul George","Paul-George-1245","9200","SF/PF","53.11","234.5","37.0","102.62","31.13","35.00","75.8","27.06","50.2","0","0"
"John Collins","John-Collins-37823","7500","PF/C","49.77","234.5","30.3","105.10","23.68","33.00","69.02","25.88","40.89","0","0"
"Bobby Portis","Bobby-Portis-18909","4500","PF/C","57.37","215.5","17.7","104.50","30.65","22.00","48.96","22.26","24.49","0","0"
"Nikola Jokic","Nikola-Jokic-31812","10300","C","48.73","228","32.8","99.62","34.67","34.00","78.48","23.21","56.06","0","0"
"Cory Joseph","Cory-Joseph-13339","3300","PG","45.37","219","24.8","107.67","14.56","24.00","31.24","13.79","17.89","0","0"
"Brook Lopez","Brook-Lopez-1498","4700","C","54.05","218","27.9","98.80","14.53","29.00","42.66","16.4","25.38","0","0"
"Paul Millsap","Paul-Millsap-1335","6000","PF/C","47.95","228","25.4","99.62","20.96","30.00","51.49","20.44","32.34","0","0"
"Deandre Ayton","Deandre-Ayton-409301","7100","C","50.76","219","28.2","108.80","20.75","31.00","53.3","12.49","38.07","0","0"
"Joel Embiid","Joel-Embiid-18578","10500","C","53.53","232.5","32.2","108.33","35.82","35.00","80.37","21.37","55.66","0","0"
"Omari Spellman","Omari-Spellman-408970","3800","PF/C","47.36","234.5","11.0","105.10","18.44","26.00","28.2","4.07","20.14","0","0"
"TJ Warren","TJ-Warren-18634","6200","SF/PF","46.64","219","32.3","108.80","22.15","34.00","54.75","19.78","32.59","0","0"
"Steven Adams","Steven-Adams-16848","7000","C","55.45","234.5","34.7","102.62","14.61","34.00","57.16","21.38","36.55","0","0"
"Karl-Anthony Towns","Karl-Anthony-Towns-18937","10200","C","54.10","232.5","32.3","100.67","30.96","35.00","77.86","27.04","53.22","0","0"
"Khris Middleton","Khris-Middleton-13990","6800","SG/SF","45.05","218","30.3","98.80","25.35","34.00","51.42","22.87","35.41","0","0"
"Lonzo Ball","Lonzo-Ball-37885","6700","PG","40.66","215.5","33.1","112.50","17.92","36.00","51.32","18.66","34.82","0","0"
"Klay Thompson","Klay-Thompson-13315","6600","SG","37.13","228","34.6","103.10","25.50","35.00","53.95","20.0","34.19","0","0"
"Brandon Ingram","Brandon-Ingram-35227","6600","PG/SG","44.50","215.5","34.3","112.50","26.65","37.00","49.86","19.01","34.13","0","0"
"Dennis Schroder","Dennis-Schroder-18595","5400","PG/SG","56.86","234.5","26.8","102.62","24.26","28.00","46.34","21.56","27.85","0","0"
"Kevin Durant","Kevin-Durant-1348","9700","SF/PF","47.75","228","35.2","103.10","28.25","35.00","74","24.05","50","0","0"
"Victor Oladipo","Victor-Oladipo-16807","7800","PG/SG","53.53","219","31.6","107.67","27.53","34.00","64.38","30.07","39.99","0","0"
"Zach LaVine","Zach-LaVine-18622","6800","PG/SG","52.64","215.5","30.8","104.50","29.68","33.00","50.97","18.47","34.72","0","0"
"JaVale McGee","JaVale-McGee-1485","5300","C","56.28","215.5","20.6","112.50","19.86","24.00","41.55","14.73","26.98","0","0"
"Jonas Jerebko","Jonas-Jerebko-1106","3400","PF/C","47.75","228","14.6","103.10","15.32","19.00","34.25","17.27","17.27","0","0"
"Kyle Kuzma","Kyle-Kuzma-37886","7300","SF/PF","47.84","215.5","30.8","112.50","29.98","37.00","53.13","18.7","37.1","0","0"
"Jeff Teague","Jeff-Teague-1005","6100","PG","51.65","232.5","26.4","100.67","23.72","30.00","48.31","16.55","30.93","0","0"
"Jamal Murray","Jamal-Murray-35211","7200","PG/SG","50.49","228","32.2","99.62","27.51","34.00","54.08","23.5","36.37","0","0"
"Wendell Carter","Wendell-Carter-408878","5300","PF/C","57.37","215.5","25.2","104.50","14.63","28.00","37.42","5.11","26.73","0","0"
"Dwyane Wade","Dwyane-Wade-967","4900","PG/SG","48.02","218","24.2","106.90","24.19","24.00","38.99","17.07","24.63","0","0"
"Devin Booker","Devin-Booker-18949","8400","PG/SG","47.40","219","28.0","108.80","32.99","34.00","70.32","25.63","42.16","0","0"
"Eric Bledsoe","Eric-Bledsoe-1031","6400","PG/SG","49.51","218","27.4","98.80","27.22","30.00","60.51","19.74","32.1","0","0"
"Josh Hart","Josh-Hart-37889","5200","PG/SG","35.57","215.5","32.1","112.50","16.79","32.00","40.04","14.74","25.95","0","0"
"Kris Dunn","Kris-Dunn-35215","6900","PG/SG","52.64","215.5","30.5","104.50","22.37","33.00","53.4","16.38","34.19","0","0"
"Hassan Whiteside","Hassan-Whiteside-18664","6600","C","48.11","218","23.2","106.90","19.29","26.00","46.36","17.56","32.76","0","0"
"Josh Richardson","Josh-Richardson-18922","6300","SG/SF","48.02","218","33.0","106.90","20.93","34.00","48.86","19.57","31.22","0","0"
"Tyreke Evans","Tyreke-Evans-1070","3800","SG/SF","49.09","219","17.2","107.67","32.79","18.00","29.72","10.93","18.81","0","0"
"J.J. Redick","J.J.-Redick-1030","5600","SG/SF","39.13","232.5","34.4","108.33","22.29","32.00","44.64","17.17","27.69","0","0"
"Alex Len","Alex-Len-16886","4100","C","49.77","234.5","19.7","105.10","23.67","22.00","33.59","12.79","20.14","0","0"
"Darren Collison","Darren-Collison-1060","5000","PG","45.37","219","24.2","107.67","16.05","27.00","38.78","14.19","24.5","0","0"
"Wayne Selden","Wayne-Selden-36045","3300","SG/SF","52.64","215.5","11.8","104.50","15.72","20.00","29.95","12.9","16.17","0","0"
"Giannis Antetokounmpo","Giannis-Antetokounmpo-16852","11200","SF/PF","48.37","218","30.8","98.80","34.90","34.00","76.75","21.98","54.82","0","0"
"Chandler Hutchison","Chandler-Hutchison-408877","3600","SF/PF","38.77","215.5","25.5","104.50","13.18","28.00","24.58","3.35","17.56","0","0"
"Justise Winslow","Justise-Winslow-18921","6500","PG/SF","39.13","218","29.2","106.90","23.04","32.00","48.71","18.09","31.63","0","0"
"Stephen Curry","Stephen-Curry-1079","9900","PG/SG","49.44","228","34.4","103.10","35.75","35.00","79.26","31.02","48.24","0","0"
"Jimmy Butler","Jimmy-Butler-13327","7600","SG/SF","48.30","232.5","31.8","108.33","26.92","35.00","53.36","18.39","36.57","0","0"
"Jerami Grant","Jerami-Grant-18576","5100","PF","53.11","234.5","33.3","102.62","15.00","33.00","48.13","21.56","24.42","0","0"
"Taj Gibson","Taj-Gibson-1277","4400","PF/C","52.71","232.5","25.5","100.67","16.43","26.00","34.08","12.92","20.97","0","0"
"Wilson Chandler","Wilson-Chandler-1327","3600","SF/PF","38.99","232.5","25.4","108.33","11.04","26.00","27.5","10.48","17.1","0","0"
"Domantas Sabonis","Domantas-Sabonis-35217","7900","PF/C","59.02","219","30.4","107.67","22.38","28.00","70.11","32.01","37.53","0","0"
"George Hill","George-Hill-993","3500","PG/SG","40.25","218","21.1","98.80","13.66","22.00","30.45","13.37","16.63","0","0"
"Thaddeus Young","Thaddeus-Young-1289","5800","SF/PF","47.82","219","32.8","107.67","17.17","33.00","44.6","16.17","27.46","0","0"
"Malcolm Brogdon","Malcolm-Brogdon-35195","5700","PG/SG","49.51","218","28.6","98.80","21.66","30.00","45.22","19.4","26.68","0","0"
"Bojan Bogdanovic","Bojan-Bogdanovic-18571","5500","SG/SF","36.10","219","31.2","107.67","20.88","34.00","41.15","17.6","25.51","0","0"
"Kelly Olynyk","Kelly-Olynyk-16845","3800","PF/C","57.92","218","19.0","106.90","16.63","18.00","26.23","10.01","17.59","0","0"
"Gary Harris","Gary-Harris-18617","5400","SG","43.77","228","25.5","99.62","20.44","28.00","35.94","15.69","24.87","0","0"
"De'Anthony Melton","De'Anthony-Melton-409081","4600","PG","47.40","219","25.2","108.80","17.33","25.00","29.67","6.95","21.19","0","0"
"Ersan Ilyasova","Ersan-Ilyasova-1301","3400","PF/C","48.37","218","16.8","98.80","18.48","18.00","28.26","13.4","15.62","0","0"
"Richaun Holmes","Richaun-Holmes-18905","4000","PF/C","50.76","219","18.8","108.80","19.53","17.00","36.64","15.27","18.33","0","0"
"Derrick Rose","Derrick-Rose-1086","5900","PG/SG","51.65","232.5","27.0","100.67","30.41","28.00","50.57","24.77","26.87","0","0"
"T.J. McConnell","T.J.-McConnell-18956","3700","PG/SG","36.18","232.5","26.4","108.33","15.82","22.00","30.56","14.03","16.8","0","0"
"Kentavious Caldwell-Pope","Kentavious-Caldwell-Pope-16869","4500","SG/SF","35.57","215.5","27.3","112.50","19.70","26.00","38.57","15.9","20.41","0","0"
"Andre Iguodala","Andre-Iguodala-1334","3900","SG/SF","37.13","228","25.8","103.10","11.18","24.00","28.35","9.66","17.72","0","0"
"Ben Simmons","Ben-Simmons-35184","9400","PG/SF","36.18","232.5","35.4","108.33","26.90","35.00","61.13","17.37","42.57","0","0"
"Andrew Wiggins","Andrew-Wiggins-18620","6500","SG/SF","49.15","232.5","37.5","100.67","28.60","35.00","43.53","18.33","29.43","0","0"
"Jonah Bolden","Jonah-Bolden-554969","3300","PF","51.42","232.5","17.0","108.33","13.39","14.00","20.57","3.8","14.69","0","0"
"Lance Stephenson","Lance-Stephenson-947","3500","SG/SF","44.50","215.5","18.6","112.50","17.22","15.00","27.47","13.07","15.39","0","0"
"Mikal Bridges","Mikal-Bridges-408842","3800","SG/SF","36.24","219","25.8","108.80","10.11","27.00","23.11","5.42","16.51","0","0"
"Myles Turner","Myles-Turner-18915","6500","C","55.38","219","25.0","107.67","9.23","26.00","51.22","23.82","28.19","0","0"
"Kevon Looney","Kevon-Looney-18945","4100","PF/C","52.67","228","21.6","103.10","12.12","24.00","29.41","11.04","17.63","0","0"
"Josh Okogie","Josh-Okogie-409174","4500","SG/SF","49.15","232.5","31.7","100.67","15.04","26.00","26.92","6.31","19.23","0","0"
"Michael Beasley","Michael-Beasley-1338","3900","SF/PF","47.84","215.5","13.7","112.50","34.42","15.00","29.31","13.75","16.21","0","0"
"Bam Adebayo","Bam-Adebayo-37835","5200","PF/C","48.11","218","25.8","106.90","15.76","22.00","35.45","17.26","21.55","0","0"
"Gorgui Dieng","Gorgui-Dieng-16939","3100","PF/C","52.71","232.5","14.3","100.67","10.11","13.00","22.38","10.3","12.84","0","0"
"Josh Jackson","Josh-Jackson-37890","5700","SF/PF","46.64","219","27.7","108.80","24.84","26.00","45.59","18.4","23.44","0","0"
"Malik Beasley","Malik-Beasley-35213","4800","PG/SG","36.00","228","30.8","99.62","15.20","26.00","39.24","18.75","19.63","0","0"
"Dario Saric","Dario-Saric-36004","4600","PF","48.05","232.5","20.8","100.67","18.22","21.00","31.94","14.88","18.79","0","0"
"Terrance Ferguson","Terrance-Ferguson-37871","3500","SG/SF","40.79","234.5","28.7","102.62","9.66","28.00","28.05","11.21","14.03","0","0"
"Taurean Prince","Taurean-Prince-35218","5100","SF","40.09","234.5","11.0","105.10","25.45","20.00","35.37","15.73","20.27","0","0"
"Will Barton","Will-Barton-13982","5000","SG/SF","43.77","228","14.5","99.62","28.62","20.00","29.89","10.38","19.73","0","0"
"Kelly Oubre","Kelly-Oubre-18925","5200","SG/SF","36.24","219","25.7","108.80","23.35","24.00","35.92","15.02","20.08","0","0"
"James Johnson","James-Johnson-1195","3900","PF/C","45.83","218","18.2","106.90","22.85","18.00","22.36","8.37","15.05","0","0"
"Landry Shamet","Landry-Shamet-408841","3100","PG/SG","39.13","232.5","18.3","108.33","16.20","16.00","16.25","3.01","11.61","0","0"
"Justin Anderson","Justin-Anderson-18927","3100","SF/PF","40.09","234.5","8.0","105.10","18.41","11.00","20.16","8.67","11.6","0","0"
"Ryan Arcidiacono","Ryan-Arcidiacono-36050","3100","PG","35.48","215.5","17.7","104.50","11.62","17.00","21.2","9.87","11.58","0","0"
"Ivica Zubac","Ivica-Zubac-35226","3400","C","56.28","215.5","12.7","112.50","23.48","14.00","23.39","10.13","12.51","0","0"
"Shaquille Harrison","Shaquille-Harrison-36065","3400","PG/SF","35.48","215.5","19.0","104.50","18.69","15.00","22.65","9.96","12.31","0","0"
"Tyler Johnson","Tyler-Johnson-18720","4000","PG/SG","48.06","218","21.2","106.90","21.64","18.00","27.7","11.52","14.49","0","0"
"Shaun Livingston","Shaun-Livingston-14007","3100","PG","38.64","228","10.5","103.10","10.13","15.00","21.03","8.79","11.14","0","0"
"Mason Plumlee","Mason-Plumlee-16798","4400","PF/C","54.22","228","19.0","99.62","16.92","16.00","27.62","11.83","15.55","0","0"
"D.J. Wilson","D.J.-Wilson-37822","3600","PF/C","48.37","218","16.6","98.80","10.64","14.00","25.19","12.6","12.6","0","0"
"Vince Carter","Vince-Carter-1066","3200","SF/PF","41.76","234.5","13.1","105.10","17.38","15.00","22.41","10.76","11.21","0","0"
"Hamidou Diallo","Hamidou-Diallo-408800","3000","SG/SF","40.79","234.5","9.2","102.62","11.54","14.00","14.7","2.12","10.5","0","0"
"Monte Morris","Monte-Morris-37860","3900","PG","50.49","228","21.8","99.62","19.34","16.00","19.07","3.53","13.62","0","0"
"Torrey Craig","Torrey-Craig-37861","4200","SG/SF","36.00","228","27.6","99.62","12.39","23.00","28.29","11.83","14.6","0","0"
"Dion Waiters","Dion-Waiters-13897","3700","SG/SF","48.02","218","15.8","106.90","25.43","15.00","23.32","10.37","12.53","0","0"
"Rodney McGruder","Rodney-McGruder-16850","3200","SG/SF","35.57","218","17.3","106.90","14.98","15.00","18.21","6.59","10.86","0","0"
"Patrick Patterson","Patrick-Patterson-1260","3500","PF/C","57.43","234.5","14.5","102.62","13.17","16.00","21.16","9.91","11.62","0","0"
"Tyler Dorsey","Tyler-Dorsey-37825","3100","PG/SG","41.76","234.5","9.8","105.10","15.95","12.00","17.05","8.11","10.2","0","0"
"Elie Okobo","Elie-Okobo-409300","3300","PG","36.38","219","16.6","108.80","19.67","14.00","15.11","2.18","10.79","0","0"
"Derrick Jones","Derrick-Jones-36064","4300","SF/PF","35.57","218","24.8","106.90","16.11","18.00","27.16","11.08","13.94","0","0"
"Doug McDermott","Doug-McDermott-18583","3100","SF/PF","36.10","219","16.2","107.67","13.26","16.00","18.33","8.47","9.9","0","0"
"Tyus Jones","Tyus-Jones-18938","4200","PG","39.91","232.5","24.5","100.67","18.67","15.00","23.43","11.32","13.12","0","0"
"Sterling Brown","Sterling-Brown-37821","3300","SG/SF","37.08","218","17.3","98.80","15.71","14.00","20.45","10.23","10.23","0","0"
"Furkan Korkmaz","Furkan-Korkmaz-35185","3500","SG/SF","39.13","232.5","18.4","108.33","19.09","13.00","21.59","8.24","10.8","0","0"
"Juan Hernangomez","Juan-Hernangomez-35212","3400","SF/PF","47.95","228","16.0","99.62","9.22","13.00","18.0","8.13","9.61","0","0"
"Mike Muscala","Mike-Muscala-17379","3500","PF/C","53.53","232.5","17.6","108.33","16.03","12.00","17.47","8.04","9.57","0","0"
"Abdel Nader","Abdel-Nader-35179","3300","SF","43.47","234.5","13.0","102.62","16.34","14.00","17.93","8.97","8.97","0","0"
"Tony Snell","Tony-Snell-16872","3000","SG/SF","37.65","218","16.1","98.80","14.31","15.00","16.25","8.13","8.13","0","0"
"Robin Lopez","Robin-Lopez-1466","3100","C","57.07","215.5","11.2","104.50","13.73","10.00","15.91","7.16","7.96","0","0"
"Anthony Tolliver","Anthony-Tolliver-1263","3400","SF/PF","48.05","232.5","19.2","100.67","12.09","11.00","15.12","6.87","8.5","0","0"
"Troy Daniels","Troy-Daniels-17383","3000","SG","36.23","219","14.0","108.80","16.26","8.00","14.51","7.26","7.26","0","0"
"Alfonzo McKinnie","Alfonzo-McKinnie-37808","3300","SF/PF","32.88","228","12.8","103.10","14.29","12.00","14.51","7.26","7.26","0","0"
"Jordan Bell","Jordan-Bell-37877","3200","PF/C","52.67","228","8.0","103.10","18.09","7.00","12.08","5.5","6.1","0","0"
"Sviatoslav Mykhailiuk","Sviatoslav-Mykhailiuk-409280","3000","SG/SF","39.31","215.5","7.0","112.50","18.39","4.00","4.34","0.49","3.1","0","0"
"Tyson Chandler","Tyson-Chandler-1482","3100","C","56.28","215.5","12.8","112.50","8.86","4.00","6.01","3.11","3.11","0","0"
"Timothe Luwawu-Cabarrot","Timothe-Luwawu-Cabarrot-35183","3000","SG/SF","43.47","234.5","1.0","102.62","20.00","3.00","4.14","2.07","2.07","0","0"
