"nameCol","idCol","salaryCol","positionCol","dvpCol","ouCol","mpgCol","paceCol","usgCol","pminCol","ceilCol","floorCol","pointsCol","predictCol","actualCol"
"Bismack Biyombo","Bismack-Biyombo-13312","3400","C","59.50","224.5","16.7","103.00","17.93","24.00","35.99","17.11","24.72","0","0"
"Tyreke Evans","Tyreke-Evans-1070","3700","SG/SF","49.27","212","18.2","107.67","27.53","20.00","30.15","12.97","22.25","0","0"
"Kelly Oubre","Kelly-Oubre-18925","3800","SG/SF","38.82","224.5","21.7","108.80","19.19","25.00","39.09","18.59","22.7","0","0"
"De'Anthony Melton","De'Anthony-Melton-409081","3700","PG","52.05","224.5","23.0","108.80","14.53","23.00","24.2","8.92","21.92","0","0"
"James Johnson","James-Johnson-1195","4400","SF/PF","53.32","218.5","20.8","106.90","15.58","25.00","33.67","13.58","25.72","0","0"
"Jerami Grant","Jerami-Grant-18576","4600","PF","49.23","227","31.9","102.62","14.30","32.00","42.93","18.49","26.8","0","0"
"Josh Jackson","Josh-Jackson-37890","4100","SF/PF","49.42","224.5","21.6","108.80","21.43","22.00","33.34","14.87","23.75","0","0"
"Kevin Huerter","Kevin-Huerter-408969","4300","SG/SF","37.06","218.5","33.6","105.10","17.27","34.00","26.87","9.91","24.34","0","0"
"Danny Green","Danny-Green-940","4200","SG/SF","34.73","212","29.2","105.50","12.11","29.00","33.84","16.37","23.65","0","0"
"Delon Wright","Delon-Wright-18907","3600","PG/SG","35.59","212","19.2","105.50","18.72","24.00","34.17","17.1","20.02","0","0"
"Russell Westbrook","Russell-Westbrook-1083","11100","PG","55.92","227","36.3","102.62","37.03","35.00","67.98","20.46","60.7","0","0"
"Dennis Schroder","Dennis-Schroder-18595","5300","PG/SG","55.92","227","30.6","102.62","24.54","26.00","44.33","23.73","29.01","0","0"
"Mikal Bridges","Mikal-Bridges-408842","4200","SG/SF","38.82","224.5","32.4","108.80","11.93","32.00","24.93","9.19","22.58","0","0"
"Devin Booker","Devin-Booker-18949","8900","PG/SG","52.05","224.5","34.4","108.80","34.14","36.00","70.72","25.78","47.56","0","0"
"Jeremy Lin","Jeremy-Lin-916","3900","PG/SG","50.29","218.5","19.1","105.10","22.49","20.00","32.13","15.57","20.81","0","0"
"Jeff Green","Jeff-Green-1314","4900","SF/PF","46.85","227","29.2","103.80","18.38","33.00","38.8","19.44","26.09","0","0"
"Hassan Whiteside","Hassan-Whiteside-18664","7700","C","55.95","218.5","25.5","106.90","21.30","27.00","52.33","19.75","40.72","0","0"
"Dewayne Dedmon","Dewayne-Dedmon-16894","5200","PF/C","49.74","218.5","26.8","105.10","21.57","26.00","39.02","16.23","27.46","0","0"
"Dwyane Wade","Dwyane-Wade-967","4800","PG/SG","51.04","218.5","24.2","106.90","27.86","22.00","36.11","16.78","25.27","0","0"
"Serge Ibaka","Serge-Ibaka-1294","6200","PF/C","47.13","212","29.2","105.50","22.09","29.00","45.34","18.64","32.48","0","0"
"DeAndre Bembry","DeAndre-Bembry-35198","4600","SG/SF","37.61","218.5","26.0","105.10","16.83","30.00","36.02","18.97","23.98","0","0"
"John Collins","John-Collins-37823","7100","PF/C","49.74","218.5","30.2","105.10","22.46","32.00","56.33","22.94","36.65","0","0"
"OG Anunoby","OG-Anunoby-37807","3300","SF/PF","34.73","212","19.5","105.50","11.53","23.00","31.45","16.98","16.98","0","0"
"Michael Kidd-Gilchrist","Michael-Kidd-Gilchrist-13896","3400","SF/PF","34.67","224.5","17.1","103.00","15.35","19.00","29.14","14.81","17.48","0","0"
"Willy Hernangomez","Willy-Hernangomez-18901","4100","C","59.50","224.5","15.0","103.00","26.32","16.00","37.29","20.36","21.03","0","0"
"Trevor Ariza","Trevor-Ariza-1323","5900","SF/PF","39.33","227","37.5","103.80","19.27","36.00","39.93","14.83","30.27","0","0"
"Richaun Holmes","Richaun-Holmes-18905","3500","PF/C","52.72","224.5","15.0","108.80","18.61","16.00","30.63","12.59","17.89","0","0"
"Domantas Sabonis","Domantas-Sabonis-35217","6800","PF/C","50.97","212","27.2","107.67","24.82","27.00","51.84","26.26","34.65","0","0"
"Trae Young","Trae-Young-409063","6400","PG","50.29","218.5","29.6","105.10","27.02","30.00","35.9","13.24","32.52","0","0"
"Josh Richardson","Josh-Richardson-18922","7000","SG/SF","51.04","218.5","35.0","106.90","21.25","35.00","51.9","21.38","35.4","0","0"
"Kemba Walker","Kemba-Walker-13335","9200","PG","54.58","224.5","32.7","103.00","30.72","35.00","60.23","22.57","46.15","0","0"
"Bradley Beal","Bradley-Beal-13898","9000","SG","46.00","227","36.2","103.80","29.86","37.00","71.19","30.65","45.14","0","0"
"Alex Len","Alex-Len-16886","4900","C","49.74","218.5","25.8","105.10","29.76","24.00","35.14","17.35","24.57","0","0"
"Deandre Ayton","Deandre-Ayton-409301","7800","C","52.72","224.5","33.0","108.80","18.82","33.00","42.93","15.83","38.89","0","0"
"Otto Porter","Otto-Porter-17069","5200","SF/PF","39.33","227","17.0","103.80","29.92","24.00","39.86","21.57","25.83","0","0"
"Cory Joseph","Cory-Joseph-13339","3600","PG","40.93","212","26.6","107.67","13.04","26.00","31.27","13.5","17.83","0","0"
"Steven Adams","Steven-Adams-16848","7400","C","56.90","227","34.0","102.62","13.89","35.00","49.11","24.06","36.24","0","0"
"Tony Parker","Tony-Parker-982","3300","PG","45.40","224.5","14.8","103.00","23.49","17.00","27.34","15.98","15.98","0","0"
"Pascal Siakam","Pascal-Siakam-35186","6500","PF/C","54.31","212","31.8","105.50","20.86","32.00","46.08","17.94","31.37","0","0"
"Marvin Williams","Marvin-Williams-1318","5000","SF/PF","48.60","224.5","31.1","103.00","16.44","30.00","40.13","20.37","23.96","0","0"
"Victor Oladipo","Victor-Oladipo-16807","8500","PG/SG","46.96","212","33.0","107.67","27.29","33.00","56.2","24.69","40.61","0","0"
"Thomas Bryant ","Thomas-Bryant--37884","5800","PF/C","51.64","227","26.0","103.80","15.07","29.00","46.27","21.7","27.61","0","0"
"Tomas Satoransky ","Tomas-Satoransky--36031","5700","PG/SG","48.53","227","29.8","103.80","16.48","34.00","38.65","15.23","27.05","0","0"
"Kelly Olynyk","Kelly-Olynyk-16845","4000","PF/C","59.73","218.5","19.5","106.90","14.68","19.00","28.23","14.3","18.91","0","0"
"Thaddeus Young","Thaddeus-Young-1289","5600","SF/PF","46.78","212","32.2","107.67","16.13","31.00","37.57","13.8","26.13","0","0"
"Kyle Lowry","Kyle-Lowry-1057","7000","PG","48.25","212","30.0","105.50","29.72","30.00","61.77","28.48","32.7","0","0"
"Fred VanVleet","Fred-VanVleet-36011","5400","PG/SG","35.59","212","31.3","105.50","18.12","28.00","33.82","14.69","25.03","0","0"
"TJ Warren","TJ-Warren-18634","6300","SF/PF","49.42","224.5","31.3","108.80","22.55","30.00","38.36","16.77","29.17","0","0"
"Paul George","Paul-George-1245","10300","SF/PF","49.23","227","35.5","102.62","34.80","36.00","65.92","29.13","47.29","0","0"
"Justise Winslow","Justise-Winslow-18921","6900","PG/SF","43.93","218.5","30.5","106.90","24.59","31.00","47.43","18.0","30.72","0","0"
"Darren Collison","Darren-Collison-1060","5300","PG","40.93","212","25.2","107.67","17.07","27.00","32.19","14.24","23.46","0","0"
"Vince Carter","Vince-Carter-1066","3200","SF/PF","37.06","218.5","17.0","105.10","21.57","18.00","24.31","12.29","14.05","0","0"
"Daniel Hamilton","Daniel-Hamilton-35210","3400","SG/SF","37.06","218.5","15.0","105.10","16.57","19.00","16.43","6.06","14.88","0","0"
"Terrance Ferguson","Terrance-Ferguson-37871","3000","SG/SF","40.27","227","17.3","102.62","11.96","23.00","21.64","8.73","13.15","0","0"
"Miles Bridges","Miles-Bridges-409262","3400","SF/PF","48.60","224.5","16.5","103.00","14.17","16.00","15.69","3.62","14.82","0","0"
"Myles Turner","Myles-Turner-18915","6700","C","53.67","212","26.0","107.67","20.08","27.00","47.42","21.67","28.97","0","0"
"Rodney McGruder","Rodney-McGruder-16850","3500","SG/SF","41.87","218.5","20.8","106.90","18.02","20.00","23.68","10.14","15","0","0"
"Sam Dekker","Sam-Dekker-18929","3200","SF/PF","39.33","227","18.0","103.80","17.33","17.00","23.22","11.53","13.69","0","0"
"Norman Powell","Norman-Powell-18908","3700","SG/SF","35.61","212","20.0","105.50","19.40","21.00","30.84","15.83","15.83","0","0"
"Nicolas Batum","Nicolas-Batum-1315","4700","SG/SF","34.67","224.5","30.9","103.00","10.99","30.00","27.58","14.14","19.77","0","0"
"Bam Adebayo","Bam-Adebayo-37835","4300","PF/C","55.95","218.5","21.0","106.90","16.51","19.00","25.66","15.28","17.28","0","0"
"Greg Monroe","Greg-Monroe-1487","3600","C","50.06","212","13.2","105.50","18.30","13.00","19.64","8.44","14.42","0","0"
"Jeremy Lamb","Jeremy-Lamb-13955","6100","SG/SF","48.75","224.5","31.0","103.00","21.21","25.00","31.54","21.35","24.26","0","0"
"Malik Monk","Malik-Monk-37827","3600","PG/SG","54.58","224.5","17.0","103.00","24.62","16.00","21.94","11.8","14.3","0","0"
"Nerlens Noel","Nerlens-Noel-18575","3500","C","56.90","227","12.6","102.62","12.34","13.00","23.47","11.4","13.33","0","0"
"Bojan Bogdanovic","Bojan-Bogdanovic-18571","5500","SG/SF","36.08","212","31.4","107.67","21.06","30.00","32.54","16.53","20.79","0","0"
"Chasson Randle","Chasson-Randle-36002","3200","PG/SG","48.53","227","14.5","103.80","21.48","14.00","19.0","9.52","11.67","0","0"
"Doug McDermott","Doug-McDermott-18583","3000","SF/PF","36.08","212","17.2","107.67","14.36","19.00","21.53","10.77","10.77","0","0"
"Derrick Jones","Derrick-Jones-36064","4500","SF/PF","41.87","218.5","20.3","106.90","13.28","20.00","28.97","15.79","15.79","0","0"
"Tyler Johnson","Tyler-Johnson-18720","5100","PG/SG","56.54","218.5","25.8","106.90","21.88","22.00","27.54","12.67","17.84","0","0"
"C.J. Miles","C.J.-Miles-1299","3200","SG/SF","34.73","212","11.0","105.50","16.93","11.00","16.82","8.22","10.2","0","0"
"Abdel Nader","Abdel-Nader-35179","3400","SF","36.08","227","16.0","102.62","16.20","17.00","21.27","10.64","10.64","0","0"
"Jamal Crawford","Jamal-Crawford-1075","3400","PG/SG","49.42","224.5","13.3","108.80","20.13","12.00","17.6","10.03","10.03","0","0"
"Patrick Patterson","Patrick-Patterson-1260","3000","PF/C","60.69","227","12.6","102.62","13.43","13.00","14.44","7.32","8.28","0","0"
"Elie Okobo","Elie-Okobo-409300","3400","PG","43.24","224.5","14.0","108.80","18.26","11.00","8.83","1.68","8.56","0","0"
"Justin Anderson","Justin-Anderson-18927","3100","SF/PF","37.61","218.5","11.6","105.10","15.35","7.00","11.62","5.48","7.37","0","0"
"Hamidou Diallo","Hamidou-Diallo-408800","3000","SG/SF","40.27","227","10.6","102.62","16.19","10.00","7.19","1.37","6.97","0","0"
"Ian Mahinmi","Ian-Mahinmi-1357","3200","C","50.12","227","16.0","103.80","14.28","8.00","13.14","6.44","7.37","0","0"
"Troy Brown","Troy-Brown-409043","3100","SG/SF","39.33","227","7.2","103.80","16.36","8.00","6.64","1.63","6.25","0","0"
"Devonte' Graham","Devonte'-Graham-408968","3800","PG/SG","45.40","224.5","20.2","103.00","19.80","12.00","8.49","2.67","7.25","0","0"
