"nameCol","idCol","salaryCol","positionCol","dvpCol","ouCol","mpgCol","paceCol","usgCol","pminCol","ceilCol","floorCol","pointsCol","predictCol","actualCol"
"Marvin Bagley III","Marvin-Bagley-III-409321","4800","PF/C","50.76","227.5","21.7","98.20","20.00","27.00","38.86","4.39","27.76","0","0"
"Nikola Mirotic","Nikola-Mirotic-18584","5700","PF/C","52.02","240","23.5","104.88","19.17","29.00","55.62","24.23","32.26","0","0"
"Patrick Beverley","Patrick-Beverley-14108","3700","PG/SG","49.79","240","27.2","108.38","9.31","26.00","41.22","18.39","20.62","0","0"
"Al-Farouq Aminu","Al-Farouq-Aminu-1279","5000","SF/PF","38.94","227.5","31.3","104.50","13.60","32.00","41.94","19.65","27.72","0","0"
"Avery Bradley","Avery-Bradley-941","3300","SG","36.47","240","25.0","108.38","11.87","28.00","30.44","13.22","18.13","0","0"
"Anthony Davis","Anthony-Davis-13895","11600","PF/C","56.99","240","35.4","104.88","30.59","37.00","87.21","32.95","62.29","0","0"
"Damian Lillard","Damian-Lillard-13900","8800","PG","54.96","227.5","34.7","104.50","29.49","35.00","72.21","25.21","47.04","0","0"
"E'Twaun Moore","E'Twaun-Moore-18582","4100","SG/SF","33.65","240","31.8","104.88","15.17","29.00","34.71","15.61","21.9","0","0"
"Julius Randle","Julius-Randle-18632","7400","PF/C","56.99","240","32.7","104.88","24.30","31.00","63.59","23.84","39.47","0","0"
"Bogdan Bogdanovic","Bogdan-Bogdanovic-37899","5600","SG/SF","44.33","227.5","29.7","98.20","24.52","30.00","54.08","24.13","28.86","0","0"
"De'Aaron Fox","De'Aaron-Fox-37900","7800","PG","47.94","227.5","29.0","98.20","26.49","34.00","57.19","18.95","38.51","0","0"
"C.J. McCollum","C.J.-McCollum-17121","6800","PG/SG","45.76","227.5","34.4","104.50","23.84","34.00","51.13","16.08","33.29","0","0"
"Marcin Gortat","Marcin-Gortat-1479","3500","C","51.12","240","19.2","108.38","15.63","16.00","28.0","10.01","17.02","0","0"
"Willie Cauley-Stein","Willie-Cauley-Stein-18951","7000","C","50.64","227.5","28.0","98.20","22.04","30.00","48.86","16.09","33.67","0","0"
"Buddy Hield","Buddy-Hield-35206","6600","SG/SF","38.31","227.5","31.4","98.20","24.65","30.00","52.17","19.21","31.54","0","0"
"Danilo Gallinari","Danilo-Gallinari-1329","7200","SF/PF","47.93","240","33.5","108.38","23.51","33.00","57.1","22.27","34.15","0","0"
"Meyers Leonard","Meyers-Leonard-13905","3300","PF/C","56.83","227.5","16.0","104.50","16.53","14.00","31.02","15.52","15.52","0","0"
"Jusuf Nurkic","Jusuf-Nurkic-18619","8600","C","55.35","227.5","27.4","104.50","25.98","30.00","61.58","22.26","40.33","0","0"
"Evan Turner","Evan-Turner-1291","4400","SG/SF","45.76","227.5","22.4","104.50","16.57","23.00","33.07","14.61","20.64","0","0"
"Jrue Holiday","Jrue-Holiday-1073","8000","PG/SG","52.50","240","34.8","104.88","23.63","35.00","57.22","20.36","37.42","0","0"
"Tobias Harris","Tobias-Harris-13332","7700","SF/PF","47.93","240","32.3","108.38","23.93","33.00","56.51","20.63","36.06","0","0"
"Elfrid Payton","Elfrid-Payton-18602","5900","PG","44.65","240","26.3","104.88","23.39","28.00","42.7","14.84","27.53","0","0"
"Seth Curry","Seth-Curry-16825","3300","PG/SG","41.68","227.5","19.3","104.50","17.84","20.00","28.75","12.93","15.39","0","0"
"Shai Gilgeous-Alexander","Shai-Gilgeous-Alexander-408990","4100","PG/SG","49.79","240","19.7","108.38","20.27","22.00","26.66","8.21","19.04","0","0"
"Nemanja Bjelica","Nemanja-Bjelica-31814","4700","SF/PF","50.76","227.5","25.1","98.20","16.08","22.00","34.95","12.5","21.48","0","0"
"Montrezl Harrell","Montrezl-Harrell-18930","7100","PF/C","55.03","240","24.7","108.38","25.33","28.00","56.89","28.03","32.07","0","0"
"Zach Collins","Zach-Collins-37866","3800","PF/C","56.83","227.5","17.6","104.50","16.06","17.00","29.04","13.51","16.7","0","0"
"Lou Williams","Lou-Williams-1044","6700","PG/SG","49.18","240","26.3","108.38","32.78","26.00","56.75","23.65","29.42","0","0"
"Darius Miller","Darius-Miller-13951","3400","SF/PF","35.06","240","27.0","104.88","13.29","23.00","28.58","14.84","14.84","0","0"
"Iman Shumpert","Iman-Shumpert-13350","3800","SG/SF","38.31","227.5","21.8","98.20","19.45","23.00","27.47","12.5","16.49","0","0"
"Jake Layman","Jake-Layman-35216","3400","SF/PF","38.94","227.5","19.2","104.50","15.83","19.00","25.24","11.98","13.96","0","0"
"Justin Jackson","Justin-Jackson-37895","3600","SF/PF","38.31","227.5","25.3","98.20","15.20","20.00","25.91","11.83","13.65","0","0"
"Nik Stauskas","Nik-Stauskas-18636","3300","SG/SF","41.68","227.5","12.5","104.50","17.57","16.00","22.03","9.35","12.4","0","0"
"Frank Jackson","Frank-Jackson-37855","3300","PG/SG","52.50","240","15.0","104.88","18.52","16.00","16.0","2.31","11.43","0","0"
"Harry Giles","Harry-Giles-37897","3900","PF/C","50.76","227.5","16.4","98.20","20.18","16.00","18.82","2.12","13.44","0","0"
"Mike Scott","Mike-Scott-13999","3000","SF/PF","47.93","240","8.2","108.38","17.39","12.00","20.29","10.15","10.15","0","0"
"Tim Frazier","Tim-Frazier-18743","3300","PG/SG","44.65","240","15.3","104.88","13.60","12.00","18.51","7.69","9.6","0","0"
"Tyrone Wallace","Tyrone-Wallace-35220","3300","PG/SG","49.18","240","13.3","108.38","16.69","12.00","16.41","6.97","9.1","0","0"
"Yogi Ferrell","Yogi-Ferrell-35999","3200","PG/SG","47.94","227.5","19.1","98.20","14.73","8.00","11.69","5.08","6.22","0","0"
"Sindarius Thornwell","Sindarius-Thornwell-37881","3000","SG/SF","41.08","240","2.4","108.38","13.33","4.00","5.24","2.62","2.62","0","0"
