"nameCol","idCol","salaryCol","positionCol","dvpCol","ouCol","mpgCol","paceCol","usgCol","pminCol","ceilCol","floorCol","pointsCol","predictCol","actualCol"
"Wayne Ellington","Wayne-Ellington-1009","3600","SG/SF","39.43","219.5","22.5","106.90","17.78","28.00","36.36","6.39","20.87","0","0"
"Tyler Johnson","Tyler-Johnson-18720","4200","PG/SG","48.80","219.5","30.4","106.90","18.90","29.00","47.78","6.84","23.9","0","0"
"Joe Ingles","Joe-Ingles-18627","5300","SG/SF","41.69","226","32.2","98.88","17.02","31.00","44.73","11.56","27.99","0","0"
"Steven Adams","Steven-Adams-16848","6400","C","48.59","219.5","33.7","102.62","16.89","34.00","57.3","15.23","33.47","0","0"
"Bam Adebayo","Bam-Adebayo-37835","4200","PF/C","51.37","219.5","24.2","106.90","15.18","22.00","36.53","6.13","21.73","0","0"
"Hassan Whiteside","Hassan-Whiteside-18664","6700","C","51.37","219.5","22.7","106.90","19.55","26.00","47.88","14.98","34.2","0","0"
"Russell Westbrook","Russell-Westbrook-1083","11000","PG","48.78","219.5","35.6","102.62","32.30","36.00","78.32","28.42","55.94","0","0"
"Josh Richardson","Josh-Richardson-18922","6200","SG/SF","46.79","219.5","34.5","106.90","18.50","35.00","49.85","13.13","31.49","0","0"
"Ricky Rubio","Ricky-Rubio-1001","6100","PG","43.48","226","23.4","98.88","27.53","29.00","48.68","13.56","30.95","0","0"
"Kyle Korver","Kyle-Korver-1269","3700","SG/SF","41.69","226","20.6","98.88","16.09","24.00","37.48","4.93","18.75","0","0"
"Derrick Favors","Derrick-Favors-1266","5100","PF/C","55.81","226","21.0","98.88","18.08","25.00","43.19","11.35","25.8","0","0"
"Taurean Prince","Taurean-Prince-35218","4900","SF","31.45","226","28.1","105.10","17.44","30.00","43.92","6.33","24.73","0","0"
"Dwyane Wade","Dwyane-Wade-967","5000","PG/SG","46.79","219.5","26.2","106.90","28.77","24.00","40.53","7.59","25.13","0","0"
"Rudy Gobert","Rudy-Gobert-16935","8500","C","54.35","226","31.9","98.88","18.73","33.00","68.55","22.68","42.47","0","0"
"Dewayne Dedmon","Dewayne-Dedmon-16894","5400","PF/C","52.10","226","25.0","105.10","17.34","26.00","42.52","11.19","26.51","0","0"
"Justise Winslow","Justise-Winslow-18921","5800","PG/SF","48.80","219.5","32.2","106.90","21.18","32.00","47.5","13.9","28.48","0","0"
"Paul George","Paul-George-1245","9900","SF/PF","48.65","219.5","37.2","102.62","29.66","36.00","75.92","23.19","48.11","0","0"
"Kevin Huerter","Kevin-Huerter-408969","4400","SG/SF","33.88","226","27.6","105.10","20.73","30.00","29.53","17.06","21.09","0","0"
"Jeremy Lin","Jeremy-Lin-916","4000","PG/SG","48.40","226","22.7","105.10","24.93","20.00","36.04","5.44","19.02","0","0"
"Dennis Schroder","Dennis-Schroder-18595","4900","PG/SG","48.78","219.5","25.8","102.62","25.24","26.00","37.66","5.75","23.02","0","0"
"Jae Crowder","Jae-Crowder-13942","4700","SF/PF","42.65","226","27.6","98.88","19.77","28.00","44.1","4.79","22.06","0","0"
"John Collins","John-Collins-37823","7400","PF/C","52.10","226","29.0","105.10","22.94","30.00","63.17","13.66","34.33","0","0"
"Donovan Mitchell","Donovan-Mitchell-37875","8800","PG/SG","56.20","226","33.4","98.88","35.53","33.00","65.62","16.65","39.94","0","0"
"James Johnson","James-Johnson-1195","4000","PF/C","48.89","219.5","24.5","106.90","16.12","23.00","26.37","8.66","18.11","0","0"
"Trae Young","Trae-Young-409063","7000","PG","48.40","226","31.3","105.10","29.29","33.00","44.18","25.53","31.56","0","0"
"Jerami Grant","Jerami-Grant-18576","5800","PF","48.65","219.5","35.2","102.62","15.18","34.00","50.85","3.36","25.44","0","0"
"Royce O'Neale","Royce-O'Neale-37872","3600","SF","42.65","226","27.0","98.88","11.25","23.00","31.59","5.45","15.81","0","0"
"Terrance Ferguson","Terrance-Ferguson-37871","3700","SG/SF","37.17","219.5","29.6","102.62","13.85","32.00","32.42","4.8","16.22","0","0"
"DeAndre Bembry","DeAndre-Bembry-35198","4200","SG/SF","31.45","226","27.9","105.10","15.68","23.00","29.47","8.13","17.67","0","0"
"Alex Len","Alex-Len-16886","4400","C","52.10","226","18.0","105.10","27.95","18.00","32.34","7.09","17.04","0","0"
"Nerlens Noel","Nerlens-Noel-18575","3900","C","48.59","219.5","17.9","102.62","13.05","14.00","28.53","2.78","14.32","0","0"
"Dion Waiters","Dion-Waiters-13897","4000","SG/SF","46.79","219.5","20.2","106.90","22.13","17.00","28.97","4.83","14.49","0","0"
"Kent Bazemore","Kent-Bazemore-13987","4900","SG/SF","41.38","226","18.9","105.10","15.30","18.00","27.57","5.92","16.48","0","0"
"Abdel Nader","Abdel-Nader-35179","3100","SF","37.93","219.5","13.7","102.62","15.00","14.00","17.51","2.02","8.76","0","0"
"Patrick Patterson","Patrick-Patterson-1260","3400","PF/C","55.19","219.5","14.0","102.62","9.03","14.00","18.37","1.9","9.48","0","0"
"Omari Spellman","Omari-Spellman-408970","3400","PF/C","47.07","226","16.9","105.10","11.53","12.00","13.12","7.3","9.37","0","0"
"Georges Niang","Georges-Niang-35193","3100","SF/PF","53.65","226","11.2","98.88","13.32","8.00","14.75","1.4","7.38","0","0"
"Grayson Allen","Grayson-Allen-409227","3100","PG/SG","41.69","226","11.4","98.88","21.30","6.00","6.03","3.26","4.31","0","0"
"Kelly Olynyk","Kelly-Olynyk-16845","3800","PF/C","52.49","219.5","12.1","106.90","13.53","4.00","6.62","1.82","4.23","0","0"
