"nameCol","idCol","salaryCol","positionCol","dvpCol","ouCol","mpgCol","paceCol","usgCol","pminCol","ceilCol","floorCol","pointsCol","predictCol","actualCol"
"James Harden","James-Harden-1037","11000","PG/SG","50.71","225.5","39.5","101.42","42.92","39.00","77.17","25.21","67.22","0","0"
"Draymond Green","Draymond-Green-13976","5900","PF/C","53.13","225.5","32.8","103.10","17.25","34.00","42.03","15.25","34.51","0","0"
"Clint Capela","Clint-Capela-18610","6900","C","53.59","225.5","33.5","101.42","16.75","34.00","57.45","24.6","39.24","0","0"
"Serge Ibaka","Serge-Ibaka-1294","5600","PF/C","50.70","217.5","28.5","105.50","20.91","31.00","44.56","18.68","31.29","0","0"
"Greg Monroe","Greg-Monroe-1487","3400","C","50.49","217.5","15.3","105.50","17.46","18.00","26.3","11.74","18.96","0","0"
"De'Aaron Fox","De'Aaron-Fox-37900","7500","PG","49.58","227.5","33.2","98.20","28.64","35.00","51.24","20.98","41.29","0","0"
"LaMarcus Aldridge","LaMarcus-Aldridge-1349","7400","PF/C","55.24","217.5","32.3","99.70","28.21","35.00","59.01","25.94","40.78","0","0"
"DeMar DeRozan","DeMar-DeRozan-1053","7800","SG/SF","48.17","217.5","35.7","99.70","26.94","36.00","58.95","20.61","42.84","0","0"
"Klay Thompson","Klay-Thompson-13315","6100","SG","36.02","225.5","33.0","103.10","21.68","35.00","42.3","18.8","32.69","0","0"
"Jamal Murray","Jamal-Murray-35211","7300","PG/SG","54.70","227.5","33.6","99.62","29.36","34.00","60.46","25.23","39.11","0","0"
"Austin Rivers","Austin-Rivers-13903","4600","PG/SG","38.34","225.5","35.2","101.42","13.79","35.00","37.29","20.13","24.52","0","0"
"Nikola Jokic","Nikola-Jokic-31812","9800","C","56.45","227.5","31.4","99.62","27.32","34.00","68.43","20.68","51.84","0","0"
"Jonas Jerebko","Jonas-Jerebko-1106","3600","PF/C","45.43","225.5","18.7","103.10","17.96","22.00","34.66","14.15","19","0","0"
"Justin Jackson","Justin-Jackson-37895","3300","SF/PF","33.07","227.5","22.0","98.20","11.60","24.00","26.62","14.0","17.41","0","0"
"Kawhi Leonard","Kawhi-Leonard-13310","8800","SF/PF","46.99","217.5","33.0","105.50","32.31","35.00","61.66","22.33","45.95","0","0"
"Kevin Durant","Kevin-Durant-1348","9200","SF/PF","45.43","225.5","35.3","103.10","30.23","35.00","63.31","22.32","47.89","0","0"
"Jakob Poeltl","Jakob-Poeltl-35187","3500","C","51.06","217.5","18.0","99.70","14.99","20.00","25.09","9.86","18.22","0","0"
"Buddy Hield","Buddy-Hield-35206","6300","SG/SF","33.07","227.5","34.2","98.20","25.67","35.00","48.95","21.65","32.7","0","0"
"Willie Cauley-Stein","Willie-Cauley-Stein-18951","6500","C","51.85","227.5","31.8","98.20","19.22","33.00","46.57","19.22","33.6","0","0"
"Stephen Curry","Stephen-Curry-1079","9500","PG/SG","48.61","225.5","36.3","103.10","30.12","35.00","66.11","24.64","47.29","0","0"
"Bogdan Bogdanovic","Bogdan-Bogdanovic-37899","5800","SG/SF","43.69","227.5","29.7","98.20","28.69","31.00","45.71","24.25","28.8","0","0"
"Nemanja Bjelica","Nemanja-Bjelica-31814","5300","SF/PF","48.23","227.5","28.8","98.20","18.01","27.00","43.05","17.44","26.3","0","0"
"Marco Belinelli","Marco-Belinelli-1033","3400","SG/SF","36.05","217.5","21.2","99.70","19.33","21.00","24.33","12.69","16.61","0","0"
"Danny Green","Danny-Green-940","4000","SG/SF","39.56","217.5","26.8","105.50","15.68","29.00","27.71","12.43","19.49","0","0"
"P.J. Tucker","P.J.-Tucker-13947","4200","SF/PF","37.03","225.5","35.8","101.42","10.88","35.00","39.08","17.08","20.31","0","0"
"Kevon Looney","Kevon-Looney-18945","3900","PF/C","52.79","225.5","22.8","103.10","12.32","23.00","27.0","12.0","18.87","0","0"
"Iman Shumpert","Iman-Shumpert-13350","4100","SG/SF","33.07","227.5","25.8","98.20","18.36","26.00","29.27","14.14","19.7","0","0"
"Paul Millsap","Paul-Millsap-1335","5200","PF/C","52.71","227.5","18.0","99.62","28.21","23.00","40.8","20.94","24.52","0","0"
"Pascal Siakam","Pascal-Siakam-35186","6200","PF/C","48.82","217.5","33.3","105.50","21.81","33.00","43.04","16.59","29.1","0","0"
"James Ennis","James-Ennis-18599","3000","SG/SF","37.03","225.5","0","101.42","0","24.00","22.17","10.89","14.02","0","0"
"Andre Iguodala","Andre-Iguodala-1334","4000","SG/SF","36.02","225.5","22.2","103.10","13.57","25.00","28.12","10.88","18.5","0","0"
"Juan Hernangomez","Juan-Hernangomez-35212","5000","SF/PF","52.71","227.5","28.6","99.62","12.84","30.00","38.38","15.03","22.63","0","0"
"Danuel House","Danuel-House-36029","4300","SF/PF","50.71","225.5","26.0","101.42","11.09","28.00","31.89","15.19","19.2","0","0"
"Rudy Gay","Rudy-Gay-1341","5500","SF/PF","45.54","217.5","25.2","99.70","21.24","28.00","34.93","21.42","24.51","0","0"
"Derrick White","Derrick-White-37858","4700","PG/SG","40.94","217.5","27.3","99.70","15.69","26.00","33.81","17.45","20.95","0","0"
"Monte Morris","Monte-Morris-37860","4500","PG","54.70","227.5","24.8","99.62","20.43","23.00","29.84","16.07","19.96","0","0"
"Gerald Green","Gerald-Green-13374","4100","SG/SF","43.54","225.5","23.8","101.42","16.77","25.00","31.47","14.71","18.14","0","0"
"Mason Plumlee","Mason-Plumlee-16798","5100","PF/C","56.40","227.5","26.8","99.62","14.83","22.00","31.24","15.28","21.92","0","0"
"Bryn Forbes","Bryn-Forbes-36052","4400","PG/SG","46.64","217.5","31.5","99.70","18.06","27.00","27.28","11.49","18.89","0","0"
"Gary Harris","Gary-Harris-18617","4800","SG","47.28","227.5","19.0","99.62","15.62","22.00","33.0","18.45","20.36","0","0"
"Malik Beasley","Malik-Beasley-35213","4900","PG/SG","37.56","227.5","28.0","99.62","23.25","26.00","36.43","20.76","20.76","0","0"
"Delon Wright","Delon-Wright-18907","3300","PG/SG","42.00","217.5","21.2","105.50","18.17","17.00","22.39","11.15","13.52","0","0"
"Patty Mills","Patty-Mills-13977","3300","PG/SG","40.94","217.5","19.7","99.70","17.67","19.00","20.18","10.45","13.41","0","0"
"Kyle Lowry","Kyle-Lowry-1057","7100","PG","51.65","217.5","30.0","105.50","29.72","30.00","41.53","21.95","28.58","0","0"
"Davis Bertans","Davis-Bertans-36051","3800","SF/PF","55.24","217.5","23.2","99.70","14.00","20.00","25.92","11.94","14.92","0","0"
"Fred VanVleet","Fred-VanVleet-36011","5700","PG/SG","42.00","217.5","31.7","105.50","17.84","26.00","30.54","13.38","22.37","0","0"
"Shaun Livingston","Shaun-Livingston-14007","3300","PG","38.88","225.5","15.3","103.10","16.40","16.00","18.55","8.57","11.34","0","0"
"Torrey Craig","Torrey-Craig-37861","3700","SG/SF","37.56","227.5","27.8","99.62","13.02","18.00","16.87","7.33","11.99","0","0"
"Nene Hilario","Nene-Hilario-17321","3100","C","53.59","225.5","13.7","101.42","9.79","10.00","15.85","8.36","9.73","0","0"
"Alfonzo McKinnie","Alfonzo-McKinnie-37808","3000","SF/PF","37.11","225.5","9.8","103.10","15.88","12.00","15.95","8.33","8.33","0","0"
"Kosta Koufos","Kosta-Koufos-1386","3000","PF/C","51.85","227.5","9.7","98.20","19.45","8.00","15.01","7.85","7.85","0","0"
"OG Anunoby","OG-Anunoby-37807","3500","SF/PF","39.56","217.5","22.0","105.50","13.25","14.00","17.34","9.17","9.17","0","0"
"Pau Gasol","Pau-Gasol-1502","3300","C","55.24","217.5","5.0","99.70","0.00","8.00","12.65","5.64","8.53","0","0"
"Harry Giles","Harry-Giles-37897","3100","PF/C","48.23","227.5","11.0","98.20","23.28","10.00","8.58","1.81","7.91","0","0"
"Yogi Ferrell","Yogi-Ferrell-35999","3100","PG/SG","49.58","227.5","10.2","98.20","19.28","11.00","13.28","6.8","7.72","0","0"
"Trey Lyles","Trey-Lyles-18942","3300","SF/PF","52.71","227.5","12.8","99.62","26.50","8.00","12.66","6.92","8.06","0","0"
"Brandon Knight","Brandon-Knight-13336","3000","PG/SG","50.71","225.5","12.7","101.42","16.36","8.00","10.3","5.01","6.87","0","0"
"Norman Powell","Norman-Powell-18908","3300","SG/SF","33.80","217.5","22.2","105.50","17.24","7.00","8.29","3.66","4.68","0","0"
"Gary Clark","Gary-Clark-570141","3000","SF/PF","49.18","225.5","8.5","101.42","2.35","4.00","2.7","0.62","2.55","0","0"
"Jordan Bell","Jordan-Bell-37877","3200","PF/C","52.79","225.5","7.5","103.10","16.43","3.00","4.45","2.18","2.59","0","0"
