"nameCol","idCol","salaryCol","positionCol","dvpCol","ouCol","mpgCol","paceCol","usgCol","pminCol","ceilCol","floorCol","pointsCol","predictCol","actualCol"
"Kelly Olynyk","Kelly-Olynyk-16845","3800","PF/C","51.61","196","19.2","106.90","17.48","25.00","40.36","15.1","26.36","0","0"
"Bam Adebayo","Bam-Adebayo-37835","4800","PF/C","48.61","196","22.5","106.90","16.07","30.00","49.93","24.04","30.13","0","0"
"James Johnson","James-Johnson-1195","4000","PF/C","41.57","196","19.2","106.90","23.08","25.00","34.94","13.17","24.66","0","0"
"Marc Gasol","Marc-Gasol-1493","7700","C","53.39","196","32.1","103.30","21.26","34.00","58.24","19.05","37.87","0","0"
"Avery Bradley","Avery-Bradley-941","3400","SG","37.59","221.5","0","108.38","0","29.00","32.04","13.91","19.08","0","0"
"Josh Richardson","Josh-Richardson-18922","6300","SG/SF","42.59","196","33.2","106.90","20.65","34.00","49.89","20.22","31.9","0","0"
"Patrick Beverley","Patrick-Beverley-14108","3900","PG/SG","43.21","221.5","25.3","108.38","10.59","26.00","41.5","18.52","20.76","0","0"
"Reggie Jackson","Reggie-Jackson-13352","5200","PG/SG","0","221.5","0","100.30","0","28.00","38.02","12.75","26.08","0","0"
"JaMychal Green","JaMychal-Green-18729","4500","SF/PF","53.39","196","23.4","103.30","17.30","23.00","41.59","19.71","22.42","0","0"
"Justise Winslow","Justise-Winslow-18921","6500","PG/SF","0","196","28.5","106.90","23.50","32.00","46.38","16.84","30.39","0","0"
"Kyle Anderson","Kyle-Anderson-18615","5300","PG/SF","37.67","196","33.4","103.30","14.33","35.00","44.09","13.71","28.21","0","0"
"Andre Drummond","Andre-Drummond-13904","9100","C","58.50","221.5","32.6","100.30","20.72","33.00","64.78","21.7","46.27","0","0"
"Bruce Brown","Bruce-Brown-408913","4100","PG/SG","33.83","221.5","0","100.30","0","28.00","26.1","6.11","18.64","0","0"
"Mike Conley","Mike-Conley-1062","7500","PG","40.10","196","32.3","103.30","26.71","34.00","65.45","23.31","37.23","0","0"
"Luke Kennard","Luke-Kennard-37814","3500","SG/SF","33.83","221.5","0","100.30","0","20.00","29.57","11.5","16.55","0","0"
"Jaren Jackson","Jaren-Jackson-409099","5400","PF/C","53.39","196","24.4","103.30","21.39","29.00","37.91","8.88","27.08","0","0"
"Blake Griffin","Blake-Griffin-1503","9500","PF/C","56.30","221.5","36.2","100.30","27.95","35.00","73.37","23.74","46","0","0"
"Garrett Temple","Garrett-Temple-14077","3600","SG/SF","37.87","196","31.1","103.30","13.02","30.00","32.36","14.73","17.51","0","0"
"Montrezl Harrell","Montrezl-Harrell-18930","6700","PF/C","0","221.5","23.7","108.38","26.46","27.00","55.76","27.47","31.43","0","0"
"Reggie Bullock","Reggie-Bullock-16943","4700","SG/SF","34.60","221.5","31.0","100.30","18.19","33.00","36.19","12.61","22.12","0","0"
"Dwyane Wade","Dwyane-Wade-967","5100","PG/SG","42.59","196","24.8","106.90","26.57","22.00","39.8","16.97","24.42","0","0"
"Dion Waiters","Dion-Waiters-13897","3900","SG/SF","42.59","196","18.0","106.90","26.71","20.00","31.19","13.29","16.74","0","0"
"Tobias Harris","Tobias-Harris-13332","7800","SF/PF","0","221.5","31.8","108.38","25.38","33.00","55.28","20.18","35.28","0","0"
"Danilo Gallinari","Danilo-Gallinari-1329","7400","SF/PF","0","221.5","32.0","108.38","23.69","33.00","56.25","21.93","33.64","0","0"
"Justin Holiday","Justin-Holiday-14559","3500","SG/SF","37.87","196","23.4","103.30","14.84","22.00","30.94","14.05","15.82","0","0"
"Derrick Jones","Derrick-Jones-36064","4400","SF/PF","37.92","196","0","106.90","0","22.00","34.91","14.26","17.94","0","0"
"Langston Galloway","Langston-Galloway-18717","3100","PG/SG","33.83","221.5","12.3","100.30","18.95","17.00","26.55","13.28","13.28","0","0"
"Marcin Gortat","Marcin-Gortat-1479","3700","C","52.15","221.5","0","108.38","0","16.00","27.75","9.92","16.87","0","0"
"Lou Williams","Lou-Williams-1044","7000","PG/SG","43.60","221.5","26.2","108.38","33.27","26.00","56.1","23.38","29.08","0","0"
"Stanley Johnson","Stanley-Johnson-18913","3600","SF/PF","34.60","221.5","14.0","100.30","22.56","15.00","24.08","10.73","13.04","0","0"
"Omri Casspi","Omri-Casspi-1270","3100","SF/PF","37.67","196","11.6","103.30","15.15","16.00","25.63","12.32","12.82","0","0"
"Shai Gilgeous-Alexander","Shai-Gilgeous-Alexander-408990","4200","PG/SG","43.21","221.5","20.3","108.38","17.50","21.00","26.38","8.12","18.84","0","0"
"Jose Calderon","Jose-Calderon-1071","3200","PG","0","221.5","18.3","100.30","11.34","18.00","25.89","12.95","12.95","0","0"
"Rodney McGruder","Rodney-McGruder-16850","3300","SG/SF","37.92","196","19.0","106.90","17.65","16.00","21.17","7.42","12.13","0","0"
"Tyrone Wallace","Tyrone-Wallace-35220","3100","PG/SG","43.60","221.5","13.5","108.38","14.63","14.00","19.08","8.1","10.58","0","0"
"Jon Leuer","Jon-Leuer-13317","3500","PF/C","56.30","221.5","15.2","100.30","14.29","13.00","17.78","7.35","10.32","0","0"
"Shelvin Mack","Shelvin-Mack-13354","3400","PG/SG","40.10","196","0","103.30","0","13.00","17.49","8.69","10.08","0","0"
"Mike Scott","Mike-Scott-13999","3000","SF/PF","0","221.5","0","108.38","0","10.00","16.97","8.49","8.49","0","0"
"Tyler Johnson","Tyler-Johnson-18720","4300","PG/SG","47.61","196","0","106.90","0","14.00","22.83","9.24","11.7","0","0"
"Boban Marjanovic","Boban-Marjanovic-31807","3300","C","52.15","221.5","5.3","108.38","27.45","5.00","10.94","5.71","5.71","0","0"
"Joakim Noah","Joakim-Noah-1404","3200","C","49.33","196","8.0","103.30","22.59","4.00","5.35","2.52","2.78","0","0"
