"nameCol","idCol","salaryCol","positionCol","dvpCol","ouCol","mpgCol","paceCol","usgCol","pminCol","ceilCol","floorCol","pointsCol","predictCol","actualCol"
"Dario Saric","Dario-Saric-36004","4400","PF","43.20","214.5","21.9","100.67","20.75","32.00","47.26","23.66","28.13","0","0"
"Marcus Smart","Marcus-Smart-18567","4300","PG/SG","51.65","214.5","29.0","101.75","15.06","32.00","37.68","14.73","26.26","0","0"
"Josh Okogie","Josh-Okogie-409174","3700","SG/SF","44.69","214.5","21.0","100.67","15.14","29.00","23.15","5.33","21.86","0","0"
"Justin Holiday","Justin-Holiday-14559","4800","SG/SF","41.23","199","35.0","104.50","14.59","36.00","40.14","16.96","28.31","0","0"
"D.J. Augustin","D.J.-Augustin-1064","4300","PG","41.74","199","30.2","105.10","20.50","32.00","41.44","13.61","25.39","0","0"
"Bruce Brown","Bruce-Brown-408913","3200","PG/SG","37.57","198","20.9","100.30","16.82","27.00","19.23","3.85","18.6","0","0"
"Marc Gasol","Marc-Gasol-1493","7400","C","52.02","198","35.2","103.30","21.84","34.00","56.41","25.0","42.8","0","0"
"Zach LaVine","Zach-LaVine-18622","6600","PG/SG","50.06","199","28.7","104.50","27.90","34.00","52.6","22.67","37.98","0","0"
"Jaren Jackson","Jaren-Jackson-409099","5000","PF/C","52.02","198","24.2","103.30","23.45","28.00","31.53","11.62","28.56","0","0"
"Terry Rozier","Terry-Rozier-18894","5300","PG/SG","46.61","214.5","19.9","101.75","20.68","32.00","47.45","24.62","29.84","0","0"
"Karl-Anthony Towns","Karl-Anthony-Towns-18937","9600","C","50.93","214.5","34.9","100.67","27.89","37.00","71.43","29.0","53.11","0","0"
"JaMychal Green","JaMychal-Green-18729","4000","SF/PF","52.02","198","22.0","103.30","16.04","23.00","37.3","19.36","22.07","0","0"
"Gordon Hayward","Gordon-Hayward-1239","4800","SF/PF","53.91","214.5","26.7","101.75","16.34","27.00","38.44","18.36","26.38","0","0"
"Tyus Jones","Tyus-Jones-18938","5600","PG","40.43","214.5","27.0","100.67","14.92","38.00","42.62","16.79","30.75","0","0"
"Kris Dunn","Kris-Dunn-35215","6400","PG/SG","50.06","199","31.7","104.50","24.89","32.00","49.27","17.77","34.77","0","0"
"Taj Gibson","Taj-Gibson-1277","4600","PF/C","50.31","214.5","25.9","100.67","13.41","32.00","34.41","12.8","24.86","0","0"
"Kyle Anderson","Kyle-Anderson-18615","5100","PG/SF","34.58","198","33.7","103.30","12.39","35.00","36.67","14.86","27.47","0","0"
"Jayson Tatum","Jayson-Tatum-37782","6300","SF/PF","53.91","214.5","31.3","101.75","21.12","34.00","42.74","17.47","33.6","0","0"
"Nikola Vucevic","Nikola-Vucevic-13296","9400","C","62.66","199","32.3","105.10","25.33","35.00","65.38","24.72","50.14","0","0"
"Reggie Bullock","Reggie-Bullock-16943","4000","SG/SF","36.25","198","32.3","100.30","16.90","32.00","34.02","14.55","21.3","0","0"
"Aaron Gordon","Aaron-Gordon-18601","6800","SF/PF","47.88","199","34.9","105.10","18.82","35.00","46.65","19.88","36.08","0","0"
"Reggie Jackson","Reggie-Jackson-13352","4700","PG/SG","47.79","198","27.7","100.30","26.07","28.00","34.21","12.94","24.7","0","0"
"Lauri Markkanen","Lauri-Markkanen-37809","7000","PF","49.89","199","33.3","104.50","21.67","34.00","52.59","22.25","36.65","0","0"
"Daniel Theis","Daniel-Theis-37784","3500","PF/C","50.28","214.5","17.9","101.75","14.94","18.00","30.76","16.52","18.29","0","0"
"Andrew Wiggins","Andrew-Wiggins-18620","6200","SG/SF","44.69","214.5","36.0","100.67","23.51","37.00","42.69","18.39","32.44","0","0"
"Evan Fournier","Evan-Fournier-13913","5400","SG/SF","34.48","199","29.3","105.10","22.00","32.00","35.81","14.86","27.93","0","0"
"Garrett Temple","Garrett-Temple-14077","3700","SG/SF","38.23","198","31.2","103.30","11.40","30.00","30.45","13.75","19.1","0","0"
"Shaquille Harrison","Shaquille-Harrison-36065","3200","PG","36.98","199","21.2","104.50","12.93","20.00","26.58","12.89","16.42","0","0"
"Mike Conley","Mike-Conley-1062","7700","PG","44.45","198","34.8","103.30","26.45","35.00","58.8","22.27","39.49","0","0"
"Jonathan Isaac","Jonathan-Isaac-37841","4100","SF/PF","62.66","199","25.0","105.10","15.52","26.00","33.36","16.04","20.94","0","0"
"Jon Leuer","Jon-Leuer-13317","3100","PF/C","50.96","198","10.8","100.30","14.63","19.00","25.38","13.24","15.6","0","0"
"Dillon Brooks","Dillon-Brooks-37852","3300","SG/SF","42.53","198","17.0","103.30","23.11","24.00","30.41","16.58","16.58","0","0"
"Terrence Ross","Terrence-Ross-13902","4200","SG/SF","34.48","199","25.3","105.10","20.23","26.00","32.63","17.98","21.08","0","0"
"Andre Drummond","Andre-Drummond-13904","8100","C","49.00","198","31.6","100.30","21.59","34.00","50.14","18.93","40.7","0","0"
"Gorgui Dieng","Gorgui-Dieng-16939","3300","PF/C","50.31","214.5","13.0","100.67","18.83","17.00","25.69","12.41","16.46","0","0"
"Wendell Carter","Wendell-Carter-408878","5500","PF/C","49.20","199","25.7","104.50","18.34","28.00","30.75","8.3","27.12","0","0"
"Jaylen Brown","Jaylen-Brown-35181","4900","SG/SF","39.95","214.5","23.0","101.75","21.80","27.00","45.15","19.84","23.85","0","0"
"Al Horford","Al-Horford-1499","5700","PF/C","53.36","214.5","24.2","101.75","20.61","28.00","36.05","14.14","26.78","0","0"
"Blake Griffin","Blake-Griffin-1503","8400","PF/C","50.96","198","35.3","100.30","27.63","35.00","49.83","18.12","39.39","0","0"
"Marcus Morris","Marcus-Morris-13316","6000","SF/PF","39.95","214.5","29.0","101.75","20.21","29.00","35.3","13.67","26.13","0","0"
"Ryan Arcidiacono","Ryan-Arcidiacono-36050","3500","PG","36.98","199","26.7","104.50","9.48","23.00","26.46","12.9","14.79","0","0"
"Robin Lopez","Robin-Lopez-1466","3400","C","52.79","199","17.3","104.50","22.54","18.00","27.98","14.19","14.19","0","0"
"Luke Kennard","Luke-Kennard-37814","3500","SG/SF","37.57","198","18.0","100.30","17.97","18.00","21.76","10.08","14.44","0","0"
"Jose Calderon","Jose-Calderon-1071","3100","PG","39.84","198","18.7","100.30","12.49","18.00","21.15","9.62","12.1","0","0"
"Mohamed Bamba","Mohamed-Bamba-409026","4600","C","55.06","199","14.9","105.10","20.30","14.00","16.73","3.06","16.55","0","0"
"Stanley Johnson","Stanley-Johnson-18913","3400","SF/PF","36.25","198","17.5","100.30","20.64","15.00","19.96","9.56","12.07","0","0"
"Shelvin Mack","Shelvin-Mack-13354","3200","PG","44.45","198","18.0","103.30","14.00","13.00","17.21","8.82","11.27","0","0"
"Chandler Hutchison","Chandler-Hutchison-408877","3000","SF/PF","34.67","199","16.2","104.50","9.15","15.00","10.27","1.83","10.12","0","0"
"Jerryd Bayless","Jerryd-Bayless-1021","3100","PG/SG","44.69","214.5","10.2","100.67","21.50","17.00","16.68","9.68","9.68","0","0"
"Langston Galloway","Langston-Galloway-18717","3200","PG/SG","37.57","198","17.7","100.30","20.99","14.00","17.18","8.25","9.93","0","0"
"Joakim Noah","Joakim-Noah-1404","3000","C","52.14","198","9.7","103.30","19.86","10.00","15.35","8.19","9.02","0","0"
"Jerian Grant","Jerian-Grant-18900","3900","PG","41.74","199","15.1","105.10","16.32","13.00","18.96","10.13","11.5","0","0"
"Wes Iwundu","Wes-Iwundu-37839","3300","SG/SF","38.75","199","15.8","105.10","15.47","16.00","17.67","8.84","8.84","0","0"
"Isaiah Briscoe","Isaiah-Briscoe-37868","3000","PG/SG","41.74","199","9.8","105.10","16.06","11.00","8.12","1.49","8.03","0","0"
"Brad Wanamaker","Brad-Wanamaker-438951","3000","PG/SG","35.75","214.5","4.0","101.75","14.95","8.00","7.63","1.61","7.03","0","0"
"Omri Casspi","Omri-Casspi-1270","3100","SF/PF","34.58","198","16.0","103.30","16.90","8.00","11.5","5.51","6.54","0","0"
"Semi Ojeleye","Semi-Ojeleye-37786","3100","SF/PF","39.95","214.5","9.6","101.75","15.07","5.00","6.12","3.2","3.2","0","0"
"James Nunnally","James-Nunnally-570237","3000","SG/SF","44.69","214.5","3.0","100.67","13.33","1.00","0.59","0.14","0.56","0","0"
