"nameCol","idCol","salaryCol","positionCol","dvpCol","ouCol","mpgCol","paceCol","usgCol","pminCol","ceilCol","floorCol","pointsCol","predictCol","actualCol"
"Luke Kennard","Luke-Kennard-37814","3500","SG/SF","21.45","206","19.3","100.30","18.46","29.00","42.18","7.59","23.95","0","0"
"Dion Waiters","Dion-Waiters-13897","3900","SG/SF","25.36","217","21.9","106.90","16.75","28.00","38.98","10.51","25.02","0","0"
"Dorian Finney-Smith","Dorian-Finney-Smith-36032","3900","SF/PF","31.23","222.5","27.4","100.08","14.52","34.00","46.7","12.85","24.96","0","0"
"Collin Sexton","Collin-Sexton-408896","4500","PG","41.00","220.5","31.0","103.60","24.08","35.00","39.4","22.77","28.14","0","0"
"Dennis Smith Jr.","Dennis-Smith-Jr.-37847","5800","PG","40.88","206","32.2","100.17","27.27","35.00","64.4","15.71","36.04","0","0"
"Sterling Brown","Sterling-Brown-37821","3200","SG/SF","19.15","222.5","17.6","98.80","13.14","25.00","37.48","5.33","19.19","0","0"
"Shabazz Napier","Shabazz-Napier-18598","4700","PG/SG","17.50","224","27.2","114.62","28.55","26.00","55.09","7.9","28.12","0","0"
"Tim Hardaway Jr.","Tim-Hardaway-Jr.-16879","4900","SG/SF","27.33","222.5","31.0","100.08","21.81","32.00","51.47","13.13","28.74","0","0"
"Eric Bledsoe","Eric-Bledsoe-1031","6700","PG","42.29","222.5","29.5","98.80","26.23","32.00","77.86","16.59","38.95","0","0"
"Dwight Powell","Dwight-Powell-18566","4400","PF/C","30.65","222.5","21.3","100.08","13.75","26.00","50.05","7.74","25.56","0","0"
"Deandre Ayton","Deandre-Ayton-409301","6500","C","30.53","232","32.2","108.80","23.66","31.00","52.68","29.8","37.63","0","0"
"Ryan Broekhoff","Ryan-Broekhoff-555205","3100","SG/SF","20.54","222.5","15.1","100.08","10.78","23.00","25.1","15.04","17.93","0","0"
"Tony Snell","Tony-Snell-16872","3300","SG/SF","25.50","222.5","18.7","98.80","12.70","29.00","37.74","5.25","18.88","0","0"
"Maxi Kleber","Maxi-Kleber-37845","4200","PF/C","26.85","222.5","22.5","100.08","11.16","28.00","47.3","6.29","24.01","0","0"
"Jordan Clarkson","Jordan-Clarkson-18631","5200","PG/SG","26.31","220.5","27.2","103.60","25.56","30.00","43.57","14.11","29.64","0","0"
"Joe Harris","Joe-Harris-18587","4600","SG/SF","19.33","224","28.7","114.62","19.57","32.00","45.94","9.97","26.1","0","0"
"Paul Millsap","Paul-Millsap-1335","4800","PF/C","26.19","229.5","25.2","99.62","13.78","27.00","43.48","10.05","27.16","0","0"
"David Nwaba","David-Nwaba-36526","3700","SG/SF","24.48","220.5","19.0","103.60","18.70","28.00","40.58","8.97","20.57","0","0"
"Karl-Anthony Towns","Karl-Anthony-Towns-18937","10000","C","33.43","231","33.2","100.67","27.64","36.00","87.63","29.38","55.64","0","0"
"Dwyane Wade","Dwyane-Wade-967","5000","PG/SG","25.36","217","26.9","106.90","28.41","27.00","43.29","8.39","27.77","0","0"
"Andre Drummond","Andre-Drummond-13904","8600","C","31.46","206","32.5","100.30","20.89","35.00","66.56","25.05","47.54","0","0"
"D'Angelo Russell","D'Angelo-Russell-18947","8200","PG/SG","44.91","224","30.2","114.62","35.12","33.00","71.25","21.96","45.38","0","0"
"Ed Davis","Ed-Davis-1265","3600","C","37.33","224","19.3","114.62","15.29","18.00","39.78","5.69","19.9","0","0"
"Rondae Hollis-Jefferson","Rondae-Hollis-Jefferson-18897","3700","PF/C","31.72","224","21.8","114.62","22.81","20.00","40.84","5.11","20.43","0","0"
"Josh Jackson","Josh-Jackson-37890","5900","SF/PF","26.52","232","34.8","108.80","25.42","35.00","56.91","14.96","32.52","0","0"
"Jalen Brunson","Jalen-Brunson-409062","4300","PG/SG","21.78","222.5","22.4","100.08","19.71","31.00","33.18","13.77","23.7","0","0"
"Justise Winslow","Justise-Winslow-18921","5500","PG/SF","36.83","217","33.9","106.90","20.26","32.00","53.06","14.73","30.25","0","0"
"Lauri Markkanen","Lauri-Markkanen-37809","7000","PF/C","29.49","224","34.7","104.50","22.04","34.00","65.89","16.53","38.53","0","0"
"Otto Porter","Otto-Porter-17069","5800","SF/PF","23.00","224","29.0","104.50","19.00","34.00","56.38","11.87","31.91","0","0"
"Cristiano Felicio","Cristiano-Felicio-31767","3000","C","32.40","224","15.8","104.50","13.06","20.00","30.09","2.45","16.32","0","0"
"Andrew Wiggins","Andrew-Wiggins-18620","6000","SG/SF","31.11","231","37.1","100.67","28.53","36.00","49.85","12.65","32.6","0","0"
"Jeff Teague","Jeff-Teague-1005","5400","PG","39.80","231","0","100.67","0","29.00","58.35","10.83","29.19","0","0"
"Blake Griffin","Blake-Griffin-1503","8900","PF/C","32.75","206","37.0","100.30","30.96","36.00","86.66","27.96","48.04","0","0"
"Jeff Green","Jeff-Green-1314","5300","SF/PF","31.50","220.5","32.8","103.80","21.22","32.00","55.34","10.58","28.6","0","0"
"Josh Richardson","Josh-Richardson-18922","6100","SG/SF","25.36","217","35.4","106.90","17.57","35.00","52.61","13.31","32.94","0","0"
"Jarrett Allen","Jarrett-Allen-37794","5000","C","37.33","224","24.7","114.62","14.34","25.00","53.85","11.64","26.94","0","0"
"Jamal Murray","Jamal-Murray-35211","6300","PG/SG","39.21","229.5","27.6","99.62","24.43","34.00","50.98","12.11","33.83","0","0"
"Malcolm Brogdon","Malcolm-Brogdon-35195","5600","PG/SG","42.29","222.5","29.1","98.80","22.43","31.00","57.08","10.56","30.09","0","0"
"Tyler Johnson","Tyler-Johnson-18720","4300","PG/SG","39.59","232","26.5","108.80","16.98","30.00","39.73","7.94","23.07","0","0"
"Joel Embiid","Joel-Embiid-18578","10600","C","25.00","229.5","36.4","108.33","37.14","35.00","90.69","38.67","56.79","0","0"
"Damyean Dotson","Damyean-Dotson-37795","3600","SG/SF","22.65","206","22.9","100.17","16.62","26.00","33.91","9.02","19.28","0","0"
"Reggie Jackson","Reggie-Jackson-13352","5600","PG/SG","45.15","206","33.2","100.30","23.19","33.00","45.46","16.42","29.97","0","0"
"Hassan Whiteside","Hassan-Whiteside-18664","6800","C","32.14","217","23.7","106.90","23.75","28.00","50.81","16.66","36.29","0","0"
"Kelly Olynyk","Kelly-Olynyk-16845","4200","PF/C","32.59","217","21.5","106.90","17.16","24.00","35.76","7.45","22.38","0","0"
"DeMarcus Cousins","DeMarcus-Cousins-1490","6700","C","32.08","232","22.9","103.10","30.11","25.00","51.04","16.63","35.69","0","0"
"Nikola Jokic","Nikola-Jokic-31812","10400","C","31.12","229.5","32.2","99.62","30.24","34.00","80.85","33.01","55.11","0","0"
"Bogdan Bogdanovic","Bogdan-Bogdanovic-37899","5000","SG/SF","22.83","217","25.7","98.20","23.66","28.00","52.06","9.14","26.48","0","0"
"D.J. Wilson","D.J.-Wilson-37822","3400","PF/C","29.24","222.5","19.5","98.80","14.01","21.00","35.88","4.49","17.95","0","0"
"Bradley Beal","Bradley-Beal-13898","8800","SG","24.67","220.5","36.5","103.80","28.68","38.00","68.92","24.46","46.41","0","0"
"Kenrich Williams","Kenrich-Williams-570179","5000","SG/SF","23.36","231","29.0","104.88","14.79","31.00","36.85","19.9","26.32","0","0"
"Trevor Ariza","Trevor-Ariza-1323","5700","SF/PF","26.57","220.5","34.3","103.80","18.42","36.00","44.31","9.32","29.98","0","0"
"Zach LaVine","Zach-LaVine-18622","6900","PG/SG","39.29","224","34.5","104.50","27.91","35.00","55.74","17.75","36.29","0","0"
"Kris Dunn","Kris-Dunn-35215","6500","PG/SG","39.29","224","34.3","104.50","19.79","34.00","57.56","19.27","33.98","0","0"
"Deng Adel","Deng-Adel-554989","3100","SF/PF","24.48","220.5","15.8","103.60","9.70","24.00","22.62","13.07","16.16","0","0"
"Klay Thompson","Klay-Thompson-13315","6300","SG","20.36","232","32.6","103.10","22.71","33.00","57.62","15.17","32.7","0","0"
"Dario Saric","Dario-Saric-36004","4400","PF","33.85","231","23.0","100.67","14.50","24.00","38.87","5.36","22.81","0","0"
"Luka Doncic","Luka-Doncic-408971","9500","PG/SG","27.33","222.5","33.4","100.08","35.93","34.00","68.71","28.52","49.08","0","0"
"Kelly Oubre","Kelly-Oubre-18925","5900","SG/SF","23.04","232","31.9","108.80","21.90","31.00","54.77","9.79","30.51","0","0"
"Draymond Green","Draymond-Green-13976","6100","PF/C","32.08","232","30.2","103.10","13.32","32.00","46.16","13.49","31.38","0","0"
"DeAndre Jordan","DeAndre-Jordan-1486","6000","C","31.50","206","28.2","100.17","12.48","28.00","42.56","18.82","30.4","0","0"
"Harrison Barnes","Harrison-Barnes-13901","5200","SF/PF","28.19","217","32.8","98.20","23.53","32.00","40.76","11.07","26.16","0","0"
"Devin Booker","Devin-Booker-18949","8300","PG/SG","39.59","232","36.4","108.80","30.28","35.00","71.05","19.53","41.65","0","0"
"Tomas Satoransky ","Tomas-Satoransky--36031","5700","PG/SF","45.88","220.5","31.0","103.80","16.22","32.00","55.51","9.45","28.63","0","0"
"Ersan Ilyasova","Ersan-Ilyasova-1301","3200","PF/C","29.24","222.5","11.2","98.80","13.70","18.00","29.12","2.75","16.06","0","0"
"Matthew Dellavedova","Matthew-Dellavedova-16839","3500","PG/SG","23.87","220.5","19.3","103.60","20.95","23.00","35.0","3.64","17.51","0","0"
"Anthony Davis","Anthony-Davis-13895","11200","PF/C","32.64","231","0","104.88","0","34.00","78.34","30.55","55.96","0","0"
"Marvin Bagley III","Marvin-Bagley-III-409321","6200","PF/C","28.19","217","28.0","98.20","25.20","30.00","43.32","23.39","30.94","0","0"
"De'Aaron Fox","De'Aaron-Fox-37900","7200","PG","35.60","217","30.7","98.20","26.73","33.00","54.7","18.73","35.82","0","0"
"Stephen Curry","Stephen-Curry-1079","9000","PG/SG","41.65","232","32.9","103.10","26.76","33.00","75.06","16.53","44.68","0","0"
"Giannis Antetokounmpo","Giannis-Antetokounmpo-16852","11400","SF/PF","29.24","222.5","33.1","98.80","33.62","34.00","79.03","32.4","56.45","0","0"
"Kevin Knox","Kevin-Knox-408820","5100","SF/PF","24.15","206","31.2","100.17","22.74","35.00","35.35","20.43","25.25","0","0"
"Robin Lopez","Robin-Lopez-1466","4000","C","32.40","224","20.5","104.50","15.64","24.00","38.89","7.08","19.71","0","0"
"Kevin Durant","Kevin-Durant-1348","9100","SF/PF","38.00","232","34.0","103.10","29.50","33.00","67.65","23.7","44.8","0","0"
"Mikal Bridges","Mikal-Bridges-408842","4800","SG/SF","23.04","232","36.9","108.80","12.49","35.00","33.08","18.71","23.63","0","0"
"Julius Randle","Julius-Randle-18632","8000","PF/C","32.64","231","30.5","104.88","32.69","32.00","70.01","17.22","39.31","0","0"
"Ben Simmons","Ben-Simmons-35184","8400","PG/SF","19.78","229.5","39.3","108.33","23.87","35.00","59.64","24.6","41.13","0","0"
"Jimmy Butler","Jimmy-Butler-13327","7300","SG/SF","24.11","229.5","35.9","108.33","20.01","35.00","55.6","18.92","35.57","0","0"
"Jrue Holiday","Jrue-Holiday-1073","9200","PG/SG","37.77","231","35.1","104.88","27.93","38.00","66.47","21.7","44.64","0","0"
"Willie Cauley-Stein","Willie-Cauley-Stein-18951","5500","C","27.46","217","27.4","98.20","15.08","27.00","39.02","14.04","26.65","0","0"
"Jaron Blossomgame","Jaron-Blossomgame-570197","3100","SF/PF","24.48","220.5","7.6","103.60","13.53","24.00","20.97","11.67","14.98","0","0"
"Thomas Bryant ","Thomas-Bryant--37884","5200","PF/C","24.29","220.5","22.1","103.80","18.43","24.00","49.66","3.08","24.84","0","0"
"Taj Gibson","Taj-Gibson-1277","4000","PF/C","31.16","231","22.0","100.67","13.19","24.00","33.56","7.86","19.12","0","0"
"Harry Giles","Harry-Giles-37897","3400","PF/C","28.19","217","13.8","98.20","24.06","16.00","22.62","12.22","16.16","0","0"
"Bobby Portis","Bobby-Portis-18909","5300","PF/C","24.29","220.5","27.0","103.80","26.60","24.00","50.29","4.65","25.16","0","0"
"Rodney McGruder","Rodney-McGruder-16850","3200","SG/SF","23.99","217","4.8","106.90","16.74","23.00","30.32","3.79","15.17","0","0"
"George Hill","George-Hill-993","3600","PG/SG","20.07","222.5","22.0","98.80","15.07","23.00","31.34","4.56","17.06","0","0"
"Bam Adebayo","Bam-Adebayo-37835","4200","PF/C","32.14","217","22.8","106.90","14.05","20.00","32.95","5.09","19.9","0","0"
"Tobias Harris","Tobias-Harris-13332","6800","SF/PF","31.12","229.5","35.3","108.33","25.13","35.00","50.37","14.32","31.68","0","0"
"J.J. Redick","J.J.-Redick-1030","5400","SG/SF","20.34","229.5","29.5","108.33","22.60","32.00","42.28","10.16","25.08","0","0"
"Jordan McRae","Jordan-McRae-18772","3600","PG/SG","45.88","220.5","16.2","103.80","21.66","20.00","33.3","5.26","16.66","0","0"
"Noah Vonleh","Noah-Vonleh-18597","5000","PF/C","27.28","206","26.2","100.17","15.95","26.00","39.9","10.25","23.13","0","0"
"Ish Smith","Ish-Smith-13958","3400","PG","18.65","206","16.0","100.30","19.14","19.00","29.27","4.7","15.67","0","0"
"Andre Iguodala","Andre-Iguodala-1334","4100","SG/SF","20.36","232","25.3","103.10","11.92","24.00","31.92","9.08","18.61","0","0"
"Richaun Holmes","Richaun-Holmes-18905","4000","PF/C","30.53","232","21.7","108.80","13.76","17.00","36.18","3.82","18.1","0","0"
"Will Barton","Will-Barton-13982","5900","SG/SF","25.86","229.5","27.3","99.62","20.80","29.00","46.86","9.42","26.61","0","0"
"Buddy Hield","Buddy-Hield-35206","6600","SG/SF","23.63","217","33.7","98.20","24.23","33.00","51.23","12.88","29.68","0","0"
"Malik Beasley","Malik-Beasley-35213","5400","PG/SG","25.44","229.5","28.7","99.62","21.67","32.00","47.58","7.27","24.24","0","0"
"Mitchell Robinson","Mitchell-Robinson-408821","4300","C","31.50","206","19.6","100.17","12.93","20.00","27.05","15.05","19.32","0","0"
"Ante Zizic","Ante-Zizic-35180","5300","C","34.60","220.5","25.8","103.60","16.63","24.00","40.56","10.6","23.72","0","0"
"Larry Nance","Larry-Nance-18946","5800","PF/C","30.08","220.5","24.0","103.60","15.23","24.00","50.97","3.37","25.5","0","0"
"DeMarre Carroll","DeMarre-Carroll-1174","4900","SF/PF","29.31","224","26.9","114.62","20.22","25.00","42.8","5.52","21.41","0","0"
"Brook Lopez","Brook-Lopez-1498","5500","C","28.88","222.5","27.6","98.80","15.04","27.00","43.57","9.74","24.06","0","0"
"Langston Galloway","Langston-Galloway-18717","3300","PG/SG","21.45","206","17.4","100.30","16.93","20.00","28.35","3.54","14.18","0","0"
"Kevon Looney","Kevon-Looney-18945","4000","PF/C","33.53","232","19.6","103.10","16.16","20.00","32.26","6.5","17.16","0","0"
"James Johnson","James-Johnson-1195","4000","PF/C","31.84","217","21.7","106.90","18.67","23.00","33.95","8.94","17.12","0","0"
"Allonzo Trier","Allonzo-Trier-554950","4600","PG/SG","24.15","206","19.8","100.17","19.33","24.00","27.48","15.29","19.63","0","0"
"T.J. McConnell","T.J.-McConnell-18956","3700","PG/SG","19.78","229.5","22.4","108.33","14.69","20.00","31.48","3.37","15.75","0","0"
"Sviatoslav Mykhailiuk","Sviatoslav-Mykhailiuk-409280","3000","SG/SF","31.36","206","14.3","100.30","17.49","17.00","17.82","9.62","12.73","0","0"
"Josh Okogie","Josh-Okogie-409174","3600","SG/SF","31.11","231","25.6","100.67","15.71","23.00","21.32","12.32","15.23","0","0"
"E'Twaun Moore","E'Twaun-Moore-18582","4000","SG/SF","28.74","231","19.3","104.88","25.58","24.00","28.65","5.02","16.9","0","0"
"Frank Jackson","Frank-Jackson-37855","4200","PG/SG","37.77","231","25.7","104.88","21.78","24.00","24.7","13.97","17.64","0","0"
"Monte Morris","Monte-Morris-37860","5000","PG","39.21","229.5","32.2","99.62","17.58","25.00","29.23","16.54","20.88","0","0"
"Mike Scott","Mike-Scott-13999","3000","SF/PF","31.12","229.5","18.1","108.33","14.29","16.00","25.07","1.67","12.54","0","0"
"Sam Dekker","Sam-Dekker-18929","3300","SF/PF","26.57","220.5","17.0","103.80","14.78","16.00","24.14","2.3","13.09","0","0"
"Darius Miller","Darius-Miller-13951","4500","SF/PF","23.36","231","33.9","104.88","16.53","28.00","34.74","4.83","17.38","0","0"
"Mario Hezonja","Mario-Hezonja-18923","4500","SF/PF","24.76","206","26.4","100.17","18.92","20.00","34.16","4.1","17.09","0","0"
"Zaza Pachulia","Zaza-Pachulia-1455","3500","C","31.46","206","14.8","100.30","14.26","14.00","23.06","4.64","13.21","0","0"
"Treveon Graham","Treveon-Graham-36023","3400","SF/PF","29.31","224","23.7","114.62","11.87","22.00","20.3","4.01","12.76","0","0"
"Bruce Brown","Bruce-Brown-408913","3300","PG/SG","21.45","206","17.2","100.30","9.50","20.00","16.81","9.51","12.01","0","0"
"Nemanja Bjelica","Nemanja-Bjelica-31814","4200","PF","28.19","217","21.9","98.20","18.01","16.00","25.28","6.54","15.25","0","0"
"Torrey Craig","Torrey-Craig-37861","3500","SG/SF","25.44","229.5","23.8","99.62","12.49","20.00","25.31","3.01","12.66","0","0"
"James Ennis","James-Ennis-18599","3200","SF","27.56","229.5","26.8","108.33","9.92","18.00","22.97","3.58","11.49","0","0"
"Shaun Livingston","Shaun-Livingston-14007","3000","PG","24.47","232","14.3","103.10","11.56","15.00","20.92","2.76","10.7","0","0"
"Gorgui Dieng","Gorgui-Dieng-16939","3500","PF/C","31.16","231","14.1","100.67","18.16","12.00","22.67","3.14","12.25","0","0"
"Kevin Love","Kevin-Love-1347","7500","PF/C","30.08","220.5","0","103.60","0","20.00","42.02","8.61","26.1","0","0"
"Wayne Selden","Wayne-Selden-36045","4100","SG/SF","39.29","224","27.7","104.50","13.65","20.00","26.9","3.91","14.16","0","0"
"Alec Burks","Alec-Burks-13353","3800","PG/SG","22.83","217","33.7","98.20","18.69","15.00","26.23","2.85","13.12","0","0"
"Trey Lyles","Trey-Lyles-18942","3800","SF/PF","26.19","229.5","18.9","99.62","22.72","13.00","24.87","3.66","12.8","0","0"
"Dirk Nowitzki","Dirk-Nowitzki-1346","3000","PF/C","30.65","222.5","11.4","100.08","16.73","12.00","17.08","2.86","9.99","0","0"
"Devin Harris","Devin-Harris-1076","3800","PG/SG","36.49","222.5","15.7","100.08","17.70","16.00","24.11","2.84","12.52","0","0"
"Anthony Tolliver","Anthony-Tolliver-1263","3200","SF/PF","33.85","231","16.7","100.67","9.68","14.00","18.88","2.98","10.43","0","0"
"Allen Crabbe","Allen-Crabbe-16978","3900","SG/SF","19.33","224","13.4","114.62","17.88","16.00","25.19","3.6","12.6","0","0"
"Mason Plumlee","Mason-Plumlee-16798","5400","PF/C","32.72","229.5","23.3","99.62","22.23","18.00","33.44","4.51","17.15","0","0"
"Alfonzo McKinnie","Alfonzo-McKinnie-37808","3200","SG/SF","24.09","232","15.1","103.10","11.73","15.00","20.21","3.61","10.11","0","0"
"Shaquille Harrison","Shaquille-Harrison-36065","3500","PG/SG","24.93","224","17.9","104.50","11.34","13.00","21.41","3.06","10.71","0","0"
"Ryan Arcidiacono","Ryan-Arcidiacono-36050","3500","PG/SG","24.93","224","18.3","104.50","14.40","16.00","21.37","3.21","10.69","0","0"
"Caris LeVert","Caris-LeVert-35192","5300","PG/SF","44.91","224","0","114.62","0","15.00","27.23","6.01","15.57","0","0"
"Jahlil Okafor","Jahlil-Okafor-18902","6000","C","30.57","231","31.1","104.88","19.79","16.00","33.44","4.18","16.73","0","0"
"Jerryd Bayless","Jerryd-Bayless-1021","5600","PG/SG","31.11","231","36.5","100.67","18.83","22.00","28.98","5.33","15.5","0","0"
"Quinn Cook","Quinn-Cook-31771","3200","PG","41.65","232","13.0","103.10","21.33","10.00","17.03","1.62","8.52","0","0"
"Jonah Bolden","Jonah-Bolden-554969","3300","PF/C","31.12","229.5","11.1","108.33","12.15","10.00","12.18","6.58","8.7","0","0"
"Isaiah Canaan","Isaiah-Canaan-16875","3000","PG","39.80","231","13.1","100.67","20.01","10.00","14.96","2.67","7.75","0","0"
"Marquese Chriss","Marquese-Chriss-35230","3000","PF/C","30.08","220.5","2.4","103.60","16.81","8.00","14.92","2.24","7.63","0","0"
"Tim Frazier","Tim-Frazier-18743","3900","PG","19.52","231","20.9","104.88","18.22","13.00","19.71","2.57","9.86","0","0"
"Kadeem Allen","Kadeem-Allen-37787","3500","PG/SG","20.30","206","20.5","100.17","13.83","12.00","17.65","1.36","8.83","0","0"
"Ian Mahinmi","Ian-Mahinmi-1357","3200","C","32.26","220.5","14.4","103.80","10.73","8.00","15.95","1.28","7.98","0","0"
"Jamal Crawford","Jamal-Crawford-1075","3600","PG/SG","26.52","232","20.2","108.80","18.37","11.00","15.32","1.98","8.23","0","0"
"Yogi Ferrell","Yogi-Ferrell-35999","3400","PG/SG","35.60","217","16.8","98.20","16.00","10.00","14.9","2.03","7.55","0","0"
"Luol Deng","Luol-Deng-1328","3500","SF/PF","24.11","231","20.6","100.67","15.38","10.00","15.45","2.26","7.73","0","0"
"Lance Thomas","Lance-Thomas-13363","3000","SF/PF","22.65","206","21.8","100.17","9.50","10.00","12.87","1.69","6.44","0","0"
"Timothe Luwawu-Cabarrot","Timothe-Luwawu-Cabarrot-35183","3000","SG/SF","23.00","224","19.4","104.50","23.55","10.00","12.45","1.73","6.23","0","0"
"Jabari Parker","Jabari-Parker-18593","5000","SF/PF","31.50","220.5","17.9","103.80","20.69","10.00","19.79","1.62","10.09","0","0"
"Elie Okobo","Elie-Okobo-409300","3800","PG","19.93","232","25.7","108.80","13.71","11.00","10.4","5.62","7.43","0","0"
"Rodions Kurucs","Rodions-Kurucs-408801","3500","SF/PF","31.72","224","22.9","114.62","19.99","8.00","9.58","3.97","6.84","0","0"
"Juancho Hernangomez","Juancho-Hernangomez-35212","3300","SF/PF","26.19","229.5","13.0","99.62","11.78","8.00","11.47","1.19","5.74","0","0"
"Glenn Robinson","Glenn-Robinson-18621","3000","SF/PF","31.36","206","6.7","100.30","20.46","8.00","7.01","3.65","4.87","0","0"
"Boban Marjanovic","Boban-Marjanovic-31807","3000","C","32.75","229.5","11.6","108.33","22.38","4.00","9.2","0.84","4.6","0","0"
"Khyri Thomas","Khyri-Thomas-408839","3000","SG","21.45","206","6.3","100.30","17.04","6.00","5.99","3.24","4.28","0","0"
"Thon Maker","Thon-Maker-35194","3100","C","31.46","206","0","100.30","0","4.00","6.42","0.96","3.21","0","0"
"Trey Burke","Trey-Burke-17029","3800","PG/SG","36.49","222.5","23.5","100.08","25.72","4.00","6.63","1.02","3.91","0","0"
"Luke Kornet","Luke-Kornet-37800","4300","PF/C","27.28","206","18.4","100.17","21.01","4.00","7.07","1.2","3.72","0","0"
"Dragan Bender","Dragan-Bender-35228","3900","PF/C","27.24","232","15.3","108.80","14.04","4.00","5.94","0.99","2.97","0","0"
"Jordan Bell","Jordan-Bell-37877","3200","PF/C","33.53","232","11.0","103.10","18.56","1.00","1.82","0.19","0.91","0","0"
"Jonas Jerebko","Jonas-Jerebko-1106","3300","SF/PF","38.00","232","8.1","103.10","15.63","1.00","1.58","0.17","0.8","0","0"
