"nameCol","idCol","salaryCol","positionCol","dvpCol","ouCol","mpgCol","paceCol","usgCol","pminCol","ceilCol","floorCol","pointsCol","predictCol","actualCol"
"Mason Plumlee","Mason-Plumlee-16798","3900","PF/C","59.12","222.5","16.3","99.62","16.15","30.00","75.0","10.73","37.52","0","0"
"Shabazz Napier","Shabazz-Napier-18598","3600","PG/SG","43.09","221.5","14.8","114.62","27.71","27.00","54.37","7.78","27.67","0","0"
"Elie Okobo","Elie-Okobo-409300","3000","PG","39.03","222.5","14.0","108.80","18.64","28.00","28.45","16.09","20.32","0","0"
"Jerryd Bayless","Jerryd-Bayless-1021","3600","PG/SG","41.12","218","19.6","100.67","21.38","34.00","45.46","5.98","22.74","0","0"
"Derrick Jones","Derrick-Jones-36064","3900","SF/PF","37.77","207","16.7","106.90","18.02","26.00","48.78","7.52","24.4","0","0"
"Bobby Portis","Bobby-Portis-18909","5700","PF/C","60.17","222.5","22.3","104.50","24.74","30.00","70.56","6.53","35.3","0","0"
"Jaren Jackson","Jaren-Jackson-409099","5400","PF/C","57.61","214","26.9","103.30","22.02","28.00","41.44","23.44","29.6","0","0"
"Justin Holiday","Justin-Holiday-14559","4100","SG/SF","41.66","214","26.4","103.30","14.88","35.00","47.63","15.42","27","0","0"
"Tyler Johnson","Tyler-Johnson-18720","4200","PG/SG","56.92","207","29.0","106.90","18.14","32.00","42.3","8.43","25.33","0","0"
"Kelly Oubre","Kelly-Oubre-18925","5600","SG/SF","37.53","222.5","28.6","108.80","27.00","34.00","60.04","9.39","33.3","0","0"
"Paul Millsap","Paul-Millsap-1335","5100","PF/C","47.22","222.5","23.8","99.62","18.35","28.00","48.34","12.17","29.6","0","0"
"Trey Burke","Trey-Burke-17029","3500","PG/SG","50.60","221.5","25.0","100.17","22.19","20.00","35.44","5.97","20.39","0","0"
"Jamal Murray","Jamal-Murray-35211","7100","PG/SG","53.24","222.5","29.7","99.62","26.98","34.00","60.33","14.03","39.51","0","0"
"Mikal Bridges","Mikal-Bridges-408842","3700","SG/SF","37.53","222.5","27.6","108.80","10.95","32.00","30.03","14.91","21.45","0","0"
"Dennis Smith Jr.","Dennis-Smith-Jr.-37847","4800","PG","52.34","207.5","36.0","100.08","26.76","31.00","46.92","11.42","27.78","0","0"
"Jarrett Allen","Jarrett-Allen-37794","5800","C","56.12","221.5","29.0","114.62","16.76","28.00","66.17","14.3","33.1","0","0"
"Austin Rivers","Austin-Rivers-13903","4300","PG/SG","40.80","228","35.4","101.42","13.35","37.00","48.82","5.64","24.42","0","0"
"Shai Gilgeous-Alexander","Shai-Gilgeous-Alexander-408990","4300","PG/SG","41.08","222.5","25.6","108.38","22.22","30.00","33.96","19.63","24.26","0","0"
"Mike Conley","Mike-Conley-1062","7700","PG","45.72","214","31.4","103.30","24.66","34.00","71","15.08","40","0","0"
"D.J. Wilson","D.J.-Wilson-37822","3400","PF/C","48.55","229.5","18.5","98.80","14.84","20.00","38.18","4.58","19.1","0","0"
"Marvin Williams","Marvin-Williams-1318","4600","SF/PF","44.48","229.5","27.4","103.00","14.73","31.00","51.41","6.12","25.72","0","0"
"Eric Gordon","Eric-Gordon-1077","5300","SG/SF","49.19","228","28.8","101.42","25.50","36.00","49.26","10.07","29.53","0","0"
"Noah Vonleh","Noah-Vonleh-18597","5900","PF/C","58.68","221.5","24.6","100.17","16.59","32.00","55.67","14.02","32.67","0","0"
"Allonzo Trier","Allonzo-Trier-554950","4700","PG/SG","45.26","221.5","22.2","100.17","22.77","32.00","36.25","20.5","25.89","0","0"
"Karl-Anthony Towns","Karl-Anthony-Towns-18937","10000","C","54.49","218","31.0","100.67","30.86","37.00","86.62","29.04","55","0","0"
"Wesley Matthews","Wesley-Matthews-1339","4300","SG/SF","38.15","207.5","28.5","100.08","20.36","32.00","43.58","11.48","23.66","0","0"
"DeMarre Carroll","DeMarre-Carroll-1174","4700","SF/PF","41.03","221.5","28.5","114.62","20.99","30.00","51.61","6.66","25.82","0","0"
"Joe Harris","Joe-Harris-18587","4900","SG/SF","35.36","221.5","31.0","114.62","19.33","32.00","48.28","10.27","26.88","0","0"
"Damyean Dotson","Damyean-Dotson-37795","3600","SG/SF","33.12","221.5","27.0","100.17","12.48","24.00","35.97","4.93","19.73","0","0"
"Harrison Barnes","Harrison-Barnes-13901","5100","SF/PF","44.90","207.5","33.3","100.08","23.06","34.00","44.0","11.77","27.83","0","0"
"Patrick Beverley","Patrick-Beverley-14108","4800","PG/SG","41.08","222.5","31.0","108.38","11.26","34.00","46.52","9.83","26.21","0","0"
"Jeremy Lamb","Jeremy-Lamb-13955","5200","SG/SF","47.99","229.5","27.0","103.00","23.23","30.00","47.74","10.32","28.35","0","0"
"Devin Booker","Devin-Booker-18949","7900","PG/SG","49.38","222.5","30.7","108.80","34.05","36.00","77.52","18.18","43.09","0","0"
"Marvin Bagley III","Marvin-Bagley-III-409321","5300","PF/C","42.43","214","25.5","98.20","24.35","29.00","40.35","22.45","28.82","0","0"
"Montrezl Harrell","Montrezl-Harrell-18930","6700","PF/C","62.45","222.5","28.7","108.38","20.92","30.00","60.54","4.39","36.25","0","0"
"Reggie Jackson","Reggie-Jackson-13352","4700","PG/SG","55.77","207.5","30.6","100.30","18.36","28.00","38.5","13.5","25.38","0","0"
"Lauri Markkanen","Lauri-Markkanen-37809","6500","PF","49.61","222.5","30.4","104.50","22.38","32.00","64.57","17.57","35.13","0","0"
"Giannis Antetokounmpo","Giannis-Antetokounmpo-16852","10700","SF/PF","48.55","229.5","28.4","98.80","35.56","34.00","80.84","33.49","57.74","0","0"
"Michael Kidd-Gilchrist","Michael-Kidd-Gilchrist-13896","3600","SF/PF","39.05","229.5","22.6","103.00","13.84","23.00","38.68","7.88","19.35","0","0"
"Bradley Beal","Bradley-Beal-13898","8900","SG","46.22","217.5","41.2","103.80","32.10","37.00","74.36","24.34","47.82","0","0"
"Kyle Korver","Kyle-Korver-1269","3600","SG/SF","39.59","218","23.1","98.88","18.77","25.00","38.64","5.08","19.33","0","0"
"Dwyane Wade","Dwyane-Wade-967","4700","PG/SG","49.24","207","24.3","106.90","26.35","24.00","39.3","7.61","25.21","0","0"
"Jonathan Isaac","Jonathan-Isaac-37841","4700","SF/PF","47.25","217.5","30.3","105.10","13.36","32.00","43.78","7.34","25.13","0","0"
"Jerian Grant","Jerian-Grant-18900","3200","PG","46.98","217.5","18.0","105.10","19.44","20.00","31.94","3.98","17.1","0","0"
"Andrew Wiggins","Andrew-Wiggins-18620","5700","SG/SF","41.12","218","35.6","100.67","24.27","37.00","46.47","11.79","30.39","0","0"
"Bam Adebayo","Bam-Adebayo-37835","4300","PF/C","50.06","207","25.0","106.90","14.46","23.00","37.86","5.85","22.86","0","0"
"Josh Okogie","Josh-Okogie-409174","4400","SG/SF","41.12","218","26.1","100.67","19.06","34.00","32.7","18.9","23.36","0","0"
"Malcolm Brogdon","Malcolm-Brogdon-35195","5800","PG/SG","51.55","229.5","27.8","98.80","22.40","32.00","56.49","10.72","30.55","0","0"
"Justise Winslow","Justise-Winslow-18921","6200","PG/SF","56.92","207","30.0","106.90","22.24","32.00","57.3","15.91","32.67","0","0"
"Trey Lyles","Trey-Lyles-18942","3800","SF/PF","47.22","222.5","17.0","99.62","25.92","20.00","38.24","5.25","19.44","0","0"
"Evan Fournier","Evan-Fournier-13913","5600","SG/SF","40.06","217.5","35.7","105.10","20.77","35.00","45.25","12.46","29.31","0","0"
"Derrick Favors","Derrick-Favors-1266","5000","PF/C","53.37","218","21.3","98.88","19.41","25.00","43.76","11.5","26.14","0","0"
"Kemba Walker","Kemba-Walker-13335","8100","PG","47.89","229.5","33.4","103.00","32.63","34.00","77.38","19.12","42.4","0","0"
"Josh Jackson","Josh-Jackson-37890","5500","SF/PF","43.48","222.5","25.3","108.80","24.92","32.00","53.56","12.91","28.75","0","0"
"Bismack Biyombo","Bismack-Biyombo-13312","4100","C","48.08","229.5","22.1","103.00","12.76","25.00","36.2","6.42","21.41","0","0"
"Khris Middleton","Khris-Middleton-13990","6400","SG/SF","49.69","229.5","29.3","98.80","26.43","31.00","47.21","11.5","33.34","0","0"
"Kenneth Faried","Kenneth-Faried-13313","5300","PF/C","51.94","228","20.3","101.42","19.57","27.00","55.11","3.39","27.57","0","0"
"Rodney Hood","Rodney-Hood-18629","4000","SG/SF","45.38","207","22.4","103.60","22.69","26.00","33.7","8.57","20.79","0","0"
"Jordan Clarkson","Jordan-Clarkson-18631","4600","PG/SG","45.38","207","25.1","103.60","25.00","25.00","47.66","8.3","23.84","0","0"
"Nikola Vucevic","Nikola-Vucevic-13296","9700","C","60.06","217.5","32.9","105.10","30.19","34.00","79.74","19.21","50.28","0","0"
"Ricky Rubio","Ricky-Rubio-1001","5700","PG","39.29","218","18.5","98.88","29.84","28.00","46.47","12.94","29.54","0","0"
"Otto Porter","Otto-Porter-17069","6100","SF/PF","32.84","217.5","33.6","103.80","20.56","34.00","62.93","9.63","31.48","0","0"
"Frank Ntilikina","Frank-Ntilikina-37796","3700","PG/SG","40.55","221.5","24.0","100.17","20.06","28.00","36.23","4.23","19.07","0","0"
"D'Angelo Russell","D'Angelo-Russell-18947","8600","PG/SG","53.43","221.5","31.3","114.62","33.79","32.00","69.55","21.44","44.3","0","0"
"Gary Harris","Gary-Harris-18617","5000","SG","49.31","222.5","20.7","99.62","22.20","28.00","34.57","8.79","24.69","0","0"
"Kyle Lowry","Kyle-Lowry-1057","7500","PG","49.84","228","34.6","105.50","21.73","34.00","66.92","18.78","38.57","0","0"
"Will Barton","Will-Barton-13982","6100","SG/SF","49.31","222.5","20.4","99.62","24.89","28.00","53.14","17.45","33.36","0","0"
"Tomas Satoransky ","Tomas-Satoransky--36031","5500","PG/SG","52.57","217.5","35.4","103.80","18.00","35.00","55.54","9.45","28.05","0","0"
"Aaron Gordon","Aaron-Gordon-18601","6500","SF/PF","47.25","217.5","32.6","105.10","22.21","33.00","56.97","13.67","33.18","0","0"
"Bogdan Bogdanovic","Bogdan-Bogdanovic-37899","5600","SG/SF","43.31","214","29.7","98.20","26.68","30.00","55.99","9.14","28.48","0","0"
"Marc Gasol","Marc-Gasol-1493","8300","C","57.61","214","31.3","103.30","24.00","34.00","61.82","20.32","39.15","0","0"
"Kris Dunn","Kris-Dunn-35215","6600","PG/SG","51.65","222.5","29.0","104.50","20.37","32.00","57.75","19.07","33.52","0","0"
"Ante Zizic","Ante-Zizic-35180","5700","C","48.53","207","26.1","103.60","18.69","30.00","48.04","12.22","28.89","0","0"
"Pascal Siakam","Pascal-Siakam-35186","6400","PF/C","53.25","228","33.3","105.50","19.67","32.00","51.11","15.94","32.39","0","0"
"Serge Ibaka","Serge-Ibaka-1294","6300","PF/C","46.71","228","30.7","105.50","23.74","30.00","53.82","12.8","31.68","0","0"
"Willie Cauley-Stein","Willie-Cauley-Stein-18951","5800","C","48.14","214","27.0","98.20","15.59","28.00","42.75","15.01","29.2","0","0"
"Ed Davis","Ed-Davis-1265","3800","C","56.12","221.5","16.8","114.62","11.29","20.00","38.1","5.53","19.06","0","0"
"Rudy Gobert","Rudy-Gobert-16935","8500","C","49.69","218","33.4","98.88","19.09","35.00","68.84","22.78","42.65","0","0"
"Gerald Green","Gerald-Green-13374","4200","SG/SF","49.19","228","28.4","101.42","18.48","28.00","36.43","6.02","21.06","0","0"
"Reggie Bullock","Reggie-Bullock-16943","4400","SG/SF","37.10","207.5","31.7","100.30","18.22","34.00","39.91","10.34","22.04","0","0"
"Kevin Knox","Kevin-Knox-408820","5200","SF/PF","45.26","221.5","31.6","100.17","20.94","34.00","36.34","18.04","25.96","0","0"
"James Johnson","James-Johnson-1195","3700","PF/C","49.11","207","22.0","106.90","14.59","23.00","26.79","8.47","18.46","0","0"
"Omri Casspi","Omri-Casspi-1270","3500","SF/PF","38.95","214","22.5","103.30","17.36","20.00","33.84","4.06","16.93","0","0"
"Cedi Osman","Cedi-Osman-18912","4800","SF/PF","37.69","207","29.0","103.60","18.30","32.00","40.11","11.83","23.89","0","0"
"Kawhi Leonard","Kawhi-Leonard-13310","9500","SF/PF","46.63","228","35.3","105.50","32.03","35.00","69.86","17.97","47.17","0","0"
"DeAndre Jordan","DeAndre-Jordan-1486","7100","C","51.82","207.5","30.7","100.08","15.14","32.00","49.35","21.61","35.25","0","0"
"James Harden","James-Harden-1037","13800","PG/SG","47.14","228","37.6","101.42","48.20","39.00","95.68","49.61","68.34","0","0"
"Nicolas Batum","Nicolas-Batum-1315","4800","SG/SF","39.05","229.5","29.4","103.00","14.40","33.00","43.03","9.06","23.72","0","0"
"George Hill","George-Hill-993","3300","PG/SG","43.85","229.5","19.2","98.80","15.20","22.00","31.49","4.33","16.29","0","0"
"Garrett Temple","Garrett-Temple-14077","3800","SG/SF","41.66","214","29.9","103.30","12.45","30.00","34.24","3.5","18.6","0","0"
"Hassan Whiteside","Hassan-Whiteside-18664","6900","C","50.06","207","24.2","106.90","19.69","27.00","47.28","15.5","33.77","0","0"
"Dragan Bender","Dragan-Bender-35228","4600","PF/C","52.46","222.5","18.4","108.80","19.97","30.00","44.92","7.01","22.47","0","0"
"Luke Kennard","Luke-Kennard-37814","3700","SG/SF","33.53","207.5","22.9","100.30","19.57","24.00","33.71","5.82","18.01","0","0"
"Tobias Harris","Tobias-Harris-13332","8200","SF/PF","47.50","222.5","36.3","108.38","21.43","36.00","63.58","18.1","39.79","0","0"
"Avery Bradley","Avery-Bradley-941","3900","SG","35.26","222.5","31.6","108.38","16.08","32.00","35.81","5.88","18.85","0","0"
"De'Aaron Fox","De'Aaron-Fox-37900","7300","PG","49.60","214","31.0","98.20","25.25","31.00","56.04","17.27","35.18","0","0"
"Tim Hardaway Jr.","Tim-Hardaway-Jr.-16879","5900","SG/SF","45.26","221.5","28.5","100.17","21.53","32.00","52.44","12.29","28.44","0","0"
"Luka Doncic","Luka-Doncic-408971","8400","PG/SF","44.43","207.5","31.3","100.08","33.33","33.00","56.53","23.46","40.38","0","0"
"Joe Ingles","Joe-Ingles-18627","5700","SG/SF","39.59","218","30.9","98.88","19.20","32.00","43.85","11.33","27.44","0","0"
"Willy Hernangomez","Willy-Hernangomez-18901","3900","C","48.08","229.5","16.3","103.00","18.25","16.00","37.38","4.53","18.7","0","0"
"Trevor Ariza","Trevor-Ariza-1323","6300","SF/PF","32.84","217.5","39.6","103.80","19.51","36.00","44.35","9.33","30.01","0","0"
"Alec Burks","Alec-Burks-13353","4500","PG/SG","45.38","207","24.0","103.60","19.20","24.00","37.18","8.85","21.43","0","0"
"Andre Drummond","Andre-Drummond-13904","8800","C","49.57","207.5","30.2","100.30","18.72","34.00","58.46","21.63","41.76","0","0"
"Treveon Graham","Treveon-Graham-36023","3500","SG/SF","41.03","221.5","27.7","114.62","12.06","28.00","26.88","5.37","16.58","0","0"
"Sam Dekker","Sam-Dekker-18929","3400","SF/PF","32.84","217.5","15.8","103.80","15.23","17.00","29.74","2.84","16.13","0","0"
"Zach LaVine","Zach-LaVine-18622","7200","PG/SG","51.65","222.5","29.6","104.50","30.59","33.00","52.38","16.67","34.1","0","0"
"Harry Giles","Harry-Giles-37897","3600","PF/C","42.43","214","18.0","98.20","20.41","18.00","23.87","13.28","17.05","0","0"
"Danny Green","Danny-Green-940","4500","SG/SF","37.04","228","27.4","105.50","16.49","30.00","33.03","7.26","21.28","0","0"
"Brook Lopez","Brook-Lopez-1498","5500","C","59.28","229.5","28.0","98.80","12.85","28.00","49.48","10.42","26.04","0","0"
"Mitchell Robinson","Mitchell-Robinson-408821","4000","C","60.94","221.5","13.7","100.17","12.34","18.00","26.39","14.93","18.85","0","0"
"Josh Richardson","Josh-Richardson-18922","6900","SG/SF","49.24","207","31.4","106.90","20.80","35.00","51.92","13.13","32.51","0","0"
"Chandler Hutchison","Chandler-Hutchison-408877","3900","SF/PF","35.13","222.5","28.6","104.50","10.81","28.00","25.49","14.42","18.21","0","0"
"Eric Bledsoe","Eric-Bledsoe-1031","7400","PG/SG","51.55","229.5","26.8","98.80","29.15","31.00","69.01","14.36","34.52","0","0"
"Jeff Green","Jeff-Green-1314","4300","SF/PF","48.48","217.5","28.8","103.80","20.56","26.00","37.72","7.34","19.85","0","0"
"P.J. Tucker","P.J.-Tucker-13947","5000","SF/PF","37.59","228","34.7","101.42","10.63","36.00","34.53","7.1","23.05","0","0"
"JaMychal Green","JaMychal-Green-18729","5200","SF/PF","57.61","214","20.7","103.30","23.81","22.00","43.3","4.44","21.66","0","0"
"Donovan Mitchell","Donovan-Mitchell-37875","8700","PG/SG","51.22","218","33.9","98.88","36.75","35.00","65.7","16.68","39.99","0","0"
"D.J. Augustin","D.J.-Augustin-1064","5100","PG","46.98","217.5","28.3","105.10","19.00","28.00","41.87","9.34","23.34","0","0"
"Thomas Bryant ","Thomas-Bryant--37884","5400","PF/C","49.86","217.5","23.8","103.80","18.47","24.00","49.48","3.07","24.75","0","0"
"Terrence Ross","Terrence-Ross-13902","5100","SG/SF","40.06","217.5","28.6","105.10","23.89","28.00","46.58","5.99","23.3","0","0"
"Rodions Kurucs","Rodions-Kurucs-408801","4300","SF/PF","54.80","221.5","23.3","114.62","17.51","26.00","27.54","15.58","19.67","0","0"
"Jae Crowder","Jae-Crowder-13942","5000","SF/PF","39.02","218","28.0","98.88","22.47","28.00","45.28","4.92","22.65","0","0"
"Lou Williams","Lou-Williams-1044","6700","PG/SG","45.37","222.5","25.6","108.38","33.00","27.00","60.65","6.74","30.34","0","0"
"Cameron Payne","Cameron-Payne-18941","3500","PG/SG","39.44","207","18.1","103.60","19.24","20.00","26.98","4.51","15.78","0","0"
"Mohamed Bamba","Mohamed-Bamba-409026","3500","C","55.69","217.5","15.0","105.10","17.16","14.00","22.09","13.24","15.78","0","0"
"Taj Gibson","Taj-Gibson-1277","4500","PF/C","52.67","218","25.4","100.67","17.77","26.00","35.4","8.29","20.17","0","0"
"Fred VanVleet","Fred-VanVleet-36011","4600","PG/SG","40.10","228","27.0","105.50","18.73","23.00","39.1","5.49","20.58","0","0"
"Wayne Selden","Wayne-Selden-36045","3200","SG/SF","51.65","222.5","20.1","104.50","15.52","18.00","27.04","2.95","14.23","0","0"
"Blake Griffin","Blake-Griffin-1503","9900","PF/C","54.58","207.5","37.3","100.30","33.04","36.00","80.1","24.29","43.84","0","0"
"Rondae Hollis-Jefferson","Rondae-Hollis-Jefferson-18897","3700","PF/C","54.80","221.5","9.2","114.62","22.93","17.00","32.64","4.08","16.33","0","0"
"Jamal Crawford","Jamal-Crawford-1075","3500","PG/SG","43.48","222.5","21.7","108.80","15.28","20.00","28.67","3.7","15.4","0","0"
"Sterling Brown","Sterling-Brown-37821","3400","SG/SF","37.91","229.5","21.3","98.80","15.53","20.00","29.91","4.4","14.96","0","0"
"Rodney McGruder","Rodney-McGruder-16850","3200","SG/SF","37.77","207","16.6","106.90","16.69","18.00","28.09","3.51","14.05","0","0"
"Quincy Acy","Quincy-Acy-13972","3400","PF/C","52.46","222.5","12.3","108.80","12.42","18.00","29.81","3.55","14.91","0","0"
"Dwight Powell","Dwight-Powell-18566","3400","PF/C","53.06","207.5","14.5","100.08","19.17","15.00","29.04","4.49","14.83","0","0"
"Marcin Gortat","Marcin-Gortat-1479","3300","C","56.62","222.5","12.6","108.38","16.24","16.00","26.07","6.54","14.37","0","0"
"Monte Morris","Monte-Morris-37860","3700","PG","53.24","222.5","21.3","99.62","15.85","18.00","21.71","13.01","15.51","0","0"
"Royce O'Neale","Royce-O'Neale-37872","4100","SF","39.02","218","33.0","98.88","11.53","24.00","35.26","6.09","17.65","0","0"
"Iman Shumpert","Iman-Shumpert-13350","3900","SG/SF","38.36","214","26.4","98.20","17.83","23.00","28.76","5.77","16.76","0","0"
"Bruce Brown","Bruce-Brown-408913","3500","PG/SG","33.53","207.5","21.3","100.30","13.19","23.00","20.71","11.97","14.79","0","0"
"Dorian Finney-Smith","Dorian-Finney-Smith-36032","3600","SF/PF","34.68","207.5","23.7","100.08","11.88","21.00","29.06","5.56","15.02","0","0"
"Dario Saric","Dario-Saric-36004","4000","PF","48.25","218","20.0","100.67","15.12","20.00","28.37","3.91","16.65","0","0"
"Buddy Hield","Buddy-Hield-35206","6800","SG/SF","38.36","214","31.5","98.20","23.66","30.00","51.01","11.03","28.15","0","0"
"Collin Sexton","Collin-Sexton-408896","5000","PG","48.99","207","30.6","103.60","24.10","30.00","28.88","16.34","20.63","0","0"
"Devonte' Graham","Devonte'-Graham-408968","3100","PG/SG","43.01","229.5","8.5","103.00","16.62","16.00","17.93","9.98","12.81","0","0"
"Matthew Dellavedova","Matthew-Dellavedova-16839","3200","PG/SG","39.44","207","17.0","103.60","20.39","16.00","26.35","3.29","13.18","0","0"
"Langston Galloway","Langston-Galloway-18717","3400","PG/SG","33.53","207.5","18.7","100.30","15.46","18.00","27.61","3.69","13.81","0","0"
"Larry Nance","Larry-Nance-18946","5800","PF/C","55.70","207","0","103.60","0","22.00","46.96","2.98","23.49","0","0"
"Justin Jackson","Justin-Jackson-37895","3400","SF/PF","38.36","214","19.5","98.20","12.26","21.00","26.71","3.59","13.76","0","0"
"Torrey Craig","Torrey-Craig-37861","3900","SG/SF","35.11","222.5","26.3","99.62","10.54","26.00","31.56","3.41","15.79","0","0"
"Malik Monk","Malik-Monk-37827","3300","PG/SG","47.89","229.5","15.6","103.00","23.79","16.00","26.1","3.86","13.31","0","0"
"Jose Calderon","Jose-Calderon-1071","3100","PG","42.02","207.5","13.0","100.30","15.20","18.00","24.39","3.39","12.2","0","0"
"OG Anunoby","OG-Anunoby-37807","3200","SF/PF","37.04","228","21.5","105.50","15.27","17.00","22.91","3.33","12.47","0","0"
"Jabari Parker","Jabari-Parker-18593","4200","SF/PF","49.61","222.5","16.2","104.50","26.56","16.00","31.81","2.61","16.22","0","0"
"Shelvin Mack","Shelvin-Mack-13354","3500","PG/SG","45.72","214","20.9","103.30","24.04","17.00","22.84","2.19","13.11","0","0"
"Ersan Ilyasova","Ersan-Ilyasova-1301","3200","PF/C","48.55","229.5","15.5","98.80","11.18","14.00","22.5","2.34","12.26","0","0"
"Anthony Tolliver","Anthony-Tolliver-1263","3300","SF/PF","48.25","218","12.3","100.67","9.85","16.00","22.79","3.6","12.59","0","0"
"Delon Wright","Delon-Wright-18907","3600","PG/SG","40.10","228","19.1","105.50","18.87","16.00","21.11","6.0","13.75","0","0"
"Maxi Kleber","Maxi-Kleber-37845","4000","PF/C","44.90","207.5","22.7","100.08","10.94","18.00","30.1","3.48","15.06","0","0"
"James Ennis","James-Ennis-18599","3600","SF/PF","37.59","228","22.3","101.42","11.79","20.00","27.05","4.22","13.53","0","0"
"Ryan Arcidiacono","Ryan-Arcidiacono-36050","3200","PG","43.55","222.5","18.0","104.50","13.50","18.00","23.99","3.86","12","0","0"
"Chasson Randle","Chasson-Randle-36002","3100","PG/SG","52.57","217.5","14.2","103.80","14.87","15.00","22.79","2.74","11.4","0","0"
"Yogi Ferrell","Yogi-Ferrell-35999","3600","PG/SG","49.60","214","18.2","98.20","15.10","17.00","26.04","4.07","13.2","0","0"
"Miles Bridges","Miles-Bridges-409262","3300","SF/PF","44.48","229.5","16.1","103.00","17.44","16.00","16.94","9.43","12.1","0","0"
"Jerome Robinson","Jerome-Robinson-409263","3000","SG","52.98","222.5","9.5","108.38","16.48","14.00","15.29","8.51","10.92","0","0"
"Johnathan Motley","Johnathan-Motley-37844","3200","PF/C","47.50","222.5","10.6","108.38","30.22","12.00","22.69","3.04","11.35","0","0"
"Robin Lopez","Robin-Lopez-1466","3700","C","59.34","222.5","17.2","104.50","16.60","18.00","23.73","4.68","13.11","0","0"
"Gorgui Dieng","Gorgui-Dieng-16939","3200","PF/C","52.67","218","11.0","100.67","15.86","12.00","20.73","2.87","11.2","0","0"
"Devin Harris","Devin-Harris-1076","3200","PG/SG","52.34","207.5","12.8","100.08","21.98","14.00","21.38","2.52","11.1","0","0"
"Nene Hilario","Nene-Hilario-17321","3300","C","51.94","228","12.4","101.42","10.45","11.00","18.52","5.19","11.2","0","0"
"Jonathon Simmons","Jonathon-Simmons-31808","3600","SG/SF","45.21","217.5","20.7","105.10","17.24","16.00","23.63","1.82","11.82","0","0"
"Nemanja Bjelica","Nemanja-Bjelica-31814","3900","SF/PF","42.43","214","14.8","98.20","14.76","13.00","21.03","5.42","12.42","0","0"
"Shaquille Harrison","Shaquille-Harrison-36065","3500","PG/SF","43.55","222.5","16.0","104.50","16.83","15.00","22.15","3.17","11.08","0","0"
"Norman Powell","Norman-Powell-18908","3800","SG/SF","36.95","228","19.3","105.50","21.07","15.00","23.75","3.24","11.88","0","0"
"Lance Thomas","Lance-Thomas-13363","3000","SF/PF","33.12","221.5","16.0","100.17","9.62","15.00","18.53","2.58","9.27","0","0"
"Stanley Johnson","Stanley-Johnson-18913","3200","SF/PF","37.10","207.5","14.4","100.30","13.36","12.00","18.92","2.17","9.78","0","0"
"Ian Mahinmi","Ian-Mahinmi-1357","3200","C","51.90","217.5","9.5","103.80","11.09","10.00","18.93","1.58","9.47","0","0"
"Jared Terrell","Jared-Terrell-570239","3000","PG","41.12","218","7.0","100.67","32.37","14.00","12.0","6.68","8.57","0","0"
"Dirk Nowitzki","Dirk-Nowitzki-1346","3000","PF/C","53.06","207.5","9.8","100.08","19.31","10.00","14.55","2.43","8.51","0","0"
"Juancho Hernangomez","Juancho-Hernangomez-35212","3300","SF/PF","47.22","222.5","13.0","99.62","9.15","12.00","18.45","1.85","9.23","0","0"
"Jaron Blossomgame","Jaron-Blossomgame-570197","3400","SF/PF","37.69","207","17.3","103.60","12.44","15.00","13.03","7.04","9.31","0","0"
"Zaza Pachulia","Zaza-Pachulia-1455","4400","C","49.57","207.5","26.2","100.30","11.14","13.00","21.24","3.94","11.84","0","0"
"Troy Daniels","Troy-Daniels-17383","3100","SG","33.15","222.5","10.4","108.80","16.65","10.00","16.05","2.23","8.03","0","0"
"Joakim Noah","Joakim-Noah-1404","3400","C","54.68","214","11.8","103.30","16.23","10.00","16.19","2.62","8.1","0","0"
"Luol Deng","Luol-Deng-1328","3000","SF/PF","30.84","218","9.4","100.67","21.06","10.00","14.65","2.14","7.33","0","0"
"Greg Monroe","Greg-Monroe-1487","3400","C","54.93","228","11.4","105.50","25.39","8.00","14.02","2.66","8.24","0","0"
"Georges Niang","Georges-Niang-35193","3100","SF/PF","51.06","218","9.6","98.88","16.91","8.00","14.49","1.38","7.25","0","0"
"Sindarius Thornwell","Sindarius-Thornwell-37881","3000","SG/SF","38.86","222.5","6.2","108.38","11.26","9.00","12.17","1.17","6.09","0","0"
"Jevon Carter","Jevon-Carter-409100","3300","PG/SG","45.72","214","13.4","103.30","15.01","10.00","8.83","4.77","6.31","0","0"
"Malik Beasley","Malik-Beasley-35213","4200","PG/SG","35.11","222.5","29.8","99.62","13.28","8.00","12.31","1.76","6.16","0","0"
"Tony Snell","Tony-Snell-16872","3000","SG/SF","38.71","229.5","13.8","98.80","11.99","8.00","9.46","1.31","4.73","0","0"
"Troy Brown","Troy-Brown-409043","3000","SG/SF","32.84","217.5","6.5","103.80","10.75","6.00","6.59","3.73","4.71","0","0"
"Tyler Lydon","Tyler-Lydon-37862","3000","PF","47.22","222.5","6.0","99.62","13.88","8.00","6.41","3.84","4.58","0","0"
"Enes Kanter","Enes-Kanter-13299","4700","C","60.94","221.5","19.0","100.17","24.78","5.00","9.85","2.65","6.27","0","0"
"Gary Clark","Gary-Clark-570141","3400","PF/C","47.22","228","16.1","101.42","8.61","6.00","6.06","3.27","4.33","0","0"
