"nameCol","idCol","salaryCol","positionCol","dvpCol","ouCol","mpgCol","paceCol","usgCol","pminCol","ceilCol","floorCol","pointsCol","predictCol","actualCol"
"JaVale McGee","JaVale-McGee-1485","5000","C","49.30","221","20.6","112.50","21.62","25.00","45.64","15.82","29.62","0","0"
"Paul Millsap","Paul-Millsap-1335","6000","PF/C","51.53","216.5","25.1","99.62","21.83","30.00","56.1","22.55","35.35","0","0"
"Monte Morris","Monte-Morris-37860","4200","PG","48.11","216.5","21.0","99.62","20.99","28.00","34.62","3.91","24.73","0","0"
"Brandon Ingram","Brandon-Ingram-35227","6300","PG/SG","50.82","221","34.3","112.50","26.74","35.00","53.49","21.15","36.46","0","0"
"Lance Stephenson","Lance-Stephenson-947","3600","SG/SF","50.82","221","17.4","112.50","17.41","19.00","37.02","17.67","20.81","0","0"
"Lonzo Ball","Lonzo-Ball-37885","6400","PG","44.58","221","31.9","112.50","18.86","35.00","54.54","19.83","37","0","0"
"Al-Farouq Aminu","Al-Farouq-Aminu-1279","4800","SF/PF","36.95","216.5","29.6","104.50","14.09","31.00","41.29","19.35","27.29","0","0"
"Malik Beasley","Malik-Beasley-35213","4400","PG/SG","37.22","216.5","29.9","99.62","15.79","32.00","48.84","23.33","24.43","0","0"
"Cedi Osman","Cedi-Osman-18912","4200","SF/PF","38.77","221","30.3","103.60","17.29","30.00","33.6","12.64","23.33","0","0"
"Matthew Dellavedova","Matthew-Dellavedova-16839","3400","PG/SG","35.89","221","18.5","103.60","20.56","19.00","36.56","16.26","18.29","0","0"
"Torrey Craig","Torrey-Craig-37861","4500","SG/SF","37.22","216.5","28.1","99.62","12.66","30.00","46.16","19.29","23.82","0","0"
"Damian Lillard","Damian-Lillard-13900","8600","PG","49.37","216.5","33.1","104.50","29.14","35.00","69.23","24.17","45.1","0","0"
"Nikola Jokic","Nikola-Jokic-31812","10200","C","51.41","216.5","32.3","99.62","34.50","34.00","74.42","21.64","53.16","0","0"
"Kyle Kuzma","Kyle-Kuzma-37886","6900","SF/PF","48.42","221","31.6","112.50","26.80","35.00","50.65","18.17","35.9","0","0"
"Collin Sexton","Collin-Sexton-408896","4400","PG","52.90","221","28.3","103.60","24.66","30.00","31.84","4.34","22.74","0","0"
"Tristan Thompson","Tristan-Thompson-13308","6100","C","57.54","221","27.0","103.60","18.35","30.00","51.67","20.16","30.92","0","0"
"Michael Beasley","Michael-Beasley-1338","3800","SF/PF","48.42","221","15.0","112.50","33.19","16.00","34.25","15.23","19.08","0","0"
"Jamal Murray","Jamal-Murray-35211","7100","PG/SG","48.11","216.5","32.1","99.62","27.42","34.00","53.21","23.0","35.38","0","0"
"Rodney Hood","Rodney-Hood-18629","4100","SG/SF","49.62","221","23.0","103.60","16.02","25.00","31.54","12.38","20.39","0","0"
"Jusuf Nurkic","Jusuf-Nurkic-18619","8300","C","52.38","216.5","26.9","104.50","26.16","30.00","62.48","22.59","40.92","0","0"
"Cameron Payne","Cameron-Payne-18941","3800","PG/SG","35.89","221","17.2","103.60","20.52","20.00","31.25","14.94","18.6","0","0"
"C.J. McCollum","C.J.-McCollum-17121","6600","PG/SG","43.79","216.5","33.0","104.50","24.74","34.00","49.06","15.43","31.94","0","0"
"Evan Turner","Evan-Turner-1291","4100","SG/SF","43.79","216.5","21.9","104.50","17.10","24.00","31.75","14.03","19.82","0","0"
"Kentavious Caldwell-Pope","Kentavious-Caldwell-Pope-16869","4700","SG/SF","38.65","221","27.6","112.50","22.26","28.00","42.07","17.34","22.26","0","0"
"Alec Burks","Alec-Burks-13353","5100","PG/SG","49.62","221","28.8","103.60","16.44","27.00","39.27","15.2","24.05","0","0"
"Mason Plumlee","Mason-Plumlee-16798","4600","PF/C","50.76","216.5","18.9","99.62","17.12","20.00","38.39","17.14","21.29","0","0"
"Josh Hart","Josh-Hart-37889","5500","PG/SG","38.65","221","33.1","112.50","16.97","32.00","38.97","14.57","25.47","0","0"
"Zach Collins","Zach-Collins-37866","3700","PF/C","53.29","216.5","19.1","104.50","15.27","17.00","28.71","13.36","16.51","0","0"
"Meyers Leonard","Meyers-Leonard-13905","3400","PF/C","53.29","216.5","15.9","104.50","16.23","14.00","29.87","14.94","14.94","0","0"
"Jake Layman","Jake-Layman-35216","3500","SF/PF","36.95","216.5","18.0","104.50","16.28","19.00","27.64","13.12","15.29","0","0"
"Jordan Clarkson","Jordan-Clarkson-18631","5700","PG/SG","49.62","221","25.5","103.60","28.30","24.00","42.55","17.16","24.48","0","0"
"Seth Curry","Seth-Curry-16825","3500","PG/SG","32.94","216.5","19.3","104.50","19.22","19.00","27.76","12.48","14.86","0","0"
"Ivica Zubac","Ivica-Zubac-35226","3500","C","49.30","221","13.2","112.50","24.71","15.00","27.01","11.79","14.52","0","0"
"Nik Stauskas","Nik-Stauskas-18636","3200","SG/SF","32.94","216.5","14.0","104.50","18.31","17.00","22.23","9.43","12.51","0","0"
"Juan Hernangomez","Juan-Hernangomez-35212","3500","SF/PF","51.53","216.5","16.6","99.62","9.37","16.00","25.4","11.51","13.6","0","0"
"Jalen Jones","Jalen-Jones-35996","3300","SF/PF","38.77","221","17.7","103.60","17.79","17.00","25.31","10.72","12.66","0","0"
"Ante Zizic","Ante-Zizic-35180","3900","C","57.54","221","18.7","103.60","17.10","18.00","28.79","14.4","14.4","0","0"
"Will Barton","Will-Barton-13982","5200","SG/SF","44.56","216.5","15.0","99.62","34.32","16.00","24.52","8.58","16.35","0","0"
