"nameCol","idCol","salaryCol","positionCol","dvpCol","ouCol","mpgCol","paceCol","usgCol","pminCol","ceilCol","floorCol","pointsCol","predictCol","actualCol"
"Jakob Poeltl","Jakob-Poeltl-35187","3200","C","0","232","9.8","99.70","14.03","24.00","49.5","5.15","24.76","0","0"
"Pau Gasol","Pau-Gasol-1502","3200","C","0","232","10.3","99.70","21.93","19.00","44.21","10.01","24.77","0","0"
"Mason Plumlee","Mason-Plumlee-16798","4400","PF/C","0","226","20.2","99.62","21.74","30.00","63.9","8.62","32.77","0","0"
"Marco Belinelli","Marco-Belinelli-1033","4000","SG/SF","0","232","23.0","99.70","19.80","32.00","46.29","8.13","27.85","0","0"
"Davis Bertans","Davis-Bertans-36051","4100","SF/PF","0","232","27.9","99.70","17.20","32.00","52.09","8.5","26.06","0","0"
"Jamal Crawford","Jamal-Crawford-1075","3600","PG/SG","0","216.5","22.3","108.80","16.88","30.00","42.58","5.49","22.87","0","0"
"Bryn Forbes","Bryn-Forbes-36052","4300","PG/SG","0","232","31.0","99.70","15.92","32.00","42.22","7.08","25.76","0","0"
"Patty Mills","Patty-Mills-13977","4200","PG/SG","0","232","24.2","99.70","21.96","28.00","48.38","6.73","24.2","0","0"
"Deandre Ayton","Deandre-Ayton-409301","6500","C","0","216.5","33.5","108.80","20.76","32.00","52.09","30.1","37.21","0","0"
"Josh Jackson","Josh-Jackson-37890","5500","SF/PF","0","216.5","33.2","108.80","23.77","37.00","58.54","12.95","31.42","0","0"
"Elie Okobo","Elie-Okobo-409300","3500","PG","0","216.5","24.8","108.80","13.79","29.00","27.73","16.03","19.81","0","0"
"Willie Cauley-Stein","Willie-Cauley-Stein-18951","5500","C","0","235.5","28.6","98.20","15.01","29.00","45.41","16.35","31.02","0","0"
"Zach LaVine","Zach-LaVine-18622","6600","PG/SG","0","226.5","34.7","104.50","26.81","35.00","56.97","18.14","37.09","0","0"
"Sam Dekker","Sam-Dekker-18929","3300","SF/PF","0","229.5","16.3","103.80","12.58","23.00","34.06","3.25","18.47","0","0"
"Lauri Markkanen","Lauri-Markkanen-37809","6900","PF","0","226.5","33.7","104.50","21.90","34.00","67.94","19.14","38.58","0","0"
"Marvin Williams","Marvin-Williams-1318","4900","SF/PF","0","215.5","33.0","103.00","13.86","32.00","54.39","6.48","27.21","0","0"
"Cristiano Felicio","Cristiano-Felicio-31767","3000","C","0","226.5","7.9","104.50","10.93","20.00","32.93","2.95","16.64","0","0"
"Eric Gordon","Eric-Gordon-1077","4800","SG/SF","0","235.5","33.0","101.42","21.44","34.00","44.45","9.09","26.65","0","0"
"Jordan McRae","Jordan-McRae-18772","3400","PG/SG","0","229.5","15.6","103.80","22.41","23.00","37.62","5.38","18.82","0","0"
"Maxi Kleber","Maxi-Kleber-37845","4300","PF/C","0","215.5","21.3","100.08","10.79","28.00","47.52","6.37","23.77","0","0"
"Derrick Favors","Derrick-Favors-1266","4800","PF/C","0","216.5","20.4","98.88","14.46","25.00","44.78","12.11","26.45","0","0"
"Kris Dunn","Kris-Dunn-35215","6400","PG/SG","0","226.5","32.5","104.50","20.47","34.00","60.65","20.03","35.2","0","0"
"Tim Hardaway Jr.","Tim-Hardaway-Jr.-16879","4900","SG/SF","0","215.5","32.8","100.08","20.86","30.00","48.29","12.32","26.96","0","0"
"Joe Harris","Joe-Harris-18587","4700","SG/SF","0","226","28.6","114.62","19.23","32.00","45.91","9.76","25.56","0","0"
"Khris Middleton","Khris-Middleton-13990","6300","SG/SF","0","229.5","31.8","98.80","22.72","33.00","49.74","9.91","34.28","0","0"
"De'Aaron Fox","De'Aaron-Fox-37900","7200","PG","0","235.5","31.1","98.20","27.80","32.00","59.17","20.27","38.75","0","0"
"Trey Lyles","Trey-Lyles-18942","3700","SF/PF","0","226","18.6","99.62","22.69","20.00","38.61","5.68","19.87","0","0"
"Nikola Jokic","Nikola-Jokic-31812","10600","C","0","226","32.7","99.62","30.92","34.00","83.55","34.11","56.95","0","0"
"Kelly Oubre","Kelly-Oubre-18925","5800","SG/SF","0","216.5","32.3","108.80","23.14","32.00","57.48","9.17","31.07","0","0"
"Jarrett Allen","Jarrett-Allen-37794","5100","C","0","226","25.5","114.62","12.33","27.00","54.31","11.74","27.17","0","0"
"Marvin Bagley III","Marvin-Bagley-III-409321","5800","PF/C","0","235.5","28.2","98.20","25.76","29.00","43.16","23.31","30.83","0","0"
"Kenneth Faried","Kenneth-Faried-13313","7000","PF/C","0","235.5","30.8","101.42","20.02","33.00","57.95","19.54","37.22","0","0"
"James Harden","James-Harden-1037","12600","PG/SG","0","235.5","38.9","101.42","40.92","38.00","93.72","45.79","66.94","0","0"
"Joe Ingles","Joe-Ingles-18627","5400","SG/SF","0","216.5","32.4","98.88","18.90","32.00","46.4","11.26","28.57","0","0"
"Iman Shumpert","Iman-Shumpert-13350","3900","SG/SF","0","235.5","28.8","98.20","14.99","28.00","36.14","6.52","20.63","0","0"
"Shabazz Napier","Shabazz-Napier-18598","5300","PG/SG","0","226","25.1","114.62","29.26","27.00","54.82","7.84","27.9","0","0"
"Ricky Rubio","Ricky-Rubio-1001","6000","PG","0","216.5","27.6","98.88","23.77","30.00","49.64","13.32","31.56","0","0"
"Buddy Hield","Buddy-Hield-35206","6700","SG/SF","0","235.5","33.9","98.20","23.20","33.00","60.76","15.28","35.2","0","0"
"Bradley Beal","Bradley-Beal-13898","8600","SG","0","229.5","36.6","103.80","27.98","37.00","70.21","22.98","45.15","0","0"
"Dwight Powell","Dwight-Powell-18566","4500","PF/C","0","215.5","20.2","100.08","13.87","22.00","47.04","7.34","23.53","0","0"
"Draymond Green","Draymond-Green-13976","6300","PF/C","0","232","32.4","103.10","12.73","32.00","48.06","15.47","32.85","0","0"
"Jamal Murray","Jamal-Murray-35211","6400","PG/SG","0","226","25.9","99.62","20.07","32.00","49.93","11.86","33.13","0","0"
"Trevor Ariza","Trevor-Ariza-1323","5700","SF/PF","0","229.5","35.4","103.80","19.17","36.00","43.57","9.17","29.48","0","0"
"D'Angelo Russell","D'Angelo-Russell-18947","8100","PG/SG","0","226","30.1","114.62","35.23","32.00","65.69","20.25","41.84","0","0"
"Chris Paul","Chris-Paul-1087","7100","PG","0","235.5","28.5","101.42","23.01","30.00","53.85","16.75","36.73","0","0"
"Rudy Gay","Rudy-Gay-1341","5900","SF/PF","0","232","29.2","99.70","22.22","29.00","45.25","12.27","30.45","0","0"
"Jrue Holiday","Jrue-Holiday-1073","9000","PG/SG","0","226.5","36.1","104.88","28.16","37.00","74.37","22.18","46.31","0","0"
"Malcolm Brogdon","Malcolm-Brogdon-35195","5700","PG/SG","0","229.5","29.5","98.80","21.81","31.00","54.77","10.27","29.26","0","0"
"Cheick Diallo","Cheick-Diallo-35225","3700","PF/C","0","226.5","18.0","104.88","19.83","20.00","37.88","5.74","18.95","0","0"
"Malik Monk","Malik-Monk-37827","3800","PG/SG","0","215.5","19.8","103.00","26.47","22.00","38.14","5.64","19.45","0","0"
"Jeff Green","Jeff-Green-1314","5000","SF/PF","0","229.5","31.5","103.80","21.71","32.00","51.05","6.38","25.54","0","0"
"Dorian Finney-Smith","Dorian-Finney-Smith-36032","3900","SF/PF","0","215.5","26.3","100.08","14.33","30.00","37.23","10.25","19.9","0","0"
"D.J. Wilson","D.J.-Wilson-37822","3400","PF/C","0","229.5","19.1","98.80","13.54","20.00","34.64","4.16","17.33","0","0"
"Darius Miller","Darius-Miller-13951","4800","SF/PF","0","226.5","34.5","104.88","17.15","36.00","45.21","7.16","24.37","0","0"
"Klay Thompson","Klay-Thompson-13315","6200","SG","0","232","34.3","103.10","21.19","32.00","52.78","14.75","31.25","0","0"
"Harrison Barnes","Harrison-Barnes-13901","5700","SF/PF","0","215.5","34.2","100.08","23.73","34.00","44.67","12.13","28.67","0","0"
"DeMarcus Cousins","DeMarcus-Cousins-1490","6800","PF/C","0","232","24.5","103.10","28.32","25.00","49.46","18.53","34.18","0","0"
"Rudy Gobert","Rudy-Gobert-16935","8500","C","0","216.5","31.3","98.88","18.24","33.00","69.36","22.96","42.68","0","0"
"Mikal Bridges","Mikal-Bridges-408842","4600","SG/SF","0","216.5","35.2","108.80","12.16","36.00","32.17","18.59","22.98","0","0"
"Frank Jackson","Frank-Jackson-37855","4200","PG/SG","0","226.5","25.4","104.88","21.51","26.00","29.41","17.0","21.01","0","0"
"Kemba Walker","Kemba-Walker-13335","8800","PG","0","215.5","35.6","103.00","27.19","35.00","80.08","19.79","43.88","0","0"
"Tomas Satoransky ","Tomas-Satoransky--36031","5600","PG/SF","0","229.5","31.2","103.80","16.15","30.00","54.66","9.29","27.9","0","0"
"Giannis Antetokounmpo","Giannis-Antetokounmpo-16852","11400","SF/PF","0","229.5","33.3","98.80","32.68","33.00","79.42","32.39","56.73","0","0"
"Rodions Kurucs","Rodions-Kurucs-408801","3900","SF/PF","0","226","23.6","114.62","20.47","24.00","27.19","15.38","19.42","0","0"
"Kenrich Williams","Kenrich-Williams-570179","5000","SG/SF","0","226.5","26.1","104.88","14.60","30.00","34.8","20.11","24.86","0","0"
"Bogdan Bogdanovic","Bogdan-Bogdanovic-37899","5200","SG/SF","0","235.5","24.5","98.20","24.55","25.00","50.78","8.91","25.83","0","0"
"Eric Bledsoe","Eric-Bledsoe-1031","6800","PG","0","229.5","30.0","98.80","25.17","31.00","67.53","14.53","33.78","0","0"
"DeMarre Carroll","DeMarre-Carroll-1174","4500","SF/PF","0","226","27.5","114.62","19.66","25.00","44.56","5.75","22.29","0","0"
"Luka Doncic","Luka-Doncic-408971","9500","PG/SF","0","215.5","33.1","100.08","36.10","33.00","65.42","37.01","46.73","0","0"
"Jahlil Okafor","Jahlil-Okafor-18902","7300","C","0","226.5","31.2","104.88","21.40","33.00","63.38","14.99","35.95","0","0"
"Rondae Hollis-Jefferson","Rondae-Hollis-Jefferson-18897","4100","PF/C","0","226","19.9","114.62","22.31","20.00","40.28","5.04","20.15","0","0"
"Stephen Curry","Stephen-Curry-1079","9100","PG/SG","0","232","34.3","103.10","28.70","32.00","75.75","16.4","44.56","0","0"
"Ed Davis","Ed-Davis-1265","4100","C","0","226","19.0","114.62","15.76","20.00","39.48","5.73","19.75","0","0"
"Andre Iguodala","Andre-Iguodala-1334","3900","SG/SF","0","232","26.5","103.10","11.07","24.00","31.44","8.94","18.78","0","0"
"Wayne Selden","Wayne-Selden-36045","4500","SG/SF","0","226.5","27.5","104.50","14.97","32.00","37.78","8.53","21.59","0","0"
"Jae Crowder","Jae-Crowder-13942","4600","SF/PF","0","216.5","29.3","98.88","19.14","28.00","43.88","4.76","21.95","0","0"
"Nicolas Batum","Nicolas-Batum-1315","5000","SG/SF","0","215.5","34.1","103.00","13.51","32.00","43.21","9.1","23.82","0","0"
"Lonnie Walker","Lonnie-Walker-409137","3000","PG/SG","0","232","6.5","99.70","15.84","18.00","19.84","11.22","14.17","0","0"
"Donovan Mitchell","Donovan-Mitchell-37875","8700","PG/SG","0","216.5","34.9","98.88","34.05","35.00","67.8","16.7","40.94","0","0"
"Sterling Brown","Sterling-Brown-37821","3200","SG/SF","0","229.5","17.4","98.80","13.57","20.00","28.15","4.0","15.03","0","0"
"P.J. Tucker","P.J.-Tucker-13947","4400","SF/PF","0","235.5","35.7","101.42","10.42","34.00","32.8","6.31","20.63","0","0"
"Kevin Durant","Kevin-Durant-1348","9300","SF/PF","0","232","35.7","103.10","29.79","32.00","63.95","22.24","43.53","0","0"
"Jeremy Lamb","Jeremy-Lamb-13955","5600","SG/SF","0","215.5","25.2","103.00","22.42","28.00","44.0","9.51","26.13","0","0"
"Miles Bridges","Miles-Bridges-409262","3400","SF/PF","0","215.5","17.9","103.00","14.35","20.00","22.08","12.28","15.77","0","0"
"Cody Zeller","Cody-Zeller-16836","4300","C","0","215.5","22.7","103.00","11.87","22.00","32.33","7.31","19.76","0","0"
"Robin Lopez","Robin-Lopez-1466","4000","C","0","226.5","18.2","104.50","16.81","23.00","32.76","6.46","18.1","0","0"
"Brook Lopez","Brook-Lopez-1498","5500","C","0","229.5","28.5","98.80","14.99","27.00","46.39","9.98","24.94","0","0"
"Will Barton","Will-Barton-13982","6000","SG/SF","0","226","28.6","99.62","21.71","29.00","47.27","9.5","26.84","0","0"
"Troy Daniels","Troy-Daniels-17383","3100","SG","0","216.5","9.1","108.80","17.29","15.00","27.65","4.07","13.83","0","0"
"Kevon Looney","Kevon-Looney-18945","4000","PF/C","0","232","19.4","103.10","15.09","20.00","34.27","5.93","17.8","0","0"
"Tim Frazier","Tim-Frazier-18743","4100","PG","0","226.5","17.9","104.88","18.89","18.00","36.22","4.73","18.12","0","0"
"Michael Kidd-Gilchrist","Michael-Kidd-Gilchrist-13896","3700","SF/PF","0","215.5","20.2","103.00","15.56","20.00","32.62","6.64","16.32","0","0"
"Harry Giles","Harry-Giles-37897","3400","PF/C","0","235.5","13.2","98.20","20.91","15.00","20.93","11.3","14.95","0","0"
"Ian Mahinmi","Ian-Mahinmi-1357","3200","C","0","229.5","14.4","103.80","10.73","15.00","27.89","2.33","13.95","0","0"
"Nemanja Bjelica","Nemanja-Bjelica-31814","4200","PF","0","235.5","21.2","98.20","17.94","19.00","30.03","7.77","18.11","0","0"
"Kyle Korver","Kyle-Korver-1269","3800","SG/SF","0","216.5","20.1","98.88","19.26","20.00","31.98","4.21","16","0","0"
"George Hill","George-Hill-993","3500","PG/SG","0","229.5","21.5","98.80","14.67","20.00","28.43","4.06","14.71","0","0"
"Devonte' Graham","Devonte'-Graham-408968","3200","PG/SG","0","215.5","20.1","103.00","22.21","16.00","18.72","10.42","13.37","0","0"
"Malik Beasley","Malik-Beasley-35213","5700","PG/SG","0","226","25.7","99.62","21.02","30.00","46.35","7.08","23.61","0","0"
"Thomas Bryant ","Thomas-Bryant--37884","4900","PF/C","0","229.5","20.6","103.80","16.70","20.00","39.06","2.29","19.54","0","0"
"Jalen Brunson","Jalen-Brunson-409062","4300","PG/SG","0","215.5","20.4","100.08","19.72","22.00","23.24","12.55","16.6","0","0"
"Shaquille Harrison","Shaquille-Harrison-36065","3300","PG/SF","0","226.5","16.9","104.50","12.67","17.00","24.93","3.57","12.47","0","0"
"Julius Randle","Julius-Randle-18632","7700","PF/C","0","226.5","33.7","104.88","21.50","23.00","51.36","11.19","28.69","0","0"
"Richaun Holmes","Richaun-Holmes-18905","4500","PF/C","0","216.5","22.5","108.80","13.37","16.00","33.1","2.96","16.56","0","0"
"Juancho Hernangomez","Juancho-Hernangomez-35212","3300","SF/PF","0","226","12.0","99.62","11.12","16.00","24.21","2.51","12.11","0","0"
"Ian Clark","Ian-Clark-16922","3300","PG/SG","0","226.5","15.3","104.88","25.96","17.00","23.99","3.13","12","0","0"
"Yogi Ferrell","Yogi-Ferrell-35999","3400","PG/SG","0","235.5","15.2","98.20","18.00","16.00","24.33","3.32","12.33","0","0"
"Nene Hilario","Nene-Hilario-17321","3400","C","0","235.5","11.9","101.42","9.94","12.00","22.71","3.44","12.04","0","0"
"Shaun Livingston","Shaun-Livingston-14007","3000","PG","0","232","14.9","103.10","13.73","15.00","21.21","2.93","10.61","0","0"
"Timothe Luwawu-Cabarrot","Timothe-Luwawu-Cabarrot-35183","3000","SG/SF","0","226.5","0","104.50","0","13.00","13.69","9.48","10.53","0","0"
"Monte Morris","Monte-Morris-37860","6100","PG","0","226","31.6","99.62","16.22","24.00","29.89","16.91","21.35","0","0"
"Courtney Lee","Courtney-Lee-1025","3000","SG/SF","0","215.5","5.7","100.08","15.85","15.00","20.85","1.84","10.43","0","0"
"James Ennis","James-Ennis-18599","4000","SF/PF","0","235.5","26.7","101.42","10.33","23.00","27.01","3.97","13.51","0","0"
"Devin Harris","Devin-Harris-1076","3800","PG/SG","0","215.5","15.9","100.08","17.88","16.00","25.23","3.02","12.68","0","0"
"Chimezie Metu","Chimezie-Metu-409136","3000","PF/C","0","232","2.7","99.70","32.38","14.00","13.93","7.88","9.95","0","0"
"John Jenkins","John-Jenkins-13918","3000","PG/SG","0","229.5","3.9","103.80","13.57","12.00","13.68","7.61","9.77","0","0"
"Ryan Arcidiacono","Ryan-Arcidiacono-36050","3600","PG","0","226.5","18.7","104.50","12.98","18.00","23.17","3.48","11.59","0","0"
"Torrey Craig","Torrey-Craig-37861","4000","SG/SF","0","226","25.7","99.62","12.52","20.00","25.63","3.05","12.82","0","0"
"Jawun Evans","Jawun-Evans-37882","3000","PG","0","216.5","4.4","108.80","3.02","13.00","18.89","1.89","9.45","0","0"
"Austin Rivers","Austin-Rivers-13903","5100","PG/SG","0","235.5","30.0","101.42","15.29","23.00","31.26","3.61","15.64","0","0"
"Brandon Sampson","Brandon-Sampson-592172","3000","PG/SG","0","226.5","12.6","104.50","6.86","14.00","12.89","7.73","9.21","0","0"
"Allen Crabbe","Allen-Crabbe-16978","4100","SG/SF","0","226","0","114.62","0","16.00","25.17","3.6","12.59","0","0"
"Alfonzo McKinnie","Alfonzo-McKinnie-37808","3200","SG/SF","0","232","15.5","103.10","11.45","15.00","19.47","3.44","9.74","0","0"
"Georges Niang","Georges-Niang-35193","3100","SF/PF","0","216.5","10.8","98.88","13.52","10.00","18.53","1.76","9.27","0","0"
"Royce O'Neale","Royce-O'Neale-37872","3500","SF","0","216.5","20.2","98.88","12.11","15.00","20.82","3.59","10.42","0","0"
"Dirk Nowitzki","Dirk-Nowitzki-1346","3000","PF/C","0","215.5","10.7","100.08","17.54","10.00","14.69","2.3","8.73","0","0"
"Chasson Randle","Chasson-Randle-36002","3300","PG/SG","0","229.5","13.5","103.80","18.50","12.00","18.77","2.25","9.39","0","0"
"Raul Neto","Raul-Neto-31821","3700","PG","0","216.5","0","98.88","0","12.00","17.17","3.13","10.11","0","0"
"Ersan Ilyasova","Ersan-Ilyasova-1301","3200","PF/C","0","229.5","10.1","98.80","14.48","10.00","16.24","1.48","8.67","0","0"
"Treveon Graham","Treveon-Graham-36023","3400","SF/PF","0","226","24.0","114.62","11.38","17.00","14.96","2.99","9.23","0","0"
"Gerald Green","Gerald-Green-13374","4000","SG/SF","0","235.5","20.3","101.42","17.20","13.00","19.14","3.1","10.85","0","0"
"Justin Jackson","Justin-Jackson-37895","3300","SF/PF","0","235.5","13.3","98.20","13.27","14.00","16.85","2.37","8.67","0","0"
"Tony Snell","Tony-Snell-16872","3300","SG/SF","0","229.5","18.9","98.80","13.44","15.00","16.87","2.35","8.44","0","0"
"Bismack Biyombo","Bismack-Biyombo-13312","3700","C","0","215.5","19.4","103.00","10.30","10.00","18.79","2.17","9.4","0","0"
"Dante Cunningham","Dante-Cunningham-1259","3000","SF/PF","0","232","9.4","99.70","7.50","12.00","15.05","1.71","7.53","0","0"
"Quinn Cook","Quinn-Cook-31771","3200","PG","0","232","12.8","103.10","17.06","5.00","8.72","0.85","4.36","0","0"
"Tyler Lydon","Tyler-Lydon-37862","3000","PF","0","226","4.2","99.62","9.66","5.00","4.75","2.68","3.39","0","0"
"Jordan Bell","Jordan-Bell-37877","3200","PF/C","0","232","10.5","103.10","17.74","4.00","7.16","0.77","3.58","0","0"
"Jonas Jerebko","Jonas-Jerebko-1106","3300","SF/PF","0","232","2.1","103.10","18.78","4.00","7.03","0.75","3.59","0","0"
"Willy Hernangomez","Willy-Hernangomez-18901","3700","C","0","215.5","12.0","103.00","20.24","3.00","7.28","0.88","3.64","0","0"
"Pat Connaughton","Pat-Connaughton-18939","3200","SG/SF","0","229.5","17.1","98.80","14.61","4.00","6.14","0.85","3.07","0","0"
