"nameCol","idCol","salaryCol","positionCol","dvpCol","ouCol","mpgCol","paceCol","usgCol","pminCol","ceilCol","floorCol","pointsCol","predictCol","actualCol"
"Bobby Portis","Bobby-Portis-18909","4600","PF/C","52.76","212.5","17.2","104.50","30.49","28.00","61.81","5.94","30.92","0","0"
"Jabari Parker","Jabari-Parker-18593","3600","SF/PF","48.20","212.5","16.0","104.50","27.01","22.00","39.65","4.01","21.7","0","0"
"Kentavious Caldwell-Pope","Kentavious-Caldwell-Pope-16869","4700","SG/SF","42.08","227","26.9","112.50","19.31","34.00","41.68","12.02","26.18","0","0"
"Tyson Chandler","Tyson-Chandler-1482","3500","C","50.54","227","14.3","112.50","8.55","24.00","36.78","8.85","19.36","0","0"
"Lauri Markkanen","Lauri-Markkanen-37809","5900","PF","48.20","212.5","32.7","104.50","20.28","33.00","55.83","14.01","32.65","0","0"
"Paul George","Paul-George-1245","9800","SF/PF","44.24","227","37.3","102.62","29.30","36.00","83.99","24.43","52.66","0","0"
"Steven Adams","Steven-Adams-16848","7200","C","57.29","227","34.8","102.62","13.88","35.00","65.52","17.4","38.16","0","0"
"Brandon Ingram","Brandon-Ingram-35227","6300","PG/SG","46.71","227","34.1","112.50","25.51","36.00","50.56","14.07","33.33","0","0"
"Kris Dunn","Kris-Dunn-35215","6200","PG/SG","50.08","212.5","31.2","104.50","21.56","33.00","55.28","18.5","32.63","0","0"
"Paul Millsap","Paul-Millsap-1335","5800","PF/C","47.84","212.5","25.1","99.62","19.29","28.00","49.77","12.53","30.48","0","0"
"Nikola Jokic","Nikola-Jokic-31812","10600","C","61.09","212.5","31.4","99.62","35.00","33.00","78.92","33.44","55.54","0","0"
"Kyle Kuzma","Kyle-Kuzma-37886","6900","SF/PF","47.36","227","33.6","112.50","30.86","36.00","52.82","18.54","35.59","0","0"
"Russell Westbrook","Russell-Westbrook-1083","11800","PG","51.99","227","38.0","102.62","36.75","36.00","85.05","33.23","60.75","0","0"
"Lonzo Ball","Lonzo-Ball-37885","6400","PG","36.50","227","33.4","112.50","19.72","35.00","46.45","15.95","31.9","0","0"
"Jamal Murray","Jamal-Murray-35211","7300","PG/SG","53.49","212.5","32.1","99.62","28.10","33.00","55.0","12.79","36.02","0","0"
"Zach LaVine","Zach-LaVine-18622","6500","PG/SG","50.08","212.5","31.5","104.50","29.55","32.00","48.65","15.49","31.67","0","0"
"Dennis Schroder","Dennis-Schroder-18595","5700","PG/SG","51.99","227","26.5","102.62","25.03","28.00","45.1","7.54","27.5","0","0"
"Josh Hart","Josh-Hart-37889","4100","PG/SG","42.08","227","30.0","112.50","14.67","24.00","38.63","3.71","19.72","0","0"
"Jerami Grant","Jerami-Grant-18576","5500","PF","44.24","227","34.2","102.62","15.67","35.00","52.41","3.36","26.22","0","0"
"Chandler Hutchison","Chandler-Hutchison-408877","3700","SF/PF","38.26","212.5","26.3","104.50","13.58","28.00","23.65","11.74","16.89","0","0"
"Mason Plumlee","Mason-Plumlee-16798","4400","PF/C","56.16","212.5","18.6","99.62","18.89","20.00","40.04","5.73","20.03","0","0"
"Will Barton","Will-Barton-13982","5300","SG/SF","44.58","212.5","17.3","99.62","27.65","24.00","38.3","12.57","24.04","0","0"
"Gary Harris","Gary-Harris-18617","5200","SG","44.58","212.5","27.7","99.62","21.55","26.00","31.86","8.1","22.76","0","0"
"Michael Beasley","Michael-Beasley-1338","3600","SF/PF","47.36","227","13.1","112.50","34.05","14.00","29.01","3.66","15.06","0","0"
"Terrance Ferguson","Terrance-Ferguson-37871","3400","SG/SF","36.45","227","29.3","102.62","9.74","26.00","26.83","2.98","13.42","0","0"
"JaVale McGee","JaVale-McGee-1485","4800","C","50.54","227","19.6","112.50","18.67","16.00","37.32","4.67","18.67","0","0"
"Ryan Arcidiacono","Ryan-Arcidiacono-36050","3200","PG","38.82","212.5","18.3","104.50","11.76","19.00","24.63","3.7","12.32","0","0"
"Monte Morris","Monte-Morris-37860","3600","PG","53.49","212.5","20.8","99.62","19.47","17.00","19.31","11.57","13.79","0","0"
"Malik Beasley","Malik-Beasley-35213","4900","PG/SG","39.16","212.5","31.1","99.62","14.45","24.00","36.48","5.22","18.25","0","0"
"Robin Lopez","Robin-Lopez-1466","3100","C","52.81","212.5","10.4","104.50","16.92","16.00","22.67","2.72","11.34","0","0"
"Juan Hernangomez","Juan-Hernangomez-35212","3300","SF/PF","47.84","212.5","15.6","99.62","8.95","15.00","23.07","2.31","11.54","0","0"
"Wayne Selden","Wayne-Selden-36045","3300","SG/SF","50.08","212.5","12.6","104.50","16.06","14.00","21.83","3.17","11.49","0","0"
"Hamidou Diallo","Hamidou-Diallo-408800","3000","SG/SF","36.45","227","9.2","102.62","12.82","13.00","14.53","8.71","10.38","0","0"
"Torrey Craig","Torrey-Craig-37861","3900","SG/SF","39.16","212.5","27.5","99.62","11.14","20.00","25.77","2.78","12.89","0","0"
"Shaquille Harrison","Shaquille-Harrison-36065","3400","PG/SF","38.82","212.5","18.7","104.50","17.74","15.00","21.39","3.06","10.7","0","0"
"Patrick Patterson","Patrick-Patterson-1260","3300","PF/C","56.85","227","14.7","102.62","12.26","13.00","17.6","1.92","8.9","0","0"
"Lance Stephenson","Lance-Stephenson-947","3400","SG/SF","46.71","227","16.0","112.50","18.09","7.00","13.37","1.36","6.81","0","0"
"Abdel Nader","Abdel-Nader-35179","3200","SF","38.81","227","13.0","102.62","16.69","10.00","12.35","1.43","6.18","0","0"
"Sviatoslav Mykhailiuk","Sviatoslav-Mykhailiuk-409280","3000","SG/SF","40.58","227","8.4","112.50","15.58","8.00","8.08","4.57","5.77","0","0"
"Ivica Zubac","Ivica-Zubac-35226","3400","C","50.54","227","12.3","112.50","23.73","6.00","11.24","1.24","5.76","0","0"
"Nerlens Noel","Nerlens-Noel-18575","3400","C","57.29","227","11.7","102.62","15.10","8.00","7.74","4.42","5.53","0","0"
