"nameCol","idCol","salaryCol","positionCol","dvpCol","ouCol","mpgCol","paceCol","usgCol","pminCol","ceilCol","floorCol","pointsCol","predictCol","actualCol"
"Gary Clark","Gary-Clark-570141","3400","SF/PF","48.14","225","13.0","101.42","8.61","29.00","29.36","15.85","20.97","0","0"
"Justin Holiday","Justin-Holiday-14559","3400","SG/SF","35.64","212.5","17.7","103.30","15.03","26.00","39.1","3.76","19.56","0","0"
"James Harden","James-Harden-1037","13000","PG/SG","50.22","225","37.9","101.42","46.30","38.00","100.41","52.0","71.72","0","0"
"Ed Davis","Ed-Davis-1265","3600","C","53.65","225","18.9","114.62","13.84","19.00","37.18","5.47","18.6","0","0"
"Marc Gasol","Marc-Gasol-1493","7100","C","57.54","212.5","30.0","103.30","22.10","34.00","59.61","18.6","36.48","0","0"
"DeAndre Jordan","DeAndre-Jordan-1486","6800","C","50.64","217.5","29.6","100.08","14.21","32.00","48.73","21.34","34.81","0","0"
"Jaren Jackson","Jaren-Jackson-409099","5600","PF/C","57.54","212.5","27.7","103.30","20.21","28.00","40.08","16.63","28.63","0","0"
"Serge Ibaka","Serge-Ibaka-1294","6000","PF/C","43.62","223.5","30.2","105.50","21.76","30.00","51.99","12.36","30.6","0","0"
"Luka Doncic","Luka-Doncic-408971","8400","SG/SF","47.32","217.5","30.6","100.08","33.29","34.00","59.74","24.79","42.67","0","0"
"D'Angelo Russell","D'Angelo-Russell-18947","7300","PG/SG","49.34","225","30.6","114.62","32.46","30.00","57.29","16.4","37.03","0","0"
"Gerald Green","Gerald-Green-13374","4300","SG/SF","44.85","225","27.1","101.42","18.54","29.00","37.59","6.21","21.73","0","0"
"Mike Conley","Mike-Conley-1062","7600","PG","42.44","212.5","31.6","103.30","25.29","35.00","67.91","14.42","38.26","0","0"
"Spencer Dinwiddie","Spencer-Dinwiddie-18588","5400","PG/SG","49.34","225","25.1","114.62","23.61","27.00","45.15","6.57","27.05","0","0"
"P.J. Tucker","P.J.-Tucker-13947","4700","SF/PF","32.78","225","34.7","101.42","9.49","37.00","35.23","7.24","23.52","0","0"
"DeMar DeRozan","DeMar-DeRozan-1053","8100","SG/SF","48.74","217.5","36.3","99.70","27.48","35.00","74.46","21.01","40.4","0","0"
"Maxi Kleber","Maxi-Kleber-37845","4600","PF/C","50.51","217.5","21.0","100.08","11.63","27.00","45.2","5.22","22.61","0","0"
"Kyrie Irving","Kyrie-Irving-13334","8600","PG","46.87","223.5","29.0","101.75","27.39","34.00","59.0","21.2","42.14","0","0"
"Joe Harris","Joe-Harris-18587","4600","SG/SF","37.22","225","27.2","114.62","20.62","30.00","39.53","8.58","22.46","0","0"
"Austin Rivers","Austin-Rivers-13903","5400","PG/SG","40.17","225","37.4","101.42","15.27","38.00","52.63","6.08","26.33","0","0"
"Eric Bledsoe","Eric-Bledsoe-1031","6300","PG/SG","48.23","212.5","26.4","98.80","28.13","30.00","61.21","13.04","30.62","0","0"
"Bryn Forbes","Bryn-Forbes-36052","4500","PG/SG","56.17","217.5","32.7","99.70","16.06","31.00","43.6","7.63","21.81","0","0"
"DeMarre Carroll","DeMarre-Carroll-1174","5000","SF/PF","36.82","225","26.5","114.62","22.26","28.00","48.06","5.43","24.04","0","0"
"Brook Lopez","Brook-Lopez-1498","4700","C","50.98","212.5","27.1","98.80","12.97","28.00","40.84","9.13","22.55","0","0"
"Al Horford","Al-Horford-1499","5900","PF/C","54.20","223.5","23.0","101.75","19.07","28.00","44.24","13.85","28.32","0","0"
"Marco Belinelli","Marco-Belinelli-1033","3800","SG/SF","33.15","217.5","22.3","99.70","19.64","22.00","30.1","5.29","18.11","0","0"
"Jevon Carter","Jevon-Carter-409100","3300","PG/SG","42.44","212.5","13.8","103.30","18.27","22.00","21.99","9.13","15.71","0","0"
"Jarrett Allen","Jarrett-Allen-37794","5600","C","53.65","225","26.1","114.62","16.02","27.00","53.25","11.51","26.64","0","0"
"Derrick White","Derrick-White-37858","5800","PG/SG","41.42","217.5","31.9","99.70","18.62","30.00","48.92","8.68","27.3","0","0"
"Kawhi Leonard","Kawhi-Leonard-13310","9600","SF/PF","44.98","223.5","34.8","105.50","30.06","35.00","66.93","17.22","45.19","0","0"
"Khris Middleton","Khris-Middleton-13990","6900","SG/SF","43.00","212.5","30.0","98.80","24.41","33.00","49.26","9.35","32.45","0","0"
"Giannis Antetokounmpo","Giannis-Antetokounmpo-16852","11000","SF/PF","41.52","212.5","30.5","98.80","35.13","34.00","72.2","29.6","51.57","0","0"
"Fred VanVleet","Fred-VanVleet-36011","4700","PG/SG","39.39","223.5","29.6","105.50","19.35","26.00","41.91","5.89","22.06","0","0"
"Kyle Lowry","Kyle-Lowry-1057","7200","PG","49.64","223.5","33.5","105.50","20.22","32.00","58.4","16.39","33.66","0","0"
"Marcus Smart","Marcus-Smart-18567","4600","PG/SG","46.87","223.5","28.2","101.75","14.47","28.00","35.67","9.22","21.5","0","0"
"Dwight Powell","Dwight-Powell-18566","3500","PF/C","50.17","217.5","17.4","100.08","18.26","16.00","31.66","4.9","16.17","0","0"
"Malcolm Brogdon","Malcolm-Brogdon-35195","5900","PG/SG","48.23","212.5","28.3","98.80","22.74","31.00","51.64","9.55","27.22","0","0"
"Nene Hilario","Nene-Hilario-17321","3400","C","61.69","225","10.8","101.42","8.46","16.00","25.93","7.26","15.68","0","0"
"Gordon Hayward","Gordon-Hayward-1239","5200","SF/PF","45.76","223.5","25.3","101.75","22.59","25.00","47.88","7.76","23.95","0","0"
"Harrison Barnes","Harrison-Barnes-13901","5700","SF/PF","50.51","217.5","31.9","100.08","21.27","34.00","41.47","11.1","26.23","0","0"
"Rudy Gay","Rudy-Gay-1341","5300","SF/PF","47.29","217.5","23.5","99.70","22.68","24.00","40.56","9.36","24","0","0"
"Wesley Matthews","Wesley-Matthews-1339","4500","SG/SF","32.45","217.5","26.3","100.08","17.10","28.00","37.21","9.8","20.2","0","0"
"JaMychal Green","JaMychal-Green-18729","4900","SF/PF","57.54","212.5","23.6","103.30","19.29","23.00","43.02","4.32","21.84","0","0"
"Rodions Kurucs","Rodions-Kurucs-408801","4100","SF/PF","46.34","225","24.3","114.62","17.40","22.00","25.3","12.56","18.07","0","0"
"Jaylen Brown","Jaylen-Brown-35181","4600","SG/SF","37.53","223.5","25.0","101.75","21.81","24.00","40.5","4.6","20.26","0","0"
"Rondae Hollis-Jefferson","Rondae-Hollis-Jefferson-18897","4400","PF/C","46.34","225","0","114.62","0","20.00","31.89","8.96","19.36","0","0"
"LaMarcus Aldridge","LaMarcus-Aldridge-1349","8300","PF/C","54.81","217.5","33.3","99.70","26.54","34.00","53.48","18.2","36.48","0","0"
"Jayson Tatum","Jayson-Tatum-37782","6600","SF/PF","45.76","223.5","29.6","101.75","24.85","32.00","42.96","13.27","28.97","0","0"
"Patty Mills","Patty-Mills-13977","3700","PG/SG","41.42","217.5","23.0","99.70","21.36","23.00","32.3","4.04","16.16","0","0"
"Danny Green","Danny-Green-940","4600","SG/SF","33.55","223.5","30.0","105.50","12.70","30.00","30.9","6.79","19.91","0","0"
"Pascal Siakam","Pascal-Siakam-35186","6700","PF/C","50.40","223.5","32.3","105.50","22.71","32.00","45.67","14.24","28.94","0","0"
"Marcus Morris","Marcus-Morris-13316","5700","SF/PF","37.53","223.5","25.8","101.75","20.47","28.00","41.14","8.91","24.2","0","0"
"Devin Harris","Devin-Harris-1076","3100","PG/SG","53.08","217.5","11.8","100.08","21.00","16.00","25.25","2.98","13.11","0","0"
"George Hill","George-Hill-993","3500","PG/SG","40.05","212.5","20.9","98.80","13.76","22.00","26.67","3.88","14.52","0","0"
"Davis Bertans","Davis-Bertans-36051","4200","SF/PF","54.81","217.5","24.7","99.70","10.44","23.00","34.56","4.12","17.29","0","0"
"Shelvin Mack","Shelvin-Mack-13354","3800","PG/SG","42.44","212.5","18.4","103.30","24.63","20.00","27.16","2.6","15.59","0","0"
"Jakob Poeltl","Jakob-Poeltl-35187","3400","C","49.30","217.5","15.1","99.70","11.67","14.00","27.43","2.85","13.72","0","0"
"Ersan Ilyasova","Ersan-Ilyasova-1301","3400","PF/C","41.52","212.5","16.3","98.80","17.42","17.00","24.62","2.32","13.58","0","0"
"Jalen Brunson","Jalen-Brunson-409062","4400","PG","42.50","217.5","16.3","100.08","22.09","26.00","24.49","14.67","17.49","0","0"
"Garrett Temple","Garrett-Temple-14077","3700","SG/SF","35.64","212.5","32.7","103.30","13.03","25.00","26.82","2.74","14.57","0","0"
"Greg Monroe","Greg-Monroe-1487","3400","C","51.43","223.5","13.0","105.50","23.37","12.00","22.26","4.22","13.08","0","0"
"Omri Casspi","Omri-Casspi-1270","3500","SF/PF","39.72","212.5","13.7","103.30","14.62","17.00","26.85","2.95","13.43","0","0"
"Shabazz Napier","Shabazz-Napier-18598","4400","PG/SG","39.35","225","25.3","114.62","25.22","19.00","32.28","4.68","16.15","0","0"
"D.J. Wilson","D.J.-Wilson-37822","3500","PF/C","41.52","212.5","16.6","98.80","13.53","13.00","24.67","3.08","12.34","0","0"
"Eric Gordon","Eric-Gordon-1077","6000","SG/SF","44.85","225","0","101.42","0","25.00","35.13","7.18","21.06","0","0"
"Sterling Brown","Sterling-Brown-37821","3300","SG/SF","38.09","212.5","18.3","98.80","18.36","16.00","22.54","3.21","11.54","0","0"
"Delon Wright","Delon-Wright-18907","4300","PG/SG","39.39","223.5","20.2","105.50","18.30","18.00","22.64","6.43","14.75","0","0"
"Dorian Finney-Smith","Dorian-Finney-Smith-36032","3600","SF/PF","38.20","217.5","19.6","100.08","15.40","18.00","23.68","4.53","12.24","0","0"
"Norman Powell","Norman-Powell-18908","3600","SG/SF","35.10","223.5","20.2","105.50","21.39","19.00","24.29","3.32","12.15","0","0"
"Tony Snell","Tony-Snell-16872","3000","SG/SF","35.90","212.5","16.7","98.80","13.66","16.00","20.01","2.78","10.01","0","0"
"Treveon Graham","Treveon-Graham-36023","3300","SF/PF","36.82","225","20.5","114.62","13.94","18.00","21.55","2.04","10.78","0","0"
"Terry Rozier","Terry-Rozier-18894","4900","PG/SG","50.22","223.5","22.1","101.75","21.24","18.00","28.1","5.0","16.04","0","0"
"Aron Baynes","Aron-Baynes-14114","3400","C","51.26","223.5","0","101.75","0","12.00","19.28","4.77","10.83","0","0"
"Daniel Theis","Daniel-Theis-37784","3500","PF/C","51.26","223.5","16.9","101.75","15.29","11.00","20.96","2.85","11.03","0","0"
"Marquese Chriss","Marquese-Chriss-35230","3100","PF/C","57.95","225","9.7","101.42","18.68","10.00","18.58","2.26","9.5","0","0"
"Isaiah Hartenstein","Isaiah-Hartenstein-570142","3000","PF/C","48.14","225","6.0","101.42","15.53","10.00","12.31","6.65","8.79","0","0"
"Dirk Nowitzki","Dirk-Nowitzki-1346","3000","PF/C","50.17","217.5","11.0","100.08","18.90","9.00","12.88","2.15","7.53","0","0"
"Joakim Noah","Joakim-Noah-1404","3800","C","47.82","212.5","8.9","103.30","21.12","10.00","16.45","2.74","8.23","0","0"
"Vincent Edwards","Vincent-Edwards-409226","3000","PG/SF","32.78","225","0","101.42","0","8.00","7.48","0.01","5.34","0","0"
"Pau Gasol","Pau-Gasol-1502","3100","C","54.81","217.5","13.2","99.70","11.28","4.00","7.37","2.65","4.54","0","0"
"C.J. Miles","C.J.-Miles-1299","3200","SG/SF","33.55","223.5","6.5","105.50","12.31","6.00","8.67","1.01","4.36","0","0"
