"nameCol","idCol","salaryCol","positionCol","dvpCol","ouCol","mpgCol","paceCol","usgCol","pminCol","ceilCol","floorCol","pointsCol","predictCol","actualCol"
"Trey Burke","Trey-Burke-17029","4200","PG/SG","51.47","221.5","28.0","100.17","30.05","33.00","59.67","10.06","34.33","0","0"
"Patrick Beverley","Patrick-Beverley-14108","4500","PG/SG","43.25","233","32.0","108.38","12.90","35.00","48.97","10.4","28.11","0","0"
"Shai Gilgeous-Alexander","Shai-Gilgeous-Alexander-408990","3800","PG/SG","43.25","233","26.9","108.38","21.28","29.00","33.08","18.71","23.63","0","0"
"Rondae Hollis-Jefferson","Rondae-Hollis-Jefferson-18897","3700","PF/C","44.03","219","12.0","114.62","23.31","24.00","45.87","5.79","23.18","0","0"
"Jaylen Brown","Jaylen-Brown-35181","4400","SG/SF","32.94","219","24.1","101.75","22.25","28.00","53.41","6.07","26.72","0","0"
"Jayson Tatum","Jayson-Tatum-37782","5600","SF/PF","47.32","219","31.4","101.75","22.90","33.00","49.16","15.18","33.15","0","0"
"Jordan Bell","Jordan-Bell-37877","3000","PF/C","50.59","228.5","6.0","103.10","31.09","19.00","35.06","3.63","17.54","0","0"
"Andre Iguodala","Andre-Iguodala-1334","3800","SG/SF","36.12","228.5","23.0","103.10","13.43","29.00","37.54","10.68","21.89","0","0"
"Marcus Morris","Marcus-Morris-13316","4900","SF/PF","32.94","219","26.1","101.75","19.61","30.00","47.77","10.34","28.1","0","0"
"DeMarcus Cousins","DeMarcus-Cousins-1490","6500","PF/C","54.03","228.5","20.8","103.10","28.33","27.00","53.17","17.33","37.18","0","0"
"Avery Bradley","Avery-Bradley-941","3700","SG","41.70","233","33.8","108.38","16.69","34.00","40.75","6.49","20.8","0","0"
"Terry Rozier","Terry-Rozier-18894","5300","PG/SG","44.36","219","22.1","101.75","19.99","31.00","52.05","9.27","29.71","0","0"
"Gordon Hayward","Gordon-Hayward-1239","4900","SF/PF","47.32","219","22.8","101.75","20.18","26.00","54.89","8.9","27.46","0","0"
"Damyean Dotson","Damyean-Dotson-37795","3600","SG/SF","38.75","221.5","24.0","100.17","14.09","25.00","36.61","5.02","20.08","0","0"
"Taurean Prince","Taurean-Prince-35218","5400","SF","35.19","233","24.8","105.10","19.09","31.00","52.92","7.4","29.95","0","0"
"Klay Thompson","Klay-Thompson-13315","6100","SG","36.12","228.5","31.3","103.10","24.07","36.00","60.42","15.92","33.79","0","0"
"Cory Joseph","Cory-Joseph-13339","4200","PG","38.53","228.5","23.5","107.67","17.12","31.00","40.4","6.79","23.1","0","0"
"Justin Holiday","Justin-Holiday-14559","4500","SG/SF","34.14","205.5","28.8","103.30","14.65","32.00","49.3","4.73","24.66","0","0"
"Marcus Smart","Marcus-Smart-18567","4600","PG/SG","50.72","219","27.3","101.75","14.80","32.00","41.44","10.72","24.98","0","0"
"Willy Hernangomez","Willy-Hernangomez-18901","3900","C","56.59","221.5","16.3","103.00","17.62","17.00","42.36","5.47","21.19","0","0"
"Joe Harris","Joe-Harris-18587","4900","SG/SF","36.39","219","32.0","114.62","20.09","33.00","46.04","9.99","26.16","0","0"
"Jaren Jackson","Jaren-Jackson-409099","5700","PF/C","51.05","205.5","27.2","103.30","22.35","30.00","42.29","23.93","30.21","0","0"
"Darren Collison","Darren-Collison-1060","5900","PG","38.53","228.5","28.7","107.67","22.29","32.00","51.29","14.58","31.22","0","0"
"Jarrett Allen","Jarrett-Allen-37794","5500","C","51.40","219","28.5","114.62","16.14","30.00","59.27","12.81","29.65","0","0"
"Shabazz Napier","Shabazz-Napier-18598","4600","PG/SG","39.23","219","15.4","114.62","27.89","29.00","51.67","7.5","25.85","0","0"
"Noah Vonleh","Noah-Vonleh-18597","6200","PF/C","58.29","221.5","28.6","100.17","17.69","30.00","55.64","14.01","32.65","0","0"
"Al Horford","Al-Horford-1499","6400","PF/C","58.48","219","29.2","101.75","19.94","32.00","52.59","16.5","33.67","0","0"
"Edmond Sumner","Edmond-Sumner-37818","3000","PG","38.53","228.5","0","107.67","0","20.00","22.04","11.9","15.74","0","0"
"Gary Harris","Gary-Harris-18617","5800","SG","42.56","205.5","21.2","99.62","22.37","33.00","42.66","10.85","30.47","0","0"
"Kevin Durant","Kevin-Durant-1348","9400","SF/PF","46.97","228.5","34.7","103.10","28.54","36.00","74.61","26.2","49.15","0","0"
"Kyle Anderson","Kyle-Anderson-18615","4500","PG/SF","37.30","205.5","0","103.30","0","26.00","40.39","13.24","23.47","0","0"
"Marvin Williams","Marvin-Williams-1318","5300","SF/PF","54.24","221.5","28.5","103.00","15.34","30.00","54.72","6.24","27.51","0","0"
"DeMarre Carroll","DeMarre-Carroll-1174","4700","SF/PF","34.18","219","29.2","114.62","19.39","29.00","47.68","5.39","23.85","0","0"
"Rodions Kurucs","Rodions-Kurucs-408801","4000","SF/PF","44.03","219","22.5","114.62","19.48","24.00","28.22","14.01","20.16","0","0"
"Jeremy Lamb","Jeremy-Lamb-13955","5600","SG/SF","47.67","221.5","27.7","103.00","24.25","30.00","49.09","13.41","28.71","0","0"
"Nicolas Batum","Nicolas-Batum-1315","4900","SG/SF","40.55","221.5","32.3","103.00","14.63","32.00","43.6","10.84","25.1","0","0"
"Tobias Harris","Tobias-Harris-13332","8000","SF/PF","52.81","233","36.0","108.38","23.11","35.00","64.98","18.47","40.87","0","0"
"Bojan Bogdanovic","Bojan-Bogdanovic-18571","5600","SG/SF","40.64","228.5","32.2","107.67","19.01","34.00","49.08","9.53","28.62","0","0"
"Marc Gasol","Marc-Gasol-1493","7800","C","51.05","205.5","29.9","103.30","24.03","34.00","62.65","20.59","39.68","0","0"
"Lou Williams","Lou-Williams-1044","7400","PG/SG","52.32","233","26.5","108.38","35.82","28.00","74.32","8.25","37.18","0","0"
"Mike Conley","Mike-Conley-1062","7700","PG","39.15","205.5","31.4","103.30","25.54","35.00","68.21","14.49","38.43","0","0"
"Jeremy Lin","Jeremy-Lin-916","4200","PG/SG","51.51","233","22.5","105.10","25.43","22.00","38.66","5.99","20.94","0","0"
"Domantas Sabonis","Domantas-Sabonis-35217","6600","PF/C","53.88","228.5","22.3","107.67","21.15","26.00","60.82","4.76","32.82","0","0"
"Stephen Curry","Stephen-Curry-1079","9100","PG/SG","47.45","228.5","33.3","103.10","28.82","36.00","77.01","16.7","45.14","0","0"
"Aron Baynes","Aron-Baynes-14114","3500","C","60.93","219","16.0","101.75","14.89","16.00","34.48","3.45","17.25","0","0"
"Tim Hardaway Jr.","Tim-Hardaway-Jr.-16879","5800","SG/SF","49.52","221.5","30.8","100.17","22.50","32.00","52.54","12.31","28.49","0","0"
"Dewayne Dedmon","Dewayne-Dedmon-16894","5500","PF/C","59.02","233","24.2","105.10","18.99","27.00","42.66","11.22","26.85","0","0"
"Kemba Walker","Kemba-Walker-13335","8900","PG","53.07","221.5","34.2","103.00","29.04","35.00","80.57","20.77","43.27","0","0"
"Aaron Holiday","Aaron-Holiday-408932","3300","PG/SG","38.53","228.5","4.6","107.67","35.34","20.00","22.39","12.09","15.99","0","0"
"Marcin Gortat","Marcin-Gortat-1479","3300","C","54.39","233","13.0","108.38","16.00","15.00","27.55","7.13","16.02","0","0"
"Trae Young","Trae-Young-409063","6700","PG","51.51","233","31.4","105.10","31.02","32.00","45.42","22.55","32.44","0","0"
"Montrezl Harrell","Montrezl-Harrell-18930","7100","PF/C","56.11","233","28.4","108.38","20.64","29.00","58.55","4.05","34.36","0","0"
"Torrey Craig","Torrey-Craig-37861","4500","SG/SF","36.64","205.5","27.5","99.62","12.89","33.00","43.18","4.88","21.6","0","0"
"Mason Plumlee","Mason-Plumlee-16798","3900","PF/C","47.97","205.5","18.0","99.62","20.14","20.00","36.47","4.73","18.7","0","0"
"Will Barton","Will-Barton-13982","6900","SG/SF","42.56","205.5","24.8","99.62","23.12","32.00","57.1","11.48","33.08","0","0"
"Michael Kidd-Gilchrist","Michael-Kidd-Gilchrist-13896","3900","SF/PF","40.55","221.5","23.5","103.00","15.65","23.00","37.26","7.59","18.64","0","0"
"Bruno Caboclo","Bruno-Caboclo-18581","3400","SF/PF","34.14","205.5","18.0","103.30","11.34","24.00","30.11","5.2","16.11","0","0"
"Paul Millsap","Paul-Millsap-1335","5100","PF/C","43.14","205.5","20.7","99.62","17.86","23.00","39.14","8.77","24.1","0","0"
"Nikola Jokic","Nikola-Jokic-31812","10800","C","50.62","205.5","29.0","99.62","33.64","34.00","74.7","30.55","50.92","0","0"
"Myles Turner","Myles-Turner-18915","6800","C","51.74","228.5","29.5","107.67","16.32","30.00","62.59","10.67","32.05","0","0"
"Shelvin Mack","Shelvin-Mack-13354","3600","PG/SG","39.15","205.5","19.8","103.30","23.31","20.00","29.2","2.8","16.76","0","0"
"Shaun Livingston","Shaun-Livingston-14007","3000","PG","37.32","228.5","13.7","103.10","17.58","18.00","27.85","3.59","13.93","0","0"
"D'Angelo Russell","D'Angelo-Russell-18947","8600","PG/SG","48.89","219","30.7","114.62","32.67","33.00","60.24","17.25","38.94","0","0"
"Bismack Biyombo","Bismack-Biyombo-13312","4200","C","56.59","221.5","20.8","103.00","13.05","22.00","33.14","5.81","19.38","0","0"
"John Collins","John-Collins-37823","8200","PF/C","59.02","233","28.8","105.10","22.62","32.00","69.24","14.98","37.63","0","0"
"Mitchell Robinson","Mitchell-Robinson-408821","4100","C","53.16","221.5","15.6","100.17","12.69","20.00","26.18","14.81","18.7","0","0"
"DeAndre Bembry","DeAndre-Bembry-35198","4600","SG/SF","35.19","233","30.2","105.10","14.75","26.00","34.96","9.66","20.81","0","0"
"Kevon Looney","Kevon-Looney-18945","3900","PF/C","50.59","228.5","22.8","103.10","14.24","20.00","33.29","6.25","17.52","0","0"
"Thaddeus Young","Thaddeus-Young-1289","5700","SF/PF","48.07","228.5","28.2","107.67","18.94","30.00","37.56","12.11","25.33","0","0"
"Allonzo Trier","Allonzo-Trier-554950","5300","PG/SG","49.52","221.5","25.2","100.17","24.43","27.00","32.65","18.47","23.32","0","0"
"Kevin Knox","Kevin-Knox-408820","5400","SF/PF","49.52","221.5","26.8","100.17","19.15","33.00","33.0","16.26","23.57","0","0"
"Omari Spellman","Omari-Spellman-408970","3400","PF/C","49.76","233","17.2","105.10","12.44","18.00","20.33","11.5","14.52","0","0"
"Alex Len","Alex-Len-16886","4300","C","59.02","233","19.4","105.10","25.75","18.00","34.11","7.47","18.23","0","0"
"Ed Davis","Ed-Davis-1265","4000","C","51.40","219","18.8","114.62","12.95","18.00","34.52","5.08","17.27","0","0"
"Kevin Huerter","Kevin-Huerter-408969","4800","SG/SF","33.76","233","30.7","105.10","20.37","31.00","28.24","14.02","20.17","0","0"
"Tony Parker","Tony-Parker-982","3600","PG","43.08","221.5","17.0","103.00","31.04","17.00","26.8","3.94","15.09","0","0"
"Lance Thomas","Lance-Thomas-13363","3200","SF/PF","38.75","221.5","19.0","100.17","6.15","20.00","23.84","3.49","13.07","0","0"
"Jevon Carter","Jevon-Carter-409100","3300","PG/SG","39.15","205.5","15.9","103.30","16.39","20.00","18.54","10.49","13.24","0","0"
"Miles Bridges","Miles-Bridges-409262","3600","SF/PF","54.24","221.5","15.5","103.00","18.90","17.00","19.78","10.68","14.13","0","0"
"Theo Pinson","Theo-Pinson-554931","4400","SG/SF","36.39","219","25.0","114.62","27.68","20.00","24.49","13.85","17.49","0","0"
"Monte Morris","Monte-Morris-37860","4600","PG","49.62","205.5","20.7","99.62","17.55","23.00","24.74","13.76","17.67","0","0"
"Malik Beasley","Malik-Beasley-35213","4200","PG/SG","36.64","205.5","24.0","99.62","16.29","21.00","31.08","3.7","15.55","0","0"
"Malik Monk","Malik-Monk-37827","3300","PG/SG","53.07","221.5","13.2","103.00","24.78","17.00","23.55","3.4","12.11","0","0"
"Trey Lyles","Trey-Lyles-18942","3900","SF/PF","43.14","205.5","17.5","99.62","24.61","16.00","25.33","3.72","13.39","0","0"
"Mario Hezonja","Mario-Hezonja-18923","3500","SF/PF","37.69","221.5","19.7","100.17","17.15","12.00","23.63","2.96","11.82","0","0"
"Alfonzo McKinnie","Alfonzo-McKinnie-37808","3200","SF/PF","36.69","228.5","15.2","103.10","13.13","19.00","21.37","3.86","10.69","0","0"
"Doug McDermott","Doug-McDermott-18583","3200","SF/PF","40.64","228.5","15.5","107.67","17.18","16.00","20.11","3.22","10.06","0","0"
"Joakim Noah","Joakim-Noah-1404","3200","C","52.62","205.5","14.2","103.30","17.86","14.00","19.81","3.2","9.91","0","0"
"Mike Scott","Mike-Scott-13999","3000","SF/PF","52.81","233","9.0","108.38","19.25","11.00","17.93","1.19","8.97","0","0"
"Jerome Robinson","Jerome-Robinson-409263","3200","SG","56.65","233","11.2","108.38","14.72","14.00","12.18","6.58","8.7","0","0"
"Johnathan Motley","Johnathan-Motley-37844","3300","PF/C","52.81","233","9.7","108.38","30.92","10.00","17.61","2.05","8.81","0","0"
"Brad Wanamaker","Brad-Wanamaker-438951","3100","PG/SG","40.77","219","16.7","101.75","19.52","8.00","9.91","5.35","7.08","0","0"
"Courtney Lee","Courtney-Lee-1025","3100","SG/SF","37.69","221.5","5.0","100.17","18.16","8.00","13.11","1.23","6.56","0","0"
"Daniel Theis","Daniel-Theis-37784","3300","PF/C","60.93","219","8.4","101.75","9.91","5.00","9.04","1.23","4.76","0","0"
"Ivan Rabb","Ivan-Rabb-37854","3100","PF/C","52.62","205.5","8.2","103.30","23.55","5.00","7.79","1.07","4.07","0","0"
"Juancho Hernangomez","Juancho-Hernangomez-35212","3400","SF/PF","43.14","205.5","14.4","99.62","11.84","5.00","8.32","0.72","4.16","0","0"
"Vince Carter","Vince-Carter-1066","3100","SG","33.76","233","10.8","105.10","18.79","3.00","4.52","0.59","2.26","0","0"
"TJ Leaf","TJ-Leaf-37817","3100","SF/PF","51.74","228.5","6.6","107.67","11.71","1.00","1.62","0.15","0.81","0","0"
"Semi Ojeleye","Semi-Ojeleye-37786","3000","SF/PF","32.94","219","7.2","101.75","9.34","1.00","1.32","0.21","0.66","0","0"
