"nameCol","idCol","salaryCol","positionCol","dvpCol","ouCol","mpgCol","paceCol","usgCol","pminCol","ceilCol","floorCol","pointsCol","predictCol","actualCol"
"Jahlil Okafor","Jahlil-Okafor-18902","4600","C","51.59","221.5","11.3","104.88","17.63","30.00","55.5","13.43","31.46","0","0"
"Julius Randle","Julius-Randle-18632","8400","PF/C","51.27","221.5","29.5","104.88","27.45","36.00","83.18","20.39","46.55","0","0"
"Darius Miller","Darius-Miller-13951","3400","SF/PF","34.99","221.5","27.8","104.88","10.32","29.00","38.16","6.36","19.09","0","0"
"Jrue Holiday","Jrue-Holiday-1073","8600","PG/SG","52.31","221.5","38.0","104.88","25.18","38.00","67.63","22.07","45.42","0","0"
"Elfrid Payton","Elfrid-Payton-18602","6100","PG","42.50","221.5","26.7","104.88","19.07","29.00","44.64","13.41","28.36","0","0"
"Nikola Mirotic","Nikola-Mirotic-18584","7000","PF/C","46.06","221.5","24.5","104.88","20.95","31.00","59.84","11.48","33.19","0","0"
"E'Twaun Moore","E'Twaun-Moore-18582","4000","SG/SF","38.18","221.5","27.8","104.88","12.84","27.00","30.56","5.84","18.31","0","0"
"Frank Jackson","Frank-Jackson-37855","3200","PG/SG","52.31","221.5","13.3","104.88","12.81","15.00","15.88","9.51","11.34","0","0"
"Tim Frazier","Tim-Frazier-18743","3200","PG/SG","42.50","221.5","12.0","104.88","15.99","5.00","7.99","1.05","4.03","0","0"
