"nameCol","idCol","salaryCol","positionCol","dvpCol","ouCol","mpgCol","paceCol","usgCol","pminCol","ceilCol","floorCol","pointsCol","predictCol","actualCol"
"Boban Marjanovic","Boban-Marjanovic-31807","3600","C","51.65","234.5","10.8","108.38","24.16","20.00","34.18","10.86","23.35","0","0"
"Al-Farouq Aminu","Al-Farouq-Aminu-1279","4900","SF/PF","37.24","230","27.6","104.50","14.41","32.00","48.6","23.7","31.64","0","0"
"Fred VanVleet","Fred-VanVleet-36011","5500","PG/SG","45.69","209","31.3","105.50","19.69","35.00","47.66","20.58","34.94","0","0"
"Patrick Beverley","Patrick-Beverley-14108","3700","PG/SG","38.84","234.5","22.8","108.38","14.67","24.00","41.24","22.85","22.85","0","0"
"Avery Bradley","Avery-Bradley-941","3900","SG","33.05","234.5","28.5","108.38","14.67","30.00","35.03","14.75","24.06","0","0"
"Emmanuel Mudiay","Emmanuel-Mudiay-18936","5600","PG","38.50","218","29.6","100.17","26.14","32.00","46.58","21.49","34.5","0","0"
"Jimmy Butler","Jimmy-Butler-13327","6900","SG/SF","49.36","234.5","32.6","108.33","22.07","35.00","56.72","23.48","42.39","0","0"
"George Hill","George-Hill-993","3500","PG/SG","44.34","218","22.7","98.80","12.04","23.00","36.92","19.28","21.49","0","0"
"Reggie Jackson","Reggie-Jackson-13352","4800","PG/SG","46.87","218","28.7","100.30","26.04","28.00","40.19","15.1","28.77","0","0"
"Danny Green","Danny-Green-940","4200","SG/SF","30.01","209","26.4","105.50","17.40","32.00","35.83","17.33","25.04","0","0"
"Kawhi Leonard","Kawhi-Leonard-13310","8900","SF/PF","39.15","209","33.6","105.50","31.53","35.00","72.96","25.56","52.91","0","0"
"Damian Lillard","Damian-Lillard-13900","8700","PG","54.92","230","35.1","104.50","28.40","35.00","63.29","24.29","49.87","0","0"
"C.J. McCollum","C.J.-McCollum-17121","6600","PG/SG","48.54","230","32.4","104.50","26.17","35.00","50.09","21.23","37.38","0","0"
"J.J. Redick","J.J.-Redick-1030","5100","SG/SF","34.12","234.5","28.8","108.33","21.94","30.00","38.6","17.91","28.74","0","0"
"Andre Drummond","Andre-Drummond-13904","8600","C","47.46","218","31.8","100.30","21.73","32.00","59.44","22.12","48.4","0","0"
"Bruce Brown","Bruce-Brown-408913","3300","PG/SG","37.11","218","19.7","100.30","18.10","25.00","18.44","3.88","18.48","0","0"
"Buddy Hield","Buddy-Hield-35206","6800","SG/SF","37.83","230","33.3","98.20","26.95","34.00","56.69","24.96","37.82","0","0"
"Serge Ibaka","Serge-Ibaka-1294","6000","PF/C","49.33","209","28.3","105.50","22.05","30.00","46.71","19.04","33.29","0","0"
"Justin Jackson","Justin-Jackson-37895","3200","SF/PF","37.83","230","24.2","98.20","11.66","25.00","27.09","14.27","17.73","0","0"
"Tim Hardaway Jr.","Tim-Hardaway-Jr.-16879","6400","SG/SF","45.14","218","31.0","100.17","27.54","34.00","55.03","24.03","35.39","0","0"
"Maurice Harkless","Maurice-Harkless-16971","3700","SF/PF","37.24","230","26.2","104.50","12.78","23.00","32.69","13.68","20.42","0","0"
"Noah Vonleh","Noah-Vonleh-18597","6300","PF/C","48.45","218","32.2","100.17","15.02","34.00","48.27","21.22","34.73","0","0"
"Ricky Rubio","Ricky-Rubio-1001","5800","PG","40.49","209","30.6","98.88","23.89","31.00","42.37","16.95","31.81","0","0"
"Eric Bledsoe","Eric-Bledsoe-1031","6200","PG/SG","54.23","218","27.8","98.80","20.00","30.00","49.54","20.71","33.84","0","0"
"Khris Middleton","Khris-Middleton-13990","7000","SG/SF","42.26","218","32.5","98.80","25.36","34.00","60.51","26.69","38.13","0","0"
"Wilson Chandler","Wilson-Chandler-1327","3800","SF/PF","34.13","234.5","27.0","108.33","11.96","25.00","30.86","14.67","20.63","0","0"
"Brook Lopez","Brook-Lopez-1498","5300","C","51.94","218","25.5","98.80","20.40","27.00","43.25","19.56","28.64","0","0"
"Reggie Bullock","Reggie-Bullock-16943","4000","SG/SF","39.56","218","33.3","100.30","16.81","28.00","35.31","15.36","21.48","0","0"
"Tobias Harris","Tobias-Harris-13332","7300","SF/PF","49.62","234.5","32.7","108.38","21.76","34.00","51.33","20.69","38.68","0","0"
"Damyean Dotson","Damyean-Dotson-37795","3600","SG/SF","34.66","218","21.0","100.17","14.55","23.00","32.99","16.05","19.09","0","0"
"Pascal Siakam","Pascal-Siakam-35186","6100","PF/C","53.00","209","33.7","105.50","20.91","34.00","46.95","18.54","32.18","0","0"
"Jusuf Nurkic","Jusuf-Nurkic-18619","7500","C","54.62","230","27.0","104.50","25.05","28.00","51.42","22.02","39.4","0","0"
"Greg Monroe","Greg-Monroe-1487","3200","C","51.29","209","15.8","105.50","17.52","15.00","22.95","9.82","16.79","0","0"
"Blake Griffin","Blake-Griffin-1503","8500","PF/C","58.58","218","35.7","100.30","26.21","35.00","56.48","20.45","44.65","0","0"
"Nemanja Bjelica","Nemanja-Bjelica-31814","5200","SF/PF","51.93","230","26.7","98.20","18.26","28.00","44.57","18.07","27.26","0","0"
"Donovan Mitchell","Donovan-Mitchell-37875","7100","PG/SG","46.74","209","31.7","98.88","30.26","35.00","48.32","20.41","36.97","0","0"
"Mike Muscala","Mike-Muscala-17379","3700","PF/C","54.11","234.5","21.0","108.33","15.09","22.00","35.86","19.23","19.23","0","0"
"T.J. McConnell","T.J.-McConnell-18956","3600","PG/SG","43.44","234.5","23.8","108.33","15.17","23.00","29.98","15.76","18.7","0","0"
"Meyers Leonard","Meyers-Leonard-13905","3300","PF/C","57.44","230","18.4","104.50","15.45","15.00","29.36","13.88","17.07","0","0"
"Langston Galloway","Langston-Galloway-18717","3300","PG/SG","37.11","218","19.0","100.30","20.02","22.00","29.02","14.13","17.02","0","0"
"Evan Turner","Evan-Turner-1291","3800","SG/SF","48.54","230","21.4","104.50","19.21","23.00","29.6","16.28","19.59","0","0"
"Zach Collins","Zach-Collins-37866","3200","PF/C","57.44","230","18.0","104.50","16.62","18.00","25.48","12.85","16.48","0","0"
"Derrick Favors","Derrick-Favors-1266","5100","PF/C","55.02","209","22.5","98.88","17.72","25.00","34.53","16.08","26.14","0","0"
"Joe Ingles","Joe-Ingles-18627","5200","SG/SF","36.58","209","29.2","98.88","19.85","32.00","40.19","17.74","26.56","0","0"
"Jae Crowder","Jae-Crowder-13942","4100","SF/PF","37.04","209","24.0","98.88","17.53","26.00","35.61","16.08","20.97","0","0"
"Willie Cauley-Stein","Willie-Cauley-Stein-18951","7200","C","50.15","230","31.7","98.20","18.76","34.00","50.74","20.94","36.61","0","0"
"Trey Lyles","Trey-Lyles-18942","3300","SF/PF","55.59","218","15.2","99.62","23.24","15.00","26.21","13.78","16.62","0","0"
"Luke Kornet","Luke-Kornet-37800","4600","PF/C","54.11","218","19.0","100.17","20.89","30.00","35.91","14.76","23.2","0","0"
"Lou Williams","Lou-Williams-1044","6500","PG/SG","48.36","234.5","23.8","108.38","36.30","27.00","48.91","20.22","32.67","0","0"
"Juan Hernangomez","Juan-Hernangomez-35212","5200","SF/PF","55.59","218","30.8","99.62","13.16","32.00","43.61","17.34","25.99","0","0"
"Joel Embiid","Joel-Embiid-18578","10200","C","54.11","234.5","31.8","108.33","31.41","32.00","61.83","21.52","50.76","0","0"
"Bogdan Bogdanovic","Bogdan-Bogdanovic-37899","5700","SG/SF","45.92","230","28.6","98.20","28.58","32.00","44.96","23.75","28.24","0","0"
"Danilo Gallinari","Danilo-Gallinari-1329","6700","SF/PF","49.62","234.5","29.7","108.38","23.80","32.00","45.98","18.4","33.03","0","0"
"Shai Gilgeous-Alexander","Shai-Gilgeous-Alexander-408990","4200","PG/SG","38.84","234.5","23.5","108.38","14.01","24.00","23.18","6.25","20.44","0","0"
"D.J. Wilson","D.J.-Wilson-37822","3600","PF/C","45.26","218","19.3","98.80","15.00","21.00","33.06","17.14","17.14","0","0"
"Malcolm Brogdon","Malcolm-Brogdon-35195","5600","PG/SG","54.23","218","27.2","98.80","25.16","28.00","39.45","18.56","26.18","0","0"
"Ben Simmons","Ben-Simmons-35184","8800","PG/SF","43.44","234.5","31.0","108.33","25.88","35.00","54.39","17.42","41.08","0","0"
"Luke Kennard","Luke-Kennard-37814","3500","SG/SF","37.11","218","17.6","100.30","17.21","19.00","24.94","11.17","16.07","0","0"
"Giannis Antetokounmpo","Giannis-Antetokounmpo-16852","11600","SF/PF","45.26","218","33.7","98.80","31.80","34.00","63.43","23.77","53.17","0","0"
"Rudy Gobert","Rudy-Gobert-16935","8000","C","51.06","209","31.3","98.88","21.00","32.00","51.12","18.13","36.62","0","0"
"Paul Millsap","Paul-Millsap-1335","5400","PF/C","55.59","218","14.0","99.62","20.94","20.00","42.04","20.85","24.44","0","0"
"Enes Kanter","Enes-Kanter-13299","5300","C","51.18","218","21.8","100.17","18.29","19.00","33.36","17.54","23.9","0","0"
"Seth Curry","Seth-Curry-16825","3100","PG/SG","41.46","230","17.0","104.50","14.89","19.00","25.54","13.98","13.98","0","0"
"Iman Shumpert","Iman-Shumpert-13350","4300","SG/SF","37.83","230","26.2","98.20","18.06","27.00","28.6","13.91","19.34","0","0"
"Nikola Jokic","Nikola-Jokic-31812","9800","C","59.18","218","31.4","99.62","28.80","32.00","55.83","18.42","43.86","0","0"
"De'Aaron Fox","De'Aaron-Fox-37900","8200","PG","48.58","230","33.2","98.20","30.21","34.00","45.19","18.71","36.62","0","0"
"OG Anunoby","OG-Anunoby-37807","3400","SF/PF","30.01","209","22.5","105.50","14.24","22.00","28.57","15.13","15.13","0","0"
"Norman Powell","Norman-Powell-18908","3200","SG/SF","35.29","209","20.6","105.50","16.64","19.00","25.76","13.7","13.7","0","0"
"Delon Wright","Delon-Wright-18907","3500","PG/SG","45.69","209","21.7","105.50","17.37","18.00","25.47","12.78","14.91","0","0"
"Jamal Murray","Jamal-Murray-35211","7600","PG/SG","52.46","218","35.0","99.62","31.43","33.00","47.32","19.37","32.28","0","0"
"Stanley Johnson","Stanley-Johnson-18913","3500","SF/PF","39.56","218","17.5","100.30","20.64","18.00","24.92","11.75","14.84","0","0"
"Jose Calderon","Jose-Calderon-1071","3100","PG","42.71","218","19.2","100.30","12.03","19.00","22.94","10.26","12.96","0","0"
"Zaza Pachulia","Zaza-Pachulia-1455","3400","C","47.46","218","13.2","100.30","16.89","14.00","23.73","11.61","14.14","0","0"
"Thon Maker","Thon-Maker-35194","3200","PF/C","52.42","218","12.8","98.80","15.67","15.00","22.52","10.77","13.26","0","0"
"Mason Plumlee","Mason-Plumlee-16798","5000","PF/C","56.35","218","28.8","99.62","15.24","20.00","29.42","14.65","20.63","0","0"
"Malik Beasley","Malik-Beasley-35213","4100","PG/SG","39.10","218","27.4","99.62","21.65","24.00","30.56","16.69","16.69","0","0"
"Mike Scott","Mike-Scott-13999","3300","SF/PF","49.62","234.5","15.7","108.38","14.46","15.00","25.49","15.08","12.75","0","0"
"Kevin Knox","Kevin-Knox-408820","5900","SF/PF","45.14","218","37.4","100.17","21.49","34.00","21.42","2.54","22.69","0","0"
"Allonzo Trier","Allonzo-Trier-554950","3400","PG/SG","45.14","218","18.7","100.17","25.84","18.00","13.86","3.41","13.05","0","0"
"Montrezl Harrell","Montrezl-Harrell-18930","6800","PF/C","52.97","234.5","24.3","108.38","25.02","25.00","39.31","20.33","26","0","0"
"Gary Harris","Gary-Harris-18617","5500","SG","49.51","218","0","99.62","0","30.00","20.24","20.24","20.24","0","0"
"Royce O'Neale","Royce-O'Neale-37872","3100","SF","37.04","209","9.5","98.88","11.22","15.00","16.64","8.37","11.26","0","0"
"Frank Ntilikina","Frank-Ntilikina-37796","3300","PG/SG","38.50","218","16.2","100.17","17.55","16.00","18.51","9.78","11.75","0","0"
"Ben McLemore","Ben-McLemore-16822","3000","SG/SF","37.83","230","10.5","98.20","14.91","13.00","17.33","7.55","10.68","0","0"
"Kyle Korver","Kyle-Korver-1269","3300","SG/SF","36.58","209","20.8","98.88","18.83","15.00","20.49","9.24","11.65","0","0"
"Tony Snell","Tony-Snell-16872","3300","SG/SF","34.62","218","18.7","98.80","12.45","17.00","20.24","10.5","11.63","0","0"
"Monte Morris","Monte-Morris-37860","4700","PG","52.46","218","25.2","99.62","20.84","22.00","24.63","12.79","16.54","0","0"
"Dante Exum","Dante-Exum-18626","4400","PG/SG","40.49","209","18.5","98.88","24.41","18.00","25.47","11.58","14.68","0","0"
"Nik Stauskas","Nik-Stauskas-18636","3100","SG/SF","41.46","230","12.3","104.50","17.76","12.00","15.99","7.78","9.58","0","0"
"Sterling Brown","Sterling-Brown-37821","3200","SG/SF","38.07","218","16.2","98.80","16.30","11.00","18.34","9.64","9.64","0","0"
"Furkan Korkmaz","Furkan-Korkmaz-35185","3400","SG/SF","34.12","234.5","16.0","108.33","17.76","16.00","18.36","9.59","9.59","0","0"
"Landry Shamet","Landry-Shamet-408841","3200","PG/SG","34.12","234.5","17.2","108.33","18.80","14.00","8.89","1.63","8.79","0","0"
"Thabo Sefolosha","Thabo-Sefolosha-1271","3400","SF/PF","37.04","209","11.7","98.88","11.74","10.00","13.31","7.45","8.83","0","0"
"Torrey Craig","Torrey-Craig-37861","3500","SG/SF","39.10","218","27.0","99.62","12.26","12.00","10.99","4.83","7.86","0","0"
"Tyrone Wallace","Tyrone-Wallace-35220","3300","PG/SG","48.36","234.5","12.7","108.38","17.18","9.00","10.65","6.48","6.48","0","0"
"Yogi Ferrell","Yogi-Ferrell-35999","3100","PG/SG","48.58","230","10.0","98.20","23.74","8.00","10.17","5.28","5.98","0","0"
"Jonah Bolden","Jonah-Bolden-554969","3100","PF","53.74","234.5","21.3","108.33","14.01","8.00","5.4","0.99","5.34","0","0"
"Kosta Koufos","Kosta-Koufos-1386","3100","PF/C","50.15","230","10.7","98.20","18.73","5.00","9.9","5.2","5.2","0","0"
