"nameCol","idCol","salaryCol","positionCol","dvpCol","ouCol","mpgCol","paceCol","usgCol","pminCol","ceilCol","floorCol","pointsCol","predictCol","actualCol"
"Zaza Pachulia","Zaza-Pachulia-1455","4100","C","56.04","216","25.7","100.30","11.12","32.00","53.47","12.32","31.36","0","0"
"Chandler Hutchison","Chandler-Hutchison-408877","3600","SF/PF","38.30","212.5","27.7","104.50","11.64","30.00","36.61","18.17","26.15","0","0"
"Kenneth Faried","Kenneth-Faried-13313","3000","PF","52.66","235","0","101.42","0","22.00","26.76","14.62","18.82","0","0"
"Justin Holiday","Justin-Holiday-14559","3800.00","SG","36.56","220.5","20.0","103.30","17.31","31.00","41.86","13.22","23.73","0","0"
"Omri Casspi","Omri-Casspi-1270","3700.00","SF","42.27","220.5","22.4","103.30","17.02","20.00","46.1","5.07","23.06","0","0"
"Wilson Chandler","Wilson-Chandler-1327","3700","SF/PF","36.99","235","27.3","108.33","11.15","31.00","38.13","9.17","22.93","0","0"
"Damyean Dotson","Damyean-Dotson-37795","3300.00","SG","40.21","226","26.2","100.17","12.63","21.00","35.58","6.14","20.26","0","0"
"Marc Gasol","Marc-Gasol-1493","6700.00","C","55.44","220.5","30.2","103.30","22.08","33.00","64.89","20.25","39.71","0","0"
"Jonathan Isaac","Jonathan-Isaac-37841","4200","SF/PF","56.94","221.5","27.7","105.10","13.09","30.00","44.9","7.51","24.71","0","0"
"Otto Porter","Otto-Porter-17069","6200","SF/PF","33.86","216","32.0","103.80","21.28","35.00","72.36","11.69","36.2","0","0"
"Nikola Mirotic","Nikola-Mirotic-18584","5900.00","PF","42.34","220.5","23.0","104.88","20.14","31.00","62.06","11.46","34.42","0","0"
"Cameron Payne","Cameron-Payne-18941","3400","PG/SG","41.22","212.5","18.9","103.60","18.38","20.00","33.58","5.62","19.64","0","0"
"Mike Conley","Mike-Conley-1062","6800.00","PG","49.59","220.5","30.1","103.30","25.86","34.00","69.69","14.8","39.26","0","0"
"Collin Sexton","Collin-Sexton-408896","4700","PG","53.20","212.5","29.6","103.60","23.45","31.00","37.46","15.55","26.76","0","0"
"Lance Stephenson","Lance-Stephenson-947","4000","PG/SG","43.80","232.5","13.4","112.50","14.63","23.00","44.5","4.53","22.67","0","0"
"Julius Randle","Julius-Randle-18632","7500.00","PF","50.36","220.5","30.5","104.88","25.20","34.00","75.55","18.58","42.42","0","0"
"E'Twaun Moore","E'Twaun-Moore-18582","4000.00","SG","38.64","220.5","29.8","104.88","12.54","32.00","38.34","6.79","22.63","0","0"
"George Hill","George-Hill-993","3400","PG/SG","42.14","226.5","19.9","98.80","13.82","21.00","37.11","5.3","19.2","0","0"
"Spencer Dinwiddie","Spencer-Dinwiddie-18588","5700","PG/SG","54.27","231.5","26.5","114.62","27.48","28.00","54.6","8.45","32.12","0","0"
"Dewayne Dedmon","Dewayne-Dedmon-16894","5000","PF/C","52.30","221.5","27.0","105.10","18.21","27.00","45.55","12.44","28.08","0","0"
"Hassan Whiteside","Hassan-Whiteside-18664","6000","C","51.74","213.5","22.6","106.90","18.99","25.00","47.15","15.46","33.68","0","0"
"Klay Thompson","Klay-Thompson-13315","6400","SG","38.44","232.5","30.7","103.10","27.55","34.00","62.71","16.51","35.59","0","0"
"Cedi Osman","Cedi-Osman-18912","4500","SF/PF","39.13","212.5","28.9","103.60","18.55","30.00","41.52","12.22","25","0","0"
"Alec Burks","Alec-Burks-13353","4400","PG/SG","46.02","212.5","25.9","103.60","17.57","25.00","41.52","9.88","24.45","0","0"
"Trevor Ariza","Trevor-Ariza-1323","5900","SF/PF","33.86","216","36.6","103.80","20.08","38.00","48.4","9.89","32.75","0","0"
"Rodions Kurucs","Rodions-Kurucs-408801","4300","SF/PF","51.85","231.5","25.3","114.62","17.59","26.00","33.43","18.91","23.88","0","0"
"John Collins","John-Collins-37823","7600","PF/C","52.30","221.5","31.7","105.10","23.95","33.00","76.85","16.71","42.2","0","0"
"Jimmy Butler","Jimmy-Butler-13327","7100","SG/SF","46.11","235","32.9","108.33","25.65","36.00","61.55","20.95","39.38","0","0"
"Austin Rivers","Austin-Rivers-13903","5000","PG/SG","39.97","235","38.3","101.42","13.43","36.00","51.31","12.81","27.72","0","0"
"Channing Frye","Channing-Frye-1484","3100","PF/C","61.69","212.5","11.2","103.60","15.57","16.00","34.34","4.29","17.18","0","0"
"Josh Richardson","Josh-Richardson-18922","5600","SG/SF","45.56","213.5","31.2","106.90","19.85","34.00","49.35","12.48","30.9","0","0"
"Kris Dunn","Kris-Dunn-35215","6100","PG/SG","57.72","212.5","29.2","104.50","20.62","32.00","56.78","19.01","33.52","0","0"
"Marcus Smart","Marcus-Smart-18567","4300","PG/SG","48.66","213.5","27.4","101.75","13.68","30.00","39.09","10.11","23.56","0","0"
"Reggie Jackson","Reggie-Jackson-13352","4900","PG/SG","54.98","216","29.9","100.30","18.35","28.00","40.56","14.23","26.74","0","0"
"Joel Embiid","Joel-Embiid-18578","10100","C","52.32","235","30.3","108.33","35.90","34.00","88.07","37.56","55.15","0","0"
"Harrison Barnes","Harrison-Barnes-13901","5300","SF/PF","45.56","226.5","34.0","100.08","22.30","32.00","45.95","11.3","28.9","0","0"
"Al Horford","Al-Horford-1499","5800","PF/C","54.78","213.5","25.5","101.75","18.34","30.00","49.3","15.43","31.56","0","0"
"Jaren Jackson","Jaren-Jackson-409099","5400.00","PF","55.44","220.5","24.4","103.30","23.03","28.00","41.13","17.07","29.38","0","0"
"Kevin Durant","Kevin-Durant-1348","9500","SF/PF","44.39","232.5","33.0","103.10","28.70","35.00","77.63","27.2","51.41","0","0"
"Nene Hilario","Nene-Hilario-17321","3300","C","52.66","235","13.0","101.42","12.28","19.00","33.61","5.1","17.82","0","0"
"J.J. Redick","J.J.-Redick-1030","5700","SG/SF","36.61","235","32.0","108.33","22.66","33.00","51.63","12.4","30.62","0","0"
"Wesley Matthews","Wesley-Matthews-1339","4300","SG/SF","36.14","226.5","27.8","100.08","19.30","30.00","41.34","11.19","23.08","0","0"
"Khris Middleton","Khris-Middleton-13990","6400","SG/SF","48.28","226.5","29.9","98.80","24.95","31.00","49.89","9.94","34.38","0","0"
"Joe Ingles","Joe-Ingles-18627","5500","SG/SF","38.66","217","29.9","98.88","20.74","31.00","47.91","11.62","29.5","0","0"
"Maxi Kleber","Maxi-Kleber-37845","4400","PF/C","45.56","226.5","23.8","100.08","9.65","28.00","47.06","8.45","23.54","0","0"
"Jaron Blossomgame","Jaron-Blossomgame-570197","3400","SF/PF","39.13","212.5","14.8","103.60","11.57","22.00","25.4","15.22","18.14","0","0"
"Bam Adebayo","Bam-Adebayo-37835","4200","PF/C","51.74","213.5","26.3","106.90","13.08","23.00","37.03","5.72","22.36","0","0"
"Jusuf Nurkic","Jusuf-Nurkic-18619","7900","C","51.85","217","25.1","104.50","23.13","31.00","66.58","19.54","41.93","0","0"
"DeMarcus Cousins","DeMarcus-Cousins-1490","5700","PF/C","56.90","232.5","15.0","103.10","36.99","21.00","43.2","14.08","30.21","0","0"
"Ed Davis","Ed-Davis-1265","3500","C","54.88","231.5","16.7","114.62","14.41","18.00","37.1","5.38","18.56","0","0"
"Kentavious Caldwell-Pope","Kentavious-Caldwell-Pope-16869","4600","SG/SF","41.19","232.5","27.4","112.50","17.59","31.00","38.8","11.21","24.37","0","0"
"Trae Young","Trae-Young-409063","6500","PG","52.27","221.5","31.3","105.10","32.59","33.00","48.1","27.21","34.36","0","0"
"Damian Lillard","Damian-Lillard-13900","8300","PG","48.01","217","33.6","104.50","31.20","35.00","72.39","21.87","43.74","0","0"
"Matthew Dellavedova","Matthew-Dellavedova-16839","3400","PG/SG","41.22","212.5","17.6","103.60","20.81","17.00","35.78","4.26","17.9","0","0"
"Josh Hart","Josh-Hart-37889","5200","PG/SG","41.19","232.5","30.1","112.50","13.69","33.00","43.15","12.07","27.31","0","0"
"Jrue Holiday","Jrue-Holiday-1073","8000.00","PG","49.53","220.5","37.2","104.88","23.82","36.00","67.47","20.12","42.01","0","0"
"Emmanuel Mudiay","Emmanuel-Mudiay-18936","5700.00","PG","38.60","226","28.8","100.17","29.26","30.00","53.07","12.62","29.83","0","0"
"Draymond Green","Draymond-Green-13976","6500","PF/C","56.90","232.5","29.8","103.10","14.15","33.00","50.0","14.62","33.99","0","0"
"D.J. Wilson","D.J.-Wilson-37822","3300","PF/C","47.08","226.5","19.4","98.80","16.44","20.00","34.38","4.13","17.2","0","0"
"Ante Zizic","Ante-Zizic-35180","5700","C","55.72","212.5","22.3","103.60","16.46","32.00","49.31","12.54","29.65","0","0"
"Giannis Antetokounmpo","Giannis-Antetokounmpo-16852","10800","SF/PF","47.08","226.5","29.7","98.80","34.92","33.00","78.37","31.96","55.98","0","0"
"Bogdan Bogdanovic","Bogdan-Bogdanovic-37899","5400","SG/SF","44.67","231.5","27.3","98.20","24.25","30.00","54.97","8.98","27.96","0","0"
"Malcolm Brogdon","Malcolm-Brogdon-35195","5500","PG/SG","55.76","226.5","28.7","98.80","22.14","30.00","53.26","9.99","28.45","0","0"
"Ben Simmons","Ben-Simmons-35184","8600","PG/SF","40.01","235","33.7","108.33","25.96","35.00","64.45","26.58","44.45","0","0"
"Bradley Beal","Bradley-Beal-13898","9400","SG","44.48","216","40.2","103.80","33.43","39.00","72.04","25.56","48.51","0","0"
"Bobby Portis","Bobby-Portis-18909","5900","PF/C","52.84","212.5","20.2","104.50","28.13","28.00","60.75","5.83","30.39","0","0"
"Marcus Morris","Marcus-Morris-13316","4800","SF/PF","37.76","213.5","26.0","101.75","19.53","26.00","42.06","9.1","24.74","0","0"
"James Harden","James-Harden-1037","13200","PG/SG","51.21","235","38.9","101.42","45.01","38.00","95.24","46.53","68.03","0","0"
"Tim Hardaway Jr.","Tim-Hardaway-Jr.-16879","5900.00","SG","46.39","226","24.5","100.17","18.98","29.00","54.39","13.88","30.37","0","0"
"Evan Fournier","Evan-Fournier-13913","5700","SG/SF","40.20","221.5","34.7","105.10","18.50","35.00","45.7","10.49","29.22","0","0"
"Maurice Harkless","Maurice-Harkless-16971","4000","SF/PF","30.39","217","14.0","104.50","14.89","28.00","40.94","7.54","20.48","0","0"
"DeAndre Jordan","DeAndre-Jordan-1486","6300","C","47.82","226.5","30.5","100.08","15.08","31.00","45.07","19.93","32.19","0","0"
"Jayson Tatum","Jayson-Tatum-37782","6200","SF/PF","49.54","213.5","29.8","101.75","23.10","31.00","46.88","14.48","31.61","0","0"
"Willie Cauley-Stein","Willie-Cauley-Stein-18951","6600","C","61.39","231.5","26.3","98.20","20.62","29.00","47.28","17.53","33.65","0","0"
"Dwight Powell","Dwight-Powell-18566","3400","PF/C","57.24","226.5","16.5","100.08","18.77","16.00","34.58","5.4","17.3","0","0"
"Taurean Prince","Taurean-Prince-35218","5200","SF","32.60","221.5","15.7","105.10","25.14","25.00","47.85","6.76","26.41","0","0"
"DeAndre Bembry","DeAndre-Bembry-35198","5100","SG/SF","32.60","221.5","33.2","105.10","18.72","30.00","41.79","11.1","25.75","0","0"
"Joe Harris","Joe-Harris-18587","5000","SG/SF","41.42","231.5","31.4","114.62","19.62","30.00","45.33","9.64","25.24","0","0"
"Luke Kennard","Luke-Kennard-37814","3900","SG/SF","40.32","216","21.8","100.30","20.44","23.00","36.8","6.35","19.66","0","0"
"Luka Doncic","Luka-Doncic-408971","7900","PG/SF","47.30","226.5","32.2","100.08","33.41","33.00","55.75","32.21","39.82","0","0"
"Luke Kornet","Luke-Kornet-37800","4400.00","PF","53.11","226","24.4","100.17","17.90","24.00","44.2","9.75","22.11","0","0"
"C.J. McCollum","C.J.-McCollum-17121","6100","PG/SG","40.50","217","31.9","104.50","22.96","34.00","50.13","16.4","30.66","0","0"
"DeMarre Carroll","DeMarre-Carroll-1174","4900","SF/PF","38.88","231.5","27.2","114.62","21.86","28.00","49.18","6.35","24.6","0","0"
"Zach LaVine","Zach-LaVine-18622","7000","PG/SG","57.72","212.5","30.3","104.50","30.51","32.00","53.94","17.17","35.12","0","0"
"Isaiah Briscoe","Isaiah-Briscoe-37868","3300","PG/SG","43.95","221.5","18.9","105.10","16.10","19.00","23.18","13.12","16.56","0","0"
"Kevin Knox","Kevin-Knox-408820","5400.00","SF","46.39","226","30.4","100.17","21.38","32.00","37.97","21.48","27.12","0","0"
"Mario Hezonja","Mario-Hezonja-18923","3900.00","SG","42.67","226","25.2","100.17","18.00","20.00","38.96","4.5","19.49","0","0"
"Gordon Hayward","Gordon-Hayward-1239","5400","SF/PF","49.54","213.5","23.3","101.75","21.12","25.00","53.97","8.75","27","0","0"
"Alex Caruso","Alex-Caruso-37888","3000","PG/SG","50.06","232.5","0","112.50","0","18.00","23.17","6.2","14.93","0","0"
"Jarrett Allen","Jarrett-Allen-37794","6200","C","54.88","231.5","28.5","114.62","16.29","30.00","61.67","13.33","30.85","0","0"
"Jae Crowder","Jae-Crowder-13942","4700","SF/PF","35.74","217","27.6","98.88","21.43","28.00","46.54","5.05","23.28","0","0"
"Meyers Leonard","Meyers-Leonard-13905","3300","PF/C","52.64","217","16.7","104.50","14.19","16.00","32.66","4.26","16.34","0","0"
"Eric Bledsoe","Eric-Bledsoe-1031","6800","PG/SG","55.76","226.5","26.4","98.80","28.45","31.00","67.33","14.48","33.68","0","0"
"Ian Mahinmi","Ian-Mahinmi-1357","3500","C","51.97","216","12.0","103.80","14.85","17.00","34.6","2.89","17.31","0","0"
"Stanley Johnson","Stanley-Johnson-18913","3200","SF/PF","35.72","216","14.8","100.30","17.23","18.00","30.59","3.51","15.81","0","0"
"Derrick Favors","Derrick-Favors-1266","5100","PF/C","52.60","217","23.9","98.88","19.77","24.00","42.56","11.51","25.14","0","0"
"Jerami Grant","Jerami-Grant-18576","5500.00","SF","54.78","226","36.3","102.62","15.26","32.00","54.07","3.57","27.05","0","0"
"Nikola Vucevic","Nikola-Vucevic-13296","9500","C","56.94","221.5","31.0","105.10","29.54","33.00","69.72","16.8","46.67","0","0"
"Reggie Bullock","Reggie-Bullock-16943","4600","SG/SF","35.72","216","32.4","100.30","17.59","33.00","40.84","10.58","22.55","0","0"
"Stephen Curry","Stephen-Curry-1079","9400","PG/SG","52.91","232.5","31.8","103.10","33.62","35.00","77.16","16.99","45.93","0","0"
"Nerlens Noel","Nerlens-Noel-18575","3400.00","PF","56.62","226","9.3","102.62","14.76","16.00","33.11","3.22","16.62","0","0"
"Brandon Ingram","Brandon-Ingram-35227","6900","SG/SF","43.80","232.5","35.9","112.50","22.92","36.00","49.88","14.93","33.77","0","0"
"Kevin Huerter","Kevin-Huerter-408969","5600","SG/SF","40.13","221.5","36.6","105.10","19.92","33.00","38.35","21.69","27.39","0","0"
"Darius Miller","Darius-Miller-13951","3400.00","SF","37.16","220.5","28.3","104.88","10.60","30.00","33.18","4.4","16.6","0","0"
"Kevon Looney","Kevon-Looney-18945","3900","PF/C","56.65","232.5","23.8","103.10","12.25","20.00","35.78","7.21","19.03","0","0"
"Kyrie Irving","Kyrie-Irving-13334","9000","PG","48.66","213.5","32.0","101.75","30.48","34.00","61.35","22.04","43.82","0","0"
"Dennis Schroder","Dennis-Schroder-18595","5700.00","PG","51.88","226","26.0","102.62","26.37","26.00","45.37","6.93","27.73","0","0"
"D'Angelo Russell","D'Angelo-Russell-18947","8300","PG/SG","54.27","231.5","28.7","114.62","32.47","31.00","63.27","19.51","40.3","0","0"
"Jeff Green","Jeff-Green-1314","4600","SF/PF","46.16","216","28.8","103.80","18.62","26.00","42.98","8.22","22.21","0","0"
"Blake Griffin","Blake-Griffin-1503","9600","PF/C","60.26","216","37.6","100.30","31.42","35.00","84.79","25.71","46.41","0","0"
"Nemanja Bjelica","Nemanja-Bjelica-31814","4100","SF/PF","48.18","231.5","18.9","98.20","13.95","20.00","33.31","8.26","19.72","0","0"
"Kyle Korver","Kyle-Korver-1269","4100","SG/SF","38.66","217","24.3","98.88","19.14","25.00","39.32","5.17","19.67","0","0"
"Rudy Gobert","Rudy-Gobert-16935","8500","C","50.68","217","34.1","98.88","17.71","35.00","66.2","21.92","40.74","0","0"
"Royce O'Neale","Royce-O'Neale-37872","4600","SF","35.74","217","28.6","98.88","10.56","30.00","43.84","7.57","21.94","0","0"
"Shelvin Mack","Shelvin-Mack-13354","3700.00","PG","49.59","220.5","22.0","103.30","25.47","20.00","30.66","2.94","17.6","0","0"
"Al-Farouq Aminu","Al-Farouq-Aminu-1279","5500","SF/PF","30.39","217","29.6","104.50","15.34","32.00","38.44","7.4","26.15","0","0"
"Aron Baynes","Aron-Baynes-14114","3500","C","48.69","213.5","17.0","101.75","16.37","16.00","33.16","3.32","16.59","0","0"
"Wayne Selden","Wayne-Selden-36045","3200","SG/SF","57.72","212.5","17.0","104.50","14.97","16.00","28.8","4.18","15.16","0","0"
"Marvin Bagley III","Marvin-Bagley-III-409321","5200","PF/C","48.18","231.5","22.7","98.20","22.94","27.00","34.47","19.5","24.62","0","0"
"Dwyane Wade","Dwyane-Wade-967","4900","PG/SG","45.56","213.5","25.0","106.90","24.55","24.00","36.08","6.99","23.14","0","0"
"Paul George","Paul-George-1245","9800.00","SF","54.78","226","39.3","102.62","27.56","34.00","72.98","22.29","46.25","0","0"
"Sterling Brown","Sterling-Brown-37821","3300","SG/SF","33.29","226.5","20.3","98.80","17.00","19.00","29.16","4.14","15.57","0","0"
"Jordan Clarkson","Jordan-Clarkson-18631","5200","PG/SG","46.02","212.5","28.0","103.60","24.47","24.00","48.9","8.51","24.46","0","0"
"Garrett Temple","Garrett-Temple-14077","3600.00","SG","36.56","220.5","27.7","103.30","13.03","27.00","31.13","3.18","16.91","0","0"
"Kyle Kuzma","Kyle-Kuzma-37886","7600","SF/PF","48.70","232.5","35.3","112.50","29.38","35.00","52.8","18.51","35.53","0","0"
"Mike Muscala","Mike-Muscala-17379","3600","PF/C","52.32","235","18.7","108.33","14.71","20.00","31.69","4.45","16.68","0","0"
"Jahlil Okafor","Jahlil-Okafor-18902","3100.00","C","47.93","220.5","9.3","104.88","20.36","15.00","25.16","5.95","14.27","0","0"
"D.J. Augustin","D.J.-Augustin-1064","5100","PG","43.95","221.5","27.3","105.10","19.16","29.00","41.99","11.12","23.47","0","0"
"Lauri Markkanen","Lauri-Markkanen-37809","6900","PF","49.16","212.5","30.0","104.50","22.45","32.00","54.19","13.6","31.69","0","0"
"James Johnson","James-Johnson-1195","3700","PF/C","43.96","213.5","20.7","106.90","17.22","17.00","24.58","7.78","16.94","0","0"
"Andre Iguodala","Andre-Iguodala-1334","3900","SG/SF","38.44","232.5","22.8","103.10","13.40","22.00","30.41","8.65","17.73","0","0"
"Steven Adams","Steven-Adams-16848","7200.00","C","56.62","226","36.8","102.62","15.46","32.00","56.12","14.91","32.78","0","0"
"Brook Lopez","Brook-Lopez-1498","4800","C","54.09","226.5","28.1","98.80","12.29","26.00","40.45","8.7","21.75","0","0"
"Tomas Satoransky ","Tomas-Satoransky--36031","6000","PG/SG","52.90","216","30.8","103.80","16.97","32.00","52.36","8.86","27.09","0","0"
"Justise Winslow","Justise-Winslow-18921","6300","PG/SF","49.62","213.5","29.2","106.90","23.46","32.00","49.85","13.84","28.42","0","0"
"Russell Westbrook","Russell-Westbrook-1083","11800.00","PG","51.88","226","38.8","102.62","35.59","34.00","74.17","26.91","52.98","0","0"
"Jonathon Simmons","Jonathon-Simmons-31808","3600","SG/SF","52.17","221.5","14.5","105.10","22.51","20.00","31.08","2.38","16.06","0","0"
"Jeremy Lin","Jeremy-Lin-916","4300","PG/SG","52.27","221.5","25.6","105.10","26.16","22.00","35.24","5.48","19.15","0","0"
"De'Aaron Fox","De'Aaron-Fox-37900","7800","PG","50.84","231.5","29.0","98.20","26.47","32.00","55.25","17.03","34.68","0","0"
"T.J. McConnell","T.J.-McConnell-18956","3900","PG/SG","40.01","235","23.0","108.33","16.61","20.00","34.66","3.71","17.34","0","0"
"Donovan Mitchell","Donovan-Mitchell-37875","8200","PG/SG","47.56","217","34.6","98.88","34.20","35.00","60.39","14.88","36.47","0","0"
"Allonzo Trier","Allonzo-Trier-554950","3300.00","PG","46.39","226","18.2","100.17","16.98","17.00","20.51","11.08","14.65","0","0"
"Jarell Martin","Jarell-Martin-18931","3000","PF/C","53.13","221.5","12.0","105.10","19.43","15.00","23.72","3.71","13.29","0","0"
"Landry Shamet","Landry-Shamet-408841","3100","PG/SG","36.61","235","18.0","108.33","20.05","16.00","19.24","10.39","13.74","0","0"
"Gerald Green","Gerald-Green-13374","4400","SG/SF","48.36","235","28.6","101.42","18.45","24.00","34.31","5.56","19.45","0","0"
"Tyler Johnson","Tyler-Johnson-18720","4100","PG/SG","49.62","213.5","24.0","106.90","18.78","21.00","36.18","4.94","18.1","0","0"
"Ryan Arcidiacono","Ryan-Arcidiacono-36050","3200","PG","44.68","212.5","17.8","104.50","13.41","17.00","28.03","4.21","14.02","0","0"
"JaMychal Green","JaMychal-Green-18729","5200.00","PF","55.44","220.5","22.1","103.30","21.56","22.00","44.84","4.51","22.76","0","0"
"Noah Vonleh","Noah-Vonleh-18597","5800.00","PF","48.19","226","21.4","100.17","19.41","25.00","43.37","11.58","25.35","0","0"
"Iman Shumpert","Iman-Shumpert-13350","3800","SG/SF","30.62","231.5","24.2","98.20","18.61","22.00","28.98","5.69","16.54","0","0"
"Eric Gordon","Eric-Gordon-1077","5900","SG/SF","48.36","235","26.5","101.42","29.45","32.00","42.8","8.75","25.66","0","0"
"Jabari Parker","Jabari-Parker-18593","4700","SF/PF","49.16","212.5","17.2","104.50","25.72","19.00","37.23","3.77","20.38","0","0"
"Terrence Ross","Terrence-Ross-13902","5500","SG/SF","40.20","221.5","28.3","105.10","23.01","27.00","47.68","4.94","23.85","0","0"
"Treveon Graham","Treveon-Graham-36023","3400","SF/PF","38.88","231.5","26.0","114.62","14.06","23.00","23.8","4.76","14.68","0","0"
"Sam Dekker","Sam-Dekker-18929","3300","SF/PF","33.86","216","16.8","103.80","18.38","15.00","26.09","2.49","14.15","0","0"
"Mitchell Robinson","Mitchell-Robinson-408821","3100.00","C","50.94","226","9.0","100.17","8.89","18.00","18.52","10.0","13.23","0","0"
"Elfrid Payton","Elfrid-Payton-18602","6400.00","PG","40.66","220.5","25.3","104.88","20.75","29.00","43.08","12.82","27.11","0","0"
"Dorian Finney-Smith","Dorian-Finney-Smith-36032","3600","SF/PF","38.98","226.5","19.8","100.08","14.97","22.00","29.47","5.64","15.23","0","0"
"Terry Rozier","Terry-Rozier-18894","4400","PG/SG","45.19","213.5","20.2","101.75","21.48","20.00","32.57","5.8","18.59","0","0"
"Rodney Hood","Rodney-Hood-18629","4600","SG/SF","46.02","212.5","21.6","103.60","25.88","23.00","30.9","7.72","19.3","0","0"
"Zach Collins","Zach-Collins-37866","3200","PF/C","52.64","217","19.6","104.50","15.81","15.00","24.33","3.95","13.31","0","0"
"Jaylen Brown","Jaylen-Brown-35181","4500","SG/SF","37.76","213.5","23.6","101.75","22.00","23.00","37.44","4.25","18.73","0","0"
"Ivica Zubac","Ivica-Zubac-35226","4500","C","54.17","232.5","15.1","112.50","23.64","20.00","37.08","4.75","18.55","0","0"
"Seth Curry","Seth-Curry-16825","3200","PG/SG","33.98","217","18.0","104.50","17.56","18.00","26.21","2.98","13.11","0","0"
"Rondae Hollis-Jefferson","Rondae-Hollis-Jefferson-18897","4000","PF/C","51.85","231.5","10.0","114.62","20.88","15.00","32.68","4.09","16.35","0","0"
"Buddy Hield","Buddy-Hield-35206","7100","SG/SF","30.62","231.5","30.0","98.20","23.20","31.00","51.08","12.11","29.04","0","0"
"Robin Lopez","Robin-Lopez-1466","3600","C","50.30","212.5","14.2","104.50","16.26","20.00","28.96","5.27","14.68","0","0"
"Terrance Ferguson","Terrance-Ferguson-37871","3400.00","SF","35.51","226","30.5","102.62","13.37","28.00","27.59","4.08","13.8","0","0"
"Jalen Brunson","Jalen-Brunson-409062","4100","PG/SG","42.94","226.5","20.0","100.08","19.13","24.00","23.06","12.85","16.47","0","0"
"Alex Len","Alex-Len-16886","4900","C","52.30","221.5","19.8","105.10","22.23","18.00","34.3","7.97","19.69","0","0"
"Justin Jackson","Justin-Jackson-37895","3500","SF/PF","30.62","231.5","21.4","98.20","14.53","20.00","27.16","3.67","14.05","0","0"
"Dirk Nowitzki","Dirk-Nowitzki-1346","3000","PF/C","57.24","226.5","10.4","100.08","16.40","12.00","20.26","2.06","12.04","0","0"
"Ricky Rubio","Ricky-Rubio-1001","5700","PG","41.80","217","4.0","98.88","63.30","22.00","35.66","9.57","22.67","0","0"
"Ersan Ilyasova","Ersan-Ilyasova-1301","3200","PF/C","47.08","226.5","16.1","98.80","14.16","14.00","23.73","2.17","12.67","0","0"
"Jose Calderon","Jose-Calderon-1071","3100","PG","46.72","216","15.0","100.30","11.92","17.00","24.57","3.42","12.29","0","0"
"Shaun Livingston","Shaun-Livingston-14007","3000","PG","35.27","232.5","12.6","103.10","14.71","15.00","22.93","3.03","11.73","0","0"
"James Ennis","James-Ennis-18599","3600","SG/SF","35.39","235","17.0","101.42","11.14","19.00","28.05","3.75","14.03","0","0"
"Harry Giles","Harry-Giles-37897","3700","PF/C","48.18","231.5","17.6","98.20","21.71","16.00","20.13","11.39","14.38","0","0"
"Derrick Jones","Derrick-Jones-36064","3800","SF/PF","36.25","213.5","18.0","106.90","17.26","18.00","29.41","4.53","14.71","0","0"
"Shaquille Harrison","Shaquille-Harrison-36065","3300","PG/SF","44.68","212.5","15.0","104.50","17.88","14.00","25.23","3.61","12.62","0","0"
"P.J. Tucker","P.J.-Tucker-13947","5300","SF/PF","35.39","235","36.6","101.42","12.76","35.00","32.17","6.19","20.23","0","0"
"Tyson Chandler","Tyson-Chandler-1482","3400","C","54.17","232.5","13.8","112.50","9.78","14.00","23.58","5.67","12.95","0","0"
"Dion Waiters","Dion-Waiters-13897","4200","SG/SF","45.56","213.5","15.5","106.90","24.06","18.00","30.98","5.07","15.8","0","0"
"Evan Turner","Evan-Turner-1291","4300","SG/SF","40.50","217","23.1","104.50","18.00","20.00","24.49","4.46","15.86","0","0"
"Devin Harris","Devin-Harris-1076","3000","PG/SG","48.01","226.5","10.2","100.08","21.25","12.00","22.03","2.63","11.07","0","0"
"Ivan Rabb","Ivan-Rabb-37854","3100.00","PF","51.71","220.5","8.2","103.30","25.82","13.00","22.18","3.07","11.37","0","0"
"Rodney McGruder","Rodney-McGruder-16850","3200","SG/SF","36.25","213.5","17.5","106.90","16.37","16.00","21.98","5.16","11.69","0","0"
"Michael Beasley","Michael-Beasley-1338","3500","SF/PF","48.70","232.5","11.1","112.50","39.94","11.00","24.75","3.78","12.72","0","0"
"Mohamed Bamba","Mohamed-Bamba-409026","3500","C","54.69","221.5","15.0","105.10","15.98","17.00","17.61","9.96","12.58","0","0"
"Jon Leuer","Jon-Leuer-13317","3100","PF/C","60.26","216","11.7","100.30","20.10","14.00","22.03","4.41","11.02","0","0"
"Patrick Patterson","Patrick-Patterson-1260","3300.00","PF","59.53","226","13.8","102.62","12.40","15.00","22.54","2.33","11.63","0","0"
"Wes Iwundu","Wes-Iwundu-37839","3300","SG/SF","42.85","221.5","16.1","105.10","14.49","15.00","22.89","2.99","11.45","0","0"
"Bruce Brown","Bruce-Brown-408913","3700","PG/SG","40.32","216","22.8","100.30","13.58","20.00","17.74","10.25","12.67","0","0"
"Frank Ntilikina","Frank-Ntilikina-37796","3300.00","PG","38.60","226","21.5","100.17","20.95","14.00","21.0","2.45","11.05","0","0"
"Jonas Jerebko","Jonas-Jerebko-1106","3200","SF/PF","44.39","232.5","12.7","103.10","14.48","13.00","21.2","2.23","10.71","0","0"
"Kelly Olynyk","Kelly-Olynyk-16845","3800","PF/C","50.02","213.5","14.5","106.90","18.27","12.00","19.1","5.46","12.41","0","0"
"Tony Snell","Tony-Snell-16872","3000","SG/SF","37.23","226.5","14.3","98.80","12.61","15.00","19.51","2.71","9.76","0","0"
"Yogi Ferrell","Yogi-Ferrell-35999","3100","PG/SG","50.84","231.5","17.6","98.20","14.14","13.00","19.47","3.04","9.87","0","0"
"Thomas Bryant ","Thomas-Bryant--37884","5600","PF/C","51.20","216","20.8","103.80","18.02","19.00","35.24","2.1","17.63","0","0"
"Jonah Bolden","Jonah-Bolden-554969","3200","PF","46.65","235","14.1","108.33","14.22","15.00","13.64","7.36","9.74","0","0"
"Hamidou Diallo","Hamidou-Diallo-408800","3000.00","SG","35.51","226","9.8","102.62","13.00","11.00","12.43","7.03","8.88","0","0"
"JaVale McGee","JaVale-McGee-1485","4700","C","54.17","232.5","17.4","112.50","17.90","11.00","25.29","3.26","12.65","0","0"
"Chasson Randle","Chasson-Randle-36002","3100","PG/SG","52.90","216","16.6","103.80","14.77","11.00","15.83","1.9","7.92","0","0"
"Grayson Allen","Grayson-Allen-409227","3300","PG/SG","38.66","217","17.8","98.88","20.75","10.00","11.8","7.07","8.43","0","0"
"Frank Jackson","Frank-Jackson-37855","3200.00","PG","49.53","220.5","13.8","104.88","16.20","10.00","10.96","6.1","7.83","0","0"
"Vince Carter","Vince-Carter-1066","3200","SF/PF","40.13","221.5","12.5","105.10","18.48","9.00","14.65","1.93","7.33","0","0"
"Langston Galloway","Langston-Galloway-18717","3500","PG/SG","40.32","216","15.6","100.30","15.23","10.00","15.97","2.13","7.99","0","0"
"Gary Clark","Gary-Clark-570141","4000","PF/C","48.26","235","16.0","101.42","9.44","10.00","12.75","7.22","9.11","0","0"
"Shabazz Napier","Shabazz-Napier-18598","4200","PG/SG","44.98","231.5","21.0","114.62","27.70","11.00","18.77","2.68","9.55","0","0"
"Abdel Nader","Abdel-Nader-35179","3200.00","PF","41.14","226","11.5","102.62","16.48","12.00","14.43","1.67","7.22","0","0"
"Omari Spellman","Omari-Spellman-408970","3800","PF/C","48.95","221.5","16.8","105.10","14.97","10.00","11.8","6.37","8.43","0","0"
"Khyri Thomas","Khyri-Thomas-408839","3000","SG","40.32","216","10.8","100.30","12.09","10.00","9.28","5.16","6.63","0","0"
"Jevon Carter","Jevon-Carter-409100","3500.00","PG","49.59","220.5","15.3","103.30","17.07","12.00","10.72","6.43","7.66","0","0"
"Jake Layman","Jake-Layman-35216","3700","SF/PF","30.39","217","21.0","104.50","17.97","11.00","15.18","2.56","7.99","0","0"
"Alfonzo McKinnie","Alfonzo-McKinnie-37808","3300","SF/PF","36.47","232.5","16.3","103.10","12.20","12.00","13.85","2.47","6.93","0","0"
"Ian Clark","Ian-Clark-16922","3000.00","SG","38.64","220.5","3.5","104.88","7.60","8.00","12.15","1.59","6.08","0","0"
"Troy Brown","Troy-Brown-409043","3000","SG/SF","33.86","216","9.8","103.80","13.88","8.00","8.39","5.03","5.99","0","0"
"Sviatoslav Mykhailiuk","Sviatoslav-Mykhailiuk-409280","3400","SG/SF","35.52","232.5","8.9","112.50","15.11","8.00","9.53","5.15","6.81","0","0"
"Tim Frazier","Tim-Frazier-18743","3200.00","PG","40.66","220.5","15.8","104.88","15.35","7.00","12.37","1.62","6.19","0","0"
"Enes Kanter","Enes-Kanter-13299","6200.00","C","50.94","226","27.0","100.17","24.83","10.00","15.75","7.35","10.5","0","0"
"Solomon Hill","Solomon-Hill-16863","3000.00","SF","37.16","220.5","0","104.88","0","8.00","10.13","1.33","5.07","0","0"
"Brandon Knight","Brandon-Knight-13336","3200","PG/SG","51.21","235","10.3","101.42","25.60","5.00","7.73","1.7","4.64","0","0"
"Daniel Theis","Daniel-Theis-37784","3200","PF/C","48.69","213.5","12.7","101.75","14.80","5.00","8.44","1.15","4.44","0","0"
