"nameCol","idCol","salaryCol","positionCol","dvpCol","ouCol","mpgCol","paceCol","usgCol","pminCol","ceilCol","floorCol","pointsCol","predictCol","actualCol"
"Pau Gasol","Pau-Gasol-1502","3200","C","0","230.5","10.3","99.70","21.93","20.00","45.11","10.21","25.27","0","0"
"Marco Belinelli","Marco-Belinelli-1033","4000","SG/SF","0","230.5","23.0","99.70","19.80","32.00","45.14","7.93","27.16","0","0"
"Jakob Poeltl","Jakob-Poeltl-35187","3200","C","0","230.5","9.8","99.70","14.03","22.00","42.64","4.44","21.33","0","0"
"Davis Bertans","Davis-Bertans-36051","4100","SF/PF","0","230.5","27.9","99.70","17.20","32.00","52.09","8.5","26.06","0","0"
"Bryn Forbes","Bryn-Forbes-36052","4300","PG/SG","0","230.5","31.0","99.70","15.92","32.00","40.98","6.88","25","0","0"
"Willie Cauley-Stein","Willie-Cauley-Stein-18951","5500","C","0","235.5","28.6","98.20","15.01","29.00","45.41","16.35","31.02","0","0"
"Eric Gordon","Eric-Gordon-1077","4800","SG/SF","0","235.5","33.0","101.42","21.44","34.00","44.45","9.09","26.65","0","0"
"Rudy Gay","Rudy-Gay-1341","5900","SF/PF","0","230.5","29.2","99.70","22.22","31.00","48.38","13.12","32.56","0","0"
"James Harden","James-Harden-1037","12600","PG/SG","0","235.5","38.9","101.42","40.92","38.00","93.7","45.78","66.93","0","0"
"Iman Shumpert","Iman-Shumpert-13350","3900","SG/SF","0","235.5","28.8","98.20","14.99","28.00","36.14","6.52","20.63","0","0"
"Patty Mills","Patty-Mills-13977","4200","PG/SG","0","230.5","24.2","99.70","21.96","27.00","43.72","6.08","21.87","0","0"
"Draymond Green","Draymond-Green-13976","6300","PF/C","0","230.5","32.4","103.10","12.73","32.00","48.03","15.46","32.83","0","0"
"Kenneth Faried","Kenneth-Faried-13313","7000","PF/C","0","235.5","30.8","101.42","20.02","33.00","56.61","19.09","36.36","0","0"
"Marvin Bagley III","Marvin-Bagley-III-409321","5800","PF/C","0","235.5","28.2","98.20","25.76","29.00","42.13","22.75","30.09","0","0"
"Chris Paul","Chris-Paul-1087","7100","PG","0","235.5","28.5","101.42","23.01","30.00","53.86","16.75","36.74","0","0"
"De'Aaron Fox","De'Aaron-Fox-37900","7200","PG","0","235.5","31.1","98.20","27.80","32.00","55.6","19.04","36.41","0","0"
"Klay Thompson","Klay-Thompson-13315","6200","SG","0","230.5","34.3","103.10","21.19","32.00","52.78","14.75","31.25","0","0"
"DeMarcus Cousins","DeMarcus-Cousins-1490","6800","PF/C","0","230.5","24.5","103.10","28.32","25.00","49.46","18.53","34.18","0","0"
"Kevin Durant","Kevin-Durant-1348","9300","SF/PF","0","230.5","35.7","103.10","29.79","32.00","67.71","23.55","46.09","0","0"
"Stephen Curry","Stephen-Curry-1079","9100","PG/SG","0","230.5","34.3","103.10","28.70","32.00","75.75","16.4","44.56","0","0"
"Buddy Hield","Buddy-Hield-35206","6700","SG/SF","0","235.5","33.9","98.20","23.20","33.00","55.85","14.04","32.36","0","0"
"Andre Iguodala","Andre-Iguodala-1334","3900","SG/SF","0","230.5","26.5","103.10","11.07","24.00","31.44","8.94","18.78","0","0"
"P.J. Tucker","P.J.-Tucker-13947","4400","SF/PF","0","235.5","35.7","101.42","10.42","34.00","32.8","6.31","20.63","0","0"
"Bogdan Bogdanovic","Bogdan-Bogdanovic-37899","5200","SG/SF","0","235.5","24.5","98.20","24.55","25.00","47.4","8.32","24.11","0","0"
"Lonnie Walker","Lonnie-Walker-409137","3000","PG/SG","0","230.5","6.5","99.70","15.84","18.00","19.29","10.91","13.78","0","0"
"Kevon Looney","Kevon-Looney-18945","4000","PF/C","0","230.5","19.4","103.10","15.09","20.00","34.27","5.93","17.8","0","0"
"Harry Giles","Harry-Giles-37897","3400","PF/C","0","235.5","13.2","98.20","20.91","15.00","20.93","11.3","14.95","0","0"
"Nemanja Bjelica","Nemanja-Bjelica-31814","4200","PF","0","235.5","21.2","98.20","17.94","19.00","30.03","7.77","18.11","0","0"
"Yogi Ferrell","Yogi-Ferrell-35999","3400","PG/SG","0","235.5","15.2","98.20","18.00","16.00","24.33","3.32","12.33","0","0"
"Nene Hilario","Nene-Hilario-17321","3400","C","0","235.5","11.9","101.42","9.94","12.00","22.71","3.44","12.04","0","0"
"Shaun Livingston","Shaun-Livingston-14007","3000","PG","0","230.5","14.9","103.10","13.73","15.00","21.21","2.93","10.61","0","0"
"James Ennis","James-Ennis-18599","4000","SF/PF","0","235.5","26.7","101.42","10.33","23.00","27.01","3.97","13.51","0","0"
"Chimezie Metu","Chimezie-Metu-409136","3000","PF/C","0","230.5","2.7","99.70","32.38","14.00","13.51","7.64","9.65","0","0"
"Austin Rivers","Austin-Rivers-13903","5100","PG/SG","0","235.5","30.0","101.42","15.29","23.00","31.26","3.61","15.64","0","0"
"Alfonzo McKinnie","Alfonzo-McKinnie-37808","3200","SG/SF","0","230.5","15.5","103.10","11.45","15.00","19.47","3.44","9.74","0","0"
"Gerald Green","Gerald-Green-13374","4000","SG/SF","0","235.5","20.3","101.42","17.20","13.00","19.14","3.1","10.85","0","0"
"Justin Jackson","Justin-Jackson-37895","3300","SF/PF","0","235.5","13.3","98.20","13.27","14.00","16.85","2.37","8.67","0","0"
"Dante Cunningham","Dante-Cunningham-1259","3000","SF/PF","0","230.5","9.4","99.70","7.50","12.00","15.05","1.71","7.53","0","0"
"Quinn Cook","Quinn-Cook-31771","3200","PG","0","230.5","12.8","103.10","17.06","5.00","8.72","0.85","4.36","0","0"
"Jordan Bell","Jordan-Bell-37877","3200","PF/C","0","230.5","10.5","103.10","17.74","4.00","7.16","0.77","3.58","0","0"
"Jonas Jerebko","Jonas-Jerebko-1106","3300","SF/PF","0","230.5","2.1","103.10","18.78","4.00","7.03","0.75","3.59","0","0"
