"nameCol","idCol","salaryCol","positionCol","dvpCol","ouCol","mpgCol","paceCol","usgCol","pminCol","ceilCol","floorCol","pointsCol","predictCol","actualCol"
"Zaza Pachulia","Zaza-Pachulia-1455","4100","C","56.04","216","25.7","100.30","11.12","32.00","53.47","12.32","31.36","0","0"
"Chandler Hutchison","Chandler-Hutchison-408877","3600","SF/PF","38.30","212.5","27.7","104.50","11.64","30.00","36.61","18.17","26.15","0","0"
"Jonathan Isaac","Jonathan-Isaac-37841","4200","SF/PF","56.94","221.5","27.7","105.10","13.09","30.00","44.9","7.51","24.71","0","0"
"Otto Porter","Otto-Porter-17069","6200","SF/PF","33.86","216","32.0","103.80","21.28","35.00","72.36","11.69","36.2","0","0"
"Cameron Payne","Cameron-Payne-18941","3400","PG/SG","41.22","212.5","18.9","103.60","18.38","20.00","33.58","5.62","19.64","0","0"
"Collin Sexton","Collin-Sexton-408896","4700","PG","53.20","212.5","29.6","103.60","23.45","31.00","37.46","15.55","26.76","0","0"
"George Hill","George-Hill-993","3400","PG/SG","42.14","226.5","19.9","98.80","13.82","21.00","37.11","5.3","19.2","0","0"
"Spencer Dinwiddie","Spencer-Dinwiddie-18588","5700","PG/SG","54.27","231.5","26.5","114.62","27.48","28.00","54.6","8.45","32.12","0","0"
"Dewayne Dedmon","Dewayne-Dedmon-16894","5000","PF/C","52.30","221.5","27.0","105.10","18.21","27.00","45.55","12.44","28.08","0","0"
"Cedi Osman","Cedi-Osman-18912","4500","SF/PF","39.13","212.5","28.9","103.60","18.55","30.00","41.52","12.22","25","0","0"
"Alec Burks","Alec-Burks-13353","4400","PG/SG","46.02","212.5","25.9","103.60","17.57","25.00","41.52","9.88","24.45","0","0"
"John Collins","John-Collins-37823","7600","PF/C","52.30","221.5","31.7","105.10","23.95","33.00","76.85","16.71","42.2","0","0"
"Trevor Ariza","Trevor-Ariza-1323","5900","SF/PF","33.86","216","36.6","103.80","20.08","38.00","48.4","9.89","32.75","0","0"
"Rodions Kurucs","Rodions-Kurucs-408801","4300","SF/PF","51.85","231.5","25.3","114.62","17.59","26.00","33.43","18.91","23.88","0","0"
"Channing Frye","Channing-Frye-1484","3100","PF/C","61.69","212.5","11.2","103.60","15.57","16.00","34.34","4.29","17.18","0","0"
"Kris Dunn","Kris-Dunn-35215","6100","PG/SG","57.72","212.5","29.2","104.50","20.62","32.00","56.78","19.01","33.52","0","0"
"Reggie Jackson","Reggie-Jackson-13352","4900","PG/SG","54.98","216","29.9","100.30","18.35","28.00","40.56","14.23","26.74","0","0"
"Harrison Barnes","Harrison-Barnes-13901","5300","SF/PF","45.56","226.5","34.0","100.08","22.30","32.00","45.95","11.3","28.9","0","0"
"Khris Middleton","Khris-Middleton-13990","6400","SG/SF","48.28","226.5","29.9","98.80","24.95","31.00","49.89","9.94","34.38","0","0"
"Wesley Matthews","Wesley-Matthews-1339","4300","SG/SF","36.14","226.5","27.8","100.08","19.30","30.00","41.34","11.19","23.08","0","0"
"Maxi Kleber","Maxi-Kleber-37845","4400","PF/C","45.56","226.5","23.8","100.08","9.65","28.00","47.06","8.45","23.54","0","0"
"Jaron Blossomgame","Jaron-Blossomgame-570197","3400","SF/PF","39.13","212.5","14.8","103.60","11.57","22.00","25.4","15.22","18.14","0","0"
"Ed Davis","Ed-Davis-1265","3500","C","54.88","231.5","16.7","114.62","14.41","18.00","37.1","5.38","18.56","0","0"
"Trae Young","Trae-Young-409063","6500","PG","52.27","221.5","31.3","105.10","32.59","33.00","48.1","27.21","34.36","0","0"
"Matthew Dellavedova","Matthew-Dellavedova-16839","3400","PG/SG","41.22","212.5","17.6","103.60","20.81","17.00","35.78","4.26","17.9","0","0"
"D.J. Wilson","D.J.-Wilson-37822","3300","PF/C","47.08","226.5","19.4","98.80","16.44","20.00","34.38","4.13","17.2","0","0"
"Ante Zizic","Ante-Zizic-35180","5700","C","55.72","212.5","22.3","103.60","16.46","32.00","49.31","12.54","29.65","0","0"
"Giannis Antetokounmpo","Giannis-Antetokounmpo-16852","10800","SF/PF","47.08","226.5","29.7","98.80","34.92","33.00","78.37","31.96","55.98","0","0"
"Bogdan Bogdanovic","Bogdan-Bogdanovic-37899","5400","SG/SF","44.67","231.5","27.3","98.20","24.25","30.00","54.97","8.98","27.96","0","0"
"Malcolm Brogdon","Malcolm-Brogdon-35195","5500","PG/SG","55.76","226.5","28.7","98.80","22.14","30.00","53.26","9.99","28.45","0","0"
"Bradley Beal","Bradley-Beal-13898","9400","SG","44.48","216","40.2","103.80","33.43","39.00","72.04","25.56","48.51","0","0"
"Bobby Portis","Bobby-Portis-18909","5900","PF/C","52.84","212.5","20.2","104.50","28.13","28.00","60.75","5.83","30.39","0","0"
"Evan Fournier","Evan-Fournier-13913","5700","SG/SF","40.20","221.5","34.7","105.10","18.50","35.00","45.7","10.49","29.22","0","0"
"DeAndre Jordan","DeAndre-Jordan-1486","6300","C","47.82","226.5","30.5","100.08","15.08","31.00","45.07","19.93","32.19","0","0"
"Willie Cauley-Stein","Willie-Cauley-Stein-18951","6600","C","61.39","231.5","26.3","98.20","20.62","29.00","47.28","17.53","33.65","0","0"
"Dwight Powell","Dwight-Powell-18566","3400","PF/C","57.24","226.5","16.5","100.08","18.77","16.00","34.58","5.4","17.3","0","0"
"Taurean Prince","Taurean-Prince-35218","5200","SF","32.60","221.5","15.7","105.10","25.14","25.00","47.85","6.76","26.41","0","0"
"Joe Harris","Joe-Harris-18587","5000","SG/SF","41.42","231.5","31.4","114.62","19.62","30.00","45.33","9.64","25.24","0","0"
"DeAndre Bembry","DeAndre-Bembry-35198","5100","SG/SF","32.60","221.5","33.2","105.10","18.72","30.00","41.79","11.1","25.75","0","0"
"Luke Kennard","Luke-Kennard-37814","3900","SG/SF","40.32","216","21.8","100.30","20.44","23.00","36.8","6.35","19.66","0","0"
"Luka Doncic","Luka-Doncic-408971","7900","PG/SF","47.30","226.5","32.2","100.08","33.41","33.00","55.75","32.21","39.82","0","0"
"Isaiah Briscoe","Isaiah-Briscoe-37868","3300","PG/SG","43.95","221.5","18.9","105.10","16.10","19.00","23.18","13.12","16.56","0","0"
"Zach LaVine","Zach-LaVine-18622","7000","PG/SG","57.72","212.5","30.3","104.50","30.51","32.00","53.94","17.17","35.12","0","0"
"DeMarre Carroll","DeMarre-Carroll-1174","4900","SF/PF","38.88","231.5","27.2","114.62","21.86","28.00","49.18","6.35","24.6","0","0"
"Jarrett Allen","Jarrett-Allen-37794","6200","C","54.88","231.5","28.5","114.62","16.29","30.00","61.67","13.33","30.85","0","0"
"Eric Bledsoe","Eric-Bledsoe-1031","6800","PG/SG","55.76","226.5","26.4","98.80","28.45","31.00","67.33","14.48","33.68","0","0"
"Ian Mahinmi","Ian-Mahinmi-1357","3500","C","51.97","216","12.0","103.80","14.85","17.00","34.6","2.89","17.31","0","0"
"Stanley Johnson","Stanley-Johnson-18913","3200","SF/PF","35.72","216","14.8","100.30","17.23","18.00","30.59","3.51","15.81","0","0"
"Nikola Vucevic","Nikola-Vucevic-13296","9500","C","56.94","221.5","31.0","105.10","29.54","33.00","69.72","16.8","46.67","0","0"
"Reggie Bullock","Reggie-Bullock-16943","4600","SG/SF","35.72","216","32.4","100.30","17.59","33.00","40.84","10.58","22.55","0","0"
"Kevin Huerter","Kevin-Huerter-408969","5600","SG/SF","40.13","221.5","36.6","105.10","19.92","33.00","38.35","21.69","27.39","0","0"
"D'Angelo Russell","D'Angelo-Russell-18947","8300","PG/SG","54.27","231.5","28.7","114.62","32.47","31.00","63.27","19.51","40.3","0","0"
"Blake Griffin","Blake-Griffin-1503","9600","PF/C","60.26","216","37.6","100.30","31.42","35.00","84.79","25.71","46.41","0","0"
"Jeff Green","Jeff-Green-1314","4600","SF/PF","46.16","216","28.8","103.80","18.62","26.00","42.98","8.22","22.21","0","0"
"Nemanja Bjelica","Nemanja-Bjelica-31814","4100","SF/PF","48.18","231.5","18.9","98.20","13.95","20.00","33.31","8.26","19.72","0","0"
"Wayne Selden","Wayne-Selden-36045","3200","SG/SF","57.72","212.5","17.0","104.50","14.97","16.00","28.8","4.18","15.16","0","0"
"Marvin Bagley III","Marvin-Bagley-III-409321","5200","PF/C","48.18","231.5","22.7","98.20","22.94","27.00","34.47","19.5","24.62","0","0"
"Sterling Brown","Sterling-Brown-37821","3300","SG/SF","33.29","226.5","20.3","98.80","17.00","19.00","29.16","4.14","15.57","0","0"
"Jordan Clarkson","Jordan-Clarkson-18631","5200","PG/SG","46.02","212.5","28.0","103.60","24.47","24.00","48.9","8.51","24.46","0","0"
"D.J. Augustin","D.J.-Augustin-1064","5100","PG","43.95","221.5","27.3","105.10","19.16","29.00","41.99","11.12","23.47","0","0"
"Lauri Markkanen","Lauri-Markkanen-37809","6900","PF","49.16","212.5","30.0","104.50","22.45","32.00","54.19","13.6","31.69","0","0"
"Brook Lopez","Brook-Lopez-1498","4800","C","54.09","226.5","28.1","98.80","12.29","26.00","40.45","8.7","21.75","0","0"
"Tomas Satoransky ","Tomas-Satoransky--36031","6000","PG/SG","52.90","216","30.8","103.80","16.97","32.00","52.36","8.86","27.09","0","0"
"Jonathon Simmons","Jonathon-Simmons-31808","3600","SG/SF","52.17","221.5","14.5","105.10","22.51","20.00","31.08","2.38","16.06","0","0"
"Jeremy Lin","Jeremy-Lin-916","4300","PG/SG","52.27","221.5","25.6","105.10","26.16","22.00","35.24","5.48","19.15","0","0"
"De'Aaron Fox","De'Aaron-Fox-37900","7800","PG","50.84","231.5","29.0","98.20","26.47","32.00","55.25","17.03","34.68","0","0"
"Jarell Martin","Jarell-Martin-18931","3000","PF/C","53.13","221.5","12.0","105.10","19.43","15.00","23.72","3.71","13.29","0","0"
"Ryan Arcidiacono","Ryan-Arcidiacono-36050","3200","PG","44.68","212.5","17.8","104.50","13.41","17.00","28.03","4.21","14.02","0","0"
"Iman Shumpert","Iman-Shumpert-13350","3800","SG/SF","30.62","231.5","24.2","98.20","18.61","22.00","28.98","5.69","16.54","0","0"
"Jabari Parker","Jabari-Parker-18593","4700","SF/PF","49.16","212.5","17.2","104.50","25.72","19.00","37.23","3.77","20.38","0","0"
"Terrence Ross","Terrence-Ross-13902","5500","SG/SF","40.20","221.5","28.3","105.10","23.01","27.00","47.68","4.94","23.85","0","0"
"Treveon Graham","Treveon-Graham-36023","3400","SF/PF","38.88","231.5","26.0","114.62","14.06","23.00","23.8","4.76","14.68","0","0"
"Sam Dekker","Sam-Dekker-18929","3300","SF/PF","33.86","216","16.8","103.80","18.38","15.00","26.09","2.49","14.15","0","0"
"Dorian Finney-Smith","Dorian-Finney-Smith-36032","3600","SF/PF","38.98","226.5","19.8","100.08","14.97","22.00","29.47","5.64","15.23","0","0"
"Rodney Hood","Rodney-Hood-18629","4600","SG/SF","46.02","212.5","21.6","103.60","25.88","23.00","30.9","7.72","19.3","0","0"
"Buddy Hield","Buddy-Hield-35206","7100","SG/SF","30.62","231.5","30.0","98.20","23.20","31.00","51.08","12.11","29.04","0","0"
"Rondae Hollis-Jefferson","Rondae-Hollis-Jefferson-18897","4000","PF/C","51.85","231.5","10.0","114.62","20.88","15.00","32.68","4.09","16.35","0","0"
"Robin Lopez","Robin-Lopez-1466","3600","C","50.30","212.5","14.2","104.50","16.26","20.00","28.96","5.27","14.68","0","0"
"Alex Len","Alex-Len-16886","4900","C","52.30","221.5","19.8","105.10","22.23","18.00","34.3","7.97","19.69","0","0"
"Jalen Brunson","Jalen-Brunson-409062","4100","PG/SG","42.94","226.5","20.0","100.08","19.13","24.00","23.06","12.85","16.47","0","0"
"Dirk Nowitzki","Dirk-Nowitzki-1346","3000","PF/C","57.24","226.5","10.4","100.08","16.40","12.00","20.26","2.06","12.04","0","0"
"Justin Jackson","Justin-Jackson-37895","3500","SF/PF","30.62","231.5","21.4","98.20","14.53","20.00","27.16","3.67","14.05","0","0"
"Jose Calderon","Jose-Calderon-1071","3100","PG","46.72","216","15.0","100.30","11.92","17.00","24.57","3.42","12.29","0","0"
"Ersan Ilyasova","Ersan-Ilyasova-1301","3200","PF/C","47.08","226.5","16.1","98.80","14.16","14.00","23.73","2.17","12.67","0","0"
"Harry Giles","Harry-Giles-37897","3700","PF/C","48.18","231.5","17.6","98.20","21.71","16.00","20.13","11.39","14.38","0","0"
"Shaquille Harrison","Shaquille-Harrison-36065","3300","PG/SF","44.68","212.5","15.0","104.50","17.88","14.00","25.23","3.61","12.62","0","0"
"Devin Harris","Devin-Harris-1076","3000","PG/SG","48.01","226.5","10.2","100.08","21.25","12.00","22.03","2.63","11.07","0","0"
"Mohamed Bamba","Mohamed-Bamba-409026","3500","C","54.69","221.5","15.0","105.10","15.98","17.00","17.61","9.96","12.58","0","0"
"Jon Leuer","Jon-Leuer-13317","3100","PF/C","60.26","216","11.7","100.30","20.10","14.00","22.03","4.41","11.02","0","0"
"Wes Iwundu","Wes-Iwundu-37839","3300","SG/SF","42.85","221.5","16.1","105.10","14.49","15.00","22.89","2.99","11.45","0","0"
"Bruce Brown","Bruce-Brown-408913","3700","PG/SG","40.32","216","22.8","100.30","13.58","20.00","17.74","10.25","12.67","0","0"
"Tony Snell","Tony-Snell-16872","3000","SG/SF","37.23","226.5","14.3","98.80","12.61","15.00","19.51","2.71","9.76","0","0"
"Yogi Ferrell","Yogi-Ferrell-35999","3100","PG/SG","50.84","231.5","17.6","98.20","14.14","13.00","19.47","3.04","9.87","0","0"
"Thomas Bryant ","Thomas-Bryant--37884","5600","PF/C","51.20","216","20.8","103.80","18.02","19.00","35.24","2.1","17.63","0","0"
"Chasson Randle","Chasson-Randle-36002","3100","PG/SG","52.90","216","16.6","103.80","14.77","11.00","15.83","1.9","7.92","0","0"
"Vince Carter","Vince-Carter-1066","3200","SF/PF","40.13","221.5","12.5","105.10","18.48","9.00","14.65","1.93","7.33","0","0"
"Langston Galloway","Langston-Galloway-18717","3500","PG/SG","40.32","216","15.6","100.30","15.23","10.00","15.97","2.13","7.99","0","0"
"Shabazz Napier","Shabazz-Napier-18598","4200","PG/SG","44.98","231.5","21.0","114.62","27.70","11.00","18.77","2.68","9.55","0","0"
"Omari Spellman","Omari-Spellman-408970","3800","PF/C","48.95","221.5","16.8","105.10","14.97","10.00","11.8","6.37","8.43","0","0"
"Khyri Thomas","Khyri-Thomas-408839","3000","SG","40.32","216","10.8","100.30","12.09","10.00","9.28","5.16","6.63","0","0"
"Troy Brown","Troy-Brown-409043","3000","SG/SF","33.86","216","9.8","103.80","13.88","8.00","8.39","5.03","5.99","0","0"
