"nameCol","idCol","salaryCol","positionCol","dvpCol","ouCol","mpgCol","paceCol","usgCol","pminCol","ceilCol","floorCol","pointsCol","predictCol","actualCol"
"Rodions Kurucs","Rodions-Kurucs-408801","3500","SF/PF","42.65","220","23.0","114.62","15.80","31.00","30.88","9.7","26.37","0","0"
"Shabazz Napier","Shabazz-Napier-18598","3400","PG/SG","40.46","220","23.4","114.62","25.09","27.00","42.73","19.2","23.53","0","0"
"Garrett Temple","Garrett-Temple-14077","3600","SG/SF","36.65","214.5","31.5","103.30","12.41","30.00","36.47","16.31","22.72","0","0"
"Marco Belinelli","Marco-Belinelli-1033","3300","SG/SF","37.89","214","20.5","99.70","19.76","24.00","30.11","14.55","20.72","0","0"
"Reggie Bullock","Reggie-Bullock-16943","3700","SG/SF","38.66","214","29.5","100.30","17.61","32.00","37.48","15.88","23.11","0","0"
"Trey Burke","Trey-Burke-17029","3200","PG/SG","48.51","221.5","13.0","100.17","30.15","20.00","34.09","17.21","19.81","0","0"
"Davis Bertans","Davis-Bertans-36051","3600","SF/PF","51.81","214","23.7","99.70","11.51","30.00","36.05","17.75","22.16","0","0"
"Ed Davis","Ed-Davis-1265","3600","C","49.84","220","19.6","114.62","9.73","22.00","37.27","16.41","22.17","0","0"
"Reggie Jackson","Reggie-Jackson-13352","4700","PG/SG","51.73","214","26.7","100.30","26.05","28.00","40.98","15.59","28.76","0","0"
"P.J. Tucker","P.J.-Tucker-13947","3800","SF/PF","35.01","216","35.5","101.42","8.31","35.00","45.01","19.44","23.12","0","0"
"Al Horford","Al-Horford-1499","5600","PF/C","58.12","220","24.8","101.75","21.30","30.00","45.64","17.89","33.88","0","0"
"Bogdan Bogdanovic","Bogdan-Bogdanovic-37899","5300","SG/SF","46.86","221.5","30.5","98.20","26.59","34.00","45.77","19.34","31.81","0","0"
"LaMarcus Aldridge","LaMarcus-Aldridge-1349","7400","PF/C","51.81","214","33.5","99.70","28.01","36.00","63.91","28.16","44.2","0","0"
"Joe Ingles","Joe-Ingles-18627","4900","SG/SF","36.35","222","29.0","98.88","17.77","32.00","44.81","19.5","29.23","0","0"
"Dennis Smith Jr.","Dennis-Smith-Jr.-37847","4500","PG","53.16","222","25.0","100.08","20.79","29.00","35.83","14.94","26.58","0","0"
"Jakob Poeltl","Jakob-Poeltl-35187","3400","C","52.08","214","15.8","99.70","15.50","21.00","40.0","17.82","20.09","0","0"
"Kyle Anderson","Kyle-Anderson-18615","5200","PG/SF","41.73","214.5","34.3","103.30","14.36","34.00","42.23","15.58","30.67","0","0"
"DeAndre Jordan","DeAndre-Jordan-1486","6100","C","57.27","222","29.1","100.08","13.24","32.00","44.66","21.47","35.9","0","0"
"Willie Cauley-Stein","Willie-Cauley-Stein-18951","5700","C","52.55","221.5","30.0","98.20","19.82","31.00","45.79","18.9","33.04","0","0"
"JaMychal Green","JaMychal-Green-18729","3900","SF/PF","55.00","214.5","22.3","103.30","16.70","22.00","37.57","19.67","22.51","0","0"
"Aaron Gordon","Aaron-Gordon-18601","6700","SF/PF","52.79","221.5","35.4","105.10","19.16","35.00","49.7","21.21","38.5","0","0"
"Harrison Barnes","Harrison-Barnes-13901","5100","SF/PF","44.57","222","30.9","100.08","20.49","33.00","37.17","16.95","29.27","0","0"
"Gary Harris","Gary-Harris-18617","5000","SG","46.53","216","25.0","99.62","20.65","32.00","46.51","25.99","28.69","0","0"
"Jonathan Isaac","Jonathan-Isaac-37841","3800","SF/PF","57.21","221.5","26.7","105.10","14.81","26.00","34.15","16.59","21.6","0","0"
"Jaren Jackson","Jaren-Jackson-409099","5800","PF/C","55.00","214.5","26.7","103.30","20.42","32.00","33.86","6.78","32.75","0","0"
"Danuel House","Danuel-House-36029","4200","SF/PF","49.22","216","29.3","101.42","11.59","30.00","38.63","14.37","23.67","0","0"
"Clint Capela","Clint-Capela-18610","7500","C","51.86","216","36.2","101.42","16.91","35.00","63.44","26.66","42.32","0","0"
"De'Aaron Fox","De'Aaron-Fox-37900","6900","PG","50.41","221.5","32.2","98.20","27.45","34.00","47.97","19.86","38.87","0","0"
"Kyle Korver","Kyle-Korver-1269","3200","SG/SF","36.35","222","19.2","98.88","17.26","22.00","31.63","14.23","17.95","0","0"
"Eric Bledsoe","Eric-Bledsoe-1031","5900","PG/SG","49.07","222","27.3","98.80","20.61","31.00","48.1","20.14","32.97","0","0"
"D.J. Augustin","D.J.-Augustin-1064","4600","PG","45.38","221.5","30.3","105.10","20.45","29.00","41.91","13.82","25.73","0","0"
"Jusuf Nurkic","Jusuf-Nurkic-18619","8000","C","56.63","221.5","30.1","104.50","27.33","31.00","57.84","24.1","44.46","0","0"
"Wesley Matthews","Wesley-Matthews-1339","4400","SG/SF","35.77","222","26.2","100.08","16.71","31.00","36.01","15.01","24.48","0","0"
"Terrence Ross","Terrence-Ross-13902","4000","SG/SF","41.51","221.5","25.0","105.10","21.32","24.00","34.4","18.95","22.22","0","0"
"Paul Millsap","Paul-Millsap-1335","5400","PF/C","45.31","216","21.2","99.62","24.73","29.00","50.09","25.5","29.96","0","0"
"Spencer Dinwiddie","Spencer-Dinwiddie-18588","5800","PG/SG","50.13","220","27.3","114.62","25.85","33.00","48.96","22.39","31.94","0","0"
"Ricky Rubio","Ricky-Rubio-1001","5600","PG","42.55","222","28.6","98.88","25.91","32.00","42.2","17.74","30.85","0","0"
"Bryn Forbes","Bryn-Forbes-36052","4400","PG/SG","54.34","214","31.7","99.70","16.22","32.00","35.26","15.27","24.2","0","0"
"Jared Dudley","Jared-Dudley-1319","3100","SF/PF","33.75","220","26.3","114.62","10.59","29.00","24.88","11.83","17.02","0","0"
"Khris Middleton","Khris-Middleton-13990","6500","SG/SF","40.19","222","29.5","98.80","23.62","33.00","57.87","25.6","35.7","0","0"
"Marc Gasol","Marc-Gasol-1493","7000","C","55.00","214.5","32.5","103.30","21.29","34.00","51.47","21.95","38.18","0","0"
"Damyean Dotson","Damyean-Dotson-37795","3400","SG/SF","38.06","221.5","21.0","100.17","14.07","22.00","31.86","15.57","18.49","0","0"
"Evan Fournier","Evan-Fournier-13913","5700","SG/SF","41.51","221.5","30.0","105.10","19.68","31.00","39.94","16.62","31.01","0","0"
"James Harden","James-Harden-1037","12000","PG/SG","49.22","216","39.0","101.42","45.72","39.00","76.41","23.4","64.81","0","0"
"J.J. Barea","J.J.-Barea-18605","4100","PG/SG","53.16","222","19.3","100.08","28.14","19.00","32.89","16.13","22.15","0","0"
"Andre Drummond","Andre-Drummond-13904","8100","C","50.58","214","31.5","100.30","19.94","33.00","53.16","19.89","43.43","0","0"
"Patty Mills","Patty-Mills-13977","3700","PG/SG","43.42","214","19.0","99.70","20.50","21.00","30.47","15.45","19.76","0","0"
"George Hill","George-Hill-993","3300","PG/SG","44.24","222","22.2","98.80","14.13","23.00","30.13","15.71","17.51","0","0"
"Mike Conley","Mike-Conley-1062","7500","PG","49.18","214.5","32.5","103.30","26.14","34.00","59.08","23.86","39.84","0","0"
"Blake Griffin","Blake-Griffin-1503","8500","PF/C","48.95","214","34.7","100.30","29.02","36.00","58.69","20.93","45.11","0","0"
"Royce O'Neale","Royce-O'Neale-37872","3100","SF","38.97","222","9.7","98.88","9.65","20.00","24.36","12.12","16.35","0","0"
"Gerald Green","Gerald-Green-13374","3900","SG/SF","43.66","216","24.3","101.42","17.55","23.00","35.25","16.69","20.53","0","0"
"Jarrett Allen","Jarrett-Allen-37794","5500","C","49.84","220","23.3","114.62","18.73","28.00","39.87","17.32","28.87","0","0"
"Dorian Finney-Smith","Dorian-Finney-Smith-36032","3200","SF/PF","38.31","222","20.7","100.08","13.41","22.00","26.03","13.75","16.75","0","0"
"Al-Farouq Aminu","Al-Farouq-Aminu-1279","5400","SF/PF","39.72","221.5","30.4","104.50","14.19","32.00","43.25","20.99","28.14","0","0"
"Jamal Murray","Jamal-Murray-35211","6800","PG/SG","49.24","216","34.3","99.62","30.13","35.00","55.22","22.75","35.44","0","0"
"Jrue Holiday","Jrue-Holiday-1073","7900","PG/SG","47.74","214.5","35.3","104.88","26.89","36.00","55.13","19.11","40.93","0","0"
"Damian Lillard","Damian-Lillard-13900","9000","PG","51.84","221.5","36.0","104.50","29.18","34.00","59.33","22.51","46.5","0","0"
"Maurice Harkless","Maurice-Harkless-16971","4500","SF/PF","39.72","221.5","29.8","104.50","13.20","27.00","36.29","15.47","23.13","0","0"
"D'Angelo Russell","D'Angelo-Russell-18947","7300","PG/SG","50.13","220","32.2","114.62","31.76","33.00","52.07","18.66","37.46","0","0"
"DeMar DeRozan","DeMar-DeRozan-1053","8200","SG/SF","42.73","214","35.5","99.70","26.29","36.00","56.54","20.27","41.79","0","0"
"Bruce Brown","Bruce-Brown-408913","3400","PG/SG","33.62","214","25.5","100.30","16.04","27.00","19.15","7.06","17.35","0","0"
"Austin Rivers","Austin-Rivers-13903","4700","PG/SG","39.47","216","37.7","101.42","14.91","34.00","41.22","15.61","23.94","0","0"
"Nikola Vucevic","Nikola-Vucevic-13296","9500","C","57.21","221.5","30.6","105.10","27.07","34.00","62.92","23.81","48.29","0","0"
"Brook Lopez","Brook-Lopez-1498","4800","C","53.26","222","26.3","98.80","20.93","28.00","36.73","16.16","24.34","0","0"
"Buddy Hield","Buddy-Hield-35206","7100","SG/SF","40.07","221.5","33.2","98.20","25.18","34.00","53.74","23.66","35.85","0","0"
"Meyers Leonard","Meyers-Leonard-13905","3200","PF/C","60.20","221.5","15.9","104.50","13.91","14.00","27.79","13.13","16.15","0","0"
"JaVale McGee","JaVale-McGee-1485","5500","C","49.32","222","20.5","112.50","24.64","24.00","39.99","17.29","27.79","0","0"
"Nemanja Bjelica","Nemanja-Bjelica-31814","4800","SF/PF","49.47","221.5","28.7","98.20","18.50","26.00","39.55","15.97","24.19","0","0"
"Lonzo Ball","Lonzo-Ball-37885","7000","PG","41.24","222","31.9","112.50","19.57","35.00","46.91","18.12","34.98","0","0"
"Anthony Davis","Anthony-Davis-13895","11600","PF/C","51.22","214.5","36.8","104.88","30.19","37.00","83.88","30.2","57.85","0","0"
"Donovan Mitchell","Donovan-Mitchell-37875","7400","PG/SG","47.20","222","32.5","98.88","27.28","34.00","48.45","20.37","36.76","0","0"
"Luke Kennard","Luke-Kennard-37814","3300","SG/SF","33.62","214","20.6","100.30","20.13","21.00","24.9","11.3","16.36","0","0"
"Marcus Smart","Marcus-Smart-18567","4800","PG/SG","49.80","220","28.0","101.75","15.32","28.00","34.1","13.34","23.78","0","0"
"Treveon Graham","Treveon-Graham-36023","3000","SF/PF","33.75","220","13.0","114.62","15.37","25.00","28.66","14.85","14.85","0","0"
"Lance Stephenson","Lance-Stephenson-947","4000","SG/SF","48.73","222","18.7","112.50","22.56","20.00","33.82","15.68","19.65","0","0"
"Julius Randle","Julius-Randle-18632","8300","PF/C","51.22","214.5","36.0","104.88","26.06","35.00","55.76","23.38","40.73","0","0"
"Malcolm Brogdon","Malcolm-Brogdon-35195","5200","PG/SG","49.07","222","27.2","98.80","21.86","29.00","39.24","18.09","25.48","0","0"
"C.J. McCollum","C.J.-McCollum-17121","6600","PG/SG","48.91","221.5","34.7","104.50","24.94","33.00","42.97","18.65","32.33","0","0"
"Justin Holiday","Justin-Holiday-14559","3500","SG/SF","36.65","214.5","30.4","103.30","13.38","22.00","29.6","13.96","17.11","0","0"
"Nikola Jokic","Nikola-Jokic-31812","10000","C","52.90","216","33.7","99.62","29.27","34.00","64.4","19.52","48.79","0","0"
"Emmanuel Mudiay","Emmanuel-Mudiay-18936","6100","PG","41.74","221.5","29.4","100.17","27.50","32.00","40.18","18.54","29.76","0","0"
"Tim Hardaway Jr.","Tim-Hardaway-Jr.-16879","6500","SG/SF","45.69","221.5","33.5","100.17","24.38","34.00","49.04","21.42","31.54","0","0"
"Derrick Favors","Derrick-Favors-1266","5200","PF/C","58.52","222","23.2","98.88","17.29","25.00","33.05","15.32","25.04","0","0"
"Jae Crowder","Jae-Crowder-13942","4300","SF/PF","38.97","222","24.0","98.88","20.74","25.00","34.83","15.9","20.67","0","0"
"Kyrie Irving","Kyrie-Irving-13334","9200","PG","49.80","220","34.0","101.75","31.02","34.00","59.88","23.36","43.74","0","0"
"Giannis Antetokounmpo","Giannis-Antetokounmpo-16852","11400","SF/PF","49.23","222","31.2","98.80","33.79","35.00","64.33","23.73","54.06","0","0"
"Elfrid Payton","Elfrid-Payton-18602","6100","PG","39.90","214.5","26.7","104.88","25.40","28.00","39.71","14.97","28.63","0","0"
"Derrick White","Derrick-White-37858","5000","PG/SG","43.42","214","28.8","99.70","15.95","30.00","37.11","19.37","23.22","0","0"
"Jayson Tatum","Jayson-Tatum-37782","6500","SF/PF","47.88","220","32.0","101.75","19.82","31.00","38.1","15.75","30.12","0","0"
"Luka Doncic","Luka-Doncic-408971","7700","SG/SF","49.36","222","28.4","100.08","32.18","32.00","39.11","14.42","35.43","0","0"
"Jonathon Simmons","Jonathon-Simmons-31808","3600","PG/SF","46.69","221.5","18.0","105.10","26.53","20.00","24.87","13.36","16.33","0","0"
"Kyle Kuzma","Kyle-Kuzma-37886","7600","SF/PF","47.64","222","33.6","112.50","27.23","35.00","44.47","19.05","34.26","0","0"
"Gordon Hayward","Gordon-Hayward-1239","6200","SF/PF","47.88","220","26.7","101.75","20.77","28.00","41.06","19.36","27.93","0","0"
"Dwight Powell","Dwight-Powell-18566","3700","PF/C","58.39","222","16.6","100.08","18.81","15.00","25.94","13.3","16.64","0","0"
"Nene Hilario","Nene-Hilario-17321","3100","C","51.86","216","12.8","101.42","9.15","14.00","23.29","12.36","13.92","0","0"
"Darius Miller","Darius-Miller-13951","3600","SF/PF","35.99","214.5","23.8","104.88","12.94","26.00","28.78","16.18","16.18","0","0"
"Luke Kornet","Luke-Kornet-37800","4900","PF/C","51.46","221.5","24.2","100.17","19.89","25.00","33.68","13.78","21.7","0","0"
"Rudy Gobert","Rudy-Gobert-16935","7200","C","47.70","222","30.2","98.88","17.19","32.00","44.2","15.37","31.75","0","0"
"Noah Vonleh","Noah-Vonleh-18597","6300","PF/C","52.18","221.5","28.2","100.17","15.01","30.00","38.32","18.14","27.73","0","0"
"Jahlil Okafor","Jahlil-Okafor-18902","3300","C","49.00","214.5","12.6","104.88","16.62","15.00","24.89","12.26","14.48","0","0"
"Justin Jackson","Justin-Jackson-37895","3800","SF/PF","40.07","221.5","24.2","98.20","13.26","22.00","25.36","13.36","16.6","0","0"
"Zach Collins","Zach-Collins-37866","3300","PF/C","60.20","221.5","15.0","104.50","17.37","17.00","21.75","11.16","14.31","0","0"
"Ian Clark","Ian-Clark-16922","3000","PG/SG","38.11","214.5","11.0","104.88","18.05","20.00","21.42","13","13","0","0"
"Enes Kanter","Enes-Kanter-13299","5300","C","50.39","221.5","20.4","100.17","23.14","21.00","31.8","16.68","22.73","0","0"
"Josh Hart","Josh-Hart-37889","5800","PG/SG","32.43","222","32.6","112.50","17.45","34.00","34.52","17.25","24.82","0","0"
"Mohamed Bamba","Mohamed-Bamba-409026","3700","C","55.95","221.5","14.7","105.10","19.70","17.00","16.73","3.86","15.8","0","0"
"Mason Plumlee","Mason-Plumlee-16798","4700","PF/C","53.65","216","25.5","99.62","13.94","20.00","28.45","13.97","20.02","0","0"
"Ersan Ilyasova","Ersan-Ilyasova-1301","3300","PF/C","49.23","222","16.0","98.80","22.49","16.00","21.67","9.74","14.05","0","0"
"Marcus Morris","Marcus-Morris-13316","5900","SF/PF","32.14","220","29.6","101.75","20.21","27.00","33.33","13.11","24.87","0","0"
"Torrey Craig","Torrey-Craig-37861","3500","SG/SF","36.37","216","28.2","99.62","13.20","22.00","20.65","9.0","14.7","0","0"
"Kevin Knox","Kevin-Knox-408820","5800","SF/PF","45.69","221.5","38.2","100.17","18.92","36.00","25.16","5.04","24.33","0","0"
"Jaylen Brown","Jaylen-Brown-35181","5000","SG/SF","32.14","220","24.8","101.75","20.97","23.00","39.64","17.39","20.93","0","0"
"Evan Turner","Evan-Turner-1291","3900","SG/SF","48.91","221.5","20.6","104.50","18.27","20.00","24.04","13.59","16.32","0","0"
"Brandon Ingram","Brandon-Ingram-35227","7800","PG/SG","48.73","222","33.3","112.50","27.42","36.00","49.48","20.24","32.13","0","0"
"Dirk Nowitzki","Dirk-Nowitzki-1346","3100","PF/C","58.39","222","10.8","100.08","25.99","12.00","18.7","9.92","12.68","0","0"
"Kenneth Faried","Kenneth-Faried-13313","3300","PF/C","49.84","220","27.0","114.62","26.79","12.00","24.91","12.08","13.45","0","0"
"Devin Harris","Devin-Harris-1076","3200","PG/SG","53.16","222","14.5","100.08","19.43","15.00","23.08","12.94","12.94","0","0"
"Kentavious Caldwell-Pope","Kentavious-Caldwell-Pope-16869","5700","SG/SF","32.43","222","28.3","112.50","19.08","30.00","43.13","19.9","22.82","0","0"
"Allonzo Trier","Allonzo-Trier-554950","3300","PG/SG","45.69","221.5","16.6","100.17","24.12","20.00","13.27","2.43","13.13","0","0"
"Marvin Bagley III","Marvin-Bagley-III-409321","4800","PF/C","49.47","221.5","0","98.20","0","20.00","27.05","14.67","19.05","0","0"
"Stanley Johnson","Stanley-Johnson-18913","3200","SF/PF","38.66","214","13.8","100.30","21.42","17.00","20.92","9.55","12.63","0","0"
"Seth Curry","Seth-Curry-16825","3400","PG/SG","35.59","221.5","17.7","104.50","17.16","18.00","25.35","13.18","13.18","0","0"
"Tyson Chandler","Tyson-Chandler-1482","3100","C","49.32","222","17.7","112.50","12.29","13.00","22.84","11.82","11.82","0","0"
"Harry Giles","Harry-Giles-37897","3200","PF/C","49.47","221.5","13.5","98.20","19.81","14.00","12.23","2.18","12.05","0","0"
"Thon Maker","Thon-Maker-35194","3100","PF/C","51.35","222","14.2","98.80","18.44","14.00","20.03","9.44","11.66","0","0"
"Daniel Theis","Daniel-Theis-37784","3900","PF/C","62.26","220","16.5","101.75","15.67","15.00","24.98","13.23","14.65","0","0"
"Tim Frazier","Tim-Frazier-18743","3400","PG/SG","39.90","214.5","19.0","104.88","15.18","15.00","23.28","10.92","12.71","0","0"
"Wes Iwundu","Wes-Iwundu-37839","3300","SG/SF","37.09","221.5","18.2","105.10","14.44","18.00","24.59","12.3","12.3","0","0"
"Yogi Ferrell","Yogi-Ferrell-35999","3200","PG/SG","50.41","221.5","13.0","98.20","18.21","15.00","20.29","10.53","11.93","0","0"
"Tony Snell","Tony-Snell-16872","3100","SG/SF","29.69","222","16.2","98.80","11.72","18.00","19.98","10.35","11.47","0","0"
"Raul Neto","Raul-Neto-31821","3000","PG","42.55","222","7.6","98.88","16.83","12.00","21.16","9.89","11.11","0","0"
"Jevon Carter","Jevon-Carter-409100","3300","PG/SG","49.18","214.5","12.7","103.30","18.22","18.00","11.79","2.16","11.66","0","0"
"Jon Leuer","Jon-Leuer-13317","3100","PF/C","48.95","214","13.6","100.30","12.46","13.00","17.39","9.28","10.85","0","0"
"Juan Hernangomez","Juan-Hernangomez-35212","4400","SF/PF","45.31","216","25.7","99.62","11.35","20.00","26.11","10.16","15.35","0","0"
"Jose Calderon","Jose-Calderon-1071","3200","PG","42.41","214","18.8","100.30","11.43","18.00","19.93","9.37","11.13","0","0"
"Jake Layman","Jake-Layman-35216","3200","SF/PF","39.72","221.5","9.4","104.50","20.03","14.00","18.24","9.37","11.1","0","0"
"James Ennis","James-Ennis-18599","3100","SG/SF","35.01","216","9.5","101.42","13.52","16.00","17.45","8.45","10.68","0","0"
"Langston Galloway","Langston-Galloway-18717","3200","PG/SG","33.62","214","14.5","100.30","20.88","15.00","18.86","9.54","10.95","0","0"
"Sterling Brown","Sterling-Brown-37821","3200","SG/SF","35.11","222","14.6","98.80","14.97","13.00","20.25","10.52","10.52","0","0"
"Malik Beasley","Malik-Beasley-35213","4500","PG/SG","36.37","216","26.5","99.62","20.02","22.00","25.87","14.65","14.65","0","0"
"Monte Morris","Monte-Morris-37860","4200","PG","49.24","216","20.8","99.62","21.12","18.00","19.51","10.55","13.1","0","0"
"Solomon Hill","Solomon-Hill-16863","3200","SF/PF","35.99","214.5","18.0","104.88","8.51","15.00","18.98","9.97","9.97","0","0"
"Brandon Knight","Brandon-Knight-13336","3000","PG/SG","49.22","216","11.3","101.42","20.75","10.00","12.9","6.54","9.02","0","0"
"Terry Rozier","Terry-Rozier-18894","6300","PG/SG","44.09","220","21.8","101.75","18.76","19.00","30.16","16.1","18.92","0","0"
"Ben McLemore","Ben-McLemore-16822","3000","SG/SF","40.07","221.5","10.5","98.20","16.50","10.00","13.16","5.73","8.11","0","0"
"Frank Jackson","Frank-Jackson-37855","3100","PG/SG","47.74","214.5","10.4","104.88","18.45","13.00","8.26","1.47","8.14","0","0"
"Dante Cunningham","Dante-Cunningham-1259","3100","SF/PF","45.70","214","3.8","99.70","17.54","10.00","14.93","7.03","7.99","0","0"
"Trey Lyles","Trey-Lyles-18942","3600","SF/PF","45.31","216","11.5","99.62","25.15","8.00","13.4","7.3","8.51","0","0"
"Ivica Zubac","Ivica-Zubac-35226","3600","C","49.32","222","18.0","112.50","21.29","8.00","11.14","5.42","6.64","0","0"
"Shelvin Mack","Shelvin-Mack-13354","4200","PG","49.18","214.5","14.0","103.30","15.14","8.00","11.84","5.94","7.65","0","0"
"Jerian Grant","Jerian-Grant-18900","3200","PG","45.38","221.5","9.4","105.10","14.65","6.00","8.9","4.74","5.39","0","0"
"Joakim Noah","Joakim-Noah-1404","3000","C","51.66","214.5","7.0","103.30","22.49","6.00","8.0","4.25","4.69","0","0"
"Ekpe Udoh","Ekpe-Udoh-1250","3100","C","47.70","222","5.2","98.88","19.29","6.00","7.87","3.75","4.76","0","0"
"Sviatoslav Mykhailiuk","Sviatoslav-Mykhailiuk-409280","3000","SG/SF","37.18","222","7.0","112.50","18.92","5.00","4.19","0.97","3.96","0","0"
"Gary Clark","Gary-Clark-570141","3000","SF/PF","47.77","216","7.0","101.42","3.80","4.00","3.45","0.73","3.18","0","0"
"Semi Ojeleye","Semi-Ojeleye-37786","3100","SF/PF","32.14","220","10.5","101.75","13.85","5.00","6.17","3.2","3.2","0","0"
