"nameCol","idCol","salaryCol","positionCol","dvpCol","ouCol","mpgCol","paceCol","usgCol","pminCol","ceilCol","floorCol","pointsCol","predictCol","actualCol"
"Frank Jackson","Frank-Jackson-37855","3700","PG/SG","47.02","217.5","24.5","104.88","20.87","30.00","33.31","18.84","23.79","0","0"
"Kenrich Williams","Kenrich-Williams-570179","4300","SG/SF","36.82","217.5","24.4","104.88","13.60","31.00","37.02","19.99","26.44","0","0"
"Marco Belinelli","Marco-Belinelli-1033","3900","SG/SF","40.94","228.5","22.8","99.70","19.76","27.00","39.24","6.89","23.61","0","0"
"Otto Porter","Otto-Porter-17069","5900","SF/PF","42.67","231","28.1","103.80","19.87","33.00","63.96","12.84","35.18","0","0"
"Elie Okobo","Elie-Okobo-409300","3500","PG","40.56","227.5","22.4","108.80","14.08","28.00","28.95","16.38","20.68","0","0"
"Tomas Satoransky ","Tomas-Satoransky--36031","5600","PG/SF","56.15","231","32.6","103.80","16.42","31.00","63.56","10.82","32.78","0","0"
"Taurean Prince","Taurean-Prince-35218","4700","SF","36.09","231","28.6","105.10","14.53","32.00","50.1","8.62","27.45","0","0"
"Bryn Forbes","Bryn-Forbes-36052","4000","PG/SG","54.33","228.5","30.8","99.70","15.88","31.00","37.84","6.35","23.09","0","0"
"Tyreke Evans","Tyreke-Evans-1070","4600","SG/SF","48.51","217.5","22.3","107.67","19.60","24.00","48.51","12.85","26.45","0","0"
"Kenneth Faried","Kenneth-Faried-13313","7000","PF/C","59.37","227.5","29.2","101.42","20.75","35.00","62.57","21.06","40.11","0","0"
"DeMar DeRozan","DeMar-DeRozan-1053","7500","SG/SF","46.07","228.5","33.7","99.70","25.07","35.00","78.04","22.02","42.76","0","0"
"Jahlil Okafor","Jahlil-Okafor-18902","7100","C","50.80","217.5","31.5","104.88","20.03","32.00","70.97","17.53","40.3","0","0"
"Cheick Diallo","Cheick-Diallo-35225","3200","PF/C","50.80","217.5","14.4","104.88","19.98","16.00","36.18","5.48","18.1","0","0"
"Jarrett Allen","Jarrett-Allen-37794","5100","C","48.69","230","25.4","114.62","12.58","28.00","56.55","12.22","28.29","0","0"
"P.J. Tucker","P.J.-Tucker-13947","4400","SF/PF","34.83","227.5","35.1","101.42","9.37","36.00","38.56","7.42","24.25","0","0"
"Kevin Huerter","Kevin-Huerter-408969","4400","SG/SF","39.58","231","27.7","105.10","17.55","32.00","33.75","19.5","24.11","0","0"
"Mikal Bridges","Mikal-Bridges-408842","4400","SG/SF","38.04","227.5","33.6","108.80","12.45","35.00","33.73","19.08","24.09","0","0"
"James Ennis","James-Ennis-18599","3700","SF/PF","34.83","227.5","26.2","101.42","10.15","29.00","40.5","5.96","20.26","0","0"
"Domantas Sabonis","Domantas-Sabonis-35217","5500","PF/C","51.40","217.5","21.9","107.67","21.24","25.00","56.53","4.42","30.1","0","0"
"Cory Joseph","Cory-Joseph-13339","4100","PG/SG","47.57","217.5","28.5","107.67","14.83","29.00","36.89","9.57","22.41","0","0"
"D'Angelo Russell","D'Angelo-Russell-18947","7900","PG/SG","47.76","230","30.5","114.62","35.44","33.00","67.71","20.87","43.13","0","0"
"Chris Paul","Chris-Paul-1087","6600","PG","52.82","227.5","26.9","101.42","22.34","31.00","52.9","15.98","35.84","0","0"
"De'Aaron Fox","De'Aaron-Fox-37900","7300","PG","53.32","228.5","30.7","98.20","29.06","33.00","60.09","20.58","39.35","0","0"
"Patty Mills","Patty-Mills-13977","4100","PG/SG","46.43","228.5","24.2","99.70","21.08","29.00","44.1","6.13","22.06","0","0"
"Joe Harris","Joe-Harris-18587","4700","SG/SF","36.79","230","28.7","114.62","19.56","32.00","44.49","9.66","25.28","0","0"
"DeMarre Carroll","DeMarre-Carroll-1174","4500","SF/PF","39.33","230","27.1","114.62","19.33","28.00","48.28","6.23","24.15","0","0"
"Brook Lopez","Brook-Lopez-1498","5400","C","58.58","230","30.6","98.80","14.50","30.00","52.4","11.57","28.92","0","0"
"Andre Drummond","Andre-Drummond-13904","8200","C","51.88","209.5","33.2","100.30","20.47","34.00","61.18","23.03","43.7","0","0"
"Bogdan Bogdanovic","Bogdan-Bogdanovic-37899","5600","SG/SF","47.44","228.5","28.4","98.20","26.48","31.00","58.57","10.28","29.79","0","0"
"Tim Frazier","Tim-Frazier-18743","3900","PG","37.89","217.5","16.5","104.88","19.13","22.00","41.46","5.41","20.74","0","0"
"Khris Middleton","Khris-Middleton-13990","6400","SG/SF","44.57","230","33.2","98.80","22.75","33.00","49.97","13.39","33.99","0","0"
"Reggie Jackson","Reggie-Jackson-13352","5200","PG/SG","49.98","209.5","32.9","100.30","21.98","32.00","41.7","15.06","27.49","0","0"
"Marvin Bagley III","Marvin-Bagley-III-409321","5500","PF/C","49.22","228.5","28.0","98.20","24.72","29.00","40.66","24.36","29.04","0","0"
"Rudy Gay","Rudy-Gay-1341","5900","SF/PF","49.82","228.5","29.7","99.70","21.77","29.00","46.04","12.48","30.98","0","0"
"Kelly Oubre","Kelly-Oubre-18925","5800","SG/SF","38.04","227.5","30.7","108.80","23.68","31.00","54.51","9.75","30.37","0","0"
"Willie Cauley-Stein","Willie-Cauley-Stein-18951","5800","C","51.18","228.5","27.8","98.20","14.23","28.00","43.84","15.79","30.36","0","0"
"LaMarcus Aldridge","LaMarcus-Aldridge-1349","8000","PF/C","56.76","228.5","33.0","99.70","27.34","34.00","61.66","22.17","41.83","0","0"
"Trevor Ariza","Trevor-Ariza-1323","5700","SF/PF","42.67","231","34.1","103.80","18.45","33.00","44.07","9.27","29.82","0","0"
"Deandre Ayton","Deandre-Ayton-409301","6800","C","54.34","227.5","32.9","108.80","24.69","30.00","49.35","27.92","35.25","0","0"
"Jordan McRae","Jordan-McRae-18772","3100","PG/SG","56.15","231","10.6","103.80","23.30","19.00","32.12","5.08","16.07","0","0"
"Myles Turner","Myles-Turner-18915","6300","C","56.52","217.5","30.8","107.67","19.26","30.00","63.73","9.98","32.63","0","0"
"James Harden","James-Harden-1037","12900","PG/SG","52.82","227.5","37.8","101.42","42.21","38.00","93.46","46.67","66.76","0","0"
"Bradley Beal","Bradley-Beal-13898","9100","SG","52.39","231","36.4","103.80","26.74","36.00","69.68","24.73","46.92","0","0"
"Giannis Antetokounmpo","Giannis-Antetokounmpo-16852","10900","SF/PF","48.18","230","34.0","98.80","32.51","34.00","78.2","32.4","55.86","0","0"
"Darren Collison","Darren-Collison-1060","6200","PG","47.57","217.5","30.0","107.67","21.64","32.00","51.69","14.58","31.69","0","0"
"Blake Griffin","Blake-Griffin-1503","8800","PF/C","52.15","209.5","39.0","100.30","31.80","35.00","80.77","26.06","44.77","0","0"
"Bojan Bogdanovic","Bojan-Bogdanovic-18571","5700","SG/SF","35.59","217.5","33.0","107.67","21.62","33.00","45.65","9.6","28.84","0","0"
"Josh Jackson","Josh-Jackson-37890","5700","SF/PF","46.78","227.5","32.3","108.80","23.69","32.00","50.51","13.28","28.86","0","0"
"Reggie Bullock","Reggie-Bullock-16943","4300","SG/SF","37.35","209.5","31.7","100.30","15.75","33.00","40.53","10.79","21.58","0","0"
"Malcolm Brogdon","Malcolm-Brogdon-35195","5700","PG/SG","50.30","230","30.8","98.80","21.61","32.00","52.92","10.05","28.62","0","0"
"Jrue Holiday","Jrue-Holiday-1073","8700","PG/SG","47.02","217.5","36.1","104.88","27.81","37.00","64.8","21.15","43.52","0","0"
"Eric Bledsoe","Eric-Bledsoe-1031","6900","PG","50.30","230","31.2","98.80","24.99","31.00","68.45","14.52","34.33","0","0"
"Buddy Hield","Buddy-Hield-35206","6700","SG/SF","33.25","228.5","33.0","98.20","22.94","34.00","58.23","13.86","33.39","0","0"
"Darius Miller","Darius-Miller-13951","4800","SF/PF","36.82","217.5","33.2","104.88","15.94","35.00","44.9","5.93","23.72","0","0"
"Rondae Hollis-Jefferson","Rondae-Hollis-Jefferson-18897","4100","PF/C","45.10","230","18.8","114.62","23.36","20.00","40.5","5.07","20.26","0","0"
"Paul Millsap","Paul-Millsap-1335","5000","PF/C","44.84","209.5","24.2","99.62","14.43","26.00","40.11","8.99","24.7","0","0"
"Malik Beasley","Malik-Beasley-35213","5500","PG/SG","34.89","209.5","25.0","99.62","21.55","35.00","52.57","8.03","26.78","0","0"
"Thaddeus Young","Thaddeus-Young-1289","5800","SF/PF","49.56","217.5","29.3","107.67","20.99","30.00","47.68","12.12","28.13","0","0"
"Nikola Jokic","Nikola-Jokic-31812","10500","C","51.81","209.5","33.9","99.62","30.38","34.00","74.39","30.43","50.71","0","0"
"Ish Smith","Ish-Smith-13958","3400","PG","39.77","209.5","11.6","100.30","16.04","18.00","30.62","4.92","16.39","0","0"
"Jamal Crawford","Jamal-Crawford-1075","3500","PG/SG","46.78","227.5","20.9","108.80","15.61","19.00","31.24","4.03","16.78","0","0"
"Dewayne Dedmon","Dewayne-Dedmon-16894","5600","PF/C","55.81","231","25.8","105.10","17.77","27.00","43.05","11.33","26.84","0","0"
"D.J. Wilson","D.J.-Wilson-37822","3500","PF/C","48.18","230","17.6","98.80","11.34","18.00","33.06","4.13","16.54","0","0"
"Devin Booker","Devin-Booker-18949","9000","PG/SG","50.28","227.5","34.0","108.80","33.51","35.00","72.39","19.9","42.43","0","0"
"Davis Bertans","Davis-Bertans-36051","4100","SF/PF","56.76","228.5","26.4","99.70","18.29","24.00","38.62","5.08","19.32","0","0"
"Shabazz Napier","Shabazz-Napier-18598","5400","PG/SG","42.13","230","22.7","114.62","29.05","27.00","49.72","7.13","25.38","0","0"
"Sam Dekker","Sam-Dekker-18929","3300","SF/PF","42.67","231","18.7","103.80","13.44","16.00","28.49","2.72","15.45","0","0"
"John Collins","John-Collins-37823","8100","PF/C","55.81","231","30.2","105.10","25.68","32.00","68.74","14.87","37.36","0","0"
"Ian Mahinmi","Ian-Mahinmi-1357","3200","C","54.37","231","17.2","103.80","8.62","14.00","29.45","2.37","14.73","0","0"
"Jeff Green","Jeff-Green-1314","4900","SF/PF","53.73","231","29.8","103.80","21.35","25.00","45.0","5.88","22.51","0","0"
"Zaza Pachulia","Zaza-Pachulia-1455","3500","C","51.88","209.5","18.9","100.30","12.24","15.00","27.92","5.61","15.99","0","0"
"Gerald Green","Gerald-Green-13374","4000","SG/SF","49.95","227.5","21.3","101.42","18.66","20.00","33.45","5.22","18.26","0","0"
"Sterling Brown","Sterling-Brown-37821","3200","SG/SF","30.57","230","18.0","98.80","14.16","21.00","28.28","4.03","14.48","0","0"
"Trae Young","Trae-Young-409063","7600","PG","54.49","231","32.2","105.10","30.19","34.00","47.85","27.65","34.18","0","0"
"Mason Plumlee","Mason-Plumlee-16798","4100","PF/C","51.83","209.5","18.4","99.62","20.27","18.00","35.82","4.65","18.37","0","0"
"Iman Shumpert","Iman-Shumpert-13350","3800","SG/SF","33.25","228.5","28.4","98.20","16.15","24.00","29.17","5.35","16.94","0","0"
"Jamal Murray","Jamal-Murray-35211","6500","PG/SG","51.87","209.5","25.9","99.62","20.07","31.00","50.13","8.16","28.63","0","0"
"Austin Rivers","Austin-Rivers-13903","5100","PG/SG","46.41","227.5","29.7","101.42","14.48","27.00","44.54","5.24","22.28","0","0"
"Treveon Graham","Treveon-Graham-36023","3300","SG/SF","39.33","230","25.1","114.62","10.75","24.00","22.88","4.52","14.38","0","0"
"Pau Gasol","Pau-Gasol-1502","3200","C","56.76","228.5","11.1","99.70","23.10","12.00","24.85","5.62","13.92","0","0"
"Will Barton","Will-Barton-13982","6100","SG/SF","46.26","209.5","28.4","99.62","21.74","27.00","45.45","9.14","26.33","0","0"
"George Hill","George-Hill-993","3500","PG/SG","41.34","230","22.3","98.80","14.39","21.00","27.65","4.02","15.05","0","0"
"Nemanja Bjelica","Nemanja-Bjelica-31814","4200","PF","49.22","228.5","17.9","98.20","18.57","18.00","29.8","7.67","17.6","0","0"
"Luke Kennard","Luke-Kennard-37814","3800","SG/SF","33.31","209.5","20.4","100.30","17.44","20.00","29.72","5.14","15.9","0","0"
"Rodions Kurucs","Rodions-Kurucs-408801","3900","SF/PF","45.10","230","23.1","114.62","20.54","20.00","22.83","9.48","16.31","0","0"
"Alex Len","Alex-Len-16886","4200","C","55.81","231","16.6","105.10","26.87","17.00","33.27","7.29","17.53","0","0"
"Richaun Holmes","Richaun-Holmes-18905","5000","PF/C","54.34","227.5","25.4","108.80","11.48","18.00","40.86","4.31","20.44","0","0"
"Justin Jackson","Justin-Jackson-37895","3300","SF/PF","33.25","228.5","17.5","98.20","13.09","20.00","26.91","3.67","13.46","0","0"
"Nene Hilario","Nene-Hilario-17321","3400","C","59.37","227.5","10.9","101.42","10.89","13.00","26.12","3.93","13.75","0","0"
"Bruce Brown","Bruce-Brown-408913","3400","PG/SG","33.31","209.5","19.4","100.30","12.88","21.00","19.19","10.86","13.71","0","0"
"DeAndre Bembry","DeAndre-Bembry-35198","4100","SG/SF","36.09","231","25.1","105.10","15.45","20.00","27.52","4.31","16.44","0","0"
"Ed Davis","Ed-Davis-1265","4100","C","48.69","230","21.6","114.62","13.94","18.00","32.72","4.68","16.37","0","0"
"Ian Clark","Ian-Clark-16922","3000","PG/SG","37.06","217.5","12.7","104.88","24.82","15.00","23.43","3.06","11.72","0","0"
"Torrey Craig","Torrey-Craig-37861","4000","SG/SF","34.89","209.5","26.4","99.62","13.10","20.00","31.12","3.52","15.57","0","0"
"Langston Galloway","Langston-Galloway-18717","3400","PG/SG","33.31","209.5","19.1","100.30","13.86","17.00","26.39","3.3","13.2","0","0"
"Jeremy Lin","Jeremy-Lin-916","4000","PG/SG","54.49","231","20.0","105.10","24.93","19.00","29.01","4.38","15.31","0","0"
"Solomon Hill","Solomon-Hill-16863","3300","SF/PF","36.82","217.5","20.1","104.88","11.93","18.00","21.22","3.42","12.35","0","0"
"Monte Morris","Monte-Morris-37860","6000","PG","51.87","209.5","31.2","99.62","16.22","29.00","30.94","17.88","22.1","0","0"
"Aaron Holiday","Aaron-Holiday-408932","3700","PG/SG","47.57","217.5","17.5","107.67","21.42","16.00","18.82","10.47","13.44","0","0"
"Troy Daniels","Troy-Daniels-17383","3100","SG","37.47","227.5","10.8","108.80","16.91","12.00","22.21","3.51","11.11","0","0"
"Jakob Poeltl","Jakob-Poeltl-35187","3200","C","54.06","228.5","8.9","99.70","12.17","11.00","22.81","2.37","11.41","0","0"
"Kent Bazemore","Kent-Bazemore-13987","5000","SG/SF","45.08","231","17.3","105.10","23.21","17.00","29.53","6.34","17.65","0","0"
"Trey Lyles","Trey-Lyles-18942","3700","SF/PF","44.84","209.5","17.1","99.62","22.74","13.00","24.65","3.62","13.03","0","0"
"Stanley Johnson","Stanley-Johnson-18913","3600","SF/PF","37.35","209.5","18.9","100.30","13.57","15.00","23.72","2.72","12.26","0","0"
"Thomas Bryant ","Thomas-Bryant--37884","5000","PF/C","55.97","231","22.6","103.80","17.38","20.00","32.38","2.01","16.2","0","0"
"Chasson Randle","Chasson-Randle-36002","3300","PG/SG","56.15","231","14.6","103.80","18.30","13.00","21.13","2.54","10.57","0","0"
"Brandon Knight","Brandon-Knight-13336","3200","PG/SG","52.82","227.5","0","101.42","0","11.00","15.69","3.46","9.42","0","0"
"Harry Giles","Harry-Giles-37897","3600","PF/C","49.22","228.5","15.4","98.20","19.64","12.00","13.03","7.81","9.31","0","0"
"Yogi Ferrell","Yogi-Ferrell-35999","3400","PG/SG","53.32","228.5","19.0","98.20","16.92","11.00","17.16","2.31","8.6","0","0"
"TJ Leaf","TJ-Leaf-37817","3100","SF/PF","56.52","217.5","10.9","107.67","18.51","10.00","15.19","2.11","7.6","0","0"
"Omari Spellman","Omari-Spellman-408970","3300","PF/C","47.96","231","16.0","105.10","13.43","10.00","11.2","6.23","8","0","0"
"Theo Pinson","Theo-Pinson-554931","3500","SG/SF","36.79","230","20.8","114.62","22.20","10.00","11.52","6.9","8.23","0","0"
"Quincy Pondexter","Quincy-Pondexter-1237","3000","SF","39.32","228.5","5.1","99.70","15.00","8.00","11.46","1.53","6.39","0","0"
"Edmond Sumner","Edmond-Sumner-37818","3800","SG/SF","47.57","217.5","17.7","107.67","16.70","11.00","11.1","6.18","7.93","0","0"
"Tony Snell","Tony-Snell-16872","3500","SG/SF","33.88","230","16.3","98.80","14.63","14.00","13.81","1.92","6.91","0","0"
"Juancho Hernangomez","Juancho-Hernangomez-35212","3300","SF/PF","44.84","209.5","10.5","99.62","10.33","7.00","11.69","1.01","5.85","0","0"
"Ersan Ilyasova","Ersan-Ilyasova-1301","3100","PF/C","48.18","230","8.0","98.80","11.40","6.00","7.93","0.76","4.43","0","0"
"Wesley Johnson","Wesley-Johnson-1280","3000","SF/PF","36.82","217.5","3.8","104.88","38.94","4.00","6.72","0.76","3.36","0","0"
