"nameCol","idCol","salaryCol","positionCol","dvpCol","ouCol","mpgCol","paceCol","usgCol","pminCol","ceilCol","floorCol","pointsCol","predictCol","actualCol"
"Lance Stephenson","Lance-Stephenson-947","4000","PG/SG","43.80","233","13.4","112.50","14.63","23.00","44.5","4.53","22.67","0","0"
"Klay Thompson","Klay-Thompson-13315","6400","SG","38.44","233","30.7","103.10","27.55","34.00","62.71","16.51","35.59","0","0"
"Kevin Durant","Kevin-Durant-1348","9500","SF/PF","44.39","233","33.0","103.10","28.70","35.00","77.63","27.2","51.41","0","0"
"Joe Ingles","Joe-Ingles-18627","5500","SG/SF","38.66","217.5","29.9","98.88","20.74","31.00","47.91","11.62","29.5","0","0"
"Jusuf Nurkic","Jusuf-Nurkic-18619","7900","C","51.85","217.5","25.1","104.50","23.13","31.00","66.58","19.54","41.93","0","0"
"DeMarcus Cousins","DeMarcus-Cousins-1490","5700","PF/C","56.90","233","15.0","103.10","36.99","21.00","43.2","14.08","30.21","0","0"
"Kentavious Caldwell-Pope","Kentavious-Caldwell-Pope-16869","4600","SG/SF","41.19","233","27.4","112.50","17.59","31.00","38.8","11.21","24.37","0","0"
"Damian Lillard","Damian-Lillard-13900","8300","PG","48.01","217.5","33.6","104.50","31.20","35.00","72.39","21.87","43.74","0","0"
"Josh Hart","Josh-Hart-37889","5200","PG/SG","41.19","233","30.1","112.50","13.69","33.00","43.15","12.07","27.31","0","0"
"Draymond Green","Draymond-Green-13976","6500","PF/C","56.90","233","29.8","103.10","14.15","33.00","50.0","14.62","33.99","0","0"
"Maurice Harkless","Maurice-Harkless-16971","4000","SF/PF","30.39","217.5","14.0","104.50","14.89","28.00","40.94","7.54","20.48","0","0"
"C.J. McCollum","C.J.-McCollum-17121","6100","PG/SG","40.50","217.5","31.9","104.50","22.96","34.00","50.13","16.4","30.66","0","0"
"Alex Caruso","Alex-Caruso-37888","3000","PG/SG","50.06","233","0","112.50","0","18.00","23.17","6.2","14.93","0","0"
"Meyers Leonard","Meyers-Leonard-13905","3300","PF/C","52.64","217.5","16.7","104.50","14.19","16.00","32.66","4.26","16.34","0","0"
"Jae Crowder","Jae-Crowder-13942","4700","SF/PF","35.74","217.5","27.6","98.88","21.43","28.00","46.54","5.05","23.28","0","0"
"Derrick Favors","Derrick-Favors-1266","5100","PF/C","52.60","217.5","23.9","98.88","19.77","24.00","42.56","11.51","25.14","0","0"
"Stephen Curry","Stephen-Curry-1079","9400","PG/SG","52.91","233","31.8","103.10","33.62","35.00","77.16","16.99","45.93","0","0"
"Brandon Ingram","Brandon-Ingram-35227","6900","SG/SF","43.80","233","35.9","112.50","22.92","36.00","49.88","14.93","33.77","0","0"
"Kevon Looney","Kevon-Looney-18945","3900","PF/C","56.65","233","23.8","103.10","12.25","20.00","35.78","7.21","19.03","0","0"
"Kyle Korver","Kyle-Korver-1269","4100","SG/SF","38.66","217.5","24.3","98.88","19.14","25.00","39.32","5.17","19.67","0","0"
"Rudy Gobert","Rudy-Gobert-16935","8500","C","50.68","217.5","34.1","98.88","17.71","35.00","66.2","21.92","40.74","0","0"
"Royce O'Neale","Royce-O'Neale-37872","4600","SF","35.74","217.5","28.6","98.88","10.56","30.00","43.84","7.57","21.94","0","0"
"Al-Farouq Aminu","Al-Farouq-Aminu-1279","5500","SF/PF","30.39","217.5","29.6","104.50","15.34","32.00","38.44","7.4","26.15","0","0"
"Kyle Kuzma","Kyle-Kuzma-37886","7600","SF/PF","48.70","233","35.3","112.50","29.38","35.00","52.8","18.51","35.53","0","0"
"Andre Iguodala","Andre-Iguodala-1334","3900","SG/SF","38.44","233","22.8","103.10","13.40","22.00","30.41","8.65","17.73","0","0"
"Donovan Mitchell","Donovan-Mitchell-37875","8200","PG/SG","47.56","217.5","34.6","98.88","34.20","35.00","60.39","14.88","36.47","0","0"
"Zach Collins","Zach-Collins-37866","3200","PF/C","52.64","217.5","19.6","104.50","15.81","15.00","24.33","3.95","13.31","0","0"
"Ivica Zubac","Ivica-Zubac-35226","4500","C","54.17","233","15.1","112.50","23.64","20.00","37.08","4.75","18.55","0","0"
"Seth Curry","Seth-Curry-16825","3200","PG/SG","33.98","217.5","18.0","104.50","17.56","18.00","26.21","2.98","13.11","0","0"
"Ricky Rubio","Ricky-Rubio-1001","5700","PG","41.80","217.5","4.0","98.88","63.30","22.00","35.66","9.57","22.67","0","0"
"Shaun Livingston","Shaun-Livingston-14007","3000","PG","35.27","233","12.6","103.10","14.71","15.00","22.93","3.03","11.73","0","0"
"Tyson Chandler","Tyson-Chandler-1482","3400","C","54.17","233","13.8","112.50","9.78","14.00","23.58","5.67","12.95","0","0"
"Evan Turner","Evan-Turner-1291","4300","SG/SF","40.50","217.5","23.1","104.50","18.00","20.00","24.49","4.46","15.86","0","0"
"Michael Beasley","Michael-Beasley-1338","3500","SF/PF","48.70","233","11.1","112.50","39.94","11.00","24.75","3.78","12.72","0","0"
"Jonas Jerebko","Jonas-Jerebko-1106","3200","SF/PF","44.39","233","12.7","103.10","14.48","13.00","21.2","2.23","10.71","0","0"
"JaVale McGee","JaVale-McGee-1485","4700","C","54.17","233","17.4","112.50","17.90","11.00","25.29","3.26","12.65","0","0"
"Grayson Allen","Grayson-Allen-409227","3300","PG/SG","38.66","217.5","17.8","98.88","20.75","10.00","11.8","7.07","8.43","0","0"
"Jake Layman","Jake-Layman-35216","3700","SF/PF","30.39","217.5","21.0","104.50","17.97","11.00","15.18","2.56","7.99","0","0"
"Alfonzo McKinnie","Alfonzo-McKinnie-37808","3300","SF/PF","36.47","233","16.3","103.10","12.20","12.00","13.85","2.47","6.93","0","0"
"Sviatoslav Mykhailiuk","Sviatoslav-Mykhailiuk-409280","3400","SG/SF","35.52","233","8.9","112.50","15.11","8.00","9.53","5.15","6.81","0","0"
