"nameCol","idCol","salaryCol","positionCol","dvpCol","ouCol","mpgCol","paceCol","usgCol","pminCol","ceilCol","floorCol","pointsCol","predictCol","actualCol"
"Willy Hernangomez","Willy-Hernangomez-18901","4100","C","55.58","233.5","14.9","103.00","25.55","20.00","50.66","22.43","26.14","0","0"
"Bobby Portis","Bobby-Portis-18909","4500","PF/C","53.29","206.5","17.7","104.50","30.65","24.00","52.49","23.87","26.26","0","0"
"Michael Kidd-Gilchrist","Michael-Kidd-Gilchrist-13896","3200","SF/PF","38.15","233.5","0","103.00","0","21.00","32.15","12.38","18.68","0","0"
"Joe Ingles","Joe-Ingles-18627","6000","SG/SF","35.07","206.5","0","98.88","0","34.00","53.17","22.66","34.28","0","0"
"Royce O'Neale","Royce-O'Neale-37872","3900","SF","39.16","206.5","15.9","98.88","11.56","28.00","33.74","13.69","22.11","0","0"
"Buddy Hield","Buddy-Hield-35206","6500","SG/SF","38.51","233.5","32.4","98.20","23.62","34.00","59.49","21.56","36.54","0","0"
"Jae Crowder","Jae-Crowder-13942","4600","SF/PF","39.16","206.5","27.7","98.88","19.96","31.00","48.29","20.85","25.84","0","0"
"Kemba Walker","Kemba-Walker-13335","8400","PG","55.25","233.5","30.9","103.00","32.93","35.00","77.35","26.59","45.69","0","0"
"Kyle Korver","Kyle-Korver-1269","4000","SG/SF","35.07","206.5","20.3","98.88","17.89","24.00","41.65","21.39","21.39","0","0"
"Derrick Favors","Derrick-Favors-1266","5100","PF/C","61.66","206.5","25.0","98.88","19.04","25.00","43.3","15.59","27.3","0","0"
"Rudy Gobert","Rudy-Gobert-16935","8200","C","0","206.5","31.0","98.88","15.97","35.00","66.55","21.62","43.67","0","0"
"Chandler Hutchison","Chandler-Hutchison-408877","3300","SF/PF","0","206.5","0","104.50","0","25.00","24.46","3.34","17.47","0","0"
"Zach LaVine","Zach-LaVine-18622","6100","PG/SG","48.99","206.5","31.3","104.50","28.52","33.00","47.33","17.15","32.24","0","0"
"Willie Cauley-Stein","Willie-Cauley-Stein-18951","6900","C","53.42","233.5","28.1","98.20","21.89","31.00","52.8","17.13","36.14","0","0"
"Marvin Williams","Marvin-Williams-1318","5300","SF/PF","52.37","233.5","28.6","103.00","17.50","30.00","49.82","21.95","27.71","0","0"
"Jeremy Lamb","Jeremy-Lamb-13955","5500","SG/SF","45.86","233.5","0","103.00","0","28.00","45.5","18.39","28.21","0","0"
"Kris Dunn","Kris-Dunn-35215","6300","PG/SG","48.99","206.5","30.7","104.50","23.56","32.00","49.84","15.28","31.91","0","0"
"Lauri Markkanen","Lauri-Markkanen-37809","6000","PF","49.60","206.5","33.0","104.50","19.65","32.00","50.08","21.47","30.37","0","0"
"De'Aaron Fox","De'Aaron-Fox-37900","7900","PG","52.15","233.5","29.6","98.20","26.54","34.00","58.64","19.37","39.46","0","0"
"Bismack Biyombo","Bismack-Biyombo-13312","4300","C","55.58","233.5","0","103.00","0","22.00","35.3","15.17","21.42","0","0"
"Bogdan Bogdanovic","Bogdan-Bogdanovic-37899","5900","SG/SF","51.16","233.5","30.1","98.20","24.49","31.00","55.12","24.44","29.27","0","0"
"Iman Shumpert","Iman-Shumpert-13350","3700","SG/SF","38.51","233.5","23.5","98.20","19.65","25.00","30.73","13.89","18.27","0","0"
"Nicolas Batum","Nicolas-Batum-1315","4900","SG/SF","38.15","233.5","31.1","103.00","12.33","32.00","41.15","15.66","23.91","0","0"
"Wendell Carter","Wendell-Carter-408878","5300","PF/C","53.29","206.5","25.8","104.50","15.43","30.00","35.59","4.86","25.42","0","0"
"Miles Bridges","Miles-Bridges-409262","3200","SF/PF","52.37","233.5","17.3","103.00","13.57","17.00","21.36","3.08","15.26","0","0"
"Nemanja Bjelica","Nemanja-Bjelica-31814","5200","SF/PF","50.00","233.5","25.9","98.20","16.16","23.00","38.66","14.17","23.5","0","0"
"Donovan Mitchell","Donovan-Mitchell-37875","8500","PG/SG","53.09","206.5","34.1","98.88","29.70","37.00","60.27","22.76","37.69","0","0"
"Antonio Blakeney","Antonio-Blakeney-37811","3200","PG/SG","34.09","206.5","17.4","104.50","21.94","15.00","28.15","11.43","14.08","0","0"
"Harry Giles","Harry-Giles-37897","3700","PF/C","50.00","233.5","16.5","98.20","21.83","16.00","22.68","4.2","16.2","0","0"
"Justin Jackson","Justin-Jackson-37895","3800","SF/PF","38.51","233.5","25.6","98.20","15.08","22.00","31.71","15.74","16.48","0","0"
"Naz Mitrou-Long","Naz-Mitrou-Long-37874","3000","PG","44.50","206.5","5.5","98.88","23.02","14.00","17.54","1.98","12.53","0","0"
"Marvin Bagley III","Marvin-Bagley-III-409321","5000","PF/C","50.00","233.5","20.0","98.20","18.18","20.00","27.97","5.17","19.98","0","0"
"Georges Niang","Georges-Niang-35193","3000","SF/PF","47.93","206.5","9.2","98.88","19.09","12.00","23.6","10.17","11.96","0","0"
"Devonte' Graham","Devonte'-Graham-408968","3600","PG/SG","0","233.5","20.3","103.00","19.21","17.00","19.28","2.78","13.77","0","0"
"Shaquille Harrison","Shaquille-Harrison-36065","3400","PG/SF","0","206.5","18.8","104.50","17.63","16.00","23.52","10.34","12.78","0","0"
"Ryan Arcidiacono","Ryan-Arcidiacono-36050","3100","PG","0","206.5","0","104.50","0","15.00","21.11","9.82","11.53","0","0"
"Malik Monk","Malik-Monk-37827","3600","PG/SG","55.25","233.5","18.0","103.00","25.08","18.00","23.88","10.59","13.31","0","0"
"Wayne Selden","Wayne-Selden-36045","3100","SG/SF","48.99","206.5","7.0","104.50","17.84","10.00","16.09","6.93","8.69","0","0"
"Robin Lopez","Robin-Lopez-1466","3100","C","52.10","206.5","11.3","104.50","14.31","8.00","14.27","6.42","7.14","0","0"
"Yogi Ferrell","Yogi-Ferrell-35999","3300","PG/SG","52.15","233.5","17.9","98.20","15.62","4.00","6.08","2.63","3.22","0","0"
"Grayson Allen","Grayson-Allen-409227","3000","PG/SG","35.07","206.5","0","98.88","0","4.00","2.87","2.15","2.39","0","0"
