"nameCol","idCol","salaryCol","positionCol","dvpCol","ouCol","mpgCol","paceCol","usgCol","pminCol","ceilCol","floorCol","pointsCol","predictCol","actualCol"
"De'Anthony Melton","De'Anthony-Melton-409081","3600","PG","53.28","226.5","22.6","108.80","13.34","27.00","25.55","6.89","22.53","0","0"
"Furkan Korkmaz","Furkan-Korkmaz-35185","3400","SG/SF","35.08","226.5","15.2","108.33","19.03","27.00","38.59","20.32","20.32","0","0"
"JaVale McGee","JaVale-McGee-1485","4800","C","49.38","229","23.0","112.50","16.23","25.00","39.49","17.22","28.05","0","0"
"Dennis Schroder","Dennis-Schroder-18595","5400","PG/SG","52.31","229","30.5","102.62","24.34","30.00","47.53","24.5","31.17","0","0"
"T.J. McConnell","T.J.-McConnell-18956","3600","PG/SG","44.83","226.5","24.5","108.33","15.48","27.00","33.34","17.47","20.72","0","0"
"Steven Adams","Steven-Adams-16848","6900","C","56.96","229","34.6","102.62","15.18","34.00","48.51","24.23","36.83","0","0"
"J.J. Redick","J.J.-Redick-1030","5300","SG/SF","35.08","226.5","29.7","108.33","21.22","33.00","37.95","17.48","28.15","0","0"
"Josh Hart","Josh-Hart-37889","5300","PG/SG","40.43","229","29.7","112.50","15.19","36.00","38.53","19.38","27.96","0","0"
"Kentavious Caldwell-Pope","Kentavious-Caldwell-Pope-16869","3900","SG/SF","40.43","229","23.3","112.50","16.87","27.00","39.26","19.45","20.34","0","0"
"Russell Westbrook","Russell-Westbrook-1083","11700","PG","52.31","229","35.7","102.62","36.33","36.00","67.79","20.85","60.96","0","0"
"Kyle Kuzma","Kyle-Kuzma-37886","7500","SF/PF","47.02","229","37.7","112.50","24.66","38.00","50.51","21.92","39","0","0"
"Joel Embiid","Joel-Embiid-18578","10600","C","54.75","226.5","32.4","108.33","32.10","35.00","67.06","23.61","54.79","0","0"
"Deandre Ayton","Deandre-Ayton-409301","7300","C","51.41","226.5","34.4","108.80","21.15","34.00","42.7","11.52","37.65","0","0"
"Paul George","Paul-George-1245","9200","SF/PF","44.67","229","36.8","102.62","34.72","36.00","66.1","29.23","47.45","0","0"
"Brandon Ingram","Brandon-Ingram-35227","6400","PG/SG","46.40","229","33.5","112.50","24.34","35.00","49.16","20.17","32.58","0","0"
"Devin Booker","Devin-Booker-18949","8300","PG/SG","53.28","226.5","37.1","108.80","33.97","35.00","61.62","22.99","41.27","0","0"
"Lonzo Ball","Lonzo-Ball-37885","7200","PG","35.23","229","31.0","112.50","20.88","36.00","47.66","18.05","35.81","0","0"
"Wilson Chandler","Wilson-Chandler-1327","3800","SF/PF","34.73","226.5","26.8","108.33","11.93","28.00","28.46","13.38","18.82","0","0"
"Landry Shamet","Landry-Shamet-408841","3200","PG/SG","35.08","226.5","16.5","108.33","17.14","23.00","16.68","3.84","15.75","0","0"
"Mike Muscala","Mike-Muscala-17379","3700","PF/C","54.75","226.5","19.5","108.33","16.51","22.00","32.1","18.2","18.2","0","0"
"Richaun Holmes","Richaun-Holmes-18905","3300","PF/C","51.41","226.5","15.8","108.80","14.57","15.00","27.18","10.95","16.08","0","0"
"Ben Simmons","Ben-Simmons-35184","8900","PG/SF","44.83","226.5","31.2","108.33","26.22","35.00","57.03","18.33","43.14","0","0"
"Josh Jackson","Josh-Jackson-37890","4000","SF/PF","48.54","226.5","21.6","108.80","18.96","22.00","27.32","12.45","19.36","0","0"
"Jerami Grant","Jerami-Grant-18576","5300","PF","44.67","229","33.7","102.62","15.03","33.00","39.59","18.18","25.46","0","0"
"Lance Stephenson","Lance-Stephenson-947","3800","SG/SF","46.40","229","11.0","112.50","23.58","18.00","30.81","14.53","18.21","0","0"
"Kelly Oubre","Kelly-Oubre-18925","4200","SG/SF","35.08","226.5","24.9","108.80","20.15","25.00","34.11","16.18","19.76","0","0"
"TJ Warren","TJ-Warren-18634","6600","SF/PF","48.54","226.5","37.0","108.80","22.73","34.00","40.94","17.53","30.6","0","0"
"Mikal Bridges","Mikal-Bridges-408842","4400","SG/SF","35.08","226.5","33.4","108.80","10.49","32.00","22.54","6.08","19.88","0","0"
"Tyson Chandler","Tyson-Chandler-1482","3500","C","49.38","229","17.8","112.50","13.06","17.00","29.56","15.59","15.59","0","0"
"Nerlens Noel","Nerlens-Noel-18575","3300","C","56.96","229","12.0","102.62","12.03","14.00","23.81","12.14","14.26","0","0"
"Terrance Ferguson","Terrance-Ferguson-37871","3100","SG/SF","36.13","229","17.8","102.62","13.99","23.00","20.47","8.0","12.84","0","0"
"Jamal Crawford","Jamal-Crawford-1075","3200","PG/SG","48.54","226.5","17.2","108.80","20.89","16.00","21.58","12.13","12.13","0","0"
"Patrick Patterson","Patrick-Patterson-1260","3000","PF/C","57.99","229","11.4","102.62","13.11","12.00","14.01","6.72","7.93","0","0"
"Abdel Nader","Abdel-Nader-35179","3200","SF","37.76","229","14.0","102.62","17.45","12.00","16.19","8.14","8.14","0","0"
"Hamidou Diallo","Hamidou-Diallo-408800","3100","SG/SF","36.13","229","11.3","102.62","16.52","10.00","7.51","1.73","7.09","0","0"
"Jonah Bolden","Jonah-Bolden-554969","3100","PF","48.80","226.5","19.8","108.33","13.88","10.00","7.36","1.7","6.95","0","0"
"Ivica Zubac","Ivica-Zubac-35226","4000","C","49.38","229","26.6","112.50","18.03","8.00","11.93","6.08","7.5","0","0"
