"nameCol","idCol","salaryCol","positionCol","dvpCol","ouCol","mpgCol","paceCol","usgCol","pminCol","ceilCol","floorCol","pointsCol","predictCol","actualCol"
"Zach LaVine","Zach-LaVine-18622","6600","PG/SG","0","226.5","34.7","104.50","26.81","35.00","56.97","18.14","37.09","0","0"
"Sam Dekker","Sam-Dekker-18929","3300","SF/PF","0","229.5","16.3","103.80","12.58","23.00","34.06","3.25","18.47","0","0"
"Lauri Markkanen","Lauri-Markkanen-37809","6900","PF","0","226.5","33.7","104.50","21.90","34.00","67.94","19.14","38.58","0","0"
"Cristiano Felicio","Cristiano-Felicio-31767","3000","C","0","226.5","7.9","104.50","10.93","20.00","32.93","2.95","16.64","0","0"
"Marvin Williams","Marvin-Williams-1318","4900","SF/PF","0","215.5","33.0","103.00","13.86","32.00","54.39","6.48","27.21","0","0"
"Jordan McRae","Jordan-McRae-18772","3400","PG/SG","0","229.5","15.6","103.80","22.41","23.00","37.62","5.38","18.82","0","0"
"Maxi Kleber","Maxi-Kleber-37845","4300","PF/C","0","215.5","21.3","100.08","10.79","28.00","47.52","6.37","23.77","0","0"
"Tim Hardaway Jr.","Tim-Hardaway-Jr.-16879","4900","SG/SF","0","215.5","32.8","100.08","20.86","30.00","48.29","12.32","26.96","0","0"
"Kris Dunn","Kris-Dunn-35215","6400","PG/SG","0","226.5","32.5","104.50","20.47","34.00","60.65","20.03","35.2","0","0"
"Khris Middleton","Khris-Middleton-13990","6300","SG/SF","0","229.5","31.8","98.80","22.72","33.00","49.74","9.91","34.28","0","0"
"Bradley Beal","Bradley-Beal-13898","8600","SG","0","229.5","36.6","103.80","27.98","37.00","70.21","22.98","45.15","0","0"
"Dwight Powell","Dwight-Powell-18566","4500","PF/C","0","215.5","20.2","100.08","13.87","22.00","47.04","7.34","23.53","0","0"
"Trevor Ariza","Trevor-Ariza-1323","5700","SF/PF","0","229.5","35.4","103.80","19.17","36.00","43.57","9.17","29.48","0","0"
"Jrue Holiday","Jrue-Holiday-1073","9000","PG/SG","0","226.5","36.1","104.88","28.16","37.00","74.37","22.18","46.31","0","0"
"Malcolm Brogdon","Malcolm-Brogdon-35195","5700","PG/SG","0","229.5","29.5","98.80","21.81","31.00","54.77","10.27","29.26","0","0"
"Cheick Diallo","Cheick-Diallo-35225","3700","PF/C","0","226.5","18.0","104.88","19.83","20.00","37.88","5.74","18.95","0","0"
"Malik Monk","Malik-Monk-37827","3800","PG/SG","0","215.5","19.8","103.00","26.47","22.00","38.14","5.64","19.45","0","0"
"Jeff Green","Jeff-Green-1314","5000","SF/PF","0","229.5","31.5","103.80","21.71","32.00","51.05","6.38","25.54","0","0"
"D.J. Wilson","D.J.-Wilson-37822","3400","PF/C","0","229.5","19.1","98.80","13.54","20.00","34.64","4.16","17.33","0","0"
"Dorian Finney-Smith","Dorian-Finney-Smith-36032","3900","SF/PF","0","215.5","26.3","100.08","14.33","30.00","37.23","10.25","19.9","0","0"
"Darius Miller","Darius-Miller-13951","4800","SF/PF","0","226.5","34.5","104.88","17.15","36.00","45.21","7.16","24.37","0","0"
"Harrison Barnes","Harrison-Barnes-13901","5700","SF/PF","0","215.5","34.2","100.08","23.73","34.00","44.67","12.13","28.67","0","0"
"Frank Jackson","Frank-Jackson-37855","4200","PG/SG","0","226.5","25.4","104.88","21.51","26.00","29.41","17.0","21.01","0","0"
"Kemba Walker","Kemba-Walker-13335","8800","PG","0","215.5","35.6","103.00","27.19","35.00","80.08","19.79","43.88","0","0"
"Giannis Antetokounmpo","Giannis-Antetokounmpo-16852","11400","SF/PF","0","229.5","33.3","98.80","32.68","33.00","79.42","32.39","56.73","0","0"
"Tomas Satoransky ","Tomas-Satoransky--36031","5600","PG/SF","0","229.5","31.2","103.80","16.15","30.00","54.66","9.29","27.9","0","0"
"Kenrich Williams","Kenrich-Williams-570179","5000","SG/SF","0","226.5","26.1","104.88","14.60","30.00","34.8","20.11","24.86","0","0"
"Eric Bledsoe","Eric-Bledsoe-1031","6800","PG","0","229.5","30.0","98.80","25.17","31.00","67.53","14.53","33.78","0","0"
"Luka Doncic","Luka-Doncic-408971","9500","PG/SF","0","215.5","33.1","100.08","36.10","33.00","65.42","37.01","46.73","0","0"
"Jahlil Okafor","Jahlil-Okafor-18902","7300","C","0","226.5","31.2","104.88","21.40","33.00","63.38","14.99","35.95","0","0"
"Wayne Selden","Wayne-Selden-36045","4500","SG/SF","0","226.5","27.5","104.50","14.97","32.00","37.78","8.53","21.59","0","0"
"Nicolas Batum","Nicolas-Batum-1315","5000","SG/SF","0","215.5","34.1","103.00","13.51","32.00","43.21","9.1","23.82","0","0"
"Sterling Brown","Sterling-Brown-37821","3200","SG/SF","0","229.5","17.4","98.80","13.57","20.00","28.15","4.0","15.03","0","0"
"Jeremy Lamb","Jeremy-Lamb-13955","5600","SG/SF","0","215.5","25.2","103.00","22.42","28.00","44.0","9.51","26.13","0","0"
"Miles Bridges","Miles-Bridges-409262","3400","SF/PF","0","215.5","17.9","103.00","14.35","20.00","22.08","12.28","15.77","0","0"
"Cody Zeller","Cody-Zeller-16836","4300","C","0","215.5","22.7","103.00","11.87","22.00","32.33","7.31","19.76","0","0"
"Robin Lopez","Robin-Lopez-1466","4000","C","0","226.5","18.2","104.50","16.81","23.00","32.76","6.46","18.1","0","0"
"Brook Lopez","Brook-Lopez-1498","5500","C","0","229.5","28.5","98.80","14.99","27.00","46.39","9.98","24.94","0","0"
"Tim Frazier","Tim-Frazier-18743","4100","PG","0","226.5","17.9","104.88","18.89","18.00","36.22","4.73","18.12","0","0"
"Michael Kidd-Gilchrist","Michael-Kidd-Gilchrist-13896","3700","SF/PF","0","215.5","20.2","103.00","15.56","20.00","32.62","6.64","16.32","0","0"
"Ian Mahinmi","Ian-Mahinmi-1357","3200","C","0","229.5","14.4","103.80","10.73","15.00","27.89","2.33","13.95","0","0"
"George Hill","George-Hill-993","3500","PG/SG","0","229.5","21.5","98.80","14.67","20.00","28.43","4.06","14.71","0","0"
"Devonte' Graham","Devonte'-Graham-408968","3200","PG/SG","0","215.5","20.1","103.00","22.21","16.00","18.72","10.42","13.37","0","0"
"Thomas Bryant ","Thomas-Bryant--37884","4900","PF/C","0","229.5","20.6","103.80","16.70","20.00","39.06","2.29","19.54","0","0"
"Jalen Brunson","Jalen-Brunson-409062","4300","PG/SG","0","215.5","20.4","100.08","19.72","22.00","23.24","12.55","16.6","0","0"
"Shaquille Harrison","Shaquille-Harrison-36065","3300","PG/SF","0","226.5","16.9","104.50","12.67","17.00","24.93","3.57","12.47","0","0"
"Julius Randle","Julius-Randle-18632","7700","PF/C","0","226.5","33.7","104.88","21.50","23.00","51.36","11.19","28.69","0","0"
"Ian Clark","Ian-Clark-16922","3300","PG/SG","0","226.5","15.3","104.88","25.96","17.00","23.99","3.13","12","0","0"
"Timothe Luwawu-Cabarrot","Timothe-Luwawu-Cabarrot-35183","3000","SG/SF","0","226.5","0","104.50","0","13.00","13.69","9.48","10.53","0","0"
"Courtney Lee","Courtney-Lee-1025","3000","SG/SF","0","215.5","5.7","100.08","15.85","15.00","20.85","1.84","10.43","0","0"
"Devin Harris","Devin-Harris-1076","3800","PG/SG","0","215.5","15.9","100.08","17.88","16.00","25.23","3.02","12.68","0","0"
"John Jenkins","John-Jenkins-13918","3000","PG/SG","0","229.5","3.9","103.80","13.57","12.00","13.68","7.61","9.77","0","0"
"Ryan Arcidiacono","Ryan-Arcidiacono-36050","3600","PG","0","226.5","18.7","104.50","12.98","18.00","23.17","3.48","11.59","0","0"
"Brandon Sampson","Brandon-Sampson-592172","3000","PG/SG","0","226.5","12.6","104.50","6.86","14.00","12.89","7.73","9.21","0","0"
"Dirk Nowitzki","Dirk-Nowitzki-1346","3000","PF/C","0","215.5","10.7","100.08","17.54","10.00","14.69","2.3","8.73","0","0"
"Chasson Randle","Chasson-Randle-36002","3300","PG/SG","0","229.5","13.5","103.80","18.50","12.00","18.77","2.25","9.39","0","0"
"Ersan Ilyasova","Ersan-Ilyasova-1301","3200","PF/C","0","229.5","10.1","98.80","14.48","10.00","16.24","1.48","8.67","0","0"
"Tony Snell","Tony-Snell-16872","3300","SG/SF","0","229.5","18.9","98.80","13.44","15.00","16.87","2.35","8.44","0","0"
"Bismack Biyombo","Bismack-Biyombo-13312","3700","C","0","215.5","19.4","103.00","10.30","10.00","18.79","2.17","9.4","0","0"
"Willy Hernangomez","Willy-Hernangomez-18901","3700","C","0","215.5","12.0","103.00","20.24","3.00","7.28","0.88","3.64","0","0"
"Pat Connaughton","Pat-Connaughton-18939","3200","SG/SF","0","229.5","17.1","98.80","14.61","4.00","6.14","0.85","3.07","0","0"
