"nameCol","idCol","salaryCol","positionCol","dvpCol","ouCol","mpgCol","paceCol","usgCol","pminCol","ceilCol","floorCol","pointsCol","predictCol","actualCol"
"Jahlil Okafor","Jahlil-Okafor-18902","6600","C","52.35","225.5","24.6","104.88","20.23","35.00","70.79","17.49","40.2","0","0"
"Justin Holiday","Justin-Holiday-14559","4300","SG/SF","39.89","209","32.1","103.30","14.03","36.00","46.15","14.94","26.16","0","0"
"Kyle Anderson","Kyle-Anderson-18615","4500","PG/SF","38.59","209","29.0","103.30","19.13","32.00","46.76","15.36","27.14","0","0"
"Tim Frazier","Tim-Frazier-18743","3200","PG/SG","39.87","225.5","13.4","104.88","19.71","22.00","38.58","5.04","19.3","0","0"
"Darius Miller","Darius-Miller-13951","3800","SF/PF","37.31","225.5","30.9","104.88","14.10","36.00","45.22","6.29","22.62","0","0"
"Frank Jackson","Frank-Jackson-37855","3400","PG/SG","49.58","225.5","17.4","104.88","20.09","24.00","27.29","14.73","19.49","0","0"
"Ian Clark","Ian-Clark-16922","3000","PG/SG","33.44","225.5","7.2","104.88","23.90","21.00","33.3","4.35","16.66","0","0"
"Jrue Holiday","Jrue-Holiday-1073","8900","PG/SG","49.58","225.5","37.3","104.88","27.33","38.00","72.53","23.67","48.71","0","0"
"Josh Okogie","Josh-Okogie-409174","4100","SG/SF","42.28","209","26.0","100.67","18.24","32.00","31.36","13.01","22.4","0","0"
"Otto Porter","Otto-Porter-17069","5700","SF/PF","36.51","217","29.7","103.80","21.26","31.00","61.95","9.67","30.99","0","0"
"Domantas Sabonis","Domantas-Sabonis-35217","6300","PF/C","55.81","217","22.3","107.67","20.23","26.00","64.28","5.03","34.23","0","0"
"Cory Joseph","Cory-Joseph-13339","4000","PG","46.30","217","23.5","107.67","17.37","28.00","39.24","6.35","21.61","0","0"
"Bruno Caboclo","Bruno-Caboclo-18581","3300","SF/PF","39.89","209","19.7","103.30","11.59","22.00","33.23","5.74","17.78","0","0"
"Dario Saric","Dario-Saric-36004","3900","PF","42.36","209","21.7","100.67","11.13","24.00","36.42","6.18","21.03","0","0"
"Darren Collison","Darren-Collison-1060","6200","PG","46.30","217","28.2","107.67","22.69","33.00","53.9","14.97","33.05","0","0"
"Paul Millsap","Paul-Millsap-1335","5000","PF/C","49.58","225.5","22.2","99.62","16.78","25.00","42.71","9.57","26.3","0","0"
"Jaren Jackson","Jaren-Jackson-409099","5400","PF/C","53.36","209","26.6","103.30","22.38","28.00","39.66","19.69","28.33","0","0"
"Bojan Bogdanovic","Bojan-Bogdanovic-18571","5500","SG/SF","39.84","217","31.8","107.67","19.59","34.00","45.32","9.53","28.63","0","0"
"Nikola Jokic","Nikola-Jokic-31812","10900","C","55.72","225.5","31.2","99.62","32.93","34.00","82.96","33.93","56.55","0","0"
"Bradley Beal","Bradley-Beal-13898","8700","SG","47.05","217","37.3","103.80","29.64","38.00","67.06","23.8","45.16","0","0"
"Gary Harris","Gary-Harris-18617","5500","SG","49.02","225.5","22.8","99.62","21.78","30.00","39.13","9.95","27.95","0","0"
"Will Barton","Will-Barton-13982","6800","SG/SF","49.02","225.5","27.2","99.62","21.80","32.00","59.36","11.93","34.39","0","0"
"Cheick Diallo","Cheick-Diallo-35225","3200","PF/C","52.35","225.5","10.8","104.88","23.03","17.00","32.32","4.9","16.17","0","0"
"Tomas Satoransky ","Tomas-Satoransky--36031","6200","PG/SG","48.10","217","34.7","103.80","17.29","35.00","60.28","10.26","31.09","0","0"
"Thaddeus Young","Thaddeus-Young-1289","5600","SF/PF","47.63","217","27.8","107.67","19.68","32.00","47.41","12.06","27.97","0","0"
"Karl-Anthony Towns","Karl-Anthony-Towns-18937","10600","C","50.82","209","31.0","100.67","31.22","37.00","82.24","27.66","52.38","0","0"
"Edmond Sumner","Edmond-Sumner-37818","3700","PG","46.30","217","28.0","107.67","14.29","25.00","25.47","14.17","18.19","0","0"
"Marc Gasol","Marc-Gasol-1493","7800","C","53.36","209","31.7","103.30","25.24","34.00","62.04","20.05","38.11","0","0"
"Jerryd Bayless","Jerryd-Bayless-1021","5000","PG/SG","42.28","209","27.7","100.67","21.31","36.00","48.7","6.41","24.36","0","0"
"Andrew Wiggins","Andrew-Wiggins-18620","6500","SG/SF","42.28","209","36.5","100.67","27.65","37.00","49.8","13.02","31.6","0","0"
"Kenrich Williams","Kenrich-Williams-570179","3100","SG/SF","37.31","225.5","17.7","104.88","11.73","21.00","20.97","11.32","14.98","0","0"
"Trevor Ariza","Trevor-Ariza-1323","6000","SF/PF","36.51","217","35.3","103.80","18.43","34.00","42.79","9.0","28.95","0","0"
"Taj Gibson","Taj-Gibson-1277","4300","PF/C","47.87","209","23.8","100.67","17.31","26.00","34.88","7.78","20.74","0","0"
"Thomas Bryant ","Thomas-Bryant--37884","5400","PF/C","54.29","217","22.3","103.80","17.42","25.00","51.87","3.22","25.95","0","0"
"Trey Lyles","Trey-Lyles-18942","3700","SF/PF","49.58","225.5","18.2","99.62","24.20","18.00","33.68","4.95","17.8","0","0"
"Solomon Hill","Solomon-Hill-16863","3400","SF/PF","37.31","225.5","22.5","104.88","10.84","26.00","32.28","4.49","16.15","0","0"
"Gorgui Dieng","Gorgui-Dieng-16939","3300","PF/C","47.87","209","9.0","100.67","19.65","16.00","28.19","3.84","15.6","0","0"
"Monte Morris","Monte-Morris-37860","4500","PG","52.51","225.5","22.3","99.62","16.93","26.00","29.74","16.55","21.24","0","0"
"Mike Conley","Mike-Conley-1062","8000","PG","39.87","209","31.8","103.30","26.28","34.00","66.94","14.22","37.71","0","0"
"Shelvin Mack","Shelvin-Mack-13354","3500","PG/SG","39.87","209","19.1","103.30","22.97","20.00","29.24","2.74","16.39","0","0"
"Mason Plumlee","Mason-Plumlee-16798","3900","PF/C","51.43","225.5","17.7","99.62","18.94","18.00","35.35","4.59","18.13","0","0"
"Luol Deng","Luol-Deng-1328","3400","SF/PF","37.22","209","15.0","100.67","13.67","20.00","31.26","5.21","15.64","0","0"
"Jeff Green","Jeff-Green-1314","4600","SF/PF","46.92","217","27.2","103.80","18.41","26.00","40.31","7.71","20.83","0","0"
"Malik Beasley","Malik-Beasley-35213","4200","PG/SG","41.98","225.5","22.7","99.62","17.79","26.00","37.96","4.52","18.99","0","0"
"Myles Turner","Myles-Turner-18915","6900","C","59.74","217","29.3","107.67","16.57","28.00","60.91","9.54","31.19","0","0"
"JaMychal Green","JaMychal-Green-18729","4800","SF/PF","53.36","209","19.9","103.30","22.16","22.00","41.0","4.33","20.51","0","0"
"Ian Mahinmi","Ian-Mahinmi-1357","3200","C","51.09","217","14.2","103.80","8.33","15.00","27.03","2.18","13.52","0","0"
"Aaron Holiday","Aaron-Holiday-408932","3600","PG/SG","46.30","217","8.2","107.67","28.27","17.00","21.01","11.69","15.01","0","0"
"Sam Dekker","Sam-Dekker-18929","3200","SF/PF","36.51","217","17.2","103.80","16.16","16.00","24.12","2.3","13.08","0","0"
"Doug McDermott","Doug-McDermott-18583","3200","SF/PF","39.84","217","15.5","107.67","17.66","17.00","23.67","3.79","11.84","0","0"
"Torrey Craig","Torrey-Craig-37861","4400","SG/SF","41.98","225.5","27.0","99.62","13.29","24.00","31.94","3.61","15.98","0","0"
"Chasson Randle","Chasson-Randle-36002","3300","PG/SG","48.10","217","13.8","103.80","16.56","14.00","23.35","2.8","11.68","0","0"
"Joakim Noah","Joakim-Noah-1404","3300","C","50.32","209","16.8","103.30","15.68","12.00","20.73","3.58","10.37","0","0"
"Juancho Hernangomez","Juancho-Hernangomez-35212","3300","SF/PF","49.58","225.5","12.6","99.62","10.79","7.00","11.11","0.96","5.56","0","0"
"Troy Brown","Troy-Brown-409043","3000","SG/SF","36.51","217","8.0","103.80","14.07","3.00","3.56","1.92","2.54","0","0"
"Jordan McRae","Jordan-McRae-18772","3000","PG/SG","48.10","217","4.3","103.80","32.77","3.00","4.98","0.79","2.49","0","0"
