"nameCol","idCol","salaryCol","positionCol","dvpCol","ouCol","mpgCol","paceCol","usgCol","pminCol","ceilCol","floorCol","pointsCol","predictCol","actualCol"
"Rondae Hollis-Jefferson","Rondae-Hollis-Jefferson-18897","3700","PF/C","44.03","219","12.0","114.62","23.31","24.00","45.87","5.79","23.18","0","0"
"Joe Harris","Joe-Harris-18587","4900","SG/SF","36.39","219","32.0","114.62","20.09","33.00","46.04","9.99","26.16","0","0"
"Jarrett Allen","Jarrett-Allen-37794","5500","C","51.40","219","28.5","114.62","16.14","30.00","59.27","12.81","29.65","0","0"
"Shabazz Napier","Shabazz-Napier-18598","4600","PG/SG","39.23","219","15.4","114.62","27.89","29.00","51.67","7.5","25.85","0","0"
"DeMarre Carroll","DeMarre-Carroll-1174","4700","SF/PF","34.18","219","29.2","114.62","19.39","29.00","47.68","5.39","23.85","0","0"
"Rodions Kurucs","Rodions-Kurucs-408801","4000","SF/PF","44.03","219","22.5","114.62","19.48","24.00","28.22","14.01","20.16","0","0"
"D'Angelo Russell","D'Angelo-Russell-18947","8600","PG/SG","48.89","219","30.7","114.62","32.67","33.00","60.24","17.25","38.94","0","0"
"Ed Davis","Ed-Davis-1265","4000","C","51.40","219","18.8","114.62","12.95","18.00","34.52","5.08","17.27","0","0"
"Theo Pinson","Theo-Pinson-554931","4400","SG/SF","36.39","219","25.0","114.62","27.68","20.00","24.49","13.85","17.49","0","0"
