"nameCol","idCol","salaryCol","positionCol","dvpCol","ouCol","mpgCol","paceCol","usgCol","pminCol","ceilCol","floorCol","pointsCol","predictCol","actualCol"
"Gary Clark","Gary-Clark-570141","3400","SF/PF","48.14","225","13.0","101.42","8.61","29.00","29.36","15.85","20.97","0","0"
"Justin Holiday","Justin-Holiday-14559","3400","SG/SF","35.64","212.5","17.7","103.30","15.03","26.00","39.1","3.76","19.56","0","0"
"Dennis Smith Jr.","Dennis-Smith-Jr.-37847","4500","PG","53.08","217.5","25.0","100.08","20.81","28.00","41.97","10.21","24.85","0","0"
"James Harden","James-Harden-1037","13000","PG/SG","50.22","225","37.9","101.42","46.30","38.00","100.41","52.0","71.72","0","0"
"Kevin Durant","Kevin-Durant-1348","9800","SF/PF","48.47","241","34.2","103.10","27.77","35.00","78.14","27.18","53.19","0","0"
"Joe Ingles","Joe-Ingles-18627","5900","SG/SF","33.45","224.5","30.6","98.88","21.09","34.00","50.15","11.67","31.88","0","0"
"Evan Fournier","Evan-Fournier-13913","5100","SG/SF","37.37","207.5","32.0","105.10","18.77","34.00","42.49","11.01","27.52","0","0"
"Klay Thompson","Klay-Thompson-13315","6500","SG","41.08","241","32.8","103.10","26.52","35.00","59.05","16.5","34.96","0","0"
"Reggie Jackson","Reggie-Jackson-13352","4800","PG/SG","51.62","207.5","29.0","100.30","21.28","28.00","39.0","14.09","25.71","0","0"
"Draymond Green","Draymond-Green-13976","6400","PF/C","55.26","241","30.5","103.10","13.73","34.00","49.76","16.02","34.01","0","0"
"Nikola Vucevic","Nikola-Vucevic-13296","8900","C","52.06","207.5","29.1","105.10","28.66","35.00","70.26","16.93","47.03","0","0"
"Jusuf Nurkic","Jusuf-Nurkic-18619","7900","C","48.99","216.5","26.1","104.50","24.36","30.00","65.21","19.11","41.64","0","0"
"Rudy Gobert","Rudy-Gobert-16935","8500","C","58.78","224.5","33.7","98.88","15.81","34.00","74.8","22.62","44.71","0","0"
"Jae Crowder","Jae-Crowder-13942","4300","SF/PF","35.05","224.5","27.4","98.88","19.36","27.00","44.13","4.34","22.62","0","0"
"D.J. Augustin","D.J.-Augustin-1064","4500","PG","42.44","207.5","26.3","105.10","18.20","29.00","42.4","10.83","23.4","0","0"
"Ish Smith","Ish-Smith-13958","3300","PG","37.23","207.5","18.0","100.30","23.42","21.00","32.02","5.14","17.14","0","0"
"Reggie Bullock","Reggie-Bullock-16943","4500","SG/SF","34.01","207.5","32.1","100.30","16.91","33.00","43.74","11.64","23.29","0","0"
"Ed Davis","Ed-Davis-1265","3600","C","53.65","225","18.9","114.62","13.84","19.00","37.18","5.47","18.6","0","0"
"Damian Lillard","Damian-Lillard-13900","9000","PG","57.04","216.5","34.0","104.50","31.31","34.00","75.81","22.88","46.51","0","0"
"Anthony Davis","Anthony-Davis-13895","11800","PF/C","49.00","241","35.8","104.88","32.92","37.00","85.23","28.55","60.88","0","0"
"Al-Farouq Aminu","Al-Farouq-Aminu-1279","5300","SF/PF","38.64","216.5","29.7","104.50","14.78","32.00","40.18","7.73","27.33","0","0"
"Kevon Looney","Kevon-Looney-18945","4100","PF/C","51.16","241","21.8","103.10","13.07","24.00","33.98","7.99","21.08","0","0"
"Marc Gasol","Marc-Gasol-1493","7100","C","57.54","212.5","30.0","103.30","22.10","34.00","59.61","18.6","36.48","0","0"
"DeAndre Jordan","DeAndre-Jordan-1486","6800","C","50.64","217.5","29.6","100.08","14.21","32.00","48.73","21.34","34.81","0","0"
"Jaren Jackson","Jaren-Jackson-409099","5600","PF/C","57.54","212.5","27.7","103.30","20.21","28.00","40.08","16.63","28.63","0","0"
"Serge Ibaka","Serge-Ibaka-1294","6000","PF/C","43.62","223.5","30.2","105.50","21.76","30.00","51.99","12.36","30.6","0","0"
"Tristan Thompson","Tristan-Thompson-13308","6200","C","50.58","216.5","28.4","103.60","18.20","32.00","53.8","11.18","31.57","0","0"
"Luka Doncic","Luka-Doncic-408971","8400","SG/SF","47.32","217.5","30.6","100.08","33.29","34.00","59.74","24.79","42.67","0","0"
"Derrick Favors","Derrick-Favors-1266","5300","PF/C","58.38","224.5","25.0","98.88","18.36","26.00","42.44","11.18","26.88","0","0"
"Julius Randle","Julius-Randle-18632","7500","PF/C","49.00","241","32.0","104.88","25.01","32.00","67.78","16.67","38.06","0","0"
"D'Angelo Russell","D'Angelo-Russell-18947","7300","PG/SG","49.34","225","30.6","114.62","32.46","30.00","57.29","16.4","37.03","0","0"
"Stephen Curry","Stephen-Curry-1079","10100","PG/SG","51.24","241","33.5","103.10","35.29","35.00","87.12","18.86","51.25","0","0"
"Gerald Green","Gerald-Green-13374","4300","SG/SF","44.85","225","27.1","101.42","18.54","29.00","37.59","6.21","21.73","0","0"
"Mike Conley","Mike-Conley-1062","7600","PG","42.44","212.5","31.6","103.30","25.29","35.00","67.91","14.42","38.26","0","0"
"Spencer Dinwiddie","Spencer-Dinwiddie-18588","5400","PG/SG","49.34","225","25.1","114.62","23.61","27.00","45.15","6.57","27.05","0","0"
"P.J. Tucker","P.J.-Tucker-13947","4700","SF/PF","32.78","225","34.7","101.42","9.49","37.00","35.23","7.24","23.52","0","0"
"DeMar DeRozan","DeMar-DeRozan-1053","8100","SG/SF","48.74","217.5","36.3","99.70","27.48","35.00","74.46","21.01","40.4","0","0"
"C.J. McCollum","C.J.-McCollum-17121","6600","PG/SG","49.95","216.5","33.3","104.50","24.09","34.00","54.27","18.01","32.87","0","0"
"E'Twaun Moore","E'Twaun-Moore-18582","4000","SG/SF","42.22","241","30.8","104.88","11.76","30.00","33.58","6.08","19.88","0","0"
"Lou Williams","Lou-Williams-1044","6100","PG/SG","40.28","224.5","26.3","108.38","32.11","28.00","54.11","6.65","29.96","0","0"
"Kyrie Irving","Kyrie-Irving-13334","8600","PG","46.87","223.5","29.0","101.75","27.39","34.00","59.0","21.2","42.14","0","0"
"Blake Griffin","Blake-Griffin-1503","9200","PF/C","49.67","207.5","37.7","100.30","29.02","36.00","81.22","26.2","45.02","0","0"
"Andre Drummond","Andre-Drummond-13904","8700","C","52.27","207.5","35.7","100.30","19.97","34.00","59.61","22.44","42.58","0","0"
"Alec Burks","Alec-Burks-13353","5200","PG/SG","44.29","216.5","29.3","103.60","16.77","30.00","41.41","10.37","25.42","0","0"
"Joe Harris","Joe-Harris-18587","4600","SG/SF","37.22","225","27.2","114.62","20.62","30.00","39.53","8.58","22.46","0","0"
"Terrence Ross","Terrence-Ross-13902","4800","SG/SF","37.37","207.5","26.0","105.10","23.13","28.00","46.82","4.85","23.42","0","0"
"Austin Rivers","Austin-Rivers-13903","5400","PG/SG","40.17","225","37.4","101.42","15.27","38.00","52.63","6.08","26.33","0","0"
"Andre Iguodala","Andre-Iguodala-1334","3900","SG/SF","41.08","241","25.0","103.10","11.12","25.00","31.77","9.03","18.98","0","0"
"Eric Bledsoe","Eric-Bledsoe-1031","6300","PG/SG","48.23","212.5","26.4","98.80","28.13","30.00","61.21","13.04","30.62","0","0"
"Jrue Holiday","Jrue-Holiday-1073","8200","PG/SG","50.10","241","34.8","104.88","23.79","36.00","63.52","18.97","39.85","0","0"
"Jonathan Isaac","Jonathan-Isaac-37841","3900","SF/PF","52.06","207.5","25.6","105.10","12.82","26.00","34.4","5.75","18.93","0","0"
"Bryn Forbes","Bryn-Forbes-36052","4500","PG/SG","56.17","217.5","32.7","99.70","16.06","31.00","43.6","7.63","21.81","0","0"
"Rodney Hood","Rodney-Hood-18629","4200","SG/SF","44.29","216.5","23.2","103.60","20.14","26.00","32.05","8.61","20.36","0","0"
"Jonas Jerebko","Jonas-Jerebko-1106","3300","PF/C","48.47","241","15.2","103.10","14.97","19.00","31.27","3.32","15.96","0","0"
"Donovan Mitchell","Donovan-Mitchell-37875","9100","PG/SG","52.45","224.5","35.7","98.88","31.47","38.00","71.49","18.77","44.05","0","0"
"Nikola Mirotic","Nikola-Mirotic-18584","5500","PF/C","47.67","241","21.3","104.88","16.79","26.00","47.66","8.85","26.58","0","0"
"Collin Sexton","Collin-Sexton-408896","4400","PG","48.02","216.5","29.0","103.60","24.15","30.00","29.68","17.15","21.2","0","0"
"Aaron Gordon","Aaron-Gordon-18601","7000","SF/PF","47.37","207.5","35.1","105.10","22.61","35.00","57.71","14.28","33.75","0","0"
"DeMarre Carroll","DeMarre-Carroll-1174","5000","SF/PF","36.82","225","26.5","114.62","22.26","28.00","48.06","5.43","24.04","0","0"
"Brook Lopez","Brook-Lopez-1498","4700","C","50.98","212.5","27.1","98.80","12.97","28.00","40.84","9.13","22.55","0","0"
"Danilo Gallinari","Danilo-Gallinari-1329","7100","SF/PF","49.52","224.5","33.3","108.38","23.56","34.00","62.38","12.97","34.05","0","0"
"Al Horford","Al-Horford-1499","5900","PF/C","54.20","223.5","23.0","101.75","19.07","28.00","44.24","13.85","28.32","0","0"
"Marco Belinelli","Marco-Belinelli-1033","3800","SG/SF","33.15","217.5","22.3","99.70","19.64","22.00","30.1","5.29","18.11","0","0"
"Jarrett Allen","Jarrett-Allen-37794","5600","C","53.65","225","26.1","114.62","16.02","27.00","53.25","11.51","26.64","0","0"
"Jevon Carter","Jevon-Carter-409100","3300","PG/SG","42.44","212.5","13.8","103.30","18.27","22.00","21.99","9.13","15.71","0","0"
"Kawhi Leonard","Kawhi-Leonard-13310","9600","SF/PF","44.98","223.5","34.8","105.50","30.06","35.00","66.93","17.22","45.19","0","0"
"Derrick White","Derrick-White-37858","5800","PG/SG","41.42","217.5","31.9","99.70","18.62","30.00","48.92","8.68","27.3","0","0"
"Khris Middleton","Khris-Middleton-13990","6900","SG/SF","43.00","212.5","30.0","98.80","24.41","33.00","49.26","9.35","32.45","0","0"
"Fred VanVleet","Fred-VanVleet-36011","4700","PG/SG","39.39","223.5","29.6","105.50","19.35","26.00","41.91","5.89","22.06","0","0"
"Giannis Antetokounmpo","Giannis-Antetokounmpo-16852","11000","SF/PF","41.52","212.5","30.5","98.80","35.13","34.00","72.2","29.6","51.57","0","0"
"Elfrid Payton","Elfrid-Payton-18602","5700","PG","37.93","241","27.2","104.88","21.69","28.00","42.49","12.65","26.74","0","0"
"Montrezl Harrell","Montrezl-Harrell-18930","7200","PF/C","52.73","224.5","26.8","108.38","25.13","30.00","58.37","4.02","33.74","0","0"
"Tobias Harris","Tobias-Harris-13332","7400","SF/PF","49.52","224.5","34.2","108.38","21.80","34.00","55.08","15.66","34.64","0","0"
"Kyle Lowry","Kyle-Lowry-1057","7200","PG","49.64","223.5","33.5","105.50","20.22","32.00","58.4","16.39","33.66","0","0"
"Marcus Smart","Marcus-Smart-18567","4600","PG/SG","46.87","223.5","28.2","101.75","14.47","28.00","35.67","9.22","21.5","0","0"
"Royce O'Neale","Royce-O'Neale-37872","4500","SF","35.05","224.5","21.1","98.88","10.11","32.00","34.01","7.9","20.89","0","0"
"Dwight Powell","Dwight-Powell-18566","3500","PF/C","50.17","217.5","17.4","100.08","18.26","16.00","31.66","4.9","16.17","0","0"
"Jordan Clarkson","Jordan-Clarkson-18631","5500","PG/SG","44.29","216.5","25.7","103.60","26.87","28.00","50.36","8.64","25.42","0","0"
"Nene Hilario","Nene-Hilario-17321","3400","C","61.69","225","10.8","101.42","8.46","16.00","25.93","7.26","15.68","0","0"
"Gordon Hayward","Gordon-Hayward-1239","5200","SF/PF","45.76","223.5","25.3","101.75","22.59","25.00","47.88","7.76","23.95","0","0"
"Malcolm Brogdon","Malcolm-Brogdon-35195","5900","PG/SG","48.23","212.5","28.3","98.80","22.74","31.00","51.64","9.55","27.22","0","0"
"Harrison Barnes","Harrison-Barnes-13901","5700","SF/PF","50.51","217.5","31.9","100.08","21.27","34.00","41.47","11.1","26.23","0","0"
"Maxi Kleber","Maxi-Kleber-37845","4600","PF/C","50.51","217.5","21.0","100.08","11.63","25.00","41.82","4.83","20.92","0","0"
"Rudy Gay","Rudy-Gay-1341","5300","SF/PF","47.29","217.5","23.5","99.70","22.68","24.00","40.56","9.36","24","0","0"
"Wesley Matthews","Wesley-Matthews-1339","4500","SG/SF","32.45","217.5","26.3","100.08","17.10","28.00","37.21","9.8","20.2","0","0"
"Patrick Beverley","Patrick-Beverley-14108","4000","PG/SG","43.58","224.5","25.7","108.38","10.43","25.00","32.15","4.63","17.86","0","0"
"Langston Galloway","Langston-Galloway-18717","3200","PG/SG","40.31","207.5","14.0","100.30","14.23","22.00","28.57","3.57","14.29","0","0"
"Khem Birch","Khem-Birch-37838","3300","PF/C","52.66","207.5","10.0","105.10","12.85","17.00","24.32","4.26","14.74","0","0"
"JaMychal Green","JaMychal-Green-18729","4900","SF/PF","57.54","212.5","23.6","103.30","19.29","23.00","43.02","4.32","21.84","0","0"
"Matthew Dellavedova","Matthew-Dellavedova-16839","3300","PG/SG","41.73","216.5","18.0","103.60","19.87","18.00","29.33","3.05","14.67","0","0"
"Luke Kennard","Luke-Kennard-37814","3400","SG/SF","40.31","207.5","18.9","100.30","18.39","20.00","28.2","4.87","15.09","0","0"
"Isaiah Briscoe","Isaiah-Briscoe-37868","3100","PG/SG","42.44","207.5","11.4","105.10","15.91","19.00","19.25","10.71","13.75","0","0"
"Avery Bradley","Avery-Bradley-941","3500","SG","33.85","224.5","25.0","108.38","13.29","30.00","30.01","4.84","15.5","0","0"
"Rodions Kurucs","Rodions-Kurucs-408801","4100","SF/PF","46.34","225","24.3","114.62","17.40","22.00","25.3","12.56","18.07","0","0"
"Rondae Hollis-Jefferson","Rondae-Hollis-Jefferson-18897","4400","PF/C","46.34","225","0","114.62","0","20.00","31.89","8.96","19.36","0","0"
"Cedi Osman","Cedi-Osman-18912","4800","SF/PF","36.66","216.5","32.0","103.60","17.81","33.00","32.13","10.23","21.14","0","0"
"LaMarcus Aldridge","LaMarcus-Aldridge-1349","8300","PF/C","54.81","217.5","33.3","99.70","26.54","34.00","53.48","18.2","36.48","0","0"
"Jaylen Brown","Jaylen-Brown-35181","4600","SG/SF","37.53","223.5","25.0","101.75","21.81","24.00","40.5","4.6","20.26","0","0"
"Jayson Tatum","Jayson-Tatum-37782","6600","SF/PF","45.76","223.5","29.6","101.75","24.85","32.00","42.96","13.27","28.97","0","0"
"Darius Miller","Darius-Miller-13951","3500","SF/PF","35.90","241","27.2","104.88","10.87","26.00","30.64","5.1","15.33","0","0"
"Shai Gilgeous-Alexander","Shai-Gilgeous-Alexander-408990","3700","PG/SG","43.58","224.5","18.3","108.38","19.93","20.00","22.67","9.41","16.19","0","0"
"Patty Mills","Patty-Mills-13977","3700","PG/SG","41.42","217.5","23.0","99.70","21.36","23.00","32.3","4.04","16.16","0","0"
"Danny Green","Danny-Green-940","4600","SG/SF","33.55","223.5","30.0","105.50","12.70","30.00","30.9","6.79","19.91","0","0"
"Pascal Siakam","Pascal-Siakam-35186","6700","PF/C","50.40","223.5","32.3","105.50","22.71","32.00","45.67","14.24","28.94","0","0"
"Kyle Korver","Kyle-Korver-1269","4200","SG/SF","33.45","224.5","22.9","98.88","19.32","24.00","35.94","5.0","17.98","0","0"
"Meyers Leonard","Meyers-Leonard-13905","3500","PF/C","52.06","216.5","16.6","104.50","16.77","15.00","29.77","3.57","14.89","0","0"
"Marcus Morris","Marcus-Morris-13316","5700","SF/PF","37.53","223.5","25.8","101.75","20.47","28.00","41.14","8.91","24.2","0","0"
"Jake Layman","Jake-Layman-35216","3400","SF/PF","38.64","216.5","19.6","104.50","16.33","20.00","28.75","2.4","14.38","0","0"
"Seth Curry","Seth-Curry-16825","3200","PG/SG","38.32","216.5","19.1","104.50","16.61","18.00","26.87","3.59","13.44","0","0"
"Cameron Payne","Cameron-Payne-18941","3600","PG/SG","41.73","216.5","14.8","103.60","20.39","19.00","25.7","3.85","15","0","0"
"Zach Collins","Zach-Collins-37866","3500","PF/C","52.06","216.5","18.4","104.50","13.59","16.00","25.67","4.44","14.52","0","0"
"George Hill","George-Hill-993","3500","PG/SG","40.05","212.5","20.9","98.80","13.76","22.00","26.67","3.88","14.52","0","0"
"Evan Turner","Evan-Turner-1291","4300","SG/SF","49.95","216.5","24.1","104.50","18.31","23.00","28.26","5.14","17.73","0","0"
"Davis Bertans","Davis-Bertans-36051","4200","SF/PF","54.81","217.5","24.7","99.70","10.44","23.00","34.56","4.12","17.29","0","0"
"Shelvin Mack","Shelvin-Mack-13354","3800","PG/SG","42.44","212.5","18.4","103.30","24.63","20.00","27.16","2.6","15.59","0","0"
"Jakob Poeltl","Jakob-Poeltl-35187","3400","C","49.30","217.5","15.1","99.70","11.67","14.00","27.43","2.85","13.72","0","0"
"Marcin Gortat","Marcin-Gortat-1479","3400","C","52.12","224.5","17.8","108.38","16.39","16.00","24.55","6.15","13.66","0","0"
"Ersan Ilyasova","Ersan-Ilyasova-1301","3400","PF/C","41.52","212.5","16.3","98.80","17.42","17.00","24.62","2.32","13.58","0","0"
"Garrett Temple","Garrett-Temple-14077","3700","SG/SF","35.64","212.5","32.7","103.30","13.03","25.00","26.82","2.74","14.57","0","0"
"Grayson Allen","Grayson-Allen-409227","3300","PG/SG","33.45","224.5","16.0","98.88","17.76","19.00","18.06","10.22","12.9","0","0"
"Ante Zizic","Ante-Zizic-35180","3700","C","50.58","216.5","16.5","103.60","15.32","16.00","28.87","1.44","14.44","0","0"
"Greg Monroe","Greg-Monroe-1487","3400","C","51.43","223.5","13.0","105.50","23.37","12.00","22.26","4.22","13.08","0","0"
"Omri Casspi","Omri-Casspi-1270","3500","SF/PF","39.72","212.5","13.7","103.30","14.62","17.00","26.85","2.95","13.43","0","0"
"Bruce Brown","Bruce-Brown-408913","3700","PG/SG","40.31","207.5","24.4","100.30","15.41","21.00","19.54","11.06","13.96","0","0"
"Shabazz Napier","Shabazz-Napier-18598","4400","PG/SG","39.35","225","25.3","114.62","25.22","19.00","32.28","4.68","16.15","0","0"
"Shaun Livingston","Shaun-Livingston-14007","3100","PG","49.77","241","10.2","103.10","12.78","15.00","22.45","3.1","11.23","0","0"
"D.J. Wilson","D.J.-Wilson-37822","3500","PF/C","41.52","212.5","16.6","98.80","13.53","13.00","24.67","3.08","12.34","0","0"
"Eric Gordon","Eric-Gordon-1077","6000","SG/SF","44.85","225","0","101.42","0","25.00","35.13","7.18","21.06","0","0"
"Sterling Brown","Sterling-Brown-37821","3300","SG/SF","38.09","212.5","18.3","98.80","18.36","16.00","22.54","3.21","11.54","0","0"
"Delon Wright","Delon-Wright-18907","4300","PG/SG","39.39","223.5","20.2","105.50","18.30","18.00","22.64","6.43","14.75","0","0"
"Dorian Finney-Smith","Dorian-Finney-Smith-36032","3600","SF/PF","38.20","217.5","19.6","100.08","15.40","18.00","23.68","4.53","12.24","0","0"
"Jon Leuer","Jon-Leuer-13317","3200","PF/C","49.67","207.5","11.7","100.30","16.13","13.00","21.42","4.41","10.85","0","0"
"Norman Powell","Norman-Powell-18908","3600","SG/SF","35.10","223.5","20.2","105.50","21.39","19.00","24.29","3.32","12.15","0","0"
"Tyrone Wallace","Tyrone-Wallace-35220","3200","PG/SG","40.28","224.5","15.7","108.38","16.05","15.00","21.12","3.33","10.72","0","0"
"Tony Snell","Tony-Snell-16872","3000","SG/SF","35.90","212.5","16.7","98.80","13.66","16.00","20.01","2.78","10.01","0","0"
"Frank Jackson","Frank-Jackson-37855","3300","PG/SG","50.10","241","14.8","104.88","17.20","17.00","15.36","8.69","10.97","0","0"
"Treveon Graham","Treveon-Graham-36023","3300","SF/PF","36.82","225","20.5","114.62","13.94","18.00","21.55","2.04","10.78","0","0"
"Terry Rozier","Terry-Rozier-18894","4900","PG/SG","50.22","223.5","22.1","101.75","21.24","18.00","28.1","5.0","16.04","0","0"
"Aron Baynes","Aron-Baynes-14114","3400","C","51.26","223.5","0","101.75","0","12.00","19.28","4.77","10.83","0","0"
"Daniel Theis","Daniel-Theis-37784","3500","PF/C","51.26","223.5","16.9","101.75","15.29","11.00","20.96","2.85","11.03","0","0"
"Maurice Harkless","Maurice-Harkless-16971","4000","SF/PF","38.64","216.5","16.0","104.50","13.33","18.00","21.24","4.84","12.42","0","0"
"Marquese Chriss","Marquese-Chriss-35230","3100","PF/C","57.95","225","9.7","101.42","18.68","10.00","18.58","2.26","9.5","0","0"
"Isaiah Hartenstein","Isaiah-Hartenstein-570142","3000","PF/C","48.14","225","6.0","101.42","15.53","10.00","12.31","6.65","8.79","0","0"
"Wes Iwundu","Wes-Iwundu-37839","3300","SG/SF","34.10","207.5","17.3","105.10","15.58","17.00","18.31","2.39","9.16","0","0"
"Stanley Johnson","Stanley-Johnson-18913","3400","SF/PF","34.01","207.5","13.0","100.30","21.17","12.00","16.87","1.94","8.72","0","0"
"Dirk Nowitzki","Dirk-Nowitzki-1346","3000","PF/C","50.17","217.5","11.0","100.08","18.90","9.00","12.88","2.15","7.53","0","0"
"Jalen Brunson","Jalen-Brunson-409062","4400","PG","42.50","217.5","16.3","100.08","22.09","16.00","15.09","9.04","10.78","0","0"
"Jordan Bell","Jordan-Bell-37877","3100","PF/C","51.16","241","8.0","103.10","19.24","8.00","14.23","1.52","7.12","0","0"
"Mike Scott","Mike-Scott-13999","3000","SF/PF","49.52","224.5","7.2","108.38","16.40","8.00","13.57","1.28","6.79","0","0"
"Joakim Noah","Joakim-Noah-1404","3800","C","47.82","212.5","8.9","103.30","21.12","10.00","16.45","2.74","8.23","0","0"
"Jahlil Okafor","Jahlil-Okafor-18902","3200","C","54.34","241","13.0","104.88","18.84","8.00","13.79","1.73","6.9","0","0"
"Alfonzo McKinnie","Alfonzo-McKinnie-37808","3300","SF/PF","36.35","241","14.2","103.10","12.17","10.00","12.31","2.17","6.16","0","0"
"Vincent Edwards","Vincent-Edwards-409226","3000","PG/SF","32.78","225","0","101.42","0","8.00","7.48","0.01","5.34","0","0"
"Georges Niang","Georges-Niang-35193","3000","SF/PF","51.47","224.5","7.6","98.88","16.83","6.00","10.61","1.01","5.31","0","0"
"Jaron Blossomgame","Jaron-Blossomgame-570197","3000","SF/PF","36.66","216.5","5.2","103.60","15.24","8.00","6.73","3.75","4.81","0","0"
"Pau Gasol","Pau-Gasol-1502","3100","C","54.81","217.5","13.2","99.70","11.28","4.00","7.37","2.65","4.54","0","0"
"C.J. Miles","C.J.-Miles-1299","3200","SG/SF","33.55","223.5","6.5","105.50","12.31","6.00","8.67","1.01","4.36","0","0"
