"nameCol","idCol","salaryCol","positionCol","dvpCol","ouCol","mpgCol","paceCol","usgCol","pminCol","ceilCol","floorCol","pointsCol","predictCol","actualCol"
"C.J. McCollum","C.J.-McCollum-17121","6300","PG/SG","49.14","233.5","32.8","104.50","23.73","35.00","58.84","19.21","36.73","0","0"
"Damian Lillard","Damian-Lillard-13900","8600","PG","51.72","233.5","33.8","104.50","31.16","35.00","79.57","25.42","48.05","0","0"
"Danilo Gallinari","Danilo-Gallinari-1329","6700","SF/PF","48.31","241.5","33.4","108.38","22.74","34.00","66.08","13.56","36.07","0","0"
"Jusuf Nurkic","Jusuf-Nurkic-18619","8200","C","51.27","233.5","26.4","104.50","23.42","30.00","65.51","19.2","43.24","0","0"
"Tobias Harris","Tobias-Harris-13332","7100","SF/PF","48.31","241.5","33.9","108.38","21.54","34.00","58.93","16.75","37.06","0","0"
"Montrezl Harrell","Montrezl-Harrell-18930","7200","PF/C","51.02","241.5","26.6","108.38","24.88","30.00","64.04","4.43","37.58","0","0"
"Anthony Davis","Anthony-Davis-13895","11700","PF/C","52.47","233.5","35.5","104.88","33.63","38.00","84.62","28.35","60.44","0","0"
"Nikola Mirotic","Nikola-Mirotic-18584","5900","PF/C","50.81","233.5","23.0","104.88","19.34","30.00","54.79","10.12","30.39","0","0"
"Klay Thompson","Klay-Thompson-13315","6600","SG","35.49","241.5","31.5","103.10","27.45","35.00","60.38","15.91","33.77","0","0"
"Darius Miller","Darius-Miller-13951","3400","SF/PF","36.55","233.5","27.8","104.88","11.16","30.00","34.58","4.58","17.3","0","0"
"E'Twaun Moore","E'Twaun-Moore-18582","4000","SG/SF","38.64","233.5","30.0","104.88","12.72","31.00","34.07","6.15","20.11","0","0"
"Al-Farouq Aminu","Al-Farouq-Aminu-1279","5300","SF/PF","41.48","233.5","29.5","104.50","14.61","32.00","38.68","7.45","26.31","0","0"
"Julius Randle","Julius-Randle-18632","7500","PF/C","52.47","233.5","29.8","104.88","25.46","30.00","66.08","16.25","37.1","0","0"
"Jrue Holiday","Jrue-Holiday-1073","8000","PG/SG","47.52","233.5","35.5","104.88","24.02","36.00","63.65","18.98","39.63","0","0"
"Stephen Curry","Stephen-Curry-1079","10000","PG/SG","52.58","241.5","32.7","103.10","34.99","35.00","84.29","18.28","49.41","0","0"
"Draymond Green","Draymond-Green-13976","6900","PF/C","58.35","241.5","30.3","103.10","14.11","33.00","50.4","14.72","34.08","0","0"
"Kevin Durant","Kevin-Durant-1348","10100","SF/PF","51.40","241.5","33.5","103.10","28.78","35.00","75.38","26.47","49.66","0","0"
"Meyers Leonard","Meyers-Leonard-13905","3400","PF/C","55.71","233.5","16.9","104.50","15.36","16.00","32.9","3.87","16.46","0","0"
"DeMarcus Cousins","DeMarcus-Cousins-1490","5500","PF/C","58.35","241.5","0","103.10","0","22.00","47.22","8.71","26.38","0","0"
"Avery Bradley","Avery-Bradley-941","3600","SG","41.89","241.5","24.9","108.38","14.29","30.00","33.46","5.33","17.08","0","0"
"Shai Gilgeous-Alexander","Shai-Gilgeous-Alexander-408990","3600","PG/SG","38.45","241.5","18.9","108.38","20.44","20.00","23.39","13.23","16.71","0","0"
"Patrick Beverley","Patrick-Beverley-14108","3900","PG/SG","38.45","241.5","25.6","108.38","10.08","25.00","30.76","7.01","17.98","0","0"
"Lou Williams","Lou-Williams-1044","6700","PG/SG","44.08","241.5","26.3","108.38","32.32","28.00","53.14","13.03","30.88","0","0"
"Andre Iguodala","Andre-Iguodala-1334","3900","SG/SF","35.49","241.5","23.2","103.10","13.95","24.00","29.24","8.32","17.05","0","0"
"Zach Collins","Zach-Collins-37866","3300","PF/C","55.71","233.5","18.2","104.50","14.44","16.00","26.45","4.61","14.23","0","0"
"Seth Curry","Seth-Curry-16825","3300","PG/SG","36.67","233.5","19.0","104.50","17.19","18.00","28.05","3.34","14.03","0","0"
"Maurice Harkless","Maurice-Harkless-16971","4000","SF/PF","41.48","233.5","16.0","104.50","13.33","24.00","33.88","6.24","16.95","0","0"
"Elfrid Payton","Elfrid-Payton-18602","6400","PG","41.98","233.5","26.5","104.88","21.06","29.00","42.7","12.71","26.87","0","0"
"Kevon Looney","Kevon-Looney-18945","4000","PF/C","59.61","241.5","23.2","103.10","11.80","18.00","26.44","5.92","15.7","0","0"
"Marcin Gortat","Marcin-Gortat-1479","3300","C","54.44","241.5","17.3","108.38","16.36","15.00","22.27","5.76","12.95","0","0"
"Tyrone Wallace","Tyrone-Wallace-35220","3100","PG/SG","44.08","241.5","15.3","108.38","17.04","16.00","19.86","3.96","11.89","0","0"
"Evan Turner","Evan-Turner-1291","4300","SG/SF","49.14","233.5","23.8","104.50","18.20","21.00","26.38","4.81","16.02","0","0"
"Jonas Jerebko","Jonas-Jerebko-1106","3300","PF/C","51.40","241.5","14.3","103.10","14.66","16.00","22.48","2.41","11.59","0","0"
"Shaun Livingston","Shaun-Livingston-14007","3100","PG","44.45","241.5","10.2","103.10","15.65","15.00","19.83","2.56","9.92","0","0"
"Frank Jackson","Frank-Jackson-37855","3200","PG/SG","47.52","233.5","15.0","104.88","17.90","10.00","10.49","5.83","7.49","0","0"
"Mike Scott","Mike-Scott-13999","3000","SF/PF","48.31","241.5","7.0","108.38","17.11","8.00","12.83","0.85","6.42","0","0"
"Jake Layman","Jake-Layman-35216","3600","SF/PF","41.48","233.5","20.2","104.50","16.77","10.00","14.38","2.27","7.57","0","0"
"Jahlil Okafor","Jahlil-Okafor-18902","3100","C","50.48","233.5","11.5","104.88","18.71","6.00","10.37","1.25","5.19","0","0"
"Alfonzo McKinnie","Alfonzo-McKinnie-37808","3300","SF/PF","33.88","241.5","15.7","103.10","13.00","7.00","8.12","1.47","4.06","0","0"
"Nik Stauskas","Nik-Stauskas-18636","3100","SG/SF","36.67","233.5","12.6","104.50","18.81","3.00","4.06","0.88","2.19","0","0"
