"nameCol","idCol","salaryCol","positionCol","dvpCol","ouCol","mpgCol","paceCol","usgCol","pminCol","ceilCol","floorCol","pointsCol","predictCol","actualCol"
"Fred VanVleet","Fred-VanVleet-36011","4400","PG/SG","23.63","232.5","24.6","105.50","17.90","32.00","62.11","8.73","32.69","0","0"
"Julian Washburn","Julian-Washburn-760293","3200","SG/SF","26.90","215","17.7","103.30","8.94","32.00","31.65","15.71","22.61","0","0"
"Ivan Rabb","Ivan-Rabb-37854","5100","PF/C","35.33","215","18.6","103.30","16.21","34.00","55.25","18.78","35.51","0","0"
"OG Anunoby","OG-Anunoby-37807","3300","SF/PF","32.19","232.5","13.1","105.50","13.60","26.00","40.3","5.86","21.94","0","0"
"Jaren Jackson","Jaren-Jackson-409099","6000","PF/C","25.70","215","28.2","103.30","21.61","36.00","55.48","27.54","39.63","0","0"
"Pascal Siakam","Pascal-Siakam-35186","6200","PF/C","27.25","232.5","31.9","105.50","22.82","35.00","62.54","19.5","39.63","0","0"
"Serge Ibaka","Serge-Ibaka-1294","6300","PF/C","36.59","232.5","31.3","105.50","19.50","33.00","67.42","16.03","39.68","0","0"
"Danny Green","Danny-Green-940","4000","SG/SF","32.19","232.5","23.3","105.50","11.78","32.00","36.61","8.04","23.59","0","0"
"Kyle Lowry","Kyle-Lowry-1057","7100","PG","42.67","232.5","36.2","105.50","21.40","35.00","71.53","20.08","41.23","0","0"
"Myles Turner","Myles-Turner-18915","6500","C","34.93","220.5","28.7","107.67","21.45","30.00","72.63","12.38","37.19","0","0"
"Damian Lillard","Damian-Lillard-13900","8600","PG","38.94","226.5","33.9","104.50","30.56","36.00","79.97","25.55","48.29","0","0"
"Jayson Tatum","Jayson-Tatum-37782","5800","SF/PF","28.03","227","29.9","101.75","20.14","31.00","49.55","15.15","32.45","0","0"
"JaVale McGee","JaVale-McGee-1485","4500","C","34.67","227","17.1","112.50","23.02","23.00","49.54","6.2","24.78","0","0"
"Aaron Gordon","Aaron-Gordon-18601","6600","SF/PF","31.25","215.5","37.2","105.10","23.22","35.00","62.38","14.68","36.33","0","0"
"Danilo Gallinari","Danilo-Gallinari-1329","6000","SF/PF","24.60","220.5","0","108.38","0","32.00","55.67","11.86","32.94","0","0"
"Taurean Prince","Taurean-Prince-35218","4700","SF","25.50","232.5","28.9","105.10","14.60","30.00","47.12","10.07","25.82","0","0"
"Bruno Caboclo","Bruno-Caboclo-18581","3500","SF/PF","23.07","215","22.0","103.30","12.92","24.00","35.75","6.18","19.13","0","0"
"Steven Adams","Steven-Adams-16848","6200","C","29.87","215","33.2","102.62","18.16","34.00","58.12","15.44","33.85","0","0"
"Tyreke Evans","Tyreke-Evans-1070","4300","SG/SF","25.54","220.5","21.1","107.67","20.92","24.00","42.35","13.4","23.27","0","0"
"Andrew Wiggins","Andrew-Wiggins-18620","5900","SG/SF","25.04","215.5","37.3","100.67","27.51","36.00","49.54","12.64","32.4","0","0"
"Montrezl Harrell","Montrezl-Harrell-18930","7200","PF/C","28.01","220.5","29.8","108.38","20.17","35.00","68.66","11.4","38.79","0","0"
"Terrence Ross","Terrence-Ross-13902","5100","SG/SF","28.09","215.5","29.2","105.10","24.37","29.00","54.91","6.92","27.47","0","0"
"Al-Farouq Aminu","Al-Farouq-Aminu-1279","4700","SF/PF","26.43","226.5","21.3","104.50","12.04","30.00","37.13","7.15","25.26","0","0"
"Norman Powell","Norman-Powell-18908","3700","SG/SF","21.28","232.5","18.0","105.50","19.92","24.00","39.56","5.4","19.79","0","0"
"Karl-Anthony Towns","Karl-Anthony-Towns-18937","9900","C","22.75","215.5","32.4","100.67","28.80","36.00","83.79","28.18","53.37","0","0"
"Lance Stephenson","Lance-Stephenson-947","3800","PG/SF","27.69","227","23.7","112.50","21.64","23.00","39.85","4.06","20.3","0","0"
"Sindarius Thornwell","Sindarius-Thornwell-37881","3000","SG/SF","26.18","220.5","5.8","108.38","11.76","22.00","31.72","3.05","15.87","0","0"
"Evan Fournier","Evan-Fournier-13913","5500","SG/SF","28.09","215.5","32.2","105.10","20.73","35.00","44.73","12.65","29.01","0","0"
"Darren Collison","Darren-Collison-1060","6400","PG","17.47","220.5","29.7","107.67","19.78","34.00","55.29","15.71","33.65","0","0"
"Johnathan Motley","Johnathan-Motley-37844","3200","PF/C","24.60","220.5","5.9","108.38","31.77","21.00","33.58","4.4","16.8","0","0"
"Al Horford","Al-Horford-1499","6700","PF/C","33.22","227","29.3","101.75","21.20","30.00","55.15","17.27","35.04","0","0"
"Domantas Sabonis","Domantas-Sabonis-35217","5900","PF/C","35.45","220.5","23.1","107.67","21.84","25.00","57.04","4.46","30.78","0","0"
"Trae Young","Trae-Young-409063","6900","PG","34.46","232.5","31.7","105.10","31.24","32.00","50.41","28.52","36.01","0","0"
"Kevin Huerter","Kevin-Huerter-408969","4900","SG/SF","21.48","232.5","28.5","105.10","17.10","33.00","35.66","20.17","25.47","0","0"
"Taj Gibson","Taj-Gibson-1277","4000","PF/C","34.79","215.5","23.2","100.67","13.18","26.00","36.13","8.55","20.8","0","0"
"Nikola Vucevic","Nikola-Vucevic-13296","9300","C","32.46","215.5","33.3","105.10","28.61","34.00","76.38","19.94","48.16","0","0"
"D.J. Augustin","D.J.-Augustin-1064","4600","PG","19.25","215.5","29.1","105.10","17.48","29.00","42.58","9.58","23.72","0","0"
"Lou Williams","Lou-Williams-1044","7400","PG/SG","27.24","220.5","31.0","108.38","36.00","33.00","75.96","8.44","38","0","0"
"Jusuf Nurkic","Jusuf-Nurkic-18619","7900","C","30.41","226.5","26.9","104.50","24.52","30.00","61.57","18.04","40.64","0","0"
"Davis Bertans","Davis-Bertans-36051","4200","SF/PF","28.94","226.5","27.0","99.70","17.37","30.00","43.08","7.03","21.55","0","0"
"Russell Westbrook","Russell-Westbrook-1083","11300","PG","40.83","215","36.0","102.62","31.59","36.00","80.99","31.64","57.85","0","0"
"Justin Holiday","Justin-Holiday-14559","5200","SG/SF","23.07","215","33.5","103.30","16.19","36.00","46.73","15.13","26.49","0","0"
"Dennis Schroder","Dennis-Schroder-18595","4900","PG/SG","40.83","215","25.5","102.62","23.94","26.00","40.85","6.83","24.91","0","0"
"Paul George","Paul-George-1245","10000","SF/PF","29.00","215","37.5","102.62","33.19","36.00","80.68","23.47","50.58","0","0"
"Bojan Bogdanovic","Bojan-Bogdanovic-18571","5600","SG/SF","20.62","220.5","32.9","107.67","23.53","34.00","48.43","9.4","28.24","0","0"
"Marcus Morris","Marcus-Morris-13316","5500","SF/PF","25.90","227","29.9","101.75","21.00","29.00","47.04","9.62","27.72","0","0"
"Josh Okogie","Josh-Okogie-409174","3600","SG/SF","25.04","215.5","27.3","100.67","15.52","26.00","25.38","12.6","18.13","0","0"
"Kyrie Irving","Kyrie-Irving-13334","9500","PG","41.44","227","37.4","101.75","32.22","34.00","66.98","22.48","47.84","0","0"
"Thaddeus Young","Thaddeus-Young-1289","6100","SF/PF","32.98","220.5","28.8","107.67","19.74","32.00","45.39","14.63","30.61","0","0"
"Jevon Carter","Jevon-Carter-409100","3400","PG/SG","18.09","215","16.5","103.30","15.30","24.00","23.83","13.48","17.02","0","0"
"Jerryd Bayless","Jerryd-Bayless-1021","5800","PG/SG","25.04","215.5","37.0","100.67","20.54","35.00","50.27","9.23","27.71","0","0"
"DeMar DeRozan","DeMar-DeRozan-1053","7600","SG/SF","26.05","226.5","32.4","99.70","23.05","35.00","69.15","19.51","37.52","0","0"
"LaMarcus Aldridge","LaMarcus-Aldridge-1349","7800","PF/C","28.94","226.5","32.6","99.70","28.00","34.00","56.44","19.21","38.5","0","0"
"Patrick Beverley","Patrick-Beverley-14108","5500","PG/SG","20.09","220.5","34.0","108.38","12.39","35.00","47.92","10.12","26.98","0","0"
"Dewayne Dedmon","Dewayne-Dedmon-16894","5200","PF/C","29.49","232.5","24.9","105.10","16.27","25.00","41.3","11.28","25.46","0","0"
"Terrance Ferguson","Terrance-Ferguson-37871","3600","SG/SF","21.86","215","30.0","102.62","12.76","31.00","35.24","3.91","17.63","0","0"
"Rudy Gay","Rudy-Gay-1341","5800","SF/PF","38.09","226.5","27.6","99.70","23.79","30.00","43.39","11.38","28.32","0","0"
"Cory Joseph","Cory-Joseph-13339","4400","PG/SG","17.47","220.5","27.4","107.67","14.36","28.00","37.5","6.3","21.44","0","0"
"Josh Hart","Josh-Hart-37889","3500","SG/SF","19.25","227","23.0","112.50","12.80","24.00","33.3","3.2","17","0","0"
"Kyle Kuzma","Kyle-Kuzma-37886","5400","SF/PF","22.19","227","27.0","112.50","22.05","31.00","38.93","13.67","26.23","0","0"
"Jerami Grant","Jerami-Grant-18576","5200","PF","29.00","215","34.5","102.62","16.16","34.00","50.55","3.24","25.29","0","0"
"Marco Belinelli","Marco-Belinelli-1033","4000","SG/SF","20.18","226.5","23.3","99.70","19.13","24.00","32.16","5.65","19.35","0","0"
"Shai Gilgeous-Alexander","Shai-Gilgeous-Alexander-408990","4900","PG/SG","20.09","220.5","24.7","108.38","21.59","32.00","32.98","16.37","23.56","0","0"
"Gordon Hayward","Gordon-Hayward-1239","4800","SF/PF","28.03","227","23.6","101.75","19.13","24.00","46.08","6.78","23.05","0","0"
"Jerome Robinson","Jerome-Robinson-409263","3200","SG","35.72","220.5","13.4","108.38","11.87","20.00","21.34","12.07","15.24","0","0"
"Marcus Smart","Marcus-Smart-18567","5000","PG/SG","41.44","227","29.8","101.75","17.35","29.00","39.47","10.21","23.79","0","0"
"Brandon Ingram","Brandon-Ingram-35227","5500","PG/SG","27.69","227","36.5","112.50","20.94","35.00","39.67","11.04","26.15","0","0"
"Patty Mills","Patty-Mills-13977","4200","PG/SG","24.44","226.5","23.4","99.70","23.11","27.00","39.48","4.94","19.75","0","0"
"John Collins","John-Collins-37823","8100","PF/C","29.49","232.5","27.8","105.10","26.66","30.00","68.82","14.96","37.79","0","0"
"C.J. McCollum","C.J.-McCollum-17121","7000","PG/SG","23.64","226.5","33.0","104.50","29.89","34.00","52.35","17.09","32.68","0","0"
"Rajon Rondo","Rajon-Rondo-1085","6500","PG","21.55","227","36.4","112.50","17.99","34.00","45.71","9.72","30.29","0","0"
"LeBron James","LeBron-James-1227","10400","SF/PF","22.19","227","35.3","112.50","30.77","35.00","72.25","27.31","47.75","0","0"
"Mike Conley","Mike-Conley-1062","8400","PG","18.09","215","35.3","103.30","27.78","34.00","68.34","14.51","38.5","0","0"
"Luol Deng","Luol-Deng-1328","3300","SF/PF","21.87","215.5","20.1","100.67","15.90","20.00","32.0","5.27","16.01","0","0"
"Yuta Watanabe","Yuta-Watanabe-570161","3100","SF/PF","23.07","215","18.8","103.30","10.67","20.00","19.85","11.23","14.18","0","0"
"Jaylen Brown","Jaylen-Brown-35181","4700","SG/SF","25.90","227","26.0","101.75","23.66","24.00","42.36","4.81","21.19","0","0"
"Jeremy Lin","Jeremy-Lin-916","4100","PG/SG","34.46","232.5","18.3","105.10","26.02","18.00","33.8","5.25","18.37","0","0"
"Evan Turner","Evan-Turner-1291","3900","SG/SF","23.64","226.5","20.4","104.50","15.68","22.00","28.72","5.23","17.44","0","0"
"Rodney Hood","Rodney-Hood-18629","3500","SG/SF","23.64","226.5","30.1","104.50","13.61","20.00","27.04","4.47","15.63","0","0"
"Jonathan Isaac","Jonathan-Isaac-37841","5400","SF/PF","31.25","215.5","27.1","105.10","17.71","29.00","41.13","6.9","24.11","0","0"
"Dario Saric","Dario-Saric-36004","4100","PF","33.33","215.5","22.8","100.67","12.23","22.00","32.75","4.56","19.4","0","0"
"Daniel Theis","Daniel-Theis-37784","3700","PF/C","32.87","227","13.5","101.75","11.08","16.00","30.3","4.12","15.95","0","0"
"Isaiah Briscoe","Isaiah-Briscoe-37868","3100","PG/SG","19.25","215.5","19.4","105.10","12.74","18.00","18.56","10.02","13.26","0","0"
"Meyers Leonard","Meyers-Leonard-13905","3500","PF/C","24.96","226.5","19.4","104.50","14.47","15.00","29.83","3.51","14.92","0","0"
"DeAndre Bembry","DeAndre-Bembry-35198","4000","SG/SF","25.50","232.5","22.5","105.10","15.39","21.00","28.51","4.46","17.03","0","0"
"Alex Len","Alex-Len-16886","3900","C","29.49","232.5","15.5","105.10","25.12","16.00","28.43","6.61","16.32","0","0"
"Bryn Forbes","Bryn-Forbes-36052","4600","PG/SG","37.09","226.5","29.2","99.70","17.78","28.00","38.34","6.71","19.18","0","0"
"Khem Birch","Khem-Birch-37838","3200","PF/C","30.85","215.5","14.9","105.10","12.96","14.00","21.12","4.71","12.8","0","0"
"Maurice Harkless","Maurice-Harkless-16971","3800","SF/PF","26.43","226.5","23.6","104.50","12.77","22.00","30.34","5.59","15.18","0","0"
"Patrick McCaw","Patrick-McCaw-35222","3200","SG/SF","21.28","232.5","5.6","105.50","10.89","18.00","25.39","3.17","12.7","0","0"
"Nerlens Noel","Nerlens-Noel-18575","3600","C","29.87","215","18.1","102.62","12.17","14.00","28.35","2.29","14.23","0","0"
"Tyson Chandler","Tyson-Chandler-1482","3400","C","34.67","227","9.1","112.50","7.46","15.00","26.21","2.35","13.11","0","0"
"Omari Spellman","Omari-Spellman-408970","3500","PF/C","30.21","232.5","17.6","105.10","15.30","17.00","18.26","9.86","13.04","0","0"
"Gorgui Dieng","Gorgui-Dieng-16939","3500","PF/C","34.79","215.5","14.7","100.67","18.48","12.00","23.05","3.23","12.94","0","0"
"Aaron Holiday","Aaron-Holiday-408932","3400","PG/SG","17.47","220.5","17.6","107.67","21.44","14.00","17.56","9.48","12.54","0","0"
"Kent Bazemore","Kent-Bazemore-13987","4600","SG/SF","28.33","232.5","17.0","105.10","23.34","18.00","28.84","6.17","16.77","0","0"
"Isaiah Canaan","Isaiah-Canaan-16875","3000","PG","42.12","215.5","10.3","100.67","18.35","14.00","20.15","3.59","10.44","0","0"
"Kentavious Caldwell-Pope","Kentavious-Caldwell-Pope-16869","4000","SG/SF","19.25","227","25.2","112.50","18.11","20.00","27.53","4.24","13.77","0","0"
"Jakob Poeltl","Jakob-Poeltl-35187","3200","C","30.30","226.5","10.8","99.70","15.64","11.00","21.71","2.26","10.86","0","0"
"Abdel Nader","Abdel-Nader-35179","3200","SF","22.52","215","15.0","102.62","16.19","14.00","21.23","2.46","10.62","0","0"
"Anthony Tolliver","Anthony-Tolliver-1263","3200","SF/PF","33.33","215.5","13.8","100.67","9.38","13.00","19.24","3.04","10.63","0","0"
"Terry Rozier","Terry-Rozier-18894","6000","PG/SG","35.59","227","25.8","101.75","19.17","20.00","34.69","6.12","19.61","0","0"
"Wes Iwundu","Wes-Iwundu-37839","3300","SG/SF","23.59","215.5","17.7","105.10","14.30","17.00","20.85","2.72","10.43","0","0"
"Patrick Patterson","Patrick-Patterson-1260","3300","PF/C","27.08","215","15.2","102.62","9.22","15.00","20.18","2.2","10.2","0","0"
"Jake Layman","Jake-Layman-35216","3900","SF/PF","26.43","226.5","29.6","104.50","19.69","15.00","21.95","3.46","11.55","0","0"
"Seth Curry","Seth-Curry-16825","4000","PG/SG","21.14","226.5","24.8","104.50","18.06","16.00","22.95","2.73","11.48","0","0"
"Edmond Sumner","Edmond-Sumner-37818","3600","SG/SF","17.47","220.5","17.0","107.67","16.72","13.00","13.52","7.3","9.66","0","0"
"Tyrone Wallace","Tyrone-Wallace-35220","3200","PG/SF","27.24","220.5","4.2","108.38","12.73","10.00","15.88","2.39","8.06","0","0"
"Pau Gasol","Pau-Gasol-1502","3200","C","28.94","226.5","9.6","99.70","21.49","6.00","12.72","2.77","7.13","0","0"
"Dante Cunningham","Dante-Cunningham-1259","3000","SF/PF","38.09","226.5","12.7","99.70","8.28","9.00","11.97","1.36","5.99","0","0"
"TJ Leaf","TJ-Leaf-37817","3100","SF/PF","34.93","220.5","10.6","107.67","18.08","6.00","9.14","0.86","4.57","0","0"
"Jeff Teague","Jeff-Teague-1005","5400","PG","42.12","215.5","0","100.67","0","8.00","10.05","6.8","7.73","0","0"
"Quincy Pondexter","Quincy-Pondexter-1237","3000","SF","19.83","226.5","6.7","99.70","14.18","6.00","6.44","0.79","3.41","0","0"
"Jordan Loyd","Jordan-Loyd-554990","3000","PG/SG","42.67","232.5","4.4","105.50","49.45","5.00","4.49","2.54","3.21","0","0"
"Semi Ojeleye","Semi-Ojeleye-37786","3000","SF/PF","25.90","227","7.8","101.75","9.66","3.00","4.08","0.57","2.04","0","0"
