"nameCol","idCol","salaryCol","positionCol","dvpCol","ouCol","mpgCol","paceCol","usgCol","pminCol","ceilCol","floorCol","pointsCol","predictCol","actualCol"
"Luka Doncic","Luka-Doncic-408971","8300","PG/SF","48.64","209.5","31.6","100.08","33.17","34.00","71.39","35.44","50.99","0","0"
"Dwight Powell","Dwight-Powell-18566","4400","PF/C","52.06","209.5","15.7","100.08","15.50","28.00","52.81","8.38","26.42","0","0"
"Maxi Kleber","Maxi-Kleber-37845","4100","PF/C","48.85","209.5","19.2","100.08","9.96","26.00","47.8","4.59","23.91","0","0"
"Tyler Johnson","Tyler-Johnson-18720","4300","PG/SG","47.61","204","28.2","106.90","19.01","30.00","49.26","7.05","24.64","0","0"
"Rodney Hood","Rodney-Hood-18629","4100","SG/SF","48.13","209.5","27.9","103.60","15.67","30.00","36.49","9.12","22.79","0","0"
"Salah Mejri","Salah-Mejri-31791","3300","C","50.08","209.5","8.2","100.08","12.82","16.00","36.54","6.22","18.28","0","0"
"Hassan Whiteside","Hassan-Whiteside-18664","6600","C","50.75","204","22.7","106.90","21.02","26.00","50.55","15.82","36.11","0","0"
"Dorian Finney-Smith","Dorian-Finney-Smith-36032","3700","SF/PF","39.36","209.5","26.0","100.08","13.05","28.00","36.95","10.05","19.75","0","0"
"Bam Adebayo","Bam-Adebayo-37835","4200","PF/C","50.75","204","24.0","106.90","15.38","23.00","37.65","6.32","22.4","0","0"
"Harrison Barnes","Harrison-Barnes-13901","5800","SF/PF","48.85","209.5","33.1","100.08","23.09","34.00","48.51","11.93","30.51","0","0"
"Alec Burks","Alec-Burks-13353","5200","PG/SG","48.13","209.5","27.0","103.60","18.69","32.00","46.13","10.98","27.17","0","0"
"Collin Sexton","Collin-Sexton-408896","4300","PG","55.40","209.5","29.4","103.60","23.84","30.00","31.23","12.96","22.31","0","0"
"Domantas Sabonis","Domantas-Sabonis-35217","5600","PF/C","48.59","204","22.5","107.67","21.15","26.00","53.3","4.17","28.38","0","0"
"Matthew Dellavedova","Matthew-Dellavedova-16839","3500","PG/SG","41.92","209.5","18.5","103.60","18.49","20.00","35.3","4.2","17.66","0","0"
"James Johnson","James-Johnson-1195","3900","PF/C","47.01","204","23.0","106.90","16.68","23.00","28.54","9.37","19.6","0","0"
"Jordan Clarkson","Jordan-Clarkson-18631","5100","PG/SG","48.13","209.5","24.0","103.60","27.28","26.00","51.25","8.92","25.64","0","0"
"Ryan Broekhoff","Ryan-Broekhoff-555205","3000","SG/SF","37.88","209.5","10.2","100.08","9.11","17.00","20.9","11.82","14.93","0","0"
"Bojan Bogdanovic","Bojan-Bogdanovic-18571","5400","SG/SF","36.61","204","31.5","107.67","20.95","34.00","44.0","8.68","26.78","0","0"
"Kelly Olynyk","Kelly-Olynyk-16845","3800","PF/C","53.90","204","15.9","106.90","15.78","22.00","29.44","8.11","18.81","0","0"
"Josh Richardson","Josh-Richardson-18922","6200","SG/SF","47.54","204","34.4","106.90","19.38","34.00","48.6","12.8","30.7","0","0"
"Tyreke Evans","Tyreke-Evans-1070","4800","SG/SF","44.74","204","22.8","107.67","22.33","24.00","43.45","12.06","23.69","0","0"
"Cory Joseph","Cory-Joseph-13339","4000","PG/SG","39.12","204","26.5","107.67","14.89","27.00","31.69","8.33","19.29","0","0"
"Dwyane Wade","Dwyane-Wade-967","5000","PG/SG","47.54","204","25.3","106.90","27.95","24.00","38.63","7.23","23.95","0","0"
"Darren Collison","Darren-Collison-1060","6300","PG","39.12","204","28.5","107.67","22.16","32.00","49.19","13.66","30.16","0","0"
"Myles Turner","Myles-Turner-18915","6500","C","54.79","204","29.8","107.67","18.81","29.00","59.8","9.37","30.62","0","0"
"Devin Harris","Devin-Harris-1076","3800","PG/SG","55.62","209.5","15.6","100.08","20.72","20.00","35.66","4.46","17.84","0","0"
"Larry Nance","Larry-Nance-18946","5700","PF/C","54.02","209.5","21.0","103.60","15.82","25.00","53.39","3.34","26.71","0","0"
"Cedi Osman","Cedi-Osman-18912","5800","SF/PF","36.11","209.5","34.9","103.60","21.72","35.00","45.03","13.26","27.11","0","0"
"Justise Winslow","Justise-Winslow-18921","6100","PG/SF","47.61","204","31.5","106.90","20.19","32.00","46.57","13.62","27.92","0","0"
"Dirk Nowitzki","Dirk-Nowitzki-1346","3000","PF/C","52.06","209.5","10.8","100.08","21.30","12.00","22.16","2.3","13.47","0","0"
"Jalen Brunson","Jalen-Brunson-409062","4200","PG/SG","44.31","209.5","17.3","100.08","21.32","23.00","26.26","13.04","18.76","0","0"
"Thaddeus Young","Thaddeus-Young-1289","5700","SF/PF","49.43","204","28.0","107.67","18.76","31.00","36.51","10.97","23.91","0","0"
"Ante Zizic","Ante-Zizic-35180","6000","C","49.96","209.5","29.7","103.60","18.81","27.00","41.34","10.52","24.86","0","0"
"Dion Waiters","Dion-Waiters-13897","4000","SG/SF","47.54","204","23.1","106.90","21.40","20.00","32.4","5.4","16.21","0","0"
"Aaron Holiday","Aaron-Holiday-408932","3800","PG/SG","39.12","204","12.9","107.67","21.96","16.00","17.29","9.78","12.35","0","0"
"David Nwaba","David-Nwaba-36526","3000","SG/SF","36.11","209.5","0","103.60","0","15.00","11.54","7.99","8.88","0","0"
"Edmond Sumner","Edmond-Sumner-37818","3900","SG/SF","39.12","204","20.2","107.67","16.58","13.00","12.36","6.99","8.83","0","0"
"TJ Leaf","TJ-Leaf-37817","3100","SF/PF","54.79","204","9.9","107.67","16.63","8.00","12.15","1.62","6.08","0","0"
"Wayne Ellington","Wayne-Ellington-1009","3700","SG/SF","36.82","204","22.7","106.90","17.45","6.00","9.48","1.66","5.44","0","0"
