"nameCol","idCol","salaryCol","positionCol","dvpCol","ouCol","mpgCol","paceCol","usgCol","pminCol","ceilCol","floorCol","pointsCol","predictCol","actualCol"
"Draymond Green","Draymond-Green-13976","6300","PF/C","52.81","227.5","30.4","103.10","13.59","34.00","51.95","19.8","34.98","0","0"
"Nikola Jokic","Nikola-Jokic-31812","10300","C","48.73","227.5","32.8","99.62","34.67","34.00","78.48","23.21","56.06","0","0"
"Brook Lopez","Brook-Lopez-1498","4700","C","54.05","217.5","27.9","98.80","14.53","29.00","42.66","16.4","25.38","0","0"
"Paul Millsap","Paul-Millsap-1335","6000","PF/C","47.95","227.5","25.4","99.62","20.96","30.00","51.49","20.44","32.34","0","0"
"Khris Middleton","Khris-Middleton-13990","6800","SG/SF","45.05","217.5","30.3","98.80","25.35","34.00","51.42","22.87","35.41","0","0"
"Klay Thompson","Klay-Thompson-13315","6600","SG","37.13","227.5","34.6","103.10","25.50","35.00","53.95","20.0","34.19","0","0"
"Kevin Durant","Kevin-Durant-1348","9700","SF/PF","47.75","227.5","35.2","103.10","28.25","35.00","74","24.05","50","0","0"
"Jonas Jerebko","Jonas-Jerebko-1106","3400","PF/C","47.75","227.5","14.6","103.10","15.32","19.00","34.25","17.27","17.27","0","0"
"Jamal Murray","Jamal-Murray-35211","7200","PG/SG","50.49","227.5","32.2","99.62","27.51","34.00","54.08","23.5","36.37","0","0"
"Dwyane Wade","Dwyane-Wade-967","4900","PG/SG","48.02","217.5","24.2","106.90","24.19","24.00","38.99","17.07","24.63","0","0"
"Eric Bledsoe","Eric-Bledsoe-1031","6400","PG/SG","49.51","217.5","27.4","98.80","27.22","30.00","60.51","19.74","32.1","0","0"
"Hassan Whiteside","Hassan-Whiteside-18664","6600","C","48.11","217.5","23.2","106.90","19.29","26.00","46.36","17.56","32.76","0","0"
"Josh Richardson","Josh-Richardson-18922","6300","SG/SF","48.02","217.5","33.0","106.90","20.93","34.00","48.86","19.57","31.22","0","0"
"Giannis Antetokounmpo","Giannis-Antetokounmpo-16852","11200","SF/PF","48.37","217.5","30.8","98.80","34.90","34.00","76.75","21.98","54.82","0","0"
"Justise Winslow","Justise-Winslow-18921","6500","PG/SF","39.13","217.5","29.2","106.90","23.04","32.00","48.71","18.09","31.63","0","0"
"Stephen Curry","Stephen-Curry-1079","9900","PG/SG","49.44","227.5","34.4","103.10","35.75","35.00","79.26","31.02","48.24","0","0"
"George Hill","George-Hill-993","3500","PG/SG","40.25","217.5","21.1","98.80","13.66","22.00","30.45","13.37","16.63","0","0"
"Malcolm Brogdon","Malcolm-Brogdon-35195","5700","PG/SG","49.51","217.5","28.6","98.80","21.66","30.00","45.22","19.4","26.68","0","0"
"Kelly Olynyk","Kelly-Olynyk-16845","3800","PF/C","57.92","217.5","19.0","106.90","16.63","18.00","26.23","10.01","17.59","0","0"
"Gary Harris","Gary-Harris-18617","5400","SG","43.77","227.5","25.5","99.62","20.44","28.00","35.94","15.69","24.87","0","0"
"Ersan Ilyasova","Ersan-Ilyasova-1301","3400","PF/C","48.37","217.5","16.8","98.80","18.48","18.00","28.26","13.4","15.62","0","0"
"Andre Iguodala","Andre-Iguodala-1334","3900","SG/SF","37.13","227.5","25.8","103.10","11.18","24.00","28.35","9.66","17.72","0","0"
"Kevon Looney","Kevon-Looney-18945","4100","PF/C","52.67","227.5","21.6","103.10","12.12","24.00","29.41","11.04","17.63","0","0"
"Bam Adebayo","Bam-Adebayo-37835","5200","PF/C","48.11","217.5","25.8","106.90","15.76","22.00","35.45","17.26","21.55","0","0"
"Malik Beasley","Malik-Beasley-35213","4800","PG/SG","36.00","227.5","30.8","99.62","15.20","26.00","39.24","18.75","19.63","0","0"
"Will Barton","Will-Barton-13982","5000","SG/SF","43.77","227.5","14.5","99.62","28.62","20.00","29.89","10.38","19.73","0","0"
"James Johnson","James-Johnson-1195","3900","PF/C","45.83","217.5","18.2","106.90","22.85","18.00","22.36","8.37","15.05","0","0"
"Tyler Johnson","Tyler-Johnson-18720","4000","PG/SG","48.06","217.5","21.2","106.90","21.64","18.00","27.7","11.52","14.49","0","0"
"Shaun Livingston","Shaun-Livingston-14007","3100","PG","38.64","227.5","10.5","103.10","10.13","15.00","21.03","8.79","11.14","0","0"
"Mason Plumlee","Mason-Plumlee-16798","4400","PF/C","54.22","227.5","19.0","99.62","16.92","16.00","27.62","11.83","15.55","0","0"
"D.J. Wilson","D.J.-Wilson-37822","3600","PF/C","48.37","217.5","16.6","98.80","10.64","14.00","25.19","12.6","12.6","0","0"
"Monte Morris","Monte-Morris-37860","3900","PG","50.49","227.5","21.8","99.62","19.34","16.00","19.07","3.53","13.62","0","0"
"Torrey Craig","Torrey-Craig-37861","4200","SG/SF","36.00","227.5","27.6","99.62","12.39","23.00","28.29","11.83","14.6","0","0"
"Dion Waiters","Dion-Waiters-13897","3700","SG/SF","48.02","217.5","15.8","106.90","25.43","15.00","23.32","10.37","12.53","0","0"
"Rodney McGruder","Rodney-McGruder-16850","3200","SG/SF","35.57","217.5","17.3","106.90","14.98","15.00","18.21","6.59","10.86","0","0"
"Derrick Jones","Derrick-Jones-36064","4300","SF/PF","35.57","217.5","24.8","106.90","16.11","18.00","27.16","11.08","13.94","0","0"
"Sterling Brown","Sterling-Brown-37821","3300","SG/SF","37.08","217.5","17.3","98.80","15.71","14.00","20.45","10.23","10.23","0","0"
"Juan Hernangomez","Juan-Hernangomez-35212","3400","SF/PF","47.95","227.5","16.0","99.62","9.22","13.00","18.0","8.13","9.61","0","0"
"Tony Snell","Tony-Snell-16872","3000","SG/SF","37.65","217.5","16.1","98.80","14.31","15.00","16.25","8.13","8.13","0","0"
"Alfonzo McKinnie","Alfonzo-McKinnie-37808","3300","SF/PF","32.88","227.5","12.8","103.10","14.29","12.00","14.51","7.26","7.26","0","0"
"Jordan Bell","Jordan-Bell-37877","3200","PF/C","52.67","227.5","8.0","103.10","18.09","7.00","12.08","5.5","6.1","0","0"
