"nameCol","idCol","salaryCol","positionCol","dvpCol","ouCol","mpgCol","paceCol","usgCol","pminCol","ceilCol","floorCol","pointsCol","predictCol","actualCol"
"Corey Brewer","Corey-Brewer-1278","3800","SG/SF","32.97","227","22.3","108.33","16.36","31.00","48.54","8.09","24.28","0","0"
"Paul Millsap","Paul-Millsap-1335","5000","PF/C","48.17","227","23.6","99.62","19.23","30.00","49.63","12.05","30.43","0","0"
"Monte Morris","Monte-Morris-37860","3600","PG","51.63","227","21.9","99.62","16.34","28.00","29.99","16.19","21.42","0","0"
"Jonah Bolden","Jonah-Bolden-554969","4100","PF","48.65","227","12.8","108.33","15.23","26.00","33.63","19.02","24.02","0","0"
"J.J. Redick","J.J.-Redick-1030","5600","SG/SF","32.97","227","31.3","108.33","20.87","32.00","53.5","13.49","31.73","0","0"
"Seth Curry","Seth-Curry-16825","3300","PG/SG","41.47","226","17.7","104.50","14.50","26.00","36.76","4.91","18.39","0","0"
"Al-Farouq Aminu","Al-Farouq-Aminu-1279","4500","SF/PF","42.68","226","27.1","104.50","14.92","31.00","36.43","7.01","24.78","0","0"
"T.J. McConnell","T.J.-McConnell-18956","4000","PG/SG","38.69","227","20.7","108.33","19.14","24.00","41.17","4.56","22.05","0","0"
"Mike Muscala","Mike-Muscala-17379","4200","PF/C","51.50","227","18.2","108.33","11.48","28.00","43.8","4.61","23.05","0","0"
"C.J. McCollum","C.J.-McCollum-17121","6600","PG/SG","52.15","226","32.7","104.50","23.39","35.00","59.5","19.75","36.04","0","0"
"Landry Shamet","Landry-Shamet-408841","3500","PG/SG","32.97","227","17.7","108.33","20.28","24.00","25.94","14.68","18.53","0","0"
"Evan Turner","Evan-Turner-1291","4300","SG/SF","52.15","226","23.6","104.50","16.61","26.00","35.53","6.46","22.29","0","0"
"Ben Simmons","Ben-Simmons-35184","9600","PG/SF","38.69","227","32.3","108.33","25.44","35.00","70.18","29.68","49.63","0","0"
"Taurean Prince","Taurean-Prince-35218","5000","SF","36.23","226","20.0","105.10","20.61","28.00","45.63","6.58","25.69","0","0"
"Gary Harris","Gary-Harris-18617","4800","SG","48.04","227","20.5","99.62","22.58","28.00","34.4","8.75","24.57","0","0"
"Wade Baldwin","Wade-Baldwin-35204","3000","PG/SG","56.70","226","6.0","104.50","6.67","19.00","30.1","3.77","15.06","0","0"
"Maurice Harkless","Maurice-Harkless-16971","3800","SF/PF","42.68","226","19.2","104.50","11.81","23.00","37.48","6.9","18.75","0","0"
"Will Barton","Will-Barton-13982","6500","SG/SF","48.04","227","21.3","99.62","24.51","33.00","51.1","16.73","31.98","0","0"
"Jusuf Nurkic","Jusuf-Nurkic-18619","8600","C","54.27","226","28.1","104.50","26.57","29.00","64.69","18.96","41.31","0","0"
"Trae Young","Trae-Young-409063","6400","PG","48.62","226","31.8","105.10","31.33","32.00","42.7","24.67","30.5","0","0"
"Dewayne Dedmon","Dewayne-Dedmon-16894","5100","PF/C","50.57","226","24.7","105.10","20.10","26.00","38.61","10.16","24.07","0","0"
"Nikola Jokic","Nikola-Jokic-31812","10700","C","52.97","227","30.2","99.62","32.29","34.00","70.41","29.69","50.15","0","0"
"Mason Plumlee","Mason-Plumlee-16798","3900","PF/C","52.13","227","17.4","99.62","18.46","18.00","36.5","5.22","18.26","0","0"
"Malik Beasley","Malik-Beasley-35213","3700","PG/SG","35.18","227","28.7","99.62","14.45","24.00","34.5","4.94","17.26","0","0"
"Kevin Huerter","Kevin-Huerter-408969","5100","SG/SF","37.77","226","36.0","105.10","19.03","34.00","32.44","18.74","23.17","0","0"
"Jeremy Lin","Jeremy-Lin-916","4200","PG/SG","48.62","226","24.0","105.10","24.07","22.00","36.08","5.45","19.04","0","0"
"Zach Collins","Zach-Collins-37866","3400","PF/C","56.28","226","16.7","104.50","15.70","17.00","27.12","4.69","15.34","0","0"
"Amir Johnson","Amir-Johnson-1285","3600","PF/C","52.69","227","9.0","108.33","20.93","16.00","32.44","4.35","16.23","0","0"
"DeAndre Bembry","DeAndre-Bembry-35198","4700","SG/SF","36.23","226","31.2","105.10","17.93","26.00","35.06","9.67","21.02","0","0"
"Torrey Craig","Torrey-Craig-37861","3900","SG/SF","35.18","227","25.6","99.62","10.88","28.00","33.64","3.64","16.83","0","0"
"John Collins","John-Collins-37823","8000","PF/C","50.57","226","29.8","105.10","23.38","33.00","63.24","13.68","34.37","0","0"
"Omari Spellman","Omari-Spellman-408970","3400","PF/C","50.53","226","20.0","105.10","13.58","17.00","18.79","10.45","13.42","0","0"
"Alex Len","Alex-Len-16886","4500","C","50.57","226","20.2","105.10","25.26","18.00","32.76","7.18","17.26","0","0"
"Trey Lyles","Trey-Lyles-18942","3700","SF/PF","48.17","227","18.0","99.62","25.80","15.00","27.56","3.92","14.11","0","0"
"Meyers Leonard","Meyers-Leonard-13905","3300","PF/C","56.28","226","16.2","104.50","13.64","12.00","24.91","2.99","12.46","0","0"
"Jake Layman","Jake-Layman-35216","3500","SF/PF","42.68","226","22.6","104.50","19.91","18.00","25.37","3.21","12.82","0","0"
"Furkan Korkmaz","Furkan-Korkmaz-35185","3300","SG/SF","32.97","227","7.5","108.33","14.49","16.00","20.09","2.56","10.05","0","0"
"Shake Milton","Shake-Milton-409061","3000","PG/SG","49.67","227","0","108.33","0","8.00","7.28","7.28","7.28","0","0"
"Vince Carter","Vince-Carter-1066","3100","SG","37.77","226","10.2","105.10","20.15","4.00","5.82","0.73","2.91","0","0"
"Nik Stauskas","Nik-Stauskas-18636","3000","SG/SF","41.47","226","9.7","104.50","19.77","4.00","5.13","1.11","2.77","0","0"
"Juancho Hernangomez","Juancho-Hernangomez-35212","3300","SF/PF","48.17","227","14.3","99.62","10.79","2.00","3.24","0.32","1.62","0","0"
