"nameCol","idCol","salaryCol","positionCol","dvpCol","ouCol","mpgCol","paceCol","usgCol","pminCol","ceilCol","floorCol","pointsCol","predictCol","actualCol"
"Ante Zizic","Ante-Zizic-35180","3700","C","52.06","215.5","18.4","103.60","15.95","28.00","48.18","2.41","24.1","0","0"
"Kelly Olynyk","Kelly-Olynyk-16845","3700","PF/C","51.58","206","16.7","106.90","20.47","22.00","34.67","10.02","22.56","0","0"
"Jonathan Isaac","Jonathan-Isaac-37841","3700","SF/PF","57.70","216.5","26.6","105.10","12.94","28.00","37.75","6.33","22.13","0","0"
"Joe Ingles","Joe-Ingles-18627","5800","SG/SF","38.10","215.5","30.5","98.88","20.57","33.00","54.81","14.17","34.3","0","0"
"Hassan Whiteside","Hassan-Whiteside-18664","6500","C","52.44","206","23.8","106.90","20.33","27.00","53.27","17.46","38.05","0","0"
"C.J. McCollum","C.J.-McCollum-17121","6300","PG/SG","49.14","233.5","32.8","104.50","23.73","35.00","58.84","19.21","36.73","0","0"
"Andre Drummond","Andre-Drummond-13904","8400","C","49.34","206","35.7","100.30","20.21","34.00","65.97","24.83","47.12","0","0"
"Damian Lillard","Damian-Lillard-13900","8600","PG","51.72","233.5","33.8","104.50","31.16","35.00","79.57","25.42","48.05","0","0"
"Royce O'Neale","Royce-O'Neale-37872","4300","SF","39.08","215.5","22.9","98.88","9.94","34.00","37.68","9.38","24","0","0"
"Nikola Vucevic","Nikola-Vucevic-13296","9400","C","57.70","216.5","30.7","105.10","28.33","34.00","82.76","21.6","52.18","0","0"
"DeMar DeRozan","DeMar-DeRozan-1053","7800","SG/SF","48.60","227","37.1","99.70","25.94","35.00","76.94","21.71","42.16","0","0"
"Mike Conley","Mike-Conley-1062","7000","PG","38.70","207","30.9","103.30","26.98","34.00","67.02","14.24","37.76","0","0"
"Danilo Gallinari","Danilo-Gallinari-1329","6700","SF/PF","48.31","242","33.4","108.38","22.74","34.00","66.08","13.56","36.07","0","0"
"Aaron Gordon","Aaron-Gordon-18601","6400","SF/PF","47.93","216.5","35.1","105.10","21.84","35.00","58.82","13.84","34.26","0","0"
"Andrew Wiggins","Andrew-Wiggins-18620","6000","SG/SF","47.94","227","34.8","100.67","29.32","36.00","50.61","13.23","32.11","0","0"
"Ish Smith","Ish-Smith-13958","3600","PG","40.39","206","20.0","100.30","21.29","23.00","35.81","5.75","19.17","0","0"
"Marc Gasol","Marc-Gasol-1493","6800","C","49.82","207","29.3","103.30","23.36","33.00","58.59","18.93","35.99","0","0"
"Karl-Anthony Towns","Karl-Anthony-Towns-18937","9700","C","50.16","227","30.8","100.67","29.08","36.00","80.42","27.04","51.22","0","0"
"Marcus Smart","Marcus-Smart-18567","4400","PG/SG","48.38","207","29.7","101.75","13.59","30.00","38.52","9.96","23.22","0","0"
"Jusuf Nurkic","Jusuf-Nurkic-18619","8200","C","51.27","233.5","26.4","104.50","23.42","30.00","65.51","19.2","43.24","0","0"
"Tobias Harris","Tobias-Harris-13332","7100","SF/PF","48.31","242","33.9","108.38","21.54","34.00","58.93","16.75","37.06","0","0"
"Reggie Jackson","Reggie-Jackson-13352","5000","PG/SG","49.88","206","28.9","100.30","21.01","29.00","39.62","14.31","26.12","0","0"
"Montrezl Harrell","Montrezl-Harrell-18930","7200","PF/C","51.02","242","26.6","108.38","24.88","30.00","64.04","4.43","37.58","0","0"
"Blake Griffin","Blake-Griffin-1503","8700","PF/C","53.79","206","38.0","100.30","28.51","36.00","81.97","26.45","45.44","0","0"
"Jeff Teague","Jeff-Teague-1005","5900","PG","52.98","227","26.2","100.67","23.61","30.00","51.63","15.93","30.75","0","0"
"Anthony Davis","Anthony-Davis-13895","11700","PF/C","52.47","233.5","35.5","104.88","33.63","38.00","84.62","28.35","60.44","0","0"
"Bam Adebayo","Bam-Adebayo-37835","4700","PF/C","52.44","206","25.7","106.90","15.84","24.00","40.59","6.22","24.29","0","0"
"Nikola Mirotic","Nikola-Mirotic-18584","5900","PF/C","50.81","233.5","23.0","104.88","19.34","30.00","54.79","10.12","30.39","0","0"
"LaMarcus Aldridge","LaMarcus-Aldridge-1349","7600","PF/C","54.02","227","32.1","99.70","26.66","34.00","57.47","20.66","38.99","0","0"
"Klay Thompson","Klay-Thompson-13315","6600","SG","35.49","242","31.5","103.10","27.45","35.00","60.38","15.91","33.77","0","0"
"Dwyane Wade","Dwyane-Wade-967","4800","PG/SG","44.01","206","23.8","106.90","23.35","24.00","38.23","7.41","24.52","0","0"
"Tyler Johnson","Tyler-Johnson-18720","3900","PG/SG","53.70","206","20.8","106.90","19.82","24.00","39.84","5.44","19.93","0","0"
"Rodions Kurucs","Rodions-Kurucs-408801","4300","SF/PF","48.70","216.5","24.7","114.62","18.56","26.00","30.69","15.23","21.92","0","0"
"Evan Fournier","Evan-Fournier-13913","5500","SG/SF","29.82","216.5","33.3","105.10","18.94","35.00","43.21","12.22","28.02","0","0"
"Darius Miller","Darius-Miller-13951","3400","SF/PF","36.55","233.5","27.8","104.88","11.16","30.00","34.58","4.58","17.3","0","0"
"D'Angelo Russell","D'Angelo-Russell-18947","7300","PG/SG","51.32","216.5","29.6","114.62","31.07","30.00","57.05","16.34","36.88","0","0"
"E'Twaun Moore","E'Twaun-Moore-18582","4000","SG/SF","38.64","233.5","30.0","104.88","12.72","31.00","34.07","6.15","20.11","0","0"
"Rudy Gobert","Rudy-Gobert-16935","8800","C","49.61","215.5","33.6","98.88","16.06","35.00","71.34","23.6","44.2","0","0"
"Derrick White","Derrick-White-37858","5600","PG/SG","38.43","227","30.6","99.70","18.13","31.00","50.32","8.93","28.08","0","0"
"Cedi Osman","Cedi-Osman-18912","4400","SF/PF","30.35","215.5","30.1","103.60","18.47","33.00","33.44","10.65","22","0","0"
"Reggie Bullock","Reggie-Bullock-16943","4400","SG/SF","37.69","206","33.7","100.30","17.16","35.00","41.2","10.97","21.94","0","0"
"Derrick Favors","Derrick-Favors-1266","5300","PF/C","51.54","215.5","24.6","98.88","18.42","25.00","44.29","11.64","26.46","0","0"
"Jordan Clarkson","Jordan-Clarkson-18631","5300","PG/SG","40.85","215.5","26.4","103.60","27.49","28.00","52.24","8.97","26.37","0","0"
"Al-Farouq Aminu","Al-Farouq-Aminu-1279","5300","SF/PF","41.48","233.5","29.5","104.50","14.61","32.00","38.68","7.45","26.31","0","0"
"Julius Randle","Julius-Randle-18632","7500","PF/C","52.47","233.5","29.8","104.88","25.46","30.00","66.08","16.25","37.1","0","0"
"Spencer Dinwiddie","Spencer-Dinwiddie-18588","5700","PG/SG","51.32","216.5","26.3","114.62","25.21","28.00","47.12","6.86","28.23","0","0"
"Jrue Holiday","Jrue-Holiday-1073","8000","PG/SG","47.52","233.5","35.5","104.88","24.02","36.00","63.65","18.98","39.63","0","0"
"Stephen Curry","Stephen-Curry-1079","10000","PG/SG","52.58","242","32.7","103.10","34.99","35.00","84.29","18.28","49.41","0","0"
"Draymond Green","Draymond-Green-13976","6900","PF/C","58.35","242","30.3","103.10","14.11","33.00","50.4","14.72","34.08","0","0"
"Jaren Jackson","Jaren-Jackson-409099","5600","PF/C","49.82","207","25.7","103.30","20.03","28.00","38.7","19.21","27.64","0","0"
"Al Horford","Al-Horford-1499","6000","PF/C","50.48","207","24.4","101.75","18.97","29.00","46.46","14.55","29.52","0","0"
"Kevin Durant","Kevin-Durant-1348","10100","SF/PF","51.40","242","33.5","103.10","28.78","35.00","75.38","26.47","49.66","0","0"
"D.J. Augustin","D.J.-Augustin-1064","4800","PG","40.04","216.5","27.3","105.10","18.04","30.00","42.22","9.5","23.52","0","0"
"Bryn Forbes","Bryn-Forbes-36052","4400","PG/SG","51.96","227","33.3","99.70","15.61","32.00","35.25","5.92","21.51","0","0"
"Alec Burks","Alec-Burks-13353","4800","PG/SG","40.85","215.5","28.7","103.60","17.30","28.00","38.1","9.54","23.39","0","0"
"Jarrett Allen","Jarrett-Allen-37794","6100","C","52.30","216.5","27.9","114.62","17.57","29.00","59.31","12.82","29.67","0","0"
"Meyers Leonard","Meyers-Leonard-13905","3400","PF/C","55.71","233.5","16.9","104.50","15.36","16.00","32.9","3.87","16.46","0","0"
"Mohamed Bamba","Mohamed-Bamba-409026","3500","C","61.47","216.5","13.7","105.10","15.26","16.00","30.25","6.59","16.9","0","0"
"Collin Sexton","Collin-Sexton-408896","4500","PG","48.88","215.5","29.0","103.60","23.34","30.00","30.37","17.55","21.69","0","0"
"Garrett Temple","Garrett-Temple-14077","3700","SG/SF","35.16","207","30.3","103.30","13.58","30.00","32.29","3.35","17.83","0","0"
"Jae Crowder","Jae-Crowder-13942","4700","SF/PF","39.08","215.5","27.6","98.88","20.16","28.00","45.3","4.92","22.66","0","0"
"Ed Davis","Ed-Davis-1265","3500","C","52.30","216.5","17.6","114.62","14.13","16.00","33.68","4.95","16.85","0","0"
"DeMarcus Cousins","DeMarcus-Cousins-1490","5500","PF/C","58.35","242","0","103.10","0","22.00","47.22","8.71","26.38","0","0"
"DeMarre Carroll","DeMarre-Carroll-1174","5100","SF/PF","33.94","216.5","27.3","114.62","21.67","28.00","48.8","5.52","24.41","0","0"
"Joe Harris","Joe-Harris-18587","4900","SG/SF","40.57","216.5","29.5","114.62","18.93","30.00","41.11","8.92","23.36","0","0"
"Kyrie Irving","Kyrie-Irving-13334","9000","PG","48.38","207","30.6","101.75","29.35","34.00","59.92","20.12","42.8","0","0"
"Avery Bradley","Avery-Bradley-941","3600","SG","41.89","242","24.9","108.38","14.29","30.00","33.46","5.33","17.08","0","0"
"Justin Holiday","Justin-Holiday-14559","3800","SG/SF","35.16","207","16.0","103.30","16.55","24.00","31.66","10.25","17.95","0","0"
"Marco Belinelli","Marco-Belinelli-1033","3800","SG/SF","39.62","227","22.5","99.70","20.64","22.00","29.42","5.17","17.7","0","0"
"Jayson Tatum","Jayson-Tatum-37782","6200","SF/PF","42.53","207","29.6","101.75","25.78","32.00","43.92","13.43","28.76","0","0"
"Rodney Hood","Rodney-Hood-18629","4300","SG/SF","40.85","215.5","22.8","103.60","24.96","26.00","31.4","8.44","19.95","0","0"
"Shai Gilgeous-Alexander","Shai-Gilgeous-Alexander-408990","3600","PG/SG","38.45","242","18.9","108.38","20.44","20.00","23.39","13.23","16.71","0","0"
"Justise Winslow","Justise-Winslow-18921","6800","PG/SF","53.70","206","29.3","106.90","23.72","32.00","54.47","15.13","31.45","0","0"
"Rudy Gay","Rudy-Gay-1341","5200","SF/PF","51.75","227","23.0","99.70","25.10","25.00","35.78","9.7","24.08","0","0"
"Gorgui Dieng","Gorgui-Dieng-16939","3200","PF/C","50.48","227","15.8","100.67","11.35","15.00","26.73","3.64","14.79","0","0"
"Patrick Beverley","Patrick-Beverley-14108","3900","PG/SG","38.45","242","25.6","108.38","10.08","25.00","30.76","7.01","17.98","0","0"
"Lou Williams","Lou-Williams-1044","6700","PG/SG","44.08","242","26.3","108.38","32.32","28.00","53.14","13.03","30.88","0","0"
"Jaylen Brown","Jaylen-Brown-35181","4300","SG/SF","35.76","207","24.0","101.75","22.30","24.00","39.54","4.49","19.78","0","0"
"Marcus Morris","Marcus-Morris-13316","5200","SF/PF","35.76","207","26.0","101.75","19.81","28.00","40.22","8.22","23.7","0","0"
"Donovan Mitchell","Donovan-Mitchell-37875","8900","PG/SG","57.22","215.5","35.6","98.88","32.17","36.00","66.74","16.94","40.62","0","0"
"Terry Rozier","Terry-Rozier-18894","4000","PG/SG","43.16","207","20.3","101.75","20.32","20.00","32.21","5.68","18.21","0","0"
"Derrick Rose","Derrick-Rose-1086","5900","PG/SG","52.98","227","24.0","100.67","29.78","28.00","53.61","6.71","26.82","0","0"
"Jakob Poeltl","Jakob-Poeltl-35187","3400","C","50.07","227","16.0","99.70","11.40","16.00","30.8","3.21","15.41","0","0"
"Derrick Jones","Derrick-Jones-36064","4200","SF/PF","37.67","206","22.2","106.90","16.36","24.00","37.84","5.83","18.93","0","0"
"Omri Casspi","Omri-Casspi-1270","3700","SF/PF","33.73","207","18.8","103.30","15.71","21.00","32.98","3.96","16.5","0","0"
"Dario Saric","Dario-Saric-36004","4200","PF","49.99","227","20.8","100.67","19.07","22.00","32.3","5.48","18.65","0","0"
"Kyle Korver","Kyle-Korver-1269","4300","SG/SF","38.10","215.5","23.0","98.88","19.69","25.00","38.12","5.02","19.07","0","0"
"Josh Okogie","Josh-Okogie-409174","4500","SG/SF","47.94","227","31.2","100.67","15.64","30.00","27.82","11.54","19.87","0","0"
"Andre Iguodala","Andre-Iguodala-1334","3900","SG/SF","35.49","242","23.2","103.10","13.95","24.00","29.24","8.32","17.05","0","0"
"Luke Kennard","Luke-Kennard-37814","3600","SG/SF","37.64","206","18.6","100.30","17.69","21.00","29.19","5.05","15.62","0","0"
"Zach Collins","Zach-Collins-37866","3300","PF/C","55.71","233.5","18.2","104.50","14.44","16.00","26.45","4.61","14.23","0","0"
"Davis Bertans","Davis-Bertans-36051","4100","SF/PF","54.02","227","24.4","99.70","10.96","23.00","35.16","4.63","17.59","0","0"
"Cameron Payne","Cameron-Payne-18941","3500","PG/SG","42.71","215.5","17.8","103.60","20.25","20.00","25.68","3.85","14.99","0","0"
"Seth Curry","Seth-Curry-16825","3300","PG/SG","36.67","233.5","19.0","104.50","17.19","18.00","28.05","3.34","14.03","0","0"
"Maurice Harkless","Maurice-Harkless-16971","4000","SF/PF","41.48","233.5","16.0","104.50","13.33","24.00","33.88","6.24","16.95","0","0"
"Gordon Hayward","Gordon-Hayward-1239","5400","SF/PF","42.53","207","24.3","101.75","21.80","25.00","45.76","6.73","22.89","0","0"
"Shelvin Mack","Shelvin-Mack-13354","3800","PG/SG","38.70","207","17.4","103.30","26.11","21.00","28.6","2.68","16.03","0","0"
"Aron Baynes","Aron-Baynes-14114","3500","C","47.99","207","14.0","101.75","19.03","15.00","29.43","2.94","14.72","0","0"
"Terrence Ross","Terrence-Ross-13902","5400","SG/SF","29.82","216.5","27.3","105.10","23.08","29.00","45.36","5.72","22.69","0","0"
"Elfrid Payton","Elfrid-Payton-18602","6400","PG","41.98","233.5","26.5","104.88","21.06","29.00","42.7","12.71","26.87","0","0"
"Taj Gibson","Taj-Gibson-1277","4600","PF/C","50.48","227","24.2","100.67","17.00","25.00","32.13","7.16","19.1","0","0"
"Rodney McGruder","Rodney-McGruder-16850","3300","SG/SF","37.67","206","16.8","106.90","16.09","18.00","25.47","5.98","13.55","0","0"
"Matthew Dellavedova","Matthew-Dellavedova-16839","3400","PG/SG","42.71","215.5","18.4","103.60","20.53","18.00","27.79","2.89","13.9","0","0"
"Grayson Allen","Grayson-Allen-409227","3300","PG/SG","38.10","215.5","15.7","98.88","21.25","16.00","18.69","10.09","13.35","0","0"
"Treveon Graham","Treveon-Graham-36023","3600","SF/PF","33.94","216.5","22.0","114.62","14.56","24.00","22.7","4.53","14.42","0","0"
"Dion Waiters","Dion-Waiters-13897","3500","SG/SF","44.01","206","16.0","106.90","22.83","16.00","27.32","4.47","13.93","0","0"
"Zaza Pachulia","Zaza-Pachulia-1455","3300","C","49.34","206","14.0","100.30","16.77","13.00","22.87","4.6","13.1","0","0"
"Isaiah Briscoe","Isaiah-Briscoe-37868","3400","PG/SG","40.04","216.5","13.9","105.10","17.28","18.00","18.79","10.15","13.42","0","0"
"JaMychal Green","JaMychal-Green-18729","5300","SF/PF","49.82","207","24.0","103.30","21.00","23.00","41.9","4.42","20.96","0","0"
"Jaron Blossomgame","Jaron-Blossomgame-570197","3300","SF/PF","30.35","215.5","11.5","103.60","13.33","21.00","18.16","10.1","12.97","0","0"
"Kevon Looney","Kevon-Looney-18945","4000","PF/C","59.61","242","23.2","103.10","11.80","18.00","26.44","5.92","15.7","0","0"
"Marcin Gortat","Marcin-Gortat-1479","3300","C","54.44","242","17.3","108.38","16.36","15.00","22.27","5.76","12.95","0","0"
"Patty Mills","Patty-Mills-13977","3900","PG/SG","38.43","227","24.1","99.70","20.59","22.00","30.32","4.22","15.17","0","0"
"Tyrone Wallace","Tyrone-Wallace-35220","3100","PG/SG","44.08","242","15.3","108.38","17.04","16.00","19.86","3.96","11.89","0","0"
"Rondae Hollis-Jefferson","Rondae-Hollis-Jefferson-18897","4200","PF/C","48.70","216.5","7.0","114.62","19.66","15.00","31.11","3.93","15.72","0","0"
"Evan Turner","Evan-Turner-1291","4300","SG/SF","49.14","233.5","23.8","104.50","18.20","21.00","26.38","4.81","16.02","0","0"
"Wayne Ellington","Wayne-Ellington-1009","3100","PG/SG","34.09","206","7.0","106.90","28.57","12.00","22.21","2.92","11.11","0","0"
"Jonas Jerebko","Jonas-Jerebko-1106","3300","PF/C","51.40","242","14.3","103.10","14.66","16.00","22.48","2.41","11.59","0","0"
"James Johnson","James-Johnson-1195","3800","PF/C","46.97","206","19.0","106.90","19.16","17.00","18.83","5.62","12.93","0","0"
"Anthony Tolliver","Anthony-Tolliver-1263","3200","SF/PF","49.99","227","17.3","100.67","11.40","14.00","19.24","4.05","10.63","0","0"
"Bruce Brown","Bruce-Brown-408913","3700","PG/SG","37.64","206","24.6","100.30","15.25","21.00","16.97","9.6","12.12","0","0"
"Joakim Noah","Joakim-Noah-1404","3400","C","51.60","207","10.1","103.30","20.51","13.00","21.85","3.77","10.93","0","0"
"Shaun Livingston","Shaun-Livingston-14007","3100","PG","44.45","242","10.2","103.10","15.65","15.00","19.83","2.56","9.92","0","0"
"Langston Galloway","Langston-Galloway-18717","3500","PG/SG","37.64","206","14.3","100.30","14.87","16.00","21.87","2.73","10.94","0","0"
"Stanley Johnson","Stanley-Johnson-18913","3400","SF/PF","37.69","206","14.0","100.30","19.61","12.00","17.98","2.06","9.29","0","0"
"Shabazz Napier","Shabazz-Napier-18598","4100","PG/SG","37.07","216.5","22.7","114.62","26.04","14.00","22.35","3.24","11.18","0","0"
"Jevon Carter","Jevon-Carter-409100","3500","PG/SG","38.70","207","16.2","103.30","18.39","13.00","12.56","7.1","8.97","0","0"
"Wes Iwundu","Wes-Iwundu-37839","3300","SG/SF","33.15","216.5","16.7","105.10","15.81","15.00","16.37","2.14","8.19","0","0"
"Georges Niang","Georges-Niang-35193","3000","SF/PF","48.90","215.5","7.3","98.88","16.35","8.00","14.15","1.35","7.08","0","0"
"Frank Jackson","Frank-Jackson-37855","3200","PG/SG","47.52","233.5","15.0","104.88","17.90","10.00","10.49","5.83","7.49","0","0"
"Mike Scott","Mike-Scott-13999","3000","SF/PF","48.31","242","7.0","108.38","17.11","8.00","12.83","0.85","6.42","0","0"
"Jake Layman","Jake-Layman-35216","3600","SF/PF","41.48","233.5","20.2","104.50","16.77","10.00","14.38","2.27","7.57","0","0"
"Channing Frye","Channing-Frye-1484","3100","PF/C","52.81","215.5","13.0","103.60","16.21","8.00","12.51","1.5","6.26","0","0"
"Jahlil Okafor","Jahlil-Okafor-18902","3100","C","50.48","233.5","11.5","104.88","18.71","6.00","10.37","1.25","5.19","0","0"
"Alfonzo McKinnie","Alfonzo-McKinnie-37808","3300","SF/PF","33.88","242","15.7","103.10","13.00","7.00","8.12","1.47","4.06","0","0"
"Luol Deng","Luol-Deng-1328","3000","SF/PF","38.21","227","9.0","100.67","25.36","4.00","5.62","0.94","2.81","0","0"
"Daniel Theis","Daniel-Theis-37784","3400","PF/C","47.99","207","17.5","101.75","15.12","3.00","5.38","0.73","2.83","0","0"
"Nik Stauskas","Nik-Stauskas-18636","3100","SG/SF","36.67","233.5","12.6","104.50","18.81","3.00","4.06","0.88","2.19","0","0"
