"nameCol","idCol","salaryCol","positionCol","dvpCol","ouCol","mpgCol","paceCol","usgCol","pminCol","ceilCol","floorCol","pointsCol","predictCol","actualCol"
"Dennis Schroder","Dennis-Schroder-18595","4700","PG/SG","0","226.5","27.9","102.62","23.83","29.00","52.18","23.51","31.47","0","0"
"Willy Hernangomez","Willy-Hernangomez-18901","4100","C","55.58","233.5","14.9","103.00","25.55","20.00","50.66","22.43","26.14","0","0"
"Kelly Oubre","Kelly-Oubre-18925","4400","SG/SF","35.87","218.5","22.6","108.80","21.75","30.00","47.98","20.71","27.8","0","0"
"Tyus Jones","Tyus-Jones-18938","3800","PG","49.78","236","27.6","100.67","18.15","26.00","42.71","21.44","23.9","0","0"
"Jonathon Simmons","Jonathon-Simmons-31808","3300","SG/SF","44.98","213.5","15.2","105.10","26.41","26.00","38.93","20.61","20.61","0","0"
"Jonathan Isaac","Jonathan-Isaac-37841","3600","SF/PF","50.50","213.5","0","105.10","0","26.00","36.21","16.06","22.12","0","0"
"Evan Fournier","Evan-Fournier-13913","4700","SG/SF","34.10","213.5","0","105.10","0","30.00","43.87","15.87","28.23","0","0"
"Gorgui Dieng","Gorgui-Dieng-16939","3100","PF/C","0","236","13.9","100.67","13.40","14.00","33.47","14.84","18.46","0","0"
"Bobby Portis","Bobby-Portis-18909","4500","PF/C","53.29","206.5","17.7","104.50","30.65","24.00","52.49","23.87","26.26","0","0"
"Michael Kidd-Gilchrist","Michael-Kidd-Gilchrist-13896","3200","SF/PF","38.15","233.5","0","103.00","0","21.00","32.15","12.38","18.68","0","0"
"Al Horford","Al-Horford-1499","5600","PF/C","49.50","213.5","22.9","101.75","20.17","30.00","50.02","16.88","32.65","0","0"
"Joe Ingles","Joe-Ingles-18627","6000","SG/SF","35.07","206.5","0","98.88","0","34.00","53.17","22.66","34.28","0","0"
"Dario Saric","Dario-Saric-36004","4600","PF","48.14","236","0","100.67","0","26.00","44.69","20.06","26.12","0","0"
"Royce O'Neale","Royce-O'Neale-37872","3900","SF","39.16","206.5","15.9","98.88","11.56","28.00","33.74","13.69","22.11","0","0"
"Karl-Anthony Towns","Karl-Anthony-Towns-18937","9900","C","53.42","236","32.9","100.67","32.05","35.00","81.04","28.69","55.93","0","0"
"Buddy Hield","Buddy-Hield-35206","6500","SG/SF","38.51","233.5","32.4","98.20","23.62","34.00","59.49","21.56","36.54","0","0"
"Jae Crowder","Jae-Crowder-13942","4600","SF/PF","39.16","206.5","27.7","98.88","19.96","31.00","48.29","20.85","25.84","0","0"
"E'Twaun Moore","E'Twaun-Moore-18582","4200","SG/SF","39.61","236","33.0","104.88","18.13","30.00","37.36","16.81","23.57","0","0"
"Jakob Poeltl","Jakob-Poeltl-35187","3500","C","49.66","226.5","15.3","99.70","12.18","19.00","39.18","16.37","19.6","0","0"
"Aaron Gordon","Aaron-Gordon-18601","6400","SF/PF","43.05","213.5","34.4","105.10","21.80","35.00","56.77","23.08","35.73","0","0"
"Josh Jackson","Josh-Jackson-37890","5600","SF/PF","43.97","218.5","0","108.80","0","31.00","58.88","23.92","31.27","0","0"
"Nikola Vucevic","Nikola-Vucevic-13296","8800","C","50.50","213.5","28.0","105.10","27.47","33.00","76.48","28.58","48.53","0","0"
"Elie Okobo","Elie-Okobo-409300","3300","PG","38.25","218.5","0","108.80","0","24.00","25.45","4.71","18.18","0","0"
"Kemba Walker","Kemba-Walker-13335","8400","PG","55.25","233.5","30.9","103.00","32.93","35.00","77.35","26.59","45.69","0","0"
"Patty Mills","Patty-Mills-13977","3800","PG/SG","36.26","226.5","23.0","99.70","18.54","23.00","40.74","20.38","20.38","0","0"
"Kyle Korver","Kyle-Korver-1269","4000","SG/SF","35.07","206.5","20.3","98.88","17.89","24.00","41.65","21.39","21.39","0","0"
"Derrick Favors","Derrick-Favors-1266","5100","PF/C","61.66","206.5","25.0","98.88","19.04","25.00","43.3","15.59","27.3","0","0"
"Russell Westbrook","Russell-Westbrook-1083","11800","PG","0","226.5","0","102.62","0","36.00","88.23","27.1","63.02","0","0"
"Rudy Gobert","Rudy-Gobert-16935","8200","C","0","206.5","31.0","98.88","15.97","35.00","66.55","21.62","43.67","0","0"
"Marco Belinelli","Marco-Belinelli-1033","3400","SG/SF","41.38","226.5","22.1","99.70","18.78","21.00","30.03","13.57","18.09","0","0"
"Deandre Ayton","Deandre-Ayton-409301","7100","C","51.67","218.5","30.4","108.80","20.75","31.00","52.65","7.6","37.61","0","0"
"Chandler Hutchison","Chandler-Hutchison-408877","3300","SF/PF","0","206.5","0","104.50","0","25.00","24.46","3.34","17.47","0","0"
"Zach LaVine","Zach-LaVine-18622","6100","PG/SG","48.99","206.5","31.3","104.50","28.52","33.00","47.33","17.15","32.24","0","0"
"Steven Adams","Steven-Adams-16848","6700","C","50.76","226.5","34.9","102.62","14.29","33.00","55.21","20.6","35.28","0","0"
"Willie Cauley-Stein","Willie-Cauley-Stein-18951","6900","C","53.42","233.5","28.1","98.20","21.89","31.00","52.8","17.13","36.14","0","0"
"Marvin Williams","Marvin-Williams-1318","5300","SF/PF","52.37","233.5","28.6","103.00","17.50","30.00","49.82","21.95","27.71","0","0"
"Mikal Bridges","Mikal-Bridges-408842","3900","SG/SF","35.87","218.5","0","108.80","0","25.00","28.42","4.1","20.3","0","0"
"Marcus Smart","Marcus-Smart-18567","4700","PG/SG","51.31","213.5","27.1","101.75","15.32","27.00","37.1","14.89","24.49","0","0"
"Jayson Tatum","Jayson-Tatum-37782","5800","SF/PF","49.34","213.5","29.7","101.75","21.09","31.00","43.77","18.45","30.1","0","0"
"Pau Gasol","Pau-Gasol-1502","3100","C","53.56","226.5","0","99.70","0","14.00","24.65","7.16","16.02","0","0"
"Bryn Forbes","Bryn-Forbes-36052","4400","PG/SG","47.98","226.5","33.7","99.70","14.94","33.00","36.79","16.43","22.6","0","0"
"Elfrid Payton","Elfrid-Payton-18602","5600","PG","35.62","236","26.4","104.88","24.71","28.00","44.53","15.47","28.71","0","0"
"Jeremy Lamb","Jeremy-Lamb-13955","5500","SG/SF","45.86","233.5","0","103.00","0","28.00","45.5","18.39","28.21","0","0"
"Paul Millsap","Paul-Millsap-1335","6200","PF/C","48.12","218.5","22.7","99.62","21.76","29.00","51.28","20.32","31.75","0","0"
"Richaun Holmes","Richaun-Holmes-18905","3800","PF/C","51.67","218.5","17.2","108.80","18.49","17.00","38.72","16.14","19.37","0","0"
"Kris Dunn","Kris-Dunn-35215","6300","PG/SG","48.99","206.5","30.7","104.50","23.56","32.00","49.84","15.28","31.91","0","0"
"Lauri Markkanen","Lauri-Markkanen-37809","6000","PF","49.60","206.5","33.0","104.50","19.65","32.00","50.08","21.47","30.37","0","0"
"Jrue Holiday","Jrue-Holiday-1073","7800","PG/SG","52.04","236","0","104.88","0","36.00","60.17","21.41","39.35","0","0"
"DeMar DeRozan","DeMar-DeRozan-1053","8300","SG/SF","46.70","226.5","0","99.70","0","34.00","67.2","22.72","41.69","0","0"
"Jeff Teague","Jeff-Teague-1005","6600","PG","51.38","236","27.8","100.67","24.85","31.00","51.94","17.02","32.98","0","0"
"Anthony Davis","Anthony-Davis-13895","11700","PF/C","52.91","236","0","104.88","0","36.00","81.77","30.9","58.41","0","0"
"De'Aaron Fox","De'Aaron-Fox-37900","7900","PG","52.15","233.5","29.6","98.20","26.54","34.00","58.64","19.37","39.46","0","0"
"Bismack Biyombo","Bismack-Biyombo-13312","4300","C","55.58","233.5","0","103.00","0","22.00","35.3","15.17","21.42","0","0"
"Davis Bertans","Davis-Bertans-36051","3700","SF/PF","53.56","226.5","23.9","99.70","11.14","21.00","36.74","18.38","18.38","0","0"
"Paul George","Paul-George-1245","9500","SF/PF","50.64","226.5","36.6","102.62","32.26","36.00","70.43","26.62","47.11","0","0"
"Bogdan Bogdanovic","Bogdan-Bogdanovic-37899","5900","SG/SF","51.16","233.5","30.1","98.20","24.49","31.00","55.12","24.44","29.27","0","0"
"Iman Shumpert","Iman-Shumpert-13350","3700","SG/SF","38.51","233.5","23.5","98.20","19.65","25.00","30.73","13.89","18.27","0","0"
"Julius Randle","Julius-Randle-18632","7300","PF/C","52.91","236","33.7","104.88","24.70","32.00","58.01","21.75","36.01","0","0"
"Terrence Ross","Terrence-Ross-13902","4300","SG/SF","34.10","213.5","24.1","105.10","22.42","25.00","38.7","21.08","21.08","0","0"
"Jerami Grant","Jerami-Grant-18576","5300","PF","50.64","226.5","33.0","102.62","15.12","35.00","50.78","22.94","25.92","0","0"
"Kyrie Irving","Kyrie-Irving-13334","8700","PG","51.31","213.5","29.2","101.75","28.24","34.00","59.42","24.15","42.44","0","0"
"Gary Harris","Gary-Harris-18617","5400","SG","0","218.5","25.5","99.62","20.44","28.00","37.77","16.57","26.34","0","0"
"Nicolas Batum","Nicolas-Batum-1315","4900","SG/SF","38.15","233.5","31.1","103.00","12.33","32.00","41.15","15.66","23.91","0","0"
"Nikola Jokic","Nikola-Jokic-31812","10800","C","55.19","218.5","0","99.62","0","34.00","74.12","22.24","52.57","0","0"
"D.J. Augustin","D.J.-Augustin-1064","4800","PG","40.28","213.5","27.5","105.10","20.15","28.00","38.84","14.58","23.33","0","0"
"LaMarcus Aldridge","LaMarcus-Aldridge-1349","8100","PF/C","53.56","226.5","0","99.70","0","34.00","56.69","18.51","38.88","0","0"
"Wendell Carter","Wendell-Carter-408878","5300","PF/C","53.29","206.5","25.8","104.50","15.43","30.00","35.59","4.86","25.42","0","0"
"Miles Bridges","Miles-Bridges-409262","3200","SF/PF","52.37","233.5","17.3","103.00","13.57","17.00","21.36","3.08","15.26","0","0"
"Terry Rozier","Terry-Rozier-18894","3800","PG/SG","47.12","213.5","0","101.75","0","19.00","30.52","12.64","18.09","0","0"
"Jamal Murray","Jamal-Murray-35211","7400","PG/SG","0","218.5","33.0","99.62","28.49","34.00","54.06","22.52","35.08","0","0"
"TJ Warren","TJ-Warren-18634","6800","SF/PF","43.97","218.5","33.3","108.80","23.74","32.00","52.66","19.42","31.84","0","0"
"Mason Plumlee","Mason-Plumlee-16798","4600","PF/C","58.95","218.5","0","99.62","0","20.00","38.03","17.28","21.39","0","0"
"Marcus Morris","Marcus-Morris-13316","5700","SF/PF","34.10","213.5","26.8","101.75","19.85","27.00","42.61","19.2","26.45","0","0"
"Nikola Mirotic","Nikola-Mirotic-18584","5900","PF/C","0","236","21.0","104.88","26.00","24.00","47.08","20.51","27.31","0","0"
"Anthony Tolliver","Anthony-Tolliver-1263","3400","SF/PF","48.14","236","20.6","100.67","11.60","18.00","28.21","15.57","15.57","0","0"
"Josh Okogie","Josh-Okogie-409174","4200","SG/SF","50.07","236","27.3","100.67","15.14","25.00","26.67","8.21","19.05","0","0"
"Nemanja Bjelica","Nemanja-Bjelica-31814","5200","SF/PF","50.00","233.5","25.9","98.20","16.16","23.00","38.66","14.17","23.5","0","0"
"Gordon Hayward","Gordon-Hayward-1239","5500","SF/PF","49.34","213.5","25.0","101.75","23.73","26.00","45.8","18.72","24.73","0","0"
"Taj Gibson","Taj-Gibson-1277","4400","PF/C","0","236","26.6","100.67","16.23","22.00","31.93","12.54","19.66","0","0"
"Jaylen Brown","Jaylen-Brown-35181","4500","SG/SF","34.10","213.5","24.1","101.75","21.27","23.00","40.1","15.83","20.06","0","0"
"Donovan Mitchell","Donovan-Mitchell-37875","8500","PG/SG","53.09","206.5","34.1","98.88","29.70","37.00","60.27","22.76","37.69","0","0"
"Antonio Blakeney","Antonio-Blakeney-37811","3200","PG/SG","34.09","206.5","17.4","104.50","21.94","15.00","28.15","11.43","14.08","0","0"
"Harry Giles","Harry-Giles-37897","3700","PF/C","50.00","233.5","16.5","98.20","21.83","16.00","22.68","4.2","16.2","0","0"
"Andrew Wiggins","Andrew-Wiggins-18620","7000","SG/SF","50.07","236","0","100.67","0","30.00","45.14","18.57","30.4","0","0"
"Justin Jackson","Justin-Jackson-37895","3800","SF/PF","38.51","233.5","25.6","98.20","15.08","22.00","31.71","15.74","16.48","0","0"
"Malik Beasley","Malik-Beasley-35213","4400","PG/SG","34.87","218.5","28.1","99.62","16.41","25.00","38.08","19.05","19.05","0","0"
"Derrick White","Derrick-White-37858","5400","PG/SG","36.26","226.5","30.7","99.70","17.66","31.00","39.2","16.15","23.1","0","0"
"Troy Daniels","Troy-Daniels-17383","3000","SG","33.18","218.5","11.2","108.80","20.24","13.00","25.21","12.61","12.61","0","0"
"Darius Miller","Darius-Miller-13951","3400","SF/PF","39.29","236","28.6","104.88","13.00","22.00","27.37","14.21","14.21","0","0"
"Naz Mitrou-Long","Naz-Mitrou-Long-37874","3000","PG","44.50","206.5","5.5","98.88","23.02","14.00","17.54","1.98","12.53","0","0"
"Will Barton","Will-Barton-13982","5000","SG/SF","0","218.5","0","99.62","0","20.00","31.6","10.97","20.86","0","0"
"Terrance Ferguson","Terrance-Ferguson-37871","3600","SG/SF","32.70","226.5","27.8","102.62","10.64","27.00","29.25","11.76","14.63","0","0"
"Marvin Bagley III","Marvin-Bagley-III-409321","5000","PF/C","50.00","233.5","20.0","98.20","18.18","20.00","27.97","5.17","19.98","0","0"
"Georges Niang","Georges-Niang-35193","3000","SF/PF","47.93","206.5","9.2","98.88","19.09","12.00","23.6","10.17","11.96","0","0"
"Wes Iwundu","Wes-Iwundu-37839","3500","SG/SF","33.88","213.5","18.9","105.10","14.52","18.00","27.43","13.72","13.72","0","0"
"Devonte' Graham","Devonte'-Graham-408968","3600","PG/SG","0","233.5","20.3","103.00","19.21","17.00","19.28","2.78","13.77","0","0"
"Shaquille Harrison","Shaquille-Harrison-36065","3400","PG/SF","0","206.5","18.8","104.50","17.63","16.00","23.52","10.34","12.78","0","0"
"De'Anthony Melton","De'Anthony-Melton-409081","4800","PG","0","218.5","25.0","108.80","16.02","23.00","25.12","3.62","17.94","0","0"
"Torrey Craig","Torrey-Craig-37861","4500","SG/SF","34.87","218.5","28.3","99.62","12.95","21.00","33.34","13.47","16.79","0","0"
"Ryan Arcidiacono","Ryan-Arcidiacono-36050","3100","PG","0","206.5","0","104.50","0","15.00","21.11","9.82","11.53","0","0"
"Frank Jackson","Frank-Jackson-37855","3600","PG/SG","52.04","236","0","104.88","0","17.00","18.65","2.69","13.32","0","0"
"Malik Monk","Malik-Monk-37827","3600","PG/SG","55.25","233.5","18.0","103.00","25.08","18.00","23.88","10.59","13.31","0","0"
"Hamidou Diallo","Hamidou-Diallo-408800","3000","SG/SF","32.70","226.5","9.3","102.62","10.86","14.00","15.29","1.73","10.92","0","0"
"Jamal Crawford","Jamal-Crawford-1075","3700","PG/SG","43.97","218.5","14.5","108.80","21.62","14.00","22.37","10.15","13.03","0","0"
"Patrick Patterson","Patrick-Patterson-1260","3500","PF/C","0","226.5","13.7","102.62","12.21","16.00","21.81","10.53","11.89","0","0"
"Daniel Theis","Daniel-Theis-37784","3900","PF/C","52.77","213.5","15.4","101.75","15.89","12.00","21.33","10.83","11.97","0","0"
"Juan Hernangomez","Juan-Hernangomez-35212","3600","SF/PF","48.12","218.5","19.6","99.62","8.91","13.00","20.72","9.08","10.78","0","0"
"Tim Frazier","Tim-Frazier-18743","3300","PG/SG","35.62","236","17.8","104.88","14.43","11.00","18.99","7.89","9.85","0","0"
"Monte Morris","Monte-Morris-37860","4300","PG","0","218.5","21.0","99.62","19.90","16.00","16.95","2.71","12.11","0","0"
"Wayne Selden","Wayne-Selden-36045","3100","SG/SF","48.99","206.5","7.0","104.50","17.84","10.00","16.09","6.93","8.69","0","0"
"Jerryd Bayless","Jerryd-Bayless-1021","3000","PG/SG","50.07","236","8.7","100.67","17.23","13.00","16.4","8.38","8.38","0","0"
"Isaiah Briscoe","Isaiah-Briscoe-37868","3100","PG/SG","40.28","213.5","0","105.10","0","10.00","12.04","2.23","8.6","0","0"
"Abdel Nader","Abdel-Nader-35179","3200","SF","38.20","226.5","12.7","102.62","16.48","14.00","16.67","8.34","8.34","0","0"
"Dante Cunningham","Dante-Cunningham-1259","3000","SF/PF","46.94","226.5","4.8","99.70","17.22","10.00","14.35","6.27","7.18","0","0"
"Robin Lopez","Robin-Lopez-1466","3100","C","52.10","206.5","11.3","104.50","14.31","8.00","14.27","6.42","7.14","0","0"
"Khem Birch","Khem-Birch-37838","3000","PF/C","50.81","213.5","0","105.10","0","9.00","11.05","4.9","6.84","0","0"
"Robert Williams","Robert-Williams-408780","3100","PF/C","52.77","213.5","10.0","101.75","8.88","6.00","7.29","1.05","5.21","0","0"
"Semi Ojeleye","Semi-Ojeleye-37786","3100","SF/PF","34.10","213.5","0","101.75","0","5.00","6.94","3.47","3.47","0","0"
"Jahlil Okafor","Jahlil-Okafor-18902","3200","C","50.10","236","15.0","104.88","18.16","4.00","7.06","3.15","3.53","0","0"
"Yogi Ferrell","Yogi-Ferrell-35999","3300","PG/SG","52.15","233.5","17.9","98.20","15.62","4.00","6.08","2.63","3.22","0","0"
"Grayson Allen","Grayson-Allen-409227","3000","PG/SG","35.07","206.5","0","98.88","0","4.00","2.87","2.15","2.39","0","0"
