"nameCol","idCol","salaryCol","positionCol","dvpCol","ouCol","mpgCol","paceCol","usgCol","pminCol","ceilCol","floorCol","pointsCol","predictCol","actualCol"
"Shai Gilgeous-Alexander","Shai-Gilgeous-Alexander-408990","4600","PG/SG","42.02","222","24.3","108.38","21.17","32.00","39.05","22.56","27.89","0","0"
"DeAndre Jordan","DeAndre-Jordan-1486","6400","C","58.87","222","30.2","100.08","16.45","31.00","53.58","23.15","38.27","0","0"
"TJ Warren","TJ-Warren-18634","5700","SF/PF","48.33","230.5","35.4","108.80","21.04","36.00","54.82","13.78","32.73","0","0"
"Russell Westbrook","Russell-Westbrook-1083","11000","PG","48.14","226.5","37.3","102.62","34.87","36.00","87.53","34.2","62.52","0","0"
"Damian Lillard","Damian-Lillard-13900","8100","PG","48.05","226.5","34.1","104.50","31.37","36.00","75.96","22.95","45.9","0","0"
"Devin Booker","Devin-Booker-18949","8300","PG/SG","51.50","230.5","32.5","108.80","32.89","36.00","80.1","22.02","46.95","0","0"
"Serge Ibaka","Serge-Ibaka-1294","5900","PF/C","51.69","228.5","31.2","105.50","22.69","31.00","54.32","14.14","33.2","0","0"
"Steven Adams","Steven-Adams-16848","6200","C","50.75","226.5","35.7","102.62","15.42","35.00","59.97","15.93","34.93","0","0"
"Tobias Harris","Tobias-Harris-13332","8000","SF/PF","47.25","222","34.9","108.38","22.04","36.00","71.4","20.33","44.68","0","0"
"Bogdan Bogdanovic","Bogdan-Bogdanovic-37899","5200","SG/SF","49.01","228.5","27.3","98.20","26.17","29.00","56.4","9.21","28.69","0","0"
"Dennis Smith Jr.","Dennis-Smith-Jr.-37847","4500","PG","52.39","222","26.0","100.08","20.32","28.00","42.22","10.29","24.79","0","0"
"Karl-Anthony Towns","Karl-Anthony-Towns-18937","10600","C","55.95","230.5","29.8","100.67","31.31","36.00","90.47","30.33","57.44","0","0"
"Andrew Wiggins","Andrew-Wiggins-18620","5800","SG/SF","48.66","230.5","36.0","100.67","24.94","36.00","47.96","12.17","31.37","0","0"
"Kyle Lowry","Kyle-Lowry-1057","7600","PG","54.63","228.5","34.0","105.50","20.38","34.00","71.31","20.06","41.1","0","0"
"Jusuf Nurkic","Jusuf-Nurkic-18619","7500","C","51.03","226.5","26.9","104.50","24.18","30.00","64.19","18.84","40.42","0","0"
"Fred VanVleet","Fred-VanVleet-36011","4700","PG/SG","45.34","228.5","25.4","105.50","17.46","27.00","49.39","6.93","25.12","0","0"
"Pascal Siakam","Pascal-Siakam-35186","6300","PF/C","56.71","228.5","33.2","105.50","19.71","33.00","51.19","15.14","33.57","0","0"
"Dragan Bender","Dragan-Bender-35228","4000","PF/C","53.67","230.5","11.7","108.80","19.13","30.00","42.54","7.09","21.28","0","0"
"C.J. McCollum","C.J.-McCollum-17121","6000","PG/SG","46.76","226.5","32.0","104.50","22.80","35.00","51.39","17.29","31.55","0","0"
"Montrezl Harrell","Montrezl-Harrell-18930","6800","PF/C","54.16","222","28.0","108.38","23.09","31.00","63.07","11.12","35.63","0","0"
"Luka Doncic","Luka-Doncic-408971","8400","PG/SF","48.73","222","31.8","100.08","33.29","34.00","61.11","34.57","43.65","0","0"
"Mikal Bridges","Mikal-Bridges-408842","3800","SG/SF","39.06","230.5","25.7","108.80","9.74","29.00","27.59","15.61","19.71","0","0"
"Jeff Teague","Jeff-Teague-1005","5900","PG","53.43","230.5","25.7","100.67","20.73","30.00","51.29","15.82","30.55","0","0"
"Jerami Grant","Jerami-Grant-18576","5300","PF","50.67","226.5","35.9","102.62","15.47","34.00","54.87","3.51","27.45","0","0"
"Kelly Oubre","Kelly-Oubre-18925","5600","SG/SF","39.06","230.5","28.9","108.80","27.07","29.00","51.8","9.26","28.86","0","0"
"Marvin Bagley III","Marvin-Bagley-III-409321","5000","PF/C","46.22","228.5","22.7","98.20","22.98","26.00","35.98","20.35","25.7","0","0"
"Patrick Beverley","Patrick-Beverley-14108","4800","PG/SG","42.02","222","27.3","108.38","10.51","28.00","39.7","13.07","24.43","0","0"
"Harrison Barnes","Harrison-Barnes-13901","5500","SF/PF","51.66","222","33.5","100.08","23.21","34.00","43.66","11.85","28.02","0","0"
"Paul George","Paul-George-1245","9700","SF/PF","50.67","226.5","38.0","102.62","27.95","36.00","78.55","22.85","49.25","0","0"
"Willie Cauley-Stein","Willie-Cauley-Stein-18951","6100","C","51.68","228.5","27.7","98.20","18.43","29.00","43.54","16.15","30.99","0","0"
"Al-Farouq Aminu","Al-Farouq-Aminu-1279","5100","SF/PF","39.97","226.5","28.6","104.50","14.44","32.00","38.07","7.33","25.9","0","0"
"Avery Bradley","Avery-Bradley-941","4000","SG","33.52","222","29.0","108.38","15.73","33.00","38.51","6.32","20.27","0","0"
"Josh Jackson","Josh-Jackson-37890","4100","SF/PF","48.33","230.5","25.4","108.80","24.38","22.00","41.14","6.05","20.58","0","0"
"Quincy Acy","Quincy-Acy-13972","3500","PF/C","53.67","230.5","9.3","108.80","9.41","18.00","34.94","4.16","17.48","0","0"
"Wesley Matthews","Wesley-Matthews-1339","4400","SG/SF","33.83","222","27.8","100.08","20.10","30.00","40.05","9.89","21.74","0","0"
"Dennis Schroder","Dennis-Schroder-18595","5400","PG/SG","48.14","226.5","26.3","102.62","26.63","27.00","43.66","7.29","26.62","0","0"
"Delon Wright","Delon-Wright-18907","4100","PG/SG","45.34","228.5","18.5","105.50","18.03","22.00","30.19","7.89","19.24","0","0"
"Maurice Harkless","Maurice-Harkless-16971","4000","SF/PF","39.97","226.5","19.0","104.50","13.07","26.00","37.14","6.84","18.58","0","0"
"De'Aaron Fox","De'Aaron-Fox-37900","7300","PG","47.32","228.5","30.0","98.20","26.13","31.00","54.0","16.64","33.9","0","0"
"Meyers Leonard","Meyers-Leonard-13905","3300","PF/C","53.04","226.5","15.6","104.50","12.67","14.00","30.5","3.98","15.26","0","0"
"Dario Saric","Dario-Saric-36004","4200","PF","47.88","230.5","21.5","100.67","17.55","22.00","32.96","4.54","19.34","0","0"
"Zach Collins","Zach-Collins-37866","3300","PF/C","53.04","226.5","18.0","104.50","15.92","16.00","26.45","4.58","14.96","0","0"
"Derrick Rose","Derrick-Rose-1086","6300","PG/SG","53.43","230.5","27.8","100.67","32.25","29.00","56.93","7.43","28.48","0","0"
"Harry Giles","Harry-Giles-37897","3600","PF/C","46.22","228.5","17.7","98.20","21.90","18.00","22.69","12.84","16.21","0","0"
"Greg Monroe","Greg-Monroe-1487","3400","C","54.79","228.5","12.0","105.50","25.82","13.00","24.65","4.61","15.28","0","0"
"Dwight Powell","Dwight-Powell-18566","3500","PF/C","58.97","222","16.8","100.08","17.92","15.00","31.12","4.86","15.57","0","0"
"C.J. Miles","C.J.-Miles-1299","3400","SG/SF","38.71","228.5","13.7","105.50","24.48","19.00","29.48","4.0","14.92","0","0"
"Norman Powell","Norman-Powell-18908","3800","SG/SF","41.80","228.5","18.7","105.50","19.78","22.00","33.2","4.34","16.61","0","0"
"Buddy Hield","Buddy-Hield-35206","6900","SG/SF","35.99","228.5","30.4","98.20","23.06","32.00","51.91","12.31","29.51","0","0"
"Johnathan Motley","Johnathan-Motley-37844","3200","PF/C","47.25","222","7.2","108.38","36.97","16.00","27.35","3.67","13.68","0","0"
"Danny Green","Danny-Green-940","4800","SG/SF","38.71","228.5","28.8","105.50","16.65","29.00","32.06","7.05","20.15","0","0"
"Maxi Kleber","Maxi-Kleber-37845","4300","PF/C","51.66","222","25.8","100.08","10.97","20.00","35.94","4.15","17.98","0","0"
"Nerlens Noel","Nerlens-Noel-18575","3300","C","50.75","226.5","11.8","102.62","14.75","13.00","27.35","2.21","13.73","0","0"
"Josh Okogie","Josh-Okogie-409174","4200","SG/SF","48.66","230.5","26.0","100.67","17.01","24.00","24.21","13.99","17.29","0","0"
"Taj Gibson","Taj-Gibson-1277","4900","PF/C","59.59","230.5","25.2","100.67","16.75","25.00","35.14","8.23","20.02","0","0"
"Iman Shumpert","Iman-Shumpert-13350","3900","SG/SF","35.99","228.5","25.5","98.20","18.43","22.00","27.66","5.43","15.79","0","0"
"Jalen Brunson","Jalen-Brunson-409062","3900","PG/SG","43.70","222","21.5","100.08","20.58","20.00","21.81","11.78","15.58","0","0"
"Justin Jackson","Justin-Jackson-37895","3500","SF/PF","35.99","228.5","21.9","98.20","13.69","22.00","26.97","3.64","13.95","0","0"
"Seth Curry","Seth-Curry-16825","3200","PG/SG","42.57","226.5","16.9","104.50","16.71","17.00","25.49","3.48","12.75","0","0"
"Evan Turner","Evan-Turner-1291","4300","SG/SF","46.76","226.5","23.7","104.50","17.60","22.00","26.25","4.78","17","0","0"
"Gorgui Dieng","Gorgui-Dieng-16939","3200","PF/C","59.59","230.5","13.2","100.67","13.20","12.00","22.93","3.17","12.39","0","0"
"Lou Williams","Lou-Williams-1044","6600","PG/SG","48.08","222","26.6","108.38","32.78","26.00","35.78","17.33","25.11","0","0"
"Yogi Ferrell","Yogi-Ferrell-35999","3100","PG/SG","47.32","228.5","16.3","98.20","13.66","15.00","22.71","3.55","11.51","0","0"
"Nemanja Bjelica","Nemanja-Bjelica-31814","3900","SF/PF","46.22","228.5","16.4","98.20","14.74","16.00","24.19","6.0","14.32","0","0"
"Anthony Tolliver","Anthony-Tolliver-1263","3400","SF/PF","47.88","230.5","14.0","100.67","11.61","16.00","22.12","3.49","12.22","0","0"
"Terrance Ferguson","Terrance-Ferguson-37871","3700","SG/SF","37.77","226.5","28.9","102.62","13.37","27.00","26.45","2.94","13.23","0","0"
"Jamal Crawford","Jamal-Crawford-1075","3500","PG/SG","48.33","230.5","18.5","108.80","24.34","16.00","23.05","2.97","12.38","0","0"
"Tyrone Wallace","Tyrone-Wallace-35220","3200","SG/SF","48.08","222","15.1","108.38","17.41","15.00","21.67","3.26","11.2","0","0"
"Dorian Finney-Smith","Dorian-Finney-Smith-36032","3700","SF/PF","35.19","222","23.0","100.08","13.97","18.00","24.93","4.93","12.8","0","0"
"Marcin Gortat","Marcin-Gortat-1479","3400","C","49.66","222","12.9","108.38","15.73","13.00","21.19","2.51","11.31","0","0"
"De'Anthony Melton","De'Anthony-Melton-409081","3700","PG","51.50","230.5","21.6","108.80","17.12","14.00","17.14","9.69","12.24","0","0"
"Dirk Nowitzki","Dirk-Nowitzki-1346","3000","PF/C","58.97","222","9.8","100.08","18.11","10.00","14.44","2.26","8.58","0","0"
"Hamidou Diallo","Hamidou-Diallo-408800","3000","SG/SF","37.77","226.5","10.9","102.62","12.31","11.00","11.89","7.12","8.49","0","0"
"Patrick Patterson","Patrick-Patterson-1260","3200","PF/C","52.78","226.5","13.1","102.62","12.06","13.00","17.56","1.92","8.88","0","0"
"Elie Okobo","Elie-Okobo-409300","3300","PG","38.54","230.5","15.2","108.80","19.73","10.00","11.52","6.22","8.23","0","0"
"Jake Layman","Jake-Layman-35216","3600","SF/PF","39.97","226.5","21.6","104.50","17.74","12.00","17.32","2.23","8.93","0","0"
"Jerryd Bayless","Jerryd-Bayless-1021","3000","PG/SG","48.66","230.5","13.7","100.67","14.62","10.00","13.17","1.73","6.59","0","0"
"Sindarius Thornwell","Sindarius-Thornwell-37881","3000","SG/SF","37.14","222","4.8","108.38","14.95","10.00","12.39","1.19","6.2","0","0"
"Abdel Nader","Abdel-Nader-35179","3100","SF","35.82","226.5","12.7","102.62","18.61","8.00","11.61","1.35","5.81","0","0"
"Patrick McCaw","Patrick-McCaw-35222","3100","SG/SF","41.80","228.5","11.0","105.50","13.93","5.00","7.7","1.13","3.85","0","0"
"Chris Boucher","Chris-Boucher-37880","3100","PF/C","56.71","228.5","6.0","105.50","25.42","5.00","5.12","2.77","3.66","0","0"
"Devin Harris","Devin-Harris-1076","3000","PG/SG","52.39","222","11.0","100.08","19.85","2.00","3.04","0.36","1.53","0","0"
