"nameCol","idCol","salaryCol","positionCol","dvpCol","ouCol","mpgCol","paceCol","usgCol","pminCol","ceilCol","floorCol","pointsCol","predictCol","actualCol"
"Frank Jackson","Frank-Jackson-37855","3700","PG/SG","47.02","218","24.5","104.88","20.87","30.00","33.31","18.84","23.79","0","0"
"Kenrich Williams","Kenrich-Williams-570179","4300","SG/SF","36.82","218","24.4","104.88","13.60","31.00","37.02","19.99","26.44","0","0"
"Rondae Hollis-Jefferson","Rondae-Hollis-Jefferson-18897","4100","PF/C","45.10","230","18.8","114.62","23.36","24.00","48.62","6.08","24.32","0","0"
"Tyreke Evans","Tyreke-Evans-1070","4600","SG/SF","48.51","218","22.3","107.67","19.60","24.00","48.51","12.85","26.45","0","0"
"Jahlil Okafor","Jahlil-Okafor-18902","7100","C","50.80","218","31.5","104.88","20.03","32.00","70.97","17.53","40.3","0","0"
"Cheick Diallo","Cheick-Diallo-35225","3200","PF/C","50.80","218","14.4","104.88","19.98","16.00","36.18","5.48","18.1","0","0"
"D'Angelo Russell","D'Angelo-Russell-18947","7900","PG/SG","47.76","230","30.5","114.62","35.44","34.00","69.79","21.51","44.45","0","0"
"Jarrett Allen","Jarrett-Allen-37794","5100","C","48.69","230","25.4","114.62","12.58","28.00","56.55","12.22","28.29","0","0"
"DeMarre Carroll","DeMarre-Carroll-1174","4500","SF/PF","39.33","230","27.1","114.62","19.33","29.00","49.96","6.45","24.99","0","0"
"Domantas Sabonis","Domantas-Sabonis-35217","5500","PF/C","51.40","218","21.9","107.67","21.24","25.00","56.53","4.42","30.1","0","0"
"Cory Joseph","Cory-Joseph-13339","4100","PG/SG","47.57","218","28.5","107.67","14.83","29.00","36.89","9.57","22.41","0","0"
"Brook Lopez","Brook-Lopez-1498","5400","C","58.58","230","30.6","98.80","14.50","30.00","52.4","11.57","28.92","0","0"
"Tim Frazier","Tim-Frazier-18743","3900","PG","37.89","218","16.5","104.88","19.13","22.00","41.46","5.41","20.74","0","0"
"Khris Middleton","Khris-Middleton-13990","6400","SG/SF","44.57","230","33.2","98.80","22.75","33.00","49.97","13.39","33.99","0","0"
"Treveon Graham","Treveon-Graham-36023","3300","SG/SF","39.33","230","25.1","114.62","10.75","29.00","27.65","5.46","17.38","0","0"
"Myles Turner","Myles-Turner-18915","6300","C","56.52","218","30.8","107.67","19.26","30.00","63.73","9.98","32.63","0","0"
"Giannis Antetokounmpo","Giannis-Antetokounmpo-16852","10900","SF/PF","48.18","230","34.0","98.80","32.51","34.00","78.2","32.4","55.86","0","0"
"Darren Collison","Darren-Collison-1060","6200","PG","47.57","218","30.0","107.67","21.64","32.00","51.69","14.58","31.69","0","0"
"Bojan Bogdanovic","Bojan-Bogdanovic-18571","5700","SG/SF","35.59","218","33.0","107.67","21.62","33.00","45.65","9.6","28.84","0","0"
"Shabazz Napier","Shabazz-Napier-18598","5400","PG/SG","42.13","230","22.7","114.62","29.05","29.00","53.42","7.66","27.27","0","0"
"Malcolm Brogdon","Malcolm-Brogdon-35195","5700","PG/SG","50.30","230","30.8","98.80","21.61","32.00","52.92","10.05","28.62","0","0"
"Jrue Holiday","Jrue-Holiday-1073","8700","PG/SG","47.02","218","36.1","104.88","27.81","37.00","64.8","21.15","43.52","0","0"
"Eric Bledsoe","Eric-Bledsoe-1031","6900","PG","50.30","230","31.2","98.80","24.99","31.00","68.45","14.52","34.33","0","0"
"Darius Miller","Darius-Miller-13951","4800","SF/PF","36.82","218","33.2","104.88","15.94","35.00","44.9","5.93","23.72","0","0"
"Thaddeus Young","Thaddeus-Young-1289","5800","SF/PF","49.56","218","29.3","107.67","20.99","30.00","47.68","12.12","28.13","0","0"
"Rodions Kurucs","Rodions-Kurucs-408801","3900","SF/PF","45.10","230","23.1","114.62","20.54","23.00","26.26","10.9","18.76","0","0"
"D.J. Wilson","D.J.-Wilson-37822","3500","PF/C","48.18","230","17.6","98.80","11.34","18.00","33.06","4.13","16.54","0","0"
"Sterling Brown","Sterling-Brown-37821","3200","SG/SF","30.57","230","18.0","98.80","14.16","21.00","28.28","4.03","14.48","0","0"
"George Hill","George-Hill-993","3500","PG/SG","41.34","230","22.3","98.80","14.39","21.00","27.65","4.02","15.05","0","0"
"Theo Pinson","Theo-Pinson-554931","3500","SG/SF","36.79","230","20.8","114.62","22.20","18.00","20.72","12.42","14.8","0","0"
"Ed Davis","Ed-Davis-1265","4100","C","48.69","230","21.6","114.62","13.94","18.00","32.72","4.68","16.37","0","0"
"Ian Clark","Ian-Clark-16922","3000","PG/SG","37.06","218","12.7","104.88","24.82","15.00","23.43","3.06","11.72","0","0"
"Solomon Hill","Solomon-Hill-16863","3300","SF/PF","36.82","218","20.1","104.88","11.93","18.00","21.22","3.42","12.35","0","0"
"Aaron Holiday","Aaron-Holiday-408932","3700","PG/SG","47.57","218","17.5","107.67","21.42","16.00","18.82","10.47","13.44","0","0"
"TJ Leaf","TJ-Leaf-37817","3100","SF/PF","56.52","218","10.9","107.67","18.51","10.00","15.19","2.11","7.6","0","0"
"Edmond Sumner","Edmond-Sumner-37818","3800","SG/SF","47.57","218","17.7","107.67","16.70","11.00","11.1","6.18","7.93","0","0"
"Tony Snell","Tony-Snell-16872","3500","SG/SF","33.88","230","16.3","98.80","14.63","14.00","13.81","1.92","6.91","0","0"
"Mitch Creek","Mitch-Creek-554930","3000","SG/SF","0","230","6.8","114.62","13.98","8.00","7.69","4.61","5.49","0","0"
"Ersan Ilyasova","Ersan-Ilyasova-1301","3100","PF/C","48.18","230","8.0","98.80","11.40","6.00","7.93","0.76","4.43","0","0"
"Wesley Johnson","Wesley-Johnson-1280","3000","SF/PF","36.82","218","3.8","104.88","38.94","4.00","6.72","0.76","3.36","0","0"
