"nameCol","idCol","salaryCol","positionCol","dvpCol","ouCol","mpgCol","paceCol","usgCol","pminCol","ceilCol","floorCol","pointsCol","predictCol","actualCol"
"Mike Muscala","Mike-Muscala-17379","3500","PF/C","56.57","234.5","21.3","108.33","14.16","28.00","43.93","4.62","23.12","0","0"
"Kenrich Williams","Kenrich-Williams-570179","4100","SG/SF","37.95","229.5","22.9","104.88","14.19","31.00","37.65","20.95","26.89","0","0"
"George Hill","George-Hill-993","3300","PG/SG","45.39","226.5","22.3","98.80","12.69","25.00","39.0","5.67","21.23","0","0"
"Malik Beasley","Malik-Beasley-35213","4400","PG/SG","38.47","221.5","25.3","99.62","20.00","31.00","55.49","6.61","27.76","0","0"
"Bobby Portis","Bobby-Portis-18909","5700","PF/C","57.37","216","25.3","104.50","24.24","28.00","71.62","6.88","35.83","0","0"
"Sterling Brown","Sterling-Brown-37821","3200","SG/SF","39.62","226.5","18.3","98.80","12.77","25.00","39.16","5.57","20.05","0","0"
"Shai Gilgeous-Alexander","Shai-Gilgeous-Alexander-408990","4000.00","PG/SG","41.31","215.5","26.8","108.38","20.16","31.00","34.43","19.89","24.59","0","0"
"Reggie Jackson","Reggie-Jackson-13352","4700.00","PG/SG","51.62","215.5","31.6","100.30","19.00","28.00","43.87","15.85","28.92","0","0"
"Luka Doncic","Luka-Doncic-408971","8300","PG/SF","48.64","209.5","31.6","100.08","33.17","34.00","71.39","35.44","50.99","0","0"
"Darius Miller","Darius-Miller-13951","4400","SF/PF","37.95","229.5","33.1","104.88","15.87","35.00","53.67","7.12","26.85","0","0"
"Landry Shamet","Landry-Shamet-408841","3300","PG/SG","41.51","234.5","19.9","108.33","16.28","28.00","28.14","15.92","20.1","0","0"
"Mikal Bridges","Mikal-Bridges-408842","4100","SG/SF","42.50","235","31.5","108.80","10.80","32.00","34.73","19.65","24.81","0","0"
"Dwight Powell","Dwight-Powell-18566","4400","PF/C","52.06","209.5","15.7","100.08","15.50","28.00","52.81","8.38","26.42","0","0"
"Jimmy Butler","Jimmy-Butler-13327","7300","SG/SF","45.57","234.5","34.5","108.33","21.19","36.00","62.52","21.49","43.6","0","0"
"Willy Hernangomez","Willy-Hernangomez-18901","3800","C","55.65","216","13.8","103.00","19.94","17.00","44.72","5.41","22.37","0","0"
"Evan Fournier","Evan-Fournier-13913","5100","SG/SF","30.56","221","32.3","105.10","21.25","35.00","46.14","13.05","29.92","0","0"
"Andre Drummond","Andre-Drummond-13904","8100.00","C","58.95","215.5","36.8","100.30","19.93","33.00","66.37","24.99","47.41","0","0"
"Maxi Kleber","Maxi-Kleber-37845","4100","PF/C","48.85","209.5","19.2","100.08","9.96","26.00","47.8","4.59","23.91","0","0"
"Torrey Craig","Torrey-Craig-37861","3900","SG/SF","38.47","221.5","26.3","99.62","13.29","28.00","45.4","5.4","22.71","0","0"
"Reggie Bullock","Reggie-Bullock-16943","4200.00","SG/SF","34.89","215.5","31.1","100.30","17.00","33.00","45.65","12.15","24.31","0","0"
"Monte Morris","Monte-Morris-37860","5500","PG","51.63","221.5","28.1","99.62","15.91","34.00","44.58","25.22","31.84","0","0"
"Jamal Crawford","Jamal-Crawford-1075","3600","PG/SG","52.54","235","23.2","108.80","16.59","24.00","38.71","4.99","20.79","0","0"
"Josh Okogie","Josh-Okogie-409174","3900","SG/SF","43.10","221.5","25.6","100.67","17.64","30.00","31.53","17.84","22.52","0","0"
"Tyler Johnson","Tyler-Johnson-18720","4300","PG/SG","47.61","204","28.2","106.90","19.01","30.00","49.26","7.05","24.64","0","0"
"Klay Thompson","Klay-Thompson-13315","6200","SG","39.98","236","32.1","103.10","23.32","34.00","59.84","16.72","35.43","0","0"
"Deandre Ayton","Deandre-Ayton-409301","6800","C","54.72","235","21.7","108.80","14.55","30.00","54.22","30.67","38.73","0","0"
"DeMarcus Cousins","DeMarcus-Cousins-1490","6700","PF/C","58.80","236","23.8","103.10","26.90","25.00","55.16","20.66","38.12","0","0"
"Michael Kidd-Gilchrist","Michael-Kidd-Gilchrist-13896","3700","SF/PF","38.74","216","20.2","103.00","15.98","23.00","42.12","8.28","21.07","0","0"
"T.J. McConnell","T.J.-McConnell-18956","3500","PG/SG","46.49","234.5","20.8","108.33","17.30","22.00","36.97","4.1","19.8","0","0"
"Josh Jackson","Josh-Jackson-37890","5600","SF/PF","52.54","235","29.7","108.80","24.58","32.00","55.51","14.59","31.72","0","0"
"Rondae Hollis-Jefferson","Rondae-Hollis-Jefferson-18897","4100","PF/C","49.61","221","18.2","114.62","25.30","22.00","45.93","5.8","23.21","0","0"
"Marvin Bagley III","Marvin-Bagley-III-409321","5300","PF/C","47.94","234.5","26.9","98.20","24.37","29.00","42.01","22.69","30.01","0","0"
"Malcolm Brogdon","Malcolm-Brogdon-35195","5400","PG/SG","54.38","226.5","31.4","98.80","20.74","33.00","58.03","10.74","30.59","0","0"
"Patrick Beverley","Patrick-Beverley-14108","5300.00","PG/SG","41.31","215.5","37.0","108.38","13.31","36.00","52.72","11.14","29.7","0","0"
"Andre Iguodala","Andre-Iguodala-1334","3800","SG/SF","39.98","236","25.5","103.10","9.73","26.00","35.46","10.08","21.18","0","0"
"Paul Millsap","Paul-Millsap-1335","5200","PF/C","51.02","221.5","24.5","99.62","16.05","29.00","46.33","10.71","28.94","0","0"
"Rodney Hood","Rodney-Hood-18629","4100","SG/SF","48.13","209.5","27.9","103.60","15.67","30.00","36.49","9.12","22.79","0","0"
"Jahlil Okafor","Jahlil-Okafor-18902","7000","C","50.89","229.5","32.6","104.88","20.44","35.00","68.37","16.17","38.78","0","0"
"Salah Mejri","Salah-Mejri-31791","3300","C","50.08","209.5","8.2","100.08","12.82","16.00","36.54","6.22","18.28","0","0"
"Aaron Gordon","Aaron-Gordon-18601","6500","SF/PF","48.12","221","34.9","105.10","21.61","33.00","61.67","14.51","35.92","0","0"
"Tony Snell","Tony-Snell-16872","3200","SG/SF","35.97","226.5","14.6","98.80","15.34","28.00","35.4","4.92","17.71","0","0"
"Draymond Green","Draymond-Green-13976","6400","PF/C","58.80","236","31.2","103.10","13.79","34.00","51.79","16.67","35.4","0","0"
"Khris Middleton","Khris-Middleton-13990","6400","SG/SF","44.71","226.5","32.9","98.80","22.73","35.00","53.68","10.18","35.36","0","0"
"DeMar DeRozan","DeMar-DeRozan-1053","7600","SG/SF","48.48","229.5","33.9","99.70","26.88","35.00","76.69","22.23","42.02","0","0"
"Ben Simmons","Ben-Simmons-35184","9200","PG/SF","46.49","234.5","35.0","108.33","26.14","36.00","71.82","30.37","50.79","0","0"
"Willie Cauley-Stein","Willie-Cauley-Stein-18951","5700","C","52.68","234.5","26.3","98.20","13.73","28.00","46.0","16.56","31.42","0","0"
"Treveon Graham","Treveon-Graham-36023","3300","SG/SF","32.19","221","25.7","114.62","10.95","28.00","28.62","5.71","18.18","0","0"
"Taurean Prince","Taurean-Prince-35218","4900","SF","35.27","235","27.3","105.10","17.10","27.00","47.99","6.92","27.02","0","0"
"Karl-Anthony Towns","Karl-Anthony-Towns-18937","9700","C","51.26","221.5","32.2","100.67","29.58","36.00","83.65","28.13","53.28","0","0"
"Hassan Whiteside","Hassan-Whiteside-18664","6600","C","50.75","204","22.7","106.90","21.02","26.00","50.55","15.82","36.11","0","0"
"Avery Bradley","Avery-Bradley-941","3700.00","SG/SF","37.86","215.5","35.9","108.38","16.07","31.00","38.36","6.3","20.19","0","0"
"Kenneth Faried","Kenneth-Faried-13313","6700","PF/C","52.25","223","30.7","101.42","20.04","34.00","56.97","19.17","36.52","0","0"
"Joe Harris","Joe-Harris-18587","4800","SG/SF","39.79","221","28.6","114.62","19.30","33.00","46.01","9.99","26.14","0","0"
"Kevin Durant","Kevin-Durant-1348","9300","SF/PF","44.33","236","34.8","103.10","29.91","35.00","74.24","25.83","50.54","0","0"
"Marvin Williams","Marvin-Williams-1318","4800","SF/PF","47.65","216","30.6","103.00","14.75","31.00","52.05","5.91","26.04","0","0"
"Bryn Forbes","Bryn-Forbes-36052","3900","PG/SG","52.49","229.5","30.1","99.70","15.59","29.00","33.38","5.53","21.1","0","0"
"Giannis Antetokounmpo","Giannis-Antetokounmpo-16852","10900","SF/PF","47.75","226.5","34.0","98.80","31.41","35.00","82.53","33.84","58.95","0","0"
"Eric Gordon","Eric-Gordon-1077","5000","SG/SF","41.48","223","32.5","101.42","22.91","33.00","45.12","9.71","27.05","0","0"
"Devin Booker","Devin-Booker-18949","8800","PG/SG","55.92","235","33.1","108.80","32.95","35.00","81.0","22.27","47.48","0","0"
"Joe Ingles","Joe-Ingles-18627","5500","SG/SF","37.66","223","33.5","98.88","17.16","31.00","47.17","12.19","29.52","0","0"
"Nikola Vucevic","Nikola-Vucevic-13296","9800","C","58.18","221","33.0","105.10","29.86","34.00","83.33","21.75","52.54","0","0"
"James Harden","James-Harden-1037","12500","PG/SG","48.65","223","38.1","101.42","43.22","38.00","93.65","46.76","66.89","0","0"
"Dorian Finney-Smith","Dorian-Finney-Smith-36032","3700","SF/PF","39.36","209.5","26.0","100.08","13.05","28.00","36.95","10.05","19.75","0","0"
"D.J. Wilson","D.J.-Wilson-37822","3500","PF/C","47.75","226.5","17.4","98.80","13.50","21.00","37.3","4.67","18.66","0","0"
"Bam Adebayo","Bam-Adebayo-37835","4200","PF/C","50.75","204","24.0","106.90","15.38","23.00","37.65","6.32","22.4","0","0"
"LaMarcus Aldridge","LaMarcus-Aldridge-1349","8100","PF/C","56.28","229.5","34.0","99.70","27.07","35.00","62.64","21.97","43.08","0","0"
"Kelly Oubre","Kelly-Oubre-18925","5900","SG/SF","42.50","235","30.5","108.80","23.58","31.00","56.13","10.04","31.27","0","0"
"Kemba Walker","Kemba-Walker-13335","8600","PG","52.59","216","34.7","103.00","26.69","35.00","84.67","21.83","45.47","0","0"
"Rudy Gay","Rudy-Gay-1341","5800","SF/PF","49.45","229.5","29.6","99.70","21.94","29.00","46.08","11.47","30.66","0","0"
"D'Angelo Russell","D'Angelo-Russell-18947","8200","PG/SG","53.46","221","30.3","114.62","36.07","33.00","66.99","19.18","43.3","0","0"
"Dario Saric","Dario-Saric-36004","3900","PF","48.61","221.5","20.4","100.67","11.55","20.00","35.05","6.05","20.57","0","0"
"Derrick White","Derrick-White-37858","5700","PG/SG","48.16","229.5","30.5","99.70","19.72","31.00","53.74","10.23","29.99","0","0"
"Harrison Barnes","Harrison-Barnes-13901","5800","SF/PF","48.85","209.5","33.1","100.08","23.09","34.00","48.51","11.93","30.51","0","0"
"Otto Porter","Otto-Porter-17069","5800","SF/PF","38.93","226.5","27.0","103.80","20.02","31.00","55.96","11.2","30.51","0","0"
"Andrew Wiggins","Andrew-Wiggins-18620","6300","SG/SF","43.10","221.5","37.9","100.67","28.38","35.00","51.42","14.45","33.07","0","0"
"Joel Embiid","Joel-Embiid-18578","10700","C","56.57","234.5","32.3","108.33","39.54","34.00","91.04","39.65","56.16","0","0"
"Malik Monk","Malik-Monk-37827","3500","PG/SG","52.59","216","19.8","103.00","24.62","22.00","35.71","5.16","18.36","0","0"
"Kentavious Caldwell-Pope","Kentavious-Caldwell-Pope-16869","4400","SG/SF","40.68","236","27.0","112.50","17.53","30.00","46.06","7.1","23.04","0","0"
"P.J. Tucker","P.J.-Tucker-13947","4400","SF/PF","31.56","223","36.6","101.42","10.29","35.00","36.65","7.15","23.05","0","0"
"Jarrett Allen","Jarrett-Allen-37794","5200","C","51.38","221","25.3","114.62","13.05","27.00","54.35","11.75","27.19","0","0"
"Terrence Ross","Terrence-Ross-13902","5300","SG/SF","30.56","221","29.4","105.10","23.79","31.00","55.39","6.98","27.71","0","0"
"Alec Burks","Alec-Burks-13353","5200","PG/SG","48.13","209.5","27.0","103.60","18.69","32.00","46.13","10.98","27.17","0","0"
"Shaquille Harrison","Shaquille-Harrison-36065","3300","PG/SF","43.37","216","16.9","104.50","9.79","20.00","34.46","4.93","17.24","0","0"
"Rudy Gobert","Rudy-Gobert-16935","8400","C","54.26","223","32.1","98.88","18.80","35.00","70.79","23.42","43.86","0","0"
"Brook Lopez","Brook-Lopez-1498","5100","C","59.20","226.5","30.6","98.80","13.89","30.00","48.08","10.75","26.55","0","0"
"Josh Hart","Josh-Hart-37889","3700","SG/SF","40.68","236","23.4","112.50","13.82","26.00","37.69","3.62","19.24","0","0"
"Bogdan Bogdanovic","Bogdan-Bogdanovic-37899","5800","SG/SF","48.12","234.5","28.5","98.20","27.17","31.00","59.22","10.39","30.12","0","0"
"Collin Sexton","Collin-Sexton-408896","4300","PG","55.40","209.5","29.4","103.60","23.84","30.00","31.23","12.96","22.31","0","0"
"Elie Okobo","Elie-Okobo-409300","3500","PG","43.89","235","17.5","108.80","15.77","24.00","25.42","14.38","18.16","0","0"
"Marco Belinelli","Marco-Belinelli-1033","4000","SG/SF","35.28","229.5","23.3","99.70","19.50","23.00","34.42","6.05","20.71","0","0"
"Bradley Beal","Bradley-Beal-13898","8500","SG","47.76","226.5","36.2","103.80","27.21","36.00","65.4","23.21","44.04","0","0"
"Kris Dunn","Kris-Dunn-35215","6700","PG/SG","50.95","216","32.5","104.50","21.26","34.00","58.66","19.64","34.63","0","0"
"Ricky Rubio","Ricky-Rubio-1001","6100","PG","40.71","223","25.4","98.88","26.68","30.00","49.55","13.8","31.5","0","0"
"Kyle Korver","Kyle-Korver-1269","3700","SG/SF","37.66","223","21.0","98.88","18.20","26.00","38.06","5.01","19.04","0","0"
"Kevin Huerter","Kevin-Huerter-408969","4400","SG/SF","36.98","235","27.9","105.10","19.95","30.00","31.71","18.32","22.65","0","0"
"Will Barton","Will-Barton-13982","6600","SG/SF","47.85","221.5","27.0","99.62","20.58","33.00","59.73","12.01","33.92","0","0"
"Ed Davis","Ed-Davis-1265","4000","C","51.38","221","21.7","114.62","12.85","20.00","41.08","6.04","20.55","0","0"
"DeMarre Carroll","DeMarre-Carroll-1174","4500","SF/PF","32.19","221","27.0","114.62","20.02","28.00","46.12","5.21","23.07","0","0"
"Jrue Holiday","Jrue-Holiday-1073","9100","PG/SG","53.80","229.5","37.1","104.88","28.09","37.00","74.81","22.31","46.58","0","0"
"Mason Plumlee","Mason-Plumlee-16798","4000","PF/C","50.45","221.5","17.6","99.62","20.65","19.00","39.94","5.32","20.48","0","0"
"Ian Clark","Ian-Clark-16922","3000","PG/SG","32.99","229.5","12.3","104.88","22.82","20.00","30.58","3.99","15.3","0","0"
"Buddy Hield","Buddy-Hield-35206","6700","SG/SF","33.48","234.5","33.3","98.20","22.53","34.00","58.82","14.79","34.08","0","0"
"Domantas Sabonis","Domantas-Sabonis-35217","5600","PF/C","48.59","204","22.5","107.67","21.15","26.00","53.3","4.17","28.38","0","0"
"Isaiah Briscoe","Isaiah-Briscoe-37868","3200","PG/SG","41.26","221","15.9","105.10","13.44","18.00","22.72","12.27","16.23","0","0"
"Kyle Kuzma","Kyle-Kuzma-37886","6300","SF/PF","48.30","236","32.1","112.50","23.39","34.00","47.31","16.61","31.88","0","0"
"Cheick Diallo","Cheick-Diallo-35225","3200","PF/C","50.89","229.5","12.7","104.88","20.84","15.00","32.36","4.91","16.19","0","0"
"Matthew Dellavedova","Matthew-Dellavedova-16839","3500","PG/SG","41.92","209.5","18.5","103.60","18.49","20.00","35.3","4.2","17.66","0","0"
"Lance Stephenson","Lance-Stephenson-947","4300","SG/SF","43.47","236","21.9","112.50","21.28","24.00","42.52","4.33","21.66","0","0"
"Blake Griffin","Blake-Griffin-1503","9300.00","PF/C","60.01","215.5","38.3","100.30","33.09","36.00","84.5","27.26","46.84","0","0"
"Montrezl Harrell","Montrezl-Harrell-18930","6800.00","PF/C","52.16","215.5","28.6","108.38","20.63","30.00","57.15","4.14","34.22","0","0"
"Jeremy Lamb","Jeremy-Lamb-13955","5900","SG/SF","46.52","216","25.3","103.00","21.43","30.00","50.79","13.19","29.7","0","0"
"Jordan Clarkson","Jordan-Clarkson-18631","5100","PG/SG","48.13","209.5","24.0","103.60","27.28","26.00","51.25","8.92","25.64","0","0"
"James Johnson","James-Johnson-1195","3900","PF/C","47.01","204","23.0","106.90","16.68","23.00","28.54","9.37","19.6","0","0"
"Tomas Satoransky ","Tomas-Satoransky--36031","5600","PG/SF","47.63","226.5","34.0","103.80","16.50","30.00","54.22","9.17","28.05","0","0"
"Wes Iwundu","Wes-Iwundu-37839","3100","SG/SF","33.68","221","14.8","105.10","7.18","20.00","31.04","4.05","15.53","0","0"
"D.J. Augustin","D.J.-Augustin-1064","4600","PG","41.26","221","28.3","105.10","19.53","28.00","41.28","9.29","23","0","0"
"Ryan Broekhoff","Ryan-Broekhoff-555205","3000","SG/SF","37.88","209.5","10.2","100.08","9.11","17.00","20.9","11.82","14.93","0","0"
"Bojan Bogdanovic","Bojan-Bogdanovic-18571","5400","SG/SF","36.61","204","31.5","107.67","20.95","34.00","44.0","8.68","26.78","0","0"
"Trevor Ariza","Trevor-Ariza-1323","5700","SF/PF","38.93","226.5","33.3","103.80","18.98","33.00","41.83","8.55","28.3","0","0"
"Josh Richardson","Josh-Richardson-18922","6200","SG/SF","47.54","204","34.4","106.90","19.38","34.00","48.6","12.8","30.7","0","0"
"James Ennis","James-Ennis-18599","3700","SF/PF","31.56","223","25.8","101.42","10.59","29.00","36.64","5.39","18.33","0","0"
"Kevon Looney","Kevon-Looney-18945","3900","PF/C","56.83","236","20.0","103.10","17.01","20.00","37.15","6.43","19.3","0","0"
"Dewayne Dedmon","Dewayne-Dedmon-16894","5800","PF/C","59.32","235","25.4","105.10","17.20","27.00","46.07","12.12","28.72","0","0"
"Kelly Olynyk","Kelly-Olynyk-16845","3800","PF/C","53.90","204","15.9","106.90","15.78","22.00","29.44","8.11","18.81","0","0"
"Nicolas Batum","Nicolas-Batum-1315","5000","SG/SF","38.74","216","33.2","103.00","14.25","32.00","42.57","10.6","24.72","0","0"
"Tyreke Evans","Tyreke-Evans-1070","4800","SG/SF","44.74","204","22.8","107.67","22.33","24.00","43.45","12.06","23.69","0","0"
"De'Aaron Fox","De'Aaron-Fox-37900","7400","PG","51.44","234.5","30.8","98.20","27.66","35.00","55.66","19.06","36.45","0","0"
"Luke Kennard","Luke-Kennard-37814","3800.00","SG/SF","33.98","215.5","21.5","100.30","19.52","23.00","34.8","6.01","18.62","0","0"
"DeAndre Bembry","DeAndre-Bembry-35198","4300","SG/SF","35.27","235","27.4","105.10","15.91","24.00","35.08","9.67","21.03","0","0"
"Jae Crowder","Jae-Crowder-13942","4600","SF/PF","37.92","223","29.0","98.88","18.73","27.00","44.84","4.87","22.43","0","0"
"Miles Bridges","Miles-Bridges-409262","3600","SF/PF","47.65","216","16.1","103.00","15.35","19.00","24.57","14.72","17.55","0","0"
"Jonathan Isaac","Jonathan-Isaac-37841","5100","SF/PF","48.12","221","28.8","105.10","15.05","28.00","42.41","7.11","24.86","0","0"
"Stephen Curry","Stephen-Curry-1079","9600","PG/SG","52.48","236","33.7","103.10","28.76","34.00","79.36","17.18","46.68","0","0"
"Zach LaVine","Zach-LaVine-18622","7200","PG/SG","50.95","216","33.6","104.50","29.77","33.00","53.38","16.99","34.75","0","0"
"Shabazz Napier","Shabazz-Napier-18598","5500","PG/SG","37.00","221","22.2","114.62","29.28","28.00","53.07","7.7","26.55","0","0"
"Wayne Selden","Wayne-Selden-36045","4500","SG/SF","50.95","216","24.8","104.50","15.29","33.00","37.32","8.2","21.7","0","0"
"Cory Joseph","Cory-Joseph-13339","4000","PG/SG","39.12","204","26.5","107.67","14.89","27.00","31.69","8.33","19.29","0","0"
"Royce O'Neale","Royce-O'Neale-37872","3500","SF","37.92","223","22.5","98.88","10.43","23.00","33.65","5.81","16.84","0","0"
"Lou Williams","Lou-Williams-1044","7200.00","PG/SG","45.42","215.5","28.9","108.38","34.48","30.00","69.11","7.67","34.57","0","0"
"Dwyane Wade","Dwyane-Wade-967","5000","PG/SG","47.54","204","25.3","106.90","27.95","24.00","38.63","7.23","23.95","0","0"
"JaVale McGee","JaVale-McGee-1485","4900","C","53.69","236","18.6","112.50","22.81","22.00","46.92","5.87","23.47","0","0"
"Darren Collison","Darren-Collison-1060","6300","PG","39.12","204","28.5","107.67","22.16","32.00","49.19","13.66","30.16","0","0"
"Langston Galloway","Langston-Galloway-18717","3400.00","PG/SG","33.98","215.5","20.3","100.30","13.69","21.00","32.42","4.05","16.22","0","0"
"Lauri Markkanen","Lauri-Markkanen-37809","7100","PF","49.34","216","33.5","104.50","21.33","33.00","57.76","14.49","33.78","0","0"
"Nikola Jokic","Nikola-Jokic-31812","10600","C","52.53","221.5","33.6","99.62","29.15","34.00","73.95","30.2","50.41","0","0"
"Jordan McRae","Jordan-McRae-18772","3100","PG/SG","47.63","226.5","9.9","103.80","21.85","18.00","29.47","4.42","14.74","0","0"
"Marcin Gortat","Marcin-Gortat-1479","3300.00","C","51.72","215.5","14.0","108.38","15.43","15.00","28.33","7.11","15.62","0","0"
"Taj Gibson","Taj-Gibson-1277","4300","PF/C","51.95","221.5","25.2","100.67","16.00","25.00","34.51","7.69","20.3","0","0"
"Brandon Ingram","Brandon-Ingram-35227","6100","SG/SF","43.47","236","36.8","112.50","22.16","34.00","43.66","12.15","28.78","0","0"
"Davis Bertans","Davis-Bertans-36051","4100","SF/PF","56.28","229.5","27.1","99.70","17.35","23.00","38.72","5.09","19.37","0","0"
"Myles Turner","Myles-Turner-18915","6500","C","54.79","204","29.8","107.67","18.81","29.00","59.8","9.37","30.62","0","0"
"Frank Jackson","Frank-Jackson-37855","3500","PG/SG","53.80","229.5","21.5","104.88","20.72","22.00","23.04","12.82","16.46","0","0"
"John Collins","John-Collins-37823","7900","PF/C","59.32","235","28.7","105.10","24.05","30.00","68.25","14.76","37.09","0","0"
"Larry Nance","Larry-Nance-18946","5700","PF/C","54.02","209.5","21.0","103.60","15.82","25.00","53.39","3.34","26.71","0","0"
"Rodions Kurucs","Rodions-Kurucs-408801","3800","SF/PF","49.61","221","23.6","114.62","19.52","21.00","24.96","12.39","17.83","0","0"
"Devin Harris","Devin-Harris-1076","3800","PG/SG","55.62","209.5","15.6","100.08","20.72","20.00","35.66","4.46","17.84","0","0"
"Derrick Favors","Derrick-Favors-1266","5100","PF/C","54.65","223","21.7","98.88","16.75","24.00","40.06","10.53","23.93","0","0"
"Cedi Osman","Cedi-Osman-18912","5800","SF/PF","36.11","209.5","34.9","103.60","21.72","35.00","45.03","13.26","27.11","0","0"
"Gerald Green","Gerald-Green-13374","3900","SG/SF","41.48","223","21.8","101.42","18.37","22.00","33.2","5.18","18.12","0","0"
"Austin Rivers","Austin-Rivers-13903","4700","PG/SG","43.01","223","31.3","101.42","12.24","35.00","43.44","5.11","21.73","0","0"
"Patty Mills","Patty-Mills-13977","4100","PG/SG","48.16","229.5","23.6","99.70","20.99","22.00","37.84","4.73","18.93","0","0"
"Justise Winslow","Justise-Winslow-18921","6100","PG/SF","47.61","204","31.5","106.90","20.19","32.00","46.57","13.62","27.92","0","0"
"Trey Lyles","Trey-Lyles-18942","3600","SF/PF","51.02","221.5","17.0","99.62","23.21","16.00","32.0","4.71","16.47","0","0"
"Iman Shumpert","Iman-Shumpert-13350","3800","SG/SF","33.48","234.5","29.8","98.20","15.96","24.00","30.31","5.47","17.3","0","0"
"Tim Frazier","Tim-Frazier-18743","3800","PG","43.22","229.5","14.4","104.88","18.76","21.00","34.5","4.5","17.26","0","0"
"Donovan Mitchell","Donovan-Mitchell-37875","8700","PG/SG","50.01","223","34.5","98.88","34.88","34.00","64.57","16.39","39.3","0","0"
"Dirk Nowitzki","Dirk-Nowitzki-1346","3000","PF/C","52.06","209.5","10.8","100.08","21.30","12.00","22.16","2.3","13.47","0","0"
"Justin Jackson","Justin-Jackson-37895","3300","SF/PF","33.48","234.5","17.8","98.20","12.96","20.00","28.78","4.04","14.81","0","0"
"Jalen Brunson","Jalen-Brunson-409062","4200","PG/SG","44.31","209.5","17.3","100.08","21.32","23.00","26.26","13.04","18.76","0","0"
"Rajon Rondo","Rajon-Rondo-1085","6800","PG","38.96","236","38.0","112.50","17.82","34.00","45.59","9.7","30.21","0","0"
"Tony Parker","Tony-Parker-982","3600","PG","41.73","216","18.3","103.00","30.26","16.00","28.19","4.14","15.87","0","0"
"Trae Young","Trae-Young-409063","7500","PG","52.66","235","32.2","105.10","29.44","33.00","46.23","26.71","33.02","0","0"
"Richaun Holmes","Richaun-Holmes-18905","5300","PF/C","54.72","235","23.8","108.80","11.49","20.00","46.54","4.91","23.28","0","0"
"Tobias Harris","Tobias-Harris-13332","8500.00","SF/PF","45.06","215.5","38.1","108.38","22.77","35.00","59.45","16.93","37.2","0","0"
"Zaza Pachulia","Zaza-Pachulia-1455","3500.00","C","58.95","215.5","20.7","100.30","13.38","14.00","26.5","5.33","15.18","0","0"
"Robin Lopez","Robin-Lopez-1466","4000","C","53.42","216","19.6","104.50","16.79","24.00","33.96","6.18","17.21","0","0"
"Alex Len","Alex-Len-16886","4300","C","59.32","235","16.7","105.10","27.23","17.00","34.98","7.67","18.43","0","0"
"Sam Dekker","Sam-Dekker-18929","3300","SF/PF","38.93","226.5","18.8","103.80","13.30","16.00","25.93","2.47","14.06","0","0"
"Jeff Green","Jeff-Green-1314","4700","SF/PF","45.09","226.5","29.2","103.80","20.49","25.00","40.04","5.01","20.03","0","0"
"Shaun Livingston","Shaun-Livingston-14007","3000","PG","37.28","236","14.6","103.10","13.84","16.00","25.31","3.49","12.66","0","0"
"Thaddeus Young","Thaddeus-Young-1289","5700","SF/PF","49.43","204","28.0","107.67","18.76","31.00","36.51","10.97","23.91","0","0"
"Ian Mahinmi","Ian-Mahinmi-1357","3200","C","48.69","226.5","17.2","103.80","8.62","14.00","26.73","2.23","13.37","0","0"
"Derrick Rose","Derrick-Rose-1086","5800","PG/SG","50.09","221.5","24.3","100.67","28.26","24.00","48.28","6.04","24.15","0","0"
"Ante Zizic","Ante-Zizic-35180","6000","C","49.96","209.5","29.7","103.60","18.81","27.00","41.34","10.52","24.86","0","0"
"Michael Beasley","Michael-Beasley-1338","3800","SF/PF","48.30","236","13.7","112.50","27.08","14.00","30.16","3.81","15.66","0","0"
"Nene Hilario","Nene-Hilario-17321","3300","C","52.25","223","11.5","101.42","9.55","14.00","25.71","3.87","13.53","0","0"
"Nemanja Bjelica","Nemanja-Bjelica-31814","4500","PF","47.94","234.5","18.3","98.20","18.20","18.00","30.26","7.83","18.25","0","0"
"Kent Bazemore","Kent-Bazemore-13987","5000","SG/SF","49.97","235","18.2","105.10","22.48","19.00","34.0","7.29","20.32","0","0"
"Dion Waiters","Dion-Waiters-13897","4000","SG/SF","47.54","204","23.1","106.90","21.40","20.00","32.4","5.4","16.21","0","0"
"Gorgui Dieng","Gorgui-Dieng-16939","3500","PF/C","51.95","221.5","11.7","100.67","16.73","14.00","24.95","3.77","14.07","0","0"
"Ish Smith","Ish-Smith-13958","3400.00","PG","43.52","215.5","0","100.30","0","20.00","18.11","12.03","13.67","0","0"
"Solomon Hill","Solomon-Hill-16863","3300","SF/PF","37.95","229.5","21.8","104.88","11.02","21.00","26.53","3.49","13.27","0","0"
"Corey Brewer","Corey-Brewer-1278","3400","SG/SF","41.51","234.5","25.1","108.33","18.17","18.00","27.17","5.18","13.59","0","0"
"Thomas Bryant ","Thomas-Bryant--37884","5200","PF/C","56.49","226.5","23.3","103.80","16.20","22.00","41.48","2.47","20.75","0","0"
"Jeremy Lin","Jeremy-Lin-916","4200","PG/SG","52.66","235","21.0","105.10","24.27","19.00","31.65","4.78","16.7","0","0"
"Ryan Arcidiacono","Ryan-Arcidiacono-36050","3600","PG","43.37","216","19.1","104.50","13.22","17.00","28.51","4.28","14.26","0","0"
"Bismack Biyombo","Bismack-Biyombo-13312","3800","C","55.65","216","22.1","103.00","11.69","15.00","25.31","4.44","14.8","0","0"
"Bruce Brown","Bruce-Brown-408913","3400.00","PG/SG","33.98","215.5","20.7","100.30","12.28","20.00","18.41","10.41","13.15","0","0"
"Brandon Sampson","Brandon-Sampson-592172","3000","PG/SG","37.56","216","11.9","104.50","6.69","13.00","16.11","9.12","11.51","0","0"
"Jerryd Bayless","Jerryd-Bayless-1021","5400","PG/SG","43.10","221.5","33.4","100.67","21.98","32.00","41.08","6.04","20.55","0","0"
"Troy Daniels","Troy-Daniels-17383","3100","SG","42.09","235","10.7","108.80","15.95","12.00","23.09","3.65","11.55","0","0"
"Ivica Zubac","Ivica-Zubac-35226","4500","C","53.69","236","22.1","112.50","23.88","22.00","31.23","8.35","16.69","0","0"
"Chasson Randle","Chasson-Randle-36002","3300","PG/SG","47.63","226.5","14.6","103.80","17.81","15.00","24.03","2.88","12.02","0","0"
"Omari Spellman","Omari-Spellman-408970","3300","PF/C","47.74","235","17.2","105.10","13.06","14.00","16.04","8.93","11.46","0","0"
"Jonah Bolden","Jonah-Bolden-554969","3400","PF","50.10","234.5","12.1","108.33","13.99","18.00","15.93","9.01","11.38","0","0"
"Aaron Holiday","Aaron-Holiday-408932","3800","PG/SG","39.12","204","12.9","107.67","21.96","16.00","17.29","9.78","12.35","0","0"
"Mike Scott","Mike-Scott-13999","3000.00","SF/PF","45.06","215.5","12.9","108.38","18.60","11.00","18.45","1.74","9.23","0","0"
"Jerome Robinson","Jerome-Robinson-409263","3200.00","SG","52.05","215.5","13.4","108.38","13.07","14.00","13.71","7.63","9.79","0","0"
"Luol Deng","Luol-Deng-1328","3300","SF/PF","37.34","221.5","16.2","100.67","13.40","14.00","19.85","3.31","9.93","0","0"
"David Nwaba","David-Nwaba-36526","3000","SG/SF","36.11","209.5","0","103.60","0","15.00","11.54","7.99","8.88","0","0"
"Khem Birch","Khem-Birch-37838","3100","PF/C","60.40","221","0","105.10","0","12.00","15.11","3.37","9.16","0","0"
"Alfonzo McKinnie","Alfonzo-McKinnie-37808","3200","SF/PF","36.30","236","17.0","103.10","11.31","16.00","18.61","3.29","9.31","0","0"
"Isaiah Canaan","Isaiah-Canaan-16875","3000","PG","50.09","221.5","13.0","100.67","13.30","10.00","16.56","2.95","8.58","0","0"
"Juancho Hernangomez","Juancho-Hernangomez-35212","3300","SF/PF","51.02","221.5","9.7","99.62","9.65","11.00","18.51","1.92","9.26","0","0"
"Stanley Johnson","Stanley-Johnson-18913","3700.00","SF/PF","34.89","215.5","17.9","100.30","13.82","12.00","19.78","2.27","10.22","0","0"
"Jakob Poeltl","Jakob-Poeltl-35187","3200","C","51.43","229.5","9.9","99.70","11.44","8.00","17.55","1.83","8.78","0","0"
"Harry Giles","Harry-Giles-37897","3600","PF/C","47.94","234.5","16.0","98.20","20.76","11.00","13.55","7.32","9.68","0","0"
"Shake Milton","Shake-Milton-409061","3000","PG/SG","54.60","234.5","20.5","108.33","14.32","10.00","7.55","7.55","7.55","0","0"
"Furkan Korkmaz","Furkan-Korkmaz-35185","3100","SG/SF","41.51","234.5","7.1","108.33","20.07","10.00","15.15","1.93","7.58","0","0"
"Georges Niang","Georges-Niang-35193","3100","SF/PF","46.24","223","9.6","98.88","12.48","10.00","14.93","1.42","7.47","0","0"
"Yogi Ferrell","Yogi-Ferrell-35999","3400","PG/SG","51.44","234.5","17.9","98.20","17.10","10.00","16.2","2.21","8.21","0","0"
"Ersan Ilyasova","Ersan-Ilyasova-1301","3100","PF/C","47.75","226.5","9.3","98.80","9.78","8.00","12.85","1.21","7.09","0","0"
"Edmond Sumner","Edmond-Sumner-37818","3900","SG/SF","39.12","204","20.2","107.67","16.58","13.00","12.36","6.99","8.83","0","0"
"Pau Gasol","Pau-Gasol-1502","3100","C","56.28","229.5","8.6","99.70","22.05","5.00","12.37","2.8","6.86","0","0"
"TJ Leaf","TJ-Leaf-37817","3100","SF/PF","54.79","204","9.9","107.67","16.63","8.00","12.15","1.62","6.08","0","0"
"Antonio Blakeney","Antonio-Blakeney-37811","3100","PG/SG","37.56","216","5.7","104.50","19.43","5.00","9.88","0.99","4.94","0","0"
"Wayne Ellington","Wayne-Ellington-1009","3700","SG/SF","36.82","204","22.7","106.90","17.45","6.00","9.48","1.66","5.44","0","0"
"Sindarius Thornwell","Sindarius-Thornwell-37881","3000.00","SG/SF","34.89","215.5","5.3","108.38","12.23","7.00","8.52","0.82","4.26","0","0"
"Brandon Goodwin","Brandon-Goodwin-570160","3000","PG/SG","51.63","221.5","2.5","99.62","20.39","5.00","5.46","3.09","3.9","0","0"
"Jerian Grant","Jerian-Grant-18900","3200","PG","41.26","221","18.6","105.10","15.10","1.00","1.63","0.2","0.86","0","0"
