"nameCol","idCol","salaryCol","positionCol","dvpCol","ouCol","mpgCol","paceCol","usgCol","pminCol","ceilCol","floorCol","pointsCol","predictCol","actualCol"
"Lance Stephenson","Lance-Stephenson-947","3800","SG/SF","47.16","224.5","15.0","112.50","20.76","28.00","47.86","22.4","28.04","0","0"
"Bismack Biyombo","Bismack-Biyombo-13312","3400","C","59.50","224.5","16.7","103.00","17.93","24.00","35.99","17.11","24.72","0","0"
"Wendell Carter","Wendell-Carter-408878","5200","PF/C","58.31","207.5","27.0","104.50","16.99","32.00","40.08","10.81","35.34","0","0"
"Chandler Hutchison","Chandler-Hutchison-408877","3200","SF/PF","32.17","207.5","20.3","104.50","9.68","28.00","21.94","5.92","19.35","0","0"
"Ed Davis","Ed-Davis-1265","3700","C","55.40","207.5","19.6","114.62","12.54","22.00","39.52","17.35","23.48","0","0"
"Tyreke Evans","Tyreke-Evans-1070","3700","SG/SF","49.27","212","18.2","107.67","27.53","20.00","30.15","12.97","22.25","0","0"
"Kelly Oubre","Kelly-Oubre-18925","3800","SG/SF","38.82","224.5","21.7","108.80","19.19","25.00","39.09","18.59","22.7","0","0"
"De'Anthony Melton","De'Anthony-Melton-409081","3700","PG","52.05","224.5","23.0","108.80","14.53","23.00","24.2","8.92","21.92","0","0"
"James Johnson","James-Johnson-1195","4400","SF/PF","53.32","218.5","20.8","106.90","15.58","25.00","33.67","13.58","25.72","0","0"
"Jerami Grant","Jerami-Grant-18576","4600","PF","49.23","227","31.9","102.62","14.30","32.00","42.93","18.49","26.8","0","0"
"Jarrett Allen","Jarrett-Allen-37794","5800","C","55.40","207.5","23.3","114.62","17.91","27.00","41.84","18.18","30.3","0","0"
"Otto Porter","Otto-Porter-17069","5200","SF/PF","39.33","227","17.0","103.80","29.92","28.00","46.54","25.18","30.16","0","0"
"Josh Jackson","Josh-Jackson-37890","4100","SF/PF","49.42","224.5","21.6","108.80","21.43","22.00","33.34","14.87","23.75","0","0"
"Josh Okogie","Josh-Okogie-409174","4500","SG/SF","49.88","224.5","21.0","100.67","16.68","29.00","24.61","9.07","22.29","0","0"
"Jonathan Isaac","Jonathan-Isaac-37841","3700","SF/PF","55.35","219.5","26.4","105.10","15.42","27.00","33.63","16.17","21.11","0","0"
"Patrick Beverley","Patrick-Beverley-14108","4300","PG/SG","37.14","219.5","26.0","108.38","13.14","25.00","37.92","21.01","21.01","0","0"
"Kevin Huerter","Kevin-Huerter-408969","4300","SG/SF","37.06","218.5","33.6","105.10","17.27","34.00","26.87","9.91","24.34","0","0"
"Taj Gibson","Taj-Gibson-1277","4600","PF/C","57.54","224.5","26.1","100.67","15.69","26.00","33.85","13.8","24.82","0","0"
"Kentavious Caldwell-Pope","Kentavious-Caldwell-Pope-16869","5300","SG/SF","40.15","224.5","27.9","112.50","18.55","34.00","51.83","24.04","27.57","0","0"
"Danny Green","Danny-Green-940","4200","SG/SF","34.73","212","29.2","105.50","12.11","29.00","33.84","16.37","23.65","0","0"
"Delon Wright","Delon-Wright-18907","3600","PG/SG","35.59","212","19.2","105.50","18.72","24.00","34.17","17.1","20.02","0","0"
"Shabazz Napier","Shabazz-Napier-18598","3600","PG/SG","40.36","207.5","18.6","114.62","24.36","21.00","36.3","16.27","19.89","0","0"
"Kris Dunn","Kris-Dunn-35215","6900","PG/SG","49.87","207.5","31.3","104.50","22.15","32.00","47.68","17.2","33.65","0","0"
"Russell Westbrook","Russell-Westbrook-1083","11100","PG","55.92","227","36.3","102.62","37.03","35.00","67.98","20.46","60.7","0","0"
"Dennis Schroder","Dennis-Schroder-18595","5300","PG/SG","55.92","227","30.6","102.62","24.54","26.00","44.33","23.73","29.01","0","0"
"D.J. Augustin","D.J.-Augustin-1064","4800","PG","43.91","219.5","30.0","105.10","20.37","30.00","38.3","12.58","23.47","0","0"
"Zach LaVine","Zach-LaVine-18622","6700","PG/SG","49.87","207.5","29.6","104.50","27.58","33.00","47.15","20.32","34.04","0","0"
"Mikal Bridges","Mikal-Bridges-408842","4200","SG/SF","38.82","224.5","32.4","108.80","11.93","32.00","24.93","9.19","22.58","0","0"
"Jeremy Lin","Jeremy-Lin-916","3900","PG/SG","50.29","218.5","19.1","105.10","22.49","20.00","32.13","15.57","20.81","0","0"
"Devin Booker","Devin-Booker-18949","8900","PG/SG","52.05","224.5","34.4","108.80","34.14","36.00","70.72","25.78","47.56","0","0"
"Jeff Green","Jeff-Green-1314","4900","SF/PF","46.85","227","29.2","103.80","18.38","33.00","38.8","19.44","26.09","0","0"
"Michael Beasley","Michael-Beasley-1338","3300","SF/PF","53.08","224.5","11.0","112.50","18.51","14.00","25.04","13.46","15.91","0","0"
"Hassan Whiteside","Hassan-Whiteside-18664","7700","C","55.95","218.5","25.5","106.90","21.30","27.00","52.33","19.75","40.72","0","0"
"Dewayne Dedmon","Dewayne-Dedmon-16894","5200","PF/C","49.74","218.5","26.8","105.10","21.57","26.00","39.02","16.23","27.46","0","0"
"JaVale McGee","JaVale-McGee-1485","5700","C","50.50","224.5","22.3","112.50","26.45","24.00","39.4","17.03","27.38","0","0"
"Dwyane Wade","Dwyane-Wade-967","4800","PG/SG","51.04","218.5","24.2","106.90","27.86","22.00","36.11","16.78","25.27","0","0"
"Serge Ibaka","Serge-Ibaka-1294","6200","PF/C","47.13","212","29.2","105.50","22.09","29.00","45.34","18.64","32.48","0","0"
"Rodions Kurucs","Rodions-Kurucs-408801","3900","SF/PF","47.66","207.5","25.2","114.62","17.41","25.00","24.31","4.87","23.51","0","0"
"DeAndre Bembry","DeAndre-Bembry-35198","4600","SG/SF","37.61","218.5","26.0","105.10","16.83","30.00","36.02","18.97","23.98","0","0"
"Aaron Gordon","Aaron-Gordon-18601","7000","SF/PF","53.81","219.5","34.9","105.10","17.71","34.00","47.49","20.24","36.73","0","0"
"Nikola Vucevic","Nikola-Vucevic-13296","9500","C","55.35","219.5","30.1","105.10","26.42","34.00","62.64","23.68","48.04","0","0"
"DeMarre Carroll","DeMarre-Carroll-1174","5600","SF/PF","38.48","207.5","29.0","114.62","16.44","27.00","40.68","19.39","24.3","0","0"
"Tobias Harris","Tobias-Harris-13332","7100","SF/PF","49.31","219.5","32.2","108.38","22.29","34.00","48.59","19.59","36.62","0","0"
"John Collins","John-Collins-37823","7100","PF/C","49.74","218.5","30.2","105.10","22.46","32.00","56.33","22.94","36.65","0","0"
"OG Anunoby","OG-Anunoby-37807","3300","SF/PF","34.73","212","19.5","105.50","11.53","23.00","31.45","16.98","16.98","0","0"
"Michael Kidd-Gilchrist","Michael-Kidd-Gilchrist-13896","3400","SF/PF","34.67","224.5","17.1","103.00","15.35","19.00","29.14","14.81","17.48","0","0"
"Willy Hernangomez","Willy-Hernangomez-18901","4100","C","59.50","224.5","15.0","103.00","26.32","16.00","37.29","20.36","21.03","0","0"
"Trevor Ariza","Trevor-Ariza-1323","5900","SF/PF","39.33","227","37.5","103.80","19.27","36.00","39.93","14.83","30.27","0","0"
"Richaun Holmes","Richaun-Holmes-18905","3500","PF/C","52.72","224.5","15.0","108.80","18.61","16.00","30.63","12.59","17.89","0","0"
"Domantas Sabonis","Domantas-Sabonis-35217","6800","PF/C","50.97","212","27.2","107.67","24.82","27.00","51.84","26.26","34.65","0","0"
"Trae Young","Trae-Young-409063","6400","PG","50.29","218.5","29.6","105.10","27.02","30.00","35.9","13.24","32.52","0","0"
"Josh Richardson","Josh-Richardson-18922","7000","SG/SF","51.04","218.5","35.0","106.90","21.25","35.00","51.9","21.38","35.4","0","0"
"Joe Harris","Joe-Harris-18587","5400","SG/SF","34.96","207.5","29.8","114.62","17.29","30.00","37.05","16.83","25.27","0","0"
"Andrew Wiggins","Andrew-Wiggins-18620","6100","SG/SF","49.88","224.5","37.4","100.67","24.17","35.00","43.61","18.91","33.24","0","0"
"Bradley Beal","Bradley-Beal-13898","9000","SG","46.00","227","36.2","103.80","29.86","37.00","71.19","30.65","45.14","0","0"
"Evan Fournier","Evan-Fournier-13913","5500","SG/SF","33.84","219.5","29.4","105.10","20.92","31.00","34.1","14.15","26.6","0","0"
"Kemba Walker","Kemba-Walker-13335","9200","PG","54.58","224.5","32.7","103.00","30.72","35.00","60.23","22.57","46.15","0","0"
"Alex Len","Alex-Len-16886","4900","C","49.74","218.5","25.8","105.10","29.76","24.00","35.14","17.35","24.57","0","0"
"Deandre Ayton","Deandre-Ayton-409301","7800","C","52.72","224.5","33.0","108.80","18.82","33.00","42.93","15.83","38.89","0","0"
"Karl-Anthony Towns","Karl-Anthony-Towns-18937","10300","C","57.31","224.5","34.9","100.67","30.01","36.00","66.66","27.91","49.23","0","0"
"Danilo Gallinari","Danilo-Gallinari-1329","7200","SF/PF","49.31","219.5","31.8","108.38","22.75","34.00","48.19","19.28","34.62","0","0"
"D'Angelo Russell","D'Angelo-Russell-18947","7900","PG/SG","52.62","207.5","31.6","114.62","33.85","31.00","50.91","18.25","36.65","0","0"
"Cory Joseph","Cory-Joseph-13339","3600","PG","40.93","212","26.6","107.67","13.04","26.00","31.27","13.5","17.83","0","0"
"Jeff Teague","Jeff-Teague-1005","6400","PG","52.74","224.5","28.0","100.67","26.89","32.00","43.65","15.73","30.72","0","0"
"Lauri Markkanen","Lauri-Markkanen-37809","6800","PF","48.26","207.5","33.3","104.50","23.47","34.00","46.05","19.48","32.09","0","0"
"Terrence Ross","Terrence-Ross-13902","4200","SG/SF","33.84","219.5","25.1","105.10","21.18","25.00","33.65","18.54","21.74","0","0"
"Steven Adams","Steven-Adams-16848","7400","C","56.90","227","34.0","102.62","13.89","35.00","49.11","24.06","36.24","0","0"
"Brandon Ingram","Brandon-Ingram-35227","7300","PG/SG","47.16","224.5","35.0","112.50","25.93","36.00","50.43","20.98","33.09","0","0"
"Tony Parker","Tony-Parker-982","3300","PG","45.40","224.5","14.8","103.00","23.49","17.00","27.34","15.98","15.98","0","0"
"Pascal Siakam","Pascal-Siakam-35186","6500","PF/C","54.31","212","31.8","105.50","20.86","32.00","46.08","17.94","31.37","0","0"
"Kyle Lowry","Kyle-Lowry-1057","7000","PG","48.25","212","30.0","105.50","29.72","31.00","63.75","29.4","33.75","0","0"
"Marvin Williams","Marvin-Williams-1318","5000","SF/PF","48.60","224.5","31.1","103.00","16.44","30.00","40.13","20.37","23.96","0","0"
"Victor Oladipo","Victor-Oladipo-16807","8500","PG/SG","46.96","212","33.0","107.67","27.29","33.00","56.2","24.69","40.61","0","0"
"Thomas Bryant ","Thomas-Bryant--37884","5800","PF/C","51.64","227","26.0","103.80","15.07","29.00","46.27","21.7","27.61","0","0"
"Tomas Satoransky ","Tomas-Satoransky--36031","5700","PG/SG","48.53","227","29.8","103.80","16.48","34.00","38.65","15.23","27.05","0","0"
"Kelly Olynyk","Kelly-Olynyk-16845","4000","PF/C","59.73","218.5","19.5","106.90","14.68","19.00","28.23","14.3","18.91","0","0"
"Jared Dudley","Jared-Dudley-1319","3300","SF/PF","38.48","207.5","26.7","114.62","10.46","27.00","24.22","11.45","16.5","0","0"
"Shai Gilgeous-Alexander","Shai-Gilgeous-Alexander-408990","4200","PG/SG","37.14","219.5","21.3","108.38","17.09","23.00","22.34","6.03","19.7","0","0"
"Thaddeus Young","Thaddeus-Young-1289","5600","SF/PF","46.78","212","32.2","107.67","16.13","31.00","37.57","13.8","26.13","0","0"
"Fred VanVleet","Fred-VanVleet-36011","5400","PG/SG","35.59","212","31.3","105.50","18.12","28.00","33.82","14.69","25.03","0","0"
"TJ Warren","TJ-Warren-18634","6300","SF/PF","49.42","224.5","31.3","108.80","22.55","30.00","38.36","16.77","29.17","0","0"
"Paul George","Paul-George-1245","10300","SF/PF","49.23","227","35.5","102.62","34.80","36.00","65.92","29.13","47.29","0","0"
"Lou Williams","Lou-Williams-1044","6500","PG/SG","46.82","219.5","26.8","108.38","35.47","26.00","45.88","18.97","30.65","0","0"
"Dario Saric","Dario-Saric-36004","4100","PF","45.72","224.5","21.0","100.67","20.15","20.00","33.08","15.86","19.56","0","0"
"Avery Bradley","Avery-Bradley-941","3500","SG","40.50","219.5","28.5","108.38","14.75","29.00","24.85","10.46","17.07","0","0"
"Bobby Portis","Bobby-Portis-18909","5000","PF/C","58.31","207.5","0","104.50","0","20.00","41.08","19.01","22.47","0","0"
"Gorgui Dieng","Gorgui-Dieng-16939","3200","PF/C","57.54","224.5","12.6","100.67","13.01","13.00","22.03","10.53","14.35","0","0"
"Spencer Dinwiddie","Spencer-Dinwiddie-18588","6300","PG/SG","52.62","207.5","27.5","114.62","28.89","30.00","44.63","20.21","28.96","0","0"
"Jonathon Simmons","Jonathon-Simmons-31808","3600","PG/SF","49.61","219.5","17.8","105.10","25.03","19.00","23.67","12.74","15.58","0","0"
"Justise Winslow","Justise-Winslow-18921","6900","PG/SF","43.93","218.5","30.5","106.90","24.59","31.00","47.43","18.0","30.72","0","0"
"Lonzo Ball","Lonzo-Ball-37885","7600","PG","35.60","224.5","32.6","112.50","20.26","34.00","45.84","17.29","34.11","0","0"
"Darren Collison","Darren-Collison-1060","5300","PG","40.93","212","25.2","107.67","17.07","27.00","32.19","14.24","23.46","0","0"
"Vince Carter","Vince-Carter-1066","3200","SF/PF","37.06","218.5","17.0","105.10","21.57","18.00","24.31","12.29","14.05","0","0"
"Daniel Hamilton","Daniel-Hamilton-35210","3400","SG/SF","37.06","218.5","15.0","105.10","16.57","19.00","16.43","6.06","14.88","0","0"
"Terrance Ferguson","Terrance-Ferguson-37871","3000","SG/SF","40.27","227","17.3","102.62","11.96","23.00","21.64","8.73","13.15","0","0"
"Miles Bridges","Miles-Bridges-409262","3400","SF/PF","48.60","224.5","16.5","103.00","14.17","16.00","15.69","3.62","14.82","0","0"
"Antonio Blakeney","Antonio-Blakeney-37811","3300","PG/SG","29.50","207.5","12.6","104.50","26.36","14.00","22.3","10.84","13.46","0","0"
"Josh Hart","Josh-Hart-37889","6000","PG/SG","40.15","224.5","32.7","112.50","16.38","34.00","37.32","18.51","26.83","0","0"
"Myles Turner","Myles-Turner-18915","6700","C","53.67","212","26.0","107.67","20.08","27.00","47.42","21.67","28.97","0","0"
"Rodney McGruder","Rodney-McGruder-16850","3500","SG/SF","41.87","218.5","20.8","106.90","18.02","20.00","23.68","10.14","15","0","0"
"Norman Powell","Norman-Powell-18908","3700","SG/SF","35.61","212","20.0","105.50","19.40","21.00","30.84","15.83","15.83","0","0"
"Nicolas Batum","Nicolas-Batum-1315","4700","SG/SF","34.67","224.5","30.9","103.00","10.99","30.00","27.58","14.14","19.77","0","0"
"Montrezl Harrell","Montrezl-Harrell-18930","6600","PF/C","49.77","219.5","23.5","108.38","27.00","28.00","45.31","23.44","29.97","0","0"
"Bam Adebayo","Bam-Adebayo-37835","4300","PF/C","55.95","218.5","21.0","106.90","16.51","19.00","25.66","15.28","17.28","0","0"
"Greg Monroe","Greg-Monroe-1487","3600","C","50.06","212","13.2","105.50","18.30","13.00","19.64","8.44","14.42","0","0"
"Jeremy Lamb","Jeremy-Lamb-13955","6100","SG/SF","48.75","224.5","31.0","103.00","21.21","25.00","31.54","21.35","24.26","0","0"
"Malik Monk","Malik-Monk-37827","3600","PG/SG","54.58","224.5","17.0","103.00","24.62","16.00","21.94","11.8","14.3","0","0"
"Tyus Jones","Tyus-Jones-18938","4200","PG","35.71","224.5","29.9","100.67","16.38","27.00","41.51","21.86","22.72","0","0"
"Nerlens Noel","Nerlens-Noel-18575","3500","C","56.90","227","12.6","102.62","12.34","13.00","23.47","11.4","13.33","0","0"
"Tyson Chandler","Tyson-Chandler-1482","3300","C","50.50","224.5","17.0","112.50","12.56","14.00","24.17","12.53","12.53","0","0"
"Bojan Bogdanovic","Bojan-Bogdanovic-18571","5500","SG/SF","36.08","212","31.4","107.67","21.06","30.00","32.54","16.53","20.79","0","0"
"Sam Dekker","Sam-Dekker-18929","3200","SF/PF","39.33","227","18.0","103.80","17.33","15.00","20.47","10.16","12.07","0","0"
"Mohamed Bamba","Mohamed-Bamba-409026","4000","C","57.65","219.5","14.9","105.10","19.37","18.00","15.94","2.92","15.77","0","0"
"Marcin Gortat","Marcin-Gortat-1479","3800","C","52.39","219.5","13.8","108.38","19.99","12.00","17.83","7.43","12.45","0","0"
"Chasson Randle","Chasson-Randle-36002","3200","PG/SG","48.53","227","14.5","103.80","21.48","14.00","19.0","9.52","11.67","0","0"
"Doug McDermott","Doug-McDermott-18583","3000","SF/PF","36.08","212","17.2","107.67","14.36","19.00","21.53","10.77","10.77","0","0"
"Wayne Selden","Wayne-Selden-36045","3200","SG/SF","49.87","207.5","8.8","104.50","24.41","15.00","20.62","11.34","11.34","0","0"
"Wes Iwundu","Wes-Iwundu-37839","3200","SG/SF","34.14","219.5","15.5","105.10","14.64","18.00","22.51","11.26","11.26","0","0"
"Derrick Jones","Derrick-Jones-36064","4500","SF/PF","41.87","218.5","20.3","106.90","13.28","20.00","28.97","15.79","15.79","0","0"
"Tyler Johnson","Tyler-Johnson-18720","5100","PG/SG","56.54","218.5","25.8","106.90","21.88","22.00","27.54","12.67","17.84","0","0"
"Sviatoslav Mykhailiuk","Sviatoslav-Mykhailiuk-409280","3000","SG/SF","39.91","224.5","5.4","112.50","19.57","12.00","10.46","2.57","9.85","0","0"
"Tyrone Wallace","Tyrone-Wallace-35220","3200","PG/SG","46.82","219.5","10.5","108.38","15.58","14.00","16.77","10.2","10.2","0","0"
"Abdel Nader","Abdel-Nader-35179","3400","SF","36.08","227","16.0","102.62","16.20","17.00","21.27","10.64","10.64","0","0"
"Anthony Tolliver","Anthony-Tolliver-1263","3500","SF/PF","45.72","224.5","18.7","100.67","13.72","14.00","19.01","10.05","10.05","0","0"
"Jamal Crawford","Jamal-Crawford-1075","3400","PG/SG","49.42","224.5","13.3","108.80","20.13","12.00","17.6","10.03","10.03","0","0"
"Robin Lopez","Robin-Lopez-1466","3100","C","62.52","207.5","15.0","104.50","22.01","9.00","17.85","9.05","9.05","0","0"
"Shaquille Harrison","Shaquille-Harrison-36065","3400","PG/SG","39.40","207.5","21.7","104.50","15.16","11.00","14.94","7.25","9.23","0","0"
"Patrick Patterson","Patrick-Patterson-1260","3000","PF/C","60.69","227","12.6","102.62","13.43","13.00","14.44","7.32","8.28","0","0"
"C.J. Miles","C.J.-Miles-1299","3200","SG/SF","34.73","212","11.0","105.50","16.93","9.00","13.74","6.71","8.33","0","0"
"Mike Scott","Mike-Scott-13999","3100","SF/PF","49.31","219.5","12.5","108.38","13.73","10.00","16.93","10.02","8.47","0","0"
"Elie Okobo","Elie-Okobo-409300","3400","PG","43.24","224.5","14.0","108.80","18.26","11.00","8.83","1.68","8.56","0","0"
"Ryan Arcidiacono","Ryan-Arcidiacono-36050","3300","PG","39.40","207.5","22.2","104.50","9.44","12.00","15.19","7.4","8.49","0","0"
"Justin Anderson","Justin-Anderson-18927","3100","SF/PF","37.61","218.5","11.6","105.10","15.35","7.00","11.62","5.48","7.37","0","0"
"Hamidou Diallo","Hamidou-Diallo-408800","3000","SG/SF","40.27","227","10.6","102.62","16.19","10.00","7.19","1.37","6.97","0","0"
"Ian Mahinmi","Ian-Mahinmi-1357","3200","C","50.12","227","16.0","103.80","14.28","8.00","13.14","6.44","7.37","0","0"
"Ivica Zubac","Ivica-Zubac-35226","3700","C","50.50","224.5","20.3","112.50","20.59","10.00","14.09","6.94","8.56","0","0"
"Devonte' Graham","Devonte'-Graham-408968","3800","PG/SG","45.40","224.5","20.2","103.00","19.80","12.00","8.49","2.67","7.25","0","0"
"Boban Marjanovic","Boban-Marjanovic-31807","3400","C","52.39","219.5","10.8","108.38","23.31","5.00","11.4","5.94","5.94","0","0"
"Jerryd Bayless","Jerryd-Bayless-1021","3000","PG/SG","49.88","224.5","8.8","100.67","20.57","8.00","8.68","5","5","0","0"
"Troy Brown","Troy-Brown-409043","3100","SG/SF","39.33","227","7.2","103.80","16.36","6.00","4.96","1.22","4.67","0","0"
"Jerian Grant","Jerian-Grant-18900","3400","PG","43.91","219.5","12.9","105.10","14.15","4.00","5.72","3.06","3.47","0","0"
