"nameCol","idCol","salaryCol","positionCol","dvpCol","ouCol","mpgCol","paceCol","usgCol","pminCol","ceilCol","floorCol","pointsCol","predictCol","actualCol"
"Hassan Whiteside","Hassan-Whiteside-18664","6600","C","52.13","210","24.3","106.90","19.52","28.00","50.29","18.92","39.91","0","0"
"Josh Okogie","Josh-Okogie-409174","4300","SG/SF","46.56","228.5","22.3","100.67","14.69","33.00","24.33","2.89","25.77","0","0"
"Jonas Jerebko","Jonas-Jerebko-1106","3400","PF/C","55.69","232","15.7","103.10","15.20","22.00","35.22","14.82","19.73","0","0"
"Willie Cauley-Stein","Willie-Cauley-Stein-18951","6300","C","59.56","228","28.1","98.20","21.06","32.00","51.57","22.74","36.04","0","0"
"Elie Okobo","Elie-Okobo-409300","3300","PG","45.18","228","13.7","108.80","18.52","24.00","19.19","3.65","18.61","0","0"
"Alec Burks","Alec-Burks-13353","4700","PG/SG","46.50","207.5","31.3","103.60","17.30","32.00","43.87","26.49","26.49","0","0"
"Dennis Schroder","Dennis-Schroder-18595","5100","PG/SG","51.56","228.5","29.3","102.62","24.71","28.00","43.65","23.28","28.49","0","0"
"Russell Westbrook","Russell-Westbrook-1083","11200","PG","51.56","228.5","36.6","102.62","38.28","36.00","70.08","21.09","62.57","0","0"
"Larry Nance","Larry-Nance-18946","5800","PF/C","54.41","207.5","28.5","103.60","15.95","30.00","47.15","18.19","32.14","0","0"
"Alex Len","Alex-Len-16886","4400","C","51.22","228.5","22.8","105.10","28.69","25.00","34.41","17.82","24.35","0","0"
"Dario Saric","Dario-Saric-36004","3900","PF","46.72","228.5","20.9","100.67","19.34","25.00","35.95","17.48","21.45","0","0"
"John Collins","John-Collins-37823","6900","PF/C","51.22","228.5","29.7","105.10","21.34","31.00","59.23","23.48","37.87","0","0"
"De'Aaron Fox","De'Aaron-Fox-37900","7200","PG","54.41","228","30.7","98.20","27.80","34.00","49.28","19.83","39.11","0","0"
"Avery Bradley","Avery-Bradley-941","3400","SG","38.37","231","27.5","108.38","15.15","30.00","26.81","11.35","18.36","0","0"
"Cory Joseph","Cory-Joseph-13339","3500","PG","44.47","207.5","26.6","107.67","12.60","26.00","33.15","14.31","18.9","0","0"
"Kyle Lowry","Kyle-Lowry-1057","7700","PG","56.32","228.5","31.0","105.50","22.61","32.00","58.58","22.78","41.49","0","0"
"Kelly Oubre","Kelly-Oubre-18925","3900","SG/SF","36.99","228","21.4","108.80","19.54","25.00","35.89","17.07","20.84","0","0"
"Trae Young","Trae-Young-409063","5900","PG","46.57","228.5","29.6","105.10","26.37","30.00","32.15","6.44","31.09","0","0"
"Jeremy Lin","Jeremy-Lin-916","4100","PG/SG","46.57","228.5","19.0","105.10","22.56","22.00","33.55","16.08","21.55","0","0"
"Kevon Looney","Kevon-Looney-18945","4000","PF/C","56.90","232","22.7","103.10","13.18","24.00","29.97","13.39","20.99","0","0"
"Jordan Clarkson","Jordan-Clarkson-18631","5000","PG/SG","46.50","207.5","26.0","103.60","26.41","28.00","43.44","26.15","26.15","0","0"
"Andrew Wiggins","Andrew-Wiggins-18620","6000","SG/SF","46.56","228.5","36.4","100.67","24.90","36.00","40.93","17.82","31.27","0","0"
"Damyean Dotson","Damyean-Dotson-37795","3400","SG/SF","36.48","232","21.0","100.17","13.42","22.00","30.51","14.9","17.7","0","0"
"Patrick Beverley","Patrick-Beverley-14108","4000","PG/SG","42.95","231","26.3","108.38","11.45","25.00","37.8","11.46","20.84","0","0"
"Tomas Satoransky ","Tomas-Satoransky--36031","5400","PG/SG","53.11","228","31.3","103.80","16.23","33.00","40.23","16.32","28.13","0","0"
"Joel Embiid","Joel-Embiid-18578","11000","C","60.04","228","35.4","108.33","32.87","35.00","69.75","24.75","57.17","0","0"
"Cedi Osman","Cedi-Osman-18912","4400","SF/PF","34.95","207.5","30.7","103.60","18.53","32.00","29.67","10.24","22.86","0","0"
"Emmanuel Mudiay","Emmanuel-Mudiay-18936","5800","PG","38.27","232","30.2","100.17","26.90","31.00","40.73","18.78","30.1","0","0"
"Tyreke Evans","Tyreke-Evans-1070","3600","SG/SF","51.73","207.5","17.6","107.67","27.79","18.00","25.26","10.87","18.64","0","0"
"Enes Kanter","Enes-Kanter-13299","5500","C","54.40","232","21.8","100.17","23.47","24.00","39.96","20.8","28.42","0","0"
"Deandre Ayton","Deandre-Ayton-409301","8100","C","55.37","228","32.9","108.80","18.47","34.00","46.26","17.05","41.9","0","0"
"Mikal Bridges","Mikal-Bridges-408842","4200","SG/SF","36.99","228","31.7","108.80","11.94","33.00","23.93","8.82","21.68","0","0"
"DeAndre Bembry","DeAndre-Bembry-35198","4600","SG/SF","37.27","228.5","27.4","105.10","17.69","29.00","34.83","14.04","23.63","0","0"
"Marvin Williams","Marvin-Williams-1318","5300","SF/PF","53.29","231","32.4","103.00","16.38","33.00","46.08","23.11","27.22","0","0"
"Kosta Koufos","Kosta-Koufos-1386","3000","PF/C","59.56","228","8.2","98.20","22.92","14.00","29.67","15.38","15.38","0","0"
"Malik Beasley","Malik-Beasley-35213","3800","PG/SG","37.65","210","26.4","99.62","19.66","24.00","34.08","19.42","19.42","0","0"
"Jamal Murray","Jamal-Murray-35211","6700","PG/SG","50.35","210","33.6","99.62","29.66","34.00","52.52","21.91","33.97","0","0"
"Bradley Beal","Bradley-Beal-13898","8900","SG","48.52","228","38.3","103.80","31.17","38.00","71.01","30.55","45","0","0"
"Montrezl Harrell","Montrezl-Harrell-18930","6200","PF/C","58.70","231","23.0","108.38","26.30","26.00","47.23","24.45","31.26","0","0"
"Kawhi Leonard","Kawhi-Leonard-13310","9600","SF/PF","50.69","228.5","33.8","105.50","31.13","32.00","66.58","23.32","48.28","0","0"
"Daniel Hamilton","Daniel-Hamilton-35210","3600","SG/SF","36.34","228.5","20.0","105.10","17.76","23.00","18.29","3.35","18.09","0","0"
"De'Anthony Melton","De'Anthony-Melton-409081","4100","PG","55.72","228","23.1","108.80","14.68","24.00","22.75","8.39","20.61","0","0"
"TJ Warren","TJ-Warren-18634","7100","SF/PF","46.20","228","32.4","108.80","23.08","35.00","46.87","20.49","35.64","0","0"
"Paul Millsap","Paul-Millsap-1335","5800","PF/C","48.85","210","21.2","99.62","22.68","28.00","41.51","18.47","29.09","0","0"
"Josh Richardson","Josh-Richardson-18922","6400","SG/SF","43.92","210","33.5","106.90","21.32","34.00","47.54","18.89","32.12","0","0"
"Dewayne Dedmon","Dewayne-Dedmon-16894","5200","PF/C","51.22","228.5","27.8","105.10","20.51","26.00","36.63","15.55","26.05","0","0"
"J.J. Redick","J.J.-Redick-1030","5500","SG/SF","39.77","228","32.5","108.33","20.14","31.00","36.76","17.76","27.58","0","0"
"Jerami Grant","Jerami-Grant-18576","4800","PF","53.02","228.5","31.7","102.62","14.79","32.00","38.4","16.03","24.03","0","0"
"Collin Sexton","Collin-Sexton-408896","4500","PG","48.38","207.5","29.2","103.60","25.48","30.00","25.6","6.95","22.42","0","0"
"Bogdan Bogdanovic","Bogdan-Bogdanovic-37899","5900","SG/SF","48.75","228","30.7","98.20","26.22","30.00","46.98","25.67","29.4","0","0"
"Kevin Huerter","Kevin-Huerter-408969","4700","SG/SF","36.34","228.5","33.9","105.10","18.92","34.00","24.22","4.85","23.42","0","0"
"Darren Collison","Darren-Collison-1060","5100","PG","44.47","207.5","25.8","107.67","16.05","28.00","34.75","15.38","25.33","0","0"
"Dwyane Wade","Dwyane-Wade-967","5000","PG/SG","43.92","210","24.0","106.90","27.87","23.00","35.17","16.43","24.82","0","0"
"Kemba Walker","Kemba-Walker-13335","8800","PG","53.45","231","33.3","103.00","31.81","35.00","58.36","21.38","43.55","0","0"
"Jeff Teague","Jeff-Teague-1005","6500","PG","48.32","228.5","28.0","100.67","26.04","32.00","45.67","16.38","32.05","0","0"
"Gary Harris","Gary-Harris-18617","5400","SG","45.15","210","25.5","99.62","20.44","31.00","35.36","15.58","26.59","0","0"
"Justise Winslow","Justise-Winslow-18921","6500","PG/SF","35.53","210","30.5","106.90","25.41","32.00","49.38","18.12","31.96","0","0"
"Victor Oladipo","Victor-Oladipo-16807","8400","PG/SG","56.07","207.5","32.6","107.67","27.71","33.00","57.12","25.09","41.27","0","0"
"Nicolas Batum","Nicolas-Batum-1315","4700","SG/SF","34.15","231","32.7","103.00","10.87","32.00","31.84","16.43","22.92","0","0"
"Danilo Gallinari","Danilo-Gallinari-1329","7300","SF/PF","49.94","231","31.2","108.38","23.53","34.00","49.53","19.87","35.61","0","0"
"Karl-Anthony Towns","Karl-Anthony-Towns-18937","10500","C","51.97","228.5","36.0","100.67","30.26","36.00","68.29","27.95","51","0","0"
"Jeff Green","Jeff-Green-1314","5100","SF/PF","48.88","228","30.5","103.80","18.11","32.00","36.58","18.41","24.68","0","0"
"Willy Hernangomez","Willy-Hernangomez-18901","4400","C","57.99","231","15.0","103.00","27.66","18.00","38.59","20.65","21.31","0","0"
"Kevin Durant","Kevin-Durant-1348","10100","SF/PF","55.69","232","36.5","103.10","28.70","33.00","64.13","22.77","48.66","0","0"
"Jimmy Butler","Jimmy-Butler-13327","7500","SG/SF","44.09","228","33.2","108.33","23.49","35.00","49.66","18.97","36.14","0","0"
"Josh Jackson","Josh-Jackson-37890","4900","SF/PF","46.20","228","22.9","108.80","21.89","24.00","32.97","14.7","23.48","0","0"
"Tobias Harris","Tobias-Harris-13332","7600","SF/PF","49.94","231","31.8","108.38","23.07","34.00","48.42","19.49","36.43","0","0"
"Andre Iguodala","Andre-Iguodala-1334","3800","SG/SF","40.06","232","24.2","103.10","13.37","23.00","27.59","10.67","18.15","0","0"
"Richaun Holmes","Richaun-Holmes-18905","3500","PF/C","55.37","228","15.2","108.80","17.67","15.00","28.57","11.75","16.69","0","0"
"Steven Adams","Steven-Adams-16848","7000","C","50.09","228.5","34.6","102.62","13.27","34.00","44.78","20.59","33.42","0","0"
"Tony Parker","Tony-Parker-982","3500","PG","44.48","231","17.3","103.00","25.99","18.00","27.92","16.62","16.62","0","0"
"Trevor Ariza","Trevor-Ariza-1323","5900","SF/PF","34.09","228","38.3","103.80","19.64","36.00","36.86","13.79","28.03","0","0"
"Mario Hezonja","Mario-Hezonja-18923","3200","SF/PF","41.70","232","16.0","100.17","20.05","18.00","28.39","13.45","15.18","0","0"
"Serge Ibaka","Serge-Ibaka-1294","6400","PF/C","53.21","228.5","28.1","105.50","22.65","28.00","42.51","17.33","30.3","0","0"
"James Johnson","James-Johnson-1195","4400","SF/PF","47.77","210","19.6","106.90","17.49","25.00","27.43","10.69","20.75","0","0"
"Wilson Chandler","Wilson-Chandler-1327","3800","SF/PF","36.06","228","26.2","108.33","13.19","26.00","27.18","12.17","17.95","0","0"
"Paul George","Paul-George-1245","10300","SF/PF","53.02","228.5","35.0","102.62","33.92","36.00","67.76","29.9","48.54","0","0"
"Draymond Green","Draymond-Green-13976","7200","PF/C","59.72","232","32.8","103.10","15.92","33.00","41.03","14.61","33.74","0","0"
"Ben Simmons","Ben-Simmons-35184","9100","PG/SF","45.94","228","33.2","108.33","28.06","34.00","55.27","18.13","42.45","0","0"
"Danny Green","Danny-Green-940","4400","SG/SF","43.86","228.5","27.7","105.50","13.05","28.00","29.25","14.14","20.44","0","0"
"Stephen Curry","Stephen-Curry-1079","10000","PG/SG","51.90","232","37.0","103.10","31.99","33.00","64.82","24.23","46.5","0","0"
"Tristan Thompson","Tristan-Thompson-13308","5900","C","50.16","207.5","25.3","103.60","18.80","29.00","37.76","16.44","27.44","0","0"
"Shai Gilgeous-Alexander","Shai-Gilgeous-Alexander-408990","4400","PG/SG","42.95","231","20.7","108.38","18.61","24.00","22.43","8.27","20.32","0","0"
"Anthony Tolliver","Anthony-Tolliver-1263","3400","SF/PF","46.72","228.5","20.0","100.67","11.61","22.00","29.27","15.67","15.67","0","0"
"Jeremy Lamb","Jeremy-Lamb-13955","6100","SG/SF","49.26","231","32.0","103.00","20.00","30.00","37.45","16.51","27.93","0","0"
"Noah Vonleh","Noah-Vonleh-18597","6100","PF/C","48.98","232","28.2","100.17","16.41","30.00","38.91","18.6","27.81","0","0"
"Thaddeus Young","Thaddeus-Young-1289","5900","SF/PF","48.13","207.5","33.2","107.67","15.89","32.00","38.73","14.22","26.93","0","0"
"Greg Monroe","Greg-Monroe-1487","3600","C","55.46","228.5","14.3","105.50","19.39","15.00","22.42","9.59","16.4","0","0"
"Nikola Jokic","Nikola-Jokic-31812","9800","C","53.28","210","32.9","99.62","30.89","32.00","58.91","17.81","44.63","0","0"
"Tim Hardaway Jr.","Tim-Hardaway-Jr.-16879","6600","SG/SF","44.08","232","32.0","100.17","23.67","31.00","45.84","20.03","29.63","0","0"
"Jalen Jones","Jalen-Jones-35996","3200","SF/PF","34.95","207.5","17.5","103.60","18.13","22.00","24.95","11.51","14.33","0","0"
"Pascal Siakam","Pascal-Siakam-35186","6700","PF/C","59.18","228.5","31.0","105.50","20.95","30.00","43.65","17.23","29.92","0","0"
"Klay Thompson","Klay-Thompson-13315","6800","SG","40.06","232","35.2","103.10","21.13","33.00","38.95","17.48","30.29","0","0"
"Yogi Ferrell","Yogi-Ferrell-35999","3200","PG/SG","54.41","228","14.7","98.20","17.75","20.00","23.62","12.14","14.23","0","0"
"Otto Porter","Otto-Porter-17069","5600","SF/PF","34.09","228","19.0","103.80","32.25","28.00","38.85","20.67","24.76","0","0"
"Trey Burke","Trey-Burke-17029","3400","PG/SG","51.05","232","13.2","100.17","30.97","16.00","25.92","13.04","15","0","0"
"Bismack Biyombo","Bismack-Biyombo-13312","4500","C","57.99","231","17.8","103.00","17.50","22.00","29.04","13.72","19.85","0","0"
"Kevin Knox","Kevin-Knox-408820","5700","SF/PF","44.08","232","35.3","100.17","18.93","33.00","29.37","9.23","25.08","0","0"
"Torrey Craig","Torrey-Craig-37861","3500","SG/SF","37.65","210","27.7","99.62","13.10","24.00","23.33","13.92","15.41","0","0"
"Taj Gibson","Taj-Gibson-1277","4600","PF/C","50.32","228.5","26.3","100.67","15.56","25.00","28.02","10.4","20.23","0","0"
"Lou Williams","Lou-Williams-1044","6800","PG/SG","49.71","231","26.7","108.38","33.76","26.00","44.76","18.52","29.92","0","0"
"Bojan Bogdanovic","Bojan-Bogdanovic-18571","5700","SG/SF","38.31","207.5","33.0","107.67","20.95","32.00","39.12","19.88","25","0","0"
"Monte Morris","Monte-Morris-37860","3800","PG","50.35","210","21.3","99.62","21.89","19.00","24.83","13.37","16.61","0","0"
"Channing Frye","Channing-Frye-1484","3100","PF/C","54.41","207.5","13.8","103.60","20.98","16.00","26.95","11.47","13.49","0","0"
"Quinn Cook","Quinn-Cook-31771","3100","PG","51.90","232","8.0","103.10","24.14","16.00","25.39","13.5","13.5","0","0"
"Fred VanVleet","Fred-VanVleet-36011","5000","PG/SG","43.05","228.5","31.7","105.50","18.28","23.00","35.27","17.22","21.69","0","0"
"Nemanja Bjelica","Nemanja-Bjelica-31814","5300","SF/PF","48.30","228","27.6","98.20","17.87","23.00","37.77","15.16","22.93","0","0"
"Buddy Hield","Buddy-Hield-35206","7400","SG/SF","35.47","228","31.9","98.20","24.32","34.00","49.17","21.78","31.93","0","0"
"Harry Giles","Harry-Giles-37897","3200","PF/C","48.30","228","14.2","98.20","19.88","16.00","14.58","3.36","13.77","0","0"
"Domantas Sabonis","Domantas-Sabonis-35217","7400","PF/C","48.96","207.5","28.2","107.67","26.21","26.00","47.56","24.1","31.79","0","0"
"Thomas Bryant ","Thomas-Bryant--37884","6300","PF/C","53.78","228","26.7","103.80","15.17","26.00","44.44","20.98","26.66","0","0"
"Nerlens Noel","Nerlens-Noel-18575","3400","C","50.09","228.5","12.4","102.62","13.56","14.00","25.57","12.24","14.38","0","0"
"Rodney McGruder","Rodney-McGruder-16850","3500","SG/SF","33.52","210","21.0","106.90","18.04","21.00","22.69","9.52","14.65","0","0"
"Terrance Ferguson","Terrance-Ferguson-37871","3200","SG/SF","39.89","228.5","21.7","102.62","10.59","25.00","22.11","9.14","13.25","0","0"
"Matthew Dellavedova","Matthew-Dellavedova-16839","3300","PG/SG","36.17","207.5","18.0","103.60","21.21","18.00","24.22","13.56","13.56","0","0"
"Bam Adebayo","Bam-Adebayo-37835","4800","PF/C","52.13","210","22.0","106.90","16.06","20.00","28.68","17.36","19.62","0","0"
"Sam Dekker","Sam-Dekker-18929","3200","SF/PF","34.09","228","16.8","103.80","17.14","17.00","21.96","10.86","12.91","0","0"
"Myles Turner","Myles-Turner-18915","6900","C","49.63","207.5","24.5","107.67","18.43","28.00","45.05","20.58","27.52","0","0"
"Juan Hernangomez","Juan-Hernangomez-35212","3900","SF/PF","48.85","210","24.7","99.62","11.49","20.00","26.37","10.33","15.55","0","0"
"Justin Jackson","Justin-Jackson-37895","3800","SF/PF","35.47","228","24.4","98.20","13.60","23.00","22.57","12.08","14.97","0","0"
"Marcin Gortat","Marcin-Gortat-1479","4600","C","52.65","231","16.6","108.38","18.92","20.00","25.91","10.78","18.08","0","0"
"OG Anunoby","OG-Anunoby-37807","3400","SF/PF","43.86","228.5","20.1","105.50","11.93","18.00","25.17","13.33","13.33","0","0"
"Kelly Olynyk","Kelly-Olynyk-16845","3800","PF/C","54.26","210","19.7","106.90","17.45","15.00","22.17","12.48","14.84","0","0"
"Jonah Bolden","Jonah-Bolden-554969","3700","PF","48.87","228","19.6","108.33","14.90","16.00","14.57","2.77","14.13","0","0"
"Chasson Randle","Chasson-Randle-36002","3200","PG/SG","53.11","228","14.3","103.80","20.13","15.00","20.09","10.0","12.22","0","0"
"Tyus Jones","Tyus-Jones-18938","4100","PG","35.00","228.5","28.1","100.67","17.60","19.00","27.43","15.05","15.63","0","0"
"Malik Monk","Malik-Monk-37827","3500","PG/SG","53.45","231","17.1","103.00","23.64","15.00","20.63","11.0","13.35","0","0"
"Luke Kornet","Luke-Kornet-37800","4600","PF/C","48.77","232","23.2","100.17","19.00","22.00","26.7","11.01","17.29","0","0"
"Tyler Johnson","Tyler-Johnson-18720","4600","PG/SG","49.50","210","24.0","106.90","20.93","22.00","27.11","12.06","17.16","0","0"
"Gorgui Dieng","Gorgui-Dieng-16939","3200","PF/C","50.32","228.5","11.4","100.67","13.15","12.00","18.37","8.63","11.91","0","0"
"T.J. McConnell","T.J.-McConnell-18956","4300","PG/SG","45.94","228","26.0","108.33","14.83","22.00","26.21","13.52","16","0","0"
"Ian Mahinmi","Ian-Mahinmi-1357","3600","C","51.52","228","20.8","103.80","14.12","15.00","23.79","11.97","13.26","0","0"
"Mason Plumlee","Mason-Plumlee-16798","4500","PF/C","49.57","210","24.0","99.62","14.04","17.00","28.28","13.42","16.45","0","0"
"Jamal Crawford","Jamal-Crawford-1075","3800","PG/SG","46.20","228","14.8","108.80","21.14","18.00","24.29","13.84","13.84","0","0"
"Michael Kidd-Gilchrist","Michael-Kidd-Gilchrist-13896","3300","SF/PF","34.15","231","16.7","103.00","15.55","17.00","19.56","10.11","11.97","0","0"
"Derrick Jones","Derrick-Jones-36064","4300","SF/PF","33.52","210","21.7","106.90","14.10","20.00","28.65","15.29","15.29","0","0"
"Alfonzo McKinnie","Alfonzo-McKinnie-37808","3000","SF/PF","35.72","232","8.7","103.10","18.87","15.00","20.43","10.64","10.64","0","0"
"Delon Wright","Delon-Wright-18907","3600","PG/SG","43.05","228.5","20.0","105.50","18.23","15.00","21.42","10.75","12.54","0","0"
"Doug McDermott","Doug-McDermott-18583","3000","SF/PF","38.31","207.5","16.4","107.67","14.08","17.00","20.75","10.38","10.38","0","0"
"Miles Bridges","Miles-Bridges-409262","3300","SF/PF","53.29","231","14.2","103.00","14.09","14.00","11.14","2.04","11.02","0","0"
"Vince Carter","Vince-Carter-1066","3200","SF/PF","36.34","228.5","15.9","105.10","19.48","16.00","17.96","9.22","10.54","0","0"
"Mike Muscala","Mike-Muscala-17379","3400","PF/C","60.04","228","18.7","108.33","15.50","13.00","19.83","10.81","10.81","0","0"
"Landry Shamet","Landry-Shamet-408841","3100","PG/SG","39.77","228","16.7","108.33","14.61","15.00","9.66","1.84","9.37","0","0"
"Trey Lyles","Trey-Lyles-18942","3500","SF/PF","48.85","210","12.3","99.62","22.81","11.00","16.56","9.04","10.54","0","0"
"Abdel Nader","Abdel-Nader-35179","3400","SF","39.67","228.5","15.7","102.62","16.68","15.00","20.33","10.17","10.17","0","0"
"Furkan Korkmaz","Furkan-Korkmaz-35185","3800","SG/SF","39.77","228","18.7","108.33","18.11","15.00","21.77","11.06","11.06","0","0"
"Tyrone Wallace","Tyrone-Wallace-35220","3100","PG/SG","49.71","231","11.5","108.38","16.74","11.00","14.36","3.56","8.9","0","0"
"Allonzo Trier","Allonzo-Trier-554950","3200","PG/SG","44.08","232","16.0","100.17","22.10","13.00","9.57","2.21","9.04","0","0"
"Mike Scott","Mike-Scott-13999","3000","SF/PF","49.94","231","11.5","108.38","16.09","10.00","16.53","4.28","8.27","0","0"
"Troy Daniels","Troy-Daniels-17383","3000","SG","41.81","228","9.5","108.80","18.95","8.00","14.5","8.01","8.01","0","0"
"Patrick Patterson","Patrick-Patterson-1260","3000","PF/C","53.32","228.5","12.3","102.62","13.74","12.00","13.23","6.39","7.56","0","0"
"Norman Powell","Norman-Powell-18908","3800","SG/SF","41.60","228.5","21.8","105.50","18.57","12.00","16.68","8.87","8.87","0","0"
"Jordan Bell","Jordan-Bell-37877","3200","PF/C","56.90","232","8.2","103.10","11.69","8.00","12.45","6.05","7.21","0","0"
"Frank Mason","Frank-Mason-37898","3000","PG/SG","45.57","228","6.0","98.20","33.63","6.00","9.94","5.86","6.61","0","0"
"Ben McLemore","Ben-McLemore-16822","3000","SG/SF","35.47","228","9.6","98.20","16.94","8.00","10.08","4.23","6.34","0","0"
"Hamidou Diallo","Hamidou-Diallo-408800","3000","SG/SF","39.89","228.5","9.9","102.62","14.79","8.00","6.59","1.39","6.07","0","0"
"C.J. Miles","C.J.-Miles-1299","3200","SG/SF","43.86","228.5","11.0","105.50","16.93","7.00","8.94","4.41","5.46","0","0"
"Devonte' Graham","Devonte'-Graham-408968","4000","PG/SG","44.48","231","21.5","103.00","18.81","6.00","4.56","0.83","4.51","0","0"
"Justin Anderson","Justin-Anderson-18927","3100","SF/PF","37.27","228.5","9.9","105.10","17.12","4.00","4.33","2.12","2.75","0","0"
"Jaron Blossomgame","Jaron-Blossomgame-570197","3000","SF/PF","34.95","207.5","18.8","103.60","12.91","3.00","3.74","0.9","1.87","0","0"
