"nameCol","idCol","salaryCol","positionCol","dvpCol","ouCol","mpgCol","paceCol","usgCol","pminCol","ceilCol","floorCol","pointsCol","predictCol","actualCol"
"Lance Stephenson","Lance-Stephenson-947","3800","SG/SF","47.16","224.5","15.0","112.50","20.76","28.00","47.86","22.4","28.04","0","0"
"Wendell Carter","Wendell-Carter-408878","5200","PF/C","58.31","207.5","27.0","104.50","16.99","32.00","40.08","10.81","35.34","0","0"
"Chandler Hutchison","Chandler-Hutchison-408877","3200","SF/PF","32.17","207.5","20.3","104.50","9.68","28.00","21.94","5.92","19.35","0","0"
"Ed Davis","Ed-Davis-1265","3700","C","55.40","207.5","19.6","114.62","12.54","22.00","39.52","17.35","23.48","0","0"
"Jarrett Allen","Jarrett-Allen-37794","5800","C","55.40","207.5","23.3","114.62","17.91","27.00","41.84","18.18","30.3","0","0"
"Josh Okogie","Josh-Okogie-409174","4500","SG/SF","49.88","224.5","21.0","100.67","16.68","29.00","24.61","9.07","22.29","0","0"
"Jonathan Isaac","Jonathan-Isaac-37841","3700","SF/PF","55.35","219.5","26.4","105.10","15.42","27.00","33.63","16.17","21.11","0","0"
"Patrick Beverley","Patrick-Beverley-14108","4300","PG/SG","37.14","219.5","26.0","108.38","13.14","25.00","37.92","21.01","21.01","0","0"
"Taj Gibson","Taj-Gibson-1277","4600","PF/C","57.54","224.5","26.1","100.67","15.69","26.00","33.85","13.8","24.82","0","0"
"Kentavious Caldwell-Pope","Kentavious-Caldwell-Pope-16869","5300","SG/SF","40.15","224.5","27.9","112.50","18.55","34.00","51.83","24.04","27.57","0","0"
"Shabazz Napier","Shabazz-Napier-18598","3600","PG/SG","40.36","207.5","18.6","114.62","24.36","21.00","36.3","16.27","19.89","0","0"
"Kris Dunn","Kris-Dunn-35215","6900","PG/SG","49.87","207.5","31.3","104.50","22.15","32.00","47.68","17.2","33.65","0","0"
"D.J. Augustin","D.J.-Augustin-1064","4800","PG","43.91","219.5","30.0","105.10","20.37","30.00","38.3","12.58","23.47","0","0"
"Zach LaVine","Zach-LaVine-18622","6700","PG/SG","49.87","207.5","29.6","104.50","27.58","33.00","47.15","20.32","34.04","0","0"
"Michael Beasley","Michael-Beasley-1338","3300","SF/PF","53.08","224.5","11.0","112.50","18.51","14.00","25.04","13.46","15.91","0","0"
"JaVale McGee","JaVale-McGee-1485","5700","C","50.50","224.5","22.3","112.50","26.45","24.00","39.4","17.03","27.38","0","0"
"Rodions Kurucs","Rodions-Kurucs-408801","3900","SF/PF","47.66","207.5","25.2","114.62","17.41","25.00","24.31","4.87","23.51","0","0"
"Nikola Vucevic","Nikola-Vucevic-13296","9500","C","55.35","219.5","30.1","105.10","26.42","34.00","62.64","23.68","48.04","0","0"
"Aaron Gordon","Aaron-Gordon-18601","7000","SF/PF","53.81","219.5","34.9","105.10","17.71","34.00","47.49","20.24","36.73","0","0"
"DeMarre Carroll","DeMarre-Carroll-1174","5600","SF/PF","38.48","207.5","29.0","114.62","16.44","27.00","40.68","19.39","24.3","0","0"
"Tobias Harris","Tobias-Harris-13332","7100","SF/PF","49.31","219.5","32.2","108.38","22.29","34.00","48.59","19.59","36.62","0","0"
"Joe Harris","Joe-Harris-18587","5400","SG/SF","34.96","207.5","29.8","114.62","17.29","30.00","37.05","16.83","25.27","0","0"
"Andrew Wiggins","Andrew-Wiggins-18620","6100","SG/SF","49.88","224.5","37.4","100.67","24.17","35.00","43.61","18.91","33.24","0","0"
"Evan Fournier","Evan-Fournier-13913","5500","SG/SF","33.84","219.5","29.4","105.10","20.92","31.00","34.1","14.15","26.6","0","0"
"Karl-Anthony Towns","Karl-Anthony-Towns-18937","10300","C","57.31","224.5","34.9","100.67","30.01","36.00","66.66","27.91","49.23","0","0"
"Danilo Gallinari","Danilo-Gallinari-1329","7200","SF/PF","49.31","219.5","31.8","108.38","22.75","34.00","48.19","19.28","34.62","0","0"
"Jeff Teague","Jeff-Teague-1005","6400","PG","52.74","224.5","28.0","100.67","26.89","32.00","43.65","15.73","30.72","0","0"
"D'Angelo Russell","D'Angelo-Russell-18947","7900","PG/SG","52.62","207.5","31.6","114.62","33.85","31.00","50.91","18.25","36.65","0","0"
"Terrence Ross","Terrence-Ross-13902","4200","SG/SF","33.84","219.5","25.1","105.10","21.18","25.00","33.65","18.54","21.74","0","0"
"Lauri Markkanen","Lauri-Markkanen-37809","6800","PF","48.26","207.5","33.3","104.50","23.47","34.00","46.05","19.48","32.09","0","0"
"Brandon Ingram","Brandon-Ingram-35227","7300","PG/SG","47.16","224.5","35.0","112.50","25.93","36.00","50.43","20.98","33.09","0","0"
"Jared Dudley","Jared-Dudley-1319","3300","SF/PF","38.48","207.5","26.7","114.62","10.46","27.00","24.22","11.45","16.5","0","0"
"Shai Gilgeous-Alexander","Shai-Gilgeous-Alexander-408990","4200","PG/SG","37.14","219.5","21.3","108.38","17.09","23.00","22.34","6.03","19.7","0","0"
"Lou Williams","Lou-Williams-1044","6500","PG/SG","46.82","219.5","26.8","108.38","35.47","26.00","45.88","18.97","30.65","0","0"
"Dario Saric","Dario-Saric-36004","4100","PF","45.72","224.5","21.0","100.67","20.15","20.00","33.08","15.86","19.56","0","0"
"Bobby Portis","Bobby-Portis-18909","5000","PF/C","58.31","207.5","0","104.50","0","20.00","41.08","19.01","22.47","0","0"
"Avery Bradley","Avery-Bradley-941","3500","SG","40.50","219.5","28.5","108.38","14.75","29.00","24.85","10.46","17.07","0","0"
"Gorgui Dieng","Gorgui-Dieng-16939","3200","PF/C","57.54","224.5","12.6","100.67","13.01","13.00","22.03","10.53","14.35","0","0"
"Spencer Dinwiddie","Spencer-Dinwiddie-18588","6300","PG/SG","52.62","207.5","27.5","114.62","28.89","30.00","44.63","20.21","28.96","0","0"
"Jonathon Simmons","Jonathon-Simmons-31808","3600","PG/SF","49.61","219.5","17.8","105.10","25.03","19.00","23.67","12.74","15.58","0","0"
"Lonzo Ball","Lonzo-Ball-37885","7600","PG","35.60","224.5","32.6","112.50","20.26","34.00","45.84","17.29","34.11","0","0"
"Antonio Blakeney","Antonio-Blakeney-37811","3300","PG/SG","29.50","207.5","12.6","104.50","26.36","14.00","22.3","10.84","13.46","0","0"
"Josh Hart","Josh-Hart-37889","6000","PG/SG","40.15","224.5","32.7","112.50","16.38","34.00","37.32","18.51","26.83","0","0"
"Montrezl Harrell","Montrezl-Harrell-18930","6600","PF/C","49.77","219.5","23.5","108.38","27.00","28.00","45.31","23.44","29.97","0","0"
"Tyus Jones","Tyus-Jones-18938","4200","PG","35.71","224.5","29.9","100.67","16.38","27.00","41.51","21.86","22.72","0","0"
"Tyson Chandler","Tyson-Chandler-1482","3300","C","50.50","224.5","17.0","112.50","12.56","14.00","24.17","12.53","12.53","0","0"
"Mohamed Bamba","Mohamed-Bamba-409026","4000","C","57.65","219.5","14.9","105.10","19.37","18.00","15.94","2.92","15.77","0","0"
"Marcin Gortat","Marcin-Gortat-1479","3800","C","52.39","219.5","13.8","108.38","19.99","12.00","17.83","7.43","12.45","0","0"
"Wayne Selden","Wayne-Selden-36045","3200","SG/SF","49.87","207.5","8.8","104.50","24.41","15.00","20.62","11.34","11.34","0","0"
"Wes Iwundu","Wes-Iwundu-37839","3200","SG/SF","34.14","219.5","15.5","105.10","14.64","18.00","22.51","11.26","11.26","0","0"
"Sviatoslav Mykhailiuk","Sviatoslav-Mykhailiuk-409280","3000","SG/SF","39.91","224.5","5.4","112.50","19.57","12.00","10.46","2.57","9.85","0","0"
"Tyrone Wallace","Tyrone-Wallace-35220","3200","PG/SG","46.82","219.5","10.5","108.38","15.58","14.00","16.77","10.2","10.2","0","0"
"Anthony Tolliver","Anthony-Tolliver-1263","3500","SF/PF","45.72","224.5","18.7","100.67","13.72","14.00","19.01","10.05","10.05","0","0"
"Robin Lopez","Robin-Lopez-1466","3100","C","62.52","207.5","15.0","104.50","22.01","9.00","17.85","9.05","9.05","0","0"
"Shaquille Harrison","Shaquille-Harrison-36065","3400","PG/SG","39.40","207.5","21.7","104.50","15.16","11.00","14.94","7.25","9.23","0","0"
"Mike Scott","Mike-Scott-13999","3100","SF/PF","49.31","219.5","12.5","108.38","13.73","10.00","16.93","10.02","8.47","0","0"
"Ryan Arcidiacono","Ryan-Arcidiacono-36050","3300","PG","39.40","207.5","22.2","104.50","9.44","12.00","15.19","7.4","8.49","0","0"
"Ivica Zubac","Ivica-Zubac-35226","3700","C","50.50","224.5","20.3","112.50","20.59","10.00","14.09","6.94","8.56","0","0"
"Boban Marjanovic","Boban-Marjanovic-31807","3400","C","52.39","219.5","10.8","108.38","23.31","5.00","11.4","5.94","5.94","0","0"
"Jerryd Bayless","Jerryd-Bayless-1021","3000","PG/SG","49.88","224.5","8.8","100.67","20.57","8.00","8.68","5","5","0","0"
"Jerian Grant","Jerian-Grant-18900","3400","PG","43.91","219.5","12.9","105.10","14.15","4.00","5.72","3.06","3.47","0","0"
