"nameCol","idCol","salaryCol","positionCol","dvpCol","ouCol","mpgCol","paceCol","usgCol","pminCol","ceilCol","floorCol","pointsCol","predictCol","actualCol"
"Josh Okogie","Josh-Okogie-409174","4300","SG/SF","46.56","228.5","22.3","100.67","14.69","33.00","24.33","2.89","25.77","0","0"
"Willie Cauley-Stein","Willie-Cauley-Stein-18951","6300","C","59.56","228","28.1","98.20","21.06","32.00","51.57","22.74","36.04","0","0"
"Elie Okobo","Elie-Okobo-409300","3300","PG","45.18","228","13.7","108.80","18.52","24.00","19.19","3.65","18.61","0","0"
"Dennis Schroder","Dennis-Schroder-18595","5100","PG/SG","51.56","228.5","29.3","102.62","24.71","28.00","43.65","23.28","28.49","0","0"
"Russell Westbrook","Russell-Westbrook-1083","11200","PG","51.56","228.5","36.6","102.62","38.28","36.00","70.08","21.09","62.57","0","0"
"Dario Saric","Dario-Saric-36004","3900","PF","46.72","228.5","20.9","100.67","19.34","25.00","35.95","17.48","21.45","0","0"
"De'Aaron Fox","De'Aaron-Fox-37900","7200","PG","54.41","228","30.7","98.20","27.80","34.00","49.28","19.83","39.11","0","0"
"Kelly Oubre","Kelly-Oubre-18925","3900","SG/SF","36.99","228","21.4","108.80","19.54","25.00","35.89","17.07","20.84","0","0"
"Andrew Wiggins","Andrew-Wiggins-18620","6000","SG/SF","46.56","228.5","36.4","100.67","24.90","36.00","40.93","17.82","31.27","0","0"
"Deandre Ayton","Deandre-Ayton-409301","8100","C","55.37","228","32.9","108.80","18.47","34.00","46.26","17.05","41.9","0","0"
"Mikal Bridges","Mikal-Bridges-408842","4200","SG/SF","36.99","228","31.7","108.80","11.94","33.00","23.93","8.82","21.68","0","0"
"Kosta Koufos","Kosta-Koufos-1386","3000","PF/C","59.56","228","8.2","98.20","22.92","14.00","29.67","15.38","15.38","0","0"
"De'Anthony Melton","De'Anthony-Melton-409081","4100","PG","55.72","228","23.1","108.80","14.68","24.00","22.75","8.39","20.61","0","0"
"TJ Warren","TJ-Warren-18634","7100","SF/PF","46.20","228","32.4","108.80","23.08","35.00","46.87","20.49","35.64","0","0"
"Jerami Grant","Jerami-Grant-18576","4800","PF","53.02","228.5","31.7","102.62","14.79","32.00","38.4","16.03","24.03","0","0"
"Bogdan Bogdanovic","Bogdan-Bogdanovic-37899","5900","SG/SF","48.75","228","30.7","98.20","26.22","30.00","46.98","25.67","29.4","0","0"
"Jeff Teague","Jeff-Teague-1005","6500","PG","48.32","228.5","28.0","100.67","26.04","32.00","45.67","16.38","32.05","0","0"
"Karl-Anthony Towns","Karl-Anthony-Towns-18937","10500","C","51.97","228.5","36.0","100.67","30.26","36.00","68.29","27.95","51","0","0"
"Josh Jackson","Josh-Jackson-37890","4900","SF/PF","46.20","228","22.9","108.80","21.89","24.00","32.97","14.7","23.48","0","0"
"Steven Adams","Steven-Adams-16848","7000","C","50.09","228.5","34.6","102.62","13.27","34.00","44.78","20.59","33.42","0","0"
"Richaun Holmes","Richaun-Holmes-18905","3500","PF/C","55.37","228","15.2","108.80","17.67","15.00","28.57","11.75","16.69","0","0"
"Paul George","Paul-George-1245","10300","SF/PF","53.02","228.5","35.0","102.62","33.92","36.00","67.76","29.9","48.54","0","0"
"Anthony Tolliver","Anthony-Tolliver-1263","3400","SF/PF","46.72","228.5","20.0","100.67","11.61","22.00","29.27","15.67","15.67","0","0"
"Yogi Ferrell","Yogi-Ferrell-35999","3200","PG/SG","54.41","228","14.7","98.20","17.75","20.00","23.62","12.14","14.23","0","0"
"Taj Gibson","Taj-Gibson-1277","4600","PF/C","50.32","228.5","26.3","100.67","15.56","25.00","28.02","10.4","20.23","0","0"
"Nemanja Bjelica","Nemanja-Bjelica-31814","5300","SF/PF","48.30","228","27.6","98.20","17.87","23.00","37.77","15.16","22.93","0","0"
"Buddy Hield","Buddy-Hield-35206","7400","SG/SF","35.47","228","31.9","98.20","24.32","34.00","49.17","21.78","31.93","0","0"
"Harry Giles","Harry-Giles-37897","3200","PF/C","48.30","228","14.2","98.20","19.88","16.00","14.58","3.36","13.77","0","0"
"Nerlens Noel","Nerlens-Noel-18575","3400","C","50.09","228.5","12.4","102.62","13.56","14.00","25.57","12.24","14.38","0","0"
"Terrance Ferguson","Terrance-Ferguson-37871","3200","SG/SF","39.89","228.5","21.7","102.62","10.59","25.00","22.11","9.14","13.25","0","0"
"Justin Jackson","Justin-Jackson-37895","3800","SF/PF","35.47","228","24.4","98.20","13.60","23.00","22.57","12.08","14.97","0","0"
"Tyus Jones","Tyus-Jones-18938","4100","PG","35.00","228.5","28.1","100.67","17.60","19.00","27.43","15.05","15.63","0","0"
"Gorgui Dieng","Gorgui-Dieng-16939","3200","PF/C","50.32","228.5","11.4","100.67","13.15","12.00","18.37","8.63","11.91","0","0"
"Jamal Crawford","Jamal-Crawford-1075","3800","PG/SG","46.20","228","14.8","108.80","21.14","18.00","24.29","13.84","13.84","0","0"
"Abdel Nader","Abdel-Nader-35179","3400","SF","39.67","228.5","15.7","102.62","16.68","15.00","20.33","10.17","10.17","0","0"
"Troy Daniels","Troy-Daniels-17383","3000","SG","41.81","228","9.5","108.80","18.95","8.00","14.5","8.01","8.01","0","0"
"Patrick Patterson","Patrick-Patterson-1260","3000","PF/C","53.32","228.5","12.3","102.62","13.74","12.00","13.23","6.39","7.56","0","0"
"Frank Mason","Frank-Mason-37898","3000","PG/SG","45.57","228","6.0","98.20","33.63","6.00","9.94","5.86","6.61","0","0"
"Ben McLemore","Ben-McLemore-16822","3000","SG/SF","35.47","228","9.6","98.20","16.94","8.00","10.08","4.23","6.34","0","0"
"Hamidou Diallo","Hamidou-Diallo-408800","3000","SG/SF","39.89","228.5","9.9","102.62","14.79","8.00","6.59","1.39","6.07","0","0"
