"nameCol","idCol","salaryCol","positionCol","dvpCol","ouCol","mpgCol","paceCol","usgCol","pminCol","ceilCol","floorCol","pointsCol","predictCol","actualCol"
"Malik Beasley","Malik-Beasley-35213","4400","PG/SG","38.47","221.5","25.3","99.62","20.00","31.00","55.49","6.61","27.76","0","0"
"Mikal Bridges","Mikal-Bridges-408842","4100","SG/SF","42.50","235","31.5","108.80","10.80","32.00","34.73","19.65","24.81","0","0"
"Taurean Prince","Taurean-Prince-35218","4900","SF","35.27","235","27.3","105.10","17.10","29.00","51.5","7.42","29","0","0"
"Torrey Craig","Torrey-Craig-37861","3900","SG/SF","38.47","221.5","26.3","99.62","13.29","28.00","45.4","5.4","22.71","0","0"
"Monte Morris","Monte-Morris-37860","5500","PG","51.63","221.5","28.1","99.62","15.91","34.00","44.58","25.22","31.84","0","0"
"Jamal Crawford","Jamal-Crawford-1075","3600","PG/SG","52.54","235","23.2","108.80","16.59","24.00","38.71","4.99","20.79","0","0"
"Josh Okogie","Josh-Okogie-409174","3900","SG/SF","43.10","221.5","25.6","100.67","17.64","30.00","31.53","17.84","22.52","0","0"
"Deandre Ayton","Deandre-Ayton-409301","6800","C","54.72","235","21.7","108.80","14.55","30.00","54.22","30.67","38.73","0","0"
"Josh Jackson","Josh-Jackson-37890","5600","SF/PF","52.54","235","29.7","108.80","24.58","32.00","55.51","14.59","31.72","0","0"
"Paul Millsap","Paul-Millsap-1335","5200","PF/C","51.02","221.5","24.5","99.62","16.05","29.00","46.33","10.71","28.94","0","0"
"Karl-Anthony Towns","Karl-Anthony-Towns-18937","9700","C","51.26","221.5","32.2","100.67","29.58","36.00","83.65","28.13","53.28","0","0"
"Kenneth Faried","Kenneth-Faried-13313","6700","PF/C","52.25","223","30.7","101.42","20.04","34.00","56.97","19.17","36.52","0","0"
"Eric Gordon","Eric-Gordon-1077","5000","SG/SF","41.48","223","32.5","101.42","22.91","33.00","45.12","9.71","27.05","0","0"
"Devin Booker","Devin-Booker-18949","8800","PG/SG","55.92","235","33.1","108.80","32.95","35.00","81.0","22.27","47.48","0","0"
"Joe Ingles","Joe-Ingles-18627","5500","SG/SF","37.66","223","33.5","98.88","17.16","31.00","47.17","12.19","29.52","0","0"
"James Harden","James-Harden-1037","12500","PG/SG","48.65","223","38.1","101.42","43.22","38.00","93.65","46.76","66.89","0","0"
"Kelly Oubre","Kelly-Oubre-18925","5900","SG/SF","42.50","235","30.5","108.80","23.58","31.00","56.13","10.04","31.27","0","0"
"Dario Saric","Dario-Saric-36004","3900","PF","48.61","221.5","20.4","100.67","11.55","20.00","35.05","6.05","20.57","0","0"
"Andrew Wiggins","Andrew-Wiggins-18620","6300","SG/SF","43.10","221.5","37.9","100.67","28.38","35.00","51.42","14.45","33.07","0","0"
"P.J. Tucker","P.J.-Tucker-13947","4400","SF/PF","31.56","223","36.6","101.42","10.29","35.00","36.65","7.15","23.05","0","0"
"Rudy Gobert","Rudy-Gobert-16935","8400","C","54.26","223","32.1","98.88","18.80","35.00","70.79","23.42","43.86","0","0"
"Elie Okobo","Elie-Okobo-409300","3500","PG","43.89","235","17.5","108.80","15.77","24.00","25.42","14.38","18.16","0","0"
"Ricky Rubio","Ricky-Rubio-1001","6100","PG","40.71","223","25.4","98.88","26.68","30.00","49.55","13.8","31.5","0","0"
"Kyle Korver","Kyle-Korver-1269","3700","SG/SF","37.66","223","21.0","98.88","18.20","26.00","38.06","5.01","19.04","0","0"
"Kevin Huerter","Kevin-Huerter-408969","4400","SG/SF","36.98","235","27.9","105.10","19.95","30.00","31.71","18.32","22.65","0","0"
"Will Barton","Will-Barton-13982","6600","SG/SF","47.85","221.5","27.0","99.62","20.58","33.00","59.73","12.01","33.92","0","0"
"Mason Plumlee","Mason-Plumlee-16798","4000","PF/C","50.45","221.5","17.6","99.62","20.65","19.00","39.94","5.32","20.48","0","0"
"James Ennis","James-Ennis-18599","3700","SF/PF","31.56","223","25.8","101.42","10.59","29.00","36.64","5.39","18.33","0","0"
"Dewayne Dedmon","Dewayne-Dedmon-16894","5800","PF/C","59.32","235","25.4","105.10","17.20","27.00","46.07","12.12","28.72","0","0"
"Jae Crowder","Jae-Crowder-13942","4600","SF/PF","37.92","223","29.0","98.88","18.73","27.00","44.84","4.87","22.43","0","0"
"Royce O'Neale","Royce-O'Neale-37872","3500","SF","37.92","223","22.5","98.88","10.43","23.00","33.65","5.81","16.84","0","0"
"Nikola Jokic","Nikola-Jokic-31812","10600","C","52.53","221.5","33.6","99.62","29.15","34.00","73.95","30.2","50.41","0","0"
"Taj Gibson","Taj-Gibson-1277","4300","PF/C","51.95","221.5","25.2","100.67","16.00","25.00","34.51","7.69","20.3","0","0"
"Derrick Favors","Derrick-Favors-1266","5100","PF/C","54.65","223","21.7","98.88","16.75","24.00","40.06","10.53","23.93","0","0"
"John Collins","John-Collins-37823","7900","PF/C","59.32","235","28.7","105.10","24.05","30.00","68.25","14.76","37.09","0","0"
"Gerald Green","Gerald-Green-13374","3900","SG/SF","41.48","223","21.8","101.42","18.37","22.00","33.2","5.18","18.12","0","0"
"Austin Rivers","Austin-Rivers-13903","4700","PG/SG","43.01","223","31.3","101.42","12.24","35.00","43.44","5.11","21.73","0","0"
"Trey Lyles","Trey-Lyles-18942","3600","SF/PF","51.02","221.5","17.0","99.62","23.21","16.00","32.0","4.71","16.47","0","0"
"Donovan Mitchell","Donovan-Mitchell-37875","8700","PG/SG","50.01","223","34.5","98.88","34.88","34.00","64.57","16.39","39.3","0","0"
"DeAndre Bembry","DeAndre-Bembry-35198","4300","SG/SF","35.27","235","27.4","105.10","15.91","22.00","32.14","8.86","19.27","0","0"
"Trae Young","Trae-Young-409063","7500","PG","52.66","235","32.2","105.10","29.44","33.00","46.23","26.71","33.02","0","0"
"Richaun Holmes","Richaun-Holmes-18905","5300","PF/C","54.72","235","23.8","108.80","11.49","20.00","46.54","4.91","23.28","0","0"
"Alex Len","Alex-Len-16886","4300","C","59.32","235","16.7","105.10","27.23","17.00","34.98","7.67","18.43","0","0"
"Derrick Rose","Derrick-Rose-1086","5800","PG/SG","50.09","221.5","24.3","100.67","28.26","24.00","48.28","6.04","24.15","0","0"
"Nene Hilario","Nene-Hilario-17321","3300","C","52.25","223","11.5","101.42","9.55","14.00","25.71","3.87","13.53","0","0"
"Kent Bazemore","Kent-Bazemore-13987","5000","SG/SF","49.97","235","18.2","105.10","22.48","19.00","34.0","7.29","20.32","0","0"
"Gorgui Dieng","Gorgui-Dieng-16939","3500","PF/C","51.95","221.5","11.7","100.67","16.73","14.00","24.95","3.77","14.07","0","0"
"Jeremy Lin","Jeremy-Lin-916","4200","PG/SG","52.66","235","21.0","105.10","24.27","19.00","31.65","4.78","16.7","0","0"
"Jerryd Bayless","Jerryd-Bayless-1021","5400","PG/SG","43.10","221.5","33.4","100.67","21.98","32.00","41.08","6.04","20.55","0","0"
"Troy Daniels","Troy-Daniels-17383","3100","SG","42.09","235","10.7","108.80","15.95","12.00","23.09","3.65","11.55","0","0"
"Omari Spellman","Omari-Spellman-408970","3300","PF/C","47.74","235","17.2","105.10","13.06","14.00","16.04","8.93","11.46","0","0"
"Luol Deng","Luol-Deng-1328","3300","SF/PF","37.34","221.5","16.2","100.67","13.40","14.00","19.85","3.31","9.93","0","0"
"Isaiah Canaan","Isaiah-Canaan-16875","3000","PG","50.09","221.5","13.0","100.67","13.30","10.00","16.56","2.95","8.58","0","0"
"Juancho Hernangomez","Juancho-Hernangomez-35212","3300","SF/PF","51.02","221.5","9.7","99.62","9.65","11.00","18.51","1.92","9.26","0","0"
"Georges Niang","Georges-Niang-35193","3100","SF/PF","46.24","223","9.6","98.88","12.48","10.00","14.93","1.42","7.47","0","0"
"Brandon Goodwin","Brandon-Goodwin-570160","3000","PG/SG","51.63","221.5","2.5","99.62","20.39","5.00","5.46","3.09","3.9","0","0"
