"nameCol","idCol","salaryCol","positionCol","dvpCol","ouCol","mpgCol","paceCol","usgCol","pminCol","ceilCol","floorCol","pointsCol","predictCol","actualCol"
"Josh Okogie","Josh-Okogie-409174","3900","SG/SF","47.81","214","20.0","100.67","16.12","32.00","27.56","4.91","27.15","0","0"
"Daniel Theis","Daniel-Theis-37784","3500","PF/C","48.90","212.5","16.7","101.75","14.85","23.00","39.43","21.22","23.47","0","0"
"Chandler Hutchison","Chandler-Hutchison-408877","3000","SF/PF","35.16","200.5","18.7","104.50","9.24","30.00","21.65","4.57","19.95","0","0"
"Lance Stephenson","Lance-Stephenson-947","3600","SG/SF","49.08","223","12.7","112.50","21.44","24.00","37.46","17.67","22.14","0","0"
"Zach LaVine","Zach-LaVine-18622","6300","PG/SG","47.54","200.5","28.5","104.50","26.38","35.00","50.48","21.83","36.5","0","0"
"De'Anthony Melton","De'Anthony-Melton-409081","3700","PG","53.90","234","23.4","108.80","14.34","25.00","24.24","6.54","21.38","0","0"
"DeAndre Bembry","DeAndre-Bembry-35198","4200","SG/SF","39.48","230","26.9","105.10","15.59","29.00","35.86","19.07","24.26","0","0"
"Thomas Bryant ","Thomas-Bryant--37884","6000","PF/C","53.74","212","28.0","103.80","16.37","34.00","58.49","27.15","34.63","0","0"
"Alec Burks","Alec-Burks-13353","4400","PG/SG","40.14","208.5","30.0","103.60","17.06","29.00","35.73","18.14","25.34","0","0"
"Wesley Matthews","Wesley-Matthews-1339","4200","SG/SF","34.15","212.5","29.2","100.08","17.91","32.00","36.12","15.31","24.18","0","0"
"Marcus Smart","Marcus-Smart-18567","4300","PG/SG","55.55","212.5","27.6","101.75","14.32","30.00","35.27","13.83","24.61","0","0"
"Hassan Whiteside","Hassan-Whiteside-18664","6800","C","56.04","212","25.2","106.90","22.35","27.00","49.09","18.35","38.87","0","0"
"Brandon Ingram","Brandon-Ingram-35227","6800","PG/SG","49.08","223","34.4","112.50","24.87","40.00","57.7","23.67","38.24","0","0"
"Kris Dunn","Kris-Dunn-35215","6100","PG/SG","47.54","200.5","30.5","104.50","23.42","33.00","48.87","17.35","34.22","0","0"
"Terry Rozier","Terry-Rozier-18894","6100","PG/SG","48.61","212.5","21.1","101.75","19.66","34.00","50.48","22.1","34.11","0","0"
"JaMychal Green","JaMychal-Green-18729","4000","SF/PF","59.04","203.5","22.5","103.30","15.88","24.00","37.63","19.51","22.32","0","0"
"Kevin Huerter","Kevin-Huerter-408969","4600","SG/SF","36.71","230","33.7","105.10","17.54","35.00","25.54","5.37","25.59","0","0"
"Karl-Anthony Towns","Karl-Anthony-Towns-18937","9900","C","48.52","214","34.4","100.67","29.61","37.00","74.03","31.25","54.92","0","0"
"Lauri Markkanen","Lauri-Markkanen-37809","6500","PF","47.22","200.5","32.5","104.50","23.50","34.00","51.6","21.79","35.96","0","0"
"Ricky Rubio","Ricky-Rubio-1001","6100","PG","44.16","208.5","30.6","98.88","25.55","32.00","44.92","17.97","33.72","0","0"
"Dennis Schroder","Dennis-Schroder-18595","5300","PG/SG","47.90","223.5","30.3","102.62","24.73","30.00","44.65","23.0","29.26","0","0"
"D.J. Augustin","D.J.-Augustin-1064","4300","PG","35.81","214","30.3","105.10","20.46","30.00","38.46","12.74","23.68","0","0"
"Marc Gasol","Marc-Gasol-1493","8100","C","59.04","203.5","34.0","103.30","21.68","35.00","59.0","26.04","44.66","0","0"
"JaVale McGee","JaVale-McGee-1485","5200","C","56.19","223","21.5","112.50","26.96","24.00","40.33","17.58","28.64","0","0"
"Dwyane Wade","Dwyane-Wade-967","4600","PG/SG","43.86","212","24.4","106.90","25.67","23.00","35.58","16.61","25.09","0","0"
"Tim Hardaway Jr.","Tim-Hardaway-Jr.-16879","6200","SG/SF","50.72","223","33.5","100.17","22.81","34.00","52.07","22.75","33.66","0","0"
"Al-Farouq Aminu","Al-Farouq-Aminu-1279","5200","SF/PF","38.53","223.5","29.9","104.50","14.54","32.00","43.14","20.94","28.07","0","0"
"Gordon Hayward","Gordon-Hayward-1239","5400","SF/PF","47.17","212.5","27.0","101.75","18.66","30.00","42.88","20.17","29.11","0","0"
"Trae Young","Trae-Young-409063","5900","PG","46.92","230","29.1","105.10","27.59","30.00","31.71","6.67","31.77","0","0"
"Jaylen Brown","Jaylen-Brown-35181","4800","SG/SF","36.83","212.5","23.9","101.75","21.87","32.00","48.86","21.47","25.84","0","0"
"Donovan Mitchell","Donovan-Mitchell-37875","7200","PG/SG","56.02","208.5","31.5","98.88","27.93","35.00","50.45","21.31","38.6","0","0"
"Jeremy Lin","Jeremy-Lin-916","4100","PG/SG","46.92","230","19.1","105.10","22.66","21.00","34.06","16.31","21.86","0","0"
"DeAndre Jordan","DeAndre-Jordan-1486","6400","C","49.49","212.5","30.4","100.08","14.28","32.00","42.23","20.38","34.03","0","0"
"Collin Sexton","Collin-Sexton-408896","4800","PG","49.65","208.5","29.3","103.60","25.79","34.00","28.91","7.8","25.49","0","0"
"Jayson Tatum","Jayson-Tatum-37782","6300","SF/PF","47.17","212.5","30.7","101.75","20.46","33.00","42.38","17.4","33.4","0","0"
"Jonathan Isaac","Jonathan-Isaac-37841","3700","SF/PF","53.63","214","25.1","105.10","15.10","25.00","31.16","15.05","19.62","0","0"
"George Hill","George-Hill-993","3500","PG/SG","42.78","230","21.2","98.80","13.75","23.00","31.84","16.59","18.5","0","0"
"Taj Gibson","Taj-Gibson-1277","4400","PF/C","52.11","214","26.3","100.67","14.06","27.00","31.7","12.96","23.26","0","0"
"TJ Warren","TJ-Warren-18634","6200","SF/PF","49.41","234","34.7","108.80","21.65","35.00","43.91","18.81","32.82","0","0"
"James Johnson","James-Johnson-1195","3900","SF/PF","49.48","212","21.4","106.90","13.44","25.00","26.83","10.76","20.62","0","0"
"Wendell Carter","Wendell-Carter-408878","4900","PF/C","54.87","200.5","24.0","104.50","18.07","27.00","29.54","8.02","25.87","0","0"
"Dario Saric","Dario-Saric-36004","4300","PF","49.82","214","20.6","100.67","20.91","24.00","38.06","18.41","22.67","0","0"
"Trevor Ariza","Trevor-Ariza-1323","5800","SF/PF","36.97","212","39.5","103.80","18.86","38.00","40.14","14.97","30.48","0","0"
"Mikal Bridges","Mikal-Bridges-408842","4000","SG/SF","34.07","234","32.4","108.80","11.22","33.00","23.84","6.43","21.02","0","0"
"Shabazz Napier","Shabazz-Napier-18598","3600","PG/SG","39.34","203.5","17.5","114.62","24.71","22.00","34.4","15.42","18.85","0","0"
"C.J. McCollum","C.J.-McCollum-17121","6400","PG/SG","46.27","223.5","33.7","104.50","25.56","34.00","44.43","19.29","33.43","0","0"
"Deandre Ayton","Deandre-Ayton-409301","7800","C","57.96","234","34.6","108.80","20.53","34.00","46.2","12.47","40.74","0","0"
"Tyreke Evans","Tyreke-Evans-1070","3800","SG/SF","44.09","200.5","18.3","107.67","25.64","19.00","26.8","11.53","19.78","0","0"
"Kelly Oubre","Kelly-Oubre-18925","3900","SG/SF","34.07","234","24.4","108.80","19.32","24.00","35.04","16.63","20.3","0","0"
"Nikola Vucevic","Nikola-Vucevic-13296","9300","C","53.63","214","31.4","105.10","25.85","34.00","62.3","23.75","48.37","0","0"
"Damian Lillard","Damian-Lillard-13900","8600","PG","48.47","223.5","36.3","104.50","28.73","35.00","56.86","21.57","44.56","0","0"
"Mike Conley","Mike-Conley-1062","7400","PG","38.78","203.5","33.3","103.30","24.67","34.00","57.19","22.13","38.28","0","0"
"Jusuf Nurkic","Jusuf-Nurkic-18619","8000","C","49.79","223.5","29.3","104.50","25.09","30.00","53.81","22.42","41.36","0","0"
"John Collins","John-Collins-37823","7500","PF/C","47.41","230","31.3","105.10","22.85","33.00","60.57","24.8","38.75","0","0"
"Cedi Osman","Cedi-Osman-18912","4500","SF/PF","29.76","208.5","30.2","103.60","18.00","32.00","29.9","10.4","23.11","0","0"
"Rodions Kurucs","Rodions-Kurucs-408801","4500","SF/PF","41.59","203.5","28.7","114.62","16.90","27.00","23.88","4.78","23.09","0","0"
"Dewayne Dedmon","Dewayne-Dedmon-16894","5500","PF/C","47.41","230","28.0","105.10","18.32","28.00","39.69","16.83","28.23","0","0"
"Andrew Wiggins","Andrew-Wiggins-18620","6600","SG/SF","47.81","214","36.9","100.67","23.78","37.00","44.22","19.25","33.78","0","0"
"Eric Bledsoe","Eric-Bledsoe-1031","6600","PG/SG","56.27","230","28.8","98.80","20.56","30.00","49.31","20.65","33.8","0","0"
"DeMarre Carroll","DeMarre-Carroll-1174","4700","SF/PF","36.26","203.5","27.8","114.62","18.14","29.00","40.18","19.15","24","0","0"
"Maurice Harkless","Maurice-Harkless-16971","4200","SF/PF","38.53","223.5","28.2","104.50","13.08","29.00","33.67","14.36","21.46","0","0"
"J.J. Barea","J.J.-Barea-18605","4400","PG/SG","50.71","212.5","19.9","100.08","28.58","20.00","33.91","16.28","22.49","0","0"
"Danilo Gallinari","Danilo-Gallinari-1329","7000","SF/PF","48.70","234","29.8","108.38","23.04","34.00","50.91","20.96","35.7","0","0"
"Evan Fournier","Evan-Fournier-13913","5300","SG/SF","39.93","214","30.1","105.10","20.61","31.00","34.67","14.86","27.02","0","0"
"Joe Ingles","Joe-Ingles-18627","5300","SG/SF","37.73","208.5","29.2","98.88","18.35","32.00","40.85","18.04","27","0","0"
"Jaren Jackson","Jaren-Jackson-409099","5600","PF/C","59.04","203.5","25.2","103.30","23.22","28.00","32.23","8.7","28.42","0","0"
"Meyers Leonard","Meyers-Leonard-13905","3200","PF/C","52.06","223.5","16.9","104.50","14.79","15.00","27.91","13.19","16.22","0","0"
"Daniel Hamilton","Daniel-Hamilton-35210","3400","SG/SF","36.71","230","10.2","105.10","21.00","20.00","17.09","3.6","17.12","0","0"
"Russell Westbrook","Russell-Westbrook-1083","11300","PG","47.90","223.5","35.9","102.62","36.02","36.00","63.26","19.46","56.89","0","0"
"Aaron Gordon","Aaron-Gordon-18601","7100","SF/PF","53.49","214","35.7","105.10","18.72","35.00","45.87","19.09","35.61","0","0"
"Tobias Harris","Tobias-Harris-13332","7100","SF/PF","48.70","234","30.5","108.38","23.41","34.00","47.66","19.61","35.46","0","0"
"Jeff Green","Jeff-Green-1314","5100","SF/PF","49.73","212","31.3","103.80","17.01","33.00","37.64","19.03","25.47","0","0"
"Ed Davis","Ed-Davis-1265","3700","C","48.72","203.5","19.0","114.62","11.91","20.00","30.95","13.59","18.39","0","0"
"Emmanuel Mudiay","Emmanuel-Mudiay-18936","6000","PG","35.09","223","29.6","100.17","28.76","32.00","40.35","18.61","29.82","0","0"
"Kyle Anderson","Kyle-Anderson-18615","5200","PG/SF","31.70","203.5","32.8","103.30","12.86","35.00","34.29","14.02","25.82","0","0"
"Garrett Temple","Garrett-Temple-14077","3900","SG/SF","30.02","203.5","32.7","103.30","11.30","31.00","31.02","13.93","19.29","0","0"
"Devin Booker","Devin-Booker-18949","9000","PG/SG","53.90","234","36.9","108.80","34.37","36.00","66.38","24.76","44.46","0","0"
"Dennis Smith Jr.","Dennis-Smith-Jr.-37847","4900","PG","50.71","212.5","24.5","100.08","22.54","28.00","33.33","13.81","24.22","0","0"
"Jeff Teague","Jeff-Teague-1005","6200","PG","49.86","214","0","100.67","0","30.00","49.64","20.22","30.64","0","0"
"Giannis Antetokounmpo","Giannis-Antetokounmpo-16852","11700","SF/PF","52.15","230","32.5","98.80","31.13","33.00","68.6","25.31","57.65","0","0"
"Seth Curry","Seth-Curry-16825","3200","PG/SG","41.27","223.5","17.4","104.50","16.34","18.00","30.25","15.73","15.73","0","0"
"Damyean Dotson","Damyean-Dotson-37795","3300","SG/SF","38.02","223","19.2","100.17","12.53","20.00","27.96","13.66","16.22","0","0"
"Harrison Barnes","Harrison-Barnes-13901","5600","SF/PF","42.69","212.5","32.7","100.08","21.56","33.00","35.24","15.85","27.51","0","0"
"Josh Richardson","Josh-Richardson-18922","6900","SG/SF","43.86","212","35.2","106.90","20.48","34.00","49.79","19.85","33.87","0","0"
"Jordan Clarkson","Jordan-Clarkson-18631","5300","PG/SG","40.14","208.5","29.2","103.60","23.29","29.00","42.69","23.04","25.86","0","0"
"Domantas Sabonis","Domantas-Sabonis-35217","7000","PF/C","55.03","200.5","24.8","107.67","27.08","26.00","51.12","25.9","34.17","0","0"
"Shaquille Harrison","Shaquille-Harrison-36065","3300","PG","36.00","200.5","21.3","104.50","15.29","20.00","25.95","13.06","16.06","0","0"
"Terrence Ross","Terrence-Ross-13902","4400","SG/SF","39.93","214","25.7","105.10","19.97","28.00","33.08","18.26","21.41","0","0"
"Derrick Favors","Derrick-Favors-1266","5500","PF/C","47.46","208.5","22.8","98.88","18.72","25.00","35.17","16.37","26.62","0","0"
"Richaun Holmes","Richaun-Holmes-18905","3400","PF/C","57.96","234","15.7","108.80","15.19","15.00","27.67","11.15","16.37","0","0"
"Bojan Bogdanovic","Bojan-Bogdanovic-18571","5400","SG/SF","35.18","200.5","30.6","107.67","19.78","34.00","40.53","20.59","25.9","0","0"
"Jerami Grant","Jerami-Grant-18576","5000","PF","52.09","223.5","33.6","102.62","14.40","33.00","36.45","16.44","23.9","0","0"
"Noah Vonleh","Noah-Vonleh-18597","6500","PF/C","45.16","223","32.0","100.17","15.31","34.00","43.44","20.77","31.05","0","0"
"Antonio Blakeney","Antonio-Blakeney-37811","3100","PG/SG","35.34","200.5","11.0","104.50","26.55","18.00","24.68","11.89","14.79","0","0"
"Nerlens Noel","Nerlens-Noel-18575","3200","C","49.73","223.5","11.7","102.62","11.78","15.00","25.6","12.94","15.22","0","0"
"Bradley Beal","Bradley-Beal-13898","9200","SG","44.28","212","38.3","103.80","29.86","38.00","68.95","29.71","43.75","0","0"
"Malcolm Brogdon","Malcolm-Brogdon-35195","5800","PG/SG","56.27","230","27.2","98.80","22.94","29.00","42.52","19.6","27.61","0","0"
"Patrick Beverley","Patrick-Beverley-14108","3700","PG/SG","44.85","234","24.2","108.38","12.91","23.00","29.36","9.75","17.56","0","0"
"Michael Beasley","Michael-Beasley-1338","3000","SF/PF","55.71","223","0","112.50","0","14.00","18.44","8.0","14.24","0","0"
"Rudy Gobert","Rudy-Gobert-16935","7900","C","48.65","208.5","31.3","98.88","19.49","33.00","52.22","18.52","37.41","0","0"
"Paul George","Paul-George-1245","9700","SF/PF","52.09","223.5","36.2","102.62","34.44","37.00","64.02","28.27","45.89","0","0"
"Jared Dudley","Jared-Dudley-1319","3500","SF/PF","36.26","203.5","27.0","114.62","11.59","27.00","24.28","11.48","16.54","0","0"
"Lonzo Ball","Lonzo-Ball-37885","7700","PG","42.24","223","31.6","112.50","19.47","38.00","48.49","18.36","36.43","0","0"
"Tomas Satoransky ","Tomas-Satoransky--36031","5800","PG/SG","51.07","212","32.3","103.80","16.80","35.00","39.4","16.37","27.38","0","0"
"Kentavious Caldwell-Pope","Kentavious-Caldwell-Pope-16869","4900","SG/SF","35.27","223","24.9","112.50","18.19","30.00","44.49","22.04","23.05","0","0"
"Kevin Knox","Kevin-Knox-408820","5900","SF/PF","50.72","223","38.0","100.17","20.89","36.00","32.4","10.18","27.67","0","0"
"Cory Joseph","Cory-Joseph-13339","3700","PG","41.59","200.5","24.4","107.67","14.76","23.00","30.34","13.1","17.3","0","0"
"Jarrett Allen","Jarrett-Allen-37794","5200","C","48.72","203.5","23.8","114.62","15.97","26.00","33.56","14.58","24.3","0","0"
"Al Horford","Al-Horford-1499","6000","PF/C","54.16","212.5","24.0","101.75","20.47","27.00","37.91","15.56","27.98","0","0"
"Khris Middleton","Khris-Middleton-13990","7300","SG/SF","50.58","230","31.7","98.80","26.24","31.00","55.03","24.34","33.95","0","0"
"Shai Gilgeous-Alexander","Shai-Gilgeous-Alexander-408990","4200","PG/SG","44.85","234","23.7","108.38","15.41","24.00","22.89","7.19","19.55","0","0"
"Josh Jackson","Josh-Jackson-37890","4100","SF/PF","49.41","234","21.4","108.80","21.34","20.00","26.79","12.21","18.99","0","0"
"Dillon Brooks","Dillon-Brooks-37852","3600","SG/SF","44.39","203.5","17.2","103.30","23.95","23.00","30.46","15.85","16.61","0","0"
"Rodney Hood","Rodney-Hood-18629","4300","SG/SF","40.14","208.5","21.5","103.60","12.90","25.00","31.97","12.84","19.82","0","0"
"Avery Bradley","Avery-Bradley-941","3800","SG","35.73","234","28.8","108.38","15.11","30.00","26.16","11.46","17.52","0","0"
"D'Angelo Russell","D'Angelo-Russell-18947","7400","PG/SG","48.04","203.5","29.6","114.62","33.17","29.00","47.13","16.9","33.93","0","0"
"Luka Doncic","Luka-Doncic-408971","7400","SG/SF","44.06","212.5","29.9","100.08","31.68","32.00","39.81","12.51","34","0","0"
"Evan Turner","Evan-Turner-1291","3600","SG/SF","46.27","223.5","19.7","104.50","18.27","21.00","24.32","13.75","16.51","0","0"
"Steven Adams","Steven-Adams-16848","6900","C","49.73","223.5","34.9","102.62","14.82","33.00","41.6","20.79","31.59","0","0"
"Victor Oladipo","Victor-Oladipo-16807","8800","PG/SG","52.01","200.5","32.6","107.67","24.22","34.00","55.6","24.42","40.17","0","0"
"Thaddeus Young","Thaddeus-Young-1289","5600","SF/PF","48.06","200.5","30.0","107.67","19.10","31.00","36.54","13.42","25.41","0","0"
"Dorian Finney-Smith","Dorian-Finney-Smith-36032","3400","SF/PF","34.00","212.5","20.4","100.08","13.78","21.00","24.11","11.64","15.33","0","0"
"Joe Harris","Joe-Harris-18587","5000","SG/SF","37.71","203.5","30.2","114.62","16.42","31.00","33.09","15.03","22.57","0","0"
"Zach Collins","Zach-Collins-37866","3200","PF/C","52.06","223.5","16.4","104.50","18.10","16.00","21.81","11.19","14.35","0","0"
"Spencer Dinwiddie","Spencer-Dinwiddie-18588","6500","PG/SG","48.04","203.5","28.3","114.62","29.63","29.00","44.77","20.28","29.05","0","0"
"Tyson Chandler","Tyson-Chandler-1482","3300","C","56.19","223","17.7","112.50","12.51","18.00","27.93","14.73","14.73","0","0"
"Josh Hart","Josh-Hart-37889","6200","PG/SG","35.27","223","30.7","112.50","16.19","36.00","38.12","19.17","27.66","0","0"
"Justise Winslow","Justise-Winslow-18921","6700","PG/SF","35.78","212","29.8","106.90","24.82","30.00","45.58","17.31","29.79","0","0"
"Bam Adebayo","Bam-Adebayo-37835","4000","PF/C","56.04","212","20.8","106.90","14.69","18.00","26.13","15.68","17.74","0","0"
"Luke Kornet","Luke-Kornet-37800","5400","PF/C","57.73","223","22.2","100.17","20.04","28.00","36.95","15.24","23.93","0","0"
"Kyle Korver","Kyle-Korver-1269","3300","SG/SF","37.73","208.5","20.5","98.88","17.40","20.00","25.72","11.59","14.62","0","0"
"Robin Lopez","Robin-Lopez-1466","3200","C","50.38","200.5","17.5","104.50","21.06","17.00","27.76","13.92","13.92","0","0"
"Montrezl Harrell","Montrezl-Harrell-18930","7200","PF/C","55.47","234","23.0","108.38","26.79","27.00","46.57","24.36","31.19","0","0"
"Jalen Jones","Jalen-Jones-35996","3100","SF/PF","29.76","208.5","13.4","103.60","16.54","19.00","23.09","10.72","13.38","0","0"
"Brook Lopez","Brook-Lopez-1498","5700","C","60.32","230","27.2","98.80","20.62","27.00","37.11","16.33","24.59","0","0"
"Vince Carter","Vince-Carter-1066","3200","SF/PF","36.71","230","17.7","105.10","20.70","18.00","23.4","12.03","13.78","0","0"
"Jae Crowder","Jae-Crowder-13942","4700","SF/PF","38.76","208.5","23.0","98.88","20.57","26.00","33.84","15.29","19.93","0","0"
"Allonzo Trier","Allonzo-Trier-554950","3400","PG/SG","50.72","223","18.8","100.17","24.45","20.00","15.27","3.52","14.42","0","0"
"Lou Williams","Lou-Williams-1044","6700","PG/SG","48.20","234","25.0","108.38","35.65","26.00","43.36","17.4","28.43","0","0"
"Enes Kanter","Enes-Kanter-13299","5100","C","56.90","223","20.0","100.17","20.91","18.00","30.34","15.8","21.58","0","0"
"Darren Collison","Darren-Collison-1060","5600","PG","41.59","200.5","26.2","107.67","16.48","28.00","32.39","14.33","23.61","0","0"
"Myles Turner","Myles-Turner-18915","7600","C","62.72","200.5","28.2","107.67","21.13","30.00","52.11","23.81","31.83","0","0"
"Kelly Olynyk","Kelly-Olynyk-16845","4300","PF/C","61.00","212","21.5","106.90","16.55","18.00","27.06","15.09","17.99","0","0"
"Rodney McGruder","Rodney-McGruder-16850","3500","SG/SF","40.75","212","21.8","106.90","18.05","20.00","22.41","9.08","14.6","0","0"
"Alex Len","Alex-Len-16886","5400","C","47.41","230","25.8","105.10","29.47","23.00","31.74","16.43","22.45","0","0"
"Chasson Randle","Chasson-Randle-36002","3200","PG/SG","51.07","212","15.3","103.80","20.64","16.00","21.78","10.84","13.25","0","0"
"Tristan Thompson","Tristan-Thompson-13308","5900","C","51.37","208.5","23.0","103.60","22.56","25.00","32.96","14.52","24.04","0","0"
"Marcin Gortat","Marcin-Gortat-1479","3400","C","59.22","234","12.6","108.38","17.53","16.00","20.41","8.26","13.84","0","0"
"Terrance Ferguson","Terrance-Ferguson-37871","3100","SG/SF","38.52","223.5","16.0","102.62","12.68","23.00","19.28","7.58","12.2","0","0"
"Larry Nance","Larry-Nance-18946","6300","PF/C","53.37","208.5","29.7","103.60","17.81","25.00","37.81","19.64","24.71","0","0"
"Thon Maker","Thon-Maker-35194","3200","PF/C","56.04","230","13.3","98.80","15.03","15.00","21.15","9.97","12.31","0","0"
"Sterling Brown","Sterling-Brown-37821","3200","SG/SF","41.64","230","15.7","98.80","15.59","16.00","23.18","12.04","12.04","0","0"
"Sam Dekker","Sam-Dekker-18929","3200","SF/PF","36.97","212","17.6","103.80","17.27","16.00","20.19","10.07","11.99","0","0"
"Ersan Ilyasova","Ersan-Ilyasova-1301","3300","PF/C","52.15","230","0","98.80","0","15.00","19.85","9.74","12.33","0","0"
"Tyus Jones","Tyus-Jones-18938","5800","PG","37.10","214","30.7","100.67","16.15","24.00","29.83","11.61","21.38","0","0"
"Dante Exum","Dante-Exum-18626","3900","PG/SG","44.16","208.5","18.8","98.88","26.46","16.00","24.76","11.26","14.27","0","0"
"Jonathon Simmons","Jonathon-Simmons-31808","3500","SG/SF","47.02","214","17.0","105.10","25.01","18.00","21.09","8.69","12.78","0","0"
"Otto Porter","Otto-Porter-17069","5300","SF/PF","36.97","212","13.0","103.80","29.72","20.00","30.46","16.07","19.22","0","0"
"Gorgui Dieng","Gorgui-Dieng-16939","3200","PF/C","52.11","214","13.0","100.67","16.15","12.00","17.5","8.5","11.61","0","0"
"Patrick McCaw","Patrick-McCaw-35222","3300","SG/SF","35.64","208.5","18.0","103.60","5.18","18.00","23.59","11.93","11.93","0","0"
"Mohamed Bamba","Mohamed-Bamba-409026","4300","C","50.53","214","14.0","105.10","21.15","14.00","16.51","4.06","15.55","0","0"
"Semi Ojeleye","Semi-Ojeleye-37786","3100","SF/PF","36.83","212.5","10.8","101.75","15.37","19.00","21.67","11.13","11.13","0","0"
"Jabari Parker","Jabari-Parker-18593","3500","SF/PF","47.22","200.5","0","104.50","0","12.00","21.16","10.52","12.35","0","0"
"Mike Scott","Mike-Scott-13999","3300","SF/PF","48.70","234","15.0","108.38","14.66","14.00","23.25","6.51","11.63","0","0"
"Tony Snell","Tony-Snell-16872","3300","SG/SF","43.79","230","18.7","98.80","11.90","17.00","20.09","10.4","11.53","0","0"
"Devin Harris","Devin-Harris-1076","3200","PG/SG","50.71","212.5","14.4","100.08","17.18","15.00","19.72","11.14","11.14","0","0"
"Tyler Johnson","Tyler-Johnson-18720","5300","PG/SG","56.12","212","25.0","106.90","21.12","22.00","28.43","12.71","18.06","0","0"
"Guerschon Yabusele","Guerschon-Yabusele-35176","3000","PF/C","47.17","212.5","7.3","101.75","16.14","12.00","18.4","9.86","9.86","0","0"
"Maxi Kleber","Maxi-Kleber-37845","3600","PF/C","42.69","212.5","20.0","100.08","12.97","14.00","19.33","9.74","11.81","0","0"
"Jamal Crawford","Jamal-Crawford-1075","3100","PG/SG","49.41","234","15.5","108.80","20.71","14.00","17.9","10.06","10.06","0","0"
"Frank Ntilikina","Frank-Ntilikina-37796","3400","PG/SG","35.09","223","16.8","100.17","16.50","18.00","17.66","9.64","11.06","0","0"
"Shelvin Mack","Shelvin-Mack-13354","4300","PG","38.78","203.5","18.0","103.30","15.97","16.00","20.81","11.05","13.63","0","0"
"Doug McDermott","Doug-McDermott-18583","3000","SF/PF","35.18","200.5","18.0","107.67","13.87","15.00","18.63","9.32","9.32","0","0"
"Anthony Tolliver","Anthony-Tolliver-1263","3300","SF/PF","49.82","214","10.3","100.67","14.04","12.00","17.8","9.35","9.35","0","0"
"Dirk Nowitzki","Dirk-Nowitzki-1346","3100","PF/C","51.62","212.5","10.0","100.08","23.62","10.00","12.35","7.05","8.52","0","0"
"Jerian Grant","Jerian-Grant-18900","3700","PG","35.81","214","14.4","105.10","14.71","12.00","16.39","8.68","9.89","0","0"
"Joakim Noah","Joakim-Noah-1404","3000","C","62.49","203.5","8.0","103.30","18.41","10.00","13.48","7.19","7.91","0","0"
"Tyrone Wallace","Tyrone-Wallace-35220","3200","PG/SG","48.20","234","11.8","108.38","16.46","12.00","13.43","4.71","8.41","0","0"
"Ryan Arcidiacono","Ryan-Arcidiacono-36050","3400","PG","36.00","200.5","25.3","104.50","9.80","14.00","15.65","7.47","8.62","0","0"
"Hamidou Diallo","Hamidou-Diallo-408800","3100","SG/SF","38.52","223.5","10.6","102.62","17.09","11.00","7.94","1.45","7.85","0","0"
"Nik Stauskas","Nik-Stauskas-18636","3100","SG/SF","41.27","223.5","11.6","104.50","17.11","10.00","12.18","5.87","7.52","0","0"
"Troy Brown","Troy-Brown-409043","3100","SG/SF","36.97","212","7.2","103.80","16.36","10.00","7.97","1.84","7.53","0","0"
"Royce O'Neale","Royce-O'Neale-37872","3100","SF","38.76","208.5","9.5","98.88","9.35","10.00","10.95","5.51","7.41","0","0"
"Thabo Sefolosha","Thabo-Sefolosha-1271","3300","SF/PF","38.76","208.5","12.7","98.88","11.86","11.00","11.89","6.66","7.89","0","0"
"Patrick Patterson","Patrick-Patterson-1260","3000","PF/C","51.67","223.5","11.9","102.62","12.63","11.00","12.58","6.01","7.1","0","0"
"Sviatoslav Mykhailiuk","Sviatoslav-Mykhailiuk-409280","3000","SG/SF","39.87","223","4.0","112.50","20.53","10.00","7.61","1.61","7.01","0","0"
"Dion Waiters","Dion-Waiters-13897","3700","SG/SF","43.86","212","10.0","106.90","43.48","10.00","14.27","6.84","8.6","0","0"
"Derrick Jones","Derrick-Jones-36064","4700","SF/PF","40.75","212","18.5","106.90","15.55","13.00","19.46","10.4","10.4","0","0"
"Abdel Nader","Abdel-Nader-35179","3400","SF","39.63","223.5","16.6","102.62","17.29","11.00","14.65","7.4","7.4","0","0"
"Wes Iwundu","Wes-Iwundu-37839","3200","SG/SF","39.85","214","16.7","105.10","13.53","13.00","13.77","6.89","6.89","0","0"
"Boban Marjanovic","Boban-Marjanovic-31807","3400","C","59.22","234","10.2","108.38","26.71","4.00","10.22","0.92","5.23","0","0"
"Ivica Zubac","Ivica-Zubac-35226","3800","C","56.19","223","23.8","112.50","18.26","6.00","8.7","4.44","5.47","0","0"
"D.J. Wilson","D.J.-Wilson-37822","3500","PF/C","52.15","230","18.3","98.80","13.03","4.00","7.57","3.33","3.92","0","0"
"Jerryd Bayless","Jerryd-Bayless-1021","3000","PG/SG","47.81","214","9.3","100.67","21.87","5.00","5.62","3.26","3.26","0","0"
"Omri Casspi","Omri-Casspi-1270","3100","SF/PF","31.70","203.5","10.0","103.30","17.52","4.00","5.94","2.84","3.38","0","0"
"Elie Okobo","Elie-Okobo-409300","3200","PG","44.18","234","13.5","108.80","18.67","4.00","2.92","0.52","2.88","0","0"
"Jaron Blossomgame","Jaron-Blossomgame-570197","3200","SF/PF","29.76","208.5","21.2","103.60","10.46","4.00","2.65","0.47","2.61","0","0"
"Dwight Powell","Dwight-Powell-18566","3800","PF/C","51.62","212.5","16.7","100.08","19.92","3.00","4.57","2.36","2.97","0","0"
"Justin Anderson","Justin-Anderson-18927","3100","SF/PF","39.48","230","10.8","105.10","13.05","3.00","3.74","1.81","2.35","0","0"
