"nameCol","idCol","salaryCol","positionCol","dvpCol","ouCol","mpgCol","paceCol","usgCol","pminCol","ceilCol","floorCol","pointsCol","predictCol","actualCol"
"Nene Hilario","Nene-Hilario-17321","3100","C","48.37","207.5","9.8","101.42","12.40","20.00","37.88","18.69","20.32","0","0"
"Shelvin Mack","Shelvin-Mack-13354","3400","PG/SG","38.74","207.5","16.4","103.30","23.37","28.00","38.07","18.91","21.94","0","0"
"Pau Gasol","Pau-Gasol-1502","3100","C","59.11","223","12.2","99.70","10.10","15.00","27.76","8.3","18.12","0","0"
"Garrett Temple","Garrett-Temple-14077","3500","SG/SF","37.67","207.5","31.4","103.30","13.36","30.00","36.83","16.76","19.93","0","0"
"LaMarcus Aldridge","LaMarcus-Aldridge-1349","8200","PF/C","59.11","223","33.1","99.70","28.16","34.00","65.86","22.15","46.15","0","0"
"Quincy Pondexter","Quincy-Pondexter-1237","3000","SF","38.41","223","3.5","99.70","12.97","18.00","33.0","16.51","16.51","0","0"
"Jaren Jackson","Jaren-Jackson-409099","5100","PF/C","52.96","207.5","25.3","103.30","20.64","28.00","39.28","9.2","28.06","0","0"
"James Harden","James-Harden-1037","12400","PG/SG","47.30","207.5","38.9","101.42","44.75","39.00","95.12","22.49","67.94","0","0"
"Davis Bertans","Davis-Bertans-36051","3900","SF/PF","59.11","223","25.0","99.70","11.55","23.00","42.62","21.32","21.32","0","0"
"Jeremy Lamb","Jeremy-Lamb-13955","5200","SG/SF","47.11","223","22.2","103.00","24.30","29.00","45.26","18.23","28.01","0","0"
"Kemba Walker","Kemba-Walker-13335","7900","PG","52.72","223","30.4","103.00","33.40","34.00","71.38","24.74","42.36","0","0"
"Patty Mills","Patty-Mills-13977","3700","PG/SG","43.23","223","22.4","99.70","19.78","22.00","39.54","19.78","19.78","0","0"
"Marc Gasol","Marc-Gasol-1493","7300","C","52.96","207.5","31.6","103.30","20.82","33.00","59.72","19.53","38.83","0","0"
"Derrick White","Derrick-White-37858","5400","PG/SG","43.23","223","31.0","99.70","18.68","30.00","48.33","19.27","28.46","0","0"
"Austin Rivers","Austin-Rivers-13903","4700","PG/SG","40.29","207.5","37.7","101.42","14.77","36.00","39.51","14.85","24.71","0","0"
"Mike Conley","Mike-Conley-1062","7600","PG","38.74","207.5","32.0","103.30","25.78","34.00","70.13","24.97","39.89","0","0"
"DeMar DeRozan","DeMar-DeRozan-1053","8500","SG/SF","51.23","223","35.7","99.70","27.86","35.00","70.01","23.73","44.03","0","0"
"Marvin Williams","Marvin-Williams-1318","4900","SF/PF","50.67","223","28.0","103.00","16.65","30.00","45.53","20.05","25.31","0","0"
"Gerald Green","Gerald-Green-13374","4000","SG/SF","42.89","207.5","26.3","101.42","18.57","26.00","36.43","20.42","20.42","0","0"
"Danuel House","Danuel-House-36029","4200","SF/PF","47.30","207.5","28.7","101.42","13.62","30.00","38.55","13.16","21.37","0","0"
"JaMychal Green","JaMychal-Green-18729","4800","SF/PF","52.96","207.5","23.3","103.30","19.28","25.00","44.98","21.32","24.25","0","0"
"Nicolas Batum","Nicolas-Batum-1315","5100","SG/SF","38.56","223","29.9","103.00","12.73","29.00","43.01","16.52","25.15","0","0"
"Jakob Poeltl","Jakob-Poeltl-35187","3500","C","53.58","223","16.4","99.70","12.37","15.00","34.22","14.31","17.12","0","0"
"Willy Hernangomez","Willy-Hernangomez-18901","4000","C","50.62","223","15.1","103.00","25.97","15.00","37.32","16.23","19.44","0","0"
"P.J. Tucker","P.J.-Tucker-13947","4400","SF/PF","36.20","207.5","35.6","101.42","9.23","38.00","32.47","14.61","20.87","0","0"
"Justin Holiday","Justin-Holiday-14559","3400","SG/SF","37.67","207.5","18.6","103.30","15.04","21.00","25.25","8.26","16.03","0","0"
"Tony Parker","Tony-Parker-982","3400","PG","42.58","223","14.2","103.00","26.72","17.00","30.62","15.85","15.85","0","0"
"Bismack Biyombo","Bismack-Biyombo-13312","4200","C","50.62","223","18.9","103.00","14.56","21.00","31.88","13.73","19.39","0","0"
"Michael Kidd-Gilchrist","Michael-Kidd-Gilchrist-13896","3500","SF/PF","38.56","223","17.7","103.00","15.78","19.00","28.62","11.05","15.9","0","0"
"Dante Cunningham","Dante-Cunningham-1259","3000","SF/PF","49.84","223","5.2","99.70","17.94","18.00","27.01","11.77","13.51","0","0"
"Bryn Forbes","Bryn-Forbes-36052","4700","PG/SG","52.30","223","33.0","99.70","16.32","30.00","34.68","16.03","21.17","0","0"
"Marquese Chriss","Marquese-Chriss-35230","3100","PF/C","51.23","207.5","11.0","101.42","20.98","14.00","24.85","10.99","13.93","0","0"
"Omri Casspi","Omri-Casspi-1270","3400","SF/PF","36.70","207.5","12.3","103.30","15.05","16.00","28.09","13.5","14.05","0","0"
"James Ennis","James-Ennis-18599","3300","SG/SF","36.20","207.5","13.0","101.42","12.11","20.00","26.87","13.44","13.44","0","0"
"Miles Bridges","Miles-Bridges-409262","3200","SF/PF","50.67","223","17.0","103.00","13.98","15.00","17.0","2.72","12.14","0","0"
"Malik Monk","Malik-Monk-37827","3900","PG/SG","52.72","223","18.4","103.00","26.70","20.00","25.08","11.51","13.98","0","0"
"Joakim Noah","Joakim-Noah-1404","3200","C","53.40","207.5","8.4","103.30","20.84","13.00","19.37","9.12","10.06","0","0"
"Gary Clark","Gary-Clark-570141","3300","SF/PF","41.69","207.5","9.6","101.42","7.49","12.00","14.22","1.61","10.16","0","0"
"Jevon Carter","Jevon-Carter-409100","3300","PG/SG","38.74","207.5","12.0","103.30","17.09","12.00","12.11","1.75","8.65","0","0"
"Devonte' Graham","Devonte'-Graham-408968","3700","PG/SG","42.58","223","20.4","103.00","18.65","11.00","11.84","1.9","8.46","0","0"
"Brandon Knight","Brandon-Knight-13336","3200","PG/SG","47.30","207.5","10.8","101.42","23.06","5.00","6.65","3.12","4.29","0","0"
