"nameCol","idCol","salaryCol","positionCol","dvpCol","ouCol","mpgCol","paceCol","usgCol","pminCol","ceilCol","floorCol","pointsCol","predictCol","actualCol"
"Marvin Williams","Marvin-Williams-1318","4900","SF/PF","50.27","223","32.7","103.00","13.02","32.00","55.99","6.39","28.15","0","0"
"Malik Monk","Malik-Monk-37827","3800","PG/SG","51.74","223","20.7","103.00","25.73","22.00","39.33","5.68","20.22","0","0"
"Kemba Walker","Kemba-Walker-13335","8700","PG","51.74","223","35.1","103.00","26.85","35.00","84.07","21.67","45.15","0","0"
"Tony Parker","Tony-Parker-982","3400","PG","44.25","223","17.5","103.00","28.33","17.00","28.36","4.17","15.97","0","0"
"Nicolas Batum","Nicolas-Batum-1315","5100","SG/SF","34.94","223","33.1","103.00","14.10","32.00","40.09","9.97","23.08","0","0"
"Jeremy Lamb","Jeremy-Lamb-13955","5800","SG/SF","47.84","223","25.0","103.00","21.48","28.00","44.22","12.08","25.86","0","0"
"Miles Bridges","Miles-Bridges-409262","3600","SF/PF","50.27","223","17.8","103.00","13.06","19.00","21.73","11.73","15.52","0","0"
"Cody Zeller","Cody-Zeller-16836","4000","C","58.79","223","0","103.00","0","22.00","36.15","7.5","19.23","0","0"
"Michael Kidd-Gilchrist","Michael-Kidd-Gilchrist-13896","3600","SF/PF","34.94","223","20.3","103.00","16.66","20.00","32.02","6.52","16.02","0","0"
"Bismack Biyombo","Bismack-Biyombo-13312","3700","C","58.79","223","20.3","103.00","10.31","9.00","14.62","2.56","8.55","0","0"
"Willy Hernangomez","Willy-Hernangomez-18901","3700","C","58.79","223","12.0","103.00","20.24","4.00","9.72","1.25","4.86","0","0"
