"nameCol","idCol","salaryCol","positionCol","dvpCol","ouCol","mpgCol","paceCol","usgCol","pminCol","ceilCol","floorCol","pointsCol","predictCol","actualCol"
"Zaza Pachulia","Zaza-Pachulia-1455","4200","C","51.67","221.5","25.0","100.30","10.56","30.00","49.68","9.22","27.69","0","0"
"Justin Holiday","Justin-Holiday-14559","3700","SG/SF","38.65","208.5","23.6","103.30","15.64","32.00","42.0","13.6","23.81","0","0"
"Jahlil Okafor","Jahlil-Okafor-18902","4600","C","51.59","221.5","11.3","104.88","17.63","30.00","55.5","13.43","31.46","0","0"
"Julius Randle","Julius-Randle-18632","8400","PF/C","51.27","221.5","29.5","104.88","27.45","36.00","83.18","20.39","46.55","0","0"
"Corey Brewer","Corey-Brewer-1278","3500","SG/SF","32.49","225","20.0","108.33","16.87","30.00","41.48","5.93","20.75","0","0"
"Kris Dunn","Kris-Dunn-35215","6300","PG/SG","56.98","223.5","29.4","104.50","20.79","33.00","63.85","21.09","37.06","0","0"
"Darius Miller","Darius-Miller-13951","3400","SF/PF","34.99","221.5","27.8","104.88","10.32","29.00","38.16","6.36","19.09","0","0"
"Jeremy Lin","Jeremy-Lin-916","4200","PG/SG","53.05","223.5","24.6","105.10","25.35","25.00","44.19","11.33","23.32","0","0"
"Jrue Holiday","Jrue-Holiday-1073","8600","PG/SG","52.31","221.5","38.0","104.88","25.18","38.00","67.63","22.07","45.42","0","0"
"Zach LaVine","Zach-LaVine-18622","6900","PG/SG","56.98","223.5","29.4","104.50","31.22","34.00","57.89","18.43","37.69","0","0"
"Lauri Markkanen","Lauri-Markkanen-37809","6600","PF","52.95","223.5","30.1","104.50","21.62","33.00","65.47","17.81","35.62","0","0"
"Reggie Jackson","Reggie-Jackson-13352","4800","PG/SG","51.38","221.5","29.9","100.30","18.67","28.00","38.53","13.51","25.4","0","0"
"Jaren Jackson","Jaren-Jackson-409099","5300","PF/C","58.48","208.5","25.9","103.30","22.88","28.00","39.27","22.22","28.05","0","0"
"Elfrid Payton","Elfrid-Payton-18602","6100","PG","42.50","221.5","26.7","104.88","19.07","29.00","44.64","13.41","28.36","0","0"
"Mike Conley","Mike-Conley-1062","7500","PG","43.71","208.5","30.7","103.30","24.95","34.00","69.9","14.85","39.38","0","0"
"Jeremy Lamb","Jeremy-Lamb-13955","5300","SG/SF","43.24","208.5","26.7","103.00","23.84","29.00","46.75","10.1","27.76","0","0"
"Marvin Williams","Marvin-Williams-1318","4700","SF/PF","42.63","208.5","27.2","103.00","14.16","30.00","49.28","5.87","24.65","0","0"
"Dewayne Dedmon","Dewayne-Dedmon-16894","5600","PF/C","55.66","223.5","27.2","105.10","17.10","27.00","47.0","12.36","29.3","0","0"
"Marc Gasol","Marc-Gasol-1493","7400","C","58.48","208.5","31.0","103.30","23.73","34.00","60.33","19.83","38.21","0","0"
"J.J. Redick","J.J.-Redick-1030","5500","SG/SF","32.49","225","31.2","108.33","22.28","32.00","47.2","11.26","28.3","0","0"
"Joel Embiid","Joel-Embiid-18578","10500","C","50.33","225","30.8","108.33","36.94","34.00","85.09","36.98","53.28","0","0"
"Omri Casspi","Omri-Casspi-1270","3500","SF/PF","38.67","208.5","23.2","103.30","17.69","22.00","35.06","4.21","17.54","0","0"
"Willy Hernangomez","Willy-Hernangomez-18901","3900","C","48.10","208.5","16.0","103.00","19.32","17.00","38.96","4.72","19.49","0","0"
"Trae Young","Trae-Young-409063","6800","PG","53.05","223.5","31.2","105.10","31.91","32.00","47.54","27.47","33.96","0","0"
"Chandler Hutchison","Chandler-Hutchison-408877","3800","SF/PF","42.88","223.5","28.1","104.50","11.05","28.00","26.45","14.96","18.89","0","0"
"DeAndre Bembry","DeAndre-Bembry-35198","5300","SG/SF","38.87","223.5","32.8","105.10","17.50","32.00","43.7","12.05","26.2","0","0"
"Michael Kidd-Gilchrist","Michael-Kidd-Gilchrist-13896","3700","SF/PF","36.70","208.5","23.2","103.00","13.34","24.00","36.54","7.44","18.28","0","0"
"Luke Kennard","Luke-Kennard-37814","3800","SG/SF","35.97","221.5","22.5","100.30","20.45","24.00","35.04","6.05","18.72","0","0"
"Taurean Prince","Taurean-Prince-35218","4900","SF","38.87","223.5","18.0","105.10","22.15","26.00","42.71","8.56","24.05","0","0"
"John Collins","John-Collins-37823","7900","PF/C","55.66","223.5","31.2","105.10","24.68","32.00","71.41","15.45","38.81","0","0"
"Kemba Walker","Kemba-Walker-13335","8100","PG","49.55","208.5","32.7","103.00","34.63","34.00","72.43","17.9","39.69","0","0"
"Bobby Portis","Bobby-Portis-18909","5800","PF/C","57.24","223.5","19.8","104.50","28.02","24.00","56.77","5.25","28.4","0","0"
"Nicolas Batum","Nicolas-Batum-1315","4500","SG/SF","36.70","208.5","28.3","103.00","14.74","31.00","39.93","8.41","22.01","0","0"
"Nikola Mirotic","Nikola-Mirotic-18584","7000","PF/C","46.06","221.5","24.5","104.88","20.95","31.00","59.84","11.48","33.19","0","0"
"Rudy Gay","Rudy-Gay-1341","5700","SF/PF","48.04","225","27.7","99.70","24.77","29.00","41.37","11.22","27.84","0","0"
"Ben Simmons","Ben-Simmons-35184","8700","PG/SF","42.20","225","33.7","108.33","25.44","34.00","61.79","25.33","42.35","0","0"
"Wilson Chandler","Wilson-Chandler-1327","4000","SF/PF","38.07","225","28.0","108.33","11.48","28.00","31.91","7.79","19.47","0","0"
"Reggie Bullock","Reggie-Bullock-16943","4500","SG/SF","42.27","221.5","32.2","100.30","17.27","34.00","39.61","10.26","21.87","0","0"
"Blake Griffin","Blake-Griffin-1503","9700","PF/C","54.77","221.5","37.3","100.30","31.03","36.00","85.67","25.98","46.89","0","0"
"DeMar DeRozan","DeMar-DeRozan-1053","7600","SG/SF","47.73","225","36.7","99.70","26.07","34.00","65.81","18.57","36.06","0","0"
"E'Twaun Moore","E'Twaun-Moore-18582","4000","SG/SF","38.18","221.5","27.8","104.88","12.84","27.00","30.56","5.84","18.31","0","0"
"T.J. McConnell","T.J.-McConnell-18956","3900","PG/SG","42.20","225","22.9","108.33","16.94","24.00","36.56","3.91","18.29","0","0"
"Derrick White","Derrick-White-37858","5400","PG/SG","39.40","225","30.9","99.70","18.34","31.00","45.1","8.0","25.17","0","0"
"Bryn Forbes","Bryn-Forbes-36052","4300","PG/SG","51.83","225","31.6","99.70","15.82","28.00","32.83","5.51","20.03","0","0"
"Garrett Temple","Garrett-Temple-14077","3800","SG/SF","38.65","208.5","28.6","103.30","13.01","29.00","32.36","3.31","17.58","0","0"
"Robin Lopez","Robin-Lopez-1466","3800","C","54.64","223.5","15.7","104.50","17.10","24.00","31.39","6.19","17.34","0","0"
"Marco Belinelli","Marco-Belinelli-1033","4300","SG/SF","33.35","225","25.8","99.70","21.79","23.00","32.19","5.66","19.37","0","0"
"LaMarcus Aldridge","LaMarcus-Aldridge-1349","8300","PF/C","53.43","225","33.6","99.70","29.02","34.00","54.77","19.69","37.16","0","0"
"Bismack Biyombo","Bismack-Biyombo-13312","4200","C","48.10","208.5","21.2","103.00","12.61","21.00","31.81","5.64","18.81","0","0"
"Wayne Selden","Wayne-Selden-36045","3200","SG/SF","56.98","223.5","18.1","104.50","14.57","18.00","27.17","2.96","14.3","0","0"
"Shelvin Mack","Shelvin-Mack-13354","3500","PG/SG","43.71","208.5","20.9","103.30","24.85","20.00","27.26","2.61","15.65","0","0"
"Dante Cunningham","Dante-Cunningham-1259","3000","SF/PF","48.04","225","6.6","99.70","12.92","20.00","26.59","3.02","13.3","0","0"
"Jakob Poeltl","Jakob-Poeltl-35187","3300","C","52.37","225","13.0","99.70","9.45","15.00","28.51","2.97","14.26","0","0"
"Patty Mills","Patty-Mills-13977","3700","PG/SG","39.40","225","22.9","99.70","20.39","22.00","31.56","4.39","15.79","0","0"
"Stanley Johnson","Stanley-Johnson-18913","3200","SF/PF","42.27","221.5","16.2","100.30","16.05","18.00","26.26","3.01","13.57","0","0"
"Tony Parker","Tony-Parker-982","3500","PG","40.44","208.5","16.0","103.00","29.33","16.00","25.77","3.79","14.51","0","0"
"Malik Monk","Malik-Monk-37827","3300","PG/SG","49.55","208.5","15.3","103.00","24.85","16.00","26.57","3.93","13.55","0","0"
"Jabari Parker","Jabari-Parker-18593","4200","SF/PF","52.95","223.5","16.2","104.50","26.56","17.00","33.55","2.75","17.11","0","0"
"JaMychal Green","JaMychal-Green-18729","5100","SF/PF","58.48","208.5","20.7","103.30","22.96","22.00","40.92","4.2","20.47","0","0"
"Jose Calderon","Jose-Calderon-1071","3100","PG","48.93","221.5","13.3","100.30","15.02","18.00","24.65","3.43","12.33","0","0"
"Bruce Brown","Bruce-Brown-408913","3600","PG/SG","35.97","221.5","21.2","100.30","16.11","24.00","19.99","11.55","14.28","0","0"
"Miles Bridges","Miles-Bridges-409262","3400","SF/PF","42.63","208.5","18.2","103.00","17.60","17.00","18.72","10.42","13.37","0","0"
"Daniel Hamilton","Daniel-Hamilton-35210","3400","SG/SF","35.35","223.5","12.7","105.10","19.28","15.00","17.95","9.99","12.82","0","0"
"Mike Muscala","Mike-Muscala-17379","3400","PF/C","50.33","225","19.6","108.33","13.32","16.00","25.48","3.79","12.77","0","0"
"Langston Galloway","Langston-Galloway-18717","3500","PG/SG","35.97","221.5","17.6","100.30","15.45","18.00","26.25","3.51","13.13","0","0"
"Landry Shamet","Landry-Shamet-408841","3300","PG/SG","32.49","225","17.6","108.33","19.21","19.00","17.29","10.36","12.35","0","0"
"Alex Len","Alex-Len-16886","4500","C","55.66","223.5","18.5","105.10","25.35","16.00","30.98","6.79","16.32","0","0"
"Frank Jackson","Frank-Jackson-37855","3200","PG/SG","52.31","221.5","13.3","104.88","12.81","15.00","15.88","9.51","11.34","0","0"
"Jonah Bolden","Jonah-Bolden-554969","3200","PF","49.63","225","13.3","108.33","13.47","12.00","15.57","9.33","11.12","0","0"
"Omari Spellman","Omari-Spellman-408970","3600","PF/C","47.84","223.5","16.6","105.10","13.53","15.00","17.32","9.64","12.37","0","0"
"Ryan Arcidiacono","Ryan-Arcidiacono-36050","3200","PG","43.45","223.5","17.9","104.50","13.61","17.00","21.89","3.53","10.95","0","0"
"Jevon Carter","Jevon-Carter-409100","3300","PG/SG","43.71","208.5","15.0","103.30","14.64","13.00","13.37","7.22","9.55","0","0"
"Tyler Dorsey","Tyler-Dorsey-37825","3000","PG/SG","35.35","223.5","6.7","105.10","14.00","10.00","14.74","2.96","8.46","0","0"
"Shaquille Harrison","Shaquille-Harrison-36065","3300","PG/SF","43.45","223.5","15.1","104.50","16.31","12.00","17.19","2.46","8.6","0","0"
"Vince Carter","Vince-Carter-1066","3200","SF/PF","35.35","223.5","11.3","105.10","16.46","10.00","14.31","1.79","7.16","0","0"
"Furkan Korkmaz","Furkan-Korkmaz-35185","3000","SG/SF","32.49","225","9.8","108.33","18.20","11.00","12.95","1.7","6.48","0","0"
"Khyri Thomas","Khyri-Thomas-408839","3000","SG","35.97","221.5","11.0","100.30","12.36","10.00","8.83","4.92","6.31","0","0"
"Ivan Rabb","Ivan-Rabb-37854","3100","PF/C","53.20","208.5","9.8","103.30","26.51","6.00","9.88","1.36","5.16","0","0"
"Devonte' Graham","Devonte'-Graham-408968","3200","PG/SG","40.44","208.5","8.5","103.00","16.62","5.00","5.94","3.3","4.24","0","0"
"Tim Frazier","Tim-Frazier-18743","3200","PG/SG","42.50","221.5","12.0","104.88","15.99","5.00","7.99","1.05","4.03","0","0"
"Quincy Pondexter","Quincy-Pondexter-1237","3000","SF","35.18","225","5.0","99.70","8.56","4.00","4.38","0.59","2.44","0","0"
