"nameCol","idCol","salaryCol","positionCol","dvpCol","ouCol","mpgCol","paceCol","usgCol","pminCol","ceilCol","floorCol","pointsCol","predictCol","actualCol"
"Michael Beasley","Michael-Beasley-1338","3800","SF/PF","47.76","230","13.7","112.50","30.47","26.00","54.14","8.26","27.82","0","0"
"Richaun Holmes","Richaun-Holmes-18905","4700","PF/C","51.10","226","17.8","108.80","17.24","30.00","68.21","6.11","34.12","0","0"
"Nerlens Noel","Nerlens-Noel-18575","3600","C","51.72","222","13.7","102.62","13.65","24.00","51.25","4.99","25.73","0","0"
"Hamidou Diallo","Hamidou-Diallo-408800","3000","SG/SF","40.03","222","10.8","102.62","14.12","24.00","29.55","16.72","21.11","0","0"
"D.J. Wilson","D.J.-Wilson-37822","3300","PF/C","44.67","217","17.0","98.80","13.93","26.00","44.72","5.59","22.37","0","0"
"Rondae Hollis-Jefferson","Rondae-Hollis-Jefferson-18897","3800","PF/C","47.92","220","14.5","114.62","25.72","24.00","50.37","6.3","25.2","0","0"
"Tim Frazier","Tim-Frazier-18743","3200","PG/SG","40.27","234","11.8","104.88","17.46","24.00","41.16","5.37","20.59","0","0"
"Cheick Diallo","Cheick-Diallo-35225","3200","PF/C","54.13","234","11.0","104.88","23.95","21.00","40.32","6.11","20.17","0","0"
"Pau Gasol","Pau-Gasol-1502","3100","C","57.64","226","9.6","99.70","19.13","16.00","35.16","7.96","19.5","0","0"
"Elie Okobo","Elie-Okobo-409300","3500","PG","43.25","226","16.8","108.80","16.29","30.00","30.7","17.74","21.93","0","0"
"Frank Jackson","Frank-Jackson-37855","3400","PG/SG","49.59","234","16.5","104.88","19.01","29.00","29.67","16.78","21.19","0","0"
"Reggie Jackson","Reggie-Jackson-13352","4800","PG/SG","47.97","217","30.0","100.30","17.14","31.00","44.04","15.91","29.03","0","0"
"Jahlil Okafor","Jahlil-Okafor-18902","6100","C","54.13","234","22.7","104.88","19.16","34.00","63.36","15.17","36.37","0","0"
"Kenneth Faried","Kenneth-Faried-13313","6300","PF/C","51.32","234","30.5","101.42","18.25","34.00","58.94","18.88","37.16","0","0"
"Russell Westbrook","Russell-Westbrook-1083","10600","PG","52.90","222","35.7","102.62","35.19","36.00","86.31","31.32","61.65","0","0"
"Rodney Hood","Rodney-Hood-18629","4000","SG/SF","44.77","218","24.9","103.60","19.59","30.00","37.29","9.32","23.29","0","0"
"Kelly Oubre","Kelly-Oubre-18925","5700","SG/SF","37.58","226","29.1","108.80","25.48","31.00","61.29","9.77","33.13","0","0"
"Eric Gordon","Eric-Gordon-1077","5000","SG/SF","49.45","234","31.2","101.42","24.95","35.00","48.49","10.64","29.07","0","0"
"Dennis Schroder","Dennis-Schroder-18595","5000","PG/SG","52.90","222","23.9","102.62","28.00","30.00","47.35","7.24","28.94","0","0"
"Khris Middleton","Khris-Middleton-13990","6400","SG/SF","45.51","217","29.8","98.80","22.91","35.00","55.95","10.62","36.86","0","0"
"Shabazz Napier","Shabazz-Napier-18598","4900","PG/SG","40.80","220","17.2","114.62","30.28","28.00","55.3","7.93","28.23","0","0"
"Josh Jackson","Josh-Jackson-37890","5300","SF/PF","47.20","226","26.1","108.80","24.69","32.00","55.37","12.24","29.72","0","0"
"George Hill","George-Hill-993","3300","PG/SG","41.77","217","18.3","98.80","13.59","26.00","33.97","4.94","18.49","0","0"
"Tomas Satoransky ","Tomas-Satoransky--36031","6000","PG/SG","55.82","218","35.4","103.80","17.56","37.00","66.17","11.26","33.42","0","0"
"Langston Galloway","Langston-Galloway-18717","3400","PG/SG","36.81","217","18.0","100.30","17.17","26.00","37.88","4.74","18.95","0","0"
"Tony Snell","Tony-Snell-16872","3000","SG/SF","35.12","217","12.2","98.80","14.35","28.00","33.22","4.62","16.62","0","0"
"Mikal Bridges","Mikal-Bridges-408842","3900","SG/SF","37.58","226","30.2","108.80","11.00","33.00","30.21","17.46","21.58","0","0"
"Rudy Gay","Rudy-Gay-1341","5900","SF/PF","47.73","226","28.3","99.70","23.39","31.00","49.03","12.2","32.62","0","0"
"Darius Miller","Darius-Miller-13951","3700","SF/PF","36.91","234","29.3","104.88","13.95","33.00","40.66","6.77","20.34","0","0"
"LaMarcus Aldridge","LaMarcus-Aldridge-1349","8700","PF/C","57.64","226","30.8","99.70","30.20","35.00","69.21","24.28","47.6","0","0"
"Lauri Markkanen","Lauri-Markkanen-37809","6600","PF","46.74","220","31.9","104.50","22.23","34.00","61.61","15.46","36.03","0","0"
"Jimmy Butler","Jimmy-Butler-13327","6900","SG/SF","48.58","230","33.3","108.33","23.78","36.00","54.25","18.92","37.39","0","0"
"Bryn Forbes","Bryn-Forbes-36052","4300","PG/SG","53.08","226","29.5","99.70","14.30","31.00","36.8","6.09","23.26","0","0"
"Giannis Antetokounmpo","Giannis-Antetokounmpo-16852","10700","SF/PF","44.67","217","30.5","98.80","34.02","35.00","81.06","33.23","57.9","0","0"
"Solomon Hill","Solomon-Hill-16863","3400","SF/PF","36.91","234","24.0","104.88","9.55","31.00","36.7","4.83","18.36","0","0"
"Joel Embiid","Joel-Embiid-18578","10200","C","58.20","230","31.4","108.33","36.45","34.00","87.74","38.24","54.94","0","0"
"Aaron Gordon","Aaron-Gordon-18601","6700","SF/PF","48.72","222","33.8","105.10","21.54","36.00","61.74","14.53","35.96","0","0"
"Eric Bledsoe","Eric-Bledsoe-1031","7000","PG","51.81","217","28.2","98.80","26.68","34.00","74.28","15.83","37.16","0","0"
"Nikola Vucevic","Nikola-Vucevic-13296","9500","C","51.75","222","32.7","105.10","30.63","34.00","79.76","20.82","50.29","0","0"
"Jarrett Allen","Jarrett-Allen-37794","5600","C","56.28","220","26.7","114.62","14.82","26.00","59.23","12.8","29.63","0","0"
"Joe Harris","Joe-Harris-18587","4900","SG/SF","35.12","220","29.5","114.62","20.04","32.00","45.53","9.88","25.87","0","0"
"Rajon Rondo","Rajon-Rondo-1085","6700","PG","39.69","230","39.5","112.50","16.67","36.00","53.97","10.23","34.8","0","0"
"Evan Fournier","Evan-Fournier-13913","5500","SG/SF","42.00","222","33.4","105.10","21.51","34.00","43.96","12.43","28.51","0","0"
"Devin Booker","Devin-Booker-18949","8100","PG/SG","53.15","226","31.2","108.80","33.86","35.00","75.4","17.65","41.82","0","0"
"Chris Paul","Chris-Paul-1087","6900","PG","51.67","234","25.0","101.42","22.18","30.00","51.98","15.71","35.46","0","0"
"Andre Drummond","Andre-Drummond-13904","8500","C","48.17","217","27.7","100.30","19.20","34.00","61.14","23.01","43.67","0","0"
"Stanley Johnson","Stanley-Johnson-18913","3200","SF/PF","39.22","217","16.7","100.30","12.38","20.00","31.79","3.65","16.43","0","0"
"D'Angelo Russell","D'Angelo-Russell-18947","8400","PG/SG","52.55","220","28.3","114.62","33.61","32.00","67.46","20.8","42.97","0","0"
"Derrick White","Derrick-White-37858","5700","PG/SG","46.16","226","30.2","99.70","15.54","32.00","52.24","9.94","29.15","0","0"
"Ante Zizic","Ante-Zizic-35180","6100","C","55.79","218","30.1","103.60","18.13","32.00","51.82","13.18","31.16","0","0"
"D.J. Augustin","D.J.-Augustin-1064","4600","PG","39.31","222","28.3","105.10","19.82","28.00","42.16","9.49","23.49","0","0"
"Blake Griffin","Blake-Griffin-1503","9300","PF/C","56.93","217","37.5","100.30","34.44","36.00","84.14","27.18","47.35","0","0"
"J.J. Redick","J.J.-Redick-1030","5700","SG/SF","36.30","230","30.2","108.33","22.07","32.00","49.44","12.29","28.91","0","0"
"Alec Burks","Alec-Burks-13353","4900","PG/SG","44.77","218","24.3","103.60","19.97","30.00","42.08","10.01","24.78","0","0"
"P.J. Tucker","P.J.-Tucker-13947","4800","SF/PF","42.17","234","37.2","101.42","10.87","36.00","36.31","7.47","24.24","0","0"
"Trevor Ariza","Trevor-Ariza-1323","6300","SF/PF","38.74","218","37.0","103.80","18.17","37.00","47.0","9.89","31.8","0","0"
"Jrue Holiday","Jrue-Holiday-1073","8600","PG/SG","49.59","234","37.2","104.88","27.17","38.00","69.04","20.62","43.31","0","0"
"Otto Porter","Otto-Porter-17069","6200","SF/PF","38.74","218","30.6","103.80","21.42","32.00","62.37","9.55","31.2","0","0"
"Cedi Osman","Cedi-Osman-18912","5200","SF/PF","35.53","218","30.1","103.60","19.73","35.00","43.34","12.76","26.09","0","0"
"Bradley Beal","Bradley-Beal-13898","9200","SG","48.16","218","37.8","103.80","29.35","38.00","71.81","23.51","46.18","0","0"
"Davis Bertans","Davis-Bertans-36051","4100","SF/PF","57.64","226","25.8","99.70","12.59","26.00","41.04","5.4","20.53","0","0"
"Paul George","Paul-George-1245","9800","SF/PF","49.12","222","37.1","102.62","28.97","37.00","77.5","23.67","49.11","0","0"
"Ed Davis","Ed-Davis-1265","4100","C","56.28","220","20.2","114.62","13.04","20.00","41.1","5.88","20.56","0","0"
"Jordan Clarkson","Jordan-Clarkson-18631","4700","PG/SG","44.77","218","24.6","103.60","25.99","25.00","46.82","8.15","23.42","0","0"
"Kris Dunn","Kris-Dunn-35215","6700","PG/SG","51.11","220","31.3","104.50","19.69","34.00","56.44","18.89","33.32","0","0"
"Collin Sexton","Collin-Sexton-408896","4400","PG","54.75","218","29.1","103.60","23.70","30.00","30.55","12.68","21.82","0","0"
"Wilson Chandler","Wilson-Chandler-1327","3800","SF/PF","39.96","230","30.6","108.33","10.50","29.00","31.38","6.51","18.77","0","0"
"DeMarre Carroll","DeMarre-Carroll-1174","4600","SF/PF","39.05","220","28.3","114.62","18.71","28.00","45.12","5.82","22.57","0","0"
"Lance Stephenson","Lance-Stephenson-947","4300","SG/SF","47.82","230","16.7","112.50","20.40","22.00","41.48","4.23","21.13","0","0"
"Ben Simmons","Ben-Simmons-35184","9000","PG/SF","35.11","230","32.0","108.33","27.13","36.00","64.05","26.25","44.11","0","0"
"Jonathan Isaac","Jonathan-Isaac-37841","4500","SF/PF","48.72","222","29.4","105.10","14.08","27.00","37.46","6.28","21.96","0","0"
"Luke Kennard","Luke-Kennard-37814","3500","SG/SF","36.81","217","23.3","100.30","20.84","22.00","31.87","5.51","17.05","0","0"
"James Harden","James-Harden-1037","13600","PG/SG","51.67","234","39.0","101.42","44.85","38.00","92.62","47.24","66.16","0","0"
"Terrence Ross","Terrence-Ross-13902","5100","SG/SF","42.00","222","29.3","105.10","22.25","28.00","49.26","6.21","24.64","0","0"
"Brandon Ingram","Brandon-Ingram-35227","6400","SG/SF","47.82","230","35.3","112.50","22.15","36.00","45.67","13.67","30.92","0","0"
"Jeff Green","Jeff-Green-1314","4700","SF/PF","49.18","218","27.6","103.80","20.01","28.00","42.98","8.37","22.62","0","0"
"Zach LaVine","Zach-LaVine-18622","7200","PG/SG","51.11","220","32.0","104.50","28.60","35.00","53.13","16.91","34.59","0","0"
"Rodions Kurucs","Rodions-Kurucs-408801","3900","SF/PF","47.92","220","21.3","114.62","19.36","23.00","26.08","10.82","18.63","0","0"
"Kentavious Caldwell-Pope","Kentavious-Caldwell-Pope-16869","4600","SG/SF","33.61","230","29.5","112.50","17.71","30.00","34.75","10.02","21.83","0","0"
"Jakob Poeltl","Jakob-Poeltl-35187","3300","C","59.43","226","12.5","99.70","10.99","15.00","31.3","3.26","15.66","0","0"
"Jerami Grant","Jerami-Grant-18576","5300","PF","49.12","222","35.0","102.62","15.28","34.00","50.27","3.32","25.15","0","0"
"Mohamed Bamba","Mohamed-Bamba-409026","3500","C","51.31","222","15.0","105.10","15.73","15.00","23.3","12.58","16.64","0","0"
"Matthew Dellavedova","Matthew-Dellavedova-16839","3600","PG/SG","46.32","218","18.1","103.60","20.54","21.00","34.1","4.06","17.06","0","0"
"Wayne Selden","Wayne-Selden-36045","4200","SG/SF","51.11","220","20.1","104.50","14.64","33.00","34.12","7.5","19.84","0","0"
"Patrick Patterson","Patrick-Patterson-1260","3400","PF/C","48.92","222","12.3","102.62","10.12","22.00","31.05","3.2","16.02","0","0"
"Marco Belinelli","Marco-Belinelli-1033","4200","SG/SF","36.70","226","25.0","99.70","20.47","24.00","32.84","5.77","19.76","0","0"
"Bobby Portis","Bobby-Portis-18909","6400","PF/C","58.91","220","24.3","104.50","24.40","26.00","60.03","5.77","30.03","0","0"
"Jerian Grant","Jerian-Grant-18900","3400","PG","39.31","222","18.7","105.10","14.96","19.00","30.13","3.7","15.86","0","0"
"Jonathon Simmons","Jonathon-Simmons-31808","3500","SG/SF","46.81","222","20.2","105.10","15.72","20.00","31.55","2.46","15.96","0","0"
"Ian Clark","Ian-Clark-16922","3000","PG/SG","37.47","234","4.0","104.88","24.43","19.00","26.61","3.47","13.31","0","0"
"Ian Mahinmi","Ian-Mahinmi-1357","3200","C","50.45","218","13.7","103.80","10.28","14.00","28.15","2.35","14.08","0","0"
"Jamal Crawford","Jamal-Crawford-1075","3400","PG/SG","47.20","226","21.4","108.80","14.83","20.00","27.76","3.58","14.91","0","0"
"Larry Nance","Larry-Nance-18946","5400","PF/C","59.66","218","19.0","103.60","16.14","22.00","47.12","2.95","23.57","0","0"
"Josh Hart","Josh-Hart-37889","4100","SG/SF","33.61","230","23.0","112.50","12.32","24.00","33.4","3.68","17.87","0","0"
"Brook Lopez","Brook-Lopez-1498","5600","C","52.66","217","27.5","98.80","12.92","27.00","44.06","9.85","24.33","0","0"
"Thomas Bryant ","Thomas-Bryant--37884","5500","PF/C","52.29","218","22.2","103.80","18.19","24.00","47.48","2.94","23.75","0","0"
"Ivica Zubac","Ivica-Zubac-35226","5600","C","52.39","230","21.7","112.50","25.60","24.00","43.76","11.12","23.86","0","0"
"Abdel Nader","Abdel-Nader-35179","3100","SF","32.27","222","12.7","102.62","16.06","18.00","26.35","3.04","13.18","0","0"
"Patty Mills","Patty-Mills-13977","4000","PG/SG","46.16","226","21.2","99.70","21.41","22.00","33.82","4.23","16.92","0","0"
"T.J. McConnell","T.J.-McConnell-18956","3800","PG/SG","35.11","230","21.7","108.33","18.15","20.00","29.31","3.25","15.7","0","0"
"James Ennis","James-Ennis-18599","3500","SF/PF","42.17","234","26.4","101.42","11.09","22.00","28.85","4.5","14.43","0","0"
"Bruce Brown","Bruce-Brown-408913","3500","PG/SG","36.81","217","20.8","100.30","12.28","24.00","20.17","8.37","14.41","0","0"
"Ersan Ilyasova","Ersan-Ilyasova-1301","3200","PF/C","44.67","217","10.5","98.80","11.64","14.00","23.15","2.18","12.77","0","0"
"Jabari Parker","Jabari-Parker-18593","4400","SF/PF","46.74","220","16.2","104.50","24.87","17.00","31.83","3.22","17.42","0","0"
"Sam Dekker","Sam-Dekker-18929","3300","SF/PF","38.74","218","18.0","103.80","15.85","16.00","23.97","2.29","13","0","0"
"Jose Calderon","Jose-Calderon-1071","3100","PG","42.73","217","14.0","100.30","13.16","17.00","23.49","3.27","11.75","0","0"
"Antonio Blakeney","Antonio-Blakeney-37811","3100","PG/SG","30.38","220","6.2","104.50","26.99","14.00","23.37","2.34","11.69","0","0"
"Zaza Pachulia","Zaza-Pachulia-1455","3500","C","48.17","217","23.3","100.30","11.66","14.00","22.96","4.62","13.15","0","0"
"Pat Connaughton","Pat-Connaughton-18939","3000","SG/SF","37.85","217","11.3","98.80","20.38","15.00","22.41","3.12","11.21","0","0"
"Robin Lopez","Robin-Lopez-1466","4000","C","61.08","220","18.3","104.50","18.61","20.00","29.3","5.33","14.85","0","0"
"Chasson Randle","Chasson-Randle-36002","3300","PG/SG","55.82","218","15.0","103.80","16.73","14.00","24.19","2.9","12.1","0","0"
"Nene Hilario","Nene-Hilario-17321","3300","C","51.32","234","12.0","101.42","12.05","12.00","22.8","3.18","11.92","0","0"
"JaVale McGee","JaVale-McGee-1485","4200","C","52.39","230","14.5","112.50","24.44","14.00","30.22","3.9","15.12","0","0"
"Sviatoslav Mykhailiuk","Sviatoslav-Mykhailiuk-409280","3200","PG/SG","35.31","230","14.3","112.50","15.08","18.00","15.92","8.6","11.37","0","0"
"Landry Shamet","Landry-Shamet-408841","3300","PG/SG","36.30","230","19.8","108.33","19.55","16.00","16.11","8.97","11.51","0","0"
"Ryan Arcidiacono","Ryan-Arcidiacono-36050","3200","PG","40.77","220","15.9","104.50","13.22","16.00","21.99","3.3","11","0","0"
"Glenn Robinson","Glenn-Robinson-18621","3000","SF/PF","39.22","217","1.0","100.30","0.00","15.00","20.11","2.39","10.06","0","0"
"Corey Brewer","Corey-Brewer-1278","3900","SG/SF","36.30","230","24.8","108.33","18.87","18.00","25.73","4.9","12.87","0","0"
"Treveon Graham","Treveon-Graham-36023","3500","SF/PF","39.05","220","26.4","114.62","13.25","20.00","18.23","3.6","11.46","0","0"
"Austin Rivers","Austin-Rivers-13903","4400","PG/SG","48.70","234","34.3","101.42","12.78","20.00","27.35","3.16","13.68","0","0"
"Dragan Bender","Dragan-Bender-35228","4200","PF/C","51.25","226","19.3","108.80","19.69","17.00","25.89","3.81","12.95","0","0"
"Mike Muscala","Mike-Muscala-17379","3700","PF/C","58.20","230","20.2","108.33","12.22","14.00","21.51","2.16","11.14","0","0"
"Troy Daniels","Troy-Daniels-17383","3100","SG","32.89","226","9.8","108.80","20.77","12.00","17.91","2.63","8.96","0","0"
"Tyson Chandler","Tyson-Chandler-1482","3300","C","52.39","230","16.0","112.50","10.74","10.00","18.93","1.63","9.47","0","0"
"Deng Adel","Deng-Adel-554989","3000","SF/PF","35.53","218","7.2","103.60","9.26","12.00","11.97","7.17","8.55","0","0"
"Gerald Green","Gerald-Green-13374","4000","SG/SF","49.45","234","25.7","101.42","18.68","13.00","18.68","2.96","10.35","0","0"
"Shaquille Harrison","Shaquille-Harrison-36065","3400","PG/SF","40.77","220","13.6","104.50","14.56","11.00","17.29","2.47","8.65","0","0"
"Timothe Luwawu-Cabarrot","Timothe-Luwawu-Cabarrot-35183","3000","SG/SF","32.27","222","2.0","102.62","20.00","10.00","14.59","2.03","7.3","0","0"
"Wesley Johnson","Wesley-Johnson-1280","3000","SF/PF","36.91","234","0","104.88","0","6.00","9.7","1.05","4.85","0","0"
"Raymond Felton","Raymond-Felton-1078","3000","PG/SG","36.91","222","0.0","102.62","0","5.00","9.06","1.16","4.84","0","0"
"Theo Pinson","Theo-Pinson-554931","4500","SG/SF","35.12","220","25.0","114.62","20.50","7.00","9.0","5.39","6.43","0","0"
"Kenrich Williams","Kenrich-Williams-570179","3100","SG/SF","36.91","234","12.0","104.88","10.55","5.00","4.98","2.82","3.56","0","0"
"Furkan Korkmaz","Furkan-Korkmaz-35185","3100","SG/SF","36.30","230","7.5","108.33","18.92","5.00","6.06","0.68","3.03","0","0"
"Dante Cunningham","Dante-Cunningham-1259","3000","SF/PF","47.73","226","10.0","99.70","8.15","4.00","5.7","0.68","2.85","0","0"
"Lonnie Walker","Lonnie-Walker-409137","3000","PG/SG","50.08","226","9.5","99.70","19.64","4.00","3.96","2.37","2.83","0","0"
"Channing Frye","Channing-Frye-1484","3100","PF/C","59.66","218","13.2","103.60","14.05","3.00","5.16","0.65","2.58","0","0"
"Khyri Thomas","Khyri-Thomas-408839","3000","SG","36.81","217","9.3","100.30","15.71","1.00","0.92","0.55","0.66","0","0"
