"nameCol","idCol","salaryCol","positionCol","dvpCol","ouCol","mpgCol","paceCol","usgCol","pminCol","ceilCol","floorCol","pointsCol","predictCol","actualCol"
"LaMarcus Aldridge","LaMarcus-Aldridge-1349","8300","PF/C","58.70","227.5","33.2","99.70","29.56","34.00","66.67","24.3","45.85","0","0"
"DeMarre Carroll","DeMarre-Carroll-1174","4300","SF/PF","37.96","227.5","27.0","114.62","18.43","28.00","46.84","5.3","23.43","0","0"
"Kyle Lowry","Kyle-Lowry-1057","7100","PG","48.07","232","35.5","105.50","23.19","35.00","67.09","18.87","38.67","0","0"
"Khris Middleton","Khris-Middleton-13990","6200","SG/SF","49.89","232","32.0","98.80","24.31","34.00","49.3","13.21","33.54","0","0"
"DeMar DeRozan","DeMar-DeRozan-1053","7800","SG/SF","44.54","227.5","32.5","99.70","29.72","35.00","76.69","22.23","42.02","0","0"
"Shabazz Napier","Shabazz-Napier-18598","5300","PG/SG","43.05","227.5","20.0","114.62","30.98","28.00","56.33","8.17","28.18","0","0"
"Giannis Antetokounmpo","Giannis-Antetokounmpo-16852","10600","SF/PF","47.06","232","34.4","98.80","33.06","34.00","77.1","31.94","55.07","0","0"
"Rodions Kurucs","Rodions-Kurucs-408801","3700","SF/PF","49.37","227.5","20.5","114.62","19.25","24.00","26.6","15.37","19","0","0"
"Joe Harris","Joe-Harris-18587","4800","SG/SF","32.84","227.5","27.7","114.62","20.67","32.00","42.49","9.22","24.14","0","0"
"D'Angelo Russell","D'Angelo-Russell-18947","8400","PG/SG","53.51","227.5","29.7","114.62","35.33","32.00","65.28","18.69","42.2","0","0"
"Jarrett Allen","Jarrett-Allen-37794","5200","C","50.77","227.5","24.3","114.62","13.13","26.00","52.17","11.28","26.1","0","0"
"Danny Green","Danny-Green-940","4200","SG/SF","39.07","232","26.3","105.50","15.57","30.00","33.16","7.29","20.84","0","0"
"Malcolm Brogdon","Malcolm-Brogdon-35195","5600","PG/SG","47.29","232","30.2","98.80","22.04","32.00","51.24","9.73","27.71","0","0"
"Kawhi Leonard","Kawhi-Leonard-13310","9400","SF/PF","47.77","232","36.0","105.50","32.53","35.00","70.3","20.75","46.43","0","0"
"Serge Ibaka","Serge-Ibaka-1294","6100","PF/C","45.11","232","30.5","105.50","22.00","30.00","48.75","12.69","29.8","0","0"
"Rudy Gay","Rudy-Gay-1341","5900","SF/PF","48.17","227.5","29.8","99.70","23.63","29.00","43.56","11.3","28.83","0","0"
"Pascal Siakam","Pascal-Siakam-35186","6200","PF/C","56.71","232","33.0","105.50","19.39","34.00","46.15","13.65","30.26","0","0"
"Eric Bledsoe","Eric-Bledsoe-1031","6600","PG","47.29","232","30.6","98.80","25.15","31.00","62.71","13.3","31.45","0","0"
"George Hill","George-Hill-993","3400","PG/SG","40.95","232","21.6","98.80","12.09","22.00","29.72","4.32","16.18","0","0"
"Rondae Hollis-Jefferson","Rondae-Hollis-Jefferson-18897","4200","PF/C","49.37","227.5","16.8","114.62","27.25","21.00","39.24","4.98","19.93","0","0"
"Derrick White","Derrick-White-37858","5600","PG/SG","40.52","227.5","31.0","99.70","17.55","32.00","46.99","8.94","26.52","0","0"
"Treveon Graham","Treveon-Graham-36023","3400","SG/SF","37.96","227.5","25.8","114.62","11.90","28.00","25.37","5.06","16.12","0","0"
"D.J. Wilson","D.J.-Wilson-37822","3300","PF/C","47.06","232","16.2","98.80","11.13","17.00","31.02","3.88","15.52","0","0"
"Bryn Forbes","Bryn-Forbes-36052","4100","PG/SG","50.49","227.5","29.3","99.70","14.91","30.00","31.81","4.7","19.28","0","0"
"Ed Davis","Ed-Davis-1265","4100","C","50.77","227.5","21.7","114.62","13.26","21.00","38.52","5.67","19.27","0","0"
"Brook Lopez","Brook-Lopez-1498","5100","C","53.39","232","29.6","98.80","13.32","28.00","43.18","9.53","23.83","0","0"
"Fred VanVleet","Fred-VanVleet-36011","4300","PG/SG","42.62","232","27.8","105.50","20.21","22.00","38.1","5.34","19.72","0","0"
"Sterling Brown","Sterling-Brown-37821","3300","SG/SF","35.79","232","19.8","98.80","13.76","20.00","28.59","4.07","14.64","0","0"
"Marco Belinelli","Marco-Belinelli-1033","4200","SG/SF","30.47","227.5","25.5","99.70","21.29","23.00","31.0","5.45","18.65","0","0"
"Davis Bertans","Davis-Bertans-36051","4300","SF/PF","58.70","227.5","28.2","99.70","15.76","23.00","35.64","4.69","17.83","0","0"
"Patty Mills","Patty-Mills-13977","4100","PG/SG","40.52","227.5","21.7","99.70","20.41","22.00","33.32","4.63","16.67","0","0"
"Delon Wright","Delon-Wright-18907","3800","PG/SG","42.62","232","18.2","105.50","19.49","16.00","21.85","5.49","13.39","0","0"
"OG Anunoby","OG-Anunoby-37807","3300","SF/PF","39.07","232","10.0","105.50","14.88","16.00","20.92","2.54","11.39","0","0"
"Jakob Poeltl","Jakob-Poeltl-35187","3300","C","60.48","227.5","10.7","99.70","11.63","12.00","22.31","2.32","11.16","0","0"
"Norman Powell","Norman-Powell-18908","3800","SG/SF","36.68","232","18.8","105.50","19.71","16.00","24.91","3.18","12.46","0","0"
"Tony Snell","Tony-Snell-16872","3200","SG/SF","37.81","232","14.0","98.80","16.68","14.00","16.85","2.34","8.43","0","0"
"Ersan Ilyasova","Ersan-Ilyasova-1301","3200","PF/C","47.06","232","9.2","98.80","9.85","8.00","12.63","1.21","7.05","0","0"
"Greg Monroe","Greg-Monroe-1487","3200","C","48.73","232","8.0","105.50","23.10","6.00","10.14","1.91","6.25","0","0"
"Pau Gasol","Pau-Gasol-1502","3100","C","58.70","227.5","9.2","99.70","19.86","1.00","2.16","0.51","1.22","0","0"
"Pat Connaughton","Pat-Connaughton-18939","3100","SG/SF","35.79","232","16.5","98.80","13.32","1.00","1.46","0.2","0.73","0","0"
