"nameCol","idCol","salaryCol","positionCol","dvpCol","ouCol","mpgCol","paceCol","usgCol","pminCol","ceilCol","floorCol","pointsCol","predictCol","actualCol"
"Mario Hezonja","Mario-Hezonja-18923","4300","SF/PF","33.77","227.5","24.8","100.17","20.75","25.00","49.05","21.05","25.09","0","0"
"Delon Wright","Delon-Wright-18907","3900","PG/SG","46.06","224","18.9","105.50","18.79","26.00","33.38","12.98","22.31","0","0"
"Otto Porter","Otto-Porter-17069","6000","SF/PF","36.78","224","23.2","103.80","26.09","33.00","63.11","25.42","33.06","0","0"
"Jeff Green","Jeff-Green-1314","4800","SF/PF","46.23","224","32.3","103.80","19.08","32.00","48.04","19.69","27.19","0","0"
"Emmanuel Mudiay","Emmanuel-Mudiay-18936","5500","PG","39.40","227.5","30.0","100.17","28.70","30.00","53.39","19.25","31.97","0","0"
"Bradley Beal","Bradley-Beal-13898","8800","SG","48.84","224","36.5","103.80","31.90","38.00","67.27","22.48","46.36","0","0"
"J.J. Redick","J.J.-Redick-1030","5300","SG/SF","35.75","227.5","32.2","108.33","22.19","31.00","47.64","18.2","29.5","0","0"
"Trevor Ariza","Trevor-Ariza-1323","5800","SF/PF","36.78","224","35.0","103.80","19.72","38.00","47.3","21.81","30.34","0","0"
"Tomas Satoransky ","Tomas-Satoransky--36031","5900","PG/SG","47.39","224","30.8","103.80","17.81","34.00","49.31","21.64","27.89","0","0"
"Joel Embiid","Joel-Embiid-18578","10800","C","58.95","227.5","32.2","108.33","35.09","35.00","82.59","21.03","57","0","0"
"Wilson Chandler","Wilson-Chandler-1327","3600","SF/PF","41.02","227.5","23.8","108.33","10.85","26.00","30.41","12.48","18.6","0","0"
"Jimmy Butler","Jimmy-Butler-13327","7300","SG/SF","48.52","227.5","31.4","108.33","26.98","34.00","55.69","19.76","38.89","0","0"
"Damyean Dotson","Damyean-Dotson-37795","3600","SG/SF","35.50","227.5","21.4","100.17","14.76","18.00","28.73","14.01","16.52","0","0"
"Luke Kornet","Luke-Kornet-37800","4200","PF/C","54.00","227.5","20.6","100.17","15.82","25.00","37.91","13.98","21.85","0","0"
"OG Anunoby","OG-Anunoby-37807","3500","SF/PF","35.62","224","20.6","105.50","12.67","23.00","31.5","13.87","16.73","0","0"
"Sam Dekker","Sam-Dekker-18929","3300","SF/PF","36.78","224","16.7","103.80","16.90","18.00","28.06","13.63","15.87","0","0"
"Kyle Lowry","Kyle-Lowry-1057","7200","PG","56.20","224","28.3","105.50","20.13","32.00","57.94","20.59","36.51","0","0"
"T.J. McConnell","T.J.-McConnell-18956","3800","PG/SG","42.56","227.5","27.1","108.33","15.45","21.00","31.61","14.67","17.59","0","0"
"Serge Ibaka","Serge-Ibaka-1294","6200","PF/C","47.85","224","27.6","105.50","23.54","28.00","46.68","18.35","29.45","0","0"
"Ben Simmons","Ben-Simmons-35184","9100","PG/SF","42.56","227.5","33.6","108.33","28.48","34.00","58.98","17.23","42.13","0","0"
"Allonzo Trier","Allonzo-Trier-554950","3200","PG/SG","49.48","227.5","16.8","100.17","17.44","17.00","21.81","4.04","15.58","0","0"
"Norman Powell","Norman-Powell-18908","3800","SG/SF","40.41","224","21.7","105.50","20.04","22.00","35.56","15.89","17.79","0","0"
"Noah Vonleh","Noah-Vonleh-18597","5600","PF/C","48.37","227.5","23.2","100.17","17.71","25.00","44.94","14.84","26.83","0","0"
"Thomas Bryant ","Thomas-Bryant--37884","5400","PF/C","54.17","224","23.0","103.80","14.60","25.00","51.51","24.09","25.77","0","0"
"Kawhi Leonard","Kawhi-Leonard-13310","9400","SF/PF","45.09","224","33.2","105.50","30.91","35.00","64.99","27.29","44.09","0","0"
"Danny Green","Danny-Green-940","4600","SG/SF","35.62","224","28.0","105.50","11.00","30.00","32.02","13.51","20.04","0","0"
"Pascal Siakam","Pascal-Siakam-35186","6400","PF/C","60.41","224","30.7","105.50","23.11","32.00","44.43","15.95","29.82","0","0"
"Kevin Knox","Kevin-Knox-408820","5200","SF/PF","49.48","227.5","30.8","100.17","18.70","32.00","32.9","4.75","23.5","0","0"
"Chasson Randle","Chasson-Randle-36002","3100","PG/SG","47.39","224","16.7","103.80","17.49","15.00","24.59","10.84","13.33","0","0"
"Greg Monroe","Greg-Monroe-1487","3500","C","56.33","224","14.7","105.50","20.29","12.00","23.65","10.3","14.57","0","0"
"Lance Thomas","Lance-Thomas-13363","3000","SF/PF","35.50","227.5","15.0","100.17","8.88","18.00","24.49","12.25","12.25","0","0"
"Tim Hardaway Jr.","Tim-Hardaway-Jr.-16879","5700","SG/SF","49.48","227.5","29.8","100.17","19.40","25.00","39.72","13.6","23.73","0","0"
"Landry Shamet","Landry-Shamet-408841","3100","PG/SG","35.75","227.5","19.4","108.33","16.85","17.00","16.49","2.38","11.78","0","0"
"Mike Muscala","Mike-Muscala-17379","3500","PF/C","58.95","227.5","18.9","108.33","15.14","14.00","20.66","9.47","11.25","0","0"
"Frank Ntilikina","Frank-Ntilikina-37796","3200","PG/SG","39.40","227.5","9.0","100.17","19.22","15.00","20.31","9.75","11.34","0","0"
"Trey Burke","Trey-Burke-17029","3400","PG/SG","51.65","227.5","20.2","100.17","26.73","10.00","18.59","8.34","11.21","0","0"
"Jonah Bolden","Jonah-Bolden-554969","3400","PF","55.68","227.5","18.3","108.33","15.01","15.00","11.79","1.7","8.42","0","0"
"Furkan Korkmaz","Furkan-Korkmaz-35185","3700","SG/SF","35.75","227.5","20.1","108.33","20.84","13.00","15.71","6.18","7.86","0","0"
"Ian Mahinmi","Ian-Mahinmi-1357","3600","C","51.28","224","16.8","103.80","15.05","7.00","13.81","6.28","6.91","0","0"
