"nameCol","idCol","salaryCol","positionCol","dvpCol","ouCol","mpgCol","paceCol","usgCol","pminCol","ceilCol","floorCol","pointsCol","predictCol","actualCol"
"Dion Waiters","Dion-Waiters-13897","3900","SG/SF","25.36","218.5","21.9","106.90","16.75","28.00","38.98","10.51","25.02","0","0"
"Karl-Anthony Towns","Karl-Anthony-Towns-18937","10000","C","33.43","231","33.2","100.67","27.64","36.00","87.63","29.38","55.64","0","0"
"Dwyane Wade","Dwyane-Wade-967","5000","PG/SG","25.36","218.5","26.9","106.90","28.41","27.00","43.29","8.39","27.77","0","0"
"Justise Winslow","Justise-Winslow-18921","5500","PG/SF","36.83","218.5","33.9","106.90","20.26","32.00","53.06","14.73","30.25","0","0"
"Andrew Wiggins","Andrew-Wiggins-18620","6000","SG/SF","31.11","231","37.1","100.67","28.53","36.00","49.85","12.65","32.6","0","0"
"Jeff Teague","Jeff-Teague-1005","5400","PG","39.80","231","0","100.67","0","29.00","58.35","10.83","29.19","0","0"
"Josh Richardson","Josh-Richardson-18922","6100","SG/SF","25.36","218.5","35.4","106.90","17.57","35.00","52.61","13.31","32.94","0","0"
"Hassan Whiteside","Hassan-Whiteside-18664","6800","C","32.14","218.5","23.7","106.90","23.75","28.00","50.81","16.66","36.29","0","0"
"Kelly Olynyk","Kelly-Olynyk-16845","4200","PF/C","32.59","218.5","21.5","106.90","17.16","24.00","35.76","7.45","22.38","0","0"
"Bogdan Bogdanovic","Bogdan-Bogdanovic-37899","5000","SG/SF","22.83","218.5","25.7","98.20","23.66","28.00","52.06","9.14","26.48","0","0"
"Kenrich Williams","Kenrich-Williams-570179","5000","SG/SF","23.36","231","29.0","104.88","14.79","31.00","36.85","19.9","26.32","0","0"
"Dario Saric","Dario-Saric-36004","4400","PF","33.85","231","23.0","100.67","14.50","24.00","38.87","5.36","22.81","0","0"
"Harrison Barnes","Harrison-Barnes-13901","5200","SF/PF","28.19","218.5","32.8","98.20","23.53","32.00","40.76","11.07","26.16","0","0"
"Anthony Davis","Anthony-Davis-13895","11200","PF/C","32.64","231","0","104.88","0","34.00","78.34","30.55","55.96","0","0"
"Marvin Bagley III","Marvin-Bagley-III-409321","6200","PF/C","28.19","218.5","28.0","98.20","25.20","30.00","43.32","23.39","30.94","0","0"
"De'Aaron Fox","De'Aaron-Fox-37900","7200","PG","35.60","218.5","30.7","98.20","26.73","33.00","54.7","18.73","35.82","0","0"
"Julius Randle","Julius-Randle-18632","8000","PF/C","32.64","231","30.5","104.88","32.69","32.00","70.01","17.22","39.31","0","0"
"Jrue Holiday","Jrue-Holiday-1073","9200","PG/SG","37.77","231","35.1","104.88","27.93","38.00","66.47","21.7","44.64","0","0"
"Willie Cauley-Stein","Willie-Cauley-Stein-18951","5500","C","27.46","218.5","27.4","98.20","15.08","27.00","39.02","14.04","26.65","0","0"
"Taj Gibson","Taj-Gibson-1277","4000","PF/C","31.16","231","22.0","100.67","13.19","24.00","33.56","7.86","19.12","0","0"
"Harry Giles","Harry-Giles-37897","3400","PF/C","28.19","218.5","13.8","98.20","24.06","16.00","22.62","12.22","16.16","0","0"
"Rodney McGruder","Rodney-McGruder-16850","3200","SG/SF","23.99","218.5","4.8","106.90","16.74","23.00","30.32","3.79","15.17","0","0"
"Bam Adebayo","Bam-Adebayo-37835","4200","PF/C","32.14","218.5","22.8","106.90","14.05","20.00","32.95","5.09","19.9","0","0"
"Buddy Hield","Buddy-Hield-35206","6600","SG/SF","23.63","218.5","33.7","98.20","24.23","33.00","51.23","12.88","29.68","0","0"
"James Johnson","James-Johnson-1195","4000","PF/C","31.84","218.5","21.7","106.90","18.67","23.00","33.95","8.94","17.12","0","0"
"E'Twaun Moore","E'Twaun-Moore-18582","4000","SG/SF","28.74","231","19.3","104.88","25.58","24.00","28.65","5.02","16.9","0","0"
"Josh Okogie","Josh-Okogie-409174","3600","SG/SF","31.11","231","25.6","100.67","15.71","23.00","21.32","12.32","15.23","0","0"
"Frank Jackson","Frank-Jackson-37855","4200","PG/SG","37.77","231","25.7","104.88","21.78","24.00","24.7","13.97","17.64","0","0"
"Darius Miller","Darius-Miller-13951","4500","SF/PF","23.36","231","33.9","104.88","16.53","28.00","34.74","4.83","17.38","0","0"
"Nemanja Bjelica","Nemanja-Bjelica-31814","4200","PF","28.19","218.5","21.9","98.20","18.01","16.00","25.28","6.54","15.25","0","0"
"Gorgui Dieng","Gorgui-Dieng-16939","3500","PF/C","31.16","231","14.1","100.67","18.16","12.00","22.67","3.14","12.25","0","0"
"Alec Burks","Alec-Burks-13353","3800","PG/SG","22.83","218.5","33.7","98.20","18.69","15.00","26.23","2.85","13.12","0","0"
"Anthony Tolliver","Anthony-Tolliver-1263","3200","SF/PF","33.85","231","16.7","100.67","9.68","14.00","18.88","2.98","10.43","0","0"
"Jahlil Okafor","Jahlil-Okafor-18902","6000","C","30.57","231","31.1","104.88","19.79","16.00","33.44","4.18","16.73","0","0"
"Jerryd Bayless","Jerryd-Bayless-1021","5600","PG/SG","31.11","231","36.5","100.67","18.83","22.00","28.98","5.33","15.5","0","0"
"Isaiah Canaan","Isaiah-Canaan-16875","3000","PG","39.80","231","13.1","100.67","20.01","10.00","14.96","2.67","7.75","0","0"
"Tim Frazier","Tim-Frazier-18743","3900","PG","19.52","231","20.9","104.88","18.22","13.00","19.71","2.57","9.86","0","0"
"Yogi Ferrell","Yogi-Ferrell-35999","3400","PG/SG","35.60","218.5","16.8","98.20","16.00","10.00","14.9","2.03","7.55","0","0"
"Luol Deng","Luol-Deng-1328","3500","SF/PF","24.11","231","20.6","100.67","15.38","10.00","15.45","2.26","7.73","0","0"
