"nameCol","idCol","salaryCol","positionCol","dvpCol","ouCol","mpgCol","paceCol","usgCol","pminCol","ceilCol","floorCol","pointsCol","predictCol","actualCol"
"Bobby Portis","Bobby-Portis-18909","4600","PF/C","52.76","213","17.2","104.50","30.49","28.00","61.81","5.94","30.92","0","0"
"Jabari Parker","Jabari-Parker-18593","3600","SF/PF","48.20","213","16.0","104.50","27.01","22.00","39.65","4.01","21.7","0","0"
"Kentavious Caldwell-Pope","Kentavious-Caldwell-Pope-16869","4700","SG/SF","42.08","227","26.9","112.50","19.31","34.00","41.68","12.02","26.18","0","0"
"Marvin Williams","Marvin-Williams-1318","4800","SF/PF","52.00","229","29.7","103.00","15.34","30.00","53.13","6.06","26.71","0","0"
"Deandre Ayton","Deandre-Ayton-409301","6600","C","51.38","223.5","27.3","108.80","22.20","31.00","51.23","25.43","36.59","0","0"
"Tyson Chandler","Tyson-Chandler-1482","3500","C","50.54","227","14.3","112.50","8.55","24.00","36.78","8.85","19.36","0","0"
"Lauri Markkanen","Lauri-Markkanen-37809","5900","PF","48.20","213","32.7","104.50","20.28","33.00","55.83","14.01","32.65","0","0"
"Devin Booker","Devin-Booker-18949","7800","PG/SG","47.37","223.5","25.0","108.80","27.63","36.00","76.33","17.91","42.43","0","0"
"Bogdan Bogdanovic","Bogdan-Bogdanovic-37899","5500","SG/SF","50.61","229","29.1","98.20","23.13","30.00","58.35","9.53","29.68","0","0"
"Nikola Jokic","Nikola-Jokic-31812","10600","C","61.09","213","31.4","99.62","35.00","34.00","81.25","34.42","57.18","0","0"
"Victor Oladipo","Victor-Oladipo-16807","7600","PG/SG","51.43","224.5","31.2","107.67","27.29","34.00","61.28","10.4","40.8","0","0"
"Paul George","Paul-George-1245","9800","SF/PF","44.24","227","37.3","102.62","29.30","36.00","83.99","24.43","52.66","0","0"
"Steven Adams","Steven-Adams-16848","7200","C","57.29","227","34.8","102.62","13.88","35.00","65.52","17.4","38.16","0","0"
"Brandon Ingram","Brandon-Ingram-35227","6300","PG/SG","46.71","227","34.1","112.50","25.51","36.00","50.56","14.07","33.33","0","0"
"Joel Embiid","Joel-Embiid-18578","10100","C","53.53","224.5","29.8","108.33","35.46","34.00","86.45","37.65","53.33","0","0"
"Kemba Walker","Kemba-Walker-13335","8700","PG","55.17","229","32.7","103.00","34.26","34.00","85.58","22.06","45.96","0","0"
"Paul Millsap","Paul-Millsap-1335","5800","PF/C","47.84","213","25.1","99.62","19.29","28.00","49.77","12.53","30.48","0","0"
"Kris Dunn","Kris-Dunn-35215","6200","PG/SG","50.08","213","31.2","104.50","21.56","33.00","55.28","18.5","32.63","0","0"
"Marvin Bagley III","Marvin-Bagley-III-409321","5200","PF/C","49.43","229","22.0","98.20","21.83","26.00","38.07","21.53","27.19","0","0"
"Jeremy Lamb","Jeremy-Lamb-13955","5700","SG/SF","45.23","229","27.5","103.00","24.55","30.00","50.96","13.92","29.8","0","0"
"Willy Hernangomez","Willy-Hernangomez-18901","3800","C","55.21","229","14.7","103.00","25.80","15.00","39.68","5.12","19.85","0","0"
"Willie Cauley-Stein","Willie-Cauley-Stein-18951","6500","C","53.26","229","27.6","98.20","22.36","30.00","47.57","17.64","33.86","0","0"
"J.J. Redick","J.J.-Redick-1030","5400","SG/SF","36.37","224.5","31.8","108.33","23.49","32.00","47.36","11.94","28.09","0","0"
"Kyle Kuzma","Kyle-Kuzma-37886","6900","SF/PF","47.36","227","33.6","112.50","30.86","36.00","52.82","18.54","35.59","0","0"
"Russell Westbrook","Russell-Westbrook-1083","11800","PG","51.99","227","38.0","102.62","36.75","36.00","85.05","33.23","60.75","0","0"
"Jimmy Butler","Jimmy-Butler-13327","6800","SG/SF","46.46","224.5","31.6","108.33","25.66","34.00","49.99","17.19","34.86","0","0"
"Malik Monk","Malik-Monk-37827","3500","PG/SG","55.17","229","17.3","103.00","27.32","20.00","34.85","5.04","17.92","0","0"
"Fred VanVleet","Fred-VanVleet-36011","5400","PG/SG","46.49","223.5","27.7","105.50","18.38","30.00","53.46","7.5","27.67","0","0"
"Jamal Murray","Jamal-Murray-35211","7300","PG/SG","53.49","213","32.1","99.62","28.10","34.00","56.67","13.17","37.11","0","0"
"Domantas Sabonis","Domantas-Sabonis-35217","7100","PF/C","52.86","224.5","28.5","107.67","23.19","27.00","66.43","5.2","35.85","0","0"
"Serge Ibaka","Serge-Ibaka-1294","6500","PF/C","47.89","223.5","30.6","105.50","22.76","28.00","53.09","13.82","32.45","0","0"
"Lonzo Ball","Lonzo-Ball-37885","6400","PG","36.50","227","33.4","112.50","19.72","35.00","46.45","15.95","31.9","0","0"
"Torrey Craig","Torrey-Craig-37861","3900","SG/SF","39.16","213","27.5","99.62","11.14","30.00","38.66","4.18","19.34","0","0"
"Buddy Hield","Buddy-Hield-35206","6100","SG/SF","38.30","229","29.9","98.20","23.27","31.00","53.17","12.61","30.23","0","0"
"Mikal Bridges","Mikal-Bridges-408842","3700","SG/SF","37.45","223.5","26.3","108.80","9.41","30.00","25.42","12.62","18.16","0","0"
"Zach LaVine","Zach-LaVine-18622","6500","PG/SG","50.08","213","31.5","104.50","29.55","32.00","48.65","15.49","31.67","0","0"
"Bismack Biyombo","Bismack-Biyombo-13312","4200","C","55.21","229","22.2","103.00","14.25","21.00","34.97","6.13","20.45","0","0"
"Nicolas Batum","Nicolas-Batum-1315","4900","SG/SF","39.36","229","30.8","103.00","12.44","32.00","41.36","10.29","23.81","0","0"
"TJ Warren","TJ-Warren-18634","6000","SF/PF","49.85","223.5","34.0","108.80","22.70","34.00","50.16","11.81","29.16","0","0"
"Pascal Siakam","Pascal-Siakam-35186","7000","PF/C","55.48","223.5","32.7","105.50","21.04","33.00","51.76","15.31","33.94","0","0"
"De'Anthony Melton","De'Anthony-Melton-409081","4300","PG","47.37","223.5","25.2","108.80","17.30","26.00","29.2","14.5","20.86","0","0"
"Thaddeus Young","Thaddeus-Young-1289","5800","SF/PF","47.57","224.5","32.0","107.67","17.00","33.00","41.52","13.38","28","0","0"
"T.J. McConnell","T.J.-McConnell-18956","3700","PG/SG","36.37","224.5","25.0","108.33","16.05","23.00","33.33","3.69","17.85","0","0"
"Dennis Schroder","Dennis-Schroder-18595","5700","PG/SG","51.99","227","26.5","102.62","25.03","28.00","45.1","7.54","27.5","0","0"
"Josh Hart","Josh-Hart-37889","4100","PG/SG","42.08","227","30.0","112.50","14.67","24.00","38.63","3.71","19.72","0","0"
"Jerami Grant","Jerami-Grant-18576","5500","PF","44.24","227","34.2","102.62","15.67","35.00","52.41","3.36","26.22","0","0"
"Kyle Lowry","Kyle-Lowry-1057","7400","PG","53.32","223.5","33.4","105.50","19.73","30.00","60.34","16.97","34.78","0","0"
"Tyreke Evans","Tyreke-Evans-1070","4000","SG/SF","48.20","224.5","16.7","107.67","33.20","18.00","34.42","9.55","18.77","0","0"
"Norman Powell","Norman-Powell-18908","3900","SG/SF","36.18","223.5","20.6","105.50","20.56","25.00","36.48","4.65","18.25","0","0"
"De'Aaron Fox","De'Aaron-Fox-37900","8100","PG","51.68","229","28.1","98.20","26.54","32.00","59.24","18.26","37.19","0","0"
"Bojan Bogdanovic","Bojan-Bogdanovic-18571","5600","SG/SF","34.03","224.5","30.8","107.67","20.80","34.00","44.09","8.56","25.71","0","0"
"Chandler Hutchison","Chandler-Hutchison-408877","3700","SF/PF","38.26","213","26.3","104.50","13.58","28.00","23.65","11.74","16.89","0","0"
"Mason Plumlee","Mason-Plumlee-16798","4400","PF/C","56.16","213","18.6","99.62","18.89","20.00","40.04","5.73","20.03","0","0"
"Nemanja Bjelica","Nemanja-Bjelica-31814","4500","SF/PF","49.43","229","23.1","98.20","15.23","22.00","34.39","8.53","20.36","0","0"
"Iman Shumpert","Iman-Shumpert-13350","3700","SG/SF","38.30","229","21.5","98.20","18.90","23.00","29.22","5.74","16.68","0","0"
"Cory Joseph","Cory-Joseph-13339","3700","PG","39.90","224.5","24.0","107.67","15.22","24.00","29.1","4.89","16.64","0","0"
"Greg Monroe","Greg-Monroe-1487","3500","C","59.17","223.5","13.3","105.50","23.80","14.00","25.42","4.78","15.66","0","0"
"Richaun Holmes","Richaun-Holmes-18905","4200","PF/C","51.38","223.5","19.7","108.80","19.95","17.00","37.44","3.35","18.73","0","0"
"Gary Harris","Gary-Harris-18617","5200","SG","44.58","213","27.7","99.62","21.55","26.00","31.86","8.1","22.76","0","0"
"Michael Kidd-Gilchrist","Michael-Kidd-Gilchrist-13896","3500","SF/PF","39.36","229","19.5","103.00","15.25","19.00","30.62","6.24","15.32","0","0"
"Harry Giles","Harry-Giles-37897","3900","PF/C","49.43","229","17.1","98.20","20.23","17.00","23.83","13.48","17.02","0","0"
"Ben Simmons","Ben-Simmons-35184","9200","PG/SF","36.37","224.5","33.7","108.33","27.02","34.00","55.92","23.65","39.55","0","0"
"Darren Collison","Darren-Collison-1060","5400","PG","39.90","224.5","24.7","107.67","17.32","27.00","37.95","10.79","23.1","0","0"
"Danny Green","Danny-Green-940","4800","SG/SF","34.56","223.5","30.0","105.50","14.43","30.00","32.5","7.15","20.43","0","0"
"Kelly Oubre","Kelly-Oubre-18925","5200","SG/SF","37.45","223.5","25.8","108.80","24.82","25.00","39.52","6.18","21.92","0","0"
"Tony Parker","Tony-Parker-982","3700","PG","44.97","229","17.2","103.00","28.63","16.00","27.58","4.05","15.53","0","0"
"Michael Beasley","Michael-Beasley-1338","3600","SF/PF","47.36","227","13.1","112.50","34.05","14.00","29.01","3.66","15.06","0","0"
"Wilson Chandler","Wilson-Chandler-1327","3800","SF/PF","36.54","224.5","25.2","108.33","11.66","25.00","26.66","5.36","15.68","0","0"
"Josh Jackson","Josh-Jackson-37890","4600","SF/PF","49.85","223.5","26.5","108.80","24.62","22.00","37.76","5.82","18.89","0","0"
"Malik Beasley","Malik-Beasley-35213","4900","PG/SG","39.16","213","31.1","99.62","14.45","26.00","39.58","5.66","19.8","0","0"
"Myles Turner","Myles-Turner-18915","6700","C","53.82","224.5","26.0","107.67","14.85","27.00","52.44","8.94","26.85","0","0"
"Jonah Bolden","Jonah-Bolden-554969","3300","PF","47.89","224.5","17.3","108.33","15.19","14.00","18.47","10.45","13.19","0","0"
"Terrance Ferguson","Terrance-Ferguson-37871","3400","SG/SF","36.45","227","29.3","102.62","9.74","26.00","26.83","2.98","13.42","0","0"
"JaVale McGee","JaVale-McGee-1485","4800","C","50.54","227","19.6","112.50","18.67","16.00","37.32","4.67","18.67","0","0"
"Ryan Arcidiacono","Ryan-Arcidiacono-36050","3200","PG","38.82","213","18.3","104.50","11.76","19.00","24.63","3.7","12.32","0","0"
"Miles Bridges","Miles-Bridges-409262","3200","SF/PF","52.00","229","15.5","103.00","11.55","15.00","16.98","9.17","12.13","0","0"
"Juan Hernangomez","Juan-Hernangomez-35212","3300","SF/PF","47.84","213","15.6","99.62","8.95","16.00","24.63","2.46","12.32","0","0"
"Delon Wright","Delon-Wright-18907","4600","PG/SG","46.49","223.5","19.0","105.50","17.55","20.00","27.65","6.95","16.94","0","0"
"Robin Lopez","Robin-Lopez-1466","3100","C","52.81","213","10.4","104.50","16.92","16.00","22.67","2.72","11.34","0","0"
"Monte Morris","Monte-Morris-37860","3600","PG","53.49","213","20.8","99.62","19.47","16.00","18.2","10.91","13","0","0"
"Mike Muscala","Mike-Muscala-17379","3400","PF/C","53.53","224.5","17.8","108.33","15.44","15.00","23.26","2.45","12.24","0","0"
"Wayne Selden","Wayne-Selden-36045","3300","SG/SF","50.08","213","12.6","104.50","16.06","14.00","21.83","3.17","11.49","0","0"
"Hamidou Diallo","Hamidou-Diallo-408800","3000","SG/SF","36.45","227","9.2","102.62","12.82","13.00","14.53","8.71","10.38","0","0"
"Malachi Richardson","Malachi-Richardson-35199","3000","SG/SF","36.18","223.5","2.0","105.50","20.00","14.00","20.37","3.39","10.19","0","0"
"Landry Shamet","Landry-Shamet-408841","3200","PG/SG","36.37","224.5","20.2","108.33","19.45","15.00","14.84","8.4","10.6","0","0"
"Doug McDermott","Doug-McDermott-18583","3100","SF/PF","34.03","224.5","16.5","107.67","13.41","16.00","20.45","3.27","10.23","0","0"
"Trey Lyles","Trey-Lyles-18942","3400","SF/PF","47.84","213","14.2","99.62","19.27","10.00","21.36","2.93","10.86","0","0"
"Shaquille Harrison","Shaquille-Harrison-36065","3400","PG/SF","38.82","213","18.7","104.50","17.74","15.00","21.39","3.06","10.7","0","0"
"Justin Jackson","Justin-Jackson-37895","3500","SF/PF","38.30","229","24.1","98.20","15.76","16.00","21.21","2.86","10.97","0","0"
"Yogi Ferrell","Yogi-Ferrell-35999","3100","PG/SG","51.68","229","19.4","98.20","14.87","13.00","18.8","2.94","9.53","0","0"
"C.J. Miles","C.J.-Miles-1299","3400","SG/SF","34.56","223.5","6.5","105.50","12.31","10.00","20.21","3.24","10.11","0","0"
"Patrick Patterson","Patrick-Patterson-1260","3300","PF/C","56.85","227","14.7","102.62","12.26","13.00","17.6","1.92","8.9","0","0"
"Troy Daniels","Troy-Daniels-17383","3000","SG","36.34","223.5","11.2","108.80","19.35","10.00","16.11","2.24","8.06","0","0"
"Elie Okobo","Elie-Okobo-409300","3200","PG","40.86","223.5","17.2","108.80","18.77","9.00","9.51","5.38","6.79","0","0"
"Lance Stephenson","Lance-Stephenson-947","3400","SG/SF","46.71","227","16.0","112.50","18.09","7.00","13.37","1.36","6.81","0","0"
"Corey Brewer","Corey-Brewer-1278","3000","SG/SF","36.37","224.5","8.0","108.33","13.30","8.00","11.67","2.23","5.84","0","0"
"Abdel Nader","Abdel-Nader-35179","3200","SF","38.81","227","13.0","102.62","16.69","10.00","12.35","1.43","6.18","0","0"
"Sviatoslav Mykhailiuk","Sviatoslav-Mykhailiuk-409280","3000","SG/SF","40.58","227","8.4","112.50","15.58","8.00","8.08","4.57","5.77","0","0"
"Devonte' Graham","Devonte'-Graham-408968","3400","PG/SG","44.97","229","16.0","103.00","17.18","8.00","8.96","4.84","6.4","0","0"
"Ivica Zubac","Ivica-Zubac-35226","3400","C","50.54","227","12.3","112.50","23.73","6.00","11.24","1.24","5.76","0","0"
"Nerlens Noel","Nerlens-Noel-18575","3400","C","57.29","227","11.7","102.62","15.10","8.00","7.74","4.42","5.53","0","0"
"Furkan Korkmaz","Furkan-Korkmaz-35185","3200","SG/SF","36.37","224.5","16.5","108.33","18.19","6.00","9.26","1.18","4.63","0","0"
"Patrick McCaw","Patrick-McCaw-35222","3700","SG/SF","36.18","223.5","16.5","105.50","12.52","6.00","8.84","1.3","4.42","0","0"
