"nameCol","idCol","salaryCol","positionCol","dvpCol","ouCol","mpgCol","paceCol","usgCol","pminCol","ceilCol","floorCol","pointsCol","predictCol","actualCol"
"Cheick Diallo","Cheick-Diallo-35225","3000.00","PF/C","50.68","229","11.0","104.88","26.84","23.00","47.88","7.26","23.95","0","0"
"Darius Miller","Darius-Miller-13951","3300.00","SF/PF","37.66","229","28.3","104.88","12.07","33.00","44.24","7.37","22.13","0","0"
"Corey Brewer","Corey-Brewer-1278","3800","SG/SF","32.97","227","22.3","108.33","16.36","31.00","48.54","8.09","24.28","0","0"
"Solomon Hill","Solomon-Hill-16863","3000.00","SF/PF","37.66","229","21.0","104.88","8.45","30.00","37.7","4.96","18.86","0","0"
"Jaren Jackson","Jaren-Jackson-409099","4800","PF/C","54.03","202.5","26.8","103.30","21.40","31.00","41.45","23.45","29.61","0","0"
"Shelvin Mack","Shelvin-Mack-13354","3400","PG/SG","37.08","202.5","21.0","103.30","23.27","24.00","34.94","3.35","20.06","0","0"
"Jonah Bolden","Jonah-Bolden-554969","4100","PF","48.65","227","12.8","108.33","15.23","26.00","33.63","19.02","24.02","0","0"
"Elfrid Payton","Elfrid-Payton-18602","5400.00","PG","43.35","229","27.6","104.88","18.80","30.00","49.68","14.93","31.56","0","0"
"Jahlil Okafor","Jahlil-Okafor-18902","4900.00","C","50.68","229","16.0","104.88","20.46","30.00","50.06","12.12","28.38","0","0"
"Patty Mills","Patty-Mills-13977","3700.00","PG/SG","48.73","229","20.7","99.70","22.84","26.00","42.72","5.34","21.37","0","0"
"Jevon Carter","Jevon-Carter-409100","3300","PG/SG","37.08","202.5","13.4","103.30","16.88","25.00","26.57","14.35","18.98","0","0"
"Jakob Poeltl","Jakob-Poeltl-35187","3300.00","C","51.40","229","14.0","99.70","9.98","18.00","37.74","3.93","18.88","0","0"
"Paul Millsap","Paul-Millsap-1335","5000","PF/C","48.17","227","23.6","99.62","19.23","28.00","46.32","11.25","28.4","0","0"
"Rudy Gay","Rudy-Gay-1341","5700.00","SF/PF","49.41","229","28.2","99.70","23.61","33.00","49.54","13.0","32.34","0","0"
"J.J. Redick","J.J.-Redick-1030","5600","SG/SF","32.97","227","31.3","108.33","20.87","32.00","53.5","13.49","31.73","0","0"
"E'Twaun Moore","E'Twaun-Moore-18582","3900.00","SG/SF","33.01","229","27.0","104.88","12.53","27.00","36.57","6.99","21.91","0","0"
"Darren Collison","Darren-Collison-1060","5600","PG","40.82","202.5","28.2","107.67","23.11","32.00","51.07","14.18","31.31","0","0"
"Al Horford","Al-Horford-1499","5700","PF/C","51.30","232.5","28.5","101.75","18.62","31.00","49.69","15.56","31.81","0","0"
"Seth Curry","Seth-Curry-16825","3300","PG/SG","41.47","226","17.7","104.50","14.50","26.00","36.76","4.91","18.39","0","0"
"Al-Farouq Aminu","Al-Farouq-Aminu-1279","4500","SF/PF","42.68","226","27.1","104.50","14.92","31.00","36.43","7.01","24.78","0","0"
"T.J. McConnell","T.J.-McConnell-18956","4000","PG/SG","38.69","227","20.7","108.33","19.14","24.00","41.17","4.56","22.05","0","0"
"Mike Muscala","Mike-Muscala-17379","4200","PF/C","51.50","227","18.2","108.33","11.48","28.00","43.8","4.61","23.05","0","0"
"C.J. McCollum","C.J.-McCollum-17121","6600","PG/SG","52.15","226","32.7","104.50","23.39","35.00","59.5","19.75","36.04","0","0"
"Pau Gasol","Pau-Gasol-1502","3100.00","C","55.09","229","8.2","99.70","12.77","13.00","30.19","6.56","16.92","0","0"
"Tyreke Evans","Tyreke-Evans-1070","5200","SG/SF","42.82","202.5","18.8","107.67","28.98","28.00","50.69","15.92","28.27","0","0"
"Derrick White","Derrick-White-37858","5400.00","PG/SG","48.73","229","31.5","99.70","16.12","35.00","51.81","9.19","28.91","0","0"
"Marcus Smart","Marcus-Smart-18567","4600","PG/SG","50.21","232.5","28.2","101.75","12.66","31.00","40.83","10.56","24.61","0","0"
"Marco Belinelli","Marco-Belinelli-1033","4300.00","SG/SF","35.30","229","25.2","99.70","22.61","28.00","38.06","6.69","22.9","0","0"
"Landry Shamet","Landry-Shamet-408841","3500","PG/SG","32.97","227","17.7","108.33","20.28","24.00","25.94","14.68","18.53","0","0"
"Justin Holiday","Justin-Holiday-14559","4400","SG/SF","36.72","202.5","25.8","103.30","14.20","35.00","40.84","13.22","23.15","0","0"
"Bryn Forbes","Bryn-Forbes-36052","4300.00","PG/SG","52.11","229","29.7","99.70","16.02","34.00","44.68","7.82","22.35","0","0"
"Cory Joseph","Cory-Joseph-13339","4100","PG","40.82","202.5","23.4","107.67","16.62","28.00","38.64","6.26","21.28","0","0"
"Evan Turner","Evan-Turner-1291","4300","SG/SF","52.15","226","23.6","104.50","16.61","26.00","35.53","6.46","22.29","0","0"
"Ben Simmons","Ben-Simmons-35184","9600","PG/SF","38.69","227","32.3","108.33","25.44","35.00","70.18","29.68","49.63","0","0"
"DeMarcus Cousins","DeMarcus-Cousins-1490","6200","PF/C","50.36","232.5","20.0","103.10","28.47","24.00","45.8","14.93","32.03","0","0"
"Jrue Holiday","Jrue-Holiday-1073","8200.00","PG/SG","52.63","229","38.0","104.88","27.21","38.00","62.73","20.48","42.13","0","0"
"Taurean Prince","Taurean-Prince-35218","5000","SF","36.23","226","20.0","105.10","20.61","28.00","45.63","6.58","25.69","0","0"
"Gary Harris","Gary-Harris-18617","4800","SG","48.04","227","20.5","99.62","22.58","28.00","34.4","8.75","24.57","0","0"
"Klay Thompson","Klay-Thompson-13315","5900","SG","33.99","232.5","31.2","103.10","24.37","35.00","53.78","14.17","30.08","0","0"
"JaMychal Green","JaMychal-Green-18729","4700","SF/PF","54.03","202.5","21.9","103.30","22.72","24.00","47.82","4.9","23.92","0","0"
"Jayson Tatum","Jayson-Tatum-37782","5600","SF/PF","48.05","232.5","31.0","101.75","23.73","32.00","41.85","12.92","28.22","0","0"
"Kevin Durant","Kevin-Durant-1348","9200","SF/PF","43.36","232.5","34.5","103.10","27.53","35.00","70.36","24.7","46.35","0","0"
"Wade Baldwin","Wade-Baldwin-35204","3000","PG/SG","56.70","226","6.0","104.50","6.67","19.00","30.1","3.77","15.06","0","0"
"Bojan Bogdanovic","Bojan-Bogdanovic-18571","5400","SG/SF","38.50","202.5","31.4","107.67","18.20","33.00","42.9","9.02","27.1","0","0"
"Maurice Harkless","Maurice-Harkless-16971","3800","SF/PF","42.68","226","19.2","104.50","11.81","23.00","37.48","6.9","18.75","0","0"
"Marcus Morris","Marcus-Morris-13316","4800","SF/PF","35.69","232.5","26.6","101.75","19.41","28.00","40.14","8.69","23.61","0","0"
"Kyrie Irving","Kyrie-Irving-13334","9300","PG","50.21","232.5","34.8","101.75","32.78","35.00","62.79","22.56","44.85","0","0"
"LaMarcus Aldridge","LaMarcus-Aldridge-1349","8300.00","PF/C","55.09","229","32.0","99.70","26.05","34.00","58.57","19.94","39.95","0","0"
"Marc Gasol","Marc-Gasol-1493","7700","C","54.03","202.5","30.4","103.30","23.85","34.00","58.31","19.17","36.93","0","0"
"Mike Conley","Mike-Conley-1062","7100","PG","37.08","202.5","31.8","103.30","25.03","35.00","60.53","12.86","34.1","0","0"
"Jusuf Nurkic","Jusuf-Nurkic-18619","8600","C","54.27","226","28.1","104.50","26.57","29.00","64.69","18.96","41.31","0","0"
"Stephen Curry","Stephen-Curry-1079","9100","PG/SG","49.00","232.5","33.0","103.10","32.39","35.00","74.16","16.08","43.47","0","0"
"Trae Young","Trae-Young-409063","6400","PG","48.62","226","31.8","105.10","31.33","32.00","42.7","24.67","30.5","0","0"
"Dewayne Dedmon","Dewayne-Dedmon-16894","5100","PF/C","50.57","226","24.7","105.10","20.10","26.00","38.61","10.16","24.07","0","0"
"Draymond Green","Draymond-Green-13976","6300","PF/C","50.36","232.5","30.2","103.10","15.52","33.00","43.94","12.83","29.71","0","0"
"Nikola Jokic","Nikola-Jokic-31812","10700","C","52.97","227","30.2","99.62","32.29","34.00","70.41","29.69","50.15","0","0"
"Mason Plumlee","Mason-Plumlee-16798","3900","PF/C","52.13","227","17.4","99.62","18.46","18.00","36.5","5.22","18.26","0","0"
"Jamal Murray","Jamal-Murray-35211","6800","PG/SG","51.63","227","28.7","99.62","26.01","33.00","46.51","11.05","30.86","0","0"
"Kevin Huerter","Kevin-Huerter-408969","5100","SG/SF","37.77","226","36.0","105.10","19.03","34.00","32.44","18.74","23.17","0","0"
"Jeremy Lin","Jeremy-Lin-916","4200","PG/SG","48.62","226","24.0","105.10","24.07","22.00","36.08","5.45","19.04","0","0"
"Myles Turner","Myles-Turner-18915","6900","C","50.48","202.5","30.0","107.67","15.83","30.00","61.11","9.57","31.29","0","0"
"Doug McDermott","Doug-McDermott-18583","3300","SF/PF","38.50","202.5","15.6","107.67","17.70","20.00","29.79","4.77","14.9","0","0"
"Amir Johnson","Amir-Johnson-1285","3600","PF/C","52.69","227","9.0","108.33","20.93","16.00","32.44","4.35","16.23","0","0"
"Zach Collins","Zach-Collins-37866","3400","PF/C","56.28","226","16.7","104.50","15.70","17.00","27.12","4.69","15.34","0","0"
"Gordon Hayward","Gordon-Hayward-1239","4900","SF/PF","48.05","232.5","23.3","101.75","21.07","25.00","44.08","7.14","22.05","0","0"
"Thaddeus Young","Thaddeus-Young-1289","5800","SF/PF","43.14","202.5","29.2","107.67","18.85","31.00","44.04","11.2","25.98","0","0"
"DeAndre Bembry","DeAndre-Bembry-35198","4700","SG/SF","36.23","226","31.2","105.10","17.93","26.00","35.06","9.67","21.02","0","0"
"Will Barton","Will-Barton-13982","6500","SG/SF","48.04","227","21.3","99.62","24.51","30.00","46.45","15.2","29.07","0","0"
"Andre Iguodala","Andre-Iguodala-1334","3900","SG/SF","33.99","232.5","23.5","103.10","13.33","23.00","28.95","8.24","16.88","0","0"
"Kevon Looney","Kevon-Looney-18945","4000","PF/C","51.47","232.5","22.2","103.10","14.11","20.00","32.93","6.19","17.33","0","0"
"John Collins","John-Collins-37823","8000","PF/C","50.57","226","29.8","105.10","23.38","33.00","63.24","13.68","34.37","0","0"
"Domantas Sabonis","Domantas-Sabonis-35217","6700","PF/C","48.23","202.5","20.6","107.67","22.14","26.00","53.84","4.21","28.67","0","0"
"Jaylen Brown","Jaylen-Brown-35181","4500","SG/SF","35.69","232.5","24.3","101.75","22.59","23.00","36.82","4.18","18.42","0","0"
"Aron Baynes","Aron-Baynes-14114","3500","C","54.14","232.5","17.4","101.75","14.90","14.00","28.07","2.81","14.04","0","0"
"Omari Spellman","Omari-Spellman-408970","3400","PF/C","50.53","226","20.0","105.10","13.58","17.00","18.79","10.45","13.42","0","0"
"Torrey Craig","Torrey-Craig-37861","3900","SG/SF","35.18","227","25.6","99.62","10.88","25.00","30.1","3.25","15.06","0","0"
"Alex Len","Alex-Len-16886","4500","C","50.57","226","20.2","105.10","25.26","18.00","32.76","7.18","17.26","0","0"
"Trey Lyles","Trey-Lyles-18942","3700","SF/PF","48.17","227","18.0","99.62","25.80","15.00","27.56","3.92","14.11","0","0"
"Meyers Leonard","Meyers-Leonard-13905","3300","PF/C","56.28","226","16.2","104.50","13.64","12.00","24.91","2.99","12.46","0","0"
"Dante Cunningham","Dante-Cunningham-1259","3000.00","SF/PF","49.41","229","6.8","99.70","10.18","15.00","22.57","2.56","11.29","0","0"
"Jake Layman","Jake-Layman-35216","3500","SF/PF","42.68","226","22.6","104.50","19.91","18.00","25.37","3.21","12.82","0","0"
"Shaun Livingston","Shaun-Livingston-14007","3000","PG","39.04","232.5","13.7","103.10","15.62","15.00","21.31","2.75","10.66","0","0"
"Frank Jackson","Frank-Jackson-37855","3200.00","PG/SG","52.63","229","14.6","104.88","15.11","15.00","15.68","9.4","11.2","0","0"
"Joakim Noah","Joakim-Noah-1404","3300","C","50.58","202.5","13.4","103.30","15.95","14.00","22.79","3.68","11.4","0","0"
"Terry Rozier","Terry-Rozier-18894","5500","PG/SG","43.91","232.5","22.0","101.75","20.81","21.00","32.94","5.87","18.8","0","0"
"Aaron Holiday","Aaron-Holiday-408932","3300","PG/SG","40.82","202.5","2.0","107.67","39.95","12.00","14.98","8.34","10.7","0","0"
"Monte Morris","Monte-Morris-37860","3600","PG","51.63","227","21.9","99.62","16.34","15.00","16.06","8.67","11.47","0","0"
"Furkan Korkmaz","Furkan-Korkmaz-35185","3300","SG/SF","32.97","227","7.5","108.33","14.49","16.00","20.09","2.56","10.05","0","0"
"Ivan Rabb","Ivan-Rabb-37854","3100","PF/C","50.58","202.5","8.0","103.30","26.85","10.00","16.76","2.3","8.75","0","0"
"Shake Milton","Shake-Milton-409061","3000","PG/SG","49.67","227","0","108.33","0","8.00","7.28","7.28","7.28","0","0"
"Malik Beasley","Malik-Beasley-35213","3700","PG/SG","35.18","227","28.7","99.62","14.45","12.00","17.29","2.47","8.65","0","0"
"Alfonzo McKinnie","Alfonzo-McKinnie-37808","3300","SF/PF","36.49","232.5","16.5","103.10","13.69","14.00","14.99","2.71","7.5","0","0"
"Ian Clark","Ian-Clark-16922","3000.00","PG/SG","33.01","229","4.0","104.88","31.65","9.00","13.55","1.77","6.78","0","0"
"Julian Washburn","Julian-Washburn-760293","3000","SG/SF","36.12","202.5","0","103.30","0","8.00","8.51","4.6","6.08","0","0"
"Tim Frazier","Tim-Frazier-18743","3200.00","PG/SG","43.35","229","9.5","104.88","15.64","5.00","8.23","1.08","4.15","0","0"
"Quinn Cook","Quinn-Cook-31771","3100","PG","49.00","232.5","9.2","103.10","26.88","6.00","7.22","0.69","3.61","0","0"
"Quincy Pondexter","Quincy-Pondexter-1237","3000.00","SF","42.01","229","5.0","99.70","12.84","4.00","5.52","0.67","2.92","0","0"
"Vince Carter","Vince-Carter-1066","3100","SG","37.77","226","10.2","105.10","20.15","4.00","5.82","0.73","2.91","0","0"
"Nik Stauskas","Nik-Stauskas-18636","3000","SG/SF","41.47","226","9.7","104.50","19.77","4.00","5.13","1.11","2.77","0","0"
"Juancho Hernangomez","Juancho-Hernangomez-35212","3300","SF/PF","48.17","227","14.3","99.62","10.79","2.00","3.24","0.32","1.62","0","0"
