"nameCol","idCol","salaryCol","positionCol","dvpCol","ouCol","mpgCol","paceCol","usgCol","pminCol","ceilCol","floorCol","pointsCol","predictCol","actualCol"
"Terry Rozier","Terry-Rozier-18894","3700","PG/SG","45.02","217.5","21.4","101.75","20.94","34.00","53.53","22.18","31.73","0","0"
"Shelvin Mack","Shelvin-Mack-13354","3400","PG/SG","38.74","208","16.4","103.30","23.37","28.00","38.07","18.91","21.94","0","0"
"Gordon Hayward","Gordon-Hayward-1239","5300","SF/PF","47.90","217.5","24.9","101.75","23.51","30.00","61.65","25.2","33.29","0","0"
"Nene Hilario","Nene-Hilario-17321","3100","C","48.37","208","9.8","101.42","12.40","20.00","35.19","13.84","18.88","0","0"
"Jaylen Brown","Jaylen-Brown-35181","4300","SG/SF","32.45","217.5","24.7","101.75","22.03","30.00","51.99","20.52","26.01","0","0"
"Spencer Dinwiddie","Spencer-Dinwiddie-18588","5500","PG/SG","49.53","217.5","24.8","114.62","25.29","32.00","56.12","25.28","33.09","0","0"
"Patrick Beverley","Patrick-Beverley-14108","3700","PG/SG","49.79","240","27.2","108.38","9.31","26.00","44.06","19.66","22.04","0","0"
"Avery Bradley","Avery-Bradley-941","3300","SG","36.47","240","25.0","108.38","11.87","28.00","32.47","14.1","19.34","0","0"
"Pau Gasol","Pau-Gasol-1502","3100","C","59.11","220","12.2","99.70","10.10","15.00","27.76","8.3","18.12","0","0"
"D'Angelo Russell","D'Angelo-Russell-18947","6500","PG/SG","49.53","217.5","29.5","114.62","31.52","33.00","56.51","21.37","37.55","0","0"
"Garrett Temple","Garrett-Temple-14077","3500","SG/SF","37.67","208","31.4","103.30","13.36","30.00","36.83","16.76","19.93","0","0"
"Royce O'Neale","Royce-O'Neale-37872","4700","SF","34.86","208","18.4","98.88","11.18","37.00","40.53","16.44","26.56","0","0"
"Marvin Bagley III","Marvin-Bagley-III-409321","4800","PF/C","50.76","228","21.7","98.20","20.00","26.00","37.39","4.22","26.71","0","0"
"Al-Farouq Aminu","Al-Farouq-Aminu-1279","5000","SF/PF","38.94","228","31.3","104.50","13.60","32.00","41.94","19.65","27.72","0","0"
"Jaren Jackson","Jaren-Jackson-409099","5100","PF/C","52.96","208","25.3","103.30","20.64","28.00","39.28","9.2","28.06","0","0"
"Quincy Pondexter","Quincy-Pondexter-1237","3000","SF","38.41","220","3.5","99.70","12.97","18.00","33.0","16.51","16.51","0","0"
"James Harden","James-Harden-1037","12400","PG/SG","47.30","208","38.9","101.42","44.75","39.00","95.12","22.49","67.94","0","0"
"Davis Bertans","Davis-Bertans-36051","3900","SF/PF","59.11","220","25.0","99.70","11.55","23.00","42.62","21.32","21.32","0","0"
"Jeremy Lamb","Jeremy-Lamb-13955","5200","SG/SF","47.11","220","22.2","103.00","24.30","29.00","45.26","18.23","28.01","0","0"
"Anthony Davis","Anthony-Davis-13895","11600","PF/C","56.99","240","35.4","104.88","30.59","37.00","87.21","32.95","62.29","0","0"
"Kemba Walker","Kemba-Walker-13335","7900","PG","52.72","220","30.4","103.00","33.40","34.00","71.38","24.74","42.36","0","0"
"Patty Mills","Patty-Mills-13977","3700","PG/SG","43.23","220","22.4","99.70","19.78","22.00","39.54","19.78","19.78","0","0"
"Damian Lillard","Damian-Lillard-13900","8800","PG","54.96","228","34.7","104.50","29.49","35.00","72.21","25.21","47.04","0","0"
"Kyle Korver","Kyle-Korver-1269","3800","SG/SF","37.18","208","20.9","98.88","17.31","25.00","39.54","20.31","20.31","0","0"
"E'Twaun Moore","E'Twaun-Moore-18582","4100","SG/SF","33.65","240","31.8","104.88","15.17","29.00","34.71","15.61","21.9","0","0"
"Julius Randle","Julius-Randle-18632","7400","PF/C","56.99","240","32.7","104.88","24.30","31.00","63.59","23.84","39.47","0","0"
"LaMarcus Aldridge","LaMarcus-Aldridge-1349","8200","PF/C","59.11","220","33.1","99.70","28.16","34.00","62.35","20.97","43.69","0","0"
"Marc Gasol","Marc-Gasol-1493","7300","C","52.96","208","31.6","103.30","20.82","33.00","59.72","19.53","38.83","0","0"
"Maurice Harkless","Maurice-Harkless-16971","4000","SF/PF","38.94","228","21.7","104.50","13.33","24.00","42.34","17.43","21.18","0","0"
"Nikola Mirotic","Nikola-Mirotic-18584","5700","PF/C","52.02","240","23.5","104.88","19.17","29.00","52.1","22.7","30.22","0","0"
"Joe Harris","Joe-Harris-18587","4500","SG/SF","34.94","217.5","25.8","114.62","21.17","31.00","39.61","15.8","23.86","0","0"
"Ish Smith","Ish-Smith-13958","3300","PG","43.56","208","0","100.30","0","20.00","33.28","14.55","17.47","0","0"
"Derrick White","Derrick-White-37858","5400","PG/SG","43.23","220","31.0","99.70","18.68","30.00","48.33","19.27","28.46","0","0"
"Austin Rivers","Austin-Rivers-13903","4700","PG/SG","40.29","208","37.7","101.42","14.77","36.00","39.51","14.85","24.71","0","0"
"Jayson Tatum","Jayson-Tatum-37782","6300","SF/PF","47.90","217.5","29.6","101.75","23.21","32.00","48.05","20.26","33.05","0","0"
"Mike Conley","Mike-Conley-1062","7600","PG","38.74","208","32.0","103.30","25.78","34.00","70.13","24.97","39.89","0","0"
"Tobias Harris","Tobias-Harris-13332","7700","SF/PF","47.93","240","32.3","108.38","23.93","33.00","62.7","22.89","40.01","0","0"
"Marcin Gortat","Marcin-Gortat-1479","3500","C","51.12","240","19.2","108.38","15.63","16.00","29.87","10.68","18.16","0","0"
"DeMar DeRozan","DeMar-DeRozan-1053","8500","SG/SF","51.23","220","35.7","99.70","27.86","35.00","70.01","23.73","44.03","0","0"
"Derrick Favors","Derrick-Favors-1266","5300","PF/C","52.15","208","25.6","98.88","18.61","26.00","43.47","15.65","27.41","0","0"
"Marvin Williams","Marvin-Williams-1318","4900","SF/PF","50.67","220","28.0","103.00","16.65","30.00","45.53","20.05","25.31","0","0"
"Bogdan Bogdanovic","Bogdan-Bogdanovic-37899","5600","SG/SF","44.33","228","29.7","98.20","24.52","30.00","54.08","24.13","28.86","0","0"
"Rodions Kurucs","Rodions-Kurucs-408801","3800","SF/PF","43.62","217.5","22.8","114.62","17.60","25.00","27.38","3.95","19.56","0","0"
"Jarrett Allen","Jarrett-Allen-37794","5200","C","51.09","217.5","25.0","114.62","14.99","27.00","49.57","16.53","26.75","0","0"
"Andre Drummond","Andre-Drummond-13904","8700","C","52.09","208","35.0","100.30","19.80","33.00","62.5","20.73","44.58","0","0"
"Rudy Gobert","Rudy-Gobert-16935","8400","C","51.96","208","33.1","98.88","15.28","35.00","65.52","21.07","42.99","0","0"
"Joe Ingles","Joe-Ingles-18627","6100","SG/SF","37.18","208","31.3","98.88","18.79","33.00","48.42","20.64","31.22","0","0"
"Al Horford","Al-Horford-1499","6200","PF/C","58.22","217.5","23.9","101.75","18.57","30.00","48.5","16.37","31.66","0","0"
"Gerald Green","Gerald-Green-13374","4000","SG/SF","42.89","208","26.3","101.42","18.57","26.00","32.35","11.44","20.42","0","0"
"Danuel House","Danuel-House-36029","4200","SF/PF","47.30","208","28.7","101.42","13.62","30.00","38.55","13.16","21.37","0","0"
"Danilo Gallinari","Danilo-Gallinari-1329","7200","SF/PF","47.93","240","33.5","108.38","23.51","33.00","60.93","23.76","36.44","0","0"
"JaMychal Green","JaMychal-Green-18729","4800","SF/PF","52.96","208","23.3","103.30","19.28","25.00","44.98","21.32","24.25","0","0"
"Reggie Bullock","Reggie-Bullock-16943","4500","SG/SF","29.89","208","32.0","100.30","17.48","32.00","37.43","13.05","22.74","0","0"
"Marcus Morris","Marcus-Morris-13316","5800","SF/PF","32.45","217.5","26.5","101.75","19.93","30.00","46.96","21.16","29.15","0","0"
"Reggie Jackson","Reggie-Jackson-13352","4800","PG/SG","49.03","208","28.0","100.30","21.57","28.00","35.11","11.8","24.13","0","0"
"Montrezl Harrell","Montrezl-Harrell-18930","7100","PF/C","55.03","240","24.7","108.38","25.33","28.00","63.05","31.06","35.54","0","0"
"Brad Wanamaker","Brad-Wanamaker-438951","3000","PG/SG","39.92","217.5","7.0","101.75","19.51","20.00","20.89","3.01","14.92","0","0"
"Shai Gilgeous-Alexander","Shai-Gilgeous-Alexander-408990","4100","PG/SG","49.79","240","19.7","108.38","20.27","22.00","28.48","8.77","20.34","0","0"
"De'Aaron Fox","De'Aaron-Fox-37900","7800","PG","47.94","228","29.0","98.20","26.49","34.00","57.19","18.95","38.51","0","0"
"Theo Pinson","Theo-Pinson-554931","3100","SG/SF","34.94","217.5","14.0","114.62","18.86","18.00","21.39","3.96","15.28","0","0"
"Nicolas Batum","Nicolas-Batum-1315","5100","SG/SF","38.56","220","29.9","103.00","12.73","29.00","43.01","16.52","25.15","0","0"
"C.J. McCollum","C.J.-McCollum-17121","6800","PG/SG","45.76","228","34.4","104.50","23.84","34.00","51.13","16.08","33.29","0","0"
"Jakob Poeltl","Jakob-Poeltl-35187","3500","C","53.58","220","16.4","99.70","12.37","15.00","34.22","14.31","17.12","0","0"
"Ed Davis","Ed-Davis-1265","3700","C","51.09","217.5","19.7","114.62","13.79","19.00","36.14","16.6","18.08","0","0"
"Willy Hernangomez","Willy-Hernangomez-18901","4000","C","50.62","220","15.1","103.00","25.97","15.00","37.32","16.23","19.44","0","0"
"Lou Williams","Lou-Williams-1044","6700","PG/SG","49.18","240","26.3","108.38","32.78","26.00","62.87","26.2","32.59","0","0"
"Willie Cauley-Stein","Willie-Cauley-Stein-18951","7000","C","50.64","228","28.0","98.20","22.04","30.00","48.86","16.09","33.67","0","0"
"Buddy Hield","Buddy-Hield-35206","6600","SG/SF","38.31","228","31.4","98.20","24.65","30.00","52.17","19.21","31.54","0","0"
"P.J. Tucker","P.J.-Tucker-13947","4400","SF/PF","36.20","208","35.6","101.42","9.23","38.00","32.47","14.61","20.87","0","0"
"Justin Holiday","Justin-Holiday-14559","3400","SG/SF","37.67","208","18.6","103.30","15.04","21.00","25.25","8.26","16.03","0","0"
"Jusuf Nurkic","Jusuf-Nurkic-18619","8600","C","55.35","228","27.4","104.50","25.98","30.00","61.58","22.26","40.33","0","0"
"Jae Crowder","Jae-Crowder-13942","4500","SF/PF","34.86","208","27.1","98.88","21.04","25.00","39.47","17.04","21.12","0","0"
"Jrue Holiday","Jrue-Holiday-1073","8000","PG/SG","52.50","240","34.8","104.88","23.63","35.00","57.22","20.36","37.42","0","0"
"Elfrid Payton","Elfrid-Payton-18602","5900","PG","44.65","240","26.3","104.88","23.39","28.00","42.7","14.84","27.53","0","0"
"Seth Curry","Seth-Curry-16825","3300","PG/SG","41.68","228","19.3","104.50","17.84","20.00","28.75","12.93","15.39","0","0"
"Tony Parker","Tony-Parker-982","3400","PG","42.58","220","14.2","103.00","26.72","17.00","30.62","15.85","15.85","0","0"
"Blake Griffin","Blake-Griffin-1503","9400","PF/C","53.02","208","37.3","100.30","30.56","36.00","69.42","22.6","43.63","0","0"
"Luke Kennard","Luke-Kennard-37814","3400","SG/SF","34.09","208","18.4","100.30","20.26","20.00","28.07","10.94","15.78","0","0"
"DeMarre Carroll","DeMarre-Carroll-1174","4700","SF/PF","33.60","217.5","25.4","114.62","21.80","23.00","40.5","16.94","21.75","0","0"
"Bismack Biyombo","Bismack-Biyombo-13312","4200","C","50.62","220","18.9","103.00","14.56","21.00","31.88","13.73","19.39","0","0"
"Nemanja Bjelica","Nemanja-Bjelica-31814","4700","SF/PF","50.76","228","25.1","98.20","16.08","22.00","34.95","12.5","21.48","0","0"
"Michael Kidd-Gilchrist","Michael-Kidd-Gilchrist-13896","3500","SF/PF","38.56","220","17.7","103.00","15.78","19.00","28.62","11.05","15.9","0","0"
"Dante Cunningham","Dante-Cunningham-1259","3000","SF/PF","49.84","220","5.2","99.70","17.94","18.00","27.01","11.77","13.51","0","0"
"Bryn Forbes","Bryn-Forbes-36052","4700","PG/SG","52.30","220","33.0","99.70","16.32","30.00","34.68","16.03","21.17","0","0"
"Evan Turner","Evan-Turner-1291","4400","SG/SF","45.76","228","22.4","104.50","16.57","22.00","31.64","13.98","19.75","0","0"
"Daniel Theis","Daniel-Theis-37784","3500","PF/C","62.05","217.5","16.9","101.75","15.94","16.00","27.62","14.03","15.5","0","0"
"Zach Collins","Zach-Collins-37866","3800","PF/C","56.83","228","17.6","104.50","16.06","17.00","29.04","13.51","16.7","0","0"
"Bruce Brown","Bruce-Brown-408913","3800","PG/SG","34.09","208","26.4","100.30","14.63","27.00","23.2","3.16","16.57","0","0"
"Darius Miller","Darius-Miller-13951","3400","SF/PF","35.06","240","27.0","104.88","13.29","23.00","28.58","14.84","14.84","0","0"
"Iman Shumpert","Iman-Shumpert-13350","3800","SG/SF","38.31","228","21.8","98.20","19.45","23.00","27.47","12.5","16.49","0","0"
"Treveon Graham","Treveon-Graham-36023","3400","SF/PF","33.60","217.5","19.4","114.62","15.48","24.00","29.33","14.67","14.67","0","0"
"Omri Casspi","Omri-Casspi-1270","3400","SF/PF","36.70","208","12.3","103.30","15.05","16.00","28.09","13.5","14.05","0","0"
"James Ennis","James-Ennis-18599","3300","SG/SF","36.20","208","13.0","101.42","12.11","20.00","21.05","7.53","13.44","0","0"
"Donovan Mitchell","Donovan-Mitchell-37875","9200","PG/SG","53.68","208","35.6","98.88","30.91","36.00","58.56","22.12","36.62","0","0"
"Grayson Allen","Grayson-Allen-409227","3100","PG/SG","37.18","208","13.0","98.88","18.09","14.00","16.58","1.87","11.84","0","0"
"Miles Bridges","Miles-Bridges-409262","3200","SF/PF","50.67","220","17.0","103.00","13.98","15.00","17.0","2.72","12.14","0","0"
"Justin Jackson","Justin-Jackson-37895","3600","SF/PF","38.31","228","25.3","98.20","15.20","20.00","25.91","11.83","13.65","0","0"
"Stanley Johnson","Stanley-Johnson-18913","3400","SF/PF","29.89","208","13.2","100.30","21.69","16.00","23.29","10.36","12.59","0","0"
"Harry Giles","Harry-Giles-37897","3900","PF/C","50.76","228","16.4","98.20","20.18","17.00","20.01","2.26","14.29","0","0"
"Mike Scott","Mike-Scott-13999","3000","SF/PF","47.93","240","8.2","108.38","17.39","12.00","21.63","10.82","10.82","0","0"
"Malik Monk","Malik-Monk-37827","3900","PG/SG","52.72","220","18.4","103.00","26.70","20.00","25.08","11.51","13.98","0","0"
"Frank Jackson","Frank-Jackson-37855","3300","PG/SG","52.50","240","15.0","104.88","18.52","16.00","16.0","2.31","11.43","0","0"
"Meyers Leonard","Meyers-Leonard-13905","3300","PF/C","56.83","228","16.0","104.50","16.53","10.00","22.19","11.1","11.1","0","0"
"Langston Galloway","Langston-Galloway-18717","3200","PG/SG","34.09","208","12.4","100.30","15.87","14.00","20.69","10.35","10.35","0","0"
"Semi Ojeleye","Semi-Ojeleye-37786","3000","SF/PF","32.45","217.5","11.6","101.75","14.16","14.00","19.17","9.59","9.59","0","0"
"Jon Leuer","Jon-Leuer-13317","3300","PF/C","53.02","208","13.6","100.30","13.69","14.00","17.89","7.46","10.45","0","0"
"Joakim Noah","Joakim-Noah-1404","3200","C","53.40","208","8.4","103.30","20.84","13.00","19.37","9.12","10.06","0","0"
"Tyrone Wallace","Tyrone-Wallace-35220","3300","PG/SG","49.18","240","13.3","108.38","16.69","12.00","17.53","7.45","9.72","0","0"
"Tim Frazier","Tim-Frazier-18743","3300","PG/SG","44.65","240","15.3","104.88","13.60","12.00","18.51","7.69","9.6","0","0"
"Georges Niang","Georges-Niang-35193","3000","SF/PF","47.40","208","7.5","98.88","16.88","9.00","16.91","7.28","8.57","0","0"
"Jevon Carter","Jevon-Carter-409100","3300","PG/SG","38.74","208","12.0","103.30","17.09","12.00","12.11","1.75","8.65","0","0"
"Jake Layman","Jake-Layman-35216","3400","SF/PF","38.94","228","19.2","104.50","15.83","12.00","15.95","7.57","8.82","0","0"
"Marquese Chriss","Marquese-Chriss-35230","3100","PF/C","51.23","208","11.0","101.42","20.98","8.00","14.2","6.28","7.96","0","0"
"Gary Clark","Gary-Clark-570141","3300","SF/PF","41.69","208","9.6","101.42","7.49","10.00","11.86","1.34","8.47","0","0"
"Isaiah Hartenstein","Isaiah-Hartenstein-570142","3000","PF/C","41.69","208","0","101.42","0","8.00","9.93","6.88","7.64","0","0"
"Kenneth Faried","Kenneth-Faried-13313","3300","PF/C","51.09","217.5","20.0","114.62","16.21","8.00","16.03","8.02","8.02","0","0"
"Devonte' Graham","Devonte'-Graham-408968","3700","PG/SG","42.58","220","20.4","103.00","18.65","11.00","11.84","1.9","8.46","0","0"
"Yogi Ferrell","Yogi-Ferrell-35999","3200","PG/SG","47.94","228","19.1","98.20","14.73","8.00","11.69","5.08","6.22","0","0"
"Brandon Knight","Brandon-Knight-13336","3200","PG/SG","47.30","208","10.8","101.42","23.06","5.00","6.65","3.12","4.29","0","0"
"Robert Williams","Robert-Williams-408780","3100","PF/C","62.05","217.5","8.0","101.75","8.33","4.00","4.4","0.63","3.14","0","0"
"Nik Stauskas","Nik-Stauskas-18636","3300","SG/SF","41.68","228","12.5","104.50","17.57","4.00","5.51","2.34","3.1","0","0"
"Sindarius Thornwell","Sindarius-Thornwell-37881","3000","SG/SF","41.08","240","2.4","108.38","13.33","4.00","5.58","2.79","2.79","0","0"
