"nameCol","idCol","salaryCol","positionCol","dvpCol","ouCol","mpgCol","paceCol","usgCol","pminCol","ceilCol","floorCol","pointsCol","predictCol","actualCol"
"Rondae Hollis-Jefferson","Rondae-Hollis-Jefferson-18897","3800","PF/C","47.92","220","14.5","114.62","25.72","24.00","50.37","6.3","25.2","0","0"
"Tim Frazier","Tim-Frazier-18743","3200","PG/SG","40.27","234","11.8","104.88","17.46","24.00","41.16","5.37","20.59","0","0"
"Cheick Diallo","Cheick-Diallo-35225","3200","PF/C","54.13","234","11.0","104.88","23.95","21.00","40.32","6.11","20.17","0","0"
"Frank Jackson","Frank-Jackson-37855","3400","PG/SG","49.59","234","16.5","104.88","19.01","29.00","29.67","16.78","21.19","0","0"
"Jahlil Okafor","Jahlil-Okafor-18902","6100","C","54.13","234","22.7","104.88","19.16","34.00","63.36","15.17","36.37","0","0"
"Kenneth Faried","Kenneth-Faried-13313","6300","PF/C","51.32","234","30.5","101.42","18.25","34.00","58.94","18.88","37.16","0","0"
"Eric Gordon","Eric-Gordon-1077","5000","SG/SF","49.45","234","31.2","101.42","24.95","35.00","48.49","10.64","29.07","0","0"
"Shabazz Napier","Shabazz-Napier-18598","4900","PG/SG","40.80","220","17.2","114.62","30.28","28.00","55.3","7.93","28.23","0","0"
"Darius Miller","Darius-Miller-13951","3700","SF/PF","36.91","234","29.3","104.88","13.95","33.00","40.66","6.77","20.34","0","0"
"Lauri Markkanen","Lauri-Markkanen-37809","6600","PF","46.74","220","31.9","104.50","22.23","34.00","61.61","15.46","36.03","0","0"
"Solomon Hill","Solomon-Hill-16863","3400","SF/PF","36.91","234","24.0","104.88","9.55","31.00","36.7","4.83","18.36","0","0"
"Jarrett Allen","Jarrett-Allen-37794","5600","C","56.28","220","26.7","114.62","14.82","26.00","59.23","12.8","29.63","0","0"
"Joe Harris","Joe-Harris-18587","4900","SG/SF","35.12","220","29.5","114.62","20.04","32.00","45.53","9.88","25.87","0","0"
"Chris Paul","Chris-Paul-1087","6900","PG","51.67","234","25.0","101.42","22.18","30.00","51.98","15.71","35.46","0","0"
"D'Angelo Russell","D'Angelo-Russell-18947","8400","PG/SG","52.55","220","28.3","114.62","33.61","32.00","67.46","20.8","42.97","0","0"
"P.J. Tucker","P.J.-Tucker-13947","4800","SF/PF","42.17","234","37.2","101.42","10.87","36.00","36.31","7.47","24.24","0","0"
"Jrue Holiday","Jrue-Holiday-1073","8600","PG/SG","49.59","234","37.2","104.88","27.17","38.00","69.04","20.62","43.31","0","0"
"Ed Davis","Ed-Davis-1265","4100","C","56.28","220","20.2","114.62","13.04","20.00","41.1","5.88","20.56","0","0"
"Kris Dunn","Kris-Dunn-35215","6700","PG/SG","51.11","220","31.3","104.50","19.69","34.00","56.44","18.89","33.32","0","0"
"DeMarre Carroll","DeMarre-Carroll-1174","4600","SF/PF","39.05","220","28.3","114.62","18.71","28.00","45.12","5.82","22.57","0","0"
"James Harden","James-Harden-1037","13600","PG/SG","51.67","234","39.0","101.42","44.85","38.00","92.62","47.24","66.16","0","0"
"Zach LaVine","Zach-LaVine-18622","7200","PG/SG","51.11","220","32.0","104.50","28.60","35.00","53.13","16.91","34.59","0","0"
"Rodions Kurucs","Rodions-Kurucs-408801","3900","SF/PF","47.92","220","21.3","114.62","19.36","23.00","26.08","10.82","18.63","0","0"
"Wayne Selden","Wayne-Selden-36045","4200","SG/SF","51.11","220","20.1","104.50","14.64","33.00","34.12","7.5","19.84","0","0"
"Bobby Portis","Bobby-Portis-18909","6400","PF/C","58.91","220","24.3","104.50","24.40","26.00","60.03","5.77","30.03","0","0"
"Ian Clark","Ian-Clark-16922","3000","PG/SG","37.47","234","4.0","104.88","24.43","19.00","26.61","3.47","13.31","0","0"
"James Ennis","James-Ennis-18599","3500","SF/PF","42.17","234","26.4","101.42","11.09","22.00","28.85","4.5","14.43","0","0"
"Jabari Parker","Jabari-Parker-18593","4400","SF/PF","46.74","220","16.2","104.50","24.87","17.00","31.83","3.22","17.42","0","0"
"Antonio Blakeney","Antonio-Blakeney-37811","3100","PG/SG","30.38","220","6.2","104.50","26.99","14.00","23.37","2.34","11.69","0","0"
"Robin Lopez","Robin-Lopez-1466","4000","C","61.08","220","18.3","104.50","18.61","20.00","29.3","5.33","14.85","0","0"
"Nene Hilario","Nene-Hilario-17321","3300","C","51.32","234","12.0","101.42","12.05","12.00","22.8","3.18","11.92","0","0"
"Ryan Arcidiacono","Ryan-Arcidiacono-36050","3200","PG","40.77","220","15.9","104.50","13.22","16.00","21.99","3.3","11","0","0"
"Treveon Graham","Treveon-Graham-36023","3500","SF/PF","39.05","220","26.4","114.62","13.25","20.00","18.23","3.6","11.46","0","0"
"Austin Rivers","Austin-Rivers-13903","4400","PG/SG","48.70","234","34.3","101.42","12.78","20.00","27.35","3.16","13.68","0","0"
"Gerald Green","Gerald-Green-13374","4000","SG/SF","49.45","234","25.7","101.42","18.68","13.00","18.68","2.96","10.35","0","0"
"Shaquille Harrison","Shaquille-Harrison-36065","3400","PG/SF","40.77","220","13.6","104.50","14.56","11.00","17.29","2.47","8.65","0","0"
"Wesley Johnson","Wesley-Johnson-1280","3000","SF/PF","36.91","234","0","104.88","0","6.00","9.7","1.05","4.85","0","0"
"Theo Pinson","Theo-Pinson-554931","4500","SG/SF","35.12","220","25.0","114.62","20.50","7.00","9.0","5.39","6.43","0","0"
"Kenrich Williams","Kenrich-Williams-570179","3100","SG/SF","36.91","234","12.0","104.88","10.55","5.00","4.98","2.82","3.56","0","0"
