"nameCol","idCol","salaryCol","positionCol","dvpCol","ouCol","mpgCol","paceCol","usgCol","pminCol","ceilCol","floorCol","pointsCol","predictCol","actualCol"
"Shai Gilgeous-Alexander","Shai-Gilgeous-Alexander-408990","4600","PG/SG","42.02","222","24.3","108.38","21.17","32.00","39.05","22.56","27.89","0","0"
"DeAndre Jordan","DeAndre-Jordan-1486","6400","C","58.87","222","30.2","100.08","16.45","31.00","53.58","23.15","38.27","0","0"
"TJ Warren","TJ-Warren-18634","5700","SF/PF","48.33","230.5","35.4","108.80","21.04","36.00","54.82","13.78","32.73","0","0"
"Devin Booker","Devin-Booker-18949","8300","PG/SG","51.50","230.5","32.5","108.80","32.89","36.00","80.1","22.02","46.95","0","0"
"Tobias Harris","Tobias-Harris-13332","8000","SF/PF","47.25","222","34.9","108.38","22.04","36.00","71.4","20.33","44.68","0","0"
"Dennis Smith Jr.","Dennis-Smith-Jr.-37847","4500","PG","52.39","222","26.0","100.08","20.32","28.00","42.22","10.29","24.79","0","0"
"Karl-Anthony Towns","Karl-Anthony-Towns-18937","10600","C","55.95","230.5","29.8","100.67","31.31","36.00","90.47","30.33","57.44","0","0"
"Andrew Wiggins","Andrew-Wiggins-18620","5800","SG/SF","48.66","230.5","36.0","100.67","24.94","36.00","47.96","12.17","31.37","0","0"
"Dragan Bender","Dragan-Bender-35228","4000","PF/C","53.67","230.5","11.7","108.80","19.13","30.00","42.54","7.09","21.28","0","0"
"Montrezl Harrell","Montrezl-Harrell-18930","6800","PF/C","54.16","222","28.0","108.38","23.09","31.00","63.07","11.12","35.63","0","0"
"Luka Doncic","Luka-Doncic-408971","8400","PG/SF","48.73","222","31.8","100.08","33.29","34.00","61.11","34.57","43.65","0","0"
"Mikal Bridges","Mikal-Bridges-408842","3800","SG/SF","39.06","230.5","25.7","108.80","9.74","29.00","27.59","15.61","19.71","0","0"
"Jeff Teague","Jeff-Teague-1005","5900","PG","53.43","230.5","25.7","100.67","20.73","30.00","51.29","15.82","30.55","0","0"
"Kelly Oubre","Kelly-Oubre-18925","5600","SG/SF","39.06","230.5","28.9","108.80","27.07","29.00","51.8","9.26","28.86","0","0"
"Patrick Beverley","Patrick-Beverley-14108","4800","PG/SG","42.02","222","27.3","108.38","10.51","28.00","39.7","13.07","24.43","0","0"
"Harrison Barnes","Harrison-Barnes-13901","5500","SF/PF","51.66","222","33.5","100.08","23.21","34.00","43.66","11.85","28.02","0","0"
"Avery Bradley","Avery-Bradley-941","4000","SG","33.52","222","29.0","108.38","15.73","33.00","38.51","6.32","20.27","0","0"
"Josh Jackson","Josh-Jackson-37890","4100","SF/PF","48.33","230.5","25.4","108.80","24.38","22.00","41.14","6.05","20.58","0","0"
"Quincy Acy","Quincy-Acy-13972","3500","PF/C","53.67","230.5","9.3","108.80","9.41","18.00","34.94","4.16","17.48","0","0"
"Wesley Matthews","Wesley-Matthews-1339","4400","SG/SF","33.83","222","27.8","100.08","20.10","30.00","40.05","9.89","21.74","0","0"
"Dario Saric","Dario-Saric-36004","4200","PF","47.88","230.5","21.5","100.67","17.55","22.00","32.96","4.54","19.34","0","0"
"Derrick Rose","Derrick-Rose-1086","6300","PG/SG","53.43","230.5","27.8","100.67","32.25","29.00","56.93","7.43","28.48","0","0"
"Dwight Powell","Dwight-Powell-18566","3500","PF/C","58.97","222","16.8","100.08","17.92","15.00","31.12","4.86","15.57","0","0"
"Johnathan Motley","Johnathan-Motley-37844","3200","PF/C","47.25","222","7.2","108.38","36.97","16.00","27.35","3.67","13.68","0","0"
"Maxi Kleber","Maxi-Kleber-37845","4300","PF/C","51.66","222","25.8","100.08","10.97","20.00","35.94","4.15","17.98","0","0"
"Josh Okogie","Josh-Okogie-409174","4200","SG/SF","48.66","230.5","26.0","100.67","17.01","24.00","24.21","13.99","17.29","0","0"
"Taj Gibson","Taj-Gibson-1277","4900","PF/C","59.59","230.5","25.2","100.67","16.75","25.00","35.14","8.23","20.02","0","0"
"Jalen Brunson","Jalen-Brunson-409062","3900","PG/SG","43.70","222","21.5","100.08","20.58","20.00","21.81","11.78","15.58","0","0"
"Gorgui Dieng","Gorgui-Dieng-16939","3200","PF/C","59.59","230.5","13.2","100.67","13.20","12.00","22.93","3.17","12.39","0","0"
"Lou Williams","Lou-Williams-1044","6600","PG/SG","48.08","222","26.6","108.38","32.78","26.00","35.78","17.33","25.11","0","0"
"Anthony Tolliver","Anthony-Tolliver-1263","3400","SF/PF","47.88","230.5","14.0","100.67","11.61","16.00","22.12","3.49","12.22","0","0"
"Jamal Crawford","Jamal-Crawford-1075","3500","PG/SG","48.33","230.5","18.5","108.80","24.34","16.00","23.05","2.97","12.38","0","0"
"Tyrone Wallace","Tyrone-Wallace-35220","3200","SG/SF","48.08","222","15.1","108.38","17.41","15.00","21.67","3.26","11.2","0","0"
"Dorian Finney-Smith","Dorian-Finney-Smith-36032","3700","SF/PF","35.19","222","23.0","100.08","13.97","18.00","24.93","4.93","12.8","0","0"
"Marcin Gortat","Marcin-Gortat-1479","3400","C","49.66","222","12.9","108.38","15.73","13.00","21.19","2.51","11.31","0","0"
"De'Anthony Melton","De'Anthony-Melton-409081","3700","PG","51.50","230.5","21.6","108.80","17.12","14.00","17.14","9.69","12.24","0","0"
"Dirk Nowitzki","Dirk-Nowitzki-1346","3000","PF/C","58.97","222","9.8","100.08","18.11","10.00","14.44","2.26","8.58","0","0"
"Elie Okobo","Elie-Okobo-409300","3300","PG","38.54","230.5","15.2","108.80","19.73","10.00","11.52","6.22","8.23","0","0"
"Jerryd Bayless","Jerryd-Bayless-1021","3000","PG/SG","48.66","230.5","13.7","100.67","14.62","10.00","13.17","1.73","6.59","0","0"
"Sindarius Thornwell","Sindarius-Thornwell-37881","3000","SG/SF","37.14","222","4.8","108.38","14.95","10.00","12.39","1.19","6.2","0","0"
"Devin Harris","Devin-Harris-1076","3000","PG/SG","52.39","222","11.0","100.08","19.85","2.00","3.04","0.36","1.53","0","0"
