"nameCol","idCol","salaryCol","positionCol","dvpCol","ouCol","mpgCol","paceCol","usgCol","pminCol","ceilCol","floorCol","pointsCol","predictCol","actualCol"
"Bobby Portis","Bobby-Portis-18909","5700","PF/C","60.17","222.5","22.3","104.50","24.74","30.00","70.56","6.53","35.3","0","0"
"Austin Rivers","Austin-Rivers-13903","4300","PG/SG","40.80","228","35.4","101.42","13.35","37.00","48.82","5.64","24.42","0","0"
"Shai Gilgeous-Alexander","Shai-Gilgeous-Alexander-408990","4300","PG/SG","41.08","222.5","25.6","108.38","22.22","30.00","33.96","19.63","24.26","0","0"
"Eric Gordon","Eric-Gordon-1077","5300","SG/SF","49.19","228","28.8","101.42","25.50","36.00","49.26","10.07","29.53","0","0"
"Patrick Beverley","Patrick-Beverley-14108","4800","PG/SG","41.08","222.5","31.0","108.38","11.26","34.00","46.52","9.83","26.21","0","0"
"Marvin Bagley III","Marvin-Bagley-III-409321","5300","PF/C","42.43","214","25.5","98.20","24.35","29.00","40.35","22.45","28.82","0","0"
"Montrezl Harrell","Montrezl-Harrell-18930","6700","PF/C","62.45","222.5","28.7","108.38","20.92","30.00","60.54","4.39","36.25","0","0"
"Lauri Markkanen","Lauri-Markkanen-37809","6500","PF","49.61","222.5","30.4","104.50","22.38","32.00","64.57","17.57","35.13","0","0"
"Kenneth Faried","Kenneth-Faried-13313","5300","PF/C","51.94","228","20.3","101.42","19.57","27.00","55.11","3.39","27.57","0","0"
"Kyle Lowry","Kyle-Lowry-1057","7500","PG","49.84","228","34.6","105.50","21.73","34.00","66.92","18.78","38.57","0","0"
"Bogdan Bogdanovic","Bogdan-Bogdanovic-37899","5600","SG/SF","43.31","214","29.7","98.20","26.68","30.00","55.99","9.14","28.48","0","0"
"Kris Dunn","Kris-Dunn-35215","6600","PG/SG","51.65","222.5","29.0","104.50","20.37","32.00","57.75","19.07","33.52","0","0"
"Pascal Siakam","Pascal-Siakam-35186","6400","PF/C","53.25","228","33.3","105.50","19.67","32.00","51.11","15.94","32.39","0","0"
"Serge Ibaka","Serge-Ibaka-1294","6300","PF/C","46.71","228","30.7","105.50","23.74","30.00","53.82","12.8","31.68","0","0"
"Willie Cauley-Stein","Willie-Cauley-Stein-18951","5800","C","48.14","214","27.0","98.20","15.59","28.00","42.75","15.01","29.2","0","0"
"Gerald Green","Gerald-Green-13374","4200","SG/SF","49.19","228","28.4","101.42","18.48","28.00","36.43","6.02","21.06","0","0"
"Kawhi Leonard","Kawhi-Leonard-13310","9500","SF/PF","46.63","228","35.3","105.50","32.03","35.00","69.86","17.97","47.17","0","0"
"James Harden","James-Harden-1037","13800","PG/SG","47.14","228","37.6","101.42","48.20","39.00","95.68","49.61","68.34","0","0"
"Tobias Harris","Tobias-Harris-13332","8200","SF/PF","47.50","222.5","36.3","108.38","21.43","36.00","63.58","18.1","39.79","0","0"
"Avery Bradley","Avery-Bradley-941","3900","SG","35.26","222.5","31.6","108.38","16.08","32.00","35.81","5.88","18.85","0","0"
"De'Aaron Fox","De'Aaron-Fox-37900","7300","PG","49.60","214","31.0","98.20","25.25","31.00","56.04","17.27","35.18","0","0"
"Zach LaVine","Zach-LaVine-18622","7200","PG/SG","51.65","222.5","29.6","104.50","30.59","33.00","52.38","16.67","34.1","0","0"
"Harry Giles","Harry-Giles-37897","3600","PF/C","42.43","214","18.0","98.20","20.41","18.00","23.87","13.28","17.05","0","0"
"Danny Green","Danny-Green-940","4500","SG/SF","37.04","228","27.4","105.50","16.49","30.00","33.03","7.26","21.28","0","0"
"Chandler Hutchison","Chandler-Hutchison-408877","3900","SF/PF","35.13","222.5","28.6","104.50","10.81","28.00","25.49","14.42","18.21","0","0"
"P.J. Tucker","P.J.-Tucker-13947","5000","SF/PF","37.59","228","34.7","101.42","10.63","36.00","34.53","7.1","23.05","0","0"
"Lou Williams","Lou-Williams-1044","6700","PG/SG","45.37","222.5","25.6","108.38","33.00","27.00","60.65","6.74","30.34","0","0"
"Fred VanVleet","Fred-VanVleet-36011","4600","PG/SG","40.10","228","27.0","105.50","18.73","23.00","39.1","5.49","20.58","0","0"
"Wayne Selden","Wayne-Selden-36045","3200","SG/SF","51.65","222.5","20.1","104.50","15.52","18.00","27.04","2.95","14.23","0","0"
"Marcin Gortat","Marcin-Gortat-1479","3300","C","56.62","222.5","12.6","108.38","16.24","16.00","26.07","6.54","14.37","0","0"
"Iman Shumpert","Iman-Shumpert-13350","3900","SG/SF","38.36","214","26.4","98.20","17.83","23.00","28.76","5.77","16.76","0","0"
"Buddy Hield","Buddy-Hield-35206","6800","SG/SF","38.36","214","31.5","98.20","23.66","30.00","51.01","11.03","28.15","0","0"
"Justin Jackson","Justin-Jackson-37895","3400","SF/PF","38.36","214","19.5","98.20","12.26","21.00","26.71","3.59","13.76","0","0"
"OG Anunoby","OG-Anunoby-37807","3200","SF/PF","37.04","228","21.5","105.50","15.27","17.00","22.91","3.33","12.47","0","0"
"Jabari Parker","Jabari-Parker-18593","4200","SF/PF","49.61","222.5","16.2","104.50","26.56","16.00","31.81","2.61","16.22","0","0"
"Delon Wright","Delon-Wright-18907","3600","PG/SG","40.10","228","19.1","105.50","18.87","16.00","21.11","6.0","13.75","0","0"
"James Ennis","James-Ennis-18599","3600","SF/PF","37.59","228","22.3","101.42","11.79","20.00","27.05","4.22","13.53","0","0"
"Ryan Arcidiacono","Ryan-Arcidiacono-36050","3200","PG","43.55","222.5","18.0","104.50","13.50","18.00","23.99","3.86","12","0","0"
"Yogi Ferrell","Yogi-Ferrell-35999","3600","PG/SG","49.60","214","18.2","98.20","15.10","17.00","26.04","4.07","13.2","0","0"
"Jerome Robinson","Jerome-Robinson-409263","3000","SG","52.98","222.5","9.5","108.38","16.48","14.00","15.29","8.51","10.92","0","0"
"Johnathan Motley","Johnathan-Motley-37844","3200","PF/C","47.50","222.5","10.6","108.38","30.22","12.00","22.69","3.04","11.35","0","0"
"Robin Lopez","Robin-Lopez-1466","3700","C","59.34","222.5","17.2","104.50","16.60","18.00","23.73","4.68","13.11","0","0"
"Nene Hilario","Nene-Hilario-17321","3300","C","51.94","228","12.4","101.42","10.45","11.00","18.52","5.19","11.2","0","0"
"Nemanja Bjelica","Nemanja-Bjelica-31814","3900","SF/PF","42.43","214","14.8","98.20","14.76","13.00","21.03","5.42","12.42","0","0"
"Shaquille Harrison","Shaquille-Harrison-36065","3500","PG/SF","43.55","222.5","16.0","104.50","16.83","15.00","22.15","3.17","11.08","0","0"
"Norman Powell","Norman-Powell-18908","3800","SG/SF","36.95","228","19.3","105.50","21.07","15.00","23.75","3.24","11.88","0","0"
"Greg Monroe","Greg-Monroe-1487","3400","C","54.93","228","11.4","105.50","25.39","8.00","14.02","2.66","8.24","0","0"
"Sindarius Thornwell","Sindarius-Thornwell-37881","3000","SG/SF","38.86","222.5","6.2","108.38","11.26","9.00","12.17","1.17","6.09","0","0"
"Gary Clark","Gary-Clark-570141","3400","PF/C","47.22","228","16.1","101.42","8.61","6.00","6.06","3.27","4.33","0","0"
