"nameCol","idCol","salaryCol","positionCol","dvpCol","ouCol","mpgCol","paceCol","usgCol","pminCol","ceilCol","floorCol","pointsCol","predictCol","actualCol"
"Terry Rozier","Terry-Rozier-18894","4000","PG/SG","48.45","214","20.0","101.75","20.59","32.00","56.13","10.0","32.04","0","0"
"Kenneth Faried","Kenneth-Faried-13313","4400","PF/C","56.00","226.5","17.5","101.42","16.87","27.00","59.21","2.96","29.62","0","0"
"Zaza Pachulia","Zaza-Pachulia-1455","4200","C","51.67","221.5","25.0","100.30","10.56","30.00","49.68","9.22","27.69","0","0"
"Justin Holiday","Justin-Holiday-14559","3700","SG/SF","38.65","208.5","23.6","103.30","15.64","32.00","42.0","13.6","23.81","0","0"
"Jahlil Okafor","Jahlil-Okafor-18902","4600","C","51.59","221.5","11.3","104.88","17.63","30.00","55.5","13.43","31.46","0","0"
"Jaylen Brown","Jaylen-Brown-35181","4300","SG/SF","38.23","214","23.2","101.75","22.07","28.00","54.71","6.21","27.37","0","0"
"Aron Baynes","Aron-Baynes-14114","3500","C","50.42","214","16.2","101.75","17.28","23.00","43.94","4.4","21.98","0","0"
"Daniel Theis","Daniel-Theis-37784","3100","PF/C","50.42","214","11.7","101.75","14.77","19.00","36.59","4.97","19.26","0","0"
"Fred VanVleet","Fred-VanVleet-36011","4600","PG/SG","37.33","217","25.0","105.50","18.55","32.00","52.65","7.4","27.71","0","0"
"Julius Randle","Julius-Randle-18632","8400","PF/C","51.27","221.5","29.5","104.88","27.45","36.00","83.18","20.39","46.55","0","0"
"Corey Brewer","Corey-Brewer-1278","3500","SG/SF","32.49","225","20.0","108.33","16.87","30.00","41.48","5.93","20.75","0","0"
"Kris Dunn","Kris-Dunn-35215","6300","PG/SG","56.98","223.5","29.4","104.50","20.79","33.00","63.85","21.09","37.06","0","0"
"Darius Miller","Darius-Miller-13951","3400","SF/PF","34.99","221.5","27.8","104.88","10.32","29.00","38.16","6.36","19.09","0","0"
"Noah Vonleh","Noah-Vonleh-18597","5800","PF/C","46.84","226.5","23.2","100.17","17.03","32.00","57.04","15.24","33.34","0","0"
"Marcus Morris","Marcus-Morris-13316","5000","SF/PF","38.23","214","26.5","101.75","19.12","29.00","48.91","10.59","28.77","0","0"
"Jayson Tatum","Jayson-Tatum-37782","6000","SF/PF","49.03","214","30.4","101.75","23.00","32.00","50.53","15.6","34.07","0","0"
"Tyler Johnson","Tyler-Johnson-18720","3900","PG/SG","52.37","216.5","25.7","106.90","18.42","27.00","44.14","6.31","22.08","0","0"
"Serge Ibaka","Serge-Ibaka-1294","5900","PF/C","46.88","217","30.0","105.50","23.81","32.00","56.51","13.44","33.26","0","0"
"Jeremy Lin","Jeremy-Lin-916","4200","PG/SG","53.05","223.5","24.6","105.10","25.35","25.00","44.19","11.33","23.32","0","0"
"Jrue Holiday","Jrue-Holiday-1073","8600","PG/SG","52.31","221.5","38.0","104.88","25.18","38.00","67.63","22.07","45.42","0","0"
"Kyle Lowry","Kyle-Lowry-1057","7200","PG","47.39","217","34.3","105.50","21.07","34.00","68.98","19.36","39.76","0","0"
"Marcus Smart","Marcus-Smart-18567","4600","PG/SG","57.23","214","28.4","101.75","12.20","31.00","41.92","10.84","25.27","0","0"
"Pascal Siakam","Pascal-Siakam-35186","6200","PF/C","54.29","217","32.7","105.50","19.40","34.00","53.42","16.65","33.85","0","0"
"Zach LaVine","Zach-LaVine-18622","6900","PG/SG","56.98","223.5","29.4","104.50","31.22","34.00","57.89","18.43","37.69","0","0"
"Nikola Vucevic","Nikola-Vucevic-13296","9300","C","57.45","218","32.4","105.10","29.59","34.00","75.54","18.2","50.56","0","0"
"Lauri Markkanen","Lauri-Markkanen-37809","6600","PF","52.95","223.5","30.1","104.50","21.62","33.00","65.47","17.81","35.62","0","0"
"Spencer Dinwiddie","Spencer-Dinwiddie-18588","5500","PG/SG","51.91","218","27.3","114.62","27.80","29.00","50.37","7.79","29.63","0","0"
"Hassan Whiteside","Hassan-Whiteside-18664","6000","C","59.14","216.5","22.0","106.90","17.90","24.00","45.22","14.15","32.3","0","0"
"Domantas Sabonis","Domantas-Sabonis-35217","6500","PF/C","51.62","217","24.7","107.67","22.00","26.00","64.61","5.06","34.87","0","0"
"Gordon Hayward","Gordon-Hayward-1239","5100","SF/PF","49.03","214","22.4","101.75","20.54","26.00","54.23","8.79","27.13","0","0"
"Jarrett Allen","Jarrett-Allen-37794","5800","C","52.36","218","28.5","114.62","16.92","28.00","61.31","13.25","30.67","0","0"
"Reggie Jackson","Reggie-Jackson-13352","4800","PG/SG","51.38","221.5","29.9","100.30","18.67","28.00","38.53","13.51","25.4","0","0"
"Jaren Jackson","Jaren-Jackson-409099","5300","PF/C","58.48","208.5","25.9","103.30","22.88","28.00","39.27","22.22","28.05","0","0"
"Elfrid Payton","Elfrid-Payton-18602","6100","PG","42.50","221.5","26.7","104.88","19.07","29.00","44.64","13.41","28.36","0","0"
"Mike Conley","Mike-Conley-1062","7500","PG","43.71","208.5","30.7","103.30","24.95","34.00","69.9","14.85","39.38","0","0"
"Jeremy Lamb","Jeremy-Lamb-13955","5300","SG/SF","43.24","208.5","26.7","103.00","23.84","29.00","46.75","10.1","27.76","0","0"
"Marvin Williams","Marvin-Williams-1318","4700","SF/PF","42.63","208.5","27.2","103.00","14.16","30.00","49.28","5.87","24.65","0","0"
"Dewayne Dedmon","Dewayne-Dedmon-16894","5600","PF/C","55.66","223.5","27.2","105.10","17.10","27.00","47.0","12.36","29.3","0","0"
"Montrezl Harrell","Montrezl-Harrell-18930","6700","PF/C","55.02","216.5","28.3","108.38","21.45","31.00","61.99","10.3","35.02","0","0"
"Josh Richardson","Josh-Richardson-18922","6100","SG/SF","48.93","216.5","30.6","106.90","20.33","33.00","50.36","13.26","31.81","0","0"
"Derrick Jones","Derrick-Jones-36064","4100","SF/PF","33.48","216.5","19.7","106.90","17.68","24.00","42.38","6.53","21.2","0","0"
"Tyreke Evans","Tyreke-Evans-1070","3800","SG/SF","49.33","217","18.2","107.67","33.10","19.00","35.98","9.99","19.62","0","0"
"Marc Gasol","Marc-Gasol-1493","7400","C","58.48","208.5","31.0","103.30","23.73","34.00","60.33","19.83","38.21","0","0"
"Dwyane Wade","Dwyane-Wade-967","4800","PG/SG","48.93","216.5","24.2","106.90","25.74","24.00","39.95","7.48","24.77","0","0"
"J.J. Redick","J.J.-Redick-1030","5500","SG/SF","32.49","225","31.2","108.33","22.28","32.00","47.2","11.26","28.3","0","0"
"Bam Adebayo","Bam-Adebayo-37835","4600","PF/C","59.14","216.5","26.8","106.90","13.85","24.00","39.64","6.65","23.58","0","0"
"Rudy Gobert","Rudy-Gobert-16935","8200","C","52.77","216.5","33.4","98.88","18.32","34.00","67.82","22.44","42.02","0","0"
"Eric Gordon","Eric-Gordon-1077","5700","SG/SF","48.72","226.5","26.3","101.42","27.85","32.00","48.49","9.91","29.07","0","0"
"Bojan Bogdanovic","Bojan-Bogdanovic-18571","5200","SG/SF","36.05","217","28.8","107.67","19.11","33.00","45.28","8.79","26.4","0","0"
"Mohamed Bamba","Mohamed-Bamba-409026","3500","C","60.96","218","15.3","105.10","17.27","16.00","24.91","14.09","17.79","0","0"
"Austin Rivers","Austin-Rivers-13903","4600","PG/SG","43.78","226.5","36.3","101.42","13.38","35.00","43.15","10.77","23.31","0","0"
"Joel Embiid","Joel-Embiid-18578","10500","C","50.33","225","30.8","108.33","36.94","34.00","85.09","36.98","53.28","0","0"
"D'Angelo Russell","D'Angelo-Russell-18947","8000","PG/SG","51.91","218","30.0","114.62","34.14","32.00","63.57","19.6","40.49","0","0"
"James Harden","James-Harden-1037","13400","PG/SG","52.13","226.5","37.6","101.42","46.75","38.00","94.82","46.33","67.73","0","0"
"Victor Oladipo","Victor-Oladipo-16807","7700","PG/SG","47.17","217","29.8","107.67","27.52","33.00","58.34","9.9","38.84","0","0"
"Justise Winslow","Justise-Winslow-18921","6400","PG/SF","52.37","216.5","30.0","106.90","22.13","32.00","53.69","15.71","32.19","0","0"
"Omri Casspi","Omri-Casspi-1270","3500","SF/PF","38.67","208.5","23.2","103.30","17.69","22.00","35.06","4.21","17.54","0","0"
"Willy Hernangomez","Willy-Hernangomez-18901","3900","C","48.10","208.5","16.0","103.00","19.32","17.00","38.96","4.72","19.49","0","0"
"Jonathan Isaac","Jonathan-Isaac-37841","4400","SF/PF","57.45","218","29.0","105.10","12.70","28.00","40.01","6.69","22.02","0","0"
"Trae Young","Trae-Young-409063","6800","PG","53.05","223.5","31.2","105.10","31.91","32.00","47.54","27.47","33.96","0","0"
"DeMarre Carroll","DeMarre-Carroll-1174","4700","SF/PF","32.89","218","26.7","114.62","21.60","28.00","46.92","6.06","23.47","0","0"
"Cedi Osman","Cedi-Osman-18912","4200","SF/PF","33.60","214","28.9","103.60","17.76","32.00","32.12","9.99","20.9","0","0"
"Chandler Hutchison","Chandler-Hutchison-408877","3800","SF/PF","42.88","223.5","28.1","104.50","11.05","28.00","26.45","14.96","18.89","0","0"
"Cory Joseph","Cory-Joseph-13339","3500","PG","40.81","217","21.2","107.67","16.25","25.00","30.4","5.11","17.38","0","0"
"Joe Harris","Joe-Harris-18587","4900","SG/SF","40.13","218","31.0","114.62","19.93","31.00","43.75","9.31","24.36","0","0"
"Kyle Korver","Kyle-Korver-1269","3800","SG/SF","32.69","216.5","23.9","98.88","19.49","24.00","37.6","4.95","18.81","0","0"
"DeAndre Bembry","DeAndre-Bembry-35198","5300","SG/SF","38.87","223.5","32.8","105.10","17.50","32.00","43.7","12.05","26.2","0","0"
"Joe Ingles","Joe-Ingles-18627","5600","SG/SF","32.69","216.5","30.6","98.88","20.07","32.00","44.18","11.42","27.65","0","0"
"Patrick Beverley","Patrick-Beverley-14108","5000","PG/SG","40.11","216.5","29.3","108.38","11.68","33.00","42.12","14.2","24.69","0","0"
"Michael Kidd-Gilchrist","Michael-Kidd-Gilchrist-13896","3700","SF/PF","36.70","208.5","23.2","103.00","13.34","24.00","36.54","7.44","18.28","0","0"
"Emmanuel Mudiay","Emmanuel-Mudiay-18936","5600","PG","40.42","226.5","25.8","100.17","32.63","28.00","49.21","11.7","27.66","0","0"
"Luke Kennard","Luke-Kennard-37814","3800","SG/SF","35.97","221.5","22.5","100.30","20.45","24.00","35.04","6.05","18.72","0","0"
"Aaron Gordon","Aaron-Gordon-18601","6700","SF/PF","47.77","218","35.0","105.10","22.67","34.00","56.5","13.61","33.04","0","0"
"Taurean Prince","Taurean-Prince-35218","4900","SF","38.87","223.5","18.0","105.10","22.15","26.00","42.71","8.56","24.05","0","0"
"John Collins","John-Collins-37823","7900","PF/C","55.66","223.5","31.2","105.10","24.68","32.00","71.41","15.45","38.81","0","0"
"Kemba Walker","Kemba-Walker-13335","8100","PG","49.55","208.5","32.7","103.00","34.63","34.00","72.43","17.9","39.69","0","0"
"Bobby Portis","Bobby-Portis-18909","5800","PF/C","57.24","223.5","19.8","104.50","28.02","24.00","56.77","5.25","28.4","0","0"
"Derrick Favors","Derrick-Favors-1266","5300","PF/C","52.17","216.5","23.4","98.88","19.42","25.00","43.44","11.42","25.95","0","0"
"Mitchell Robinson","Mitchell-Robinson-408821","3600","C","54.86","226.5","12.0","100.17","11.28","18.00","24.65","13.31","17.61","0","0"
"Nicolas Batum","Nicolas-Batum-1315","4500","SG/SF","36.70","208.5","28.3","103.00","14.74","31.00","39.93","8.41","22.01","0","0"
"Nikola Mirotic","Nikola-Mirotic-18584","7000","PF/C","46.06","221.5","24.5","104.88","20.95","31.00","59.84","11.48","33.19","0","0"
"Rudy Gay","Rudy-Gay-1341","5700","SF/PF","48.04","225","27.7","99.70","24.77","29.00","41.37","11.22","27.84","0","0"
"Shai Gilgeous-Alexander","Shai-Gilgeous-Alexander-408990","4500","PG/SG","40.11","216.5","24.1","108.38","22.43","28.00","30.74","15.26","21.96","0","0"
"Ben Simmons","Ben-Simmons-35184","8700","PG/SF","42.20","225","33.7","108.33","25.44","34.00","61.79","25.33","42.35","0","0"
"Wilson Chandler","Wilson-Chandler-1327","4000","SF/PF","38.07","225","28.0","108.33","11.48","28.00","31.91","7.79","19.47","0","0"
"Jordan Clarkson","Jordan-Clarkson-18631","4900","PG/SG","45.40","214","26.1","103.60","25.19","25.00","47.66","8.3","23.84","0","0"
"Tobias Harris","Tobias-Harris-13332","7800","SF/PF","48.98","216.5","35.1","108.38","20.81","35.00","60.66","17.27","37.96","0","0"
"Reggie Bullock","Reggie-Bullock-16943","4500","SG/SF","42.27","221.5","32.2","100.30","17.27","34.00","39.61","10.26","21.87","0","0"
"Ed Davis","Ed-Davis-1265","3800","C","52.36","218","17.5","114.62","12.42","18.00","36.86","5.35","18.44","0","0"
"Isaiah Briscoe","Isaiah-Briscoe-37868","3200","PG/SG","39.94","218","19.3","105.10","14.07","20.00","21.62","12.23","15.44","0","0"
"Kevin Knox","Kevin-Knox-408820","5100","SF/PF","46.11","226.5","31.5","100.17","20.51","32.00","34.48","19.51","24.63","0","0"
"Nikola Jokic","Nikola-Jokic-31812","9800","C","52.44","216.5","28.5","99.62","33.14","32.00","69.51","28.43","47.38","0","0"
"Blake Griffin","Blake-Griffin-1503","9700","PF/C","54.77","221.5","37.3","100.30","31.03","36.00","85.67","25.98","46.89","0","0"
"Ante Zizic","Ante-Zizic-35180","6000","C","51.71","214","24.4","103.60","16.81","30.00","57.93","2.9","28.98","0","0"
"Rodney Hood","Rodney-Hood-18629","4300","SG/SF","45.40","214","22.3","103.60","23.70","27.00","33.62","8.54","20.74","0","0"
"Myles Turner","Myles-Turner-18915","6600","C","53.85","217","28.2","107.67","15.16","29.00","61.97","10.57","31.73","0","0"
"P.J. Tucker","P.J.-Tucker-13947","5200","SF/PF","41.51","226.5","35.4","101.42","11.72","35.00","39.7","7.64","24.97","0","0"
"Dion Waiters","Dion-Waiters-13897","4300","SG/SF","48.93","216.5","15.7","106.90","26.42","23.00","41.14","6.85","20.58","0","0"
"Rodions Kurucs","Rodions-Kurucs-408801","4000","SF/PF","48.51","218","24.5","114.62","16.61","23.00","26.64","15.07","19.03","0","0"
"DeMar DeRozan","DeMar-DeRozan-1053","7600","SG/SF","47.73","225","36.7","99.70","26.07","34.00","65.81","18.57","36.06","0","0"
"Alec Burks","Alec-Burks-13353","4100","PG/SG","45.40","214","24.1","103.60","18.71","24.00","31.39","7.86","19.27","0","0"
"Malik Beasley","Malik-Beasley-35213","4500","PG/SG","30.73","216.5","33.8","99.62","14.00","30.00","41.5","6.34","21.14","0","0"
"E'Twaun Moore","E'Twaun-Moore-18582","4000","SG/SF","38.18","221.5","27.8","104.88","12.84","27.00","30.56","5.84","18.31","0","0"
"T.J. McConnell","T.J.-McConnell-18956","3900","PG/SG","42.20","225","22.9","108.33","16.94","24.00","36.56","3.91","18.29","0","0"
"Avery Bradley","Avery-Bradley-941","3900","SG","37.32","216.5","30.3","108.38","15.56","32.00","25.56","5.53","18.26","0","0"
"Thaddeus Young","Thaddeus-Young-1289","5600","SF/PF","46.48","217","28.3","107.67","17.79","32.00","38.8","12.5","26.16","0","0"
"Derrick White","Derrick-White-37858","5400","PG/SG","39.40","225","30.9","99.70","18.34","31.00","45.1","8.0","25.17","0","0"
"D.J. Augustin","D.J.-Augustin-1064","4800","PG","39.94","218","28.4","105.10","19.30","28.00","40.06","10.61","22.39","0","0"
"Bryn Forbes","Bryn-Forbes-36052","4300","PG/SG","51.83","225","31.6","99.70","15.82","28.00","32.83","5.51","20.03","0","0"
"Evan Fournier","Evan-Fournier-13913","6100","SG/SF","30.75","218","36.3","105.10","20.00","35.00","44.39","10.19","28.38","0","0"
"Garrett Temple","Garrett-Temple-14077","3800","SG/SF","38.65","208.5","28.6","103.30","13.01","29.00","32.36","3.31","17.58","0","0"
"Delon Wright","Delon-Wright-18907","3800","PG/SG","37.33","217","20.0","105.50","19.08","21.00","26.82","7.62","17.47","0","0"
"Paul Millsap","Paul-Millsap-1335","5400","PF/C","49.26","216.5","24.7","99.62","18.47","25.00","40.23","9.02","24.77","0","0"
"Mason Plumlee","Mason-Plumlee-16798","4100","PF/C","52.62","216.5","19.2","99.62","17.89","20.00","36.56","4.74","18.75","0","0"
"Norman Powell","Norman-Powell-18908","3700","SG/SF","36.54","217","19.2","105.50","20.37","21.00","33.72","4.61","16.87","0","0"
"Robin Lopez","Robin-Lopez-1466","3800","C","54.64","223.5","15.7","104.50","17.10","24.00","31.39","6.19","17.34","0","0"
"Jamal Murray","Jamal-Murray-35211","7100","PG/SG","48.34","216.5","30.3","99.62","27.66","32.00","49.95","11.6","32.39","0","0"
"Jae Crowder","Jae-Crowder-13942","4900","SF/PF","37.56","216.5","28.1","98.88","21.09","28.00","44.58","4.84","22.3","0","0"
"Damyean Dotson","Damyean-Dotson-37795","3500","SG/SF","37.33","226.5","27.8","100.17","12.34","20.00","27.97","4.83","15.93","0","0"
"Royce O'Neale","Royce-O'Neale-37872","4400","SF","37.56","216.5","32.1","98.88","10.77","30.00","39.9","6.89","19.97","0","0"
"Marco Belinelli","Marco-Belinelli-1033","4300","SG/SF","33.35","225","25.8","99.70","21.79","23.00","32.19","5.66","19.37","0","0"
"LaMarcus Aldridge","LaMarcus-Aldridge-1349","8300","PF/C","53.43","225","33.6","99.70","29.02","34.00","54.77","19.69","37.16","0","0"
"Bismack Biyombo","Bismack-Biyombo-13312","4200","C","48.10","208.5","21.2","103.00","12.61","21.00","31.81","5.64","18.81","0","0"
"Wayne Selden","Wayne-Selden-36045","3200","SG/SF","56.98","223.5","18.1","104.50","14.57","18.00","27.17","2.96","14.3","0","0"
"Ricky Rubio","Ricky-Rubio-1001","5500","PG","38.52","216.5","13.0","98.88","40.92","25.00","38.68","10.77","24.59","0","0"
"Shelvin Mack","Shelvin-Mack-13354","3500","PG/SG","43.71","208.5","20.9","103.30","24.85","20.00","27.26","2.61","15.65","0","0"
"Allonzo Trier","Allonzo-Trier-554950","3900","PG/SG","46.11","226.5","19.8","100.17","19.75","24.00","24.39","13.17","17.42","0","0"
"Channing Frye","Channing-Frye-1484","3100","PF/C","50.02","214","14.2","103.60","13.47","18.00","27.71","3.46","13.86","0","0"
"Darren Collison","Darren-Collison-1060","5200","PG","40.81","217","26.0","107.67","21.21","28.00","38.08","10.83","23.18","0","0"
"Cameron Payne","Cameron-Payne-18941","3700","PG/SG","39.38","214","19.3","103.60","19.98","20.00","28.23","4.71","16.48","0","0"
"Collin Sexton","Collin-Sexton-408896","4800","PG","49.13","214","29.6","103.60","24.35","30.00","29.74","14.76","21.24","0","0"
"Danny Green","Danny-Green-940","4700","SG/SF","35.97","217","27.7","105.50","16.45","30.00","32.34","7.11","20.84","0","0"
"Dante Cunningham","Dante-Cunningham-1259","3000","SF/PF","48.04","225","6.6","99.70","12.92","20.00","26.59","3.02","13.3","0","0"
"Tim Hardaway Jr.","Tim-Hardaway-Jr.-16879","5900","SG/SF","46.11","226.5","26.3","100.17","21.68","28.00","45.81","11.69","25.58","0","0"
"Jakob Poeltl","Jakob-Poeltl-35187","3300","C","52.37","225","13.0","99.70","9.45","15.00","28.51","2.97","14.26","0","0"
"Gerald Green","Gerald-Green-13374","4500","SG/SF","48.72","226.5","29.0","101.42","19.58","26.00","34.17","5.54","19.37","0","0"
"Johnathan Motley","Johnathan-Motley-37844","3200","PF/C","48.98","216.5","9.6","108.38","32.53","16.00","27.45","3.6","13.73","0","0"
"Matthew Dellavedova","Matthew-Dellavedova-16839","3300","PG/SG","39.38","214","17.6","103.60","21.42","18.00","28.27","3.25","14.14","0","0"
"Patty Mills","Patty-Mills-13977","3700","PG/SG","39.40","225","22.9","99.70","20.39","22.00","31.56","4.39","15.79","0","0"
"Treveon Graham","Treveon-Graham-36023","3500","SG/SF","32.89","218","26.5","114.62","12.51","26.00","24.19","4.83","14.92","0","0"
"Stanley Johnson","Stanley-Johnson-18913","3200","SF/PF","42.27","221.5","16.2","100.30","16.05","18.00","26.26","3.01","13.57","0","0"
"Lou Williams","Lou-Williams-1044","6600","PG/SG","44.80","216.5","26.2","108.38","33.50","26.00","55.93","6.21","27.98","0","0"
"Donovan Mitchell","Donovan-Mitchell-37875","8500","PG/SG","48.77","216.5","33.7","98.88","36.06","35.00","59.26","15.04","36.07","0","0"
"Tony Parker","Tony-Parker-982","3500","PG","40.44","208.5","16.0","103.00","29.33","16.00","25.77","3.79","14.51","0","0"
"C.J. Miles","C.J.-Miles-1299","3300","SG/SF","35.97","217","14.0","105.50","23.79","18.00","27.18","3.16","13.67","0","0"
"Malik Monk","Malik-Monk-37827","3300","PG/SG","49.55","208.5","15.3","103.00","24.85","16.00","26.57","3.93","13.55","0","0"
"Lance Thomas","Lance-Thomas-13363","3000","SF/PF","37.33","226.5","17.0","100.17","10.19","18.00","24.45","3.82","12.23","0","0"
"Jabari Parker","Jabari-Parker-18593","4200","SF/PF","52.95","223.5","16.2","104.50","26.56","17.00","33.55","2.75","17.11","0","0"
"JaMychal Green","JaMychal-Green-18729","5100","SF/PF","58.48","208.5","20.7","103.30","22.96","22.00","40.92","4.2","20.47","0","0"
"Jose Calderon","Jose-Calderon-1071","3100","PG","48.93","221.5","13.3","100.30","15.02","18.00","24.65","3.43","12.33","0","0"
"Greg Monroe","Greg-Monroe-1487","3400","C","50.66","217","12.2","105.50","26.68","12.00","23.05","4.37","13.54","0","0"
"Bruce Brown","Bruce-Brown-408913","3600","PG/SG","35.97","221.5","21.2","100.30","16.11","24.00","19.99","11.55","14.28","0","0"
"Terrence Ross","Terrence-Ross-13902","5700","SG/SF","30.75","218","28.7","105.10","23.79","29.00","45.24","4.68","22.63","0","0"
"James Johnson","James-Johnson-1195","3700","PF/C","51.15","216.5","21.0","106.90","19.27","18.00","21.23","6.97","14.58","0","0"
"Miles Bridges","Miles-Bridges-409262","3400","SF/PF","42.63","208.5","18.2","103.00","17.60","17.00","18.72","10.42","13.37","0","0"
"Will Barton","Will-Barton-13982","5000","SG/SF","40.49","216.5","18.2","99.62","24.62","20.00","31.3","9.79","19.59","0","0"
"Torrey Craig","Torrey-Craig-37861","3800","SG/SF","30.73","216.5","25.0","99.62","10.72","25.00","29.39","3.32","14.7","0","0"
"Frank Ntilikina","Frank-Ntilikina-37796","3400","PG/SG","40.42","226.5","24.3","100.17","21.46","20.00","24.98","2.92","13.15","0","0"
"Daniel Hamilton","Daniel-Hamilton-35210","3400","SG/SF","35.35","223.5","12.7","105.10","19.28","15.00","17.95","9.99","12.82","0","0"
"Mike Muscala","Mike-Muscala-17379","3400","PF/C","50.33","225","19.6","108.33","13.32","16.00","25.48","3.79","12.77","0","0"
"Langston Galloway","Langston-Galloway-18717","3500","PG/SG","35.97","221.5","17.6","100.30","15.45","18.00","26.25","3.51","13.13","0","0"
"Landry Shamet","Landry-Shamet-408841","3300","PG/SG","32.49","225","17.6","108.33","19.21","19.00","17.29","10.36","12.35","0","0"
"Gary Harris","Gary-Harris-18617","4800","SG","40.49","216.5","17.5","99.62","23.99","20.00","35.78","4.1","17.9","0","0"
"Marcin Gortat","Marcin-Gortat-1479","3300","C","48.56","216.5","11.9","108.38","14.65","14.00","23.51","2.71","12.19","0","0"
"Alex Len","Alex-Len-16886","4500","C","55.66","223.5","18.5","105.10","25.35","16.00","30.98","6.79","16.32","0","0"
"Frank Jackson","Frank-Jackson-37855","3200","PG/SG","52.31","221.5","13.3","104.88","12.81","15.00","15.88","9.51","11.34","0","0"
"James Ennis","James-Ennis-18599","3700","SF/PF","41.51","226.5","19.7","101.42","11.09","21.00","26.15","3.85","13.08","0","0"
"Jonah Bolden","Jonah-Bolden-554969","3200","PF","49.63","225","13.3","108.33","13.47","12.00","15.57","9.33","11.12","0","0"
"Wes Iwundu","Wes-Iwundu-37839","3200","SG/SF","33.12","218","14.1","105.10","10.98","16.00","22.13","2.89","11.07","0","0"
"Monte Morris","Monte-Morris-37860","3600","PG","48.34","216.5","21.3","99.62","18.14","16.00","17.32","9.64","12.37","0","0"
"Omari Spellman","Omari-Spellman-408970","3600","PF/C","47.84","223.5","16.6","105.10","13.53","15.00","17.32","9.64","12.37","0","0"
"Ryan Arcidiacono","Ryan-Arcidiacono-36050","3200","PG","43.45","223.5","17.9","104.50","13.61","17.00","21.89","3.53","10.95","0","0"
"Doug McDermott","Doug-McDermott-18583","3200","SF/PF","36.05","217","15.5","107.67","17.28","16.00","21.69","3.47","10.85","0","0"
"Rondae Hollis-Jefferson","Rondae-Hollis-Jefferson-18897","3700","PF/C","48.51","218","10.7","114.62","22.76","13.00","24.89","3.11","12.45","0","0"
"Gary Clark","Gary-Clark-570141","3600","PF/C","54.93","226.5","15.6","101.42","9.05","17.00","16.38","9.27","11.7","0","0"
"Jaron Blossomgame","Jaron-Blossomgame-570197","3400","SF/PF","33.60","214","15.0","103.60","13.19","16.00","14.8","8.37","10.57","0","0"
"Marquese Chriss","Marquese-Chriss-35230","3100","PF/C","59.18","226.5","8.4","101.42","19.76","9.00","18.36","2.3","9.39","0","0"
"Semi Ojeleye","Semi-Ojeleye-37786","3000","SF/PF","38.23","214","9.2","101.75","10.81","14.00","17.45","2.72","8.73","0","0"
"Jevon Carter","Jevon-Carter-409100","3300","PG/SG","43.71","208.5","15.0","103.30","14.64","13.00","13.37","7.22","9.55","0","0"
"Tyler Dorsey","Tyler-Dorsey-37825","3000","PG/SG","35.35","223.5","6.7","105.10","14.00","10.00","14.74","2.96","8.46","0","0"
"Shaquille Harrison","Shaquille-Harrison-36065","3300","PG/SF","43.45","223.5","15.1","104.50","16.31","12.00","17.19","2.46","8.6","0","0"
"Juancho Hernangomez","Juancho-Hernangomez-35212","3400","SF/PF","49.26","216.5","16.4","99.62","8.88","12.00","17.33","1.49","8.67","0","0"
"Rodney McGruder","Rodney-McGruder-16850","3200","SG/SF","33.48","216.5","16.2","106.90","16.89","11.00","16.21","3.6","8.17","0","0"
"Enes Kanter","Enes-Kanter-13299","5000","C","54.86","226.5","19.0","100.17","24.78","10.00","19.12","5.14","12.48","0","0"
"Shabazz Napier","Shabazz-Napier-18598","3900","PG/SG","37.49","218","16.8","114.62","29.11","12.00","18.73","2.68","9.53","0","0"
"Mario Hezonja","Mario-Hezonja-18923","3500","SF/PF","36.95","226.5","20.0","100.17","17.87","10.00","16.97","1.96","8.49","0","0"
"Brad Wanamaker","Brad-Wanamaker-438951","3100","PG/SG","44.35","214","9.5","101.75","23.58","6.00","10.02","5.41","7.16","0","0"
"Tyrone Wallace","Tyrone-Wallace-35220","3200","SG/SF","44.80","216.5","13.9","108.38","19.39","10.00","14.3","2.15","7.26","0","0"
"Vince Carter","Vince-Carter-1066","3200","SF/PF","35.35","223.5","11.3","105.10","16.46","10.00","14.31","1.79","7.16","0","0"
"Furkan Korkmaz","Furkan-Korkmaz-35185","3000","SG/SF","32.49","225","9.8","108.33","18.20","11.00","12.95","1.7","6.48","0","0"
"Khyri Thomas","Khyri-Thomas-408839","3000","SG","35.97","221.5","11.0","100.30","12.36","10.00","8.83","4.92","6.31","0","0"
"Trey Lyles","Trey-Lyles-18942","3600","SF/PF","49.26","216.5","17.8","99.62","23.51","8.00","14.19","2.08","7.5","0","0"
"Georges Niang","Georges-Niang-35193","3100","SF/PF","48.92","216.5","9.0","98.88","17.35","7.00","12.53","1.19","6.27","0","0"
"Ivan Rabb","Ivan-Rabb-37854","3100","PF/C","53.20","208.5","9.8","103.30","26.51","6.00","9.88","1.36","5.16","0","0"
"Patrick McCaw","Patrick-McCaw-35222","3100","SG/SF","36.54","217","9.7","105.50","15.16","6.00","8.78","1.1","4.39","0","0"
"Devonte' Graham","Devonte'-Graham-408968","3200","PG/SG","40.44","208.5","8.5","103.00","16.62","5.00","5.94","3.3","4.24","0","0"
"Mike Scott","Mike-Scott-13999","3100","SF/PF","48.98","216.5","7.2","108.38","19.22","5.00","7.8","0.73","3.9","0","0"
"Tim Frazier","Tim-Frazier-18743","3200","PG/SG","42.50","221.5","12.0","104.88","15.99","5.00","7.99","1.05","4.03","0","0"
"Jerome Robinson","Jerome-Robinson-409263","3000","SG","49.08","216.5","7.3","108.38","17.56","5.00","4.28","2.42","3.06","0","0"
"Sindarius Thornwell","Sindarius-Thornwell-37881","3000","SG/SF","37.83","216.5","5.8","108.38","12.04","5.00","5.92","0.57","2.96","0","0"
"Quincy Pondexter","Quincy-Pondexter-1237","3000","SF","35.18","225","5.0","99.70","8.56","4.00","4.38","0.59","2.44","0","0"
