"nameCol","idCol","salaryCol","positionCol","dvpCol","ouCol","mpgCol","paceCol","usgCol","pminCol","ceilCol","floorCol","pointsCol","predictCol","actualCol"
"Jonas Jerebko","Jonas-Jerebko-1106","3400","PF/C","55.69","232","15.7","103.10","15.20","22.00","35.22","14.82","19.73","0","0"
"Avery Bradley","Avery-Bradley-941","3400","SG","38.37","231","27.5","108.38","15.15","30.00","26.81","11.35","18.36","0","0"
"Kevon Looney","Kevon-Looney-18945","4000","PF/C","56.90","232","22.7","103.10","13.18","24.00","29.97","13.39","20.99","0","0"
"Damyean Dotson","Damyean-Dotson-37795","3400","SG/SF","36.48","232","21.0","100.17","13.42","22.00","30.51","14.9","17.7","0","0"
"Patrick Beverley","Patrick-Beverley-14108","4000","PG/SG","42.95","231","26.3","108.38","11.45","25.00","37.8","11.46","20.84","0","0"
"Emmanuel Mudiay","Emmanuel-Mudiay-18936","5800","PG","38.27","232","30.2","100.17","26.90","31.00","40.73","18.78","30.1","0","0"
"Enes Kanter","Enes-Kanter-13299","5500","C","54.40","232","21.8","100.17","23.47","24.00","39.96","20.8","28.42","0","0"
"Marvin Williams","Marvin-Williams-1318","5300","SF/PF","53.29","231","32.4","103.00","16.38","33.00","46.08","23.11","27.22","0","0"
"Montrezl Harrell","Montrezl-Harrell-18930","6200","PF/C","58.70","231","23.0","108.38","26.30","26.00","47.23","24.45","31.26","0","0"
"Kemba Walker","Kemba-Walker-13335","8800","PG","53.45","231","33.3","103.00","31.81","35.00","58.36","21.38","43.55","0","0"
"Danilo Gallinari","Danilo-Gallinari-1329","7300","SF/PF","49.94","231","31.2","108.38","23.53","34.00","49.53","19.87","35.61","0","0"
"Nicolas Batum","Nicolas-Batum-1315","4700","SG/SF","34.15","231","32.7","103.00","10.87","32.00","31.84","16.43","22.92","0","0"
"Willy Hernangomez","Willy-Hernangomez-18901","4400","C","57.99","231","15.0","103.00","27.66","18.00","38.59","20.65","21.31","0","0"
"Kevin Durant","Kevin-Durant-1348","10100","SF/PF","55.69","232","36.5","103.10","28.70","33.00","64.13","22.77","48.66","0","0"
"Tobias Harris","Tobias-Harris-13332","7600","SF/PF","49.94","231","31.8","108.38","23.07","34.00","48.42","19.49","36.43","0","0"
"Andre Iguodala","Andre-Iguodala-1334","3800","SG/SF","40.06","232","24.2","103.10","13.37","23.00","27.59","10.67","18.15","0","0"
"Tony Parker","Tony-Parker-982","3500","PG","44.48","231","17.3","103.00","25.99","18.00","27.92","16.62","16.62","0","0"
"Mario Hezonja","Mario-Hezonja-18923","3200","SF/PF","41.70","232","16.0","100.17","20.05","18.00","28.39","13.45","15.18","0","0"
"Draymond Green","Draymond-Green-13976","7200","PF/C","59.72","232","32.8","103.10","15.92","33.00","41.03","14.61","33.74","0","0"
"Stephen Curry","Stephen-Curry-1079","10000","PG/SG","51.90","232","37.0","103.10","31.99","33.00","64.82","24.23","46.5","0","0"
"Shai Gilgeous-Alexander","Shai-Gilgeous-Alexander-408990","4400","PG/SG","42.95","231","20.7","108.38","18.61","24.00","22.43","8.27","20.32","0","0"
"Jeremy Lamb","Jeremy-Lamb-13955","6100","SG/SF","49.26","231","32.0","103.00","20.00","30.00","37.45","16.51","27.93","0","0"
"Noah Vonleh","Noah-Vonleh-18597","6100","PF/C","48.98","232","28.2","100.17","16.41","30.00","38.91","18.6","27.81","0","0"
"Tim Hardaway Jr.","Tim-Hardaway-Jr.-16879","6600","SG/SF","44.08","232","32.0","100.17","23.67","31.00","45.84","20.03","29.63","0","0"
"Klay Thompson","Klay-Thompson-13315","6800","SG","40.06","232","35.2","103.10","21.13","33.00","38.95","17.48","30.29","0","0"
"Trey Burke","Trey-Burke-17029","3400","PG/SG","51.05","232","13.2","100.17","30.97","16.00","25.92","13.04","15","0","0"
"Bismack Biyombo","Bismack-Biyombo-13312","4500","C","57.99","231","17.8","103.00","17.50","22.00","29.04","13.72","19.85","0","0"
"Kevin Knox","Kevin-Knox-408820","5700","SF/PF","44.08","232","35.3","100.17","18.93","33.00","29.37","9.23","25.08","0","0"
"Lou Williams","Lou-Williams-1044","6800","PG/SG","49.71","231","26.7","108.38","33.76","26.00","44.76","18.52","29.92","0","0"
"Quinn Cook","Quinn-Cook-31771","3100","PG","51.90","232","8.0","103.10","24.14","16.00","25.39","13.5","13.5","0","0"
"Marcin Gortat","Marcin-Gortat-1479","4600","C","52.65","231","16.6","108.38","18.92","20.00","25.91","10.78","18.08","0","0"
"Malik Monk","Malik-Monk-37827","3500","PG/SG","53.45","231","17.1","103.00","23.64","15.00","20.63","11.0","13.35","0","0"
"Luke Kornet","Luke-Kornet-37800","4600","PF/C","48.77","232","23.2","100.17","19.00","22.00","26.7","11.01","17.29","0","0"
"Michael Kidd-Gilchrist","Michael-Kidd-Gilchrist-13896","3300","SF/PF","34.15","231","16.7","103.00","15.55","17.00","19.56","10.11","11.97","0","0"
"Alfonzo McKinnie","Alfonzo-McKinnie-37808","3000","SF/PF","35.72","232","8.7","103.10","18.87","15.00","20.43","10.64","10.64","0","0"
"Miles Bridges","Miles-Bridges-409262","3300","SF/PF","53.29","231","14.2","103.00","14.09","14.00","11.14","2.04","11.02","0","0"
"Tyrone Wallace","Tyrone-Wallace-35220","3100","PG/SG","49.71","231","11.5","108.38","16.74","11.00","14.36","3.56","8.9","0","0"
"Allonzo Trier","Allonzo-Trier-554950","3200","PG/SG","44.08","232","16.0","100.17","22.10","13.00","9.57","2.21","9.04","0","0"
"Mike Scott","Mike-Scott-13999","3000","SF/PF","49.94","231","11.5","108.38","16.09","10.00","16.53","4.28","8.27","0","0"
"Jordan Bell","Jordan-Bell-37877","3200","PF/C","56.90","232","8.2","103.10","11.69","8.00","12.45","6.05","7.21","0","0"
"Devonte' Graham","Devonte'-Graham-408968","4000","PG/SG","44.48","231","21.5","103.00","18.81","6.00","4.56","0.83","4.51","0","0"
