"nameCol","idCol","salaryCol","positionCol","dvpCol","ouCol","mpgCol","paceCol","usgCol","pminCol","ceilCol","floorCol","pointsCol","predictCol","actualCol"
"Pau Gasol","Pau-Gasol-1502","3100","C","54.02","227","11.8","99.70","11.62","16.00","37.97","8.59","21.27","0","0"
"Ante Zizic","Ante-Zizic-35180","3700","C","52.06","215.5","18.4","103.60","15.95","28.00","48.18","2.41","24.1","0","0"
"Joe Ingles","Joe-Ingles-18627","5800","SG/SF","38.10","215.5","30.5","98.88","20.57","33.00","54.81","14.17","34.3","0","0"
"Royce O'Neale","Royce-O'Neale-37872","4300","SF","39.08","215.5","22.9","98.88","9.94","34.00","37.68","9.38","24","0","0"
"Andrew Wiggins","Andrew-Wiggins-18620","6000","SG/SF","47.94","227","34.8","100.67","29.32","36.00","50.61","13.23","32.11","0","0"
"Karl-Anthony Towns","Karl-Anthony-Towns-18937","9700","C","50.16","227","30.8","100.67","29.08","36.00","80.42","27.04","51.22","0","0"
"Jeff Teague","Jeff-Teague-1005","5900","PG","52.98","227","26.2","100.67","23.61","30.00","51.63","15.93","30.75","0","0"
"Derrick White","Derrick-White-37858","5600","PG/SG","38.43","227","30.6","99.70","18.13","32.00","51.99","9.23","29.01","0","0"
"LaMarcus Aldridge","LaMarcus-Aldridge-1349","7600","PF/C","54.02","227","32.1","99.70","26.66","34.00","57.47","20.66","38.99","0","0"
"Marco Belinelli","Marco-Belinelli-1033","3800","SG/SF","39.62","227","22.5","99.70","20.64","24.00","32.09","5.64","19.31","0","0"
"Rudy Gobert","Rudy-Gobert-16935","8800","C","49.61","215.5","33.6","98.88","16.06","35.00","71.34","23.6","44.2","0","0"
"Cedi Osman","Cedi-Osman-18912","4400","SF/PF","30.35","215.5","30.1","103.60","18.47","33.00","33.44","10.65","22","0","0"
"Derrick Favors","Derrick-Favors-1266","5300","PF/C","51.54","215.5","24.6","98.88","18.42","25.00","44.29","11.64","26.46","0","0"
"Jordan Clarkson","Jordan-Clarkson-18631","5300","PG/SG","40.85","215.5","26.4","103.60","27.49","28.00","52.24","8.97","26.37","0","0"
"Bryn Forbes","Bryn-Forbes-36052","4400","PG/SG","51.96","227","33.3","99.70","15.61","32.00","35.25","5.92","21.51","0","0"
"Alec Burks","Alec-Burks-13353","4800","PG/SG","40.85","215.5","28.7","103.60","17.30","28.00","38.1","9.54","23.39","0","0"
"Collin Sexton","Collin-Sexton-408896","4500","PG","48.88","215.5","29.0","103.60","23.34","30.00","30.37","17.55","21.69","0","0"
"Jae Crowder","Jae-Crowder-13942","4700","SF/PF","39.08","215.5","27.6","98.88","20.16","28.00","45.3","4.92","22.66","0","0"
"Rudy Gay","Rudy-Gay-1341","5200","SF/PF","51.75","227","23.0","99.70","25.10","26.00","37.19","10.09","25.03","0","0"
"Rodney Hood","Rodney-Hood-18629","4300","SG/SF","40.85","215.5","22.8","103.60","24.96","26.00","31.4","8.44","19.95","0","0"
"Gorgui Dieng","Gorgui-Dieng-16939","3200","PF/C","50.48","227","15.8","100.67","11.35","15.00","26.73","3.64","14.79","0","0"
"Donovan Mitchell","Donovan-Mitchell-37875","8900","PG/SG","57.22","215.5","35.6","98.88","32.17","36.00","66.74","16.94","40.62","0","0"
"Derrick Rose","Derrick-Rose-1086","5900","PG/SG","52.98","227","24.0","100.67","29.78","28.00","53.61","6.71","26.82","0","0"
"Jakob Poeltl","Jakob-Poeltl-35187","3400","C","50.07","227","16.0","99.70","11.40","16.00","30.8","3.21","15.41","0","0"
"Davis Bertans","Davis-Bertans-36051","4100","SF/PF","54.02","227","24.4","99.70","10.96","24.00","36.74","4.83","18.38","0","0"
"Dario Saric","Dario-Saric-36004","4200","PF","49.99","227","20.8","100.67","19.07","22.00","32.3","5.48","18.65","0","0"
"Kyle Korver","Kyle-Korver-1269","4300","SG/SF","38.10","215.5","23.0","98.88","19.69","25.00","38.12","5.02","19.07","0","0"
"Josh Okogie","Josh-Okogie-409174","4500","SG/SF","47.94","227","31.2","100.67","15.64","30.00","27.82","11.54","19.87","0","0"
"Cameron Payne","Cameron-Payne-18941","3500","PG/SG","42.71","215.5","17.8","103.60","20.25","20.00","25.68","3.85","14.99","0","0"
"Taj Gibson","Taj-Gibson-1277","4600","PF/C","50.48","227","24.2","100.67","17.00","25.00","32.13","7.16","19.1","0","0"
"Matthew Dellavedova","Matthew-Dellavedova-16839","3400","PG/SG","42.71","215.5","18.4","103.60","20.53","18.00","27.79","2.89","13.9","0","0"
"Grayson Allen","Grayson-Allen-409227","3300","PG/SG","38.10","215.5","15.7","98.88","21.25","16.00","18.69","10.09","13.35","0","0"
"Jaron Blossomgame","Jaron-Blossomgame-570197","3300","SF/PF","30.35","215.5","11.5","103.60","13.33","21.00","18.16","10.1","12.97","0","0"
"Patty Mills","Patty-Mills-13977","3900","PG/SG","38.43","227","24.1","99.70","20.59","22.00","30.32","4.22","15.17","0","0"
"Dante Cunningham","Dante-Cunningham-1259","3000","SF/PF","51.75","227","7.2","99.70","16.08","14.00","20.71","2.35","10.36","0","0"
"Anthony Tolliver","Anthony-Tolliver-1263","3200","SF/PF","49.99","227","17.3","100.67","11.40","10.00","13.77","2.9","7.61","0","0"
"Georges Niang","Georges-Niang-35193","3000","SF/PF","48.90","215.5","7.3","98.88","16.35","8.00","14.15","1.35","7.08","0","0"
"Channing Frye","Channing-Frye-1484","3100","PF/C","52.81","215.5","13.0","103.60","16.21","8.00","12.51","1.5","6.26","0","0"
"Jerryd Bayless","Jerryd-Bayless-1021","3000","PG/SG","47.94","227","8.0","100.67","16.65","8.00","9.44","1.24","4.72","0","0"
"Luol Deng","Luol-Deng-1328","3000","SF/PF","38.21","227","9.0","100.67","25.36","2.00","2.78","0.46","1.39","0","0"
