"nameCol","idCol","salaryCol","positionCol","dvpCol","ouCol","mpgCol","paceCol","usgCol","pminCol","ceilCol","floorCol","pointsCol","predictCol","actualCol"
"Fred VanVleet","Fred-VanVleet-36011","4200","PG/SG","43.52","227","28.3","105.50","19.93","32.00","66.55","9.34","33.85","0","0"
"Shai Gilgeous-Alexander","Shai-Gilgeous-Alexander-408990","4100","PG/SG","40.74","227","27.2","108.38","20.35","29.00","34.99","17.37","24.99","0","0"
"Justin Holiday","Justin-Holiday-14559","4400","SG/SF","36.12","201.5","33.8","103.30","14.33","34.00","46.59","15.08","26.41","0","0"
"Steven Adams","Steven-Adams-16848","6100","C","51.45","228.5","31.9","102.62","18.57","34.00","62.27","16.55","36.37","0","0"
"Pascal Siakam","Pascal-Siakam-35186","6400","PF/C","59.80","227","35.2","105.50","21.42","35.00","57.68","17.06","37.82","0","0"
"Delon Wright","Delon-Wright-18907","3800","PG/SG","43.52","227","17.0","105.50","19.97","24.00","35.02","9.15","22.32","0","0"
"Dennis Smith Jr.","Dennis-Smith-Jr.-37847","5100","PG","49.06","201.5","33.1","100.17","26.34","30.00","41.86","9.96","29.9","0","0"
"Damyean Dotson","Damyean-Dotson-37795","4000","SG/SF","37.28","201.5","24.2","100.17","14.74","27.00","40.97","10.78","23.28","0","0"
"Marcus Smart","Marcus-Smart-18567","4800","PG/SG","48.28","228.5","29.8","101.75","16.02","29.00","45.85","11.86","27.64","0","0"
"Jayson Tatum","Jayson-Tatum-37782","5700","SF/PF","48.79","228.5","29.4","101.75","22.15","31.00","48.54","14.99","32.73","0","0"
"Danny Green","Danny-Green-940","4200","SG/SF","34.77","227","24.9","105.50","14.43","30.00","37.67","8.29","23.68","0","0"
"DeAndre Jordan","DeAndre-Jordan-1486","5400","C","47.12","201.5","30.6","100.17","14.02","28.00","60.69","5.07","30.36","0","0"
"Dennis Schroder","Dennis-Schroder-18595","4700","PG/SG","49.28","228.5","26.5","102.62","22.95","25.00","42.75","6.53","26.13","0","0"
"Noah Vonleh","Noah-Vonleh-18597","5700","PF/C","50.93","201.5","28.7","100.17","15.84","30.00","54.05","13.99","31.1","0","0"
"Norman Powell","Norman-Powell-18908","3800","SG/SF","33.30","227","20.0","105.50","19.03","25.00","41.3","5.39","20.66","0","0"
"Jaren Jackson","Jaren-Jackson-409099","5200","PF/C","58.79","201.5","27.1","103.30","20.39","27.00","39.31","19.52","28.08","0","0"
"Serge Ibaka","Serge-Ibaka-1294","6000","PF/C","50.01","227","33.6","105.50","20.22","29.00","52.56","13.69","32.13","0","0"
"Gordon Hayward","Gordon-Hayward-1239","4900","SF/PF","48.79","228.5","21.9","101.75","20.23","24.00","52.01","8.43","26.02","0","0"
"Marcus Morris","Marcus-Morris-13316","5100","SF/PF","39.43","228.5","28.7","101.75","20.38","28.00","45.59","9.87","26.82","0","0"
"Kawhi Leonard","Kawhi-Leonard-13310","9500","SF/PF","47.71","227","36.2","105.50","30.01","36.00","74.79","19.95","49.76","0","0"
"Lou Williams","Lou-Williams-1044","7000","PG/SG","49.83","227","29.8","108.38","35.60","32.00","72.02","8.0","36.03","0","0"
"Al Horford","Al-Horford-1499","6700","PF/C","52.59","228.5","29.5","101.75","21.37","31.00","53.34","16.7","34.15","0","0"
"Russell Westbrook","Russell-Westbrook-1083","11000","PG","49.28","228.5","34.7","102.62","31.29","35.00","77.6","28.16","55.43","0","0"
"Daniel Theis","Daniel-Theis-37784","3300","PF/C","51.74","228.5","11.2","101.75","8.47","17.00","31.52","4.28","16.59","0","0"
"Terrance Ferguson","Terrance-Ferguson-37871","3700","SG/SF","35.77","228.5","28.3","102.62","12.29","32.00","37.22","5.51","18.62","0","0"
"Kyrie Irving","Kyrie-Irving-13334","9200","PG","48.28","228.5","36.6","101.75","32.81","34.00","63.84","22.94","45.6","0","0"
"Montrezl Harrell","Montrezl-Harrell-18930","6900","PF/C","52.98","227","29.5","108.38","20.28","30.00","56.11","4.03","34.15","0","0"
"Avery Bradley","Avery-Bradley-941","3900","SG/SF","35.66","227","34.6","108.38","15.70","30.00","36.25","5.78","19.08","0","0"
"Kevin Knox","Kevin-Knox-408820","5500","SF/PF","42.30","201.5","29.8","100.17","21.90","32.00","36.85","15.29","26.32","0","0"
"Paul George","Paul-George-1245","10000","SF/PF","43.07","228.5","36.4","102.62","30.66","36.00","75.55","23.08","47.88","0","0"
"Wesley Matthews","Wesley-Matthews-1339","4000","SG/SF","38.24","201.5","28.1","100.17","15.39","22.00","37.0","4.78","19.11","0","0"
"OG Anunoby","OG-Anunoby-37807","3300","SF/PF","34.77","227","9.3","105.50","13.96","22.00","28.69","3.12","15.62","0","0"
"Marcin Gortat","Marcin-Gortat-1479","3300","C","51.75","227","12.7","108.38","16.05","15.00","27.55","6.88","15.19","0","0"
"Jerami Grant","Jerami-Grant-18576","5600","PF","43.07","228.5","34.4","102.62","16.08","35.00","50.93","3.36","25.48","0","0"
"Mike Conley","Mike-Conley-1062","7700","PG","43.46","201.5","36.3","103.30","25.84","32.00","61.52","13.07","34.66","0","0"
"Tobias Harris","Tobias-Harris-13332","8200","SF/PF","47.87","227","37.0","108.38","22.49","35.00","59.01","16.8","36.93","0","0"
"Marc Gasol","Marc-Gasol-1493","7800","C","58.79","201.5","33.8","103.30","24.13","31.00","56.78","18.35","34.88","0","0"
"Bruno Caboclo","Bruno-Caboclo-18581","3600","SF/PF","36.12","201.5","22.9","103.30","13.11","24.00","29.83","5.16","15.96","0","0"
"Patrick Beverley","Patrick-Beverley-14108","5400","PG/SG","40.74","227","36.2","108.38","12.43","31.00","41.7","8.8","23.48","0","0"
"Kadeem Allen","Kadeem-Allen-37787","3700","PG/SG","41.58","201.5","23.7","100.17","14.71","24.00","26.76","6.75","16.07","0","0"
"Luke Kornet","Luke-Kornet-37800","4100","PF/C","50.93","201.5","11.6","100.17","24.07","20.00","35.42","7.81","17.72","0","0"
"Mike Scott","Mike-Scott-13999","3000","SF/PF","47.87","227","14.5","108.38","17.62","16.00","25.17","2.37","12.59","0","0"
"Jerome Robinson","Jerome-Robinson-409263","3200","SG","47.36","227","12.8","108.38","11.92","16.00","18.65","10.55","13.32","0","0"
"Jaylen Brown","Jaylen-Brown-35181","4800","SG/SF","39.43","228.5","25.0","101.75","23.33","23.00","39.58","4.49","19.8","0","0"
"Allonzo Trier","Allonzo-Trier-554950","5300","PG/SG","42.30","201.5","24.5","100.17","22.53","25.00","28.76","17.23","20.54","0","0"
"Jevon Carter","Jevon-Carter-409100","3500","PG/SG","43.46","201.5","16.9","103.30","13.91","22.00","18.98","9.42","13.56","0","0"
"Ivan Rabb","Ivan-Rabb-37854","3700","PF/C","55.64","201.5","12.6","103.30","16.35","17.00","27.29","3.78","13.99","0","0"
"Shelvin Mack","Shelvin-Mack-13354","4500","PG/SG","43.46","201.5","20.3","103.30","20.52","18.00","26.83","2.51","15.04","0","0"
"JaMychal Green","JaMychal-Green-18729","4600","SF/PF","58.79","201.5","17.4","103.30","19.83","15.00","30.1","3.18","15.06","0","0"
"Terry Rozier","Terry-Rozier-18894","5500","PG/SG","46.49","228.5","25.5","101.75","19.51","18.00","31.33","5.58","17.88","0","0"
"Nerlens Noel","Nerlens-Noel-18575","3900","C","51.45","228.5","19.3","102.62","13.82","12.00","24.66","2.4","12.38","0","0"
"Patrick Patterson","Patrick-Patterson-1260","3400","PF/C","50.71","228.5","14.4","102.62","9.58","13.00","19.17","1.98","9.89","0","0"
"Greg Monroe","Greg-Monroe-1487","3200","C","58.92","227","6.1","105.50","16.04","7.00","14.36","2.69","8.9","0","0"
"Alex Abrines","Alex-Abrines-36054","3000","SG/SF","35.77","228.5","7.6","102.62","10.58","10.00","14.13","2.08","7.07","0","0"
"Boban Marjanovic","Boban-Marjanovic-31807","3000","C","51.75","227","14.9","108.38","20.29","6.00","12.53","1.07","6.67","0","0"
"Joakim Noah","Joakim-Noah-1404","3500","C","55.64","201.5","19.4","103.30","15.70","10.00","14.61","2.52","7.31","0","0"
"Hamidou Diallo","Hamidou-Diallo-408800","3100","SG/SF","35.77","228.5","12.5","102.62","14.44","8.00","8.85","5.01","6.32","0","0"
"Julian Washburn","Julian-Washburn-760293","3000","SG/SF","40.69","201.5","9.9","103.30","6.07","10.00","8.5","4.81","6.07","0","0"
"Semi Ojeleye","Semi-Ojeleye-37786","3000","SF/PF","39.43","228.5","4.5","101.75","13.97","5.00","6.78","1.06","3.39","0","0"
"Enes Kanter","Enes-Kanter-13299","4900","C","47.12","201.5","14.0","100.17","27.99","1.00","2.48","0.44","1.24","0","0"
"Mario Hezonja","Mario-Hezonja-18923","4300","SF/PF","38.24","201.5","24.1","100.17","19.29","1.00","1.78","0.21","0.89","0","0"
